%!PS-Adobe-2.0
%%Title: out.ps
%%Creator: gnuplot 4.6 patchlevel 6
%%CreationDate: Thu May 28 15:25:30 2015
%%DocumentFonts: (atend)
%%BoundingBox: 50 50 554 770
%%Orientation: Landscape
%%Pages: (atend)
%%EndComments
%%BeginProlog
/gnudict 256 dict def
gnudict begin
%
% The following true/false flags may be edited by hand if desired.
% The unit line width and grayscale image gamma correction may also be changed.
%
/Color false def
/Blacktext false def
/Solid false def
/Dashlength 1 def
/Landscape true def
/Level1 false def
/Rounded false def
/ClipToBoundingBox false def
/SuppressPDFMark false def
/TransparentPatterns false def
/gnulinewidth 5.000 def
/userlinewidth gnulinewidth def
/Gamma 1.0 def
/BackgroundColor {-1.000 -1.000 -1.000} def
%
/vshift -46 def
/dl1 {
  10.0 Dashlength mul mul
  Rounded { currentlinewidth 0.75 mul sub dup 0 le { pop 0.01 } if } if
} def
/dl2 {
  10.0 Dashlength mul mul
  Rounded { currentlinewidth 0.75 mul add } if
} def
/hpt_ 31.5 def
/vpt_ 31.5 def
/hpt hpt_ def
/vpt vpt_ def
/doclip {
  ClipToBoundingBox {
    newpath 50 50 moveto 554 50 lineto 554 770 lineto 50 770 lineto closepath
    clip
  } if
} def
%
% Gnuplot Prolog Version 4.6 (September 2012)
%
%/SuppressPDFMark true def
%
/M {moveto} bind def
/L {lineto} bind def
/R {rmoveto} bind def
/V {rlineto} bind def
/N {newpath moveto} bind def
/Z {closepath} bind def
/C {setrgbcolor} bind def
/f {rlineto fill} bind def
/g {setgray} bind def
/Gshow {show} def   % May be redefined later in the file to support UTF-8
/vpt2 vpt 2 mul def
/hpt2 hpt 2 mul def
/Lshow {currentpoint stroke M 0 vshift R 
	Blacktext {gsave 0 setgray show grestore} {show} ifelse} def
/Rshow {currentpoint stroke M dup stringwidth pop neg vshift R
	Blacktext {gsave 0 setgray show grestore} {show} ifelse} def
/Cshow {currentpoint stroke M dup stringwidth pop -2 div vshift R 
	Blacktext {gsave 0 setgray show grestore} {show} ifelse} def
/UP {dup vpt_ mul /vpt exch def hpt_ mul /hpt exch def
  /hpt2 hpt 2 mul def /vpt2 vpt 2 mul def} def
/DL {Color {setrgbcolor Solid {pop []} if 0 setdash}
 {pop pop pop 0 setgray Solid {pop []} if 0 setdash} ifelse} def
/BL {stroke userlinewidth 2 mul setlinewidth
	Rounded {1 setlinejoin 1 setlinecap} if} def
/AL {stroke userlinewidth 2 div setlinewidth
	Rounded {1 setlinejoin 1 setlinecap} if} def
/UL {dup gnulinewidth mul /userlinewidth exch def
	dup 1 lt {pop 1} if 10 mul /udl exch def} def
/PL {stroke userlinewidth setlinewidth
	Rounded {1 setlinejoin 1 setlinecap} if} def
3.8 setmiterlimit
% Default Line colors
/LCw {1 1 1} def
/LCb {0 0 0} def
/LCa {0 0 0} def
/LC0 {1 0 0} def
/LC1 {0 1 0} def
/LC2 {0 0 1} def
/LC3 {1 0 1} def
/LC4 {0 1 1} def
/LC5 {1 1 0} def
/LC6 {0 0 0} def
/LC7 {1 0.3 0} def
/LC8 {0.5 0.5 0.5} def
% Default Line Types
/LTw {PL [] 1 setgray} def
/LTb {BL [] LCb DL} def
/LTa {AL [1 udl mul 2 udl mul] 0 setdash LCa setrgbcolor} def
/LT0 {PL [] LC0 DL} def
/LT1 {PL [4 dl1 2 dl2] LC1 DL} def
/LT2 {PL [2 dl1 3 dl2] LC2 DL} def
/LT3 {PL [1 dl1 1.5 dl2] LC3 DL} def
/LT4 {PL [6 dl1 2 dl2 1 dl1 2 dl2] LC4 DL} def
/LT5 {PL [3 dl1 3 dl2 1 dl1 3 dl2] LC5 DL} def
/LT6 {PL [2 dl1 2 dl2 2 dl1 6 dl2] LC6 DL} def
/LT7 {PL [1 dl1 2 dl2 6 dl1 2 dl2 1 dl1 2 dl2] LC7 DL} def
/LT8 {PL [2 dl1 2 dl2 2 dl1 2 dl2 2 dl1 2 dl2 2 dl1 4 dl2] LC8 DL} def
/Pnt {stroke [] 0 setdash gsave 1 setlinecap M 0 0 V stroke grestore} def
/Dia {stroke [] 0 setdash 2 copy vpt add M
  hpt neg vpt neg V hpt vpt neg V
  hpt vpt V hpt neg vpt V closepath stroke
  Pnt} def
/Pls {stroke [] 0 setdash vpt sub M 0 vpt2 V
  currentpoint stroke M
  hpt neg vpt neg R hpt2 0 V stroke
 } def
/Box {stroke [] 0 setdash 2 copy exch hpt sub exch vpt add M
  0 vpt2 neg V hpt2 0 V 0 vpt2 V
  hpt2 neg 0 V closepath stroke
  Pnt} def
/Crs {stroke [] 0 setdash exch hpt sub exch vpt add M
  hpt2 vpt2 neg V currentpoint stroke M
  hpt2 neg 0 R hpt2 vpt2 V stroke} def
/TriU {stroke [] 0 setdash 2 copy vpt 1.12 mul add M
  hpt neg vpt -1.62 mul V
  hpt 2 mul 0 V
  hpt neg vpt 1.62 mul V closepath stroke
  Pnt} def
/Star {2 copy Pls Crs} def
/BoxF {stroke [] 0 setdash exch hpt sub exch vpt add M
  0 vpt2 neg V hpt2 0 V 0 vpt2 V
  hpt2 neg 0 V closepath fill} def
/TriUF {stroke [] 0 setdash vpt 1.12 mul add M
  hpt neg vpt -1.62 mul V
  hpt 2 mul 0 V
  hpt neg vpt 1.62 mul V closepath fill} def
/TriD {stroke [] 0 setdash 2 copy vpt 1.12 mul sub M
  hpt neg vpt 1.62 mul V
  hpt 2 mul 0 V
  hpt neg vpt -1.62 mul V closepath stroke
  Pnt} def
/TriDF {stroke [] 0 setdash vpt 1.12 mul sub M
  hpt neg vpt 1.62 mul V
  hpt 2 mul 0 V
  hpt neg vpt -1.62 mul V closepath fill} def
/DiaF {stroke [] 0 setdash vpt add M
  hpt neg vpt neg V hpt vpt neg V
  hpt vpt V hpt neg vpt V closepath fill} def
/Pent {stroke [] 0 setdash 2 copy gsave
  translate 0 hpt M 4 {72 rotate 0 hpt L} repeat
  closepath stroke grestore Pnt} def
/PentF {stroke [] 0 setdash gsave
  translate 0 hpt M 4 {72 rotate 0 hpt L} repeat
  closepath fill grestore} def
/Circle {stroke [] 0 setdash 2 copy
  hpt 0 360 arc stroke Pnt} def
/CircleF {stroke [] 0 setdash hpt 0 360 arc fill} def
/C0 {BL [] 0 setdash 2 copy moveto vpt 90 450 arc} bind def
/C1 {BL [] 0 setdash 2 copy moveto
	2 copy vpt 0 90 arc closepath fill
	vpt 0 360 arc closepath} bind def
/C2 {BL [] 0 setdash 2 copy moveto
	2 copy vpt 90 180 arc closepath fill
	vpt 0 360 arc closepath} bind def
/C3 {BL [] 0 setdash 2 copy moveto
	2 copy vpt 0 180 arc closepath fill
	vpt 0 360 arc closepath} bind def
/C4 {BL [] 0 setdash 2 copy moveto
	2 copy vpt 180 270 arc closepath fill
	vpt 0 360 arc closepath} bind def
/C5 {BL [] 0 setdash 2 copy moveto
	2 copy vpt 0 90 arc
	2 copy moveto
	2 copy vpt 180 270 arc closepath fill
	vpt 0 360 arc} bind def
/C6 {BL [] 0 setdash 2 copy moveto
	2 copy vpt 90 270 arc closepath fill
	vpt 0 360 arc closepath} bind def
/C7 {BL [] 0 setdash 2 copy moveto
	2 copy vpt 0 270 arc closepath fill
	vpt 0 360 arc closepath} bind def
/C8 {BL [] 0 setdash 2 copy moveto
	2 copy vpt 270 360 arc closepath fill
	vpt 0 360 arc closepath} bind def
/C9 {BL [] 0 setdash 2 copy moveto
	2 copy vpt 270 450 arc closepath fill
	vpt 0 360 arc closepath} bind def
/C10 {BL [] 0 setdash 2 copy 2 copy moveto vpt 270 360 arc closepath fill
	2 copy moveto
	2 copy vpt 90 180 arc closepath fill
	vpt 0 360 arc closepath} bind def
/C11 {BL [] 0 setdash 2 copy moveto
	2 copy vpt 0 180 arc closepath fill
	2 copy moveto
	2 copy vpt 270 360 arc closepath fill
	vpt 0 360 arc closepath} bind def
/C12 {BL [] 0 setdash 2 copy moveto
	2 copy vpt 180 360 arc closepath fill
	vpt 0 360 arc closepath} bind def
/C13 {BL [] 0 setdash 2 copy moveto
	2 copy vpt 0 90 arc closepath fill
	2 copy moveto
	2 copy vpt 180 360 arc closepath fill
	vpt 0 360 arc closepath} bind def
/C14 {BL [] 0 setdash 2 copy moveto
	2 copy vpt 90 360 arc closepath fill
	vpt 0 360 arc} bind def
/C15 {BL [] 0 setdash 2 copy vpt 0 360 arc closepath fill
	vpt 0 360 arc closepath} bind def
/Rec {newpath 4 2 roll moveto 1 index 0 rlineto 0 exch rlineto
	neg 0 rlineto closepath} bind def
/Square {dup Rec} bind def
/Bsquare {vpt sub exch vpt sub exch vpt2 Square} bind def
/S0 {BL [] 0 setdash 2 copy moveto 0 vpt rlineto BL Bsquare} bind def
/S1 {BL [] 0 setdash 2 copy vpt Square fill Bsquare} bind def
/S2 {BL [] 0 setdash 2 copy exch vpt sub exch vpt Square fill Bsquare} bind def
/S3 {BL [] 0 setdash 2 copy exch vpt sub exch vpt2 vpt Rec fill Bsquare} bind def
/S4 {BL [] 0 setdash 2 copy exch vpt sub exch vpt sub vpt Square fill Bsquare} bind def
/S5 {BL [] 0 setdash 2 copy 2 copy vpt Square fill
	exch vpt sub exch vpt sub vpt Square fill Bsquare} bind def
/S6 {BL [] 0 setdash 2 copy exch vpt sub exch vpt sub vpt vpt2 Rec fill Bsquare} bind def
/S7 {BL [] 0 setdash 2 copy exch vpt sub exch vpt sub vpt vpt2 Rec fill
	2 copy vpt Square fill Bsquare} bind def
/S8 {BL [] 0 setdash 2 copy vpt sub vpt Square fill Bsquare} bind def
/S9 {BL [] 0 setdash 2 copy vpt sub vpt vpt2 Rec fill Bsquare} bind def
/S10 {BL [] 0 setdash 2 copy vpt sub vpt Square fill 2 copy exch vpt sub exch vpt Square fill
	Bsquare} bind def
/S11 {BL [] 0 setdash 2 copy vpt sub vpt Square fill 2 copy exch vpt sub exch vpt2 vpt Rec fill
	Bsquare} bind def
/S12 {BL [] 0 setdash 2 copy exch vpt sub exch vpt sub vpt2 vpt Rec fill Bsquare} bind def
/S13 {BL [] 0 setdash 2 copy exch vpt sub exch vpt sub vpt2 vpt Rec fill
	2 copy vpt Square fill Bsquare} bind def
/S14 {BL [] 0 setdash 2 copy exch vpt sub exch vpt sub vpt2 vpt Rec fill
	2 copy exch vpt sub exch vpt Square fill Bsquare} bind def
/S15 {BL [] 0 setdash 2 copy Bsquare fill Bsquare} bind def
/D0 {gsave translate 45 rotate 0 0 S0 stroke grestore} bind def
/D1 {gsave translate 45 rotate 0 0 S1 stroke grestore} bind def
/D2 {gsave translate 45 rotate 0 0 S2 stroke grestore} bind def
/D3 {gsave translate 45 rotate 0 0 S3 stroke grestore} bind def
/D4 {gsave translate 45 rotate 0 0 S4 stroke grestore} bind def
/D5 {gsave translate 45 rotate 0 0 S5 stroke grestore} bind def
/D6 {gsave translate 45 rotate 0 0 S6 stroke grestore} bind def
/D7 {gsave translate 45 rotate 0 0 S7 stroke grestore} bind def
/D8 {gsave translate 45 rotate 0 0 S8 stroke grestore} bind def
/D9 {gsave translate 45 rotate 0 0 S9 stroke grestore} bind def
/D10 {gsave translate 45 rotate 0 0 S10 stroke grestore} bind def
/D11 {gsave translate 45 rotate 0 0 S11 stroke grestore} bind def
/D12 {gsave translate 45 rotate 0 0 S12 stroke grestore} bind def
/D13 {gsave translate 45 rotate 0 0 S13 stroke grestore} bind def
/D14 {gsave translate 45 rotate 0 0 S14 stroke grestore} bind def
/D15 {gsave translate 45 rotate 0 0 S15 stroke grestore} bind def
/DiaE {stroke [] 0 setdash vpt add M
  hpt neg vpt neg V hpt vpt neg V
  hpt vpt V hpt neg vpt V closepath stroke} def
/BoxE {stroke [] 0 setdash exch hpt sub exch vpt add M
  0 vpt2 neg V hpt2 0 V 0 vpt2 V
  hpt2 neg 0 V closepath stroke} def
/TriUE {stroke [] 0 setdash vpt 1.12 mul add M
  hpt neg vpt -1.62 mul V
  hpt 2 mul 0 V
  hpt neg vpt 1.62 mul V closepath stroke} def
/TriDE {stroke [] 0 setdash vpt 1.12 mul sub M
  hpt neg vpt 1.62 mul V
  hpt 2 mul 0 V
  hpt neg vpt -1.62 mul V closepath stroke} def
/PentE {stroke [] 0 setdash gsave
  translate 0 hpt M 4 {72 rotate 0 hpt L} repeat
  closepath stroke grestore} def
/CircE {stroke [] 0 setdash 
  hpt 0 360 arc stroke} def
/Opaque {gsave closepath 1 setgray fill grestore 0 setgray closepath} def
/DiaW {stroke [] 0 setdash vpt add M
  hpt neg vpt neg V hpt vpt neg V
  hpt vpt V hpt neg vpt V Opaque stroke} def
/BoxW {stroke [] 0 setdash exch hpt sub exch vpt add M
  0 vpt2 neg V hpt2 0 V 0 vpt2 V
  hpt2 neg 0 V Opaque stroke} def
/TriUW {stroke [] 0 setdash vpt 1.12 mul add M
  hpt neg vpt -1.62 mul V
  hpt 2 mul 0 V
  hpt neg vpt 1.62 mul V Opaque stroke} def
/TriDW {stroke [] 0 setdash vpt 1.12 mul sub M
  hpt neg vpt 1.62 mul V
  hpt 2 mul 0 V
  hpt neg vpt -1.62 mul V Opaque stroke} def
/PentW {stroke [] 0 setdash gsave
  translate 0 hpt M 4 {72 rotate 0 hpt L} repeat
  Opaque stroke grestore} def
/CircW {stroke [] 0 setdash 
  hpt 0 360 arc Opaque stroke} def
/BoxFill {gsave Rec 1 setgray fill grestore} def
/Density {
  /Fillden exch def
  currentrgbcolor
  /ColB exch def /ColG exch def /ColR exch def
  /ColR ColR Fillden mul Fillden sub 1 add def
  /ColG ColG Fillden mul Fillden sub 1 add def
  /ColB ColB Fillden mul Fillden sub 1 add def
  ColR ColG ColB setrgbcolor} def
/BoxColFill {gsave Rec PolyFill} def
/PolyFill {gsave Density fill grestore grestore} def
/h {rlineto rlineto rlineto gsave closepath fill grestore} bind def
%
% PostScript Level 1 Pattern Fill routine for rectangles
% Usage: x y w h s a XX PatternFill
%	x,y = lower left corner of box to be filled
%	w,h = width and height of box
%	  a = angle in degrees between lines and x-axis
%	 XX = 0/1 for no/yes cross-hatch
%
/PatternFill {gsave /PFa [ 9 2 roll ] def
  PFa 0 get PFa 2 get 2 div add PFa 1 get PFa 3 get 2 div add translate
  PFa 2 get -2 div PFa 3 get -2 div PFa 2 get PFa 3 get Rec
  TransparentPatterns {} {gsave 1 setgray fill grestore} ifelse
  clip
  currentlinewidth 0.5 mul setlinewidth
  /PFs PFa 2 get dup mul PFa 3 get dup mul add sqrt def
  0 0 M PFa 5 get rotate PFs -2 div dup translate
  0 1 PFs PFa 4 get div 1 add floor cvi
	{PFa 4 get mul 0 M 0 PFs V} for
  0 PFa 6 get ne {
	0 1 PFs PFa 4 get div 1 add floor cvi
	{PFa 4 get mul 0 2 1 roll M PFs 0 V} for
 } if
  stroke grestore} def
%
/languagelevel where
 {pop languagelevel} {1} ifelse
 2 lt
	{/InterpretLevel1 true def}
	{/InterpretLevel1 Level1 def}
 ifelse
%
% PostScript level 2 pattern fill definitions
%
/Level2PatternFill {
/Tile8x8 {/PaintType 2 /PatternType 1 /TilingType 1 /BBox [0 0 8 8] /XStep 8 /YStep 8}
	bind def
/KeepColor {currentrgbcolor [/Pattern /DeviceRGB] setcolorspace} bind def
<< Tile8x8
 /PaintProc {0.5 setlinewidth pop 0 0 M 8 8 L 0 8 M 8 0 L stroke} 
>> matrix makepattern
/Pat1 exch def
<< Tile8x8
 /PaintProc {0.5 setlinewidth pop 0 0 M 8 8 L 0 8 M 8 0 L stroke
	0 4 M 4 8 L 8 4 L 4 0 L 0 4 L stroke}
>> matrix makepattern
/Pat2 exch def
<< Tile8x8
 /PaintProc {0.5 setlinewidth pop 0 0 M 0 8 L
	8 8 L 8 0 L 0 0 L fill}
>> matrix makepattern
/Pat3 exch def
<< Tile8x8
 /PaintProc {0.5 setlinewidth pop -4 8 M 8 -4 L
	0 12 M 12 0 L stroke}
>> matrix makepattern
/Pat4 exch def
<< Tile8x8
 /PaintProc {0.5 setlinewidth pop -4 0 M 8 12 L
	0 -4 M 12 8 L stroke}
>> matrix makepattern
/Pat5 exch def
<< Tile8x8
 /PaintProc {0.5 setlinewidth pop -2 8 M 4 -4 L
	0 12 M 8 -4 L 4 12 M 10 0 L stroke}
>> matrix makepattern
/Pat6 exch def
<< Tile8x8
 /PaintProc {0.5 setlinewidth pop -2 0 M 4 12 L
	0 -4 M 8 12 L 4 -4 M 10 8 L stroke}
>> matrix makepattern
/Pat7 exch def
<< Tile8x8
 /PaintProc {0.5 setlinewidth pop 8 -2 M -4 4 L
	12 0 M -4 8 L 12 4 M 0 10 L stroke}
>> matrix makepattern
/Pat8 exch def
<< Tile8x8
 /PaintProc {0.5 setlinewidth pop 0 -2 M 12 4 L
	-4 0 M 12 8 L -4 4 M 8 10 L stroke}
>> matrix makepattern
/Pat9 exch def
/Pattern1 {PatternBgnd KeepColor Pat1 setpattern} bind def
/Pattern2 {PatternBgnd KeepColor Pat2 setpattern} bind def
/Pattern3 {PatternBgnd KeepColor Pat3 setpattern} bind def
/Pattern4 {PatternBgnd KeepColor Landscape {Pat5} {Pat4} ifelse setpattern} bind def
/Pattern5 {PatternBgnd KeepColor Landscape {Pat4} {Pat5} ifelse setpattern} bind def
/Pattern6 {PatternBgnd KeepColor Landscape {Pat9} {Pat6} ifelse setpattern} bind def
/Pattern7 {PatternBgnd KeepColor Landscape {Pat8} {Pat7} ifelse setpattern} bind def
} def
%
%
%End of PostScript Level 2 code
%
/PatternBgnd {
  TransparentPatterns {} {gsave 1 setgray fill grestore} ifelse
} def
%
% Substitute for Level 2 pattern fill codes with
% grayscale if Level 2 support is not selected.
%
/Level1PatternFill {
/Pattern1 {0.250 Density} bind def
/Pattern2 {0.500 Density} bind def
/Pattern3 {0.750 Density} bind def
/Pattern4 {0.125 Density} bind def
/Pattern5 {0.375 Density} bind def
/Pattern6 {0.625 Density} bind def
/Pattern7 {0.875 Density} bind def
} def
%
% Now test for support of Level 2 code
%
Level1 {Level1PatternFill} {Level2PatternFill} ifelse
%
/Symbol-Oblique /Symbol findfont [1 0 .167 1 0 0] makefont
dup length dict begin {1 index /FID eq {pop pop} {def} ifelse} forall
currentdict end definefont pop
Level1 SuppressPDFMark or 
{} {
/SDict 10 dict def
systemdict /pdfmark known not {
  userdict /pdfmark systemdict /cleartomark get put
} if
SDict begin [
  /Title (out.ps)
  /Subject (gnuplot plot)
  /Creator (gnuplot 4.6 patchlevel 6)
  /Author (yani)
%  /Producer (gnuplot)
%  /Keywords ()
  /CreationDate (Thu May 28 15:25:30 2015)
  /DOCINFO pdfmark
end
} ifelse
end
%%EndProlog
%%Page: 1 1
gnudict begin
gsave
doclip
50 50 translate
0.100 0.100 scale
90 rotate
0 -5040 translate
0 setgray
newpath
(Helvetica) findfont 140 scalefont setfont
BackgroundColor 0 lt 3 1 roll 0 lt exch 0 lt or or not {gsave BackgroundColor C clippath fill grestore} if
1.000 UL
LT0
0.50 0.50 0.50 C 1.000 UL
LTa
0.50 0.50 0.50 C 966 280 M
5981 0 V
stroke
LT0
0.50 0.50 0.50 C 966 280 M
63 0 V
5918 0 R
-63 0 V
882 280 M
( 0) Rshow
1.000 UL
LT0
0.50 0.50 0.50 C 1.000 UL
LTa
0.50 0.50 0.50 C 966 311 M
5981 0 V
stroke
LT0
0.50 0.50 0.50 C 966 311 M
63 0 V
5918 0 R
-63 0 V
882 311 M
( 0.707106) Rshow
1.000 UL
LT0
0.50 0.50 0.50 C 1.000 UL
LTa
0.50 0.50 0.50 C 966 341 M
5981 0 V
stroke
LT0
0.50 0.50 0.50 C 966 341 M
63 0 V
5918 0 R
-63 0 V
882 341 M
( 1.41421) Rshow
1.000 UL
LT0
0.50 0.50 0.50 C 1.000 UL
LTa
0.50 0.50 0.50 C 966 372 M
5981 0 V
stroke
LT0
0.50 0.50 0.50 C 966 372 M
63 0 V
5918 0 R
-63 0 V
882 372 M
( 2.12132) Rshow
1.000 UL
LT0
0.50 0.50 0.50 C 1.000 UL
LTa
0.50 0.50 0.50 C 966 402 M
5981 0 V
stroke
LT0
0.50 0.50 0.50 C 966 402 M
63 0 V
5918 0 R
-63 0 V
882 402 M
( 2.82842) Rshow
1.000 UL
LT0
0.50 0.50 0.50 C 1.000 UL
LTa
0.50 0.50 0.50 C 966 433 M
5981 0 V
stroke
LT0
0.50 0.50 0.50 C 966 433 M
63 0 V
5918 0 R
-63 0 V
882 433 M
( 3.53553) Rshow
1.000 UL
LT0
0.50 0.50 0.50 C 1.000 UL
LTa
0.50 0.50 0.50 C 966 464 M
5981 0 V
stroke
LT0
0.50 0.50 0.50 C 966 464 M
63 0 V
5918 0 R
-63 0 V
882 464 M
( 4.24264) Rshow
1.000 UL
LT0
0.50 0.50 0.50 C 1.000 UL
LTa
0.50 0.50 0.50 C 966 494 M
5981 0 V
stroke
LT0
0.50 0.50 0.50 C 966 494 M
63 0 V
5918 0 R
-63 0 V
882 494 M
( 4.94974) Rshow
1.000 UL
LT0
0.50 0.50 0.50 C 1.000 UL
LTa
0.50 0.50 0.50 C 966 525 M
5981 0 V
stroke
LT0
0.50 0.50 0.50 C 966 525 M
63 0 V
5918 0 R
-63 0 V
882 525 M
( 5.65685) Rshow
1.000 UL
LT0
0.50 0.50 0.50 C 1.000 UL
LTa
0.50 0.50 0.50 C 966 555 M
5981 0 V
stroke
LT0
0.50 0.50 0.50 C 966 555 M
63 0 V
5918 0 R
-63 0 V
882 555 M
( 6.36395) Rshow
1.000 UL
LT0
0.50 0.50 0.50 C 1.000 UL
LTa
0.50 0.50 0.50 C 966 586 M
5981 0 V
stroke
LT0
0.50 0.50 0.50 C 966 586 M
63 0 V
5918 0 R
-63 0 V
882 586 M
( 7.07106) Rshow
1.000 UL
LT0
0.50 0.50 0.50 C 1.000 UL
LTa
0.50 0.50 0.50 C 966 617 M
5981 0 V
stroke
LT0
0.50 0.50 0.50 C 966 617 M
63 0 V
5918 0 R
-63 0 V
882 617 M
( 7.77817) Rshow
1.000 UL
LT0
0.50 0.50 0.50 C 1.000 UL
LTa
0.50 0.50 0.50 C 966 647 M
5981 0 V
stroke
LT0
0.50 0.50 0.50 C 966 647 M
63 0 V
5918 0 R
-63 0 V
882 647 M
( 8.48527) Rshow
1.000 UL
LT0
0.50 0.50 0.50 C 1.000 UL
LTa
0.50 0.50 0.50 C 966 678 M
5981 0 V
stroke
LT0
0.50 0.50 0.50 C 966 678 M
63 0 V
5918 0 R
-63 0 V
882 678 M
( 9.19238) Rshow
1.000 UL
LT0
0.50 0.50 0.50 C 1.000 UL
LTa
0.50 0.50 0.50 C 966 708 M
5981 0 V
stroke
LT0
0.50 0.50 0.50 C 966 708 M
63 0 V
5918 0 R
-63 0 V
882 708 M
( 9.89948) Rshow
1.000 UL
LT0
0.50 0.50 0.50 C 1.000 UL
LTa
0.50 0.50 0.50 C 966 739 M
5981 0 V
stroke
LT0
0.50 0.50 0.50 C 966 739 M
63 0 V
5918 0 R
-63 0 V
882 739 M
( 10.6066) Rshow
1.000 UL
LT0
0.50 0.50 0.50 C 1.000 UL
LTa
0.50 0.50 0.50 C 966 770 M
5981 0 V
stroke
LT0
0.50 0.50 0.50 C 966 770 M
63 0 V
5918 0 R
-63 0 V
882 770 M
( 11.3137) Rshow
1.000 UL
LT0
0.50 0.50 0.50 C 1.000 UL
LTa
0.50 0.50 0.50 C 966 800 M
5981 0 V
stroke
LT0
0.50 0.50 0.50 C 966 800 M
63 0 V
5918 0 R
-63 0 V
882 800 M
( 12.0208) Rshow
1.000 UL
LT0
0.50 0.50 0.50 C 1.000 UL
LTa
0.50 0.50 0.50 C 966 831 M
5981 0 V
stroke
LT0
0.50 0.50 0.50 C 966 831 M
63 0 V
5918 0 R
-63 0 V
882 831 M
( 12.7279) Rshow
1.000 UL
LT0
0.50 0.50 0.50 C 1.000 UL
LTa
0.50 0.50 0.50 C 966 862 M
5981 0 V
stroke
LT0
0.50 0.50 0.50 C 966 862 M
63 0 V
5918 0 R
-63 0 V
882 862 M
( 13.435) Rshow
1.000 UL
LT0
0.50 0.50 0.50 C 1.000 UL
LTa
0.50 0.50 0.50 C 966 892 M
5981 0 V
stroke
LT0
0.50 0.50 0.50 C 966 892 M
63 0 V
5918 0 R
-63 0 V
882 892 M
( 14.1421) Rshow
1.000 UL
LT0
0.50 0.50 0.50 C 1.000 UL
LTa
0.50 0.50 0.50 C 966 923 M
5981 0 V
stroke
LT0
0.50 0.50 0.50 C 966 923 M
63 0 V
5918 0 R
-63 0 V
882 923 M
( 14.8492) Rshow
1.000 UL
LT0
0.50 0.50 0.50 C 1.000 UL
LTa
0.50 0.50 0.50 C 966 953 M
5981 0 V
stroke
LT0
0.50 0.50 0.50 C 966 953 M
63 0 V
5918 0 R
-63 0 V
882 953 M
( 15.5563) Rshow
1.000 UL
LT0
0.50 0.50 0.50 C 1.000 UL
LTa
0.50 0.50 0.50 C 966 984 M
5981 0 V
stroke
LT0
0.50 0.50 0.50 C 966 984 M
63 0 V
5918 0 R
-63 0 V
882 984 M
( 16.2634) Rshow
1.000 UL
LT0
0.50 0.50 0.50 C 1.000 UL
LTa
0.50 0.50 0.50 C 966 1015 M
5981 0 V
stroke
LT0
0.50 0.50 0.50 C 966 1015 M
63 0 V
5918 0 R
-63 0 V
-6002 0 R
( 16.9705) Rshow
1.000 UL
LT0
0.50 0.50 0.50 C 1.000 UL
LTa
0.50 0.50 0.50 C 966 1045 M
5981 0 V
stroke
LT0
0.50 0.50 0.50 C 966 1045 M
63 0 V
5918 0 R
-63 0 V
-6002 0 R
( 17.6776) Rshow
1.000 UL
LT0
0.50 0.50 0.50 C 1.000 UL
LTa
0.50 0.50 0.50 C 966 1076 M
5981 0 V
stroke
LT0
0.50 0.50 0.50 C 966 1076 M
63 0 V
5918 0 R
-63 0 V
-6002 0 R
( 18.3848) Rshow
1.000 UL
LT0
0.50 0.50 0.50 C 1.000 UL
LTa
0.50 0.50 0.50 C 966 1106 M
5981 0 V
stroke
LT0
0.50 0.50 0.50 C 966 1106 M
63 0 V
5918 0 R
-63 0 V
-6002 0 R
( 19.0919) Rshow
1.000 UL
LT0
0.50 0.50 0.50 C 1.000 UL
LTa
0.50 0.50 0.50 C 966 1137 M
5981 0 V
stroke
LT0
0.50 0.50 0.50 C 966 1137 M
63 0 V
5918 0 R
-63 0 V
-6002 0 R
( 19.799) Rshow
1.000 UL
LT0
0.50 0.50 0.50 C 1.000 UL
LTa
0.50 0.50 0.50 C 966 1168 M
5981 0 V
stroke
LT0
0.50 0.50 0.50 C 966 1168 M
63 0 V
5918 0 R
-63 0 V
-6002 0 R
( 20.5061) Rshow
1.000 UL
LT0
0.50 0.50 0.50 C 1.000 UL
LTa
0.50 0.50 0.50 C 966 1198 M
5981 0 V
stroke
LT0
0.50 0.50 0.50 C 966 1198 M
63 0 V
5918 0 R
-63 0 V
-6002 0 R
( 21.2132) Rshow
1.000 UL
LT0
0.50 0.50 0.50 C 1.000 UL
LTa
0.50 0.50 0.50 C 966 1229 M
5981 0 V
stroke
LT0
0.50 0.50 0.50 C 966 1229 M
63 0 V
5918 0 R
-63 0 V
-6002 0 R
( 21.9203) Rshow
1.000 UL
LT0
0.50 0.50 0.50 C 1.000 UL
LTa
0.50 0.50 0.50 C 966 1259 M
5981 0 V
stroke
LT0
0.50 0.50 0.50 C 966 1259 M
63 0 V
5918 0 R
-63 0 V
-6002 0 R
( 22.6274) Rshow
1.000 UL
LT0
0.50 0.50 0.50 C 1.000 UL
LTa
0.50 0.50 0.50 C 966 1290 M
5981 0 V
stroke
LT0
0.50 0.50 0.50 C 966 1290 M
63 0 V
5918 0 R
-63 0 V
-6002 0 R
( 23.3345) Rshow
1.000 UL
LT0
0.50 0.50 0.50 C 1.000 UL
LTa
0.50 0.50 0.50 C 966 1321 M
5981 0 V
stroke
LT0
0.50 0.50 0.50 C 966 1321 M
63 0 V
5918 0 R
-63 0 V
-6002 0 R
( 24.0416) Rshow
1.000 UL
LT0
0.50 0.50 0.50 C 1.000 UL
LTa
0.50 0.50 0.50 C 966 1351 M
5981 0 V
stroke
LT0
0.50 0.50 0.50 C 966 1351 M
63 0 V
5918 0 R
-63 0 V
-6002 0 R
( 24.7487) Rshow
1.000 UL
LT0
0.50 0.50 0.50 C 1.000 UL
LTa
0.50 0.50 0.50 C 966 1382 M
5981 0 V
stroke
LT0
0.50 0.50 0.50 C 966 1382 M
63 0 V
5918 0 R
-63 0 V
-6002 0 R
( 25.4558) Rshow
1.000 UL
LT0
0.50 0.50 0.50 C 1.000 UL
LTa
0.50 0.50 0.50 C 966 1412 M
5981 0 V
stroke
LT0
0.50 0.50 0.50 C 966 1412 M
63 0 V
5918 0 R
-63 0 V
-6002 0 R
( 26.1629) Rshow
1.000 UL
LT0
0.50 0.50 0.50 C 1.000 UL
LTa
0.50 0.50 0.50 C 966 1443 M
5981 0 V
stroke
LT0
0.50 0.50 0.50 C 966 1443 M
63 0 V
5918 0 R
-63 0 V
-6002 0 R
( 26.87) Rshow
1.000 UL
LT0
0.50 0.50 0.50 C 1.000 UL
LTa
0.50 0.50 0.50 C 966 1474 M
5981 0 V
stroke
LT0
0.50 0.50 0.50 C 966 1474 M
63 0 V
5918 0 R
-63 0 V
-6002 0 R
( 27.5771) Rshow
1.000 UL
LT0
0.50 0.50 0.50 C 1.000 UL
LTa
0.50 0.50 0.50 C 966 1504 M
5981 0 V
stroke
LT0
0.50 0.50 0.50 C 966 1504 M
63 0 V
5918 0 R
-63 0 V
-6002 0 R
( 28.2842) Rshow
1.000 UL
LT0
0.50 0.50 0.50 C 1.000 UL
LTa
0.50 0.50 0.50 C 966 1535 M
5981 0 V
stroke
LT0
0.50 0.50 0.50 C 966 1535 M
63 0 V
5918 0 R
-63 0 V
-6002 0 R
( 28.9913) Rshow
1.000 UL
LT0
0.50 0.50 0.50 C 1.000 UL
LTa
0.50 0.50 0.50 C 966 1565 M
5981 0 V
stroke
LT0
0.50 0.50 0.50 C 966 1565 M
63 0 V
5918 0 R
-63 0 V
-6002 0 R
( 29.6985) Rshow
1.000 UL
LT0
0.50 0.50 0.50 C 1.000 UL
LTa
0.50 0.50 0.50 C 966 1596 M
5981 0 V
stroke
LT0
0.50 0.50 0.50 C 966 1596 M
63 0 V
5918 0 R
-63 0 V
-6002 0 R
( 30.4056) Rshow
1.000 UL
LT0
0.50 0.50 0.50 C 1.000 UL
LTa
0.50 0.50 0.50 C 966 1627 M
5981 0 V
stroke
LT0
0.50 0.50 0.50 C 966 1627 M
63 0 V
5918 0 R
-63 0 V
-6002 0 R
( 31.1127) Rshow
1.000 UL
LT0
0.50 0.50 0.50 C 1.000 UL
LTa
0.50 0.50 0.50 C 966 1657 M
5981 0 V
stroke
LT0
0.50 0.50 0.50 C 966 1657 M
63 0 V
5918 0 R
-63 0 V
-6002 0 R
( 31.8198) Rshow
1.000 UL
LT0
0.50 0.50 0.50 C 1.000 UL
LTa
0.50 0.50 0.50 C 966 1688 M
5981 0 V
stroke
LT0
0.50 0.50 0.50 C 966 1688 M
63 0 V
5918 0 R
-63 0 V
-6002 0 R
( 32.5269) Rshow
1.000 UL
LT0
0.50 0.50 0.50 C 1.000 UL
LTa
0.50 0.50 0.50 C 966 1719 M
5981 0 V
stroke
LT0
0.50 0.50 0.50 C 966 1719 M
63 0 V
5918 0 R
-63 0 V
-6002 0 R
( 33.234) Rshow
1.000 UL
LT0
0.50 0.50 0.50 C 1.000 UL
LTa
0.50 0.50 0.50 C 966 1749 M
5981 0 V
stroke
LT0
0.50 0.50 0.50 C 966 1749 M
63 0 V
5918 0 R
-63 0 V
-6002 0 R
( 33.9411) Rshow
1.000 UL
LT0
0.50 0.50 0.50 C 1.000 UL
LTa
0.50 0.50 0.50 C 966 1780 M
5981 0 V
stroke
LT0
0.50 0.50 0.50 C 966 1780 M
63 0 V
5918 0 R
-63 0 V
-6002 0 R
( 34.6482) Rshow
1.000 UL
LT0
0.50 0.50 0.50 C 1.000 UL
LTa
0.50 0.50 0.50 C 966 1810 M
5981 0 V
stroke
LT0
0.50 0.50 0.50 C 966 1810 M
63 0 V
5918 0 R
-63 0 V
-6002 0 R
( 35.3553) Rshow
1.000 UL
LT0
0.50 0.50 0.50 C 1.000 UL
LTa
0.50 0.50 0.50 C 966 1841 M
5981 0 V
stroke
LT0
0.50 0.50 0.50 C 966 1841 M
63 0 V
5918 0 R
-63 0 V
-6002 0 R
( 36.0624) Rshow
1.000 UL
LT0
0.50 0.50 0.50 C 1.000 UL
LTa
0.50 0.50 0.50 C 966 1872 M
5981 0 V
stroke
LT0
0.50 0.50 0.50 C 966 1872 M
63 0 V
5918 0 R
-63 0 V
-6002 0 R
( 36.7695) Rshow
1.000 UL
LT0
0.50 0.50 0.50 C 1.000 UL
LTa
0.50 0.50 0.50 C 966 1902 M
5981 0 V
stroke
LT0
0.50 0.50 0.50 C 966 1902 M
63 0 V
5918 0 R
-63 0 V
-6002 0 R
( 37.4766) Rshow
1.000 UL
LT0
0.50 0.50 0.50 C 1.000 UL
LTa
0.50 0.50 0.50 C 966 1933 M
5981 0 V
stroke
LT0
0.50 0.50 0.50 C 966 1933 M
63 0 V
5918 0 R
-63 0 V
-6002 0 R
( 38.1837) Rshow
1.000 UL
LT0
0.50 0.50 0.50 C 1.000 UL
LTa
0.50 0.50 0.50 C 966 1963 M
5981 0 V
stroke
LT0
0.50 0.50 0.50 C 966 1963 M
63 0 V
5918 0 R
-63 0 V
-6002 0 R
( 38.8908) Rshow
1.000 UL
LT0
0.50 0.50 0.50 C 1.000 UL
LTa
0.50 0.50 0.50 C 966 1994 M
5981 0 V
stroke
LT0
0.50 0.50 0.50 C 966 1994 M
63 0 V
5918 0 R
-63 0 V
-6002 0 R
( 39.5979) Rshow
1.000 UL
LT0
0.50 0.50 0.50 C 1.000 UL
LTa
0.50 0.50 0.50 C 966 2025 M
5981 0 V
stroke
LT0
0.50 0.50 0.50 C 966 2025 M
63 0 V
5918 0 R
-63 0 V
-6002 0 R
( 40.305) Rshow
1.000 UL
LT0
0.50 0.50 0.50 C 1.000 UL
LTa
0.50 0.50 0.50 C 966 2055 M
5981 0 V
stroke
LT0
0.50 0.50 0.50 C 966 2055 M
63 0 V
5918 0 R
-63 0 V
-6002 0 R
( 41.0121) Rshow
1.000 UL
LT0
0.50 0.50 0.50 C 1.000 UL
LTa
0.50 0.50 0.50 C 966 2086 M
5981 0 V
stroke
LT0
0.50 0.50 0.50 C 966 2086 M
63 0 V
5918 0 R
-63 0 V
-6002 0 R
( 41.7193) Rshow
1.000 UL
LT0
0.50 0.50 0.50 C 1.000 UL
LTa
0.50 0.50 0.50 C 966 2116 M
5981 0 V
stroke
LT0
0.50 0.50 0.50 C 966 2116 M
63 0 V
5918 0 R
-63 0 V
-6002 0 R
( 42.4264) Rshow
1.000 UL
LT0
0.50 0.50 0.50 C 1.000 UL
LTa
0.50 0.50 0.50 C 966 2147 M
5981 0 V
stroke
LT0
0.50 0.50 0.50 C 966 2147 M
63 0 V
5918 0 R
-63 0 V
-6002 0 R
( 43.1335) Rshow
1.000 UL
LT0
0.50 0.50 0.50 C 1.000 UL
LTa
0.50 0.50 0.50 C 966 2178 M
5981 0 V
stroke
LT0
0.50 0.50 0.50 C 966 2178 M
63 0 V
5918 0 R
-63 0 V
-6002 0 R
( 43.8406) Rshow
1.000 UL
LT0
0.50 0.50 0.50 C 1.000 UL
LTa
0.50 0.50 0.50 C 966 2208 M
5981 0 V
stroke
LT0
0.50 0.50 0.50 C 966 2208 M
63 0 V
5918 0 R
-63 0 V
-6002 0 R
( 44.5477) Rshow
1.000 UL
LT0
0.50 0.50 0.50 C 1.000 UL
LTa
0.50 0.50 0.50 C 966 2239 M
5981 0 V
stroke
LT0
0.50 0.50 0.50 C 966 2239 M
63 0 V
5918 0 R
-63 0 V
-6002 0 R
( 45.2548) Rshow
1.000 UL
LT0
0.50 0.50 0.50 C 1.000 UL
LTa
0.50 0.50 0.50 C 966 2269 M
5981 0 V
stroke
LT0
0.50 0.50 0.50 C 966 2269 M
63 0 V
5918 0 R
-63 0 V
-6002 0 R
( 45.9619) Rshow
1.000 UL
LT0
0.50 0.50 0.50 C 1.000 UL
LTa
0.50 0.50 0.50 C 966 2300 M
5981 0 V
stroke
LT0
0.50 0.50 0.50 C 966 2300 M
63 0 V
5918 0 R
-63 0 V
-6002 0 R
( 46.669) Rshow
1.000 UL
LT0
0.50 0.50 0.50 C 1.000 UL
LTa
0.50 0.50 0.50 C 966 2331 M
5981 0 V
stroke
LT0
0.50 0.50 0.50 C 966 2331 M
63 0 V
5918 0 R
-63 0 V
-6002 0 R
( 47.3761) Rshow
1.000 UL
LT0
0.50 0.50 0.50 C 1.000 UL
LTa
0.50 0.50 0.50 C 966 2361 M
5981 0 V
stroke
LT0
0.50 0.50 0.50 C 966 2361 M
63 0 V
5918 0 R
-63 0 V
-6002 0 R
( 48.0832) Rshow
1.000 UL
LT0
0.50 0.50 0.50 C 1.000 UL
LTa
0.50 0.50 0.50 C 966 2392 M
5981 0 V
stroke
LT0
0.50 0.50 0.50 C 966 2392 M
63 0 V
5918 0 R
-63 0 V
-6002 0 R
( 48.7903) Rshow
1.000 UL
LT0
0.50 0.50 0.50 C 1.000 UL
LTa
0.50 0.50 0.50 C 966 2422 M
5981 0 V
stroke
LT0
0.50 0.50 0.50 C 966 2422 M
63 0 V
5918 0 R
-63 0 V
-6002 0 R
( 49.4974) Rshow
1.000 UL
LT0
0.50 0.50 0.50 C 1.000 UL
LTa
0.50 0.50 0.50 C 966 2453 M
5981 0 V
stroke
LT0
0.50 0.50 0.50 C 966 2453 M
63 0 V
5918 0 R
-63 0 V
-6002 0 R
( 50.2045) Rshow
1.000 UL
LT0
0.50 0.50 0.50 C 1.000 UL
LTa
0.50 0.50 0.50 C 966 2484 M
5981 0 V
stroke
LT0
0.50 0.50 0.50 C 966 2484 M
63 0 V
5918 0 R
-63 0 V
-6002 0 R
( 50.9116) Rshow
1.000 UL
LT0
0.50 0.50 0.50 C 1.000 UL
LTa
0.50 0.50 0.50 C 966 2514 M
5981 0 V
stroke
LT0
0.50 0.50 0.50 C 966 2514 M
63 0 V
5918 0 R
-63 0 V
-6002 0 R
( 51.6187) Rshow
1.000 UL
LT0
0.50 0.50 0.50 C 1.000 UL
LTa
0.50 0.50 0.50 C 966 2545 M
5981 0 V
stroke
LT0
0.50 0.50 0.50 C 966 2545 M
63 0 V
5918 0 R
-63 0 V
-6002 0 R
( 52.3258) Rshow
1.000 UL
LT0
0.50 0.50 0.50 C 1.000 UL
LTa
0.50 0.50 0.50 C 966 2576 M
5981 0 V
stroke
LT0
0.50 0.50 0.50 C 966 2576 M
63 0 V
5918 0 R
-63 0 V
-6002 0 R
( 53.033) Rshow
1.000 UL
LT0
0.50 0.50 0.50 C 1.000 UL
LTa
0.50 0.50 0.50 C 966 2606 M
5981 0 V
stroke
LT0
0.50 0.50 0.50 C 966 2606 M
63 0 V
5918 0 R
-63 0 V
-6002 0 R
( 53.7401) Rshow
1.000 UL
LT0
0.50 0.50 0.50 C 1.000 UL
LTa
0.50 0.50 0.50 C 966 2637 M
5981 0 V
stroke
LT0
0.50 0.50 0.50 C 966 2637 M
63 0 V
5918 0 R
-63 0 V
-6002 0 R
( 54.4472) Rshow
1.000 UL
LT0
0.50 0.50 0.50 C 1.000 UL
LTa
0.50 0.50 0.50 C 966 2667 M
5981 0 V
stroke
LT0
0.50 0.50 0.50 C 966 2667 M
63 0 V
5918 0 R
-63 0 V
-6002 0 R
( 55.1543) Rshow
1.000 UL
LT0
0.50 0.50 0.50 C 1.000 UL
LTa
0.50 0.50 0.50 C 966 2698 M
5981 0 V
stroke
LT0
0.50 0.50 0.50 C 966 2698 M
63 0 V
5918 0 R
-63 0 V
-6002 0 R
( 55.8614) Rshow
1.000 UL
LT0
0.50 0.50 0.50 C 1.000 UL
LTa
0.50 0.50 0.50 C 966 2729 M
5981 0 V
stroke
LT0
0.50 0.50 0.50 C 966 2729 M
63 0 V
5918 0 R
-63 0 V
-6002 0 R
( 56.5685) Rshow
1.000 UL
LT0
0.50 0.50 0.50 C 1.000 UL
LTa
0.50 0.50 0.50 C 966 2759 M
5981 0 V
stroke
LT0
0.50 0.50 0.50 C 966 2759 M
63 0 V
5918 0 R
-63 0 V
-6002 0 R
( 57.2756) Rshow
1.000 UL
LT0
0.50 0.50 0.50 C 1.000 UL
LTa
0.50 0.50 0.50 C 966 2790 M
5981 0 V
stroke
LT0
0.50 0.50 0.50 C 966 2790 M
63 0 V
5918 0 R
-63 0 V
-6002 0 R
( 57.9827) Rshow
1.000 UL
LT0
0.50 0.50 0.50 C 1.000 UL
LTa
0.50 0.50 0.50 C 966 2820 M
5981 0 V
stroke
LT0
0.50 0.50 0.50 C 966 2820 M
63 0 V
5918 0 R
-63 0 V
-6002 0 R
( 58.6898) Rshow
1.000 UL
LT0
0.50 0.50 0.50 C 1.000 UL
LTa
0.50 0.50 0.50 C 966 2851 M
5981 0 V
stroke
LT0
0.50 0.50 0.50 C 966 2851 M
63 0 V
5918 0 R
-63 0 V
-6002 0 R
( 59.3969) Rshow
1.000 UL
LT0
0.50 0.50 0.50 C 1.000 UL
LTa
0.50 0.50 0.50 C 966 2882 M
5981 0 V
stroke
LT0
0.50 0.50 0.50 C 966 2882 M
63 0 V
5918 0 R
-63 0 V
-6002 0 R
( 60.104) Rshow
1.000 UL
LT0
0.50 0.50 0.50 C 1.000 UL
LTa
0.50 0.50 0.50 C 966 2912 M
5981 0 V
stroke
LT0
0.50 0.50 0.50 C 966 2912 M
63 0 V
5918 0 R
-63 0 V
-6002 0 R
( 60.8111) Rshow
1.000 UL
LT0
0.50 0.50 0.50 C 1.000 UL
LTa
0.50 0.50 0.50 C 966 2943 M
5981 0 V
stroke
LT0
0.50 0.50 0.50 C 966 2943 M
63 0 V
5918 0 R
-63 0 V
-6002 0 R
( 61.5182) Rshow
1.000 UL
LT0
0.50 0.50 0.50 C 1.000 UL
LTa
0.50 0.50 0.50 C 966 2973 M
5981 0 V
stroke
LT0
0.50 0.50 0.50 C 966 2973 M
63 0 V
5918 0 R
-63 0 V
-6002 0 R
( 62.2253) Rshow
1.000 UL
LT0
0.50 0.50 0.50 C 1.000 UL
LTa
0.50 0.50 0.50 C 966 3004 M
5981 0 V
stroke
LT0
0.50 0.50 0.50 C 966 3004 M
63 0 V
5918 0 R
-63 0 V
-6002 0 R
( 62.9324) Rshow
1.000 UL
LT0
0.50 0.50 0.50 C 1.000 UL
LTa
0.50 0.50 0.50 C 966 3035 M
5981 0 V
stroke
LT0
0.50 0.50 0.50 C 966 3035 M
63 0 V
5918 0 R
-63 0 V
-6002 0 R
( 63.6395) Rshow
1.000 UL
LT0
0.50 0.50 0.50 C 1.000 UL
LTa
0.50 0.50 0.50 C 966 3065 M
5981 0 V
stroke
LT0
0.50 0.50 0.50 C 966 3065 M
63 0 V
5918 0 R
-63 0 V
-6002 0 R
( 64.3466) Rshow
1.000 UL
LT0
0.50 0.50 0.50 C 1.000 UL
LTa
0.50 0.50 0.50 C 966 3096 M
5981 0 V
stroke
LT0
0.50 0.50 0.50 C 966 3096 M
63 0 V
5918 0 R
-63 0 V
-6002 0 R
( 65.0538) Rshow
1.000 UL
LT0
0.50 0.50 0.50 C 1.000 UL
LTa
0.50 0.50 0.50 C 966 3126 M
5981 0 V
stroke
LT0
0.50 0.50 0.50 C 966 3126 M
63 0 V
5918 0 R
-63 0 V
-6002 0 R
( 65.7609) Rshow
1.000 UL
LT0
0.50 0.50 0.50 C 1.000 UL
LTa
0.50 0.50 0.50 C 966 3157 M
5981 0 V
stroke
LT0
0.50 0.50 0.50 C 966 3157 M
63 0 V
5918 0 R
-63 0 V
-6002 0 R
( 66.468) Rshow
1.000 UL
LT0
0.50 0.50 0.50 C 1.000 UL
LTa
0.50 0.50 0.50 C 966 3188 M
5981 0 V
stroke
LT0
0.50 0.50 0.50 C 966 3188 M
63 0 V
5918 0 R
-63 0 V
-6002 0 R
( 67.1751) Rshow
1.000 UL
LT0
0.50 0.50 0.50 C 1.000 UL
LTa
0.50 0.50 0.50 C 966 3218 M
5981 0 V
stroke
LT0
0.50 0.50 0.50 C 966 3218 M
63 0 V
5918 0 R
-63 0 V
-6002 0 R
( 67.8822) Rshow
1.000 UL
LT0
0.50 0.50 0.50 C 1.000 UL
LTa
0.50 0.50 0.50 C 966 3249 M
5981 0 V
stroke
LT0
0.50 0.50 0.50 C 966 3249 M
63 0 V
5918 0 R
-63 0 V
-6002 0 R
( 68.5893) Rshow
1.000 UL
LT0
0.50 0.50 0.50 C 1.000 UL
LTa
0.50 0.50 0.50 C 966 3279 M
5981 0 V
stroke
LT0
0.50 0.50 0.50 C 966 3279 M
63 0 V
5918 0 R
-63 0 V
-6002 0 R
( 69.2964) Rshow
1.000 UL
LT0
0.50 0.50 0.50 C 1.000 UL
LTa
0.50 0.50 0.50 C 966 3310 M
5981 0 V
stroke
LT0
0.50 0.50 0.50 C 966 3310 M
63 0 V
5918 0 R
-63 0 V
-6002 0 R
( 70.0035) Rshow
1.000 UL
LT0
0.50 0.50 0.50 C 1.000 UL
LTa
0.50 0.50 0.50 C 966 3341 M
5981 0 V
stroke
LT0
0.50 0.50 0.50 C 966 3341 M
63 0 V
5918 0 R
-63 0 V
-6002 0 R
( 70.7106) Rshow
1.000 UL
LT0
0.50 0.50 0.50 C 1.000 UL
LTa
0.50 0.50 0.50 C 966 3371 M
5981 0 V
stroke
LT0
0.50 0.50 0.50 C 966 3371 M
63 0 V
5918 0 R
-63 0 V
-6002 0 R
( 71.4177) Rshow
1.000 UL
LT0
0.50 0.50 0.50 C 1.000 UL
LTa
0.50 0.50 0.50 C 966 3402 M
5981 0 V
stroke
LT0
0.50 0.50 0.50 C 966 3402 M
63 0 V
5918 0 R
-63 0 V
-6002 0 R
( 72.1248) Rshow
1.000 UL
LT0
0.50 0.50 0.50 C 1.000 UL
LTa
0.50 0.50 0.50 C 966 3432 M
5981 0 V
stroke
LT0
0.50 0.50 0.50 C 966 3432 M
63 0 V
5918 0 R
-63 0 V
-6002 0 R
( 72.8319) Rshow
1.000 UL
LT0
0.50 0.50 0.50 C 1.000 UL
LTa
0.50 0.50 0.50 C 966 3463 M
5981 0 V
stroke
LT0
0.50 0.50 0.50 C 966 3463 M
63 0 V
5918 0 R
-63 0 V
-6002 0 R
( 73.539) Rshow
1.000 UL
LT0
0.50 0.50 0.50 C 1.000 UL
LTa
0.50 0.50 0.50 C 966 3494 M
5981 0 V
stroke
LT0
0.50 0.50 0.50 C 966 3494 M
63 0 V
5918 0 R
-63 0 V
-6002 0 R
( 74.2461) Rshow
1.000 UL
LT0
0.50 0.50 0.50 C 1.000 UL
LTa
0.50 0.50 0.50 C 966 3524 M
5981 0 V
stroke
LT0
0.50 0.50 0.50 C 966 3524 M
63 0 V
5918 0 R
-63 0 V
-6002 0 R
( 74.9532) Rshow
1.000 UL
LT0
0.50 0.50 0.50 C 1.000 UL
LTa
0.50 0.50 0.50 C 966 3555 M
5981 0 V
stroke
LT0
0.50 0.50 0.50 C 966 3555 M
63 0 V
5918 0 R
-63 0 V
-6002 0 R
( 75.6603) Rshow
1.000 UL
LT0
0.50 0.50 0.50 C 1.000 UL
LTa
0.50 0.50 0.50 C 966 3586 M
5981 0 V
stroke
LT0
0.50 0.50 0.50 C 966 3586 M
63 0 V
5918 0 R
-63 0 V
-6002 0 R
( 76.3674) Rshow
1.000 UL
LT0
0.50 0.50 0.50 C 1.000 UL
LTa
0.50 0.50 0.50 C 966 3616 M
5981 0 V
stroke
LT0
0.50 0.50 0.50 C 966 3616 M
63 0 V
5918 0 R
-63 0 V
-6002 0 R
( 77.0746) Rshow
1.000 UL
LT0
0.50 0.50 0.50 C 1.000 UL
LTa
0.50 0.50 0.50 C 966 3647 M
5981 0 V
stroke
LT0
0.50 0.50 0.50 C 966 3647 M
63 0 V
5918 0 R
-63 0 V
-6002 0 R
( 77.7817) Rshow
1.000 UL
LT0
0.50 0.50 0.50 C 1.000 UL
LTa
0.50 0.50 0.50 C 966 3677 M
5981 0 V
stroke
LT0
0.50 0.50 0.50 C 966 3677 M
63 0 V
5918 0 R
-63 0 V
-6002 0 R
( 78.4888) Rshow
1.000 UL
LT0
0.50 0.50 0.50 C 1.000 UL
LTa
0.50 0.50 0.50 C 966 3708 M
5981 0 V
stroke
LT0
0.50 0.50 0.50 C 966 3708 M
63 0 V
5918 0 R
-63 0 V
-6002 0 R
( 79.1959) Rshow
1.000 UL
LT0
0.50 0.50 0.50 C 1.000 UL
LTa
0.50 0.50 0.50 C 966 3739 M
5981 0 V
stroke
LT0
0.50 0.50 0.50 C 966 3739 M
63 0 V
5918 0 R
-63 0 V
-6002 0 R
( 79.903) Rshow
1.000 UL
LT0
0.50 0.50 0.50 C 1.000 UL
LTa
0.50 0.50 0.50 C 966 3769 M
5981 0 V
stroke
LT0
0.50 0.50 0.50 C 966 3769 M
63 0 V
5918 0 R
-63 0 V
-6002 0 R
( 80.6101) Rshow
1.000 UL
LT0
0.50 0.50 0.50 C 1.000 UL
LTa
0.50 0.50 0.50 C 966 3800 M
5981 0 V
stroke
LT0
0.50 0.50 0.50 C 966 3800 M
63 0 V
5918 0 R
-63 0 V
-6002 0 R
( 81.3172) Rshow
1.000 UL
LT0
0.50 0.50 0.50 C 1.000 UL
LTa
0.50 0.50 0.50 C 966 3830 M
5981 0 V
stroke
LT0
0.50 0.50 0.50 C 966 3830 M
63 0 V
5918 0 R
-63 0 V
-6002 0 R
( 82.0243) Rshow
1.000 UL
LT0
0.50 0.50 0.50 C 1.000 UL
LTa
0.50 0.50 0.50 C 966 3861 M
5981 0 V
stroke
LT0
0.50 0.50 0.50 C 966 3861 M
63 0 V
5918 0 R
-63 0 V
-6002 0 R
( 82.7314) Rshow
1.000 UL
LT0
0.50 0.50 0.50 C 1.000 UL
LTa
0.50 0.50 0.50 C 966 3892 M
5981 0 V
stroke
LT0
0.50 0.50 0.50 C 966 3892 M
63 0 V
5918 0 R
-63 0 V
-6002 0 R
( 83.4385) Rshow
1.000 UL
LT0
0.50 0.50 0.50 C 1.000 UL
LTa
0.50 0.50 0.50 C 966 3922 M
5981 0 V
stroke
LT0
0.50 0.50 0.50 C 966 3922 M
63 0 V
5918 0 R
-63 0 V
-6002 0 R
( 84.1456) Rshow
1.000 UL
LT0
0.50 0.50 0.50 C 1.000 UL
LTa
0.50 0.50 0.50 C 966 3953 M
5981 0 V
stroke
LT0
0.50 0.50 0.50 C 966 3953 M
63 0 V
5918 0 R
-63 0 V
-6002 0 R
( 84.8527) Rshow
1.000 UL
LT0
0.50 0.50 0.50 C 1.000 UL
LTa
0.50 0.50 0.50 C 966 3983 M
5981 0 V
stroke
LT0
0.50 0.50 0.50 C 966 3983 M
63 0 V
5918 0 R
-63 0 V
-6002 0 R
( 85.5598) Rshow
1.000 UL
LT0
0.50 0.50 0.50 C 1.000 UL
LTa
0.50 0.50 0.50 C 966 4014 M
5981 0 V
stroke
LT0
0.50 0.50 0.50 C 966 4014 M
63 0 V
5918 0 R
-63 0 V
-6002 0 R
( 86.2669) Rshow
1.000 UL
LT0
0.50 0.50 0.50 C 1.000 UL
LTa
0.50 0.50 0.50 C 966 4045 M
5981 0 V
stroke
LT0
0.50 0.50 0.50 C 966 4045 M
63 0 V
5918 0 R
-63 0 V
-6002 0 R
( 86.974) Rshow
1.000 UL
LT0
0.50 0.50 0.50 C 1.000 UL
LTa
0.50 0.50 0.50 C 966 4075 M
5981 0 V
stroke
LT0
0.50 0.50 0.50 C 966 4075 M
63 0 V
5918 0 R
-63 0 V
-6002 0 R
( 87.6811) Rshow
1.000 UL
LT0
0.50 0.50 0.50 C 1.000 UL
LTa
0.50 0.50 0.50 C 966 4106 M
5981 0 V
stroke
LT0
0.50 0.50 0.50 C 966 4106 M
63 0 V
5918 0 R
-63 0 V
-6002 0 R
( 88.3882) Rshow
1.000 UL
LT0
0.50 0.50 0.50 C 1.000 UL
LTa
0.50 0.50 0.50 C 966 4136 M
5981 0 V
stroke
LT0
0.50 0.50 0.50 C 966 4136 M
63 0 V
5918 0 R
-63 0 V
-6002 0 R
( 89.0954) Rshow
1.000 UL
LT0
0.50 0.50 0.50 C 1.000 UL
LTa
0.50 0.50 0.50 C 966 4167 M
5981 0 V
stroke
LT0
0.50 0.50 0.50 C 966 4167 M
63 0 V
5918 0 R
-63 0 V
-6002 0 R
( 89.8025) Rshow
1.000 UL
LT0
0.50 0.50 0.50 C 1.000 UL
LTa
0.50 0.50 0.50 C 966 4198 M
5981 0 V
stroke
LT0
0.50 0.50 0.50 C 966 4198 M
63 0 V
5918 0 R
-63 0 V
-6002 0 R
( 90.5096) Rshow
1.000 UL
LT0
0.50 0.50 0.50 C 1.000 UL
LTa
0.50 0.50 0.50 C 966 4228 M
5981 0 V
stroke
LT0
0.50 0.50 0.50 C 966 4228 M
63 0 V
5918 0 R
-63 0 V
-6002 0 R
( 91.2167) Rshow
1.000 UL
LT0
0.50 0.50 0.50 C 1.000 UL
LTa
0.50 0.50 0.50 C 966 4259 M
5981 0 V
stroke
LT0
0.50 0.50 0.50 C 966 4259 M
63 0 V
5918 0 R
-63 0 V
-6002 0 R
( 91.9238) Rshow
1.000 UL
LT0
0.50 0.50 0.50 C 1.000 UL
LTa
0.50 0.50 0.50 C 966 4289 M
5981 0 V
stroke
LT0
0.50 0.50 0.50 C 966 4289 M
63 0 V
5918 0 R
-63 0 V
-6002 0 R
( 92.6309) Rshow
1.000 UL
LT0
0.50 0.50 0.50 C 1.000 UL
LTa
0.50 0.50 0.50 C 966 4320 M
5981 0 V
stroke
LT0
0.50 0.50 0.50 C 966 4320 M
63 0 V
5918 0 R
-63 0 V
-6002 0 R
( 93.338) Rshow
1.000 UL
LT0
0.50 0.50 0.50 C 1.000 UL
LTa
0.50 0.50 0.50 C 966 4351 M
5981 0 V
stroke
LT0
0.50 0.50 0.50 C 966 4351 M
63 0 V
5918 0 R
-63 0 V
-6002 0 R
( 94.0451) Rshow
1.000 UL
LT0
0.50 0.50 0.50 C 1.000 UL
LTa
0.50 0.50 0.50 C 966 4381 M
5981 0 V
stroke
LT0
0.50 0.50 0.50 C 966 4381 M
63 0 V
5918 0 R
-63 0 V
-6002 0 R
( 94.7522) Rshow
1.000 UL
LT0
0.50 0.50 0.50 C 1.000 UL
LTa
0.50 0.50 0.50 C 966 4412 M
5981 0 V
stroke
LT0
0.50 0.50 0.50 C 966 4412 M
63 0 V
5918 0 R
-63 0 V
-6002 0 R
( 95.4593) Rshow
1.000 UL
LT0
0.50 0.50 0.50 C 1.000 UL
LTa
0.50 0.50 0.50 C 966 4443 M
5981 0 V
stroke
LT0
0.50 0.50 0.50 C 966 4443 M
63 0 V
5918 0 R
-63 0 V
-6002 0 R
( 96.1664) Rshow
1.000 UL
LT0
0.50 0.50 0.50 C 1.000 UL
LTa
0.50 0.50 0.50 C 966 4473 M
5981 0 V
stroke
LT0
0.50 0.50 0.50 C 966 4473 M
63 0 V
5918 0 R
-63 0 V
-6002 0 R
( 96.8735) Rshow
1.000 UL
LT0
0.50 0.50 0.50 C 1.000 UL
LTa
0.50 0.50 0.50 C 966 4504 M
5981 0 V
stroke
LT0
0.50 0.50 0.50 C 966 4504 M
63 0 V
5918 0 R
-63 0 V
-6002 0 R
( 97.5806) Rshow
1.000 UL
LT0
0.50 0.50 0.50 C 1.000 UL
LTa
0.50 0.50 0.50 C 966 4534 M
5981 0 V
stroke
LT0
0.50 0.50 0.50 C 966 4534 M
63 0 V
5918 0 R
-63 0 V
-6002 0 R
( 98.2877) Rshow
1.000 UL
LT0
0.50 0.50 0.50 C 1.000 UL
LTa
0.50 0.50 0.50 C 966 4565 M
5981 0 V
stroke
LT0
0.50 0.50 0.50 C 966 4565 M
63 0 V
5918 0 R
-63 0 V
-6002 0 R
( 98.9948) Rshow
1.000 UL
LT0
0.50 0.50 0.50 C 1.000 UL
LTa
0.50 0.50 0.50 C 966 4596 M
5981 0 V
stroke
LT0
0.50 0.50 0.50 C 966 4596 M
63 0 V
5918 0 R
-63 0 V
-6002 0 R
( 99.7019) Rshow
1.000 UL
LT0
0.50 0.50 0.50 C 1.000 UL
LTa
0.50 0.50 0.50 C 966 4626 M
5981 0 V
stroke
LT0
0.50 0.50 0.50 C 966 4626 M
63 0 V
5918 0 R
-63 0 V
-6002 0 R
( 100.409) Rshow
1.000 UL
LT0
0.50 0.50 0.50 C 1.000 UL
LTa
0.50 0.50 0.50 C 966 4657 M
5981 0 V
stroke
LT0
0.50 0.50 0.50 C 966 4657 M
63 0 V
5918 0 R
-63 0 V
-6002 0 R
( 101.116) Rshow
1.000 UL
LT0
0.50 0.50 0.50 C 1.000 UL
LTa
0.50 0.50 0.50 C 966 4687 M
5981 0 V
stroke
LT0
0.50 0.50 0.50 C 966 4687 M
63 0 V
5918 0 R
-63 0 V
-6002 0 R
( 101.823) Rshow
1.000 UL
LT0
0.50 0.50 0.50 C 1.000 UL
LTa
0.50 0.50 0.50 C 966 4718 M
5981 0 V
stroke
LT0
0.50 0.50 0.50 C 966 4718 M
63 0 V
5918 0 R
-63 0 V
-6002 0 R
( 102.53) Rshow
1.000 UL
LT0
0.50 0.50 0.50 C 1.000 UL
LTa
0.50 0.50 0.50 C 966 4749 M
5981 0 V
stroke
LT0
0.50 0.50 0.50 C 966 4749 M
63 0 V
5918 0 R
-63 0 V
-6002 0 R
( 103.237) Rshow
1.000 UL
LT0
0.50 0.50 0.50 C 1.000 UL
LTa
0.50 0.50 0.50 C 966 4779 M
5981 0 V
stroke
LT0
0.50 0.50 0.50 C 966 4779 M
63 0 V
5918 0 R
-63 0 V
-6002 0 R
( 103.945) Rshow
1.000 UL
LT0
0.50 0.50 0.50 C 1.000 UL
LTa
0.50 0.50 0.50 C 966 4810 M
5981 0 V
stroke
LT0
0.50 0.50 0.50 C 966 4810 M
63 0 V
5918 0 R
-63 0 V
-6002 0 R
( 104.652) Rshow
1.000 UL
LT0
0.50 0.50 0.50 C 1.000 UL
LTa
0.50 0.50 0.50 C 966 4840 M
5981 0 V
stroke
LT0
0.50 0.50 0.50 C 966 4840 M
63 0 V
5918 0 R
-63 0 V
-6002 0 R
( 105.359) Rshow
1.000 UL
LT0
0.50 0.50 0.50 C 1.000 UL
LTa
0.50 0.50 0.50 C 966 4871 M
5981 0 V
stroke
LT0
0.50 0.50 0.50 C 966 4871 M
63 0 V
5918 0 R
-63 0 V
-6002 0 R
( 106.066) Rshow
1.000 UL
LT0
0.50 0.50 0.50 C 1.000 UL
LTa
0.50 0.50 0.50 C 966 280 M
0 4591 V
stroke
LT0
0.50 0.50 0.50 C 966 280 M
0 63 V
0 4528 R
0 -63 V
966 140 M
( 0) Cshow
1.000 UL
LT0
0.50 0.50 0.50 C 1.000 UL
LTa
0.50 0.50 0.50 C 1006 280 M
0 4591 V
stroke
LT0
0.50 0.50 0.50 C 1006 280 M
0 63 V
0 4528 R
0 -63 V
0 -4668 R
( 0.707106) Cshow
1.000 UL
LT0
0.50 0.50 0.50 C 1.000 UL
LTa
0.50 0.50 0.50 C 1046 280 M
0 4591 V
stroke
LT0
0.50 0.50 0.50 C 1046 280 M
0 63 V
0 4528 R
0 -63 V
0 -4668 R
( 1.41421) Cshow
1.000 UL
LT0
0.50 0.50 0.50 C 1.000 UL
LTa
0.50 0.50 0.50 C 1086 280 M
0 4591 V
stroke
LT0
0.50 0.50 0.50 C 1086 280 M
0 63 V
0 4528 R
0 -63 V
0 -4668 R
( 2.12132) Cshow
1.000 UL
LT0
0.50 0.50 0.50 C 1.000 UL
LTa
0.50 0.50 0.50 C 1125 280 M
0 4591 V
stroke
LT0
0.50 0.50 0.50 C 1125 280 M
0 63 V
0 4528 R
0 -63 V
0 -4668 R
( 2.82842) Cshow
1.000 UL
LT0
0.50 0.50 0.50 C 1.000 UL
LTa
0.50 0.50 0.50 C 1165 280 M
0 4591 V
stroke
LT0
0.50 0.50 0.50 C 1165 280 M
0 63 V
0 4528 R
0 -63 V
0 -4668 R
( 3.53553) Cshow
1.000 UL
LT0
0.50 0.50 0.50 C 1.000 UL
LTa
0.50 0.50 0.50 C 1205 280 M
0 4591 V
stroke
LT0
0.50 0.50 0.50 C 1205 280 M
0 63 V
0 4528 R
0 -63 V
0 -4668 R
( 4.24264) Cshow
1.000 UL
LT0
0.50 0.50 0.50 C 1.000 UL
LTa
0.50 0.50 0.50 C 1245 280 M
0 4591 V
stroke
LT0
0.50 0.50 0.50 C 1245 280 M
0 63 V
0 4528 R
0 -63 V
0 -4668 R
( 4.94974) Cshow
1.000 UL
LT0
0.50 0.50 0.50 C 1.000 UL
LTa
0.50 0.50 0.50 C 1285 280 M
0 4591 V
stroke
LT0
0.50 0.50 0.50 C 1285 280 M
0 63 V
0 4528 R
0 -63 V
0 -4668 R
( 5.65685) Cshow
1.000 UL
LT0
0.50 0.50 0.50 C 1.000 UL
LTa
0.50 0.50 0.50 C 1325 280 M
0 4591 V
stroke
LT0
0.50 0.50 0.50 C 1325 280 M
0 63 V
0 4528 R
0 -63 V
0 -4668 R
( 6.36395) Cshow
1.000 UL
LT0
0.50 0.50 0.50 C 1.000 UL
LTa
0.50 0.50 0.50 C 1365 280 M
0 4591 V
stroke
LT0
0.50 0.50 0.50 C 1365 280 M
0 63 V
0 4528 R
0 -63 V
0 -4668 R
( 7.07106) Cshow
1.000 UL
LT0
0.50 0.50 0.50 C 1.000 UL
LTa
0.50 0.50 0.50 C 1405 280 M
0 4591 V
stroke
LT0
0.50 0.50 0.50 C 1405 280 M
0 63 V
0 4528 R
0 -63 V
0 -4668 R
( 7.77817) Cshow
1.000 UL
LT0
0.50 0.50 0.50 C 1.000 UL
LTa
0.50 0.50 0.50 C 1444 280 M
0 4591 V
stroke
LT0
0.50 0.50 0.50 C 1444 280 M
0 63 V
0 4528 R
0 -63 V
0 -4668 R
( 8.48527) Cshow
1.000 UL
LT0
0.50 0.50 0.50 C 1.000 UL
LTa
0.50 0.50 0.50 C 1484 280 M
0 4591 V
stroke
LT0
0.50 0.50 0.50 C 1484 280 M
0 63 V
0 4528 R
0 -63 V
0 -4668 R
( 9.19238) Cshow
1.000 UL
LT0
0.50 0.50 0.50 C 1.000 UL
LTa
0.50 0.50 0.50 C 1524 280 M
0 4591 V
stroke
LT0
0.50 0.50 0.50 C 1524 280 M
0 63 V
0 4528 R
0 -63 V
0 -4668 R
( 9.89948) Cshow
1.000 UL
LT0
0.50 0.50 0.50 C 1.000 UL
LTa
0.50 0.50 0.50 C 1564 280 M
0 4591 V
stroke
LT0
0.50 0.50 0.50 C 1564 280 M
0 63 V
0 4528 R
0 -63 V
0 -4668 R
( 10.6066) Cshow
1.000 UL
LT0
0.50 0.50 0.50 C 1.000 UL
LTa
0.50 0.50 0.50 C 1604 280 M
0 4591 V
stroke
LT0
0.50 0.50 0.50 C 1604 280 M
0 63 V
0 4528 R
0 -63 V
0 -4668 R
( 11.3137) Cshow
1.000 UL
LT0
0.50 0.50 0.50 C 1.000 UL
LTa
0.50 0.50 0.50 C 1644 280 M
0 4591 V
stroke
LT0
0.50 0.50 0.50 C 1644 280 M
0 63 V
0 4528 R
0 -63 V
0 -4668 R
( 12.0208) Cshow
1.000 UL
LT0
0.50 0.50 0.50 C 1.000 UL
LTa
0.50 0.50 0.50 C 1684 280 M
0 4591 V
stroke
LT0
0.50 0.50 0.50 C 1684 280 M
0 63 V
0 4528 R
0 -63 V
0 -4668 R
( 12.7279) Cshow
1.000 UL
LT0
0.50 0.50 0.50 C 1.000 UL
LTa
0.50 0.50 0.50 C 1724 280 M
0 4591 V
stroke
LT0
0.50 0.50 0.50 C 1724 280 M
0 63 V
0 4528 R
0 -63 V
0 -4668 R
( 13.435) Cshow
1.000 UL
LT0
0.50 0.50 0.50 C 1.000 UL
LTa
0.50 0.50 0.50 C 1763 280 M
0 4591 V
stroke
LT0
0.50 0.50 0.50 C 1763 280 M
0 63 V
0 4528 R
0 -63 V
0 -4668 R
( 14.1421) Cshow
1.000 UL
LT0
0.50 0.50 0.50 C 1.000 UL
LTa
0.50 0.50 0.50 C 1803 280 M
0 4591 V
stroke
LT0
0.50 0.50 0.50 C 1803 280 M
0 63 V
0 4528 R
0 -63 V
0 -4668 R
( 14.8492) Cshow
1.000 UL
LT0
0.50 0.50 0.50 C 1.000 UL
LTa
0.50 0.50 0.50 C 1843 280 M
0 4591 V
stroke
LT0
0.50 0.50 0.50 C 1843 280 M
0 63 V
0 4528 R
0 -63 V
0 -4668 R
( 15.5563) Cshow
1.000 UL
LT0
0.50 0.50 0.50 C 1.000 UL
LTa
0.50 0.50 0.50 C 1883 280 M
0 4591 V
stroke
LT0
0.50 0.50 0.50 C 1883 280 M
0 63 V
0 4528 R
0 -63 V
0 -4668 R
( 16.2634) Cshow
1.000 UL
LT0
0.50 0.50 0.50 C 1.000 UL
LTa
0.50 0.50 0.50 C 1923 280 M
0 4591 V
stroke
LT0
0.50 0.50 0.50 C 1923 280 M
0 63 V
0 4528 R
0 -63 V
0 -4668 R
( 16.9705) Cshow
1.000 UL
LT0
0.50 0.50 0.50 C 1.000 UL
LTa
0.50 0.50 0.50 C 1963 280 M
0 4591 V
stroke
LT0
0.50 0.50 0.50 C 1963 280 M
0 63 V
0 4528 R
0 -63 V
0 -4668 R
( 17.6776) Cshow
1.000 UL
LT0
0.50 0.50 0.50 C 1.000 UL
LTa
0.50 0.50 0.50 C 2003 280 M
0 4591 V
stroke
LT0
0.50 0.50 0.50 C 2003 280 M
0 63 V
0 4528 R
0 -63 V
0 -4668 R
( 18.3848) Cshow
1.000 UL
LT0
0.50 0.50 0.50 C 1.000 UL
LTa
0.50 0.50 0.50 C 2043 280 M
0 4591 V
stroke
LT0
0.50 0.50 0.50 C 2043 280 M
0 63 V
0 4528 R
0 -63 V
0 -4668 R
( 19.0919) Cshow
1.000 UL
LT0
0.50 0.50 0.50 C 1.000 UL
LTa
0.50 0.50 0.50 C 2082 280 M
0 4591 V
stroke
LT0
0.50 0.50 0.50 C 2082 280 M
0 63 V
0 4528 R
0 -63 V
0 -4668 R
( 19.799) Cshow
1.000 UL
LT0
0.50 0.50 0.50 C 1.000 UL
LTa
0.50 0.50 0.50 C 2122 280 M
0 4591 V
stroke
LT0
0.50 0.50 0.50 C 2122 280 M
0 63 V
0 4528 R
0 -63 V
0 -4668 R
( 20.5061) Cshow
1.000 UL
LT0
0.50 0.50 0.50 C 1.000 UL
LTa
0.50 0.50 0.50 C 2162 280 M
0 4591 V
stroke
LT0
0.50 0.50 0.50 C 2162 280 M
0 63 V
0 4528 R
0 -63 V
0 -4668 R
( 21.2132) Cshow
1.000 UL
LT0
0.50 0.50 0.50 C 1.000 UL
LTa
0.50 0.50 0.50 C 2202 280 M
0 4591 V
stroke
LT0
0.50 0.50 0.50 C 2202 280 M
0 63 V
0 4528 R
0 -63 V
0 -4668 R
( 21.9203) Cshow
1.000 UL
LT0
0.50 0.50 0.50 C 1.000 UL
LTa
0.50 0.50 0.50 C 2242 280 M
0 4591 V
stroke
LT0
0.50 0.50 0.50 C 2242 280 M
0 63 V
0 4528 R
0 -63 V
0 -4668 R
( 22.6274) Cshow
1.000 UL
LT0
0.50 0.50 0.50 C 1.000 UL
LTa
0.50 0.50 0.50 C 2282 280 M
0 4591 V
stroke
LT0
0.50 0.50 0.50 C 2282 280 M
0 63 V
0 4528 R
0 -63 V
0 -4668 R
( 23.3345) Cshow
1.000 UL
LT0
0.50 0.50 0.50 C 1.000 UL
LTa
0.50 0.50 0.50 C 2322 280 M
0 4591 V
stroke
LT0
0.50 0.50 0.50 C 2322 280 M
0 63 V
0 4528 R
0 -63 V
0 -4668 R
( 24.0416) Cshow
1.000 UL
LT0
0.50 0.50 0.50 C 1.000 UL
LTa
0.50 0.50 0.50 C 2362 280 M
0 4591 V
stroke
LT0
0.50 0.50 0.50 C 2362 280 M
0 63 V
0 4528 R
0 -63 V
0 -4668 R
( 24.7487) Cshow
1.000 UL
LT0
0.50 0.50 0.50 C 1.000 UL
LTa
0.50 0.50 0.50 C 2401 280 M
0 4591 V
stroke
LT0
0.50 0.50 0.50 C 2401 280 M
0 63 V
0 4528 R
0 -63 V
0 -4668 R
( 25.4558) Cshow
1.000 UL
LT0
0.50 0.50 0.50 C 1.000 UL
LTa
0.50 0.50 0.50 C 2441 280 M
0 4591 V
stroke
LT0
0.50 0.50 0.50 C 2441 280 M
0 63 V
0 4528 R
0 -63 V
0 -4668 R
( 26.1629) Cshow
1.000 UL
LT0
0.50 0.50 0.50 C 1.000 UL
LTa
0.50 0.50 0.50 C 2481 280 M
0 4591 V
stroke
LT0
0.50 0.50 0.50 C 2481 280 M
0 63 V
0 4528 R
0 -63 V
0 -4668 R
( 26.87) Cshow
1.000 UL
LT0
0.50 0.50 0.50 C 1.000 UL
LTa
0.50 0.50 0.50 C 2521 280 M
0 4591 V
stroke
LT0
0.50 0.50 0.50 C 2521 280 M
0 63 V
0 4528 R
0 -63 V
0 -4668 R
( 27.5771) Cshow
1.000 UL
LT0
0.50 0.50 0.50 C 1.000 UL
LTa
0.50 0.50 0.50 C 2561 280 M
0 4591 V
stroke
LT0
0.50 0.50 0.50 C 2561 280 M
0 63 V
0 4528 R
0 -63 V
0 -4668 R
( 28.2842) Cshow
1.000 UL
LT0
0.50 0.50 0.50 C 1.000 UL
LTa
0.50 0.50 0.50 C 2601 280 M
0 4591 V
stroke
LT0
0.50 0.50 0.50 C 2601 280 M
0 63 V
0 4528 R
0 -63 V
0 -4668 R
( 28.9913) Cshow
1.000 UL
LT0
0.50 0.50 0.50 C 1.000 UL
LTa
0.50 0.50 0.50 C 2641 280 M
0 4591 V
stroke
LT0
0.50 0.50 0.50 C 2641 280 M
0 63 V
0 4528 R
0 -63 V
0 -4668 R
( 29.6985) Cshow
1.000 UL
LT0
0.50 0.50 0.50 C 1.000 UL
LTa
0.50 0.50 0.50 C 2681 280 M
0 4591 V
stroke
LT0
0.50 0.50 0.50 C 2681 280 M
0 63 V
0 4528 R
0 -63 V
0 -4668 R
( 30.4056) Cshow
1.000 UL
LT0
0.50 0.50 0.50 C 1.000 UL
LTa
0.50 0.50 0.50 C 2720 280 M
0 4591 V
stroke
LT0
0.50 0.50 0.50 C 2720 280 M
0 63 V
0 4528 R
0 -63 V
0 -4668 R
( 31.1127) Cshow
1.000 UL
LT0
0.50 0.50 0.50 C 1.000 UL
LTa
0.50 0.50 0.50 C 2760 280 M
0 4591 V
stroke
LT0
0.50 0.50 0.50 C 2760 280 M
0 63 V
0 4528 R
0 -63 V
0 -4668 R
( 31.8198) Cshow
1.000 UL
LT0
0.50 0.50 0.50 C 1.000 UL
LTa
0.50 0.50 0.50 C 2800 280 M
0 4591 V
stroke
LT0
0.50 0.50 0.50 C 2800 280 M
0 63 V
0 4528 R
0 -63 V
0 -4668 R
( 32.5269) Cshow
1.000 UL
LT0
0.50 0.50 0.50 C 1.000 UL
LTa
0.50 0.50 0.50 C 2840 280 M
0 4591 V
stroke
LT0
0.50 0.50 0.50 C 2840 280 M
0 63 V
0 4528 R
0 -63 V
0 -4668 R
( 33.234) Cshow
1.000 UL
LT0
0.50 0.50 0.50 C 1.000 UL
LTa
0.50 0.50 0.50 C 2880 280 M
0 4591 V
stroke
LT0
0.50 0.50 0.50 C 2880 280 M
0 63 V
0 4528 R
0 -63 V
0 -4668 R
( 33.9411) Cshow
1.000 UL
LT0
0.50 0.50 0.50 C 1.000 UL
LTa
0.50 0.50 0.50 C 2920 280 M
0 4591 V
stroke
LT0
0.50 0.50 0.50 C 2920 280 M
0 63 V
0 4528 R
0 -63 V
0 -4668 R
( 34.6482) Cshow
1.000 UL
LT0
0.50 0.50 0.50 C 1.000 UL
LTa
0.50 0.50 0.50 C 2960 280 M
0 4591 V
stroke
LT0
0.50 0.50 0.50 C 2960 280 M
0 63 V
0 4528 R
0 -63 V
0 -4668 R
( 35.3553) Cshow
1.000 UL
LT0
0.50 0.50 0.50 C 1.000 UL
LTa
0.50 0.50 0.50 C 3000 280 M
0 4591 V
stroke
LT0
0.50 0.50 0.50 C 3000 280 M
0 63 V
0 4528 R
0 -63 V
0 -4668 R
( 36.0624) Cshow
1.000 UL
LT0
0.50 0.50 0.50 C 1.000 UL
LTa
0.50 0.50 0.50 C 3039 280 M
0 4591 V
stroke
LT0
0.50 0.50 0.50 C 3039 280 M
0 63 V
0 4528 R
0 -63 V
0 -4668 R
( 36.7695) Cshow
1.000 UL
LT0
0.50 0.50 0.50 C 1.000 UL
LTa
0.50 0.50 0.50 C 3079 280 M
0 4591 V
stroke
LT0
0.50 0.50 0.50 C 3079 280 M
0 63 V
0 4528 R
0 -63 V
0 -4668 R
( 37.4766) Cshow
1.000 UL
LT0
0.50 0.50 0.50 C 1.000 UL
LTa
0.50 0.50 0.50 C 3119 280 M
0 4591 V
stroke
LT0
0.50 0.50 0.50 C 3119 280 M
0 63 V
0 4528 R
0 -63 V
0 -4668 R
( 38.1837) Cshow
1.000 UL
LT0
0.50 0.50 0.50 C 1.000 UL
LTa
0.50 0.50 0.50 C 3159 280 M
0 4591 V
stroke
LT0
0.50 0.50 0.50 C 3159 280 M
0 63 V
0 4528 R
0 -63 V
0 -4668 R
( 38.8908) Cshow
1.000 UL
LT0
0.50 0.50 0.50 C 1.000 UL
LTa
0.50 0.50 0.50 C 3199 280 M
0 4591 V
stroke
LT0
0.50 0.50 0.50 C 3199 280 M
0 63 V
0 4528 R
0 -63 V
0 -4668 R
( 39.5979) Cshow
1.000 UL
LT0
0.50 0.50 0.50 C 1.000 UL
LTa
0.50 0.50 0.50 C 3239 280 M
0 4591 V
stroke
LT0
0.50 0.50 0.50 C 3239 280 M
0 63 V
0 4528 R
0 -63 V
0 -4668 R
( 40.305) Cshow
1.000 UL
LT0
0.50 0.50 0.50 C 1.000 UL
LTa
0.50 0.50 0.50 C 3279 280 M
0 4591 V
stroke
LT0
0.50 0.50 0.50 C 3279 280 M
0 63 V
0 4528 R
0 -63 V
0 -4668 R
( 41.0121) Cshow
1.000 UL
LT0
0.50 0.50 0.50 C 1.000 UL
LTa
0.50 0.50 0.50 C 3319 280 M
0 4591 V
stroke
LT0
0.50 0.50 0.50 C 3319 280 M
0 63 V
0 4528 R
0 -63 V
0 -4668 R
( 41.7193) Cshow
1.000 UL
LT0
0.50 0.50 0.50 C 1.000 UL
LTa
0.50 0.50 0.50 C 3358 280 M
0 4591 V
stroke
LT0
0.50 0.50 0.50 C 3358 280 M
0 63 V
0 4528 R
0 -63 V
0 -4668 R
( 42.4264) Cshow
1.000 UL
LT0
0.50 0.50 0.50 C 1.000 UL
LTa
0.50 0.50 0.50 C 3398 280 M
0 4591 V
stroke
LT0
0.50 0.50 0.50 C 3398 280 M
0 63 V
0 4528 R
0 -63 V
0 -4668 R
( 43.1335) Cshow
1.000 UL
LT0
0.50 0.50 0.50 C 1.000 UL
LTa
0.50 0.50 0.50 C 3438 280 M
0 4591 V
stroke
LT0
0.50 0.50 0.50 C 3438 280 M
0 63 V
0 4528 R
0 -63 V
0 -4668 R
( 43.8406) Cshow
1.000 UL
LT0
0.50 0.50 0.50 C 1.000 UL
LTa
0.50 0.50 0.50 C 3478 280 M
0 4591 V
stroke
LT0
0.50 0.50 0.50 C 3478 280 M
0 63 V
0 4528 R
0 -63 V
0 -4668 R
( 44.5477) Cshow
1.000 UL
LT0
0.50 0.50 0.50 C 1.000 UL
LTa
0.50 0.50 0.50 C 3518 280 M
0 4591 V
stroke
LT0
0.50 0.50 0.50 C 3518 280 M
0 63 V
0 4528 R
0 -63 V
0 -4668 R
( 45.2548) Cshow
1.000 UL
LT0
0.50 0.50 0.50 C 1.000 UL
LTa
0.50 0.50 0.50 C 3558 280 M
0 4591 V
stroke
LT0
0.50 0.50 0.50 C 3558 280 M
0 63 V
0 4528 R
0 -63 V
0 -4668 R
( 45.9619) Cshow
1.000 UL
LT0
0.50 0.50 0.50 C 1.000 UL
LTa
0.50 0.50 0.50 C 3598 280 M
0 4591 V
stroke
LT0
0.50 0.50 0.50 C 3598 280 M
0 63 V
0 4528 R
0 -63 V
0 -4668 R
( 46.669) Cshow
1.000 UL
LT0
0.50 0.50 0.50 C 1.000 UL
LTa
0.50 0.50 0.50 C 3638 280 M
0 4591 V
stroke
LT0
0.50 0.50 0.50 C 3638 280 M
0 63 V
0 4528 R
0 -63 V
0 -4668 R
( 47.3761) Cshow
1.000 UL
LT0
0.50 0.50 0.50 C 1.000 UL
LTa
0.50 0.50 0.50 C 3677 280 M
0 4591 V
stroke
LT0
0.50 0.50 0.50 C 3677 280 M
0 63 V
0 4528 R
0 -63 V
0 -4668 R
( 48.0832) Cshow
1.000 UL
LT0
0.50 0.50 0.50 C 1.000 UL
LTa
0.50 0.50 0.50 C 3717 280 M
0 4591 V
stroke
LT0
0.50 0.50 0.50 C 3717 280 M
0 63 V
0 4528 R
0 -63 V
0 -4668 R
( 48.7903) Cshow
1.000 UL
LT0
0.50 0.50 0.50 C 1.000 UL
LTa
0.50 0.50 0.50 C 3757 280 M
0 4591 V
stroke
LT0
0.50 0.50 0.50 C 3757 280 M
0 63 V
0 4528 R
0 -63 V
0 -4668 R
( 49.4974) Cshow
1.000 UL
LT0
0.50 0.50 0.50 C 1.000 UL
LTa
0.50 0.50 0.50 C 3797 280 M
0 4591 V
stroke
LT0
0.50 0.50 0.50 C 3797 280 M
0 63 V
0 4528 R
0 -63 V
0 -4668 R
( 50.2045) Cshow
1.000 UL
LT0
0.50 0.50 0.50 C 1.000 UL
LTa
0.50 0.50 0.50 C 3837 280 M
0 4591 V
stroke
LT0
0.50 0.50 0.50 C 3837 280 M
0 63 V
0 4528 R
0 -63 V
0 -4668 R
( 50.9116) Cshow
1.000 UL
LT0
0.50 0.50 0.50 C 1.000 UL
LTa
0.50 0.50 0.50 C 3877 280 M
0 4591 V
stroke
LT0
0.50 0.50 0.50 C 3877 280 M
0 63 V
0 4528 R
0 -63 V
0 -4668 R
( 51.6187) Cshow
1.000 UL
LT0
0.50 0.50 0.50 C 1.000 UL
LTa
0.50 0.50 0.50 C 3917 280 M
0 4591 V
stroke
LT0
0.50 0.50 0.50 C 3917 280 M
0 63 V
0 4528 R
0 -63 V
0 -4668 R
( 52.3258) Cshow
1.000 UL
LT0
0.50 0.50 0.50 C 1.000 UL
LTa
0.50 0.50 0.50 C 3957 280 M
0 4591 V
stroke
LT0
0.50 0.50 0.50 C 3957 280 M
0 63 V
0 4528 R
0 -63 V
0 -4668 R
( 53.033) Cshow
1.000 UL
LT0
0.50 0.50 0.50 C 1.000 UL
LTa
0.50 0.50 0.50 C 3996 280 M
0 4591 V
stroke
LT0
0.50 0.50 0.50 C 3996 280 M
0 63 V
0 4528 R
0 -63 V
0 -4668 R
( 53.7401) Cshow
1.000 UL
LT0
0.50 0.50 0.50 C 1.000 UL
LTa
0.50 0.50 0.50 C 4036 280 M
0 4591 V
stroke
LT0
0.50 0.50 0.50 C 4036 280 M
0 63 V
0 4528 R
0 -63 V
0 -4668 R
( 54.4472) Cshow
1.000 UL
LT0
0.50 0.50 0.50 C 1.000 UL
LTa
0.50 0.50 0.50 C 4076 280 M
0 4591 V
stroke
LT0
0.50 0.50 0.50 C 4076 280 M
0 63 V
0 4528 R
0 -63 V
0 -4668 R
( 55.1543) Cshow
1.000 UL
LT0
0.50 0.50 0.50 C 1.000 UL
LTa
0.50 0.50 0.50 C 4116 280 M
0 4591 V
stroke
LT0
0.50 0.50 0.50 C 4116 280 M
0 63 V
0 4528 R
0 -63 V
0 -4668 R
( 55.8614) Cshow
1.000 UL
LT0
0.50 0.50 0.50 C 1.000 UL
LTa
0.50 0.50 0.50 C 4156 280 M
0 4591 V
stroke
LT0
0.50 0.50 0.50 C 4156 280 M
0 63 V
0 4528 R
0 -63 V
0 -4668 R
( 56.5685) Cshow
1.000 UL
LT0
0.50 0.50 0.50 C 1.000 UL
LTa
0.50 0.50 0.50 C 4196 280 M
0 4591 V
stroke
LT0
0.50 0.50 0.50 C 4196 280 M
0 63 V
0 4528 R
0 -63 V
0 -4668 R
( 57.2756) Cshow
1.000 UL
LT0
0.50 0.50 0.50 C 1.000 UL
LTa
0.50 0.50 0.50 C 4236 280 M
0 4591 V
stroke
LT0
0.50 0.50 0.50 C 4236 280 M
0 63 V
0 4528 R
0 -63 V
0 -4668 R
( 57.9827) Cshow
1.000 UL
LT0
0.50 0.50 0.50 C 1.000 UL
LTa
0.50 0.50 0.50 C 4275 280 M
0 4591 V
stroke
LT0
0.50 0.50 0.50 C 4275 280 M
0 63 V
0 4528 R
0 -63 V
0 -4668 R
( 58.6898) Cshow
1.000 UL
LT0
0.50 0.50 0.50 C 1.000 UL
LTa
0.50 0.50 0.50 C 4315 280 M
0 4591 V
stroke
LT0
0.50 0.50 0.50 C 4315 280 M
0 63 V
0 4528 R
0 -63 V
0 -4668 R
( 59.3969) Cshow
1.000 UL
LT0
0.50 0.50 0.50 C 1.000 UL
LTa
0.50 0.50 0.50 C 4355 280 M
0 4591 V
stroke
LT0
0.50 0.50 0.50 C 4355 280 M
0 63 V
0 4528 R
0 -63 V
0 -4668 R
( 60.104) Cshow
1.000 UL
LT0
0.50 0.50 0.50 C 1.000 UL
LTa
0.50 0.50 0.50 C 4395 280 M
0 4591 V
stroke
LT0
0.50 0.50 0.50 C 4395 280 M
0 63 V
0 4528 R
0 -63 V
0 -4668 R
( 60.8111) Cshow
1.000 UL
LT0
0.50 0.50 0.50 C 1.000 UL
LTa
0.50 0.50 0.50 C 4435 280 M
0 4591 V
stroke
LT0
0.50 0.50 0.50 C 4435 280 M
0 63 V
0 4528 R
0 -63 V
0 -4668 R
( 61.5182) Cshow
1.000 UL
LT0
0.50 0.50 0.50 C 1.000 UL
LTa
0.50 0.50 0.50 C 4475 280 M
0 4591 V
stroke
LT0
0.50 0.50 0.50 C 4475 280 M
0 63 V
0 4528 R
0 -63 V
0 -4668 R
( 62.2253) Cshow
1.000 UL
LT0
0.50 0.50 0.50 C 1.000 UL
LTa
0.50 0.50 0.50 C 4515 280 M
0 4591 V
stroke
LT0
0.50 0.50 0.50 C 4515 280 M
0 63 V
0 4528 R
0 -63 V
0 -4668 R
( 62.9324) Cshow
1.000 UL
LT0
0.50 0.50 0.50 C 1.000 UL
LTa
0.50 0.50 0.50 C 4555 280 M
0 4591 V
stroke
LT0
0.50 0.50 0.50 C 4555 280 M
0 63 V
0 4528 R
0 -63 V
0 -4668 R
( 63.6395) Cshow
1.000 UL
LT0
0.50 0.50 0.50 C 1.000 UL
LTa
0.50 0.50 0.50 C 4594 280 M
0 4591 V
stroke
LT0
0.50 0.50 0.50 C 4594 280 M
0 63 V
0 4528 R
0 -63 V
0 -4668 R
( 64.3466) Cshow
1.000 UL
LT0
0.50 0.50 0.50 C 1.000 UL
LTa
0.50 0.50 0.50 C 4634 280 M
0 4591 V
stroke
LT0
0.50 0.50 0.50 C 4634 280 M
0 63 V
0 4528 R
0 -63 V
0 -4668 R
( 65.0538) Cshow
1.000 UL
LT0
0.50 0.50 0.50 C 1.000 UL
LTa
0.50 0.50 0.50 C 4674 280 M
0 4591 V
stroke
LT0
0.50 0.50 0.50 C 4674 280 M
0 63 V
0 4528 R
0 -63 V
0 -4668 R
( 65.7609) Cshow
1.000 UL
LT0
0.50 0.50 0.50 C 1.000 UL
LTa
0.50 0.50 0.50 C 4714 280 M
0 4591 V
stroke
LT0
0.50 0.50 0.50 C 4714 280 M
0 63 V
0 4528 R
0 -63 V
0 -4668 R
( 66.468) Cshow
1.000 UL
LT0
0.50 0.50 0.50 C 1.000 UL
LTa
0.50 0.50 0.50 C 4754 280 M
0 4591 V
stroke
LT0
0.50 0.50 0.50 C 4754 280 M
0 63 V
0 4528 R
0 -63 V
0 -4668 R
( 67.1751) Cshow
1.000 UL
LT0
0.50 0.50 0.50 C 1.000 UL
LTa
0.50 0.50 0.50 C 4794 280 M
0 4591 V
stroke
LT0
0.50 0.50 0.50 C 4794 280 M
0 63 V
0 4528 R
0 -63 V
0 -4668 R
( 67.8822) Cshow
1.000 UL
LT0
0.50 0.50 0.50 C 1.000 UL
LTa
0.50 0.50 0.50 C 4834 280 M
0 4591 V
stroke
LT0
0.50 0.50 0.50 C 4834 280 M
0 63 V
0 4528 R
0 -63 V
0 -4668 R
( 68.5893) Cshow
1.000 UL
LT0
0.50 0.50 0.50 C 1.000 UL
LTa
0.50 0.50 0.50 C 4874 280 M
0 4591 V
stroke
LT0
0.50 0.50 0.50 C 4874 280 M
0 63 V
0 4528 R
0 -63 V
0 -4668 R
( 69.2964) Cshow
1.000 UL
LT0
0.50 0.50 0.50 C 1.000 UL
LTa
0.50 0.50 0.50 C 4913 280 M
0 4591 V
stroke
LT0
0.50 0.50 0.50 C 4913 280 M
0 63 V
0 4528 R
0 -63 V
0 -4668 R
( 70.0035) Cshow
1.000 UL
LT0
0.50 0.50 0.50 C 1.000 UL
LTa
0.50 0.50 0.50 C 4953 280 M
0 4591 V
stroke
LT0
0.50 0.50 0.50 C 4953 280 M
0 63 V
0 4528 R
0 -63 V
0 -4668 R
( 70.7106) Cshow
1.000 UL
LT0
0.50 0.50 0.50 C 1.000 UL
LTa
0.50 0.50 0.50 C 4993 280 M
0 4591 V
stroke
LT0
0.50 0.50 0.50 C 4993 280 M
0 63 V
0 4528 R
0 -63 V
0 -4668 R
( 71.4177) Cshow
1.000 UL
LT0
0.50 0.50 0.50 C 1.000 UL
LTa
0.50 0.50 0.50 C 5033 280 M
0 4591 V
stroke
LT0
0.50 0.50 0.50 C 5033 280 M
0 63 V
0 4528 R
0 -63 V
0 -4668 R
( 72.1248) Cshow
1.000 UL
LT0
0.50 0.50 0.50 C 1.000 UL
LTa
0.50 0.50 0.50 C 5073 280 M
0 4591 V
stroke
LT0
0.50 0.50 0.50 C 5073 280 M
0 63 V
0 4528 R
0 -63 V
0 -4668 R
( 72.8319) Cshow
1.000 UL
LT0
0.50 0.50 0.50 C 1.000 UL
LTa
0.50 0.50 0.50 C 5113 280 M
0 4591 V
stroke
LT0
0.50 0.50 0.50 C 5113 280 M
0 63 V
0 4528 R
0 -63 V
0 -4668 R
( 73.539) Cshow
1.000 UL
LT0
0.50 0.50 0.50 C 1.000 UL
LTa
0.50 0.50 0.50 C 5153 280 M
0 4591 V
stroke
LT0
0.50 0.50 0.50 C 5153 280 M
0 63 V
0 4528 R
0 -63 V
0 -4668 R
( 74.2461) Cshow
1.000 UL
LT0
0.50 0.50 0.50 C 1.000 UL
LTa
0.50 0.50 0.50 C 5193 280 M
0 4591 V
stroke
LT0
0.50 0.50 0.50 C 5193 280 M
0 63 V
0 4528 R
0 -63 V
0 -4668 R
( 74.9532) Cshow
1.000 UL
LT0
0.50 0.50 0.50 C 1.000 UL
LTa
0.50 0.50 0.50 C 5232 280 M
0 4591 V
stroke
LT0
0.50 0.50 0.50 C 5232 280 M
0 63 V
0 4528 R
0 -63 V
0 -4668 R
( 75.6603) Cshow
1.000 UL
LT0
0.50 0.50 0.50 C 1.000 UL
LTa
0.50 0.50 0.50 C 5272 280 M
0 4591 V
stroke
LT0
0.50 0.50 0.50 C 5272 280 M
0 63 V
0 4528 R
0 -63 V
0 -4668 R
( 76.3674) Cshow
1.000 UL
LT0
0.50 0.50 0.50 C 1.000 UL
LTa
0.50 0.50 0.50 C 5312 280 M
0 4591 V
stroke
LT0
0.50 0.50 0.50 C 5312 280 M
0 63 V
0 4528 R
0 -63 V
0 -4668 R
( 77.0746) Cshow
1.000 UL
LT0
0.50 0.50 0.50 C 1.000 UL
LTa
0.50 0.50 0.50 C 5352 280 M
0 4591 V
stroke
LT0
0.50 0.50 0.50 C 5352 280 M
0 63 V
0 4528 R
0 -63 V
0 -4668 R
( 77.7817) Cshow
1.000 UL
LT0
0.50 0.50 0.50 C 1.000 UL
LTa
0.50 0.50 0.50 C 5392 280 M
0 4591 V
stroke
LT0
0.50 0.50 0.50 C 5392 280 M
0 63 V
0 4528 R
0 -63 V
0 -4668 R
( 78.4888) Cshow
1.000 UL
LT0
0.50 0.50 0.50 C 1.000 UL
LTa
0.50 0.50 0.50 C 5432 280 M
0 4591 V
stroke
LT0
0.50 0.50 0.50 C 5432 280 M
0 63 V
0 4528 R
0 -63 V
0 -4668 R
( 79.1959) Cshow
1.000 UL
LT0
0.50 0.50 0.50 C 1.000 UL
LTa
0.50 0.50 0.50 C 5472 280 M
0 4591 V
stroke
LT0
0.50 0.50 0.50 C 5472 280 M
0 63 V
0 4528 R
0 -63 V
0 -4668 R
( 79.903) Cshow
1.000 UL
LT0
0.50 0.50 0.50 C 1.000 UL
LTa
0.50 0.50 0.50 C 5512 280 M
0 4591 V
stroke
LT0
0.50 0.50 0.50 C 5512 280 M
0 63 V
0 4528 R
0 -63 V
0 -4668 R
( 80.6101) Cshow
1.000 UL
LT0
0.50 0.50 0.50 C 1.000 UL
LTa
0.50 0.50 0.50 C 5551 280 M
0 4591 V
stroke
LT0
0.50 0.50 0.50 C 5551 280 M
0 63 V
0 4528 R
0 -63 V
0 -4668 R
( 81.3172) Cshow
1.000 UL
LT0
0.50 0.50 0.50 C 1.000 UL
LTa
0.50 0.50 0.50 C 5591 280 M
0 4591 V
stroke
LT0
0.50 0.50 0.50 C 5591 280 M
0 63 V
0 4528 R
0 -63 V
0 -4668 R
( 82.0243) Cshow
1.000 UL
LT0
0.50 0.50 0.50 C 1.000 UL
LTa
0.50 0.50 0.50 C 5631 280 M
0 4591 V
stroke
LT0
0.50 0.50 0.50 C 5631 280 M
0 63 V
0 4528 R
0 -63 V
0 -4668 R
( 82.7314) Cshow
1.000 UL
LT0
0.50 0.50 0.50 C 1.000 UL
LTa
0.50 0.50 0.50 C 5671 280 M
0 4591 V
stroke
LT0
0.50 0.50 0.50 C 5671 280 M
0 63 V
0 4528 R
0 -63 V
0 -4668 R
( 83.4385) Cshow
1.000 UL
LT0
0.50 0.50 0.50 C 1.000 UL
LTa
0.50 0.50 0.50 C 5711 280 M
0 4591 V
stroke
LT0
0.50 0.50 0.50 C 5711 280 M
0 63 V
0 4528 R
0 -63 V
0 -4668 R
( 84.1456) Cshow
1.000 UL
LT0
0.50 0.50 0.50 C 1.000 UL
LTa
0.50 0.50 0.50 C 5751 280 M
0 4591 V
stroke
LT0
0.50 0.50 0.50 C 5751 280 M
0 63 V
0 4528 R
0 -63 V
0 -4668 R
( 84.8527) Cshow
1.000 UL
LT0
0.50 0.50 0.50 C 1.000 UL
LTa
0.50 0.50 0.50 C 5791 280 M
0 4591 V
stroke
LT0
0.50 0.50 0.50 C 5791 280 M
0 63 V
0 4528 R
0 -63 V
0 -4668 R
( 85.5598) Cshow
1.000 UL
LT0
0.50 0.50 0.50 C 1.000 UL
LTa
0.50 0.50 0.50 C 5831 280 M
0 4591 V
stroke
LT0
0.50 0.50 0.50 C 5831 280 M
0 63 V
0 4528 R
0 -63 V
0 -4668 R
( 86.2669) Cshow
1.000 UL
LT0
0.50 0.50 0.50 C 1.000 UL
LTa
0.50 0.50 0.50 C 5870 280 M
0 4591 V
stroke
LT0
0.50 0.50 0.50 C 5870 280 M
0 63 V
0 4528 R
0 -63 V
0 -4668 R
( 86.974) Cshow
1.000 UL
LT0
0.50 0.50 0.50 C 1.000 UL
LTa
0.50 0.50 0.50 C 5910 280 M
0 4591 V
stroke
LT0
0.50 0.50 0.50 C 5910 280 M
0 63 V
0 4528 R
0 -63 V
0 -4668 R
( 87.6811) Cshow
1.000 UL
LT0
0.50 0.50 0.50 C 1.000 UL
LTa
0.50 0.50 0.50 C 5950 280 M
0 4591 V
stroke
LT0
0.50 0.50 0.50 C 5950 280 M
0 63 V
0 4528 R
0 -63 V
0 -4668 R
( 88.3882) Cshow
1.000 UL
LT0
0.50 0.50 0.50 C 1.000 UL
LTa
0.50 0.50 0.50 C 5990 280 M
0 4591 V
stroke
LT0
0.50 0.50 0.50 C 5990 280 M
0 63 V
0 4528 R
0 -63 V
0 -4668 R
( 89.0954) Cshow
1.000 UL
LT0
0.50 0.50 0.50 C 1.000 UL
LTa
0.50 0.50 0.50 C 6030 280 M
0 4591 V
stroke
LT0
0.50 0.50 0.50 C 6030 280 M
0 63 V
0 4528 R
0 -63 V
0 -4668 R
( 89.8025) Cshow
1.000 UL
LT0
0.50 0.50 0.50 C 1.000 UL
LTa
0.50 0.50 0.50 C 6070 280 M
0 4591 V
stroke
LT0
0.50 0.50 0.50 C 6070 280 M
0 63 V
0 4528 R
0 -63 V
0 -4668 R
( 90.5096) Cshow
1.000 UL
LT0
0.50 0.50 0.50 C 1.000 UL
LTa
0.50 0.50 0.50 C 6110 280 M
0 4591 V
stroke
LT0
0.50 0.50 0.50 C 6110 280 M
0 63 V
0 4528 R
0 -63 V
0 -4668 R
( 91.2167) Cshow
1.000 UL
LT0
0.50 0.50 0.50 C 1.000 UL
LTa
0.50 0.50 0.50 C 6150 280 M
0 4591 V
stroke
LT0
0.50 0.50 0.50 C 6150 280 M
0 63 V
0 4528 R
0 -63 V
0 -4668 R
( 91.9238) Cshow
1.000 UL
LT0
0.50 0.50 0.50 C 1.000 UL
LTa
0.50 0.50 0.50 C 6189 280 M
0 4591 V
stroke
LT0
0.50 0.50 0.50 C 6189 280 M
0 63 V
0 4528 R
0 -63 V
0 -4668 R
( 92.6309) Cshow
1.000 UL
LT0
0.50 0.50 0.50 C 1.000 UL
LTa
0.50 0.50 0.50 C 6229 280 M
0 4591 V
stroke
LT0
0.50 0.50 0.50 C 6229 280 M
0 63 V
0 4528 R
0 -63 V
0 -4668 R
( 93.338) Cshow
1.000 UL
LT0
0.50 0.50 0.50 C 1.000 UL
LTa
0.50 0.50 0.50 C 6269 280 M
0 4591 V
stroke
LT0
0.50 0.50 0.50 C 6269 280 M
0 63 V
0 4528 R
0 -63 V
0 -4668 R
( 94.0451) Cshow
1.000 UL
LT0
0.50 0.50 0.50 C 1.000 UL
LTa
0.50 0.50 0.50 C 6309 280 M
0 4591 V
stroke
LT0
0.50 0.50 0.50 C 6309 280 M
0 63 V
0 4528 R
0 -63 V
0 -4668 R
( 94.7522) Cshow
1.000 UL
LT0
0.50 0.50 0.50 C 1.000 UL
LTa
0.50 0.50 0.50 C 6349 280 M
0 4591 V
stroke
LT0
0.50 0.50 0.50 C 6349 280 M
0 63 V
0 4528 R
0 -63 V
0 -4668 R
( 95.4593) Cshow
1.000 UL
LT0
0.50 0.50 0.50 C 1.000 UL
LTa
0.50 0.50 0.50 C 6389 280 M
0 4591 V
stroke
LT0
0.50 0.50 0.50 C 6389 280 M
0 63 V
0 4528 R
0 -63 V
0 -4668 R
( 96.1664) Cshow
1.000 UL
LT0
0.50 0.50 0.50 C 1.000 UL
LTa
0.50 0.50 0.50 C 6429 280 M
0 4591 V
stroke
LT0
0.50 0.50 0.50 C 6429 280 M
0 63 V
0 4528 R
0 -63 V
0 -4668 R
( 96.8735) Cshow
1.000 UL
LT0
0.50 0.50 0.50 C 1.000 UL
LTa
0.50 0.50 0.50 C 6469 280 M
0 4591 V
stroke
LT0
0.50 0.50 0.50 C 6469 280 M
0 63 V
0 4528 R
0 -63 V
0 -4668 R
( 97.5806) Cshow
1.000 UL
LT0
0.50 0.50 0.50 C 1.000 UL
LTa
0.50 0.50 0.50 C 6508 280 M
0 4591 V
stroke
LT0
0.50 0.50 0.50 C 6508 280 M
0 63 V
0 4528 R
0 -63 V
0 -4668 R
( 98.2877) Cshow
1.000 UL
LT0
0.50 0.50 0.50 C 1.000 UL
LTa
0.50 0.50 0.50 C 6548 280 M
0 4591 V
stroke
LT0
0.50 0.50 0.50 C 6548 280 M
0 63 V
0 4528 R
0 -63 V
0 -4668 R
( 98.9948) Cshow
1.000 UL
LT0
0.50 0.50 0.50 C 1.000 UL
LTa
0.50 0.50 0.50 C 6588 280 M
0 4591 V
stroke
LT0
0.50 0.50 0.50 C 6588 280 M
0 63 V
0 4528 R
0 -63 V
0 -4668 R
( 99.7019) Cshow
1.000 UL
LT0
0.50 0.50 0.50 C 1.000 UL
LTa
0.50 0.50 0.50 C 6628 280 M
0 4591 V
stroke
LT0
0.50 0.50 0.50 C 6628 280 M
0 63 V
0 4528 R
0 -63 V
0 -4668 R
( 100.409) Cshow
1.000 UL
LT0
0.50 0.50 0.50 C 1.000 UL
LTa
0.50 0.50 0.50 C 6668 280 M
0 4591 V
stroke
LT0
0.50 0.50 0.50 C 6668 280 M
0 63 V
0 4528 R
0 -63 V
0 -4668 R
( 101.116) Cshow
1.000 UL
LT0
0.50 0.50 0.50 C 1.000 UL
LTa
0.50 0.50 0.50 C 6708 280 M
0 4591 V
stroke
LT0
0.50 0.50 0.50 C 6708 280 M
0 63 V
0 4528 R
0 -63 V
0 -4668 R
( 101.823) Cshow
1.000 UL
LT0
0.50 0.50 0.50 C 1.000 UL
LTa
0.50 0.50 0.50 C 6748 280 M
0 4591 V
stroke
LT0
0.50 0.50 0.50 C 6748 280 M
0 63 V
0 4528 R
0 -63 V
0 -4668 R
( 102.53) Cshow
1.000 UL
LT0
0.50 0.50 0.50 C 1.000 UL
LTa
0.50 0.50 0.50 C 6788 280 M
0 4591 V
stroke
LT0
0.50 0.50 0.50 C 6788 280 M
0 63 V
0 4528 R
0 -63 V
0 -4668 R
( 103.237) Cshow
1.000 UL
LT0
0.50 0.50 0.50 C 1.000 UL
LTa
0.50 0.50 0.50 C 6827 280 M
0 4591 V
stroke
LT0
0.50 0.50 0.50 C 6827 280 M
0 63 V
0 4528 R
0 -63 V
0 -4668 R
( 103.945) Cshow
1.000 UL
LT0
0.50 0.50 0.50 C 1.000 UL
LTa
0.50 0.50 0.50 C 6867 280 M
0 4591 V
stroke
LT0
0.50 0.50 0.50 C 6867 280 M
0 63 V
0 4528 R
0 -63 V
0 -4668 R
( 104.652) Cshow
1.000 UL
LT0
0.50 0.50 0.50 C 1.000 UL
LTa
0.50 0.50 0.50 C 6907 280 M
0 4591 V
stroke
LT0
0.50 0.50 0.50 C 6907 280 M
0 63 V
0 4528 R
0 -63 V
0 -4668 R
( 105.359) Cshow
1.000 UL
LT0
0.50 0.50 0.50 C 1.000 UL
LTa
0.50 0.50 0.50 C 6947 280 M
0 4591 V
stroke
LT0
0.50 0.50 0.50 C 6947 280 M
0 63 V
0 4528 R
0 -63 V
0 -4668 R
( 106.066) Cshow
1.000 UL
LT0
0.50 0.50 0.50 C 1.000 UL
LT0
0.50 0.50 0.50 C 966 4871 M
966 280 L
5981 0 V
0 4591 R
-5981 0 R
1.000 UP
stroke
LT0
0.50 0.50 0.50 C % Begin plot #1
1.500 UP
2.000 UL
LT0
0.00 0.00 1.00 C /Helvetica findfont 140 scalefont setfont
/vshift -46 def
966 341 M
40 0 V
0 92 R
40 0 V
40 0 V
39 0 V
40 0 V
0 31 R
40 0 V
40 0 V
40 0 V
40 0 V
40 0 V
0 275 R
40 0 V
0 92 R
39 0 V
40 0 V
0 61 R
40 0 V
40 0 V
40 0 V
40 0 V
0 31 R
40 0 V
0 183 R
40 0 V
0 31 R
39 0 V
40 0 V
40 0 V
40 0 V
40 0 V
0 61 R
40 0 V
0 31 R
40 0 V
0 183 R
40 0 V
0 31 R
39 0 V
0 31 R
40 0 V
40 0 V
40 0 V
40 0 V
0 30 R
40 0 V
40 0 V
40 0 V
39 0 V
40 0 V
40 0 V
40 0 V
40 0 V
40 0 V
40 0 V
0 31 R
40 0 V
0 61 R
39 0 V
40 0 V
40 0 V
40 0 V
40 0 V
0 31 R
40 0 V
0 214 R
40 0 V
0 31 R
40 0 V
39 0 V
0 30 R
40 0 V
0 31 R
40 0 V
40 0 V
40 0 V
40 0 V
40 0 V
40 0 V
39 0 V
40 0 V
40 0 V
40 0 V
40 0 V
40 0 V
40 0 V
40 0 V
39 0 V
40 0 V
40 0 V
40 0 V
40 0 V
40 0 V
40 0 V
40 0 V
0 30 R
39 0 V
40 0 V
40 0 V
40 0 V
40 0 V
0 31 R
40 0 V
stroke 4196 1994 M
40 0 V
39 0 V
40 0 V
40 0 V
40 0 V
0 61 R
40 0 V
40 0 V
40 0 V
0 31 R
40 0 V
39 0 V
40 0 V
40 0 V
40 0 V
40 0 V
40 0 V
40 0 V
40 0 V
39 0 V
40 0 V
40 0 V
40 0 V
40 0 V
40 0 V
40 0 V
40 0 V
39 0 V
40 0 V
40 0 V
0 30 R
40 0 V
40 0 V
40 0 V
40 0 V
40 0 V
39 0 V
40 0 V
0 215 R
40 0 V
0 489 R
40 0 V
40 0 V
0 62 R
40 0 V
40 0 V
40 0 V
0 61 R
39 0 V
0 30 R
40 0 V
40 0 V
0 92 R
40 0 V
0 31 R
40 0 V
0 30 R
40 0 V
40 0 V
40 0 V
39 0 V
40 0 V
40 0 V
40 0 V
0 31 R
40 0 V
0 31 R
40 0 V
0 122 R
40 0 V
0 1071 R
40 0 V
39 0 V
40 0 V
40 0 V
40 0 V
0 184 R
40 0 V
40 0 V
40 0 V
39 0 V
0 31 R
40 0 V
0 30 R
40 0 V
0 123 R
40 0 V
1006 341 M
0 31 V
0 30 V
0 31 V
159 0 R
0 31 V
200 0 R
0 30 V
0 31 V
0 30 V
0 31 V
0 31 V
0 30 V
0 31 V
0 30 V
0 31 V
40 0 R
0 31 V
stroke 1405 770 M
0 30 V
0 31 V
79 0 R
0 31 V
0 30 V
160 0 R
0 31 V
40 0 R
0 30 V
0 31 V
0 31 V
0 30 V
0 31 V
0 30 V
40 0 R
0 31 V
199 0 R
0 31 V
0 30 V
40 0 R
0 31 V
40 0 R
0 30 V
0 31 V
0 31 V
0 30 V
0 31 V
0 30 V
40 0 R
0 31 V
39 0 R
0 31 V
160 0 R
0 30 V
399 0 R
0 31 V
40 0 R
0 30 V
0 31 V
199 0 R
0 31 V
40 0 R
0 30 V
0 31 V
0 31 V
0 30 V
0 31 V
0 30 V
0 31 V
40 0 R
0 31 V
79 0 R
0 30 V
40 0 R
0 31 V
878 0 R
0 30 V
199 0 R
0 31 V
239 0 R
0 31 V
0 30 V
120 0 R
0 31 V
797 0 R
0 30 V
279 0 R
0 31 V
0 31 V
0 30 V
0 31 V
0 30 V
0 31 V
0 31 V
40 0 R
0 30 V
0 31 V
0 30 V
0 31 V
0 31 V
0 30 V
0 31 V
0 31 V
0 30 V
0 31 V
0 30 V
0 31 V
0 31 V
0 30 V
0 31 V
0 30 V
80 0 R
0 31 V
0 31 V
120 0 R
0 30 V
0 31 V
39 0 R
0 30 V
80 0 R
0 31 V
0 31 V
0 30 V
40 0 R
0 31 V
stroke 5990 3096 M
40 0 R
0 30 V
279 0 R
0 31 V
40 0 R
0 31 V
40 0 R
0 30 V
0 31 V
0 30 V
0 31 V
40 0 R
0 31 V
0 30 V
0 31 V
0 30 V
0 31 V
0 31 V
0 30 V
0 31 V
0 31 V
0 30 V
0 31 V
0 30 V
0 31 V
0 31 V
0 30 V
0 31 V
0 30 V
0 31 V
0 31 V
0 30 V
0 31 V
0 30 V
0 31 V
0 31 V
0 30 V
0 31 V
0 30 V
0 31 V
0 31 V
0 30 V
0 31 V
0 30 V
0 31 V
0 31 V
0 30 V
199 0 R
0 31 V
0 31 V
0 30 V
0 31 V
0 30 V
0 31 V
159 0 R
0 31 V
40 0 R
0 30 V
40 0 R
0 31 V
0 30 V
0 31 V
0 31 V
966 280 M
0 31 V
6907 4810 M
0 30 V
966 311 M
0 30 V
6907 4749 M
0 30 V
0 31 V
966 341 CircleF
1006 341 CircleF
1006 433 CircleF
1046 433 CircleF
1046 433 CircleF
1086 433 CircleF
1086 433 CircleF
1125 433 CircleF
1125 433 CircleF
1165 433 CircleF
1165 464 CircleF
1205 464 CircleF
1205 464 CircleF
1245 464 CircleF
1245 464 CircleF
1285 464 CircleF
1285 464 CircleF
1325 464 CircleF
1325 464 CircleF
1365 464 CircleF
1365 739 CircleF
1405 739 CircleF
1405 831 CircleF
1444 831 CircleF
1444 831 CircleF
1484 831 CircleF
1484 892 CircleF
1524 892 CircleF
1524 892 CircleF
1564 892 CircleF
1564 892 CircleF
1604 892 CircleF
1604 892 CircleF
1644 892 CircleF
1644 923 CircleF
1684 923 CircleF
1684 1106 CircleF
1724 1106 CircleF
1724 1137 CircleF
1763 1137 CircleF
1763 1137 CircleF
1803 1137 CircleF
1803 1137 CircleF
1843 1137 CircleF
1843 1137 CircleF
1883 1137 CircleF
1883 1137 CircleF
1923 1137 CircleF
1923 1198 CircleF
1963 1198 CircleF
1963 1229 CircleF
2003 1229 CircleF
2003 1412 CircleF
2043 1412 CircleF
2043 1443 CircleF
2082 1443 CircleF
2082 1474 CircleF
2122 1474 CircleF
2122 1474 CircleF
2162 1474 CircleF
2162 1474 CircleF
2202 1474 CircleF
2202 1474 CircleF
2242 1474 CircleF
2242 1504 CircleF
2282 1504 CircleF
2282 1504 CircleF
2322 1504 CircleF
2322 1504 CircleF
2362 1504 CircleF
2362 1504 CircleF
2401 1504 CircleF
2401 1504 CircleF
2441 1504 CircleF
2441 1504 CircleF
2481 1504 CircleF
2481 1504 CircleF
2521 1504 CircleF
2521 1504 CircleF
2561 1504 CircleF
2561 1504 CircleF
2601 1504 CircleF
2601 1504 CircleF
2641 1504 CircleF
2641 1535 CircleF
2681 1535 CircleF
2681 1596 CircleF
2720 1596 CircleF
2720 1596 CircleF
2760 1596 CircleF
2760 1596 CircleF
2800 1596 CircleF
2800 1596 CircleF
2840 1596 CircleF
2840 1596 CircleF
2880 1596 CircleF
2880 1627 CircleF
2920 1627 CircleF
2920 1841 CircleF
2960 1841 CircleF
2960 1872 CircleF
3000 1872 CircleF
3000 1872 CircleF
3039 1872 CircleF
3039 1902 CircleF
3079 1902 CircleF
3079 1933 CircleF
3119 1933 CircleF
3119 1933 CircleF
3159 1933 CircleF
3159 1933 CircleF
3199 1933 CircleF
3199 1933 CircleF
3239 1933 CircleF
3239 1933 CircleF
3279 1933 CircleF
3279 1933 CircleF
3319 1933 CircleF
3319 1933 CircleF
3358 1933 CircleF
3358 1933 CircleF
3398 1933 CircleF
3398 1933 CircleF
3438 1933 CircleF
3438 1933 CircleF
3478 1933 CircleF
3478 1933 CircleF
3518 1933 CircleF
3518 1933 CircleF
3558 1933 CircleF
3558 1933 CircleF
3598 1933 CircleF
3598 1933 CircleF
3638 1933 CircleF
3638 1933 CircleF
3677 1933 CircleF
3677 1933 CircleF
3717 1933 CircleF
3717 1933 CircleF
3757 1933 CircleF
3757 1933 CircleF
3797 1933 CircleF
3797 1933 CircleF
3837 1933 CircleF
3837 1933 CircleF
3877 1933 CircleF
3877 1933 CircleF
3917 1933 CircleF
3917 1933 CircleF
3957 1933 CircleF
3957 1963 CircleF
3996 1963 CircleF
3996 1963 CircleF
4036 1963 CircleF
4036 1963 CircleF
4076 1963 CircleF
4076 1963 CircleF
4116 1963 CircleF
4116 1963 CircleF
4156 1963 CircleF
4156 1994 CircleF
4196 1994 CircleF
4196 1994 CircleF
4236 1994 CircleF
4236 1994 CircleF
4275 1994 CircleF
4275 1994 CircleF
4315 1994 CircleF
4315 1994 CircleF
4355 1994 CircleF
4355 1994 CircleF
4395 1994 CircleF
4395 2055 CircleF
4435 2055 CircleF
4435 2055 CircleF
4475 2055 CircleF
4475 2055 CircleF
4515 2055 CircleF
4515 2086 CircleF
4555 2086 CircleF
4555 2086 CircleF
4594 2086 CircleF
4594 2086 CircleF
4634 2086 CircleF
4634 2086 CircleF
4674 2086 CircleF
4674 2086 CircleF
4714 2086 CircleF
4714 2086 CircleF
4754 2086 CircleF
4754 2086 CircleF
4794 2086 CircleF
4794 2086 CircleF
4834 2086 CircleF
4834 2086 CircleF
4874 2086 CircleF
4874 2086 CircleF
4913 2086 CircleF
4913 2086 CircleF
4953 2086 CircleF
4953 2086 CircleF
4993 2086 CircleF
4993 2086 CircleF
5033 2086 CircleF
5033 2086 CircleF
5073 2086 CircleF
5073 2086 CircleF
5113 2086 CircleF
5113 2086 CircleF
5153 2086 CircleF
5153 2086 CircleF
5193 2086 CircleF
5193 2086 CircleF
5232 2086 CircleF
5232 2086 CircleF
5272 2086 CircleF
5272 2086 CircleF
5312 2086 CircleF
5312 2116 CircleF
5352 2116 CircleF
5352 2116 CircleF
5392 2116 CircleF
5392 2116 CircleF
5432 2116 CircleF
5432 2116 CircleF
5472 2116 CircleF
5472 2116 CircleF
5512 2116 CircleF
5512 2116 CircleF
5551 2116 CircleF
5551 2116 CircleF
5591 2116 CircleF
5591 2331 CircleF
5631 2331 CircleF
5631 2820 CircleF
5671 2820 CircleF
5671 2820 CircleF
5711 2820 CircleF
5711 2882 CircleF
5751 2882 CircleF
5751 2882 CircleF
5791 2882 CircleF
5791 2882 CircleF
5831 2882 CircleF
5831 2943 CircleF
5870 2943 CircleF
5870 2973 CircleF
5910 2973 CircleF
5910 2973 CircleF
5950 2973 CircleF
5950 3065 CircleF
5990 3065 CircleF
5990 3096 CircleF
6030 3096 CircleF
6030 3126 CircleF
6070 3126 CircleF
6070 3126 CircleF
6110 3126 CircleF
6110 3126 CircleF
6150 3126 CircleF
6150 3126 CircleF
6189 3126 CircleF
6189 3126 CircleF
6229 3126 CircleF
6229 3126 CircleF
6269 3126 CircleF
6269 3126 CircleF
6309 3126 CircleF
6309 3157 CircleF
6349 3157 CircleF
6349 3188 CircleF
6389 3188 CircleF
6389 3310 CircleF
6429 3310 CircleF
6429 4381 CircleF
6469 4381 CircleF
6469 4381 CircleF
6508 4381 CircleF
6508 4381 CircleF
6548 4381 CircleF
6548 4381 CircleF
6588 4381 CircleF
6588 4381 CircleF
6628 4381 CircleF
6628 4565 CircleF
6668 4565 CircleF
6668 4565 CircleF
6708 4565 CircleF
6708 4565 CircleF
6748 4565 CircleF
6748 4565 CircleF
6787 4565 CircleF
6787 4596 CircleF
6827 4596 CircleF
6827 4626 CircleF
6867 4626 CircleF
6867 4749 CircleF
6907 4749 CircleF
1006 341 CircleF
1006 372 CircleF
1006 372 CircleF
1006 402 CircleF
1006 402 CircleF
1006 433 CircleF
1165 433 CircleF
1165 464 CircleF
1365 464 CircleF
1365 494 CircleF
1365 494 CircleF
1365 525 CircleF
1365 525 CircleF
1365 555 CircleF
1365 555 CircleF
1365 586 CircleF
1365 586 CircleF
1365 617 CircleF
1365 617 CircleF
1365 647 CircleF
1365 647 CircleF
1365 678 CircleF
1365 678 CircleF
1365 708 CircleF
1365 708 CircleF
1365 739 CircleF
1405 739 CircleF
1405 770 CircleF
1405 770 CircleF
1405 800 CircleF
1405 800 CircleF
1405 831 CircleF
1484 831 CircleF
1484 862 CircleF
1484 862 CircleF
1484 892 CircleF
1644 892 CircleF
1644 923 CircleF
1684 923 CircleF
1684 953 CircleF
1684 953 CircleF
1684 984 CircleF
1684 984 CircleF
1684 1015 CircleF
1684 1015 CircleF
1684 1045 CircleF
1684 1045 CircleF
1684 1076 CircleF
1684 1076 CircleF
1684 1106 CircleF
1724 1106 CircleF
1724 1137 CircleF
1923 1137 CircleF
1923 1168 CircleF
1923 1168 CircleF
1923 1198 CircleF
1963 1198 CircleF
1963 1229 CircleF
2003 1229 CircleF
2003 1259 CircleF
2003 1259 CircleF
2003 1290 CircleF
2003 1290 CircleF
2003 1321 CircleF
2003 1321 CircleF
2003 1351 CircleF
2003 1351 CircleF
2003 1382 CircleF
2003 1382 CircleF
2003 1412 CircleF
2043 1412 CircleF
2043 1443 CircleF
2082 1443 CircleF
2082 1474 CircleF
2242 1474 CircleF
2242 1504 CircleF
2641 1504 CircleF
2641 1535 CircleF
2681 1535 CircleF
2681 1565 CircleF
2681 1565 CircleF
2681 1596 CircleF
2880 1596 CircleF
2880 1627 CircleF
2920 1627 CircleF
2920 1657 CircleF
2920 1657 CircleF
2920 1688 CircleF
2920 1688 CircleF
2920 1719 CircleF
2920 1719 CircleF
2920 1749 CircleF
2920 1749 CircleF
2920 1780 CircleF
2920 1780 CircleF
2920 1810 CircleF
2920 1810 CircleF
2920 1841 CircleF
2960 1841 CircleF
2960 1872 CircleF
3039 1872 CircleF
3039 1902 CircleF
3079 1902 CircleF
3079 1933 CircleF
3957 1933 CircleF
3957 1963 CircleF
4156 1963 CircleF
4156 1994 CircleF
4395 1994 CircleF
4395 2025 CircleF
4395 2025 CircleF
4395 2055 CircleF
4515 2055 CircleF
4515 2086 CircleF
5312 2086 CircleF
5312 2116 CircleF
5591 2116 CircleF
5591 2147 CircleF
5591 2147 CircleF
5591 2178 CircleF
5591 2178 CircleF
5591 2208 CircleF
5591 2208 CircleF
5591 2239 CircleF
5591 2239 CircleF
5591 2269 CircleF
5591 2269 CircleF
5591 2300 CircleF
5591 2300 CircleF
5591 2331 CircleF
5631 2331 CircleF
5631 2361 CircleF
5631 2361 CircleF
5631 2392 CircleF
5631 2392 CircleF
5631 2422 CircleF
5631 2422 CircleF
5631 2453 CircleF
5631 2453 CircleF
5631 2484 CircleF
5631 2484 CircleF
5631 2514 CircleF
5631 2514 CircleF
5631 2545 CircleF
5631 2545 CircleF
5631 2576 CircleF
5631 2576 CircleF
5631 2606 CircleF
5631 2606 CircleF
5631 2637 CircleF
5631 2637 CircleF
5631 2667 CircleF
5631 2667 CircleF
5631 2698 CircleF
5631 2698 CircleF
5631 2729 CircleF
5631 2729 CircleF
5631 2759 CircleF
5631 2759 CircleF
5631 2790 CircleF
5631 2790 CircleF
5631 2820 CircleF
5711 2820 CircleF
5711 2851 CircleF
5711 2851 CircleF
5711 2882 CircleF
5831 2882 CircleF
5831 2912 CircleF
5831 2912 CircleF
5831 2943 CircleF
5870 2943 CircleF
5870 2973 CircleF
5950 2973 CircleF
5950 3004 CircleF
5950 3004 CircleF
5950 3035 CircleF
5950 3035 CircleF
5950 3065 CircleF
5990 3065 CircleF
5990 3096 CircleF
6030 3096 CircleF
6030 3126 CircleF
6309 3126 CircleF
6309 3157 CircleF
6349 3157 CircleF
6349 3188 CircleF
6389 3188 CircleF
6389 3218 CircleF
6389 3218 CircleF
6389 3249 CircleF
6389 3249 CircleF
6389 3279 CircleF
6389 3279 CircleF
6389 3310 CircleF
6429 3310 CircleF
6429 3341 CircleF
6429 3341 CircleF
6429 3371 CircleF
6429 3371 CircleF
6429 3402 CircleF
6429 3402 CircleF
6429 3432 CircleF
6429 3432 CircleF
6429 3463 CircleF
6429 3463 CircleF
6429 3494 CircleF
6429 3494 CircleF
6429 3524 CircleF
6429 3524 CircleF
6429 3555 CircleF
6429 3555 CircleF
6429 3586 CircleF
6429 3586 CircleF
6429 3616 CircleF
6429 3616 CircleF
6429 3647 CircleF
6429 3647 CircleF
6429 3677 CircleF
6429 3677 CircleF
6429 3708 CircleF
6429 3708 CircleF
6429 3739 CircleF
6429 3739 CircleF
6429 3769 CircleF
6429 3769 CircleF
6429 3800 CircleF
6429 3800 CircleF
6429 3830 CircleF
6429 3830 CircleF
6429 3861 CircleF
6429 3861 CircleF
6429 3892 CircleF
6429 3892 CircleF
6429 3922 CircleF
6429 3922 CircleF
6429 3953 CircleF
6429 3953 CircleF
6429 3983 CircleF
6429 3983 CircleF
6429 4014 CircleF
6429 4014 CircleF
6429 4045 CircleF
6429 4045 CircleF
6429 4075 CircleF
6429 4075 CircleF
6429 4106 CircleF
6429 4106 CircleF
6429 4136 CircleF
6429 4136 CircleF
6429 4167 CircleF
6429 4167 CircleF
6429 4198 CircleF
6429 4198 CircleF
6429 4228 CircleF
6429 4228 CircleF
6429 4259 CircleF
6429 4259 CircleF
6429 4289 CircleF
6429 4289 CircleF
6429 4320 CircleF
6429 4320 CircleF
6429 4351 CircleF
6429 4351 CircleF
6429 4381 CircleF
6628 4381 CircleF
6628 4412 CircleF
6628 4412 CircleF
6628 4443 CircleF
6628 4443 CircleF
6628 4473 CircleF
6628 4473 CircleF
6628 4504 CircleF
6628 4504 CircleF
6628 4534 CircleF
6628 4534 CircleF
6628 4565 CircleF
6787 4565 CircleF
6787 4596 CircleF
6827 4596 CircleF
6827 4626 CircleF
6867 4626 CircleF
6867 4657 CircleF
6867 4657 CircleF
6867 4687 CircleF
6867 4687 CircleF
6867 4718 CircleF
6867 4718 CircleF
6867 4749 CircleF
966 280 CircleF
966 311 CircleF
6907 4810 CircleF
6907 4840 CircleF
966 311 CircleF
966 341 CircleF
6907 4749 CircleF
6907 4779 CircleF
6907 4779 CircleF
6907 4810 CircleF
% End plot #1
% Begin plot #2
1.500 UP
2.000 UL
LT0
1.00 0.55 0.00 C /Helvetica findfont 140 scalefont setfont
6701 4025 M
40 31 V
1227 2445 M
40 30 V
4015 1951 M
40 30 V
5724 835 M
40 30 V
3209 4657 M
40 30 V
5037 3183 M
40 31 V
2071 4469 M
39 31 V
2947 3062 M
40 31 V
2694 2287 M
40 31 V
4502 4361 M
40 31 V
6416 3385 M
39 31 V
1874 4695 M
40 31 V
5484 1184 M
39 31 V
586 1221 R
40 31 V
5329 4176 M
40 30 V
5346 2414 M
40 30 V
3519 3501 M
39 30 V
993 595 R
40 31 V
908 -802 R
40 31 V
2217 1480 M
40 31 V
1710 3853 M
40 30 V
3541 1086 M
40 30 V
2478 901 R
40 31 V
209 -538 R
40 30 V
1859 396 M
40 31 V
1485 3134 M
40 31 V
234 720 R
40 31 V
4519 2354 M
40 30 V
6736 4220 M
40 30 V
1520 3746 M
40 31 V
1389 1818 M
40 31 V
4122 1608 M
40 30 V
1375 449 R
40 30 V
1750 674 M
40 31 V
4014 3912 M
40 30 V
71 -1986 R
40 30 V
5213 491 M
40 30 V
3325 3061 M
40 31 V
4773 2406 M
40 30 V
3871 4023 M
40 31 V
2800 835 M
39 31 V
3677 335 R
40 31 V
5608 2314 M
39 30 V
360 751 R
39 31 V
5553 311 M
40 30 V
4476 2043 M
40 30 V
767 1072 R
40 31 V
6119 657 M
40 30 V
1322 453 M
40 31 V
5289 2080 M
40 31 V
449 194 R
40 31 V
-3952 87 R
40 30 V
-593 792 R
40 31 V
stroke 1353 3276 M
5853 1813 M
40 30 V
3242 736 M
40 31 V
5321 3119 M
40 30 V
1519 2123 M
40 31 V
1101 1618 M
40 31 V
4716 627 M
39 31 V
3427 872 M
40 31 V
1987 4292 M
40 30 V
3224 3038 M
39 30 V
-554 207 R
40 31 V
4010 1085 M
40 31 V
2616 1969 M
40 31 V
-14 -77 R
40 31 V
6198 4073 M
39 31 V
388 453 R
39 31 V
2539 1980 M
40 30 V
3732 474 R
40 31 V
2985 2787 M
40 31 V
4404 939 M
39 31 V
4248 2307 M
40 31 V
2627 1508 M
40 31 V
4582 1095 M
39 31 V
3994 4705 M
40 30 V
596 -884 R
40 30 V
4771 1934 M
39 31 V
3230 4760 M
40 30 V
6231 2601 M
40 30 V
1183 449 M
40 30 V
2877 1607 M
40 31 V
2405 804 R
40 30 V
1523 2866 M
40 30 V
2646 1674 M
40 30 V
2405 3439 M
40 31 V
5209 1851 M
40 31 V
782 17 R
40 31 V
3776 2992 M
40 31 V
-171 237 R
40 30 V
2229 317 M
40 31 V
6204 2328 M
40 31 V
3510 591 M
40 30 V
944 1756 R
40 31 V
1411 4707 M
40 30 V
5560 3685 M
40 30 V
2163 3146 M
40 31 V
6461 2908 M
40 30 V
2245 2486 M
39 31 V
5744 4277 M
40 31 V
-2078 50 R
40 30 V
2610 1000 M
40 30 V
-1339 42 R
40 30 V
2476 3134 M
40 30 V
477 730 R
39 30 V
stroke 3032 3924 M
4475 2652 M
40 30 V
-1636 47 R
40 31 V
896 345 R
40 31 V
2743 3303 M
40 31 V
3999 4620 M
39 31 V
3509 1793 M
40 30 V
3196 302 R
40 31 V
1750 3799 M
39 30 V
647 493 R
40 31 V
1451 3340 M
40 31 V
6197 820 M
40 30 V
289 3441 R
39 31 V
117 -180 R
40 30 V
6393 2970 M
40 31 V
3653 4340 M
40 31 V
5169 2094 M
40 30 V
980 1644 M
40 31 V
4081 3109 M
40 31 V
3388 602 M
40 31 V
486 577 R
40 31 V
-172 952 R
40 31 V
5003 4660 M
40 30 V
6502 2938 M
40 31 V
1615 697 M
40 30 V
4456 436 M
40 31 V
1839 4447 M
39 30 V
3053 831 M
40 31 V
1083 2864 M
40 30 V
4045 250 R
40 31 V
3470 1621 M
40 30 V
167 2761 R
39 30 V
4883 4035 M
40 31 V
2479 823 M
40 31 V
993 1064 R
40 31 V
6391 4350 M
40 30 V
5369 3848 M
40 30 V
1354 2527 M
40 31 V
750 372 R
39 31 V
1460 4221 M
40 31 V
5116 3271 M
40 31 V
2582 2639 M
40 31 V
978 4539 M
40 30 V
3719 230 R
40 31 V
1746 797 M
40 31 V
3969 2198 M
40 30 V
5977 4481 M
40 31 V
5664 1634 M
40 30 V
2486 577 M
40 31 V
5060 3472 M
39 30 V
3665 1419 M
40 31 V
2377 2533 M
40 31 V
4037 841 M
40 30 V
stroke 4077 871 M
6602 4364 M
40 30 V
2909 3204 M
39 31 V
5883 1856 M
40 31 V
1951 1199 M
40 31 V
1414 4789 M
40 30 V
2266 1925 M
39 30 V
823 2564 R
40 30 V
5036 4000 M
40 30 V
24 -1963 R
40 31 V
2129 4682 M
39 30 V
6428 4051 M
40 30 V
5617 2805 M
40 31 V
2674 2495 M
40 31 V
4908 879 M
40 30 V
5976 3061 M
40 31 V
2431 2122 M
40 31 V
2000 3913 M
40 31 V
2654 1568 M
40 30 V
1019 921 R
40 31 V
3939 608 M
39 31 V
840 3411 R
40 31 V
1302 3400 M
39 30 V
4325 812 M
40 30 V
313 1765 R
40 30 V
6680 4418 M
40 30 V
1275 1128 M
40 30 V
4095 951 M
39 31 V
6566 2473 M
40 30 V
1302 4472 M
40 31 V
4123 885 M
40 30 V
1712 2366 M
39 30 V
3535 768 R
40 31 V
2613 2405 M
40 30 V
3992 361 M
39 31 V
1786 2717 M
40 31 V
2602 758 R
40 31 V
5264 430 M
40 31 V
6483 3526 M
40 30 V
1998 1401 M
40 31 V
2820 210 R
40 31 V
631 2218 R
40 30 V
4029 3633 M
40 31 V
3350 1932 M
39 31 V
1758 4609 M
40 31 V
2902 3994 M
40 31 V
1546 41 R
40 31 V
1668 2800 M
40 30 V
79 846 R
40 31 V
1503 3407 M
40 30 V
5036 554 M
40 31 V
1682 1098 M
40 30 V
3884 3528 M
40 31 V
stroke 3924 3559 M
6335 872 M
40 31 V
1395 4318 M
40 30 V
5115 2654 M
40 31 V
672 230 R
40 31 V
2149 1726 M
40 31 V
-970 570 R
39 31 V
1443 1349 M
40 30 V
5045 4050 M
39 31 V
2541 4457 M
40 30 V
4188 1486 M
40 31 V
5498 4213 M
40 30 V
4034 3466 M
40 30 V
2557 4627 M
40 31 V
5380 4160 M
40 31 V
3691 4574 M
40 31 V
6317 3163 M
40 30 V
1391 810 M
39 31 V
-65 2787 R
40 31 V
5599 1335 M
40 31 V
766 2816 R
40 31 V
4847 2372 M
40 31 V
4876 1311 M
40 30 V
5047 459 M
40 31 V
3889 2880 M
39 31 V
2394 4293 M
40 30 V
2957 151 R
40 31 V
2652 318 M
40 30 V
721 1465 R
40 30 V
4796 403 M
40 30 V
121 1630 R
40 30 V
-3400 27 R
40 30 V
968 2234 R
40 30 V
4603 3227 M
40 31 V
2039 195 R
40 31 V
3189 406 M
39 30 V
4981 1575 M
40 31 V
1306 838 M
40 31 V
810 -45 R
40 31 V
745 2590 R
39 31 V
6752 2730 M
39 30 V
3038 1886 M
40 31 V
6701 4025 CircleF
6741 4056 CircleF
1227 2445 CircleF
1267 2475 CircleF
4015 1951 CircleF
4055 1981 CircleF
5724 835 CircleF
5764 865 CircleF
3209 4657 CircleF
3249 4687 CircleF
5037 3183 CircleF
5077 3214 CircleF
2071 4469 CircleF
2110 4500 CircleF
2947 3062 CircleF
2987 3093 CircleF
2694 2287 CircleF
2734 2318 CircleF
4502 4361 CircleF
4542 4392 CircleF
6416 3385 CircleF
6455 3416 CircleF
1874 4695 CircleF
1914 4726 CircleF
5484 1184 CircleF
5523 1215 CircleF
6109 2436 CircleF
6149 2467 CircleF
5329 4176 CircleF
5369 4206 CircleF
5346 2414 CircleF
5386 2444 CircleF
3519 3501 CircleF
3558 3531 CircleF
4551 4126 CircleF
4591 4157 CircleF
5499 3355 CircleF
5539 3386 CircleF
2217 1480 CircleF
2257 1511 CircleF
1710 3853 CircleF
1750 3883 CircleF
3541 1086 CircleF
3581 1116 CircleF
6059 2017 CircleF
6099 2048 CircleF
6308 1510 CircleF
6348 1540 CircleF
1859 396 CircleF
1899 427 CircleF
1485 3134 CircleF
1525 3165 CircleF
1759 3885 CircleF
1799 3916 CircleF
4519 2354 CircleF
4559 2384 CircleF
6736 4220 CircleF
6776 4250 CircleF
1520 3746 CircleF
1560 3777 CircleF
1389 1818 CircleF
1429 1849 CircleF
4122 1608 CircleF
4162 1638 CircleF
5537 2087 CircleF
5577 2117 CircleF
1750 674 CircleF
1790 705 CircleF
4014 3912 CircleF
4054 3942 CircleF
4125 1956 CircleF
4165 1986 CircleF
5213 491 CircleF
5253 521 CircleF
3325 3061 CircleF
3365 3092 CircleF
4773 2406 CircleF
4813 2436 CircleF
3871 4023 CircleF
3911 4054 CircleF
2800 835 CircleF
2839 866 CircleF
6516 1201 CircleF
6556 1232 CircleF
5608 2314 CircleF
5647 2344 CircleF
6007 3095 CircleF
6046 3126 CircleF
5553 311 CircleF
5593 341 CircleF
4476 2043 CircleF
4516 2073 CircleF
5283 3145 CircleF
5323 3176 CircleF
6119 657 CircleF
6159 687 CircleF
1322 453 CircleF
1362 484 CircleF
5289 2080 CircleF
5329 2111 CircleF
5778 2305 CircleF
5818 2336 CircleF
1866 2423 CircleF
1906 2453 CircleF
1313 3245 CircleF
1353 3276 CircleF
5853 1813 CircleF
5893 1843 CircleF
3242 736 CircleF
3282 767 CircleF
5321 3119 CircleF
5361 3149 CircleF
1519 2123 CircleF
1559 2154 CircleF
1101 1618 CircleF
1141 1649 CircleF
4716 627 CircleF
4755 658 CircleF
3427 872 CircleF
3467 903 CircleF
1987 4292 CircleF
2027 4322 CircleF
3224 3038 CircleF
3263 3068 CircleF
2709 3275 CircleF
2749 3306 CircleF
4010 1085 CircleF
4050 1116 CircleF
2616 1969 CircleF
2656 2000 CircleF
2642 1923 CircleF
2682 1954 CircleF
6198 4073 CircleF
6237 4104 CircleF
6625 4557 CircleF
6664 4588 CircleF
2539 1980 CircleF
2579 2010 CircleF
6311 2484 CircleF
6351 2515 CircleF
2985 2787 CircleF
3025 2818 CircleF
4404 939 CircleF
4443 970 CircleF
4248 2307 CircleF
4288 2338 CircleF
2627 1508 CircleF
2667 1539 CircleF
4582 1095 CircleF
4621 1126 CircleF
3994 4705 CircleF
4034 4735 CircleF
4630 3851 CircleF
4670 3881 CircleF
4771 1934 CircleF
4810 1965 CircleF
3230 4760 CircleF
3270 4790 CircleF
6231 2601 CircleF
6271 2631 CircleF
1183 449 CircleF
1223 479 CircleF
2877 1607 CircleF
2917 1638 CircleF
5322 2442 CircleF
5362 2472 CircleF
1523 2866 CircleF
1563 2896 CircleF
2646 1674 CircleF
2686 1704 CircleF
2405 3439 CircleF
2445 3470 CircleF
5209 1851 CircleF
5249 1882 CircleF
6031 1899 CircleF
6071 1930 CircleF
3776 2992 CircleF
3816 3023 CircleF
3645 3260 CircleF
3685 3290 CircleF
2229 317 CircleF
2269 348 CircleF
6204 2328 CircleF
6244 2359 CircleF
3510 591 CircleF
3550 621 CircleF
4494 2377 CircleF
4534 2408 CircleF
1411 4707 CircleF
1451 4737 CircleF
5560 3685 CircleF
5600 3715 CircleF
2163 3146 CircleF
2203 3177 CircleF
6461 2908 CircleF
6501 2938 CircleF
2245 2486 CircleF
2284 2517 CircleF
5744 4277 CircleF
5784 4308 CircleF
3706 4358 CircleF
3746 4388 CircleF
2610 1000 CircleF
2650 1030 CircleF
1311 1072 CircleF
1351 1102 CircleF
2476 3134 CircleF
2516 3164 CircleF
2993 3894 CircleF
3032 3924 CircleF
4475 2652 CircleF
4515 2682 CircleF
2879 2729 CircleF
2919 2760 CircleF
3815 3105 CircleF
3855 3136 CircleF
2743 3303 CircleF
2783 3334 CircleF
3999 4620 CircleF
4038 4651 CircleF
3509 1793 CircleF
3549 1823 CircleF
6745 2125 CircleF
6785 2156 CircleF
1750 3799 CircleF
1789 3829 CircleF
2436 4322 CircleF
2476 4353 CircleF
1451 3340 CircleF
1491 3371 CircleF
6197 820 CircleF
6237 850 CircleF
6526 4291 CircleF
6565 4322 CircleF
6682 4142 CircleF
6722 4172 CircleF
6393 2970 CircleF
6433 3001 CircleF
3653 4340 CircleF
3693 4371 CircleF
5169 2094 CircleF
5209 2124 CircleF
980 1644 CircleF
1020 1675 CircleF
4081 3109 CircleF
4121 3140 CircleF
3388 602 CircleF
3428 633 CircleF
3914 1210 CircleF
3954 1241 CircleF
3782 2193 CircleF
3822 2224 CircleF
5003 4660 CircleF
5043 4690 CircleF
6502 2938 CircleF
6542 2969 CircleF
1615 697 CircleF
1655 727 CircleF
4456 436 CircleF
4496 467 CircleF
1839 4447 CircleF
1878 4477 CircleF
3053 831 CircleF
3093 862 CircleF
1083 2864 CircleF
1123 2894 CircleF
5168 3144 CircleF
5208 3175 CircleF
3470 1621 CircleF
3510 1651 CircleF
3677 4412 CircleF
3716 4442 CircleF
4883 4035 CircleF
4923 4066 CircleF
2479 823 CircleF
2519 854 CircleF
3512 1918 CircleF
3552 1949 CircleF
6391 4350 CircleF
6431 4380 CircleF
5369 3848 CircleF
5409 3878 CircleF
1354 2527 CircleF
1394 2558 CircleF
2144 2930 CircleF
2183 2961 CircleF
1460 4221 CircleF
1500 4252 CircleF
5116 3271 CircleF
5156 3302 CircleF
2582 2639 CircleF
2622 2670 CircleF
978 4539 CircleF
1018 4569 CircleF
4737 4799 CircleF
4777 4830 CircleF
1746 797 CircleF
1786 828 CircleF
3969 2198 CircleF
4009 2228 CircleF
5977 4481 CircleF
6017 4512 CircleF
5664 1634 CircleF
5704 1664 CircleF
2486 577 CircleF
2526 608 CircleF
5060 3472 CircleF
5099 3502 CircleF
3665 1419 CircleF
3705 1450 CircleF
2377 2533 CircleF
2417 2564 CircleF
4037 841 CircleF
4077 871 CircleF
6602 4364 CircleF
6642 4394 CircleF
2909 3204 CircleF
2948 3235 CircleF
5883 1856 CircleF
5923 1887 CircleF
1951 1199 CircleF
1991 1230 CircleF
1414 4789 CircleF
1454 4819 CircleF
2266 1925 CircleF
2305 1955 CircleF
3128 4519 CircleF
3168 4549 CircleF
5036 4000 CircleF
5076 4030 CircleF
5100 2067 CircleF
5140 2098 CircleF
2129 4682 CircleF
2168 4712 CircleF
6428 4051 CircleF
6468 4081 CircleF
5617 2805 CircleF
5657 2836 CircleF
2674 2495 CircleF
2714 2526 CircleF
4908 879 CircleF
4948 909 CircleF
5976 3061 CircleF
6016 3092 CircleF
2431 2122 CircleF
2471 2153 CircleF
2000 3913 CircleF
2040 3944 CircleF
2654 1568 CircleF
2694 1598 CircleF
3713 2519 CircleF
3753 2550 CircleF
3939 608 CircleF
3978 639 CircleF
4818 4050 CircleF
4858 4081 CircleF
1302 3400 CircleF
1341 3430 CircleF
4325 812 CircleF
4365 842 CircleF
4678 2607 CircleF
4718 2637 CircleF
6680 4418 CircleF
6720 4448 CircleF
1275 1128 CircleF
1315 1158 CircleF
4095 951 CircleF
4134 982 CircleF
6566 2473 CircleF
6606 2503 CircleF
1302 4472 CircleF
1342 4503 CircleF
4123 885 CircleF
4163 915 CircleF
1712 2366 CircleF
1751 2396 CircleF
5286 3164 CircleF
5326 3195 CircleF
2613 2405 CircleF
2653 2435 CircleF
3992 361 CircleF
4031 392 CircleF
1786 2717 CircleF
1826 2748 CircleF
4428 3506 CircleF
4468 3537 CircleF
5264 430 CircleF
5304 461 CircleF
6483 3526 CircleF
6523 3556 CircleF
1998 1401 CircleF
2038 1432 CircleF
4858 1642 CircleF
4898 1673 CircleF
5529 3891 CircleF
5569 3921 CircleF
4029 3633 CircleF
4069 3664 CircleF
3350 1932 CircleF
3389 1963 CircleF
1758 4609 CircleF
1798 4640 CircleF
2902 3994 CircleF
2942 4025 CircleF
4488 4066 CircleF
4528 4097 CircleF
1668 2800 CircleF
1708 2830 CircleF
1787 3676 CircleF
1827 3707 CircleF
1503 3407 CircleF
1543 3437 CircleF
5036 554 CircleF
5076 585 CircleF
1682 1098 CircleF
1722 1128 CircleF
3884 3528 CircleF
3924 3559 CircleF
6335 872 CircleF
6375 903 CircleF
1395 4318 CircleF
1435 4348 CircleF
5115 2654 CircleF
5155 2685 CircleF
5827 2915 CircleF
5867 2946 CircleF
2149 1726 CircleF
2189 1757 CircleF
1219 2327 CircleF
1258 2358 CircleF
1443 1349 CircleF
1483 1379 CircleF
5045 4050 CircleF
5084 4081 CircleF
2541 4457 CircleF
2581 4487 CircleF
4188 1486 CircleF
4228 1517 CircleF
5498 4213 CircleF
5538 4243 CircleF
4034 3466 CircleF
4074 3496 CircleF
2557 4627 CircleF
2597 4658 CircleF
5380 4160 CircleF
5420 4191 CircleF
3691 4574 CircleF
3731 4605 CircleF
6317 3163 CircleF
6357 3193 CircleF
1391 810 CircleF
1430 841 CircleF
1365 3628 CircleF
1405 3659 CircleF
5599 1335 CircleF
5639 1366 CircleF
6405 4182 CircleF
6445 4213 CircleF
4847 2372 CircleF
4887 2403 CircleF
4876 1311 CircleF
4916 1341 CircleF
5047 459 CircleF
5087 490 CircleF
3889 2880 CircleF
3928 2911 CircleF
2394 4293 CircleF
2434 4323 CircleF
5391 4474 CircleF
5431 4505 CircleF
2652 318 CircleF
2692 348 CircleF
3413 1813 CircleF
3453 1843 CircleF
4796 403 CircleF
4836 433 CircleF
4957 2063 CircleF
4997 2093 CircleF
1597 2120 CircleF
1637 2150 CircleF
2605 4384 CircleF
2645 4414 CircleF
4603 3227 CircleF
4643 3258 CircleF
6682 3453 CircleF
6722 3484 CircleF
3189 406 CircleF
3228 436 CircleF
4981 1575 CircleF
5021 1606 CircleF
1306 838 CircleF
1346 869 CircleF
2156 824 CircleF
2196 855 CircleF
2941 3445 CircleF
2980 3476 CircleF
6752 2730 CircleF
6791 2760 CircleF
3038 1886 CircleF
3078 1917 CircleF
% End plot #2
1.000 UP
1.000 UL
LT0
0.50 0.50 0.50 C stroke
grestore
end
showpage
%%Trailer
%%DocumentFonts: Helvetica
%%Pages: 1
