%!PS-Adobe-2.0
%%Title: out.ps
%%Creator: gnuplot 4.6 patchlevel 6
%%CreationDate: Thu May 28 15:58:09 2015
%%DocumentFonts: (atend)
%%BoundingBox: 50 50 554 770
%%Orientation: Landscape
%%Pages: (atend)
%%EndComments
%%BeginProlog
/gnudict 256 dict def
gnudict begin
%
% The following true/false flags may be edited by hand if desired.
% The unit line width and grayscale image gamma correction may also be changed.
%
/Color false def
/Blacktext false def
/Solid false def
/Dashlength 1 def
/Landscape true def
/Level1 false def
/Rounded false def
/ClipToBoundingBox false def
/SuppressPDFMark false def
/TransparentPatterns false def
/gnulinewidth 5.000 def
/userlinewidth gnulinewidth def
/Gamma 1.0 def
/BackgroundColor {-1.000 -1.000 -1.000} def
%
/vshift -46 def
/dl1 {
  10.0 Dashlength mul mul
  Rounded { currentlinewidth 0.75 mul sub dup 0 le { pop 0.01 } if } if
} def
/dl2 {
  10.0 Dashlength mul mul
  Rounded { currentlinewidth 0.75 mul add } if
} def
/hpt_ 31.5 def
/vpt_ 31.5 def
/hpt hpt_ def
/vpt vpt_ def
/doclip {
  ClipToBoundingBox {
    newpath 50 50 moveto 554 50 lineto 554 770 lineto 50 770 lineto closepath
    clip
  } if
} def
%
% Gnuplot Prolog Version 4.6 (September 2012)
%
%/SuppressPDFMark true def
%
/M {moveto} bind def
/L {lineto} bind def
/R {rmoveto} bind def
/V {rlineto} bind def
/N {newpath moveto} bind def
/Z {closepath} bind def
/C {setrgbcolor} bind def
/f {rlineto fill} bind def
/g {setgray} bind def
/Gshow {show} def   % May be redefined later in the file to support UTF-8
/vpt2 vpt 2 mul def
/hpt2 hpt 2 mul def
/Lshow {currentpoint stroke M 0 vshift R 
	Blacktext {gsave 0 setgray show grestore} {show} ifelse} def
/Rshow {currentpoint stroke M dup stringwidth pop neg vshift R
	Blacktext {gsave 0 setgray show grestore} {show} ifelse} def
/Cshow {currentpoint stroke M dup stringwidth pop -2 div vshift R 
	Blacktext {gsave 0 setgray show grestore} {show} ifelse} def
/UP {dup vpt_ mul /vpt exch def hpt_ mul /hpt exch def
  /hpt2 hpt 2 mul def /vpt2 vpt 2 mul def} def
/DL {Color {setrgbcolor Solid {pop []} if 0 setdash}
 {pop pop pop 0 setgray Solid {pop []} if 0 setdash} ifelse} def
/BL {stroke userlinewidth 2 mul setlinewidth
	Rounded {1 setlinejoin 1 setlinecap} if} def
/AL {stroke userlinewidth 2 div setlinewidth
	Rounded {1 setlinejoin 1 setlinecap} if} def
/UL {dup gnulinewidth mul /userlinewidth exch def
	dup 1 lt {pop 1} if 10 mul /udl exch def} def
/PL {stroke userlinewidth setlinewidth
	Rounded {1 setlinejoin 1 setlinecap} if} def
3.8 setmiterlimit
% Default Line colors
/LCw {1 1 1} def
/LCb {0 0 0} def
/LCa {0 0 0} def
/LC0 {1 0 0} def
/LC1 {0 1 0} def
/LC2 {0 0 1} def
/LC3 {1 0 1} def
/LC4 {0 1 1} def
/LC5 {1 1 0} def
/LC6 {0 0 0} def
/LC7 {1 0.3 0} def
/LC8 {0.5 0.5 0.5} def
% Default Line Types
/LTw {PL [] 1 setgray} def
/LTb {BL [] LCb DL} def
/LTa {AL [1 udl mul 2 udl mul] 0 setdash LCa setrgbcolor} def
/LT0 {PL [] LC0 DL} def
/LT1 {PL [4 dl1 2 dl2] LC1 DL} def
/LT2 {PL [2 dl1 3 dl2] LC2 DL} def
/LT3 {PL [1 dl1 1.5 dl2] LC3 DL} def
/LT4 {PL [6 dl1 2 dl2 1 dl1 2 dl2] LC4 DL} def
/LT5 {PL [3 dl1 3 dl2 1 dl1 3 dl2] LC5 DL} def
/LT6 {PL [2 dl1 2 dl2 2 dl1 6 dl2] LC6 DL} def
/LT7 {PL [1 dl1 2 dl2 6 dl1 2 dl2 1 dl1 2 dl2] LC7 DL} def
/LT8 {PL [2 dl1 2 dl2 2 dl1 2 dl2 2 dl1 2 dl2 2 dl1 4 dl2] LC8 DL} def
/Pnt {stroke [] 0 setdash gsave 1 setlinecap M 0 0 V stroke grestore} def
/Dia {stroke [] 0 setdash 2 copy vpt add M
  hpt neg vpt neg V hpt vpt neg V
  hpt vpt V hpt neg vpt V closepath stroke
  Pnt} def
/Pls {stroke [] 0 setdash vpt sub M 0 vpt2 V
  currentpoint stroke M
  hpt neg vpt neg R hpt2 0 V stroke
 } def
/Box {stroke [] 0 setdash 2 copy exch hpt sub exch vpt add M
  0 vpt2 neg V hpt2 0 V 0 vpt2 V
  hpt2 neg 0 V closepath stroke
  Pnt} def
/Crs {stroke [] 0 setdash exch hpt sub exch vpt add M
  hpt2 vpt2 neg V currentpoint stroke M
  hpt2 neg 0 R hpt2 vpt2 V stroke} def
/TriU {stroke [] 0 setdash 2 copy vpt 1.12 mul add M
  hpt neg vpt -1.62 mul V
  hpt 2 mul 0 V
  hpt neg vpt 1.62 mul V closepath stroke
  Pnt} def
/Star {2 copy Pls Crs} def
/BoxF {stroke [] 0 setdash exch hpt sub exch vpt add M
  0 vpt2 neg V hpt2 0 V 0 vpt2 V
  hpt2 neg 0 V closepath fill} def
/TriUF {stroke [] 0 setdash vpt 1.12 mul add M
  hpt neg vpt -1.62 mul V
  hpt 2 mul 0 V
  hpt neg vpt 1.62 mul V closepath fill} def
/TriD {stroke [] 0 setdash 2 copy vpt 1.12 mul sub M
  hpt neg vpt 1.62 mul V
  hpt 2 mul 0 V
  hpt neg vpt -1.62 mul V closepath stroke
  Pnt} def
/TriDF {stroke [] 0 setdash vpt 1.12 mul sub M
  hpt neg vpt 1.62 mul V
  hpt 2 mul 0 V
  hpt neg vpt -1.62 mul V closepath fill} def
/DiaF {stroke [] 0 setdash vpt add M
  hpt neg vpt neg V hpt vpt neg V
  hpt vpt V hpt neg vpt V closepath fill} def
/Pent {stroke [] 0 setdash 2 copy gsave
  translate 0 hpt M 4 {72 rotate 0 hpt L} repeat
  closepath stroke grestore Pnt} def
/PentF {stroke [] 0 setdash gsave
  translate 0 hpt M 4 {72 rotate 0 hpt L} repeat
  closepath fill grestore} def
/Circle {stroke [] 0 setdash 2 copy
  hpt 0 360 arc stroke Pnt} def
/CircleF {stroke [] 0 setdash hpt 0 360 arc fill} def
/C0 {BL [] 0 setdash 2 copy moveto vpt 90 450 arc} bind def
/C1 {BL [] 0 setdash 2 copy moveto
	2 copy vpt 0 90 arc closepath fill
	vpt 0 360 arc closepath} bind def
/C2 {BL [] 0 setdash 2 copy moveto
	2 copy vpt 90 180 arc closepath fill
	vpt 0 360 arc closepath} bind def
/C3 {BL [] 0 setdash 2 copy moveto
	2 copy vpt 0 180 arc closepath fill
	vpt 0 360 arc closepath} bind def
/C4 {BL [] 0 setdash 2 copy moveto
	2 copy vpt 180 270 arc closepath fill
	vpt 0 360 arc closepath} bind def
/C5 {BL [] 0 setdash 2 copy moveto
	2 copy vpt 0 90 arc
	2 copy moveto
	2 copy vpt 180 270 arc closepath fill
	vpt 0 360 arc} bind def
/C6 {BL [] 0 setdash 2 copy moveto
	2 copy vpt 90 270 arc closepath fill
	vpt 0 360 arc closepath} bind def
/C7 {BL [] 0 setdash 2 copy moveto
	2 copy vpt 0 270 arc closepath fill
	vpt 0 360 arc closepath} bind def
/C8 {BL [] 0 setdash 2 copy moveto
	2 copy vpt 270 360 arc closepath fill
	vpt 0 360 arc closepath} bind def
/C9 {BL [] 0 setdash 2 copy moveto
	2 copy vpt 270 450 arc closepath fill
	vpt 0 360 arc closepath} bind def
/C10 {BL [] 0 setdash 2 copy 2 copy moveto vpt 270 360 arc closepath fill
	2 copy moveto
	2 copy vpt 90 180 arc closepath fill
	vpt 0 360 arc closepath} bind def
/C11 {BL [] 0 setdash 2 copy moveto
	2 copy vpt 0 180 arc closepath fill
	2 copy moveto
	2 copy vpt 270 360 arc closepath fill
	vpt 0 360 arc closepath} bind def
/C12 {BL [] 0 setdash 2 copy moveto
	2 copy vpt 180 360 arc closepath fill
	vpt 0 360 arc closepath} bind def
/C13 {BL [] 0 setdash 2 copy moveto
	2 copy vpt 0 90 arc closepath fill
	2 copy moveto
	2 copy vpt 180 360 arc closepath fill
	vpt 0 360 arc closepath} bind def
/C14 {BL [] 0 setdash 2 copy moveto
	2 copy vpt 90 360 arc closepath fill
	vpt 0 360 arc} bind def
/C15 {BL [] 0 setdash 2 copy vpt 0 360 arc closepath fill
	vpt 0 360 arc closepath} bind def
/Rec {newpath 4 2 roll moveto 1 index 0 rlineto 0 exch rlineto
	neg 0 rlineto closepath} bind def
/Square {dup Rec} bind def
/Bsquare {vpt sub exch vpt sub exch vpt2 Square} bind def
/S0 {BL [] 0 setdash 2 copy moveto 0 vpt rlineto BL Bsquare} bind def
/S1 {BL [] 0 setdash 2 copy vpt Square fill Bsquare} bind def
/S2 {BL [] 0 setdash 2 copy exch vpt sub exch vpt Square fill Bsquare} bind def
/S3 {BL [] 0 setdash 2 copy exch vpt sub exch vpt2 vpt Rec fill Bsquare} bind def
/S4 {BL [] 0 setdash 2 copy exch vpt sub exch vpt sub vpt Square fill Bsquare} bind def
/S5 {BL [] 0 setdash 2 copy 2 copy vpt Square fill
	exch vpt sub exch vpt sub vpt Square fill Bsquare} bind def
/S6 {BL [] 0 setdash 2 copy exch vpt sub exch vpt sub vpt vpt2 Rec fill Bsquare} bind def
/S7 {BL [] 0 setdash 2 copy exch vpt sub exch vpt sub vpt vpt2 Rec fill
	2 copy vpt Square fill Bsquare} bind def
/S8 {BL [] 0 setdash 2 copy vpt sub vpt Square fill Bsquare} bind def
/S9 {BL [] 0 setdash 2 copy vpt sub vpt vpt2 Rec fill Bsquare} bind def
/S10 {BL [] 0 setdash 2 copy vpt sub vpt Square fill 2 copy exch vpt sub exch vpt Square fill
	Bsquare} bind def
/S11 {BL [] 0 setdash 2 copy vpt sub vpt Square fill 2 copy exch vpt sub exch vpt2 vpt Rec fill
	Bsquare} bind def
/S12 {BL [] 0 setdash 2 copy exch vpt sub exch vpt sub vpt2 vpt Rec fill Bsquare} bind def
/S13 {BL [] 0 setdash 2 copy exch vpt sub exch vpt sub vpt2 vpt Rec fill
	2 copy vpt Square fill Bsquare} bind def
/S14 {BL [] 0 setdash 2 copy exch vpt sub exch vpt sub vpt2 vpt Rec fill
	2 copy exch vpt sub exch vpt Square fill Bsquare} bind def
/S15 {BL [] 0 setdash 2 copy Bsquare fill Bsquare} bind def
/D0 {gsave translate 45 rotate 0 0 S0 stroke grestore} bind def
/D1 {gsave translate 45 rotate 0 0 S1 stroke grestore} bind def
/D2 {gsave translate 45 rotate 0 0 S2 stroke grestore} bind def
/D3 {gsave translate 45 rotate 0 0 S3 stroke grestore} bind def
/D4 {gsave translate 45 rotate 0 0 S4 stroke grestore} bind def
/D5 {gsave translate 45 rotate 0 0 S5 stroke grestore} bind def
/D6 {gsave translate 45 rotate 0 0 S6 stroke grestore} bind def
/D7 {gsave translate 45 rotate 0 0 S7 stroke grestore} bind def
/D8 {gsave translate 45 rotate 0 0 S8 stroke grestore} bind def
/D9 {gsave translate 45 rotate 0 0 S9 stroke grestore} bind def
/D10 {gsave translate 45 rotate 0 0 S10 stroke grestore} bind def
/D11 {gsave translate 45 rotate 0 0 S11 stroke grestore} bind def
/D12 {gsave translate 45 rotate 0 0 S12 stroke grestore} bind def
/D13 {gsave translate 45 rotate 0 0 S13 stroke grestore} bind def
/D14 {gsave translate 45 rotate 0 0 S14 stroke grestore} bind def
/D15 {gsave translate 45 rotate 0 0 S15 stroke grestore} bind def
/DiaE {stroke [] 0 setdash vpt add M
  hpt neg vpt neg V hpt vpt neg V
  hpt vpt V hpt neg vpt V closepath stroke} def
/BoxE {stroke [] 0 setdash exch hpt sub exch vpt add M
  0 vpt2 neg V hpt2 0 V 0 vpt2 V
  hpt2 neg 0 V closepath stroke} def
/TriUE {stroke [] 0 setdash vpt 1.12 mul add M
  hpt neg vpt -1.62 mul V
  hpt 2 mul 0 V
  hpt neg vpt 1.62 mul V closepath stroke} def
/TriDE {stroke [] 0 setdash vpt 1.12 mul sub M
  hpt neg vpt 1.62 mul V
  hpt 2 mul 0 V
  hpt neg vpt -1.62 mul V closepath stroke} def
/PentE {stroke [] 0 setdash gsave
  translate 0 hpt M 4 {72 rotate 0 hpt L} repeat
  closepath stroke grestore} def
/CircE {stroke [] 0 setdash 
  hpt 0 360 arc stroke} def
/Opaque {gsave closepath 1 setgray fill grestore 0 setgray closepath} def
/DiaW {stroke [] 0 setdash vpt add M
  hpt neg vpt neg V hpt vpt neg V
  hpt vpt V hpt neg vpt V Opaque stroke} def
/BoxW {stroke [] 0 setdash exch hpt sub exch vpt add M
  0 vpt2 neg V hpt2 0 V 0 vpt2 V
  hpt2 neg 0 V Opaque stroke} def
/TriUW {stroke [] 0 setdash vpt 1.12 mul add M
  hpt neg vpt -1.62 mul V
  hpt 2 mul 0 V
  hpt neg vpt 1.62 mul V Opaque stroke} def
/TriDW {stroke [] 0 setdash vpt 1.12 mul sub M
  hpt neg vpt 1.62 mul V
  hpt 2 mul 0 V
  hpt neg vpt -1.62 mul V Opaque stroke} def
/PentW {stroke [] 0 setdash gsave
  translate 0 hpt M 4 {72 rotate 0 hpt L} repeat
  Opaque stroke grestore} def
/CircW {stroke [] 0 setdash 
  hpt 0 360 arc Opaque stroke} def
/BoxFill {gsave Rec 1 setgray fill grestore} def
/Density {
  /Fillden exch def
  currentrgbcolor
  /ColB exch def /ColG exch def /ColR exch def
  /ColR ColR Fillden mul Fillden sub 1 add def
  /ColG ColG Fillden mul Fillden sub 1 add def
  /ColB ColB Fillden mul Fillden sub 1 add def
  ColR ColG ColB setrgbcolor} def
/BoxColFill {gsave Rec PolyFill} def
/PolyFill {gsave Density fill grestore grestore} def
/h {rlineto rlineto rlineto gsave closepath fill grestore} bind def
%
% PostScript Level 1 Pattern Fill routine for rectangles
% Usage: x y w h s a XX PatternFill
%	x,y = lower left corner of box to be filled
%	w,h = width and height of box
%	  a = angle in degrees between lines and x-axis
%	 XX = 0/1 for no/yes cross-hatch
%
/PatternFill {gsave /PFa [ 9 2 roll ] def
  PFa 0 get PFa 2 get 2 div add PFa 1 get PFa 3 get 2 div add translate
  PFa 2 get -2 div PFa 3 get -2 div PFa 2 get PFa 3 get Rec
  TransparentPatterns {} {gsave 1 setgray fill grestore} ifelse
  clip
  currentlinewidth 0.5 mul setlinewidth
  /PFs PFa 2 get dup mul PFa 3 get dup mul add sqrt def
  0 0 M PFa 5 get rotate PFs -2 div dup translate
  0 1 PFs PFa 4 get div 1 add floor cvi
	{PFa 4 get mul 0 M 0 PFs V} for
  0 PFa 6 get ne {
	0 1 PFs PFa 4 get div 1 add floor cvi
	{PFa 4 get mul 0 2 1 roll M PFs 0 V} for
 } if
  stroke grestore} def
%
/languagelevel where
 {pop languagelevel} {1} ifelse
 2 lt
	{/InterpretLevel1 true def}
	{/InterpretLevel1 Level1 def}
 ifelse
%
% PostScript level 2 pattern fill definitions
%
/Level2PatternFill {
/Tile8x8 {/PaintType 2 /PatternType 1 /TilingType 1 /BBox [0 0 8 8] /XStep 8 /YStep 8}
	bind def
/KeepColor {currentrgbcolor [/Pattern /DeviceRGB] setcolorspace} bind def
<< Tile8x8
 /PaintProc {0.5 setlinewidth pop 0 0 M 8 8 L 0 8 M 8 0 L stroke} 
>> matrix makepattern
/Pat1 exch def
<< Tile8x8
 /PaintProc {0.5 setlinewidth pop 0 0 M 8 8 L 0 8 M 8 0 L stroke
	0 4 M 4 8 L 8 4 L 4 0 L 0 4 L stroke}
>> matrix makepattern
/Pat2 exch def
<< Tile8x8
 /PaintProc {0.5 setlinewidth pop 0 0 M 0 8 L
	8 8 L 8 0 L 0 0 L fill}
>> matrix makepattern
/Pat3 exch def
<< Tile8x8
 /PaintProc {0.5 setlinewidth pop -4 8 M 8 -4 L
	0 12 M 12 0 L stroke}
>> matrix makepattern
/Pat4 exch def
<< Tile8x8
 /PaintProc {0.5 setlinewidth pop -4 0 M 8 12 L
	0 -4 M 12 8 L stroke}
>> matrix makepattern
/Pat5 exch def
<< Tile8x8
 /PaintProc {0.5 setlinewidth pop -2 8 M 4 -4 L
	0 12 M 8 -4 L 4 12 M 10 0 L stroke}
>> matrix makepattern
/Pat6 exch def
<< Tile8x8
 /PaintProc {0.5 setlinewidth pop -2 0 M 4 12 L
	0 -4 M 8 12 L 4 -4 M 10 8 L stroke}
>> matrix makepattern
/Pat7 exch def
<< Tile8x8
 /PaintProc {0.5 setlinewidth pop 8 -2 M -4 4 L
	12 0 M -4 8 L 12 4 M 0 10 L stroke}
>> matrix makepattern
/Pat8 exch def
<< Tile8x8
 /PaintProc {0.5 setlinewidth pop 0 -2 M 12 4 L
	-4 0 M 12 8 L -4 4 M 8 10 L stroke}
>> matrix makepattern
/Pat9 exch def
/Pattern1 {PatternBgnd KeepColor Pat1 setpattern} bind def
/Pattern2 {PatternBgnd KeepColor Pat2 setpattern} bind def
/Pattern3 {PatternBgnd KeepColor Pat3 setpattern} bind def
/Pattern4 {PatternBgnd KeepColor Landscape {Pat5} {Pat4} ifelse setpattern} bind def
/Pattern5 {PatternBgnd KeepColor Landscape {Pat4} {Pat5} ifelse setpattern} bind def
/Pattern6 {PatternBgnd KeepColor Landscape {Pat9} {Pat6} ifelse setpattern} bind def
/Pattern7 {PatternBgnd KeepColor Landscape {Pat8} {Pat7} ifelse setpattern} bind def
} def
%
%
%End of PostScript Level 2 code
%
/PatternBgnd {
  TransparentPatterns {} {gsave 1 setgray fill grestore} ifelse
} def
%
% Substitute for Level 2 pattern fill codes with
% grayscale if Level 2 support is not selected.
%
/Level1PatternFill {
/Pattern1 {0.250 Density} bind def
/Pattern2 {0.500 Density} bind def
/Pattern3 {0.750 Density} bind def
/Pattern4 {0.125 Density} bind def
/Pattern5 {0.375 Density} bind def
/Pattern6 {0.625 Density} bind def
/Pattern7 {0.875 Density} bind def
} def
%
% Now test for support of Level 2 code
%
Level1 {Level1PatternFill} {Level2PatternFill} ifelse
%
/Symbol-Oblique /Symbol findfont [1 0 .167 1 0 0] makefont
dup length dict begin {1 index /FID eq {pop pop} {def} ifelse} forall
currentdict end definefont pop
Level1 SuppressPDFMark or 
{} {
/SDict 10 dict def
systemdict /pdfmark known not {
  userdict /pdfmark systemdict /cleartomark get put
} if
SDict begin [
  /Title (out.ps)
  /Subject (gnuplot plot)
  /Creator (gnuplot 4.6 patchlevel 6)
  /Author (yani)
%  /Producer (gnuplot)
%  /Keywords ()
  /CreationDate (Thu May 28 15:58:09 2015)
  /DOCINFO pdfmark
end
} ifelse
end
%%EndProlog
%%Page: 1 1
gnudict begin
gsave
doclip
50 50 translate
0.100 0.100 scale
90 rotate
0 -5040 translate
0 setgray
newpath
(Helvetica) findfont 140 scalefont setfont
BackgroundColor 0 lt 3 1 roll 0 lt exch 0 lt or or not {gsave BackgroundColor C clippath fill grestore} if
1.000 UL
LT0
0.50 0.50 0.50 C 1.000 UL
LTa
0.50 0.50 0.50 C 966 280 M
5981 0 V
stroke
LT0
0.50 0.50 0.50 C 966 280 M
63 0 V
5918 0 R
-63 0 V
882 280 M
( 0) Rshow
1.000 UL
LT0
0.50 0.50 0.50 C 1.000 UL
LTa
0.50 0.50 0.50 C 966 372 M
5981 0 V
stroke
LT0
0.50 0.50 0.50 C 966 372 M
63 0 V
5918 0 R
-63 0 V
882 372 M
( 0.707106) Rshow
1.000 UL
LT0
0.50 0.50 0.50 C 1.000 UL
LTa
0.50 0.50 0.50 C 966 464 M
5981 0 V
stroke
LT0
0.50 0.50 0.50 C 966 464 M
63 0 V
5918 0 R
-63 0 V
882 464 M
( 1.41421) Rshow
1.000 UL
LT0
0.50 0.50 0.50 C 1.000 UL
LTa
0.50 0.50 0.50 C 966 555 M
5981 0 V
stroke
LT0
0.50 0.50 0.50 C 966 555 M
63 0 V
5918 0 R
-63 0 V
882 555 M
( 2.12132) Rshow
1.000 UL
LT0
0.50 0.50 0.50 C 1.000 UL
LTa
0.50 0.50 0.50 C 966 647 M
5981 0 V
stroke
LT0
0.50 0.50 0.50 C 966 647 M
63 0 V
5918 0 R
-63 0 V
882 647 M
( 2.82842) Rshow
1.000 UL
LT0
0.50 0.50 0.50 C 1.000 UL
LTa
0.50 0.50 0.50 C 966 739 M
5981 0 V
stroke
LT0
0.50 0.50 0.50 C 966 739 M
63 0 V
5918 0 R
-63 0 V
882 739 M
( 3.53553) Rshow
1.000 UL
LT0
0.50 0.50 0.50 C 1.000 UL
LTa
0.50 0.50 0.50 C 966 831 M
5981 0 V
stroke
LT0
0.50 0.50 0.50 C 966 831 M
63 0 V
5918 0 R
-63 0 V
882 831 M
( 4.24264) Rshow
1.000 UL
LT0
0.50 0.50 0.50 C 1.000 UL
LTa
0.50 0.50 0.50 C 966 923 M
5981 0 V
stroke
LT0
0.50 0.50 0.50 C 966 923 M
63 0 V
5918 0 R
-63 0 V
882 923 M
( 4.94974) Rshow
1.000 UL
LT0
0.50 0.50 0.50 C 1.000 UL
LTa
0.50 0.50 0.50 C 966 1015 M
5981 0 V
stroke
LT0
0.50 0.50 0.50 C 966 1015 M
63 0 V
5918 0 R
-63 0 V
-6002 0 R
( 5.65685) Rshow
1.000 UL
LT0
0.50 0.50 0.50 C 1.000 UL
LTa
0.50 0.50 0.50 C 966 1106 M
5981 0 V
stroke
LT0
0.50 0.50 0.50 C 966 1106 M
63 0 V
5918 0 R
-63 0 V
-6002 0 R
( 6.36395) Rshow
1.000 UL
LT0
0.50 0.50 0.50 C 1.000 UL
LTa
0.50 0.50 0.50 C 966 1198 M
5981 0 V
stroke
LT0
0.50 0.50 0.50 C 966 1198 M
63 0 V
5918 0 R
-63 0 V
-6002 0 R
( 7.07106) Rshow
1.000 UL
LT0
0.50 0.50 0.50 C 1.000 UL
LTa
0.50 0.50 0.50 C 966 1290 M
5981 0 V
stroke
LT0
0.50 0.50 0.50 C 966 1290 M
63 0 V
5918 0 R
-63 0 V
-6002 0 R
( 7.77817) Rshow
1.000 UL
LT0
0.50 0.50 0.50 C 1.000 UL
LTa
0.50 0.50 0.50 C 966 1382 M
5981 0 V
stroke
LT0
0.50 0.50 0.50 C 966 1382 M
63 0 V
5918 0 R
-63 0 V
-6002 0 R
( 8.48527) Rshow
1.000 UL
LT0
0.50 0.50 0.50 C 1.000 UL
LTa
0.50 0.50 0.50 C 966 1474 M
5981 0 V
stroke
LT0
0.50 0.50 0.50 C 966 1474 M
63 0 V
5918 0 R
-63 0 V
-6002 0 R
( 9.19238) Rshow
1.000 UL
LT0
0.50 0.50 0.50 C 1.000 UL
LTa
0.50 0.50 0.50 C 966 1565 M
5981 0 V
stroke
LT0
0.50 0.50 0.50 C 966 1565 M
63 0 V
5918 0 R
-63 0 V
-6002 0 R
( 9.89948) Rshow
1.000 UL
LT0
0.50 0.50 0.50 C 1.000 UL
LTa
0.50 0.50 0.50 C 966 1657 M
5981 0 V
stroke
LT0
0.50 0.50 0.50 C 966 1657 M
63 0 V
5918 0 R
-63 0 V
-6002 0 R
( 10.6066) Rshow
1.000 UL
LT0
0.50 0.50 0.50 C 1.000 UL
LTa
0.50 0.50 0.50 C 966 1749 M
5981 0 V
stroke
LT0
0.50 0.50 0.50 C 966 1749 M
63 0 V
5918 0 R
-63 0 V
-6002 0 R
( 11.3137) Rshow
1.000 UL
LT0
0.50 0.50 0.50 C 1.000 UL
LTa
0.50 0.50 0.50 C 966 1841 M
5981 0 V
stroke
LT0
0.50 0.50 0.50 C 966 1841 M
63 0 V
5918 0 R
-63 0 V
-6002 0 R
( 12.0208) Rshow
1.000 UL
LT0
0.50 0.50 0.50 C 1.000 UL
LTa
0.50 0.50 0.50 C 966 1933 M
5981 0 V
stroke
LT0
0.50 0.50 0.50 C 966 1933 M
63 0 V
5918 0 R
-63 0 V
-6002 0 R
( 12.7279) Rshow
1.000 UL
LT0
0.50 0.50 0.50 C 1.000 UL
LTa
0.50 0.50 0.50 C 966 2025 M
5981 0 V
stroke
LT0
0.50 0.50 0.50 C 966 2025 M
63 0 V
5918 0 R
-63 0 V
-6002 0 R
( 13.435) Rshow
1.000 UL
LT0
0.50 0.50 0.50 C 1.000 UL
LTa
0.50 0.50 0.50 C 966 2116 M
5981 0 V
stroke
LT0
0.50 0.50 0.50 C 966 2116 M
63 0 V
5918 0 R
-63 0 V
-6002 0 R
( 14.1421) Rshow
1.000 UL
LT0
0.50 0.50 0.50 C 1.000 UL
LTa
0.50 0.50 0.50 C 966 2208 M
5981 0 V
stroke
LT0
0.50 0.50 0.50 C 966 2208 M
63 0 V
5918 0 R
-63 0 V
-6002 0 R
( 14.8492) Rshow
1.000 UL
LT0
0.50 0.50 0.50 C 1.000 UL
LTa
0.50 0.50 0.50 C 966 2300 M
5981 0 V
stroke
LT0
0.50 0.50 0.50 C 966 2300 M
63 0 V
5918 0 R
-63 0 V
-6002 0 R
( 15.5563) Rshow
1.000 UL
LT0
0.50 0.50 0.50 C 1.000 UL
LTa
0.50 0.50 0.50 C 966 2392 M
5981 0 V
stroke
LT0
0.50 0.50 0.50 C 966 2392 M
63 0 V
5918 0 R
-63 0 V
-6002 0 R
( 16.2634) Rshow
1.000 UL
LT0
0.50 0.50 0.50 C 1.000 UL
LTa
0.50 0.50 0.50 C 966 2484 M
5981 0 V
stroke
LT0
0.50 0.50 0.50 C 966 2484 M
63 0 V
5918 0 R
-63 0 V
-6002 0 R
( 16.9705) Rshow
1.000 UL
LT0
0.50 0.50 0.50 C 1.000 UL
LTa
0.50 0.50 0.50 C 966 2575 M
5981 0 V
stroke
LT0
0.50 0.50 0.50 C 966 2575 M
63 0 V
5918 0 R
-63 0 V
-6002 0 R
( 17.6776) Rshow
1.000 UL
LT0
0.50 0.50 0.50 C 1.000 UL
LTa
0.50 0.50 0.50 C 966 2667 M
5981 0 V
stroke
LT0
0.50 0.50 0.50 C 966 2667 M
63 0 V
5918 0 R
-63 0 V
-6002 0 R
( 18.3848) Rshow
1.000 UL
LT0
0.50 0.50 0.50 C 1.000 UL
LTa
0.50 0.50 0.50 C 966 2759 M
5981 0 V
stroke
LT0
0.50 0.50 0.50 C 966 2759 M
63 0 V
5918 0 R
-63 0 V
-6002 0 R
( 19.0919) Rshow
1.000 UL
LT0
0.50 0.50 0.50 C 1.000 UL
LTa
0.50 0.50 0.50 C 966 2851 M
5981 0 V
stroke
LT0
0.50 0.50 0.50 C 966 2851 M
63 0 V
5918 0 R
-63 0 V
-6002 0 R
( 19.799) Rshow
1.000 UL
LT0
0.50 0.50 0.50 C 1.000 UL
LTa
0.50 0.50 0.50 C 966 2943 M
5981 0 V
stroke
LT0
0.50 0.50 0.50 C 966 2943 M
63 0 V
5918 0 R
-63 0 V
-6002 0 R
( 20.5061) Rshow
1.000 UL
LT0
0.50 0.50 0.50 C 1.000 UL
LTa
0.50 0.50 0.50 C 966 3035 M
5981 0 V
stroke
LT0
0.50 0.50 0.50 C 966 3035 M
63 0 V
5918 0 R
-63 0 V
-6002 0 R
( 21.2132) Rshow
1.000 UL
LT0
0.50 0.50 0.50 C 1.000 UL
LTa
0.50 0.50 0.50 C 966 3126 M
5981 0 V
stroke
LT0
0.50 0.50 0.50 C 966 3126 M
63 0 V
5918 0 R
-63 0 V
-6002 0 R
( 21.9203) Rshow
1.000 UL
LT0
0.50 0.50 0.50 C 1.000 UL
LTa
0.50 0.50 0.50 C 966 3218 M
5981 0 V
stroke
LT0
0.50 0.50 0.50 C 966 3218 M
63 0 V
5918 0 R
-63 0 V
-6002 0 R
( 22.6274) Rshow
1.000 UL
LT0
0.50 0.50 0.50 C 1.000 UL
LTa
0.50 0.50 0.50 C 966 3310 M
5981 0 V
stroke
LT0
0.50 0.50 0.50 C 966 3310 M
63 0 V
5918 0 R
-63 0 V
-6002 0 R
( 23.3345) Rshow
1.000 UL
LT0
0.50 0.50 0.50 C 1.000 UL
LTa
0.50 0.50 0.50 C 966 3402 M
5981 0 V
stroke
LT0
0.50 0.50 0.50 C 966 3402 M
63 0 V
5918 0 R
-63 0 V
-6002 0 R
( 24.0416) Rshow
1.000 UL
LT0
0.50 0.50 0.50 C 1.000 UL
LTa
0.50 0.50 0.50 C 966 3494 M
5981 0 V
stroke
LT0
0.50 0.50 0.50 C 966 3494 M
63 0 V
5918 0 R
-63 0 V
-6002 0 R
( 24.7487) Rshow
1.000 UL
LT0
0.50 0.50 0.50 C 1.000 UL
LTa
0.50 0.50 0.50 C 966 3586 M
5981 0 V
stroke
LT0
0.50 0.50 0.50 C 966 3586 M
63 0 V
5918 0 R
-63 0 V
-6002 0 R
( 25.4558) Rshow
1.000 UL
LT0
0.50 0.50 0.50 C 1.000 UL
LTa
0.50 0.50 0.50 C 966 3677 M
5981 0 V
stroke
LT0
0.50 0.50 0.50 C 966 3677 M
63 0 V
5918 0 R
-63 0 V
-6002 0 R
( 26.1629) Rshow
1.000 UL
LT0
0.50 0.50 0.50 C 1.000 UL
LTa
0.50 0.50 0.50 C 966 3769 M
5981 0 V
stroke
LT0
0.50 0.50 0.50 C 966 3769 M
63 0 V
5918 0 R
-63 0 V
-6002 0 R
( 26.87) Rshow
1.000 UL
LT0
0.50 0.50 0.50 C 1.000 UL
LTa
0.50 0.50 0.50 C 966 3861 M
5981 0 V
stroke
LT0
0.50 0.50 0.50 C 966 3861 M
63 0 V
5918 0 R
-63 0 V
-6002 0 R
( 27.5771) Rshow
1.000 UL
LT0
0.50 0.50 0.50 C 1.000 UL
LTa
0.50 0.50 0.50 C 966 3953 M
5981 0 V
stroke
LT0
0.50 0.50 0.50 C 966 3953 M
63 0 V
5918 0 R
-63 0 V
-6002 0 R
( 28.2842) Rshow
1.000 UL
LT0
0.50 0.50 0.50 C 1.000 UL
LTa
0.50 0.50 0.50 C 966 4045 M
5981 0 V
stroke
LT0
0.50 0.50 0.50 C 966 4045 M
63 0 V
5918 0 R
-63 0 V
-6002 0 R
( 28.9913) Rshow
1.000 UL
LT0
0.50 0.50 0.50 C 1.000 UL
LTa
0.50 0.50 0.50 C 966 4136 M
5981 0 V
stroke
LT0
0.50 0.50 0.50 C 966 4136 M
63 0 V
5918 0 R
-63 0 V
-6002 0 R
( 29.6985) Rshow
1.000 UL
LT0
0.50 0.50 0.50 C 1.000 UL
LTa
0.50 0.50 0.50 C 966 4228 M
5981 0 V
stroke
LT0
0.50 0.50 0.50 C 966 4228 M
63 0 V
5918 0 R
-63 0 V
-6002 0 R
( 30.4056) Rshow
1.000 UL
LT0
0.50 0.50 0.50 C 1.000 UL
LTa
0.50 0.50 0.50 C 966 4320 M
5981 0 V
stroke
LT0
0.50 0.50 0.50 C 966 4320 M
63 0 V
5918 0 R
-63 0 V
-6002 0 R
( 31.1127) Rshow
1.000 UL
LT0
0.50 0.50 0.50 C 1.000 UL
LTa
0.50 0.50 0.50 C 966 4412 M
5981 0 V
stroke
LT0
0.50 0.50 0.50 C 966 4412 M
63 0 V
5918 0 R
-63 0 V
-6002 0 R
( 31.8198) Rshow
1.000 UL
LT0
0.50 0.50 0.50 C 1.000 UL
LTa
0.50 0.50 0.50 C 966 4504 M
5981 0 V
stroke
LT0
0.50 0.50 0.50 C 966 4504 M
63 0 V
5918 0 R
-63 0 V
-6002 0 R
( 32.5269) Rshow
1.000 UL
LT0
0.50 0.50 0.50 C 1.000 UL
LTa
0.50 0.50 0.50 C 966 4596 M
5981 0 V
stroke
LT0
0.50 0.50 0.50 C 966 4596 M
63 0 V
5918 0 R
-63 0 V
-6002 0 R
( 33.234) Rshow
1.000 UL
LT0
0.50 0.50 0.50 C 1.000 UL
LTa
0.50 0.50 0.50 C 966 4687 M
5981 0 V
stroke
LT0
0.50 0.50 0.50 C 966 4687 M
63 0 V
5918 0 R
-63 0 V
-6002 0 R
( 33.9411) Rshow
1.000 UL
LT0
0.50 0.50 0.50 C 1.000 UL
LTa
0.50 0.50 0.50 C 966 4779 M
5981 0 V
stroke
LT0
0.50 0.50 0.50 C 966 4779 M
63 0 V
5918 0 R
-63 0 V
-6002 0 R
( 34.6482) Rshow
1.000 UL
LT0
0.50 0.50 0.50 C 1.000 UL
LTa
0.50 0.50 0.50 C 966 4871 M
5981 0 V
stroke
LT0
0.50 0.50 0.50 C 966 4871 M
63 0 V
5918 0 R
-63 0 V
-6002 0 R
( 35.3553) Rshow
1.000 UL
LT0
0.50 0.50 0.50 C 1.000 UL
LTa
0.50 0.50 0.50 C 966 280 M
0 4591 V
stroke
LT0
0.50 0.50 0.50 C 966 280 M
0 63 V
0 4528 R
0 -63 V
966 140 M
( 0) Cshow
1.000 UL
LT0
0.50 0.50 0.50 C 1.000 UL
LTa
0.50 0.50 0.50 C 1086 280 M
0 4591 V
stroke
LT0
0.50 0.50 0.50 C 1086 280 M
0 63 V
0 4528 R
0 -63 V
0 -4668 R
( 0.707106) Cshow
1.000 UL
LT0
0.50 0.50 0.50 C 1.000 UL
LTa
0.50 0.50 0.50 C 1205 280 M
0 4591 V
stroke
LT0
0.50 0.50 0.50 C 1205 280 M
0 63 V
0 4528 R
0 -63 V
0 -4668 R
( 1.41421) Cshow
1.000 UL
LT0
0.50 0.50 0.50 C 1.000 UL
LTa
0.50 0.50 0.50 C 1325 280 M
0 4591 V
stroke
LT0
0.50 0.50 0.50 C 1325 280 M
0 63 V
0 4528 R
0 -63 V
0 -4668 R
( 2.12132) Cshow
1.000 UL
LT0
0.50 0.50 0.50 C 1.000 UL
LTa
0.50 0.50 0.50 C 1444 280 M
0 4591 V
stroke
LT0
0.50 0.50 0.50 C 1444 280 M
0 63 V
0 4528 R
0 -63 V
0 -4668 R
( 2.82842) Cshow
1.000 UL
LT0
0.50 0.50 0.50 C 1.000 UL
LTa
0.50 0.50 0.50 C 1564 280 M
0 4591 V
stroke
LT0
0.50 0.50 0.50 C 1564 280 M
0 63 V
0 4528 R
0 -63 V
0 -4668 R
( 3.53553) Cshow
1.000 UL
LT0
0.50 0.50 0.50 C 1.000 UL
LTa
0.50 0.50 0.50 C 1684 280 M
0 4591 V
stroke
LT0
0.50 0.50 0.50 C 1684 280 M
0 63 V
0 4528 R
0 -63 V
0 -4668 R
( 4.24264) Cshow
1.000 UL
LT0
0.50 0.50 0.50 C 1.000 UL
LTa
0.50 0.50 0.50 C 1803 280 M
0 4591 V
stroke
LT0
0.50 0.50 0.50 C 1803 280 M
0 63 V
0 4528 R
0 -63 V
0 -4668 R
( 4.94974) Cshow
1.000 UL
LT0
0.50 0.50 0.50 C 1.000 UL
LTa
0.50 0.50 0.50 C 1923 280 M
0 4591 V
stroke
LT0
0.50 0.50 0.50 C 1923 280 M
0 63 V
0 4528 R
0 -63 V
0 -4668 R
( 5.65685) Cshow
1.000 UL
LT0
0.50 0.50 0.50 C 1.000 UL
LTa
0.50 0.50 0.50 C 2043 280 M
0 4591 V
stroke
LT0
0.50 0.50 0.50 C 2043 280 M
0 63 V
0 4528 R
0 -63 V
0 -4668 R
( 6.36395) Cshow
1.000 UL
LT0
0.50 0.50 0.50 C 1.000 UL
LTa
0.50 0.50 0.50 C 2162 280 M
0 4591 V
stroke
LT0
0.50 0.50 0.50 C 2162 280 M
0 63 V
0 4528 R
0 -63 V
0 -4668 R
( 7.07106) Cshow
1.000 UL
LT0
0.50 0.50 0.50 C 1.000 UL
LTa
0.50 0.50 0.50 C 2282 280 M
0 4591 V
stroke
LT0
0.50 0.50 0.50 C 2282 280 M
0 63 V
0 4528 R
0 -63 V
0 -4668 R
( 7.77817) Cshow
1.000 UL
LT0
0.50 0.50 0.50 C 1.000 UL
LTa
0.50 0.50 0.50 C 2401 280 M
0 4591 V
stroke
LT0
0.50 0.50 0.50 C 2401 280 M
0 63 V
0 4528 R
0 -63 V
0 -4668 R
( 8.48527) Cshow
1.000 UL
LT0
0.50 0.50 0.50 C 1.000 UL
LTa
0.50 0.50 0.50 C 2521 280 M
0 4591 V
stroke
LT0
0.50 0.50 0.50 C 2521 280 M
0 63 V
0 4528 R
0 -63 V
0 -4668 R
( 9.19238) Cshow
1.000 UL
LT0
0.50 0.50 0.50 C 1.000 UL
LTa
0.50 0.50 0.50 C 2641 280 M
0 4591 V
stroke
LT0
0.50 0.50 0.50 C 2641 280 M
0 63 V
0 4528 R
0 -63 V
0 -4668 R
( 9.89948) Cshow
1.000 UL
LT0
0.50 0.50 0.50 C 1.000 UL
LTa
0.50 0.50 0.50 C 2760 280 M
0 4591 V
stroke
LT0
0.50 0.50 0.50 C 2760 280 M
0 63 V
0 4528 R
0 -63 V
0 -4668 R
( 10.6066) Cshow
1.000 UL
LT0
0.50 0.50 0.50 C 1.000 UL
LTa
0.50 0.50 0.50 C 2880 280 M
0 4591 V
stroke
LT0
0.50 0.50 0.50 C 2880 280 M
0 63 V
0 4528 R
0 -63 V
0 -4668 R
( 11.3137) Cshow
1.000 UL
LT0
0.50 0.50 0.50 C 1.000 UL
LTa
0.50 0.50 0.50 C 3000 280 M
0 4591 V
stroke
LT0
0.50 0.50 0.50 C 3000 280 M
0 63 V
0 4528 R
0 -63 V
0 -4668 R
( 12.0208) Cshow
1.000 UL
LT0
0.50 0.50 0.50 C 1.000 UL
LTa
0.50 0.50 0.50 C 3119 280 M
0 4591 V
stroke
LT0
0.50 0.50 0.50 C 3119 280 M
0 63 V
0 4528 R
0 -63 V
0 -4668 R
( 12.7279) Cshow
1.000 UL
LT0
0.50 0.50 0.50 C 1.000 UL
LTa
0.50 0.50 0.50 C 3239 280 M
0 4591 V
stroke
LT0
0.50 0.50 0.50 C 3239 280 M
0 63 V
0 4528 R
0 -63 V
0 -4668 R
( 13.435) Cshow
1.000 UL
LT0
0.50 0.50 0.50 C 1.000 UL
LTa
0.50 0.50 0.50 C 3358 280 M
0 4591 V
stroke
LT0
0.50 0.50 0.50 C 3358 280 M
0 63 V
0 4528 R
0 -63 V
0 -4668 R
( 14.1421) Cshow
1.000 UL
LT0
0.50 0.50 0.50 C 1.000 UL
LTa
0.50 0.50 0.50 C 3478 280 M
0 4591 V
stroke
LT0
0.50 0.50 0.50 C 3478 280 M
0 63 V
0 4528 R
0 -63 V
0 -4668 R
( 14.8492) Cshow
1.000 UL
LT0
0.50 0.50 0.50 C 1.000 UL
LTa
0.50 0.50 0.50 C 3598 280 M
0 4591 V
stroke
LT0
0.50 0.50 0.50 C 3598 280 M
0 63 V
0 4528 R
0 -63 V
0 -4668 R
( 15.5563) Cshow
1.000 UL
LT0
0.50 0.50 0.50 C 1.000 UL
LTa
0.50 0.50 0.50 C 3717 280 M
0 4591 V
stroke
LT0
0.50 0.50 0.50 C 3717 280 M
0 63 V
0 4528 R
0 -63 V
0 -4668 R
( 16.2634) Cshow
1.000 UL
LT0
0.50 0.50 0.50 C 1.000 UL
LTa
0.50 0.50 0.50 C 3837 280 M
0 4591 V
stroke
LT0
0.50 0.50 0.50 C 3837 280 M
0 63 V
0 4528 R
0 -63 V
0 -4668 R
( 16.9705) Cshow
1.000 UL
LT0
0.50 0.50 0.50 C 1.000 UL
LTa
0.50 0.50 0.50 C 3956 280 M
0 4591 V
stroke
LT0
0.50 0.50 0.50 C 3956 280 M
0 63 V
0 4528 R
0 -63 V
0 -4668 R
( 17.6776) Cshow
1.000 UL
LT0
0.50 0.50 0.50 C 1.000 UL
LTa
0.50 0.50 0.50 C 4076 280 M
0 4591 V
stroke
LT0
0.50 0.50 0.50 C 4076 280 M
0 63 V
0 4528 R
0 -63 V
0 -4668 R
( 18.3848) Cshow
1.000 UL
LT0
0.50 0.50 0.50 C 1.000 UL
LTa
0.50 0.50 0.50 C 4196 280 M
0 4591 V
stroke
LT0
0.50 0.50 0.50 C 4196 280 M
0 63 V
0 4528 R
0 -63 V
0 -4668 R
( 19.0919) Cshow
1.000 UL
LT0
0.50 0.50 0.50 C 1.000 UL
LTa
0.50 0.50 0.50 C 4315 280 M
0 4591 V
stroke
LT0
0.50 0.50 0.50 C 4315 280 M
0 63 V
0 4528 R
0 -63 V
0 -4668 R
( 19.799) Cshow
1.000 UL
LT0
0.50 0.50 0.50 C 1.000 UL
LTa
0.50 0.50 0.50 C 4435 280 M
0 4591 V
stroke
LT0
0.50 0.50 0.50 C 4435 280 M
0 63 V
0 4528 R
0 -63 V
0 -4668 R
( 20.5061) Cshow
1.000 UL
LT0
0.50 0.50 0.50 C 1.000 UL
LTa
0.50 0.50 0.50 C 4555 280 M
0 4591 V
stroke
LT0
0.50 0.50 0.50 C 4555 280 M
0 63 V
0 4528 R
0 -63 V
0 -4668 R
( 21.2132) Cshow
1.000 UL
LT0
0.50 0.50 0.50 C 1.000 UL
LTa
0.50 0.50 0.50 C 4674 280 M
0 4591 V
stroke
LT0
0.50 0.50 0.50 C 4674 280 M
0 63 V
0 4528 R
0 -63 V
0 -4668 R
( 21.9203) Cshow
1.000 UL
LT0
0.50 0.50 0.50 C 1.000 UL
LTa
0.50 0.50 0.50 C 4794 280 M
0 4591 V
stroke
LT0
0.50 0.50 0.50 C 4794 280 M
0 63 V
0 4528 R
0 -63 V
0 -4668 R
( 22.6274) Cshow
1.000 UL
LT0
0.50 0.50 0.50 C 1.000 UL
LTa
0.50 0.50 0.50 C 4913 280 M
0 4591 V
stroke
LT0
0.50 0.50 0.50 C 4913 280 M
0 63 V
0 4528 R
0 -63 V
0 -4668 R
( 23.3345) Cshow
1.000 UL
LT0
0.50 0.50 0.50 C 1.000 UL
LTa
0.50 0.50 0.50 C 5033 280 M
0 4591 V
stroke
LT0
0.50 0.50 0.50 C 5033 280 M
0 63 V
0 4528 R
0 -63 V
0 -4668 R
( 24.0416) Cshow
1.000 UL
LT0
0.50 0.50 0.50 C 1.000 UL
LTa
0.50 0.50 0.50 C 5153 280 M
0 4591 V
stroke
LT0
0.50 0.50 0.50 C 5153 280 M
0 63 V
0 4528 R
0 -63 V
0 -4668 R
( 24.7487) Cshow
1.000 UL
LT0
0.50 0.50 0.50 C 1.000 UL
LTa
0.50 0.50 0.50 C 5272 280 M
0 4591 V
stroke
LT0
0.50 0.50 0.50 C 5272 280 M
0 63 V
0 4528 R
0 -63 V
0 -4668 R
( 25.4558) Cshow
1.000 UL
LT0
0.50 0.50 0.50 C 1.000 UL
LTa
0.50 0.50 0.50 C 5392 280 M
0 4591 V
stroke
LT0
0.50 0.50 0.50 C 5392 280 M
0 63 V
0 4528 R
0 -63 V
0 -4668 R
( 26.1629) Cshow
1.000 UL
LT0
0.50 0.50 0.50 C 1.000 UL
LTa
0.50 0.50 0.50 C 5512 280 M
0 4591 V
stroke
LT0
0.50 0.50 0.50 C 5512 280 M
0 63 V
0 4528 R
0 -63 V
0 -4668 R
( 26.87) Cshow
1.000 UL
LT0
0.50 0.50 0.50 C 1.000 UL
LTa
0.50 0.50 0.50 C 5631 280 M
0 4591 V
stroke
LT0
0.50 0.50 0.50 C 5631 280 M
0 63 V
0 4528 R
0 -63 V
0 -4668 R
( 27.5771) Cshow
1.000 UL
LT0
0.50 0.50 0.50 C 1.000 UL
LTa
0.50 0.50 0.50 C 5751 280 M
0 4591 V
stroke
LT0
0.50 0.50 0.50 C 5751 280 M
0 63 V
0 4528 R
0 -63 V
0 -4668 R
( 28.2842) Cshow
1.000 UL
LT0
0.50 0.50 0.50 C 1.000 UL
LTa
0.50 0.50 0.50 C 5870 280 M
0 4591 V
stroke
LT0
0.50 0.50 0.50 C 5870 280 M
0 63 V
0 4528 R
0 -63 V
0 -4668 R
( 28.9913) Cshow
1.000 UL
LT0
0.50 0.50 0.50 C 1.000 UL
LTa
0.50 0.50 0.50 C 5990 280 M
0 4591 V
stroke
LT0
0.50 0.50 0.50 C 5990 280 M
0 63 V
0 4528 R
0 -63 V
0 -4668 R
( 29.6985) Cshow
1.000 UL
LT0
0.50 0.50 0.50 C 1.000 UL
LTa
0.50 0.50 0.50 C 6110 280 M
0 4591 V
stroke
LT0
0.50 0.50 0.50 C 6110 280 M
0 63 V
0 4528 R
0 -63 V
0 -4668 R
( 30.4056) Cshow
1.000 UL
LT0
0.50 0.50 0.50 C 1.000 UL
LTa
0.50 0.50 0.50 C 6229 280 M
0 4591 V
stroke
LT0
0.50 0.50 0.50 C 6229 280 M
0 63 V
0 4528 R
0 -63 V
0 -4668 R
( 31.1127) Cshow
1.000 UL
LT0
0.50 0.50 0.50 C 1.000 UL
LTa
0.50 0.50 0.50 C 6349 280 M
0 4591 V
stroke
LT0
0.50 0.50 0.50 C 6349 280 M
0 63 V
0 4528 R
0 -63 V
0 -4668 R
( 31.8198) Cshow
1.000 UL
LT0
0.50 0.50 0.50 C 1.000 UL
LTa
0.50 0.50 0.50 C 6469 280 M
0 4591 V
stroke
LT0
0.50 0.50 0.50 C 6469 280 M
0 63 V
0 4528 R
0 -63 V
0 -4668 R
( 32.5269) Cshow
1.000 UL
LT0
0.50 0.50 0.50 C 1.000 UL
LTa
0.50 0.50 0.50 C 6588 280 M
0 4591 V
stroke
LT0
0.50 0.50 0.50 C 6588 280 M
0 63 V
0 4528 R
0 -63 V
0 -4668 R
( 33.234) Cshow
1.000 UL
LT0
0.50 0.50 0.50 C 1.000 UL
LTa
0.50 0.50 0.50 C 6708 280 M
0 4591 V
stroke
LT0
0.50 0.50 0.50 C 6708 280 M
0 63 V
0 4528 R
0 -63 V
0 -4668 R
( 33.9411) Cshow
1.000 UL
LT0
0.50 0.50 0.50 C 1.000 UL
LTa
0.50 0.50 0.50 C 6827 280 M
0 4591 V
stroke
LT0
0.50 0.50 0.50 C 6827 280 M
0 63 V
0 4528 R
0 -63 V
0 -4668 R
( 34.6482) Cshow
1.000 UL
LT0
0.50 0.50 0.50 C 1.000 UL
LTa
0.50 0.50 0.50 C 6947 280 M
0 4591 V
stroke
LT0
0.50 0.50 0.50 C 6947 280 M
0 63 V
0 4528 R
0 -63 V
0 -4668 R
( 35.3553) Cshow
1.000 UL
LT0
0.50 0.50 0.50 C 1.000 UL
LT0
0.50 0.50 0.50 C 966 4871 M
966 280 L
5981 0 V
0 4591 R
-5981 0 R
1.000 UP
stroke
LT0
0.50 0.50 0.50 C % Begin plot #1
1.500 UP
2.000 UL
LT0
0.00 0.00 1.00 C /Helvetica findfont 140 scalefont setfont
/vshift -46 def
1086 372 M
119 0 V
0 183 R
120 0 V
0 184 R
119 0 V
0 184 R
120 0 V
120 0 V
119 0 V
120 0 V
120 0 V
119 0 V
120 0 V
0 92 R
119 0 V
120 0 V
0 91 R
120 0 V
119 0 V
0 643 R
120 0 V
120 0 V
119 0 V
120 0 V
119 0 V
120 0 V
120 0 V
119 0 V
120 0 V
120 0 V
0 92 R
119 0 V
120 0 V
0 92 R
119 0 V
120 0 V
120 0 V
119 0 V
120 0 V
119 0 V
0 92 R
120 0 V
120 0 V
0 551 R
119 0 V
0 367 R
120 0 V
120 0 V
0 92 R
119 0 V
0 367 R
120 0 V
0 92 R
119 0 V
0 367 R
120 0 V
0 459 R
120 0 V
0 276 R
119 0 V
120 0 V
120 0 V
119 0 V
0 91 R
120 0 V
966 280 M
120 0 V
6708 4779 M
119 0 V
1086 280 M
0 92 V
119 0 R
0 92 V
0 91 V
120 0 R
0 92 V
0 92 V
119 0 R
0 92 V
0 92 V
838 0 R
0 92 V
239 0 R
0 91 V
239 0 R
0 92 V
0 92 V
0 92 V
0 92 V
0 91 V
0 92 V
0 92 V
1197 0 R
0 92 V
239 0 R
0 92 V
717 0 R
0 92 V
240 0 R
0 91 V
0 92 V
0 92 V
0 92 V
0 92 V
stroke 5153 2484 M
0 92 V
119 0 R
0 91 V
0 92 V
0 92 V
0 92 V
240 0 R
0 92 V
119 0 R
0 91 V
0 92 V
0 92 V
0 92 V
120 0 R
0 92 V
119 0 R
0 92 V
0 91 V
0 92 V
0 92 V
120 0 R
0 92 V
0 92 V
0 91 V
0 92 V
0 92 V
120 0 R
0 92 V
0 92 V
0 92 V
478 0 R
0 91 V
120 0 R
0 92 V
1086 372 CircleF
1205 372 CircleF
1205 555 CircleF
1325 555 CircleF
1325 739 CircleF
1444 739 CircleF
1444 923 CircleF
1564 923 CircleF
1564 923 CircleF
1684 923 CircleF
1684 923 CircleF
1803 923 CircleF
1803 923 CircleF
1923 923 CircleF
1923 923 CircleF
2043 923 CircleF
2043 923 CircleF
2162 923 CircleF
2162 923 CircleF
2282 923 CircleF
2282 1015 CircleF
2401 1015 CircleF
2401 1015 CircleF
2521 1015 CircleF
2521 1106 CircleF
2641 1106 CircleF
2641 1106 CircleF
2760 1106 CircleF
2760 1749 CircleF
2880 1749 CircleF
2880 1749 CircleF
3000 1749 CircleF
3000 1749 CircleF
3119 1749 CircleF
3119 1749 CircleF
3239 1749 CircleF
3239 1749 CircleF
3358 1749 CircleF
3358 1749 CircleF
3478 1749 CircleF
3478 1749 CircleF
3598 1749 CircleF
3598 1749 CircleF
3717 1749 CircleF
3717 1749 CircleF
3837 1749 CircleF
3837 1749 CircleF
3957 1749 CircleF
3957 1841 CircleF
4076 1841 CircleF
4076 1841 CircleF
4196 1841 CircleF
4196 1933 CircleF
4315 1933 CircleF
4315 1933 CircleF
4435 1933 CircleF
4435 1933 CircleF
4555 1933 CircleF
4555 1933 CircleF
4674 1933 CircleF
4674 1933 CircleF
4794 1933 CircleF
4794 1933 CircleF
4913 1933 CircleF
4913 2025 CircleF
5033 2025 CircleF
5033 2025 CircleF
5153 2025 CircleF
5153 2576 CircleF
5272 2576 CircleF
5272 2943 CircleF
5392 2943 CircleF
5392 2943 CircleF
5512 2943 CircleF
5512 3035 CircleF
5631 3035 CircleF
5631 3402 CircleF
5751 3402 CircleF
5751 3494 CircleF
5870 3494 CircleF
5870 3861 CircleF
5990 3861 CircleF
5990 4320 CircleF
6110 4320 CircleF
6110 4596 CircleF
6229 4596 CircleF
6229 4596 CircleF
6349 4596 CircleF
6349 4596 CircleF
6469 4596 CircleF
6469 4596 CircleF
6588 4596 CircleF
6588 4687 CircleF
6708 4687 CircleF
966 280 CircleF
1086 280 CircleF
6708 4779 CircleF
6827 4779 CircleF
1086 280 CircleF
1086 372 CircleF
1205 372 CircleF
1205 464 CircleF
1205 464 CircleF
1205 555 CircleF
1325 555 CircleF
1325 647 CircleF
1325 647 CircleF
1325 739 CircleF
1444 739 CircleF
1444 831 CircleF
1444 831 CircleF
1444 923 CircleF
2282 923 CircleF
2282 1015 CircleF
2521 1015 CircleF
2521 1106 CircleF
2760 1106 CircleF
2760 1198 CircleF
2760 1198 CircleF
2760 1290 CircleF
2760 1290 CircleF
2760 1382 CircleF
2760 1382 CircleF
2760 1474 CircleF
2760 1474 CircleF
2760 1565 CircleF
2760 1565 CircleF
2760 1657 CircleF
2760 1657 CircleF
2760 1749 CircleF
3957 1749 CircleF
3957 1841 CircleF
4196 1841 CircleF
4196 1933 CircleF
4913 1933 CircleF
4913 2025 CircleF
5153 2025 CircleF
5153 2116 CircleF
5153 2116 CircleF
5153 2208 CircleF
5153 2208 CircleF
5153 2300 CircleF
5153 2300 CircleF
5153 2392 CircleF
5153 2392 CircleF
5153 2484 CircleF
5153 2484 CircleF
5153 2576 CircleF
5272 2576 CircleF
5272 2667 CircleF
5272 2667 CircleF
5272 2759 CircleF
5272 2759 CircleF
5272 2851 CircleF
5272 2851 CircleF
5272 2943 CircleF
5512 2943 CircleF
5512 3035 CircleF
5631 3035 CircleF
5631 3126 CircleF
5631 3126 CircleF
5631 3218 CircleF
5631 3218 CircleF
5631 3310 CircleF
5631 3310 CircleF
5631 3402 CircleF
5751 3402 CircleF
5751 3494 CircleF
5870 3494 CircleF
5870 3586 CircleF
5870 3586 CircleF
5870 3677 CircleF
5870 3677 CircleF
5870 3769 CircleF
5870 3769 CircleF
5870 3861 CircleF
5990 3861 CircleF
5990 3953 CircleF
5990 3953 CircleF
5990 4045 CircleF
5990 4045 CircleF
5990 4136 CircleF
5990 4136 CircleF
5990 4228 CircleF
5990 4228 CircleF
5990 4320 CircleF
6110 4320 CircleF
6110 4412 CircleF
6110 4412 CircleF
6110 4504 CircleF
6110 4504 CircleF
6110 4596 CircleF
6588 4596 CircleF
6588 4687 CircleF
6708 4687 CircleF
6708 4779 CircleF
% End plot #1
% Begin plot #2
1.500 UP
2.000 UL
LT0
1.00 0.55 0.00 C /Helvetica findfont 140 scalefont setfont
6635 667 M
119 92 V
2932 2384 M
119 91 V
4416 4411 M
120 92 V
4016 1006 M
119 92 V
2535 1364 M
120 92 V
1598 633 R
120 92 V
1080 573 M
120 92 V
5035 3159 M
119 92 V
1703 2996 M
119 92 V
933 43 R
119 92 V
5492 1666 M
120 92 V
1120 4093 M
119 92 V
4184 3701 M
120 92 V
1737 1824 M
119 92 V
4836 4276 M
120 92 V
6619 3645 M
119 91 V
5142 1442 M
120 91 V
3406 3800 M
119 92 V
4978 2766 M
120 91 V
4105 1812 M
119 92 V
1194 2022 M
120 92 V
5560 466 M
119 92 V
1001 3133 M
120 92 V
5888 409 M
120 92 V
4771 1129 M
119 92 V
952 114 R
119 92 V
5489 3089 M
120 92 V
-547 -65 R
120 92 V
6154 942 M
119 92 V
1788 886 M
119 92 V
1787 3604 M
119 92 V
1806 752 M
120 92 V
3528 399 M
120 92 V
5006 4342 M
120 92 V
4180 990 M
120 92 V
3429 2546 M
120 91 V
5834 1077 M
120 91 V
4020 442 M
120 91 V
2784 1095 M
119 91 V
571 3058 R
120 92 V
6355 1239 M
120 92 V
2204 936 M
120 92 V
-774 482 R
119 92 V
4767 479 R
120 92 V
5036 1966 M
119 92 V
2240 939 M
120 92 V
1951 549 R
120 92 V
2036 868 R
120 92 V
2525 3170 M
120 92 V
4164 898 M
119 92 V
5798 3419 M
120 92 V
2391 4498 M
120 91 V
1200 1982 M
120 92 V
stroke 1320 2074 M
1769 354 R
120 92 V
2272 426 R
119 92 V
5296 2534 M
120 92 V
1991 502 M
120 92 V
4416 4491 M
120 92 V
4050 2087 M
120 91 V
1600 1174 M
120 92 V
3923 716 M
120 92 V
2658 1077 M
120 92 V
2508 3434 M
119 92 V
1606 465 M
120 92 V
3979 795 R
120 92 V
4082 2794 M
119 92 V
2097 3677 M
119 92 V
3261 945 M
119 92 V
2437 997 M
120 92 V
2405 793 M
119 91 V
3528 3208 M
120 92 V
5252 951 M
120 92 V
4701 838 M
120 92 V
786 2376 R
120 91 V
4146 466 M
120 92 V
1639 1582 M
120 92 V
-634 853 R
119 91 V
4808 547 R
120 92 V
1731 2969 M
120 92 V
1729 1907 M
120 92 V
4026 652 M
120 92 V
621 3500 R
120 92 V
4788 3258 M
119 92 V
198 -891 R
119 91 V
5451 433 M
120 92 V
83 1123 R
120 91 V
3224 457 M
120 92 V
6274 2222 M
120 92 V
2414 4243 M
120 92 V
1247 582 M
119 92 V
324 1774 R
120 92 V
979 1188 R
119 92 V
5706 1704 M
119 92 V
1393 4458 M
120 92 V
1385 3506 M
119 92 V
4621 4646 M
119 92 V
4290 485 M
120 92 V
568 2634 R
120 91 V
3044 2991 M
120 91 V
5156 1871 M
120 92 V
3525 4465 M
119 92 V
6377 1649 M
120 92 V
-300 377 R
119 92 V
3963 2839 M
120 92 V
2181 4017 M
120 92 V
stroke 2301 4109 M
2706 1314 M
120 92 V
4643 4129 M
119 92 V
5568 962 M
120 92 V
3957 1377 M
119 91 V
3469 2877 M
120 92 V
5549 651 M
120 92 V
2048 4266 M
119 92 V
2621 2412 M
119 92 V
2371 1211 M
119 91 V
799 569 R
119 92 V
665 -158 R
120 92 V
1335 1333 M
119 91 V
4430 4185 M
120 92 V
626 -885 R
120 92 V
57 -1925 R
119 92 V
1867 719 M
120 91 V
1893 388 R
120 91 V
2426 2609 M
120 92 V
4809 3918 M
120 92 V
2068 421 M
119 92 V
4698 963 M
120 91 V
6483 2678 M
120 92 V
1179 4336 M
120 92 V
2724 2394 M
119 92 V
-944 518 R
120 92 V
3437 1616 M
120 92 V
5039 1278 M
120 92 V
822 922 R
120 92 V
2199 2629 M
119 92 V
-232 497 R
120 92 V
1919 2587 M
120 92 V
1340 2269 M
120 92 V
3960 4480 M
119 92 V
4606 1866 M
119 92 V
4340 402 M
120 92 V
1288 685 M
119 92 V
423 1503 R
120 92 V
339 -923 R
120 91 V
1175 2974 M
119 92 V
2655 1565 M
120 91 V
3708 426 R
120 92 V
2263 3892 M
119 92 V
1328 1712 M
119 92 V
4357 907 M
119 92 V
2914 4311 M
120 92 V
1791 4569 M
120 91 V
3385 3758 M
120 92 V
3849 944 M
119 92 V
1689 350 M
120 92 V
5737 3452 M
120 92 V
2494 2424 M
119 92 V
2572 500 M
119 92 V
stroke 2691 592 M
5143 2456 M
120 92 V
2524 1743 M
120 92 V
671 2204 R
120 91 V
1618 3481 M
120 92 V
2893 435 R
119 92 V
6478 861 M
120 91 V
5747 802 M
119 92 V
5746 378 M
119 91 V
152 298 R
119 92 V
5759 3561 M
119 92 V
6231 1372 M
120 92 V
2544 3869 M
119 91 V
1258 4554 M
120 92 V
3920 20 R
120 92 V
5660 3370 M
120 92 V
248 -914 R
119 92 V
2170 4086 M
119 92 V
1431 3806 M
120 92 V
5324 394 M
119 92 V
3931 3754 M
120 92 V
1250 1420 M
120 92 V
4309 324 R
120 92 V
2574 2798 M
119 92 V
1302 4605 M
120 91 V
3467 1271 M
120 92 V
179 85 R
119 92 V
1110 1113 M
119 92 V
2459 4509 M
120 92 V
6579 1214 M
119 91 V
1206 3191 M
119 92 V
5167 782 R
120 92 V
5890 1387 M
120 92 V
2293 675 M
120 92 V
3286 401 R
120 92 V
1291 2050 M
119 91 V
6595 706 M
119 92 V
5188 2701 M
120 92 V
3077 823 M
120 92 V
365 3561 R
120 92 V
5872 3807 M
120 91 V
3198 3445 M
120 92 V
2573 320 M
120 92 V
4207 3619 M
120 92 V
3755 2482 M
120 91 V
2816 4200 M
119 92 V
2678 1538 M
120 92 V
13 1251 R
119 92 V
3523 688 M
120 92 V
280 711 R
120 91 V
-195 111 R
120 92 V
1493 875 M
120 92 V
5076 2999 M
120 92 V
stroke 5196 3091 M
3539 2754 M
119 92 V
1961 271 R
120 92 V
5383 2137 M
119 92 V
371 1779 R
120 91 V
5518 2513 M
120 92 V
1794 1375 M
119 92 V
4733 4607 M
119 92 V
6564 4593 M
119 92 V
2825 1112 M
120 92 V
1550 835 M
120 92 V
6247 4563 M
120 91 V
1867 1121 M
119 92 V
320 3217 R
120 91 V
6084 1680 M
119 92 V
6396 455 M
120 92 V
3010 623 M
120 92 V
4837 1737 M
119 92 V
5324 850 M
119 92 V
2598 859 M
120 92 V
-758 997 R
119 92 V
3369 3928 M
120 92 V
2001 353 M
120 92 V
3272 788 R
120 92 V
1295 1042 M
119 92 V
5775 2894 M
119 92 V
3903 4569 M
119 92 V
2920 702 M
120 92 V
206 295 R
120 92 V
3263 502 R
120 92 V
2670 1547 M
119 92 V
5806 2789 M
120 92 V
592 -964 R
120 91 V
1124 397 M
119 92 V
439 944 R
120 92 V
2980 649 M
119 92 V
1117 463 R
119 92 V
3662 4239 M
120 92 V
3971 3292 M
120 92 V
6298 1952 M
120 92 V
3478 2250 M
120 92 V
2343 3244 M
119 92 V
5252 2741 M
120 92 V
2817 1711 M
119 92 V
417 2773 R
119 92 V
3382 1033 M
119 92 V
2767 -26 R
119 92 V
1804 2017 M
119 92 V
-127 -35 R
120 92 V
2976 4162 M
120 92 V
1196 2225 M
119 92 V
4008 475 R
120 92 V
726 892 R
120 92 V
stroke 6289 3868 M
240 -779 R
120 92 V
4850 1938 M
120 92 V
1545 4356 M
120 92 V
4757 69 R
120 92 V
3393 3151 M
120 92 V
225 -423 R
119 92 V
5943 911 M
119 91 V
3880 549 M
120 91 V
2968 3688 M
119 91 V
2519 624 M
119 92 V
4106 4331 M
120 92 V
3216 4391 M
119 91 V
2283 1001 M
120 91 V
2044 256 R
120 92 V
2195 2715 M
120 92 V
7 614 R
120 92 V
2168 2509 M
120 91 V
2731 603 R
120 92 V
2428 1045 M
120 92 V
2519 -41 R
120 92 V
2694 4587 M
119 91 V
3139 -73 R
119 92 V
3205 1110 M
119 92 V
1514 1630 M
119 92 V
897 188 R
120 92 V
2875 548 M
119 92 V
1137 2675 M
119 91 V
5108 1676 M
120 92 V
6389 4234 M
120 92 V
2008 3683 M
119 92 V
981 4454 M
120 92 V
6020 1785 M
120 92 V
-926 860 R
119 92 V
0 764 R
120 92 V
623 720 R
120 91 V
4588 4139 M
120 92 V
6578 2349 M
120 92 V
3202 4603 M
119 92 V
2732 1560 M
120 92 V
-65 1127 R
119 92 V
4082 1571 M
119 92 V
2923 4615 M
119 92 V
5740 693 M
119 91 V
1469 3685 M
120 91 V
6663 2698 M
120 91 V
3822 926 M
119 92 V
1910 3794 M
119 91 V
4326 999 M
120 92 V
3955 477 M
120 92 V
22 2309 R
120 92 V
333 -166 R
120 92 V
2804 465 M
120 92 V
stroke 2924 557 M
3129 570 R
120 91 V
1719 1017 M
119 92 V
2291 793 R
119 92 V
-355 342 R
119 91 V
1372 1454 M
120 92 V
1679 -86 R
120 92 V
2242 2925 M
119 92 V
3490 4180 M
120 92 V
3526 1705 M
120 92 V
2286 2976 M
120 92 V
6209 4625 M
120 92 V
3952 2949 M
120 92 V
1460 246 R
120 92 V
2299 2577 M
119 91 V
1185 1822 M
119 92 V
2701 -92 R
120 92 V
1328 701 M
119 92 V
4356 2818 M
119 92 V
988 -984 R
120 92 V
1994 1462 M
119 92 V
1808 441 R
119 92 V
6551 572 M
120 92 V
-87 3360 R
119 92 V
-5689 12 R
120 92 V
3996 -54 R
120 92 V
2627 2287 M
119 92 V
604 844 R
120 91 V
1157 2511 M
120 92 V
4105 -23 R
119 92 V
4886 902 M
119 92 V
3393 3094 M
120 92 V
-290 543 R
120 92 V
62 51 R
120 92 V
3683 549 M
120 92 V
5507 2482 M
120 92 V
4122 1301 M
119 92 V
3002 1068 M
119 91 V
1375 1573 M
120 91 V
5135 369 R
120 92 V
-946 532 R
120 92 V
3203 1870 M
120 92 V
899 -847 R
119 91 V
4099 2752 M
120 92 V
1299 1098 M
119 91 V
1293 2248 M
120 92 V
359 1788 R
119 92 V
4276 3938 M
120 92 V
1955 2738 M
119 92 V
1986 1486 M
119 92 V
6517 1013 M
120 92 V
4072 3715 M
119 92 V
2482 4202 M
120 92 V
stroke 2602 4294 M
6511 1715 M
120 92 V
2162 572 M
119 92 V
1541 3559 M
119 92 V
2816 701 R
119 91 V
6268 3440 M
119 92 V
1452 3278 M
120 92 V
3246 928 R
119 92 V
3530 1534 M
119 92 V
3690 373 M
119 91 V
1723 4086 M
120 92 V
1085 2998 M
120 92 V
1920 333 R
120 92 V
2731 720 R
119 92 V
1202 2020 M
120 91 V
4612 4208 M
119 92 V
2295 3199 M
120 92 V
5446 4462 M
119 92 V
1244 1081 M
119 92 V
6668 401 M
120 92 V
4650 3973 M
119 92 V
5016 1353 M
120 92 V
436 1052 R
120 92 V
5488 4439 M
119 91 V
2646 4478 M
120 91 V
5230 2878 M
119 92 V
2760 4580 M
119 92 V
2393 4521 M
120 91 V
6171 3097 M
119 92 V
5712 2563 M
119 92 V
5001 1463 M
119 91 V
3282 2037 M
120 92 V
897 2025 R
119 92 V
3372 2406 M
120 91 V
6476 4232 M
119 92 V
5426 3908 M
119 92 V
6635 667 CircleF
6754 759 CircleF
2932 2384 CircleF
3051 2475 CircleF
4416 4411 CircleF
4536 4503 CircleF
4016 1006 CircleF
4135 1098 CircleF
2535 1364 CircleF
2655 1456 CircleF
4253 2089 CircleF
4373 2181 CircleF
1080 573 CircleF
1200 665 CircleF
5035 3159 CircleF
5154 3251 CircleF
1703 2996 CircleF
1822 3088 CircleF
2755 3131 CircleF
2874 3223 CircleF
5492 1666 CircleF
5612 1758 CircleF
1120 4093 CircleF
1239 4185 CircleF
4184 3701 CircleF
4304 3793 CircleF
1737 1824 CircleF
1856 1916 CircleF
4836 4276 CircleF
4956 4368 CircleF
6619 3645 CircleF
6738 3736 CircleF
5142 1442 CircleF
5262 1533 CircleF
3406 3800 CircleF
3525 3892 CircleF
4978 2766 CircleF
5098 2857 CircleF
4105 1812 CircleF
4224 1904 CircleF
1194 2022 CircleF
1314 2114 CircleF
5560 466 CircleF
5679 558 CircleF
1001 3133 CircleF
1121 3225 CircleF
5888 409 CircleF
6008 501 CircleF
4771 1129 CircleF
4890 1221 CircleF
5842 1335 CircleF
5961 1427 CircleF
5489 3089 CircleF
5609 3181 CircleF
5062 3116 CircleF
5182 3208 CircleF
6154 942 CircleF
6273 1034 CircleF
1788 886 CircleF
1907 978 CircleF
1787 3604 CircleF
1906 3696 CircleF
1806 752 CircleF
1926 844 CircleF
3528 399 CircleF
3648 491 CircleF
5006 4342 CircleF
5126 4434 CircleF
4180 990 CircleF
4300 1082 CircleF
3429 2546 CircleF
3549 2637 CircleF
5834 1077 CircleF
5954 1168 CircleF
4020 442 CircleF
4140 533 CircleF
2784 1095 CircleF
2903 1186 CircleF
3474 4244 CircleF
3594 4336 CircleF
6355 1239 CircleF
6475 1331 CircleF
2204 936 CircleF
2324 1028 CircleF
1550 1510 CircleF
1669 1602 CircleF
6436 2081 CircleF
6556 2173 CircleF
5036 1966 CircleF
5155 2058 CircleF
2240 939 CircleF
2360 1031 CircleF
4311 1580 CircleF
4431 1672 CircleF
6467 2540 CircleF
6587 2632 CircleF
2525 3170 CircleF
2645 3262 CircleF
4164 898 CircleF
4283 990 CircleF
5798 3419 CircleF
5918 3511 CircleF
2391 4498 CircleF
2511 4589 CircleF
1200 1982 CircleF
1320 2074 CircleF
3089 2428 CircleF
3209 2520 CircleF
5481 2946 CircleF
5600 3038 CircleF
5296 2534 CircleF
5416 2626 CircleF
1991 502 CircleF
2111 594 CircleF
4416 4491 CircleF
4536 4583 CircleF
4050 2087 CircleF
4170 2178 CircleF
1600 1174 CircleF
1720 1266 CircleF
3923 716 CircleF
4043 808 CircleF
2658 1077 CircleF
2778 1169 CircleF
2508 3434 CircleF
2627 3526 CircleF
1606 465 CircleF
1726 557 CircleF
5705 1352 CircleF
5825 1444 CircleF
4082 2794 CircleF
4201 2886 CircleF
2097 3677 CircleF
2216 3769 CircleF
3261 945 CircleF
3380 1037 CircleF
2437 997 CircleF
2557 1089 CircleF
2405 793 CircleF
2524 884 CircleF
3528 3208 CircleF
3648 3300 CircleF
5252 951 CircleF
5372 1043 CircleF
4701 838 CircleF
4821 930 CircleF
5607 3306 CircleF
5727 3397 CircleF
4146 466 CircleF
4266 558 CircleF
1639 1582 CircleF
1759 1674 CircleF
1125 2527 CircleF
1244 2618 CircleF
6052 3165 CircleF
6172 3257 CircleF
1731 2969 CircleF
1851 3061 CircleF
1729 1907 CircleF
1849 1999 CircleF
4026 652 CircleF
4146 744 CircleF
4767 4244 CircleF
4887 4336 CircleF
4788 3258 CircleF
4907 3350 CircleF
5105 2459 CircleF
5224 2550 CircleF
5451 433 CircleF
5571 525 CircleF
5654 1648 CircleF
5774 1739 CircleF
3224 457 CircleF
3344 549 CircleF
6274 2222 CircleF
6394 2314 CircleF
2414 4243 CircleF
2534 4335 CircleF
1247 582 CircleF
1366 674 CircleF
1690 2448 CircleF
1810 2540 CircleF
2789 3728 CircleF
2908 3820 CircleF
5706 1704 CircleF
5825 1796 CircleF
1393 4458 CircleF
1513 4550 CircleF
1385 3506 CircleF
1504 3598 CircleF
4621 4646 CircleF
4740 4738 CircleF
4290 485 CircleF
4410 577 CircleF
4978 3211 CircleF
5098 3302 CircleF
3044 2991 CircleF
3164 3082 CircleF
5156 1871 CircleF
5276 1963 CircleF
3525 4465 CircleF
3644 4557 CircleF
6377 1649 CircleF
6497 1741 CircleF
6197 2118 CircleF
6316 2210 CircleF
3963 2839 CircleF
4083 2931 CircleF
2181 4017 CircleF
2301 4109 CircleF
2706 1314 CircleF
2826 1406 CircleF
4643 4129 CircleF
4762 4221 CircleF
5568 962 CircleF
5688 1054 CircleF
3957 1377 CircleF
4076 1468 CircleF
3469 2877 CircleF
3589 2969 CircleF
5549 651 CircleF
5669 743 CircleF
2048 4266 CircleF
2167 4358 CircleF
2621 2412 CircleF
2740 2504 CircleF
2371 1211 CircleF
2490 1302 CircleF
3289 1871 CircleF
3408 1963 CircleF
4073 1805 CircleF
4193 1897 CircleF
1335 1333 CircleF
1454 1424 CircleF
4430 4185 CircleF
4550 4277 CircleF
5176 3392 CircleF
5296 3484 CircleF
5353 1559 CircleF
5472 1651 CircleF
1867 719 CircleF
1987 810 CircleF
3880 1198 CircleF
4000 1289 CircleF
2426 2609 CircleF
2546 2701 CircleF
4809 3918 CircleF
4929 4010 CircleF
2068 421 CircleF
2187 513 CircleF
4698 963 CircleF
4818 1054 CircleF
6483 2678 CircleF
6603 2770 CircleF
1179 4336 CircleF
1299 4428 CircleF
2724 2394 CircleF
2843 2486 CircleF
1899 3004 CircleF
2019 3096 CircleF
3437 1616 CircleF
3557 1708 CircleF
5039 1278 CircleF
5159 1370 CircleF
5981 2292 CircleF
6101 2384 CircleF
2199 2629 CircleF
2318 2721 CircleF
2086 3218 CircleF
2206 3310 CircleF
1919 2587 CircleF
2039 2679 CircleF
1340 2269 CircleF
1460 2361 CircleF
3960 4480 CircleF
4079 4572 CircleF
4606 1866 CircleF
4725 1958 CircleF
4340 402 CircleF
4460 494 CircleF
1288 685 CircleF
1407 777 CircleF
1830 2280 CircleF
1950 2372 CircleF
2289 1449 CircleF
2409 1540 CircleF
1175 2974 CircleF
1294 3066 CircleF
2655 1565 CircleF
2775 1656 CircleF
6483 2082 CircleF
6603 2174 CircleF
2263 3892 CircleF
2382 3984 CircleF
1328 1712 CircleF
1447 1804 CircleF
4357 907 CircleF
4476 999 CircleF
2914 4311 CircleF
3034 4403 CircleF
1791 4569 CircleF
1911 4660 CircleF
3385 3758 CircleF
3505 3850 CircleF
3849 944 CircleF
3968 1036 CircleF
1689 350 CircleF
1809 442 CircleF
5737 3452 CircleF
5857 3544 CircleF
2494 2424 CircleF
2613 2516 CircleF
2572 500 CircleF
2691 592 CircleF
5143 2456 CircleF
5263 2548 CircleF
2524 1743 CircleF
2644 1835 CircleF
3315 4039 CircleF
3435 4130 CircleF
1618 3481 CircleF
1738 3573 CircleF
4631 4008 CircleF
4750 4100 CircleF
6478 861 CircleF
6598 952 CircleF
5747 802 CircleF
5866 894 CircleF
5746 378 CircleF
5865 469 CircleF
6017 767 CircleF
6136 859 CircleF
5759 3561 CircleF
5878 3653 CircleF
6231 1372 CircleF
6351 1464 CircleF
2544 3869 CircleF
2663 3960 CircleF
1258 4554 CircleF
1378 4646 CircleF
5298 4666 CircleF
5418 4758 CircleF
5660 3370 CircleF
5780 3462 CircleF
6028 2548 CircleF
6147 2640 CircleF
2170 4086 CircleF
2289 4178 CircleF
1431 3806 CircleF
1551 3898 CircleF
5324 394 CircleF
5443 486 CircleF
3931 3754 CircleF
4051 3846 CircleF
1250 1420 CircleF
1370 1512 CircleF
5679 1836 CircleF
5799 1928 CircleF
2574 2798 CircleF
2693 2890 CircleF
1302 4605 CircleF
1422 4696 CircleF
3467 1271 CircleF
3587 1363 CircleF
3766 1448 CircleF
3885 1540 CircleF
1110 1113 CircleF
1229 1205 CircleF
2459 4509 CircleF
2579 4601 CircleF
6579 1214 CircleF
6698 1305 CircleF
1206 3191 CircleF
1325 3283 CircleF
6492 4065 CircleF
6612 4157 CircleF
5890 1387 CircleF
6010 1479 CircleF
2293 675 CircleF
2413 767 CircleF
5699 1168 CircleF
5819 1260 CircleF
1291 2050 CircleF
1410 2141 CircleF
6595 706 CircleF
6714 798 CircleF
5188 2701 CircleF
5308 2793 CircleF
3077 823 CircleF
3197 915 CircleF
3562 4476 CircleF
3682 4568 CircleF
5872 3807 CircleF
5992 3898 CircleF
3198 3445 CircleF
3318 3537 CircleF
2573 320 CircleF
2693 412 CircleF
4207 3619 CircleF
4327 3711 CircleF
3755 2482 CircleF
3875 2573 CircleF
2816 4200 CircleF
2935 4292 CircleF
2678 1538 CircleF
2798 1630 CircleF
2811 2881 CircleF
2930 2973 CircleF
3523 688 CircleF
3643 780 CircleF
3923 1491 CircleF
4043 1582 CircleF
3848 1693 CircleF
3968 1785 CircleF
1493 875 CircleF
1613 967 CircleF
5076 2999 CircleF
5196 3091 CircleF
3539 2754 CircleF
3658 2846 CircleF
5619 3117 CircleF
5739 3209 CircleF
5383 2137 CircleF
5502 2229 CircleF
5873 4008 CircleF
5993 4099 CircleF
5518 2513 CircleF
5638 2605 CircleF
1794 1375 CircleF
1913 1467 CircleF
4733 4607 CircleF
4852 4699 CircleF
6564 4593 CircleF
6683 4685 CircleF
2825 1112 CircleF
2945 1204 CircleF
1550 835 CircleF
1670 927 CircleF
6247 4563 CircleF
6367 4654 CircleF
1867 1121 CircleF
1986 1213 CircleF
2306 4430 CircleF
2426 4521 CircleF
6084 1680 CircleF
6203 1772 CircleF
6396 455 CircleF
6516 547 CircleF
3010 623 CircleF
3130 715 CircleF
4837 1737 CircleF
4956 1829 CircleF
5324 850 CircleF
5443 942 CircleF
2598 859 CircleF
2718 951 CircleF
1960 1948 CircleF
2079 2040 CircleF
3369 3928 CircleF
3489 4020 CircleF
2001 353 CircleF
2121 445 CircleF
5393 1233 CircleF
5513 1325 CircleF
1295 1042 CircleF
1414 1134 CircleF
5775 2894 CircleF
5894 2986 CircleF
3903 4569 CircleF
4022 4661 CircleF
2920 702 CircleF
3040 794 CircleF
3246 1089 CircleF
3366 1181 CircleF
6629 1683 CircleF
6749 1775 CircleF
2670 1547 CircleF
2789 1639 CircleF
5806 2789 CircleF
5926 2881 CircleF
6518 1917 CircleF
6638 2008 CircleF
1124 397 CircleF
1243 489 CircleF
1682 1433 CircleF
1802 1525 CircleF
2980 649 CircleF
3099 741 CircleF
4216 1204 CircleF
4335 1296 CircleF
3662 4239 CircleF
3782 4331 CircleF
3971 3292 CircleF
4091 3384 CircleF
6298 1952 CircleF
6418 2044 CircleF
3478 2250 CircleF
3598 2342 CircleF
2343 3244 CircleF
2462 3336 CircleF
5252 2741 CircleF
5372 2833 CircleF
2817 1711 CircleF
2936 1803 CircleF
3353 4576 CircleF
3472 4668 CircleF
3382 1033 CircleF
3501 1125 CircleF
6268 1099 CircleF
6387 1191 CircleF
1804 2017 CircleF
1923 2109 CircleF
1796 2074 CircleF
1916 2166 CircleF
2976 4162 CircleF
3096 4254 CircleF
1196 2225 CircleF
1315 2317 CircleF
5323 2792 CircleF
5443 2884 CircleF
6169 3776 CircleF
6289 3868 CircleF
6529 3089 CircleF
6649 3181 CircleF
4850 1938 CircleF
4970 2030 CircleF
1545 4356 CircleF
1665 4448 CircleF
6422 4517 CircleF
6542 4609 CircleF
3393 3151 CircleF
3513 3243 CircleF
3738 2820 CircleF
3857 2912 CircleF
5943 911 CircleF
6062 1002 CircleF
3880 549 CircleF
4000 640 CircleF
2968 3688 CircleF
3087 3779 CircleF
2519 624 CircleF
2638 716 CircleF
4106 4331 CircleF
4226 4423 CircleF
3216 4391 CircleF
3335 4482 CircleF
2283 1001 CircleF
2403 1092 CircleF
4447 1348 CircleF
4567 1440 CircleF
2195 2715 CircleF
2315 2807 CircleF
2322 3421 CircleF
2442 3513 CircleF
2168 2509 CircleF
2288 2600 CircleF
5019 3203 CircleF
5139 3295 CircleF
2428 1045 CircleF
2548 1137 CircleF
5067 1096 CircleF
5187 1188 CircleF
2694 4587 CircleF
2813 4678 CircleF
5952 4605 CircleF
6071 4697 CircleF
3205 1110 CircleF
3324 1202 CircleF
1514 1630 CircleF
1633 1722 CircleF
2530 1910 CircleF
2650 2002 CircleF
2875 548 CircleF
2994 640 CircleF
1137 2675 CircleF
1256 2766 CircleF
5108 1676 CircleF
5228 1768 CircleF
6389 4234 CircleF
6509 4326 CircleF
2008 3683 CircleF
2127 3775 CircleF
981 4454 CircleF
1101 4546 CircleF
6020 1785 CircleF
6140 1877 CircleF
5214 2737 CircleF
5333 2829 CircleF
5333 3593 CircleF
5453 3685 CircleF
6076 4405 CircleF
6196 4496 CircleF
4588 4139 CircleF
4708 4231 CircleF
6578 2349 CircleF
6698 2441 CircleF
3202 4603 CircleF
3321 4695 CircleF
2732 1560 CircleF
2852 1652 CircleF
2787 2779 CircleF
2906 2871 CircleF
4082 1571 CircleF
4201 1663 CircleF
2923 4615 CircleF
3042 4707 CircleF
5740 693 CircleF
5859 784 CircleF
1469 3685 CircleF
1589 3776 CircleF
6663 2698 CircleF
6783 2789 CircleF
3822 926 CircleF
3941 1018 CircleF
1910 3794 CircleF
2029 3885 CircleF
4326 999 CircleF
4446 1091 CircleF
3955 477 CircleF
4075 569 CircleF
4097 2878 CircleF
4217 2970 CircleF
4550 2804 CircleF
4670 2896 CircleF
2804 465 CircleF
2924 557 CircleF
6053 1127 CircleF
6173 1218 CircleF
1719 1017 CircleF
1838 1109 CircleF
4129 1902 CircleF
4248 1994 CircleF
3893 2336 CircleF
4012 2427 CircleF
1372 1454 CircleF
1492 1546 CircleF
3171 1460 CircleF
3291 1552 CircleF
2242 2925 CircleF
2361 3017 CircleF
3490 4180 CircleF
3610 4272 CircleF
3526 1705 CircleF
3646 1797 CircleF
2286 2976 CircleF
2406 3068 CircleF
6209 4625 CircleF
6329 4717 CircleF
3952 2949 CircleF
4072 3041 CircleF
5532 3287 CircleF
5652 3379 CircleF
2299 2577 CircleF
2418 2668 CircleF
1185 1822 CircleF
1304 1914 CircleF
4005 1822 CircleF
4125 1914 CircleF
1328 701 CircleF
1447 793 CircleF
4356 2818 CircleF
4475 2910 CircleF
5463 1926 CircleF
5583 2018 CircleF
1994 1462 CircleF
2113 1554 CircleF
3921 1995 CircleF
4040 2087 CircleF
6551 572 CircleF
6671 664 CircleF
6584 4024 CircleF
6703 4116 CircleF
1014 4128 CircleF
1134 4220 CircleF
5130 4166 CircleF
5250 4258 CircleF
2627 2287 CircleF
2746 2379 CircleF
3350 3223 CircleF
3470 3314 CircleF
1157 2511 CircleF
1277 2603 CircleF
5382 2580 CircleF
5501 2672 CircleF
4886 902 CircleF
5005 994 CircleF
3393 3094 CircleF
3513 3186 CircleF
3223 3729 CircleF
3343 3821 CircleF
3405 3872 CircleF
3525 3964 CircleF
3683 549 CircleF
3803 641 CircleF
5507 2482 CircleF
5627 2574 CircleF
4122 1301 CircleF
4241 1393 CircleF
3002 1068 CircleF
3121 1159 CircleF
1375 1573 CircleF
1495 1664 CircleF
6630 2033 CircleF
6750 2125 CircleF
5804 2657 CircleF
5924 2749 CircleF
3203 1870 CircleF
3323 1962 CircleF
4222 1115 CircleF
4341 1206 CircleF
4099 2752 CircleF
4219 2844 CircleF
1299 1098 CircleF
1418 1189 CircleF
1293 2248 CircleF
1413 2340 CircleF
1772 4128 CircleF
1891 4220 CircleF
4276 3938 CircleF
4396 4030 CircleF
1955 2738 CircleF
2074 2830 CircleF
1986 1486 CircleF
2105 1578 CircleF
6517 1013 CircleF
6637 1105 CircleF
4072 3715 CircleF
4191 3807 CircleF
2482 4202 CircleF
2602 4294 CircleF
6511 1715 CircleF
6631 1807 CircleF
2162 572 CircleF
2281 664 CircleF
1541 3559 CircleF
1660 3651 CircleF
4476 4352 CircleF
4595 4443 CircleF
6268 3440 CircleF
6387 3532 CircleF
1452 3278 CircleF
1572 3370 CircleF
4818 4298 CircleF
4937 4390 CircleF
3530 1534 CircleF
3649 1626 CircleF
3690 373 CircleF
3809 464 CircleF
1723 4086 CircleF
1843 4178 CircleF
1085 2998 CircleF
1205 3090 CircleF
3125 3423 CircleF
3245 3515 CircleF
5976 4235 CircleF
6095 4327 CircleF
1202 2020 CircleF
1322 2111 CircleF
4612 4208 CircleF
4731 4300 CircleF
2295 3199 CircleF
2415 3291 CircleF
5446 4462 CircleF
5565 4554 CircleF
1244 1081 CircleF
1363 1173 CircleF
6668 401 CircleF
6788 493 CircleF
4650 3973 CircleF
4769 4065 CircleF
5016 1353 CircleF
5136 1445 CircleF
5572 2497 CircleF
5692 2589 CircleF
5488 4439 CircleF
5607 4530 CircleF
2646 4478 CircleF
2766 4569 CircleF
5230 2878 CircleF
5349 2970 CircleF
2760 4580 CircleF
2879 4672 CircleF
2393 4521 CircleF
2513 4612 CircleF
6171 3097 CircleF
6290 3189 CircleF
5712 2563 CircleF
5831 2655 CircleF
5001 1463 CircleF
5120 1554 CircleF
3282 2037 CircleF
3402 2129 CircleF
4299 4154 CircleF
4418 4246 CircleF
3372 2406 CircleF
3492 2497 CircleF
6476 4232 CircleF
6595 4324 CircleF
5426 3908 CircleF
5545 4000 CircleF
% End plot #2
1.000 UP
1.000 UL
LT0
0.50 0.50 0.50 C stroke
grestore
end
showpage
%%Trailer
%%DocumentFonts: Helvetica
%%Pages: 1
