%!PS-Adobe-2.0
%%Title: out.ps
%%Creator: gnuplot 4.6 patchlevel 6
%%CreationDate: Thu May 28 18:31:20 2015
%%DocumentFonts: (atend)
%%BoundingBox: 50 50 554 770
%%Orientation: Landscape
%%Pages: (atend)
%%EndComments
%%BeginProlog
/gnudict 256 dict def
gnudict begin
%
% The following true/false flags may be edited by hand if desired.
% The unit line width and grayscale image gamma correction may also be changed.
%
/Color false def
/Blacktext false def
/Solid false def
/Dashlength 1 def
/Landscape true def
/Level1 false def
/Rounded false def
/ClipToBoundingBox false def
/SuppressPDFMark false def
/TransparentPatterns false def
/gnulinewidth 5.000 def
/userlinewidth gnulinewidth def
/Gamma 1.0 def
/BackgroundColor {-1.000 -1.000 -1.000} def
%
/vshift -46 def
/dl1 {
  10.0 Dashlength mul mul
  Rounded { currentlinewidth 0.75 mul sub dup 0 le { pop 0.01 } if } if
} def
/dl2 {
  10.0 Dashlength mul mul
  Rounded { currentlinewidth 0.75 mul add } if
} def
/hpt_ 31.5 def
/vpt_ 31.5 def
/hpt hpt_ def
/vpt vpt_ def
/doclip {
  ClipToBoundingBox {
    newpath 50 50 moveto 554 50 lineto 554 770 lineto 50 770 lineto closepath
    clip
  } if
} def
%
% Gnuplot Prolog Version 4.6 (September 2012)
%
%/SuppressPDFMark true def
%
/M {moveto} bind def
/L {lineto} bind def
/R {rmoveto} bind def
/V {rlineto} bind def
/N {newpath moveto} bind def
/Z {closepath} bind def
/C {setrgbcolor} bind def
/f {rlineto fill} bind def
/g {setgray} bind def
/Gshow {show} def   % May be redefined later in the file to support UTF-8
/vpt2 vpt 2 mul def
/hpt2 hpt 2 mul def
/Lshow {currentpoint stroke M 0 vshift R 
	Blacktext {gsave 0 setgray show grestore} {show} ifelse} def
/Rshow {currentpoint stroke M dup stringwidth pop neg vshift R
	Blacktext {gsave 0 setgray show grestore} {show} ifelse} def
/Cshow {currentpoint stroke M dup stringwidth pop -2 div vshift R 
	Blacktext {gsave 0 setgray show grestore} {show} ifelse} def
/UP {dup vpt_ mul /vpt exch def hpt_ mul /hpt exch def
  /hpt2 hpt 2 mul def /vpt2 vpt 2 mul def} def
/DL {Color {setrgbcolor Solid {pop []} if 0 setdash}
 {pop pop pop 0 setgray Solid {pop []} if 0 setdash} ifelse} def
/BL {stroke userlinewidth 2 mul setlinewidth
	Rounded {1 setlinejoin 1 setlinecap} if} def
/AL {stroke userlinewidth 2 div setlinewidth
	Rounded {1 setlinejoin 1 setlinecap} if} def
/UL {dup gnulinewidth mul /userlinewidth exch def
	dup 1 lt {pop 1} if 10 mul /udl exch def} def
/PL {stroke userlinewidth setlinewidth
	Rounded {1 setlinejoin 1 setlinecap} if} def
3.8 setmiterlimit
% Default Line colors
/LCw {1 1 1} def
/LCb {0 0 0} def
/LCa {0 0 0} def
/LC0 {1 0 0} def
/LC1 {0 1 0} def
/LC2 {0 0 1} def
/LC3 {1 0 1} def
/LC4 {0 1 1} def
/LC5 {1 1 0} def
/LC6 {0 0 0} def
/LC7 {1 0.3 0} def
/LC8 {0.5 0.5 0.5} def
% Default Line Types
/LTw {PL [] 1 setgray} def
/LTb {BL [] LCb DL} def
/LTa {AL [1 udl mul 2 udl mul] 0 setdash LCa setrgbcolor} def
/LT0 {PL [] LC0 DL} def
/LT1 {PL [4 dl1 2 dl2] LC1 DL} def
/LT2 {PL [2 dl1 3 dl2] LC2 DL} def
/LT3 {PL [1 dl1 1.5 dl2] LC3 DL} def
/LT4 {PL [6 dl1 2 dl2 1 dl1 2 dl2] LC4 DL} def
/LT5 {PL [3 dl1 3 dl2 1 dl1 3 dl2] LC5 DL} def
/LT6 {PL [2 dl1 2 dl2 2 dl1 6 dl2] LC6 DL} def
/LT7 {PL [1 dl1 2 dl2 6 dl1 2 dl2 1 dl1 2 dl2] LC7 DL} def
/LT8 {PL [2 dl1 2 dl2 2 dl1 2 dl2 2 dl1 2 dl2 2 dl1 4 dl2] LC8 DL} def
/Pnt {stroke [] 0 setdash gsave 1 setlinecap M 0 0 V stroke grestore} def
/Dia {stroke [] 0 setdash 2 copy vpt add M
  hpt neg vpt neg V hpt vpt neg V
  hpt vpt V hpt neg vpt V closepath stroke
  Pnt} def
/Pls {stroke [] 0 setdash vpt sub M 0 vpt2 V
  currentpoint stroke M
  hpt neg vpt neg R hpt2 0 V stroke
 } def
/Box {stroke [] 0 setdash 2 copy exch hpt sub exch vpt add M
  0 vpt2 neg V hpt2 0 V 0 vpt2 V
  hpt2 neg 0 V closepath stroke
  Pnt} def
/Crs {stroke [] 0 setdash exch hpt sub exch vpt add M
  hpt2 vpt2 neg V currentpoint stroke M
  hpt2 neg 0 R hpt2 vpt2 V stroke} def
/TriU {stroke [] 0 setdash 2 copy vpt 1.12 mul add M
  hpt neg vpt -1.62 mul V
  hpt 2 mul 0 V
  hpt neg vpt 1.62 mul V closepath stroke
  Pnt} def
/Star {2 copy Pls Crs} def
/BoxF {stroke [] 0 setdash exch hpt sub exch vpt add M
  0 vpt2 neg V hpt2 0 V 0 vpt2 V
  hpt2 neg 0 V closepath fill} def
/TriUF {stroke [] 0 setdash vpt 1.12 mul add M
  hpt neg vpt -1.62 mul V
  hpt 2 mul 0 V
  hpt neg vpt 1.62 mul V closepath fill} def
/TriD {stroke [] 0 setdash 2 copy vpt 1.12 mul sub M
  hpt neg vpt 1.62 mul V
  hpt 2 mul 0 V
  hpt neg vpt -1.62 mul V closepath stroke
  Pnt} def
/TriDF {stroke [] 0 setdash vpt 1.12 mul sub M
  hpt neg vpt 1.62 mul V
  hpt 2 mul 0 V
  hpt neg vpt -1.62 mul V closepath fill} def
/DiaF {stroke [] 0 setdash vpt add M
  hpt neg vpt neg V hpt vpt neg V
  hpt vpt V hpt neg vpt V closepath fill} def
/Pent {stroke [] 0 setdash 2 copy gsave
  translate 0 hpt M 4 {72 rotate 0 hpt L} repeat
  closepath stroke grestore Pnt} def
/PentF {stroke [] 0 setdash gsave
  translate 0 hpt M 4 {72 rotate 0 hpt L} repeat
  closepath fill grestore} def
/Circle {stroke [] 0 setdash 2 copy
  hpt 0 360 arc stroke Pnt} def
/CircleF {stroke [] 0 setdash hpt 0 360 arc fill} def
/C0 {BL [] 0 setdash 2 copy moveto vpt 90 450 arc} bind def
/C1 {BL [] 0 setdash 2 copy moveto
	2 copy vpt 0 90 arc closepath fill
	vpt 0 360 arc closepath} bind def
/C2 {BL [] 0 setdash 2 copy moveto
	2 copy vpt 90 180 arc closepath fill
	vpt 0 360 arc closepath} bind def
/C3 {BL [] 0 setdash 2 copy moveto
	2 copy vpt 0 180 arc closepath fill
	vpt 0 360 arc closepath} bind def
/C4 {BL [] 0 setdash 2 copy moveto
	2 copy vpt 180 270 arc closepath fill
	vpt 0 360 arc closepath} bind def
/C5 {BL [] 0 setdash 2 copy moveto
	2 copy vpt 0 90 arc
	2 copy moveto
	2 copy vpt 180 270 arc closepath fill
	vpt 0 360 arc} bind def
/C6 {BL [] 0 setdash 2 copy moveto
	2 copy vpt 90 270 arc closepath fill
	vpt 0 360 arc closepath} bind def
/C7 {BL [] 0 setdash 2 copy moveto
	2 copy vpt 0 270 arc closepath fill
	vpt 0 360 arc closepath} bind def
/C8 {BL [] 0 setdash 2 copy moveto
	2 copy vpt 270 360 arc closepath fill
	vpt 0 360 arc closepath} bind def
/C9 {BL [] 0 setdash 2 copy moveto
	2 copy vpt 270 450 arc closepath fill
	vpt 0 360 arc closepath} bind def
/C10 {BL [] 0 setdash 2 copy 2 copy moveto vpt 270 360 arc closepath fill
	2 copy moveto
	2 copy vpt 90 180 arc closepath fill
	vpt 0 360 arc closepath} bind def
/C11 {BL [] 0 setdash 2 copy moveto
	2 copy vpt 0 180 arc closepath fill
	2 copy moveto
	2 copy vpt 270 360 arc closepath fill
	vpt 0 360 arc closepath} bind def
/C12 {BL [] 0 setdash 2 copy moveto
	2 copy vpt 180 360 arc closepath fill
	vpt 0 360 arc closepath} bind def
/C13 {BL [] 0 setdash 2 copy moveto
	2 copy vpt 0 90 arc closepath fill
	2 copy moveto
	2 copy vpt 180 360 arc closepath fill
	vpt 0 360 arc closepath} bind def
/C14 {BL [] 0 setdash 2 copy moveto
	2 copy vpt 90 360 arc closepath fill
	vpt 0 360 arc} bind def
/C15 {BL [] 0 setdash 2 copy vpt 0 360 arc closepath fill
	vpt 0 360 arc closepath} bind def
/Rec {newpath 4 2 roll moveto 1 index 0 rlineto 0 exch rlineto
	neg 0 rlineto closepath} bind def
/Square {dup Rec} bind def
/Bsquare {vpt sub exch vpt sub exch vpt2 Square} bind def
/S0 {BL [] 0 setdash 2 copy moveto 0 vpt rlineto BL Bsquare} bind def
/S1 {BL [] 0 setdash 2 copy vpt Square fill Bsquare} bind def
/S2 {BL [] 0 setdash 2 copy exch vpt sub exch vpt Square fill Bsquare} bind def
/S3 {BL [] 0 setdash 2 copy exch vpt sub exch vpt2 vpt Rec fill Bsquare} bind def
/S4 {BL [] 0 setdash 2 copy exch vpt sub exch vpt sub vpt Square fill Bsquare} bind def
/S5 {BL [] 0 setdash 2 copy 2 copy vpt Square fill
	exch vpt sub exch vpt sub vpt Square fill Bsquare} bind def
/S6 {BL [] 0 setdash 2 copy exch vpt sub exch vpt sub vpt vpt2 Rec fill Bsquare} bind def
/S7 {BL [] 0 setdash 2 copy exch vpt sub exch vpt sub vpt vpt2 Rec fill
	2 copy vpt Square fill Bsquare} bind def
/S8 {BL [] 0 setdash 2 copy vpt sub vpt Square fill Bsquare} bind def
/S9 {BL [] 0 setdash 2 copy vpt sub vpt vpt2 Rec fill Bsquare} bind def
/S10 {BL [] 0 setdash 2 copy vpt sub vpt Square fill 2 copy exch vpt sub exch vpt Square fill
	Bsquare} bind def
/S11 {BL [] 0 setdash 2 copy vpt sub vpt Square fill 2 copy exch vpt sub exch vpt2 vpt Rec fill
	Bsquare} bind def
/S12 {BL [] 0 setdash 2 copy exch vpt sub exch vpt sub vpt2 vpt Rec fill Bsquare} bind def
/S13 {BL [] 0 setdash 2 copy exch vpt sub exch vpt sub vpt2 vpt Rec fill
	2 copy vpt Square fill Bsquare} bind def
/S14 {BL [] 0 setdash 2 copy exch vpt sub exch vpt sub vpt2 vpt Rec fill
	2 copy exch vpt sub exch vpt Square fill Bsquare} bind def
/S15 {BL [] 0 setdash 2 copy Bsquare fill Bsquare} bind def
/D0 {gsave translate 45 rotate 0 0 S0 stroke grestore} bind def
/D1 {gsave translate 45 rotate 0 0 S1 stroke grestore} bind def
/D2 {gsave translate 45 rotate 0 0 S2 stroke grestore} bind def
/D3 {gsave translate 45 rotate 0 0 S3 stroke grestore} bind def
/D4 {gsave translate 45 rotate 0 0 S4 stroke grestore} bind def
/D5 {gsave translate 45 rotate 0 0 S5 stroke grestore} bind def
/D6 {gsave translate 45 rotate 0 0 S6 stroke grestore} bind def
/D7 {gsave translate 45 rotate 0 0 S7 stroke grestore} bind def
/D8 {gsave translate 45 rotate 0 0 S8 stroke grestore} bind def
/D9 {gsave translate 45 rotate 0 0 S9 stroke grestore} bind def
/D10 {gsave translate 45 rotate 0 0 S10 stroke grestore} bind def
/D11 {gsave translate 45 rotate 0 0 S11 stroke grestore} bind def
/D12 {gsave translate 45 rotate 0 0 S12 stroke grestore} bind def
/D13 {gsave translate 45 rotate 0 0 S13 stroke grestore} bind def
/D14 {gsave translate 45 rotate 0 0 S14 stroke grestore} bind def
/D15 {gsave translate 45 rotate 0 0 S15 stroke grestore} bind def
/DiaE {stroke [] 0 setdash vpt add M
  hpt neg vpt neg V hpt vpt neg V
  hpt vpt V hpt neg vpt V closepath stroke} def
/BoxE {stroke [] 0 setdash exch hpt sub exch vpt add M
  0 vpt2 neg V hpt2 0 V 0 vpt2 V
  hpt2 neg 0 V closepath stroke} def
/TriUE {stroke [] 0 setdash vpt 1.12 mul add M
  hpt neg vpt -1.62 mul V
  hpt 2 mul 0 V
  hpt neg vpt 1.62 mul V closepath stroke} def
/TriDE {stroke [] 0 setdash vpt 1.12 mul sub M
  hpt neg vpt 1.62 mul V
  hpt 2 mul 0 V
  hpt neg vpt -1.62 mul V closepath stroke} def
/PentE {stroke [] 0 setdash gsave
  translate 0 hpt M 4 {72 rotate 0 hpt L} repeat
  closepath stroke grestore} def
/CircE {stroke [] 0 setdash 
  hpt 0 360 arc stroke} def
/Opaque {gsave closepath 1 setgray fill grestore 0 setgray closepath} def
/DiaW {stroke [] 0 setdash vpt add M
  hpt neg vpt neg V hpt vpt neg V
  hpt vpt V hpt neg vpt V Opaque stroke} def
/BoxW {stroke [] 0 setdash exch hpt sub exch vpt add M
  0 vpt2 neg V hpt2 0 V 0 vpt2 V
  hpt2 neg 0 V Opaque stroke} def
/TriUW {stroke [] 0 setdash vpt 1.12 mul add M
  hpt neg vpt -1.62 mul V
  hpt 2 mul 0 V
  hpt neg vpt 1.62 mul V Opaque stroke} def
/TriDW {stroke [] 0 setdash vpt 1.12 mul sub M
  hpt neg vpt 1.62 mul V
  hpt 2 mul 0 V
  hpt neg vpt -1.62 mul V Opaque stroke} def
/PentW {stroke [] 0 setdash gsave
  translate 0 hpt M 4 {72 rotate 0 hpt L} repeat
  Opaque stroke grestore} def
/CircW {stroke [] 0 setdash 
  hpt 0 360 arc Opaque stroke} def
/BoxFill {gsave Rec 1 setgray fill grestore} def
/Density {
  /Fillden exch def
  currentrgbcolor
  /ColB exch def /ColG exch def /ColR exch def
  /ColR ColR Fillden mul Fillden sub 1 add def
  /ColG ColG Fillden mul Fillden sub 1 add def
  /ColB ColB Fillden mul Fillden sub 1 add def
  ColR ColG ColB setrgbcolor} def
/BoxColFill {gsave Rec PolyFill} def
/PolyFill {gsave Density fill grestore grestore} def
/h {rlineto rlineto rlineto gsave closepath fill grestore} bind def
%
% PostScript Level 1 Pattern Fill routine for rectangles
% Usage: x y w h s a XX PatternFill
%	x,y = lower left corner of box to be filled
%	w,h = width and height of box
%	  a = angle in degrees between lines and x-axis
%	 XX = 0/1 for no/yes cross-hatch
%
/PatternFill {gsave /PFa [ 9 2 roll ] def
  PFa 0 get PFa 2 get 2 div add PFa 1 get PFa 3 get 2 div add translate
  PFa 2 get -2 div PFa 3 get -2 div PFa 2 get PFa 3 get Rec
  TransparentPatterns {} {gsave 1 setgray fill grestore} ifelse
  clip
  currentlinewidth 0.5 mul setlinewidth
  /PFs PFa 2 get dup mul PFa 3 get dup mul add sqrt def
  0 0 M PFa 5 get rotate PFs -2 div dup translate
  0 1 PFs PFa 4 get div 1 add floor cvi
	{PFa 4 get mul 0 M 0 PFs V} for
  0 PFa 6 get ne {
	0 1 PFs PFa 4 get div 1 add floor cvi
	{PFa 4 get mul 0 2 1 roll M PFs 0 V} for
 } if
  stroke grestore} def
%
/languagelevel where
 {pop languagelevel} {1} ifelse
 2 lt
	{/InterpretLevel1 true def}
	{/InterpretLevel1 Level1 def}
 ifelse
%
% PostScript level 2 pattern fill definitions
%
/Level2PatternFill {
/Tile8x8 {/PaintType 2 /PatternType 1 /TilingType 1 /BBox [0 0 8 8] /XStep 8 /YStep 8}
	bind def
/KeepColor {currentrgbcolor [/Pattern /DeviceRGB] setcolorspace} bind def
<< Tile8x8
 /PaintProc {0.5 setlinewidth pop 0 0 M 8 8 L 0 8 M 8 0 L stroke} 
>> matrix makepattern
/Pat1 exch def
<< Tile8x8
 /PaintProc {0.5 setlinewidth pop 0 0 M 8 8 L 0 8 M 8 0 L stroke
	0 4 M 4 8 L 8 4 L 4 0 L 0 4 L stroke}
>> matrix makepattern
/Pat2 exch def
<< Tile8x8
 /PaintProc {0.5 setlinewidth pop 0 0 M 0 8 L
	8 8 L 8 0 L 0 0 L fill}
>> matrix makepattern
/Pat3 exch def
<< Tile8x8
 /PaintProc {0.5 setlinewidth pop -4 8 M 8 -4 L
	0 12 M 12 0 L stroke}
>> matrix makepattern
/Pat4 exch def
<< Tile8x8
 /PaintProc {0.5 setlinewidth pop -4 0 M 8 12 L
	0 -4 M 12 8 L stroke}
>> matrix makepattern
/Pat5 exch def
<< Tile8x8
 /PaintProc {0.5 setlinewidth pop -2 8 M 4 -4 L
	0 12 M 8 -4 L 4 12 M 10 0 L stroke}
>> matrix makepattern
/Pat6 exch def
<< Tile8x8
 /PaintProc {0.5 setlinewidth pop -2 0 M 4 12 L
	0 -4 M 8 12 L 4 -4 M 10 8 L stroke}
>> matrix makepattern
/Pat7 exch def
<< Tile8x8
 /PaintProc {0.5 setlinewidth pop 8 -2 M -4 4 L
	12 0 M -4 8 L 12 4 M 0 10 L stroke}
>> matrix makepattern
/Pat8 exch def
<< Tile8x8
 /PaintProc {0.5 setlinewidth pop 0 -2 M 12 4 L
	-4 0 M 12 8 L -4 4 M 8 10 L stroke}
>> matrix makepattern
/Pat9 exch def
/Pattern1 {PatternBgnd KeepColor Pat1 setpattern} bind def
/Pattern2 {PatternBgnd KeepColor Pat2 setpattern} bind def
/Pattern3 {PatternBgnd KeepColor Pat3 setpattern} bind def
/Pattern4 {PatternBgnd KeepColor Landscape {Pat5} {Pat4} ifelse setpattern} bind def
/Pattern5 {PatternBgnd KeepColor Landscape {Pat4} {Pat5} ifelse setpattern} bind def
/Pattern6 {PatternBgnd KeepColor Landscape {Pat9} {Pat6} ifelse setpattern} bind def
/Pattern7 {PatternBgnd KeepColor Landscape {Pat8} {Pat7} ifelse setpattern} bind def
} def
%
%
%End of PostScript Level 2 code
%
/PatternBgnd {
  TransparentPatterns {} {gsave 1 setgray fill grestore} ifelse
} def
%
% Substitute for Level 2 pattern fill codes with
% grayscale if Level 2 support is not selected.
%
/Level1PatternFill {
/Pattern1 {0.250 Density} bind def
/Pattern2 {0.500 Density} bind def
/Pattern3 {0.750 Density} bind def
/Pattern4 {0.125 Density} bind def
/Pattern5 {0.375 Density} bind def
/Pattern6 {0.625 Density} bind def
/Pattern7 {0.875 Density} bind def
} def
%
% Now test for support of Level 2 code
%
Level1 {Level1PatternFill} {Level2PatternFill} ifelse
%
/Symbol-Oblique /Symbol findfont [1 0 .167 1 0 0] makefont
dup length dict begin {1 index /FID eq {pop pop} {def} ifelse} forall
currentdict end definefont pop
Level1 SuppressPDFMark or 
{} {
/SDict 10 dict def
systemdict /pdfmark known not {
  userdict /pdfmark systemdict /cleartomark get put
} if
SDict begin [
  /Title (out.ps)
  /Subject (gnuplot plot)
  /Creator (gnuplot 4.6 patchlevel 6)
  /Author (yani)
%  /Producer (gnuplot)
%  /Keywords ()
  /CreationDate (Thu May 28 18:31:20 2015)
  /DOCINFO pdfmark
end
} ifelse
end
%%EndProlog
%%Page: 1 1
gnudict begin
gsave
doclip
50 50 translate
0.100 0.100 scale
90 rotate
0 -5040 translate
0 setgray
newpath
(Helvetica) findfont 140 scalefont setfont
BackgroundColor 0 lt 3 1 roll 0 lt exch 0 lt or or not {gsave BackgroundColor C clippath fill grestore} if
1.000 UL
LT0
0.50 0.50 0.50 C 1.000 UL
LTa
0.50 0.50 0.50 C 966 280 M
5981 0 V
stroke
LT0
0.50 0.50 0.50 C 966 280 M
63 0 V
5918 0 R
-63 0 V
882 280 M
( 0) Rshow
1.000 UL
LT0
0.50 0.50 0.50 C 1.000 UL
LTa
0.50 0.50 0.50 C 966 372 M
5981 0 V
stroke
LT0
0.50 0.50 0.50 C 966 372 M
63 0 V
5918 0 R
-63 0 V
882 372 M
( 0.707106) Rshow
1.000 UL
LT0
0.50 0.50 0.50 C 1.000 UL
LTa
0.50 0.50 0.50 C 966 464 M
5981 0 V
stroke
LT0
0.50 0.50 0.50 C 966 464 M
63 0 V
5918 0 R
-63 0 V
882 464 M
( 1.41421) Rshow
1.000 UL
LT0
0.50 0.50 0.50 C 1.000 UL
LTa
0.50 0.50 0.50 C 966 555 M
5981 0 V
stroke
LT0
0.50 0.50 0.50 C 966 555 M
63 0 V
5918 0 R
-63 0 V
882 555 M
( 2.12132) Rshow
1.000 UL
LT0
0.50 0.50 0.50 C 1.000 UL
LTa
0.50 0.50 0.50 C 966 647 M
5981 0 V
stroke
LT0
0.50 0.50 0.50 C 966 647 M
63 0 V
5918 0 R
-63 0 V
882 647 M
( 2.82842) Rshow
1.000 UL
LT0
0.50 0.50 0.50 C 1.000 UL
LTa
0.50 0.50 0.50 C 966 739 M
5981 0 V
stroke
LT0
0.50 0.50 0.50 C 966 739 M
63 0 V
5918 0 R
-63 0 V
882 739 M
( 3.53553) Rshow
1.000 UL
LT0
0.50 0.50 0.50 C 1.000 UL
LTa
0.50 0.50 0.50 C 966 831 M
5981 0 V
stroke
LT0
0.50 0.50 0.50 C 966 831 M
63 0 V
5918 0 R
-63 0 V
882 831 M
( 4.24264) Rshow
1.000 UL
LT0
0.50 0.50 0.50 C 1.000 UL
LTa
0.50 0.50 0.50 C 966 923 M
5981 0 V
stroke
LT0
0.50 0.50 0.50 C 966 923 M
63 0 V
5918 0 R
-63 0 V
882 923 M
( 4.94974) Rshow
1.000 UL
LT0
0.50 0.50 0.50 C 1.000 UL
LTa
0.50 0.50 0.50 C 966 1015 M
5981 0 V
stroke
LT0
0.50 0.50 0.50 C 966 1015 M
63 0 V
5918 0 R
-63 0 V
-6002 0 R
( 5.65685) Rshow
1.000 UL
LT0
0.50 0.50 0.50 C 1.000 UL
LTa
0.50 0.50 0.50 C 966 1106 M
5981 0 V
stroke
LT0
0.50 0.50 0.50 C 966 1106 M
63 0 V
5918 0 R
-63 0 V
-6002 0 R
( 6.36395) Rshow
1.000 UL
LT0
0.50 0.50 0.50 C 1.000 UL
LTa
0.50 0.50 0.50 C 966 1198 M
5981 0 V
stroke
LT0
0.50 0.50 0.50 C 966 1198 M
63 0 V
5918 0 R
-63 0 V
-6002 0 R
( 7.07106) Rshow
1.000 UL
LT0
0.50 0.50 0.50 C 1.000 UL
LTa
0.50 0.50 0.50 C 966 1290 M
5981 0 V
stroke
LT0
0.50 0.50 0.50 C 966 1290 M
63 0 V
5918 0 R
-63 0 V
-6002 0 R
( 7.77817) Rshow
1.000 UL
LT0
0.50 0.50 0.50 C 1.000 UL
LTa
0.50 0.50 0.50 C 966 1382 M
5981 0 V
stroke
LT0
0.50 0.50 0.50 C 966 1382 M
63 0 V
5918 0 R
-63 0 V
-6002 0 R
( 8.48527) Rshow
1.000 UL
LT0
0.50 0.50 0.50 C 1.000 UL
LTa
0.50 0.50 0.50 C 966 1474 M
5981 0 V
stroke
LT0
0.50 0.50 0.50 C 966 1474 M
63 0 V
5918 0 R
-63 0 V
-6002 0 R
( 9.19238) Rshow
1.000 UL
LT0
0.50 0.50 0.50 C 1.000 UL
LTa
0.50 0.50 0.50 C 966 1565 M
5981 0 V
stroke
LT0
0.50 0.50 0.50 C 966 1565 M
63 0 V
5918 0 R
-63 0 V
-6002 0 R
( 9.89948) Rshow
1.000 UL
LT0
0.50 0.50 0.50 C 1.000 UL
LTa
0.50 0.50 0.50 C 966 1657 M
5981 0 V
stroke
LT0
0.50 0.50 0.50 C 966 1657 M
63 0 V
5918 0 R
-63 0 V
-6002 0 R
( 10.6066) Rshow
1.000 UL
LT0
0.50 0.50 0.50 C 1.000 UL
LTa
0.50 0.50 0.50 C 966 1749 M
5981 0 V
stroke
LT0
0.50 0.50 0.50 C 966 1749 M
63 0 V
5918 0 R
-63 0 V
-6002 0 R
( 11.3137) Rshow
1.000 UL
LT0
0.50 0.50 0.50 C 1.000 UL
LTa
0.50 0.50 0.50 C 966 1841 M
5981 0 V
stroke
LT0
0.50 0.50 0.50 C 966 1841 M
63 0 V
5918 0 R
-63 0 V
-6002 0 R
( 12.0208) Rshow
1.000 UL
LT0
0.50 0.50 0.50 C 1.000 UL
LTa
0.50 0.50 0.50 C 966 1933 M
5981 0 V
stroke
LT0
0.50 0.50 0.50 C 966 1933 M
63 0 V
5918 0 R
-63 0 V
-6002 0 R
( 12.7279) Rshow
1.000 UL
LT0
0.50 0.50 0.50 C 1.000 UL
LTa
0.50 0.50 0.50 C 966 2025 M
5981 0 V
stroke
LT0
0.50 0.50 0.50 C 966 2025 M
63 0 V
5918 0 R
-63 0 V
-6002 0 R
( 13.435) Rshow
1.000 UL
LT0
0.50 0.50 0.50 C 1.000 UL
LTa
0.50 0.50 0.50 C 966 2116 M
5981 0 V
stroke
LT0
0.50 0.50 0.50 C 966 2116 M
63 0 V
5918 0 R
-63 0 V
-6002 0 R
( 14.1421) Rshow
1.000 UL
LT0
0.50 0.50 0.50 C 1.000 UL
LTa
0.50 0.50 0.50 C 966 2208 M
5981 0 V
stroke
LT0
0.50 0.50 0.50 C 966 2208 M
63 0 V
5918 0 R
-63 0 V
-6002 0 R
( 14.8492) Rshow
1.000 UL
LT0
0.50 0.50 0.50 C 1.000 UL
LTa
0.50 0.50 0.50 C 966 2300 M
5981 0 V
stroke
LT0
0.50 0.50 0.50 C 966 2300 M
63 0 V
5918 0 R
-63 0 V
-6002 0 R
( 15.5563) Rshow
1.000 UL
LT0
0.50 0.50 0.50 C 1.000 UL
LTa
0.50 0.50 0.50 C 966 2392 M
5981 0 V
stroke
LT0
0.50 0.50 0.50 C 966 2392 M
63 0 V
5918 0 R
-63 0 V
-6002 0 R
( 16.2634) Rshow
1.000 UL
LT0
0.50 0.50 0.50 C 1.000 UL
LTa
0.50 0.50 0.50 C 966 2484 M
5981 0 V
stroke
LT0
0.50 0.50 0.50 C 966 2484 M
63 0 V
5918 0 R
-63 0 V
-6002 0 R
( 16.9705) Rshow
1.000 UL
LT0
0.50 0.50 0.50 C 1.000 UL
LTa
0.50 0.50 0.50 C 966 2575 M
5981 0 V
stroke
LT0
0.50 0.50 0.50 C 966 2575 M
63 0 V
5918 0 R
-63 0 V
-6002 0 R
( 17.6776) Rshow
1.000 UL
LT0
0.50 0.50 0.50 C 1.000 UL
LTa
0.50 0.50 0.50 C 966 2667 M
5981 0 V
stroke
LT0
0.50 0.50 0.50 C 966 2667 M
63 0 V
5918 0 R
-63 0 V
-6002 0 R
( 18.3848) Rshow
1.000 UL
LT0
0.50 0.50 0.50 C 1.000 UL
LTa
0.50 0.50 0.50 C 966 2759 M
5981 0 V
stroke
LT0
0.50 0.50 0.50 C 966 2759 M
63 0 V
5918 0 R
-63 0 V
-6002 0 R
( 19.0919) Rshow
1.000 UL
LT0
0.50 0.50 0.50 C 1.000 UL
LTa
0.50 0.50 0.50 C 966 2851 M
5981 0 V
stroke
LT0
0.50 0.50 0.50 C 966 2851 M
63 0 V
5918 0 R
-63 0 V
-6002 0 R
( 19.799) Rshow
1.000 UL
LT0
0.50 0.50 0.50 C 1.000 UL
LTa
0.50 0.50 0.50 C 966 2943 M
5981 0 V
stroke
LT0
0.50 0.50 0.50 C 966 2943 M
63 0 V
5918 0 R
-63 0 V
-6002 0 R
( 20.5061) Rshow
1.000 UL
LT0
0.50 0.50 0.50 C 1.000 UL
LTa
0.50 0.50 0.50 C 966 3035 M
5981 0 V
stroke
LT0
0.50 0.50 0.50 C 966 3035 M
63 0 V
5918 0 R
-63 0 V
-6002 0 R
( 21.2132) Rshow
1.000 UL
LT0
0.50 0.50 0.50 C 1.000 UL
LTa
0.50 0.50 0.50 C 966 3126 M
5981 0 V
stroke
LT0
0.50 0.50 0.50 C 966 3126 M
63 0 V
5918 0 R
-63 0 V
-6002 0 R
( 21.9203) Rshow
1.000 UL
LT0
0.50 0.50 0.50 C 1.000 UL
LTa
0.50 0.50 0.50 C 966 3218 M
5981 0 V
stroke
LT0
0.50 0.50 0.50 C 966 3218 M
63 0 V
5918 0 R
-63 0 V
-6002 0 R
( 22.6274) Rshow
1.000 UL
LT0
0.50 0.50 0.50 C 1.000 UL
LTa
0.50 0.50 0.50 C 966 3310 M
5981 0 V
stroke
LT0
0.50 0.50 0.50 C 966 3310 M
63 0 V
5918 0 R
-63 0 V
-6002 0 R
( 23.3345) Rshow
1.000 UL
LT0
0.50 0.50 0.50 C 1.000 UL
LTa
0.50 0.50 0.50 C 966 3402 M
5981 0 V
stroke
LT0
0.50 0.50 0.50 C 966 3402 M
63 0 V
5918 0 R
-63 0 V
-6002 0 R
( 24.0416) Rshow
1.000 UL
LT0
0.50 0.50 0.50 C 1.000 UL
LTa
0.50 0.50 0.50 C 966 3494 M
5981 0 V
stroke
LT0
0.50 0.50 0.50 C 966 3494 M
63 0 V
5918 0 R
-63 0 V
-6002 0 R
( 24.7487) Rshow
1.000 UL
LT0
0.50 0.50 0.50 C 1.000 UL
LTa
0.50 0.50 0.50 C 966 3586 M
5981 0 V
stroke
LT0
0.50 0.50 0.50 C 966 3586 M
63 0 V
5918 0 R
-63 0 V
-6002 0 R
( 25.4558) Rshow
1.000 UL
LT0
0.50 0.50 0.50 C 1.000 UL
LTa
0.50 0.50 0.50 C 966 3677 M
5981 0 V
stroke
LT0
0.50 0.50 0.50 C 966 3677 M
63 0 V
5918 0 R
-63 0 V
-6002 0 R
( 26.1629) Rshow
1.000 UL
LT0
0.50 0.50 0.50 C 1.000 UL
LTa
0.50 0.50 0.50 C 966 3769 M
5981 0 V
stroke
LT0
0.50 0.50 0.50 C 966 3769 M
63 0 V
5918 0 R
-63 0 V
-6002 0 R
( 26.87) Rshow
1.000 UL
LT0
0.50 0.50 0.50 C 1.000 UL
LTa
0.50 0.50 0.50 C 966 3861 M
5981 0 V
stroke
LT0
0.50 0.50 0.50 C 966 3861 M
63 0 V
5918 0 R
-63 0 V
-6002 0 R
( 27.5771) Rshow
1.000 UL
LT0
0.50 0.50 0.50 C 1.000 UL
LTa
0.50 0.50 0.50 C 966 3953 M
5981 0 V
stroke
LT0
0.50 0.50 0.50 C 966 3953 M
63 0 V
5918 0 R
-63 0 V
-6002 0 R
( 28.2842) Rshow
1.000 UL
LT0
0.50 0.50 0.50 C 1.000 UL
LTa
0.50 0.50 0.50 C 966 4045 M
5981 0 V
stroke
LT0
0.50 0.50 0.50 C 966 4045 M
63 0 V
5918 0 R
-63 0 V
-6002 0 R
( 28.9913) Rshow
1.000 UL
LT0
0.50 0.50 0.50 C 1.000 UL
LTa
0.50 0.50 0.50 C 966 4136 M
5981 0 V
stroke
LT0
0.50 0.50 0.50 C 966 4136 M
63 0 V
5918 0 R
-63 0 V
-6002 0 R
( 29.6985) Rshow
1.000 UL
LT0
0.50 0.50 0.50 C 1.000 UL
LTa
0.50 0.50 0.50 C 966 4228 M
5981 0 V
stroke
LT0
0.50 0.50 0.50 C 966 4228 M
63 0 V
5918 0 R
-63 0 V
-6002 0 R
( 30.4056) Rshow
1.000 UL
LT0
0.50 0.50 0.50 C 1.000 UL
LTa
0.50 0.50 0.50 C 966 4320 M
5981 0 V
stroke
LT0
0.50 0.50 0.50 C 966 4320 M
63 0 V
5918 0 R
-63 0 V
-6002 0 R
( 31.1127) Rshow
1.000 UL
LT0
0.50 0.50 0.50 C 1.000 UL
LTa
0.50 0.50 0.50 C 966 4412 M
5981 0 V
stroke
LT0
0.50 0.50 0.50 C 966 4412 M
63 0 V
5918 0 R
-63 0 V
-6002 0 R
( 31.8198) Rshow
1.000 UL
LT0
0.50 0.50 0.50 C 1.000 UL
LTa
0.50 0.50 0.50 C 966 4504 M
5981 0 V
stroke
LT0
0.50 0.50 0.50 C 966 4504 M
63 0 V
5918 0 R
-63 0 V
-6002 0 R
( 32.5269) Rshow
1.000 UL
LT0
0.50 0.50 0.50 C 1.000 UL
LTa
0.50 0.50 0.50 C 966 4596 M
5981 0 V
stroke
LT0
0.50 0.50 0.50 C 966 4596 M
63 0 V
5918 0 R
-63 0 V
-6002 0 R
( 33.234) Rshow
1.000 UL
LT0
0.50 0.50 0.50 C 1.000 UL
LTa
0.50 0.50 0.50 C 966 4687 M
5981 0 V
stroke
LT0
0.50 0.50 0.50 C 966 4687 M
63 0 V
5918 0 R
-63 0 V
-6002 0 R
( 33.9411) Rshow
1.000 UL
LT0
0.50 0.50 0.50 C 1.000 UL
LTa
0.50 0.50 0.50 C 966 4779 M
5981 0 V
stroke
LT0
0.50 0.50 0.50 C 966 4779 M
63 0 V
5918 0 R
-63 0 V
-6002 0 R
( 34.6482) Rshow
1.000 UL
LT0
0.50 0.50 0.50 C 1.000 UL
LTa
0.50 0.50 0.50 C 966 4871 M
5981 0 V
stroke
LT0
0.50 0.50 0.50 C 966 4871 M
63 0 V
5918 0 R
-63 0 V
-6002 0 R
( 35.3553) Rshow
1.000 UL
LT0
0.50 0.50 0.50 C 1.000 UL
LTa
0.50 0.50 0.50 C 966 280 M
0 4591 V
stroke
LT0
0.50 0.50 0.50 C 966 280 M
0 63 V
0 4528 R
0 -63 V
966 140 M
( 0) Cshow
1.000 UL
LT0
0.50 0.50 0.50 C 1.000 UL
LTa
0.50 0.50 0.50 C 1086 280 M
0 4591 V
stroke
LT0
0.50 0.50 0.50 C 1086 280 M
0 63 V
0 4528 R
0 -63 V
0 -4668 R
( 0.707106) Cshow
1.000 UL
LT0
0.50 0.50 0.50 C 1.000 UL
LTa
0.50 0.50 0.50 C 1205 280 M
0 4591 V
stroke
LT0
0.50 0.50 0.50 C 1205 280 M
0 63 V
0 4528 R
0 -63 V
0 -4668 R
( 1.41421) Cshow
1.000 UL
LT0
0.50 0.50 0.50 C 1.000 UL
LTa
0.50 0.50 0.50 C 1325 280 M
0 4591 V
stroke
LT0
0.50 0.50 0.50 C 1325 280 M
0 63 V
0 4528 R
0 -63 V
0 -4668 R
( 2.12132) Cshow
1.000 UL
LT0
0.50 0.50 0.50 C 1.000 UL
LTa
0.50 0.50 0.50 C 1444 280 M
0 4591 V
stroke
LT0
0.50 0.50 0.50 C 1444 280 M
0 63 V
0 4528 R
0 -63 V
0 -4668 R
( 2.82842) Cshow
1.000 UL
LT0
0.50 0.50 0.50 C 1.000 UL
LTa
0.50 0.50 0.50 C 1564 280 M
0 4591 V
stroke
LT0
0.50 0.50 0.50 C 1564 280 M
0 63 V
0 4528 R
0 -63 V
0 -4668 R
( 3.53553) Cshow
1.000 UL
LT0
0.50 0.50 0.50 C 1.000 UL
LTa
0.50 0.50 0.50 C 1684 280 M
0 4591 V
stroke
LT0
0.50 0.50 0.50 C 1684 280 M
0 63 V
0 4528 R
0 -63 V
0 -4668 R
( 4.24264) Cshow
1.000 UL
LT0
0.50 0.50 0.50 C 1.000 UL
LTa
0.50 0.50 0.50 C 1803 280 M
0 4591 V
stroke
LT0
0.50 0.50 0.50 C 1803 280 M
0 63 V
0 4528 R
0 -63 V
0 -4668 R
( 4.94974) Cshow
1.000 UL
LT0
0.50 0.50 0.50 C 1.000 UL
LTa
0.50 0.50 0.50 C 1923 280 M
0 4591 V
stroke
LT0
0.50 0.50 0.50 C 1923 280 M
0 63 V
0 4528 R
0 -63 V
0 -4668 R
( 5.65685) Cshow
1.000 UL
LT0
0.50 0.50 0.50 C 1.000 UL
LTa
0.50 0.50 0.50 C 2043 280 M
0 4591 V
stroke
LT0
0.50 0.50 0.50 C 2043 280 M
0 63 V
0 4528 R
0 -63 V
0 -4668 R
( 6.36395) Cshow
1.000 UL
LT0
0.50 0.50 0.50 C 1.000 UL
LTa
0.50 0.50 0.50 C 2162 280 M
0 4591 V
stroke
LT0
0.50 0.50 0.50 C 2162 280 M
0 63 V
0 4528 R
0 -63 V
0 -4668 R
( 7.07106) Cshow
1.000 UL
LT0
0.50 0.50 0.50 C 1.000 UL
LTa
0.50 0.50 0.50 C 2282 280 M
0 4591 V
stroke
LT0
0.50 0.50 0.50 C 2282 280 M
0 63 V
0 4528 R
0 -63 V
0 -4668 R
( 7.77817) Cshow
1.000 UL
LT0
0.50 0.50 0.50 C 1.000 UL
LTa
0.50 0.50 0.50 C 2401 280 M
0 4591 V
stroke
LT0
0.50 0.50 0.50 C 2401 280 M
0 63 V
0 4528 R
0 -63 V
0 -4668 R
( 8.48527) Cshow
1.000 UL
LT0
0.50 0.50 0.50 C 1.000 UL
LTa
0.50 0.50 0.50 C 2521 280 M
0 4591 V
stroke
LT0
0.50 0.50 0.50 C 2521 280 M
0 63 V
0 4528 R
0 -63 V
0 -4668 R
( 9.19238) Cshow
1.000 UL
LT0
0.50 0.50 0.50 C 1.000 UL
LTa
0.50 0.50 0.50 C 2641 280 M
0 4591 V
stroke
LT0
0.50 0.50 0.50 C 2641 280 M
0 63 V
0 4528 R
0 -63 V
0 -4668 R
( 9.89948) Cshow
1.000 UL
LT0
0.50 0.50 0.50 C 1.000 UL
LTa
0.50 0.50 0.50 C 2760 280 M
0 4591 V
stroke
LT0
0.50 0.50 0.50 C 2760 280 M
0 63 V
0 4528 R
0 -63 V
0 -4668 R
( 10.6066) Cshow
1.000 UL
LT0
0.50 0.50 0.50 C 1.000 UL
LTa
0.50 0.50 0.50 C 2880 280 M
0 4591 V
stroke
LT0
0.50 0.50 0.50 C 2880 280 M
0 63 V
0 4528 R
0 -63 V
0 -4668 R
( 11.3137) Cshow
1.000 UL
LT0
0.50 0.50 0.50 C 1.000 UL
LTa
0.50 0.50 0.50 C 3000 280 M
0 4591 V
stroke
LT0
0.50 0.50 0.50 C 3000 280 M
0 63 V
0 4528 R
0 -63 V
0 -4668 R
( 12.0208) Cshow
1.000 UL
LT0
0.50 0.50 0.50 C 1.000 UL
LTa
0.50 0.50 0.50 C 3119 280 M
0 4591 V
stroke
LT0
0.50 0.50 0.50 C 3119 280 M
0 63 V
0 4528 R
0 -63 V
0 -4668 R
( 12.7279) Cshow
1.000 UL
LT0
0.50 0.50 0.50 C 1.000 UL
LTa
0.50 0.50 0.50 C 3239 280 M
0 4591 V
stroke
LT0
0.50 0.50 0.50 C 3239 280 M
0 63 V
0 4528 R
0 -63 V
0 -4668 R
( 13.435) Cshow
1.000 UL
LT0
0.50 0.50 0.50 C 1.000 UL
LTa
0.50 0.50 0.50 C 3358 280 M
0 4591 V
stroke
LT0
0.50 0.50 0.50 C 3358 280 M
0 63 V
0 4528 R
0 -63 V
0 -4668 R
( 14.1421) Cshow
1.000 UL
LT0
0.50 0.50 0.50 C 1.000 UL
LTa
0.50 0.50 0.50 C 3478 280 M
0 4591 V
stroke
LT0
0.50 0.50 0.50 C 3478 280 M
0 63 V
0 4528 R
0 -63 V
0 -4668 R
( 14.8492) Cshow
1.000 UL
LT0
0.50 0.50 0.50 C 1.000 UL
LTa
0.50 0.50 0.50 C 3598 280 M
0 4591 V
stroke
LT0
0.50 0.50 0.50 C 3598 280 M
0 63 V
0 4528 R
0 -63 V
0 -4668 R
( 15.5563) Cshow
1.000 UL
LT0
0.50 0.50 0.50 C 1.000 UL
LTa
0.50 0.50 0.50 C 3717 280 M
0 4591 V
stroke
LT0
0.50 0.50 0.50 C 3717 280 M
0 63 V
0 4528 R
0 -63 V
0 -4668 R
( 16.2634) Cshow
1.000 UL
LT0
0.50 0.50 0.50 C 1.000 UL
LTa
0.50 0.50 0.50 C 3837 280 M
0 4591 V
stroke
LT0
0.50 0.50 0.50 C 3837 280 M
0 63 V
0 4528 R
0 -63 V
0 -4668 R
( 16.9705) Cshow
1.000 UL
LT0
0.50 0.50 0.50 C 1.000 UL
LTa
0.50 0.50 0.50 C 3956 280 M
0 4591 V
stroke
LT0
0.50 0.50 0.50 C 3956 280 M
0 63 V
0 4528 R
0 -63 V
0 -4668 R
( 17.6776) Cshow
1.000 UL
LT0
0.50 0.50 0.50 C 1.000 UL
LTa
0.50 0.50 0.50 C 4076 280 M
0 4591 V
stroke
LT0
0.50 0.50 0.50 C 4076 280 M
0 63 V
0 4528 R
0 -63 V
0 -4668 R
( 18.3848) Cshow
1.000 UL
LT0
0.50 0.50 0.50 C 1.000 UL
LTa
0.50 0.50 0.50 C 4196 280 M
0 4591 V
stroke
LT0
0.50 0.50 0.50 C 4196 280 M
0 63 V
0 4528 R
0 -63 V
0 -4668 R
( 19.0919) Cshow
1.000 UL
LT0
0.50 0.50 0.50 C 1.000 UL
LTa
0.50 0.50 0.50 C 4315 280 M
0 4591 V
stroke
LT0
0.50 0.50 0.50 C 4315 280 M
0 63 V
0 4528 R
0 -63 V
0 -4668 R
( 19.799) Cshow
1.000 UL
LT0
0.50 0.50 0.50 C 1.000 UL
LTa
0.50 0.50 0.50 C 4435 280 M
0 4591 V
stroke
LT0
0.50 0.50 0.50 C 4435 280 M
0 63 V
0 4528 R
0 -63 V
0 -4668 R
( 20.5061) Cshow
1.000 UL
LT0
0.50 0.50 0.50 C 1.000 UL
LTa
0.50 0.50 0.50 C 4555 280 M
0 4591 V
stroke
LT0
0.50 0.50 0.50 C 4555 280 M
0 63 V
0 4528 R
0 -63 V
0 -4668 R
( 21.2132) Cshow
1.000 UL
LT0
0.50 0.50 0.50 C 1.000 UL
LTa
0.50 0.50 0.50 C 4674 280 M
0 4591 V
stroke
LT0
0.50 0.50 0.50 C 4674 280 M
0 63 V
0 4528 R
0 -63 V
0 -4668 R
( 21.9203) Cshow
1.000 UL
LT0
0.50 0.50 0.50 C 1.000 UL
LTa
0.50 0.50 0.50 C 4794 280 M
0 4591 V
stroke
LT0
0.50 0.50 0.50 C 4794 280 M
0 63 V
0 4528 R
0 -63 V
0 -4668 R
( 22.6274) Cshow
1.000 UL
LT0
0.50 0.50 0.50 C 1.000 UL
LTa
0.50 0.50 0.50 C 4913 280 M
0 4591 V
stroke
LT0
0.50 0.50 0.50 C 4913 280 M
0 63 V
0 4528 R
0 -63 V
0 -4668 R
( 23.3345) Cshow
1.000 UL
LT0
0.50 0.50 0.50 C 1.000 UL
LTa
0.50 0.50 0.50 C 5033 280 M
0 4591 V
stroke
LT0
0.50 0.50 0.50 C 5033 280 M
0 63 V
0 4528 R
0 -63 V
0 -4668 R
( 24.0416) Cshow
1.000 UL
LT0
0.50 0.50 0.50 C 1.000 UL
LTa
0.50 0.50 0.50 C 5153 280 M
0 4591 V
stroke
LT0
0.50 0.50 0.50 C 5153 280 M
0 63 V
0 4528 R
0 -63 V
0 -4668 R
( 24.7487) Cshow
1.000 UL
LT0
0.50 0.50 0.50 C 1.000 UL
LTa
0.50 0.50 0.50 C 5272 280 M
0 4591 V
stroke
LT0
0.50 0.50 0.50 C 5272 280 M
0 63 V
0 4528 R
0 -63 V
0 -4668 R
( 25.4558) Cshow
1.000 UL
LT0
0.50 0.50 0.50 C 1.000 UL
LTa
0.50 0.50 0.50 C 5392 280 M
0 4591 V
stroke
LT0
0.50 0.50 0.50 C 5392 280 M
0 63 V
0 4528 R
0 -63 V
0 -4668 R
( 26.1629) Cshow
1.000 UL
LT0
0.50 0.50 0.50 C 1.000 UL
LTa
0.50 0.50 0.50 C 5512 280 M
0 4591 V
stroke
LT0
0.50 0.50 0.50 C 5512 280 M
0 63 V
0 4528 R
0 -63 V
0 -4668 R
( 26.87) Cshow
1.000 UL
LT0
0.50 0.50 0.50 C 1.000 UL
LTa
0.50 0.50 0.50 C 5631 280 M
0 4591 V
stroke
LT0
0.50 0.50 0.50 C 5631 280 M
0 63 V
0 4528 R
0 -63 V
0 -4668 R
( 27.5771) Cshow
1.000 UL
LT0
0.50 0.50 0.50 C 1.000 UL
LTa
0.50 0.50 0.50 C 5751 280 M
0 4591 V
stroke
LT0
0.50 0.50 0.50 C 5751 280 M
0 63 V
0 4528 R
0 -63 V
0 -4668 R
( 28.2842) Cshow
1.000 UL
LT0
0.50 0.50 0.50 C 1.000 UL
LTa
0.50 0.50 0.50 C 5870 280 M
0 4591 V
stroke
LT0
0.50 0.50 0.50 C 5870 280 M
0 63 V
0 4528 R
0 -63 V
0 -4668 R
( 28.9913) Cshow
1.000 UL
LT0
0.50 0.50 0.50 C 1.000 UL
LTa
0.50 0.50 0.50 C 5990 280 M
0 4591 V
stroke
LT0
0.50 0.50 0.50 C 5990 280 M
0 63 V
0 4528 R
0 -63 V
0 -4668 R
( 29.6985) Cshow
1.000 UL
LT0
0.50 0.50 0.50 C 1.000 UL
LTa
0.50 0.50 0.50 C 6110 280 M
0 4591 V
stroke
LT0
0.50 0.50 0.50 C 6110 280 M
0 63 V
0 4528 R
0 -63 V
0 -4668 R
( 30.4056) Cshow
1.000 UL
LT0
0.50 0.50 0.50 C 1.000 UL
LTa
0.50 0.50 0.50 C 6229 280 M
0 4591 V
stroke
LT0
0.50 0.50 0.50 C 6229 280 M
0 63 V
0 4528 R
0 -63 V
0 -4668 R
( 31.1127) Cshow
1.000 UL
LT0
0.50 0.50 0.50 C 1.000 UL
LTa
0.50 0.50 0.50 C 6349 280 M
0 4591 V
stroke
LT0
0.50 0.50 0.50 C 6349 280 M
0 63 V
0 4528 R
0 -63 V
0 -4668 R
( 31.8198) Cshow
1.000 UL
LT0
0.50 0.50 0.50 C 1.000 UL
LTa
0.50 0.50 0.50 C 6469 280 M
0 4591 V
stroke
LT0
0.50 0.50 0.50 C 6469 280 M
0 63 V
0 4528 R
0 -63 V
0 -4668 R
( 32.5269) Cshow
1.000 UL
LT0
0.50 0.50 0.50 C 1.000 UL
LTa
0.50 0.50 0.50 C 6588 280 M
0 4591 V
stroke
LT0
0.50 0.50 0.50 C 6588 280 M
0 63 V
0 4528 R
0 -63 V
0 -4668 R
( 33.234) Cshow
1.000 UL
LT0
0.50 0.50 0.50 C 1.000 UL
LTa
0.50 0.50 0.50 C 6708 280 M
0 4591 V
stroke
LT0
0.50 0.50 0.50 C 6708 280 M
0 63 V
0 4528 R
0 -63 V
0 -4668 R
( 33.9411) Cshow
1.000 UL
LT0
0.50 0.50 0.50 C 1.000 UL
LTa
0.50 0.50 0.50 C 6827 280 M
0 4591 V
stroke
LT0
0.50 0.50 0.50 C 6827 280 M
0 63 V
0 4528 R
0 -63 V
0 -4668 R
( 34.6482) Cshow
1.000 UL
LT0
0.50 0.50 0.50 C 1.000 UL
LTa
0.50 0.50 0.50 C 6947 280 M
0 4591 V
stroke
LT0
0.50 0.50 0.50 C 6947 280 M
0 63 V
0 4528 R
0 -63 V
0 -4668 R
( 35.3553) Cshow
1.000 UL
LT0
0.50 0.50 0.50 C 1.000 UL
LT0
0.50 0.50 0.50 C 966 4871 M
966 280 L
5981 0 V
0 4591 R
-5981 0 R
1.000 UP
stroke
LT0
0.50 0.50 0.50 C % Begin plot #1
1.500 UP
2.000 UL
LT0
0.00 0.00 1.00 C /Helvetica findfont 140 scalefont setfont
/vshift -46 def
966 647 M
120 0 V
0 92 R
119 0 V
120 0 V
119 0 V
0 184 R
120 0 V
120 0 V
0 734 R
119 0 V
120 0 V
120 0 V
119 0 V
0 276 R
120 0 V
119 0 V
120 0 V
120 0 V
119 0 V
120 0 V
120 0 V
119 0 V
120 0 V
119 0 V
120 0 V
120 0 V
119 0 V
120 0 V
120 0 V
119 0 V
120 0 V
119 0 V
120 0 V
120 0 V
119 0 V
120 0 V
119 0 V
0 92 R
120 0 V
120 0 V
0 91 R
119 0 V
0 184 R
120 0 V
120 0 V
119 0 V
120 0 V
0 92 R
119 0 V
0 643 R
120 0 V
0 91 R
120 0 V
0 276 R
119 0 V
120 0 V
0 184 R
120 0 V
119 0 V
0 367 R
120 0 V
0 551 R
119 0 V
1086 647 M
0 92 V
358 0 R
0 92 V
0 92 V
240 0 R
0 92 V
0 91 V
0 92 V
0 92 V
0 92 V
0 92 V
0 91 V
0 92 V
478 0 R
0 92 V
0 92 V
0 92 V
2751 0 R
0 92 V
240 0 R
0 91 V
119 0 R
0 92 V
0 92 V
479 0 R
0 92 V
119 0 R
0 92 V
0 92 V
0 91 V
0 92 V
0 92 V
0 92 V
0 92 V
120 0 R
0 91 V
120 0 R
0 92 V
0 92 V
0 92 V
stroke 6110 3402 M
239 0 R
0 92 V
0 92 V
239 0 R
0 91 V
0 92 V
0 92 V
0 92 V
120 0 R
0 92 V
0 91 V
0 92 V
0 92 V
0 92 V
0 92 V
966 280 M
0 92 V
6827 4687 M
0 92 V
966 372 M
0 92 V
0 91 V
0 92 V
6827 4504 M
0 92 V
0 91 V
966 647 CircleF
1086 647 CircleF
1086 739 CircleF
1205 739 CircleF
1205 739 CircleF
1325 739 CircleF
1325 739 CircleF
1444 739 CircleF
1444 923 CircleF
1564 923 CircleF
1564 923 CircleF
1684 923 CircleF
1684 1657 CircleF
1803 1657 CircleF
1803 1657 CircleF
1923 1657 CircleF
1923 1657 CircleF
2043 1657 CircleF
2043 1657 CircleF
2162 1657 CircleF
2162 1933 CircleF
2282 1933 CircleF
2282 1933 CircleF
2401 1933 CircleF
2401 1933 CircleF
2521 1933 CircleF
2521 1933 CircleF
2641 1933 CircleF
2641 1933 CircleF
2760 1933 CircleF
2760 1933 CircleF
2880 1933 CircleF
2880 1933 CircleF
3000 1933 CircleF
3000 1933 CircleF
3119 1933 CircleF
3119 1933 CircleF
3239 1933 CircleF
3239 1933 CircleF
3358 1933 CircleF
3358 1933 CircleF
3478 1933 CircleF
3478 1933 CircleF
3598 1933 CircleF
3598 1933 CircleF
3717 1933 CircleF
3717 1933 CircleF
3837 1933 CircleF
3837 1933 CircleF
3957 1933 CircleF
3957 1933 CircleF
4076 1933 CircleF
4076 1933 CircleF
4196 1933 CircleF
4196 1933 CircleF
4315 1933 CircleF
4315 1933 CircleF
4435 1933 CircleF
4435 1933 CircleF
4555 1933 CircleF
4555 1933 CircleF
4674 1933 CircleF
4674 1933 CircleF
4794 1933 CircleF
4794 1933 CircleF
4913 1933 CircleF
4913 2025 CircleF
5033 2025 CircleF
5033 2025 CircleF
5153 2025 CircleF
5153 2116 CircleF
5272 2116 CircleF
5272 2300 CircleF
5392 2300 CircleF
5392 2300 CircleF
5512 2300 CircleF
5512 2300 CircleF
5631 2300 CircleF
5631 2300 CircleF
5751 2300 CircleF
5751 2392 CircleF
5870 2392 CircleF
5870 3035 CircleF
5990 3035 CircleF
5990 3126 CircleF
6110 3126 CircleF
6110 3402 CircleF
6229 3402 CircleF
6229 3402 CircleF
6349 3402 CircleF
6349 3586 CircleF
6469 3586 CircleF
6469 3586 CircleF
6588 3586 CircleF
6588 3953 CircleF
6708 3953 CircleF
6708 4504 CircleF
6827 4504 CircleF
1086 647 CircleF
1086 739 CircleF
1444 739 CircleF
1444 831 CircleF
1444 831 CircleF
1444 923 CircleF
1684 923 CircleF
1684 1015 CircleF
1684 1015 CircleF
1684 1106 CircleF
1684 1106 CircleF
1684 1198 CircleF
1684 1198 CircleF
1684 1290 CircleF
1684 1290 CircleF
1684 1382 CircleF
1684 1382 CircleF
1684 1474 CircleF
1684 1474 CircleF
1684 1565 CircleF
1684 1565 CircleF
1684 1657 CircleF
2162 1657 CircleF
2162 1749 CircleF
2162 1749 CircleF
2162 1841 CircleF
2162 1841 CircleF
2162 1933 CircleF
4913 1933 CircleF
4913 2025 CircleF
5153 2025 CircleF
5153 2116 CircleF
5272 2116 CircleF
5272 2208 CircleF
5272 2208 CircleF
5272 2300 CircleF
5751 2300 CircleF
5751 2392 CircleF
5870 2392 CircleF
5870 2484 CircleF
5870 2484 CircleF
5870 2576 CircleF
5870 2576 CircleF
5870 2667 CircleF
5870 2667 CircleF
5870 2759 CircleF
5870 2759 CircleF
5870 2851 CircleF
5870 2851 CircleF
5870 2943 CircleF
5870 2943 CircleF
5870 3035 CircleF
5990 3035 CircleF
5990 3126 CircleF
6110 3126 CircleF
6110 3218 CircleF
6110 3218 CircleF
6110 3310 CircleF
6110 3310 CircleF
6110 3402 CircleF
6349 3402 CircleF
6349 3494 CircleF
6349 3494 CircleF
6349 3586 CircleF
6588 3586 CircleF
6588 3677 CircleF
6588 3677 CircleF
6588 3769 CircleF
6588 3769 CircleF
6588 3861 CircleF
6588 3861 CircleF
6588 3953 CircleF
6708 3953 CircleF
6708 4045 CircleF
6708 4045 CircleF
6708 4136 CircleF
6708 4136 CircleF
6708 4228 CircleF
6708 4228 CircleF
6708 4320 CircleF
6708 4320 CircleF
6708 4412 CircleF
6708 4412 CircleF
6708 4504 CircleF
966 280 CircleF
966 372 CircleF
6827 4687 CircleF
6827 4779 CircleF
966 372 CircleF
966 464 CircleF
966 464 CircleF
966 555 CircleF
966 555 CircleF
966 647 CircleF
6827 4504 CircleF
6827 4596 CircleF
6827 4596 CircleF
6827 4687 CircleF
% End plot #1
% Begin plot #2
1.500 UP
2.000 UL
LT0
1.00 0.55 0.00 C /Helvetica findfont 140 scalefont setfont
1306 507 M
120 92 V
176 3783 R
120 91 V
2485 2004 M
120 92 V
3633 874 R
120 92 V
4908 317 M
120 92 V
2919 1895 M
119 92 V
353 1901 R
120 92 V
1394 843 M
119 92 V
3256 977 R
119 92 V
2601 4661 M
120 92 V
6145 2230 M
119 92 V
2752 2514 M
120 92 V
4872 3712 M
120 92 V
3168 2570 M
120 91 V
-1609 41 R
119 91 V
5234 834 M
119 91 V
969 1602 R
120 92 V
5293 2922 M
119 92 V
2573 3509 M
119 92 V
1949 1052 M
120 92 V
4263 346 M
119 92 V
5397 878 M
120 92 V
1617 3380 M
119 91 V
2183 1922 M
120 91 V
1770 1381 M
119 92 V
5001 597 M
119 92 V
1957 1629 M
120 92 V
5087 329 M
120 92 V
3749 2524 M
120 92 V
971 1120 R
120 92 V
654 84 R
119 92 V
3181 1773 M
120 92 V
4835 1014 M
120 92 V
822 2910 R
119 92 V
3613 4638 M
120 92 V
3423 1005 M
120 92 V
3875 619 M
120 91 V
3494 3622 M
119 92 V
5923 2513 M
119 92 V
3920 4024 M
119 92 V
3305 2267 M
120 92 V
1286 3548 M
120 92 V
1891 2098 M
119 92 V
4366 3234 M
120 92 V
5135 1381 M
120 92 V
3929 2719 M
120 92 V
1302 967 R
120 92 V
565 506 R
120 92 V
5019 4599 M
120 92 V
5858 422 M
119 91 V
2128 1782 M
120 92 V
1064 4541 M
120 92 V
6025 2332 M
120 92 V
stroke 6145 2424 M
2578 1533 M
120 92 V
6219 878 M
119 92 V
3693 585 M
119 92 V
3025 3888 M
120 92 V
4358 904 M
119 92 V
6481 3846 M
119 92 V
1022 4510 M
120 92 V
5601 3976 M
119 92 V
207 400 R
120 92 V
2622 3222 M
120 92 V
2835 554 M
120 92 V
536 2936 R
119 92 V
5983 3109 M
120 92 V
6286 385 M
119 92 V
3393 3517 M
119 92 V
3125 891 M
120 92 V
1441 3815 M
120 92 V
177 17 R
120 92 V
748 -152 R
120 92 V
2159 727 M
119 91 V
260 2416 R
120 92 V
5833 4596 M
119 92 V
1092 3457 M
119 92 V
3129 2387 M
120 92 V
1595 1459 M
120 92 V
3527 -23 R
120 92 V
4246 2101 M
119 91 V
3530 4551 M
120 92 V
2188 -74 R
120 92 V
3618 4497 M
120 92 V
4747 3848 M
120 92 V
1724 1257 M
120 92 V
2397 273 R
119 92 V
4188 3837 M
119 92 V
1366 1477 M
120 92 V
69 1750 R
119 92 V
-652 385 R
119 92 V
4426 2848 M
120 92 V
2844 3814 M
120 92 V
1565 3238 M
120 91 V
474 693 R
120 92 V
4298 109 R
120 92 V
1015 1299 M
120 92 V
4412 9 R
119 91 V
4737 979 M
119 92 V
3149 793 M
119 92 V
1228 77 R
119 91 V
5957 4382 M
119 92 V
5541 1770 M
119 92 V
649 720 R
120 91 V
977 3584 M
120 92 V
5978 1090 M
120 92 V
stroke 6098 1182 M
69 2404 R
119 92 V
1171 4618 M
119 92 V
2141 3028 M
119 92 V
6371 352 M
120 92 V
4105 577 M
120 92 V
2747 1353 M
120 92 V
4340 727 M
120 91 V
2991 1868 M
120 92 V
6035 4355 M
120 92 V
3907 911 M
120 92 V
5954 2518 M
120 91 V
3797 2836 M
120 92 V
5253 794 M
120 92 V
4915 753 M
119 92 V
4759 2595 M
120 92 V
1318 3000 M
119 92 V
4366 842 M
120 92 V
3389 2921 M
120 92 V
618 -70 R
120 92 V
1021 4283 M
120 91 V
1649 1310 M
120 92 V
4016 994 R
119 91 V
4402 1245 M
119 92 V
1601 2593 M
120 92 V
5126 955 M
119 92 V
1653 4502 M
120 92 V
5028 2382 M
119 92 V
654 1558 R
119 92 V
5158 1345 M
119 92 V
2257 1783 M
120 92 V
1262 213 R
120 91 V
2168 3823 M
120 92 V
93 -1348 R
120 92 V
5604 4092 M
119 92 V
3353 1701 M
120 92 V
5623 718 M
119 92 V
2134 1928 M
120 92 V
624 -120 R
120 92 V
2078 4467 M
120 92 V
-210 124 R
120 92 V
3086 792 M
119 92 V
3003 2293 M
120 91 V
1386 2369 M
120 92 V
573 1478 R
119 92 V
734 -913 R
120 92 V
2754 1375 M
120 92 V
6625 3116 M
120 92 V
2391 1866 M
120 91 V
4146 4261 M
120 92 V
1020 644 M
119 92 V
134 -79 R
120 91 V
1174 661 R
120 91 V
stroke 2687 1500 M
4935 3230 M
120 92 V
968 2060 M
120 91 V
67 -1046 R
119 92 V
5782 2942 M
120 91 V
5307 1467 M
120 92 V
5550 363 M
120 92 V
82 2123 R
120 92 V
4059 4441 M
120 92 V
6153 4071 M
120 92 V
-4965 37 R
119 92 V
6014 3826 M
120 92 V
2443 859 M
119 92 V
412 2720 R
119 92 V
1670 1552 M
120 92 V
1511 137 R
120 92 V
178 1659 R
120 91 V
-3 636 R
119 92 V
4065 3147 M
120 92 V
5798 2679 M
120 92 V
5345 1262 M
119 92 V
6682 2611 M
120 92 V
4958 1956 M
119 92 V
1759 3352 M
120 92 V
4362 2007 M
120 92 V
488 1900 R
119 92 V
1133 1176 M
120 92 V
2400 139 R
120 91 V
6618 4410 M
120 92 V
5267 389 M
119 92 V
1081 3065 M
120 91 V
3295 2201 M
120 92 V
360 -272 R
119 92 V
2480 532 M
119 92 V
991 1112 M
120 91 V
1247 959 M
120 92 V
1240 86 R
120 92 V
4595 569 M
120 91 V
2376 1886 M
120 92 V
6316 3278 M
119 92 V
1212 662 M
120 92 V
1930 515 M
120 91 V
4963 817 M
119 92 V
4330 2102 M
120 92 V
1498 4610 M
120 91 V
4878 1374 M
119 91 V
1736 2135 M
119 92 V
4146 3860 M
119 91 V
-970 99 R
119 92 V
10 -2648 R
120 92 V
1131 619 R
120 92 V
3314 1172 M
120 92 V
6254 3341 M
119 92 V
stroke 6373 3433 M
4184 2446 M
120 92 V
6127 911 M
120 92 V
4091 3081 M
119 92 V
4069 1863 M
119 91 V
6072 4155 M
120 92 V
5258 2870 M
119 91 V
2336 3854 M
120 91 V
2287 2132 M
120 92 V
1196 -83 R
119 91 V
3079 4388 M
120 92 V
6625 1869 M
119 92 V
5344 4513 M
120 92 V
6568 3671 M
120 92 V
6581 1508 M
119 92 V
1296 2407 M
119 91 V
1426 10 R
120 92 V
2293 3714 M
120 92 V
1626 2948 M
119 91 V
5455 824 M
119 92 V
3988 4590 M
119 92 V
2164 4242 M
120 91 V
6160 3569 M
119 92 V
5347 499 M
119 92 V
3737 886 M
120 92 V
1537 340 R
120 91 V
6225 546 M
120 92 V
1732 1785 M
120 92 V
679 884 R
120 92 V
4972 4632 M
120 91 V
4493 1664 M
120 92 V
2791 914 M
119 91 V
2792 2027 M
120 91 V
382 594 R
119 92 V
5141 988 M
119 92 V
1108 1430 M
120 92 V
2006 884 M
119 92 V
2051 493 R
119 92 V
6640 4130 M
120 92 V
3282 3075 M
119 92 V
1147 601 R
119 92 V
1627 4337 M
120 92 V
1040 3365 M
120 92 V
3665 1088 M
120 92 V
2374 345 M
120 92 V
3737 2501 M
120 91 V
1529 192 R
119 92 V
3921 710 M
119 91 V
2385 2209 M
120 91 V
1849 3845 M
119 92 V
2793 1001 M
119 92 V
5812 611 M
120 92 V
497 1911 R
119 91 V
stroke 6548 2705 M
6177 1721 M
120 92 V
3047 3099 M
120 91 V
1608 1512 M
119 92 V
2062 405 R
120 91 V
5070 3801 M
120 92 V
2757 2891 M
120 92 V
5643 2295 M
120 92 V
706 -542 R
120 92 V
6247 710 M
120 91 V
3937 3947 M
120 92 V
3678 1928 M
120 92 V
-712 381 R
119 91 V
263 -844 R
119 92 V
1507 1511 M
120 92 V
1548 142 R
120 92 V
1476 2564 M
119 92 V
2702 2115 M
120 91 V
2650 1310 M
120 92 V
2157 553 M
120 92 V
728 3666 R
119 91 V
6392 1253 M
119 92 V
4639 3746 M
120 92 V
475 325 R
120 92 V
2248 486 M
119 92 V
4305 1861 M
120 92 V
321 853 R
120 92 V
4132 1263 M
120 91 V
977 2054 M
119 92 V
4916 659 R
120 91 V
1440 4367 M
120 91 V
6329 515 M
120 92 V
2024 1581 M
120 92 V
3545 3159 M
119 92 V
5837 2526 M
120 92 V
2741 3505 M
120 92 V
5010 917 M
119 91 V
2349 4133 M
119 92 V
1701 3856 M
120 92 V
666 -25 R
120 92 V
1217 1436 M
119 92 V
3430 460 R
120 92 V
179 2164 R
120 92 V
4682 4034 M
119 92 V
2260 3383 M
120 92 V
5859 3075 M
119 92 V
4699 954 M
119 92 V
2206 1871 M
119 91 V
5038 543 M
119 92 V
-280 550 R
120 92 V
98 708 R
119 92 V
2115 1607 M
120 92 V
489 2258 R
120 91 V
stroke 2844 4048 M
2724 2392 M
119 92 V
-25 -765 R
120 92 V
4299 2921 M
120 92 V
2823 3719 M
120 91 V
4253 867 M
119 91 V
100 1927 R
120 91 V
2031 2291 M
120 92 V
930 1174 R
119 92 V
756 -938 R
119 91 V
1661 348 M
120 92 V
93 2708 R
120 92 V
5993 2047 M
119 92 V
4832 682 M
120 92 V
322 2466 R
119 92 V
2267 3071 M
120 91 V
4264 1490 M
120 92 V
371 1536 R
120 92 V
3795 865 M
120 92 V
1871 4345 M
120 92 V
5155 3766 M
120 92 V
4370 1585 M
120 92 V
-2107 85 R
119 92 V
6531 695 M
120 92 V
4650 4441 M
120 92 V
-949 21 R
120 92 V
3449 977 M
120 92 V
3075 778 R
120 91 V
6541 3826 M
119 92 V
4533 3590 M
120 92 V
1249 1227 M
120 92 V
298 239 R
119 92 V
1965 305 M
120 92 V
3974 2135 M
120 92 V
6429 308 M
120 92 V
2355 4017 M
120 92 V
6694 640 M
120 92 V
5887 2986 M
120 91 V
3040 2764 M
119 92 V
4891 3866 M
119 91 V
2761 3140 M
120 92 V
-628 432 R
119 92 V
4020 918 M
119 92 V
6448 4010 M
120 92 V
1433 2120 M
119 92 V
334 460 R
119 92 V
988 3530 M
120 92 V
732 -930 R
120 92 V
1361 1550 M
119 91 V
2502 226 R
120 92 V
2636 1400 M
120 92 V
-525 610 R
119 92 V
4061 891 R
119 91 V
stroke 6530 3176 M
5476 4634 M
120 91 V
5040 2482 M
120 92 V
220 -207 R
120 92 V
-3937 70 R
120 92 V
2969 814 M
119 92 V
4751 3452 M
119 92 V
2434 1834 M
120 92 V
6130 3338 M
120 92 V
1399 2570 M
120 92 V
6435 4395 M
120 92 V
2580 3824 M
119 91 V
1804 3060 M
120 92 V
1941 169 R
120 92 V
2248 2157 M
120 92 V
3611 1628 M
119 91 V
1093 4202 M
120 91 V
4944 3866 M
119 92 V
20 -2866 R
120 92 V
2746 1705 M
119 92 V
6037 3973 M
120 92 V
5455 1900 M
120 92 V
1346 2549 M
120 92 V
6268 1050 M
120 92 V
6240 2310 M
120 92 V
3656 2656 M
119 92 V
1699 3249 M
120 92 V
3625 164 R
120 92 V
2267 3850 M
120 92 V
6455 3494 M
120 92 V
4834 1677 M
119 92 V
2352 1021 M
120 92 V
3559 240 R
120 92 V
3662 2821 M
120 91 V
-194 387 R
119 92 V
1485 2287 M
120 92 V
634 -836 R
120 91 V
6577 3893 M
120 91 V
2678 2329 M
119 92 V
613 2049 R
120 92 V
3264 4276 M
119 91 V
5041 1626 M
120 91 V
1199 2936 M
119 92 V
4568 1652 M
120 91 V
2005 2634 M
120 91 V
1232 4059 M
119 91 V
1890 398 M
120 92 V
5113 3181 M
119 92 V
3159 1541 M
119 92 V
2624 2710 M
120 92 V
6155 2467 M
120 92 V
4128 3588 M
120 92 V
5138 1470 M
119 92 V
stroke 5257 1562 M
2727 3781 M
119 91 V
2734 2942 M
120 91 V
6306 682 M
120 92 V
3225 4220 M
120 92 V
2021 2687 M
119 92 V
241 803 R
120 91 V
2711 1223 M
120 91 V
4088 2380 M
119 92 V
72 -987 R
119 92 V
27 57 R
119 92 V
201 2454 R
120 91 V
4903 535 M
120 92 V
2602 4354 M
120 92 V
2295 2396 M
119 92 V
1405 2376 M
120 92 V
5189 4517 M
119 91 V
4843 2964 M
120 91 V
3114 1870 M
119 92 V
2330 831 R
120 92 V
2823 1914 M
119 92 V
483 -891 R
119 91 V
3093 896 M
120 92 V
6005 4562 M
120 92 V
2829 3792 M
120 92 V
445 439 R
120 92 V
6483 1193 M
120 92 V
4102 2825 M
120 92 V
568 243 R
120 92 V
4731 567 M
120 92 V
2293 2559 M
120 92 V
4250 990 M
120 92 V
6031 2098 M
119 92 V
4858 3316 M
120 92 V
3398 3183 M
120 92 V
5059 1070 M
120 92 V
1573 1052 M
120 92 V
5763 4576 M
120 91 V
5331 3798 M
120 92 V
1782 1987 M
120 92 V
6255 3910 M
120 92 V
4918 3278 M
120 91 V
1148 672 M
119 92 V
3287 4113 M
120 92 V
5797 2066 M
119 92 V
511 -541 R
119 91 V
2138 1661 M
119 92 V
879 549 R
119 91 V
1550 1860 M
120 92 V
5421 1383 M
120 92 V
2078 1041 M
119 92 V
445 1747 R
120 92 V
2592 2636 M
120 92 V
stroke 2712 2728 M
5198 2496 M
119 92 V
4968 1282 M
120 91 V
339 1650 R
120 92 V
4537 1630 M
120 92 V
6649 399 M
119 91 V
6645 2348 M
120 92 V
5267 3519 M
119 92 V
3941 3756 M
119 92 V
2677 2048 M
120 92 V
2894 711 M
119 92 V
875 864 R
119 92 V
708 -645 R
120 92 V
3628 1833 M
120 92 V
6178 1350 M
120 92 V
2031 492 M
119 91 V
1789 2773 M
119 92 V
3432 664 M
120 92 V
3352 1764 M
119 92 V
92 -419 R
120 92 V
6069 1170 M
120 92 V
4969 4146 M
119 92 V
3831 1384 M
120 91 V
901 134 R
120 92 V
2607 3049 M
120 92 V
3258 469 M
120 92 V
5233 3743 M
120 92 V
1600 1119 M
120 92 V
6111 3404 M
120 92 V
5994 1214 M
119 92 V
6703 733 M
120 92 V
3446 3268 M
120 92 V
3277 320 M
119 92 V
5263 3186 M
119 92 V
3065 4602 M
120 92 V
2661 3400 M
119 92 V
1235 569 M
120 92 V
982 3954 R
120 92 V
2256 2692 M
120 92 V
1392 860 M
120 92 V
4860 520 R
120 91 V
4944 4297 M
120 92 V
3639 1485 M
120 91 V
2523 478 M
120 92 V
2623 80 R
120 91 V
2725 1558 M
119 92 V
799 2265 R
120 92 V
5018 2772 M
120 92 V
2161 4445 M
120 92 V
5787 2885 M
120 91 V
3181 4260 M
120 92 V
968 231 R
120 92 V
4598 1928 M
120 92 V
stroke 4718 2020 M
1735 1162 M
120 92 V
1356 110 R
120 92 V
5813 3912 M
119 92 V
4235 4226 M
120 91 V
6673 1552 M
119 92 V
6437 3157 M
120 92 V
2868 4546 M
119 92 V
3139 1241 M
119 91 V
1954 3779 M
119 92 V
1580 2971 M
119 92 V
3188 2655 M
120 92 V
2484 4102 M
120 91 V
1470 1473 M
119 92 V
6298 4041 M
120 92 V
2030 2231 M
120 92 V
4504 3732 M
119 92 V
1266 1473 M
120 92 V
3579 3651 M
120 92 V
1072 2222 M
120 91 V
6341 284 M
120 92 V
3703 2591 M
120 92 V
520 -785 R
120 92 V
1396 2901 M
119 92 V
6047 772 M
120 92 V
4526 2154 M
120 91 V
232 527 R
119 91 V
3037 741 M
119 92 V
4662 4107 M
119 92 V
5682 2808 M
120 92 V
5646 980 M
120 92 V
5267 3700 M
119 92 V
3002 1284 M
119 92 V
1704 2460 M
120 92 V
2742 1056 M
120 92 V
6170 4597 M
120 92 V
4756 1788 M
120 92 V
3483 2847 M
120 92 V
3725 383 M
119 92 V
1947 4355 M
119 92 V
4263 1447 M
119 92 V
3750 3469 M
120 91 V
2951 3110 M
120 91 V
1568 1739 M
119 91 V
2796 1169 M
120 92 V
1423 3391 M
119 91 V
1839 1406 M
119 92 V
5221 3386 M
119 91 V
4236 2617 M
119 92 V
2605 3191 M
119 92 V
602 145 R
120 91 V
5956 3095 M
120 91 V
2403 815 M
119 91 V
stroke 2522 906 M
3840 4632 M
119 92 V
5246 2256 M
120 92 V
847 2122 R
120 92 V
3465 3099 M
119 92 V
5534 2267 M
119 92 V
1978 3983 M
120 92 V
3410 160 R
119 91 V
4053 1278 M
120 92 V
2818 1257 M
120 91 V
6587 777 M
119 92 V
4614 4581 M
119 92 V
2729 550 M
120 92 V
2240 2789 M
120 92 V
5535 4630 M
119 92 V
5478 1508 M
119 91 V
-3953 79 R
120 92 V
2508 -95 R
120 92 V
3879 1592 M
119 92 V
5674 1435 M
120 91 V
-1227 -3 R
119 92 V
4451 3034 M
119 92 V
690 -404 R
119 92 V
3487 849 M
120 92 V
3342 780 M
120 92 V
6341 3507 M
120 92 V
-4895 94 R
120 92 V
6359 599 M
120 91 V
2018 1821 M
120 91 V
4678 1202 M
119 92 V
3578 686 M
119 92 V
2484 848 R
120 92 V
5040 2276 M
119 92 V
230 1105 R
120 92 V
1681 1008 M
119 92 V
1578 120 R
120 92 V
3364 2817 M
120 92 V
237 -999 R
119 91 V
2687 2528 M
119 92 V
2053 1708 M
120 92 V
3117 848 R
120 92 V
841 -587 R
120 92 V
3421 2931 M
120 92 V
1139 2509 M
119 92 V
4720 2377 M
120 92 V
1476 651 M
120 92 V
1072 3215 M
120 92 V
3310 1314 M
120 92 V
5148 349 M
120 92 V
4316 3257 M
120 92 V
3771 2241 M
119 91 V
3565 2144 M
120 92 V
73 1155 R
120 91 V
stroke 3878 3482 M
931 66 R
119 92 V
3800 1369 M
119 92 V
3382 3320 M
119 92 V
217 954 R
120 92 V
1254 4630 M
120 92 V
3577 -44 R
119 92 V
4674 3120 M
119 92 V
6018 369 M
120 92 V
48 2502 R
120 92 V
1366 4633 M
120 92 V
1341 832 M
119 91 V
2596 533 R
120 92 V
6192 3891 M
119 92 V
2187 4105 M
119 92 V
5935 1991 M
119 92 V
155 -383 R
120 91 V
2995 2072 M
120 92 V
4597 3949 M
120 91 V
6104 940 M
120 92 V
1276 3583 M
119 92 V
6381 1691 M
120 92 V
4680 3735 M
120 92 V
1824 4275 M
119 92 V
1443 3857 M
120 91 V
2178 2789 M
120 92 V
3773 974 R
120 92 V
2255 2388 M
120 92 V
3403 843 M
120 92 V
-360 751 R
119 92 V
1502 266 R
120 92 V
4422 863 M
119 92 V
1054 907 M
119 92 V
56 624 R
119 91 V
3142 707 R
120 92 V
2050 1863 M
120 91 V
1146 2718 M
120 92 V
3810 301 M
119 92 V
1136 1858 M
119 91 V
767 -909 R
120 92 V
1239 4545 M
120 91 V
4972 1947 M
120 91 V
4805 4306 M
119 92 V
2104 626 M
119 92 V
4866 2514 M
120 92 V
222 313 R
119 92 V
2475 3721 M
120 92 V
843 -57 R
120 92 V
5861 2882 M
120 92 V
3616 2670 M
120 92 V
978 876 M
120 92 V
4813 2028 M
119 92 V
2432 2372 M
120 92 V
stroke 2552 2464 M
-76 1580 R
119 92 V
3367 2100 M
120 92 V
5521 3652 M
119 92 V
1087 2432 M
119 92 V
4684 4579 M
120 92 V
3829 3522 M
120 92 V
1071 46 R
119 91 V
6300 3485 M
120 92 V
1124 725 M
120 92 V
2015 577 R
119 92 V
4962 3960 M
120 92 V
4807 3844 M
119 92 V
4828 2591 M
119 91 V
2618 1869 M
120 92 V
6207 1263 M
120 92 V
1463 4399 M
120 92 V
1215 4057 M
119 92 V
2229 1723 M
120 91 V
3601 3540 M
120 92 V
5008 2637 M
120 92 V
6636 1693 M
120 92 V
1760 1637 M
119 91 V
535 1935 R
119 92 V
1094 880 M
120 92 V
5561 2082 M
120 92 V
662 616 R
120 92 V
2083 792 M
120 92 V
561 153 R
120 91 V
2525 2561 M
120 91 V
3681 365 M
119 92 V
5819 3748 M
119 91 V
6695 2167 M
119 91 V
1021 4170 M
120 92 V
1281 53 R
119 92 V
6539 2028 M
120 92 V
1194 2383 M
120 92 V
2986 380 R
120 91 V
1816 4107 M
120 92 V
4796 1881 M
119 92 V
218 1675 R
120 92 V
5455 2638 M
119 92 V
4253 1335 M
119 92 V
5470 4673 M
120 92 V
1496 3076 M
120 92 V
4084 2618 M
119 92 V
2363 4589 M
119 92 V
5562 1951 M
120 92 V
595 -27 R
119 92 V
12 -52 R
120 92 V
1479 4063 M
120 92 V
3177 113 R
120 92 V
2368 1337 M
120 92 V
stroke 2488 1429 M
-79 1830 R
120 92 V
3233 2316 M
119 92 V
3194 1576 M
119 91 V
729 -101 R
119 92 V
6541 2986 M
119 92 V
1827 3537 M
120 92 V
1448 1168 M
120 92 V
4354 2772 M
119 92 V
1555 2135 M
120 92 V
-634 747 R
120 92 V
294 195 R
119 91 V
958 645 R
120 92 V
2214 200 R
119 92 V
3122 4287 M
119 92 V
3752 766 M
120 91 V
1086 4143 M
119 91 V
3620 723 M
120 92 V
3267 522 M
119 91 V
6647 4231 M
120 91 V
1879 4215 M
120 92 V
3896 3089 M
119 91 V
2168 300 M
120 92 V
2043 2298 M
120 91 V
4017 3906 M
119 92 V
337 262 R
119 92 V
3812 3315 M
120 92 V
1327 1033 M
120 92 V
1128 2842 M
120 92 V
5507 535 M
120 92 V
3390 3691 M
119 92 V
1139 3547 M
120 91 V
3655 760 R
120 92 V
6637 4096 M
120 92 V
5718 1457 M
119 92 V
4845 3798 M
119 92 V
1570 2828 M
119 92 V
1949 332 M
119 92 V
5371 3966 M
120 92 V
2365 646 M
120 92 V
2092 2851 M
119 92 V
5261 2839 M
120 92 V
3234 1259 M
119 92 V
1596 3806 M
120 92 V
5073 1988 M
119 91 V
3611 1282 M
120 91 V
361 545 R
120 92 V
1406 4219 M
120 92 V
3318 1653 M
119 92 V
2111 460 M
120 92 V
3804 895 M
119 92 V
6159 4200 M
119 92 V
4731 1138 M
119 92 V
stroke 4850 1230 M
6039 3125 M
120 92 V
2794 2864 M
120 92 V
4452 1041 M
120 92 V
1657 4518 M
120 92 V
2308 781 M
120 92 V
5989 4424 M
119 92 V
4885 1715 M
119 92 V
2439 1656 M
120 92 V
6495 4284 M
120 92 V
3544 4673 M
120 92 V
3400 3395 M
119 92 V
5215 2082 M
120 92 V
202 -537 R
120 92 V
4741 3662 M
120 92 V
-450 579 R
120 92 V
3718 2042 M
120 92 V
645 -234 R
119 92 V
2987 2637 M
119 91 V
5578 1790 M
120 92 V
1306 507 CircleF
1426 599 CircleF
1602 4382 CircleF
1722 4473 CircleF
2485 2004 CircleF
2605 2096 CircleF
6238 2970 CircleF
6358 3062 CircleF
4908 317 CircleF
5028 409 CircleF
2919 1895 CircleF
3038 1987 CircleF
3391 3888 CircleF
3511 3980 CircleF
1394 843 CircleF
1513 935 CircleF
4769 1912 CircleF
4888 2004 CircleF
2601 4661 CircleF
2721 4753 CircleF
6145 2230 CircleF
6264 2322 CircleF
2752 2514 CircleF
2872 2606 CircleF
4872 3712 CircleF
4992 3804 CircleF
3168 2570 CircleF
3288 2661 CircleF
1679 2702 CircleF
1798 2793 CircleF
5234 834 CircleF
5353 925 CircleF
6322 2527 CircleF
6442 2619 CircleF
5293 2922 CircleF
5412 3014 CircleF
2573 3509 CircleF
2692 3601 CircleF
1949 1052 CircleF
2069 1144 CircleF
4263 346 CircleF
4382 438 CircleF
5397 878 CircleF
5517 970 CircleF
1617 3380 CircleF
1736 3471 CircleF
2183 1922 CircleF
2303 2013 CircleF
1770 1381 CircleF
1889 1473 CircleF
5001 597 CircleF
5120 689 CircleF
1957 1629 CircleF
2077 1721 CircleF
5087 329 CircleF
5207 421 CircleF
3749 2524 CircleF
3869 2616 CircleF
4840 3736 CircleF
4960 3828 CircleF
5614 3912 CircleF
5733 4004 CircleF
3181 1773 CircleF
3301 1865 CircleF
4835 1014 CircleF
4955 1106 CircleF
5777 4016 CircleF
5896 4108 CircleF
3613 4638 CircleF
3733 4730 CircleF
3423 1005 CircleF
3543 1097 CircleF
3875 619 CircleF
3995 710 CircleF
3494 3622 CircleF
3613 3714 CircleF
5923 2513 CircleF
6042 2605 CircleF
3920 4024 CircleF
4039 4116 CircleF
3305 2267 CircleF
3425 2359 CircleF
1286 3548 CircleF
1406 3640 CircleF
1891 2098 CircleF
2010 2190 CircleF
4366 3234 CircleF
4486 3326 CircleF
5135 1381 CircleF
5255 1473 CircleF
3929 2719 CircleF
4049 2811 CircleF
5351 3778 CircleF
5471 3870 CircleF
6036 4376 CircleF
6156 4468 CircleF
5019 4599 CircleF
5139 4691 CircleF
5858 422 CircleF
5977 513 CircleF
2128 1782 CircleF
2248 1874 CircleF
1064 4541 CircleF
1184 4633 CircleF
6025 2332 CircleF
6145 2424 CircleF
2578 1533 CircleF
2698 1625 CircleF
6219 878 CircleF
6338 970 CircleF
3693 585 CircleF
3812 677 CircleF
3025 3888 CircleF
3145 3980 CircleF
4358 904 CircleF
4477 996 CircleF
6481 3846 CircleF
6600 3938 CircleF
1022 4510 CircleF
1142 4602 CircleF
5601 3976 CircleF
5720 4068 CircleF
5927 4468 CircleF
6047 4560 CircleF
2622 3222 CircleF
2742 3314 CircleF
2835 554 CircleF
2955 646 CircleF
3491 3582 CircleF
3610 3674 CircleF
5983 3109 CircleF
6103 3201 CircleF
6286 385 CircleF
6405 477 CircleF
3393 3517 CircleF
3512 3609 CircleF
3125 891 CircleF
3245 983 CircleF
1441 3815 CircleF
1561 3907 CircleF
1738 3924 CircleF
1858 4016 CircleF
2606 3864 CircleF
2726 3956 CircleF
2159 727 CircleF
2278 818 CircleF
2538 3234 CircleF
2658 3326 CircleF
5833 4596 CircleF
5952 4688 CircleF
1092 3457 CircleF
1211 3549 CircleF
3129 2387 CircleF
3249 2479 CircleF
1595 1459 CircleF
1715 1551 CircleF
5242 1528 CircleF
5362 1620 CircleF
4246 2101 CircleF
4365 2192 CircleF
3530 4551 CircleF
3650 4643 CircleF
5838 4569 CircleF
5958 4661 CircleF
3618 4497 CircleF
3738 4589 CircleF
4747 3848 CircleF
4867 3940 CircleF
1724 1257 CircleF
1844 1349 CircleF
4241 1622 CircleF
4360 1714 CircleF
4188 3837 CircleF
4307 3929 CircleF
1366 1477 CircleF
1486 1569 CircleF
1555 3319 CircleF
1674 3411 CircleF
1022 3796 CircleF
1141 3888 CircleF
4426 2848 CircleF
4546 2940 CircleF
2844 3814 CircleF
2964 3906 CircleF
1565 3238 CircleF
1685 3329 CircleF
2159 4022 CircleF
2279 4114 CircleF
6577 4223 CircleF
6697 4315 CircleF
1015 1299 CircleF
1135 1391 CircleF
5547 1400 CircleF
5666 1491 CircleF
4737 979 CircleF
4856 1071 CircleF
3149 793 CircleF
3268 885 CircleF
4496 962 CircleF
4615 1053 CircleF
5957 4382 CircleF
6076 4474 CircleF
5541 1770 CircleF
5660 1862 CircleF
6309 2582 CircleF
6429 2673 CircleF
977 3584 CircleF
1097 3676 CircleF
5978 1090 CircleF
6098 1182 CircleF
6167 3586 CircleF
6286 3678 CircleF
1171 4618 CircleF
1290 4710 CircleF
2141 3028 CircleF
2260 3120 CircleF
6371 352 CircleF
6491 444 CircleF
4105 577 CircleF
4225 669 CircleF
2747 1353 CircleF
2867 1445 CircleF
4340 727 CircleF
4460 818 CircleF
2991 1868 CircleF
3111 1960 CircleF
6035 4355 CircleF
6155 4447 CircleF
3907 911 CircleF
4027 1003 CircleF
5954 2518 CircleF
6074 2609 CircleF
3797 2836 CircleF
3917 2928 CircleF
5253 794 CircleF
5373 886 CircleF
4915 753 CircleF
5034 845 CircleF
4759 2595 CircleF
4879 2687 CircleF
1318 3000 CircleF
1437 3092 CircleF
4366 842 CircleF
4486 934 CircleF
3389 2921 CircleF
3509 3013 CircleF
4127 2943 CircleF
4247 3035 CircleF
1021 4283 CircleF
1141 4374 CircleF
1649 1310 CircleF
1769 1402 CircleF
5785 2396 CircleF
5904 2487 CircleF
4402 1245 CircleF
4521 1337 CircleF
1601 2593 CircleF
1721 2685 CircleF
5126 955 CircleF
5245 1047 CircleF
1653 4502 CircleF
1773 4594 CircleF
5028 2382 CircleF
5147 2474 CircleF
5801 4032 CircleF
5920 4124 CircleF
5158 1345 CircleF
5277 1437 CircleF
2257 1783 CircleF
2377 1875 CircleF
3639 2088 CircleF
3759 2179 CircleF
2168 3823 CircleF
2288 3915 CircleF
2381 2567 CircleF
2501 2659 CircleF
5604 4092 CircleF
5723 4184 CircleF
3353 1701 CircleF
3473 1793 CircleF
5623 718 CircleF
5742 810 CircleF
2134 1928 CircleF
2254 2020 CircleF
2878 1900 CircleF
2998 1992 CircleF
2078 4467 CircleF
2198 4559 CircleF
1988 4683 CircleF
2108 4775 CircleF
3086 792 CircleF
3205 884 CircleF
3003 2293 CircleF
3123 2384 CircleF
1386 2369 CircleF
1506 2461 CircleF
2079 3939 CircleF
2198 4031 CircleF
2932 3118 CircleF
3052 3210 CircleF
2754 1375 CircleF
2874 1467 CircleF
6625 3116 CircleF
6745 3208 CircleF
2391 1866 CircleF
2511 1957 CircleF
4146 4261 CircleF
4266 4353 CircleF
1020 644 CircleF
1139 736 CircleF
1273 657 CircleF
1393 748 CircleF
2567 1409 CircleF
2687 1500 CircleF
4935 3230 CircleF
5055 3322 CircleF
968 2060 CircleF
1088 2151 CircleF
1155 1105 CircleF
1274 1197 CircleF
5782 2942 CircleF
5902 3033 CircleF
5307 1467 CircleF
5427 1559 CircleF
5550 363 CircleF
5670 455 CircleF
5752 2578 CircleF
5872 2670 CircleF
4059 4441 CircleF
4179 4533 CircleF
6153 4071 CircleF
6273 4163 CircleF
1308 4200 CircleF
1427 4292 CircleF
6014 3826 CircleF
6134 3918 CircleF
2443 859 CircleF
2562 951 CircleF
2974 3671 CircleF
3093 3763 CircleF
1670 1552 CircleF
1790 1644 CircleF
3301 1781 CircleF
3421 1873 CircleF
3599 3532 CircleF
3719 3623 CircleF
3716 4259 CircleF
3835 4351 CircleF
4065 3147 CircleF
4185 3239 CircleF
5798 2679 CircleF
5918 2771 CircleF
5345 1262 CircleF
5464 1354 CircleF
6682 2611 CircleF
6802 2703 CircleF
4958 1956 CircleF
5077 2048 CircleF
1759 3352 CircleF
1879 3444 CircleF
4362 2007 CircleF
4482 2099 CircleF
4970 3999 CircleF
5089 4091 CircleF
1133 1176 CircleF
1253 1268 CircleF
3653 1407 CircleF
3773 1498 CircleF
6618 4410 CircleF
6738 4502 CircleF
5267 389 CircleF
5386 481 CircleF
1081 3065 CircleF
1201 3156 CircleF
3295 2201 CircleF
3415 2293 CircleF
3775 2021 CircleF
3894 2113 CircleF
2480 532 CircleF
2599 624 CircleF
991 1112 CircleF
1111 1203 CircleF
1247 959 CircleF
1367 1051 CircleF
2607 1137 CircleF
2727 1229 CircleF
4595 569 CircleF
4715 660 CircleF
2376 1886 CircleF
2496 1978 CircleF
6316 3278 CircleF
6435 3370 CircleF
1212 662 CircleF
1332 754 CircleF
1930 515 CircleF
2050 606 CircleF
4963 817 CircleF
5082 909 CircleF
4330 2102 CircleF
4450 2194 CircleF
1498 4610 CircleF
1618 4701 CircleF
4878 1374 CircleF
4997 1465 CircleF
1736 2135 CircleF
1855 2227 CircleF
4146 3860 CircleF
4265 3951 CircleF
3295 4050 CircleF
3414 4142 CircleF
3424 1494 CircleF
3544 1586 CircleF
4675 2205 CircleF
4795 2297 CircleF
3314 1172 CircleF
3434 1264 CircleF
6254 3341 CircleF
6373 3433 CircleF
4184 2446 CircleF
4304 2538 CircleF
6127 911 CircleF
6247 1003 CircleF
4091 3081 CircleF
4210 3173 CircleF
4069 1863 CircleF
4188 1954 CircleF
6072 4155 CircleF
6192 4247 CircleF
5258 2870 CircleF
5377 2961 CircleF
2336 3854 CircleF
2456 3945 CircleF
2287 2132 CircleF
2407 2224 CircleF
3603 2141 CircleF
3722 2232 CircleF
3079 4388 CircleF
3199 4480 CircleF
6625 1869 CircleF
6744 1961 CircleF
5344 4513 CircleF
5464 4605 CircleF
6568 3671 CircleF
6688 3763 CircleF
6581 1508 CircleF
6700 1600 CircleF
1296 2407 CircleF
1415 2498 CircleF
2841 2508 CircleF
2961 2600 CircleF
2293 3714 CircleF
2413 3806 CircleF
1626 2948 CircleF
1745 3039 CircleF
5455 824 CircleF
5574 916 CircleF
3988 4590 CircleF
4107 4682 CircleF
2164 4242 CircleF
2284 4333 CircleF
6160 3569 CircleF
6279 3661 CircleF
5347 499 CircleF
5466 591 CircleF
3737 886 CircleF
3857 978 CircleF
5394 1318 CircleF
5514 1409 CircleF
6225 546 CircleF
6345 638 CircleF
1732 1785 CircleF
1852 1877 CircleF
2531 2761 CircleF
2651 2853 CircleF
4972 4632 CircleF
5092 4723 CircleF
4493 1664 CircleF
4613 1756 CircleF
2791 914 CircleF
2910 1005 CircleF
2792 2027 CircleF
2912 2118 CircleF
3294 2712 CircleF
3413 2804 CircleF
5141 988 CircleF
5260 1080 CircleF
1108 1430 CircleF
1228 1522 CircleF
2006 884 CircleF
2125 976 CircleF
4176 1469 CircleF
4295 1561 CircleF
6640 4130 CircleF
6760 4222 CircleF
3282 3075 CircleF
3401 3167 CircleF
4548 3768 CircleF
4667 3860 CircleF
1627 4337 CircleF
1747 4429 CircleF
1040 3365 CircleF
1160 3457 CircleF
3665 1088 CircleF
3785 1180 CircleF
2374 345 CircleF
2494 437 CircleF
3737 2501 CircleF
3857 2592 CircleF
5386 2784 CircleF
5505 2876 CircleF
3921 710 CircleF
4040 801 CircleF
2385 2209 CircleF
2505 2300 CircleF
1849 3845 CircleF
1968 3937 CircleF
2793 1001 CircleF
2912 1093 CircleF
5812 611 CircleF
5932 703 CircleF
6429 2614 CircleF
6548 2705 CircleF
6177 1721 CircleF
6297 1813 CircleF
3047 3099 CircleF
3167 3190 CircleF
1608 1512 CircleF
1727 1604 CircleF
3789 2009 CircleF
3909 2100 CircleF
5070 3801 CircleF
5190 3893 CircleF
2757 2891 CircleF
2877 2983 CircleF
5643 2295 CircleF
5763 2387 CircleF
6469 1845 CircleF
6589 1937 CircleF
6247 710 CircleF
6367 801 CircleF
3937 3947 CircleF
4057 4039 CircleF
3678 1928 CircleF
3798 2020 CircleF
3086 2401 CircleF
3205 2492 CircleF
3468 1648 CircleF
3587 1740 CircleF
1507 1511 CircleF
1627 1603 CircleF
3175 1745 CircleF
3295 1837 CircleF
1476 2564 CircleF
1595 2656 CircleF
2702 2115 CircleF
2822 2206 CircleF
2650 1310 CircleF
2770 1402 CircleF
2157 553 CircleF
2277 645 CircleF
3005 4311 CircleF
3124 4402 CircleF
6392 1253 CircleF
6511 1345 CircleF
4639 3746 CircleF
4759 3838 CircleF
5234 4163 CircleF
5354 4255 CircleF
2248 486 CircleF
2367 578 CircleF
4305 1861 CircleF
4425 1953 CircleF
4746 2806 CircleF
4866 2898 CircleF
4132 1263 CircleF
4252 1354 CircleF
977 2054 CircleF
1096 2146 CircleF
6012 2805 CircleF
6132 2896 CircleF
1440 4367 CircleF
1560 4458 CircleF
6329 515 CircleF
6449 607 CircleF
2024 1581 CircleF
2144 1673 CircleF
3545 3159 CircleF
3664 3251 CircleF
5837 2526 CircleF
5957 2618 CircleF
2741 3505 CircleF
2861 3597 CircleF
5010 917 CircleF
5129 1008 CircleF
2349 4133 CircleF
2468 4225 CircleF
1701 3856 CircleF
1821 3948 CircleF
2487 3923 CircleF
2607 4015 CircleF
1217 1436 CircleF
1336 1528 CircleF
4766 1988 CircleF
4886 2080 CircleF
5065 4244 CircleF
5185 4336 CircleF
4682 4034 CircleF
4801 4126 CircleF
2260 3383 CircleF
2380 3475 CircleF
5859 3075 CircleF
5978 3167 CircleF
4699 954 CircleF
4818 1046 CircleF
2206 1871 CircleF
2325 1962 CircleF
5038 543 CircleF
5157 635 CircleF
4877 1185 CircleF
4997 1277 CircleF
5095 1985 CircleF
5214 2077 CircleF
2115 1607 CircleF
2235 1699 CircleF
2724 3957 CircleF
2844 4048 CircleF
2724 2392 CircleF
2843 2484 CircleF
2818 1719 CircleF
2938 1811 CircleF
4299 2921 CircleF
4419 3013 CircleF
2823 3719 CircleF
2943 3810 CircleF
4253 867 CircleF
4372 958 CircleF
4472 2885 CircleF
4592 2976 CircleF
2031 2291 CircleF
2151 2383 CircleF
3081 3557 CircleF
3200 3649 CircleF
3956 2711 CircleF
4075 2802 CircleF
1661 348 CircleF
1781 440 CircleF
1874 3148 CircleF
1994 3240 CircleF
5993 2047 CircleF
6112 2139 CircleF
4832 682 CircleF
4952 774 CircleF
5274 3240 CircleF
5393 3332 CircleF
2267 3071 CircleF
2387 3162 CircleF
4264 1490 CircleF
4384 1582 CircleF
4755 3118 CircleF
4875 3210 CircleF
3795 865 CircleF
3915 957 CircleF
1871 4345 CircleF
1991 4437 CircleF
5155 3766 CircleF
5275 3858 CircleF
4370 1585 CircleF
4490 1677 CircleF
2383 1762 CircleF
2502 1854 CircleF
6531 695 CircleF
6651 787 CircleF
4650 4441 CircleF
4770 4533 CircleF
3821 4554 CircleF
3941 4646 CircleF
3449 977 CircleF
3569 1069 CircleF
6644 1847 CircleF
6764 1938 CircleF
6541 3826 CircleF
6660 3918 CircleF
4533 3590 CircleF
4653 3682 CircleF
1249 1227 CircleF
1369 1319 CircleF
1667 1558 CircleF
1786 1650 CircleF
1965 305 CircleF
2085 397 CircleF
3974 2135 CircleF
4094 2227 CircleF
6429 308 CircleF
6549 400 CircleF
2355 4017 CircleF
2475 4109 CircleF
6694 640 CircleF
6814 732 CircleF
5887 2986 CircleF
6007 3077 CircleF
3040 2764 CircleF
3159 2856 CircleF
4891 3866 CircleF
5010 3957 CircleF
2761 3140 CircleF
2881 3232 CircleF
2253 3664 CircleF
2372 3756 CircleF
4020 918 CircleF
4139 1010 CircleF
6448 4010 CircleF
6568 4102 CircleF
1433 2120 CircleF
1552 2212 CircleF
1886 2672 CircleF
2005 2764 CircleF
988 3530 CircleF
1108 3622 CircleF
1840 2692 CircleF
1960 2784 CircleF
1361 1550 CircleF
1480 1641 CircleF
3982 1867 CircleF
4102 1959 CircleF
2636 1400 CircleF
2756 1492 CircleF
2231 2102 CircleF
2350 2194 CircleF
6411 3085 CircleF
6530 3176 CircleF
5476 4634 CircleF
5596 4725 CircleF
5040 2482 CircleF
5160 2574 CircleF
5380 2367 CircleF
5500 2459 CircleF
1563 2529 CircleF
1683 2621 CircleF
2969 814 CircleF
3088 906 CircleF
4751 3452 CircleF
4870 3544 CircleF
2434 1834 CircleF
2554 1926 CircleF
6130 3338 CircleF
6250 3430 CircleF
1399 2570 CircleF
1519 2662 CircleF
6435 4395 CircleF
6555 4487 CircleF
2580 3824 CircleF
2699 3915 CircleF
1804 3060 CircleF
1924 3152 CircleF
3865 3321 CircleF
3985 3413 CircleF
2248 2157 CircleF
2368 2249 CircleF
3611 1628 CircleF
3730 1719 CircleF
1093 4202 CircleF
1213 4293 CircleF
4944 3866 CircleF
5063 3958 CircleF
5083 1092 CircleF
5203 1184 CircleF
2746 1705 CircleF
2865 1797 CircleF
6037 3973 CircleF
6157 4065 CircleF
5455 1900 CircleF
5575 1992 CircleF
1346 2549 CircleF
1466 2641 CircleF
6268 1050 CircleF
6388 1142 CircleF
6240 2310 CircleF
6360 2402 CircleF
3656 2656 CircleF
3775 2748 CircleF
1699 3249 CircleF
1819 3341 CircleF
5444 3505 CircleF
5564 3597 CircleF
2267 3850 CircleF
2387 3942 CircleF
6455 3494 CircleF
6575 3586 CircleF
4834 1677 CircleF
4953 1769 CircleF
2352 1021 CircleF
2472 1113 CircleF
6031 1353 CircleF
6151 1445 CircleF
3662 2821 CircleF
3782 2912 CircleF
3588 3299 CircleF
3707 3391 CircleF
1485 2287 CircleF
1605 2379 CircleF
2239 1543 CircleF
2359 1634 CircleF
6577 3893 CircleF
6697 3984 CircleF
2678 2329 CircleF
2797 2421 CircleF
3410 4470 CircleF
3530 4562 CircleF
3264 4276 CircleF
3383 4367 CircleF
5041 1626 CircleF
5161 1717 CircleF
1199 2936 CircleF
1318 3028 CircleF
4568 1652 CircleF
4688 1743 CircleF
2005 2634 CircleF
2125 2725 CircleF
1232 4059 CircleF
1351 4150 CircleF
1890 398 CircleF
2010 490 CircleF
5113 3181 CircleF
5232 3273 CircleF
3159 1541 CircleF
3278 1633 CircleF
2624 2710 CircleF
2744 2802 CircleF
6155 2467 CircleF
6275 2559 CircleF
4128 3588 CircleF
4248 3680 CircleF
5138 1470 CircleF
5257 1562 CircleF
2727 3781 CircleF
2846 3872 CircleF
2734 2942 CircleF
2854 3033 CircleF
6306 682 CircleF
6426 774 CircleF
3225 4220 CircleF
3345 4312 CircleF
2021 2687 CircleF
2140 2779 CircleF
2381 3582 CircleF
2501 3673 CircleF
2711 1223 CircleF
2831 1314 CircleF
4088 2380 CircleF
4207 2472 CircleF
4279 1485 CircleF
4398 1577 CircleF
4425 1634 CircleF
4544 1726 CircleF
4745 4180 CircleF
4865 4271 CircleF
4903 535 CircleF
5023 627 CircleF
2602 4354 CircleF
2722 4446 CircleF
2295 2396 CircleF
2414 2488 CircleF
1405 2376 CircleF
1525 2468 CircleF
5189 4517 CircleF
5308 4608 CircleF
4843 2964 CircleF
4963 3055 CircleF
3114 1870 CircleF
3233 1962 CircleF
5563 2793 CircleF
5683 2885 CircleF
2823 1914 CircleF
2942 2006 CircleF
3425 1115 CircleF
3544 1206 CircleF
3093 896 CircleF
3213 988 CircleF
6005 4562 CircleF
6125 4654 CircleF
2829 3792 CircleF
2949 3884 CircleF
3394 4323 CircleF
3514 4415 CircleF
6483 1193 CircleF
6603 1285 CircleF
4102 2825 CircleF
4222 2917 CircleF
4790 3160 CircleF
4910 3252 CircleF
4731 567 CircleF
4851 659 CircleF
2293 2559 CircleF
2413 2651 CircleF
4250 990 CircleF
4370 1082 CircleF
6031 2098 CircleF
6150 2190 CircleF
4858 3316 CircleF
4978 3408 CircleF
3398 3183 CircleF
3518 3275 CircleF
5059 1070 CircleF
5179 1162 CircleF
1573 1052 CircleF
1693 1144 CircleF
5763 4576 CircleF
5883 4667 CircleF
5331 3798 CircleF
5451 3890 CircleF
1782 1987 CircleF
1902 2079 CircleF
6255 3910 CircleF
6375 4002 CircleF
4918 3278 CircleF
5038 3369 CircleF
1148 672 CircleF
1267 764 CircleF
3287 4113 CircleF
3407 4205 CircleF
5797 2066 CircleF
5916 2158 CircleF
6427 1617 CircleF
6546 1708 CircleF
2138 1661 CircleF
2257 1753 CircleF
3136 2302 CircleF
3255 2393 CircleF
1550 1860 CircleF
1670 1952 CircleF
5421 1383 CircleF
5541 1475 CircleF
2078 1041 CircleF
2197 1133 CircleF
2642 2880 CircleF
2762 2972 CircleF
2592 2636 CircleF
2712 2728 CircleF
5198 2496 CircleF
5317 2588 CircleF
4968 1282 CircleF
5088 1373 CircleF
5427 3023 CircleF
5547 3115 CircleF
4537 1630 CircleF
4657 1722 CircleF
6649 399 CircleF
6768 490 CircleF
6645 2348 CircleF
6765 2440 CircleF
5267 3519 CircleF
5386 3611 CircleF
3941 3756 CircleF
4060 3848 CircleF
2677 2048 CircleF
2797 2140 CircleF
2894 711 CircleF
3013 803 CircleF
3888 1667 CircleF
4007 1759 CircleF
4715 1114 CircleF
4835 1206 CircleF
3628 1833 CircleF
3748 1925 CircleF
6178 1350 CircleF
6298 1442 CircleF
2031 492 CircleF
2150 583 CircleF
1789 2773 CircleF
1908 2865 CircleF
3432 664 CircleF
3552 756 CircleF
3352 1764 CircleF
3471 1856 CircleF
3563 1437 CircleF
3683 1529 CircleF
6069 1170 CircleF
6189 1262 CircleF
4969 4146 CircleF
5088 4238 CircleF
3831 1384 CircleF
3951 1475 CircleF
4852 1609 CircleF
4972 1701 CircleF
2607 3049 CircleF
2727 3141 CircleF
3258 469 CircleF
3378 561 CircleF
5233 3743 CircleF
5353 3835 CircleF
1600 1119 CircleF
1720 1211 CircleF
6111 3404 CircleF
6231 3496 CircleF
5994 1214 CircleF
6113 1306 CircleF
6703 733 CircleF
6823 825 CircleF
3446 3268 CircleF
3566 3360 CircleF
3277 320 CircleF
3396 412 CircleF
5263 3186 CircleF
5382 3278 CircleF
3065 4602 CircleF
3185 4694 CircleF
2661 3400 CircleF
2780 3492 CircleF
1235 569 CircleF
1355 661 CircleF
2337 4615 CircleF
2457 4707 CircleF
2256 2692 CircleF
2376 2784 CircleF
1392 860 CircleF
1512 952 CircleF
6372 1472 CircleF
6492 1563 CircleF
4944 4297 CircleF
5064 4389 CircleF
3639 1485 CircleF
3759 1576 CircleF
2523 478 CircleF
2643 570 CircleF
5266 650 CircleF
5386 741 CircleF
2725 1558 CircleF
2844 1650 CircleF
3643 3915 CircleF
3763 4007 CircleF
5018 2772 CircleF
5138 2864 CircleF
2161 4445 CircleF
2281 4537 CircleF
5787 2885 CircleF
5907 2976 CircleF
3181 4260 CircleF
3301 4352 CircleF
4269 4583 CircleF
4389 4675 CircleF
4598 1928 CircleF
4718 2020 CircleF
1735 1162 CircleF
1855 1254 CircleF
3211 1364 CircleF
3331 1456 CircleF
5813 3912 CircleF
5932 4004 CircleF
4235 4226 CircleF
4355 4317 CircleF
6673 1552 CircleF
6792 1644 CircleF
6437 3157 CircleF
6557 3249 CircleF
2868 4546 CircleF
2987 4638 CircleF
3139 1241 CircleF
3258 1332 CircleF
1954 3779 CircleF
2073 3871 CircleF
1580 2971 CircleF
1699 3063 CircleF
3188 2655 CircleF
3308 2747 CircleF
2484 4102 CircleF
2604 4193 CircleF
1470 1473 CircleF
1589 1565 CircleF
6298 4041 CircleF
6418 4133 CircleF
2030 2231 CircleF
2150 2323 CircleF
4504 3732 CircleF
4623 3824 CircleF
1266 1473 CircleF
1386 1565 CircleF
3579 3651 CircleF
3699 3743 CircleF
1072 2222 CircleF
1192 2313 CircleF
6341 284 CircleF
6461 376 CircleF
3703 2591 CircleF
3823 2683 CircleF
4343 1898 CircleF
4463 1990 CircleF
1396 2901 CircleF
1515 2993 CircleF
6047 772 CircleF
6167 864 CircleF
4526 2154 CircleF
4646 2245 CircleF
4878 2772 CircleF
4997 2863 CircleF
3037 741 CircleF
3156 833 CircleF
4662 4107 CircleF
4781 4199 CircleF
5682 2808 CircleF
5802 2900 CircleF
5646 980 CircleF
5766 1072 CircleF
5267 3700 CircleF
5386 3792 CircleF
3002 1284 CircleF
3121 1376 CircleF
1704 2460 CircleF
1824 2552 CircleF
2742 1056 CircleF
2862 1148 CircleF
6170 4597 CircleF
6290 4689 CircleF
4756 1788 CircleF
4876 1880 CircleF
3483 2847 CircleF
3603 2939 CircleF
3725 383 CircleF
3844 475 CircleF
1947 4355 CircleF
2066 4447 CircleF
4263 1447 CircleF
4382 1539 CircleF
3750 3469 CircleF
3870 3560 CircleF
2951 3110 CircleF
3071 3201 CircleF
1568 1739 CircleF
1687 1830 CircleF
2796 1169 CircleF
2916 1261 CircleF
1423 3391 CircleF
1542 3482 CircleF
1839 1406 CircleF
1958 1498 CircleF
5221 3386 CircleF
5340 3477 CircleF
4236 2617 CircleF
4355 2709 CircleF
2605 3191 CircleF
2724 3283 CircleF
3326 3428 CircleF
3446 3519 CircleF
5956 3095 CircleF
6076 3186 CircleF
2403 815 CircleF
2522 906 CircleF
3840 4632 CircleF
3959 4724 CircleF
5246 2256 CircleF
5366 2348 CircleF
6213 4470 CircleF
6333 4562 CircleF
3465 3099 CircleF
3584 3191 CircleF
5534 2267 CircleF
5653 2359 CircleF
1978 3983 CircleF
2098 4075 CircleF
5508 4235 CircleF
5627 4326 CircleF
4053 1278 CircleF
4173 1370 CircleF
2818 1257 CircleF
2938 1348 CircleF
6587 777 CircleF
6706 869 CircleF
4614 4581 CircleF
4733 4673 CircleF
2729 550 CircleF
2849 642 CircleF
2240 2789 CircleF
2360 2881 CircleF
5535 4630 CircleF
5654 4722 CircleF
5478 1508 CircleF
5597 1599 CircleF
1644 1678 CircleF
1764 1770 CircleF
4272 1675 CircleF
4392 1767 CircleF
3879 1592 CircleF
3998 1684 CircleF
5674 1435 CircleF
5794 1526 CircleF
4567 1523 CircleF
4686 1615 CircleF
4451 3034 CircleF
4570 3126 CircleF
5260 2722 CircleF
5379 2814 CircleF
3487 849 CircleF
3607 941 CircleF
3342 780 CircleF
3462 872 CircleF
6341 3507 CircleF
6461 3599 CircleF
1566 3693 CircleF
1686 3785 CircleF
6359 599 CircleF
6479 690 CircleF
2018 1821 CircleF
2138 1912 CircleF
4678 1202 CircleF
4797 1294 CircleF
3578 686 CircleF
3697 778 CircleF
6181 1626 CircleF
6301 1718 CircleF
5040 2276 CircleF
5159 2368 CircleF
5389 3473 CircleF
5509 3565 CircleF
1681 1008 CircleF
1800 1100 CircleF
3378 1220 CircleF
3498 1312 CircleF
3364 2817 CircleF
3484 2909 CircleF
3721 1910 CircleF
3840 2001 CircleF
2687 2528 CircleF
2806 2620 CircleF
2053 1708 CircleF
2173 1800 CircleF
5290 2648 CircleF
5410 2740 CircleF
6251 2153 CircleF
6371 2245 CircleF
3421 2931 CircleF
3541 3023 CircleF
1139 2509 CircleF
1258 2601 CircleF
4720 2377 CircleF
4840 2469 CircleF
1476 651 CircleF
1596 743 CircleF
1072 3215 CircleF
1192 3307 CircleF
3310 1314 CircleF
3430 1406 CircleF
5148 349 CircleF
5268 441 CircleF
4316 3257 CircleF
4436 3349 CircleF
3771 2241 CircleF
3890 2332 CircleF
3565 2144 CircleF
3685 2236 CircleF
3758 3391 CircleF
3878 3482 CircleF
4809 3548 CircleF
4928 3640 CircleF
3800 1369 CircleF
3919 1461 CircleF
3382 3320 CircleF
3501 3412 CircleF
3718 4366 CircleF
3838 4458 CircleF
1254 4630 CircleF
1374 4722 CircleF
4951 4678 CircleF
5070 4770 CircleF
4674 3120 CircleF
4793 3212 CircleF
6018 369 CircleF
6138 461 CircleF
6186 2963 CircleF
6306 3055 CircleF
1366 4633 CircleF
1486 4725 CircleF
1341 832 CircleF
1460 923 CircleF
4056 1456 CircleF
4176 1548 CircleF
6192 3891 CircleF
6311 3983 CircleF
2187 4105 CircleF
2306 4197 CircleF
5935 1991 CircleF
6054 2083 CircleF
6209 1700 CircleF
6329 1791 CircleF
2995 2072 CircleF
3115 2164 CircleF
4597 3949 CircleF
4717 4040 CircleF
6104 940 CircleF
6224 1032 CircleF
1276 3583 CircleF
1395 3675 CircleF
6381 1691 CircleF
6501 1783 CircleF
4680 3735 CircleF
4800 3827 CircleF
1824 4275 CircleF
1943 4367 CircleF
1443 3857 CircleF
1563 3948 CircleF
2178 2789 CircleF
2298 2881 CircleF
6071 3855 CircleF
6191 3947 CircleF
2255 2388 CircleF
2375 2480 CircleF
3403 843 CircleF
3523 935 CircleF
3163 1686 CircleF
3282 1778 CircleF
4784 2044 CircleF
4904 2136 CircleF
4422 863 CircleF
4541 955 CircleF
1054 907 CircleF
1173 999 CircleF
1229 1623 CircleF
1348 1714 CircleF
4490 2421 CircleF
4610 2513 CircleF
2050 1863 CircleF
2170 1954 CircleF
1146 2718 CircleF
1266 2810 CircleF
3810 301 CircleF
3929 393 CircleF
1136 1858 CircleF
1255 1949 CircleF
2022 1040 CircleF
2142 1132 CircleF
1239 4545 CircleF
1359 4636 CircleF
4972 1947 CircleF
5092 2038 CircleF
4805 4306 CircleF
4924 4398 CircleF
2104 626 CircleF
2223 718 CircleF
4866 2514 CircleF
4986 2606 CircleF
5208 2919 CircleF
5327 3011 CircleF
2475 3721 CircleF
2595 3813 CircleF
3438 3756 CircleF
3558 3848 CircleF
5861 2882 CircleF
5981 2974 CircleF
3616 2670 CircleF
3736 2762 CircleF
978 876 CircleF
1098 968 CircleF
4813 2028 CircleF
4932 2120 CircleF
2432 2372 CircleF
2552 2464 CircleF
2476 4044 CircleF
2595 4136 CircleF
3367 2100 CircleF
3487 2192 CircleF
5521 3652 CircleF
5640 3744 CircleF
1087 2432 CircleF
1206 2524 CircleF
4684 4579 CircleF
4804 4671 CircleF
3829 3522 CircleF
3949 3614 CircleF
5020 3660 CircleF
5139 3751 CircleF
6300 3485 CircleF
6420 3577 CircleF
1124 725 CircleF
1244 817 CircleF
3259 1394 CircleF
3378 1486 CircleF
4962 3960 CircleF
5082 4052 CircleF
4807 3844 CircleF
4926 3936 CircleF
4828 2591 CircleF
4947 2682 CircleF
2618 1869 CircleF
2738 1961 CircleF
6207 1263 CircleF
6327 1355 CircleF
1463 4399 CircleF
1583 4491 CircleF
1215 4057 CircleF
1334 4149 CircleF
2229 1723 CircleF
2349 1814 CircleF
3601 3540 CircleF
3721 3632 CircleF
5008 2637 CircleF
5128 2729 CircleF
6636 1693 CircleF
6756 1785 CircleF
1760 1637 CircleF
1879 1728 CircleF
2414 3663 CircleF
2533 3755 CircleF
1094 880 CircleF
1214 972 CircleF
5561 2082 CircleF
5681 2174 CircleF
6343 2790 CircleF
6463 2882 CircleF
2083 792 CircleF
2203 884 CircleF
2764 1037 CircleF
2884 1128 CircleF
2525 2561 CircleF
2645 2652 CircleF
3681 365 CircleF
3800 457 CircleF
5819 3748 CircleF
5938 3839 CircleF
6695 2167 CircleF
6814 2258 CircleF
1021 4170 CircleF
1141 4262 CircleF
2422 4315 CircleF
2541 4407 CircleF
6539 2028 CircleF
6659 2120 CircleF
1194 2383 CircleF
1314 2475 CircleF
4300 2855 CircleF
4420 2946 CircleF
1816 4107 CircleF
1936 4199 CircleF
4796 1881 CircleF
4915 1973 CircleF
5133 3648 CircleF
5253 3740 CircleF
5455 2638 CircleF
5574 2730 CircleF
4253 1335 CircleF
4372 1427 CircleF
5470 4673 CircleF
5590 4765 CircleF
1496 3076 CircleF
1616 3168 CircleF
4084 2618 CircleF
4203 2710 CircleF
2363 4589 CircleF
2482 4681 CircleF
5562 1951 CircleF
5682 2043 CircleF
6277 2016 CircleF
6396 2108 CircleF
6408 2056 CircleF
6528 2148 CircleF
1479 4063 CircleF
1599 4155 CircleF
4776 4268 CircleF
4896 4360 CircleF
2368 1337 CircleF
2488 1429 CircleF
2409 3259 CircleF
2529 3351 CircleF
3233 2316 CircleF
3352 2408 CircleF
3194 1576 CircleF
3313 1667 CircleF
4042 1566 CircleF
4161 1658 CircleF
6541 2986 CircleF
6660 3078 CircleF
1827 3537 CircleF
1947 3629 CircleF
1448 1168 CircleF
1568 1260 CircleF
4354 2772 CircleF
4473 2864 CircleF
1555 2135 CircleF
1675 2227 CircleF
1041 2974 CircleF
1161 3066 CircleF
1455 3261 CircleF
1574 3352 CircleF
2532 3997 CircleF
2652 4089 CircleF
4866 4289 CircleF
4985 4381 CircleF
3122 4287 CircleF
3241 4379 CircleF
3752 766 CircleF
3872 857 CircleF
1086 4143 CircleF
1205 4234 CircleF
3620 723 CircleF
3740 815 CircleF
3267 522 CircleF
3386 613 CircleF
6647 4231 CircleF
6767 4322 CircleF
1879 4215 CircleF
1999 4307 CircleF
3896 3089 CircleF
4015 3180 CircleF
2168 300 CircleF
2288 392 CircleF
2043 2298 CircleF
2163 2389 CircleF
4017 3906 CircleF
4136 3998 CircleF
4473 4260 CircleF
4592 4352 CircleF
3812 3315 CircleF
3932 3407 CircleF
1327 1033 CircleF
1447 1125 CircleF
1128 2842 CircleF
1248 2934 CircleF
5507 535 CircleF
5627 627 CircleF
3390 3691 CircleF
3509 3783 CircleF
1139 3547 CircleF
1259 3638 CircleF
4914 4398 CircleF
5034 4490 CircleF
6637 4096 CircleF
6757 4188 CircleF
5718 1457 CircleF
5837 1549 CircleF
4845 3798 CircleF
4964 3890 CircleF
1570 2828 CircleF
1689 2920 CircleF
1949 332 CircleF
2068 424 CircleF
5371 3966 CircleF
5491 4058 CircleF
2365 646 CircleF
2485 738 CircleF
2092 2851 CircleF
2211 2943 CircleF
5261 2839 CircleF
5381 2931 CircleF
3234 1259 CircleF
3353 1351 CircleF
1596 3806 CircleF
1716 3898 CircleF
5073 1988 CircleF
5192 2079 CircleF
3611 1282 CircleF
3731 1373 CircleF
4092 1918 CircleF
4212 2010 CircleF
1406 4219 CircleF
1526 4311 CircleF
3318 1653 CircleF
3437 1745 CircleF
2111 460 CircleF
2231 552 CircleF
3804 895 CircleF
3923 987 CircleF
6159 4200 CircleF
6278 4292 CircleF
4731 1138 CircleF
4850 1230 CircleF
6039 3125 CircleF
6159 3217 CircleF
2794 2864 CircleF
2914 2956 CircleF
4452 1041 CircleF
4572 1133 CircleF
1657 4518 CircleF
1777 4610 CircleF
2308 781 CircleF
2428 873 CircleF
5989 4424 CircleF
6108 4516 CircleF
4885 1715 CircleF
5004 1807 CircleF
2439 1656 CircleF
2559 1748 CircleF
6495 4284 CircleF
6615 4376 CircleF
3544 4673 CircleF
3664 4765 CircleF
3400 3395 CircleF
3519 3487 CircleF
5215 2082 CircleF
5335 2174 CircleF
5537 1637 CircleF
5657 1729 CircleF
4741 3662 CircleF
4861 3754 CircleF
4411 4333 CircleF
4531 4425 CircleF
3718 2042 CircleF
3838 2134 CircleF
4483 1900 CircleF
4602 1992 CircleF
2987 2637 CircleF
3106 2728 CircleF
5578 1790 CircleF
5698 1882 CircleF
% End plot #2
1.000 UP
1.000 UL
LT0
0.50 0.50 0.50 C stroke
grestore
end
showpage
%%Trailer
%%DocumentFonts: Helvetica
%%Pages: 1
