%!PS-Adobe-2.0
%%Title: out.ps
%%Creator: gnuplot 4.6 patchlevel 6
%%CreationDate: Thu May 28 16:23:47 2015
%%DocumentFonts: (atend)
%%BoundingBox: 50 50 554 770
%%Orientation: Landscape
%%Pages: (atend)
%%EndComments
%%BeginProlog
/gnudict 256 dict def
gnudict begin
%
% The following true/false flags may be edited by hand if desired.
% The unit line width and grayscale image gamma correction may also be changed.
%
/Color false def
/Blacktext false def
/Solid false def
/Dashlength 1 def
/Landscape true def
/Level1 false def
/Rounded false def
/ClipToBoundingBox false def
/SuppressPDFMark false def
/TransparentPatterns false def
/gnulinewidth 5.000 def
/userlinewidth gnulinewidth def
/Gamma 1.0 def
/BackgroundColor {-1.000 -1.000 -1.000} def
%
/vshift -46 def
/dl1 {
  10.0 Dashlength mul mul
  Rounded { currentlinewidth 0.75 mul sub dup 0 le { pop 0.01 } if } if
} def
/dl2 {
  10.0 Dashlength mul mul
  Rounded { currentlinewidth 0.75 mul add } if
} def
/hpt_ 31.5 def
/vpt_ 31.5 def
/hpt hpt_ def
/vpt vpt_ def
/doclip {
  ClipToBoundingBox {
    newpath 50 50 moveto 554 50 lineto 554 770 lineto 50 770 lineto closepath
    clip
  } if
} def
%
% Gnuplot Prolog Version 4.6 (September 2012)
%
%/SuppressPDFMark true def
%
/M {moveto} bind def
/L {lineto} bind def
/R {rmoveto} bind def
/V {rlineto} bind def
/N {newpath moveto} bind def
/Z {closepath} bind def
/C {setrgbcolor} bind def
/f {rlineto fill} bind def
/g {setgray} bind def
/Gshow {show} def   % May be redefined later in the file to support UTF-8
/vpt2 vpt 2 mul def
/hpt2 hpt 2 mul def
/Lshow {currentpoint stroke M 0 vshift R 
	Blacktext {gsave 0 setgray show grestore} {show} ifelse} def
/Rshow {currentpoint stroke M dup stringwidth pop neg vshift R
	Blacktext {gsave 0 setgray show grestore} {show} ifelse} def
/Cshow {currentpoint stroke M dup stringwidth pop -2 div vshift R 
	Blacktext {gsave 0 setgray show grestore} {show} ifelse} def
/UP {dup vpt_ mul /vpt exch def hpt_ mul /hpt exch def
  /hpt2 hpt 2 mul def /vpt2 vpt 2 mul def} def
/DL {Color {setrgbcolor Solid {pop []} if 0 setdash}
 {pop pop pop 0 setgray Solid {pop []} if 0 setdash} ifelse} def
/BL {stroke userlinewidth 2 mul setlinewidth
	Rounded {1 setlinejoin 1 setlinecap} if} def
/AL {stroke userlinewidth 2 div setlinewidth
	Rounded {1 setlinejoin 1 setlinecap} if} def
/UL {dup gnulinewidth mul /userlinewidth exch def
	dup 1 lt {pop 1} if 10 mul /udl exch def} def
/PL {stroke userlinewidth setlinewidth
	Rounded {1 setlinejoin 1 setlinecap} if} def
3.8 setmiterlimit
% Default Line colors
/LCw {1 1 1} def
/LCb {0 0 0} def
/LCa {0 0 0} def
/LC0 {1 0 0} def
/LC1 {0 1 0} def
/LC2 {0 0 1} def
/LC3 {1 0 1} def
/LC4 {0 1 1} def
/LC5 {1 1 0} def
/LC6 {0 0 0} def
/LC7 {1 0.3 0} def
/LC8 {0.5 0.5 0.5} def
% Default Line Types
/LTw {PL [] 1 setgray} def
/LTb {BL [] LCb DL} def
/LTa {AL [1 udl mul 2 udl mul] 0 setdash LCa setrgbcolor} def
/LT0 {PL [] LC0 DL} def
/LT1 {PL [4 dl1 2 dl2] LC1 DL} def
/LT2 {PL [2 dl1 3 dl2] LC2 DL} def
/LT3 {PL [1 dl1 1.5 dl2] LC3 DL} def
/LT4 {PL [6 dl1 2 dl2 1 dl1 2 dl2] LC4 DL} def
/LT5 {PL [3 dl1 3 dl2 1 dl1 3 dl2] LC5 DL} def
/LT6 {PL [2 dl1 2 dl2 2 dl1 6 dl2] LC6 DL} def
/LT7 {PL [1 dl1 2 dl2 6 dl1 2 dl2 1 dl1 2 dl2] LC7 DL} def
/LT8 {PL [2 dl1 2 dl2 2 dl1 2 dl2 2 dl1 2 dl2 2 dl1 4 dl2] LC8 DL} def
/Pnt {stroke [] 0 setdash gsave 1 setlinecap M 0 0 V stroke grestore} def
/Dia {stroke [] 0 setdash 2 copy vpt add M
  hpt neg vpt neg V hpt vpt neg V
  hpt vpt V hpt neg vpt V closepath stroke
  Pnt} def
/Pls {stroke [] 0 setdash vpt sub M 0 vpt2 V
  currentpoint stroke M
  hpt neg vpt neg R hpt2 0 V stroke
 } def
/Box {stroke [] 0 setdash 2 copy exch hpt sub exch vpt add M
  0 vpt2 neg V hpt2 0 V 0 vpt2 V
  hpt2 neg 0 V closepath stroke
  Pnt} def
/Crs {stroke [] 0 setdash exch hpt sub exch vpt add M
  hpt2 vpt2 neg V currentpoint stroke M
  hpt2 neg 0 R hpt2 vpt2 V stroke} def
/TriU {stroke [] 0 setdash 2 copy vpt 1.12 mul add M
  hpt neg vpt -1.62 mul V
  hpt 2 mul 0 V
  hpt neg vpt 1.62 mul V closepath stroke
  Pnt} def
/Star {2 copy Pls Crs} def
/BoxF {stroke [] 0 setdash exch hpt sub exch vpt add M
  0 vpt2 neg V hpt2 0 V 0 vpt2 V
  hpt2 neg 0 V closepath fill} def
/TriUF {stroke [] 0 setdash vpt 1.12 mul add M
  hpt neg vpt -1.62 mul V
  hpt 2 mul 0 V
  hpt neg vpt 1.62 mul V closepath fill} def
/TriD {stroke [] 0 setdash 2 copy vpt 1.12 mul sub M
  hpt neg vpt 1.62 mul V
  hpt 2 mul 0 V
  hpt neg vpt -1.62 mul V closepath stroke
  Pnt} def
/TriDF {stroke [] 0 setdash vpt 1.12 mul sub M
  hpt neg vpt 1.62 mul V
  hpt 2 mul 0 V
  hpt neg vpt -1.62 mul V closepath fill} def
/DiaF {stroke [] 0 setdash vpt add M
  hpt neg vpt neg V hpt vpt neg V
  hpt vpt V hpt neg vpt V closepath fill} def
/Pent {stroke [] 0 setdash 2 copy gsave
  translate 0 hpt M 4 {72 rotate 0 hpt L} repeat
  closepath stroke grestore Pnt} def
/PentF {stroke [] 0 setdash gsave
  translate 0 hpt M 4 {72 rotate 0 hpt L} repeat
  closepath fill grestore} def
/Circle {stroke [] 0 setdash 2 copy
  hpt 0 360 arc stroke Pnt} def
/CircleF {stroke [] 0 setdash hpt 0 360 arc fill} def
/C0 {BL [] 0 setdash 2 copy moveto vpt 90 450 arc} bind def
/C1 {BL [] 0 setdash 2 copy moveto
	2 copy vpt 0 90 arc closepath fill
	vpt 0 360 arc closepath} bind def
/C2 {BL [] 0 setdash 2 copy moveto
	2 copy vpt 90 180 arc closepath fill
	vpt 0 360 arc closepath} bind def
/C3 {BL [] 0 setdash 2 copy moveto
	2 copy vpt 0 180 arc closepath fill
	vpt 0 360 arc closepath} bind def
/C4 {BL [] 0 setdash 2 copy moveto
	2 copy vpt 180 270 arc closepath fill
	vpt 0 360 arc closepath} bind def
/C5 {BL [] 0 setdash 2 copy moveto
	2 copy vpt 0 90 arc
	2 copy moveto
	2 copy vpt 180 270 arc closepath fill
	vpt 0 360 arc} bind def
/C6 {BL [] 0 setdash 2 copy moveto
	2 copy vpt 90 270 arc closepath fill
	vpt 0 360 arc closepath} bind def
/C7 {BL [] 0 setdash 2 copy moveto
	2 copy vpt 0 270 arc closepath fill
	vpt 0 360 arc closepath} bind def
/C8 {BL [] 0 setdash 2 copy moveto
	2 copy vpt 270 360 arc closepath fill
	vpt 0 360 arc closepath} bind def
/C9 {BL [] 0 setdash 2 copy moveto
	2 copy vpt 270 450 arc closepath fill
	vpt 0 360 arc closepath} bind def
/C10 {BL [] 0 setdash 2 copy 2 copy moveto vpt 270 360 arc closepath fill
	2 copy moveto
	2 copy vpt 90 180 arc closepath fill
	vpt 0 360 arc closepath} bind def
/C11 {BL [] 0 setdash 2 copy moveto
	2 copy vpt 0 180 arc closepath fill
	2 copy moveto
	2 copy vpt 270 360 arc closepath fill
	vpt 0 360 arc closepath} bind def
/C12 {BL [] 0 setdash 2 copy moveto
	2 copy vpt 180 360 arc closepath fill
	vpt 0 360 arc closepath} bind def
/C13 {BL [] 0 setdash 2 copy moveto
	2 copy vpt 0 90 arc closepath fill
	2 copy moveto
	2 copy vpt 180 360 arc closepath fill
	vpt 0 360 arc closepath} bind def
/C14 {BL [] 0 setdash 2 copy moveto
	2 copy vpt 90 360 arc closepath fill
	vpt 0 360 arc} bind def
/C15 {BL [] 0 setdash 2 copy vpt 0 360 arc closepath fill
	vpt 0 360 arc closepath} bind def
/Rec {newpath 4 2 roll moveto 1 index 0 rlineto 0 exch rlineto
	neg 0 rlineto closepath} bind def
/Square {dup Rec} bind def
/Bsquare {vpt sub exch vpt sub exch vpt2 Square} bind def
/S0 {BL [] 0 setdash 2 copy moveto 0 vpt rlineto BL Bsquare} bind def
/S1 {BL [] 0 setdash 2 copy vpt Square fill Bsquare} bind def
/S2 {BL [] 0 setdash 2 copy exch vpt sub exch vpt Square fill Bsquare} bind def
/S3 {BL [] 0 setdash 2 copy exch vpt sub exch vpt2 vpt Rec fill Bsquare} bind def
/S4 {BL [] 0 setdash 2 copy exch vpt sub exch vpt sub vpt Square fill Bsquare} bind def
/S5 {BL [] 0 setdash 2 copy 2 copy vpt Square fill
	exch vpt sub exch vpt sub vpt Square fill Bsquare} bind def
/S6 {BL [] 0 setdash 2 copy exch vpt sub exch vpt sub vpt vpt2 Rec fill Bsquare} bind def
/S7 {BL [] 0 setdash 2 copy exch vpt sub exch vpt sub vpt vpt2 Rec fill
	2 copy vpt Square fill Bsquare} bind def
/S8 {BL [] 0 setdash 2 copy vpt sub vpt Square fill Bsquare} bind def
/S9 {BL [] 0 setdash 2 copy vpt sub vpt vpt2 Rec fill Bsquare} bind def
/S10 {BL [] 0 setdash 2 copy vpt sub vpt Square fill 2 copy exch vpt sub exch vpt Square fill
	Bsquare} bind def
/S11 {BL [] 0 setdash 2 copy vpt sub vpt Square fill 2 copy exch vpt sub exch vpt2 vpt Rec fill
	Bsquare} bind def
/S12 {BL [] 0 setdash 2 copy exch vpt sub exch vpt sub vpt2 vpt Rec fill Bsquare} bind def
/S13 {BL [] 0 setdash 2 copy exch vpt sub exch vpt sub vpt2 vpt Rec fill
	2 copy vpt Square fill Bsquare} bind def
/S14 {BL [] 0 setdash 2 copy exch vpt sub exch vpt sub vpt2 vpt Rec fill
	2 copy exch vpt sub exch vpt Square fill Bsquare} bind def
/S15 {BL [] 0 setdash 2 copy Bsquare fill Bsquare} bind def
/D0 {gsave translate 45 rotate 0 0 S0 stroke grestore} bind def
/D1 {gsave translate 45 rotate 0 0 S1 stroke grestore} bind def
/D2 {gsave translate 45 rotate 0 0 S2 stroke grestore} bind def
/D3 {gsave translate 45 rotate 0 0 S3 stroke grestore} bind def
/D4 {gsave translate 45 rotate 0 0 S4 stroke grestore} bind def
/D5 {gsave translate 45 rotate 0 0 S5 stroke grestore} bind def
/D6 {gsave translate 45 rotate 0 0 S6 stroke grestore} bind def
/D7 {gsave translate 45 rotate 0 0 S7 stroke grestore} bind def
/D8 {gsave translate 45 rotate 0 0 S8 stroke grestore} bind def
/D9 {gsave translate 45 rotate 0 0 S9 stroke grestore} bind def
/D10 {gsave translate 45 rotate 0 0 S10 stroke grestore} bind def
/D11 {gsave translate 45 rotate 0 0 S11 stroke grestore} bind def
/D12 {gsave translate 45 rotate 0 0 S12 stroke grestore} bind def
/D13 {gsave translate 45 rotate 0 0 S13 stroke grestore} bind def
/D14 {gsave translate 45 rotate 0 0 S14 stroke grestore} bind def
/D15 {gsave translate 45 rotate 0 0 S15 stroke grestore} bind def
/DiaE {stroke [] 0 setdash vpt add M
  hpt neg vpt neg V hpt vpt neg V
  hpt vpt V hpt neg vpt V closepath stroke} def
/BoxE {stroke [] 0 setdash exch hpt sub exch vpt add M
  0 vpt2 neg V hpt2 0 V 0 vpt2 V
  hpt2 neg 0 V closepath stroke} def
/TriUE {stroke [] 0 setdash vpt 1.12 mul add M
  hpt neg vpt -1.62 mul V
  hpt 2 mul 0 V
  hpt neg vpt 1.62 mul V closepath stroke} def
/TriDE {stroke [] 0 setdash vpt 1.12 mul sub M
  hpt neg vpt 1.62 mul V
  hpt 2 mul 0 V
  hpt neg vpt -1.62 mul V closepath stroke} def
/PentE {stroke [] 0 setdash gsave
  translate 0 hpt M 4 {72 rotate 0 hpt L} repeat
  closepath stroke grestore} def
/CircE {stroke [] 0 setdash 
  hpt 0 360 arc stroke} def
/Opaque {gsave closepath 1 setgray fill grestore 0 setgray closepath} def
/DiaW {stroke [] 0 setdash vpt add M
  hpt neg vpt neg V hpt vpt neg V
  hpt vpt V hpt neg vpt V Opaque stroke} def
/BoxW {stroke [] 0 setdash exch hpt sub exch vpt add M
  0 vpt2 neg V hpt2 0 V 0 vpt2 V
  hpt2 neg 0 V Opaque stroke} def
/TriUW {stroke [] 0 setdash vpt 1.12 mul add M
  hpt neg vpt -1.62 mul V
  hpt 2 mul 0 V
  hpt neg vpt 1.62 mul V Opaque stroke} def
/TriDW {stroke [] 0 setdash vpt 1.12 mul sub M
  hpt neg vpt 1.62 mul V
  hpt 2 mul 0 V
  hpt neg vpt -1.62 mul V Opaque stroke} def
/PentW {stroke [] 0 setdash gsave
  translate 0 hpt M 4 {72 rotate 0 hpt L} repeat
  Opaque stroke grestore} def
/CircW {stroke [] 0 setdash 
  hpt 0 360 arc Opaque stroke} def
/BoxFill {gsave Rec 1 setgray fill grestore} def
/Density {
  /Fillden exch def
  currentrgbcolor
  /ColB exch def /ColG exch def /ColR exch def
  /ColR ColR Fillden mul Fillden sub 1 add def
  /ColG ColG Fillden mul Fillden sub 1 add def
  /ColB ColB Fillden mul Fillden sub 1 add def
  ColR ColG ColB setrgbcolor} def
/BoxColFill {gsave Rec PolyFill} def
/PolyFill {gsave Density fill grestore grestore} def
/h {rlineto rlineto rlineto gsave closepath fill grestore} bind def
%
% PostScript Level 1 Pattern Fill routine for rectangles
% Usage: x y w h s a XX PatternFill
%	x,y = lower left corner of box to be filled
%	w,h = width and height of box
%	  a = angle in degrees between lines and x-axis
%	 XX = 0/1 for no/yes cross-hatch
%
/PatternFill {gsave /PFa [ 9 2 roll ] def
  PFa 0 get PFa 2 get 2 div add PFa 1 get PFa 3 get 2 div add translate
  PFa 2 get -2 div PFa 3 get -2 div PFa 2 get PFa 3 get Rec
  TransparentPatterns {} {gsave 1 setgray fill grestore} ifelse
  clip
  currentlinewidth 0.5 mul setlinewidth
  /PFs PFa 2 get dup mul PFa 3 get dup mul add sqrt def
  0 0 M PFa 5 get rotate PFs -2 div dup translate
  0 1 PFs PFa 4 get div 1 add floor cvi
	{PFa 4 get mul 0 M 0 PFs V} for
  0 PFa 6 get ne {
	0 1 PFs PFa 4 get div 1 add floor cvi
	{PFa 4 get mul 0 2 1 roll M PFs 0 V} for
 } if
  stroke grestore} def
%
/languagelevel where
 {pop languagelevel} {1} ifelse
 2 lt
	{/InterpretLevel1 true def}
	{/InterpretLevel1 Level1 def}
 ifelse
%
% PostScript level 2 pattern fill definitions
%
/Level2PatternFill {
/Tile8x8 {/PaintType 2 /PatternType 1 /TilingType 1 /BBox [0 0 8 8] /XStep 8 /YStep 8}
	bind def
/KeepColor {currentrgbcolor [/Pattern /DeviceRGB] setcolorspace} bind def
<< Tile8x8
 /PaintProc {0.5 setlinewidth pop 0 0 M 8 8 L 0 8 M 8 0 L stroke} 
>> matrix makepattern
/Pat1 exch def
<< Tile8x8
 /PaintProc {0.5 setlinewidth pop 0 0 M 8 8 L 0 8 M 8 0 L stroke
	0 4 M 4 8 L 8 4 L 4 0 L 0 4 L stroke}
>> matrix makepattern
/Pat2 exch def
<< Tile8x8
 /PaintProc {0.5 setlinewidth pop 0 0 M 0 8 L
	8 8 L 8 0 L 0 0 L fill}
>> matrix makepattern
/Pat3 exch def
<< Tile8x8
 /PaintProc {0.5 setlinewidth pop -4 8 M 8 -4 L
	0 12 M 12 0 L stroke}
>> matrix makepattern
/Pat4 exch def
<< Tile8x8
 /PaintProc {0.5 setlinewidth pop -4 0 M 8 12 L
	0 -4 M 12 8 L stroke}
>> matrix makepattern
/Pat5 exch def
<< Tile8x8
 /PaintProc {0.5 setlinewidth pop -2 8 M 4 -4 L
	0 12 M 8 -4 L 4 12 M 10 0 L stroke}
>> matrix makepattern
/Pat6 exch def
<< Tile8x8
 /PaintProc {0.5 setlinewidth pop -2 0 M 4 12 L
	0 -4 M 8 12 L 4 -4 M 10 8 L stroke}
>> matrix makepattern
/Pat7 exch def
<< Tile8x8
 /PaintProc {0.5 setlinewidth pop 8 -2 M -4 4 L
	12 0 M -4 8 L 12 4 M 0 10 L stroke}
>> matrix makepattern
/Pat8 exch def
<< Tile8x8
 /PaintProc {0.5 setlinewidth pop 0 -2 M 12 4 L
	-4 0 M 12 8 L -4 4 M 8 10 L stroke}
>> matrix makepattern
/Pat9 exch def
/Pattern1 {PatternBgnd KeepColor Pat1 setpattern} bind def
/Pattern2 {PatternBgnd KeepColor Pat2 setpattern} bind def
/Pattern3 {PatternBgnd KeepColor Pat3 setpattern} bind def
/Pattern4 {PatternBgnd KeepColor Landscape {Pat5} {Pat4} ifelse setpattern} bind def
/Pattern5 {PatternBgnd KeepColor Landscape {Pat4} {Pat5} ifelse setpattern} bind def
/Pattern6 {PatternBgnd KeepColor Landscape {Pat9} {Pat6} ifelse setpattern} bind def
/Pattern7 {PatternBgnd KeepColor Landscape {Pat8} {Pat7} ifelse setpattern} bind def
} def
%
%
%End of PostScript Level 2 code
%
/PatternBgnd {
  TransparentPatterns {} {gsave 1 setgray fill grestore} ifelse
} def
%
% Substitute for Level 2 pattern fill codes with
% grayscale if Level 2 support is not selected.
%
/Level1PatternFill {
/Pattern1 {0.250 Density} bind def
/Pattern2 {0.500 Density} bind def
/Pattern3 {0.750 Density} bind def
/Pattern4 {0.125 Density} bind def
/Pattern5 {0.375 Density} bind def
/Pattern6 {0.625 Density} bind def
/Pattern7 {0.875 Density} bind def
} def
%
% Now test for support of Level 2 code
%
Level1 {Level1PatternFill} {Level2PatternFill} ifelse
%
/Symbol-Oblique /Symbol findfont [1 0 .167 1 0 0] makefont
dup length dict begin {1 index /FID eq {pop pop} {def} ifelse} forall
currentdict end definefont pop
Level1 SuppressPDFMark or 
{} {
/SDict 10 dict def
systemdict /pdfmark known not {
  userdict /pdfmark systemdict /cleartomark get put
} if
SDict begin [
  /Title (out.ps)
  /Subject (gnuplot plot)
  /Creator (gnuplot 4.6 patchlevel 6)
  /Author (yani)
%  /Producer (gnuplot)
%  /Keywords ()
  /CreationDate (Thu May 28 16:23:47 2015)
  /DOCINFO pdfmark
end
} ifelse
end
%%EndProlog
%%Page: 1 1
gnudict begin
gsave
doclip
50 50 translate
0.100 0.100 scale
90 rotate
0 -5040 translate
0 setgray
newpath
(Helvetica) findfont 140 scalefont setfont
BackgroundColor 0 lt 3 1 roll 0 lt exch 0 lt or or not {gsave BackgroundColor C clippath fill grestore} if
1.000 UL
LT0
0.50 0.50 0.50 C 1.000 UL
LTa
0.50 0.50 0.50 C 966 280 M
5981 0 V
stroke
LT0
0.50 0.50 0.50 C 966 280 M
63 0 V
5918 0 R
-63 0 V
882 280 M
( 0) Rshow
1.000 UL
LT0
0.50 0.50 0.50 C 1.000 UL
LTa
0.50 0.50 0.50 C 966 372 M
5981 0 V
stroke
LT0
0.50 0.50 0.50 C 966 372 M
63 0 V
5918 0 R
-63 0 V
882 372 M
( 0.707106) Rshow
1.000 UL
LT0
0.50 0.50 0.50 C 1.000 UL
LTa
0.50 0.50 0.50 C 966 464 M
5981 0 V
stroke
LT0
0.50 0.50 0.50 C 966 464 M
63 0 V
5918 0 R
-63 0 V
882 464 M
( 1.41421) Rshow
1.000 UL
LT0
0.50 0.50 0.50 C 1.000 UL
LTa
0.50 0.50 0.50 C 966 555 M
5981 0 V
stroke
LT0
0.50 0.50 0.50 C 966 555 M
63 0 V
5918 0 R
-63 0 V
882 555 M
( 2.12132) Rshow
1.000 UL
LT0
0.50 0.50 0.50 C 1.000 UL
LTa
0.50 0.50 0.50 C 966 647 M
5981 0 V
stroke
LT0
0.50 0.50 0.50 C 966 647 M
63 0 V
5918 0 R
-63 0 V
882 647 M
( 2.82842) Rshow
1.000 UL
LT0
0.50 0.50 0.50 C 1.000 UL
LTa
0.50 0.50 0.50 C 966 739 M
5981 0 V
stroke
LT0
0.50 0.50 0.50 C 966 739 M
63 0 V
5918 0 R
-63 0 V
882 739 M
( 3.53553) Rshow
1.000 UL
LT0
0.50 0.50 0.50 C 1.000 UL
LTa
0.50 0.50 0.50 C 966 831 M
5981 0 V
stroke
LT0
0.50 0.50 0.50 C 966 831 M
63 0 V
5918 0 R
-63 0 V
882 831 M
( 4.24264) Rshow
1.000 UL
LT0
0.50 0.50 0.50 C 1.000 UL
LTa
0.50 0.50 0.50 C 966 923 M
5981 0 V
stroke
LT0
0.50 0.50 0.50 C 966 923 M
63 0 V
5918 0 R
-63 0 V
882 923 M
( 4.94974) Rshow
1.000 UL
LT0
0.50 0.50 0.50 C 1.000 UL
LTa
0.50 0.50 0.50 C 966 1015 M
5981 0 V
stroke
LT0
0.50 0.50 0.50 C 966 1015 M
63 0 V
5918 0 R
-63 0 V
-6002 0 R
( 5.65685) Rshow
1.000 UL
LT0
0.50 0.50 0.50 C 1.000 UL
LTa
0.50 0.50 0.50 C 966 1106 M
5981 0 V
stroke
LT0
0.50 0.50 0.50 C 966 1106 M
63 0 V
5918 0 R
-63 0 V
-6002 0 R
( 6.36395) Rshow
1.000 UL
LT0
0.50 0.50 0.50 C 1.000 UL
LTa
0.50 0.50 0.50 C 966 1198 M
5981 0 V
stroke
LT0
0.50 0.50 0.50 C 966 1198 M
63 0 V
5918 0 R
-63 0 V
-6002 0 R
( 7.07106) Rshow
1.000 UL
LT0
0.50 0.50 0.50 C 1.000 UL
LTa
0.50 0.50 0.50 C 966 1290 M
5981 0 V
stroke
LT0
0.50 0.50 0.50 C 966 1290 M
63 0 V
5918 0 R
-63 0 V
-6002 0 R
( 7.77817) Rshow
1.000 UL
LT0
0.50 0.50 0.50 C 1.000 UL
LTa
0.50 0.50 0.50 C 966 1382 M
5981 0 V
stroke
LT0
0.50 0.50 0.50 C 966 1382 M
63 0 V
5918 0 R
-63 0 V
-6002 0 R
( 8.48527) Rshow
1.000 UL
LT0
0.50 0.50 0.50 C 1.000 UL
LTa
0.50 0.50 0.50 C 966 1474 M
5981 0 V
stroke
LT0
0.50 0.50 0.50 C 966 1474 M
63 0 V
5918 0 R
-63 0 V
-6002 0 R
( 9.19238) Rshow
1.000 UL
LT0
0.50 0.50 0.50 C 1.000 UL
LTa
0.50 0.50 0.50 C 966 1565 M
5981 0 V
stroke
LT0
0.50 0.50 0.50 C 966 1565 M
63 0 V
5918 0 R
-63 0 V
-6002 0 R
( 9.89948) Rshow
1.000 UL
LT0
0.50 0.50 0.50 C 1.000 UL
LTa
0.50 0.50 0.50 C 966 1657 M
5981 0 V
stroke
LT0
0.50 0.50 0.50 C 966 1657 M
63 0 V
5918 0 R
-63 0 V
-6002 0 R
( 10.6066) Rshow
1.000 UL
LT0
0.50 0.50 0.50 C 1.000 UL
LTa
0.50 0.50 0.50 C 966 1749 M
5981 0 V
stroke
LT0
0.50 0.50 0.50 C 966 1749 M
63 0 V
5918 0 R
-63 0 V
-6002 0 R
( 11.3137) Rshow
1.000 UL
LT0
0.50 0.50 0.50 C 1.000 UL
LTa
0.50 0.50 0.50 C 966 1841 M
5981 0 V
stroke
LT0
0.50 0.50 0.50 C 966 1841 M
63 0 V
5918 0 R
-63 0 V
-6002 0 R
( 12.0208) Rshow
1.000 UL
LT0
0.50 0.50 0.50 C 1.000 UL
LTa
0.50 0.50 0.50 C 966 1933 M
5981 0 V
stroke
LT0
0.50 0.50 0.50 C 966 1933 M
63 0 V
5918 0 R
-63 0 V
-6002 0 R
( 12.7279) Rshow
1.000 UL
LT0
0.50 0.50 0.50 C 1.000 UL
LTa
0.50 0.50 0.50 C 966 2025 M
5981 0 V
stroke
LT0
0.50 0.50 0.50 C 966 2025 M
63 0 V
5918 0 R
-63 0 V
-6002 0 R
( 13.435) Rshow
1.000 UL
LT0
0.50 0.50 0.50 C 1.000 UL
LTa
0.50 0.50 0.50 C 966 2116 M
5981 0 V
stroke
LT0
0.50 0.50 0.50 C 966 2116 M
63 0 V
5918 0 R
-63 0 V
-6002 0 R
( 14.1421) Rshow
1.000 UL
LT0
0.50 0.50 0.50 C 1.000 UL
LTa
0.50 0.50 0.50 C 966 2208 M
5981 0 V
stroke
LT0
0.50 0.50 0.50 C 966 2208 M
63 0 V
5918 0 R
-63 0 V
-6002 0 R
( 14.8492) Rshow
1.000 UL
LT0
0.50 0.50 0.50 C 1.000 UL
LTa
0.50 0.50 0.50 C 966 2300 M
5981 0 V
stroke
LT0
0.50 0.50 0.50 C 966 2300 M
63 0 V
5918 0 R
-63 0 V
-6002 0 R
( 15.5563) Rshow
1.000 UL
LT0
0.50 0.50 0.50 C 1.000 UL
LTa
0.50 0.50 0.50 C 966 2392 M
5981 0 V
stroke
LT0
0.50 0.50 0.50 C 966 2392 M
63 0 V
5918 0 R
-63 0 V
-6002 0 R
( 16.2634) Rshow
1.000 UL
LT0
0.50 0.50 0.50 C 1.000 UL
LTa
0.50 0.50 0.50 C 966 2484 M
5981 0 V
stroke
LT0
0.50 0.50 0.50 C 966 2484 M
63 0 V
5918 0 R
-63 0 V
-6002 0 R
( 16.9705) Rshow
1.000 UL
LT0
0.50 0.50 0.50 C 1.000 UL
LTa
0.50 0.50 0.50 C 966 2575 M
5981 0 V
stroke
LT0
0.50 0.50 0.50 C 966 2575 M
63 0 V
5918 0 R
-63 0 V
-6002 0 R
( 17.6776) Rshow
1.000 UL
LT0
0.50 0.50 0.50 C 1.000 UL
LTa
0.50 0.50 0.50 C 966 2667 M
5981 0 V
stroke
LT0
0.50 0.50 0.50 C 966 2667 M
63 0 V
5918 0 R
-63 0 V
-6002 0 R
( 18.3848) Rshow
1.000 UL
LT0
0.50 0.50 0.50 C 1.000 UL
LTa
0.50 0.50 0.50 C 966 2759 M
5981 0 V
stroke
LT0
0.50 0.50 0.50 C 966 2759 M
63 0 V
5918 0 R
-63 0 V
-6002 0 R
( 19.0919) Rshow
1.000 UL
LT0
0.50 0.50 0.50 C 1.000 UL
LTa
0.50 0.50 0.50 C 966 2851 M
5981 0 V
stroke
LT0
0.50 0.50 0.50 C 966 2851 M
63 0 V
5918 0 R
-63 0 V
-6002 0 R
( 19.799) Rshow
1.000 UL
LT0
0.50 0.50 0.50 C 1.000 UL
LTa
0.50 0.50 0.50 C 966 2943 M
5981 0 V
stroke
LT0
0.50 0.50 0.50 C 966 2943 M
63 0 V
5918 0 R
-63 0 V
-6002 0 R
( 20.5061) Rshow
1.000 UL
LT0
0.50 0.50 0.50 C 1.000 UL
LTa
0.50 0.50 0.50 C 966 3035 M
5981 0 V
stroke
LT0
0.50 0.50 0.50 C 966 3035 M
63 0 V
5918 0 R
-63 0 V
-6002 0 R
( 21.2132) Rshow
1.000 UL
LT0
0.50 0.50 0.50 C 1.000 UL
LTa
0.50 0.50 0.50 C 966 3126 M
5981 0 V
stroke
LT0
0.50 0.50 0.50 C 966 3126 M
63 0 V
5918 0 R
-63 0 V
-6002 0 R
( 21.9203) Rshow
1.000 UL
LT0
0.50 0.50 0.50 C 1.000 UL
LTa
0.50 0.50 0.50 C 966 3218 M
5981 0 V
stroke
LT0
0.50 0.50 0.50 C 966 3218 M
63 0 V
5918 0 R
-63 0 V
-6002 0 R
( 22.6274) Rshow
1.000 UL
LT0
0.50 0.50 0.50 C 1.000 UL
LTa
0.50 0.50 0.50 C 966 3310 M
5981 0 V
stroke
LT0
0.50 0.50 0.50 C 966 3310 M
63 0 V
5918 0 R
-63 0 V
-6002 0 R
( 23.3345) Rshow
1.000 UL
LT0
0.50 0.50 0.50 C 1.000 UL
LTa
0.50 0.50 0.50 C 966 3402 M
5981 0 V
stroke
LT0
0.50 0.50 0.50 C 966 3402 M
63 0 V
5918 0 R
-63 0 V
-6002 0 R
( 24.0416) Rshow
1.000 UL
LT0
0.50 0.50 0.50 C 1.000 UL
LTa
0.50 0.50 0.50 C 966 3494 M
5981 0 V
stroke
LT0
0.50 0.50 0.50 C 966 3494 M
63 0 V
5918 0 R
-63 0 V
-6002 0 R
( 24.7487) Rshow
1.000 UL
LT0
0.50 0.50 0.50 C 1.000 UL
LTa
0.50 0.50 0.50 C 966 3586 M
5981 0 V
stroke
LT0
0.50 0.50 0.50 C 966 3586 M
63 0 V
5918 0 R
-63 0 V
-6002 0 R
( 25.4558) Rshow
1.000 UL
LT0
0.50 0.50 0.50 C 1.000 UL
LTa
0.50 0.50 0.50 C 966 3677 M
5981 0 V
stroke
LT0
0.50 0.50 0.50 C 966 3677 M
63 0 V
5918 0 R
-63 0 V
-6002 0 R
( 26.1629) Rshow
1.000 UL
LT0
0.50 0.50 0.50 C 1.000 UL
LTa
0.50 0.50 0.50 C 966 3769 M
5981 0 V
stroke
LT0
0.50 0.50 0.50 C 966 3769 M
63 0 V
5918 0 R
-63 0 V
-6002 0 R
( 26.87) Rshow
1.000 UL
LT0
0.50 0.50 0.50 C 1.000 UL
LTa
0.50 0.50 0.50 C 966 3861 M
5981 0 V
stroke
LT0
0.50 0.50 0.50 C 966 3861 M
63 0 V
5918 0 R
-63 0 V
-6002 0 R
( 27.5771) Rshow
1.000 UL
LT0
0.50 0.50 0.50 C 1.000 UL
LTa
0.50 0.50 0.50 C 966 3953 M
5981 0 V
stroke
LT0
0.50 0.50 0.50 C 966 3953 M
63 0 V
5918 0 R
-63 0 V
-6002 0 R
( 28.2842) Rshow
1.000 UL
LT0
0.50 0.50 0.50 C 1.000 UL
LTa
0.50 0.50 0.50 C 966 4045 M
5981 0 V
stroke
LT0
0.50 0.50 0.50 C 966 4045 M
63 0 V
5918 0 R
-63 0 V
-6002 0 R
( 28.9913) Rshow
1.000 UL
LT0
0.50 0.50 0.50 C 1.000 UL
LTa
0.50 0.50 0.50 C 966 4136 M
5981 0 V
stroke
LT0
0.50 0.50 0.50 C 966 4136 M
63 0 V
5918 0 R
-63 0 V
-6002 0 R
( 29.6985) Rshow
1.000 UL
LT0
0.50 0.50 0.50 C 1.000 UL
LTa
0.50 0.50 0.50 C 966 4228 M
5981 0 V
stroke
LT0
0.50 0.50 0.50 C 966 4228 M
63 0 V
5918 0 R
-63 0 V
-6002 0 R
( 30.4056) Rshow
1.000 UL
LT0
0.50 0.50 0.50 C 1.000 UL
LTa
0.50 0.50 0.50 C 966 4320 M
5981 0 V
stroke
LT0
0.50 0.50 0.50 C 966 4320 M
63 0 V
5918 0 R
-63 0 V
-6002 0 R
( 31.1127) Rshow
1.000 UL
LT0
0.50 0.50 0.50 C 1.000 UL
LTa
0.50 0.50 0.50 C 966 4412 M
5981 0 V
stroke
LT0
0.50 0.50 0.50 C 966 4412 M
63 0 V
5918 0 R
-63 0 V
-6002 0 R
( 31.8198) Rshow
1.000 UL
LT0
0.50 0.50 0.50 C 1.000 UL
LTa
0.50 0.50 0.50 C 966 4504 M
5981 0 V
stroke
LT0
0.50 0.50 0.50 C 966 4504 M
63 0 V
5918 0 R
-63 0 V
-6002 0 R
( 32.5269) Rshow
1.000 UL
LT0
0.50 0.50 0.50 C 1.000 UL
LTa
0.50 0.50 0.50 C 966 4596 M
5981 0 V
stroke
LT0
0.50 0.50 0.50 C 966 4596 M
63 0 V
5918 0 R
-63 0 V
-6002 0 R
( 33.234) Rshow
1.000 UL
LT0
0.50 0.50 0.50 C 1.000 UL
LTa
0.50 0.50 0.50 C 966 4687 M
5981 0 V
stroke
LT0
0.50 0.50 0.50 C 966 4687 M
63 0 V
5918 0 R
-63 0 V
-6002 0 R
( 33.9411) Rshow
1.000 UL
LT0
0.50 0.50 0.50 C 1.000 UL
LTa
0.50 0.50 0.50 C 966 4779 M
5981 0 V
stroke
LT0
0.50 0.50 0.50 C 966 4779 M
63 0 V
5918 0 R
-63 0 V
-6002 0 R
( 34.6482) Rshow
1.000 UL
LT0
0.50 0.50 0.50 C 1.000 UL
LTa
0.50 0.50 0.50 C 966 4871 M
5981 0 V
stroke
LT0
0.50 0.50 0.50 C 966 4871 M
63 0 V
5918 0 R
-63 0 V
-6002 0 R
( 35.3553) Rshow
1.000 UL
LT0
0.50 0.50 0.50 C 1.000 UL
LTa
0.50 0.50 0.50 C 966 280 M
0 4591 V
stroke
LT0
0.50 0.50 0.50 C 966 280 M
0 63 V
0 4528 R
0 -63 V
966 140 M
( 0) Cshow
1.000 UL
LT0
0.50 0.50 0.50 C 1.000 UL
LTa
0.50 0.50 0.50 C 1086 280 M
0 4591 V
stroke
LT0
0.50 0.50 0.50 C 1086 280 M
0 63 V
0 4528 R
0 -63 V
0 -4668 R
( 0.707106) Cshow
1.000 UL
LT0
0.50 0.50 0.50 C 1.000 UL
LTa
0.50 0.50 0.50 C 1205 280 M
0 4591 V
stroke
LT0
0.50 0.50 0.50 C 1205 280 M
0 63 V
0 4528 R
0 -63 V
0 -4668 R
( 1.41421) Cshow
1.000 UL
LT0
0.50 0.50 0.50 C 1.000 UL
LTa
0.50 0.50 0.50 C 1325 280 M
0 4591 V
stroke
LT0
0.50 0.50 0.50 C 1325 280 M
0 63 V
0 4528 R
0 -63 V
0 -4668 R
( 2.12132) Cshow
1.000 UL
LT0
0.50 0.50 0.50 C 1.000 UL
LTa
0.50 0.50 0.50 C 1444 280 M
0 4591 V
stroke
LT0
0.50 0.50 0.50 C 1444 280 M
0 63 V
0 4528 R
0 -63 V
0 -4668 R
( 2.82842) Cshow
1.000 UL
LT0
0.50 0.50 0.50 C 1.000 UL
LTa
0.50 0.50 0.50 C 1564 280 M
0 4591 V
stroke
LT0
0.50 0.50 0.50 C 1564 280 M
0 63 V
0 4528 R
0 -63 V
0 -4668 R
( 3.53553) Cshow
1.000 UL
LT0
0.50 0.50 0.50 C 1.000 UL
LTa
0.50 0.50 0.50 C 1684 280 M
0 4591 V
stroke
LT0
0.50 0.50 0.50 C 1684 280 M
0 63 V
0 4528 R
0 -63 V
0 -4668 R
( 4.24264) Cshow
1.000 UL
LT0
0.50 0.50 0.50 C 1.000 UL
LTa
0.50 0.50 0.50 C 1803 280 M
0 4591 V
stroke
LT0
0.50 0.50 0.50 C 1803 280 M
0 63 V
0 4528 R
0 -63 V
0 -4668 R
( 4.94974) Cshow
1.000 UL
LT0
0.50 0.50 0.50 C 1.000 UL
LTa
0.50 0.50 0.50 C 1923 280 M
0 4591 V
stroke
LT0
0.50 0.50 0.50 C 1923 280 M
0 63 V
0 4528 R
0 -63 V
0 -4668 R
( 5.65685) Cshow
1.000 UL
LT0
0.50 0.50 0.50 C 1.000 UL
LTa
0.50 0.50 0.50 C 2043 280 M
0 4591 V
stroke
LT0
0.50 0.50 0.50 C 2043 280 M
0 63 V
0 4528 R
0 -63 V
0 -4668 R
( 6.36395) Cshow
1.000 UL
LT0
0.50 0.50 0.50 C 1.000 UL
LTa
0.50 0.50 0.50 C 2162 280 M
0 4591 V
stroke
LT0
0.50 0.50 0.50 C 2162 280 M
0 63 V
0 4528 R
0 -63 V
0 -4668 R
( 7.07106) Cshow
1.000 UL
LT0
0.50 0.50 0.50 C 1.000 UL
LTa
0.50 0.50 0.50 C 2282 280 M
0 4591 V
stroke
LT0
0.50 0.50 0.50 C 2282 280 M
0 63 V
0 4528 R
0 -63 V
0 -4668 R
( 7.77817) Cshow
1.000 UL
LT0
0.50 0.50 0.50 C 1.000 UL
LTa
0.50 0.50 0.50 C 2401 280 M
0 4591 V
stroke
LT0
0.50 0.50 0.50 C 2401 280 M
0 63 V
0 4528 R
0 -63 V
0 -4668 R
( 8.48527) Cshow
1.000 UL
LT0
0.50 0.50 0.50 C 1.000 UL
LTa
0.50 0.50 0.50 C 2521 280 M
0 4591 V
stroke
LT0
0.50 0.50 0.50 C 2521 280 M
0 63 V
0 4528 R
0 -63 V
0 -4668 R
( 9.19238) Cshow
1.000 UL
LT0
0.50 0.50 0.50 C 1.000 UL
LTa
0.50 0.50 0.50 C 2641 280 M
0 4591 V
stroke
LT0
0.50 0.50 0.50 C 2641 280 M
0 63 V
0 4528 R
0 -63 V
0 -4668 R
( 9.89948) Cshow
1.000 UL
LT0
0.50 0.50 0.50 C 1.000 UL
LTa
0.50 0.50 0.50 C 2760 280 M
0 4591 V
stroke
LT0
0.50 0.50 0.50 C 2760 280 M
0 63 V
0 4528 R
0 -63 V
0 -4668 R
( 10.6066) Cshow
1.000 UL
LT0
0.50 0.50 0.50 C 1.000 UL
LTa
0.50 0.50 0.50 C 2880 280 M
0 4591 V
stroke
LT0
0.50 0.50 0.50 C 2880 280 M
0 63 V
0 4528 R
0 -63 V
0 -4668 R
( 11.3137) Cshow
1.000 UL
LT0
0.50 0.50 0.50 C 1.000 UL
LTa
0.50 0.50 0.50 C 3000 280 M
0 4591 V
stroke
LT0
0.50 0.50 0.50 C 3000 280 M
0 63 V
0 4528 R
0 -63 V
0 -4668 R
( 12.0208) Cshow
1.000 UL
LT0
0.50 0.50 0.50 C 1.000 UL
LTa
0.50 0.50 0.50 C 3119 280 M
0 4591 V
stroke
LT0
0.50 0.50 0.50 C 3119 280 M
0 63 V
0 4528 R
0 -63 V
0 -4668 R
( 12.7279) Cshow
1.000 UL
LT0
0.50 0.50 0.50 C 1.000 UL
LTa
0.50 0.50 0.50 C 3239 280 M
0 4591 V
stroke
LT0
0.50 0.50 0.50 C 3239 280 M
0 63 V
0 4528 R
0 -63 V
0 -4668 R
( 13.435) Cshow
1.000 UL
LT0
0.50 0.50 0.50 C 1.000 UL
LTa
0.50 0.50 0.50 C 3358 280 M
0 4591 V
stroke
LT0
0.50 0.50 0.50 C 3358 280 M
0 63 V
0 4528 R
0 -63 V
0 -4668 R
( 14.1421) Cshow
1.000 UL
LT0
0.50 0.50 0.50 C 1.000 UL
LTa
0.50 0.50 0.50 C 3478 280 M
0 4591 V
stroke
LT0
0.50 0.50 0.50 C 3478 280 M
0 63 V
0 4528 R
0 -63 V
0 -4668 R
( 14.8492) Cshow
1.000 UL
LT0
0.50 0.50 0.50 C 1.000 UL
LTa
0.50 0.50 0.50 C 3598 280 M
0 4591 V
stroke
LT0
0.50 0.50 0.50 C 3598 280 M
0 63 V
0 4528 R
0 -63 V
0 -4668 R
( 15.5563) Cshow
1.000 UL
LT0
0.50 0.50 0.50 C 1.000 UL
LTa
0.50 0.50 0.50 C 3717 280 M
0 4591 V
stroke
LT0
0.50 0.50 0.50 C 3717 280 M
0 63 V
0 4528 R
0 -63 V
0 -4668 R
( 16.2634) Cshow
1.000 UL
LT0
0.50 0.50 0.50 C 1.000 UL
LTa
0.50 0.50 0.50 C 3837 280 M
0 4591 V
stroke
LT0
0.50 0.50 0.50 C 3837 280 M
0 63 V
0 4528 R
0 -63 V
0 -4668 R
( 16.9705) Cshow
1.000 UL
LT0
0.50 0.50 0.50 C 1.000 UL
LTa
0.50 0.50 0.50 C 3956 280 M
0 4591 V
stroke
LT0
0.50 0.50 0.50 C 3956 280 M
0 63 V
0 4528 R
0 -63 V
0 -4668 R
( 17.6776) Cshow
1.000 UL
LT0
0.50 0.50 0.50 C 1.000 UL
LTa
0.50 0.50 0.50 C 4076 280 M
0 4591 V
stroke
LT0
0.50 0.50 0.50 C 4076 280 M
0 63 V
0 4528 R
0 -63 V
0 -4668 R
( 18.3848) Cshow
1.000 UL
LT0
0.50 0.50 0.50 C 1.000 UL
LTa
0.50 0.50 0.50 C 4196 280 M
0 4591 V
stroke
LT0
0.50 0.50 0.50 C 4196 280 M
0 63 V
0 4528 R
0 -63 V
0 -4668 R
( 19.0919) Cshow
1.000 UL
LT0
0.50 0.50 0.50 C 1.000 UL
LTa
0.50 0.50 0.50 C 4315 280 M
0 4591 V
stroke
LT0
0.50 0.50 0.50 C 4315 280 M
0 63 V
0 4528 R
0 -63 V
0 -4668 R
( 19.799) Cshow
1.000 UL
LT0
0.50 0.50 0.50 C 1.000 UL
LTa
0.50 0.50 0.50 C 4435 280 M
0 4591 V
stroke
LT0
0.50 0.50 0.50 C 4435 280 M
0 63 V
0 4528 R
0 -63 V
0 -4668 R
( 20.5061) Cshow
1.000 UL
LT0
0.50 0.50 0.50 C 1.000 UL
LTa
0.50 0.50 0.50 C 4555 280 M
0 4591 V
stroke
LT0
0.50 0.50 0.50 C 4555 280 M
0 63 V
0 4528 R
0 -63 V
0 -4668 R
( 21.2132) Cshow
1.000 UL
LT0
0.50 0.50 0.50 C 1.000 UL
LTa
0.50 0.50 0.50 C 4674 280 M
0 4591 V
stroke
LT0
0.50 0.50 0.50 C 4674 280 M
0 63 V
0 4528 R
0 -63 V
0 -4668 R
( 21.9203) Cshow
1.000 UL
LT0
0.50 0.50 0.50 C 1.000 UL
LTa
0.50 0.50 0.50 C 4794 280 M
0 4591 V
stroke
LT0
0.50 0.50 0.50 C 4794 280 M
0 63 V
0 4528 R
0 -63 V
0 -4668 R
( 22.6274) Cshow
1.000 UL
LT0
0.50 0.50 0.50 C 1.000 UL
LTa
0.50 0.50 0.50 C 4913 280 M
0 4591 V
stroke
LT0
0.50 0.50 0.50 C 4913 280 M
0 63 V
0 4528 R
0 -63 V
0 -4668 R
( 23.3345) Cshow
1.000 UL
LT0
0.50 0.50 0.50 C 1.000 UL
LTa
0.50 0.50 0.50 C 5033 280 M
0 4591 V
stroke
LT0
0.50 0.50 0.50 C 5033 280 M
0 63 V
0 4528 R
0 -63 V
0 -4668 R
( 24.0416) Cshow
1.000 UL
LT0
0.50 0.50 0.50 C 1.000 UL
LTa
0.50 0.50 0.50 C 5153 280 M
0 4591 V
stroke
LT0
0.50 0.50 0.50 C 5153 280 M
0 63 V
0 4528 R
0 -63 V
0 -4668 R
( 24.7487) Cshow
1.000 UL
LT0
0.50 0.50 0.50 C 1.000 UL
LTa
0.50 0.50 0.50 C 5272 280 M
0 4591 V
stroke
LT0
0.50 0.50 0.50 C 5272 280 M
0 63 V
0 4528 R
0 -63 V
0 -4668 R
( 25.4558) Cshow
1.000 UL
LT0
0.50 0.50 0.50 C 1.000 UL
LTa
0.50 0.50 0.50 C 5392 280 M
0 4591 V
stroke
LT0
0.50 0.50 0.50 C 5392 280 M
0 63 V
0 4528 R
0 -63 V
0 -4668 R
( 26.1629) Cshow
1.000 UL
LT0
0.50 0.50 0.50 C 1.000 UL
LTa
0.50 0.50 0.50 C 5512 280 M
0 4591 V
stroke
LT0
0.50 0.50 0.50 C 5512 280 M
0 63 V
0 4528 R
0 -63 V
0 -4668 R
( 26.87) Cshow
1.000 UL
LT0
0.50 0.50 0.50 C 1.000 UL
LTa
0.50 0.50 0.50 C 5631 280 M
0 4591 V
stroke
LT0
0.50 0.50 0.50 C 5631 280 M
0 63 V
0 4528 R
0 -63 V
0 -4668 R
( 27.5771) Cshow
1.000 UL
LT0
0.50 0.50 0.50 C 1.000 UL
LTa
0.50 0.50 0.50 C 5751 280 M
0 4591 V
stroke
LT0
0.50 0.50 0.50 C 5751 280 M
0 63 V
0 4528 R
0 -63 V
0 -4668 R
( 28.2842) Cshow
1.000 UL
LT0
0.50 0.50 0.50 C 1.000 UL
LTa
0.50 0.50 0.50 C 5870 280 M
0 4591 V
stroke
LT0
0.50 0.50 0.50 C 5870 280 M
0 63 V
0 4528 R
0 -63 V
0 -4668 R
( 28.9913) Cshow
1.000 UL
LT0
0.50 0.50 0.50 C 1.000 UL
LTa
0.50 0.50 0.50 C 5990 280 M
0 4591 V
stroke
LT0
0.50 0.50 0.50 C 5990 280 M
0 63 V
0 4528 R
0 -63 V
0 -4668 R
( 29.6985) Cshow
1.000 UL
LT0
0.50 0.50 0.50 C 1.000 UL
LTa
0.50 0.50 0.50 C 6110 280 M
0 4591 V
stroke
LT0
0.50 0.50 0.50 C 6110 280 M
0 63 V
0 4528 R
0 -63 V
0 -4668 R
( 30.4056) Cshow
1.000 UL
LT0
0.50 0.50 0.50 C 1.000 UL
LTa
0.50 0.50 0.50 C 6229 280 M
0 4591 V
stroke
LT0
0.50 0.50 0.50 C 6229 280 M
0 63 V
0 4528 R
0 -63 V
0 -4668 R
( 31.1127) Cshow
1.000 UL
LT0
0.50 0.50 0.50 C 1.000 UL
LTa
0.50 0.50 0.50 C 6349 280 M
0 4591 V
stroke
LT0
0.50 0.50 0.50 C 6349 280 M
0 63 V
0 4528 R
0 -63 V
0 -4668 R
( 31.8198) Cshow
1.000 UL
LT0
0.50 0.50 0.50 C 1.000 UL
LTa
0.50 0.50 0.50 C 6469 280 M
0 4591 V
stroke
LT0
0.50 0.50 0.50 C 6469 280 M
0 63 V
0 4528 R
0 -63 V
0 -4668 R
( 32.5269) Cshow
1.000 UL
LT0
0.50 0.50 0.50 C 1.000 UL
LTa
0.50 0.50 0.50 C 6588 280 M
0 4591 V
stroke
LT0
0.50 0.50 0.50 C 6588 280 M
0 63 V
0 4528 R
0 -63 V
0 -4668 R
( 33.234) Cshow
1.000 UL
LT0
0.50 0.50 0.50 C 1.000 UL
LTa
0.50 0.50 0.50 C 6708 280 M
0 4591 V
stroke
LT0
0.50 0.50 0.50 C 6708 280 M
0 63 V
0 4528 R
0 -63 V
0 -4668 R
( 33.9411) Cshow
1.000 UL
LT0
0.50 0.50 0.50 C 1.000 UL
LTa
0.50 0.50 0.50 C 6827 280 M
0 4591 V
stroke
LT0
0.50 0.50 0.50 C 6827 280 M
0 63 V
0 4528 R
0 -63 V
0 -4668 R
( 34.6482) Cshow
1.000 UL
LT0
0.50 0.50 0.50 C 1.000 UL
LTa
0.50 0.50 0.50 C 6947 280 M
0 4591 V
stroke
LT0
0.50 0.50 0.50 C 6947 280 M
0 63 V
0 4528 R
0 -63 V
0 -4668 R
( 35.3553) Cshow
1.000 UL
LT0
0.50 0.50 0.50 C 1.000 UL
LT0
0.50 0.50 0.50 C 966 4871 M
966 280 L
5981 0 V
0 4591 R
-5981 0 R
1.000 UP
stroke
LT0
0.50 0.50 0.50 C % Begin plot #1
1.500 UP
2.000 UL
LT0
0.00 0.00 1.00 C /Helvetica findfont 140 scalefont setfont
/vshift -46 def
966 372 M
120 0 V
0 183 R
119 0 V
0 92 R
120 0 V
0 184 R
119 0 V
0 459 R
120 0 V
120 0 V
119 0 V
120 0 V
120 0 V
0 92 R
119 0 V
0 459 R
120 0 V
0 92 R
119 0 V
120 0 V
120 0 V
119 0 V
120 0 V
120 0 V
119 0 V
120 0 V
0 459 R
119 0 V
120 0 V
120 0 V
119 0 V
120 0 V
120 0 V
119 0 V
120 0 V
119 0 V
0 92 R
120 0 V
120 0 V
119 0 V
120 0 V
119 0 V
120 0 V
0 92 R
120 0 V
119 0 V
0 367 R
120 0 V
120 0 V
119 0 V
120 0 V
119 0 V
120 0 V
120 0 V
119 0 V
120 0 V
120 0 V
0 92 R
119 0 V
0 275 R
120 0 V
0 1286 R
119 0 V
1086 372 M
0 92 V
0 91 V
119 0 R
0 92 V
120 0 R
0 92 V
0 92 V
119 0 R
0 92 V
0 92 V
0 91 V
0 92 V
0 92 V
599 0 R
0 92 V
119 0 R
0 92 V
0 91 V
0 92 V
0 92 V
0 92 V
120 0 R
0 92 V
957 0 R
0 92 V
0 91 V
0 92 V
0 92 V
0 92 V
1076 0 R
0 92 V
718 0 R
0 92 V
239 0 R
0 91 V
0 92 V
0 92 V
0 92 V
1197 0 R
0 92 V
stroke 6469 3035 M
119 0 R
0 91 V
0 92 V
0 92 V
120 0 R
0 92 V
0 92 V
0 92 V
0 91 V
0 92 V
0 92 V
0 92 V
0 92 V
0 91 V
0 92 V
0 92 V
0 92 V
0 92 V
0 92 V
966 280 M
0 92 V
6827 4687 M
0 92 V
0 -183 R
0 91 V
966 372 CircleF
1086 372 CircleF
1086 555 CircleF
1205 555 CircleF
1205 647 CircleF
1325 647 CircleF
1325 831 CircleF
1444 831 CircleF
1444 1290 CircleF
1564 1290 CircleF
1564 1290 CircleF
1684 1290 CircleF
1684 1290 CircleF
1803 1290 CircleF
1803 1290 CircleF
1923 1290 CircleF
1923 1290 CircleF
2043 1290 CircleF
2043 1382 CircleF
2162 1382 CircleF
2162 1841 CircleF
2282 1841 CircleF
2282 1933 CircleF
2401 1933 CircleF
2401 1933 CircleF
2521 1933 CircleF
2521 1933 CircleF
2641 1933 CircleF
2641 1933 CircleF
2760 1933 CircleF
2760 1933 CircleF
2880 1933 CircleF
2880 1933 CircleF
3000 1933 CircleF
3000 1933 CircleF
3119 1933 CircleF
3119 1933 CircleF
3239 1933 CircleF
3239 2392 CircleF
3358 2392 CircleF
3358 2392 CircleF
3478 2392 CircleF
3478 2392 CircleF
3598 2392 CircleF
3598 2392 CircleF
3717 2392 CircleF
3717 2392 CircleF
3837 2392 CircleF
3837 2392 CircleF
3957 2392 CircleF
3957 2392 CircleF
4076 2392 CircleF
4076 2392 CircleF
4196 2392 CircleF
4196 2392 CircleF
4315 2392 CircleF
4315 2484 CircleF
4435 2484 CircleF
4435 2484 CircleF
4555 2484 CircleF
4555 2484 CircleF
4674 2484 CircleF
4674 2484 CircleF
4794 2484 CircleF
4794 2484 CircleF
4913 2484 CircleF
4913 2484 CircleF
5033 2484 CircleF
5033 2576 CircleF
5153 2576 CircleF
5153 2576 CircleF
5272 2576 CircleF
5272 2943 CircleF
5392 2943 CircleF
5392 2943 CircleF
5512 2943 CircleF
5512 2943 CircleF
5631 2943 CircleF
5631 2943 CircleF
5751 2943 CircleF
5751 2943 CircleF
5870 2943 CircleF
5870 2943 CircleF
5990 2943 CircleF
5990 2943 CircleF
6110 2943 CircleF
6110 2943 CircleF
6229 2943 CircleF
6229 2943 CircleF
6349 2943 CircleF
6349 2943 CircleF
6469 2943 CircleF
6469 3035 CircleF
6588 3035 CircleF
6588 3310 CircleF
6708 3310 CircleF
6708 4596 CircleF
6827 4596 CircleF
1086 372 CircleF
1086 464 CircleF
1086 464 CircleF
1086 555 CircleF
1205 555 CircleF
1205 647 CircleF
1325 647 CircleF
1325 739 CircleF
1325 739 CircleF
1325 831 CircleF
1444 831 CircleF
1444 923 CircleF
1444 923 CircleF
1444 1015 CircleF
1444 1015 CircleF
1444 1106 CircleF
1444 1106 CircleF
1444 1198 CircleF
1444 1198 CircleF
1444 1290 CircleF
2043 1290 CircleF
2043 1382 CircleF
2162 1382 CircleF
2162 1474 CircleF
2162 1474 CircleF
2162 1565 CircleF
2162 1565 CircleF
2162 1657 CircleF
2162 1657 CircleF
2162 1749 CircleF
2162 1749 CircleF
2162 1841 CircleF
2282 1841 CircleF
2282 1933 CircleF
3239 1933 CircleF
3239 2025 CircleF
3239 2025 CircleF
3239 2116 CircleF
3239 2116 CircleF
3239 2208 CircleF
3239 2208 CircleF
3239 2300 CircleF
3239 2300 CircleF
3239 2392 CircleF
4315 2392 CircleF
4315 2484 CircleF
5033 2484 CircleF
5033 2576 CircleF
5272 2576 CircleF
5272 2667 CircleF
5272 2667 CircleF
5272 2759 CircleF
5272 2759 CircleF
5272 2851 CircleF
5272 2851 CircleF
5272 2943 CircleF
6469 2943 CircleF
6469 3035 CircleF
6588 3035 CircleF
6588 3126 CircleF
6588 3126 CircleF
6588 3218 CircleF
6588 3218 CircleF
6588 3310 CircleF
6708 3310 CircleF
6708 3402 CircleF
6708 3402 CircleF
6708 3494 CircleF
6708 3494 CircleF
6708 3586 CircleF
6708 3586 CircleF
6708 3677 CircleF
6708 3677 CircleF
6708 3769 CircleF
6708 3769 CircleF
6708 3861 CircleF
6708 3861 CircleF
6708 3953 CircleF
6708 3953 CircleF
6708 4045 CircleF
6708 4045 CircleF
6708 4136 CircleF
6708 4136 CircleF
6708 4228 CircleF
6708 4228 CircleF
6708 4320 CircleF
6708 4320 CircleF
6708 4412 CircleF
6708 4412 CircleF
6708 4504 CircleF
6708 4504 CircleF
6708 4596 CircleF
966 280 CircleF
966 372 CircleF
6827 4687 CircleF
6827 4779 CircleF
6827 4596 CircleF
6827 4687 CircleF
% End plot #1
% Begin plot #2
1.500 UP
2.000 UL
LT0
1.00 0.55 0.00 C /Helvetica findfont 140 scalefont setfont
6704 1432 M
119 92 V
5029 2142 M
120 92 V
3631 2385 M
120 92 V
2031 359 R
119 92 V
2986 4110 M
120 91 V
1053 3601 M
120 92 V
2193 1178 M
119 92 V
6014 3817 M
119 91 V
4899 2256 M
119 92 V
4534 1970 M
119 92 V
3632 4177 M
119 92 V
2596 4449 M
120 92 V
1649 3214 M
120 92 V
3747 2148 M
119 91 V
1340 3086 M
119 92 V
1814 1434 M
119 92 V
1641 1234 M
120 92 V
3700 253 R
119 92 V
1335 1016 M
119 91 V
5393 4128 M
120 92 V
5206 2815 M
120 92 V
4004 4467 M
119 92 V
3206 1891 M
120 92 V
4869 3912 M
120 92 V
673 493 R
120 92 V
6430 2541 M
120 92 V
2385 1025 M
119 92 V
6155 2770 M
119 92 V
4875 4018 M
119 91 V
4388 1271 M
119 92 V
4381 1188 M
119 91 V
411 1031 R
120 92 V
6220 1466 M
120 92 V
-965 388 R
119 92 V
2536 2543 M
120 92 V
1057 4425 M
119 92 V
5115 3445 M
120 92 V
58 665 R
120 92 V
4427 1002 M
119 92 V
6043 3382 M
120 92 V
2653 4265 M
120 92 V
4436 1623 M
120 91 V
4397 4191 M
119 91 V
4008 1897 M
119 91 V
5993 800 M
120 92 V
4655 4538 M
120 92 V
1500 1147 M
120 92 V
3835 3746 M
120 92 V
4639 534 M
120 92 V
3823 2932 M
120 92 V
915 1228 R
119 92 V
4948 485 M
120 92 V
2737 366 M
120 92 V
stroke 2857 458 M
4798 1562 M
119 92 V
2319 3669 M
120 92 V
1791 3089 M
119 91 V
4261 782 M
120 92 V
2294 157 R
119 92 V
1539 2082 M
120 92 V
4524 3231 M
120 92 V
3074 901 M
120 92 V
6163 4465 M
120 92 V
4281 3402 M
120 92 V
352 245 R
120 92 V
5918 1609 M
119 92 V
5831 3738 M
120 92 V
2470 4687 M
119 91 V
3245 654 M
119 91 V
3023 4339 M
119 92 V
5309 3656 M
120 92 V
3510 843 M
120 91 V
455 3142 R
119 91 V
6653 2048 M
120 91 V
5475 4404 M
119 92 V
1380 4198 M
120 92 V
2873 2477 M
120 92 V
2205 76 R
119 92 V
4253 3988 M
120 92 V
6075 2867 M
120 92 V
4321 3331 M
120 92 V
3640 1867 M
120 92 V
1184 1581 M
119 92 V
2564 2694 M
119 92 V
-297 935 R
120 91 V
1358 3303 M
120 91 V
3569 2712 M
119 92 V
1334 1776 M
120 92 V
369 2673 R
119 92 V
2123 2759 M
119 91 V
5303 4140 M
120 92 V
2946 3265 M
119 92 V
1721 299 R
119 92 V
3294 985 M
120 92 V
4456 4515 M
120 92 V
3929 4130 M
119 92 V
6517 3122 M
119 92 V
3171 3094 M
120 92 V
3437 877 M
119 92 V
934 -97 R
119 92 V
6596 4338 M
119 92 V
3316 1343 M
120 91 V
2029 1366 M
119 92 V
2760 703 M
120 92 V
1217 661 R
120 92 V
2055 1204 M
119 92 V
stroke 2174 1296 M
5080 2555 M
120 91 V
6591 2464 M
120 92 V
5904 708 M
119 92 V
2275 1134 M
120 92 V
3569 4397 M
119 92 V
884 153 R
120 92 V
2777 754 M
120 91 V
5664 4641 M
120 92 V
3649 2575 M
120 91 V
1656 1282 M
120 92 V
1503 249 R
120 92 V
1613 1080 M
120 92 V
5487 2643 M
120 92 V
1000 1356 M
120 92 V
103 250 R
119 92 V
1131 4501 M
120 92 V
1562 408 M
120 92 V
3850 3070 M
120 92 V
2755 4315 M
120 92 V
2415 1877 M
120 92 V
1673 541 R
119 91 V
101 -302 R
119 91 V
-61 2128 R
120 92 V
2687 2499 M
120 91 V
4698 1141 M
120 92 V
1203 400 M
120 92 V
1143 4058 M
120 92 V
1821 758 M
119 92 V
6165 3605 M
120 92 V
5477 1549 M
119 92 V
4615 4248 M
119 91 V
2517 1313 M
119 92 V
541 1144 R
120 92 V
4851 989 M
120 91 V
6182 3371 M
119 92 V
2022 2417 M
120 92 V
4473 800 R
119 92 V
2929 1092 M
119 91 V
5373 2740 M
120 92 V
1234 970 M
120 92 V
428 2928 R
120 92 V
4899 667 M
120 92 V
1568 2667 M
120 92 V
4013 619 R
120 92 V
1555 2377 M
119 92 V
2510 1349 M
120 92 V
1061 474 R
120 92 V
2409 2967 M
120 92 V
1177 4588 M
120 92 V
3702 1251 M
120 92 V
2902 888 M
120 92 V
4649 3757 M
119 92 V
stroke 4768 3849 M
3405 4636 M
119 92 V
1724 4009 M
119 92 V
2998 367 M
120 92 V
1558 2849 M
119 92 V
3699 2700 M
120 92 V
6510 2530 M
120 91 V
3482 534 M
120 92 V
1695 1317 M
119 91 V
5106 933 M
119 92 V
924 1800 R
120 92 V
3088 1798 M
119 92 V
4113 742 M
120 92 V
2943 1375 M
120 91 V
-451 450 R
120 92 V
2470 794 R
120 92 V
-327 29 R
120 92 V
2697 4221 M
120 92 V
2797 2428 M
120 92 V
1559 93 R
120 92 V
1733 3173 M
119 92 V
2712 2105 M
119 92 V
5342 3809 M
119 92 V
6068 839 M
119 92 V
4402 4512 M
120 92 V
6111 2410 M
119 92 V
-99 2172 R
120 92 V
5615 1215 M
120 92 V
3773 939 M
119 92 V
4939 3374 M
119 92 V
6286 2938 M
119 92 V
1158 2223 M
120 92 V
5483 1886 M
119 92 V
3334 2343 M
120 92 V
5620 2309 M
120 92 V
4791 670 M
119 92 V
1439 3078 M
119 92 V
4483 1962 M
120 92 V
1099 2471 M
120 92 V
4977 353 R
120 91 V
4645 2692 M
120 92 V
2153 3010 M
119 92 V
1127 1038 M
119 92 V
4306 2404 M
120 92 V
3340 4623 M
119 92 V
2614 782 M
120 92 V
2232 674 M
120 92 V
962 464 R
120 91 V
6614 3904 M
119 92 V
6031 3855 M
120 92 V
-3936 74 R
120 92 V
2602 714 M
119 92 V
2583 4502 M
120 92 V
stroke 2703 4594 M
5978 651 M
120 92 V
4334 407 M
120 92 V
3418 3117 M
120 92 V
1593 4135 M
119 91 V
898 -84 R
119 92 V
2911 1559 M
120 91 V
4444 4677 M
120 92 V
2771 3884 M
120 92 V
6605 3525 M
119 92 V
1366 1361 M
120 92 V
713 1323 R
120 92 V
5184 4557 M
120 92 V
3073 1089 M
120 92 V
4351 2972 M
120 92 V
6670 2129 M
119 92 V
2877 4638 M
120 92 V
4256 4200 M
119 92 V
3883 2357 M
120 91 V
6007 1574 M
120 92 V
4405 2410 M
119 92 V
1060 421 M
120 92 V
5761 768 M
119 92 V
-895 676 R
120 92 V
1262 3225 M
120 92 V
1091 2360 M
120 92 V
4877 591 M
120 92 V
1310 3788 M
120 92 V
5221 3171 M
120 92 V
2123 991 M
120 92 V
1594 3998 M
119 92 V
4954 3889 M
120 91 V
6694 2063 M
120 91 V
4278 2613 M
120 92 V
5437 4189 M
120 92 V
6452 2803 M
120 92 V
3033 1770 M
120 92 V
2986 613 R
119 92 V
2338 2059 M
120 92 V
1451 1498 M
119 92 V
5712 940 M
120 92 V
641 2564 R
120 92 V
3703 2489 M
120 92 V
1976 -59 R
120 91 V
1509 304 M
119 91 V
-37 3051 R
120 92 V
81 -306 R
120 92 V
2035 1376 M
120 92 V
705 3018 R
120 92 V
2152 2314 M
119 92 V
531 2096 R
119 92 V
997 713 M
119 92 V
4959 3652 M
120 92 V
stroke 5079 3744 M
3533 677 M
119 92 V
2374 1612 M
120 92 V
1077 3295 M
120 92 V
2944 1926 M
119 91 V
1152 551 M
119 92 V
-43 3754 R
120 92 V
5807 336 M
120 92 V
4485 2116 M
119 92 V
2860 3898 M
120 92 V
6630 3573 M
119 92 V
1249 2040 M
120 91 V
6199 4165 M
120 92 V
6423 3224 M
120 92 V
4941 3216 M
120 92 V
1339 859 M
120 92 V
780 118 R
120 92 V
1084 404 M
119 92 V
6275 763 M
119 92 V
4730 3500 M
119 92 V
3361 948 M
119 92 V
-511 775 R
120 91 V
-941 873 R
120 91 V
1498 4080 M
119 92 V
1381 3476 M
120 92 V
6229 476 M
120 92 V
4310 2296 M
119 92 V
4039 1156 M
120 92 V
470 2442 R
120 92 V
1763 4069 M
120 92 V
2152 2038 M
120 92 V
3959 706 M
120 92 V
5228 1865 M
119 92 V
6535 3048 M
120 92 V
5710 1054 M
120 92 V
6456 415 M
120 91 V
1851 1251 M
120 92 V
649 2673 R
120 92 V
6320 1696 M
119 92 V
1605 1649 M
120 92 V
999 1295 M
120 92 V
926 91 R
120 92 V
75 -617 R
120 91 V
6332 394 M
120 92 V
3842 2723 M
119 91 V
3362 1953 M
120 92 V
1762 440 R
120 91 V
479 -771 R
119 92 V
607 1385 R
120 92 V
5563 3206 M
119 92 V
2059 2946 M
120 91 V
5848 1181 M
119 92 V
3018 3237 M
119 92 V
stroke 3137 3329 M
3917 2321 M
120 92 V
6217 3497 M
120 92 V
2429 333 M
120 91 V
543 3252 R
119 92 V
4347 2072 M
120 92 V
229 924 R
119 92 V
-2934 80 R
120 92 V
3264 596 R
119 91 V
616 -779 R
120 92 V
286 859 R
120 92 V
2413 1997 M
119 92 V
-215 198 R
120 91 V
-408 341 R
120 92 V
907 355 R
120 92 V
1758 3494 M
120 92 V
4162 160 R
120 92 V
1331 783 M
119 92 V
-35 817 R
119 92 V
5680 4277 M
120 92 V
2240 1811 M
120 91 V
5719 4661 M
119 91 V
71 -2981 R
120 92 V
-837 777 R
119 92 V
2370 2833 M
120 92 V
6048 1892 M
119 92 V
4128 1064 M
119 92 V
3061 2550 M
120 92 V
4240 299 M
120 92 V
709 406 R
119 92 V
3021 3725 M
120 92 V
2624 1847 M
119 92 V
6304 293 M
120 92 V
5620 4320 M
120 92 V
5346 4038 M
120 92 V
5433 1617 M
119 92 V
2307 2424 M
119 92 V
-838 348 R
120 92 V
5416 4494 M
120 92 V
6674 4336 M
120 92 V
6499 3972 M
119 92 V
5617 1853 M
120 92 V
4831 4006 M
120 92 V
1071 468 R
119 92 V
6048 597 M
120 92 V
-375 398 R
120 92 V
5346 434 M
120 92 V
3404 752 M
119 91 V
1197 178 R
119 92 V
1219 500 R
119 92 V
2190 2258 M
119 92 V
6285 576 M
120 92 V
4930 4033 M
119 92 V
stroke 5049 4125 M
1133 2624 M
120 92 V
4998 146 R
119 92 V
1994 749 M
119 92 V
5030 3532 M
119 92 V
3630 448 M
120 92 V
427 216 R
120 92 V
1670 550 M
120 92 V
-363 560 R
120 92 V
2786 2858 M
119 92 V
4226 1344 M
119 92 V
3391 943 M
120 91 V
864 2051 R
119 92 V
-165 557 R
120 92 V
1100 1904 M
120 92 V
4097 884 R
119 91 V
1646 1412 M
120 92 V
1444 725 R
120 92 V
2534 3788 M
119 92 V
4300 2445 M
120 92 V
6311 1221 M
119 92 V
1954 1274 M
120 92 V
4910 3444 M
120 91 V
156 -980 R
120 92 V
2099 4298 M
120 92 V
3426 3541 M
120 91 V
4524 1381 M
119 92 V
1885 400 R
119 92 V
3138 3075 M
120 91 V
1429 2092 M
119 92 V
2848 1638 M
120 92 V
2704 3972 M
120 92 V
86 -1238 R
119 92 V
1831 246 R
120 91 V
3957 2089 M
120 92 V
4525 680 M
120 92 V
1022 1406 M
120 92 V
1679 919 M
120 92 V
261 2016 R
119 92 V
2830 261 R
119 92 V
6249 854 M
120 92 V
5206 446 M
119 92 V
1450 638 M
120 92 V
6289 2511 M
120 92 V
2657 4355 M
120 92 V
6373 798 M
119 92 V
-62 2486 R
119 92 V
1150 4346 M
120 92 V
5932 839 M
119 92 V
2256 2274 M
119 92 V
4840 2201 M
119 91 V
5966 581 M
119 92 V
-154 822 R
120 91 V
stroke 6051 1586 M
277 226 R
120 91 V
5936 1766 M
120 92 V
-3025 53 R
120 92 V
4405 4248 M
119 92 V
2974 3293 M
120 92 V
5066 4463 M
120 92 V
634 -651 R
120 91 V
6499 2839 M
120 92 V
3603 2319 M
120 92 V
2031 4265 M
119 92 V
1322 1302 M
119 92 V
486 1069 R
120 91 V
991 138 R
120 92 V
470 -317 R
120 92 V
6390 2459 M
120 91 V
4722 1057 M
119 92 V
2931 2125 M
119 92 V
4302 1746 M
120 92 V
3208 2335 M
119 92 V
2525 3954 M
120 92 V
2973 380 R
120 92 V
4173 1984 M
120 91 V
319 1503 R
120 92 V
1373 1962 M
120 92 V
2335 714 M
119 92 V
94 1285 R
120 92 V
4099 308 M
119 92 V
2633 4654 M
119 92 V
1590 2749 M
119 92 V
4941 1566 M
120 91 V
2245 4188 M
119 92 V
5752 2926 M
120 92 V
2881 585 M
119 92 V
2040 4136 M
120 91 V
6623 871 M
119 92 V
5390 530 M
120 92 V
3979 1467 M
120 92 V
3802 1080 M
119 91 V
-830 687 R
120 92 V
271 -384 R
119 91 V
2262 292 M
119 92 V
5095 1805 M
120 92 V
2790 2451 M
120 92 V
-1306 39 R
119 92 V
5543 1391 M
120 92 V
384 3004 R
119 91 V
1670 2225 M
120 92 V
5920 4675 M
119 92 V
1414 1563 M
120 92 V
3949 3623 M
119 92 V
2619 3202 M
119 92 V
1651 3993 M
120 92 V
stroke 1771 4085 M
5027 1393 M
120 92 V
1825 3213 M
120 91 V
2648 2068 M
119 92 V
5083 1831 M
120 92 V
1639 2595 M
119 92 V
2746 520 M
119 92 V
1617 2411 M
119 92 V
1567 4478 M
120 92 V
3318 345 M
120 92 V
128 3682 R
120 92 V
2654 237 R
119 92 V
5574 3536 M
119 92 V
2088 3270 M
119 92 V
5282 1901 M
119 91 V
5038 1447 M
120 92 V
2056 2456 M
120 92 V
3702 2442 M
119 92 V
3912 402 M
119 92 V
1440 1329 M
119 92 V
326 721 R
120 92 V
5827 945 M
119 92 V
2135 1638 M
119 91 V
398 1975 R
119 92 V
3958 3479 M
119 92 V
2559 2172 M
119 92 V
1102 2253 M
119 91 V
5428 459 R
120 92 V
4698 2376 M
119 92 V
3727 289 M
120 92 V
2147 3471 M
120 92 V
4691 311 M
119 91 V
6704 1432 CircleF
6823 1524 CircleF
5029 2142 CircleF
5149 2234 CircleF
3631 2385 CircleF
3751 2477 CircleF
5782 2836 CircleF
5901 2928 CircleF
2986 4110 CircleF
3106 4201 CircleF
1053 3601 CircleF
1173 3693 CircleF
2193 1178 CircleF
2312 1270 CircleF
6014 3817 CircleF
6133 3908 CircleF
4899 2256 CircleF
5018 2348 CircleF
4534 1970 CircleF
4653 2062 CircleF
3632 4177 CircleF
3751 4269 CircleF
2596 4449 CircleF
2716 4541 CircleF
1649 3214 CircleF
1769 3306 CircleF
3747 2148 CircleF
3866 2239 CircleF
1340 3086 CircleF
1459 3178 CircleF
1814 1434 CircleF
1933 1526 CircleF
1641 1234 CircleF
1761 1326 CircleF
5461 1579 CircleF
5580 1671 CircleF
1335 1016 CircleF
1454 1107 CircleF
5393 4128 CircleF
5513 4220 CircleF
5206 2815 CircleF
5326 2907 CircleF
4004 4467 CircleF
4123 4559 CircleF
3206 1891 CircleF
3326 1983 CircleF
4869 3912 CircleF
4989 4004 CircleF
5662 4497 CircleF
5782 4589 CircleF
6430 2541 CircleF
6550 2633 CircleF
2385 1025 CircleF
2504 1117 CircleF
6155 2770 CircleF
6274 2862 CircleF
4875 4018 CircleF
4994 4109 CircleF
4388 1271 CircleF
4507 1363 CircleF
4381 1188 CircleF
4500 1279 CircleF
4911 2310 CircleF
5031 2402 CircleF
6220 1466 CircleF
6340 1558 CircleF
5375 1946 CircleF
5494 2038 CircleF
2536 2543 CircleF
2656 2635 CircleF
1057 4425 CircleF
1176 4517 CircleF
5115 3445 CircleF
5235 3537 CircleF
5293 4202 CircleF
5413 4294 CircleF
4427 1002 CircleF
4546 1094 CircleF
6043 3382 CircleF
6163 3474 CircleF
2653 4265 CircleF
2773 4357 CircleF
4436 1623 CircleF
4556 1714 CircleF
4397 4191 CircleF
4516 4282 CircleF
4008 1897 CircleF
4127 1988 CircleF
5993 800 CircleF
6113 892 CircleF
4655 4538 CircleF
4775 4630 CircleF
1500 1147 CircleF
1620 1239 CircleF
3835 3746 CircleF
3955 3838 CircleF
4639 534 CircleF
4759 626 CircleF
3823 2932 CircleF
3943 3024 CircleF
4858 4252 CircleF
4977 4344 CircleF
4948 485 CircleF
5068 577 CircleF
2737 366 CircleF
2857 458 CircleF
4798 1562 CircleF
4917 1654 CircleF
2319 3669 CircleF
2439 3761 CircleF
1791 3089 CircleF
1910 3180 CircleF
4261 782 CircleF
4381 874 CircleF
6675 1031 CircleF
6794 1123 CircleF
1539 2082 CircleF
1659 2174 CircleF
4524 3231 CircleF
4644 3323 CircleF
3074 901 CircleF
3194 993 CircleF
6163 4465 CircleF
6283 4557 CircleF
4281 3402 CircleF
4401 3494 CircleF
4753 3739 CircleF
4873 3831 CircleF
5918 1609 CircleF
6037 1701 CircleF
5831 3738 CircleF
5951 3830 CircleF
2470 4687 CircleF
2589 4778 CircleF
3245 654 CircleF
3364 745 CircleF
3023 4339 CircleF
3142 4431 CircleF
5309 3656 CircleF
5429 3748 CircleF
3510 843 CircleF
3630 934 CircleF
4085 4076 CircleF
4204 4167 CircleF
6653 2048 CircleF
6773 2139 CircleF
5475 4404 CircleF
5594 4496 CircleF
1380 4198 CircleF
1500 4290 CircleF
2873 2477 CircleF
2993 2569 CircleF
5198 2645 CircleF
5317 2737 CircleF
4253 3988 CircleF
4373 4080 CircleF
6075 2867 CircleF
6195 2959 CircleF
4321 3331 CircleF
4441 3423 CircleF
3640 1867 CircleF
3760 1959 CircleF
1184 1581 CircleF
1303 1673 CircleF
2564 2694 CircleF
2683 2786 CircleF
2386 3721 CircleF
2506 3812 CircleF
1358 3303 CircleF
1478 3394 CircleF
3569 2712 CircleF
3688 2804 CircleF
1334 1776 CircleF
1454 1868 CircleF
1823 4541 CircleF
1942 4633 CircleF
2123 2759 CircleF
2242 2850 CircleF
5303 4140 CircleF
5423 4232 CircleF
2946 3265 CircleF
3065 3357 CircleF
4786 3656 CircleF
4905 3748 CircleF
3294 985 CircleF
3414 1077 CircleF
4456 4515 CircleF
4576 4607 CircleF
3929 4130 CircleF
4048 4222 CircleF
6517 3122 CircleF
6636 3214 CircleF
3171 3094 CircleF
3291 3186 CircleF
3437 877 CircleF
3556 969 CircleF
4490 872 CircleF
4609 964 CircleF
6596 4338 CircleF
6715 4430 CircleF
3316 1343 CircleF
3436 1434 CircleF
2029 1366 CircleF
2148 1458 CircleF
2760 703 CircleF
2880 795 CircleF
4097 1456 CircleF
4217 1548 CircleF
2055 1204 CircleF
2174 1296 CircleF
5080 2555 CircleF
5200 2646 CircleF
6591 2464 CircleF
6711 2556 CircleF
5904 708 CircleF
6023 800 CircleF
2275 1134 CircleF
2395 1226 CircleF
3569 4397 CircleF
3688 4489 CircleF
4572 4642 CircleF
4692 4734 CircleF
2777 754 CircleF
2897 845 CircleF
5664 4641 CircleF
5784 4733 CircleF
3649 2575 CircleF
3769 2666 CircleF
1656 1282 CircleF
1776 1374 CircleF
3279 1623 CircleF
3399 1715 CircleF
1613 1080 CircleF
1733 1172 CircleF
5487 2643 CircleF
5607 2735 CircleF
1000 1356 CircleF
1120 1448 CircleF
1223 1698 CircleF
1342 1790 CircleF
1131 4501 CircleF
1251 4593 CircleF
1562 408 CircleF
1682 500 CircleF
3850 3070 CircleF
3970 3162 CircleF
2755 4315 CircleF
2875 4407 CircleF
2415 1877 CircleF
2535 1969 CircleF
4208 2510 CircleF
4327 2601 CircleF
4428 2299 CircleF
4547 2390 CircleF
4486 4518 CircleF
4606 4610 CircleF
2687 2499 CircleF
2807 2590 CircleF
4698 1141 CircleF
4818 1233 CircleF
1203 400 CircleF
1323 492 CircleF
1143 4058 CircleF
1263 4150 CircleF
1821 758 CircleF
1940 850 CircleF
6165 3605 CircleF
6285 3697 CircleF
5477 1549 CircleF
5596 1641 CircleF
4615 4248 CircleF
4734 4339 CircleF
2517 1313 CircleF
2636 1405 CircleF
3177 2549 CircleF
3297 2641 CircleF
4851 989 CircleF
4971 1080 CircleF
6182 3371 CircleF
6301 3463 CircleF
2022 2417 CircleF
2142 2509 CircleF
6615 3309 CircleF
6734 3401 CircleF
2929 1092 CircleF
3048 1183 CircleF
5373 2740 CircleF
5493 2832 CircleF
1234 970 CircleF
1354 1062 CircleF
1782 3990 CircleF
1902 4082 CircleF
4899 667 CircleF
5019 759 CircleF
1568 2667 CircleF
1688 2759 CircleF
5701 3378 CircleF
5821 3470 CircleF
1555 2377 CircleF
1674 2469 CircleF
2510 1349 CircleF
2630 1441 CircleF
3691 1915 CircleF
3811 2007 CircleF
2409 2967 CircleF
2529 3059 CircleF
1177 4588 CircleF
1297 4680 CircleF
3702 1251 CircleF
3822 1343 CircleF
2902 888 CircleF
3022 980 CircleF
4649 3757 CircleF
4768 3849 CircleF
3405 4636 CircleF
3524 4728 CircleF
1724 4009 CircleF
1843 4101 CircleF
2998 367 CircleF
3118 459 CircleF
1558 2849 CircleF
1677 2941 CircleF
3699 2700 CircleF
3819 2792 CircleF
6510 2530 CircleF
6630 2621 CircleF
3482 534 CircleF
3602 626 CircleF
1695 1317 CircleF
1814 1408 CircleF
5106 933 CircleF
5225 1025 CircleF
6149 2825 CircleF
6269 2917 CircleF
3088 1798 CircleF
3207 1890 CircleF
4113 742 CircleF
4233 834 CircleF
2943 1375 CircleF
3063 1466 CircleF
2612 1916 CircleF
2732 2008 CircleF
5202 2802 CircleF
5322 2894 CircleF
4995 2923 CircleF
5115 3015 CircleF
2697 4221 CircleF
2817 4313 CircleF
2797 2428 CircleF
2917 2520 CircleF
4476 2613 CircleF
4596 2705 CircleF
1733 3173 CircleF
1852 3265 CircleF
2712 2105 CircleF
2831 2197 CircleF
5342 3809 CircleF
5461 3901 CircleF
6068 839 CircleF
6187 931 CircleF
4402 4512 CircleF
4522 4604 CircleF
6111 2410 CircleF
6230 2502 CircleF
6131 4674 CircleF
6251 4766 CircleF
5615 1215 CircleF
5735 1307 CircleF
3773 939 CircleF
3892 1031 CircleF
4939 3374 CircleF
5058 3466 CircleF
6286 2938 CircleF
6405 3030 CircleF
1158 2223 CircleF
1278 2315 CircleF
5483 1886 CircleF
5602 1978 CircleF
3334 2343 CircleF
3454 2435 CircleF
5620 2309 CircleF
5740 2401 CircleF
4791 670 CircleF
4910 762 CircleF
1439 3078 CircleF
1558 3170 CircleF
4483 1962 CircleF
4603 2054 CircleF
1099 2471 CircleF
1219 2563 CircleF
6196 2916 CircleF
6316 3007 CircleF
4645 2692 CircleF
4765 2784 CircleF
2153 3010 CircleF
2272 3102 CircleF
1127 1038 CircleF
1246 1130 CircleF
4306 2404 CircleF
4426 2496 CircleF
3340 4623 CircleF
3459 4715 CircleF
2614 782 CircleF
2734 874 CircleF
2232 674 CircleF
2352 766 CircleF
3314 1230 CircleF
3434 1321 CircleF
6614 3904 CircleF
6733 3996 CircleF
6031 3855 CircleF
6151 3947 CircleF
2215 4021 CircleF
2335 4113 CircleF
2602 714 CircleF
2721 806 CircleF
2583 4502 CircleF
2703 4594 CircleF
5978 651 CircleF
6098 743 CircleF
4334 407 CircleF
4454 499 CircleF
3418 3117 CircleF
3538 3209 CircleF
1593 4135 CircleF
1712 4226 CircleF
2610 4142 CircleF
2729 4234 CircleF
2911 1559 CircleF
3031 1650 CircleF
4444 4677 CircleF
4564 4769 CircleF
2771 3884 CircleF
2891 3976 CircleF
6605 3525 CircleF
6724 3617 CircleF
1366 1361 CircleF
1486 1453 CircleF
2199 2776 CircleF
2319 2868 CircleF
5184 4557 CircleF
5304 4649 CircleF
3073 1089 CircleF
3193 1181 CircleF
4351 2972 CircleF
4471 3064 CircleF
6670 2129 CircleF
6789 2221 CircleF
2877 4638 CircleF
2997 4730 CircleF
4256 4200 CircleF
4375 4292 CircleF
3883 2357 CircleF
4003 2448 CircleF
6007 1574 CircleF
6127 1666 CircleF
4405 2410 CircleF
4524 2502 CircleF
1060 421 CircleF
1180 513 CircleF
5761 768 CircleF
5880 860 CircleF
4985 1536 CircleF
5105 1628 CircleF
1262 3225 CircleF
1382 3317 CircleF
1091 2360 CircleF
1211 2452 CircleF
4877 591 CircleF
4997 683 CircleF
1310 3788 CircleF
1430 3880 CircleF
5221 3171 CircleF
5341 3263 CircleF
2123 991 CircleF
2243 1083 CircleF
1594 3998 CircleF
1713 4090 CircleF
4954 3889 CircleF
5074 3980 CircleF
6694 2063 CircleF
6814 2154 CircleF
4278 2613 CircleF
4398 2705 CircleF
5437 4189 CircleF
5557 4281 CircleF
6452 2803 CircleF
6572 2895 CircleF
3033 1770 CircleF
3153 1862 CircleF
6139 2475 CircleF
6258 2567 CircleF
2338 2059 CircleF
2458 2151 CircleF
1451 1498 CircleF
1570 1590 CircleF
5712 940 CircleF
5832 1032 CircleF
6473 3596 CircleF
6593 3688 CircleF
3703 2489 CircleF
3823 2581 CircleF
5799 2522 CircleF
5919 2613 CircleF
1509 304 CircleF
1628 395 CircleF
1591 3446 CircleF
1711 3538 CircleF
1792 3232 CircleF
1912 3324 CircleF
2035 1376 CircleF
2155 1468 CircleF
2860 4486 CircleF
2980 4578 CircleF
2152 2314 CircleF
2271 2406 CircleF
2802 4502 CircleF
2921 4594 CircleF
997 713 CircleF
1116 805 CircleF
4959 3652 CircleF
5079 3744 CircleF
3533 677 CircleF
3652 769 CircleF
2374 1612 CircleF
2494 1704 CircleF
1077 3295 CircleF
1197 3387 CircleF
2944 1926 CircleF
3063 2017 CircleF
1152 551 CircleF
1271 643 CircleF
1228 4397 CircleF
1348 4489 CircleF
5807 336 CircleF
5927 428 CircleF
4485 2116 CircleF
4604 2208 CircleF
2860 3898 CircleF
2980 3990 CircleF
6630 3573 CircleF
6749 3665 CircleF
1249 2040 CircleF
1369 2131 CircleF
6199 4165 CircleF
6319 4257 CircleF
6423 3224 CircleF
6543 3316 CircleF
4941 3216 CircleF
5061 3308 CircleF
1339 859 CircleF
1459 951 CircleF
2239 1069 CircleF
2359 1161 CircleF
1084 404 CircleF
1203 496 CircleF
6275 763 CircleF
6394 855 CircleF
4730 3500 CircleF
4849 3592 CircleF
3361 948 CircleF
3480 1040 CircleF
2969 1815 CircleF
3089 1906 CircleF
2148 2779 CircleF
2268 2870 CircleF
1498 4080 CircleF
1617 4172 CircleF
1381 3476 CircleF
1501 3568 CircleF
6229 476 CircleF
6349 568 CircleF
4310 2296 CircleF
4429 2388 CircleF
4039 1156 CircleF
4159 1248 CircleF
4629 3690 CircleF
4749 3782 CircleF
1763 4069 CircleF
1883 4161 CircleF
2152 2038 CircleF
2272 2130 CircleF
3959 706 CircleF
4079 798 CircleF
5228 1865 CircleF
5347 1957 CircleF
6535 3048 CircleF
6655 3140 CircleF
5710 1054 CircleF
5830 1146 CircleF
6456 415 CircleF
6576 506 CircleF
1851 1251 CircleF
1971 1343 CircleF
2620 4016 CircleF
2740 4108 CircleF
6320 1696 CircleF
6439 1788 CircleF
1605 1649 CircleF
1725 1741 CircleF
999 1295 CircleF
1119 1387 CircleF
2045 1478 CircleF
2165 1570 CircleF
2240 953 CircleF
2360 1044 CircleF
6332 394 CircleF
6452 486 CircleF
3842 2723 CircleF
3961 2814 CircleF
3362 1953 CircleF
3482 2045 CircleF
5244 2485 CircleF
5364 2576 CircleF
5843 1805 CircleF
5962 1897 CircleF
6569 3282 CircleF
6689 3374 CircleF
5563 3206 CircleF
5682 3298 CircleF
2059 2946 CircleF
2179 3037 CircleF
5848 1181 CircleF
5967 1273 CircleF
3018 3237 CircleF
3137 3329 CircleF
3917 2321 CircleF
4037 2413 CircleF
6217 3497 CircleF
6337 3589 CircleF
2429 333 CircleF
2549 424 CircleF
3092 3676 CircleF
3211 3768 CircleF
4347 2072 CircleF
4467 2164 CircleF
4696 3088 CircleF
4815 3180 CircleF
1881 3260 CircleF
2001 3352 CircleF
5265 3948 CircleF
5384 4039 CircleF
6000 3260 CircleF
6120 3352 CircleF
6406 4211 CircleF
6526 4303 CircleF
2413 1997 CircleF
2532 2089 CircleF
2317 2287 CircleF
2437 2378 CircleF
2029 2719 CircleF
2149 2811 CircleF
3056 3166 CircleF
3176 3258 CircleF
1758 3494 CircleF
1878 3586 CircleF
6040 3746 CircleF
6160 3838 CircleF
1331 783 CircleF
1450 875 CircleF
1415 1692 CircleF
1534 1784 CircleF
5680 4277 CircleF
5800 4369 CircleF
2240 1811 CircleF
2360 1902 CircleF
5719 4661 CircleF
5838 4752 CircleF
5909 1771 CircleF
6029 1863 CircleF
5192 2640 CircleF
5311 2732 CircleF
2370 2833 CircleF
2490 2925 CircleF
6048 1892 CircleF
6167 1984 CircleF
4128 1064 CircleF
4247 1156 CircleF
3061 2550 CircleF
3181 2642 CircleF
4240 299 CircleF
4360 391 CircleF
5069 797 CircleF
5188 889 CircleF
3021 3725 CircleF
3141 3817 CircleF
2624 1847 CircleF
2743 1939 CircleF
6304 293 CircleF
6424 385 CircleF
5620 4320 CircleF
5740 4412 CircleF
5346 4038 CircleF
5466 4130 CircleF
5433 1617 CircleF
5552 1709 CircleF
2307 2424 CircleF
2426 2516 CircleF
1588 2864 CircleF
1708 2956 CircleF
5416 4494 CircleF
5536 4586 CircleF
6674 4336 CircleF
6794 4428 CircleF
6499 3972 CircleF
6618 4064 CircleF
5617 1853 CircleF
5737 1945 CircleF
4831 4006 CircleF
4951 4098 CircleF
6022 4566 CircleF
6141 4658 CircleF
6048 597 CircleF
6168 689 CircleF
5793 1087 CircleF
5913 1179 CircleF
5346 434 CircleF
5466 526 CircleF
3404 752 CircleF
3523 843 CircleF
4720 1021 CircleF
4839 1113 CircleF
6058 1613 CircleF
6177 1705 CircleF
2190 2258 CircleF
2309 2350 CircleF
6285 576 CircleF
6405 668 CircleF
4930 4033 CircleF
5049 4125 CircleF
1133 2624 CircleF
1253 2716 CircleF
6251 2862 CircleF
6370 2954 CircleF
1994 749 CircleF
2113 841 CircleF
5030 3532 CircleF
5149 3624 CircleF
3630 448 CircleF
3750 540 CircleF
4177 756 CircleF
4297 848 CircleF
1670 550 CircleF
1790 642 CircleF
1427 1202 CircleF
1547 1294 CircleF
2786 2858 CircleF
2905 2950 CircleF
4226 1344 CircleF
4345 1436 CircleF
3391 943 CircleF
3511 1034 CircleF
4375 3085 CircleF
4494 3177 CircleF
4329 3734 CircleF
4449 3826 CircleF
1100 1904 CircleF
1220 1996 CircleF
5317 2880 CircleF
5436 2971 CircleF
1646 1412 CircleF
1766 1504 CircleF
3210 2229 CircleF
3330 2321 CircleF
2534 3788 CircleF
2653 3880 CircleF
4300 2445 CircleF
4420 2537 CircleF
6311 1221 CircleF
6430 1313 CircleF
1954 1274 CircleF
2074 1366 CircleF
4910 3444 CircleF
5030 3535 CircleF
5186 2555 CircleF
5306 2647 CircleF
2099 4298 CircleF
2219 4390 CircleF
3426 3541 CircleF
3546 3632 CircleF
4524 1381 CircleF
4643 1473 CircleF
6528 1873 CircleF
6647 1965 CircleF
3138 3075 CircleF
3258 3166 CircleF
1429 2092 CircleF
1548 2184 CircleF
2848 1638 CircleF
2968 1730 CircleF
2704 3972 CircleF
2824 4064 CircleF
2910 2826 CircleF
3029 2918 CircleF
4860 3164 CircleF
4980 3255 CircleF
3957 2089 CircleF
4077 2181 CircleF
4525 680 CircleF
4645 772 CircleF
1022 1406 CircleF
1142 1498 CircleF
1679 919 CircleF
1799 1011 CircleF
2060 3027 CircleF
2179 3119 CircleF
5009 3380 CircleF
5128 3472 CircleF
6249 854 CircleF
6369 946 CircleF
5206 446 CircleF
5325 538 CircleF
1450 638 CircleF
1570 730 CircleF
6289 2511 CircleF
6409 2603 CircleF
2657 4355 CircleF
2777 4447 CircleF
6373 798 CircleF
6492 890 CircleF
6430 3376 CircleF
6549 3468 CircleF
1150 4346 CircleF
1270 4438 CircleF
5932 839 CircleF
6051 931 CircleF
2256 2274 CircleF
2375 2366 CircleF
4840 2201 CircleF
4959 2292 CircleF
5966 581 CircleF
6085 673 CircleF
5931 1495 CircleF
6051 1586 CircleF
6328 1812 CircleF
6448 1903 CircleF
5936 1766 CircleF
6056 1858 CircleF
3031 1911 CircleF
3151 2003 CircleF
4405 4248 CircleF
4524 4340 CircleF
2974 3293 CircleF
3094 3385 CircleF
5066 4463 CircleF
5186 4555 CircleF
5820 3904 CircleF
5940 3995 CircleF
6499 2839 CircleF
6619 2931 CircleF
3603 2319 CircleF
3723 2411 CircleF
2031 4265 CircleF
2150 4357 CircleF
1322 1302 CircleF
1441 1394 CircleF
1927 2463 CircleF
2047 2554 CircleF
3038 2692 CircleF
3158 2784 CircleF
3628 2467 CircleF
3748 2559 CircleF
6390 2459 CircleF
6510 2550 CircleF
4722 1057 CircleF
4841 1149 CircleF
2931 2125 CircleF
3050 2217 CircleF
4302 1746 CircleF
4422 1838 CircleF
3208 2335 CircleF
3327 2427 CircleF
2525 3954 CircleF
2645 4046 CircleF
5618 4426 CircleF
5738 4518 CircleF
4173 1984 CircleF
4293 2075 CircleF
4612 3578 CircleF
4732 3670 CircleF
1373 1962 CircleF
1493 2054 CircleF
2335 714 CircleF
2454 806 CircleF
2548 2091 CircleF
2668 2183 CircleF
4099 308 CircleF
4218 400 CircleF
2633 4654 CircleF
2752 4746 CircleF
1590 2749 CircleF
1709 2841 CircleF
4941 1566 CircleF
5061 1657 CircleF
2245 4188 CircleF
2364 4280 CircleF
5752 2926 CircleF
5872 3018 CircleF
2881 585 CircleF
3000 677 CircleF
2040 4136 CircleF
2160 4227 CircleF
6623 871 CircleF
6742 963 CircleF
5390 530 CircleF
5510 622 CircleF
3979 1467 CircleF
4099 1559 CircleF
3802 1080 CircleF
3921 1171 CircleF
3091 1858 CircleF
3211 1950 CircleF
3482 1566 CircleF
3601 1657 CircleF
2262 292 CircleF
2381 384 CircleF
5095 1805 CircleF
5215 1897 CircleF
2790 2451 CircleF
2910 2543 CircleF
1604 2582 CircleF
1723 2674 CircleF
5543 1391 CircleF
5663 1483 CircleF
6047 4487 CircleF
6166 4578 CircleF
1670 2225 CircleF
1790 2317 CircleF
5920 4675 CircleF
6039 4767 CircleF
1414 1563 CircleF
1534 1655 CircleF
3949 3623 CircleF
4068 3715 CircleF
2619 3202 CircleF
2738 3294 CircleF
1651 3993 CircleF
1771 4085 CircleF
5027 1393 CircleF
5147 1485 CircleF
1825 3213 CircleF
1945 3304 CircleF
2648 2068 CircleF
2767 2160 CircleF
5083 1831 CircleF
5203 1923 CircleF
1639 2595 CircleF
1758 2687 CircleF
2746 520 CircleF
2865 612 CircleF
1617 2411 CircleF
1736 2503 CircleF
1567 4478 CircleF
1687 4570 CircleF
3318 345 CircleF
3438 437 CircleF
3566 4119 CircleF
3686 4211 CircleF
6340 4448 CircleF
6459 4540 CircleF
5574 3536 CircleF
5693 3628 CircleF
2088 3270 CircleF
2207 3362 CircleF
5282 1901 CircleF
5401 1992 CircleF
5038 1447 CircleF
5158 1539 CircleF
2056 2456 CircleF
2176 2548 CircleF
3702 2442 CircleF
3821 2534 CircleF
3912 402 CircleF
4031 494 CircleF
1440 1329 CircleF
1559 1421 CircleF
1885 2142 CircleF
2005 2234 CircleF
5827 945 CircleF
5946 1037 CircleF
2135 1638 CircleF
2254 1729 CircleF
2652 3704 CircleF
2771 3796 CircleF
3958 3479 CircleF
4077 3571 CircleF
2559 2172 CircleF
2678 2264 CircleF
1102 2253 CircleF
1221 2344 CircleF
6649 2803 CircleF
6769 2895 CircleF
4698 2376 CircleF
4817 2468 CircleF
3727 289 CircleF
3847 381 CircleF
2147 3471 CircleF
2267 3563 CircleF
4691 311 CircleF
4810 402 CircleF
% End plot #2
1.000 UP
1.000 UL
LT0
0.50 0.50 0.50 C stroke
grestore
end
showpage
%%Trailer
%%DocumentFonts: Helvetica
%%Pages: 1
