%!PS-Adobe-2.0
%%Title: out.ps
%%Creator: gnuplot 4.6 patchlevel 6
%%CreationDate: Thu May 28 19:18:58 2015
%%DocumentFonts: (atend)
%%BoundingBox: 50 50 554 770
%%Orientation: Landscape
%%Pages: (atend)
%%EndComments
%%BeginProlog
/gnudict 256 dict def
gnudict begin
%
% The following true/false flags may be edited by hand if desired.
% The unit line width and grayscale image gamma correction may also be changed.
%
/Color false def
/Blacktext false def
/Solid false def
/Dashlength 1 def
/Landscape true def
/Level1 false def
/Rounded false def
/ClipToBoundingBox false def
/SuppressPDFMark false def
/TransparentPatterns false def
/gnulinewidth 5.000 def
/userlinewidth gnulinewidth def
/Gamma 1.0 def
/BackgroundColor {-1.000 -1.000 -1.000} def
%
/vshift -46 def
/dl1 {
  10.0 Dashlength mul mul
  Rounded { currentlinewidth 0.75 mul sub dup 0 le { pop 0.01 } if } if
} def
/dl2 {
  10.0 Dashlength mul mul
  Rounded { currentlinewidth 0.75 mul add } if
} def
/hpt_ 31.5 def
/vpt_ 31.5 def
/hpt hpt_ def
/vpt vpt_ def
/doclip {
  ClipToBoundingBox {
    newpath 50 50 moveto 554 50 lineto 554 770 lineto 50 770 lineto closepath
    clip
  } if
} def
%
% Gnuplot Prolog Version 4.6 (September 2012)
%
%/SuppressPDFMark true def
%
/M {moveto} bind def
/L {lineto} bind def
/R {rmoveto} bind def
/V {rlineto} bind def
/N {newpath moveto} bind def
/Z {closepath} bind def
/C {setrgbcolor} bind def
/f {rlineto fill} bind def
/g {setgray} bind def
/Gshow {show} def   % May be redefined later in the file to support UTF-8
/vpt2 vpt 2 mul def
/hpt2 hpt 2 mul def
/Lshow {currentpoint stroke M 0 vshift R 
	Blacktext {gsave 0 setgray show grestore} {show} ifelse} def
/Rshow {currentpoint stroke M dup stringwidth pop neg vshift R
	Blacktext {gsave 0 setgray show grestore} {show} ifelse} def
/Cshow {currentpoint stroke M dup stringwidth pop -2 div vshift R 
	Blacktext {gsave 0 setgray show grestore} {show} ifelse} def
/UP {dup vpt_ mul /vpt exch def hpt_ mul /hpt exch def
  /hpt2 hpt 2 mul def /vpt2 vpt 2 mul def} def
/DL {Color {setrgbcolor Solid {pop []} if 0 setdash}
 {pop pop pop 0 setgray Solid {pop []} if 0 setdash} ifelse} def
/BL {stroke userlinewidth 2 mul setlinewidth
	Rounded {1 setlinejoin 1 setlinecap} if} def
/AL {stroke userlinewidth 2 div setlinewidth
	Rounded {1 setlinejoin 1 setlinecap} if} def
/UL {dup gnulinewidth mul /userlinewidth exch def
	dup 1 lt {pop 1} if 10 mul /udl exch def} def
/PL {stroke userlinewidth setlinewidth
	Rounded {1 setlinejoin 1 setlinecap} if} def
3.8 setmiterlimit
% Default Line colors
/LCw {1 1 1} def
/LCb {0 0 0} def
/LCa {0 0 0} def
/LC0 {1 0 0} def
/LC1 {0 1 0} def
/LC2 {0 0 1} def
/LC3 {1 0 1} def
/LC4 {0 1 1} def
/LC5 {1 1 0} def
/LC6 {0 0 0} def
/LC7 {1 0.3 0} def
/LC8 {0.5 0.5 0.5} def
% Default Line Types
/LTw {PL [] 1 setgray} def
/LTb {BL [] LCb DL} def
/LTa {AL [1 udl mul 2 udl mul] 0 setdash LCa setrgbcolor} def
/LT0 {PL [] LC0 DL} def
/LT1 {PL [4 dl1 2 dl2] LC1 DL} def
/LT2 {PL [2 dl1 3 dl2] LC2 DL} def
/LT3 {PL [1 dl1 1.5 dl2] LC3 DL} def
/LT4 {PL [6 dl1 2 dl2 1 dl1 2 dl2] LC4 DL} def
/LT5 {PL [3 dl1 3 dl2 1 dl1 3 dl2] LC5 DL} def
/LT6 {PL [2 dl1 2 dl2 2 dl1 6 dl2] LC6 DL} def
/LT7 {PL [1 dl1 2 dl2 6 dl1 2 dl2 1 dl1 2 dl2] LC7 DL} def
/LT8 {PL [2 dl1 2 dl2 2 dl1 2 dl2 2 dl1 2 dl2 2 dl1 4 dl2] LC8 DL} def
/Pnt {stroke [] 0 setdash gsave 1 setlinecap M 0 0 V stroke grestore} def
/Dia {stroke [] 0 setdash 2 copy vpt add M
  hpt neg vpt neg V hpt vpt neg V
  hpt vpt V hpt neg vpt V closepath stroke
  Pnt} def
/Pls {stroke [] 0 setdash vpt sub M 0 vpt2 V
  currentpoint stroke M
  hpt neg vpt neg R hpt2 0 V stroke
 } def
/Box {stroke [] 0 setdash 2 copy exch hpt sub exch vpt add M
  0 vpt2 neg V hpt2 0 V 0 vpt2 V
  hpt2 neg 0 V closepath stroke
  Pnt} def
/Crs {stroke [] 0 setdash exch hpt sub exch vpt add M
  hpt2 vpt2 neg V currentpoint stroke M
  hpt2 neg 0 R hpt2 vpt2 V stroke} def
/TriU {stroke [] 0 setdash 2 copy vpt 1.12 mul add M
  hpt neg vpt -1.62 mul V
  hpt 2 mul 0 V
  hpt neg vpt 1.62 mul V closepath stroke
  Pnt} def
/Star {2 copy Pls Crs} def
/BoxF {stroke [] 0 setdash exch hpt sub exch vpt add M
  0 vpt2 neg V hpt2 0 V 0 vpt2 V
  hpt2 neg 0 V closepath fill} def
/TriUF {stroke [] 0 setdash vpt 1.12 mul add M
  hpt neg vpt -1.62 mul V
  hpt 2 mul 0 V
  hpt neg vpt 1.62 mul V closepath fill} def
/TriD {stroke [] 0 setdash 2 copy vpt 1.12 mul sub M
  hpt neg vpt 1.62 mul V
  hpt 2 mul 0 V
  hpt neg vpt -1.62 mul V closepath stroke
  Pnt} def
/TriDF {stroke [] 0 setdash vpt 1.12 mul sub M
  hpt neg vpt 1.62 mul V
  hpt 2 mul 0 V
  hpt neg vpt -1.62 mul V closepath fill} def
/DiaF {stroke [] 0 setdash vpt add M
  hpt neg vpt neg V hpt vpt neg V
  hpt vpt V hpt neg vpt V closepath fill} def
/Pent {stroke [] 0 setdash 2 copy gsave
  translate 0 hpt M 4 {72 rotate 0 hpt L} repeat
  closepath stroke grestore Pnt} def
/PentF {stroke [] 0 setdash gsave
  translate 0 hpt M 4 {72 rotate 0 hpt L} repeat
  closepath fill grestore} def
/Circle {stroke [] 0 setdash 2 copy
  hpt 0 360 arc stroke Pnt} def
/CircleF {stroke [] 0 setdash hpt 0 360 arc fill} def
/C0 {BL [] 0 setdash 2 copy moveto vpt 90 450 arc} bind def
/C1 {BL [] 0 setdash 2 copy moveto
	2 copy vpt 0 90 arc closepath fill
	vpt 0 360 arc closepath} bind def
/C2 {BL [] 0 setdash 2 copy moveto
	2 copy vpt 90 180 arc closepath fill
	vpt 0 360 arc closepath} bind def
/C3 {BL [] 0 setdash 2 copy moveto
	2 copy vpt 0 180 arc closepath fill
	vpt 0 360 arc closepath} bind def
/C4 {BL [] 0 setdash 2 copy moveto
	2 copy vpt 180 270 arc closepath fill
	vpt 0 360 arc closepath} bind def
/C5 {BL [] 0 setdash 2 copy moveto
	2 copy vpt 0 90 arc
	2 copy moveto
	2 copy vpt 180 270 arc closepath fill
	vpt 0 360 arc} bind def
/C6 {BL [] 0 setdash 2 copy moveto
	2 copy vpt 90 270 arc closepath fill
	vpt 0 360 arc closepath} bind def
/C7 {BL [] 0 setdash 2 copy moveto
	2 copy vpt 0 270 arc closepath fill
	vpt 0 360 arc closepath} bind def
/C8 {BL [] 0 setdash 2 copy moveto
	2 copy vpt 270 360 arc closepath fill
	vpt 0 360 arc closepath} bind def
/C9 {BL [] 0 setdash 2 copy moveto
	2 copy vpt 270 450 arc closepath fill
	vpt 0 360 arc closepath} bind def
/C10 {BL [] 0 setdash 2 copy 2 copy moveto vpt 270 360 arc closepath fill
	2 copy moveto
	2 copy vpt 90 180 arc closepath fill
	vpt 0 360 arc closepath} bind def
/C11 {BL [] 0 setdash 2 copy moveto
	2 copy vpt 0 180 arc closepath fill
	2 copy moveto
	2 copy vpt 270 360 arc closepath fill
	vpt 0 360 arc closepath} bind def
/C12 {BL [] 0 setdash 2 copy moveto
	2 copy vpt 180 360 arc closepath fill
	vpt 0 360 arc closepath} bind def
/C13 {BL [] 0 setdash 2 copy moveto
	2 copy vpt 0 90 arc closepath fill
	2 copy moveto
	2 copy vpt 180 360 arc closepath fill
	vpt 0 360 arc closepath} bind def
/C14 {BL [] 0 setdash 2 copy moveto
	2 copy vpt 90 360 arc closepath fill
	vpt 0 360 arc} bind def
/C15 {BL [] 0 setdash 2 copy vpt 0 360 arc closepath fill
	vpt 0 360 arc closepath} bind def
/Rec {newpath 4 2 roll moveto 1 index 0 rlineto 0 exch rlineto
	neg 0 rlineto closepath} bind def
/Square {dup Rec} bind def
/Bsquare {vpt sub exch vpt sub exch vpt2 Square} bind def
/S0 {BL [] 0 setdash 2 copy moveto 0 vpt rlineto BL Bsquare} bind def
/S1 {BL [] 0 setdash 2 copy vpt Square fill Bsquare} bind def
/S2 {BL [] 0 setdash 2 copy exch vpt sub exch vpt Square fill Bsquare} bind def
/S3 {BL [] 0 setdash 2 copy exch vpt sub exch vpt2 vpt Rec fill Bsquare} bind def
/S4 {BL [] 0 setdash 2 copy exch vpt sub exch vpt sub vpt Square fill Bsquare} bind def
/S5 {BL [] 0 setdash 2 copy 2 copy vpt Square fill
	exch vpt sub exch vpt sub vpt Square fill Bsquare} bind def
/S6 {BL [] 0 setdash 2 copy exch vpt sub exch vpt sub vpt vpt2 Rec fill Bsquare} bind def
/S7 {BL [] 0 setdash 2 copy exch vpt sub exch vpt sub vpt vpt2 Rec fill
	2 copy vpt Square fill Bsquare} bind def
/S8 {BL [] 0 setdash 2 copy vpt sub vpt Square fill Bsquare} bind def
/S9 {BL [] 0 setdash 2 copy vpt sub vpt vpt2 Rec fill Bsquare} bind def
/S10 {BL [] 0 setdash 2 copy vpt sub vpt Square fill 2 copy exch vpt sub exch vpt Square fill
	Bsquare} bind def
/S11 {BL [] 0 setdash 2 copy vpt sub vpt Square fill 2 copy exch vpt sub exch vpt2 vpt Rec fill
	Bsquare} bind def
/S12 {BL [] 0 setdash 2 copy exch vpt sub exch vpt sub vpt2 vpt Rec fill Bsquare} bind def
/S13 {BL [] 0 setdash 2 copy exch vpt sub exch vpt sub vpt2 vpt Rec fill
	2 copy vpt Square fill Bsquare} bind def
/S14 {BL [] 0 setdash 2 copy exch vpt sub exch vpt sub vpt2 vpt Rec fill
	2 copy exch vpt sub exch vpt Square fill Bsquare} bind def
/S15 {BL [] 0 setdash 2 copy Bsquare fill Bsquare} bind def
/D0 {gsave translate 45 rotate 0 0 S0 stroke grestore} bind def
/D1 {gsave translate 45 rotate 0 0 S1 stroke grestore} bind def
/D2 {gsave translate 45 rotate 0 0 S2 stroke grestore} bind def
/D3 {gsave translate 45 rotate 0 0 S3 stroke grestore} bind def
/D4 {gsave translate 45 rotate 0 0 S4 stroke grestore} bind def
/D5 {gsave translate 45 rotate 0 0 S5 stroke grestore} bind def
/D6 {gsave translate 45 rotate 0 0 S6 stroke grestore} bind def
/D7 {gsave translate 45 rotate 0 0 S7 stroke grestore} bind def
/D8 {gsave translate 45 rotate 0 0 S8 stroke grestore} bind def
/D9 {gsave translate 45 rotate 0 0 S9 stroke grestore} bind def
/D10 {gsave translate 45 rotate 0 0 S10 stroke grestore} bind def
/D11 {gsave translate 45 rotate 0 0 S11 stroke grestore} bind def
/D12 {gsave translate 45 rotate 0 0 S12 stroke grestore} bind def
/D13 {gsave translate 45 rotate 0 0 S13 stroke grestore} bind def
/D14 {gsave translate 45 rotate 0 0 S14 stroke grestore} bind def
/D15 {gsave translate 45 rotate 0 0 S15 stroke grestore} bind def
/DiaE {stroke [] 0 setdash vpt add M
  hpt neg vpt neg V hpt vpt neg V
  hpt vpt V hpt neg vpt V closepath stroke} def
/BoxE {stroke [] 0 setdash exch hpt sub exch vpt add M
  0 vpt2 neg V hpt2 0 V 0 vpt2 V
  hpt2 neg 0 V closepath stroke} def
/TriUE {stroke [] 0 setdash vpt 1.12 mul add M
  hpt neg vpt -1.62 mul V
  hpt 2 mul 0 V
  hpt neg vpt 1.62 mul V closepath stroke} def
/TriDE {stroke [] 0 setdash vpt 1.12 mul sub M
  hpt neg vpt 1.62 mul V
  hpt 2 mul 0 V
  hpt neg vpt -1.62 mul V closepath stroke} def
/PentE {stroke [] 0 setdash gsave
  translate 0 hpt M 4 {72 rotate 0 hpt L} repeat
  closepath stroke grestore} def
/CircE {stroke [] 0 setdash 
  hpt 0 360 arc stroke} def
/Opaque {gsave closepath 1 setgray fill grestore 0 setgray closepath} def
/DiaW {stroke [] 0 setdash vpt add M
  hpt neg vpt neg V hpt vpt neg V
  hpt vpt V hpt neg vpt V Opaque stroke} def
/BoxW {stroke [] 0 setdash exch hpt sub exch vpt add M
  0 vpt2 neg V hpt2 0 V 0 vpt2 V
  hpt2 neg 0 V Opaque stroke} def
/TriUW {stroke [] 0 setdash vpt 1.12 mul add M
  hpt neg vpt -1.62 mul V
  hpt 2 mul 0 V
  hpt neg vpt 1.62 mul V Opaque stroke} def
/TriDW {stroke [] 0 setdash vpt 1.12 mul sub M
  hpt neg vpt 1.62 mul V
  hpt 2 mul 0 V
  hpt neg vpt -1.62 mul V Opaque stroke} def
/PentW {stroke [] 0 setdash gsave
  translate 0 hpt M 4 {72 rotate 0 hpt L} repeat
  Opaque stroke grestore} def
/CircW {stroke [] 0 setdash 
  hpt 0 360 arc Opaque stroke} def
/BoxFill {gsave Rec 1 setgray fill grestore} def
/Density {
  /Fillden exch def
  currentrgbcolor
  /ColB exch def /ColG exch def /ColR exch def
  /ColR ColR Fillden mul Fillden sub 1 add def
  /ColG ColG Fillden mul Fillden sub 1 add def
  /ColB ColB Fillden mul Fillden sub 1 add def
  ColR ColG ColB setrgbcolor} def
/BoxColFill {gsave Rec PolyFill} def
/PolyFill {gsave Density fill grestore grestore} def
/h {rlineto rlineto rlineto gsave closepath fill grestore} bind def
%
% PostScript Level 1 Pattern Fill routine for rectangles
% Usage: x y w h s a XX PatternFill
%	x,y = lower left corner of box to be filled
%	w,h = width and height of box
%	  a = angle in degrees between lines and x-axis
%	 XX = 0/1 for no/yes cross-hatch
%
/PatternFill {gsave /PFa [ 9 2 roll ] def
  PFa 0 get PFa 2 get 2 div add PFa 1 get PFa 3 get 2 div add translate
  PFa 2 get -2 div PFa 3 get -2 div PFa 2 get PFa 3 get Rec
  TransparentPatterns {} {gsave 1 setgray fill grestore} ifelse
  clip
  currentlinewidth 0.5 mul setlinewidth
  /PFs PFa 2 get dup mul PFa 3 get dup mul add sqrt def
  0 0 M PFa 5 get rotate PFs -2 div dup translate
  0 1 PFs PFa 4 get div 1 add floor cvi
	{PFa 4 get mul 0 M 0 PFs V} for
  0 PFa 6 get ne {
	0 1 PFs PFa 4 get div 1 add floor cvi
	{PFa 4 get mul 0 2 1 roll M PFs 0 V} for
 } if
  stroke grestore} def
%
/languagelevel where
 {pop languagelevel} {1} ifelse
 2 lt
	{/InterpretLevel1 true def}
	{/InterpretLevel1 Level1 def}
 ifelse
%
% PostScript level 2 pattern fill definitions
%
/Level2PatternFill {
/Tile8x8 {/PaintType 2 /PatternType 1 /TilingType 1 /BBox [0 0 8 8] /XStep 8 /YStep 8}
	bind def
/KeepColor {currentrgbcolor [/Pattern /DeviceRGB] setcolorspace} bind def
<< Tile8x8
 /PaintProc {0.5 setlinewidth pop 0 0 M 8 8 L 0 8 M 8 0 L stroke} 
>> matrix makepattern
/Pat1 exch def
<< Tile8x8
 /PaintProc {0.5 setlinewidth pop 0 0 M 8 8 L 0 8 M 8 0 L stroke
	0 4 M 4 8 L 8 4 L 4 0 L 0 4 L stroke}
>> matrix makepattern
/Pat2 exch def
<< Tile8x8
 /PaintProc {0.5 setlinewidth pop 0 0 M 0 8 L
	8 8 L 8 0 L 0 0 L fill}
>> matrix makepattern
/Pat3 exch def
<< Tile8x8
 /PaintProc {0.5 setlinewidth pop -4 8 M 8 -4 L
	0 12 M 12 0 L stroke}
>> matrix makepattern
/Pat4 exch def
<< Tile8x8
 /PaintProc {0.5 setlinewidth pop -4 0 M 8 12 L
	0 -4 M 12 8 L stroke}
>> matrix makepattern
/Pat5 exch def
<< Tile8x8
 /PaintProc {0.5 setlinewidth pop -2 8 M 4 -4 L
	0 12 M 8 -4 L 4 12 M 10 0 L stroke}
>> matrix makepattern
/Pat6 exch def
<< Tile8x8
 /PaintProc {0.5 setlinewidth pop -2 0 M 4 12 L
	0 -4 M 8 12 L 4 -4 M 10 8 L stroke}
>> matrix makepattern
/Pat7 exch def
<< Tile8x8
 /PaintProc {0.5 setlinewidth pop 8 -2 M -4 4 L
	12 0 M -4 8 L 12 4 M 0 10 L stroke}
>> matrix makepattern
/Pat8 exch def
<< Tile8x8
 /PaintProc {0.5 setlinewidth pop 0 -2 M 12 4 L
	-4 0 M 12 8 L -4 4 M 8 10 L stroke}
>> matrix makepattern
/Pat9 exch def
/Pattern1 {PatternBgnd KeepColor Pat1 setpattern} bind def
/Pattern2 {PatternBgnd KeepColor Pat2 setpattern} bind def
/Pattern3 {PatternBgnd KeepColor Pat3 setpattern} bind def
/Pattern4 {PatternBgnd KeepColor Landscape {Pat5} {Pat4} ifelse setpattern} bind def
/Pattern5 {PatternBgnd KeepColor Landscape {Pat4} {Pat5} ifelse setpattern} bind def
/Pattern6 {PatternBgnd KeepColor Landscape {Pat9} {Pat6} ifelse setpattern} bind def
/Pattern7 {PatternBgnd KeepColor Landscape {Pat8} {Pat7} ifelse setpattern} bind def
} def
%
%
%End of PostScript Level 2 code
%
/PatternBgnd {
  TransparentPatterns {} {gsave 1 setgray fill grestore} ifelse
} def
%
% Substitute for Level 2 pattern fill codes with
% grayscale if Level 2 support is not selected.
%
/Level1PatternFill {
/Pattern1 {0.250 Density} bind def
/Pattern2 {0.500 Density} bind def
/Pattern3 {0.750 Density} bind def
/Pattern4 {0.125 Density} bind def
/Pattern5 {0.375 Density} bind def
/Pattern6 {0.625 Density} bind def
/Pattern7 {0.875 Density} bind def
} def
%
% Now test for support of Level 2 code
%
Level1 {Level1PatternFill} {Level2PatternFill} ifelse
%
/Symbol-Oblique /Symbol findfont [1 0 .167 1 0 0] makefont
dup length dict begin {1 index /FID eq {pop pop} {def} ifelse} forall
currentdict end definefont pop
Level1 SuppressPDFMark or 
{} {
/SDict 10 dict def
systemdict /pdfmark known not {
  userdict /pdfmark systemdict /cleartomark get put
} if
SDict begin [
  /Title (out.ps)
  /Subject (gnuplot plot)
  /Creator (gnuplot 4.6 patchlevel 6)
  /Author (yani)
%  /Producer (gnuplot)
%  /Keywords ()
  /CreationDate (Thu May 28 19:18:58 2015)
  /DOCINFO pdfmark
end
} ifelse
end
%%EndProlog
%%Page: 1 1
gnudict begin
gsave
doclip
50 50 translate
0.100 0.100 scale
90 rotate
0 -5040 translate
0 setgray
newpath
(Helvetica) findfont 140 scalefont setfont
BackgroundColor 0 lt 3 1 roll 0 lt exch 0 lt or or not {gsave BackgroundColor C clippath fill grestore} if
1.000 UL
LT0
0.50 0.50 0.50 C 1.000 UL
LTa
0.50 0.50 0.50 C 966 280 M
5981 0 V
stroke
LT0
0.50 0.50 0.50 C 966 280 M
63 0 V
5918 0 R
-63 0 V
882 280 M
( 0) Rshow
1.000 UL
LT0
0.50 0.50 0.50 C 1.000 UL
LTa
0.50 0.50 0.50 C 966 372 M
5981 0 V
stroke
LT0
0.50 0.50 0.50 C 966 372 M
63 0 V
5918 0 R
-63 0 V
882 372 M
( 0.707106) Rshow
1.000 UL
LT0
0.50 0.50 0.50 C 1.000 UL
LTa
0.50 0.50 0.50 C 966 464 M
5981 0 V
stroke
LT0
0.50 0.50 0.50 C 966 464 M
63 0 V
5918 0 R
-63 0 V
882 464 M
( 1.41421) Rshow
1.000 UL
LT0
0.50 0.50 0.50 C 1.000 UL
LTa
0.50 0.50 0.50 C 966 555 M
5981 0 V
stroke
LT0
0.50 0.50 0.50 C 966 555 M
63 0 V
5918 0 R
-63 0 V
882 555 M
( 2.12132) Rshow
1.000 UL
LT0
0.50 0.50 0.50 C 1.000 UL
LTa
0.50 0.50 0.50 C 966 647 M
5981 0 V
stroke
LT0
0.50 0.50 0.50 C 966 647 M
63 0 V
5918 0 R
-63 0 V
882 647 M
( 2.82842) Rshow
1.000 UL
LT0
0.50 0.50 0.50 C 1.000 UL
LTa
0.50 0.50 0.50 C 966 739 M
5981 0 V
stroke
LT0
0.50 0.50 0.50 C 966 739 M
63 0 V
5918 0 R
-63 0 V
882 739 M
( 3.53553) Rshow
1.000 UL
LT0
0.50 0.50 0.50 C 1.000 UL
LTa
0.50 0.50 0.50 C 966 831 M
5981 0 V
stroke
LT0
0.50 0.50 0.50 C 966 831 M
63 0 V
5918 0 R
-63 0 V
882 831 M
( 4.24264) Rshow
1.000 UL
LT0
0.50 0.50 0.50 C 1.000 UL
LTa
0.50 0.50 0.50 C 966 923 M
5981 0 V
stroke
LT0
0.50 0.50 0.50 C 966 923 M
63 0 V
5918 0 R
-63 0 V
882 923 M
( 4.94974) Rshow
1.000 UL
LT0
0.50 0.50 0.50 C 1.000 UL
LTa
0.50 0.50 0.50 C 966 1015 M
5981 0 V
stroke
LT0
0.50 0.50 0.50 C 966 1015 M
63 0 V
5918 0 R
-63 0 V
-6002 0 R
( 5.65685) Rshow
1.000 UL
LT0
0.50 0.50 0.50 C 1.000 UL
LTa
0.50 0.50 0.50 C 966 1106 M
5981 0 V
stroke
LT0
0.50 0.50 0.50 C 966 1106 M
63 0 V
5918 0 R
-63 0 V
-6002 0 R
( 6.36395) Rshow
1.000 UL
LT0
0.50 0.50 0.50 C 1.000 UL
LTa
0.50 0.50 0.50 C 966 1198 M
5981 0 V
stroke
LT0
0.50 0.50 0.50 C 966 1198 M
63 0 V
5918 0 R
-63 0 V
-6002 0 R
( 7.07106) Rshow
1.000 UL
LT0
0.50 0.50 0.50 C 1.000 UL
LTa
0.50 0.50 0.50 C 966 1290 M
5981 0 V
stroke
LT0
0.50 0.50 0.50 C 966 1290 M
63 0 V
5918 0 R
-63 0 V
-6002 0 R
( 7.77817) Rshow
1.000 UL
LT0
0.50 0.50 0.50 C 1.000 UL
LTa
0.50 0.50 0.50 C 966 1382 M
5981 0 V
stroke
LT0
0.50 0.50 0.50 C 966 1382 M
63 0 V
5918 0 R
-63 0 V
-6002 0 R
( 8.48527) Rshow
1.000 UL
LT0
0.50 0.50 0.50 C 1.000 UL
LTa
0.50 0.50 0.50 C 966 1474 M
5981 0 V
stroke
LT0
0.50 0.50 0.50 C 966 1474 M
63 0 V
5918 0 R
-63 0 V
-6002 0 R
( 9.19238) Rshow
1.000 UL
LT0
0.50 0.50 0.50 C 1.000 UL
LTa
0.50 0.50 0.50 C 966 1565 M
5981 0 V
stroke
LT0
0.50 0.50 0.50 C 966 1565 M
63 0 V
5918 0 R
-63 0 V
-6002 0 R
( 9.89948) Rshow
1.000 UL
LT0
0.50 0.50 0.50 C 1.000 UL
LTa
0.50 0.50 0.50 C 966 1657 M
5981 0 V
stroke
LT0
0.50 0.50 0.50 C 966 1657 M
63 0 V
5918 0 R
-63 0 V
-6002 0 R
( 10.6066) Rshow
1.000 UL
LT0
0.50 0.50 0.50 C 1.000 UL
LTa
0.50 0.50 0.50 C 966 1749 M
5981 0 V
stroke
LT0
0.50 0.50 0.50 C 966 1749 M
63 0 V
5918 0 R
-63 0 V
-6002 0 R
( 11.3137) Rshow
1.000 UL
LT0
0.50 0.50 0.50 C 1.000 UL
LTa
0.50 0.50 0.50 C 966 1841 M
5981 0 V
stroke
LT0
0.50 0.50 0.50 C 966 1841 M
63 0 V
5918 0 R
-63 0 V
-6002 0 R
( 12.0208) Rshow
1.000 UL
LT0
0.50 0.50 0.50 C 1.000 UL
LTa
0.50 0.50 0.50 C 966 1933 M
5981 0 V
stroke
LT0
0.50 0.50 0.50 C 966 1933 M
63 0 V
5918 0 R
-63 0 V
-6002 0 R
( 12.7279) Rshow
1.000 UL
LT0
0.50 0.50 0.50 C 1.000 UL
LTa
0.50 0.50 0.50 C 966 2025 M
5981 0 V
stroke
LT0
0.50 0.50 0.50 C 966 2025 M
63 0 V
5918 0 R
-63 0 V
-6002 0 R
( 13.435) Rshow
1.000 UL
LT0
0.50 0.50 0.50 C 1.000 UL
LTa
0.50 0.50 0.50 C 966 2116 M
5981 0 V
stroke
LT0
0.50 0.50 0.50 C 966 2116 M
63 0 V
5918 0 R
-63 0 V
-6002 0 R
( 14.1421) Rshow
1.000 UL
LT0
0.50 0.50 0.50 C 1.000 UL
LTa
0.50 0.50 0.50 C 966 2208 M
5981 0 V
stroke
LT0
0.50 0.50 0.50 C 966 2208 M
63 0 V
5918 0 R
-63 0 V
-6002 0 R
( 14.8492) Rshow
1.000 UL
LT0
0.50 0.50 0.50 C 1.000 UL
LTa
0.50 0.50 0.50 C 966 2300 M
5981 0 V
stroke
LT0
0.50 0.50 0.50 C 966 2300 M
63 0 V
5918 0 R
-63 0 V
-6002 0 R
( 15.5563) Rshow
1.000 UL
LT0
0.50 0.50 0.50 C 1.000 UL
LTa
0.50 0.50 0.50 C 966 2392 M
5981 0 V
stroke
LT0
0.50 0.50 0.50 C 966 2392 M
63 0 V
5918 0 R
-63 0 V
-6002 0 R
( 16.2634) Rshow
1.000 UL
LT0
0.50 0.50 0.50 C 1.000 UL
LTa
0.50 0.50 0.50 C 966 2484 M
5981 0 V
stroke
LT0
0.50 0.50 0.50 C 966 2484 M
63 0 V
5918 0 R
-63 0 V
-6002 0 R
( 16.9705) Rshow
1.000 UL
LT0
0.50 0.50 0.50 C 1.000 UL
LTa
0.50 0.50 0.50 C 966 2575 M
5981 0 V
stroke
LT0
0.50 0.50 0.50 C 966 2575 M
63 0 V
5918 0 R
-63 0 V
-6002 0 R
( 17.6776) Rshow
1.000 UL
LT0
0.50 0.50 0.50 C 1.000 UL
LTa
0.50 0.50 0.50 C 966 2667 M
5981 0 V
stroke
LT0
0.50 0.50 0.50 C 966 2667 M
63 0 V
5918 0 R
-63 0 V
-6002 0 R
( 18.3848) Rshow
1.000 UL
LT0
0.50 0.50 0.50 C 1.000 UL
LTa
0.50 0.50 0.50 C 966 2759 M
5981 0 V
stroke
LT0
0.50 0.50 0.50 C 966 2759 M
63 0 V
5918 0 R
-63 0 V
-6002 0 R
( 19.0919) Rshow
1.000 UL
LT0
0.50 0.50 0.50 C 1.000 UL
LTa
0.50 0.50 0.50 C 966 2851 M
5981 0 V
stroke
LT0
0.50 0.50 0.50 C 966 2851 M
63 0 V
5918 0 R
-63 0 V
-6002 0 R
( 19.799) Rshow
1.000 UL
LT0
0.50 0.50 0.50 C 1.000 UL
LTa
0.50 0.50 0.50 C 966 2943 M
5981 0 V
stroke
LT0
0.50 0.50 0.50 C 966 2943 M
63 0 V
5918 0 R
-63 0 V
-6002 0 R
( 20.5061) Rshow
1.000 UL
LT0
0.50 0.50 0.50 C 1.000 UL
LTa
0.50 0.50 0.50 C 966 3035 M
5981 0 V
stroke
LT0
0.50 0.50 0.50 C 966 3035 M
63 0 V
5918 0 R
-63 0 V
-6002 0 R
( 21.2132) Rshow
1.000 UL
LT0
0.50 0.50 0.50 C 1.000 UL
LTa
0.50 0.50 0.50 C 966 3126 M
5981 0 V
stroke
LT0
0.50 0.50 0.50 C 966 3126 M
63 0 V
5918 0 R
-63 0 V
-6002 0 R
( 21.9203) Rshow
1.000 UL
LT0
0.50 0.50 0.50 C 1.000 UL
LTa
0.50 0.50 0.50 C 966 3218 M
5981 0 V
stroke
LT0
0.50 0.50 0.50 C 966 3218 M
63 0 V
5918 0 R
-63 0 V
-6002 0 R
( 22.6274) Rshow
1.000 UL
LT0
0.50 0.50 0.50 C 1.000 UL
LTa
0.50 0.50 0.50 C 966 3310 M
5981 0 V
stroke
LT0
0.50 0.50 0.50 C 966 3310 M
63 0 V
5918 0 R
-63 0 V
-6002 0 R
( 23.3345) Rshow
1.000 UL
LT0
0.50 0.50 0.50 C 1.000 UL
LTa
0.50 0.50 0.50 C 966 3402 M
5981 0 V
stroke
LT0
0.50 0.50 0.50 C 966 3402 M
63 0 V
5918 0 R
-63 0 V
-6002 0 R
( 24.0416) Rshow
1.000 UL
LT0
0.50 0.50 0.50 C 1.000 UL
LTa
0.50 0.50 0.50 C 966 3494 M
5981 0 V
stroke
LT0
0.50 0.50 0.50 C 966 3494 M
63 0 V
5918 0 R
-63 0 V
-6002 0 R
( 24.7487) Rshow
1.000 UL
LT0
0.50 0.50 0.50 C 1.000 UL
LTa
0.50 0.50 0.50 C 966 3586 M
5981 0 V
stroke
LT0
0.50 0.50 0.50 C 966 3586 M
63 0 V
5918 0 R
-63 0 V
-6002 0 R
( 25.4558) Rshow
1.000 UL
LT0
0.50 0.50 0.50 C 1.000 UL
LTa
0.50 0.50 0.50 C 966 3677 M
5981 0 V
stroke
LT0
0.50 0.50 0.50 C 966 3677 M
63 0 V
5918 0 R
-63 0 V
-6002 0 R
( 26.1629) Rshow
1.000 UL
LT0
0.50 0.50 0.50 C 1.000 UL
LTa
0.50 0.50 0.50 C 966 3769 M
5981 0 V
stroke
LT0
0.50 0.50 0.50 C 966 3769 M
63 0 V
5918 0 R
-63 0 V
-6002 0 R
( 26.87) Rshow
1.000 UL
LT0
0.50 0.50 0.50 C 1.000 UL
LTa
0.50 0.50 0.50 C 966 3861 M
5981 0 V
stroke
LT0
0.50 0.50 0.50 C 966 3861 M
63 0 V
5918 0 R
-63 0 V
-6002 0 R
( 27.5771) Rshow
1.000 UL
LT0
0.50 0.50 0.50 C 1.000 UL
LTa
0.50 0.50 0.50 C 966 3953 M
5981 0 V
stroke
LT0
0.50 0.50 0.50 C 966 3953 M
63 0 V
5918 0 R
-63 0 V
-6002 0 R
( 28.2842) Rshow
1.000 UL
LT0
0.50 0.50 0.50 C 1.000 UL
LTa
0.50 0.50 0.50 C 966 4045 M
5981 0 V
stroke
LT0
0.50 0.50 0.50 C 966 4045 M
63 0 V
5918 0 R
-63 0 V
-6002 0 R
( 28.9913) Rshow
1.000 UL
LT0
0.50 0.50 0.50 C 1.000 UL
LTa
0.50 0.50 0.50 C 966 4136 M
5981 0 V
stroke
LT0
0.50 0.50 0.50 C 966 4136 M
63 0 V
5918 0 R
-63 0 V
-6002 0 R
( 29.6985) Rshow
1.000 UL
LT0
0.50 0.50 0.50 C 1.000 UL
LTa
0.50 0.50 0.50 C 966 4228 M
5981 0 V
stroke
LT0
0.50 0.50 0.50 C 966 4228 M
63 0 V
5918 0 R
-63 0 V
-6002 0 R
( 30.4056) Rshow
1.000 UL
LT0
0.50 0.50 0.50 C 1.000 UL
LTa
0.50 0.50 0.50 C 966 4320 M
5981 0 V
stroke
LT0
0.50 0.50 0.50 C 966 4320 M
63 0 V
5918 0 R
-63 0 V
-6002 0 R
( 31.1127) Rshow
1.000 UL
LT0
0.50 0.50 0.50 C 1.000 UL
LTa
0.50 0.50 0.50 C 966 4412 M
5981 0 V
stroke
LT0
0.50 0.50 0.50 C 966 4412 M
63 0 V
5918 0 R
-63 0 V
-6002 0 R
( 31.8198) Rshow
1.000 UL
LT0
0.50 0.50 0.50 C 1.000 UL
LTa
0.50 0.50 0.50 C 966 4504 M
5981 0 V
stroke
LT0
0.50 0.50 0.50 C 966 4504 M
63 0 V
5918 0 R
-63 0 V
-6002 0 R
( 32.5269) Rshow
1.000 UL
LT0
0.50 0.50 0.50 C 1.000 UL
LTa
0.50 0.50 0.50 C 966 4596 M
5981 0 V
stroke
LT0
0.50 0.50 0.50 C 966 4596 M
63 0 V
5918 0 R
-63 0 V
-6002 0 R
( 33.234) Rshow
1.000 UL
LT0
0.50 0.50 0.50 C 1.000 UL
LTa
0.50 0.50 0.50 C 966 4687 M
5981 0 V
stroke
LT0
0.50 0.50 0.50 C 966 4687 M
63 0 V
5918 0 R
-63 0 V
-6002 0 R
( 33.9411) Rshow
1.000 UL
LT0
0.50 0.50 0.50 C 1.000 UL
LTa
0.50 0.50 0.50 C 966 4779 M
5981 0 V
stroke
LT0
0.50 0.50 0.50 C 966 4779 M
63 0 V
5918 0 R
-63 0 V
-6002 0 R
( 34.6482) Rshow
1.000 UL
LT0
0.50 0.50 0.50 C 1.000 UL
LTa
0.50 0.50 0.50 C 966 4871 M
5981 0 V
stroke
LT0
0.50 0.50 0.50 C 966 4871 M
63 0 V
5918 0 R
-63 0 V
-6002 0 R
( 35.3553) Rshow
1.000 UL
LT0
0.50 0.50 0.50 C 1.000 UL
LTa
0.50 0.50 0.50 C 966 280 M
0 4591 V
stroke
LT0
0.50 0.50 0.50 C 966 280 M
0 63 V
0 4528 R
0 -63 V
966 140 M
( 0) Cshow
1.000 UL
LT0
0.50 0.50 0.50 C 1.000 UL
LTa
0.50 0.50 0.50 C 1086 280 M
0 4591 V
stroke
LT0
0.50 0.50 0.50 C 1086 280 M
0 63 V
0 4528 R
0 -63 V
0 -4668 R
( 0.707106) Cshow
1.000 UL
LT0
0.50 0.50 0.50 C 1.000 UL
LTa
0.50 0.50 0.50 C 1205 280 M
0 4591 V
stroke
LT0
0.50 0.50 0.50 C 1205 280 M
0 63 V
0 4528 R
0 -63 V
0 -4668 R
( 1.41421) Cshow
1.000 UL
LT0
0.50 0.50 0.50 C 1.000 UL
LTa
0.50 0.50 0.50 C 1325 280 M
0 4591 V
stroke
LT0
0.50 0.50 0.50 C 1325 280 M
0 63 V
0 4528 R
0 -63 V
0 -4668 R
( 2.12132) Cshow
1.000 UL
LT0
0.50 0.50 0.50 C 1.000 UL
LTa
0.50 0.50 0.50 C 1444 280 M
0 4591 V
stroke
LT0
0.50 0.50 0.50 C 1444 280 M
0 63 V
0 4528 R
0 -63 V
0 -4668 R
( 2.82842) Cshow
1.000 UL
LT0
0.50 0.50 0.50 C 1.000 UL
LTa
0.50 0.50 0.50 C 1564 280 M
0 4591 V
stroke
LT0
0.50 0.50 0.50 C 1564 280 M
0 63 V
0 4528 R
0 -63 V
0 -4668 R
( 3.53553) Cshow
1.000 UL
LT0
0.50 0.50 0.50 C 1.000 UL
LTa
0.50 0.50 0.50 C 1684 280 M
0 4591 V
stroke
LT0
0.50 0.50 0.50 C 1684 280 M
0 63 V
0 4528 R
0 -63 V
0 -4668 R
( 4.24264) Cshow
1.000 UL
LT0
0.50 0.50 0.50 C 1.000 UL
LTa
0.50 0.50 0.50 C 1803 280 M
0 4591 V
stroke
LT0
0.50 0.50 0.50 C 1803 280 M
0 63 V
0 4528 R
0 -63 V
0 -4668 R
( 4.94974) Cshow
1.000 UL
LT0
0.50 0.50 0.50 C 1.000 UL
LTa
0.50 0.50 0.50 C 1923 280 M
0 4591 V
stroke
LT0
0.50 0.50 0.50 C 1923 280 M
0 63 V
0 4528 R
0 -63 V
0 -4668 R
( 5.65685) Cshow
1.000 UL
LT0
0.50 0.50 0.50 C 1.000 UL
LTa
0.50 0.50 0.50 C 2043 280 M
0 4591 V
stroke
LT0
0.50 0.50 0.50 C 2043 280 M
0 63 V
0 4528 R
0 -63 V
0 -4668 R
( 6.36395) Cshow
1.000 UL
LT0
0.50 0.50 0.50 C 1.000 UL
LTa
0.50 0.50 0.50 C 2162 280 M
0 4591 V
stroke
LT0
0.50 0.50 0.50 C 2162 280 M
0 63 V
0 4528 R
0 -63 V
0 -4668 R
( 7.07106) Cshow
1.000 UL
LT0
0.50 0.50 0.50 C 1.000 UL
LTa
0.50 0.50 0.50 C 2282 280 M
0 4591 V
stroke
LT0
0.50 0.50 0.50 C 2282 280 M
0 63 V
0 4528 R
0 -63 V
0 -4668 R
( 7.77817) Cshow
1.000 UL
LT0
0.50 0.50 0.50 C 1.000 UL
LTa
0.50 0.50 0.50 C 2401 280 M
0 4591 V
stroke
LT0
0.50 0.50 0.50 C 2401 280 M
0 63 V
0 4528 R
0 -63 V
0 -4668 R
( 8.48527) Cshow
1.000 UL
LT0
0.50 0.50 0.50 C 1.000 UL
LTa
0.50 0.50 0.50 C 2521 280 M
0 4591 V
stroke
LT0
0.50 0.50 0.50 C 2521 280 M
0 63 V
0 4528 R
0 -63 V
0 -4668 R
( 9.19238) Cshow
1.000 UL
LT0
0.50 0.50 0.50 C 1.000 UL
LTa
0.50 0.50 0.50 C 2641 280 M
0 4591 V
stroke
LT0
0.50 0.50 0.50 C 2641 280 M
0 63 V
0 4528 R
0 -63 V
0 -4668 R
( 9.89948) Cshow
1.000 UL
LT0
0.50 0.50 0.50 C 1.000 UL
LTa
0.50 0.50 0.50 C 2760 280 M
0 4591 V
stroke
LT0
0.50 0.50 0.50 C 2760 280 M
0 63 V
0 4528 R
0 -63 V
0 -4668 R
( 10.6066) Cshow
1.000 UL
LT0
0.50 0.50 0.50 C 1.000 UL
LTa
0.50 0.50 0.50 C 2880 280 M
0 4591 V
stroke
LT0
0.50 0.50 0.50 C 2880 280 M
0 63 V
0 4528 R
0 -63 V
0 -4668 R
( 11.3137) Cshow
1.000 UL
LT0
0.50 0.50 0.50 C 1.000 UL
LTa
0.50 0.50 0.50 C 3000 280 M
0 4591 V
stroke
LT0
0.50 0.50 0.50 C 3000 280 M
0 63 V
0 4528 R
0 -63 V
0 -4668 R
( 12.0208) Cshow
1.000 UL
LT0
0.50 0.50 0.50 C 1.000 UL
LTa
0.50 0.50 0.50 C 3119 280 M
0 4591 V
stroke
LT0
0.50 0.50 0.50 C 3119 280 M
0 63 V
0 4528 R
0 -63 V
0 -4668 R
( 12.7279) Cshow
1.000 UL
LT0
0.50 0.50 0.50 C 1.000 UL
LTa
0.50 0.50 0.50 C 3239 280 M
0 4591 V
stroke
LT0
0.50 0.50 0.50 C 3239 280 M
0 63 V
0 4528 R
0 -63 V
0 -4668 R
( 13.435) Cshow
1.000 UL
LT0
0.50 0.50 0.50 C 1.000 UL
LTa
0.50 0.50 0.50 C 3358 280 M
0 4591 V
stroke
LT0
0.50 0.50 0.50 C 3358 280 M
0 63 V
0 4528 R
0 -63 V
0 -4668 R
( 14.1421) Cshow
1.000 UL
LT0
0.50 0.50 0.50 C 1.000 UL
LTa
0.50 0.50 0.50 C 3478 280 M
0 4591 V
stroke
LT0
0.50 0.50 0.50 C 3478 280 M
0 63 V
0 4528 R
0 -63 V
0 -4668 R
( 14.8492) Cshow
1.000 UL
LT0
0.50 0.50 0.50 C 1.000 UL
LTa
0.50 0.50 0.50 C 3598 280 M
0 4591 V
stroke
LT0
0.50 0.50 0.50 C 3598 280 M
0 63 V
0 4528 R
0 -63 V
0 -4668 R
( 15.5563) Cshow
1.000 UL
LT0
0.50 0.50 0.50 C 1.000 UL
LTa
0.50 0.50 0.50 C 3717 280 M
0 4591 V
stroke
LT0
0.50 0.50 0.50 C 3717 280 M
0 63 V
0 4528 R
0 -63 V
0 -4668 R
( 16.2634) Cshow
1.000 UL
LT0
0.50 0.50 0.50 C 1.000 UL
LTa
0.50 0.50 0.50 C 3837 280 M
0 4591 V
stroke
LT0
0.50 0.50 0.50 C 3837 280 M
0 63 V
0 4528 R
0 -63 V
0 -4668 R
( 16.9705) Cshow
1.000 UL
LT0
0.50 0.50 0.50 C 1.000 UL
LTa
0.50 0.50 0.50 C 3956 280 M
0 4591 V
stroke
LT0
0.50 0.50 0.50 C 3956 280 M
0 63 V
0 4528 R
0 -63 V
0 -4668 R
( 17.6776) Cshow
1.000 UL
LT0
0.50 0.50 0.50 C 1.000 UL
LTa
0.50 0.50 0.50 C 4076 280 M
0 4591 V
stroke
LT0
0.50 0.50 0.50 C 4076 280 M
0 63 V
0 4528 R
0 -63 V
0 -4668 R
( 18.3848) Cshow
1.000 UL
LT0
0.50 0.50 0.50 C 1.000 UL
LTa
0.50 0.50 0.50 C 4196 280 M
0 4591 V
stroke
LT0
0.50 0.50 0.50 C 4196 280 M
0 63 V
0 4528 R
0 -63 V
0 -4668 R
( 19.0919) Cshow
1.000 UL
LT0
0.50 0.50 0.50 C 1.000 UL
LTa
0.50 0.50 0.50 C 4315 280 M
0 4591 V
stroke
LT0
0.50 0.50 0.50 C 4315 280 M
0 63 V
0 4528 R
0 -63 V
0 -4668 R
( 19.799) Cshow
1.000 UL
LT0
0.50 0.50 0.50 C 1.000 UL
LTa
0.50 0.50 0.50 C 4435 280 M
0 4591 V
stroke
LT0
0.50 0.50 0.50 C 4435 280 M
0 63 V
0 4528 R
0 -63 V
0 -4668 R
( 20.5061) Cshow
1.000 UL
LT0
0.50 0.50 0.50 C 1.000 UL
LTa
0.50 0.50 0.50 C 4555 280 M
0 4591 V
stroke
LT0
0.50 0.50 0.50 C 4555 280 M
0 63 V
0 4528 R
0 -63 V
0 -4668 R
( 21.2132) Cshow
1.000 UL
LT0
0.50 0.50 0.50 C 1.000 UL
LTa
0.50 0.50 0.50 C 4674 280 M
0 4591 V
stroke
LT0
0.50 0.50 0.50 C 4674 280 M
0 63 V
0 4528 R
0 -63 V
0 -4668 R
( 21.9203) Cshow
1.000 UL
LT0
0.50 0.50 0.50 C 1.000 UL
LTa
0.50 0.50 0.50 C 4794 280 M
0 4591 V
stroke
LT0
0.50 0.50 0.50 C 4794 280 M
0 63 V
0 4528 R
0 -63 V
0 -4668 R
( 22.6274) Cshow
1.000 UL
LT0
0.50 0.50 0.50 C 1.000 UL
LTa
0.50 0.50 0.50 C 4913 280 M
0 4591 V
stroke
LT0
0.50 0.50 0.50 C 4913 280 M
0 63 V
0 4528 R
0 -63 V
0 -4668 R
( 23.3345) Cshow
1.000 UL
LT0
0.50 0.50 0.50 C 1.000 UL
LTa
0.50 0.50 0.50 C 5033 280 M
0 4591 V
stroke
LT0
0.50 0.50 0.50 C 5033 280 M
0 63 V
0 4528 R
0 -63 V
0 -4668 R
( 24.0416) Cshow
1.000 UL
LT0
0.50 0.50 0.50 C 1.000 UL
LTa
0.50 0.50 0.50 C 5153 280 M
0 4591 V
stroke
LT0
0.50 0.50 0.50 C 5153 280 M
0 63 V
0 4528 R
0 -63 V
0 -4668 R
( 24.7487) Cshow
1.000 UL
LT0
0.50 0.50 0.50 C 1.000 UL
LTa
0.50 0.50 0.50 C 5272 280 M
0 4591 V
stroke
LT0
0.50 0.50 0.50 C 5272 280 M
0 63 V
0 4528 R
0 -63 V
0 -4668 R
( 25.4558) Cshow
1.000 UL
LT0
0.50 0.50 0.50 C 1.000 UL
LTa
0.50 0.50 0.50 C 5392 280 M
0 4591 V
stroke
LT0
0.50 0.50 0.50 C 5392 280 M
0 63 V
0 4528 R
0 -63 V
0 -4668 R
( 26.1629) Cshow
1.000 UL
LT0
0.50 0.50 0.50 C 1.000 UL
LTa
0.50 0.50 0.50 C 5512 280 M
0 4591 V
stroke
LT0
0.50 0.50 0.50 C 5512 280 M
0 63 V
0 4528 R
0 -63 V
0 -4668 R
( 26.87) Cshow
1.000 UL
LT0
0.50 0.50 0.50 C 1.000 UL
LTa
0.50 0.50 0.50 C 5631 280 M
0 4591 V
stroke
LT0
0.50 0.50 0.50 C 5631 280 M
0 63 V
0 4528 R
0 -63 V
0 -4668 R
( 27.5771) Cshow
1.000 UL
LT0
0.50 0.50 0.50 C 1.000 UL
LTa
0.50 0.50 0.50 C 5751 280 M
0 4591 V
stroke
LT0
0.50 0.50 0.50 C 5751 280 M
0 63 V
0 4528 R
0 -63 V
0 -4668 R
( 28.2842) Cshow
1.000 UL
LT0
0.50 0.50 0.50 C 1.000 UL
LTa
0.50 0.50 0.50 C 5870 280 M
0 4591 V
stroke
LT0
0.50 0.50 0.50 C 5870 280 M
0 63 V
0 4528 R
0 -63 V
0 -4668 R
( 28.9913) Cshow
1.000 UL
LT0
0.50 0.50 0.50 C 1.000 UL
LTa
0.50 0.50 0.50 C 5990 280 M
0 4591 V
stroke
LT0
0.50 0.50 0.50 C 5990 280 M
0 63 V
0 4528 R
0 -63 V
0 -4668 R
( 29.6985) Cshow
1.000 UL
LT0
0.50 0.50 0.50 C 1.000 UL
LTa
0.50 0.50 0.50 C 6110 280 M
0 4591 V
stroke
LT0
0.50 0.50 0.50 C 6110 280 M
0 63 V
0 4528 R
0 -63 V
0 -4668 R
( 30.4056) Cshow
1.000 UL
LT0
0.50 0.50 0.50 C 1.000 UL
LTa
0.50 0.50 0.50 C 6229 280 M
0 4591 V
stroke
LT0
0.50 0.50 0.50 C 6229 280 M
0 63 V
0 4528 R
0 -63 V
0 -4668 R
( 31.1127) Cshow
1.000 UL
LT0
0.50 0.50 0.50 C 1.000 UL
LTa
0.50 0.50 0.50 C 6349 280 M
0 4591 V
stroke
LT0
0.50 0.50 0.50 C 6349 280 M
0 63 V
0 4528 R
0 -63 V
0 -4668 R
( 31.8198) Cshow
1.000 UL
LT0
0.50 0.50 0.50 C 1.000 UL
LTa
0.50 0.50 0.50 C 6469 280 M
0 4591 V
stroke
LT0
0.50 0.50 0.50 C 6469 280 M
0 63 V
0 4528 R
0 -63 V
0 -4668 R
( 32.5269) Cshow
1.000 UL
LT0
0.50 0.50 0.50 C 1.000 UL
LTa
0.50 0.50 0.50 C 6588 280 M
0 4591 V
stroke
LT0
0.50 0.50 0.50 C 6588 280 M
0 63 V
0 4528 R
0 -63 V
0 -4668 R
( 33.234) Cshow
1.000 UL
LT0
0.50 0.50 0.50 C 1.000 UL
LTa
0.50 0.50 0.50 C 6708 280 M
0 4591 V
stroke
LT0
0.50 0.50 0.50 C 6708 280 M
0 63 V
0 4528 R
0 -63 V
0 -4668 R
( 33.9411) Cshow
1.000 UL
LT0
0.50 0.50 0.50 C 1.000 UL
LTa
0.50 0.50 0.50 C 6827 280 M
0 4591 V
stroke
LT0
0.50 0.50 0.50 C 6827 280 M
0 63 V
0 4528 R
0 -63 V
0 -4668 R
( 34.6482) Cshow
1.000 UL
LT0
0.50 0.50 0.50 C 1.000 UL
LTa
0.50 0.50 0.50 C 6947 280 M
0 4591 V
stroke
LT0
0.50 0.50 0.50 C 6947 280 M
0 63 V
0 4528 R
0 -63 V
0 -4668 R
( 35.3553) Cshow
1.000 UL
LT0
0.50 0.50 0.50 C 1.000 UL
LT0
0.50 0.50 0.50 C 966 4871 M
966 280 L
5981 0 V
0 4591 R
-5981 0 R
1.000 UP
stroke
LT0
0.50 0.50 0.50 C % Begin plot #1
1.500 UP
2.000 UL
LT0
0.00 0.00 1.00 C /Helvetica findfont 140 scalefont setfont
/vshift -46 def
1086 464 M
119 0 V
120 0 V
119 0 V
120 0 V
0 551 R
120 0 V
0 91 R
119 0 V
0 368 R
120 0 V
120 0 V
119 0 V
120 0 V
0 1377 R
119 0 V
120 0 V
120 0 V
0 826 R
119 0 V
120 0 V
0 92 R
120 0 V
119 0 V
0 276 R
120 0 V
119 0 V
120 0 V
120 0 V
0 91 R
119 0 V
120 0 V
120 0 V
119 0 V
120 0 V
0 368 R
119 0 V
120 0 V
120 0 V
119 0 V
120 0 V
119 0 V
0 92 R
120 0 V
120 0 V
119 0 V
120 0 V
120 0 V
0 91 R
119 0 V
120 0 V
119 0 V
120 0 V
120 0 V
119 0 V
120 0 V
120 0 V
119 0 V
120 0 V
119 0 V
966 280 M
120 0 V
0 92 V
0 92 V
478 0 R
0 91 V
0 92 V
0 92 V
0 92 V
0 92 V
0 92 V
120 0 R
0 91 V
119 0 R
0 92 V
0 92 V
0 92 V
0 92 V
479 0 R
0 91 V
0 92 V
0 92 V
0 92 V
0 92 V
0 92 V
0 91 V
0 92 V
0 92 V
0 92 V
0 92 V
0 92 V
0 91 V
0 92 V
0 92 V
359 0 R
0 92 V
0 92 V
0 91 V
0 92 V
0 92 V
0 92 V
0 92 V
0 92 V
0 91 V
239 0 R
0 92 V
stroke 2880 3769 M
239 0 R
0 92 V
0 92 V
0 92 V
479 0 R
0 91 V
598 0 R
0 92 V
0 92 V
0 92 V
0 92 V
717 0 R
0 92 V
599 0 R
0 91 V
1315 0 R
0 92 V
1086 464 CircleF
1205 464 CircleF
1205 464 CircleF
1325 464 CircleF
1325 464 CircleF
1444 464 CircleF
1444 464 CircleF
1564 464 CircleF
1564 1015 CircleF
1684 1015 CircleF
1684 1106 CircleF
1803 1106 CircleF
1803 1474 CircleF
1923 1474 CircleF
1923 1474 CircleF
2043 1474 CircleF
2043 1474 CircleF
2162 1474 CircleF
2162 1474 CircleF
2282 1474 CircleF
2282 2851 CircleF
2401 2851 CircleF
2401 2851 CircleF
2521 2851 CircleF
2521 2851 CircleF
2641 2851 CircleF
2641 3677 CircleF
2760 3677 CircleF
2760 3677 CircleF
2880 3677 CircleF
2880 3769 CircleF
3000 3769 CircleF
3000 3769 CircleF
3119 3769 CircleF
3119 4045 CircleF
3239 4045 CircleF
3239 4045 CircleF
3358 4045 CircleF
3358 4045 CircleF
3478 4045 CircleF
3478 4045 CircleF
3598 4045 CircleF
3598 4136 CircleF
3717 4136 CircleF
3717 4136 CircleF
3837 4136 CircleF
3837 4136 CircleF
3957 4136 CircleF
3957 4136 CircleF
4076 4136 CircleF
4076 4136 CircleF
4196 4136 CircleF
4196 4504 CircleF
4315 4504 CircleF
4315 4504 CircleF
4435 4504 CircleF
4435 4504 CircleF
4555 4504 CircleF
4555 4504 CircleF
4674 4504 CircleF
4674 4504 CircleF
4794 4504 CircleF
4794 4504 CircleF
4913 4504 CircleF
4913 4596 CircleF
5033 4596 CircleF
5033 4596 CircleF
5153 4596 CircleF
5153 4596 CircleF
5272 4596 CircleF
5272 4596 CircleF
5392 4596 CircleF
5392 4596 CircleF
5512 4596 CircleF
5512 4687 CircleF
5631 4687 CircleF
5631 4687 CircleF
5751 4687 CircleF
5751 4687 CircleF
5870 4687 CircleF
5870 4687 CircleF
5990 4687 CircleF
5990 4687 CircleF
6110 4687 CircleF
6110 4687 CircleF
6229 4687 CircleF
6229 4687 CircleF
6349 4687 CircleF
6349 4687 CircleF
6469 4687 CircleF
6469 4687 CircleF
6588 4687 CircleF
6588 4687 CircleF
6708 4687 CircleF
6708 4687 CircleF
6827 4687 CircleF
966 280 CircleF
1086 280 CircleF
1086 280 CircleF
1086 372 CircleF
1086 372 CircleF
1086 464 CircleF
1564 464 CircleF
1564 555 CircleF
1564 555 CircleF
1564 647 CircleF
1564 647 CircleF
1564 739 CircleF
1564 739 CircleF
1564 831 CircleF
1564 831 CircleF
1564 923 CircleF
1564 923 CircleF
1564 1015 CircleF
1684 1015 CircleF
1684 1106 CircleF
1803 1106 CircleF
1803 1198 CircleF
1803 1198 CircleF
1803 1290 CircleF
1803 1290 CircleF
1803 1382 CircleF
1803 1382 CircleF
1803 1474 CircleF
2282 1474 CircleF
2282 1565 CircleF
2282 1565 CircleF
2282 1657 CircleF
2282 1657 CircleF
2282 1749 CircleF
2282 1749 CircleF
2282 1841 CircleF
2282 1841 CircleF
2282 1933 CircleF
2282 1933 CircleF
2282 2025 CircleF
2282 2025 CircleF
2282 2116 CircleF
2282 2116 CircleF
2282 2208 CircleF
2282 2208 CircleF
2282 2300 CircleF
2282 2300 CircleF
2282 2392 CircleF
2282 2392 CircleF
2282 2484 CircleF
2282 2484 CircleF
2282 2576 CircleF
2282 2576 CircleF
2282 2667 CircleF
2282 2667 CircleF
2282 2759 CircleF
2282 2759 CircleF
2282 2851 CircleF
2641 2851 CircleF
2641 2943 CircleF
2641 2943 CircleF
2641 3035 CircleF
2641 3035 CircleF
2641 3126 CircleF
2641 3126 CircleF
2641 3218 CircleF
2641 3218 CircleF
2641 3310 CircleF
2641 3310 CircleF
2641 3402 CircleF
2641 3402 CircleF
2641 3494 CircleF
2641 3494 CircleF
2641 3586 CircleF
2641 3586 CircleF
2641 3677 CircleF
2880 3677 CircleF
2880 3769 CircleF
3119 3769 CircleF
3119 3861 CircleF
3119 3861 CircleF
3119 3953 CircleF
3119 3953 CircleF
3119 4045 CircleF
3598 4045 CircleF
3598 4136 CircleF
4196 4136 CircleF
4196 4228 CircleF
4196 4228 CircleF
4196 4320 CircleF
4196 4320 CircleF
4196 4412 CircleF
4196 4412 CircleF
4196 4504 CircleF
4913 4504 CircleF
4913 4596 CircleF
5512 4596 CircleF
5512 4687 CircleF
6827 4687 CircleF
6827 4779 CircleF
% End plot #1
% Begin plot #2
1.500 UP
2.000 UL
LT0
1.00 0.55 0.00 C /Helvetica findfont 140 scalefont setfont
1434 4628 M
120 92 V
4588 3597 M
120 92 V
6210 1058 M
120 92 V
3100 3831 M
120 92 V
1630 1869 M
120 92 V
3200 4063 M
119 92 V
2811 3038 M
120 92 V
5949 328 M
120 92 V
5601 1918 M
120 92 V
1464 408 M
119 92 V
-176 833 R
120 92 V
4447 3341 M
120 91 V
1111 3546 M
120 92 V
2225 2131 M
119 91 V
1255 2714 M
119 91 V
3494 2429 M
119 92 V
1101 1000 M
120 92 V
3697 3334 M
119 92 V
3038 2721 M
119 92 V
4159 1660 M
120 92 V
4476 914 M
120 91 V
1742 1279 M
120 92 V
-15 846 R
119 92 V
3400 4094 M
120 92 V
4095 2544 M
120 92 V
2946 2172 M
119 92 V
5169 4642 M
119 92 V
3820 4197 M
120 92 V
6429 328 M
120 92 V
2066 4146 M
119 91 V
550 -649 R
119 92 V
6410 875 M
120 92 V
3820 4476 M
119 92 V
3715 995 M
120 92 V
1949 3646 M
120 92 V
3543 469 M
120 91 V
3300 3661 M
120 92 V
3597 916 M
120 92 V
2023 3130 M
119 92 V
6261 695 M
120 91 V
2742 3564 M
119 92 V
3295 1808 M
120 92 V
4476 3135 M
120 91 V
515 1011 R
119 91 V
1981 3758 M
120 92 V
6633 374 M
120 91 V
6508 3497 M
120 92 V
2606 3562 M
120 92 V
3451 357 M
119 92 V
616 844 R
119 92 V
5658 3139 M
120 91 V
184 -185 R
119 92 V
2188 1404 M
120 92 V
stroke 2308 1496 M
4160 3594 M
120 92 V
-1175 84 R
119 92 V
6110 3319 M
120 92 V
3029 2688 M
120 92 V
171 544 R
120 92 V
834 623 R
119 92 V
310 -674 R
120 92 V
5890 2975 M
120 92 V
3475 281 M
120 92 V
1546 1743 M
119 92 V
5766 3485 M
120 92 V
3493 1502 M
120 92 V
6094 1274 M
120 92 V
4320 1652 M
119 92 V
1431 4042 M
120 91 V
4617 3753 M
120 91 V
2471 2296 M
120 92 V
4783 1978 M
120 92 V
377 -775 R
120 92 V
3801 1851 M
119 92 V
4381 944 M
119 92 V
3406 958 M
119 92 V
2236 2619 M
119 92 V
4255 1973 M
120 92 V
3981 3448 M
120 92 V
6065 2776 M
120 92 V
-4063 37 R
119 92 V
3194 -23 R
119 91 V
3886 4082 M
119 92 V
166 247 R
119 92 V
53 -1123 R
120 92 V
1249 4231 M
120 92 V
3878 2429 M
119 92 V
6670 1913 M
119 92 V
-4850 85 R
119 92 V
863 1765 R
119 92 V
2467 571 M
120 92 V
1494 748 R
120 92 V
2635 2604 M
120 92 V
3887 4030 M
120 92 V
3738 2694 M
120 92 V
5767 1303 M
120 92 V
111 0 R
119 92 V
5118 4003 M
119 92 V
5890 1402 M
119 92 V
3196 2411 M
119 92 V
2234 896 M
119 92 V
6574 3971 M
119 92 V
1302 526 M
120 92 V
5900 1990 M
119 92 V
6505 298 M
120 92 V
3763 2383 M
119 92 V
stroke 3882 2475 M
1896 4577 M
119 92 V
4791 2938 M
119 92 V
4183 4376 M
120 91 V
3263 1579 M
120 92 V
3095 3072 M
120 92 V
1122 13 R
120 92 V
5353 2155 M
119 92 V
2767 3629 M
120 92 V
1596 1254 M
119 92 V
5787 4171 M
120 92 V
4190 1078 M
119 92 V
1525 2040 M
120 92 V
5787 3430 M
120 92 V
4859 3992 M
120 92 V
1103 2140 M
119 91 V
3263 1835 M
120 92 V
2165 702 R
119 92 V
1217 811 M
120 91 V
1115 2950 M
119 92 V
6392 2208 M
120 92 V
5672 3568 M
120 91 V
1421 1177 M
120 91 V
5605 603 M
120 92 V
4865 2796 M
120 92 V
3050 3106 M
119 92 V
2199 2066 M
120 92 V
6294 646 M
119 91 V
3078 1018 M
120 92 V
6246 2741 M
120 92 V
-251 82 R
119 91 V
5203 2457 M
119 92 V
3326 1248 M
119 92 V
193 223 R
120 92 V
1484 949 M
120 92 V
5594 3471 M
119 91 V
1943 2224 M
119 92 V
1407 0 R
120 92 V
5790 918 M
119 92 V
2010 4003 M
120 91 V
5932 2585 M
120 92 V
5599 4299 M
120 92 V
6012 2240 M
119 92 V
4983 4483 M
120 92 V
2513 4038 M
119 92 V
4017 704 M
119 91 V
1962 950 M
119 92 V
3697 4626 M
119 92 V
4156 557 M
120 92 V
2929 4557 M
120 92 V
1748 3442 M
120 91 V
1858 34 R
120 92 V
3018 3490 M
120 92 V
stroke 3138 3582 M
2868 282 R
120 91 V
5696 2516 M
119 91 V
1495 3419 M
120 92 V
1840 459 M
120 92 V
5608 2123 M
119 92 V
4284 2968 M
120 91 V
6278 1892 M
120 92 V
2238 1634 M
120 92 V
4848 4541 M
119 92 V
2710 422 M
120 92 V
3824 763 R
119 91 V
3703 3840 M
120 91 V
1381 2393 M
120 92 V
-66 2087 R
120 92 V
2326 3380 M
120 92 V
892 516 R
119 92 V
1838 4198 M
120 92 V
4173 2798 M
120 92 V
1513 468 R
119 92 V
2120 902 M
120 91 V
1138 850 R
120 92 V
5769 328 M
119 92 V
2952 4165 M
119 92 V
4157 812 M
119 91 V
3198 2384 M
120 92 V
6062 2097 M
119 91 V
3544 3644 M
119 92 V
1814 362 M
120 92 V
575 2307 R
119 91 V
36 720 R
119 92 V
2926 577 R
120 92 V
3588 1636 M
120 92 V
1985 511 R
119 92 V
5593 2218 M
119 92 V
384 1028 R
120 91 V
3924 1832 M
120 92 V
2787 2342 M
120 92 V
-39 2250 R
120 91 V
5117 3318 M
119 91 V
2961 1211 M
120 92 V
697 2787 R
120 92 V
1390 235 R
120 92 V
3483 1354 M
119 92 V
934 1268 R
119 91 V
2434 2414 M
120 92 V
2018 -81 R
120 91 V
-924 982 R
119 92 V
2597 1682 M
119 92 V
1789 4371 M
120 92 V
4123 4259 M
120 92 V
1696 1114 M
120 91 V
5533 3619 M
119 91 V
stroke 5652 3710 M
1410 1958 M
119 92 V
3958 3400 M
120 92 V
1614 3641 M
120 92 V
2721 731 R
119 92 V
1613 2672 M
120 92 V
6014 4120 M
119 92 V
1004 1641 M
120 92 V
3805 4387 M
120 92 V
4519 981 M
120 92 V
3071 3939 M
119 92 V
1107 3740 M
120 92 V
2408 435 R
120 92 V
3878 2130 M
119 92 V
917 -165 R
119 92 V
1146 664 R
119 92 V
3237 3260 M
120 92 V
2115 -8 R
119 92 V
2085 1244 M
120 92 V
3776 786 R
119 92 V
260 -874 R
120 92 V
1394 3148 M
120 92 V
4387 4622 M
119 92 V
998 -494 R
120 92 V
3161 2608 M
119 92 V
2102 1357 M
120 92 V
1402 4641 M
120 92 V
1072 2905 M
120 91 V
4683 2472 M
120 92 V
-10 -604 R
120 92 V
3366 4443 M
120 92 V
6443 377 M
120 92 V
4834 1248 M
120 92 V
1558 1165 M
119 92 V
887 -40 R
119 92 V
3744 1182 M
120 92 V
1443 1448 M
120 92 V
3443 3061 M
119 92 V
2622 608 M
119 91 V
2416 2804 M
119 92 V
4401 1675 M
119 92 V
1149 782 M
119 92 V
1337 945 R
120 92 V
6432 605 M
119 91 V
4138 1318 M
119 92 V
1727 683 M
120 91 V
6254 2685 M
119 92 V
4452 3756 M
120 91 V
1167 1981 M
119 92 V
3476 696 M
120 91 V
1226 695 R
120 92 V
1399 2632 M
119 92 V
237 -984 R
120 92 V
stroke 1875 1832 M
1678 787 M
119 92 V
5888 2133 M
120 92 V
221 1236 R
119 92 V
126 -324 R
119 92 V
4297 2929 M
120 92 V
6555 1724 M
120 92 V
3030 834 M
119 92 V
3424 742 R
120 91 V
2076 2991 M
119 92 V
1682 2265 M
119 91 V
4966 3473 M
120 92 V
750 -211 R
119 92 V
-673 77 R
120 92 V
6359 1803 M
120 92 V
3156 1758 M
120 92 V
1097 2213 M
120 92 V
406 -918 R
120 92 V
358 2462 R
120 91 V
2365 1341 M
120 92 V
5640 3745 M
120 92 V
1005 1925 M
120 92 V
4650 1241 M
119 92 V
1437 278 R
120 92 V
-1273 66 R
120 92 V
2229 324 M
120 92 V
2155 3264 M
119 92 V
1341 1271 M
119 92 V
4042 2573 M
119 92 V
1755 3809 M
119 92 V
4705 2959 M
119 92 V
1713 4680 M
120 92 V
5545 1951 M
120 92 V
992 2257 M
120 92 V
-88 -36 R
119 92 V
4755 4083 M
120 92 V
4283 3575 M
120 92 V
3731 2102 M
120 92 V
2703 1754 M
119 92 V
1716 224 R
119 92 V
-89 947 R
120 92 V
1081 -15 R
119 92 V
1783 580 M
119 92 V
-33 -16 R
119 92 V
5940 479 M
119 91 V
4233 3367 M
120 92 V
2719 1673 M
119 92 V
6057 3504 M
119 92 V
1834 4037 M
120 91 V
1220 421 M
119 92 V
6666 1752 M
120 92 V
4618 1020 M
120 92 V
2378 1416 M
119 92 V
stroke 2497 1508 M
6000 1330 M
120 92 V
-4321 17 R
120 92 V
5903 4675 M
119 91 V
1143 1227 M
120 92 V
2956 2752 M
119 92 V
343 1608 R
120 92 V
5290 2731 M
120 92 V
3866 2488 M
120 92 V
2564 4528 M
119 92 V
2971 2254 M
120 92 V
5928 3505 M
119 92 V
173 765 R
120 92 V
1224 1444 M
120 92 V
437 1911 R
120 92 V
4768 2658 M
120 92 V
2278 1638 M
119 92 V
753 1176 R
120 92 V
5652 4354 M
120 92 V
986 818 M
120 91 V
6080 2398 M
120 92 V
2604 3795 M
119 92 V
5010 2426 M
120 92 V
3969 2873 M
120 92 V
1019 3706 M
119 92 V
4855 1376 M
119 91 V
4824 4409 M
120 92 V
5159 1815 M
119 92 V
4675 4213 M
120 92 V
176 231 R
120 92 V
1600 4443 M
120 91 V
962 -858 R
120 91 V
6125 1469 M
120 92 V
2567 3619 M
120 92 V
4926 2607 M
120 92 V
2078 3221 M
119 91 V
3704 2522 M
120 91 V
2799 4256 M
120 92 V
5843 2963 M
120 92 V
5282 2028 M
120 92 V
3002 4344 M
120 92 V
3274 1465 M
120 92 V
5385 3009 M
120 91 V
3696 4263 M
119 91 V
3705 3002 M
119 91 V
1603 998 R
120 92 V
3997 4097 M
120 91 V
5903 726 M
120 92 V
1067 3588 M
119 92 V
1562 1579 M
119 92 V
3010 1461 M
120 92 V
6496 3935 M
120 92 V
1929 732 M
119 92 V
stroke 2048 824 M
3982 3122 M
119 92 V
2905 439 M
120 92 V
6700 2981 M
120 92 V
4607 1563 M
119 92 V
1628 3401 M
120 92 V
1973 317 R
120 92 V
6463 1503 M
119 91 V
2377 3827 M
119 92 V
5127 1827 M
120 92 V
3934 4521 M
120 92 V
1219 3405 M
120 91 V
230 1120 R
119 92 V
4886 3531 M
120 92 V
64 255 R
120 91 V
67 582 R
120 91 V
3918 3838 M
119 92 V
3380 1292 M
119 91 V
5864 4617 M
120 91 V
2800 2945 M
119 91 V
2939 921 M
120 91 V
5010 2591 M
120 92 V
1045 1198 M
120 92 V
328 2785 R
120 92 V
6550 904 M
119 92 V
3739 4593 M
119 92 V
5021 3598 M
119 92 V
5284 1568 M
120 91 V
1313 2874 M
120 92 V
4319 4259 M
119 92 V
6009 3440 M
119 92 V
3500 524 M
120 92 V
128 2956 R
119 92 V
3134 1414 M
120 92 V
2398 3897 M
119 92 V
1709 1194 M
120 92 V
6485 3700 M
119 92 V
3793 509 M
119 92 V
2758 3437 M
120 92 V
4864 1812 M
120 92 V
5363 541 M
119 92 V
1991 2714 M
120 92 V
1523 4174 M
120 92 V
5981 461 M
120 92 V
1168 1187 M
120 92 V
4932 796 M
120 92 V
4788 1955 M
119 91 V
816 254 R
120 92 V
-1414 48 R
120 92 V
6028 3910 M
119 92 V
5833 1091 M
120 92 V
3394 2844 M
119 91 V
1790 2641 M
119 91 V
stroke 1909 2732 M
5622 842 M
119 92 V
3629 2284 M
119 92 V
3589 1112 M
120 92 V
2833 2266 M
120 92 V
2268 758 R
119 92 V
3210 317 M
120 92 V
4908 1519 M
119 92 V
-853 180 R
120 91 V
4495 337 M
119 92 V
2306 1838 M
120 92 V
711 2665 R
119 92 V
5398 4540 M
120 91 V
3751 4445 M
120 92 V
2803 2690 M
120 92 V
5700 1615 M
120 91 V
1932 2579 M
119 92 V
1037 1073 M
120 92 V
5277 600 M
120 92 V
561 2596 R
120 92 V
3157 2119 M
120 92 V
1311 187 R
119 92 V
30 2188 R
119 92 V
1201 1579 M
119 92 V
6628 4582 M
120 91 V
5881 949 M
120 92 V
3165 554 M
119 91 V
4526 2960 M
120 92 V
6152 4080 M
120 92 V
1782 3232 M
119 92 V
3030 149 R
119 92 V
1655 436 R
120 92 V
968 518 M
119 91 V
938 3703 R
119 92 V
4503 753 M
119 92 V
2025 740 R
119 92 V
2604 503 M
119 92 V
4474 1973 M
120 91 V
5096 399 M
120 92 V
1616 801 M
120 91 V
4114 591 M
120 92 V
1783 2808 M
119 92 V
3135 269 R
120 92 V
6207 2977 M
120 92 V
1073 2485 M
120 92 V
6092 3753 M
120 92 V
3490 3210 M
119 91 V
2874 1284 M
120 92 V
-908 371 R
120 92 V
1327 898 R
119 91 V
6092 2565 M
119 92 V
5866 1809 M
119 92 V
2535 2905 M
120 92 V
stroke 2655 2997 M
5330 2779 M
120 92 V
2673 1943 M
119 91 V
2530 1503 M
119 91 V
1263 3914 M
120 92 V
4448 -45 R
119 92 V
4847 410 M
120 91 V
3645 971 M
120 92 V
5888 424 M
119 92 V
1169 3267 M
119 92 V
5085 1416 M
119 91 V
2010 796 M
120 91 V
1637 620 M
120 91 V
6215 925 M
120 91 V
2232 2498 M
120 92 V
5755 765 M
120 92 V
5059 4502 M
119 92 V
2012 404 M
120 92 V
61 2032 R
120 92 V
4297 491 R
119 92 V
3476 988 M
119 92 V
2793 3133 M
119 92 V
655 1139 R
120 92 V
5616 3194 M
119 92 V
3407 4346 M
119 92 V
6420 3624 M
119 92 V
-669 317 R
119 92 V
1308 2711 M
120 91 V
5688 1241 M
119 92 V
5002 4578 M
120 92 V
1827 3492 M
120 92 V
4648 332 R
119 92 V
1003 2236 M
120 92 V
5311 201 R
120 92 V
4567 3176 M
120 92 V
1134 4632 M
120 92 V
5105 1571 M
119 92 V
2013 2722 M
119 92 V
499 448 R
120 92 V
250 -715 R
120 92 V
1290 2329 M
120 92 V
4809 312 M
120 92 V
6399 2480 M
120 92 V
4131 4117 M
119 92 V
4421 2209 M
120 91 V
694 867 R
119 92 V
1866 2997 M
120 91 V
3139 603 R
119 92 V
4268 1472 M
120 92 V
1968 3356 M
120 91 V
5043 2860 M
119 92 V
1119 940 M
120 92 V
3241 54 R
120 92 V
stroke 4600 1178 M
1748 3923 M
120 92 V
-55 177 R
120 92 V
5059 430 M
119 92 V
6665 382 M
120 92 V
2173 602 M
120 92 V
5009 325 M
119 91 V
3032 1516 M
120 92 V
3277 521 M
119 92 V
2223 2800 M
120 91 V
6248 2110 M
119 92 V
1944 3969 M
120 92 V
5511 1715 M
120 92 V
4952 3145 M
120 92 V
854 -390 R
120 92 V
3986 3156 M
119 92 V
3863 535 M
120 92 V
142 -19 R
119 92 V
6451 4529 M
119 92 V
1516 332 M
120 92 V
3276 3358 M
120 92 V
5102 1026 M
119 92 V
637 2922 R
120 91 V
4086 302 M
119 92 V
4045 1420 M
119 91 V
3351 3542 M
120 92 V
1004 1549 M
120 92 V
871 1950 R
120 91 V
1498 430 R
120 92 V
3575 907 M
120 92 V
2088 3121 M
120 92 V
3175 1865 M
120 92 V
5317 4582 M
120 92 V
6496 3161 M
120 92 V
4961 1005 M
120 92 V
2191 2065 M
119 92 V
4502 962 M
120 92 V
5647 3583 M
119 92 V
1053 386 M
120 92 V
2355 4565 M
120 92 V
2513 415 M
120 92 V
3779 698 M
119 91 V
681 1588 R
120 91 V
6255 557 M
120 92 V
1038 1774 M
119 92 V
5942 759 M
119 92 V
5450 4049 M
120 92 V
322 -405 R
119 92 V
226 -497 R
120 92 V
240 1200 R
120 92 V
2214 3115 M
119 92 V
3402 2814 M
120 92 V
5908 4479 M
120 92 V
stroke 6028 4571 M
2863 1389 M
119 92 V
4518 4384 M
120 92 V
2152 2587 M
119 92 V
1989 558 M
120 91 V
602 3533 R
119 92 V
2801 408 M
119 92 V
2709 1878 M
119 91 V
837 2516 R
120 92 V
1891 777 M
120 92 V
6212 2110 M
119 92 V
4124 4099 M
120 92 V
2242 65 R
120 92 V
5363 2833 M
119 92 V
1226 4637 M
120 92 V
5984 2658 M
119 92 V
4261 2331 M
119 92 V
3895 1171 M
119 92 V
-564 119 R
120 92 V
2250 2301 M
119 92 V
199 -870 R
120 92 V
474 -452 R
119 92 V
1692 161 R
120 92 V
6394 4013 M
120 91 V
5818 2578 M
119 91 V
6479 1148 M
120 92 V
4299 1501 M
119 92 V
-3243 19 R
119 92 V
4005 3983 M
120 91 V
3171 1916 M
120 92 V
30 868 R
119 92 V
329 1087 R
119 92 V
5195 373 M
120 92 V
134 2982 R
119 92 V
6292 1126 M
120 92 V
4678 980 M
120 91 V
1219 2045 M
120 92 V
3784 3609 M
119 91 V
2796 2285 M
119 92 V
4909 1057 M
120 92 V
5925 574 M
119 92 V
1632 302 M
120 91 V
3657 644 M
120 92 V
6230 1893 M
119 92 V
64 2184 R
120 92 V
5893 3586 M
120 92 V
4313 4577 M
119 91 V
3108 4608 M
120 92 V
3802 2147 M
119 92 V
1979 728 R
119 92 V
1171 439 M
119 91 V
3519 520 R
120 92 V
4519 2959 M
119 91 V
stroke 4638 3050 M
5944 423 M
120 92 V
4446 2010 M
119 92 V
6178 501 M
119 92 V
4956 462 M
120 92 V
3289 1629 M
119 91 V
2327 502 R
119 92 V
5294 4181 M
120 92 V
2805 995 M
120 92 V
-154 305 R
119 92 V
3088 -12 R
120 92 V
4754 2101 M
120 92 V
3639 1924 M
120 91 V
3619 1815 M
119 92 V
392 195 R
120 92 V
2637 745 M
119 92 V
4628 3141 M
120 92 V
6664 4647 M
119 92 V
5145 2074 M
120 92 V
2435 298 M
119 92 V
5517 556 M
120 92 V
1989 1420 M
120 92 V
1160 2796 M
120 92 V
3187 312 M
120 92 V
4692 2661 M
120 92 V
5929 4613 M
119 92 V
5775 1253 M
119 92 V
662 150 R
120 92 V
4064 2752 M
120 92 V
1786 1201 M
120 91 V
4500 2789 M
119 92 V
4421 2649 M
119 92 V
4155 3898 M
120 92 V
4898 491 M
120 92 V
3909 4151 M
120 92 V
3992 2837 M
119 92 V
1913 4143 M
120 92 V
3402 3478 M
120 91 V
3302 1730 M
120 92 V
1783 43 R
120 91 V
713 2483 R
119 92 V
4551 668 M
120 92 V
2601 3211 M
120 92 V
3538 551 M
119 92 V
1170 2795 M
119 91 V
2649 1003 M
119 92 V
6406 4407 M
120 92 V
3486 1482 M
120 91 V
1180 3962 M
119 91 V
4555 911 M
119 92 V
578 1449 R
120 92 V
4820 672 M
119 92 V
2827 1679 M
120 91 V
stroke 2947 1770 M
5041 1179 M
119 91 V
1040 3886 M
119 91 V
4459 3696 M
119 92 V
3381 313 M
119 92 V
2062 690 M
120 92 V
-161 977 R
119 92 V
6173 3065 M
120 92 V
5190 3734 M
119 92 V
2443 1473 M
119 92 V
6323 327 M
120 92 V
2936 1818 M
120 91 V
1163 365 R
119 92 V
1984 888 M
120 92 V
3287 4418 M
120 91 V
1165 4017 M
120 92 V
1068 3985 M
119 92 V
2389 3166 M
120 92 V
6576 399 M
120 92 V
1460 834 M
119 92 V
4249 4456 M
120 92 V
5436 657 M
120 92 V
394 708 R
119 92 V
-147 917 R
119 92 V
3570 2503 M
119 92 V
4045 393 M
120 92 V
2876 4096 M
119 92 V
4525 3817 M
120 92 V
1913 580 R
119 92 V
2835 1184 M
119 91 V
5349 616 M
120 92 V
2219 1647 M
119 92 V
1049 578 R
119 92 V
5356 3787 M
119 91 V
1750 604 M
120 92 V
993 1702 M
119 92 V
3437 431 R
120 92 V
5973 1060 M
120 92 V
1333 2493 M
119 92 V
1683 -18 R
119 92 V
1347 1658 M
119 91 V
6506 1567 M
119 92 V
3851 383 M
119 92 V
643 3939 R
120 92 V
5817 2018 M
120 91 V
5737 1377 M
120 92 V
252 1458 R
119 92 V
6679 1312 M
119 92 V
4431 2868 M
119 92 V
6367 4139 M
119 92 V
2757 3988 M
120 92 V
2531 3509 M
119 92 V
4640 344 M
119 92 V
stroke 4759 436 M
3960 3421 M
120 91 V
1789 1818 M
119 92 V
1574 807 R
119 92 V
3440 659 M
120 91 V
4560 4623 M
120 92 V
2686 3161 M
120 92 V
3327 196 R
119 92 V
1582 357 M
119 92 V
4580 950 R
120 92 V
974 3704 M
119 92 V
1749 1510 M
120 92 V
1039 1037 M
119 92 V
3527 3676 M
119 91 V
1046 1812 M
119 91 V
1912 618 R
120 92 V
538 632 R
119 91 V
2970 544 M
119 92 V
-801 850 R
119 92 V
5783 4612 M
119 92 V
2647 4662 M
120 92 V
814 -70 R
120 92 V
1366 1811 M
120 91 V
4688 820 M
119 91 V
1012 2608 M
120 92 V
3591 4489 M
120 92 V
6133 1982 M
120 92 V
5488 3395 M
120 91 V
5918 1197 M
120 92 V
3992 1722 M
120 92 V
6707 689 M
120 92 V
4033 2474 M
120 92 V
4713 1250 M
120 92 V
6180 3494 M
119 92 V
1188 4681 M
119 92 V
2135 2879 M
120 92 V
5631 4643 M
119 92 V
3864 4192 M
119 92 V
5230 1941 M
120 92 V
-656 927 R
120 92 V
5837 1507 M
120 91 V
3076 2900 M
120 92 V
4370 4126 M
120 91 V
6690 3391 M
120 91 V
4845 2936 M
120 91 V
1482 1780 M
120 92 V
2630 1322 M
120 91 V
1287 2908 M
120 91 V
-21 -801 R
120 92 V
411 2042 R
120 92 V
-857 235 R
120 92 V
5091 1930 M
120 92 V
2411 4341 M
120 92 V
stroke 2531 4433 M
3668 3799 M
119 92 V
3284 1509 M
120 92 V
428 -330 R
119 92 V
5370 4251 M
120 92 V
4548 639 M
119 92 V
6621 1887 M
119 91 V
3126 1710 M
120 92 V
963 -79 R
120 92 V
2227 4619 M
120 92 V
4747 2071 M
120 92 V
145 -441 R
119 92 V
3923 330 M
120 92 V
2278 2641 M
119 92 V
835 -210 R
119 92 V
1101 1476 M
120 92 V
4530 593 R
119 91 V
3348 2710 M
120 91 V
2112 4255 M
119 92 V
1091 3205 M
120 92 V
2843 2031 M
119 92 V
2204 558 M
120 91 V
3362 3987 M
120 92 V
3118 3582 M
119 92 V
1496 1891 M
120 92 V
5859 4189 M
120 92 V
3007 3953 M
120 92 V
4475 2703 M
120 92 V
4999 1757 M
119 92 V
3391 1177 M
120 92 V
1977 75 R
120 92 V
3775 2639 M
120 92 V
3883 1063 M
119 92 V
869 1094 R
119 92 V
1889 1620 M
120 92 V
1158 87 R
120 92 V
2655 1285 M
120 92 V
962 3155 R
120 91 V
2477 3247 M
119 92 V
4214 1581 M
120 92 V
3078 2841 M
119 91 V
2605 692 R
120 92 V
2455 672 M
119 92 V
5385 3380 M
119 92 V
2765 2972 M
120 92 V
326 -505 R
119 91 V
1208 2566 M
119 92 V
3359 669 M
120 92 V
3299 1956 M
119 92 V
5990 1197 M
120 92 V
5073 1263 M
120 92 V
6657 3266 M
120 92 V
4639 1441 M
119 91 V
stroke 4758 1532 M
5898 4569 M
120 92 V
5184 4190 M
119 91 V
5242 2640 M
120 92 V
1007 4276 M
120 92 V
4526 494 M
120 92 V
2043 4365 M
119 92 V
3577 4112 M
119 92 V
5737 3956 M
120 92 V
5060 3362 M
120 92 V
2964 1051 M
120 92 V
5237 364 M
120 92 V
2676 2525 M
119 92 V
643 -24 R
119 91 V
6684 1821 M
119 92 V
3994 1312 M
120 92 V
1802 1204 M
119 92 V
5107 2794 M
120 91 V
1532 916 M
119 91 V
1271 3328 M
119 92 V
3847 1124 M
120 92 V
5045 3298 M
120 91 V
1614 981 M
119 92 V
5132 4182 M
120 92 V
6413 1775 M
120 92 V
5721 929 M
119 92 V
4141 2041 M
120 92 V
2757 523 M
119 92 V
1470 1928 M
119 92 V
2882 1251 M
120 92 V
-447 36 R
120 92 V
1312 3529 M
120 92 V
1721 451 M
120 91 V
5778 2727 M
120 92 V
164 1436 R
119 92 V
3994 2564 M
120 92 V
5937 4383 M
120 92 V
1167 362 M
119 92 V
4973 817 R
120 92 V
1975 3126 M
120 92 V
6204 1216 M
119 92 V
4117 2390 M
119 91 V
5012 915 M
120 92 V
6325 616 M
119 92 V
1351 1070 M
120 92 V
1232 202 R
119 92 V
2227 3308 M
120 92 V
2872 802 M
120 92 V
4190 4569 M
120 92 V
3016 2020 M
120 92 V
4581 3326 M
119 92 V
3921 388 M
120 92 V
1592 1842 M
119 92 V
stroke 1711 1934 M
3894 4209 M
120 92 V
5100 1673 M
120 92 V
2669 3183 M
119 92 V
5082 498 M
119 92 V
-444 511 R
120 92 V
2238 4024 M
119 91 V
3900 119 R
119 92 V
2663 3257 M
120 92 V
5426 2518 M
119 92 V
3372 1787 M
120 92 V
-30 2140 R
120 92 V
3898 476 M
119 92 V
953 2909 R
119 92 V
2896 4125 M
120 92 V
2441 1850 M
120 92 V
1434 4628 CircleF
1554 4720 CircleF
4588 3597 CircleF
4708 3689 CircleF
6210 1058 CircleF
6330 1150 CircleF
3100 3831 CircleF
3220 3923 CircleF
1630 1869 CircleF
1750 1961 CircleF
3200 4063 CircleF
3319 4155 CircleF
2811 3038 CircleF
2931 3130 CircleF
5949 328 CircleF
6069 420 CircleF
5601 1918 CircleF
5721 2010 CircleF
1464 408 CircleF
1583 500 CircleF
1407 1333 CircleF
1527 1425 CircleF
4447 3341 CircleF
4567 3432 CircleF
1111 3546 CircleF
1231 3638 CircleF
2225 2131 CircleF
2344 2222 CircleF
1255 2714 CircleF
1374 2805 CircleF
3494 2429 CircleF
3613 2521 CircleF
1101 1000 CircleF
1221 1092 CircleF
3697 3334 CircleF
3816 3426 CircleF
3038 2721 CircleF
3157 2813 CircleF
4159 1660 CircleF
4279 1752 CircleF
4476 914 CircleF
4596 1005 CircleF
1742 1279 CircleF
1862 1371 CircleF
1847 2217 CircleF
1966 2309 CircleF
3400 4094 CircleF
3520 4186 CircleF
4095 2544 CircleF
4215 2636 CircleF
2946 2172 CircleF
3065 2264 CircleF
5169 4642 CircleF
5288 4734 CircleF
3820 4197 CircleF
3940 4289 CircleF
6429 328 CircleF
6549 420 CircleF
2066 4146 CircleF
2185 4237 CircleF
2735 3588 CircleF
2854 3680 CircleF
6410 875 CircleF
6530 967 CircleF
3820 4476 CircleF
3939 4568 CircleF
3715 995 CircleF
3835 1087 CircleF
1949 3646 CircleF
2069 3738 CircleF
3543 469 CircleF
3663 560 CircleF
3300 3661 CircleF
3420 3753 CircleF
3597 916 CircleF
3717 1008 CircleF
2023 3130 CircleF
2142 3222 CircleF
6261 695 CircleF
6381 786 CircleF
2742 3564 CircleF
2861 3656 CircleF
3295 1808 CircleF
3415 1900 CircleF
4476 3135 CircleF
4596 3226 CircleF
5111 4237 CircleF
5230 4328 CircleF
1981 3758 CircleF
2101 3850 CircleF
6633 374 CircleF
6753 465 CircleF
6508 3497 CircleF
6628 3589 CircleF
2606 3562 CircleF
2726 3654 CircleF
3451 357 CircleF
3570 449 CircleF
4186 1293 CircleF
4305 1385 CircleF
5658 3139 CircleF
5778 3230 CircleF
5962 3045 CircleF
6081 3137 CircleF
2188 1404 CircleF
2308 1496 CircleF
4160 3594 CircleF
4280 3686 CircleF
3105 3770 CircleF
3224 3862 CircleF
6110 3319 CircleF
6230 3411 CircleF
3029 2688 CircleF
3149 2780 CircleF
3320 3324 CircleF
3440 3416 CircleF
4274 4039 CircleF
4393 4131 CircleF
4703 3457 CircleF
4823 3549 CircleF
5890 2975 CircleF
6010 3067 CircleF
3475 281 CircleF
3595 373 CircleF
1546 1743 CircleF
1665 1835 CircleF
5766 3485 CircleF
5886 3577 CircleF
3493 1502 CircleF
3613 1594 CircleF
6094 1274 CircleF
6214 1366 CircleF
4320 1652 CircleF
4439 1744 CircleF
1431 4042 CircleF
1551 4133 CircleF
4617 3753 CircleF
4737 3844 CircleF
2471 2296 CircleF
2591 2388 CircleF
4783 1978 CircleF
4903 2070 CircleF
5280 1295 CircleF
5400 1387 CircleF
3801 1851 CircleF
3920 1943 CircleF
4381 944 CircleF
4500 1036 CircleF
3406 958 CircleF
3525 1050 CircleF
2236 2619 CircleF
2355 2711 CircleF
4255 1973 CircleF
4375 2065 CircleF
3981 3448 CircleF
4101 3540 CircleF
6065 2776 CircleF
6185 2868 CircleF
2122 2905 CircleF
2241 2997 CircleF
5435 2974 CircleF
5554 3065 CircleF
3886 4082 CircleF
4005 4174 CircleF
4171 4421 CircleF
4290 4513 CircleF
4343 3390 CircleF
4463 3482 CircleF
1249 4231 CircleF
1369 4323 CircleF
3878 2429 CircleF
3997 2521 CircleF
6670 1913 CircleF
6789 2005 CircleF
1939 2090 CircleF
2058 2182 CircleF
2921 3947 CircleF
3040 4039 CircleF
2467 571 CircleF
2587 663 CircleF
4081 1411 CircleF
4201 1503 CircleF
2635 2604 CircleF
2755 2696 CircleF
3887 4030 CircleF
4007 4122 CircleF
3738 2694 CircleF
3858 2786 CircleF
5767 1303 CircleF
5887 1395 CircleF
5998 1395 CircleF
6117 1487 CircleF
5118 4003 CircleF
5237 4095 CircleF
5890 1402 CircleF
6009 1494 CircleF
3196 2411 CircleF
3315 2503 CircleF
2234 896 CircleF
2353 988 CircleF
6574 3971 CircleF
6693 4063 CircleF
1302 526 CircleF
1422 618 CircleF
5900 1990 CircleF
6019 2082 CircleF
6505 298 CircleF
6625 390 CircleF
3763 2383 CircleF
3882 2475 CircleF
1896 4577 CircleF
2015 4669 CircleF
4791 2938 CircleF
4910 3030 CircleF
4183 4376 CircleF
4303 4467 CircleF
3263 1579 CircleF
3383 1671 CircleF
3095 3072 CircleF
3215 3164 CircleF
4337 3177 CircleF
4457 3269 CircleF
5353 2155 CircleF
5472 2247 CircleF
2767 3629 CircleF
2887 3721 CircleF
1596 1254 CircleF
1715 1346 CircleF
5787 4171 CircleF
5907 4263 CircleF
4190 1078 CircleF
4309 1170 CircleF
1525 2040 CircleF
1645 2132 CircleF
5787 3430 CircleF
5907 3522 CircleF
4859 3992 CircleF
4979 4084 CircleF
1103 2140 CircleF
1222 2231 CircleF
3263 1835 CircleF
3383 1927 CircleF
5548 2629 CircleF
5667 2721 CircleF
1217 811 CircleF
1337 902 CircleF
1115 2950 CircleF
1234 3042 CircleF
6392 2208 CircleF
6512 2300 CircleF
5672 3568 CircleF
5792 3659 CircleF
1421 1177 CircleF
1541 1268 CircleF
5605 603 CircleF
5725 695 CircleF
4865 2796 CircleF
4985 2888 CircleF
3050 3106 CircleF
3169 3198 CircleF
2199 2066 CircleF
2319 2158 CircleF
6294 646 CircleF
6413 737 CircleF
3078 1018 CircleF
3198 1110 CircleF
6246 2741 CircleF
6366 2833 CircleF
6115 2915 CircleF
6234 3006 CircleF
5203 2457 CircleF
5322 2549 CircleF
3326 1248 CircleF
3445 1340 CircleF
3638 1563 CircleF
3758 1655 CircleF
1484 949 CircleF
1604 1041 CircleF
5594 3471 CircleF
5713 3562 CircleF
1943 2224 CircleF
2062 2316 CircleF
3469 2316 CircleF
3589 2408 CircleF
5790 918 CircleF
5909 1010 CircleF
2010 4003 CircleF
2130 4094 CircleF
5932 2585 CircleF
6052 2677 CircleF
5599 4299 CircleF
5719 4391 CircleF
6012 2240 CircleF
6131 2332 CircleF
4983 4483 CircleF
5103 4575 CircleF
2513 4038 CircleF
2632 4130 CircleF
4017 704 CircleF
4136 795 CircleF
1962 950 CircleF
2081 1042 CircleF
3697 4626 CircleF
3816 4718 CircleF
4156 557 CircleF
4276 649 CircleF
2929 4557 CircleF
3049 4649 CircleF
1748 3442 CircleF
1868 3533 CircleF
3726 3567 CircleF
3846 3659 CircleF
3018 3490 CircleF
3138 3582 CircleF
6006 3864 CircleF
6126 3955 CircleF
5696 2516 CircleF
5815 2607 CircleF
1495 3419 CircleF
1615 3511 CircleF
1840 459 CircleF
1960 551 CircleF
5608 2123 CircleF
5727 2215 CircleF
4284 2968 CircleF
4404 3059 CircleF
6278 1892 CircleF
6398 1984 CircleF
2238 1634 CircleF
2358 1726 CircleF
4848 4541 CircleF
4967 4633 CircleF
2710 422 CircleF
2830 514 CircleF
6654 1277 CircleF
6773 1368 CircleF
3703 3840 CircleF
3823 3931 CircleF
1381 2393 CircleF
1501 2485 CircleF
1435 4572 CircleF
1555 4664 CircleF
2326 3380 CircleF
2446 3472 CircleF
3338 3988 CircleF
3457 4080 CircleF
1838 4198 CircleF
1958 4290 CircleF
4173 2798 CircleF
4293 2890 CircleF
5806 3358 CircleF
5925 3450 CircleF
2120 902 CircleF
2240 993 CircleF
3378 1843 CircleF
3498 1935 CircleF
5769 328 CircleF
5888 420 CircleF
2952 4165 CircleF
3071 4257 CircleF
4157 812 CircleF
4276 903 CircleF
3198 2384 CircleF
3318 2476 CircleF
6062 2097 CircleF
6181 2188 CircleF
3544 3644 CircleF
3663 3736 CircleF
1814 362 CircleF
1934 454 CircleF
2509 2761 CircleF
2628 2852 CircleF
2664 3572 CircleF
2783 3664 CircleF
5709 4241 CircleF
5829 4333 CircleF
3588 1636 CircleF
3708 1728 CircleF
5693 2239 CircleF
5812 2331 CircleF
5593 2218 CircleF
5712 2310 CircleF
6096 3338 CircleF
6216 3429 CircleF
3924 1832 CircleF
4044 1924 CircleF
2787 2342 CircleF
2907 2434 CircleF
2868 4684 CircleF
2988 4775 CircleF
5117 3318 CircleF
5236 3409 CircleF
2961 1211 CircleF
3081 1303 CircleF
3778 4090 CircleF
3898 4182 CircleF
5288 4417 CircleF
5408 4509 CircleF
3483 1354 CircleF
3602 1446 CircleF
4536 2714 CircleF
4655 2805 CircleF
2434 2414 CircleF
2554 2506 CircleF
4572 2425 CircleF
4692 2516 CircleF
3768 3498 CircleF
3887 3590 CircleF
2597 1682 CircleF
2716 1774 CircleF
1789 4371 CircleF
1909 4463 CircleF
4123 4259 CircleF
4243 4351 CircleF
1696 1114 CircleF
1816 1205 CircleF
5533 3619 CircleF
5652 3710 CircleF
1410 1958 CircleF
1529 2050 CircleF
3958 3400 CircleF
4078 3492 CircleF
1614 3641 CircleF
1734 3733 CircleF
4455 4464 CircleF
4574 4556 CircleF
1613 2672 CircleF
1733 2764 CircleF
6014 4120 CircleF
6133 4212 CircleF
1004 1641 CircleF
1124 1733 CircleF
3805 4387 CircleF
3925 4479 CircleF
4519 981 CircleF
4639 1073 CircleF
3071 3939 CircleF
3190 4031 CircleF
1107 3740 CircleF
1227 3832 CircleF
3635 4267 CircleF
3755 4359 CircleF
3878 2130 CircleF
3997 2222 CircleF
4914 2057 CircleF
5033 2149 CircleF
6179 2813 CircleF
6298 2905 CircleF
3237 3260 CircleF
3357 3352 CircleF
5472 3344 CircleF
5591 3436 CircleF
2085 1244 CircleF
2205 1336 CircleF
5981 2122 CircleF
6100 2214 CircleF
6360 1340 CircleF
6480 1432 CircleF
1394 3148 CircleF
1514 3240 CircleF
4387 4622 CircleF
4506 4714 CircleF
5504 4220 CircleF
5624 4312 CircleF
3161 2608 CircleF
3280 2700 CircleF
2102 1357 CircleF
2222 1449 CircleF
1402 4641 CircleF
1522 4733 CircleF
1072 2905 CircleF
1192 2996 CircleF
4683 2472 CircleF
4803 2564 CircleF
4793 1960 CircleF
4913 2052 CircleF
3366 4443 CircleF
3486 4535 CircleF
6443 377 CircleF
6563 469 CircleF
4834 1248 CircleF
4954 1340 CircleF
1558 1165 CircleF
1677 1257 CircleF
2564 1217 CircleF
2683 1309 CircleF
3744 1182 CircleF
3864 1274 CircleF
1443 1448 CircleF
1563 1540 CircleF
3443 3061 CircleF
3562 3153 CircleF
2622 608 CircleF
2741 699 CircleF
2416 2804 CircleF
2535 2896 CircleF
4401 1675 CircleF
4520 1767 CircleF
1149 782 CircleF
1268 874 CircleF
2605 1819 CircleF
2725 1911 CircleF
6432 605 CircleF
6551 696 CircleF
4138 1318 CircleF
4257 1410 CircleF
1727 683 CircleF
1847 774 CircleF
6254 2685 CircleF
6373 2777 CircleF
4452 3756 CircleF
4572 3847 CircleF
1167 1981 CircleF
1286 2073 CircleF
3476 696 CircleF
3596 787 CircleF
4822 1482 CircleF
4942 1574 CircleF
1399 2632 CircleF
1518 2724 CircleF
1755 1740 CircleF
1875 1832 CircleF
1678 787 CircleF
1797 879 CircleF
5888 2133 CircleF
6008 2225 CircleF
6229 3461 CircleF
6348 3553 CircleF
6474 3229 CircleF
6593 3321 CircleF
4297 2929 CircleF
4417 3021 CircleF
6555 1724 CircleF
6675 1816 CircleF
3030 834 CircleF
3149 926 CircleF
6573 1668 CircleF
6693 1759 CircleF
2076 2991 CircleF
2195 3083 CircleF
1682 2265 CircleF
1801 2356 CircleF
4966 3473 CircleF
5086 3565 CircleF
5836 3354 CircleF
5955 3446 CircleF
5282 3523 CircleF
5402 3615 CircleF
6359 1803 CircleF
6479 1895 CircleF
3156 1758 CircleF
3276 1850 CircleF
1097 2213 CircleF
1217 2305 CircleF
1623 1387 CircleF
1743 1479 CircleF
2101 3941 CircleF
2221 4032 CircleF
2365 1341 CircleF
2485 1433 CircleF
5640 3745 CircleF
5760 3837 CircleF
1005 1925 CircleF
1125 2017 CircleF
4650 1241 CircleF
4769 1333 CircleF
6206 1611 CircleF
6326 1703 CircleF
5053 1769 CircleF
5173 1861 CircleF
2229 324 CircleF
2349 416 CircleF
2155 3264 CircleF
2274 3356 CircleF
1341 1271 CircleF
1460 1363 CircleF
4042 2573 CircleF
4161 2665 CircleF
1755 3809 CircleF
1874 3901 CircleF
4705 2959 CircleF
4824 3051 CircleF
1713 4680 CircleF
1833 4772 CircleF
5545 1951 CircleF
5665 2043 CircleF
992 2257 CircleF
1112 2349 CircleF
1024 2313 CircleF
1143 2405 CircleF
4755 4083 CircleF
4875 4175 CircleF
4283 3575 CircleF
4403 3667 CircleF
3731 2102 CircleF
3851 2194 CircleF
2703 1754 CircleF
2822 1846 CircleF
4538 2070 CircleF
4657 2162 CircleF
4568 3109 CircleF
4688 3201 CircleF
5769 3186 CircleF
5888 3278 CircleF
1783 580 CircleF
1902 672 CircleF
1869 656 CircleF
1988 748 CircleF
5940 479 CircleF
6059 570 CircleF
4233 3367 CircleF
4353 3459 CircleF
2719 1673 CircleF
2838 1765 CircleF
6057 3504 CircleF
6176 3596 CircleF
1834 4037 CircleF
1954 4128 CircleF
1220 421 CircleF
1339 513 CircleF
6666 1752 CircleF
6786 1844 CircleF
4618 1020 CircleF
4738 1112 CircleF
2378 1416 CircleF
2497 1508 CircleF
6000 1330 CircleF
6120 1422 CircleF
1799 1439 CircleF
1919 1531 CircleF
5903 4675 CircleF
6022 4766 CircleF
1143 1227 CircleF
1263 1319 CircleF
2956 2752 CircleF
3075 2844 CircleF
3418 4452 CircleF
3538 4544 CircleF
5290 2731 CircleF
5410 2823 CircleF
3866 2488 CircleF
3986 2580 CircleF
2564 4528 CircleF
2683 4620 CircleF
2971 2254 CircleF
3091 2346 CircleF
5928 3505 CircleF
6047 3597 CircleF
6220 4362 CircleF
6340 4454 CircleF
1224 1444 CircleF
1344 1536 CircleF
1781 3447 CircleF
1901 3539 CircleF
4768 2658 CircleF
4888 2750 CircleF
2278 1638 CircleF
2397 1730 CircleF
3150 2906 CircleF
3270 2998 CircleF
5652 4354 CircleF
5772 4446 CircleF
986 818 CircleF
1106 909 CircleF
6080 2398 CircleF
6200 2490 CircleF
2604 3795 CircleF
2723 3887 CircleF
5010 2426 CircleF
5130 2518 CircleF
3969 2873 CircleF
4089 2965 CircleF
1019 3706 CircleF
1138 3798 CircleF
4855 1376 CircleF
4974 1467 CircleF
4824 4409 CircleF
4944 4501 CircleF
5159 1815 CircleF
5278 1907 CircleF
4675 4213 CircleF
4795 4305 CircleF
4971 4536 CircleF
5091 4628 CircleF
1600 4443 CircleF
1720 4534 CircleF
2682 3676 CircleF
2802 3767 CircleF
6125 1469 CircleF
6245 1561 CircleF
2567 3619 CircleF
2687 3711 CircleF
4926 2607 CircleF
5046 2699 CircleF
2078 3221 CircleF
2197 3312 CircleF
3704 2522 CircleF
3824 2613 CircleF
2799 4256 CircleF
2919 4348 CircleF
5843 2963 CircleF
5963 3055 CircleF
5282 2028 CircleF
5402 2120 CircleF
3002 4344 CircleF
3122 4436 CircleF
3274 1465 CircleF
3394 1557 CircleF
5385 3009 CircleF
5505 3100 CircleF
3696 4263 CircleF
3815 4354 CircleF
3705 3002 CircleF
3824 3093 CircleF
5427 4091 CircleF
5547 4183 CircleF
3997 4097 CircleF
4117 4188 CircleF
5903 726 CircleF
6023 818 CircleF
1067 3588 CircleF
1186 3680 CircleF
1562 1579 CircleF
1681 1671 CircleF
3010 1461 CircleF
3130 1553 CircleF
6496 3935 CircleF
6616 4027 CircleF
1929 732 CircleF
2048 824 CircleF
3982 3122 CircleF
4101 3214 CircleF
2905 439 CircleF
3025 531 CircleF
6700 2981 CircleF
6820 3073 CircleF
4607 1563 CircleF
4726 1655 CircleF
1628 3401 CircleF
1748 3493 CircleF
3721 3810 CircleF
3841 3902 CircleF
6463 1503 CircleF
6582 1594 CircleF
2377 3827 CircleF
2496 3919 CircleF
5127 1827 CircleF
5247 1919 CircleF
3934 4521 CircleF
4054 4613 CircleF
1219 3405 CircleF
1339 3496 CircleF
1569 4616 CircleF
1688 4708 CircleF
4886 3531 CircleF
5006 3623 CircleF
5070 3878 CircleF
5190 3969 CircleF
5257 4551 CircleF
5377 4642 CircleF
3918 3838 CircleF
4037 3930 CircleF
3380 1292 CircleF
3499 1383 CircleF
5864 4617 CircleF
5984 4708 CircleF
2800 2945 CircleF
2919 3036 CircleF
2939 921 CircleF
3059 1012 CircleF
5010 2591 CircleF
5130 2683 CircleF
1045 1198 CircleF
1165 1290 CircleF
1493 4075 CircleF
1613 4167 CircleF
6550 904 CircleF
6669 996 CircleF
3739 4593 CircleF
3858 4685 CircleF
5021 3598 CircleF
5140 3690 CircleF
5284 1568 CircleF
5404 1659 CircleF
1313 2874 CircleF
1433 2966 CircleF
4319 4259 CircleF
4438 4351 CircleF
6009 3440 CircleF
6128 3532 CircleF
3500 524 CircleF
3620 616 CircleF
3748 3572 CircleF
3867 3664 CircleF
3134 1414 CircleF
3254 1506 CircleF
2398 3897 CircleF
2517 3989 CircleF
1709 1194 CircleF
1829 1286 CircleF
6485 3700 CircleF
6604 3792 CircleF
3793 509 CircleF
3912 601 CircleF
2758 3437 CircleF
2878 3529 CircleF
4864 1812 CircleF
4984 1904 CircleF
5363 541 CircleF
5482 633 CircleF
1991 2714 CircleF
2111 2806 CircleF
1523 4174 CircleF
1643 4266 CircleF
5981 461 CircleF
6101 553 CircleF
1168 1187 CircleF
1288 1279 CircleF
4932 796 CircleF
5052 888 CircleF
4788 1955 CircleF
4907 2046 CircleF
5723 2300 CircleF
5843 2392 CircleF
4429 2440 CircleF
4549 2532 CircleF
6028 3910 CircleF
6147 4002 CircleF
5833 1091 CircleF
5953 1183 CircleF
3394 2844 CircleF
3513 2935 CircleF
1790 2641 CircleF
1909 2732 CircleF
5622 842 CircleF
5741 934 CircleF
3629 2284 CircleF
3748 2376 CircleF
3589 1112 CircleF
3709 1204 CircleF
2833 2266 CircleF
2953 2358 CircleF
5221 3116 CircleF
5340 3208 CircleF
3210 317 CircleF
3330 409 CircleF
4908 1519 CircleF
5027 1611 CircleF
4174 1791 CircleF
4294 1882 CircleF
4495 337 CircleF
4614 429 CircleF
2306 1838 CircleF
2426 1930 CircleF
3137 4595 CircleF
3256 4687 CircleF
5398 4540 CircleF
5518 4631 CircleF
3751 4445 CircleF
3871 4537 CircleF
2803 2690 CircleF
2923 2782 CircleF
5700 1615 CircleF
5820 1706 CircleF
1932 2579 CircleF
2051 2671 CircleF
1037 1073 CircleF
1157 1165 CircleF
5277 600 CircleF
5397 692 CircleF
5958 3288 CircleF
6078 3380 CircleF
3157 2119 CircleF
3277 2211 CircleF
4588 2398 CircleF
4707 2490 CircleF
4737 4678 CircleF
4856 4770 CircleF
1201 1579 CircleF
1320 1671 CircleF
6628 4582 CircleF
6748 4673 CircleF
5881 949 CircleF
6001 1041 CircleF
3165 554 CircleF
3284 645 CircleF
4526 2960 CircleF
4646 3052 CircleF
6152 4080 CircleF
6272 4172 CircleF
1782 3232 CircleF
1901 3324 CircleF
4931 3473 CircleF
5050 3565 CircleF
6705 4001 CircleF
6825 4093 CircleF
968 518 CircleF
1087 609 CircleF
2025 4312 CircleF
2144 4404 CircleF
4503 753 CircleF
4622 845 CircleF
6647 1585 CircleF
6766 1677 CircleF
2604 503 CircleF
2723 595 CircleF
4474 1973 CircleF
4594 2064 CircleF
5096 399 CircleF
5216 491 CircleF
1616 801 CircleF
1736 892 CircleF
4114 591 CircleF
4234 683 CircleF
1783 2808 CircleF
1902 2900 CircleF
5037 3169 CircleF
5157 3261 CircleF
6207 2977 CircleF
6327 3069 CircleF
1073 2485 CircleF
1193 2577 CircleF
6092 3753 CircleF
6212 3845 CircleF
3490 3210 CircleF
3609 3301 CircleF
2874 1284 CircleF
2994 1376 CircleF
2086 1747 CircleF
2206 1839 CircleF
3533 2737 CircleF
3652 2828 CircleF
6092 2565 CircleF
6211 2657 CircleF
5866 1809 CircleF
5985 1901 CircleF
2535 2905 CircleF
2655 2997 CircleF
5330 2779 CircleF
5450 2871 CircleF
2673 1943 CircleF
2792 2034 CircleF
2530 1503 CircleF
2649 1594 CircleF
1263 3914 CircleF
1383 4006 CircleF
5831 3961 CircleF
5950 4053 CircleF
4847 410 CircleF
4967 501 CircleF
3645 971 CircleF
3765 1063 CircleF
5888 424 CircleF
6007 516 CircleF
1169 3267 CircleF
1288 3359 CircleF
5085 1416 CircleF
5204 1507 CircleF
2010 796 CircleF
2130 887 CircleF
1637 620 CircleF
1757 711 CircleF
6215 925 CircleF
6335 1016 CircleF
2232 2498 CircleF
2352 2590 CircleF
5755 765 CircleF
5875 857 CircleF
5059 4502 CircleF
5178 4594 CircleF
2012 404 CircleF
2132 496 CircleF
2193 2528 CircleF
2313 2620 CircleF
6610 3111 CircleF
6729 3203 CircleF
3476 988 CircleF
3595 1080 CircleF
2793 3133 CircleF
2912 3225 CircleF
3567 4364 CircleF
3687 4456 CircleF
5616 3194 CircleF
5735 3286 CircleF
3407 4346 CircleF
3526 4438 CircleF
6420 3624 CircleF
6539 3716 CircleF
5870 4033 CircleF
5989 4125 CircleF
1308 2711 CircleF
1428 2802 CircleF
5688 1241 CircleF
5807 1333 CircleF
5002 4578 CircleF
5122 4670 CircleF
1827 3492 CircleF
1947 3584 CircleF
6595 3916 CircleF
6714 4008 CircleF
1003 2236 CircleF
1123 2328 CircleF
6434 2529 CircleF
6554 2621 CircleF
4567 3176 CircleF
4687 3268 CircleF
1134 4632 CircleF
1254 4724 CircleF
5105 1571 CircleF
5224 1663 CircleF
2013 2722 CircleF
2132 2814 CircleF
2631 3262 CircleF
2751 3354 CircleF
3001 2639 CircleF
3121 2731 CircleF
1290 2329 CircleF
1410 2421 CircleF
4809 312 CircleF
4929 404 CircleF
6399 2480 CircleF
6519 2572 CircleF
4131 4117 CircleF
4250 4209 CircleF
4421 2209 CircleF
4541 2300 CircleF
5235 3167 CircleF
5354 3259 CircleF
1866 2997 CircleF
1986 3088 CircleF
5125 3691 CircleF
5244 3783 CircleF
4268 1472 CircleF
4388 1564 CircleF
1968 3356 CircleF
2088 3447 CircleF
5043 2860 CircleF
5162 2952 CircleF
1119 940 CircleF
1239 1032 CircleF
4480 1086 CircleF
4600 1178 CircleF
1748 3923 CircleF
1868 4015 CircleF
1813 4192 CircleF
1933 4284 CircleF
5059 430 CircleF
5178 522 CircleF
6665 382 CircleF
6785 474 CircleF
2173 602 CircleF
2293 694 CircleF
5009 325 CircleF
5128 416 CircleF
3032 1516 CircleF
3152 1608 CircleF
3277 521 CircleF
3396 613 CircleF
2223 2800 CircleF
2343 2891 CircleF
6248 2110 CircleF
6367 2202 CircleF
1944 3969 CircleF
2064 4061 CircleF
5511 1715 CircleF
5631 1807 CircleF
4952 3145 CircleF
5072 3237 CircleF
5926 2847 CircleF
6046 2939 CircleF
3986 3156 CircleF
4105 3248 CircleF
3863 535 CircleF
3983 627 CircleF
4125 608 CircleF
4244 700 CircleF
6451 4529 CircleF
6570 4621 CircleF
1516 332 CircleF
1636 424 CircleF
3276 3358 CircleF
3396 3450 CircleF
5102 1026 CircleF
5221 1118 CircleF
5858 4040 CircleF
5978 4131 CircleF
4086 302 CircleF
4205 394 CircleF
4045 1420 CircleF
4164 1511 CircleF
3351 3542 CircleF
3471 3634 CircleF
1004 1549 CircleF
1124 1641 CircleF
1995 3591 CircleF
2115 3682 CircleF
3613 4112 CircleF
3733 4204 CircleF
3575 907 CircleF
3695 999 CircleF
2088 3121 CircleF
2208 3213 CircleF
3175 1865 CircleF
3295 1957 CircleF
5317 4582 CircleF
5437 4674 CircleF
6496 3161 CircleF
6616 3253 CircleF
4961 1005 CircleF
5081 1097 CircleF
2191 2065 CircleF
2310 2157 CircleF
4502 962 CircleF
4622 1054 CircleF
5647 3583 CircleF
5766 3675 CircleF
1053 386 CircleF
1173 478 CircleF
2355 4565 CircleF
2475 4657 CircleF
2513 415 CircleF
2633 507 CircleF
3779 698 CircleF
3898 789 CircleF
4579 2377 CircleF
4699 2468 CircleF
6255 557 CircleF
6375 649 CircleF
1038 1774 CircleF
1157 1866 CircleF
5942 759 CircleF
6061 851 CircleF
5450 4049 CircleF
5570 4141 CircleF
5892 3736 CircleF
6011 3828 CircleF
6237 3331 CircleF
6357 3423 CircleF
6597 4623 CircleF
6717 4715 CircleF
2214 3115 CircleF
2333 3207 CircleF
3402 2814 CircleF
3522 2906 CircleF
5908 4479 CircleF
6028 4571 CircleF
2863 1389 CircleF
2982 1481 CircleF
4518 4384 CircleF
4638 4476 CircleF
2152 2587 CircleF
2271 2679 CircleF
1989 558 CircleF
2109 649 CircleF
2711 4182 CircleF
2830 4274 CircleF
2801 408 CircleF
2920 500 CircleF
2709 1878 CircleF
2828 1969 CircleF
3665 4485 CircleF
3785 4577 CircleF
1891 777 CircleF
2011 869 CircleF
6212 2110 CircleF
6331 2202 CircleF
4124 4099 CircleF
4244 4191 CircleF
6486 4256 CircleF
6606 4348 CircleF
5363 2833 CircleF
5482 2925 CircleF
1226 4637 CircleF
1346 4729 CircleF
5984 2658 CircleF
6103 2750 CircleF
4261 2331 CircleF
4380 2423 CircleF
3895 1171 CircleF
4014 1263 CircleF
3450 1382 CircleF
3570 1474 CircleF
2250 2301 CircleF
2369 2393 CircleF
2568 1523 CircleF
2688 1615 CircleF
3162 1163 CircleF
3281 1255 CircleF
4973 1416 CircleF
5093 1508 CircleF
6394 4013 CircleF
6514 4104 CircleF
5818 2578 CircleF
5937 2669 CircleF
6479 1148 CircleF
6599 1240 CircleF
4299 1501 CircleF
4418 1593 CircleF
1175 1612 CircleF
1294 1704 CircleF
4005 3983 CircleF
4125 4074 CircleF
3171 1916 CircleF
3291 2008 CircleF
3321 2876 CircleF
3440 2968 CircleF
3769 4055 CircleF
3888 4147 CircleF
5195 373 CircleF
5315 465 CircleF
5449 3447 CircleF
5568 3539 CircleF
6292 1126 CircleF
6412 1218 CircleF
4678 980 CircleF
4798 1071 CircleF
1219 2045 CircleF
1339 2137 CircleF
3784 3609 CircleF
3903 3700 CircleF
2796 2285 CircleF
2915 2377 CircleF
4909 1057 CircleF
5029 1149 CircleF
5925 574 CircleF
6044 666 CircleF
1632 302 CircleF
1752 393 CircleF
3657 644 CircleF
3777 736 CircleF
6230 1893 CircleF
6349 1985 CircleF
6413 4169 CircleF
6533 4261 CircleF
5893 3586 CircleF
6013 3678 CircleF
4313 4577 CircleF
4432 4668 CircleF
3108 4608 CircleF
3228 4700 CircleF
3802 2147 CircleF
3921 2239 CircleF
5900 2967 CircleF
6019 3059 CircleF
1171 439 CircleF
1290 530 CircleF
4809 1050 CircleF
4929 1142 CircleF
4519 2959 CircleF
4638 3050 CircleF
5944 423 CircleF
6064 515 CircleF
4446 2010 CircleF
4565 2102 CircleF
6178 501 CircleF
6297 593 CircleF
4956 462 CircleF
5076 554 CircleF
3289 1629 CircleF
3408 1720 CircleF
5735 2222 CircleF
5854 2314 CircleF
5294 4181 CircleF
5414 4273 CircleF
2805 995 CircleF
2925 1087 CircleF
2771 1392 CircleF
2890 1484 CircleF
5978 1472 CircleF
6098 1564 CircleF
4754 2101 CircleF
4874 2193 CircleF
3639 1924 CircleF
3759 2015 CircleF
3619 1815 CircleF
3738 1907 CircleF
4130 2102 CircleF
4250 2194 CircleF
2637 745 CircleF
2756 837 CircleF
4628 3141 CircleF
4748 3233 CircleF
6664 4647 CircleF
6783 4739 CircleF
5145 2074 CircleF
5265 2166 CircleF
2435 298 CircleF
2554 390 CircleF
5517 556 CircleF
5637 648 CircleF
1989 1420 CircleF
2109 1512 CircleF
1160 2796 CircleF
1280 2888 CircleF
3187 312 CircleF
3307 404 CircleF
4692 2661 CircleF
4812 2753 CircleF
5929 4613 CircleF
6048 4705 CircleF
5775 1253 CircleF
5894 1345 CircleF
6556 1495 CircleF
6676 1587 CircleF
4064 2752 CircleF
4184 2844 CircleF
1786 1201 CircleF
1906 1292 CircleF
4500 2789 CircleF
4619 2881 CircleF
4421 2649 CircleF
4540 2741 CircleF
4155 3898 CircleF
4275 3990 CircleF
4898 491 CircleF
5018 583 CircleF
3909 4151 CircleF
4029 4243 CircleF
3992 2837 CircleF
4111 2929 CircleF
1913 4143 CircleF
2033 4235 CircleF
3402 3478 CircleF
3522 3569 CircleF
3302 1730 CircleF
3422 1822 CircleF
5205 1865 CircleF
5325 1956 CircleF
6038 4439 CircleF
6157 4531 CircleF
4551 668 CircleF
4671 760 CircleF
2601 3211 CircleF
2721 3303 CircleF
3538 551 CircleF
3657 643 CircleF
1170 2795 CircleF
1289 2886 CircleF
2649 1003 CircleF
2768 1095 CircleF
6406 4407 CircleF
6526 4499 CircleF
3486 1482 CircleF
3606 1573 CircleF
1180 3962 CircleF
1299 4053 CircleF
4555 911 CircleF
4674 1003 CircleF
5252 2452 CircleF
5372 2544 CircleF
4820 672 CircleF
4939 764 CircleF
2827 1679 CircleF
2947 1770 CircleF
5041 1179 CircleF
5160 1270 CircleF
1040 3886 CircleF
1159 3977 CircleF
4459 3696 CircleF
4578 3788 CircleF
3381 313 CircleF
3500 405 CircleF
2062 690 CircleF
2182 782 CircleF
2021 1759 CircleF
2140 1851 CircleF
6173 3065 CircleF
6293 3157 CircleF
5190 3734 CircleF
5309 3826 CircleF
2443 1473 CircleF
2562 1565 CircleF
6323 327 CircleF
6443 419 CircleF
2936 1818 CircleF
3056 1909 CircleF
4219 2274 CircleF
4338 2366 CircleF
1984 888 CircleF
2104 980 CircleF
3287 4418 CircleF
3407 4509 CircleF
1165 4017 CircleF
1285 4109 CircleF
1068 3985 CircleF
1187 4077 CircleF
2389 3166 CircleF
2509 3258 CircleF
6576 399 CircleF
6696 491 CircleF
1460 834 CircleF
1579 926 CircleF
4249 4456 CircleF
4369 4548 CircleF
5436 657 CircleF
5556 749 CircleF
5950 1457 CircleF
6069 1549 CircleF
5922 2466 CircleF
6041 2558 CircleF
3570 2503 CircleF
3689 2595 CircleF
4045 393 CircleF
4165 485 CircleF
2876 4096 CircleF
2995 4188 CircleF
4525 3817 CircleF
4645 3909 CircleF
6558 4489 CircleF
6677 4581 CircleF
2835 1184 CircleF
2954 1275 CircleF
5349 616 CircleF
5469 708 CircleF
2219 1647 CircleF
2338 1739 CircleF
3387 2317 CircleF
3506 2409 CircleF
5356 3787 CircleF
5475 3878 CircleF
1750 604 CircleF
1870 696 CircleF
993 1702 CircleF
1112 1794 CircleF
4549 2225 CircleF
4669 2317 CircleF
5973 1060 CircleF
6093 1152 CircleF
1333 2493 CircleF
1452 2585 CircleF
3135 2567 CircleF
3254 2659 CircleF
1347 1658 CircleF
1466 1749 CircleF
6506 1567 CircleF
6625 1659 CircleF
3851 383 CircleF
3970 475 CircleF
4613 4414 CircleF
4733 4506 CircleF
5817 2018 CircleF
5937 2109 CircleF
5737 1377 CircleF
5857 1469 CircleF
6109 2927 CircleF
6228 3019 CircleF
6679 1312 CircleF
6798 1404 CircleF
4431 2868 CircleF
4550 2960 CircleF
6367 4139 CircleF
6486 4231 CircleF
2757 3988 CircleF
2877 4080 CircleF
2531 3509 CircleF
2650 3601 CircleF
4640 344 CircleF
4759 436 CircleF
3960 3421 CircleF
4080 3512 CircleF
1789 1818 CircleF
1908 1910 CircleF
3482 2717 CircleF
3601 2809 CircleF
3440 659 CircleF
3560 750 CircleF
4560 4623 CircleF
4680 4715 CircleF
2686 3161 CircleF
2806 3253 CircleF
6133 3449 CircleF
6252 3541 CircleF
1582 357 CircleF
1701 449 CircleF
6281 1399 CircleF
6401 1491 CircleF
974 3704 CircleF
1093 3796 CircleF
1749 1510 CircleF
1869 1602 CircleF
1039 1037 CircleF
1158 1129 CircleF
3527 3676 CircleF
3646 3767 CircleF
1046 1812 CircleF
1165 1903 CircleF
3077 2521 CircleF
3197 2613 CircleF
3735 3245 CircleF
3854 3336 CircleF
2970 544 CircleF
3089 636 CircleF
2288 1486 CircleF
2407 1578 CircleF
5783 4612 CircleF
5902 4704 CircleF
2647 4662 CircleF
2767 4754 CircleF
3581 4684 CircleF
3701 4776 CircleF
1366 1811 CircleF
1486 1902 CircleF
4688 820 CircleF
4807 911 CircleF
1012 2608 CircleF
1132 2700 CircleF
3591 4489 CircleF
3711 4581 CircleF
6133 1982 CircleF
6253 2074 CircleF
5488 3395 CircleF
5608 3486 CircleF
5918 1197 CircleF
6038 1289 CircleF
3992 1722 CircleF
4112 1814 CircleF
6707 689 CircleF
6827 781 CircleF
4033 2474 CircleF
4153 2566 CircleF
4713 1250 CircleF
4833 1342 CircleF
6180 3494 CircleF
6299 3586 CircleF
1188 4681 CircleF
1307 4773 CircleF
2135 2879 CircleF
2255 2971 CircleF
5631 4643 CircleF
5750 4735 CircleF
3864 4192 CircleF
3983 4284 CircleF
5230 1941 CircleF
5350 2033 CircleF
4694 2960 CircleF
4814 3052 CircleF
5837 1507 CircleF
5957 1598 CircleF
3076 2900 CircleF
3196 2992 CircleF
4370 4126 CircleF
4490 4217 CircleF
6690 3391 CircleF
6810 3482 CircleF
4845 2936 CircleF
4965 3027 CircleF
1482 1780 CircleF
1602 1872 CircleF
2630 1322 CircleF
2750 1413 CircleF
1287 2908 CircleF
1407 2999 CircleF
1386 2198 CircleF
1506 2290 CircleF
1917 4332 CircleF
2037 4424 CircleF
1180 4659 CircleF
1300 4751 CircleF
5091 1930 CircleF
5211 2022 CircleF
2411 4341 CircleF
2531 4433 CircleF
3668 3799 CircleF
3787 3891 CircleF
3284 1509 CircleF
3404 1601 CircleF
3832 1271 CircleF
3951 1363 CircleF
5370 4251 CircleF
5490 4343 CircleF
4548 639 CircleF
4667 731 CircleF
6621 1887 CircleF
6740 1978 CircleF
3126 1710 CircleF
3246 1802 CircleF
4209 1723 CircleF
4329 1815 CircleF
2227 4619 CircleF
2347 4711 CircleF
4747 2071 CircleF
4867 2163 CircleF
5012 1722 CircleF
5131 1814 CircleF
3923 330 CircleF
4043 422 CircleF
2278 2641 CircleF
2397 2733 CircleF
3232 2523 CircleF
3351 2615 CircleF
1101 1476 CircleF
1221 1568 CircleF
5751 2161 CircleF
5870 2252 CircleF
3348 2710 CircleF
3468 2801 CircleF
2112 4255 CircleF
2231 4347 CircleF
1091 3205 CircleF
1211 3297 CircleF
2843 2031 CircleF
2962 2123 CircleF
2204 558 CircleF
2324 649 CircleF
3362 3987 CircleF
3482 4079 CircleF
3118 3582 CircleF
3237 3674 CircleF
1496 1891 CircleF
1616 1983 CircleF
5859 4189 CircleF
5979 4281 CircleF
3007 3953 CircleF
3127 4045 CircleF
4475 2703 CircleF
4595 2795 CircleF
4999 1757 CircleF
5118 1849 CircleF
3391 1177 CircleF
3511 1269 CircleF
5488 1344 CircleF
5608 1436 CircleF
3775 2639 CircleF
3895 2731 CircleF
3883 1063 CircleF
4002 1155 CircleF
4871 2249 CircleF
4990 2341 CircleF
1889 1620 CircleF
2009 1712 CircleF
3167 1799 CircleF
3287 1891 CircleF
2655 1285 CircleF
2775 1377 CircleF
3737 4532 CircleF
3857 4623 CircleF
2477 3247 CircleF
2596 3339 CircleF
4214 1581 CircleF
4334 1673 CircleF
3078 2841 CircleF
3197 2932 CircleF
5802 3624 CircleF
5922 3716 CircleF
2455 672 CircleF
2574 764 CircleF
5385 3380 CircleF
5504 3472 CircleF
2765 2972 CircleF
2885 3064 CircleF
3211 2559 CircleF
3330 2650 CircleF
1208 2566 CircleF
1327 2658 CircleF
3359 669 CircleF
3479 761 CircleF
3299 1956 CircleF
3418 2048 CircleF
5990 1197 CircleF
6110 1289 CircleF
5073 1263 CircleF
5193 1355 CircleF
6657 3266 CircleF
6777 3358 CircleF
4639 1441 CircleF
4758 1532 CircleF
5898 4569 CircleF
6018 4661 CircleF
5184 4190 CircleF
5303 4281 CircleF
5242 2640 CircleF
5362 2732 CircleF
1007 4276 CircleF
1127 4368 CircleF
4526 494 CircleF
4646 586 CircleF
2043 4365 CircleF
2162 4457 CircleF
3577 4112 CircleF
3696 4204 CircleF
5737 3956 CircleF
5857 4048 CircleF
5060 3362 CircleF
5180 3454 CircleF
2964 1051 CircleF
3084 1143 CircleF
5237 364 CircleF
5357 456 CircleF
2676 2525 CircleF
2795 2617 CircleF
3438 2593 CircleF
3557 2684 CircleF
6684 1821 CircleF
6803 1913 CircleF
3994 1312 CircleF
4114 1404 CircleF
1802 1204 CircleF
1921 1296 CircleF
5107 2794 CircleF
5227 2885 CircleF
1532 916 CircleF
1651 1007 CircleF
1271 3328 CircleF
1390 3420 CircleF
3847 1124 CircleF
3967 1216 CircleF
5045 3298 CircleF
5165 3389 CircleF
1614 981 CircleF
1733 1073 CircleF
5132 4182 CircleF
5252 4274 CircleF
6413 1775 CircleF
6533 1867 CircleF
5721 929 CircleF
5840 1021 CircleF
4141 2041 CircleF
4261 2133 CircleF
2757 523 CircleF
2876 615 CircleF
1470 1928 CircleF
1589 2020 CircleF
2882 1251 CircleF
3002 1343 CircleF
2555 1379 CircleF
2675 1471 CircleF
1312 3529 CircleF
1432 3621 CircleF
1721 451 CircleF
1841 542 CircleF
5778 2727 CircleF
5898 2819 CircleF
6062 4255 CircleF
6181 4347 CircleF
3994 2564 CircleF
4114 2656 CircleF
5937 4383 CircleF
6057 4475 CircleF
1167 362 CircleF
1286 454 CircleF
6259 1271 CircleF
6379 1363 CircleF
1975 3126 CircleF
2095 3218 CircleF
6204 1216 CircleF
6323 1308 CircleF
4117 2390 CircleF
4236 2481 CircleF
5012 915 CircleF
5132 1007 CircleF
6325 616 CircleF
6444 708 CircleF
1351 1070 CircleF
1471 1162 CircleF
2703 1364 CircleF
2822 1456 CircleF
2227 3308 CircleF
2347 3400 CircleF
2872 802 CircleF
2992 894 CircleF
4190 4569 CircleF
4310 4661 CircleF
3016 2020 CircleF
3136 2112 CircleF
4581 3326 CircleF
4700 3418 CircleF
3921 388 CircleF
4041 480 CircleF
1592 1842 CircleF
1711 1934 CircleF
3894 4209 CircleF
4014 4301 CircleF
5100 1673 CircleF
5220 1765 CircleF
2669 3183 CircleF
2788 3275 CircleF
5082 498 CircleF
5201 590 CircleF
4757 1101 CircleF
4877 1193 CircleF
2238 4024 CircleF
2357 4115 CircleF
6257 4234 CircleF
6376 4326 CircleF
2663 3257 CircleF
2783 3349 CircleF
5426 2518 CircleF
5545 2610 CircleF
3372 1787 CircleF
3492 1879 CircleF
3462 4019 CircleF
3582 4111 CircleF
3898 476 CircleF
4017 568 CircleF
4970 3477 CircleF
5089 3569 CircleF
2896 4125 CircleF
3016 4217 CircleF
2441 1850 CircleF
2561 1942 CircleF
% End plot #2
1.000 UP
1.000 UL
LT0
0.50 0.50 0.50 C stroke
grestore
end
showpage
%%Trailer
%%DocumentFonts: Helvetica
%%Pages: 1
