%!PS-Adobe-2.0
%%Title: out.ps
%%Creator: gnuplot 4.6 patchlevel 6
%%CreationDate: Thu May 28 19:54:21 2015
%%DocumentFonts: (atend)
%%BoundingBox: 50 50 554 770
%%Orientation: Landscape
%%Pages: (atend)
%%EndComments
%%BeginProlog
/gnudict 256 dict def
gnudict begin
%
% The following true/false flags may be edited by hand if desired.
% The unit line width and grayscale image gamma correction may also be changed.
%
/Color false def
/Blacktext false def
/Solid false def
/Dashlength 1 def
/Landscape true def
/Level1 false def
/Rounded false def
/ClipToBoundingBox false def
/SuppressPDFMark false def
/TransparentPatterns false def
/gnulinewidth 5.000 def
/userlinewidth gnulinewidth def
/Gamma 1.0 def
/BackgroundColor {-1.000 -1.000 -1.000} def
%
/vshift -46 def
/dl1 {
  10.0 Dashlength mul mul
  Rounded { currentlinewidth 0.75 mul sub dup 0 le { pop 0.01 } if } if
} def
/dl2 {
  10.0 Dashlength mul mul
  Rounded { currentlinewidth 0.75 mul add } if
} def
/hpt_ 31.5 def
/vpt_ 31.5 def
/hpt hpt_ def
/vpt vpt_ def
/doclip {
  ClipToBoundingBox {
    newpath 50 50 moveto 554 50 lineto 554 770 lineto 50 770 lineto closepath
    clip
  } if
} def
%
% Gnuplot Prolog Version 4.6 (September 2012)
%
%/SuppressPDFMark true def
%
/M {moveto} bind def
/L {lineto} bind def
/R {rmoveto} bind def
/V {rlineto} bind def
/N {newpath moveto} bind def
/Z {closepath} bind def
/C {setrgbcolor} bind def
/f {rlineto fill} bind def
/g {setgray} bind def
/Gshow {show} def   % May be redefined later in the file to support UTF-8
/vpt2 vpt 2 mul def
/hpt2 hpt 2 mul def
/Lshow {currentpoint stroke M 0 vshift R 
	Blacktext {gsave 0 setgray show grestore} {show} ifelse} def
/Rshow {currentpoint stroke M dup stringwidth pop neg vshift R
	Blacktext {gsave 0 setgray show grestore} {show} ifelse} def
/Cshow {currentpoint stroke M dup stringwidth pop -2 div vshift R 
	Blacktext {gsave 0 setgray show grestore} {show} ifelse} def
/UP {dup vpt_ mul /vpt exch def hpt_ mul /hpt exch def
  /hpt2 hpt 2 mul def /vpt2 vpt 2 mul def} def
/DL {Color {setrgbcolor Solid {pop []} if 0 setdash}
 {pop pop pop 0 setgray Solid {pop []} if 0 setdash} ifelse} def
/BL {stroke userlinewidth 2 mul setlinewidth
	Rounded {1 setlinejoin 1 setlinecap} if} def
/AL {stroke userlinewidth 2 div setlinewidth
	Rounded {1 setlinejoin 1 setlinecap} if} def
/UL {dup gnulinewidth mul /userlinewidth exch def
	dup 1 lt {pop 1} if 10 mul /udl exch def} def
/PL {stroke userlinewidth setlinewidth
	Rounded {1 setlinejoin 1 setlinecap} if} def
3.8 setmiterlimit
% Default Line colors
/LCw {1 1 1} def
/LCb {0 0 0} def
/LCa {0 0 0} def
/LC0 {1 0 0} def
/LC1 {0 1 0} def
/LC2 {0 0 1} def
/LC3 {1 0 1} def
/LC4 {0 1 1} def
/LC5 {1 1 0} def
/LC6 {0 0 0} def
/LC7 {1 0.3 0} def
/LC8 {0.5 0.5 0.5} def
% Default Line Types
/LTw {PL [] 1 setgray} def
/LTb {BL [] LCb DL} def
/LTa {AL [1 udl mul 2 udl mul] 0 setdash LCa setrgbcolor} def
/LT0 {PL [] LC0 DL} def
/LT1 {PL [4 dl1 2 dl2] LC1 DL} def
/LT2 {PL [2 dl1 3 dl2] LC2 DL} def
/LT3 {PL [1 dl1 1.5 dl2] LC3 DL} def
/LT4 {PL [6 dl1 2 dl2 1 dl1 2 dl2] LC4 DL} def
/LT5 {PL [3 dl1 3 dl2 1 dl1 3 dl2] LC5 DL} def
/LT6 {PL [2 dl1 2 dl2 2 dl1 6 dl2] LC6 DL} def
/LT7 {PL [1 dl1 2 dl2 6 dl1 2 dl2 1 dl1 2 dl2] LC7 DL} def
/LT8 {PL [2 dl1 2 dl2 2 dl1 2 dl2 2 dl1 2 dl2 2 dl1 4 dl2] LC8 DL} def
/Pnt {stroke [] 0 setdash gsave 1 setlinecap M 0 0 V stroke grestore} def
/Dia {stroke [] 0 setdash 2 copy vpt add M
  hpt neg vpt neg V hpt vpt neg V
  hpt vpt V hpt neg vpt V closepath stroke
  Pnt} def
/Pls {stroke [] 0 setdash vpt sub M 0 vpt2 V
  currentpoint stroke M
  hpt neg vpt neg R hpt2 0 V stroke
 } def
/Box {stroke [] 0 setdash 2 copy exch hpt sub exch vpt add M
  0 vpt2 neg V hpt2 0 V 0 vpt2 V
  hpt2 neg 0 V closepath stroke
  Pnt} def
/Crs {stroke [] 0 setdash exch hpt sub exch vpt add M
  hpt2 vpt2 neg V currentpoint stroke M
  hpt2 neg 0 R hpt2 vpt2 V stroke} def
/TriU {stroke [] 0 setdash 2 copy vpt 1.12 mul add M
  hpt neg vpt -1.62 mul V
  hpt 2 mul 0 V
  hpt neg vpt 1.62 mul V closepath stroke
  Pnt} def
/Star {2 copy Pls Crs} def
/BoxF {stroke [] 0 setdash exch hpt sub exch vpt add M
  0 vpt2 neg V hpt2 0 V 0 vpt2 V
  hpt2 neg 0 V closepath fill} def
/TriUF {stroke [] 0 setdash vpt 1.12 mul add M
  hpt neg vpt -1.62 mul V
  hpt 2 mul 0 V
  hpt neg vpt 1.62 mul V closepath fill} def
/TriD {stroke [] 0 setdash 2 copy vpt 1.12 mul sub M
  hpt neg vpt 1.62 mul V
  hpt 2 mul 0 V
  hpt neg vpt -1.62 mul V closepath stroke
  Pnt} def
/TriDF {stroke [] 0 setdash vpt 1.12 mul sub M
  hpt neg vpt 1.62 mul V
  hpt 2 mul 0 V
  hpt neg vpt -1.62 mul V closepath fill} def
/DiaF {stroke [] 0 setdash vpt add M
  hpt neg vpt neg V hpt vpt neg V
  hpt vpt V hpt neg vpt V closepath fill} def
/Pent {stroke [] 0 setdash 2 copy gsave
  translate 0 hpt M 4 {72 rotate 0 hpt L} repeat
  closepath stroke grestore Pnt} def
/PentF {stroke [] 0 setdash gsave
  translate 0 hpt M 4 {72 rotate 0 hpt L} repeat
  closepath fill grestore} def
/Circle {stroke [] 0 setdash 2 copy
  hpt 0 360 arc stroke Pnt} def
/CircleF {stroke [] 0 setdash hpt 0 360 arc fill} def
/C0 {BL [] 0 setdash 2 copy moveto vpt 90 450 arc} bind def
/C1 {BL [] 0 setdash 2 copy moveto
	2 copy vpt 0 90 arc closepath fill
	vpt 0 360 arc closepath} bind def
/C2 {BL [] 0 setdash 2 copy moveto
	2 copy vpt 90 180 arc closepath fill
	vpt 0 360 arc closepath} bind def
/C3 {BL [] 0 setdash 2 copy moveto
	2 copy vpt 0 180 arc closepath fill
	vpt 0 360 arc closepath} bind def
/C4 {BL [] 0 setdash 2 copy moveto
	2 copy vpt 180 270 arc closepath fill
	vpt 0 360 arc closepath} bind def
/C5 {BL [] 0 setdash 2 copy moveto
	2 copy vpt 0 90 arc
	2 copy moveto
	2 copy vpt 180 270 arc closepath fill
	vpt 0 360 arc} bind def
/C6 {BL [] 0 setdash 2 copy moveto
	2 copy vpt 90 270 arc closepath fill
	vpt 0 360 arc closepath} bind def
/C7 {BL [] 0 setdash 2 copy moveto
	2 copy vpt 0 270 arc closepath fill
	vpt 0 360 arc closepath} bind def
/C8 {BL [] 0 setdash 2 copy moveto
	2 copy vpt 270 360 arc closepath fill
	vpt 0 360 arc closepath} bind def
/C9 {BL [] 0 setdash 2 copy moveto
	2 copy vpt 270 450 arc closepath fill
	vpt 0 360 arc closepath} bind def
/C10 {BL [] 0 setdash 2 copy 2 copy moveto vpt 270 360 arc closepath fill
	2 copy moveto
	2 copy vpt 90 180 arc closepath fill
	vpt 0 360 arc closepath} bind def
/C11 {BL [] 0 setdash 2 copy moveto
	2 copy vpt 0 180 arc closepath fill
	2 copy moveto
	2 copy vpt 270 360 arc closepath fill
	vpt 0 360 arc closepath} bind def
/C12 {BL [] 0 setdash 2 copy moveto
	2 copy vpt 180 360 arc closepath fill
	vpt 0 360 arc closepath} bind def
/C13 {BL [] 0 setdash 2 copy moveto
	2 copy vpt 0 90 arc closepath fill
	2 copy moveto
	2 copy vpt 180 360 arc closepath fill
	vpt 0 360 arc closepath} bind def
/C14 {BL [] 0 setdash 2 copy moveto
	2 copy vpt 90 360 arc closepath fill
	vpt 0 360 arc} bind def
/C15 {BL [] 0 setdash 2 copy vpt 0 360 arc closepath fill
	vpt 0 360 arc closepath} bind def
/Rec {newpath 4 2 roll moveto 1 index 0 rlineto 0 exch rlineto
	neg 0 rlineto closepath} bind def
/Square {dup Rec} bind def
/Bsquare {vpt sub exch vpt sub exch vpt2 Square} bind def
/S0 {BL [] 0 setdash 2 copy moveto 0 vpt rlineto BL Bsquare} bind def
/S1 {BL [] 0 setdash 2 copy vpt Square fill Bsquare} bind def
/S2 {BL [] 0 setdash 2 copy exch vpt sub exch vpt Square fill Bsquare} bind def
/S3 {BL [] 0 setdash 2 copy exch vpt sub exch vpt2 vpt Rec fill Bsquare} bind def
/S4 {BL [] 0 setdash 2 copy exch vpt sub exch vpt sub vpt Square fill Bsquare} bind def
/S5 {BL [] 0 setdash 2 copy 2 copy vpt Square fill
	exch vpt sub exch vpt sub vpt Square fill Bsquare} bind def
/S6 {BL [] 0 setdash 2 copy exch vpt sub exch vpt sub vpt vpt2 Rec fill Bsquare} bind def
/S7 {BL [] 0 setdash 2 copy exch vpt sub exch vpt sub vpt vpt2 Rec fill
	2 copy vpt Square fill Bsquare} bind def
/S8 {BL [] 0 setdash 2 copy vpt sub vpt Square fill Bsquare} bind def
/S9 {BL [] 0 setdash 2 copy vpt sub vpt vpt2 Rec fill Bsquare} bind def
/S10 {BL [] 0 setdash 2 copy vpt sub vpt Square fill 2 copy exch vpt sub exch vpt Square fill
	Bsquare} bind def
/S11 {BL [] 0 setdash 2 copy vpt sub vpt Square fill 2 copy exch vpt sub exch vpt2 vpt Rec fill
	Bsquare} bind def
/S12 {BL [] 0 setdash 2 copy exch vpt sub exch vpt sub vpt2 vpt Rec fill Bsquare} bind def
/S13 {BL [] 0 setdash 2 copy exch vpt sub exch vpt sub vpt2 vpt Rec fill
	2 copy vpt Square fill Bsquare} bind def
/S14 {BL [] 0 setdash 2 copy exch vpt sub exch vpt sub vpt2 vpt Rec fill
	2 copy exch vpt sub exch vpt Square fill Bsquare} bind def
/S15 {BL [] 0 setdash 2 copy Bsquare fill Bsquare} bind def
/D0 {gsave translate 45 rotate 0 0 S0 stroke grestore} bind def
/D1 {gsave translate 45 rotate 0 0 S1 stroke grestore} bind def
/D2 {gsave translate 45 rotate 0 0 S2 stroke grestore} bind def
/D3 {gsave translate 45 rotate 0 0 S3 stroke grestore} bind def
/D4 {gsave translate 45 rotate 0 0 S4 stroke grestore} bind def
/D5 {gsave translate 45 rotate 0 0 S5 stroke grestore} bind def
/D6 {gsave translate 45 rotate 0 0 S6 stroke grestore} bind def
/D7 {gsave translate 45 rotate 0 0 S7 stroke grestore} bind def
/D8 {gsave translate 45 rotate 0 0 S8 stroke grestore} bind def
/D9 {gsave translate 45 rotate 0 0 S9 stroke grestore} bind def
/D10 {gsave translate 45 rotate 0 0 S10 stroke grestore} bind def
/D11 {gsave translate 45 rotate 0 0 S11 stroke grestore} bind def
/D12 {gsave translate 45 rotate 0 0 S12 stroke grestore} bind def
/D13 {gsave translate 45 rotate 0 0 S13 stroke grestore} bind def
/D14 {gsave translate 45 rotate 0 0 S14 stroke grestore} bind def
/D15 {gsave translate 45 rotate 0 0 S15 stroke grestore} bind def
/DiaE {stroke [] 0 setdash vpt add M
  hpt neg vpt neg V hpt vpt neg V
  hpt vpt V hpt neg vpt V closepath stroke} def
/BoxE {stroke [] 0 setdash exch hpt sub exch vpt add M
  0 vpt2 neg V hpt2 0 V 0 vpt2 V
  hpt2 neg 0 V closepath stroke} def
/TriUE {stroke [] 0 setdash vpt 1.12 mul add M
  hpt neg vpt -1.62 mul V
  hpt 2 mul 0 V
  hpt neg vpt 1.62 mul V closepath stroke} def
/TriDE {stroke [] 0 setdash vpt 1.12 mul sub M
  hpt neg vpt 1.62 mul V
  hpt 2 mul 0 V
  hpt neg vpt -1.62 mul V closepath stroke} def
/PentE {stroke [] 0 setdash gsave
  translate 0 hpt M 4 {72 rotate 0 hpt L} repeat
  closepath stroke grestore} def
/CircE {stroke [] 0 setdash 
  hpt 0 360 arc stroke} def
/Opaque {gsave closepath 1 setgray fill grestore 0 setgray closepath} def
/DiaW {stroke [] 0 setdash vpt add M
  hpt neg vpt neg V hpt vpt neg V
  hpt vpt V hpt neg vpt V Opaque stroke} def
/BoxW {stroke [] 0 setdash exch hpt sub exch vpt add M
  0 vpt2 neg V hpt2 0 V 0 vpt2 V
  hpt2 neg 0 V Opaque stroke} def
/TriUW {stroke [] 0 setdash vpt 1.12 mul add M
  hpt neg vpt -1.62 mul V
  hpt 2 mul 0 V
  hpt neg vpt 1.62 mul V Opaque stroke} def
/TriDW {stroke [] 0 setdash vpt 1.12 mul sub M
  hpt neg vpt 1.62 mul V
  hpt 2 mul 0 V
  hpt neg vpt -1.62 mul V Opaque stroke} def
/PentW {stroke [] 0 setdash gsave
  translate 0 hpt M 4 {72 rotate 0 hpt L} repeat
  Opaque stroke grestore} def
/CircW {stroke [] 0 setdash 
  hpt 0 360 arc Opaque stroke} def
/BoxFill {gsave Rec 1 setgray fill grestore} def
/Density {
  /Fillden exch def
  currentrgbcolor
  /ColB exch def /ColG exch def /ColR exch def
  /ColR ColR Fillden mul Fillden sub 1 add def
  /ColG ColG Fillden mul Fillden sub 1 add def
  /ColB ColB Fillden mul Fillden sub 1 add def
  ColR ColG ColB setrgbcolor} def
/BoxColFill {gsave Rec PolyFill} def
/PolyFill {gsave Density fill grestore grestore} def
/h {rlineto rlineto rlineto gsave closepath fill grestore} bind def
%
% PostScript Level 1 Pattern Fill routine for rectangles
% Usage: x y w h s a XX PatternFill
%	x,y = lower left corner of box to be filled
%	w,h = width and height of box
%	  a = angle in degrees between lines and x-axis
%	 XX = 0/1 for no/yes cross-hatch
%
/PatternFill {gsave /PFa [ 9 2 roll ] def
  PFa 0 get PFa 2 get 2 div add PFa 1 get PFa 3 get 2 div add translate
  PFa 2 get -2 div PFa 3 get -2 div PFa 2 get PFa 3 get Rec
  TransparentPatterns {} {gsave 1 setgray fill grestore} ifelse
  clip
  currentlinewidth 0.5 mul setlinewidth
  /PFs PFa 2 get dup mul PFa 3 get dup mul add sqrt def
  0 0 M PFa 5 get rotate PFs -2 div dup translate
  0 1 PFs PFa 4 get div 1 add floor cvi
	{PFa 4 get mul 0 M 0 PFs V} for
  0 PFa 6 get ne {
	0 1 PFs PFa 4 get div 1 add floor cvi
	{PFa 4 get mul 0 2 1 roll M PFs 0 V} for
 } if
  stroke grestore} def
%
/languagelevel where
 {pop languagelevel} {1} ifelse
 2 lt
	{/InterpretLevel1 true def}
	{/InterpretLevel1 Level1 def}
 ifelse
%
% PostScript level 2 pattern fill definitions
%
/Level2PatternFill {
/Tile8x8 {/PaintType 2 /PatternType 1 /TilingType 1 /BBox [0 0 8 8] /XStep 8 /YStep 8}
	bind def
/KeepColor {currentrgbcolor [/Pattern /DeviceRGB] setcolorspace} bind def
<< Tile8x8
 /PaintProc {0.5 setlinewidth pop 0 0 M 8 8 L 0 8 M 8 0 L stroke} 
>> matrix makepattern
/Pat1 exch def
<< Tile8x8
 /PaintProc {0.5 setlinewidth pop 0 0 M 8 8 L 0 8 M 8 0 L stroke
	0 4 M 4 8 L 8 4 L 4 0 L 0 4 L stroke}
>> matrix makepattern
/Pat2 exch def
<< Tile8x8
 /PaintProc {0.5 setlinewidth pop 0 0 M 0 8 L
	8 8 L 8 0 L 0 0 L fill}
>> matrix makepattern
/Pat3 exch def
<< Tile8x8
 /PaintProc {0.5 setlinewidth pop -4 8 M 8 -4 L
	0 12 M 12 0 L stroke}
>> matrix makepattern
/Pat4 exch def
<< Tile8x8
 /PaintProc {0.5 setlinewidth pop -4 0 M 8 12 L
	0 -4 M 12 8 L stroke}
>> matrix makepattern
/Pat5 exch def
<< Tile8x8
 /PaintProc {0.5 setlinewidth pop -2 8 M 4 -4 L
	0 12 M 8 -4 L 4 12 M 10 0 L stroke}
>> matrix makepattern
/Pat6 exch def
<< Tile8x8
 /PaintProc {0.5 setlinewidth pop -2 0 M 4 12 L
	0 -4 M 8 12 L 4 -4 M 10 8 L stroke}
>> matrix makepattern
/Pat7 exch def
<< Tile8x8
 /PaintProc {0.5 setlinewidth pop 8 -2 M -4 4 L
	12 0 M -4 8 L 12 4 M 0 10 L stroke}
>> matrix makepattern
/Pat8 exch def
<< Tile8x8
 /PaintProc {0.5 setlinewidth pop 0 -2 M 12 4 L
	-4 0 M 12 8 L -4 4 M 8 10 L stroke}
>> matrix makepattern
/Pat9 exch def
/Pattern1 {PatternBgnd KeepColor Pat1 setpattern} bind def
/Pattern2 {PatternBgnd KeepColor Pat2 setpattern} bind def
/Pattern3 {PatternBgnd KeepColor Pat3 setpattern} bind def
/Pattern4 {PatternBgnd KeepColor Landscape {Pat5} {Pat4} ifelse setpattern} bind def
/Pattern5 {PatternBgnd KeepColor Landscape {Pat4} {Pat5} ifelse setpattern} bind def
/Pattern6 {PatternBgnd KeepColor Landscape {Pat9} {Pat6} ifelse setpattern} bind def
/Pattern7 {PatternBgnd KeepColor Landscape {Pat8} {Pat7} ifelse setpattern} bind def
} def
%
%
%End of PostScript Level 2 code
%
/PatternBgnd {
  TransparentPatterns {} {gsave 1 setgray fill grestore} ifelse
} def
%
% Substitute for Level 2 pattern fill codes with
% grayscale if Level 2 support is not selected.
%
/Level1PatternFill {
/Pattern1 {0.250 Density} bind def
/Pattern2 {0.500 Density} bind def
/Pattern3 {0.750 Density} bind def
/Pattern4 {0.125 Density} bind def
/Pattern5 {0.375 Density} bind def
/Pattern6 {0.625 Density} bind def
/Pattern7 {0.875 Density} bind def
} def
%
% Now test for support of Level 2 code
%
Level1 {Level1PatternFill} {Level2PatternFill} ifelse
%
/Symbol-Oblique /Symbol findfont [1 0 .167 1 0 0] makefont
dup length dict begin {1 index /FID eq {pop pop} {def} ifelse} forall
currentdict end definefont pop
Level1 SuppressPDFMark or 
{} {
/SDict 10 dict def
systemdict /pdfmark known not {
  userdict /pdfmark systemdict /cleartomark get put
} if
SDict begin [
  /Title (out.ps)
  /Subject (gnuplot plot)
  /Creator (gnuplot 4.6 patchlevel 6)
  /Author (yani)
%  /Producer (gnuplot)
%  /Keywords ()
  /CreationDate (Thu May 28 19:54:21 2015)
  /DOCINFO pdfmark
end
} ifelse
end
%%EndProlog
%%Page: 1 1
gnudict begin
gsave
doclip
50 50 translate
0.100 0.100 scale
90 rotate
0 -5040 translate
0 setgray
newpath
(Helvetica) findfont 140 scalefont setfont
BackgroundColor 0 lt 3 1 roll 0 lt exch 0 lt or or not {gsave BackgroundColor C clippath fill grestore} if
1.000 UL
LT0
0.50 0.50 0.50 C 1.000 UL
LTa
0.50 0.50 0.50 C 966 280 M
5981 0 V
stroke
LT0
0.50 0.50 0.50 C 966 280 M
63 0 V
5918 0 R
-63 0 V
882 280 M
( 0) Rshow
1.000 UL
LT0
0.50 0.50 0.50 C 1.000 UL
LTa
0.50 0.50 0.50 C 966 372 M
5981 0 V
stroke
LT0
0.50 0.50 0.50 C 966 372 M
63 0 V
5918 0 R
-63 0 V
882 372 M
( 0.707106) Rshow
1.000 UL
LT0
0.50 0.50 0.50 C 1.000 UL
LTa
0.50 0.50 0.50 C 966 464 M
5981 0 V
stroke
LT0
0.50 0.50 0.50 C 966 464 M
63 0 V
5918 0 R
-63 0 V
882 464 M
( 1.41421) Rshow
1.000 UL
LT0
0.50 0.50 0.50 C 1.000 UL
LTa
0.50 0.50 0.50 C 966 555 M
5981 0 V
stroke
LT0
0.50 0.50 0.50 C 966 555 M
63 0 V
5918 0 R
-63 0 V
882 555 M
( 2.12132) Rshow
1.000 UL
LT0
0.50 0.50 0.50 C 1.000 UL
LTa
0.50 0.50 0.50 C 966 647 M
5981 0 V
stroke
LT0
0.50 0.50 0.50 C 966 647 M
63 0 V
5918 0 R
-63 0 V
882 647 M
( 2.82842) Rshow
1.000 UL
LT0
0.50 0.50 0.50 C 1.000 UL
LTa
0.50 0.50 0.50 C 966 739 M
5981 0 V
stroke
LT0
0.50 0.50 0.50 C 966 739 M
63 0 V
5918 0 R
-63 0 V
882 739 M
( 3.53553) Rshow
1.000 UL
LT0
0.50 0.50 0.50 C 1.000 UL
LTa
0.50 0.50 0.50 C 966 831 M
5981 0 V
stroke
LT0
0.50 0.50 0.50 C 966 831 M
63 0 V
5918 0 R
-63 0 V
882 831 M
( 4.24264) Rshow
1.000 UL
LT0
0.50 0.50 0.50 C 1.000 UL
LTa
0.50 0.50 0.50 C 966 923 M
5981 0 V
stroke
LT0
0.50 0.50 0.50 C 966 923 M
63 0 V
5918 0 R
-63 0 V
882 923 M
( 4.94974) Rshow
1.000 UL
LT0
0.50 0.50 0.50 C 1.000 UL
LTa
0.50 0.50 0.50 C 966 1015 M
5981 0 V
stroke
LT0
0.50 0.50 0.50 C 966 1015 M
63 0 V
5918 0 R
-63 0 V
-6002 0 R
( 5.65685) Rshow
1.000 UL
LT0
0.50 0.50 0.50 C 1.000 UL
LTa
0.50 0.50 0.50 C 966 1106 M
5981 0 V
stroke
LT0
0.50 0.50 0.50 C 966 1106 M
63 0 V
5918 0 R
-63 0 V
-6002 0 R
( 6.36395) Rshow
1.000 UL
LT0
0.50 0.50 0.50 C 1.000 UL
LTa
0.50 0.50 0.50 C 966 1198 M
5981 0 V
stroke
LT0
0.50 0.50 0.50 C 966 1198 M
63 0 V
5918 0 R
-63 0 V
-6002 0 R
( 7.07106) Rshow
1.000 UL
LT0
0.50 0.50 0.50 C 1.000 UL
LTa
0.50 0.50 0.50 C 966 1290 M
5981 0 V
stroke
LT0
0.50 0.50 0.50 C 966 1290 M
63 0 V
5918 0 R
-63 0 V
-6002 0 R
( 7.77817) Rshow
1.000 UL
LT0
0.50 0.50 0.50 C 1.000 UL
LTa
0.50 0.50 0.50 C 966 1382 M
5981 0 V
stroke
LT0
0.50 0.50 0.50 C 966 1382 M
63 0 V
5918 0 R
-63 0 V
-6002 0 R
( 8.48527) Rshow
1.000 UL
LT0
0.50 0.50 0.50 C 1.000 UL
LTa
0.50 0.50 0.50 C 966 1474 M
5981 0 V
stroke
LT0
0.50 0.50 0.50 C 966 1474 M
63 0 V
5918 0 R
-63 0 V
-6002 0 R
( 9.19238) Rshow
1.000 UL
LT0
0.50 0.50 0.50 C 1.000 UL
LTa
0.50 0.50 0.50 C 966 1565 M
5981 0 V
stroke
LT0
0.50 0.50 0.50 C 966 1565 M
63 0 V
5918 0 R
-63 0 V
-6002 0 R
( 9.89948) Rshow
1.000 UL
LT0
0.50 0.50 0.50 C 1.000 UL
LTa
0.50 0.50 0.50 C 966 1657 M
5981 0 V
stroke
LT0
0.50 0.50 0.50 C 966 1657 M
63 0 V
5918 0 R
-63 0 V
-6002 0 R
( 10.6066) Rshow
1.000 UL
LT0
0.50 0.50 0.50 C 1.000 UL
LTa
0.50 0.50 0.50 C 966 1749 M
5981 0 V
stroke
LT0
0.50 0.50 0.50 C 966 1749 M
63 0 V
5918 0 R
-63 0 V
-6002 0 R
( 11.3137) Rshow
1.000 UL
LT0
0.50 0.50 0.50 C 1.000 UL
LTa
0.50 0.50 0.50 C 966 1841 M
5981 0 V
stroke
LT0
0.50 0.50 0.50 C 966 1841 M
63 0 V
5918 0 R
-63 0 V
-6002 0 R
( 12.0208) Rshow
1.000 UL
LT0
0.50 0.50 0.50 C 1.000 UL
LTa
0.50 0.50 0.50 C 966 1933 M
5981 0 V
stroke
LT0
0.50 0.50 0.50 C 966 1933 M
63 0 V
5918 0 R
-63 0 V
-6002 0 R
( 12.7279) Rshow
1.000 UL
LT0
0.50 0.50 0.50 C 1.000 UL
LTa
0.50 0.50 0.50 C 966 2025 M
5981 0 V
stroke
LT0
0.50 0.50 0.50 C 966 2025 M
63 0 V
5918 0 R
-63 0 V
-6002 0 R
( 13.435) Rshow
1.000 UL
LT0
0.50 0.50 0.50 C 1.000 UL
LTa
0.50 0.50 0.50 C 966 2116 M
5981 0 V
stroke
LT0
0.50 0.50 0.50 C 966 2116 M
63 0 V
5918 0 R
-63 0 V
-6002 0 R
( 14.1421) Rshow
1.000 UL
LT0
0.50 0.50 0.50 C 1.000 UL
LTa
0.50 0.50 0.50 C 966 2208 M
5981 0 V
stroke
LT0
0.50 0.50 0.50 C 966 2208 M
63 0 V
5918 0 R
-63 0 V
-6002 0 R
( 14.8492) Rshow
1.000 UL
LT0
0.50 0.50 0.50 C 1.000 UL
LTa
0.50 0.50 0.50 C 966 2300 M
5981 0 V
stroke
LT0
0.50 0.50 0.50 C 966 2300 M
63 0 V
5918 0 R
-63 0 V
-6002 0 R
( 15.5563) Rshow
1.000 UL
LT0
0.50 0.50 0.50 C 1.000 UL
LTa
0.50 0.50 0.50 C 966 2392 M
5981 0 V
stroke
LT0
0.50 0.50 0.50 C 966 2392 M
63 0 V
5918 0 R
-63 0 V
-6002 0 R
( 16.2634) Rshow
1.000 UL
LT0
0.50 0.50 0.50 C 1.000 UL
LTa
0.50 0.50 0.50 C 966 2484 M
5981 0 V
stroke
LT0
0.50 0.50 0.50 C 966 2484 M
63 0 V
5918 0 R
-63 0 V
-6002 0 R
( 16.9705) Rshow
1.000 UL
LT0
0.50 0.50 0.50 C 1.000 UL
LTa
0.50 0.50 0.50 C 966 2575 M
5981 0 V
stroke
LT0
0.50 0.50 0.50 C 966 2575 M
63 0 V
5918 0 R
-63 0 V
-6002 0 R
( 17.6776) Rshow
1.000 UL
LT0
0.50 0.50 0.50 C 1.000 UL
LTa
0.50 0.50 0.50 C 966 2667 M
5981 0 V
stroke
LT0
0.50 0.50 0.50 C 966 2667 M
63 0 V
5918 0 R
-63 0 V
-6002 0 R
( 18.3848) Rshow
1.000 UL
LT0
0.50 0.50 0.50 C 1.000 UL
LTa
0.50 0.50 0.50 C 966 2759 M
5981 0 V
stroke
LT0
0.50 0.50 0.50 C 966 2759 M
63 0 V
5918 0 R
-63 0 V
-6002 0 R
( 19.0919) Rshow
1.000 UL
LT0
0.50 0.50 0.50 C 1.000 UL
LTa
0.50 0.50 0.50 C 966 2851 M
5981 0 V
stroke
LT0
0.50 0.50 0.50 C 966 2851 M
63 0 V
5918 0 R
-63 0 V
-6002 0 R
( 19.799) Rshow
1.000 UL
LT0
0.50 0.50 0.50 C 1.000 UL
LTa
0.50 0.50 0.50 C 966 2943 M
5981 0 V
stroke
LT0
0.50 0.50 0.50 C 966 2943 M
63 0 V
5918 0 R
-63 0 V
-6002 0 R
( 20.5061) Rshow
1.000 UL
LT0
0.50 0.50 0.50 C 1.000 UL
LTa
0.50 0.50 0.50 C 966 3035 M
5981 0 V
stroke
LT0
0.50 0.50 0.50 C 966 3035 M
63 0 V
5918 0 R
-63 0 V
-6002 0 R
( 21.2132) Rshow
1.000 UL
LT0
0.50 0.50 0.50 C 1.000 UL
LTa
0.50 0.50 0.50 C 966 3126 M
5981 0 V
stroke
LT0
0.50 0.50 0.50 C 966 3126 M
63 0 V
5918 0 R
-63 0 V
-6002 0 R
( 21.9203) Rshow
1.000 UL
LT0
0.50 0.50 0.50 C 1.000 UL
LTa
0.50 0.50 0.50 C 966 3218 M
5981 0 V
stroke
LT0
0.50 0.50 0.50 C 966 3218 M
63 0 V
5918 0 R
-63 0 V
-6002 0 R
( 22.6274) Rshow
1.000 UL
LT0
0.50 0.50 0.50 C 1.000 UL
LTa
0.50 0.50 0.50 C 966 3310 M
5981 0 V
stroke
LT0
0.50 0.50 0.50 C 966 3310 M
63 0 V
5918 0 R
-63 0 V
-6002 0 R
( 23.3345) Rshow
1.000 UL
LT0
0.50 0.50 0.50 C 1.000 UL
LTa
0.50 0.50 0.50 C 966 3402 M
5981 0 V
stroke
LT0
0.50 0.50 0.50 C 966 3402 M
63 0 V
5918 0 R
-63 0 V
-6002 0 R
( 24.0416) Rshow
1.000 UL
LT0
0.50 0.50 0.50 C 1.000 UL
LTa
0.50 0.50 0.50 C 966 3494 M
5981 0 V
stroke
LT0
0.50 0.50 0.50 C 966 3494 M
63 0 V
5918 0 R
-63 0 V
-6002 0 R
( 24.7487) Rshow
1.000 UL
LT0
0.50 0.50 0.50 C 1.000 UL
LTa
0.50 0.50 0.50 C 966 3586 M
5981 0 V
stroke
LT0
0.50 0.50 0.50 C 966 3586 M
63 0 V
5918 0 R
-63 0 V
-6002 0 R
( 25.4558) Rshow
1.000 UL
LT0
0.50 0.50 0.50 C 1.000 UL
LTa
0.50 0.50 0.50 C 966 3677 M
5981 0 V
stroke
LT0
0.50 0.50 0.50 C 966 3677 M
63 0 V
5918 0 R
-63 0 V
-6002 0 R
( 26.1629) Rshow
1.000 UL
LT0
0.50 0.50 0.50 C 1.000 UL
LTa
0.50 0.50 0.50 C 966 3769 M
5981 0 V
stroke
LT0
0.50 0.50 0.50 C 966 3769 M
63 0 V
5918 0 R
-63 0 V
-6002 0 R
( 26.87) Rshow
1.000 UL
LT0
0.50 0.50 0.50 C 1.000 UL
LTa
0.50 0.50 0.50 C 966 3861 M
5981 0 V
stroke
LT0
0.50 0.50 0.50 C 966 3861 M
63 0 V
5918 0 R
-63 0 V
-6002 0 R
( 27.5771) Rshow
1.000 UL
LT0
0.50 0.50 0.50 C 1.000 UL
LTa
0.50 0.50 0.50 C 966 3953 M
5981 0 V
stroke
LT0
0.50 0.50 0.50 C 966 3953 M
63 0 V
5918 0 R
-63 0 V
-6002 0 R
( 28.2842) Rshow
1.000 UL
LT0
0.50 0.50 0.50 C 1.000 UL
LTa
0.50 0.50 0.50 C 966 4045 M
5981 0 V
stroke
LT0
0.50 0.50 0.50 C 966 4045 M
63 0 V
5918 0 R
-63 0 V
-6002 0 R
( 28.9913) Rshow
1.000 UL
LT0
0.50 0.50 0.50 C 1.000 UL
LTa
0.50 0.50 0.50 C 966 4136 M
5981 0 V
stroke
LT0
0.50 0.50 0.50 C 966 4136 M
63 0 V
5918 0 R
-63 0 V
-6002 0 R
( 29.6985) Rshow
1.000 UL
LT0
0.50 0.50 0.50 C 1.000 UL
LTa
0.50 0.50 0.50 C 966 4228 M
5981 0 V
stroke
LT0
0.50 0.50 0.50 C 966 4228 M
63 0 V
5918 0 R
-63 0 V
-6002 0 R
( 30.4056) Rshow
1.000 UL
LT0
0.50 0.50 0.50 C 1.000 UL
LTa
0.50 0.50 0.50 C 966 4320 M
5981 0 V
stroke
LT0
0.50 0.50 0.50 C 966 4320 M
63 0 V
5918 0 R
-63 0 V
-6002 0 R
( 31.1127) Rshow
1.000 UL
LT0
0.50 0.50 0.50 C 1.000 UL
LTa
0.50 0.50 0.50 C 966 4412 M
5981 0 V
stroke
LT0
0.50 0.50 0.50 C 966 4412 M
63 0 V
5918 0 R
-63 0 V
-6002 0 R
( 31.8198) Rshow
1.000 UL
LT0
0.50 0.50 0.50 C 1.000 UL
LTa
0.50 0.50 0.50 C 966 4504 M
5981 0 V
stroke
LT0
0.50 0.50 0.50 C 966 4504 M
63 0 V
5918 0 R
-63 0 V
-6002 0 R
( 32.5269) Rshow
1.000 UL
LT0
0.50 0.50 0.50 C 1.000 UL
LTa
0.50 0.50 0.50 C 966 4596 M
5981 0 V
stroke
LT0
0.50 0.50 0.50 C 966 4596 M
63 0 V
5918 0 R
-63 0 V
-6002 0 R
( 33.234) Rshow
1.000 UL
LT0
0.50 0.50 0.50 C 1.000 UL
LTa
0.50 0.50 0.50 C 966 4687 M
5981 0 V
stroke
LT0
0.50 0.50 0.50 C 966 4687 M
63 0 V
5918 0 R
-63 0 V
-6002 0 R
( 33.9411) Rshow
1.000 UL
LT0
0.50 0.50 0.50 C 1.000 UL
LTa
0.50 0.50 0.50 C 966 4779 M
5981 0 V
stroke
LT0
0.50 0.50 0.50 C 966 4779 M
63 0 V
5918 0 R
-63 0 V
-6002 0 R
( 34.6482) Rshow
1.000 UL
LT0
0.50 0.50 0.50 C 1.000 UL
LTa
0.50 0.50 0.50 C 966 4871 M
5981 0 V
stroke
LT0
0.50 0.50 0.50 C 966 4871 M
63 0 V
5918 0 R
-63 0 V
-6002 0 R
( 35.3553) Rshow
1.000 UL
LT0
0.50 0.50 0.50 C 1.000 UL
LTa
0.50 0.50 0.50 C 966 280 M
0 4591 V
stroke
LT0
0.50 0.50 0.50 C 966 280 M
0 63 V
0 4528 R
0 -63 V
966 140 M
( 0) Cshow
1.000 UL
LT0
0.50 0.50 0.50 C 1.000 UL
LTa
0.50 0.50 0.50 C 1086 280 M
0 4591 V
stroke
LT0
0.50 0.50 0.50 C 1086 280 M
0 63 V
0 4528 R
0 -63 V
0 -4668 R
( 0.707106) Cshow
1.000 UL
LT0
0.50 0.50 0.50 C 1.000 UL
LTa
0.50 0.50 0.50 C 1205 280 M
0 4591 V
stroke
LT0
0.50 0.50 0.50 C 1205 280 M
0 63 V
0 4528 R
0 -63 V
0 -4668 R
( 1.41421) Cshow
1.000 UL
LT0
0.50 0.50 0.50 C 1.000 UL
LTa
0.50 0.50 0.50 C 1325 280 M
0 4591 V
stroke
LT0
0.50 0.50 0.50 C 1325 280 M
0 63 V
0 4528 R
0 -63 V
0 -4668 R
( 2.12132) Cshow
1.000 UL
LT0
0.50 0.50 0.50 C 1.000 UL
LTa
0.50 0.50 0.50 C 1444 280 M
0 4591 V
stroke
LT0
0.50 0.50 0.50 C 1444 280 M
0 63 V
0 4528 R
0 -63 V
0 -4668 R
( 2.82842) Cshow
1.000 UL
LT0
0.50 0.50 0.50 C 1.000 UL
LTa
0.50 0.50 0.50 C 1564 280 M
0 4591 V
stroke
LT0
0.50 0.50 0.50 C 1564 280 M
0 63 V
0 4528 R
0 -63 V
0 -4668 R
( 3.53553) Cshow
1.000 UL
LT0
0.50 0.50 0.50 C 1.000 UL
LTa
0.50 0.50 0.50 C 1684 280 M
0 4591 V
stroke
LT0
0.50 0.50 0.50 C 1684 280 M
0 63 V
0 4528 R
0 -63 V
0 -4668 R
( 4.24264) Cshow
1.000 UL
LT0
0.50 0.50 0.50 C 1.000 UL
LTa
0.50 0.50 0.50 C 1803 280 M
0 4591 V
stroke
LT0
0.50 0.50 0.50 C 1803 280 M
0 63 V
0 4528 R
0 -63 V
0 -4668 R
( 4.94974) Cshow
1.000 UL
LT0
0.50 0.50 0.50 C 1.000 UL
LTa
0.50 0.50 0.50 C 1923 280 M
0 4591 V
stroke
LT0
0.50 0.50 0.50 C 1923 280 M
0 63 V
0 4528 R
0 -63 V
0 -4668 R
( 5.65685) Cshow
1.000 UL
LT0
0.50 0.50 0.50 C 1.000 UL
LTa
0.50 0.50 0.50 C 2043 280 M
0 4591 V
stroke
LT0
0.50 0.50 0.50 C 2043 280 M
0 63 V
0 4528 R
0 -63 V
0 -4668 R
( 6.36395) Cshow
1.000 UL
LT0
0.50 0.50 0.50 C 1.000 UL
LTa
0.50 0.50 0.50 C 2162 280 M
0 4591 V
stroke
LT0
0.50 0.50 0.50 C 2162 280 M
0 63 V
0 4528 R
0 -63 V
0 -4668 R
( 7.07106) Cshow
1.000 UL
LT0
0.50 0.50 0.50 C 1.000 UL
LTa
0.50 0.50 0.50 C 2282 280 M
0 4591 V
stroke
LT0
0.50 0.50 0.50 C 2282 280 M
0 63 V
0 4528 R
0 -63 V
0 -4668 R
( 7.77817) Cshow
1.000 UL
LT0
0.50 0.50 0.50 C 1.000 UL
LTa
0.50 0.50 0.50 C 2401 280 M
0 4591 V
stroke
LT0
0.50 0.50 0.50 C 2401 280 M
0 63 V
0 4528 R
0 -63 V
0 -4668 R
( 8.48527) Cshow
1.000 UL
LT0
0.50 0.50 0.50 C 1.000 UL
LTa
0.50 0.50 0.50 C 2521 280 M
0 4591 V
stroke
LT0
0.50 0.50 0.50 C 2521 280 M
0 63 V
0 4528 R
0 -63 V
0 -4668 R
( 9.19238) Cshow
1.000 UL
LT0
0.50 0.50 0.50 C 1.000 UL
LTa
0.50 0.50 0.50 C 2641 280 M
0 4591 V
stroke
LT0
0.50 0.50 0.50 C 2641 280 M
0 63 V
0 4528 R
0 -63 V
0 -4668 R
( 9.89948) Cshow
1.000 UL
LT0
0.50 0.50 0.50 C 1.000 UL
LTa
0.50 0.50 0.50 C 2760 280 M
0 4591 V
stroke
LT0
0.50 0.50 0.50 C 2760 280 M
0 63 V
0 4528 R
0 -63 V
0 -4668 R
( 10.6066) Cshow
1.000 UL
LT0
0.50 0.50 0.50 C 1.000 UL
LTa
0.50 0.50 0.50 C 2880 280 M
0 4591 V
stroke
LT0
0.50 0.50 0.50 C 2880 280 M
0 63 V
0 4528 R
0 -63 V
0 -4668 R
( 11.3137) Cshow
1.000 UL
LT0
0.50 0.50 0.50 C 1.000 UL
LTa
0.50 0.50 0.50 C 3000 280 M
0 4591 V
stroke
LT0
0.50 0.50 0.50 C 3000 280 M
0 63 V
0 4528 R
0 -63 V
0 -4668 R
( 12.0208) Cshow
1.000 UL
LT0
0.50 0.50 0.50 C 1.000 UL
LTa
0.50 0.50 0.50 C 3119 280 M
0 4591 V
stroke
LT0
0.50 0.50 0.50 C 3119 280 M
0 63 V
0 4528 R
0 -63 V
0 -4668 R
( 12.7279) Cshow
1.000 UL
LT0
0.50 0.50 0.50 C 1.000 UL
LTa
0.50 0.50 0.50 C 3239 280 M
0 4591 V
stroke
LT0
0.50 0.50 0.50 C 3239 280 M
0 63 V
0 4528 R
0 -63 V
0 -4668 R
( 13.435) Cshow
1.000 UL
LT0
0.50 0.50 0.50 C 1.000 UL
LTa
0.50 0.50 0.50 C 3358 280 M
0 4591 V
stroke
LT0
0.50 0.50 0.50 C 3358 280 M
0 63 V
0 4528 R
0 -63 V
0 -4668 R
( 14.1421) Cshow
1.000 UL
LT0
0.50 0.50 0.50 C 1.000 UL
LTa
0.50 0.50 0.50 C 3478 280 M
0 4591 V
stroke
LT0
0.50 0.50 0.50 C 3478 280 M
0 63 V
0 4528 R
0 -63 V
0 -4668 R
( 14.8492) Cshow
1.000 UL
LT0
0.50 0.50 0.50 C 1.000 UL
LTa
0.50 0.50 0.50 C 3598 280 M
0 4591 V
stroke
LT0
0.50 0.50 0.50 C 3598 280 M
0 63 V
0 4528 R
0 -63 V
0 -4668 R
( 15.5563) Cshow
1.000 UL
LT0
0.50 0.50 0.50 C 1.000 UL
LTa
0.50 0.50 0.50 C 3717 280 M
0 4591 V
stroke
LT0
0.50 0.50 0.50 C 3717 280 M
0 63 V
0 4528 R
0 -63 V
0 -4668 R
( 16.2634) Cshow
1.000 UL
LT0
0.50 0.50 0.50 C 1.000 UL
LTa
0.50 0.50 0.50 C 3837 280 M
0 4591 V
stroke
LT0
0.50 0.50 0.50 C 3837 280 M
0 63 V
0 4528 R
0 -63 V
0 -4668 R
( 16.9705) Cshow
1.000 UL
LT0
0.50 0.50 0.50 C 1.000 UL
LTa
0.50 0.50 0.50 C 3956 280 M
0 4591 V
stroke
LT0
0.50 0.50 0.50 C 3956 280 M
0 63 V
0 4528 R
0 -63 V
0 -4668 R
( 17.6776) Cshow
1.000 UL
LT0
0.50 0.50 0.50 C 1.000 UL
LTa
0.50 0.50 0.50 C 4076 280 M
0 4591 V
stroke
LT0
0.50 0.50 0.50 C 4076 280 M
0 63 V
0 4528 R
0 -63 V
0 -4668 R
( 18.3848) Cshow
1.000 UL
LT0
0.50 0.50 0.50 C 1.000 UL
LTa
0.50 0.50 0.50 C 4196 280 M
0 4591 V
stroke
LT0
0.50 0.50 0.50 C 4196 280 M
0 63 V
0 4528 R
0 -63 V
0 -4668 R
( 19.0919) Cshow
1.000 UL
LT0
0.50 0.50 0.50 C 1.000 UL
LTa
0.50 0.50 0.50 C 4315 280 M
0 4591 V
stroke
LT0
0.50 0.50 0.50 C 4315 280 M
0 63 V
0 4528 R
0 -63 V
0 -4668 R
( 19.799) Cshow
1.000 UL
LT0
0.50 0.50 0.50 C 1.000 UL
LTa
0.50 0.50 0.50 C 4435 280 M
0 4591 V
stroke
LT0
0.50 0.50 0.50 C 4435 280 M
0 63 V
0 4528 R
0 -63 V
0 -4668 R
( 20.5061) Cshow
1.000 UL
LT0
0.50 0.50 0.50 C 1.000 UL
LTa
0.50 0.50 0.50 C 4555 280 M
0 4591 V
stroke
LT0
0.50 0.50 0.50 C 4555 280 M
0 63 V
0 4528 R
0 -63 V
0 -4668 R
( 21.2132) Cshow
1.000 UL
LT0
0.50 0.50 0.50 C 1.000 UL
LTa
0.50 0.50 0.50 C 4674 280 M
0 4591 V
stroke
LT0
0.50 0.50 0.50 C 4674 280 M
0 63 V
0 4528 R
0 -63 V
0 -4668 R
( 21.9203) Cshow
1.000 UL
LT0
0.50 0.50 0.50 C 1.000 UL
LTa
0.50 0.50 0.50 C 4794 280 M
0 4591 V
stroke
LT0
0.50 0.50 0.50 C 4794 280 M
0 63 V
0 4528 R
0 -63 V
0 -4668 R
( 22.6274) Cshow
1.000 UL
LT0
0.50 0.50 0.50 C 1.000 UL
LTa
0.50 0.50 0.50 C 4913 280 M
0 4591 V
stroke
LT0
0.50 0.50 0.50 C 4913 280 M
0 63 V
0 4528 R
0 -63 V
0 -4668 R
( 23.3345) Cshow
1.000 UL
LT0
0.50 0.50 0.50 C 1.000 UL
LTa
0.50 0.50 0.50 C 5033 280 M
0 4591 V
stroke
LT0
0.50 0.50 0.50 C 5033 280 M
0 63 V
0 4528 R
0 -63 V
0 -4668 R
( 24.0416) Cshow
1.000 UL
LT0
0.50 0.50 0.50 C 1.000 UL
LTa
0.50 0.50 0.50 C 5153 280 M
0 4591 V
stroke
LT0
0.50 0.50 0.50 C 5153 280 M
0 63 V
0 4528 R
0 -63 V
0 -4668 R
( 24.7487) Cshow
1.000 UL
LT0
0.50 0.50 0.50 C 1.000 UL
LTa
0.50 0.50 0.50 C 5272 280 M
0 4591 V
stroke
LT0
0.50 0.50 0.50 C 5272 280 M
0 63 V
0 4528 R
0 -63 V
0 -4668 R
( 25.4558) Cshow
1.000 UL
LT0
0.50 0.50 0.50 C 1.000 UL
LTa
0.50 0.50 0.50 C 5392 280 M
0 4591 V
stroke
LT0
0.50 0.50 0.50 C 5392 280 M
0 63 V
0 4528 R
0 -63 V
0 -4668 R
( 26.1629) Cshow
1.000 UL
LT0
0.50 0.50 0.50 C 1.000 UL
LTa
0.50 0.50 0.50 C 5512 280 M
0 4591 V
stroke
LT0
0.50 0.50 0.50 C 5512 280 M
0 63 V
0 4528 R
0 -63 V
0 -4668 R
( 26.87) Cshow
1.000 UL
LT0
0.50 0.50 0.50 C 1.000 UL
LTa
0.50 0.50 0.50 C 5631 280 M
0 4591 V
stroke
LT0
0.50 0.50 0.50 C 5631 280 M
0 63 V
0 4528 R
0 -63 V
0 -4668 R
( 27.5771) Cshow
1.000 UL
LT0
0.50 0.50 0.50 C 1.000 UL
LTa
0.50 0.50 0.50 C 5751 280 M
0 4591 V
stroke
LT0
0.50 0.50 0.50 C 5751 280 M
0 63 V
0 4528 R
0 -63 V
0 -4668 R
( 28.2842) Cshow
1.000 UL
LT0
0.50 0.50 0.50 C 1.000 UL
LTa
0.50 0.50 0.50 C 5870 280 M
0 4591 V
stroke
LT0
0.50 0.50 0.50 C 5870 280 M
0 63 V
0 4528 R
0 -63 V
0 -4668 R
( 28.9913) Cshow
1.000 UL
LT0
0.50 0.50 0.50 C 1.000 UL
LTa
0.50 0.50 0.50 C 5990 280 M
0 4591 V
stroke
LT0
0.50 0.50 0.50 C 5990 280 M
0 63 V
0 4528 R
0 -63 V
0 -4668 R
( 29.6985) Cshow
1.000 UL
LT0
0.50 0.50 0.50 C 1.000 UL
LTa
0.50 0.50 0.50 C 6110 280 M
0 4591 V
stroke
LT0
0.50 0.50 0.50 C 6110 280 M
0 63 V
0 4528 R
0 -63 V
0 -4668 R
( 30.4056) Cshow
1.000 UL
LT0
0.50 0.50 0.50 C 1.000 UL
LTa
0.50 0.50 0.50 C 6229 280 M
0 4591 V
stroke
LT0
0.50 0.50 0.50 C 6229 280 M
0 63 V
0 4528 R
0 -63 V
0 -4668 R
( 31.1127) Cshow
1.000 UL
LT0
0.50 0.50 0.50 C 1.000 UL
LTa
0.50 0.50 0.50 C 6349 280 M
0 4591 V
stroke
LT0
0.50 0.50 0.50 C 6349 280 M
0 63 V
0 4528 R
0 -63 V
0 -4668 R
( 31.8198) Cshow
1.000 UL
LT0
0.50 0.50 0.50 C 1.000 UL
LTa
0.50 0.50 0.50 C 6469 280 M
0 4591 V
stroke
LT0
0.50 0.50 0.50 C 6469 280 M
0 63 V
0 4528 R
0 -63 V
0 -4668 R
( 32.5269) Cshow
1.000 UL
LT0
0.50 0.50 0.50 C 1.000 UL
LTa
0.50 0.50 0.50 C 6588 280 M
0 4591 V
stroke
LT0
0.50 0.50 0.50 C 6588 280 M
0 63 V
0 4528 R
0 -63 V
0 -4668 R
( 33.234) Cshow
1.000 UL
LT0
0.50 0.50 0.50 C 1.000 UL
LTa
0.50 0.50 0.50 C 6708 280 M
0 4591 V
stroke
LT0
0.50 0.50 0.50 C 6708 280 M
0 63 V
0 4528 R
0 -63 V
0 -4668 R
( 33.9411) Cshow
1.000 UL
LT0
0.50 0.50 0.50 C 1.000 UL
LTa
0.50 0.50 0.50 C 6827 280 M
0 4591 V
stroke
LT0
0.50 0.50 0.50 C 6827 280 M
0 63 V
0 4528 R
0 -63 V
0 -4668 R
( 34.6482) Cshow
1.000 UL
LT0
0.50 0.50 0.50 C 1.000 UL
LTa
0.50 0.50 0.50 C 6947 280 M
0 4591 V
stroke
LT0
0.50 0.50 0.50 C 6947 280 M
0 63 V
0 4528 R
0 -63 V
0 -4668 R
( 35.3553) Cshow
1.000 UL
LT0
0.50 0.50 0.50 C 1.000 UL
LT0
0.50 0.50 0.50 C 966 4871 M
966 280 L
5981 0 V
0 4591 R
-5981 0 R
1.000 UP
stroke
LT0
0.50 0.50 0.50 C % Begin plot #1
1.500 UP
2.000 UL
LT0
0.00 0.00 1.00 C /Helvetica findfont 140 scalefont setfont
/vshift -46 def
1086 555 M
119 0 V
0 92 R
120 0 V
119 0 V
120 0 V
120 0 V
119 0 V
120 0 V
120 0 V
0 92 R
119 0 V
0 1561 R
120 0 V
119 0 V
0 92 R
120 0 V
120 0 V
119 0 V
120 0 V
0 367 R
120 0 V
119 0 V
0 367 R
120 0 V
119 0 V
0 184 R
120 0 V
120 0 V
119 0 V
120 0 V
120 0 V
119 0 V
120 0 V
119 0 V
120 0 V
120 0 V
119 0 V
120 0 V
119 0 V
120 0 V
120 0 V
0 276 R
119 0 V
120 0 V
120 0 V
119 0 V
120 0 V
0 91 R
119 0 V
0 92 R
120 0 V
120 0 V
0 459 R
119 0 V
120 0 V
120 0 V
119 0 V
0 92 R
120 0 V
966 280 M
120 0 V
6708 4779 M
119 0 V
1086 280 M
0 92 V
0 92 V
0 91 V
119 0 R
0 92 V
838 0 R
0 92 V
119 0 R
0 92 V
0 92 V
0 92 V
0 91 V
0 92 V
0 92 V
0 92 V
0 92 V
0 91 V
0 92 V
0 92 V
0 92 V
0 92 V
0 92 V
0 91 V
0 92 V
0 92 V
239 0 R
0 92 V
479 0 R
0 92 V
0 92 V
0 91 V
0 92 V
239 0 R
0 92 V
0 92 V
0 92 V
0 91 V
239 0 R
0 92 V
0 92 V
stroke 3358 3310 M
1795 0 R
0 92 V
0 92 V
0 92 V
598 0 R
0 91 V
119 0 R
0 92 V
240 0 R
0 92 V
0 92 V
0 92 V
0 91 V
0 92 V
478 0 R
0 92 V
120 0 R
0 92 V
0 92 V
0 92 V
0 91 V
0 92 V
1086 555 CircleF
1205 555 CircleF
1205 647 CircleF
1325 647 CircleF
1325 647 CircleF
1444 647 CircleF
1444 647 CircleF
1564 647 CircleF
1564 647 CircleF
1684 647 CircleF
1684 647 CircleF
1803 647 CircleF
1803 647 CircleF
1923 647 CircleF
1923 647 CircleF
2043 647 CircleF
2043 739 CircleF
2162 739 CircleF
2162 2300 CircleF
2282 2300 CircleF
2282 2300 CircleF
2401 2300 CircleF
2401 2392 CircleF
2521 2392 CircleF
2521 2392 CircleF
2641 2392 CircleF
2641 2392 CircleF
2760 2392 CircleF
2760 2392 CircleF
2880 2392 CircleF
2880 2759 CircleF
3000 2759 CircleF
3000 2759 CircleF
3119 2759 CircleF
3119 3126 CircleF
3239 3126 CircleF
3239 3126 CircleF
3358 3126 CircleF
3358 3310 CircleF
3478 3310 CircleF
3478 3310 CircleF
3598 3310 CircleF
3598 3310 CircleF
3717 3310 CircleF
3717 3310 CircleF
3837 3310 CircleF
3837 3310 CircleF
3957 3310 CircleF
3957 3310 CircleF
4076 3310 CircleF
4076 3310 CircleF
4196 3310 CircleF
4196 3310 CircleF
4315 3310 CircleF
4315 3310 CircleF
4435 3310 CircleF
4435 3310 CircleF
4555 3310 CircleF
4555 3310 CircleF
4674 3310 CircleF
4674 3310 CircleF
4794 3310 CircleF
4794 3310 CircleF
4913 3310 CircleF
4913 3310 CircleF
5033 3310 CircleF
5033 3310 CircleF
5153 3310 CircleF
5153 3586 CircleF
5272 3586 CircleF
5272 3586 CircleF
5392 3586 CircleF
5392 3586 CircleF
5512 3586 CircleF
5512 3586 CircleF
5631 3586 CircleF
5631 3586 CircleF
5751 3586 CircleF
5751 3677 CircleF
5870 3677 CircleF
5870 3769 CircleF
5990 3769 CircleF
5990 3769 CircleF
6110 3769 CircleF
6110 4228 CircleF
6229 4228 CircleF
6229 4228 CircleF
6349 4228 CircleF
6349 4228 CircleF
6469 4228 CircleF
6469 4228 CircleF
6588 4228 CircleF
6588 4320 CircleF
6708 4320 CircleF
966 280 CircleF
1086 280 CircleF
6708 4779 CircleF
6827 4779 CircleF
1086 280 CircleF
1086 372 CircleF
1086 372 CircleF
1086 464 CircleF
1086 464 CircleF
1086 555 CircleF
1205 555 CircleF
1205 647 CircleF
2043 647 CircleF
2043 739 CircleF
2162 739 CircleF
2162 831 CircleF
2162 831 CircleF
2162 923 CircleF
2162 923 CircleF
2162 1015 CircleF
2162 1015 CircleF
2162 1106 CircleF
2162 1106 CircleF
2162 1198 CircleF
2162 1198 CircleF
2162 1290 CircleF
2162 1290 CircleF
2162 1382 CircleF
2162 1382 CircleF
2162 1474 CircleF
2162 1474 CircleF
2162 1565 CircleF
2162 1565 CircleF
2162 1657 CircleF
2162 1657 CircleF
2162 1749 CircleF
2162 1749 CircleF
2162 1841 CircleF
2162 1841 CircleF
2162 1933 CircleF
2162 1933 CircleF
2162 2025 CircleF
2162 2025 CircleF
2162 2116 CircleF
2162 2116 CircleF
2162 2208 CircleF
2162 2208 CircleF
2162 2300 CircleF
2401 2300 CircleF
2401 2392 CircleF
2880 2392 CircleF
2880 2484 CircleF
2880 2484 CircleF
2880 2576 CircleF
2880 2576 CircleF
2880 2667 CircleF
2880 2667 CircleF
2880 2759 CircleF
3119 2759 CircleF
3119 2851 CircleF
3119 2851 CircleF
3119 2943 CircleF
3119 2943 CircleF
3119 3035 CircleF
3119 3035 CircleF
3119 3126 CircleF
3358 3126 CircleF
3358 3218 CircleF
3358 3218 CircleF
3358 3310 CircleF
5153 3310 CircleF
5153 3402 CircleF
5153 3402 CircleF
5153 3494 CircleF
5153 3494 CircleF
5153 3586 CircleF
5751 3586 CircleF
5751 3677 CircleF
5870 3677 CircleF
5870 3769 CircleF
6110 3769 CircleF
6110 3861 CircleF
6110 3861 CircleF
6110 3953 CircleF
6110 3953 CircleF
6110 4045 CircleF
6110 4045 CircleF
6110 4136 CircleF
6110 4136 CircleF
6110 4228 CircleF
6588 4228 CircleF
6588 4320 CircleF
6708 4320 CircleF
6708 4412 CircleF
6708 4412 CircleF
6708 4504 CircleF
6708 4504 CircleF
6708 4596 CircleF
6708 4596 CircleF
6708 4687 CircleF
6708 4687 CircleF
6708 4779 CircleF
% End plot #1
% Begin plot #2
1.500 UP
2.000 UL
LT0
1.00 0.55 0.00 C /Helvetica findfont 140 scalefont setfont
1530 764 M
119 92 V
1112 317 M
119 91 V
3524 3841 M
119 92 V
2117 1852 M
119 92 V
4311 3713 M
120 92 V
2002 544 M
119 92 V
4582 4634 M
120 91 V
2766 433 M
119 92 V
6629 3397 M
119 92 V
4955 4107 M
119 92 V
6605 2795 M
119 92 V
3348 635 M
119 92 V
895 3449 R
120 92 V
3083 438 M
120 92 V
5565 2389 M
119 92 V
1776 4122 M
119 92 V
4519 -42 R
119 92 V
3500 1188 M
120 91 V
5674 3175 M
119 92 V
4052 2756 M
119 92 V
5719 789 M
120 92 V
4529 4016 M
120 92 V
197 -835 R
120 91 V
5289 1223 M
119 92 V
2319 2830 M
119 92 V
5827 1057 M
120 91 V
2627 1788 M
120 92 V
5889 1236 M
120 92 V
2926 3971 M
119 92 V
4016 2019 M
119 92 V
6604 1814 M
119 92 V
3950 822 M
120 91 V
1836 1032 M
120 91 V
374 2231 R
119 92 V
2843 1423 M
120 92 V
6416 1128 M
120 92 V
3114 4192 M
119 92 V
4309 3358 M
120 92 V
1954 907 R
120 91 V
5878 2343 M
119 92 V
352 1240 R
120 92 V
1407 1377 M
120 92 V
1148 2655 M
120 92 V
6652 1258 M
119 92 V
1117 1776 M
120 92 V
5712 439 M
120 92 V
5672 4232 M
120 92 V
-1216 0 R
119 92 V
5951 3379 M
119 91 V
1264 3353 M
120 92 V
6571 2789 M
120 92 V
2888 451 M
119 92 V
294 1088 R
119 92 V
stroke 3420 1723 M
2466 4212 M
120 92 V
3693 2778 M
120 92 V
1950 2777 M
120 92 V
-35 458 R
120 92 V
764 -941 R
120 92 V
4427 1653 M
119 92 V
2490 2429 M
119 92 V
6358 1547 M
120 92 V
5572 856 M
119 91 V
1726 2788 M
120 92 V
1276 3885 M
120 92 V
2696 704 M
120 91 V
1467 4221 M
120 92 V
4383 844 M
119 92 V
942 2018 R
119 92 V
1462 4039 M
120 92 V
947 -462 R
119 92 V
5992 3642 M
120 92 V
-16 -774 R
120 92 V
1351 3627 M
120 92 V
2574 376 R
120 92 V
3476 3726 M
119 92 V
2504 757 R
119 92 V
1025 1466 M
119 91 V
6552 403 M
120 92 V
5394 2602 M
120 92 V
2738 3438 M
120 92 V
4977 2922 M
119 92 V
4601 985 M
120 92 V
668 485 R
119 92 V
4501 608 M
119 92 V
4504 2839 M
120 92 V
6072 3953 M
119 92 V
4330 2730 M
119 92 V
2065 367 R
120 92 V
2850 2634 M
120 92 V
1612 1285 M
119 92 V
2303 446 M
119 92 V
5968 2661 M
120 92 V
2698 2960 M
120 91 V
4284 1514 M
119 92 V
24 2979 R
119 92 V
6105 4209 M
119 92 V
5322 3410 M
119 92 V
5315 891 M
120 91 V
2057 964 M
120 92 V
3721 931 M
119 91 V
6674 4334 M
120 92 V
5452 1709 M
120 92 V
2421 1677 M
120 92 V
619 1307 R
120 92 V
6558 481 M
119 92 V
stroke 6677 573 M
6447 489 M
120 92 V
3424 843 M
120 92 V
1758 2582 M
120 92 V
2123 87 R
120 92 V
2642 931 M
120 92 V
5245 3280 M
119 92 V
970 288 R
119 92 V
2091 1590 M
119 92 V
4065 930 R
120 92 V
2659 4599 M
120 92 V
6504 3809 M
119 92 V
3008 3679 M
120 91 V
3704 906 M
120 92 V
1178 1620 M
120 92 V
-286 901 R
120 92 V
6431 2265 M
119 92 V
6136 1356 M
120 92 V
-70 3079 R
120 92 V
1836 2724 M
119 92 V
5796 1747 M
119 92 V
1439 2974 M
119 92 V
168 -105 R
119 92 V
1556 2409 M
120 92 V
4640 968 R
120 92 V
6298 2590 M
120 92 V
4092 4351 M
119 91 V
4184 2617 M
120 91 V
4332 804 M
119 92 V
614 2490 R
120 92 V
993 -198 R
119 92 V
2233 1093 M
120 92 V
4872 2455 M
120 91 V
2390 339 M
120 92 V
4408 2544 M
120 92 V
2492 2302 M
119 92 V
5382 2281 M
119 92 V
3757 4195 M
120 92 V
5118 2940 M
120 92 V
-27 358 R
119 91 V
2163 4084 M
119 92 V
4271 3002 M
120 91 V
2580 970 M
120 92 V
546 1987 R
120 91 V
2531 327 R
120 92 V
3601 2914 M
119 92 V
695 1204 R
119 92 V
2105 828 M
120 92 V
594 1469 R
119 92 V
1266 2119 M
120 91 V
641 2118 R
120 92 V
4731 1071 M
120 91 V
463 1061 R
120 92 V
stroke 5434 2315 M
3434 2733 M
120 92 V
-488 137 R
120 92 V
6433 770 M
120 92 V
6145 3128 M
120 91 V
208 1406 R
120 92 V
5289 1114 M
119 92 V
2764 1843 M
119 92 V
1499 840 R
120 92 V
1863 0 R
120 92 V
2615 1522 M
119 92 V
5803 1179 M
119 92 V
1750 4168 M
120 92 V
4783 1613 M
120 92 V
4455 4460 M
120 92 V
5616 3851 M
120 92 V
296 -989 R
120 92 V
5282 4313 M
119 92 V
6186 2981 M
119 91 V
2259 697 M
120 92 V
3700 851 R
120 91 V
-761 711 R
119 92 V
-82 354 R
119 92 V
5874 1512 M
120 92 V
2116 4007 M
119 92 V
234 53 R
120 92 V
5498 655 M
120 92 V
2128 1546 M
120 92 V
5074 4398 M
119 92 V
6632 3223 M
120 92 V
2027 2962 M
119 92 V
6336 485 M
120 92 V
3631 4046 M
120 92 V
5105 2807 M
119 92 V
559 338 R
119 92 V
1066 2001 M
120 92 V
5312 1950 M
120 92 V
1963 507 M
120 92 V
3201 3825 M
120 91 V
2298 907 M
119 92 V
3508 3225 M
120 92 V
3310 614 M
119 92 V
4457 1844 M
119 92 V
3540 1277 M
120 92 V
2255 3594 M
119 92 V
5369 3193 M
120 92 V
4797 1425 M
120 91 V
6111 4345 M
119 92 V
2067 2469 M
119 92 V
6586 1100 M
119 92 V
1122 1694 M
119 92 V
2143 657 R
119 92 V
4885 4065 M
120 92 V
stroke 5005 4157 M
6156 3196 M
120 92 V
6132 2962 M
120 92 V
2174 1066 M
120 91 V
1302 4293 M
119 92 V
6033 2996 M
119 92 V
1091 4300 M
119 91 V
3479 554 M
120 91 V
-9 65 R
119 92 V
571 2458 R
119 92 V
2156 820 M
120 92 V
2037 3920 M
120 92 V
-595 565 R
120 92 V
1253 1945 M
120 92 V
768 -158 R
120 92 V
3082 703 M
120 92 V
6099 4029 M
119 91 V
1748 4355 M
120 92 V
3081 3221 M
120 91 V
-695 801 R
119 92 V
80 -97 R
120 92 V
5652 683 M
119 92 V
269 1088 R
119 92 V
5573 4352 M
119 92 V
5947 1852 M
120 92 V
4411 2231 M
120 92 V
3491 3280 M
119 92 V
2334 1497 M
120 92 V
4112 4312 M
119 92 V
3877 4205 M
120 92 V
3819 3093 M
120 92 V
3044 2274 M
120 92 V
1151 3191 M
120 91 V
5374 128 R
120 92 V
1341 4506 M
120 91 V
3817 431 M
120 91 V
2557 1713 M
119 91 V
222 869 R
120 91 V
-1664 24 R
119 92 V
175 683 R
120 92 V
5971 3342 M
120 91 V
5981 4589 M
119 92 V
5174 2922 M
119 92 V
6593 4542 M
120 92 V
2361 1751 M
120 92 V
1665 708 M
120 92 V
-762 784 R
120 92 V
5217 4247 M
119 92 V
3641 1359 M
120 92 V
6697 1041 M
120 91 V
1974 652 M
119 91 V
5688 2366 M
119 91 V
2584 369 M
120 92 V
stroke 2704 461 M
2054 3811 M
119 92 V
1425 771 R
119 92 V
-88 -172 R
119 92 V
2243 4231 M
120 92 V
2772 1461 M
119 92 V
718 600 R
120 92 V
5409 921 M
120 92 V
2274 817 M
120 92 V
-956 744 R
120 92 V
4982 3156 M
119 92 V
3958 3865 M
119 91 V
2940 608 M
119 92 V
6119 3163 M
120 92 V
1412 1792 M
120 92 V
4652 1568 M
120 92 V
4461 374 M
119 92 V
2132 2892 M
120 92 V
1119 2458 M
119 92 V
4609 2288 M
120 92 V
1666 1938 M
120 92 V
3246 1416 M
120 92 V
-183 489 R
119 92 V
2236 517 R
119 92 V
756 1935 R
119 92 V
3597 4466 M
119 92 V
4984 387 M
120 92 V
6472 3989 M
120 92 V
4867 1420 M
120 91 V
385 1643 R
120 92 V
3010 622 M
120 92 V
51 1508 R
119 91 V
2646 3851 M
120 92 V
2853 547 R
119 92 V
2123 2025 M
119 92 V
1260 1339 M
120 92 V
705 -83 R
120 92 V
6172 4157 M
120 92 V
5644 2017 M
120 92 V
4670 314 M
119 92 V
5791 2643 M
120 92 V
1948 1916 M
120 92 V
1748 410 M
120 92 V
5634 365 M
120 92 V
660 3735 R
119 91 V
2765 3856 M
119 91 V
3319 -97 R
119 92 V
5794 3033 M
119 91 V
329 -880 R
120 92 V
3495 1637 M
119 92 V
3449 429 M
120 92 V
6167 3946 M
120 91 V
4925 2023 M
120 91 V
stroke 5045 2114 M
1606 2874 M
120 91 V
1077 89 R
119 92 V
-64 -618 R
119 92 V
2601 366 R
119 92 V
3548 1792 M
119 92 V
2419 3858 M
119 92 V
6589 2222 M
120 92 V
3316 2790 M
120 92 V
589 -456 R
120 91 V
1935 3546 M
119 92 V
970 1281 M
119 92 V
5397 3573 M
119 92 V
6220 511 M
120 91 V
2703 4098 M
120 92 V
1675 2015 M
119 92 V
1341 4034 M
120 92 V
4379 63 R
119 92 V
4957 1452 M
120 92 V
2623 1403 M
120 92 V
2524 4115 M
120 92 V
1702 3530 M
119 92 V
3104 608 M
119 92 V
1737 4437 M
120 92 V
4482 1614 M
120 92 V
5072 903 M
119 92 V
2357 3059 M
120 92 V
2067 2178 M
119 91 V
51 1580 R
120 92 V
3930 1920 M
119 92 V
5433 4113 M
120 92 V
6237 2244 M
119 91 V
6016 1611 M
120 92 V
5517 1556 M
120 92 V
-4631 45 R
120 91 V
26 65 R
120 91 V
5659 4631 M
120 92 V
1374 1693 M
120 92 V
5759 419 M
119 92 V
3307 1580 M
120 92 V
3138 322 R
119 92 V
2598 703 M
120 91 V
5121 3781 M
120 92 V
1001 3463 M
119 92 V
6018 341 M
120 92 V
392 1177 R
119 92 V
2040 4017 M
120 92 V
-899 40 R
120 92 V
3152 442 R
120 91 V
994 422 M
119 92 V
6289 1571 M
120 92 V
5320 4352 M
119 92 V
2498 3267 M
120 91 V
stroke 2618 3358 M
1510 3320 M
120 91 V
2630 2115 M
119 92 V
4117 1654 M
119 92 V
227 2129 R
120 92 V
4124 2716 M
120 92 V
-3216 13 R
120 91 V
286 963 R
119 92 V
3355 2207 M
120 92 V
4540 874 M
120 92 V
1165 2378 M
120 92 V
2475 3652 M
120 91 V
3286 1537 M
120 92 V
828 2160 R
120 92 V
2038 3434 M
120 92 V
3884 2983 M
120 92 V
5263 2171 M
120 92 V
2363 916 M
120 92 V
-266 44 R
119 92 V
2589 355 R
120 92 V
4761 344 M
120 92 V
108 3452 R
120 92 V
397 156 R
120 92 V
1005 2163 M
120 92 V
4835 3927 M
120 92 V
1510 292 M
119 92 V
6149 1960 M
120 91 V
2345 296 M
119 92 V
636 947 R
120 92 V
5589 4309 M
120 92 V
4804 3648 M
119 91 V
133 -473 R
119 92 V
4849 2814 M
119 92 V
-904 203 R
119 92 V
2619 1383 M
120 92 V
5853 4009 M
120 92 V
3811 4315 M
119 92 V
5868 1455 M
119 91 V
3140 445 M
119 92 V
588 579 R
119 92 V
2333 2336 M
119 92 V
3833 371 M
120 91 V
5461 4279 M
119 92 V
2626 1440 M
120 92 V
6413 3598 M
119 92 V
2529 3564 M
119 92 V
1342 -92 R
119 91 V
3445 838 M
119 92 V
2729 4388 M
119 92 V
3854 2580 M
120 92 V
5040 2349 M
119 92 V
6397 1002 M
119 92 V
1249 4509 M
119 92 V
stroke 1368 4601 M
5577 2124 M
120 92 V
3260 2382 M
120 92 V
3123 1290 M
119 92 V
1494 953 R
119 92 V
5720 1149 M
119 92 V
1049 656 M
120 92 V
2790 722 M
120 92 V
5569 4012 M
119 91 V
5881 395 M
119 92 V
3742 3856 M
120 91 V
-328 605 R
119 92 V
5938 3562 M
120 92 V
6388 1241 M
119 91 V
2173 459 M
119 92 V
4887 2616 M
119 91 V
4568 4533 M
120 92 V
4451 1746 M
120 92 V
171 2402 R
120 92 V
3845 316 M
119 92 V
1778 4607 M
120 92 V
2353 596 M
120 92 V
6166 3803 M
119 92 V
4448 3016 M
120 92 V
2474 2296 M
120 92 V
2099 4153 M
119 92 V
4068 1612 M
120 92 V
6232 1259 M
119 92 V
1378 4241 M
119 92 V
4980 3925 M
119 92 V
1416 3870 M
120 92 V
1428 3397 M
120 92 V
3686 2950 M
119 91 V
6426 4222 M
119 91 V
1746 2512 M
120 91 V
5471 3667 M
119 92 V
6145 808 M
120 91 V
4261 1052 M
119 91 V
4352 281 M
119 92 V
6543 802 M
120 92 V
1292 942 M
119 92 V
-4 -469 R
120 92 V
649 2518 R
119 92 V
5961 1490 M
120 91 V
3002 2368 M
120 92 V
701 245 R
119 92 V
3063 4069 M
119 92 V
2379 371 R
120 92 V
3581 4060 M
120 92 V
-1209 71 R
120 92 V
5865 2774 M
120 92 V
4816 2170 M
120 92 V
1071 4088 M
119 92 V
stroke 1190 4180 M
6429 1503 M
120 92 V
6103 3880 M
120 92 V
-858 423 R
119 92 V
4261 3201 M
120 92 V
2945 2505 M
120 92 V
5891 3705 M
119 91 V
4242 3662 M
119 92 V
1616 985 M
119 92 V
1620 3805 M
119 91 V
3185 -23 R
119 91 V
1529 4198 M
119 92 V
167 373 R
120 92 V
4974 2810 M
119 92 V
5028 451 M
120 92 V
-123 838 R
119 92 V
1415 573 M
120 92 V
4932 4634 M
120 92 V
612 -415 R
120 92 V
556 -24 R
120 92 V
4712 2229 M
120 92 V
2856 941 M
120 92 V
1848 4396 M
120 92 V
-253 99 R
119 92 V
5800 3068 M
120 91 V
78 855 R
120 92 V
3690 3057 M
120 92 V
5716 1780 M
120 91 V
2818 3329 M
119 92 V
2462 1490 M
120 92 V
1964 4491 M
119 92 V
2554 -90 R
119 92 V
5093 3323 M
119 91 V
3238 2873 M
120 92 V
2452 4453 M
119 92 V
3139 25 R
120 91 V
1107 3867 M
119 91 V
5894 3769 M
120 92 V
1945 2664 M
120 91 V
3645 4037 M
120 92 V
1780 612 M
120 92 V
6039 2732 M
120 92 V
5033 4576 M
120 92 V
2150 1847 M
120 92 V
3942 4609 M
120 92 V
6294 4201 M
120 92 V
6240 3370 M
120 91 V
6546 885 M
119 92 V
3128 1266 M
120 92 V
1475 2499 M
120 92 V
3640 961 R
120 91 V
6078 1554 M
119 92 V
2910 1152 M
119 92 V
stroke 3029 1244 M
2879 4372 M
120 92 V
3021 330 M
120 92 V
703 1793 R
120 92 V
5645 785 M
120 92 V
312 464 R
120 91 V
4346 1839 M
120 92 V
2291 3327 M
119 92 V
2901 1562 M
120 92 V
-822 67 R
119 91 V
5744 1357 M
119 92 V
1129 3676 M
119 92 V
4327 548 M
120 92 V
5734 4199 M
120 92 V
1825 4677 M
119 92 V
4200 1363 M
120 91 V
2423 3123 M
120 92 V
2108 383 M
120 91 V
1160 598 R
119 92 V
1411 4438 M
120 91 V
2499 3373 M
120 92 V
4477 907 M
120 92 V
2615 300 M
120 92 V
4227 3902 M
119 92 V
779 -453 R
120 92 V
2298 2883 M
119 91 V
4934 4228 M
120 92 V
-3567 42 R
119 91 V
5949 1473 M
119 92 V
2566 3702 M
119 92 V
4088 1300 M
120 92 V
1578 1292 M
120 92 V
3091 3071 M
119 92 V
1644 4465 M
120 92 V
1040 399 M
120 92 V
4215 3301 M
119 91 V
611 812 R
119 92 V
1001 2684 M
119 92 V
2144 475 M
120 92 V
2490 425 M
120 91 V
1981 1648 M
120 92 V
6460 386 M
119 92 V
1075 1018 M
119 92 V
2981 927 R
120 92 V
3006 3303 M
120 92 V
5709 1381 M
119 92 V
2310 3806 M
119 92 V
6664 2855 M
119 92 V
3372 2137 M
120 92 V
1947 354 M
120 92 V
795 3208 R
120 92 V
3286 524 M
120 91 V
2086 4482 M
119 92 V
stroke 2205 4574 M
1370 2664 M
120 92 V
3181 3956 M
120 92 V
2294 609 M
120 92 V
3506 -7 R
120 92 V
1261 4497 M
120 92 V
6075 727 M
120 92 V
3572 4316 M
120 92 V
6575 1821 M
120 91 V
-365 391 R
119 92 V
5535 1521 M
120 92 V
1892 3708 M
120 92 V
3256 1478 M
120 92 V
239 1258 R
119 92 V
2949 2691 M
120 92 V
3969 1717 M
119 92 V
1205 556 M
120 92 V
4579 2082 M
119 92 V
2935 715 M
119 92 V
6112 4230 M
119 92 V
4740 4228 M
120 92 V
6355 348 M
120 91 V
4990 1338 M
119 92 V
1416 1075 M
120 92 V
1840 44 R
120 91 V
1478 -88 R
120 92 V
4073 4043 M
120 92 V
4586 1069 M
120 91 V
2114 2143 M
119 92 V
3619 729 M
120 92 V
4086 627 M
120 92 V
5767 4092 M
119 91 V
5559 3510 M
120 91 V
3243 1513 M
120 92 V
2155 328 M
119 92 V
2558 696 R
120 91 V
4267 4235 M
119 92 V
5759 790 M
120 91 V
4114 3659 M
120 91 V
1115 2209 M
120 92 V
3186 4266 M
119 91 V
5443 3143 M
120 92 V
3290 4529 M
120 92 V
3914 3177 M
120 92 V
1173 374 M
119 92 V
3129 920 M
120 92 V
215 -82 R
119 92 V
5992 3921 M
120 92 V
3883 2187 M
120 92 V
5055 3433 M
119 92 V
1197 1463 M
120 92 V
5199 2803 M
120 92 V
359 1671 R
120 92 V
stroke 5798 4658 M
1029 2284 M
120 92 V
3969 1685 M
120 91 V
2200 447 R
119 91 V
4160 348 M
119 92 V
2027 2003 M
120 92 V
3856 940 R
120 92 V
2572 2027 M
120 91 V
351 1258 R
120 92 V
2143 1829 M
120 92 V
5079 3311 M
120 91 V
-104 187 R
120 92 V
140 -677 R
119 92 V
3436 499 M
119 91 V
-19 3023 R
120 92 V
3041 2898 M
119 92 V
5403 4565 M
120 92 V
823 -908 R
120 92 V
2780 3270 M
119 92 V
2944 763 M
120 92 V
5086 3666 M
120 91 V
4972 1842 M
119 91 V
4722 964 M
120 92 V
4223 874 M
120 91 V
6297 299 M
120 92 V
5085 4444 M
119 92 V
2995 549 M
120 92 V
3328 983 R
119 92 V
4857 3272 M
119 92 V
4641 3221 M
120 92 V
2629 3651 M
120 92 V
4420 2973 M
120 92 V
2492 543 M
120 92 V
1182 1721 M
119 92 V
2522 3594 M
120 92 V
4521 2093 M
120 92 V
4636 602 M
120 92 V
1227 4439 M
120 92 V
3336 3103 M
119 92 V
6572 2908 M
119 92 V
6475 2107 M
119 92 V
2539 634 M
120 92 V
5606 4187 M
119 91 V
4663 1995 M
120 92 V
3625 1288 M
119 92 V
5747 678 M
119 92 V
3724 3116 M
119 92 V
5944 4438 M
120 91 V
4137 3838 M
120 92 V
1620 4222 M
119 92 V
5517 3181 M
119 92 V
77 1297 R
119 91 V
4446 343 M
119 92 V
stroke 4565 435 M
214 2506 R
120 91 V
2329 3228 M
120 92 V
-454 -81 R
119 92 V
3906 409 R
120 91 V
4190 2222 M
120 92 V
2775 2670 M
120 92 V
5711 2065 M
120 92 V
-11 -154 R
120 92 V
2268 733 M
120 91 V
4488 3414 M
120 92 V
5253 2130 M
119 92 V
-3157 40 R
120 92 V
1505 599 M
119 92 V
6259 4185 M
120 92 V
4852 2962 M
119 92 V
1120 2308 M
119 92 V
5349 336 R
120 92 V
5010 3666 M
119 92 V
4965 1345 M
119 92 V
4605 637 M
120 92 V
1708 1680 M
119 91 V
3817 855 M
120 91 V
2395 4423 M
120 92 V
4560 803 M
120 92 V
908 3441 R
119 92 V
6617 612 M
120 91 V
4221 1587 M
120 92 V
3532 4554 M
120 92 V
1598 3616 M
120 91 V
6520 1058 M
120 92 V
3821 3940 M
119 92 V
3530 3311 M
120 92 V
283 836 R
120 92 V
2449 773 M
120 91 V
-41 1176 R
120 91 V
2978 522 R
119 92 V
1755 640 M
119 92 V
3990 492 R
119 92 V
3529 569 M
120 92 V
4667 4488 M
119 92 V
5843 3098 M
120 92 V
687 296 R
120 92 V
1602 492 M
120 92 V
5863 4109 M
119 92 V
2581 4570 M
119 92 V
1899 2659 M
119 91 V
4571 4597 M
119 92 V
1308 2155 M
120 92 V
4136 65 R
120 92 V
3943 1854 M
120 92 V
3660 1233 M
119 92 V
6137 3780 M
120 92 V
stroke 6257 3872 M
4305 1573 M
119 92 V
2746 1630 M
119 92 V
6404 3885 M
119 92 V
5541 898 M
119 92 V
5356 2634 M
120 92 V
6068 1139 M
120 92 V
5994 4576 M
120 91 V
3642 2730 M
119 92 V
-215 306 R
119 92 V
2495 2861 M
119 92 V
507 -411 R
119 91 V
4631 4037 M
120 92 V
2850 488 M
120 91 V
958 3706 R
120 92 V
-584 12 R
120 92 V
-2383 3 R
120 92 V
2805 79 R
120 92 V
388 -299 R
120 92 V
2814 294 M
120 92 V
745 4186 R
120 92 V
3926 650 M
120 92 V
936 343 R
119 92 V
4397 293 M
120 92 V
-26 473 R
119 92 V
6312 4486 M
120 92 V
986 1818 M
120 92 V
5998 3264 M
120 91 V
2639 1907 M
120 92 V
446 907 R
119 92 V
-992 242 R
120 92 V
3333 411 M
120 91 V
1610 950 R
119 91 V
3855 1748 M
120 92 V
2043 4647 M
120 92 V
3329 3276 M
120 92 V
4941 890 M
120 91 V
908 1750 R
119 92 V
1212 2744 M
120 92 V
1237 1501 M
119 91 V
3905 3546 M
119 92 V
459 143 R
120 92 V
2839 817 M
119 92 V
1648 3551 M
120 92 V
4114 3279 M
120 92 V
-214 46 R
119 92 V
5165 595 M
120 92 V
4418 2899 M
119 92 V
715 -278 R
120 92 V
4843 2627 M
120 92 V
2246 2179 M
120 92 V
4805 2156 M
120 92 V
-1797 17 R
119 92 V
stroke 3247 2357 M
1557 3158 M
120 91 V
3500 620 M
120 92 V
6541 4267 M
120 92 V
1388 1508 M
120 92 V
592 2449 R
120 92 V
3713 491 R
120 92 V
3838 288 M
119 92 V
2104 1101 M
120 92 V
165 2203 R
119 92 V
1201 2041 M
119 92 V
4368 665 M
120 92 V
887 549 R
119 92 V
3470 2307 M
119 92 V
3305 1073 M
119 92 V
5491 3762 M
119 92 V
2812 2948 M
119 92 V
6459 766 M
120 92 V
26 507 R
120 91 V
1862 3910 M
119 92 V
5963 1280 M
120 92 V
3092 2018 M
120 92 V
5780 4390 M
119 92 V
1717 1955 M
120 92 V
1684 3698 M
120 91 V
4832 1718 M
120 92 V
4221 4636 M
120 91 V
4255 2782 M
120 92 V
3727 4380 M
120 92 V
4466 2732 M
120 92 V
3556 4392 M
119 92 V
2071 940 M
120 92 V
5909 884 M
120 91 V
3437 2792 M
119 92 V
3308 2666 M
119 92 V
1586 1880 M
119 91 V
1269 3518 M
119 92 V
4666 3229 M
119 92 V
1252 3276 M
120 92 V
5947 4617 M
120 92 V
2815 4328 M
120 92 V
6157 3319 M
119 92 V
2768 1522 M
119 91 V
28 -623 R
119 91 V
4802 4142 M
119 92 V
6211 2503 M
120 92 V
6544 513 M
119 92 V
1029 3135 M
119 92 V
3317 619 R
120 92 V
5805 2699 M
119 91 V
341 1319 R
119 92 V
1040 3384 M
120 92 V
2202 3179 M
120 92 V
stroke 2322 3271 M
1554 4298 M
119 92 V
3003 4007 M
120 92 V
4299 3671 M
119 91 V
6104 3068 M
119 92 V
1433 2184 M
119 92 V
194 317 R
119 91 V
4868 334 M
120 91 V
4445 2575 M
120 92 V
-465 136 R
119 91 V
3269 2523 M
119 92 V
4408 982 M
120 92 V
1434 910 R
120 92 V
3766 3302 M
120 92 V
2006 4577 M
120 92 V
5012 1155 M
119 92 V
1160 4070 M
120 92 V
1082 3992 M
120 92 V
5017 701 M
120 92 V
3766 3094 M
119 92 V
-151 -30 R
120 92 V
2170 2400 M
120 92 V
5755 4655 M
120 92 V
5276 4545 M
119 92 V
5380 474 M
119 91 V
2856 2896 M
120 92 V
5984 567 M
120 91 V
597 2996 R
119 92 V
3166 2319 M
120 92 V
117 1648 R
120 92 V
5457 980 M
119 92 V
1399 3905 M
120 92 V
3181 936 M
119 92 V
2411 3037 M
120 92 V
727 -263 R
119 92 V
2812 1232 M
120 92 V
223 1780 R
120 92 V
620 -794 R
120 92 V
2142 1291 M
120 91 V
5549 4656 M
120 92 V
4932 518 M
120 92 V
4253 4480 M
119 92 V
5529 1853 M
119 92 V
2041 4465 M
120 92 V
6125 1161 M
119 91 V
1912 1434 M
119 92 V
6150 1378 M
120 91 V
-320 164 R
119 92 V
2899 1140 M
119 92 V
2209 250 R
120 92 V
4453 4221 M
120 91 V
1655 4085 M
119 92 V
2387 1748 M
120 92 V
stroke 2507 1840 M
674 633 R
119 92 V
2888 4373 M
119 91 V
5723 1872 M
119 91 V
-1242 73 R
119 91 V
1 2518 R
120 92 V
1200 1849 M
120 92 V
5224 314 R
120 91 V
6019 1086 M
119 92 V
4923 1858 M
119 91 V
6523 366 M
120 92 V
3939 1433 M
120 91 V
3240 1418 M
120 92 V
1198 630 R
119 92 V
805 -174 R
119 92 V
1175 4082 M
120 91 V
1351 334 R
120 92 V
1119 1026 M
120 92 V
5369 126 R
120 92 V
4389 4139 M
120 92 V
3385 3309 M
120 92 V
849 1252 R
120 92 V
3628 1657 M
120 91 V
5725 3852 M
120 92 V
2532 4150 M
119 92 V
5153 3975 M
119 92 V
4863 842 M
120 91 V
4365 4496 M
119 92 V
4404 1218 M
120 92 V
6612 3096 M
120 91 V
2236 2950 M
120 92 V
1582 1657 M
120 92 V
4670 394 M
120 91 V
1367 3959 M
120 92 V
3008 1192 M
120 91 V
414 -115 R
120 92 V
1007 2579 M
119 92 V
5030 241 R
119 92 V
5033 1338 M
119 91 V
1674 2800 M
120 92 V
5889 2335 M
120 92 V
5846 4118 M
120 91 V
2748 2755 M
119 91 V
4731 841 M
120 92 V
3110 4191 M
119 92 V
1616 4646 M
120 92 V
2071 2601 M
119 92 V
1583 2015 M
120 91 V
2253 112 R
120 92 V
2363 4297 M
119 92 V
4844 2052 M
120 92 V
1875 4050 M
120 92 V
1058 259 R
120 92 V
stroke 3173 4493 M
1570 1240 M
120 92 V
5644 3110 M
120 92 V
5488 4526 M
119 91 V
3409 4052 M
120 92 V
5756 3924 M
119 92 V
2024 3645 M
120 91 V
3159 1098 M
120 92 V
1000 4607 M
120 92 V
2992 3389 M
120 92 V
6692 1421 M
120 92 V
6113 504 M
120 92 V
1071 296 M
120 91 V
899 2689 R
119 92 V
1314 556 M
120 92 V
272 1371 R
119 92 V
6032 3907 M
120 92 V
6460 2439 M
120 91 V
2599 1058 M
119 92 V
1523 2546 M
119 91 V
5633 961 M
120 92 V
560 115 R
120 91 V
4324 3302 M
120 91 V
949 1044 R
120 92 V
1249 3202 M
120 91 V
6096 1172 M
119 91 V
1189 2330 M
120 92 V
4132 2092 M
120 92 V
2699 4291 M
120 92 V
2612 3938 M
120 92 V
1428 4365 M
119 92 V
3956 360 M
119 92 V
1748 583 M
120 92 V
5204 4207 M
120 92 V
6688 3721 M
119 92 V
5740 3956 M
120 92 V
-436 -65 R
119 91 V
2086 3165 M
120 91 V
5736 2038 M
120 92 V
213 463 R
119 92 V
6354 1118 M
120 92 V
3995 2167 M
120 91 V
1178 4346 M
120 92 V
4699 2414 M
120 92 V
2802 4020 M
120 92 V
3390 125 R
120 92 V
3921 3289 M
119 92 V
2820 2143 M
119 92 V
-822 418 R
120 92 V
1591 1882 M
119 92 V
177 585 R
119 92 V
1511 -73 R
119 92 V
1384 876 M
120 91 V
stroke 1504 967 M
3581 3869 M
120 92 V
3021 2113 M
120 92 V
4297 4527 M
120 92 V
6009 510 M
119 92 V
4408 4238 M
120 92 V
5821 3656 M
120 92 V
1290 1688 M
120 92 V
1321 825 M
119 91 V
5733 3594 M
120 91 V
1670 2548 M
120 92 V
2801 4574 M
119 92 V
1530 764 CircleF
1649 856 CircleF
1112 317 CircleF
1231 408 CircleF
3524 3841 CircleF
3643 3933 CircleF
2117 1852 CircleF
2236 1944 CircleF
4311 3713 CircleF
4431 3805 CircleF
2002 544 CircleF
2121 636 CircleF
4582 4634 CircleF
4702 4725 CircleF
2766 433 CircleF
2885 525 CircleF
6629 3397 CircleF
6748 3489 CircleF
4955 4107 CircleF
5074 4199 CircleF
6605 2795 CircleF
6724 2887 CircleF
3348 635 CircleF
3467 727 CircleF
4362 4176 CircleF
4482 4268 CircleF
3083 438 CircleF
3203 530 CircleF
5565 2389 CircleF
5684 2481 CircleF
1776 4122 CircleF
1895 4214 CircleF
6414 4172 CircleF
6533 4264 CircleF
3500 1188 CircleF
3620 1279 CircleF
5674 3175 CircleF
5793 3267 CircleF
4052 2756 CircleF
4171 2848 CircleF
5719 789 CircleF
5839 881 CircleF
4529 4016 CircleF
4649 4108 CircleF
4846 3273 CircleF
4966 3364 CircleF
5289 1223 CircleF
5408 1315 CircleF
2319 2830 CircleF
2438 2922 CircleF
5827 1057 CircleF
5947 1148 CircleF
2627 1788 CircleF
2747 1880 CircleF
5889 1236 CircleF
6009 1328 CircleF
2926 3971 CircleF
3045 4063 CircleF
4016 2019 CircleF
4135 2111 CircleF
6604 1814 CircleF
6723 1906 CircleF
3950 822 CircleF
4070 913 CircleF
1836 1032 CircleF
1956 1123 CircleF
2330 3354 CircleF
2449 3446 CircleF
2843 1423 CircleF
2963 1515 CircleF
6416 1128 CircleF
6536 1220 CircleF
3114 4192 CircleF
3233 4284 CircleF
4309 3358 CircleF
4429 3450 CircleF
6383 4357 CircleF
6503 4448 CircleF
5878 2343 CircleF
5997 2435 CircleF
6349 3675 CircleF
6469 3767 CircleF
1407 1377 CircleF
1527 1469 CircleF
1148 2655 CircleF
1268 2747 CircleF
6652 1258 CircleF
6771 1350 CircleF
1117 1776 CircleF
1237 1868 CircleF
5712 439 CircleF
5832 531 CircleF
5672 4232 CircleF
5792 4324 CircleF
4576 4324 CircleF
4695 4416 CircleF
5951 3379 CircleF
6070 3470 CircleF
1264 3353 CircleF
1384 3445 CircleF
6571 2789 CircleF
6691 2881 CircleF
2888 451 CircleF
3007 543 CircleF
3301 1631 CircleF
3420 1723 CircleF
2466 4212 CircleF
2586 4304 CircleF
3693 2778 CircleF
3813 2870 CircleF
1950 2777 CircleF
2070 2869 CircleF
2035 3327 CircleF
2155 3419 CircleF
2919 2478 CircleF
3039 2570 CircleF
4427 1653 CircleF
4546 1745 CircleF
2490 2429 CircleF
2609 2521 CircleF
6358 1547 CircleF
6478 1639 CircleF
5572 856 CircleF
5691 947 CircleF
1726 2788 CircleF
1846 2880 CircleF
1276 3885 CircleF
1396 3977 CircleF
2696 704 CircleF
2816 795 CircleF
1467 4221 CircleF
1587 4313 CircleF
4383 844 CircleF
4502 936 CircleF
5444 2954 CircleF
5563 3046 CircleF
1462 4039 CircleF
1582 4131 CircleF
2529 3669 CircleF
2648 3761 CircleF
5992 3642 CircleF
6112 3734 CircleF
6096 2960 CircleF
6216 3052 CircleF
1351 3627 CircleF
1471 3719 CircleF
4045 4095 CircleF
4165 4187 CircleF
3476 3726 CircleF
3595 3818 CircleF
6099 4575 CircleF
6218 4667 CircleF
1025 1466 CircleF
1144 1557 CircleF
6552 403 CircleF
6672 495 CircleF
5394 2602 CircleF
5514 2694 CircleF
2738 3438 CircleF
2858 3530 CircleF
4977 2922 CircleF
5096 3014 CircleF
4601 985 CircleF
4721 1077 CircleF
5389 1562 CircleF
5508 1654 CircleF
4501 608 CircleF
4620 700 CircleF
4504 2839 CircleF
4624 2931 CircleF
6072 3953 CircleF
6191 4045 CircleF
4330 2730 CircleF
4449 2822 CircleF
6514 3189 CircleF
6634 3281 CircleF
2850 2634 CircleF
2970 2726 CircleF
1612 1285 CircleF
1731 1377 CircleF
2303 446 CircleF
2422 538 CircleF
5968 2661 CircleF
6088 2753 CircleF
2698 2960 CircleF
2818 3051 CircleF
4284 1514 CircleF
4403 1606 CircleF
4427 4585 CircleF
4546 4677 CircleF
6105 4209 CircleF
6224 4301 CircleF
5322 3410 CircleF
5441 3502 CircleF
5315 891 CircleF
5435 982 CircleF
2057 964 CircleF
2177 1056 CircleF
3721 931 CircleF
3840 1022 CircleF
6674 4334 CircleF
6794 4426 CircleF
5452 1709 CircleF
5572 1801 CircleF
2421 1677 CircleF
2541 1769 CircleF
3160 3076 CircleF
3280 3168 CircleF
6558 481 CircleF
6677 573 CircleF
6447 489 CircleF
6567 581 CircleF
3424 843 CircleF
3544 935 CircleF
1758 2582 CircleF
1878 2674 CircleF
4001 2761 CircleF
4121 2853 CircleF
2642 931 CircleF
2762 1023 CircleF
5245 3280 CircleF
5364 3372 CircleF
6334 3660 CircleF
6453 3752 CircleF
2091 1590 CircleF
2210 1682 CircleF
6275 2612 CircleF
6395 2704 CircleF
2659 4599 CircleF
2779 4691 CircleF
6504 3809 CircleF
6623 3901 CircleF
3008 3679 CircleF
3128 3770 CircleF
3704 906 CircleF
3824 998 CircleF
1178 1620 CircleF
1298 1712 CircleF
1012 2613 CircleF
1132 2705 CircleF
6431 2265 CircleF
6550 2357 CircleF
6136 1356 CircleF
6256 1448 CircleF
6186 4527 CircleF
6306 4619 CircleF
1836 2724 CircleF
1955 2816 CircleF
5796 1747 CircleF
5915 1839 CircleF
1439 2974 CircleF
1558 3066 CircleF
1726 2961 CircleF
1845 3053 CircleF
1556 2409 CircleF
1676 2501 CircleF
6316 3469 CircleF
6436 3561 CircleF
6298 2590 CircleF
6418 2682 CircleF
4092 4351 CircleF
4211 4442 CircleF
4184 2617 CircleF
4304 2708 CircleF
4332 804 CircleF
4451 896 CircleF
5065 3386 CircleF
5185 3478 CircleF
6178 3280 CircleF
6297 3372 CircleF
2233 1093 CircleF
2353 1185 CircleF
4872 2455 CircleF
4992 2546 CircleF
2390 339 CircleF
2510 431 CircleF
4408 2544 CircleF
4528 2636 CircleF
2492 2302 CircleF
2611 2394 CircleF
5382 2281 CircleF
5501 2373 CircleF
3757 4195 CircleF
3877 4287 CircleF
5118 2940 CircleF
5238 3032 CircleF
5211 3390 CircleF
5330 3481 CircleF
2163 4084 CircleF
2282 4176 CircleF
4271 3002 CircleF
4391 3093 CircleF
2580 970 CircleF
2700 1062 CircleF
3246 3049 CircleF
3366 3140 CircleF
5897 3467 CircleF
6017 3559 CircleF
3601 2914 CircleF
3720 3006 CircleF
4415 4210 CircleF
4534 4302 CircleF
2105 828 CircleF
2225 920 CircleF
2819 2389 CircleF
2938 2481 CircleF
1266 2119 CircleF
1386 2210 CircleF
2027 4328 CircleF
2147 4420 CircleF
4731 1071 CircleF
4851 1162 CircleF
5314 2223 CircleF
5434 2315 CircleF
3434 2733 CircleF
3554 2825 CircleF
3066 2962 CircleF
3186 3054 CircleF
6433 770 CircleF
6553 862 CircleF
6145 3128 CircleF
6265 3219 CircleF
6473 4625 CircleF
6593 4717 CircleF
5289 1114 CircleF
5408 1206 CircleF
2764 1843 CircleF
2883 1935 CircleF
4382 2775 CircleF
4502 2867 CircleF
6365 2867 CircleF
6485 2959 CircleF
2615 1522 CircleF
2734 1614 CircleF
5803 1179 CircleF
5922 1271 CircleF
1750 4168 CircleF
1870 4260 CircleF
4783 1613 CircleF
4903 1705 CircleF
4455 4460 CircleF
4575 4552 CircleF
5616 3851 CircleF
5736 3943 CircleF
6032 2954 CircleF
6152 3046 CircleF
5282 4313 CircleF
5401 4405 CircleF
6186 2981 CircleF
6305 3072 CircleF
2259 697 CircleF
2379 789 CircleF
6079 1640 CircleF
6199 1731 CircleF
5438 2442 CircleF
5557 2534 CircleF
5475 2888 CircleF
5594 2980 CircleF
5874 1512 CircleF
5994 1604 CircleF
2116 4007 CircleF
2235 4099 CircleF
2469 4152 CircleF
2589 4244 CircleF
5498 655 CircleF
5618 747 CircleF
2128 1546 CircleF
2248 1638 CircleF
5074 4398 CircleF
5193 4490 CircleF
6632 3223 CircleF
6752 3315 CircleF
2027 2962 CircleF
2146 3054 CircleF
6336 485 CircleF
6456 577 CircleF
3631 4046 CircleF
3751 4138 CircleF
5105 2807 CircleF
5224 2899 CircleF
5783 3237 CircleF
5902 3329 CircleF
1066 2001 CircleF
1186 2093 CircleF
5312 1950 CircleF
5432 2042 CircleF
1963 507 CircleF
2083 599 CircleF
3201 3825 CircleF
3321 3916 CircleF
2298 907 CircleF
2417 999 CircleF
3508 3225 CircleF
3628 3317 CircleF
3310 614 CircleF
3429 706 CircleF
4457 1844 CircleF
4576 1936 CircleF
3540 1277 CircleF
3660 1369 CircleF
2255 3594 CircleF
2374 3686 CircleF
5369 3193 CircleF
5489 3285 CircleF
4797 1425 CircleF
4917 1516 CircleF
6111 4345 CircleF
6230 4437 CircleF
2067 2469 CircleF
2186 2561 CircleF
6586 1100 CircleF
6705 1192 CircleF
1122 1694 CircleF
1241 1786 CircleF
3384 2443 CircleF
3503 2535 CircleF
4885 4065 CircleF
5005 4157 CircleF
6156 3196 CircleF
6276 3288 CircleF
6132 2962 CircleF
6252 3054 CircleF
2174 1066 CircleF
2294 1157 CircleF
1302 4293 CircleF
1421 4385 CircleF
6033 2996 CircleF
6152 3088 CircleF
1091 4300 CircleF
1210 4391 CircleF
3479 554 CircleF
3599 645 CircleF
3590 710 CircleF
3709 802 CircleF
4280 3260 CircleF
4399 3352 CircleF
2156 820 CircleF
2276 912 CircleF
2037 3920 CircleF
2157 4012 CircleF
1562 4577 CircleF
1682 4669 CircleF
1253 1945 CircleF
1373 2037 CircleF
2141 1879 CircleF
2261 1971 CircleF
3082 703 CircleF
3202 795 CircleF
6099 4029 CircleF
6218 4120 CircleF
1748 4355 CircleF
1868 4447 CircleF
3081 3221 CircleF
3201 3312 CircleF
2506 4113 CircleF
2625 4205 CircleF
2705 4108 CircleF
2825 4200 CircleF
5652 683 CircleF
5771 775 CircleF
6040 1863 CircleF
6159 1955 CircleF
5573 4352 CircleF
5692 4444 CircleF
5947 1852 CircleF
6067 1944 CircleF
4411 2231 CircleF
4531 2323 CircleF
3491 3280 CircleF
3610 3372 CircleF
2334 1497 CircleF
2454 1589 CircleF
4112 4312 CircleF
4231 4404 CircleF
3877 4205 CircleF
3997 4297 CircleF
3819 3093 CircleF
3939 3185 CircleF
3044 2274 CircleF
3164 2366 CircleF
1151 3191 CircleF
1271 3282 CircleF
6645 3410 CircleF
6765 3502 CircleF
1341 4506 CircleF
1461 4597 CircleF
3817 431 CircleF
3937 522 CircleF
2557 1713 CircleF
2676 1804 CircleF
2898 2673 CircleF
3018 2764 CircleF
1354 2788 CircleF
1473 2880 CircleF
1648 3563 CircleF
1768 3655 CircleF
5971 3342 CircleF
6091 3433 CircleF
5981 4589 CircleF
6100 4681 CircleF
5174 2922 CircleF
5293 3014 CircleF
6593 4542 CircleF
6713 4634 CircleF
2361 1751 CircleF
2481 1843 CircleF
1665 708 CircleF
1785 800 CircleF
1023 1584 CircleF
1143 1676 CircleF
5217 4247 CircleF
5336 4339 CircleF
3641 1359 CircleF
3761 1451 CircleF
6697 1041 CircleF
6817 1132 CircleF
1974 652 CircleF
2093 743 CircleF
5688 2366 CircleF
5807 2457 CircleF
2584 369 CircleF
2704 461 CircleF
2054 3811 CircleF
2173 3903 CircleF
3598 4674 CircleF
3717 4766 CircleF
3629 4594 CircleF
3748 4686 CircleF
2243 4231 CircleF
2363 4323 CircleF
2772 1461 CircleF
2891 1553 CircleF
3609 2153 CircleF
3729 2245 CircleF
5409 921 CircleF
5529 1013 CircleF
2274 817 CircleF
2394 909 CircleF
1438 1653 CircleF
1558 1745 CircleF
4982 3156 CircleF
5101 3248 CircleF
3958 3865 CircleF
4077 3956 CircleF
2940 608 CircleF
3059 700 CircleF
6119 3163 CircleF
6239 3255 CircleF
1412 1792 CircleF
1532 1884 CircleF
4652 1568 CircleF
4772 1660 CircleF
4461 374 CircleF
4580 466 CircleF
2132 2892 CircleF
2252 2984 CircleF
1119 2458 CircleF
1238 2550 CircleF
4609 2288 CircleF
4729 2380 CircleF
1666 1938 CircleF
1786 2030 CircleF
3246 1416 CircleF
3366 1508 CircleF
3183 1997 CircleF
3302 2089 CircleF
5538 2606 CircleF
5657 2698 CircleF
6413 4633 CircleF
6532 4725 CircleF
3597 4466 CircleF
3716 4558 CircleF
4984 387 CircleF
5104 479 CircleF
6472 3989 CircleF
6592 4081 CircleF
4867 1420 CircleF
4987 1511 CircleF
5372 3154 CircleF
5492 3246 CircleF
3010 622 CircleF
3130 714 CircleF
3181 2222 CircleF
3300 2313 CircleF
2646 3851 CircleF
2766 3943 CircleF
5619 4490 CircleF
5738 4582 CircleF
2123 2025 CircleF
2242 2117 CircleF
1260 1339 CircleF
1380 1431 CircleF
2085 1348 CircleF
2205 1440 CircleF
6172 4157 CircleF
6292 4249 CircleF
5644 2017 CircleF
5764 2109 CircleF
4670 314 CircleF
4789 406 CircleF
5791 2643 CircleF
5911 2735 CircleF
1948 1916 CircleF
2068 2008 CircleF
1748 410 CircleF
1868 502 CircleF
5634 365 CircleF
5754 457 CircleF
6414 4192 CircleF
6533 4283 CircleF
2765 3856 CircleF
2884 3947 CircleF
6203 3850 CircleF
6322 3942 CircleF
5794 3033 CircleF
5913 3124 CircleF
6242 2244 CircleF
6362 2336 CircleF
3495 1637 CircleF
3614 1729 CircleF
3449 429 CircleF
3569 521 CircleF
6167 3946 CircleF
6287 4037 CircleF
4925 2023 CircleF
5045 2114 CircleF
1606 2874 CircleF
1726 2965 CircleF
2803 3054 CircleF
2922 3146 CircleF
2858 2528 CircleF
2977 2620 CircleF
5578 2986 CircleF
5697 3078 CircleF
3548 1792 CircleF
3667 1884 CircleF
2419 3858 CircleF
2538 3950 CircleF
6589 2222 CircleF
6709 2314 CircleF
3316 2790 CircleF
3436 2882 CircleF
4025 2426 CircleF
4145 2517 CircleF
1935 3546 CircleF
2054 3638 CircleF
970 1281 CircleF
1089 1373 CircleF
5397 3573 CircleF
5516 3665 CircleF
6220 511 CircleF
6340 602 CircleF
2703 4098 CircleF
2823 4190 CircleF
1675 2015 CircleF
1794 2107 CircleF
1341 4034 CircleF
1461 4126 CircleF
5840 4189 CircleF
5959 4281 CircleF
4957 1452 CircleF
5077 1544 CircleF
2623 1403 CircleF
2743 1495 CircleF
2524 4115 CircleF
2644 4207 CircleF
1702 3530 CircleF
1821 3622 CircleF
3104 608 CircleF
3223 700 CircleF
1737 4437 CircleF
1857 4529 CircleF
4482 1614 CircleF
4602 1706 CircleF
5072 903 CircleF
5191 995 CircleF
2357 3059 CircleF
2477 3151 CircleF
2067 2178 CircleF
2186 2269 CircleF
2237 3849 CircleF
2357 3941 CircleF
3930 1920 CircleF
4049 2012 CircleF
5433 4113 CircleF
5553 4205 CircleF
6237 2244 CircleF
6356 2335 CircleF
6016 1611 CircleF
6136 1703 CircleF
5517 1556 CircleF
5637 1648 CircleF
1006 1693 CircleF
1126 1784 CircleF
1152 1849 CircleF
1272 1940 CircleF
5659 4631 CircleF
5779 4723 CircleF
1374 1693 CircleF
1494 1785 CircleF
5759 419 CircleF
5878 511 CircleF
3307 1580 CircleF
3427 1672 CircleF
6565 1994 CircleF
6684 2086 CircleF
2598 703 CircleF
2718 794 CircleF
5121 3781 CircleF
5241 3873 CircleF
1001 3463 CircleF
1120 3555 CircleF
6018 341 CircleF
6138 433 CircleF
6530 1610 CircleF
6649 1702 CircleF
2040 4017 CircleF
2160 4109 CircleF
1261 4149 CircleF
1381 4241 CircleF
4533 4683 CircleF
4653 4774 CircleF
994 422 CircleF
1113 514 CircleF
6289 1571 CircleF
6409 1663 CircleF
5320 4352 CircleF
5439 4444 CircleF
2498 3267 CircleF
2618 3358 CircleF
1510 3320 CircleF
1630 3411 CircleF
2630 2115 CircleF
2749 2207 CircleF
4117 1654 CircleF
4236 1746 CircleF
4463 3875 CircleF
4583 3967 CircleF
4124 2716 CircleF
4244 2808 CircleF
1028 2821 CircleF
1148 2912 CircleF
1434 3875 CircleF
1553 3967 CircleF
3355 2207 CircleF
3475 2299 CircleF
4540 874 CircleF
4660 966 CircleF
1165 2378 CircleF
1285 2470 CircleF
2475 3652 CircleF
2595 3743 CircleF
3286 1537 CircleF
3406 1629 CircleF
4234 3789 CircleF
4354 3881 CircleF
2038 3434 CircleF
2158 3526 CircleF
3884 2983 CircleF
4004 3075 CircleF
5263 2171 CircleF
5383 2263 CircleF
2363 916 CircleF
2483 1008 CircleF
2217 1052 CircleF
2336 1144 CircleF
4925 1499 CircleF
5045 1591 CircleF
4761 344 CircleF
4881 436 CircleF
4989 3888 CircleF
5109 3980 CircleF
5506 4136 CircleF
5626 4228 CircleF
1005 2163 CircleF
1125 2255 CircleF
4835 3927 CircleF
4955 4019 CircleF
1510 292 CircleF
1629 384 CircleF
6149 1960 CircleF
6269 2051 CircleF
2345 296 CircleF
2464 388 CircleF
3100 1335 CircleF
3220 1427 CircleF
5589 4309 CircleF
5709 4401 CircleF
4804 3648 CircleF
4923 3739 CircleF
5056 3266 CircleF
5175 3358 CircleF
4849 2814 CircleF
4968 2906 CircleF
4064 3109 CircleF
4183 3201 CircleF
2619 1383 CircleF
2739 1475 CircleF
5853 4009 CircleF
5973 4101 CircleF
3811 4315 CircleF
3930 4407 CircleF
5868 1455 CircleF
5987 1546 CircleF
3140 445 CircleF
3259 537 CircleF
3847 1116 CircleF
3966 1208 CircleF
2333 2336 CircleF
2452 2428 CircleF
3833 371 CircleF
3953 462 CircleF
5461 4279 CircleF
5580 4371 CircleF
2626 1440 CircleF
2746 1532 CircleF
6413 3598 CircleF
6532 3690 CircleF
2529 3564 CircleF
2648 3656 CircleF
3990 3564 CircleF
4109 3655 CircleF
3445 838 CircleF
3564 930 CircleF
2729 4388 CircleF
2848 4480 CircleF
3854 2580 CircleF
3974 2672 CircleF
5040 2349 CircleF
5159 2441 CircleF
6397 1002 CircleF
6516 1094 CircleF
1249 4509 CircleF
1368 4601 CircleF
5577 2124 CircleF
5697 2216 CircleF
3260 2382 CircleF
3380 2474 CircleF
3123 1290 CircleF
3242 1382 CircleF
4736 2335 CircleF
4855 2427 CircleF
5720 1149 CircleF
5839 1241 CircleF
1049 656 CircleF
1169 748 CircleF
2790 722 CircleF
2910 814 CircleF
5569 4012 CircleF
5688 4103 CircleF
5881 395 CircleF
6000 487 CircleF
3742 3856 CircleF
3862 3947 CircleF
3534 4552 CircleF
3653 4644 CircleF
5938 3562 CircleF
6058 3654 CircleF
6388 1241 CircleF
6507 1332 CircleF
2173 459 CircleF
2292 551 CircleF
4887 2616 CircleF
5006 2707 CircleF
4568 4533 CircleF
4688 4625 CircleF
4451 1746 CircleF
4571 1838 CircleF
4742 4240 CircleF
4862 4332 CircleF
3845 316 CircleF
3964 408 CircleF
1778 4607 CircleF
1898 4699 CircleF
2353 596 CircleF
2473 688 CircleF
6166 3803 CircleF
6285 3895 CircleF
4448 3016 CircleF
4568 3108 CircleF
2474 2296 CircleF
2594 2388 CircleF
2099 4153 CircleF
2218 4245 CircleF
4068 1612 CircleF
4188 1704 CircleF
6232 1259 CircleF
6351 1351 CircleF
1378 4241 CircleF
1497 4333 CircleF
4980 3925 CircleF
5099 4017 CircleF
1416 3870 CircleF
1536 3962 CircleF
1428 3397 CircleF
1548 3489 CircleF
3686 2950 CircleF
3805 3041 CircleF
6426 4222 CircleF
6545 4313 CircleF
1746 2512 CircleF
1866 2603 CircleF
5471 3667 CircleF
5590 3759 CircleF
6145 808 CircleF
6265 899 CircleF
4261 1052 CircleF
4380 1143 CircleF
4352 281 CircleF
4471 373 CircleF
6543 802 CircleF
6663 894 CircleF
1292 942 CircleF
1411 1034 CircleF
1407 565 CircleF
1527 657 CircleF
2176 3175 CircleF
2295 3267 CircleF
5961 1490 CircleF
6081 1581 CircleF
3002 2368 CircleF
3122 2460 CircleF
3823 2705 CircleF
3942 2797 CircleF
3063 4069 CircleF
3182 4161 CircleF
5561 4532 CircleF
5681 4624 CircleF
3581 4060 CircleF
3701 4152 CircleF
2492 4223 CircleF
2612 4315 CircleF
5865 2774 CircleF
5985 2866 CircleF
4816 2170 CircleF
4936 2262 CircleF
1071 4088 CircleF
1190 4180 CircleF
6429 1503 CircleF
6549 1595 CircleF
6103 3880 CircleF
6223 3972 CircleF
5365 4395 CircleF
5484 4487 CircleF
4261 3201 CircleF
4381 3293 CircleF
2945 2505 CircleF
3065 2597 CircleF
5891 3705 CircleF
6010 3796 CircleF
4242 3662 CircleF
4361 3754 CircleF
1616 985 CircleF
1735 1077 CircleF
1620 3805 CircleF
1739 3896 CircleF
4924 3873 CircleF
5043 3964 CircleF
1529 4198 CircleF
1648 4290 CircleF
1815 4663 CircleF
1935 4755 CircleF
4974 2810 CircleF
5093 2902 CircleF
5028 451 CircleF
5148 543 CircleF
5025 1381 CircleF
5144 1473 CircleF
1415 573 CircleF
1535 665 CircleF
4932 4634 CircleF
5052 4726 CircleF
5664 4311 CircleF
5784 4403 CircleF
6340 4379 CircleF
6460 4471 CircleF
4712 2229 CircleF
4832 2321 CircleF
2856 941 CircleF
2976 1033 CircleF
1848 4396 CircleF
1968 4488 CircleF
1715 4587 CircleF
1834 4679 CircleF
5800 3068 CircleF
5920 3159 CircleF
5998 4014 CircleF
6118 4106 CircleF
3690 3057 CircleF
3810 3149 CircleF
5716 1780 CircleF
5836 1871 CircleF
2818 3329 CircleF
2937 3421 CircleF
2462 1490 CircleF
2582 1582 CircleF
1964 4491 CircleF
2083 4583 CircleF
4637 4493 CircleF
4756 4585 CircleF
5093 3323 CircleF
5212 3414 CircleF
3238 2873 CircleF
3358 2965 CircleF
2452 4453 CircleF
2571 4545 CircleF
5710 4570 CircleF
5830 4661 CircleF
1107 3867 CircleF
1226 3958 CircleF
5894 3769 CircleF
6014 3861 CircleF
1945 2664 CircleF
2065 2755 CircleF
3645 4037 CircleF
3765 4129 CircleF
1780 612 CircleF
1900 704 CircleF
6039 2732 CircleF
6159 2824 CircleF
5033 4576 CircleF
5153 4668 CircleF
2150 1847 CircleF
2270 1939 CircleF
3942 4609 CircleF
4062 4701 CircleF
6294 4201 CircleF
6414 4293 CircleF
6240 3370 CircleF
6360 3461 CircleF
6546 885 CircleF
6665 977 CircleF
3128 1266 CircleF
3248 1358 CircleF
1475 2499 CircleF
1595 2591 CircleF
5235 3552 CircleF
5355 3643 CircleF
6078 1554 CircleF
6197 1646 CircleF
2910 1152 CircleF
3029 1244 CircleF
2879 4372 CircleF
2999 4464 CircleF
3021 330 CircleF
3141 422 CircleF
3844 2215 CircleF
3964 2307 CircleF
5645 785 CircleF
5765 877 CircleF
6077 1341 CircleF
6197 1432 CircleF
4346 1839 CircleF
4466 1931 CircleF
2291 3327 CircleF
2410 3419 CircleF
2901 1562 CircleF
3021 1654 CircleF
2199 1721 CircleF
2318 1812 CircleF
5744 1357 CircleF
5863 1449 CircleF
1129 3676 CircleF
1248 3768 CircleF
4327 548 CircleF
4447 640 CircleF
5734 4199 CircleF
5854 4291 CircleF
1825 4677 CircleF
1944 4769 CircleF
4200 1363 CircleF
4320 1454 CircleF
2423 3123 CircleF
2543 3215 CircleF
2108 383 CircleF
2228 474 CircleF
3388 1072 CircleF
3507 1164 CircleF
1411 4438 CircleF
1531 4529 CircleF
2499 3373 CircleF
2619 3465 CircleF
4477 907 CircleF
4597 999 CircleF
2615 300 CircleF
2735 392 CircleF
4227 3902 CircleF
4346 3994 CircleF
5125 3541 CircleF
5245 3633 CircleF
2298 2883 CircleF
2417 2974 CircleF
4934 4228 CircleF
5054 4320 CircleF
1487 4362 CircleF
1606 4453 CircleF
5949 1473 CircleF
6068 1565 CircleF
2566 3702 CircleF
2685 3794 CircleF
4088 1300 CircleF
4208 1392 CircleF
1578 1292 CircleF
1698 1384 CircleF
3091 3071 CircleF
3210 3163 CircleF
1644 4465 CircleF
1764 4557 CircleF
1040 399 CircleF
1160 491 CircleF
4215 3301 CircleF
4334 3392 CircleF
4945 4204 CircleF
5064 4296 CircleF
1001 2684 CircleF
1120 2776 CircleF
2144 475 CircleF
2264 567 CircleF
2490 425 CircleF
2610 516 CircleF
1981 1648 CircleF
2101 1740 CircleF
6460 386 CircleF
6579 478 CircleF
1075 1018 CircleF
1194 1110 CircleF
4175 2037 CircleF
4295 2129 CircleF
3006 3303 CircleF
3126 3395 CircleF
5709 1381 CircleF
5828 1473 CircleF
2310 3806 CircleF
2429 3898 CircleF
6664 2855 CircleF
6783 2947 CircleF
3372 2137 CircleF
3492 2229 CircleF
1947 354 CircleF
2067 446 CircleF
2862 3654 CircleF
2982 3746 CircleF
3286 524 CircleF
3406 615 CircleF
2086 4482 CircleF
2205 4574 CircleF
1370 2664 CircleF
1490 2756 CircleF
3181 3956 CircleF
3301 4048 CircleF
2294 609 CircleF
2414 701 CircleF
5920 694 CircleF
6040 786 CircleF
1261 4497 CircleF
1381 4589 CircleF
6075 727 CircleF
6195 819 CircleF
3572 4316 CircleF
3692 4408 CircleF
6575 1821 CircleF
6695 1912 CircleF
6330 2303 CircleF
6449 2395 CircleF
5535 1521 CircleF
5655 1613 CircleF
1892 3708 CircleF
2012 3800 CircleF
3256 1478 CircleF
3376 1570 CircleF
3615 2828 CircleF
3734 2920 CircleF
2949 2691 CircleF
3069 2783 CircleF
3969 1717 CircleF
4088 1809 CircleF
1205 556 CircleF
1325 648 CircleF
4579 2082 CircleF
4698 2174 CircleF
2935 715 CircleF
3054 807 CircleF
6112 4230 CircleF
6231 4322 CircleF
4740 4228 CircleF
4860 4320 CircleF
6355 348 CircleF
6475 439 CircleF
4990 1338 CircleF
5109 1430 CircleF
1416 1075 CircleF
1536 1167 CircleF
3376 1211 CircleF
3496 1302 CircleF
4974 1214 CircleF
5094 1306 CircleF
4073 4043 CircleF
4193 4135 CircleF
4586 1069 CircleF
4706 1160 CircleF
2114 2143 CircleF
2233 2235 CircleF
3619 729 CircleF
3739 821 CircleF
4086 627 CircleF
4206 719 CircleF
5767 4092 CircleF
5886 4183 CircleF
5559 3510 CircleF
5679 3601 CircleF
3243 1513 CircleF
3363 1605 CircleF
2155 328 CircleF
2274 420 CircleF
4832 1116 CircleF
4952 1207 CircleF
4267 4235 CircleF
4386 4327 CircleF
5759 790 CircleF
5879 881 CircleF
4114 3659 CircleF
4234 3750 CircleF
1115 2209 CircleF
1235 2301 CircleF
3186 4266 CircleF
3305 4357 CircleF
5443 3143 CircleF
5563 3235 CircleF
3290 4529 CircleF
3410 4621 CircleF
3914 3177 CircleF
4034 3269 CircleF
1173 374 CircleF
1292 466 CircleF
3129 920 CircleF
3249 1012 CircleF
3464 930 CircleF
3583 1022 CircleF
5992 3921 CircleF
6112 4013 CircleF
3883 2187 CircleF
4003 2279 CircleF
5055 3433 CircleF
5174 3525 CircleF
1197 1463 CircleF
1317 1555 CircleF
5199 2803 CircleF
5319 2895 CircleF
5678 4566 CircleF
5798 4658 CircleF
1029 2284 CircleF
1149 2376 CircleF
3969 1685 CircleF
4089 1776 CircleF
6289 2223 CircleF
6408 2314 CircleF
4160 348 CircleF
4279 440 CircleF
2027 2003 CircleF
2147 2095 CircleF
6003 3035 CircleF
6123 3127 CircleF
2572 2027 CircleF
2692 2118 CircleF
3043 3376 CircleF
3163 3468 CircleF
2143 1829 CircleF
2263 1921 CircleF
5079 3311 CircleF
5199 3402 CircleF
5095 3589 CircleF
5215 3681 CircleF
5355 3004 CircleF
5474 3096 CircleF
3436 499 CircleF
3555 590 CircleF
3536 3613 CircleF
3656 3705 CircleF
3041 2898 CircleF
3160 2990 CircleF
5403 4565 CircleF
5523 4657 CircleF
6346 3749 CircleF
6466 3841 CircleF
2780 3270 CircleF
2899 3362 CircleF
2944 763 CircleF
3064 855 CircleF
5086 3666 CircleF
5206 3757 CircleF
4972 1842 CircleF
5091 1933 CircleF
4722 964 CircleF
4842 1056 CircleF
4223 874 CircleF
4343 965 CircleF
6297 299 CircleF
6417 391 CircleF
5085 4444 CircleF
5204 4536 CircleF
2995 549 CircleF
3115 641 CircleF
6443 1624 CircleF
6562 1716 CircleF
4857 3272 CircleF
4976 3364 CircleF
4641 3221 CircleF
4761 3313 CircleF
2629 3651 CircleF
2749 3743 CircleF
4420 2973 CircleF
4540 3065 CircleF
2492 543 CircleF
2612 635 CircleF
1182 1721 CircleF
1301 1813 CircleF
2522 3594 CircleF
2642 3686 CircleF
4521 2093 CircleF
4641 2185 CircleF
4636 602 CircleF
4756 694 CircleF
1227 4439 CircleF
1347 4531 CircleF
3336 3103 CircleF
3455 3195 CircleF
6572 2908 CircleF
6691 3000 CircleF
6475 2107 CircleF
6594 2199 CircleF
2539 634 CircleF
2659 726 CircleF
5606 4187 CircleF
5725 4278 CircleF
4663 1995 CircleF
4783 2087 CircleF
3625 1288 CircleF
3744 1380 CircleF
5747 678 CircleF
5866 770 CircleF
3724 3116 CircleF
3843 3208 CircleF
5944 4438 CircleF
6064 4529 CircleF
4137 3838 CircleF
4257 3930 CircleF
1620 4222 CircleF
1739 4314 CircleF
5517 3181 CircleF
5636 3273 CircleF
5713 4570 CircleF
5832 4661 CircleF
4446 343 CircleF
4565 435 CircleF
4779 2941 CircleF
4899 3032 CircleF
2329 3228 CircleF
2449 3320 CircleF
1995 3239 CircleF
2114 3331 CircleF
6020 3740 CircleF
6140 3831 CircleF
4190 2222 CircleF
4310 2314 CircleF
2775 2670 CircleF
2895 2762 CircleF
5711 2065 CircleF
5831 2157 CircleF
5820 2003 CircleF
5940 2095 CircleF
2268 733 CircleF
2388 824 CircleF
4488 3414 CircleF
4608 3506 CircleF
5253 2130 CircleF
5372 2222 CircleF
2215 2262 CircleF
2335 2354 CircleF
1505 599 CircleF
1624 691 CircleF
6259 4185 CircleF
6379 4277 CircleF
4852 2962 CircleF
4971 3054 CircleF
1120 2308 CircleF
1239 2400 CircleF
6588 2736 CircleF
6708 2828 CircleF
5010 3666 CircleF
5129 3758 CircleF
4965 1345 CircleF
5084 1437 CircleF
4605 637 CircleF
4725 729 CircleF
1708 1680 CircleF
1827 1771 CircleF
3817 855 CircleF
3937 946 CircleF
2395 4423 CircleF
2515 4515 CircleF
4560 803 CircleF
4680 895 CircleF
5588 4336 CircleF
5707 4428 CircleF
6617 612 CircleF
6737 703 CircleF
4221 1587 CircleF
4341 1679 CircleF
3532 4554 CircleF
3652 4646 CircleF
1598 3616 CircleF
1718 3707 CircleF
6520 1058 CircleF
6640 1150 CircleF
3821 3940 CircleF
3940 4032 CircleF
3530 3311 CircleF
3650 3403 CircleF
3933 4239 CircleF
4053 4331 CircleF
2449 773 CircleF
2569 864 CircleF
2528 2040 CircleF
2648 2131 CircleF
5626 2653 CircleF
5745 2745 CircleF
1755 640 CircleF
1874 732 CircleF
5864 1224 CircleF
5983 1316 CircleF
3529 569 CircleF
3649 661 CircleF
4667 4488 CircleF
4786 4580 CircleF
5843 3098 CircleF
5963 3190 CircleF
6650 3486 CircleF
6770 3578 CircleF
1602 492 CircleF
1722 584 CircleF
5863 4109 CircleF
5982 4201 CircleF
2581 4570 CircleF
2700 4662 CircleF
1899 2659 CircleF
2018 2750 CircleF
4571 4597 CircleF
4690 4689 CircleF
1308 2155 CircleF
1428 2247 CircleF
5564 2312 CircleF
5684 2404 CircleF
3943 1854 CircleF
4063 1946 CircleF
3660 1233 CircleF
3779 1325 CircleF
6137 3780 CircleF
6257 3872 CircleF
4305 1573 CircleF
4424 1665 CircleF
2746 1630 CircleF
2865 1722 CircleF
6404 3885 CircleF
6523 3977 CircleF
5541 898 CircleF
5660 990 CircleF
5356 2634 CircleF
5476 2726 CircleF
6068 1139 CircleF
6188 1231 CircleF
5994 4576 CircleF
6114 4667 CircleF
3642 2730 CircleF
3761 2822 CircleF
3546 3128 CircleF
3665 3220 CircleF
2495 2861 CircleF
2614 2953 CircleF
3121 2542 CircleF
3240 2633 CircleF
4631 4037 CircleF
4751 4129 CircleF
2850 488 CircleF
2970 579 CircleF
3928 4285 CircleF
4048 4377 CircleF
3464 4389 CircleF
3584 4481 CircleF
1201 4484 CircleF
1321 4576 CircleF
4126 4655 CircleF
4246 4747 CircleF
4634 4448 CircleF
4754 4540 CircleF
2814 294 CircleF
2934 386 CircleF
3679 4572 CircleF
3799 4664 CircleF
3926 650 CircleF
4046 742 CircleF
4982 1085 CircleF
5101 1177 CircleF
4397 293 CircleF
4517 385 CircleF
4491 858 CircleF
4610 950 CircleF
6312 4486 CircleF
6432 4578 CircleF
986 1818 CircleF
1106 1910 CircleF
5998 3264 CircleF
6118 3355 CircleF
2639 1907 CircleF
2759 1999 CircleF
3205 2906 CircleF
3324 2998 CircleF
2332 3240 CircleF
2452 3332 CircleF
3333 411 CircleF
3453 502 CircleF
5063 1452 CircleF
5182 1543 CircleF
3855 1748 CircleF
3975 1840 CircleF
2043 4647 CircleF
2163 4739 CircleF
3329 3276 CircleF
3449 3368 CircleF
4941 890 CircleF
5061 981 CircleF
5969 2731 CircleF
6088 2823 CircleF
1212 2744 CircleF
1332 2836 CircleF
1237 1501 CircleF
1356 1592 CircleF
3905 3546 CircleF
4024 3638 CircleF
4483 3781 CircleF
4603 3873 CircleF
2839 817 CircleF
2958 909 CircleF
1648 3551 CircleF
1768 3643 CircleF
4114 3279 CircleF
4234 3371 CircleF
4020 3417 CircleF
4139 3509 CircleF
5165 595 CircleF
5285 687 CircleF
4418 2899 CircleF
4537 2991 CircleF
5252 2713 CircleF
5372 2805 CircleF
4843 2627 CircleF
4963 2719 CircleF
2246 2179 CircleF
2366 2271 CircleF
4805 2156 CircleF
4925 2248 CircleF
3128 2265 CircleF
3247 2357 CircleF
1557 3158 CircleF
1677 3249 CircleF
3500 620 CircleF
3620 712 CircleF
6541 4267 CircleF
6661 4359 CircleF
1388 1508 CircleF
1508 1600 CircleF
2100 4049 CircleF
2220 4141 CircleF
5933 4632 CircleF
6053 4724 CircleF
3838 288 CircleF
3957 380 CircleF
2104 1101 CircleF
2224 1193 CircleF
2389 3396 CircleF
2508 3488 CircleF
1201 2041 CircleF
1320 2133 CircleF
4368 665 CircleF
4488 757 CircleF
5375 1306 CircleF
5494 1398 CircleF
3470 2307 CircleF
3589 2399 CircleF
3305 1073 CircleF
3424 1165 CircleF
5491 3762 CircleF
5610 3854 CircleF
2812 2948 CircleF
2931 3040 CircleF
6459 766 CircleF
6579 858 CircleF
6605 1365 CircleF
6725 1456 CircleF
1862 3910 CircleF
1981 4002 CircleF
5963 1280 CircleF
6083 1372 CircleF
3092 2018 CircleF
3212 2110 CircleF
5780 4390 CircleF
5899 4482 CircleF
1717 1955 CircleF
1837 2047 CircleF
1684 3698 CircleF
1804 3789 CircleF
4832 1718 CircleF
4952 1810 CircleF
4221 4636 CircleF
4341 4727 CircleF
4255 2782 CircleF
4375 2874 CircleF
3727 4380 CircleF
3847 4472 CircleF
4466 2732 CircleF
4586 2824 CircleF
3556 4392 CircleF
3675 4484 CircleF
2071 940 CircleF
2191 1032 CircleF
5909 884 CircleF
6029 975 CircleF
3437 2792 CircleF
3556 2884 CircleF
3308 2666 CircleF
3427 2758 CircleF
1586 1880 CircleF
1705 1971 CircleF
1269 3518 CircleF
1388 3610 CircleF
4666 3229 CircleF
4785 3321 CircleF
1252 3276 CircleF
1372 3368 CircleF
5947 4617 CircleF
6067 4709 CircleF
2815 4328 CircleF
2935 4420 CircleF
6157 3319 CircleF
6276 3411 CircleF
2768 1522 CircleF
2887 1613 CircleF
2915 990 CircleF
3034 1081 CircleF
4802 4142 CircleF
4921 4234 CircleF
6211 2503 CircleF
6331 2595 CircleF
6544 513 CircleF
6663 605 CircleF
1029 3135 CircleF
1148 3227 CircleF
4465 3846 CircleF
4585 3938 CircleF
5805 2699 CircleF
5924 2790 CircleF
6265 4109 CircleF
6384 4201 CircleF
1040 3384 CircleF
1160 3476 CircleF
2202 3179 CircleF
2322 3271 CircleF
1554 4298 CircleF
1673 4390 CircleF
3003 4007 CircleF
3123 4099 CircleF
4299 3671 CircleF
4418 3762 CircleF
6104 3068 CircleF
6223 3160 CircleF
1433 2184 CircleF
1552 2276 CircleF
1746 2593 CircleF
1865 2684 CircleF
4868 334 CircleF
4988 425 CircleF
4445 2575 CircleF
4565 2667 CircleF
4100 2803 CircleF
4219 2894 CircleF
3269 2523 CircleF
3388 2615 CircleF
4408 982 CircleF
4528 1074 CircleF
5962 1984 CircleF
6082 2076 CircleF
3766 3302 CircleF
3886 3394 CircleF
2006 4577 CircleF
2126 4669 CircleF
5012 1155 CircleF
5131 1247 CircleF
1160 4070 CircleF
1280 4162 CircleF
1082 3992 CircleF
1202 4084 CircleF
5017 701 CircleF
5137 793 CircleF
3766 3094 CircleF
3885 3186 CircleF
3734 3156 CircleF
3854 3248 CircleF
2170 2400 CircleF
2290 2492 CircleF
5755 4655 CircleF
5875 4747 CircleF
5276 4545 CircleF
5395 4637 CircleF
5380 474 CircleF
5499 565 CircleF
2856 2896 CircleF
2976 2988 CircleF
5984 567 CircleF
6104 658 CircleF
6701 3654 CircleF
6820 3746 CircleF
3166 2319 CircleF
3286 2411 CircleF
3403 4059 CircleF
3523 4151 CircleF
5457 980 CircleF
5576 1072 CircleF
1399 3905 CircleF
1519 3997 CircleF
3181 936 CircleF
3300 1028 CircleF
2411 3037 CircleF
2531 3129 CircleF
3258 2866 CircleF
3377 2958 CircleF
2812 1232 CircleF
2932 1324 CircleF
3155 3104 CircleF
3275 3196 CircleF
3895 2402 CircleF
4015 2494 CircleF
2142 1291 CircleF
2262 1382 CircleF
5549 4656 CircleF
5669 4748 CircleF
4932 518 CircleF
5052 610 CircleF
4253 4480 CircleF
4372 4572 CircleF
5529 1853 CircleF
5648 1945 CircleF
2041 4465 CircleF
2161 4557 CircleF
6125 1161 CircleF
6244 1252 CircleF
1912 1434 CircleF
2031 1526 CircleF
6150 1378 CircleF
6270 1469 CircleF
5950 1633 CircleF
6069 1725 CircleF
2899 1140 CircleF
3018 1232 CircleF
5227 1482 CircleF
5347 1574 CircleF
4453 4221 CircleF
4573 4312 CircleF
1655 4085 CircleF
1774 4177 CircleF
2387 1748 CircleF
2507 1840 CircleF
3181 2473 CircleF
3300 2565 CircleF
2888 4373 CircleF
3007 4464 CircleF
5723 1872 CircleF
5842 1963 CircleF
4600 2036 CircleF
4719 2127 CircleF
4720 4645 CircleF
4840 4737 CircleF
1200 1849 CircleF
1320 1941 CircleF
6544 2255 CircleF
6664 2346 CircleF
6019 1086 CircleF
6138 1178 CircleF
4923 1858 CircleF
5042 1949 CircleF
6523 366 CircleF
6643 458 CircleF
3939 1433 CircleF
4059 1524 CircleF
3240 1418 CircleF
3360 1510 CircleF
4558 2140 CircleF
4677 2232 CircleF
5482 2058 CircleF
5601 2150 CircleF
1175 4082 CircleF
1295 4173 CircleF
2646 4507 CircleF
2766 4599 CircleF
1119 1026 CircleF
1239 1118 CircleF
6608 1244 CircleF
6728 1336 CircleF
4389 4139 CircleF
4509 4231 CircleF
3385 3309 CircleF
3505 3401 CircleF
4354 4653 CircleF
4474 4745 CircleF
3628 1657 CircleF
3748 1748 CircleF
5725 3852 CircleF
5845 3944 CircleF
2532 4150 CircleF
2651 4242 CircleF
5153 3975 CircleF
5272 4067 CircleF
4863 842 CircleF
4983 933 CircleF
4365 4496 CircleF
4484 4588 CircleF
4404 1218 CircleF
4524 1310 CircleF
6612 3096 CircleF
6732 3187 CircleF
2236 2950 CircleF
2356 3042 CircleF
1582 1657 CircleF
1702 1749 CircleF
4670 394 CircleF
4790 485 CircleF
1367 3959 CircleF
1487 4051 CircleF
3008 1192 CircleF
3128 1283 CircleF
3542 1168 CircleF
3662 1260 CircleF
1007 2579 CircleF
1126 2671 CircleF
6156 2912 CircleF
6275 3004 CircleF
5033 1338 CircleF
5152 1429 CircleF
1674 2800 CircleF
1794 2892 CircleF
5889 2335 CircleF
6009 2427 CircleF
5846 4118 CircleF
5966 4209 CircleF
2748 2755 CircleF
2867 2846 CircleF
4731 841 CircleF
4851 933 CircleF
3110 4191 CircleF
3229 4283 CircleF
1616 4646 CircleF
1736 4738 CircleF
2071 2601 CircleF
2190 2693 CircleF
1583 2015 CircleF
1703 2106 CircleF
3956 2218 CircleF
4076 2310 CircleF
2363 4297 CircleF
2482 4389 CircleF
4844 2052 CircleF
4964 2144 CircleF
1875 4050 CircleF
1995 4142 CircleF
3053 4401 CircleF
3173 4493 CircleF
1570 1240 CircleF
1690 1332 CircleF
5644 3110 CircleF
5764 3202 CircleF
5488 4526 CircleF
5607 4617 CircleF
3409 4052 CircleF
3529 4144 CircleF
5756 3924 CircleF
5875 4016 CircleF
2024 3645 CircleF
2144 3736 CircleF
3159 1098 CircleF
3279 1190 CircleF
1000 4607 CircleF
1120 4699 CircleF
2992 3389 CircleF
3112 3481 CircleF
6692 1421 CircleF
6812 1513 CircleF
6113 504 CircleF
6233 596 CircleF
1071 296 CircleF
1191 387 CircleF
2090 3076 CircleF
2209 3168 CircleF
1314 556 CircleF
1434 648 CircleF
1706 2019 CircleF
1825 2111 CircleF
6032 3907 CircleF
6152 3999 CircleF
6460 2439 CircleF
6580 2530 CircleF
2599 1058 CircleF
2718 1150 CircleF
1523 2546 CircleF
1642 2637 CircleF
5633 961 CircleF
5753 1053 CircleF
6313 1168 CircleF
6433 1259 CircleF
4324 3302 CircleF
4444 3393 CircleF
5393 4437 CircleF
5513 4529 CircleF
1249 3202 CircleF
1369 3293 CircleF
6096 1172 CircleF
6215 1263 CircleF
1189 2330 CircleF
1309 2422 CircleF
4132 2092 CircleF
4252 2184 CircleF
2699 4291 CircleF
2819 4383 CircleF
2612 3938 CircleF
2732 4030 CircleF
1428 4365 CircleF
1547 4457 CircleF
3956 360 CircleF
4075 452 CircleF
1748 583 CircleF
1868 675 CircleF
5204 4207 CircleF
5324 4299 CircleF
6688 3721 CircleF
6807 3813 CircleF
5740 3956 CircleF
5860 4048 CircleF
5424 3983 CircleF
5543 4074 CircleF
2086 3165 CircleF
2206 3256 CircleF
5736 2038 CircleF
5856 2130 CircleF
6069 2593 CircleF
6188 2685 CircleF
6354 1118 CircleF
6474 1210 CircleF
3995 2167 CircleF
4115 2258 CircleF
1178 4346 CircleF
1298 4438 CircleF
4699 2414 CircleF
4819 2506 CircleF
2802 4020 CircleF
2922 4112 CircleF
6312 4237 CircleF
6432 4329 CircleF
3921 3289 CircleF
4040 3381 CircleF
2820 2143 CircleF
2939 2235 CircleF
2117 2653 CircleF
2237 2745 CircleF
1591 1882 CircleF
1710 1974 CircleF
1887 2559 CircleF
2006 2651 CircleF
3517 2578 CircleF
3636 2670 CircleF
1384 876 CircleF
1504 967 CircleF
3581 3869 CircleF
3701 3961 CircleF
3021 2113 CircleF
3141 2205 CircleF
4297 4527 CircleF
4417 4619 CircleF
6009 510 CircleF
6128 602 CircleF
4408 4238 CircleF
4528 4330 CircleF
5821 3656 CircleF
5941 3748 CircleF
1290 1688 CircleF
1410 1780 CircleF
1321 825 CircleF
1440 916 CircleF
5733 3594 CircleF
5853 3685 CircleF
1670 2548 CircleF
1790 2640 CircleF
2801 4574 CircleF
2920 4666 CircleF
% End plot #2
1.000 UP
1.000 UL
LT0
0.50 0.50 0.50 C stroke
grestore
end
showpage
%%Trailer
%%DocumentFonts: Helvetica
%%Pages: 1
