%!PS-Adobe-2.0
%%Title: out.ps
%%Creator: gnuplot 4.6 patchlevel 6
%%CreationDate: Thu May 28 15:46:51 2015
%%DocumentFonts: (atend)
%%BoundingBox: 50 50 554 770
%%Orientation: Landscape
%%Pages: (atend)
%%EndComments
%%BeginProlog
/gnudict 256 dict def
gnudict begin
%
% The following true/false flags may be edited by hand if desired.
% The unit line width and grayscale image gamma correction may also be changed.
%
/Color false def
/Blacktext false def
/Solid false def
/Dashlength 1 def
/Landscape true def
/Level1 false def
/Rounded false def
/ClipToBoundingBox false def
/SuppressPDFMark false def
/TransparentPatterns false def
/gnulinewidth 5.000 def
/userlinewidth gnulinewidth def
/Gamma 1.0 def
/BackgroundColor {-1.000 -1.000 -1.000} def
%
/vshift -46 def
/dl1 {
  10.0 Dashlength mul mul
  Rounded { currentlinewidth 0.75 mul sub dup 0 le { pop 0.01 } if } if
} def
/dl2 {
  10.0 Dashlength mul mul
  Rounded { currentlinewidth 0.75 mul add } if
} def
/hpt_ 31.5 def
/vpt_ 31.5 def
/hpt hpt_ def
/vpt vpt_ def
/doclip {
  ClipToBoundingBox {
    newpath 50 50 moveto 554 50 lineto 554 770 lineto 50 770 lineto closepath
    clip
  } if
} def
%
% Gnuplot Prolog Version 4.6 (September 2012)
%
%/SuppressPDFMark true def
%
/M {moveto} bind def
/L {lineto} bind def
/R {rmoveto} bind def
/V {rlineto} bind def
/N {newpath moveto} bind def
/Z {closepath} bind def
/C {setrgbcolor} bind def
/f {rlineto fill} bind def
/g {setgray} bind def
/Gshow {show} def   % May be redefined later in the file to support UTF-8
/vpt2 vpt 2 mul def
/hpt2 hpt 2 mul def
/Lshow {currentpoint stroke M 0 vshift R 
	Blacktext {gsave 0 setgray show grestore} {show} ifelse} def
/Rshow {currentpoint stroke M dup stringwidth pop neg vshift R
	Blacktext {gsave 0 setgray show grestore} {show} ifelse} def
/Cshow {currentpoint stroke M dup stringwidth pop -2 div vshift R 
	Blacktext {gsave 0 setgray show grestore} {show} ifelse} def
/UP {dup vpt_ mul /vpt exch def hpt_ mul /hpt exch def
  /hpt2 hpt 2 mul def /vpt2 vpt 2 mul def} def
/DL {Color {setrgbcolor Solid {pop []} if 0 setdash}
 {pop pop pop 0 setgray Solid {pop []} if 0 setdash} ifelse} def
/BL {stroke userlinewidth 2 mul setlinewidth
	Rounded {1 setlinejoin 1 setlinecap} if} def
/AL {stroke userlinewidth 2 div setlinewidth
	Rounded {1 setlinejoin 1 setlinecap} if} def
/UL {dup gnulinewidth mul /userlinewidth exch def
	dup 1 lt {pop 1} if 10 mul /udl exch def} def
/PL {stroke userlinewidth setlinewidth
	Rounded {1 setlinejoin 1 setlinecap} if} def
3.8 setmiterlimit
% Default Line colors
/LCw {1 1 1} def
/LCb {0 0 0} def
/LCa {0 0 0} def
/LC0 {1 0 0} def
/LC1 {0 1 0} def
/LC2 {0 0 1} def
/LC3 {1 0 1} def
/LC4 {0 1 1} def
/LC5 {1 1 0} def
/LC6 {0 0 0} def
/LC7 {1 0.3 0} def
/LC8 {0.5 0.5 0.5} def
% Default Line Types
/LTw {PL [] 1 setgray} def
/LTb {BL [] LCb DL} def
/LTa {AL [1 udl mul 2 udl mul] 0 setdash LCa setrgbcolor} def
/LT0 {PL [] LC0 DL} def
/LT1 {PL [4 dl1 2 dl2] LC1 DL} def
/LT2 {PL [2 dl1 3 dl2] LC2 DL} def
/LT3 {PL [1 dl1 1.5 dl2] LC3 DL} def
/LT4 {PL [6 dl1 2 dl2 1 dl1 2 dl2] LC4 DL} def
/LT5 {PL [3 dl1 3 dl2 1 dl1 3 dl2] LC5 DL} def
/LT6 {PL [2 dl1 2 dl2 2 dl1 6 dl2] LC6 DL} def
/LT7 {PL [1 dl1 2 dl2 6 dl1 2 dl2 1 dl1 2 dl2] LC7 DL} def
/LT8 {PL [2 dl1 2 dl2 2 dl1 2 dl2 2 dl1 2 dl2 2 dl1 4 dl2] LC8 DL} def
/Pnt {stroke [] 0 setdash gsave 1 setlinecap M 0 0 V stroke grestore} def
/Dia {stroke [] 0 setdash 2 copy vpt add M
  hpt neg vpt neg V hpt vpt neg V
  hpt vpt V hpt neg vpt V closepath stroke
  Pnt} def
/Pls {stroke [] 0 setdash vpt sub M 0 vpt2 V
  currentpoint stroke M
  hpt neg vpt neg R hpt2 0 V stroke
 } def
/Box {stroke [] 0 setdash 2 copy exch hpt sub exch vpt add M
  0 vpt2 neg V hpt2 0 V 0 vpt2 V
  hpt2 neg 0 V closepath stroke
  Pnt} def
/Crs {stroke [] 0 setdash exch hpt sub exch vpt add M
  hpt2 vpt2 neg V currentpoint stroke M
  hpt2 neg 0 R hpt2 vpt2 V stroke} def
/TriU {stroke [] 0 setdash 2 copy vpt 1.12 mul add M
  hpt neg vpt -1.62 mul V
  hpt 2 mul 0 V
  hpt neg vpt 1.62 mul V closepath stroke
  Pnt} def
/Star {2 copy Pls Crs} def
/BoxF {stroke [] 0 setdash exch hpt sub exch vpt add M
  0 vpt2 neg V hpt2 0 V 0 vpt2 V
  hpt2 neg 0 V closepath fill} def
/TriUF {stroke [] 0 setdash vpt 1.12 mul add M
  hpt neg vpt -1.62 mul V
  hpt 2 mul 0 V
  hpt neg vpt 1.62 mul V closepath fill} def
/TriD {stroke [] 0 setdash 2 copy vpt 1.12 mul sub M
  hpt neg vpt 1.62 mul V
  hpt 2 mul 0 V
  hpt neg vpt -1.62 mul V closepath stroke
  Pnt} def
/TriDF {stroke [] 0 setdash vpt 1.12 mul sub M
  hpt neg vpt 1.62 mul V
  hpt 2 mul 0 V
  hpt neg vpt -1.62 mul V closepath fill} def
/DiaF {stroke [] 0 setdash vpt add M
  hpt neg vpt neg V hpt vpt neg V
  hpt vpt V hpt neg vpt V closepath fill} def
/Pent {stroke [] 0 setdash 2 copy gsave
  translate 0 hpt M 4 {72 rotate 0 hpt L} repeat
  closepath stroke grestore Pnt} def
/PentF {stroke [] 0 setdash gsave
  translate 0 hpt M 4 {72 rotate 0 hpt L} repeat
  closepath fill grestore} def
/Circle {stroke [] 0 setdash 2 copy
  hpt 0 360 arc stroke Pnt} def
/CircleF {stroke [] 0 setdash hpt 0 360 arc fill} def
/C0 {BL [] 0 setdash 2 copy moveto vpt 90 450 arc} bind def
/C1 {BL [] 0 setdash 2 copy moveto
	2 copy vpt 0 90 arc closepath fill
	vpt 0 360 arc closepath} bind def
/C2 {BL [] 0 setdash 2 copy moveto
	2 copy vpt 90 180 arc closepath fill
	vpt 0 360 arc closepath} bind def
/C3 {BL [] 0 setdash 2 copy moveto
	2 copy vpt 0 180 arc closepath fill
	vpt 0 360 arc closepath} bind def
/C4 {BL [] 0 setdash 2 copy moveto
	2 copy vpt 180 270 arc closepath fill
	vpt 0 360 arc closepath} bind def
/C5 {BL [] 0 setdash 2 copy moveto
	2 copy vpt 0 90 arc
	2 copy moveto
	2 copy vpt 180 270 arc closepath fill
	vpt 0 360 arc} bind def
/C6 {BL [] 0 setdash 2 copy moveto
	2 copy vpt 90 270 arc closepath fill
	vpt 0 360 arc closepath} bind def
/C7 {BL [] 0 setdash 2 copy moveto
	2 copy vpt 0 270 arc closepath fill
	vpt 0 360 arc closepath} bind def
/C8 {BL [] 0 setdash 2 copy moveto
	2 copy vpt 270 360 arc closepath fill
	vpt 0 360 arc closepath} bind def
/C9 {BL [] 0 setdash 2 copy moveto
	2 copy vpt 270 450 arc closepath fill
	vpt 0 360 arc closepath} bind def
/C10 {BL [] 0 setdash 2 copy 2 copy moveto vpt 270 360 arc closepath fill
	2 copy moveto
	2 copy vpt 90 180 arc closepath fill
	vpt 0 360 arc closepath} bind def
/C11 {BL [] 0 setdash 2 copy moveto
	2 copy vpt 0 180 arc closepath fill
	2 copy moveto
	2 copy vpt 270 360 arc closepath fill
	vpt 0 360 arc closepath} bind def
/C12 {BL [] 0 setdash 2 copy moveto
	2 copy vpt 180 360 arc closepath fill
	vpt 0 360 arc closepath} bind def
/C13 {BL [] 0 setdash 2 copy moveto
	2 copy vpt 0 90 arc closepath fill
	2 copy moveto
	2 copy vpt 180 360 arc closepath fill
	vpt 0 360 arc closepath} bind def
/C14 {BL [] 0 setdash 2 copy moveto
	2 copy vpt 90 360 arc closepath fill
	vpt 0 360 arc} bind def
/C15 {BL [] 0 setdash 2 copy vpt 0 360 arc closepath fill
	vpt 0 360 arc closepath} bind def
/Rec {newpath 4 2 roll moveto 1 index 0 rlineto 0 exch rlineto
	neg 0 rlineto closepath} bind def
/Square {dup Rec} bind def
/Bsquare {vpt sub exch vpt sub exch vpt2 Square} bind def
/S0 {BL [] 0 setdash 2 copy moveto 0 vpt rlineto BL Bsquare} bind def
/S1 {BL [] 0 setdash 2 copy vpt Square fill Bsquare} bind def
/S2 {BL [] 0 setdash 2 copy exch vpt sub exch vpt Square fill Bsquare} bind def
/S3 {BL [] 0 setdash 2 copy exch vpt sub exch vpt2 vpt Rec fill Bsquare} bind def
/S4 {BL [] 0 setdash 2 copy exch vpt sub exch vpt sub vpt Square fill Bsquare} bind def
/S5 {BL [] 0 setdash 2 copy 2 copy vpt Square fill
	exch vpt sub exch vpt sub vpt Square fill Bsquare} bind def
/S6 {BL [] 0 setdash 2 copy exch vpt sub exch vpt sub vpt vpt2 Rec fill Bsquare} bind def
/S7 {BL [] 0 setdash 2 copy exch vpt sub exch vpt sub vpt vpt2 Rec fill
	2 copy vpt Square fill Bsquare} bind def
/S8 {BL [] 0 setdash 2 copy vpt sub vpt Square fill Bsquare} bind def
/S9 {BL [] 0 setdash 2 copy vpt sub vpt vpt2 Rec fill Bsquare} bind def
/S10 {BL [] 0 setdash 2 copy vpt sub vpt Square fill 2 copy exch vpt sub exch vpt Square fill
	Bsquare} bind def
/S11 {BL [] 0 setdash 2 copy vpt sub vpt Square fill 2 copy exch vpt sub exch vpt2 vpt Rec fill
	Bsquare} bind def
/S12 {BL [] 0 setdash 2 copy exch vpt sub exch vpt sub vpt2 vpt Rec fill Bsquare} bind def
/S13 {BL [] 0 setdash 2 copy exch vpt sub exch vpt sub vpt2 vpt Rec fill
	2 copy vpt Square fill Bsquare} bind def
/S14 {BL [] 0 setdash 2 copy exch vpt sub exch vpt sub vpt2 vpt Rec fill
	2 copy exch vpt sub exch vpt Square fill Bsquare} bind def
/S15 {BL [] 0 setdash 2 copy Bsquare fill Bsquare} bind def
/D0 {gsave translate 45 rotate 0 0 S0 stroke grestore} bind def
/D1 {gsave translate 45 rotate 0 0 S1 stroke grestore} bind def
/D2 {gsave translate 45 rotate 0 0 S2 stroke grestore} bind def
/D3 {gsave translate 45 rotate 0 0 S3 stroke grestore} bind def
/D4 {gsave translate 45 rotate 0 0 S4 stroke grestore} bind def
/D5 {gsave translate 45 rotate 0 0 S5 stroke grestore} bind def
/D6 {gsave translate 45 rotate 0 0 S6 stroke grestore} bind def
/D7 {gsave translate 45 rotate 0 0 S7 stroke grestore} bind def
/D8 {gsave translate 45 rotate 0 0 S8 stroke grestore} bind def
/D9 {gsave translate 45 rotate 0 0 S9 stroke grestore} bind def
/D10 {gsave translate 45 rotate 0 0 S10 stroke grestore} bind def
/D11 {gsave translate 45 rotate 0 0 S11 stroke grestore} bind def
/D12 {gsave translate 45 rotate 0 0 S12 stroke grestore} bind def
/D13 {gsave translate 45 rotate 0 0 S13 stroke grestore} bind def
/D14 {gsave translate 45 rotate 0 0 S14 stroke grestore} bind def
/D15 {gsave translate 45 rotate 0 0 S15 stroke grestore} bind def
/DiaE {stroke [] 0 setdash vpt add M
  hpt neg vpt neg V hpt vpt neg V
  hpt vpt V hpt neg vpt V closepath stroke} def
/BoxE {stroke [] 0 setdash exch hpt sub exch vpt add M
  0 vpt2 neg V hpt2 0 V 0 vpt2 V
  hpt2 neg 0 V closepath stroke} def
/TriUE {stroke [] 0 setdash vpt 1.12 mul add M
  hpt neg vpt -1.62 mul V
  hpt 2 mul 0 V
  hpt neg vpt 1.62 mul V closepath stroke} def
/TriDE {stroke [] 0 setdash vpt 1.12 mul sub M
  hpt neg vpt 1.62 mul V
  hpt 2 mul 0 V
  hpt neg vpt -1.62 mul V closepath stroke} def
/PentE {stroke [] 0 setdash gsave
  translate 0 hpt M 4 {72 rotate 0 hpt L} repeat
  closepath stroke grestore} def
/CircE {stroke [] 0 setdash 
  hpt 0 360 arc stroke} def
/Opaque {gsave closepath 1 setgray fill grestore 0 setgray closepath} def
/DiaW {stroke [] 0 setdash vpt add M
  hpt neg vpt neg V hpt vpt neg V
  hpt vpt V hpt neg vpt V Opaque stroke} def
/BoxW {stroke [] 0 setdash exch hpt sub exch vpt add M
  0 vpt2 neg V hpt2 0 V 0 vpt2 V
  hpt2 neg 0 V Opaque stroke} def
/TriUW {stroke [] 0 setdash vpt 1.12 mul add M
  hpt neg vpt -1.62 mul V
  hpt 2 mul 0 V
  hpt neg vpt 1.62 mul V Opaque stroke} def
/TriDW {stroke [] 0 setdash vpt 1.12 mul sub M
  hpt neg vpt 1.62 mul V
  hpt 2 mul 0 V
  hpt neg vpt -1.62 mul V Opaque stroke} def
/PentW {stroke [] 0 setdash gsave
  translate 0 hpt M 4 {72 rotate 0 hpt L} repeat
  Opaque stroke grestore} def
/CircW {stroke [] 0 setdash 
  hpt 0 360 arc Opaque stroke} def
/BoxFill {gsave Rec 1 setgray fill grestore} def
/Density {
  /Fillden exch def
  currentrgbcolor
  /ColB exch def /ColG exch def /ColR exch def
  /ColR ColR Fillden mul Fillden sub 1 add def
  /ColG ColG Fillden mul Fillden sub 1 add def
  /ColB ColB Fillden mul Fillden sub 1 add def
  ColR ColG ColB setrgbcolor} def
/BoxColFill {gsave Rec PolyFill} def
/PolyFill {gsave Density fill grestore grestore} def
/h {rlineto rlineto rlineto gsave closepath fill grestore} bind def
%
% PostScript Level 1 Pattern Fill routine for rectangles
% Usage: x y w h s a XX PatternFill
%	x,y = lower left corner of box to be filled
%	w,h = width and height of box
%	  a = angle in degrees between lines and x-axis
%	 XX = 0/1 for no/yes cross-hatch
%
/PatternFill {gsave /PFa [ 9 2 roll ] def
  PFa 0 get PFa 2 get 2 div add PFa 1 get PFa 3 get 2 div add translate
  PFa 2 get -2 div PFa 3 get -2 div PFa 2 get PFa 3 get Rec
  TransparentPatterns {} {gsave 1 setgray fill grestore} ifelse
  clip
  currentlinewidth 0.5 mul setlinewidth
  /PFs PFa 2 get dup mul PFa 3 get dup mul add sqrt def
  0 0 M PFa 5 get rotate PFs -2 div dup translate
  0 1 PFs PFa 4 get div 1 add floor cvi
	{PFa 4 get mul 0 M 0 PFs V} for
  0 PFa 6 get ne {
	0 1 PFs PFa 4 get div 1 add floor cvi
	{PFa 4 get mul 0 2 1 roll M PFs 0 V} for
 } if
  stroke grestore} def
%
/languagelevel where
 {pop languagelevel} {1} ifelse
 2 lt
	{/InterpretLevel1 true def}
	{/InterpretLevel1 Level1 def}
 ifelse
%
% PostScript level 2 pattern fill definitions
%
/Level2PatternFill {
/Tile8x8 {/PaintType 2 /PatternType 1 /TilingType 1 /BBox [0 0 8 8] /XStep 8 /YStep 8}
	bind def
/KeepColor {currentrgbcolor [/Pattern /DeviceRGB] setcolorspace} bind def
<< Tile8x8
 /PaintProc {0.5 setlinewidth pop 0 0 M 8 8 L 0 8 M 8 0 L stroke} 
>> matrix makepattern
/Pat1 exch def
<< Tile8x8
 /PaintProc {0.5 setlinewidth pop 0 0 M 8 8 L 0 8 M 8 0 L stroke
	0 4 M 4 8 L 8 4 L 4 0 L 0 4 L stroke}
>> matrix makepattern
/Pat2 exch def
<< Tile8x8
 /PaintProc {0.5 setlinewidth pop 0 0 M 0 8 L
	8 8 L 8 0 L 0 0 L fill}
>> matrix makepattern
/Pat3 exch def
<< Tile8x8
 /PaintProc {0.5 setlinewidth pop -4 8 M 8 -4 L
	0 12 M 12 0 L stroke}
>> matrix makepattern
/Pat4 exch def
<< Tile8x8
 /PaintProc {0.5 setlinewidth pop -4 0 M 8 12 L
	0 -4 M 12 8 L stroke}
>> matrix makepattern
/Pat5 exch def
<< Tile8x8
 /PaintProc {0.5 setlinewidth pop -2 8 M 4 -4 L
	0 12 M 8 -4 L 4 12 M 10 0 L stroke}
>> matrix makepattern
/Pat6 exch def
<< Tile8x8
 /PaintProc {0.5 setlinewidth pop -2 0 M 4 12 L
	0 -4 M 8 12 L 4 -4 M 10 8 L stroke}
>> matrix makepattern
/Pat7 exch def
<< Tile8x8
 /PaintProc {0.5 setlinewidth pop 8 -2 M -4 4 L
	12 0 M -4 8 L 12 4 M 0 10 L stroke}
>> matrix makepattern
/Pat8 exch def
<< Tile8x8
 /PaintProc {0.5 setlinewidth pop 0 -2 M 12 4 L
	-4 0 M 12 8 L -4 4 M 8 10 L stroke}
>> matrix makepattern
/Pat9 exch def
/Pattern1 {PatternBgnd KeepColor Pat1 setpattern} bind def
/Pattern2 {PatternBgnd KeepColor Pat2 setpattern} bind def
/Pattern3 {PatternBgnd KeepColor Pat3 setpattern} bind def
/Pattern4 {PatternBgnd KeepColor Landscape {Pat5} {Pat4} ifelse setpattern} bind def
/Pattern5 {PatternBgnd KeepColor Landscape {Pat4} {Pat5} ifelse setpattern} bind def
/Pattern6 {PatternBgnd KeepColor Landscape {Pat9} {Pat6} ifelse setpattern} bind def
/Pattern7 {PatternBgnd KeepColor Landscape {Pat8} {Pat7} ifelse setpattern} bind def
} def
%
%
%End of PostScript Level 2 code
%
/PatternBgnd {
  TransparentPatterns {} {gsave 1 setgray fill grestore} ifelse
} def
%
% Substitute for Level 2 pattern fill codes with
% grayscale if Level 2 support is not selected.
%
/Level1PatternFill {
/Pattern1 {0.250 Density} bind def
/Pattern2 {0.500 Density} bind def
/Pattern3 {0.750 Density} bind def
/Pattern4 {0.125 Density} bind def
/Pattern5 {0.375 Density} bind def
/Pattern6 {0.625 Density} bind def
/Pattern7 {0.875 Density} bind def
} def
%
% Now test for support of Level 2 code
%
Level1 {Level1PatternFill} {Level2PatternFill} ifelse
%
/Symbol-Oblique /Symbol findfont [1 0 .167 1 0 0] makefont
dup length dict begin {1 index /FID eq {pop pop} {def} ifelse} forall
currentdict end definefont pop
Level1 SuppressPDFMark or 
{} {
/SDict 10 dict def
systemdict /pdfmark known not {
  userdict /pdfmark systemdict /cleartomark get put
} if
SDict begin [
  /Title (out.ps)
  /Subject (gnuplot plot)
  /Creator (gnuplot 4.6 patchlevel 6)
  /Author (yani)
%  /Producer (gnuplot)
%  /Keywords ()
  /CreationDate (Thu May 28 15:46:51 2015)
  /DOCINFO pdfmark
end
} ifelse
end
%%EndProlog
%%Page: 1 1
gnudict begin
gsave
doclip
50 50 translate
0.100 0.100 scale
90 rotate
0 -5040 translate
0 setgray
newpath
(Helvetica) findfont 140 scalefont setfont
BackgroundColor 0 lt 3 1 roll 0 lt exch 0 lt or or not {gsave BackgroundColor C clippath fill grestore} if
1.000 UL
LT0
0.50 0.50 0.50 C 1.000 UL
LTa
0.50 0.50 0.50 C 966 280 M
5981 0 V
stroke
LT0
0.50 0.50 0.50 C 966 280 M
63 0 V
5918 0 R
-63 0 V
882 280 M
( 0) Rshow
1.000 UL
LT0
0.50 0.50 0.50 C 1.000 UL
LTa
0.50 0.50 0.50 C 966 326 M
5981 0 V
stroke
LT0
0.50 0.50 0.50 C 966 326 M
63 0 V
5918 0 R
-63 0 V
882 326 M
( 0.707106) Rshow
1.000 UL
LT0
0.50 0.50 0.50 C 1.000 UL
LTa
0.50 0.50 0.50 C 966 372 M
5981 0 V
stroke
LT0
0.50 0.50 0.50 C 966 372 M
63 0 V
5918 0 R
-63 0 V
882 372 M
( 1.41421) Rshow
1.000 UL
LT0
0.50 0.50 0.50 C 1.000 UL
LTa
0.50 0.50 0.50 C 966 418 M
5981 0 V
stroke
LT0
0.50 0.50 0.50 C 966 418 M
63 0 V
5918 0 R
-63 0 V
882 418 M
( 2.12132) Rshow
1.000 UL
LT0
0.50 0.50 0.50 C 1.000 UL
LTa
0.50 0.50 0.50 C 966 464 M
5981 0 V
stroke
LT0
0.50 0.50 0.50 C 966 464 M
63 0 V
5918 0 R
-63 0 V
882 464 M
( 2.82842) Rshow
1.000 UL
LT0
0.50 0.50 0.50 C 1.000 UL
LTa
0.50 0.50 0.50 C 966 510 M
5981 0 V
stroke
LT0
0.50 0.50 0.50 C 966 510 M
63 0 V
5918 0 R
-63 0 V
882 510 M
( 3.53553) Rshow
1.000 UL
LT0
0.50 0.50 0.50 C 1.000 UL
LTa
0.50 0.50 0.50 C 966 555 M
5981 0 V
stroke
LT0
0.50 0.50 0.50 C 966 555 M
63 0 V
5918 0 R
-63 0 V
882 555 M
( 4.24264) Rshow
1.000 UL
LT0
0.50 0.50 0.50 C 1.000 UL
LTa
0.50 0.50 0.50 C 966 601 M
5981 0 V
stroke
LT0
0.50 0.50 0.50 C 966 601 M
63 0 V
5918 0 R
-63 0 V
882 601 M
( 4.94974) Rshow
1.000 UL
LT0
0.50 0.50 0.50 C 1.000 UL
LTa
0.50 0.50 0.50 C 966 647 M
5981 0 V
stroke
LT0
0.50 0.50 0.50 C 966 647 M
63 0 V
5918 0 R
-63 0 V
882 647 M
( 5.65685) Rshow
1.000 UL
LT0
0.50 0.50 0.50 C 1.000 UL
LTa
0.50 0.50 0.50 C 966 693 M
5981 0 V
stroke
LT0
0.50 0.50 0.50 C 966 693 M
63 0 V
5918 0 R
-63 0 V
882 693 M
( 6.36395) Rshow
1.000 UL
LT0
0.50 0.50 0.50 C 1.000 UL
LTa
0.50 0.50 0.50 C 966 739 M
5981 0 V
stroke
LT0
0.50 0.50 0.50 C 966 739 M
63 0 V
5918 0 R
-63 0 V
882 739 M
( 7.07106) Rshow
1.000 UL
LT0
0.50 0.50 0.50 C 1.000 UL
LTa
0.50 0.50 0.50 C 966 785 M
5981 0 V
stroke
LT0
0.50 0.50 0.50 C 966 785 M
63 0 V
5918 0 R
-63 0 V
882 785 M
( 7.77817) Rshow
1.000 UL
LT0
0.50 0.50 0.50 C 1.000 UL
LTa
0.50 0.50 0.50 C 966 831 M
5981 0 V
stroke
LT0
0.50 0.50 0.50 C 966 831 M
63 0 V
5918 0 R
-63 0 V
882 831 M
( 8.48527) Rshow
1.000 UL
LT0
0.50 0.50 0.50 C 1.000 UL
LTa
0.50 0.50 0.50 C 966 877 M
5981 0 V
stroke
LT0
0.50 0.50 0.50 C 966 877 M
63 0 V
5918 0 R
-63 0 V
882 877 M
( 9.19238) Rshow
1.000 UL
LT0
0.50 0.50 0.50 C 1.000 UL
LTa
0.50 0.50 0.50 C 966 923 M
5981 0 V
stroke
LT0
0.50 0.50 0.50 C 966 923 M
63 0 V
5918 0 R
-63 0 V
882 923 M
( 9.89948) Rshow
1.000 UL
LT0
0.50 0.50 0.50 C 1.000 UL
LTa
0.50 0.50 0.50 C 966 969 M
5981 0 V
stroke
LT0
0.50 0.50 0.50 C 966 969 M
63 0 V
5918 0 R
-63 0 V
882 969 M
( 10.6066) Rshow
1.000 UL
LT0
0.50 0.50 0.50 C 1.000 UL
LTa
0.50 0.50 0.50 C 966 1015 M
5981 0 V
stroke
LT0
0.50 0.50 0.50 C 966 1015 M
63 0 V
5918 0 R
-63 0 V
-6002 0 R
( 11.3137) Rshow
1.000 UL
LT0
0.50 0.50 0.50 C 1.000 UL
LTa
0.50 0.50 0.50 C 966 1060 M
5981 0 V
stroke
LT0
0.50 0.50 0.50 C 966 1060 M
63 0 V
5918 0 R
-63 0 V
-6002 0 R
( 12.0208) Rshow
1.000 UL
LT0
0.50 0.50 0.50 C 1.000 UL
LTa
0.50 0.50 0.50 C 966 1106 M
5981 0 V
stroke
LT0
0.50 0.50 0.50 C 966 1106 M
63 0 V
5918 0 R
-63 0 V
-6002 0 R
( 12.7279) Rshow
1.000 UL
LT0
0.50 0.50 0.50 C 1.000 UL
LTa
0.50 0.50 0.50 C 966 1152 M
5981 0 V
stroke
LT0
0.50 0.50 0.50 C 966 1152 M
63 0 V
5918 0 R
-63 0 V
-6002 0 R
( 13.435) Rshow
1.000 UL
LT0
0.50 0.50 0.50 C 1.000 UL
LTa
0.50 0.50 0.50 C 966 1198 M
5981 0 V
stroke
LT0
0.50 0.50 0.50 C 966 1198 M
63 0 V
5918 0 R
-63 0 V
-6002 0 R
( 14.1421) Rshow
1.000 UL
LT0
0.50 0.50 0.50 C 1.000 UL
LTa
0.50 0.50 0.50 C 966 1244 M
5981 0 V
stroke
LT0
0.50 0.50 0.50 C 966 1244 M
63 0 V
5918 0 R
-63 0 V
-6002 0 R
( 14.8492) Rshow
1.000 UL
LT0
0.50 0.50 0.50 C 1.000 UL
LTa
0.50 0.50 0.50 C 966 1290 M
5981 0 V
stroke
LT0
0.50 0.50 0.50 C 966 1290 M
63 0 V
5918 0 R
-63 0 V
-6002 0 R
( 15.5563) Rshow
1.000 UL
LT0
0.50 0.50 0.50 C 1.000 UL
LTa
0.50 0.50 0.50 C 966 1336 M
5981 0 V
stroke
LT0
0.50 0.50 0.50 C 966 1336 M
63 0 V
5918 0 R
-63 0 V
-6002 0 R
( 16.2634) Rshow
1.000 UL
LT0
0.50 0.50 0.50 C 1.000 UL
LTa
0.50 0.50 0.50 C 966 1382 M
5981 0 V
stroke
LT0
0.50 0.50 0.50 C 966 1382 M
63 0 V
5918 0 R
-63 0 V
-6002 0 R
( 16.9705) Rshow
1.000 UL
LT0
0.50 0.50 0.50 C 1.000 UL
LTa
0.50 0.50 0.50 C 966 1428 M
5981 0 V
stroke
LT0
0.50 0.50 0.50 C 966 1428 M
63 0 V
5918 0 R
-63 0 V
-6002 0 R
( 17.6776) Rshow
1.000 UL
LT0
0.50 0.50 0.50 C 1.000 UL
LTa
0.50 0.50 0.50 C 966 1474 M
5981 0 V
stroke
LT0
0.50 0.50 0.50 C 966 1474 M
63 0 V
5918 0 R
-63 0 V
-6002 0 R
( 18.3848) Rshow
1.000 UL
LT0
0.50 0.50 0.50 C 1.000 UL
LTa
0.50 0.50 0.50 C 966 1520 M
5981 0 V
stroke
LT0
0.50 0.50 0.50 C 966 1520 M
63 0 V
5918 0 R
-63 0 V
-6002 0 R
( 19.0919) Rshow
1.000 UL
LT0
0.50 0.50 0.50 C 1.000 UL
LTa
0.50 0.50 0.50 C 966 1565 M
5981 0 V
stroke
LT0
0.50 0.50 0.50 C 966 1565 M
63 0 V
5918 0 R
-63 0 V
-6002 0 R
( 19.799) Rshow
1.000 UL
LT0
0.50 0.50 0.50 C 1.000 UL
LTa
0.50 0.50 0.50 C 966 1611 M
5981 0 V
stroke
LT0
0.50 0.50 0.50 C 966 1611 M
63 0 V
5918 0 R
-63 0 V
-6002 0 R
( 20.5061) Rshow
1.000 UL
LT0
0.50 0.50 0.50 C 1.000 UL
LTa
0.50 0.50 0.50 C 966 1657 M
5981 0 V
stroke
LT0
0.50 0.50 0.50 C 966 1657 M
63 0 V
5918 0 R
-63 0 V
-6002 0 R
( 21.2132) Rshow
1.000 UL
LT0
0.50 0.50 0.50 C 1.000 UL
LTa
0.50 0.50 0.50 C 966 1703 M
5981 0 V
stroke
LT0
0.50 0.50 0.50 C 966 1703 M
63 0 V
5918 0 R
-63 0 V
-6002 0 R
( 21.9203) Rshow
1.000 UL
LT0
0.50 0.50 0.50 C 1.000 UL
LTa
0.50 0.50 0.50 C 966 1749 M
5981 0 V
stroke
LT0
0.50 0.50 0.50 C 966 1749 M
63 0 V
5918 0 R
-63 0 V
-6002 0 R
( 22.6274) Rshow
1.000 UL
LT0
0.50 0.50 0.50 C 1.000 UL
LTa
0.50 0.50 0.50 C 966 1795 M
5981 0 V
stroke
LT0
0.50 0.50 0.50 C 966 1795 M
63 0 V
5918 0 R
-63 0 V
-6002 0 R
( 23.3345) Rshow
1.000 UL
LT0
0.50 0.50 0.50 C 1.000 UL
LTa
0.50 0.50 0.50 C 966 1841 M
5981 0 V
stroke
LT0
0.50 0.50 0.50 C 966 1841 M
63 0 V
5918 0 R
-63 0 V
-6002 0 R
( 24.0416) Rshow
1.000 UL
LT0
0.50 0.50 0.50 C 1.000 UL
LTa
0.50 0.50 0.50 C 966 1887 M
5981 0 V
stroke
LT0
0.50 0.50 0.50 C 966 1887 M
63 0 V
5918 0 R
-63 0 V
-6002 0 R
( 24.7487) Rshow
1.000 UL
LT0
0.50 0.50 0.50 C 1.000 UL
LTa
0.50 0.50 0.50 C 966 1933 M
5981 0 V
stroke
LT0
0.50 0.50 0.50 C 966 1933 M
63 0 V
5918 0 R
-63 0 V
-6002 0 R
( 25.4558) Rshow
1.000 UL
LT0
0.50 0.50 0.50 C 1.000 UL
LTa
0.50 0.50 0.50 C 966 1979 M
5981 0 V
stroke
LT0
0.50 0.50 0.50 C 966 1979 M
63 0 V
5918 0 R
-63 0 V
-6002 0 R
( 26.1629) Rshow
1.000 UL
LT0
0.50 0.50 0.50 C 1.000 UL
LTa
0.50 0.50 0.50 C 966 2025 M
5981 0 V
stroke
LT0
0.50 0.50 0.50 C 966 2025 M
63 0 V
5918 0 R
-63 0 V
-6002 0 R
( 26.87) Rshow
1.000 UL
LT0
0.50 0.50 0.50 C 1.000 UL
LTa
0.50 0.50 0.50 C 966 2070 M
5981 0 V
stroke
LT0
0.50 0.50 0.50 C 966 2070 M
63 0 V
5918 0 R
-63 0 V
-6002 0 R
( 27.5771) Rshow
1.000 UL
LT0
0.50 0.50 0.50 C 1.000 UL
LTa
0.50 0.50 0.50 C 966 2116 M
5981 0 V
stroke
LT0
0.50 0.50 0.50 C 966 2116 M
63 0 V
5918 0 R
-63 0 V
-6002 0 R
( 28.2842) Rshow
1.000 UL
LT0
0.50 0.50 0.50 C 1.000 UL
LTa
0.50 0.50 0.50 C 966 2162 M
5981 0 V
stroke
LT0
0.50 0.50 0.50 C 966 2162 M
63 0 V
5918 0 R
-63 0 V
-6002 0 R
( 28.9913) Rshow
1.000 UL
LT0
0.50 0.50 0.50 C 1.000 UL
LTa
0.50 0.50 0.50 C 966 2208 M
5981 0 V
stroke
LT0
0.50 0.50 0.50 C 966 2208 M
63 0 V
5918 0 R
-63 0 V
-6002 0 R
( 29.6985) Rshow
1.000 UL
LT0
0.50 0.50 0.50 C 1.000 UL
LTa
0.50 0.50 0.50 C 966 2254 M
5981 0 V
stroke
LT0
0.50 0.50 0.50 C 966 2254 M
63 0 V
5918 0 R
-63 0 V
-6002 0 R
( 30.4056) Rshow
1.000 UL
LT0
0.50 0.50 0.50 C 1.000 UL
LTa
0.50 0.50 0.50 C 966 2300 M
5981 0 V
stroke
LT0
0.50 0.50 0.50 C 966 2300 M
63 0 V
5918 0 R
-63 0 V
-6002 0 R
( 31.1127) Rshow
1.000 UL
LT0
0.50 0.50 0.50 C 1.000 UL
LTa
0.50 0.50 0.50 C 966 2346 M
5981 0 V
stroke
LT0
0.50 0.50 0.50 C 966 2346 M
63 0 V
5918 0 R
-63 0 V
-6002 0 R
( 31.8198) Rshow
1.000 UL
LT0
0.50 0.50 0.50 C 1.000 UL
LTa
0.50 0.50 0.50 C 966 2392 M
5981 0 V
stroke
LT0
0.50 0.50 0.50 C 966 2392 M
63 0 V
5918 0 R
-63 0 V
-6002 0 R
( 32.5269) Rshow
1.000 UL
LT0
0.50 0.50 0.50 C 1.000 UL
LTa
0.50 0.50 0.50 C 966 2438 M
5981 0 V
stroke
LT0
0.50 0.50 0.50 C 966 2438 M
63 0 V
5918 0 R
-63 0 V
-6002 0 R
( 33.234) Rshow
1.000 UL
LT0
0.50 0.50 0.50 C 1.000 UL
LTa
0.50 0.50 0.50 C 966 2484 M
5981 0 V
stroke
LT0
0.50 0.50 0.50 C 966 2484 M
63 0 V
5918 0 R
-63 0 V
-6002 0 R
( 33.9411) Rshow
1.000 UL
LT0
0.50 0.50 0.50 C 1.000 UL
LTa
0.50 0.50 0.50 C 966 2530 M
5981 0 V
stroke
LT0
0.50 0.50 0.50 C 966 2530 M
63 0 V
5918 0 R
-63 0 V
-6002 0 R
( 34.6482) Rshow
1.000 UL
LT0
0.50 0.50 0.50 C 1.000 UL
LTa
0.50 0.50 0.50 C 966 2576 M
5981 0 V
stroke
LT0
0.50 0.50 0.50 C 966 2576 M
63 0 V
5918 0 R
-63 0 V
-6002 0 R
( 35.3553) Rshow
1.000 UL
LT0
0.50 0.50 0.50 C 1.000 UL
LTa
0.50 0.50 0.50 C 966 2621 M
5981 0 V
stroke
LT0
0.50 0.50 0.50 C 966 2621 M
63 0 V
5918 0 R
-63 0 V
-6002 0 R
( 36.0624) Rshow
1.000 UL
LT0
0.50 0.50 0.50 C 1.000 UL
LTa
0.50 0.50 0.50 C 966 2667 M
5981 0 V
stroke
LT0
0.50 0.50 0.50 C 966 2667 M
63 0 V
5918 0 R
-63 0 V
-6002 0 R
( 36.7695) Rshow
1.000 UL
LT0
0.50 0.50 0.50 C 1.000 UL
LTa
0.50 0.50 0.50 C 966 2713 M
5981 0 V
stroke
LT0
0.50 0.50 0.50 C 966 2713 M
63 0 V
5918 0 R
-63 0 V
-6002 0 R
( 37.4766) Rshow
1.000 UL
LT0
0.50 0.50 0.50 C 1.000 UL
LTa
0.50 0.50 0.50 C 966 2759 M
5981 0 V
stroke
LT0
0.50 0.50 0.50 C 966 2759 M
63 0 V
5918 0 R
-63 0 V
-6002 0 R
( 38.1837) Rshow
1.000 UL
LT0
0.50 0.50 0.50 C 1.000 UL
LTa
0.50 0.50 0.50 C 966 2805 M
5981 0 V
stroke
LT0
0.50 0.50 0.50 C 966 2805 M
63 0 V
5918 0 R
-63 0 V
-6002 0 R
( 38.8908) Rshow
1.000 UL
LT0
0.50 0.50 0.50 C 1.000 UL
LTa
0.50 0.50 0.50 C 966 2851 M
5981 0 V
stroke
LT0
0.50 0.50 0.50 C 966 2851 M
63 0 V
5918 0 R
-63 0 V
-6002 0 R
( 39.5979) Rshow
1.000 UL
LT0
0.50 0.50 0.50 C 1.000 UL
LTa
0.50 0.50 0.50 C 966 2897 M
5981 0 V
stroke
LT0
0.50 0.50 0.50 C 966 2897 M
63 0 V
5918 0 R
-63 0 V
-6002 0 R
( 40.305) Rshow
1.000 UL
LT0
0.50 0.50 0.50 C 1.000 UL
LTa
0.50 0.50 0.50 C 966 2943 M
5981 0 V
stroke
LT0
0.50 0.50 0.50 C 966 2943 M
63 0 V
5918 0 R
-63 0 V
-6002 0 R
( 41.0121) Rshow
1.000 UL
LT0
0.50 0.50 0.50 C 1.000 UL
LTa
0.50 0.50 0.50 C 966 2989 M
5981 0 V
stroke
LT0
0.50 0.50 0.50 C 966 2989 M
63 0 V
5918 0 R
-63 0 V
-6002 0 R
( 41.7193) Rshow
1.000 UL
LT0
0.50 0.50 0.50 C 1.000 UL
LTa
0.50 0.50 0.50 C 966 3035 M
5981 0 V
stroke
LT0
0.50 0.50 0.50 C 966 3035 M
63 0 V
5918 0 R
-63 0 V
-6002 0 R
( 42.4264) Rshow
1.000 UL
LT0
0.50 0.50 0.50 C 1.000 UL
LTa
0.50 0.50 0.50 C 966 3081 M
5981 0 V
stroke
LT0
0.50 0.50 0.50 C 966 3081 M
63 0 V
5918 0 R
-63 0 V
-6002 0 R
( 43.1335) Rshow
1.000 UL
LT0
0.50 0.50 0.50 C 1.000 UL
LTa
0.50 0.50 0.50 C 966 3126 M
5981 0 V
stroke
LT0
0.50 0.50 0.50 C 966 3126 M
63 0 V
5918 0 R
-63 0 V
-6002 0 R
( 43.8406) Rshow
1.000 UL
LT0
0.50 0.50 0.50 C 1.000 UL
LTa
0.50 0.50 0.50 C 966 3172 M
5981 0 V
stroke
LT0
0.50 0.50 0.50 C 966 3172 M
63 0 V
5918 0 R
-63 0 V
-6002 0 R
( 44.5477) Rshow
1.000 UL
LT0
0.50 0.50 0.50 C 1.000 UL
LTa
0.50 0.50 0.50 C 966 3218 M
5981 0 V
stroke
LT0
0.50 0.50 0.50 C 966 3218 M
63 0 V
5918 0 R
-63 0 V
-6002 0 R
( 45.2548) Rshow
1.000 UL
LT0
0.50 0.50 0.50 C 1.000 UL
LTa
0.50 0.50 0.50 C 966 3264 M
5981 0 V
stroke
LT0
0.50 0.50 0.50 C 966 3264 M
63 0 V
5918 0 R
-63 0 V
-6002 0 R
( 45.9619) Rshow
1.000 UL
LT0
0.50 0.50 0.50 C 1.000 UL
LTa
0.50 0.50 0.50 C 966 3310 M
5981 0 V
stroke
LT0
0.50 0.50 0.50 C 966 3310 M
63 0 V
5918 0 R
-63 0 V
-6002 0 R
( 46.669) Rshow
1.000 UL
LT0
0.50 0.50 0.50 C 1.000 UL
LTa
0.50 0.50 0.50 C 966 3356 M
5981 0 V
stroke
LT0
0.50 0.50 0.50 C 966 3356 M
63 0 V
5918 0 R
-63 0 V
-6002 0 R
( 47.3761) Rshow
1.000 UL
LT0
0.50 0.50 0.50 C 1.000 UL
LTa
0.50 0.50 0.50 C 966 3402 M
5981 0 V
stroke
LT0
0.50 0.50 0.50 C 966 3402 M
63 0 V
5918 0 R
-63 0 V
-6002 0 R
( 48.0832) Rshow
1.000 UL
LT0
0.50 0.50 0.50 C 1.000 UL
LTa
0.50 0.50 0.50 C 966 3448 M
5981 0 V
stroke
LT0
0.50 0.50 0.50 C 966 3448 M
63 0 V
5918 0 R
-63 0 V
-6002 0 R
( 48.7903) Rshow
1.000 UL
LT0
0.50 0.50 0.50 C 1.000 UL
LTa
0.50 0.50 0.50 C 966 3494 M
5981 0 V
stroke
LT0
0.50 0.50 0.50 C 966 3494 M
63 0 V
5918 0 R
-63 0 V
-6002 0 R
( 49.4974) Rshow
1.000 UL
LT0
0.50 0.50 0.50 C 1.000 UL
LTa
0.50 0.50 0.50 C 966 3540 M
5981 0 V
stroke
LT0
0.50 0.50 0.50 C 966 3540 M
63 0 V
5918 0 R
-63 0 V
-6002 0 R
( 50.2045) Rshow
1.000 UL
LT0
0.50 0.50 0.50 C 1.000 UL
LTa
0.50 0.50 0.50 C 966 3586 M
5981 0 V
stroke
LT0
0.50 0.50 0.50 C 966 3586 M
63 0 V
5918 0 R
-63 0 V
-6002 0 R
( 50.9116) Rshow
1.000 UL
LT0
0.50 0.50 0.50 C 1.000 UL
LTa
0.50 0.50 0.50 C 966 3631 M
5981 0 V
stroke
LT0
0.50 0.50 0.50 C 966 3631 M
63 0 V
5918 0 R
-63 0 V
-6002 0 R
( 51.6187) Rshow
1.000 UL
LT0
0.50 0.50 0.50 C 1.000 UL
LTa
0.50 0.50 0.50 C 966 3677 M
5981 0 V
stroke
LT0
0.50 0.50 0.50 C 966 3677 M
63 0 V
5918 0 R
-63 0 V
-6002 0 R
( 52.3258) Rshow
1.000 UL
LT0
0.50 0.50 0.50 C 1.000 UL
LTa
0.50 0.50 0.50 C 966 3723 M
5981 0 V
stroke
LT0
0.50 0.50 0.50 C 966 3723 M
63 0 V
5918 0 R
-63 0 V
-6002 0 R
( 53.033) Rshow
1.000 UL
LT0
0.50 0.50 0.50 C 1.000 UL
LTa
0.50 0.50 0.50 C 966 3769 M
5981 0 V
stroke
LT0
0.50 0.50 0.50 C 966 3769 M
63 0 V
5918 0 R
-63 0 V
-6002 0 R
( 53.7401) Rshow
1.000 UL
LT0
0.50 0.50 0.50 C 1.000 UL
LTa
0.50 0.50 0.50 C 966 3815 M
5981 0 V
stroke
LT0
0.50 0.50 0.50 C 966 3815 M
63 0 V
5918 0 R
-63 0 V
-6002 0 R
( 54.4472) Rshow
1.000 UL
LT0
0.50 0.50 0.50 C 1.000 UL
LTa
0.50 0.50 0.50 C 966 3861 M
5981 0 V
stroke
LT0
0.50 0.50 0.50 C 966 3861 M
63 0 V
5918 0 R
-63 0 V
-6002 0 R
( 55.1543) Rshow
1.000 UL
LT0
0.50 0.50 0.50 C 1.000 UL
LTa
0.50 0.50 0.50 C 966 3907 M
5981 0 V
stroke
LT0
0.50 0.50 0.50 C 966 3907 M
63 0 V
5918 0 R
-63 0 V
-6002 0 R
( 55.8614) Rshow
1.000 UL
LT0
0.50 0.50 0.50 C 1.000 UL
LTa
0.50 0.50 0.50 C 966 3953 M
5981 0 V
stroke
LT0
0.50 0.50 0.50 C 966 3953 M
63 0 V
5918 0 R
-63 0 V
-6002 0 R
( 56.5685) Rshow
1.000 UL
LT0
0.50 0.50 0.50 C 1.000 UL
LTa
0.50 0.50 0.50 C 966 3999 M
5981 0 V
stroke
LT0
0.50 0.50 0.50 C 966 3999 M
63 0 V
5918 0 R
-63 0 V
-6002 0 R
( 57.2756) Rshow
1.000 UL
LT0
0.50 0.50 0.50 C 1.000 UL
LTa
0.50 0.50 0.50 C 966 4045 M
5981 0 V
stroke
LT0
0.50 0.50 0.50 C 966 4045 M
63 0 V
5918 0 R
-63 0 V
-6002 0 R
( 57.9827) Rshow
1.000 UL
LT0
0.50 0.50 0.50 C 1.000 UL
LTa
0.50 0.50 0.50 C 966 4091 M
5981 0 V
stroke
LT0
0.50 0.50 0.50 C 966 4091 M
63 0 V
5918 0 R
-63 0 V
-6002 0 R
( 58.6898) Rshow
1.000 UL
LT0
0.50 0.50 0.50 C 1.000 UL
LTa
0.50 0.50 0.50 C 966 4136 M
5981 0 V
stroke
LT0
0.50 0.50 0.50 C 966 4136 M
63 0 V
5918 0 R
-63 0 V
-6002 0 R
( 59.3969) Rshow
1.000 UL
LT0
0.50 0.50 0.50 C 1.000 UL
LTa
0.50 0.50 0.50 C 966 4182 M
5981 0 V
stroke
LT0
0.50 0.50 0.50 C 966 4182 M
63 0 V
5918 0 R
-63 0 V
-6002 0 R
( 60.104) Rshow
1.000 UL
LT0
0.50 0.50 0.50 C 1.000 UL
LTa
0.50 0.50 0.50 C 966 4228 M
5981 0 V
stroke
LT0
0.50 0.50 0.50 C 966 4228 M
63 0 V
5918 0 R
-63 0 V
-6002 0 R
( 60.8111) Rshow
1.000 UL
LT0
0.50 0.50 0.50 C 1.000 UL
LTa
0.50 0.50 0.50 C 966 4274 M
5981 0 V
stroke
LT0
0.50 0.50 0.50 C 966 4274 M
63 0 V
5918 0 R
-63 0 V
-6002 0 R
( 61.5182) Rshow
1.000 UL
LT0
0.50 0.50 0.50 C 1.000 UL
LTa
0.50 0.50 0.50 C 966 4320 M
5981 0 V
stroke
LT0
0.50 0.50 0.50 C 966 4320 M
63 0 V
5918 0 R
-63 0 V
-6002 0 R
( 62.2253) Rshow
1.000 UL
LT0
0.50 0.50 0.50 C 1.000 UL
LTa
0.50 0.50 0.50 C 966 4366 M
5981 0 V
stroke
LT0
0.50 0.50 0.50 C 966 4366 M
63 0 V
5918 0 R
-63 0 V
-6002 0 R
( 62.9324) Rshow
1.000 UL
LT0
0.50 0.50 0.50 C 1.000 UL
LTa
0.50 0.50 0.50 C 966 4412 M
5981 0 V
stroke
LT0
0.50 0.50 0.50 C 966 4412 M
63 0 V
5918 0 R
-63 0 V
-6002 0 R
( 63.6395) Rshow
1.000 UL
LT0
0.50 0.50 0.50 C 1.000 UL
LTa
0.50 0.50 0.50 C 966 4458 M
5981 0 V
stroke
LT0
0.50 0.50 0.50 C 966 4458 M
63 0 V
5918 0 R
-63 0 V
-6002 0 R
( 64.3466) Rshow
1.000 UL
LT0
0.50 0.50 0.50 C 1.000 UL
LTa
0.50 0.50 0.50 C 966 4504 M
5981 0 V
stroke
LT0
0.50 0.50 0.50 C 966 4504 M
63 0 V
5918 0 R
-63 0 V
-6002 0 R
( 65.0538) Rshow
1.000 UL
LT0
0.50 0.50 0.50 C 1.000 UL
LTa
0.50 0.50 0.50 C 966 4550 M
5981 0 V
stroke
LT0
0.50 0.50 0.50 C 966 4550 M
63 0 V
5918 0 R
-63 0 V
-6002 0 R
( 65.7609) Rshow
1.000 UL
LT0
0.50 0.50 0.50 C 1.000 UL
LTa
0.50 0.50 0.50 C 966 4596 M
5981 0 V
stroke
LT0
0.50 0.50 0.50 C 966 4596 M
63 0 V
5918 0 R
-63 0 V
-6002 0 R
( 66.468) Rshow
1.000 UL
LT0
0.50 0.50 0.50 C 1.000 UL
LTa
0.50 0.50 0.50 C 966 4641 M
5981 0 V
stroke
LT0
0.50 0.50 0.50 C 966 4641 M
63 0 V
5918 0 R
-63 0 V
-6002 0 R
( 67.1751) Rshow
1.000 UL
LT0
0.50 0.50 0.50 C 1.000 UL
LTa
0.50 0.50 0.50 C 966 4687 M
5981 0 V
stroke
LT0
0.50 0.50 0.50 C 966 4687 M
63 0 V
5918 0 R
-63 0 V
-6002 0 R
( 67.8822) Rshow
1.000 UL
LT0
0.50 0.50 0.50 C 1.000 UL
LTa
0.50 0.50 0.50 C 966 4733 M
5981 0 V
stroke
LT0
0.50 0.50 0.50 C 966 4733 M
63 0 V
5918 0 R
-63 0 V
-6002 0 R
( 68.5893) Rshow
1.000 UL
LT0
0.50 0.50 0.50 C 1.000 UL
LTa
0.50 0.50 0.50 C 966 4779 M
5981 0 V
stroke
LT0
0.50 0.50 0.50 C 966 4779 M
63 0 V
5918 0 R
-63 0 V
-6002 0 R
( 69.2964) Rshow
1.000 UL
LT0
0.50 0.50 0.50 C 1.000 UL
LTa
0.50 0.50 0.50 C 966 4825 M
5981 0 V
stroke
LT0
0.50 0.50 0.50 C 966 4825 M
63 0 V
5918 0 R
-63 0 V
-6002 0 R
( 70.0035) Rshow
1.000 UL
LT0
0.50 0.50 0.50 C 1.000 UL
LTa
0.50 0.50 0.50 C 966 4871 M
5981 0 V
stroke
LT0
0.50 0.50 0.50 C 966 4871 M
63 0 V
5918 0 R
-63 0 V
-6002 0 R
( 70.7106) Rshow
1.000 UL
LT0
0.50 0.50 0.50 C 1.000 UL
LTa
0.50 0.50 0.50 C 966 280 M
0 4591 V
stroke
LT0
0.50 0.50 0.50 C 966 280 M
0 63 V
0 4528 R
0 -63 V
966 140 M
( 0) Cshow
1.000 UL
LT0
0.50 0.50 0.50 C 1.000 UL
LTa
0.50 0.50 0.50 C 1026 280 M
0 4591 V
stroke
LT0
0.50 0.50 0.50 C 1026 280 M
0 63 V
0 4528 R
0 -63 V
0 -4668 R
( 0.707106) Cshow
1.000 UL
LT0
0.50 0.50 0.50 C 1.000 UL
LTa
0.50 0.50 0.50 C 1086 280 M
0 4591 V
stroke
LT0
0.50 0.50 0.50 C 1086 280 M
0 63 V
0 4528 R
0 -63 V
0 -4668 R
( 1.41421) Cshow
1.000 UL
LT0
0.50 0.50 0.50 C 1.000 UL
LTa
0.50 0.50 0.50 C 1145 280 M
0 4591 V
stroke
LT0
0.50 0.50 0.50 C 1145 280 M
0 63 V
0 4528 R
0 -63 V
0 -4668 R
( 2.12132) Cshow
1.000 UL
LT0
0.50 0.50 0.50 C 1.000 UL
LTa
0.50 0.50 0.50 C 1205 280 M
0 4591 V
stroke
LT0
0.50 0.50 0.50 C 1205 280 M
0 63 V
0 4528 R
0 -63 V
0 -4668 R
( 2.82842) Cshow
1.000 UL
LT0
0.50 0.50 0.50 C 1.000 UL
LTa
0.50 0.50 0.50 C 1265 280 M
0 4591 V
stroke
LT0
0.50 0.50 0.50 C 1265 280 M
0 63 V
0 4528 R
0 -63 V
0 -4668 R
( 3.53553) Cshow
1.000 UL
LT0
0.50 0.50 0.50 C 1.000 UL
LTa
0.50 0.50 0.50 C 1325 280 M
0 4591 V
stroke
LT0
0.50 0.50 0.50 C 1325 280 M
0 63 V
0 4528 R
0 -63 V
0 -4668 R
( 4.24264) Cshow
1.000 UL
LT0
0.50 0.50 0.50 C 1.000 UL
LTa
0.50 0.50 0.50 C 1385 280 M
0 4591 V
stroke
LT0
0.50 0.50 0.50 C 1385 280 M
0 63 V
0 4528 R
0 -63 V
0 -4668 R
( 4.94974) Cshow
1.000 UL
LT0
0.50 0.50 0.50 C 1.000 UL
LTa
0.50 0.50 0.50 C 1444 280 M
0 4591 V
stroke
LT0
0.50 0.50 0.50 C 1444 280 M
0 63 V
0 4528 R
0 -63 V
0 -4668 R
( 5.65685) Cshow
1.000 UL
LT0
0.50 0.50 0.50 C 1.000 UL
LTa
0.50 0.50 0.50 C 1504 280 M
0 4591 V
stroke
LT0
0.50 0.50 0.50 C 1504 280 M
0 63 V
0 4528 R
0 -63 V
0 -4668 R
( 6.36395) Cshow
1.000 UL
LT0
0.50 0.50 0.50 C 1.000 UL
LTa
0.50 0.50 0.50 C 1564 280 M
0 4591 V
stroke
LT0
0.50 0.50 0.50 C 1564 280 M
0 63 V
0 4528 R
0 -63 V
0 -4668 R
( 7.07106) Cshow
1.000 UL
LT0
0.50 0.50 0.50 C 1.000 UL
LTa
0.50 0.50 0.50 C 1624 280 M
0 4591 V
stroke
LT0
0.50 0.50 0.50 C 1624 280 M
0 63 V
0 4528 R
0 -63 V
0 -4668 R
( 7.77817) Cshow
1.000 UL
LT0
0.50 0.50 0.50 C 1.000 UL
LTa
0.50 0.50 0.50 C 1684 280 M
0 4591 V
stroke
LT0
0.50 0.50 0.50 C 1684 280 M
0 63 V
0 4528 R
0 -63 V
0 -4668 R
( 8.48527) Cshow
1.000 UL
LT0
0.50 0.50 0.50 C 1.000 UL
LTa
0.50 0.50 0.50 C 1744 280 M
0 4591 V
stroke
LT0
0.50 0.50 0.50 C 1744 280 M
0 63 V
0 4528 R
0 -63 V
0 -4668 R
( 9.19238) Cshow
1.000 UL
LT0
0.50 0.50 0.50 C 1.000 UL
LTa
0.50 0.50 0.50 C 1803 280 M
0 4591 V
stroke
LT0
0.50 0.50 0.50 C 1803 280 M
0 63 V
0 4528 R
0 -63 V
0 -4668 R
( 9.89948) Cshow
1.000 UL
LT0
0.50 0.50 0.50 C 1.000 UL
LTa
0.50 0.50 0.50 C 1863 280 M
0 4591 V
stroke
LT0
0.50 0.50 0.50 C 1863 280 M
0 63 V
0 4528 R
0 -63 V
0 -4668 R
( 10.6066) Cshow
1.000 UL
LT0
0.50 0.50 0.50 C 1.000 UL
LTa
0.50 0.50 0.50 C 1923 280 M
0 4591 V
stroke
LT0
0.50 0.50 0.50 C 1923 280 M
0 63 V
0 4528 R
0 -63 V
0 -4668 R
( 11.3137) Cshow
1.000 UL
LT0
0.50 0.50 0.50 C 1.000 UL
LTa
0.50 0.50 0.50 C 1983 280 M
0 4591 V
stroke
LT0
0.50 0.50 0.50 C 1983 280 M
0 63 V
0 4528 R
0 -63 V
0 -4668 R
( 12.0208) Cshow
1.000 UL
LT0
0.50 0.50 0.50 C 1.000 UL
LTa
0.50 0.50 0.50 C 2043 280 M
0 4591 V
stroke
LT0
0.50 0.50 0.50 C 2043 280 M
0 63 V
0 4528 R
0 -63 V
0 -4668 R
( 12.7279) Cshow
1.000 UL
LT0
0.50 0.50 0.50 C 1.000 UL
LTa
0.50 0.50 0.50 C 2102 280 M
0 4591 V
stroke
LT0
0.50 0.50 0.50 C 2102 280 M
0 63 V
0 4528 R
0 -63 V
0 -4668 R
( 13.435) Cshow
1.000 UL
LT0
0.50 0.50 0.50 C 1.000 UL
LTa
0.50 0.50 0.50 C 2162 280 M
0 4591 V
stroke
LT0
0.50 0.50 0.50 C 2162 280 M
0 63 V
0 4528 R
0 -63 V
0 -4668 R
( 14.1421) Cshow
1.000 UL
LT0
0.50 0.50 0.50 C 1.000 UL
LTa
0.50 0.50 0.50 C 2222 280 M
0 4591 V
stroke
LT0
0.50 0.50 0.50 C 2222 280 M
0 63 V
0 4528 R
0 -63 V
0 -4668 R
( 14.8492) Cshow
1.000 UL
LT0
0.50 0.50 0.50 C 1.000 UL
LTa
0.50 0.50 0.50 C 2282 280 M
0 4591 V
stroke
LT0
0.50 0.50 0.50 C 2282 280 M
0 63 V
0 4528 R
0 -63 V
0 -4668 R
( 15.5563) Cshow
1.000 UL
LT0
0.50 0.50 0.50 C 1.000 UL
LTa
0.50 0.50 0.50 C 2342 280 M
0 4591 V
stroke
LT0
0.50 0.50 0.50 C 2342 280 M
0 63 V
0 4528 R
0 -63 V
0 -4668 R
( 16.2634) Cshow
1.000 UL
LT0
0.50 0.50 0.50 C 1.000 UL
LTa
0.50 0.50 0.50 C 2401 280 M
0 4591 V
stroke
LT0
0.50 0.50 0.50 C 2401 280 M
0 63 V
0 4528 R
0 -63 V
0 -4668 R
( 16.9705) Cshow
1.000 UL
LT0
0.50 0.50 0.50 C 1.000 UL
LTa
0.50 0.50 0.50 C 2461 280 M
0 4591 V
stroke
LT0
0.50 0.50 0.50 C 2461 280 M
0 63 V
0 4528 R
0 -63 V
0 -4668 R
( 17.6776) Cshow
1.000 UL
LT0
0.50 0.50 0.50 C 1.000 UL
LTa
0.50 0.50 0.50 C 2521 280 M
0 4591 V
stroke
LT0
0.50 0.50 0.50 C 2521 280 M
0 63 V
0 4528 R
0 -63 V
0 -4668 R
( 18.3848) Cshow
1.000 UL
LT0
0.50 0.50 0.50 C 1.000 UL
LTa
0.50 0.50 0.50 C 2581 280 M
0 4591 V
stroke
LT0
0.50 0.50 0.50 C 2581 280 M
0 63 V
0 4528 R
0 -63 V
0 -4668 R
( 19.0919) Cshow
1.000 UL
LT0
0.50 0.50 0.50 C 1.000 UL
LTa
0.50 0.50 0.50 C 2641 280 M
0 4591 V
stroke
LT0
0.50 0.50 0.50 C 2641 280 M
0 63 V
0 4528 R
0 -63 V
0 -4668 R
( 19.799) Cshow
1.000 UL
LT0
0.50 0.50 0.50 C 1.000 UL
LTa
0.50 0.50 0.50 C 2700 280 M
0 4591 V
stroke
LT0
0.50 0.50 0.50 C 2700 280 M
0 63 V
0 4528 R
0 -63 V
0 -4668 R
( 20.5061) Cshow
1.000 UL
LT0
0.50 0.50 0.50 C 1.000 UL
LTa
0.50 0.50 0.50 C 2760 280 M
0 4591 V
stroke
LT0
0.50 0.50 0.50 C 2760 280 M
0 63 V
0 4528 R
0 -63 V
0 -4668 R
( 21.2132) Cshow
1.000 UL
LT0
0.50 0.50 0.50 C 1.000 UL
LTa
0.50 0.50 0.50 C 2820 280 M
0 4591 V
stroke
LT0
0.50 0.50 0.50 C 2820 280 M
0 63 V
0 4528 R
0 -63 V
0 -4668 R
( 21.9203) Cshow
1.000 UL
LT0
0.50 0.50 0.50 C 1.000 UL
LTa
0.50 0.50 0.50 C 2880 280 M
0 4591 V
stroke
LT0
0.50 0.50 0.50 C 2880 280 M
0 63 V
0 4528 R
0 -63 V
0 -4668 R
( 22.6274) Cshow
1.000 UL
LT0
0.50 0.50 0.50 C 1.000 UL
LTa
0.50 0.50 0.50 C 2940 280 M
0 4591 V
stroke
LT0
0.50 0.50 0.50 C 2940 280 M
0 63 V
0 4528 R
0 -63 V
0 -4668 R
( 23.3345) Cshow
1.000 UL
LT0
0.50 0.50 0.50 C 1.000 UL
LTa
0.50 0.50 0.50 C 3000 280 M
0 4591 V
stroke
LT0
0.50 0.50 0.50 C 3000 280 M
0 63 V
0 4528 R
0 -63 V
0 -4668 R
( 24.0416) Cshow
1.000 UL
LT0
0.50 0.50 0.50 C 1.000 UL
LTa
0.50 0.50 0.50 C 3059 280 M
0 4591 V
stroke
LT0
0.50 0.50 0.50 C 3059 280 M
0 63 V
0 4528 R
0 -63 V
0 -4668 R
( 24.7487) Cshow
1.000 UL
LT0
0.50 0.50 0.50 C 1.000 UL
LTa
0.50 0.50 0.50 C 3119 280 M
0 4591 V
stroke
LT0
0.50 0.50 0.50 C 3119 280 M
0 63 V
0 4528 R
0 -63 V
0 -4668 R
( 25.4558) Cshow
1.000 UL
LT0
0.50 0.50 0.50 C 1.000 UL
LTa
0.50 0.50 0.50 C 3179 280 M
0 4591 V
stroke
LT0
0.50 0.50 0.50 C 3179 280 M
0 63 V
0 4528 R
0 -63 V
0 -4668 R
( 26.1629) Cshow
1.000 UL
LT0
0.50 0.50 0.50 C 1.000 UL
LTa
0.50 0.50 0.50 C 3239 280 M
0 4591 V
stroke
LT0
0.50 0.50 0.50 C 3239 280 M
0 63 V
0 4528 R
0 -63 V
0 -4668 R
( 26.87) Cshow
1.000 UL
LT0
0.50 0.50 0.50 C 1.000 UL
LTa
0.50 0.50 0.50 C 3299 280 M
0 4591 V
stroke
LT0
0.50 0.50 0.50 C 3299 280 M
0 63 V
0 4528 R
0 -63 V
0 -4668 R
( 27.5771) Cshow
1.000 UL
LT0
0.50 0.50 0.50 C 1.000 UL
LTa
0.50 0.50 0.50 C 3358 280 M
0 4591 V
stroke
LT0
0.50 0.50 0.50 C 3358 280 M
0 63 V
0 4528 R
0 -63 V
0 -4668 R
( 28.2842) Cshow
1.000 UL
LT0
0.50 0.50 0.50 C 1.000 UL
LTa
0.50 0.50 0.50 C 3418 280 M
0 4591 V
stroke
LT0
0.50 0.50 0.50 C 3418 280 M
0 63 V
0 4528 R
0 -63 V
0 -4668 R
( 28.9913) Cshow
1.000 UL
LT0
0.50 0.50 0.50 C 1.000 UL
LTa
0.50 0.50 0.50 C 3478 280 M
0 4591 V
stroke
LT0
0.50 0.50 0.50 C 3478 280 M
0 63 V
0 4528 R
0 -63 V
0 -4668 R
( 29.6985) Cshow
1.000 UL
LT0
0.50 0.50 0.50 C 1.000 UL
LTa
0.50 0.50 0.50 C 3538 280 M
0 4591 V
stroke
LT0
0.50 0.50 0.50 C 3538 280 M
0 63 V
0 4528 R
0 -63 V
0 -4668 R
( 30.4056) Cshow
1.000 UL
LT0
0.50 0.50 0.50 C 1.000 UL
LTa
0.50 0.50 0.50 C 3598 280 M
0 4591 V
stroke
LT0
0.50 0.50 0.50 C 3598 280 M
0 63 V
0 4528 R
0 -63 V
0 -4668 R
( 31.1127) Cshow
1.000 UL
LT0
0.50 0.50 0.50 C 1.000 UL
LTa
0.50 0.50 0.50 C 3657 280 M
0 4591 V
stroke
LT0
0.50 0.50 0.50 C 3657 280 M
0 63 V
0 4528 R
0 -63 V
0 -4668 R
( 31.8198) Cshow
1.000 UL
LT0
0.50 0.50 0.50 C 1.000 UL
LTa
0.50 0.50 0.50 C 3717 280 M
0 4591 V
stroke
LT0
0.50 0.50 0.50 C 3717 280 M
0 63 V
0 4528 R
0 -63 V
0 -4668 R
( 32.5269) Cshow
1.000 UL
LT0
0.50 0.50 0.50 C 1.000 UL
LTa
0.50 0.50 0.50 C 3777 280 M
0 4591 V
stroke
LT0
0.50 0.50 0.50 C 3777 280 M
0 63 V
0 4528 R
0 -63 V
0 -4668 R
( 33.234) Cshow
1.000 UL
LT0
0.50 0.50 0.50 C 1.000 UL
LTa
0.50 0.50 0.50 C 3837 280 M
0 4591 V
stroke
LT0
0.50 0.50 0.50 C 3837 280 M
0 63 V
0 4528 R
0 -63 V
0 -4668 R
( 33.9411) Cshow
1.000 UL
LT0
0.50 0.50 0.50 C 1.000 UL
LTa
0.50 0.50 0.50 C 3897 280 M
0 4591 V
stroke
LT0
0.50 0.50 0.50 C 3897 280 M
0 63 V
0 4528 R
0 -63 V
0 -4668 R
( 34.6482) Cshow
1.000 UL
LT0
0.50 0.50 0.50 C 1.000 UL
LTa
0.50 0.50 0.50 C 3957 280 M
0 4591 V
stroke
LT0
0.50 0.50 0.50 C 3957 280 M
0 63 V
0 4528 R
0 -63 V
0 -4668 R
( 35.3553) Cshow
1.000 UL
LT0
0.50 0.50 0.50 C 1.000 UL
LTa
0.50 0.50 0.50 C 4016 280 M
0 4591 V
stroke
LT0
0.50 0.50 0.50 C 4016 280 M
0 63 V
0 4528 R
0 -63 V
0 -4668 R
( 36.0624) Cshow
1.000 UL
LT0
0.50 0.50 0.50 C 1.000 UL
LTa
0.50 0.50 0.50 C 4076 280 M
0 4591 V
stroke
LT0
0.50 0.50 0.50 C 4076 280 M
0 63 V
0 4528 R
0 -63 V
0 -4668 R
( 36.7695) Cshow
1.000 UL
LT0
0.50 0.50 0.50 C 1.000 UL
LTa
0.50 0.50 0.50 C 4136 280 M
0 4591 V
stroke
LT0
0.50 0.50 0.50 C 4136 280 M
0 63 V
0 4528 R
0 -63 V
0 -4668 R
( 37.4766) Cshow
1.000 UL
LT0
0.50 0.50 0.50 C 1.000 UL
LTa
0.50 0.50 0.50 C 4196 280 M
0 4591 V
stroke
LT0
0.50 0.50 0.50 C 4196 280 M
0 63 V
0 4528 R
0 -63 V
0 -4668 R
( 38.1837) Cshow
1.000 UL
LT0
0.50 0.50 0.50 C 1.000 UL
LTa
0.50 0.50 0.50 C 4256 280 M
0 4591 V
stroke
LT0
0.50 0.50 0.50 C 4256 280 M
0 63 V
0 4528 R
0 -63 V
0 -4668 R
( 38.8908) Cshow
1.000 UL
LT0
0.50 0.50 0.50 C 1.000 UL
LTa
0.50 0.50 0.50 C 4315 280 M
0 4591 V
stroke
LT0
0.50 0.50 0.50 C 4315 280 M
0 63 V
0 4528 R
0 -63 V
0 -4668 R
( 39.5979) Cshow
1.000 UL
LT0
0.50 0.50 0.50 C 1.000 UL
LTa
0.50 0.50 0.50 C 4375 280 M
0 4591 V
stroke
LT0
0.50 0.50 0.50 C 4375 280 M
0 63 V
0 4528 R
0 -63 V
0 -4668 R
( 40.305) Cshow
1.000 UL
LT0
0.50 0.50 0.50 C 1.000 UL
LTa
0.50 0.50 0.50 C 4435 280 M
0 4591 V
stroke
LT0
0.50 0.50 0.50 C 4435 280 M
0 63 V
0 4528 R
0 -63 V
0 -4668 R
( 41.0121) Cshow
1.000 UL
LT0
0.50 0.50 0.50 C 1.000 UL
LTa
0.50 0.50 0.50 C 4495 280 M
0 4591 V
stroke
LT0
0.50 0.50 0.50 C 4495 280 M
0 63 V
0 4528 R
0 -63 V
0 -4668 R
( 41.7193) Cshow
1.000 UL
LT0
0.50 0.50 0.50 C 1.000 UL
LTa
0.50 0.50 0.50 C 4555 280 M
0 4591 V
stroke
LT0
0.50 0.50 0.50 C 4555 280 M
0 63 V
0 4528 R
0 -63 V
0 -4668 R
( 42.4264) Cshow
1.000 UL
LT0
0.50 0.50 0.50 C 1.000 UL
LTa
0.50 0.50 0.50 C 4614 280 M
0 4591 V
stroke
LT0
0.50 0.50 0.50 C 4614 280 M
0 63 V
0 4528 R
0 -63 V
0 -4668 R
( 43.1335) Cshow
1.000 UL
LT0
0.50 0.50 0.50 C 1.000 UL
LTa
0.50 0.50 0.50 C 4674 280 M
0 4591 V
stroke
LT0
0.50 0.50 0.50 C 4674 280 M
0 63 V
0 4528 R
0 -63 V
0 -4668 R
( 43.8406) Cshow
1.000 UL
LT0
0.50 0.50 0.50 C 1.000 UL
LTa
0.50 0.50 0.50 C 4734 280 M
0 4591 V
stroke
LT0
0.50 0.50 0.50 C 4734 280 M
0 63 V
0 4528 R
0 -63 V
0 -4668 R
( 44.5477) Cshow
1.000 UL
LT0
0.50 0.50 0.50 C 1.000 UL
LTa
0.50 0.50 0.50 C 4794 280 M
0 4591 V
stroke
LT0
0.50 0.50 0.50 C 4794 280 M
0 63 V
0 4528 R
0 -63 V
0 -4668 R
( 45.2548) Cshow
1.000 UL
LT0
0.50 0.50 0.50 C 1.000 UL
LTa
0.50 0.50 0.50 C 4854 280 M
0 4591 V
stroke
LT0
0.50 0.50 0.50 C 4854 280 M
0 63 V
0 4528 R
0 -63 V
0 -4668 R
( 45.9619) Cshow
1.000 UL
LT0
0.50 0.50 0.50 C 1.000 UL
LTa
0.50 0.50 0.50 C 4913 280 M
0 4591 V
stroke
LT0
0.50 0.50 0.50 C 4913 280 M
0 63 V
0 4528 R
0 -63 V
0 -4668 R
( 46.669) Cshow
1.000 UL
LT0
0.50 0.50 0.50 C 1.000 UL
LTa
0.50 0.50 0.50 C 4973 280 M
0 4591 V
stroke
LT0
0.50 0.50 0.50 C 4973 280 M
0 63 V
0 4528 R
0 -63 V
0 -4668 R
( 47.3761) Cshow
1.000 UL
LT0
0.50 0.50 0.50 C 1.000 UL
LTa
0.50 0.50 0.50 C 5033 280 M
0 4591 V
stroke
LT0
0.50 0.50 0.50 C 5033 280 M
0 63 V
0 4528 R
0 -63 V
0 -4668 R
( 48.0832) Cshow
1.000 UL
LT0
0.50 0.50 0.50 C 1.000 UL
LTa
0.50 0.50 0.50 C 5093 280 M
0 4591 V
stroke
LT0
0.50 0.50 0.50 C 5093 280 M
0 63 V
0 4528 R
0 -63 V
0 -4668 R
( 48.7903) Cshow
1.000 UL
LT0
0.50 0.50 0.50 C 1.000 UL
LTa
0.50 0.50 0.50 C 5153 280 M
0 4591 V
stroke
LT0
0.50 0.50 0.50 C 5153 280 M
0 63 V
0 4528 R
0 -63 V
0 -4668 R
( 49.4974) Cshow
1.000 UL
LT0
0.50 0.50 0.50 C 1.000 UL
LTa
0.50 0.50 0.50 C 5213 280 M
0 4591 V
stroke
LT0
0.50 0.50 0.50 C 5213 280 M
0 63 V
0 4528 R
0 -63 V
0 -4668 R
( 50.2045) Cshow
1.000 UL
LT0
0.50 0.50 0.50 C 1.000 UL
LTa
0.50 0.50 0.50 C 5272 280 M
0 4591 V
stroke
LT0
0.50 0.50 0.50 C 5272 280 M
0 63 V
0 4528 R
0 -63 V
0 -4668 R
( 50.9116) Cshow
1.000 UL
LT0
0.50 0.50 0.50 C 1.000 UL
LTa
0.50 0.50 0.50 C 5332 280 M
0 4591 V
stroke
LT0
0.50 0.50 0.50 C 5332 280 M
0 63 V
0 4528 R
0 -63 V
0 -4668 R
( 51.6187) Cshow
1.000 UL
LT0
0.50 0.50 0.50 C 1.000 UL
LTa
0.50 0.50 0.50 C 5392 280 M
0 4591 V
stroke
LT0
0.50 0.50 0.50 C 5392 280 M
0 63 V
0 4528 R
0 -63 V
0 -4668 R
( 52.3258) Cshow
1.000 UL
LT0
0.50 0.50 0.50 C 1.000 UL
LTa
0.50 0.50 0.50 C 5452 280 M
0 4591 V
stroke
LT0
0.50 0.50 0.50 C 5452 280 M
0 63 V
0 4528 R
0 -63 V
0 -4668 R
( 53.033) Cshow
1.000 UL
LT0
0.50 0.50 0.50 C 1.000 UL
LTa
0.50 0.50 0.50 C 5512 280 M
0 4591 V
stroke
LT0
0.50 0.50 0.50 C 5512 280 M
0 63 V
0 4528 R
0 -63 V
0 -4668 R
( 53.7401) Cshow
1.000 UL
LT0
0.50 0.50 0.50 C 1.000 UL
LTa
0.50 0.50 0.50 C 5571 280 M
0 4591 V
stroke
LT0
0.50 0.50 0.50 C 5571 280 M
0 63 V
0 4528 R
0 -63 V
0 -4668 R
( 54.4472) Cshow
1.000 UL
LT0
0.50 0.50 0.50 C 1.000 UL
LTa
0.50 0.50 0.50 C 5631 280 M
0 4591 V
stroke
LT0
0.50 0.50 0.50 C 5631 280 M
0 63 V
0 4528 R
0 -63 V
0 -4668 R
( 55.1543) Cshow
1.000 UL
LT0
0.50 0.50 0.50 C 1.000 UL
LTa
0.50 0.50 0.50 C 5691 280 M
0 4591 V
stroke
LT0
0.50 0.50 0.50 C 5691 280 M
0 63 V
0 4528 R
0 -63 V
0 -4668 R
( 55.8614) Cshow
1.000 UL
LT0
0.50 0.50 0.50 C 1.000 UL
LTa
0.50 0.50 0.50 C 5751 280 M
0 4591 V
stroke
LT0
0.50 0.50 0.50 C 5751 280 M
0 63 V
0 4528 R
0 -63 V
0 -4668 R
( 56.5685) Cshow
1.000 UL
LT0
0.50 0.50 0.50 C 1.000 UL
LTa
0.50 0.50 0.50 C 5811 280 M
0 4591 V
stroke
LT0
0.50 0.50 0.50 C 5811 280 M
0 63 V
0 4528 R
0 -63 V
0 -4668 R
( 57.2756) Cshow
1.000 UL
LT0
0.50 0.50 0.50 C 1.000 UL
LTa
0.50 0.50 0.50 C 5870 280 M
0 4591 V
stroke
LT0
0.50 0.50 0.50 C 5870 280 M
0 63 V
0 4528 R
0 -63 V
0 -4668 R
( 57.9827) Cshow
1.000 UL
LT0
0.50 0.50 0.50 C 1.000 UL
LTa
0.50 0.50 0.50 C 5930 280 M
0 4591 V
stroke
LT0
0.50 0.50 0.50 C 5930 280 M
0 63 V
0 4528 R
0 -63 V
0 -4668 R
( 58.6898) Cshow
1.000 UL
LT0
0.50 0.50 0.50 C 1.000 UL
LTa
0.50 0.50 0.50 C 5990 280 M
0 4591 V
stroke
LT0
0.50 0.50 0.50 C 5990 280 M
0 63 V
0 4528 R
0 -63 V
0 -4668 R
( 59.3969) Cshow
1.000 UL
LT0
0.50 0.50 0.50 C 1.000 UL
LTa
0.50 0.50 0.50 C 6050 280 M
0 4591 V
stroke
LT0
0.50 0.50 0.50 C 6050 280 M
0 63 V
0 4528 R
0 -63 V
0 -4668 R
( 60.104) Cshow
1.000 UL
LT0
0.50 0.50 0.50 C 1.000 UL
LTa
0.50 0.50 0.50 C 6110 280 M
0 4591 V
stroke
LT0
0.50 0.50 0.50 C 6110 280 M
0 63 V
0 4528 R
0 -63 V
0 -4668 R
( 60.8111) Cshow
1.000 UL
LT0
0.50 0.50 0.50 C 1.000 UL
LTa
0.50 0.50 0.50 C 6169 280 M
0 4591 V
stroke
LT0
0.50 0.50 0.50 C 6169 280 M
0 63 V
0 4528 R
0 -63 V
0 -4668 R
( 61.5182) Cshow
1.000 UL
LT0
0.50 0.50 0.50 C 1.000 UL
LTa
0.50 0.50 0.50 C 6229 280 M
0 4591 V
stroke
LT0
0.50 0.50 0.50 C 6229 280 M
0 63 V
0 4528 R
0 -63 V
0 -4668 R
( 62.2253) Cshow
1.000 UL
LT0
0.50 0.50 0.50 C 1.000 UL
LTa
0.50 0.50 0.50 C 6289 280 M
0 4591 V
stroke
LT0
0.50 0.50 0.50 C 6289 280 M
0 63 V
0 4528 R
0 -63 V
0 -4668 R
( 62.9324) Cshow
1.000 UL
LT0
0.50 0.50 0.50 C 1.000 UL
LTa
0.50 0.50 0.50 C 6349 280 M
0 4591 V
stroke
LT0
0.50 0.50 0.50 C 6349 280 M
0 63 V
0 4528 R
0 -63 V
0 -4668 R
( 63.6395) Cshow
1.000 UL
LT0
0.50 0.50 0.50 C 1.000 UL
LTa
0.50 0.50 0.50 C 6409 280 M
0 4591 V
stroke
LT0
0.50 0.50 0.50 C 6409 280 M
0 63 V
0 4528 R
0 -63 V
0 -4668 R
( 64.3466) Cshow
1.000 UL
LT0
0.50 0.50 0.50 C 1.000 UL
LTa
0.50 0.50 0.50 C 6469 280 M
0 4591 V
stroke
LT0
0.50 0.50 0.50 C 6469 280 M
0 63 V
0 4528 R
0 -63 V
0 -4668 R
( 65.0538) Cshow
1.000 UL
LT0
0.50 0.50 0.50 C 1.000 UL
LTa
0.50 0.50 0.50 C 6528 280 M
0 4591 V
stroke
LT0
0.50 0.50 0.50 C 6528 280 M
0 63 V
0 4528 R
0 -63 V
0 -4668 R
( 65.7609) Cshow
1.000 UL
LT0
0.50 0.50 0.50 C 1.000 UL
LTa
0.50 0.50 0.50 C 6588 280 M
0 4591 V
stroke
LT0
0.50 0.50 0.50 C 6588 280 M
0 63 V
0 4528 R
0 -63 V
0 -4668 R
( 66.468) Cshow
1.000 UL
LT0
0.50 0.50 0.50 C 1.000 UL
LTa
0.50 0.50 0.50 C 6648 280 M
0 4591 V
stroke
LT0
0.50 0.50 0.50 C 6648 280 M
0 63 V
0 4528 R
0 -63 V
0 -4668 R
( 67.1751) Cshow
1.000 UL
LT0
0.50 0.50 0.50 C 1.000 UL
LTa
0.50 0.50 0.50 C 6708 280 M
0 4591 V
stroke
LT0
0.50 0.50 0.50 C 6708 280 M
0 63 V
0 4528 R
0 -63 V
0 -4668 R
( 67.8822) Cshow
1.000 UL
LT0
0.50 0.50 0.50 C 1.000 UL
LTa
0.50 0.50 0.50 C 6768 280 M
0 4591 V
stroke
LT0
0.50 0.50 0.50 C 6768 280 M
0 63 V
0 4528 R
0 -63 V
0 -4668 R
( 68.5893) Cshow
1.000 UL
LT0
0.50 0.50 0.50 C 1.000 UL
LTa
0.50 0.50 0.50 C 6827 280 M
0 4591 V
stroke
LT0
0.50 0.50 0.50 C 6827 280 M
0 63 V
0 4528 R
0 -63 V
0 -4668 R
( 69.2964) Cshow
1.000 UL
LT0
0.50 0.50 0.50 C 1.000 UL
LTa
0.50 0.50 0.50 C 6887 280 M
0 4591 V
stroke
LT0
0.50 0.50 0.50 C 6887 280 M
0 63 V
0 4528 R
0 -63 V
0 -4668 R
( 70.0035) Cshow
1.000 UL
LT0
0.50 0.50 0.50 C 1.000 UL
LTa
0.50 0.50 0.50 C 6947 280 M
0 4591 V
stroke
LT0
0.50 0.50 0.50 C 6947 280 M
0 63 V
0 4528 R
0 -63 V
0 -4668 R
( 70.7106) Cshow
1.000 UL
LT0
0.50 0.50 0.50 C 1.000 UL
LT0
0.50 0.50 0.50 C 966 4871 M
966 280 L
5981 0 V
0 4591 R
-5981 0 R
1.000 UP
stroke
LT0
0.50 0.50 0.50 C % Begin plot #1
1.500 UP
2.000 UL
LT0
0.00 0.00 1.00 C /Helvetica findfont 140 scalefont setfont
/vshift -46 def
966 785 M
60 0 V
0 275 R
60 0 V
59 0 V
60 0 V
60 0 V
0 276 R
60 0 V
0 413 R
60 0 V
0 184 R
59 0 V
60 0 V
60 0 V
60 0 V
60 0 V
60 0 V
59 0 V
0 46 R
60 0 V
0 91 R
60 0 V
0 46 R
60 0 V
0 46 R
60 0 V
59 0 V
60 0 V
60 0 V
60 0 V
60 0 V
59 0 V
60 0 V
0 230 R
60 0 V
60 0 V
0 92 R
60 0 V
0 46 R
59 0 V
0 46 R
60 0 V
0 91 R
60 0 V
60 0 V
60 0 V
60 0 V
59 0 V
0 505 R
60 0 V
0 46 R
60 0 V
60 0 V
60 0 V
59 0 V
60 0 V
60 0 V
0 138 R
60 0 V
60 0 V
59 0 V
60 0 V
60 0 V
0 46 R
60 0 V
60 0 V
60 0 V
59 0 V
60 0 V
60 0 V
60 0 V
60 0 V
59 0 V
60 0 V
60 0 V
60 0 V
60 0 V
59 0 V
0 46 R
60 0 V
60 0 V
0 46 R
60 0 V
0 46 R
60 0 V
59 0 V
60 0 V
60 0 V
60 0 V
60 0 V
60 0 V
0 137 R
59 0 V
60 0 V
60 0 V
60 0 V
60 0 V
59 0 V
60 0 V
60 0 V
0 46 R
60 0 V
0 46 R
60 0 V
stroke 5811 3769 M
0 46 R
59 0 V
0 92 R
60 0 V
0 46 R
60 0 V
60 0 V
0 92 R
60 0 V
59 0 V
60 0 V
60 0 V
0 91 R
60 0 V
0 46 R
60 0 V
60 0 V
59 0 V
0 92 R
60 0 V
0 413 R
60 0 V
0 92 R
60 0 V
119 46 R
60 0 V
-179 0 R
60 0 V
59 0 V
1026 785 M
0 46 V
0 46 V
0 46 V
0 46 V
0 46 V
0 45 V
239 0 R
0 46 V
0 46 V
0 46 V
0 46 V
0 46 V
0 46 V
60 0 R
0 46 V
0 46 V
0 46 V
0 46 V
0 45 V
0 46 V
0 46 V
0 46 V
0 46 V
60 0 R
0 46 V
0 46 V
0 46 V
0 46 V
418 0 R
0 46 V
60 0 R
0 46 V
0 45 V
60 0 R
0 46 V
60 0 R
0 46 V
478 0 R
0 46 V
0 46 V
0 46 V
0 46 V
0 46 V
120 0 R
0 46 V
0 46 V
60 0 R
0 46 V
59 0 R
0 46 V
60 0 R
0 45 V
0 46 V
299 0 R
0 46 V
0 46 V
0 46 V
0 46 V
0 46 V
0 46 V
0 46 V
0 46 V
0 46 V
0 45 V
0 46 V
60 0 R
0 46 V
359 0 R
0 46 V
0 46 V
0 46 V
299 0 R
0 46 V
837 0 R
0 46 V
stroke 4614 3448 M
120 0 R
0 46 V
60 0 R
0 46 V
419 0 R
0 46 V
0 45 V
0 46 V
478 0 R
0 46 V
60 0 R
0 46 V
60 0 R
0 46 V
59 0 R
0 46 V
0 46 V
60 0 R
0 46 V
120 0 R
0 46 V
0 46 V
239 0 R
0 46 V
0 45 V
60 0 R
0 46 V
179 0 R
0 46 V
0 46 V
60 0 R
0 46 V
0 46 V
0 46 V
0 46 V
0 46 V
0 46 V
0 46 V
0 45 V
0 46 V
60 0 R
0 46 V
0 46 V
60 0 R
0 46 V
966 280 M
0 46 V
0 46 V
0 46 V
0 46 V
0 46 V
0 45 V
0 46 V
0 46 V
0 46 V
0 46 V
0 46 V
966 785 CircleF
1026 785 CircleF
1026 1060 CircleF
1086 1060 CircleF
1086 1060 CircleF
1145 1060 CircleF
1145 1060 CircleF
1205 1060 CircleF
1205 1060 CircleF
1265 1060 CircleF
1265 1336 CircleF
1325 1336 CircleF
1325 1749 CircleF
1385 1749 CircleF
1385 1933 CircleF
1444 1933 CircleF
1444 1933 CircleF
1504 1933 CircleF
1504 1933 CircleF
1564 1933 CircleF
1564 1933 CircleF
1624 1933 CircleF
1624 1933 CircleF
1684 1933 CircleF
1684 1933 CircleF
1744 1933 CircleF
1744 1933 CircleF
1803 1933 CircleF
1803 1979 CircleF
1863 1979 CircleF
1863 2070 CircleF
1923 2070 CircleF
1923 2116 CircleF
1983 2116 CircleF
1983 2162 CircleF
2043 2162 CircleF
2043 2162 CircleF
2102 2162 CircleF
2102 2162 CircleF
2162 2162 CircleF
2162 2162 CircleF
2222 2162 CircleF
2222 2162 CircleF
2282 2162 CircleF
2282 2162 CircleF
2342 2162 CircleF
2342 2162 CircleF
2401 2162 CircleF
2401 2162 CircleF
2461 2162 CircleF
2461 2392 CircleF
2521 2392 CircleF
2521 2392 CircleF
2581 2392 CircleF
2581 2484 CircleF
2641 2484 CircleF
2641 2530 CircleF
2700 2530 CircleF
2700 2576 CircleF
2760 2576 CircleF
2760 2667 CircleF
2820 2667 CircleF
2820 2667 CircleF
2880 2667 CircleF
2880 2667 CircleF
2940 2667 CircleF
2940 2667 CircleF
3000 2667 CircleF
3000 2667 CircleF
3059 2667 CircleF
3059 3172 CircleF
3119 3172 CircleF
3119 3218 CircleF
3179 3218 CircleF
3179 3218 CircleF
3239 3218 CircleF
3239 3218 CircleF
3299 3218 CircleF
3299 3218 CircleF
3358 3218 CircleF
3358 3218 CircleF
3418 3218 CircleF
3418 3218 CircleF
3478 3218 CircleF
3478 3356 CircleF
3538 3356 CircleF
3538 3356 CircleF
3598 3356 CircleF
3598 3356 CircleF
3657 3356 CircleF
3657 3356 CircleF
3717 3356 CircleF
3717 3356 CircleF
3777 3356 CircleF
3777 3402 CircleF
3837 3402 CircleF
3837 3402 CircleF
3897 3402 CircleF
3897 3402 CircleF
3957 3402 CircleF
3957 3402 CircleF
4016 3402 CircleF
4016 3402 CircleF
4076 3402 CircleF
4076 3402 CircleF
4136 3402 CircleF
4136 3402 CircleF
4196 3402 CircleF
4196 3402 CircleF
4256 3402 CircleF
4256 3402 CircleF
4315 3402 CircleF
4315 3402 CircleF
4375 3402 CircleF
4375 3402 CircleF
4435 3402 CircleF
4435 3402 CircleF
4495 3402 CircleF
4495 3402 CircleF
4555 3402 CircleF
4555 3402 CircleF
4614 3402 CircleF
4614 3448 CircleF
4674 3448 CircleF
4674 3448 CircleF
4734 3448 CircleF
4734 3494 CircleF
4794 3494 CircleF
4794 3540 CircleF
4854 3540 CircleF
4854 3540 CircleF
4913 3540 CircleF
4913 3540 CircleF
4973 3540 CircleF
4973 3540 CircleF
5033 3540 CircleF
5033 3540 CircleF
5093 3540 CircleF
5093 3540 CircleF
5153 3540 CircleF
5153 3540 CircleF
5213 3540 CircleF
5213 3677 CircleF
5272 3677 CircleF
5272 3677 CircleF
5332 3677 CircleF
5332 3677 CircleF
5392 3677 CircleF
5392 3677 CircleF
5452 3677 CircleF
5452 3677 CircleF
5512 3677 CircleF
5512 3677 CircleF
5571 3677 CircleF
5571 3677 CircleF
5631 3677 CircleF
5631 3677 CircleF
5691 3677 CircleF
5691 3723 CircleF
5751 3723 CircleF
5751 3769 CircleF
5811 3769 CircleF
5811 3815 CircleF
5870 3815 CircleF
5870 3907 CircleF
5930 3907 CircleF
5930 3953 CircleF
5990 3953 CircleF
5990 3953 CircleF
6050 3953 CircleF
6050 4045 CircleF
6110 4045 CircleF
6110 4045 CircleF
6169 4045 CircleF
6169 4045 CircleF
6229 4045 CircleF
6229 4045 CircleF
6289 4045 CircleF
6289 4136 CircleF
6349 4136 CircleF
6349 4182 CircleF
6409 4182 CircleF
6409 4182 CircleF
6469 4182 CircleF
6469 4182 CircleF
6528 4182 CircleF
6528 4274 CircleF
6588 4274 CircleF
6588 4687 CircleF
6648 4687 CircleF
6648 4779 CircleF
6708 4779 CircleF
6827 4825 CircleF
6887 4825 CircleF
6708 4825 CircleF
6768 4825 CircleF
6768 4825 CircleF
6827 4825 CircleF
1026 785 CircleF
1026 831 CircleF
1026 831 CircleF
1026 877 CircleF
1026 877 CircleF
1026 923 CircleF
1026 923 CircleF
1026 969 CircleF
1026 969 CircleF
1026 1015 CircleF
1026 1015 CircleF
1026 1060 CircleF
1265 1060 CircleF
1265 1106 CircleF
1265 1106 CircleF
1265 1152 CircleF
1265 1152 CircleF
1265 1198 CircleF
1265 1198 CircleF
1265 1244 CircleF
1265 1244 CircleF
1265 1290 CircleF
1265 1290 CircleF
1265 1336 CircleF
1325 1336 CircleF
1325 1382 CircleF
1325 1382 CircleF
1325 1428 CircleF
1325 1428 CircleF
1325 1474 CircleF
1325 1474 CircleF
1325 1520 CircleF
1325 1520 CircleF
1325 1565 CircleF
1325 1565 CircleF
1325 1611 CircleF
1325 1611 CircleF
1325 1657 CircleF
1325 1657 CircleF
1325 1703 CircleF
1325 1703 CircleF
1325 1749 CircleF
1385 1749 CircleF
1385 1795 CircleF
1385 1795 CircleF
1385 1841 CircleF
1385 1841 CircleF
1385 1887 CircleF
1385 1887 CircleF
1385 1933 CircleF
1803 1933 CircleF
1803 1979 CircleF
1863 1979 CircleF
1863 2025 CircleF
1863 2025 CircleF
1863 2070 CircleF
1923 2070 CircleF
1923 2116 CircleF
1983 2116 CircleF
1983 2162 CircleF
2461 2162 CircleF
2461 2208 CircleF
2461 2208 CircleF
2461 2254 CircleF
2461 2254 CircleF
2461 2300 CircleF
2461 2300 CircleF
2461 2346 CircleF
2461 2346 CircleF
2461 2392 CircleF
2581 2392 CircleF
2581 2438 CircleF
2581 2438 CircleF
2581 2484 CircleF
2641 2484 CircleF
2641 2530 CircleF
2700 2530 CircleF
2700 2576 CircleF
2760 2576 CircleF
2760 2621 CircleF
2760 2621 CircleF
2760 2667 CircleF
3059 2667 CircleF
3059 2713 CircleF
3059 2713 CircleF
3059 2759 CircleF
3059 2759 CircleF
3059 2805 CircleF
3059 2805 CircleF
3059 2851 CircleF
3059 2851 CircleF
3059 2897 CircleF
3059 2897 CircleF
3059 2943 CircleF
3059 2943 CircleF
3059 2989 CircleF
3059 2989 CircleF
3059 3035 CircleF
3059 3035 CircleF
3059 3081 CircleF
3059 3081 CircleF
3059 3126 CircleF
3059 3126 CircleF
3059 3172 CircleF
3119 3172 CircleF
3119 3218 CircleF
3478 3218 CircleF
3478 3264 CircleF
3478 3264 CircleF
3478 3310 CircleF
3478 3310 CircleF
3478 3356 CircleF
3777 3356 CircleF
3777 3402 CircleF
4614 3402 CircleF
4614 3448 CircleF
4734 3448 CircleF
4734 3494 CircleF
4794 3494 CircleF
4794 3540 CircleF
5213 3540 CircleF
5213 3586 CircleF
5213 3586 CircleF
5213 3631 CircleF
5213 3631 CircleF
5213 3677 CircleF
5691 3677 CircleF
5691 3723 CircleF
5751 3723 CircleF
5751 3769 CircleF
5811 3769 CircleF
5811 3815 CircleF
5870 3815 CircleF
5870 3861 CircleF
5870 3861 CircleF
5870 3907 CircleF
5930 3907 CircleF
5930 3953 CircleF
6050 3953 CircleF
6050 3999 CircleF
6050 3999 CircleF
6050 4045 CircleF
6289 4045 CircleF
6289 4091 CircleF
6289 4091 CircleF
6289 4136 CircleF
6349 4136 CircleF
6349 4182 CircleF
6528 4182 CircleF
6528 4228 CircleF
6528 4228 CircleF
6528 4274 CircleF
6588 4274 CircleF
6588 4320 CircleF
6588 4320 CircleF
6588 4366 CircleF
6588 4366 CircleF
6588 4412 CircleF
6588 4412 CircleF
6588 4458 CircleF
6588 4458 CircleF
6588 4504 CircleF
6588 4504 CircleF
6588 4550 CircleF
6588 4550 CircleF
6588 4596 CircleF
6588 4596 CircleF
6588 4641 CircleF
6588 4641 CircleF
6588 4687 CircleF
6648 4687 CircleF
6648 4733 CircleF
6648 4733 CircleF
6648 4779 CircleF
6708 4779 CircleF
6708 4825 CircleF
966 280 CircleF
966 326 CircleF
966 326 CircleF
966 372 CircleF
966 372 CircleF
966 418 CircleF
966 418 CircleF
966 464 CircleF
966 464 CircleF
966 510 CircleF
966 510 CircleF
966 555 CircleF
966 555 CircleF
966 601 CircleF
966 601 CircleF
966 647 CircleF
966 647 CircleF
966 693 CircleF
966 693 CircleF
966 739 CircleF
966 739 CircleF
966 785 CircleF
% End plot #1
% Begin plot #2
1.500 UP
2.000 UL
LT0
1.00 0.55 0.00 C /Helvetica findfont 140 scalefont setfont
6722 3169 M
59 46 V
4077 2958 M
59 46 V
2837 483 M
60 46 V
4136 2695 M
60 46 V
3028 3226 M
59 46 V
5603 1213 M
59 46 V
951 1529 R
60 46 V
3045 2337 M
60 46 V
5343 1996 M
60 46 V
4418 1154 M
59 46 V
1752 471 R
60 45 V
4029 1037 M
60 46 V
1945 2371 M
60 46 V
2467 947 R
60 46 V
5623 717 M
60 46 V
947 1626 R
60 46 V
2486 4724 M
60 46 V
6178 2977 M
60 46 V
3923 1202 M
60 45 V
741 3160 R
60 46 V
1279 1455 M
59 46 V
3258 3700 M
59 46 V
6672 1274 M
60 46 V
2992 2207 M
60 46 V
-797 -26 R
60 46 V
4675 1998 M
60 45 V
1559 3432 M
60 46 V
3388 2163 M
60 46 V
1386 3628 M
60 45 V
4687 898 R
60 46 V
6703 3333 M
60 46 V
1363 1021 M
60 46 V
4070 832 M
60 46 V
1088 406 R
60 46 V
1435 333 M
60 46 V
6524 1618 M
60 46 V
3500 3811 M
59 46 V
2746 1241 M
60 46 V
3605 855 M
59 46 V
861 101 R
59 46 V
1100 4641 M
60 46 V
2301 89 R
60 46 V
5031 1133 M
60 46 V
2842 858 M
59 46 V
1420 971 M
60 45 V
4773 4107 M
59 46 V
6196 1490 M
59 46 V
971 1384 M
60 46 V
267 778 R
60 46 V
3435 3303 M
59 46 V
256 -692 R
59 46 V
2689 700 R
60 46 V
3963 3254 M
59 45 V
stroke 4022 3299 M
5267 329 M
60 45 V
3079 3153 M
59 46 V
1604 3306 M
60 45 V
1326 1850 M
60 46 V
3703 42 R
59 46 V
6213 3604 M
60 46 V
1597 2585 M
60 46 V
4727 1985 M
59 46 V
2461 2356 M
60 46 V
6784 452 M
60 46 V
2966 4341 M
60 46 V
5750 1704 M
60 46 V
3246 1047 M
60 46 V
6646 2328 M
60 46 V
1234 2519 M
59 46 V
3500 4061 M
60 46 V
6614 842 M
60 46 V
1976 4717 M
60 46 V
4290 2121 M
60 46 V
984 1024 M
60 46 V
3140 2779 M
59 46 V
1598 4114 M
60 46 V
4345 3657 M
60 46 V
2881 3316 M
60 46 V
2691 300 R
60 46 V
954 -20 R
59 46 V
3438 1538 M
60 46 V
969 778 M
60 46 V
6408 3381 M
60 46 V
3137 2699 M
60 46 V
5084 4419 M
60 46 V
3839 378 M
59 46 V
634 168 R
59 46 V
567 2995 R
60 46 V
4490 326 M
60 45 V
1982 392 M
59 46 V
3925 2348 M
59 45 V
3602 4454 M
60 46 V
2344 1377 M
60 46 V
5105 4573 M
60 46 V
6543 4244 M
60 46 V
6754 1843 M
60 46 V
2010 4512 M
60 46 V
2790 751 M
60 46 V
5217 1802 M
59 46 V
-1778 19 R
60 46 V
3182 917 R
60 46 V
6468 2300 M
59 46 V
4972 1668 M
60 46 V
1245 3348 M
60 46 V
86 329 R
60 45 V
6104 1668 M
60 46 V
stroke 6164 1714 M
1762 1044 M
60 46 V
3393 3181 M
60 46 V
5082 2611 M
60 45 V
1148 3900 M
60 46 V
163 -938 R
60 46 V
2707 697 M
60 46 V
1722 2856 M
59 46 V
1910 291 M
60 46 V
302 1822 R
60 46 V
5112 505 M
60 46 V
137 329 R
60 46 V
2017 2917 M
60 46 V
3118 818 M
60 45 V
1971 2125 M
60 46 V
1353 1727 M
59 46 V
5269 668 M
60 45 V
4400 3368 M
60 46 V
2056 -5 R
60 46 V
2549 1965 M
60 46 V
3661 4391 M
60 46 V
2404 2787 M
60 46 V
1444 4583 M
60 46 V
6806 4186 M
60 46 V
2197 3418 M
60 46 V
2135 652 R
59 46 V
3102 3797 M
59 46 V
244 -661 R
60 46 V
3018 1844 M
60 46 V
5627 1725 M
60 46 V
1399 1480 M
59 46 V
5054 1148 M
60 46 V
1506 819 R
60 46 V
5928 3921 M
59 45 V
3106 1772 M
60 46 V
2812 1007 M
60 46 V
1893 2065 M
60 46 V
5130 4120 M
59 46 V
2569 4111 M
60 45 V
-215 54 R
59 46 V
4526 338 M
59 46 V
365 579 R
60 46 V
3479 4531 M
60 46 V
2229 1231 M
60 46 V
971 1407 R
59 46 V
1285 2400 M
59 46 V
5061 4660 M
60 46 V
1830 536 M
59 46 V
1683 1915 M
60 46 V
5424 1391 M
60 46 V
6497 4161 M
60 46 V
5174 3531 M
60 46 V
4600 1259 M
59 45 V
stroke 4659 1304 M
4215 2354 M
60 45 V
970 2009 M
59 46 V
3240 4326 M
60 46 V
1511 630 M
60 46 V
102 3927 R
59 46 V
6441 3514 M
60 46 V
4074 1169 M
60 46 V
4105 485 M
60 46 V
6045 1884 M
60 46 V
4382 4220 M
59 46 V
2769 2631 M
60 46 V
221 281 R
59 46 V
4637 1642 M
60 46 V
6483 973 M
60 46 V
2964 1393 M
60 46 V
5417 652 M
60 46 V
972 2068 R
60 46 V
3429 3451 M
60 46 V
1553 1649 M
60 46 V
936 2874 R
59 46 V
-308 123 R
60 46 V
1868 2787 M
60 46 V
6341 560 M
60 45 V
1999 3946 M
60 46 V
4610 783 R
60 46 V
1638 858 M
60 46 V
5233 2665 M
60 46 V
3788 533 M
60 46 V
1209 1633 M
60 46 V
3386 3176 M
60 45 V
4795 878 M
59 46 V
-748 872 R
60 46 V
2049 4450 M
60 46 V
4376 909 M
60 46 V
6760 3766 M
60 46 V
4358 1198 M
59 46 V
449 -38 R
60 46 V
3736 4232 M
60 46 V
1069 1226 M
60 46 V
336 1203 R
59 46 V
5265 967 M
60 46 V
5784 611 M
60 46 V
4173 4761 M
60 46 V
1919 1332 M
60 46 V
-41 1385 R
60 46 V
-982 571 R
60 45 V
2747 -33 R
60 46 V
6220 1080 M
59 46 V
1896 3396 M
60 46 V
470 87 R
60 46 V
1118 2734 M
60 46 V
3798 338 R
60 46 V
stroke 5036 3164 M
2658 2918 M
60 46 V
596 631 R
60 46 V
2862 370 R
60 46 V
2383 3132 M
60 46 V
586 -185 R
60 46 V
1615 1903 M
60 46 V
3687 3802 M
60 46 V
2446 473 R
59 46 V
3876 558 M
60 46 V
2251 415 R
60 46 V
2053 318 M
60 46 V
959 3061 R
59 46 V
2651 1540 M
60 46 V
5020 339 M
60 46 V
1341 334 M
59 46 V
3658 2406 M
60 46 V
169 961 R
60 46 V
5729 2035 M
60 46 V
4338 1280 M
60 46 V
562 73 R
60 46 V
-1828 92 R
60 46 V
-483 653 R
60 46 V
789 2481 R
59 46 V
541 -417 R
60 46 V
4340 509 M
60 46 V
2391 2399 M
60 45 V
1206 968 M
60 45 V
2508 2625 M
60 46 V
871 402 R
60 46 V
2093 4085 M
60 46 V
2518 418 R
60 46 V
6204 2511 M
59 46 V
6097 2019 M
60 46 V
1191 479 M
60 46 V
946 4156 R
60 46 V
6819 1235 M
60 46 V
3896 2112 M
60 46 V
4653 958 M
60 46 V
2870 3202 M
60 45 V
1838 242 R
60 46 V
67 747 R
60 46 V
3612 4607 M
59 46 V
3648 2145 M
59 46 V
3122 928 M
59 46 V
305 1716 R
59 46 V
4067 416 M
60 46 V
2041 4632 M
60 46 V
6252 712 M
60 46 V
5732 3333 M
60 46 V
3480 2838 M
60 46 V
1453 540 M
60 46 V
4459 3674 M
60 46 V
stroke 4519 3720 M
1241 1158 M
59 46 V
4360 4301 M
60 46 V
1182 1030 M
59 46 V
5174 2687 M
60 46 V
5601 791 M
59 46 V
1958 2813 M
60 46 V
3449 894 R
60 46 V
-577 277 R
59 46 V
3539 4404 M
59 46 V
2311 2766 M
60 46 V
2579 1616 M
60 46 V
-816 498 R
60 46 V
1070 4581 M
60 46 V
5215 3138 M
60 46 V
2886 3405 M
60 46 V
1978 196 R
60 46 V
3308 1579 M
60 46 V
5905 1243 M
60 46 V
1575 3313 M
60 45 V
597 -776 R
60 46 V
1450 4491 M
59 46 V
3834 4054 M
60 46 V
1067 2663 M
60 46 V
2710 411 M
60 46 V
4027 2557 M
60 46 V
1210 3619 M
60 46 V
5241 685 R
59 46 V
3146 2426 M
60 46 V
2632 964 R
60 46 V
2258 3806 M
59 46 V
3764 505 R
60 46 V
5168 1157 M
60 46 V
-992 189 R
60 46 V
3164 3298 M
60 46 V
694 -178 R
59 46 V
5377 1666 M
60 46 V
3361 817 M
60 45 V
-63 3762 R
60 46 V
6184 3391 M
60 46 V
3811 2085 M
60 46 V
2656 3379 M
60 46 V
380 713 R
60 45 V
1022 924 M
60 45 V
5657 469 R
59 46 V
2152 977 M
60 46 V
1835 897 M
60 46 V
805 1623 R
60 46 V
1827 4734 M
60 46 V
6682 3815 M
60 46 V
6463 583 M
60 46 V
3024 1573 M
60 46 V
1877 2654 M
60 46 V
stroke 1937 2700 M
5232 4384 M
60 46 V
4279 521 M
60 46 V
951 2092 R
60 46 V
5006 421 M
59 46 V
-55 3268 R
60 46 V
1102 1891 M
60 46 V
2904 3405 M
60 46 V
1391 320 M
60 46 V
424 2709 R
60 46 V
3923 888 M
60 46 V
908 1494 R
60 46 V
2450 4039 M
60 46 V
2656 284 M
60 45 V
16 3838 R
59 46 V
2284 3447 M
60 46 V
5441 795 M
60 46 V
2455 2169 M
60 46 V
1510 4325 M
60 46 V
3922 2171 M
60 46 V
942 1299 R
60 46 V
2377 1163 M
60 46 V
3777 795 R
60 46 V
4591 834 M
60 46 V
4076 2000 M
59 46 V
6549 4647 M
60 46 V
2861 557 M
60 46 V
1566 672 M
60 46 V
4984 300 R
60 46 V
4334 3963 M
60 46 V
225 262 R
60 46 V
2972 2642 M
60 46 V
-986 443 R
60 46 V
4889 504 M
60 46 V
206 1962 R
60 45 V
6711 861 M
60 46 V
4073 3151 M
60 46 V
1555 451 M
60 46 V
6722 3169 CircleF
6781 3215 CircleF
4077 2958 CircleF
4136 3004 CircleF
2837 483 CircleF
2897 529 CircleF
4136 2695 CircleF
4196 2741 CircleF
3028 3226 CircleF
3087 3272 CircleF
5603 1213 CircleF
5662 1259 CircleF
6613 2788 CircleF
6673 2834 CircleF
3045 2337 CircleF
3105 2383 CircleF
5343 1996 CircleF
5403 2042 CircleF
4418 1154 CircleF
4477 1200 CircleF
6229 1671 CircleF
6289 1716 CircleF
4029 1037 CircleF
4089 1083 CircleF
1945 2371 CircleF
2005 2417 CircleF
4472 3364 CircleF
4532 3410 CircleF
5623 717 CircleF
5683 763 CircleF
6630 2389 CircleF
6690 2435 CircleF
2486 4724 CircleF
2546 4770 CircleF
6178 2977 CircleF
6238 3023 CircleF
3923 1202 CircleF
3983 1247 CircleF
4724 4407 CircleF
4784 4453 CircleF
1279 1455 CircleF
1338 1501 CircleF
3258 3700 CircleF
3317 3746 CircleF
6672 1274 CircleF
6732 1320 CircleF
2992 2207 CircleF
3052 2253 CircleF
2255 2227 CircleF
2315 2273 CircleF
4675 1998 CircleF
4735 2043 CircleF
1559 3432 CircleF
1619 3478 CircleF
3388 2163 CircleF
3448 2209 CircleF
1386 3628 CircleF
1446 3673 CircleF
6133 4571 CircleF
6193 4617 CircleF
6703 3333 CircleF
6763 3379 CircleF
1363 1021 CircleF
1423 1067 CircleF
4070 832 CircleF
4130 878 CircleF
5218 1284 CircleF
5278 1330 CircleF
1435 333 CircleF
1495 379 CircleF
6524 1618 CircleF
6584 1664 CircleF
3500 3811 CircleF
3559 3857 CircleF
2746 1241 CircleF
2806 1287 CircleF
3605 855 CircleF
3664 901 CircleF
4525 1002 CircleF
4584 1048 CircleF
1100 4641 CircleF
1160 4687 CircleF
3461 4776 CircleF
3521 4822 CircleF
5031 1133 CircleF
5091 1179 CircleF
2842 858 CircleF
2901 904 CircleF
1420 971 CircleF
1480 1016 CircleF
4773 4107 CircleF
4832 4153 CircleF
6196 1490 CircleF
6255 1536 CircleF
971 1384 CircleF
1031 1430 CircleF
1298 2208 CircleF
1358 2254 CircleF
3435 3303 CircleF
3494 3349 CircleF
3750 2657 CircleF
3809 2703 CircleF
6498 3403 CircleF
6558 3449 CircleF
3963 3254 CircleF
4022 3299 CircleF
5267 329 CircleF
5327 374 CircleF
3079 3153 CircleF
3138 3199 CircleF
1604 3306 CircleF
1664 3351 CircleF
1326 1850 CircleF
1386 1896 CircleF
5089 1938 CircleF
5148 1984 CircleF
6213 3604 CircleF
6273 3650 CircleF
1597 2585 CircleF
1657 2631 CircleF
4727 1985 CircleF
4786 2031 CircleF
2461 2356 CircleF
2521 2402 CircleF
6784 452 CircleF
6844 498 CircleF
2966 4341 CircleF
3026 4387 CircleF
5750 1704 CircleF
5810 1750 CircleF
3246 1047 CircleF
3306 1093 CircleF
6646 2328 CircleF
6706 2374 CircleF
1234 2519 CircleF
1293 2565 CircleF
3500 4061 CircleF
3560 4107 CircleF
6614 842 CircleF
6674 888 CircleF
1976 4717 CircleF
2036 4763 CircleF
4290 2121 CircleF
4350 2167 CircleF
984 1024 CircleF
1044 1070 CircleF
3140 2779 CircleF
3199 2825 CircleF
1598 4114 CircleF
1658 4160 CircleF
4345 3657 CircleF
4405 3703 CircleF
2881 3316 CircleF
2941 3362 CircleF
5632 3662 CircleF
5692 3708 CircleF
6646 3688 CircleF
6705 3734 CircleF
3438 1538 CircleF
3498 1584 CircleF
969 778 CircleF
1029 824 CircleF
6408 3381 CircleF
6468 3427 CircleF
3137 2699 CircleF
3197 2745 CircleF
5084 4419 CircleF
5144 4465 CircleF
3839 378 CircleF
3898 424 CircleF
4532 592 CircleF
4591 638 CircleF
5158 3633 CircleF
5218 3679 CircleF
4490 326 CircleF
4550 371 CircleF
1982 392 CircleF
2041 438 CircleF
3925 2348 CircleF
3984 2393 CircleF
3602 4454 CircleF
3662 4500 CircleF
2344 1377 CircleF
2404 1423 CircleF
5105 4573 CircleF
5165 4619 CircleF
6543 4244 CircleF
6603 4290 CircleF
6754 1843 CircleF
6814 1889 CircleF
2010 4512 CircleF
2070 4558 CircleF
2790 751 CircleF
2850 797 CircleF
5217 1802 CircleF
5276 1848 CircleF
3498 1867 CircleF
3558 1913 CircleF
6740 2830 CircleF
6800 2876 CircleF
6468 2300 CircleF
6527 2346 CircleF
4972 1668 CircleF
5032 1714 CircleF
1245 3348 CircleF
1305 3394 CircleF
1391 3723 CircleF
1451 3768 CircleF
6104 1668 CircleF
6164 1714 CircleF
1762 1044 CircleF
1822 1090 CircleF
3393 3181 CircleF
3453 3227 CircleF
5082 2611 CircleF
5142 2656 CircleF
1148 3900 CircleF
1208 3946 CircleF
1371 3008 CircleF
1431 3054 CircleF
2707 697 CircleF
2767 743 CircleF
1722 2856 CircleF
1781 2902 CircleF
1910 291 CircleF
1970 337 CircleF
2272 2159 CircleF
2332 2205 CircleF
5112 505 CircleF
5172 551 CircleF
5309 880 CircleF
5369 926 CircleF
2017 2917 CircleF
2077 2963 CircleF
3118 818 CircleF
3178 863 CircleF
1971 2125 CircleF
2031 2171 CircleF
1353 1727 CircleF
1412 1773 CircleF
5269 668 CircleF
5329 713 CircleF
4400 3368 CircleF
4460 3414 CircleF
6516 3409 CircleF
6576 3455 CircleF
2549 1965 CircleF
2609 2011 CircleF
3661 4391 CircleF
3721 4437 CircleF
2404 2787 CircleF
2464 2833 CircleF
1444 4583 CircleF
1504 4629 CircleF
6806 4186 CircleF
6866 4232 CircleF
2197 3418 CircleF
2257 3464 CircleF
4392 4116 CircleF
4451 4162 CircleF
3102 3797 CircleF
3161 3843 CircleF
3405 3182 CircleF
3465 3228 CircleF
3018 1844 CircleF
3078 1890 CircleF
5627 1725 CircleF
5687 1771 CircleF
1399 1480 CircleF
1458 1526 CircleF
5054 1148 CircleF
5114 1194 CircleF
6620 2013 CircleF
6680 2059 CircleF
5928 3921 CircleF
5987 3966 CircleF
3106 1772 CircleF
3166 1818 CircleF
2812 1007 CircleF
2872 1053 CircleF
1893 2065 CircleF
1953 2111 CircleF
5130 4120 CircleF
5189 4166 CircleF
2569 4111 CircleF
2629 4156 CircleF
2414 4210 CircleF
2473 4256 CircleF
4526 338 CircleF
4585 384 CircleF
4950 963 CircleF
5010 1009 CircleF
3479 4531 CircleF
3539 4577 CircleF
2229 1231 CircleF
2289 1277 CircleF
3260 2684 CircleF
3319 2730 CircleF
1285 2400 CircleF
1344 2446 CircleF
5061 4660 CircleF
5121 4706 CircleF
1830 536 CircleF
1889 582 CircleF
1683 1915 CircleF
1743 1961 CircleF
5424 1391 CircleF
5484 1437 CircleF
6497 4161 CircleF
6557 4207 CircleF
5174 3531 CircleF
5234 3577 CircleF
4600 1259 CircleF
4659 1304 CircleF
4215 2354 CircleF
4275 2399 CircleF
970 2009 CircleF
1029 2055 CircleF
3240 4326 CircleF
3300 4372 CircleF
1511 630 CircleF
1571 676 CircleF
1673 4603 CircleF
1732 4649 CircleF
6441 3514 CircleF
6501 3560 CircleF
4074 1169 CircleF
4134 1215 CircleF
4105 485 CircleF
4165 531 CircleF
6045 1884 CircleF
6105 1930 CircleF
4382 4220 CircleF
4441 4266 CircleF
2769 2631 CircleF
2829 2677 CircleF
3050 2958 CircleF
3109 3004 CircleF
4637 1642 CircleF
4697 1688 CircleF
6483 973 CircleF
6543 1019 CircleF
2964 1393 CircleF
3024 1439 CircleF
5417 652 CircleF
5477 698 CircleF
6449 2766 CircleF
6509 2812 CircleF
3429 3451 CircleF
3489 3497 CircleF
1553 1649 CircleF
1613 1695 CircleF
2549 4569 CircleF
2608 4615 CircleF
2300 4738 CircleF
2360 4784 CircleF
1868 2787 CircleF
1928 2833 CircleF
6341 560 CircleF
6401 605 CircleF
1999 3946 CircleF
2059 3992 CircleF
6669 4775 CircleF
6729 4821 CircleF
1638 858 CircleF
1698 904 CircleF
5233 2665 CircleF
5293 2711 CircleF
3788 533 CircleF
3848 579 CircleF
1209 1633 CircleF
1269 1679 CircleF
3386 3176 CircleF
3446 3221 CircleF
4795 878 CircleF
4854 924 CircleF
4106 1796 CircleF
4166 1842 CircleF
2049 4450 CircleF
2109 4496 CircleF
4376 909 CircleF
4436 955 CircleF
6760 3766 CircleF
6820 3812 CircleF
4358 1198 CircleF
4417 1244 CircleF
4866 1206 CircleF
4926 1252 CircleF
3736 4232 CircleF
3796 4278 CircleF
1069 1226 CircleF
1129 1272 CircleF
1465 2475 CircleF
1524 2521 CircleF
5265 967 CircleF
5325 1013 CircleF
5784 611 CircleF
5844 657 CircleF
4173 4761 CircleF
4233 4807 CircleF
1919 1332 CircleF
1979 1378 CircleF
1938 2763 CircleF
1998 2809 CircleF
1016 3380 CircleF
1076 3425 CircleF
3823 3392 CircleF
3883 3438 CircleF
6220 1080 CircleF
6279 1126 CircleF
1896 3396 CircleF
1956 3442 CircleF
2426 3529 CircleF
2486 3575 CircleF
1118 2734 CircleF
1178 2780 CircleF
4976 3118 CircleF
5036 3164 CircleF
2658 2918 CircleF
2718 2964 CircleF
3314 3595 CircleF
3374 3641 CircleF
6236 4011 CircleF
6296 4057 CircleF
2383 3132 CircleF
2443 3178 CircleF
3029 2993 CircleF
3089 3039 CircleF
1615 1903 CircleF
1675 1949 CircleF
3687 3802 CircleF
3747 3848 CircleF
6193 4321 CircleF
6252 4367 CircleF
3876 558 CircleF
3936 604 CircleF
6187 1019 CircleF
6247 1065 CircleF
2053 318 CircleF
2113 364 CircleF
3072 3425 CircleF
3131 3471 CircleF
2651 1540 CircleF
2711 1586 CircleF
5020 339 CircleF
5080 385 CircleF
1341 334 CircleF
1400 380 CircleF
3658 2406 CircleF
3718 2452 CircleF
3887 3413 CircleF
3947 3459 CircleF
5729 2035 CircleF
5789 2081 CircleF
4338 1280 CircleF
4398 1326 CircleF
4960 1399 CircleF
5020 1445 CircleF
3192 1537 CircleF
3252 1583 CircleF
2769 2236 CircleF
2829 2282 CircleF
3618 4763 CircleF
3677 4809 CircleF
4218 4392 CircleF
4278 4438 CircleF
4340 509 CircleF
4400 555 CircleF
2391 2399 CircleF
2451 2444 CircleF
1206 968 CircleF
1266 1013 CircleF
2508 2625 CircleF
2568 2671 CircleF
3439 3073 CircleF
3499 3119 CircleF
2093 4085 CircleF
2153 4131 CircleF
4671 4549 CircleF
4731 4595 CircleF
6204 2511 CircleF
6263 2557 CircleF
6097 2019 CircleF
6157 2065 CircleF
1191 479 CircleF
1251 525 CircleF
2197 4681 CircleF
2257 4727 CircleF
6819 1235 CircleF
6879 1281 CircleF
3896 2112 CircleF
3956 2158 CircleF
4653 958 CircleF
4713 1004 CircleF
2870 3202 CircleF
2930 3247 CircleF
4768 3489 CircleF
4828 3535 CircleF
4895 4282 CircleF
4955 4328 CircleF
3612 4607 CircleF
3671 4653 CircleF
3648 2145 CircleF
3707 2191 CircleF
3122 928 CircleF
3181 974 CircleF
3486 2690 CircleF
3545 2736 CircleF
4067 416 CircleF
4127 462 CircleF
2041 4632 CircleF
2101 4678 CircleF
6252 712 CircleF
6312 758 CircleF
5732 3333 CircleF
5792 3379 CircleF
3480 2838 CircleF
3540 2884 CircleF
1453 540 CircleF
1513 586 CircleF
4459 3674 CircleF
4519 3720 CircleF
1241 1158 CircleF
1300 1204 CircleF
4360 4301 CircleF
4420 4347 CircleF
1182 1030 CircleF
1241 1076 CircleF
5174 2687 CircleF
5234 2733 CircleF
5601 791 CircleF
5660 837 CircleF
1958 2813 CircleF
2018 2859 CircleF
5467 3753 CircleF
5527 3799 CircleF
4950 4076 CircleF
5009 4122 CircleF
3539 4404 CircleF
3598 4450 CircleF
2311 2766 CircleF
2371 2812 CircleF
2579 1616 CircleF
2639 1662 CircleF
1823 2160 CircleF
1883 2206 CircleF
1070 4581 CircleF
1130 4627 CircleF
5215 3138 CircleF
5275 3184 CircleF
2886 3405 CircleF
2946 3451 CircleF
4924 3647 CircleF
4984 3693 CircleF
3308 1579 CircleF
3368 1625 CircleF
5905 1243 CircleF
5965 1289 CircleF
1575 3313 CircleF
1635 3358 CircleF
2232 2582 CircleF
2292 2628 CircleF
1450 4491 CircleF
1509 4537 CircleF
3834 4054 CircleF
3894 4100 CircleF
1067 2663 CircleF
1127 2709 CircleF
2710 411 CircleF
2770 457 CircleF
4027 2557 CircleF
4087 2603 CircleF
1210 3619 CircleF
1270 3665 CircleF
6511 4350 CircleF
6570 4396 CircleF
3146 2426 CircleF
3206 2472 CircleF
5838 3436 CircleF
5898 3482 CircleF
2258 3806 CircleF
2317 3852 CircleF
6081 4357 CircleF
6141 4403 CircleF
5168 1157 CircleF
5228 1203 CircleF
4236 1392 CircleF
4296 1438 CircleF
3164 3298 CircleF
3224 3344 CircleF
3918 3166 CircleF
3977 3212 CircleF
5377 1666 CircleF
5437 1712 CircleF
3361 817 CircleF
3421 862 CircleF
3358 4624 CircleF
3418 4670 CircleF
6184 3391 CircleF
6244 3437 CircleF
3811 2085 CircleF
3871 2131 CircleF
2656 3379 CircleF
2716 3425 CircleF
3096 4138 CircleF
3156 4183 CircleF
1022 924 CircleF
1082 969 CircleF
6739 1438 CircleF
6798 1484 CircleF
2152 977 CircleF
2212 1023 CircleF
1835 897 CircleF
1895 943 CircleF
2700 2566 CircleF
2760 2612 CircleF
1827 4734 CircleF
1887 4780 CircleF
6682 3815 CircleF
6742 3861 CircleF
6463 583 CircleF
6523 629 CircleF
3024 1573 CircleF
3084 1619 CircleF
1877 2654 CircleF
1937 2700 CircleF
5232 4384 CircleF
5292 4430 CircleF
4279 521 CircleF
4339 567 CircleF
5290 2659 CircleF
5350 2705 CircleF
5006 421 CircleF
5065 467 CircleF
5010 3735 CircleF
5070 3781 CircleF
1102 1891 CircleF
1162 1937 CircleF
2904 3405 CircleF
2964 3451 CircleF
1391 320 CircleF
1451 366 CircleF
1875 3075 CircleF
1935 3121 CircleF
3923 888 CircleF
3983 934 CircleF
4891 2428 CircleF
4951 2474 CircleF
2450 4039 CircleF
2510 4085 CircleF
2656 284 CircleF
2716 329 CircleF
2732 4167 CircleF
2791 4213 CircleF
2284 3447 CircleF
2344 3493 CircleF
5441 795 CircleF
5501 841 CircleF
2455 2169 CircleF
2515 2215 CircleF
1510 4325 CircleF
1570 4371 CircleF
3922 2171 CircleF
3982 2217 CircleF
4924 3516 CircleF
4984 3562 CircleF
2377 1163 CircleF
2437 1209 CircleF
6214 2004 CircleF
6274 2050 CircleF
4591 834 CircleF
4651 880 CircleF
4076 2000 CircleF
4135 2046 CircleF
6549 4647 CircleF
6609 4693 CircleF
2861 557 CircleF
2921 603 CircleF
1566 672 CircleF
1626 718 CircleF
6610 1018 CircleF
6670 1064 CircleF
4334 3963 CircleF
4394 4009 CircleF
4619 4271 CircleF
4679 4317 CircleF
2972 2642 CircleF
3032 2688 CircleF
2046 3131 CircleF
2106 3177 CircleF
4889 504 CircleF
4949 550 CircleF
5155 2512 CircleF
5215 2557 CircleF
6711 861 CircleF
6771 907 CircleF
4073 3151 CircleF
4133 3197 CircleF
1555 451 CircleF
1615 497 CircleF
% End plot #2
1.000 UP
1.000 UL
LT0
0.50 0.50 0.50 C stroke
grestore
end
showpage
%%Trailer
%%DocumentFonts: Helvetica
%%Pages: 1
