%!PS-Adobe-2.0
%%Title: out.ps
%%Creator: gnuplot 4.6 patchlevel 6
%%CreationDate: Thu May 28 15:35:20 2015
%%DocumentFonts: (atend)
%%BoundingBox: 50 50 554 770
%%Orientation: Landscape
%%Pages: (atend)
%%EndComments
%%BeginProlog
/gnudict 256 dict def
gnudict begin
%
% The following true/false flags may be edited by hand if desired.
% The unit line width and grayscale image gamma correction may also be changed.
%
/Color false def
/Blacktext false def
/Solid false def
/Dashlength 1 def
/Landscape true def
/Level1 false def
/Rounded false def
/ClipToBoundingBox false def
/SuppressPDFMark false def
/TransparentPatterns false def
/gnulinewidth 5.000 def
/userlinewidth gnulinewidth def
/Gamma 1.0 def
/BackgroundColor {-1.000 -1.000 -1.000} def
%
/vshift -46 def
/dl1 {
  10.0 Dashlength mul mul
  Rounded { currentlinewidth 0.75 mul sub dup 0 le { pop 0.01 } if } if
} def
/dl2 {
  10.0 Dashlength mul mul
  Rounded { currentlinewidth 0.75 mul add } if
} def
/hpt_ 31.5 def
/vpt_ 31.5 def
/hpt hpt_ def
/vpt vpt_ def
/doclip {
  ClipToBoundingBox {
    newpath 50 50 moveto 554 50 lineto 554 770 lineto 50 770 lineto closepath
    clip
  } if
} def
%
% Gnuplot Prolog Version 4.6 (September 2012)
%
%/SuppressPDFMark true def
%
/M {moveto} bind def
/L {lineto} bind def
/R {rmoveto} bind def
/V {rlineto} bind def
/N {newpath moveto} bind def
/Z {closepath} bind def
/C {setrgbcolor} bind def
/f {rlineto fill} bind def
/g {setgray} bind def
/Gshow {show} def   % May be redefined later in the file to support UTF-8
/vpt2 vpt 2 mul def
/hpt2 hpt 2 mul def
/Lshow {currentpoint stroke M 0 vshift R 
	Blacktext {gsave 0 setgray show grestore} {show} ifelse} def
/Rshow {currentpoint stroke M dup stringwidth pop neg vshift R
	Blacktext {gsave 0 setgray show grestore} {show} ifelse} def
/Cshow {currentpoint stroke M dup stringwidth pop -2 div vshift R 
	Blacktext {gsave 0 setgray show grestore} {show} ifelse} def
/UP {dup vpt_ mul /vpt exch def hpt_ mul /hpt exch def
  /hpt2 hpt 2 mul def /vpt2 vpt 2 mul def} def
/DL {Color {setrgbcolor Solid {pop []} if 0 setdash}
 {pop pop pop 0 setgray Solid {pop []} if 0 setdash} ifelse} def
/BL {stroke userlinewidth 2 mul setlinewidth
	Rounded {1 setlinejoin 1 setlinecap} if} def
/AL {stroke userlinewidth 2 div setlinewidth
	Rounded {1 setlinejoin 1 setlinecap} if} def
/UL {dup gnulinewidth mul /userlinewidth exch def
	dup 1 lt {pop 1} if 10 mul /udl exch def} def
/PL {stroke userlinewidth setlinewidth
	Rounded {1 setlinejoin 1 setlinecap} if} def
3.8 setmiterlimit
% Default Line colors
/LCw {1 1 1} def
/LCb {0 0 0} def
/LCa {0 0 0} def
/LC0 {1 0 0} def
/LC1 {0 1 0} def
/LC2 {0 0 1} def
/LC3 {1 0 1} def
/LC4 {0 1 1} def
/LC5 {1 1 0} def
/LC6 {0 0 0} def
/LC7 {1 0.3 0} def
/LC8 {0.5 0.5 0.5} def
% Default Line Types
/LTw {PL [] 1 setgray} def
/LTb {BL [] LCb DL} def
/LTa {AL [1 udl mul 2 udl mul] 0 setdash LCa setrgbcolor} def
/LT0 {PL [] LC0 DL} def
/LT1 {PL [4 dl1 2 dl2] LC1 DL} def
/LT2 {PL [2 dl1 3 dl2] LC2 DL} def
/LT3 {PL [1 dl1 1.5 dl2] LC3 DL} def
/LT4 {PL [6 dl1 2 dl2 1 dl1 2 dl2] LC4 DL} def
/LT5 {PL [3 dl1 3 dl2 1 dl1 3 dl2] LC5 DL} def
/LT6 {PL [2 dl1 2 dl2 2 dl1 6 dl2] LC6 DL} def
/LT7 {PL [1 dl1 2 dl2 6 dl1 2 dl2 1 dl1 2 dl2] LC7 DL} def
/LT8 {PL [2 dl1 2 dl2 2 dl1 2 dl2 2 dl1 2 dl2 2 dl1 4 dl2] LC8 DL} def
/Pnt {stroke [] 0 setdash gsave 1 setlinecap M 0 0 V stroke grestore} def
/Dia {stroke [] 0 setdash 2 copy vpt add M
  hpt neg vpt neg V hpt vpt neg V
  hpt vpt V hpt neg vpt V closepath stroke
  Pnt} def
/Pls {stroke [] 0 setdash vpt sub M 0 vpt2 V
  currentpoint stroke M
  hpt neg vpt neg R hpt2 0 V stroke
 } def
/Box {stroke [] 0 setdash 2 copy exch hpt sub exch vpt add M
  0 vpt2 neg V hpt2 0 V 0 vpt2 V
  hpt2 neg 0 V closepath stroke
  Pnt} def
/Crs {stroke [] 0 setdash exch hpt sub exch vpt add M
  hpt2 vpt2 neg V currentpoint stroke M
  hpt2 neg 0 R hpt2 vpt2 V stroke} def
/TriU {stroke [] 0 setdash 2 copy vpt 1.12 mul add M
  hpt neg vpt -1.62 mul V
  hpt 2 mul 0 V
  hpt neg vpt 1.62 mul V closepath stroke
  Pnt} def
/Star {2 copy Pls Crs} def
/BoxF {stroke [] 0 setdash exch hpt sub exch vpt add M
  0 vpt2 neg V hpt2 0 V 0 vpt2 V
  hpt2 neg 0 V closepath fill} def
/TriUF {stroke [] 0 setdash vpt 1.12 mul add M
  hpt neg vpt -1.62 mul V
  hpt 2 mul 0 V
  hpt neg vpt 1.62 mul V closepath fill} def
/TriD {stroke [] 0 setdash 2 copy vpt 1.12 mul sub M
  hpt neg vpt 1.62 mul V
  hpt 2 mul 0 V
  hpt neg vpt -1.62 mul V closepath stroke
  Pnt} def
/TriDF {stroke [] 0 setdash vpt 1.12 mul sub M
  hpt neg vpt 1.62 mul V
  hpt 2 mul 0 V
  hpt neg vpt -1.62 mul V closepath fill} def
/DiaF {stroke [] 0 setdash vpt add M
  hpt neg vpt neg V hpt vpt neg V
  hpt vpt V hpt neg vpt V closepath fill} def
/Pent {stroke [] 0 setdash 2 copy gsave
  translate 0 hpt M 4 {72 rotate 0 hpt L} repeat
  closepath stroke grestore Pnt} def
/PentF {stroke [] 0 setdash gsave
  translate 0 hpt M 4 {72 rotate 0 hpt L} repeat
  closepath fill grestore} def
/Circle {stroke [] 0 setdash 2 copy
  hpt 0 360 arc stroke Pnt} def
/CircleF {stroke [] 0 setdash hpt 0 360 arc fill} def
/C0 {BL [] 0 setdash 2 copy moveto vpt 90 450 arc} bind def
/C1 {BL [] 0 setdash 2 copy moveto
	2 copy vpt 0 90 arc closepath fill
	vpt 0 360 arc closepath} bind def
/C2 {BL [] 0 setdash 2 copy moveto
	2 copy vpt 90 180 arc closepath fill
	vpt 0 360 arc closepath} bind def
/C3 {BL [] 0 setdash 2 copy moveto
	2 copy vpt 0 180 arc closepath fill
	vpt 0 360 arc closepath} bind def
/C4 {BL [] 0 setdash 2 copy moveto
	2 copy vpt 180 270 arc closepath fill
	vpt 0 360 arc closepath} bind def
/C5 {BL [] 0 setdash 2 copy moveto
	2 copy vpt 0 90 arc
	2 copy moveto
	2 copy vpt 180 270 arc closepath fill
	vpt 0 360 arc} bind def
/C6 {BL [] 0 setdash 2 copy moveto
	2 copy vpt 90 270 arc closepath fill
	vpt 0 360 arc closepath} bind def
/C7 {BL [] 0 setdash 2 copy moveto
	2 copy vpt 0 270 arc closepath fill
	vpt 0 360 arc closepath} bind def
/C8 {BL [] 0 setdash 2 copy moveto
	2 copy vpt 270 360 arc closepath fill
	vpt 0 360 arc closepath} bind def
/C9 {BL [] 0 setdash 2 copy moveto
	2 copy vpt 270 450 arc closepath fill
	vpt 0 360 arc closepath} bind def
/C10 {BL [] 0 setdash 2 copy 2 copy moveto vpt 270 360 arc closepath fill
	2 copy moveto
	2 copy vpt 90 180 arc closepath fill
	vpt 0 360 arc closepath} bind def
/C11 {BL [] 0 setdash 2 copy moveto
	2 copy vpt 0 180 arc closepath fill
	2 copy moveto
	2 copy vpt 270 360 arc closepath fill
	vpt 0 360 arc closepath} bind def
/C12 {BL [] 0 setdash 2 copy moveto
	2 copy vpt 180 360 arc closepath fill
	vpt 0 360 arc closepath} bind def
/C13 {BL [] 0 setdash 2 copy moveto
	2 copy vpt 0 90 arc closepath fill
	2 copy moveto
	2 copy vpt 180 360 arc closepath fill
	vpt 0 360 arc closepath} bind def
/C14 {BL [] 0 setdash 2 copy moveto
	2 copy vpt 90 360 arc closepath fill
	vpt 0 360 arc} bind def
/C15 {BL [] 0 setdash 2 copy vpt 0 360 arc closepath fill
	vpt 0 360 arc closepath} bind def
/Rec {newpath 4 2 roll moveto 1 index 0 rlineto 0 exch rlineto
	neg 0 rlineto closepath} bind def
/Square {dup Rec} bind def
/Bsquare {vpt sub exch vpt sub exch vpt2 Square} bind def
/S0 {BL [] 0 setdash 2 copy moveto 0 vpt rlineto BL Bsquare} bind def
/S1 {BL [] 0 setdash 2 copy vpt Square fill Bsquare} bind def
/S2 {BL [] 0 setdash 2 copy exch vpt sub exch vpt Square fill Bsquare} bind def
/S3 {BL [] 0 setdash 2 copy exch vpt sub exch vpt2 vpt Rec fill Bsquare} bind def
/S4 {BL [] 0 setdash 2 copy exch vpt sub exch vpt sub vpt Square fill Bsquare} bind def
/S5 {BL [] 0 setdash 2 copy 2 copy vpt Square fill
	exch vpt sub exch vpt sub vpt Square fill Bsquare} bind def
/S6 {BL [] 0 setdash 2 copy exch vpt sub exch vpt sub vpt vpt2 Rec fill Bsquare} bind def
/S7 {BL [] 0 setdash 2 copy exch vpt sub exch vpt sub vpt vpt2 Rec fill
	2 copy vpt Square fill Bsquare} bind def
/S8 {BL [] 0 setdash 2 copy vpt sub vpt Square fill Bsquare} bind def
/S9 {BL [] 0 setdash 2 copy vpt sub vpt vpt2 Rec fill Bsquare} bind def
/S10 {BL [] 0 setdash 2 copy vpt sub vpt Square fill 2 copy exch vpt sub exch vpt Square fill
	Bsquare} bind def
/S11 {BL [] 0 setdash 2 copy vpt sub vpt Square fill 2 copy exch vpt sub exch vpt2 vpt Rec fill
	Bsquare} bind def
/S12 {BL [] 0 setdash 2 copy exch vpt sub exch vpt sub vpt2 vpt Rec fill Bsquare} bind def
/S13 {BL [] 0 setdash 2 copy exch vpt sub exch vpt sub vpt2 vpt Rec fill
	2 copy vpt Square fill Bsquare} bind def
/S14 {BL [] 0 setdash 2 copy exch vpt sub exch vpt sub vpt2 vpt Rec fill
	2 copy exch vpt sub exch vpt Square fill Bsquare} bind def
/S15 {BL [] 0 setdash 2 copy Bsquare fill Bsquare} bind def
/D0 {gsave translate 45 rotate 0 0 S0 stroke grestore} bind def
/D1 {gsave translate 45 rotate 0 0 S1 stroke grestore} bind def
/D2 {gsave translate 45 rotate 0 0 S2 stroke grestore} bind def
/D3 {gsave translate 45 rotate 0 0 S3 stroke grestore} bind def
/D4 {gsave translate 45 rotate 0 0 S4 stroke grestore} bind def
/D5 {gsave translate 45 rotate 0 0 S5 stroke grestore} bind def
/D6 {gsave translate 45 rotate 0 0 S6 stroke grestore} bind def
/D7 {gsave translate 45 rotate 0 0 S7 stroke grestore} bind def
/D8 {gsave translate 45 rotate 0 0 S8 stroke grestore} bind def
/D9 {gsave translate 45 rotate 0 0 S9 stroke grestore} bind def
/D10 {gsave translate 45 rotate 0 0 S10 stroke grestore} bind def
/D11 {gsave translate 45 rotate 0 0 S11 stroke grestore} bind def
/D12 {gsave translate 45 rotate 0 0 S12 stroke grestore} bind def
/D13 {gsave translate 45 rotate 0 0 S13 stroke grestore} bind def
/D14 {gsave translate 45 rotate 0 0 S14 stroke grestore} bind def
/D15 {gsave translate 45 rotate 0 0 S15 stroke grestore} bind def
/DiaE {stroke [] 0 setdash vpt add M
  hpt neg vpt neg V hpt vpt neg V
  hpt vpt V hpt neg vpt V closepath stroke} def
/BoxE {stroke [] 0 setdash exch hpt sub exch vpt add M
  0 vpt2 neg V hpt2 0 V 0 vpt2 V
  hpt2 neg 0 V closepath stroke} def
/TriUE {stroke [] 0 setdash vpt 1.12 mul add M
  hpt neg vpt -1.62 mul V
  hpt 2 mul 0 V
  hpt neg vpt 1.62 mul V closepath stroke} def
/TriDE {stroke [] 0 setdash vpt 1.12 mul sub M
  hpt neg vpt 1.62 mul V
  hpt 2 mul 0 V
  hpt neg vpt -1.62 mul V closepath stroke} def
/PentE {stroke [] 0 setdash gsave
  translate 0 hpt M 4 {72 rotate 0 hpt L} repeat
  closepath stroke grestore} def
/CircE {stroke [] 0 setdash 
  hpt 0 360 arc stroke} def
/Opaque {gsave closepath 1 setgray fill grestore 0 setgray closepath} def
/DiaW {stroke [] 0 setdash vpt add M
  hpt neg vpt neg V hpt vpt neg V
  hpt vpt V hpt neg vpt V Opaque stroke} def
/BoxW {stroke [] 0 setdash exch hpt sub exch vpt add M
  0 vpt2 neg V hpt2 0 V 0 vpt2 V
  hpt2 neg 0 V Opaque stroke} def
/TriUW {stroke [] 0 setdash vpt 1.12 mul add M
  hpt neg vpt -1.62 mul V
  hpt 2 mul 0 V
  hpt neg vpt 1.62 mul V Opaque stroke} def
/TriDW {stroke [] 0 setdash vpt 1.12 mul sub M
  hpt neg vpt 1.62 mul V
  hpt 2 mul 0 V
  hpt neg vpt -1.62 mul V Opaque stroke} def
/PentW {stroke [] 0 setdash gsave
  translate 0 hpt M 4 {72 rotate 0 hpt L} repeat
  Opaque stroke grestore} def
/CircW {stroke [] 0 setdash 
  hpt 0 360 arc Opaque stroke} def
/BoxFill {gsave Rec 1 setgray fill grestore} def
/Density {
  /Fillden exch def
  currentrgbcolor
  /ColB exch def /ColG exch def /ColR exch def
  /ColR ColR Fillden mul Fillden sub 1 add def
  /ColG ColG Fillden mul Fillden sub 1 add def
  /ColB ColB Fillden mul Fillden sub 1 add def
  ColR ColG ColB setrgbcolor} def
/BoxColFill {gsave Rec PolyFill} def
/PolyFill {gsave Density fill grestore grestore} def
/h {rlineto rlineto rlineto gsave closepath fill grestore} bind def
%
% PostScript Level 1 Pattern Fill routine for rectangles
% Usage: x y w h s a XX PatternFill
%	x,y = lower left corner of box to be filled
%	w,h = width and height of box
%	  a = angle in degrees between lines and x-axis
%	 XX = 0/1 for no/yes cross-hatch
%
/PatternFill {gsave /PFa [ 9 2 roll ] def
  PFa 0 get PFa 2 get 2 div add PFa 1 get PFa 3 get 2 div add translate
  PFa 2 get -2 div PFa 3 get -2 div PFa 2 get PFa 3 get Rec
  TransparentPatterns {} {gsave 1 setgray fill grestore} ifelse
  clip
  currentlinewidth 0.5 mul setlinewidth
  /PFs PFa 2 get dup mul PFa 3 get dup mul add sqrt def
  0 0 M PFa 5 get rotate PFs -2 div dup translate
  0 1 PFs PFa 4 get div 1 add floor cvi
	{PFa 4 get mul 0 M 0 PFs V} for
  0 PFa 6 get ne {
	0 1 PFs PFa 4 get div 1 add floor cvi
	{PFa 4 get mul 0 2 1 roll M PFs 0 V} for
 } if
  stroke grestore} def
%
/languagelevel where
 {pop languagelevel} {1} ifelse
 2 lt
	{/InterpretLevel1 true def}
	{/InterpretLevel1 Level1 def}
 ifelse
%
% PostScript level 2 pattern fill definitions
%
/Level2PatternFill {
/Tile8x8 {/PaintType 2 /PatternType 1 /TilingType 1 /BBox [0 0 8 8] /XStep 8 /YStep 8}
	bind def
/KeepColor {currentrgbcolor [/Pattern /DeviceRGB] setcolorspace} bind def
<< Tile8x8
 /PaintProc {0.5 setlinewidth pop 0 0 M 8 8 L 0 8 M 8 0 L stroke} 
>> matrix makepattern
/Pat1 exch def
<< Tile8x8
 /PaintProc {0.5 setlinewidth pop 0 0 M 8 8 L 0 8 M 8 0 L stroke
	0 4 M 4 8 L 8 4 L 4 0 L 0 4 L stroke}
>> matrix makepattern
/Pat2 exch def
<< Tile8x8
 /PaintProc {0.5 setlinewidth pop 0 0 M 0 8 L
	8 8 L 8 0 L 0 0 L fill}
>> matrix makepattern
/Pat3 exch def
<< Tile8x8
 /PaintProc {0.5 setlinewidth pop -4 8 M 8 -4 L
	0 12 M 12 0 L stroke}
>> matrix makepattern
/Pat4 exch def
<< Tile8x8
 /PaintProc {0.5 setlinewidth pop -4 0 M 8 12 L
	0 -4 M 12 8 L stroke}
>> matrix makepattern
/Pat5 exch def
<< Tile8x8
 /PaintProc {0.5 setlinewidth pop -2 8 M 4 -4 L
	0 12 M 8 -4 L 4 12 M 10 0 L stroke}
>> matrix makepattern
/Pat6 exch def
<< Tile8x8
 /PaintProc {0.5 setlinewidth pop -2 0 M 4 12 L
	0 -4 M 8 12 L 4 -4 M 10 8 L stroke}
>> matrix makepattern
/Pat7 exch def
<< Tile8x8
 /PaintProc {0.5 setlinewidth pop 8 -2 M -4 4 L
	12 0 M -4 8 L 12 4 M 0 10 L stroke}
>> matrix makepattern
/Pat8 exch def
<< Tile8x8
 /PaintProc {0.5 setlinewidth pop 0 -2 M 12 4 L
	-4 0 M 12 8 L -4 4 M 8 10 L stroke}
>> matrix makepattern
/Pat9 exch def
/Pattern1 {PatternBgnd KeepColor Pat1 setpattern} bind def
/Pattern2 {PatternBgnd KeepColor Pat2 setpattern} bind def
/Pattern3 {PatternBgnd KeepColor Pat3 setpattern} bind def
/Pattern4 {PatternBgnd KeepColor Landscape {Pat5} {Pat4} ifelse setpattern} bind def
/Pattern5 {PatternBgnd KeepColor Landscape {Pat4} {Pat5} ifelse setpattern} bind def
/Pattern6 {PatternBgnd KeepColor Landscape {Pat9} {Pat6} ifelse setpattern} bind def
/Pattern7 {PatternBgnd KeepColor Landscape {Pat8} {Pat7} ifelse setpattern} bind def
} def
%
%
%End of PostScript Level 2 code
%
/PatternBgnd {
  TransparentPatterns {} {gsave 1 setgray fill grestore} ifelse
} def
%
% Substitute for Level 2 pattern fill codes with
% grayscale if Level 2 support is not selected.
%
/Level1PatternFill {
/Pattern1 {0.250 Density} bind def
/Pattern2 {0.500 Density} bind def
/Pattern3 {0.750 Density} bind def
/Pattern4 {0.125 Density} bind def
/Pattern5 {0.375 Density} bind def
/Pattern6 {0.625 Density} bind def
/Pattern7 {0.875 Density} bind def
} def
%
% Now test for support of Level 2 code
%
Level1 {Level1PatternFill} {Level2PatternFill} ifelse
%
/Symbol-Oblique /Symbol findfont [1 0 .167 1 0 0] makefont
dup length dict begin {1 index /FID eq {pop pop} {def} ifelse} forall
currentdict end definefont pop
Level1 SuppressPDFMark or 
{} {
/SDict 10 dict def
systemdict /pdfmark known not {
  userdict /pdfmark systemdict /cleartomark get put
} if
SDict begin [
  /Title (out.ps)
  /Subject (gnuplot plot)
  /Creator (gnuplot 4.6 patchlevel 6)
  /Author (yani)
%  /Producer (gnuplot)
%  /Keywords ()
  /CreationDate (Thu May 28 15:35:20 2015)
  /DOCINFO pdfmark
end
} ifelse
end
%%EndProlog
%%Page: 1 1
gnudict begin
gsave
doclip
50 50 translate
0.100 0.100 scale
90 rotate
0 -5040 translate
0 setgray
newpath
(Helvetica) findfont 140 scalefont setfont
BackgroundColor 0 lt 3 1 roll 0 lt exch 0 lt or or not {gsave BackgroundColor C clippath fill grestore} if
1.000 UL
LT0
0.50 0.50 0.50 C 1.000 UL
LTa
0.50 0.50 0.50 C 966 280 M
5981 0 V
stroke
LT0
0.50 0.50 0.50 C 966 280 M
63 0 V
5918 0 R
-63 0 V
882 280 M
( 0) Rshow
1.000 UL
LT0
0.50 0.50 0.50 C 1.000 UL
LTa
0.50 0.50 0.50 C 966 372 M
5981 0 V
stroke
LT0
0.50 0.50 0.50 C 966 372 M
63 0 V
5918 0 R
-63 0 V
882 372 M
( 0.707106) Rshow
1.000 UL
LT0
0.50 0.50 0.50 C 1.000 UL
LTa
0.50 0.50 0.50 C 966 464 M
5981 0 V
stroke
LT0
0.50 0.50 0.50 C 966 464 M
63 0 V
5918 0 R
-63 0 V
882 464 M
( 1.41421) Rshow
1.000 UL
LT0
0.50 0.50 0.50 C 1.000 UL
LTa
0.50 0.50 0.50 C 966 555 M
5981 0 V
stroke
LT0
0.50 0.50 0.50 C 966 555 M
63 0 V
5918 0 R
-63 0 V
882 555 M
( 2.12132) Rshow
1.000 UL
LT0
0.50 0.50 0.50 C 1.000 UL
LTa
0.50 0.50 0.50 C 966 647 M
5981 0 V
stroke
LT0
0.50 0.50 0.50 C 966 647 M
63 0 V
5918 0 R
-63 0 V
882 647 M
( 2.82842) Rshow
1.000 UL
LT0
0.50 0.50 0.50 C 1.000 UL
LTa
0.50 0.50 0.50 C 966 739 M
5981 0 V
stroke
LT0
0.50 0.50 0.50 C 966 739 M
63 0 V
5918 0 R
-63 0 V
882 739 M
( 3.53553) Rshow
1.000 UL
LT0
0.50 0.50 0.50 C 1.000 UL
LTa
0.50 0.50 0.50 C 966 831 M
5981 0 V
stroke
LT0
0.50 0.50 0.50 C 966 831 M
63 0 V
5918 0 R
-63 0 V
882 831 M
( 4.24264) Rshow
1.000 UL
LT0
0.50 0.50 0.50 C 1.000 UL
LTa
0.50 0.50 0.50 C 966 923 M
5981 0 V
stroke
LT0
0.50 0.50 0.50 C 966 923 M
63 0 V
5918 0 R
-63 0 V
882 923 M
( 4.94974) Rshow
1.000 UL
LT0
0.50 0.50 0.50 C 1.000 UL
LTa
0.50 0.50 0.50 C 966 1015 M
5981 0 V
stroke
LT0
0.50 0.50 0.50 C 966 1015 M
63 0 V
5918 0 R
-63 0 V
-6002 0 R
( 5.65685) Rshow
1.000 UL
LT0
0.50 0.50 0.50 C 1.000 UL
LTa
0.50 0.50 0.50 C 966 1106 M
5981 0 V
stroke
LT0
0.50 0.50 0.50 C 966 1106 M
63 0 V
5918 0 R
-63 0 V
-6002 0 R
( 6.36395) Rshow
1.000 UL
LT0
0.50 0.50 0.50 C 1.000 UL
LTa
0.50 0.50 0.50 C 966 1198 M
5981 0 V
stroke
LT0
0.50 0.50 0.50 C 966 1198 M
63 0 V
5918 0 R
-63 0 V
-6002 0 R
( 7.07106) Rshow
1.000 UL
LT0
0.50 0.50 0.50 C 1.000 UL
LTa
0.50 0.50 0.50 C 966 1290 M
5981 0 V
stroke
LT0
0.50 0.50 0.50 C 966 1290 M
63 0 V
5918 0 R
-63 0 V
-6002 0 R
( 7.77817) Rshow
1.000 UL
LT0
0.50 0.50 0.50 C 1.000 UL
LTa
0.50 0.50 0.50 C 966 1382 M
5981 0 V
stroke
LT0
0.50 0.50 0.50 C 966 1382 M
63 0 V
5918 0 R
-63 0 V
-6002 0 R
( 8.48527) Rshow
1.000 UL
LT0
0.50 0.50 0.50 C 1.000 UL
LTa
0.50 0.50 0.50 C 966 1474 M
5981 0 V
stroke
LT0
0.50 0.50 0.50 C 966 1474 M
63 0 V
5918 0 R
-63 0 V
-6002 0 R
( 9.19238) Rshow
1.000 UL
LT0
0.50 0.50 0.50 C 1.000 UL
LTa
0.50 0.50 0.50 C 966 1565 M
5981 0 V
stroke
LT0
0.50 0.50 0.50 C 966 1565 M
63 0 V
5918 0 R
-63 0 V
-6002 0 R
( 9.89948) Rshow
1.000 UL
LT0
0.50 0.50 0.50 C 1.000 UL
LTa
0.50 0.50 0.50 C 966 1657 M
5981 0 V
stroke
LT0
0.50 0.50 0.50 C 966 1657 M
63 0 V
5918 0 R
-63 0 V
-6002 0 R
( 10.6066) Rshow
1.000 UL
LT0
0.50 0.50 0.50 C 1.000 UL
LTa
0.50 0.50 0.50 C 966 1749 M
5981 0 V
stroke
LT0
0.50 0.50 0.50 C 966 1749 M
63 0 V
5918 0 R
-63 0 V
-6002 0 R
( 11.3137) Rshow
1.000 UL
LT0
0.50 0.50 0.50 C 1.000 UL
LTa
0.50 0.50 0.50 C 966 1841 M
5981 0 V
stroke
LT0
0.50 0.50 0.50 C 966 1841 M
63 0 V
5918 0 R
-63 0 V
-6002 0 R
( 12.0208) Rshow
1.000 UL
LT0
0.50 0.50 0.50 C 1.000 UL
LTa
0.50 0.50 0.50 C 966 1933 M
5981 0 V
stroke
LT0
0.50 0.50 0.50 C 966 1933 M
63 0 V
5918 0 R
-63 0 V
-6002 0 R
( 12.7279) Rshow
1.000 UL
LT0
0.50 0.50 0.50 C 1.000 UL
LTa
0.50 0.50 0.50 C 966 2025 M
5981 0 V
stroke
LT0
0.50 0.50 0.50 C 966 2025 M
63 0 V
5918 0 R
-63 0 V
-6002 0 R
( 13.435) Rshow
1.000 UL
LT0
0.50 0.50 0.50 C 1.000 UL
LTa
0.50 0.50 0.50 C 966 2116 M
5981 0 V
stroke
LT0
0.50 0.50 0.50 C 966 2116 M
63 0 V
5918 0 R
-63 0 V
-6002 0 R
( 14.1421) Rshow
1.000 UL
LT0
0.50 0.50 0.50 C 1.000 UL
LTa
0.50 0.50 0.50 C 966 2208 M
5981 0 V
stroke
LT0
0.50 0.50 0.50 C 966 2208 M
63 0 V
5918 0 R
-63 0 V
-6002 0 R
( 14.8492) Rshow
1.000 UL
LT0
0.50 0.50 0.50 C 1.000 UL
LTa
0.50 0.50 0.50 C 966 2300 M
5981 0 V
stroke
LT0
0.50 0.50 0.50 C 966 2300 M
63 0 V
5918 0 R
-63 0 V
-6002 0 R
( 15.5563) Rshow
1.000 UL
LT0
0.50 0.50 0.50 C 1.000 UL
LTa
0.50 0.50 0.50 C 966 2392 M
5981 0 V
stroke
LT0
0.50 0.50 0.50 C 966 2392 M
63 0 V
5918 0 R
-63 0 V
-6002 0 R
( 16.2634) Rshow
1.000 UL
LT0
0.50 0.50 0.50 C 1.000 UL
LTa
0.50 0.50 0.50 C 966 2484 M
5981 0 V
stroke
LT0
0.50 0.50 0.50 C 966 2484 M
63 0 V
5918 0 R
-63 0 V
-6002 0 R
( 16.9705) Rshow
1.000 UL
LT0
0.50 0.50 0.50 C 1.000 UL
LTa
0.50 0.50 0.50 C 966 2575 M
5981 0 V
stroke
LT0
0.50 0.50 0.50 C 966 2575 M
63 0 V
5918 0 R
-63 0 V
-6002 0 R
( 17.6776) Rshow
1.000 UL
LT0
0.50 0.50 0.50 C 1.000 UL
LTa
0.50 0.50 0.50 C 966 2667 M
5981 0 V
stroke
LT0
0.50 0.50 0.50 C 966 2667 M
63 0 V
5918 0 R
-63 0 V
-6002 0 R
( 18.3848) Rshow
1.000 UL
LT0
0.50 0.50 0.50 C 1.000 UL
LTa
0.50 0.50 0.50 C 966 2759 M
5981 0 V
stroke
LT0
0.50 0.50 0.50 C 966 2759 M
63 0 V
5918 0 R
-63 0 V
-6002 0 R
( 19.0919) Rshow
1.000 UL
LT0
0.50 0.50 0.50 C 1.000 UL
LTa
0.50 0.50 0.50 C 966 2851 M
5981 0 V
stroke
LT0
0.50 0.50 0.50 C 966 2851 M
63 0 V
5918 0 R
-63 0 V
-6002 0 R
( 19.799) Rshow
1.000 UL
LT0
0.50 0.50 0.50 C 1.000 UL
LTa
0.50 0.50 0.50 C 966 2943 M
5981 0 V
stroke
LT0
0.50 0.50 0.50 C 966 2943 M
63 0 V
5918 0 R
-63 0 V
-6002 0 R
( 20.5061) Rshow
1.000 UL
LT0
0.50 0.50 0.50 C 1.000 UL
LTa
0.50 0.50 0.50 C 966 3035 M
5981 0 V
stroke
LT0
0.50 0.50 0.50 C 966 3035 M
63 0 V
5918 0 R
-63 0 V
-6002 0 R
( 21.2132) Rshow
1.000 UL
LT0
0.50 0.50 0.50 C 1.000 UL
LTa
0.50 0.50 0.50 C 966 3126 M
5981 0 V
stroke
LT0
0.50 0.50 0.50 C 966 3126 M
63 0 V
5918 0 R
-63 0 V
-6002 0 R
( 21.9203) Rshow
1.000 UL
LT0
0.50 0.50 0.50 C 1.000 UL
LTa
0.50 0.50 0.50 C 966 3218 M
5981 0 V
stroke
LT0
0.50 0.50 0.50 C 966 3218 M
63 0 V
5918 0 R
-63 0 V
-6002 0 R
( 22.6274) Rshow
1.000 UL
LT0
0.50 0.50 0.50 C 1.000 UL
LTa
0.50 0.50 0.50 C 966 3310 M
5981 0 V
stroke
LT0
0.50 0.50 0.50 C 966 3310 M
63 0 V
5918 0 R
-63 0 V
-6002 0 R
( 23.3345) Rshow
1.000 UL
LT0
0.50 0.50 0.50 C 1.000 UL
LTa
0.50 0.50 0.50 C 966 3402 M
5981 0 V
stroke
LT0
0.50 0.50 0.50 C 966 3402 M
63 0 V
5918 0 R
-63 0 V
-6002 0 R
( 24.0416) Rshow
1.000 UL
LT0
0.50 0.50 0.50 C 1.000 UL
LTa
0.50 0.50 0.50 C 966 3494 M
5981 0 V
stroke
LT0
0.50 0.50 0.50 C 966 3494 M
63 0 V
5918 0 R
-63 0 V
-6002 0 R
( 24.7487) Rshow
1.000 UL
LT0
0.50 0.50 0.50 C 1.000 UL
LTa
0.50 0.50 0.50 C 966 3586 M
5981 0 V
stroke
LT0
0.50 0.50 0.50 C 966 3586 M
63 0 V
5918 0 R
-63 0 V
-6002 0 R
( 25.4558) Rshow
1.000 UL
LT0
0.50 0.50 0.50 C 1.000 UL
LTa
0.50 0.50 0.50 C 966 3677 M
5981 0 V
stroke
LT0
0.50 0.50 0.50 C 966 3677 M
63 0 V
5918 0 R
-63 0 V
-6002 0 R
( 26.1629) Rshow
1.000 UL
LT0
0.50 0.50 0.50 C 1.000 UL
LTa
0.50 0.50 0.50 C 966 3769 M
5981 0 V
stroke
LT0
0.50 0.50 0.50 C 966 3769 M
63 0 V
5918 0 R
-63 0 V
-6002 0 R
( 26.87) Rshow
1.000 UL
LT0
0.50 0.50 0.50 C 1.000 UL
LTa
0.50 0.50 0.50 C 966 3861 M
5981 0 V
stroke
LT0
0.50 0.50 0.50 C 966 3861 M
63 0 V
5918 0 R
-63 0 V
-6002 0 R
( 27.5771) Rshow
1.000 UL
LT0
0.50 0.50 0.50 C 1.000 UL
LTa
0.50 0.50 0.50 C 966 3953 M
5981 0 V
stroke
LT0
0.50 0.50 0.50 C 966 3953 M
63 0 V
5918 0 R
-63 0 V
-6002 0 R
( 28.2842) Rshow
1.000 UL
LT0
0.50 0.50 0.50 C 1.000 UL
LTa
0.50 0.50 0.50 C 966 4045 M
5981 0 V
stroke
LT0
0.50 0.50 0.50 C 966 4045 M
63 0 V
5918 0 R
-63 0 V
-6002 0 R
( 28.9913) Rshow
1.000 UL
LT0
0.50 0.50 0.50 C 1.000 UL
LTa
0.50 0.50 0.50 C 966 4136 M
5981 0 V
stroke
LT0
0.50 0.50 0.50 C 966 4136 M
63 0 V
5918 0 R
-63 0 V
-6002 0 R
( 29.6985) Rshow
1.000 UL
LT0
0.50 0.50 0.50 C 1.000 UL
LTa
0.50 0.50 0.50 C 966 4228 M
5981 0 V
stroke
LT0
0.50 0.50 0.50 C 966 4228 M
63 0 V
5918 0 R
-63 0 V
-6002 0 R
( 30.4056) Rshow
1.000 UL
LT0
0.50 0.50 0.50 C 1.000 UL
LTa
0.50 0.50 0.50 C 966 4320 M
5981 0 V
stroke
LT0
0.50 0.50 0.50 C 966 4320 M
63 0 V
5918 0 R
-63 0 V
-6002 0 R
( 31.1127) Rshow
1.000 UL
LT0
0.50 0.50 0.50 C 1.000 UL
LTa
0.50 0.50 0.50 C 966 4412 M
5981 0 V
stroke
LT0
0.50 0.50 0.50 C 966 4412 M
63 0 V
5918 0 R
-63 0 V
-6002 0 R
( 31.8198) Rshow
1.000 UL
LT0
0.50 0.50 0.50 C 1.000 UL
LTa
0.50 0.50 0.50 C 966 4504 M
5981 0 V
stroke
LT0
0.50 0.50 0.50 C 966 4504 M
63 0 V
5918 0 R
-63 0 V
-6002 0 R
( 32.5269) Rshow
1.000 UL
LT0
0.50 0.50 0.50 C 1.000 UL
LTa
0.50 0.50 0.50 C 966 4596 M
5981 0 V
stroke
LT0
0.50 0.50 0.50 C 966 4596 M
63 0 V
5918 0 R
-63 0 V
-6002 0 R
( 33.234) Rshow
1.000 UL
LT0
0.50 0.50 0.50 C 1.000 UL
LTa
0.50 0.50 0.50 C 966 4687 M
5981 0 V
stroke
LT0
0.50 0.50 0.50 C 966 4687 M
63 0 V
5918 0 R
-63 0 V
-6002 0 R
( 33.9411) Rshow
1.000 UL
LT0
0.50 0.50 0.50 C 1.000 UL
LTa
0.50 0.50 0.50 C 966 4779 M
5981 0 V
stroke
LT0
0.50 0.50 0.50 C 966 4779 M
63 0 V
5918 0 R
-63 0 V
-6002 0 R
( 34.6482) Rshow
1.000 UL
LT0
0.50 0.50 0.50 C 1.000 UL
LTa
0.50 0.50 0.50 C 966 4871 M
5981 0 V
stroke
LT0
0.50 0.50 0.50 C 966 4871 M
63 0 V
5918 0 R
-63 0 V
-6002 0 R
( 35.3553) Rshow
1.000 UL
LT0
0.50 0.50 0.50 C 1.000 UL
LTa
0.50 0.50 0.50 C 966 280 M
0 4591 V
stroke
LT0
0.50 0.50 0.50 C 966 280 M
0 63 V
0 4528 R
0 -63 V
966 140 M
( 0) Cshow
1.000 UL
LT0
0.50 0.50 0.50 C 1.000 UL
LTa
0.50 0.50 0.50 C 1086 280 M
0 4591 V
stroke
LT0
0.50 0.50 0.50 C 1086 280 M
0 63 V
0 4528 R
0 -63 V
0 -4668 R
( 0.707106) Cshow
1.000 UL
LT0
0.50 0.50 0.50 C 1.000 UL
LTa
0.50 0.50 0.50 C 1205 280 M
0 4591 V
stroke
LT0
0.50 0.50 0.50 C 1205 280 M
0 63 V
0 4528 R
0 -63 V
0 -4668 R
( 1.41421) Cshow
1.000 UL
LT0
0.50 0.50 0.50 C 1.000 UL
LTa
0.50 0.50 0.50 C 1325 280 M
0 4591 V
stroke
LT0
0.50 0.50 0.50 C 1325 280 M
0 63 V
0 4528 R
0 -63 V
0 -4668 R
( 2.12132) Cshow
1.000 UL
LT0
0.50 0.50 0.50 C 1.000 UL
LTa
0.50 0.50 0.50 C 1444 280 M
0 4591 V
stroke
LT0
0.50 0.50 0.50 C 1444 280 M
0 63 V
0 4528 R
0 -63 V
0 -4668 R
( 2.82842) Cshow
1.000 UL
LT0
0.50 0.50 0.50 C 1.000 UL
LTa
0.50 0.50 0.50 C 1564 280 M
0 4591 V
stroke
LT0
0.50 0.50 0.50 C 1564 280 M
0 63 V
0 4528 R
0 -63 V
0 -4668 R
( 3.53553) Cshow
1.000 UL
LT0
0.50 0.50 0.50 C 1.000 UL
LTa
0.50 0.50 0.50 C 1684 280 M
0 4591 V
stroke
LT0
0.50 0.50 0.50 C 1684 280 M
0 63 V
0 4528 R
0 -63 V
0 -4668 R
( 4.24264) Cshow
1.000 UL
LT0
0.50 0.50 0.50 C 1.000 UL
LTa
0.50 0.50 0.50 C 1803 280 M
0 4591 V
stroke
LT0
0.50 0.50 0.50 C 1803 280 M
0 63 V
0 4528 R
0 -63 V
0 -4668 R
( 4.94974) Cshow
1.000 UL
LT0
0.50 0.50 0.50 C 1.000 UL
LTa
0.50 0.50 0.50 C 1923 280 M
0 4591 V
stroke
LT0
0.50 0.50 0.50 C 1923 280 M
0 63 V
0 4528 R
0 -63 V
0 -4668 R
( 5.65685) Cshow
1.000 UL
LT0
0.50 0.50 0.50 C 1.000 UL
LTa
0.50 0.50 0.50 C 2043 280 M
0 4591 V
stroke
LT0
0.50 0.50 0.50 C 2043 280 M
0 63 V
0 4528 R
0 -63 V
0 -4668 R
( 6.36395) Cshow
1.000 UL
LT0
0.50 0.50 0.50 C 1.000 UL
LTa
0.50 0.50 0.50 C 2162 280 M
0 4591 V
stroke
LT0
0.50 0.50 0.50 C 2162 280 M
0 63 V
0 4528 R
0 -63 V
0 -4668 R
( 7.07106) Cshow
1.000 UL
LT0
0.50 0.50 0.50 C 1.000 UL
LTa
0.50 0.50 0.50 C 2282 280 M
0 4591 V
stroke
LT0
0.50 0.50 0.50 C 2282 280 M
0 63 V
0 4528 R
0 -63 V
0 -4668 R
( 7.77817) Cshow
1.000 UL
LT0
0.50 0.50 0.50 C 1.000 UL
LTa
0.50 0.50 0.50 C 2401 280 M
0 4591 V
stroke
LT0
0.50 0.50 0.50 C 2401 280 M
0 63 V
0 4528 R
0 -63 V
0 -4668 R
( 8.48527) Cshow
1.000 UL
LT0
0.50 0.50 0.50 C 1.000 UL
LTa
0.50 0.50 0.50 C 2521 280 M
0 4591 V
stroke
LT0
0.50 0.50 0.50 C 2521 280 M
0 63 V
0 4528 R
0 -63 V
0 -4668 R
( 9.19238) Cshow
1.000 UL
LT0
0.50 0.50 0.50 C 1.000 UL
LTa
0.50 0.50 0.50 C 2641 280 M
0 4591 V
stroke
LT0
0.50 0.50 0.50 C 2641 280 M
0 63 V
0 4528 R
0 -63 V
0 -4668 R
( 9.89948) Cshow
1.000 UL
LT0
0.50 0.50 0.50 C 1.000 UL
LTa
0.50 0.50 0.50 C 2760 280 M
0 4591 V
stroke
LT0
0.50 0.50 0.50 C 2760 280 M
0 63 V
0 4528 R
0 -63 V
0 -4668 R
( 10.6066) Cshow
1.000 UL
LT0
0.50 0.50 0.50 C 1.000 UL
LTa
0.50 0.50 0.50 C 2880 280 M
0 4591 V
stroke
LT0
0.50 0.50 0.50 C 2880 280 M
0 63 V
0 4528 R
0 -63 V
0 -4668 R
( 11.3137) Cshow
1.000 UL
LT0
0.50 0.50 0.50 C 1.000 UL
LTa
0.50 0.50 0.50 C 3000 280 M
0 4591 V
stroke
LT0
0.50 0.50 0.50 C 3000 280 M
0 63 V
0 4528 R
0 -63 V
0 -4668 R
( 12.0208) Cshow
1.000 UL
LT0
0.50 0.50 0.50 C 1.000 UL
LTa
0.50 0.50 0.50 C 3119 280 M
0 4591 V
stroke
LT0
0.50 0.50 0.50 C 3119 280 M
0 63 V
0 4528 R
0 -63 V
0 -4668 R
( 12.7279) Cshow
1.000 UL
LT0
0.50 0.50 0.50 C 1.000 UL
LTa
0.50 0.50 0.50 C 3239 280 M
0 4591 V
stroke
LT0
0.50 0.50 0.50 C 3239 280 M
0 63 V
0 4528 R
0 -63 V
0 -4668 R
( 13.435) Cshow
1.000 UL
LT0
0.50 0.50 0.50 C 1.000 UL
LTa
0.50 0.50 0.50 C 3358 280 M
0 4591 V
stroke
LT0
0.50 0.50 0.50 C 3358 280 M
0 63 V
0 4528 R
0 -63 V
0 -4668 R
( 14.1421) Cshow
1.000 UL
LT0
0.50 0.50 0.50 C 1.000 UL
LTa
0.50 0.50 0.50 C 3478 280 M
0 4591 V
stroke
LT0
0.50 0.50 0.50 C 3478 280 M
0 63 V
0 4528 R
0 -63 V
0 -4668 R
( 14.8492) Cshow
1.000 UL
LT0
0.50 0.50 0.50 C 1.000 UL
LTa
0.50 0.50 0.50 C 3598 280 M
0 4591 V
stroke
LT0
0.50 0.50 0.50 C 3598 280 M
0 63 V
0 4528 R
0 -63 V
0 -4668 R
( 15.5563) Cshow
1.000 UL
LT0
0.50 0.50 0.50 C 1.000 UL
LTa
0.50 0.50 0.50 C 3717 280 M
0 4591 V
stroke
LT0
0.50 0.50 0.50 C 3717 280 M
0 63 V
0 4528 R
0 -63 V
0 -4668 R
( 16.2634) Cshow
1.000 UL
LT0
0.50 0.50 0.50 C 1.000 UL
LTa
0.50 0.50 0.50 C 3837 280 M
0 4591 V
stroke
LT0
0.50 0.50 0.50 C 3837 280 M
0 63 V
0 4528 R
0 -63 V
0 -4668 R
( 16.9705) Cshow
1.000 UL
LT0
0.50 0.50 0.50 C 1.000 UL
LTa
0.50 0.50 0.50 C 3956 280 M
0 4591 V
stroke
LT0
0.50 0.50 0.50 C 3956 280 M
0 63 V
0 4528 R
0 -63 V
0 -4668 R
( 17.6776) Cshow
1.000 UL
LT0
0.50 0.50 0.50 C 1.000 UL
LTa
0.50 0.50 0.50 C 4076 280 M
0 4591 V
stroke
LT0
0.50 0.50 0.50 C 4076 280 M
0 63 V
0 4528 R
0 -63 V
0 -4668 R
( 18.3848) Cshow
1.000 UL
LT0
0.50 0.50 0.50 C 1.000 UL
LTa
0.50 0.50 0.50 C 4196 280 M
0 4591 V
stroke
LT0
0.50 0.50 0.50 C 4196 280 M
0 63 V
0 4528 R
0 -63 V
0 -4668 R
( 19.0919) Cshow
1.000 UL
LT0
0.50 0.50 0.50 C 1.000 UL
LTa
0.50 0.50 0.50 C 4315 280 M
0 4591 V
stroke
LT0
0.50 0.50 0.50 C 4315 280 M
0 63 V
0 4528 R
0 -63 V
0 -4668 R
( 19.799) Cshow
1.000 UL
LT0
0.50 0.50 0.50 C 1.000 UL
LTa
0.50 0.50 0.50 C 4435 280 M
0 4591 V
stroke
LT0
0.50 0.50 0.50 C 4435 280 M
0 63 V
0 4528 R
0 -63 V
0 -4668 R
( 20.5061) Cshow
1.000 UL
LT0
0.50 0.50 0.50 C 1.000 UL
LTa
0.50 0.50 0.50 C 4555 280 M
0 4591 V
stroke
LT0
0.50 0.50 0.50 C 4555 280 M
0 63 V
0 4528 R
0 -63 V
0 -4668 R
( 21.2132) Cshow
1.000 UL
LT0
0.50 0.50 0.50 C 1.000 UL
LTa
0.50 0.50 0.50 C 4674 280 M
0 4591 V
stroke
LT0
0.50 0.50 0.50 C 4674 280 M
0 63 V
0 4528 R
0 -63 V
0 -4668 R
( 21.9203) Cshow
1.000 UL
LT0
0.50 0.50 0.50 C 1.000 UL
LTa
0.50 0.50 0.50 C 4794 280 M
0 4591 V
stroke
LT0
0.50 0.50 0.50 C 4794 280 M
0 63 V
0 4528 R
0 -63 V
0 -4668 R
( 22.6274) Cshow
1.000 UL
LT0
0.50 0.50 0.50 C 1.000 UL
LTa
0.50 0.50 0.50 C 4913 280 M
0 4591 V
stroke
LT0
0.50 0.50 0.50 C 4913 280 M
0 63 V
0 4528 R
0 -63 V
0 -4668 R
( 23.3345) Cshow
1.000 UL
LT0
0.50 0.50 0.50 C 1.000 UL
LTa
0.50 0.50 0.50 C 5033 280 M
0 4591 V
stroke
LT0
0.50 0.50 0.50 C 5033 280 M
0 63 V
0 4528 R
0 -63 V
0 -4668 R
( 24.0416) Cshow
1.000 UL
LT0
0.50 0.50 0.50 C 1.000 UL
LTa
0.50 0.50 0.50 C 5153 280 M
0 4591 V
stroke
LT0
0.50 0.50 0.50 C 5153 280 M
0 63 V
0 4528 R
0 -63 V
0 -4668 R
( 24.7487) Cshow
1.000 UL
LT0
0.50 0.50 0.50 C 1.000 UL
LTa
0.50 0.50 0.50 C 5272 280 M
0 4591 V
stroke
LT0
0.50 0.50 0.50 C 5272 280 M
0 63 V
0 4528 R
0 -63 V
0 -4668 R
( 25.4558) Cshow
1.000 UL
LT0
0.50 0.50 0.50 C 1.000 UL
LTa
0.50 0.50 0.50 C 5392 280 M
0 4591 V
stroke
LT0
0.50 0.50 0.50 C 5392 280 M
0 63 V
0 4528 R
0 -63 V
0 -4668 R
( 26.1629) Cshow
1.000 UL
LT0
0.50 0.50 0.50 C 1.000 UL
LTa
0.50 0.50 0.50 C 5512 280 M
0 4591 V
stroke
LT0
0.50 0.50 0.50 C 5512 280 M
0 63 V
0 4528 R
0 -63 V
0 -4668 R
( 26.87) Cshow
1.000 UL
LT0
0.50 0.50 0.50 C 1.000 UL
LTa
0.50 0.50 0.50 C 5631 280 M
0 4591 V
stroke
LT0
0.50 0.50 0.50 C 5631 280 M
0 63 V
0 4528 R
0 -63 V
0 -4668 R
( 27.5771) Cshow
1.000 UL
LT0
0.50 0.50 0.50 C 1.000 UL
LTa
0.50 0.50 0.50 C 5751 280 M
0 4591 V
stroke
LT0
0.50 0.50 0.50 C 5751 280 M
0 63 V
0 4528 R
0 -63 V
0 -4668 R
( 28.2842) Cshow
1.000 UL
LT0
0.50 0.50 0.50 C 1.000 UL
LTa
0.50 0.50 0.50 C 5870 280 M
0 4591 V
stroke
LT0
0.50 0.50 0.50 C 5870 280 M
0 63 V
0 4528 R
0 -63 V
0 -4668 R
( 28.9913) Cshow
1.000 UL
LT0
0.50 0.50 0.50 C 1.000 UL
LTa
0.50 0.50 0.50 C 5990 280 M
0 4591 V
stroke
LT0
0.50 0.50 0.50 C 5990 280 M
0 63 V
0 4528 R
0 -63 V
0 -4668 R
( 29.6985) Cshow
1.000 UL
LT0
0.50 0.50 0.50 C 1.000 UL
LTa
0.50 0.50 0.50 C 6110 280 M
0 4591 V
stroke
LT0
0.50 0.50 0.50 C 6110 280 M
0 63 V
0 4528 R
0 -63 V
0 -4668 R
( 30.4056) Cshow
1.000 UL
LT0
0.50 0.50 0.50 C 1.000 UL
LTa
0.50 0.50 0.50 C 6229 280 M
0 4591 V
stroke
LT0
0.50 0.50 0.50 C 6229 280 M
0 63 V
0 4528 R
0 -63 V
0 -4668 R
( 31.1127) Cshow
1.000 UL
LT0
0.50 0.50 0.50 C 1.000 UL
LTa
0.50 0.50 0.50 C 6349 280 M
0 4591 V
stroke
LT0
0.50 0.50 0.50 C 6349 280 M
0 63 V
0 4528 R
0 -63 V
0 -4668 R
( 31.8198) Cshow
1.000 UL
LT0
0.50 0.50 0.50 C 1.000 UL
LTa
0.50 0.50 0.50 C 6469 280 M
0 4591 V
stroke
LT0
0.50 0.50 0.50 C 6469 280 M
0 63 V
0 4528 R
0 -63 V
0 -4668 R
( 32.5269) Cshow
1.000 UL
LT0
0.50 0.50 0.50 C 1.000 UL
LTa
0.50 0.50 0.50 C 6588 280 M
0 4591 V
stroke
LT0
0.50 0.50 0.50 C 6588 280 M
0 63 V
0 4528 R
0 -63 V
0 -4668 R
( 33.234) Cshow
1.000 UL
LT0
0.50 0.50 0.50 C 1.000 UL
LTa
0.50 0.50 0.50 C 6708 280 M
0 4591 V
stroke
LT0
0.50 0.50 0.50 C 6708 280 M
0 63 V
0 4528 R
0 -63 V
0 -4668 R
( 33.9411) Cshow
1.000 UL
LT0
0.50 0.50 0.50 C 1.000 UL
LTa
0.50 0.50 0.50 C 6827 280 M
0 4591 V
stroke
LT0
0.50 0.50 0.50 C 6827 280 M
0 63 V
0 4528 R
0 -63 V
0 -4668 R
( 34.6482) Cshow
1.000 UL
LT0
0.50 0.50 0.50 C 1.000 UL
LTa
0.50 0.50 0.50 C 6947 280 M
0 4591 V
stroke
LT0
0.50 0.50 0.50 C 6947 280 M
0 63 V
0 4528 R
0 -63 V
0 -4668 R
( 35.3553) Cshow
1.000 UL
LT0
0.50 0.50 0.50 C 1.000 UL
LT0
0.50 0.50 0.50 C 966 4871 M
966 280 L
5981 0 V
0 4591 R
-5981 0 R
1.000 UP
stroke
LT0
0.50 0.50 0.50 C % Begin plot #1
1.500 UP
2.000 UL
LT0
0.00 0.00 1.00 C /Helvetica findfont 140 scalefont setfont
/vshift -46 def
966 372 M
120 0 V
0 92 R
119 0 V
0 91 R
120 0 V
119 0 V
120 0 V
120 0 V
0 368 R
119 0 V
120 0 V
0 92 R
120 0 V
0 91 R
119 0 V
120 0 V
119 0 V
120 0 V
120 0 V
119 0 V
0 184 R
120 0 V
120 0 V
119 0 V
120 0 V
119 0 V
120 0 V
120 0 V
119 0 V
120 0 V
120 0 V
119 0 V
120 0 V
0 92 R
119 0 V
120 0 V
0 183 R
120 0 V
119 0 V
120 0 V
119 0 V
120 0 V
120 0 V
119 0 V
120 0 V
120 0 V
119 0 V
120 0 V
119 0 V
120 0 V
0 1102 R
120 0 V
119 0 V
0 1010 R
120 0 V
0 735 R
120 0 V
119 0 V
0 92 R
120 0 V
0 275 R
119 0 V
1086 372 M
0 92 V
119 0 R
0 91 V
479 0 R
0 92 V
0 92 V
0 92 V
0 92 V
239 0 R
0 92 V
120 0 R
0 91 V
717 0 R
0 92 V
0 92 V
1436 0 R
0 92 V
239 0 R
0 92 V
0 91 V
1555 0 R
0 92 V
0 92 V
0 92 V
0 92 V
0 92 V
0 91 V
0 92 V
0 92 V
0 92 V
0 92 V
0 92 V
0 91 V
239 0 R
0 92 V
0 92 V
0 92 V
0 92 V
0 91 V
0 92 V
0 92 V
stroke 6229 3310 M
0 92 V
0 92 V
0 92 V
0 91 V
120 0 R
0 92 V
0 92 V
0 92 V
0 92 V
0 91 V
0 92 V
0 92 V
0 92 V
239 0 R
0 92 V
120 0 R
0 92 V
0 91 V
0 92 V
966 280 M
0 92 V
966 372 CircleF
1086 372 CircleF
1086 464 CircleF
1205 464 CircleF
1205 555 CircleF
1325 555 CircleF
1325 555 CircleF
1444 555 CircleF
1444 555 CircleF
1564 555 CircleF
1564 555 CircleF
1684 555 CircleF
1684 923 CircleF
1803 923 CircleF
1803 923 CircleF
1923 923 CircleF
1923 1015 CircleF
2043 1015 CircleF
2043 1106 CircleF
2162 1106 CircleF
2162 1106 CircleF
2282 1106 CircleF
2282 1106 CircleF
2401 1106 CircleF
2401 1106 CircleF
2521 1106 CircleF
2521 1106 CircleF
2641 1106 CircleF
2641 1106 CircleF
2760 1106 CircleF
2760 1290 CircleF
2880 1290 CircleF
2880 1290 CircleF
3000 1290 CircleF
3000 1290 CircleF
3119 1290 CircleF
3119 1290 CircleF
3239 1290 CircleF
3239 1290 CircleF
3358 1290 CircleF
3358 1290 CircleF
3478 1290 CircleF
3478 1290 CircleF
3598 1290 CircleF
3598 1290 CircleF
3717 1290 CircleF
3717 1290 CircleF
3837 1290 CircleF
3837 1290 CircleF
3957 1290 CircleF
3957 1290 CircleF
4076 1290 CircleF
4076 1290 CircleF
4196 1290 CircleF
4196 1382 CircleF
4315 1382 CircleF
4315 1382 CircleF
4435 1382 CircleF
4435 1565 CircleF
4555 1565 CircleF
4555 1565 CircleF
4674 1565 CircleF
4674 1565 CircleF
4794 1565 CircleF
4794 1565 CircleF
4913 1565 CircleF
4913 1565 CircleF
5033 1565 CircleF
5033 1565 CircleF
5153 1565 CircleF
5153 1565 CircleF
5272 1565 CircleF
5272 1565 CircleF
5392 1565 CircleF
5392 1565 CircleF
5512 1565 CircleF
5512 1565 CircleF
5631 1565 CircleF
5631 1565 CircleF
5751 1565 CircleF
5751 1565 CircleF
5870 1565 CircleF
5870 1565 CircleF
5990 1565 CircleF
5990 2667 CircleF
6110 2667 CircleF
6110 2667 CircleF
6229 2667 CircleF
6229 3677 CircleF
6349 3677 CircleF
6349 4412 CircleF
6469 4412 CircleF
6469 4412 CircleF
6588 4412 CircleF
6588 4504 CircleF
6708 4504 CircleF
6708 4779 CircleF
6827 4779 CircleF
1086 372 CircleF
1086 464 CircleF
1205 464 CircleF
1205 555 CircleF
1684 555 CircleF
1684 647 CircleF
1684 647 CircleF
1684 739 CircleF
1684 739 CircleF
1684 831 CircleF
1684 831 CircleF
1684 923 CircleF
1923 923 CircleF
1923 1015 CircleF
2043 1015 CircleF
2043 1106 CircleF
2760 1106 CircleF
2760 1198 CircleF
2760 1198 CircleF
2760 1290 CircleF
4196 1290 CircleF
4196 1382 CircleF
4435 1382 CircleF
4435 1474 CircleF
4435 1474 CircleF
4435 1565 CircleF
5990 1565 CircleF
5990 1657 CircleF
5990 1657 CircleF
5990 1749 CircleF
5990 1749 CircleF
5990 1841 CircleF
5990 1841 CircleF
5990 1933 CircleF
5990 1933 CircleF
5990 2025 CircleF
5990 2025 CircleF
5990 2116 CircleF
5990 2116 CircleF
5990 2208 CircleF
5990 2208 CircleF
5990 2300 CircleF
5990 2300 CircleF
5990 2392 CircleF
5990 2392 CircleF
5990 2484 CircleF
5990 2484 CircleF
5990 2576 CircleF
5990 2576 CircleF
5990 2667 CircleF
6229 2667 CircleF
6229 2759 CircleF
6229 2759 CircleF
6229 2851 CircleF
6229 2851 CircleF
6229 2943 CircleF
6229 2943 CircleF
6229 3035 CircleF
6229 3035 CircleF
6229 3126 CircleF
6229 3126 CircleF
6229 3218 CircleF
6229 3218 CircleF
6229 3310 CircleF
6229 3310 CircleF
6229 3402 CircleF
6229 3402 CircleF
6229 3494 CircleF
6229 3494 CircleF
6229 3586 CircleF
6229 3586 CircleF
6229 3677 CircleF
6349 3677 CircleF
6349 3769 CircleF
6349 3769 CircleF
6349 3861 CircleF
6349 3861 CircleF
6349 3953 CircleF
6349 3953 CircleF
6349 4045 CircleF
6349 4045 CircleF
6349 4136 CircleF
6349 4136 CircleF
6349 4228 CircleF
6349 4228 CircleF
6349 4320 CircleF
6349 4320 CircleF
6349 4412 CircleF
6588 4412 CircleF
6588 4504 CircleF
6708 4504 CircleF
6708 4596 CircleF
6708 4596 CircleF
6708 4687 CircleF
6708 4687 CircleF
6708 4779 CircleF
966 280 CircleF
966 372 CircleF
% End plot #1
% Begin plot #2
1.500 UP
2.000 UL
LT0
1.00 0.55 0.00 C /Helvetica findfont 140 scalefont setfont
6573 335 M
120 92 V
6241 2859 M
119 92 V
2359 1083 M
120 92 V
1696 3802 M
119 91 V
968 -742 R
120 92 V
4171 1732 M
119 92 V
3425 3529 M
120 92 V
3950 2456 M
119 92 V
2831 621 M
120 92 V
401 184 R
119 92 V
2402 821 M
119 91 V
5087 710 M
120 92 V
1873 2090 M
120 92 V
2311 876 M
120 92 V
1947 4585 M
120 92 V
5303 1665 M
119 92 V
3431 1534 M
119 92 V
1601 620 R
119 92 V
4506 448 M
120 91 V
1028 618 R
120 91 V
35 284 R
120 92 V
3710 3357 M
120 91 V
1409 899 M
120 91 V
294 3103 R
120 92 V
876 -620 R
120 92 V
3939 1270 M
120 92 V
2543 1557 M
119 92 V
6017 3344 M
119 91 V
5911 1421 M
119 92 V
3476 1271 M
120 92 V
4829 555 M
120 92 V
2933 1827 M
120 92 V
5175 3686 M
120 92 V
2986 3402 M
120 91 V
1371 1156 M
120 91 V
6484 3028 M
119 92 V
3968 1006 M
120 92 V
2733 1207 M
120 92 V
1626 3012 M
120 92 V
6270 2437 M
120 92 V
4737 2891 M
119 92 V
3796 3160 M
119 92 V
3672 2193 M
120 92 V
1318 1688 M
120 92 V
3555 4367 M
120 91 V
6582 3783 M
120 92 V
1211 3027 M
120 92 V
5121 1885 M
119 91 V
1729 3047 M
120 91 V
5913 2329 M
120 92 V
2530 868 M
120 91 V
1279 3922 M
119 92 V
4401 3765 M
119 92 V
stroke 4520 3857 M
5998 1323 M
119 92 V
1681 1098 M
119 92 V
5934 716 M
120 91 V
385 2253 R
120 92 V
2012 1176 M
120 92 V
5648 955 M
120 91 V
4827 3135 M
120 92 V
6416 1107 M
120 92 V
2047 339 M
120 91 V
3693 4567 M
119 91 V
1713 2943 M
119 91 V
161 -411 R
120 92 V
302 1541 R
120 92 V
3195 314 M
120 92 V
2225 1844 M
120 92 V
1602 1118 M
119 91 V
3217 2586 M
120 92 V
1002 730 R
120 91 V
3162 1747 M
120 91 V
589 756 R
119 92 V
748 -907 R
120 92 V
3221 1451 M
120 92 V
5901 2731 M
120 92 V
3788 466 M
119 91 V
1842 539 R
119 92 V
4780 473 M
120 91 V
1631 4521 M
120 92 V
579 -590 R
120 92 V
4933 3144 M
120 91 V
5674 1534 M
120 92 V
5823 578 M
119 91 V
4823 1673 M
119 92 V
2226 4060 M
119 92 V
-187 493 R
120 92 V
4632 1565 M
120 92 V
904 2742 R
119 92 V
429 -893 R
119 92 V
4570 1571 M
119 92 V
1285 28 R
120 92 V
5112 3136 M
119 92 V
5057 3074 M
119 92 V
4704 1227 M
119 92 V
3713 1766 M
119 92 V
808 1969 R
120 92 V
1655 114 R
120 92 V
6363 2024 M
119 92 V
2611 1824 M
120 91 V
2291 3050 M
120 92 V
1657 296 R
120 92 V
3968 1792 M
120 92 V
5480 1689 M
119 92 V
4472 469 M
120 92 V
stroke 4592 561 M
841 671 R
120 92 V
2272 4021 M
119 92 V
5442 2221 M
119 92 V
2888 288 M
120 91 V
1120 2271 M
120 92 V
5684 1939 M
119 92 V
328 1132 R
120 91 V
4486 812 M
119 91 V
2068 2421 M
120 92 V
7 -77 R
120 92 V
1815 4293 M
119 91 V
3257 3281 M
119 92 V
1412 2258 M
120 91 V
4813 721 M
119 92 V
3988 3459 M
120 92 V
3135 788 M
120 92 V
332 3386 R
120 92 V
-714 149 R
119 91 V
6011 2664 M
120 92 V
1273 1374 M
119 92 V
5762 4474 M
120 92 V
2355 3905 M
120 92 V
1443 529 M
120 92 V
6544 3763 M
120 92 V
1879 2745 M
120 92 V
4238 978 R
120 92 V
2528 1724 M
120 92 V
3777 988 R
120 92 V
3556 1106 M
120 92 V
2246 1900 M
119 92 V
4752 1753 M
120 92 V
3008 4230 M
119 92 V
6375 760 M
120 92 V
1567 1375 M
119 92 V
659 2146 R
119 92 V
3920 2924 M
120 92 V
48 -955 R
120 91 V
1656 545 M
120 92 V
508 2079 R
119 91 V
3902 907 M
120 92 V
6382 2373 M
120 92 V
5215 3610 M
120 92 V
2491 1088 M
120 92 V
-397 43 R
120 92 V
3867 4135 M
120 92 V
6635 1151 M
120 92 V
5833 3029 M
119 91 V
2314 1127 M
120 91 V
555 1746 R
120 91 V
5316 4461 M
120 91 V
2727 1266 M
120 92 V
6564 691 M
120 91 V
stroke 6684 782 M
3344 726 M
120 92 V
42 3788 R
120 92 V
6702 1178 M
120 92 V
5289 2122 M
119 92 V
6431 1302 M
120 91 V
4929 2700 M
120 92 V
3441 4614 M
120 92 V
4273 1124 M
120 92 V
-419 257 R
120 92 V
5523 4621 M
119 92 V
3349 1632 M
120 92 V
6263 3241 M
120 92 V
5985 1824 M
119 91 V
1437 1279 M
119 92 V
780 -50 R
120 92 V
1830 932 M
119 92 V
3923 3719 M
120 92 V
5934 2332 M
120 92 V
-569 634 R
120 92 V
-2301 72 R
119 92 V
3994 1908 M
119 92 V
3585 3219 M
119 92 V
1159 705 R
120 92 V
5736 2545 M
120 92 V
1210 4629 M
120 92 V
5712 3504 M
120 92 V
1146 898 M
120 92 V
3735 2736 M
120 92 V
5899 1549 M
120 92 V
3435 2166 M
120 92 V
6117 475 M
120 92 V
5809 2453 M
119 92 V
186 2136 R
120 92 V
3352 3880 M
120 92 V
3291 1882 M
120 91 V
4620 1483 M
119 92 V
1737 911 M
120 92 V
1596 2501 M
119 92 V
2329 985 R
120 92 V
3192 802 M
120 92 V
5646 4340 M
120 91 V
5344 1346 M
120 92 V
1094 1567 M
119 91 V
1863 60 R
119 92 V
1415 3940 M
119 92 V
5966 2791 M
120 92 V
2747 2245 M
119 92 V
-911 21 R
120 91 V
5090 1057 M
120 91 V
2732 899 M
120 92 V
6558 2300 M
119 92 V
1062 1170 M
119 92 V
stroke 1181 1262 M
4500 4414 M
120 92 V
4041 2614 M
119 92 V
2057 30 R
120 92 V
4471 585 M
120 92 V
2905 1143 M
120 92 V
2629 248 R
120 92 V
1781 2939 M
119 92 V
738 1374 R
120 91 V
5488 4334 M
120 92 V
950 -11 R
120 92 V
1272 3094 M
120 92 V
3125 2732 M
120 92 V
-972 948 R
120 92 V
1952 2950 M
120 92 V
3388 1558 M
120 92 V
-242 128 R
120 92 V
5870 4373 M
119 92 V
6080 564 M
119 91 V
4721 3674 M
120 92 V
3387 3753 M
119 92 V
1409 4300 M
120 91 V
112 -709 R
120 92 V
4559 610 R
120 92 V
5553 2874 M
119 92 V
699 -399 R
120 92 V
6281 643 M
120 92 V
5091 1546 M
120 91 V
1393 1491 M
120 92 V
3627 438 M
119 92 V
-797 707 R
119 91 V
1216 3817 M
120 92 V
3692 163 R
120 92 V
3588 382 M
120 92 V
151 3781 R
120 92 V
4773 3018 M
119 92 V
2082 1570 M
120 91 V
1142 1041 M
120 92 V
4914 2408 M
119 92 V
1159 389 R
120 92 V
5471 4619 M
120 92 V
1182 1307 M
119 92 V
4450 376 M
120 92 V
4236 2048 M
119 92 V
3508 3894 M
120 92 V
5227 2319 M
119 91 V
5020 4320 M
120 92 V
1519 4679 M
120 91 V
2697 1142 M
120 92 V
1252 1667 M
120 92 V
3699 1157 M
120 92 V
6352 555 M
120 92 V
2752 469 M
120 92 V
stroke 2872 561 M
-888 445 R
120 92 V
3817 2997 M
119 92 V
5347 2250 M
119 92 V
3678 2128 M
119 92 V
2749 426 M
120 92 V
986 168 R
120 92 V
6624 748 M
119 92 V
2222 2536 M
119 92 V
3173 381 R
120 92 V
4005 633 M
119 92 V
3431 1856 M
120 92 V
1458 4503 M
120 92 V
3172 2736 M
120 92 V
6689 1179 M
120 92 V
6201 2653 M
119 92 V
4484 1897 M
120 92 V
1767 3864 M
119 92 V
1678 3229 M
119 92 V
2907 326 M
119 92 V
3509 56 R
120 92 V
4484 1544 M
120 92 V
1917 3580 M
119 92 V
3414 827 M
120 92 V
190 3677 R
120 92 V
4286 1330 M
120 92 V
3136 4591 M
119 92 V
1731 845 M
119 91 V
6286 2391 M
120 92 V
2665 2382 M
119 92 V
5928 3864 M
120 92 V
6225 1091 M
120 92 V
6031 3991 M
120 91 V
2191 2142 M
120 92 V
3545 879 M
119 92 V
419 277 R
120 92 V
2356 957 M
120 91 V
828 378 R
120 92 V
6069 4622 M
120 92 V
2425 2072 M
120 91 V
6573 335 CircleF
6693 427 CircleF
6241 2859 CircleF
6360 2951 CircleF
2359 1083 CircleF
2479 1175 CircleF
1696 3802 CircleF
1815 3893 CircleF
2783 3151 CircleF
2903 3243 CircleF
4171 1732 CircleF
4290 1824 CircleF
3425 3529 CircleF
3545 3621 CircleF
3950 2456 CircleF
4069 2548 CircleF
2831 621 CircleF
2951 713 CircleF
3352 897 CircleF
3471 989 CircleF
2402 821 CircleF
2521 912 CircleF
5087 710 CircleF
5207 802 CircleF
1873 2090 CircleF
1993 2182 CircleF
2311 876 CircleF
2431 968 CircleF
1947 4585 CircleF
2067 4677 CircleF
5303 1665 CircleF
5422 1757 CircleF
3431 1534 CircleF
3550 1626 CircleF
5151 2246 CircleF
5270 2338 CircleF
4506 448 CircleF
4626 539 CircleF
5654 1157 CircleF
5774 1248 CircleF
5809 1532 CircleF
5929 1624 CircleF
3710 3357 CircleF
3830 3448 CircleF
1409 899 CircleF
1529 990 CircleF
1823 4093 CircleF
1943 4185 CircleF
2819 3565 CircleF
2939 3657 CircleF
3939 1270 CircleF
4059 1362 CircleF
2543 1557 CircleF
2662 1649 CircleF
6017 3344 CircleF
6136 3435 CircleF
5911 1421 CircleF
6030 1513 CircleF
3476 1271 CircleF
3596 1363 CircleF
4829 555 CircleF
4949 647 CircleF
2933 1827 CircleF
3053 1919 CircleF
5175 3686 CircleF
5295 3778 CircleF
2986 3402 CircleF
3106 3493 CircleF
1371 1156 CircleF
1491 1247 CircleF
6484 3028 CircleF
6603 3120 CircleF
3968 1006 CircleF
4088 1098 CircleF
2733 1207 CircleF
2853 1299 CircleF
1626 3012 CircleF
1746 3104 CircleF
6270 2437 CircleF
6390 2529 CircleF
4737 2891 CircleF
4856 2983 CircleF
3796 3160 CircleF
3915 3252 CircleF
3672 2193 CircleF
3792 2285 CircleF
1318 1688 CircleF
1438 1780 CircleF
3555 4367 CircleF
3675 4458 CircleF
6582 3783 CircleF
6702 3875 CircleF
1211 3027 CircleF
1331 3119 CircleF
5121 1885 CircleF
5240 1976 CircleF
1729 3047 CircleF
1849 3138 CircleF
5913 2329 CircleF
6033 2421 CircleF
2530 868 CircleF
2650 959 CircleF
1279 3922 CircleF
1398 4014 CircleF
4401 3765 CircleF
4520 3857 CircleF
5998 1323 CircleF
6117 1415 CircleF
1681 1098 CircleF
1800 1190 CircleF
5934 716 CircleF
6054 807 CircleF
6439 3060 CircleF
6559 3152 CircleF
2012 1176 CircleF
2132 1268 CircleF
5648 955 CircleF
5768 1046 CircleF
4827 3135 CircleF
4947 3227 CircleF
6416 1107 CircleF
6536 1199 CircleF
2047 339 CircleF
2167 430 CircleF
3693 4567 CircleF
3812 4658 CircleF
1713 2943 CircleF
1832 3034 CircleF
1993 2623 CircleF
2113 2715 CircleF
2415 4256 CircleF
2535 4348 CircleF
3195 314 CircleF
3315 406 CircleF
2225 1844 CircleF
2345 1936 CircleF
1602 1118 CircleF
1721 1209 CircleF
3217 2586 CircleF
3337 2678 CircleF
4339 3408 CircleF
4459 3499 CircleF
3162 1747 CircleF
3282 1838 CircleF
3871 2594 CircleF
3990 2686 CircleF
4738 1779 CircleF
4858 1871 CircleF
3221 1451 CircleF
3341 1543 CircleF
5901 2731 CircleF
6021 2823 CircleF
3788 466 CircleF
3907 557 CircleF
5749 1096 CircleF
5868 1188 CircleF
4780 473 CircleF
4900 564 CircleF
1631 4521 CircleF
1751 4613 CircleF
2330 4023 CircleF
2450 4115 CircleF
4933 3144 CircleF
5053 3235 CircleF
5674 1534 CircleF
5794 1626 CircleF
5823 578 CircleF
5942 669 CircleF
4823 1673 CircleF
4942 1765 CircleF
2226 4060 CircleF
2345 4152 CircleF
2158 4645 CircleF
2278 4737 CircleF
4632 1565 CircleF
4752 1657 CircleF
5656 4399 CircleF
5775 4491 CircleF
6204 3598 CircleF
6323 3690 CircleF
4570 1571 CircleF
4689 1663 CircleF
5974 1691 CircleF
6094 1783 CircleF
5112 3136 CircleF
5231 3228 CircleF
5057 3074 CircleF
5176 3166 CircleF
4704 1227 CircleF
4823 1319 CircleF
3713 1766 CircleF
3832 1858 CircleF
4640 3827 CircleF
4760 3919 CircleF
6415 4033 CircleF
6535 4125 CircleF
6363 2024 CircleF
6482 2116 CircleF
2611 1824 CircleF
2731 1915 CircleF
2291 3050 CircleF
2411 3142 CircleF
4068 3438 CircleF
4188 3530 CircleF
3968 1792 CircleF
4088 1884 CircleF
5480 1689 CircleF
5599 1781 CircleF
4472 469 CircleF
4592 561 CircleF
5433 1232 CircleF
5553 1324 CircleF
2272 4021 CircleF
2391 4113 CircleF
5442 2221 CircleF
5561 2313 CircleF
2888 288 CircleF
3008 379 CircleF
1120 2271 CircleF
1240 2363 CircleF
5684 1939 CircleF
5803 2031 CircleF
6131 3163 CircleF
6251 3254 CircleF
4486 812 CircleF
4605 903 CircleF
2068 2421 CircleF
2188 2513 CircleF
2195 2436 CircleF
2315 2528 CircleF
1815 4293 CircleF
1934 4384 CircleF
3257 3281 CircleF
3376 3373 CircleF
1412 2258 CircleF
1532 2349 CircleF
4813 721 CircleF
4932 813 CircleF
3988 3459 CircleF
4108 3551 CircleF
3135 788 CircleF
3255 880 CircleF
3587 4266 CircleF
3707 4358 CircleF
2993 4507 CircleF
3112 4598 CircleF
6011 2664 CircleF
6131 2756 CircleF
1273 1374 CircleF
1392 1466 CircleF
5762 4474 CircleF
5882 4566 CircleF
2355 3905 CircleF
2475 3997 CircleF
1443 529 CircleF
1563 621 CircleF
6544 3763 CircleF
6664 3855 CircleF
1879 2745 CircleF
1999 2837 CircleF
6237 3815 CircleF
6357 3907 CircleF
2528 1724 CircleF
2648 1816 CircleF
6425 2804 CircleF
6545 2896 CircleF
3556 1106 CircleF
3676 1198 CircleF
2246 1900 CircleF
2365 1992 CircleF
4752 1753 CircleF
4872 1845 CircleF
3008 4230 CircleF
3127 4322 CircleF
6375 760 CircleF
6495 852 CircleF
1567 1375 CircleF
1686 1467 CircleF
2345 3613 CircleF
2464 3705 CircleF
3920 2924 CircleF
4040 3016 CircleF
4088 2061 CircleF
4208 2152 CircleF
1656 545 CircleF
1776 637 CircleF
2284 2716 CircleF
2403 2807 CircleF
3902 907 CircleF
4022 999 CircleF
6382 2373 CircleF
6502 2465 CircleF
5215 3610 CircleF
5335 3702 CircleF
2491 1088 CircleF
2611 1180 CircleF
2214 1223 CircleF
2334 1315 CircleF
3867 4135 CircleF
3987 4227 CircleF
6635 1151 CircleF
6755 1243 CircleF
5833 3029 CircleF
5952 3120 CircleF
2314 1127 CircleF
2434 1218 CircleF
2989 2964 CircleF
3109 3055 CircleF
5316 4461 CircleF
5436 4552 CircleF
2727 1266 CircleF
2847 1358 CircleF
6564 691 CircleF
6684 782 CircleF
3344 726 CircleF
3464 818 CircleF
3506 4606 CircleF
3626 4698 CircleF
6702 1178 CircleF
6822 1270 CircleF
5289 2122 CircleF
5408 2214 CircleF
6431 1302 CircleF
6551 1393 CircleF
4929 2700 CircleF
5049 2792 CircleF
3441 4614 CircleF
3561 4706 CircleF
4273 1124 CircleF
4393 1216 CircleF
3974 1473 CircleF
4094 1565 CircleF
5523 4621 CircleF
5642 4713 CircleF
3349 1632 CircleF
3469 1724 CircleF
6263 3241 CircleF
6383 3333 CircleF
5985 1824 CircleF
6104 1915 CircleF
1437 1279 CircleF
1556 1371 CircleF
2336 1321 CircleF
2456 1413 CircleF
1830 932 CircleF
1949 1024 CircleF
3923 3719 CircleF
4043 3811 CircleF
5934 2332 CircleF
6054 2424 CircleF
5485 3058 CircleF
5605 3150 CircleF
3304 3222 CircleF
3423 3314 CircleF
3994 1908 CircleF
4113 2000 CircleF
3585 3219 CircleF
3704 3311 CircleF
4863 4016 CircleF
4983 4108 CircleF
5736 2545 CircleF
5856 2637 CircleF
1210 4629 CircleF
1330 4721 CircleF
5712 3504 CircleF
5832 3596 CircleF
1146 898 CircleF
1266 990 CircleF
3735 2736 CircleF
3855 2828 CircleF
5899 1549 CircleF
6019 1641 CircleF
3435 2166 CircleF
3555 2258 CircleF
6117 475 CircleF
6237 567 CircleF
5809 2453 CircleF
5928 2545 CircleF
6114 4681 CircleF
6234 4773 CircleF
3352 3880 CircleF
3472 3972 CircleF
3291 1882 CircleF
3411 1973 CircleF
4620 1483 CircleF
4739 1575 CircleF
1737 911 CircleF
1857 1003 CircleF
1596 2501 CircleF
1715 2593 CircleF
4044 3578 CircleF
4164 3670 CircleF
3192 802 CircleF
3312 894 CircleF
5646 4340 CircleF
5766 4431 CircleF
5344 1346 CircleF
5464 1438 CircleF
1094 1567 CircleF
1213 1658 CircleF
3076 1718 CircleF
3195 1810 CircleF
1415 3940 CircleF
1534 4032 CircleF
5966 2791 CircleF
6086 2883 CircleF
2747 2245 CircleF
2866 2337 CircleF
1955 2358 CircleF
2075 2449 CircleF
5090 1057 CircleF
5210 1148 CircleF
2732 899 CircleF
2852 991 CircleF
6558 2300 CircleF
6677 2392 CircleF
1062 1170 CircleF
1181 1262 CircleF
4500 4414 CircleF
4620 4506 CircleF
4041 2614 CircleF
4160 2706 CircleF
6217 2736 CircleF
6337 2828 CircleF
4471 585 CircleF
4591 677 CircleF
2905 1143 CircleF
3025 1235 CircleF
5654 1483 CircleF
5774 1575 CircleF
1781 2939 CircleF
1900 3031 CircleF
2638 4405 CircleF
2758 4496 CircleF
5488 4334 CircleF
5608 4426 CircleF
6558 4415 CircleF
6678 4507 CircleF
1272 3094 CircleF
1392 3186 CircleF
3125 2732 CircleF
3245 2824 CircleF
2273 3772 CircleF
2393 3864 CircleF
1952 2950 CircleF
2072 3042 CircleF
3388 1558 CircleF
3508 1650 CircleF
3266 1778 CircleF
3386 1870 CircleF
5870 4373 CircleF
5989 4465 CircleF
6080 564 CircleF
6199 655 CircleF
4721 3674 CircleF
4841 3766 CircleF
3387 3753 CircleF
3506 3845 CircleF
1409 4300 CircleF
1529 4391 CircleF
1641 3682 CircleF
1761 3774 CircleF
6320 4384 CircleF
6440 4476 CircleF
5553 2874 CircleF
5672 2966 CircleF
6371 2567 CircleF
6491 2659 CircleF
6281 643 CircleF
6401 735 CircleF
5091 1546 CircleF
5211 1637 CircleF
1393 1491 CircleF
1513 1583 CircleF
3627 438 CircleF
3746 530 CircleF
2949 1237 CircleF
3068 1328 CircleF
1216 3817 CircleF
1336 3909 CircleF
5028 4072 CircleF
5148 4164 CircleF
3588 382 CircleF
3708 474 CircleF
3859 4255 CircleF
3979 4347 CircleF
4773 3018 CircleF
4892 3110 CircleF
2082 1570 CircleF
2202 1661 CircleF
1142 1041 CircleF
1262 1133 CircleF
4914 2408 CircleF
5033 2500 CircleF
6192 2889 CircleF
6312 2981 CircleF
5471 4619 CircleF
5591 4711 CircleF
1182 1307 CircleF
1301 1399 CircleF
4450 376 CircleF
4570 468 CircleF
4236 2048 CircleF
4355 2140 CircleF
3508 3894 CircleF
3628 3986 CircleF
5227 2319 CircleF
5346 2410 CircleF
5020 4320 CircleF
5140 4412 CircleF
1519 4679 CircleF
1639 4770 CircleF
2697 1142 CircleF
2817 1234 CircleF
1252 1667 CircleF
1372 1759 CircleF
3699 1157 CircleF
3819 1249 CircleF
6352 555 CircleF
6472 647 CircleF
2752 469 CircleF
2872 561 CircleF
1984 1006 CircleF
2104 1098 CircleF
3817 2997 CircleF
3936 3089 CircleF
5347 2250 CircleF
5466 2342 CircleF
3678 2128 CircleF
3797 2220 CircleF
2749 426 CircleF
2869 518 CircleF
3855 686 CircleF
3975 778 CircleF
6624 748 CircleF
6743 840 CircleF
2222 2536 CircleF
2341 2628 CircleF
5514 3009 CircleF
5634 3101 CircleF
4005 633 CircleF
4124 725 CircleF
3431 1856 CircleF
3551 1948 CircleF
1458 4503 CircleF
1578 4595 CircleF
3172 2736 CircleF
3292 2828 CircleF
6689 1179 CircleF
6809 1271 CircleF
6201 2653 CircleF
6320 2745 CircleF
4484 1897 CircleF
4604 1989 CircleF
1767 3864 CircleF
1886 3956 CircleF
1678 3229 CircleF
1797 3321 CircleF
2907 326 CircleF
3026 418 CircleF
6535 474 CircleF
6655 566 CircleF
4484 1544 CircleF
4604 1636 CircleF
1917 3580 CircleF
2036 3672 CircleF
3414 827 CircleF
3534 919 CircleF
3724 4596 CircleF
3844 4688 CircleF
4286 1330 CircleF
4406 1422 CircleF
3136 4591 CircleF
3255 4683 CircleF
1731 845 CircleF
1850 936 CircleF
6286 2391 CircleF
6406 2483 CircleF
2665 2382 CircleF
2784 2474 CircleF
5928 3864 CircleF
6048 3956 CircleF
6225 1091 CircleF
6345 1183 CircleF
6031 3991 CircleF
6151 4082 CircleF
2191 2142 CircleF
2311 2234 CircleF
3545 879 CircleF
3664 971 CircleF
4083 1248 CircleF
4203 1340 CircleF
2356 957 CircleF
2476 1048 CircleF
3304 1426 CircleF
3424 1518 CircleF
6069 4622 CircleF
6189 4714 CircleF
2425 2072 CircleF
2545 2163 CircleF
% End plot #2
1.000 UP
1.000 UL
LT0
0.50 0.50 0.50 C stroke
grestore
end
showpage
%%Trailer
%%DocumentFonts: Helvetica
%%Pages: 1
