%!PS-Adobe-2.0
%%Title: out.ps
%%Creator: gnuplot 4.6 patchlevel 6
%%CreationDate: Thu May 28 15:46:48 2015
%%DocumentFonts: (atend)
%%BoundingBox: 50 50 554 770
%%Orientation: Landscape
%%Pages: (atend)
%%EndComments
%%BeginProlog
/gnudict 256 dict def
gnudict begin
%
% The following true/false flags may be edited by hand if desired.
% The unit line width and grayscale image gamma correction may also be changed.
%
/Color false def
/Blacktext false def
/Solid false def
/Dashlength 1 def
/Landscape true def
/Level1 false def
/Rounded false def
/ClipToBoundingBox false def
/SuppressPDFMark false def
/TransparentPatterns false def
/gnulinewidth 5.000 def
/userlinewidth gnulinewidth def
/Gamma 1.0 def
/BackgroundColor {-1.000 -1.000 -1.000} def
%
/vshift -46 def
/dl1 {
  10.0 Dashlength mul mul
  Rounded { currentlinewidth 0.75 mul sub dup 0 le { pop 0.01 } if } if
} def
/dl2 {
  10.0 Dashlength mul mul
  Rounded { currentlinewidth 0.75 mul add } if
} def
/hpt_ 31.5 def
/vpt_ 31.5 def
/hpt hpt_ def
/vpt vpt_ def
/doclip {
  ClipToBoundingBox {
    newpath 50 50 moveto 554 50 lineto 554 770 lineto 50 770 lineto closepath
    clip
  } if
} def
%
% Gnuplot Prolog Version 4.6 (September 2012)
%
%/SuppressPDFMark true def
%
/M {moveto} bind def
/L {lineto} bind def
/R {rmoveto} bind def
/V {rlineto} bind def
/N {newpath moveto} bind def
/Z {closepath} bind def
/C {setrgbcolor} bind def
/f {rlineto fill} bind def
/g {setgray} bind def
/Gshow {show} def   % May be redefined later in the file to support UTF-8
/vpt2 vpt 2 mul def
/hpt2 hpt 2 mul def
/Lshow {currentpoint stroke M 0 vshift R 
	Blacktext {gsave 0 setgray show grestore} {show} ifelse} def
/Rshow {currentpoint stroke M dup stringwidth pop neg vshift R
	Blacktext {gsave 0 setgray show grestore} {show} ifelse} def
/Cshow {currentpoint stroke M dup stringwidth pop -2 div vshift R 
	Blacktext {gsave 0 setgray show grestore} {show} ifelse} def
/UP {dup vpt_ mul /vpt exch def hpt_ mul /hpt exch def
  /hpt2 hpt 2 mul def /vpt2 vpt 2 mul def} def
/DL {Color {setrgbcolor Solid {pop []} if 0 setdash}
 {pop pop pop 0 setgray Solid {pop []} if 0 setdash} ifelse} def
/BL {stroke userlinewidth 2 mul setlinewidth
	Rounded {1 setlinejoin 1 setlinecap} if} def
/AL {stroke userlinewidth 2 div setlinewidth
	Rounded {1 setlinejoin 1 setlinecap} if} def
/UL {dup gnulinewidth mul /userlinewidth exch def
	dup 1 lt {pop 1} if 10 mul /udl exch def} def
/PL {stroke userlinewidth setlinewidth
	Rounded {1 setlinejoin 1 setlinecap} if} def
3.8 setmiterlimit
% Default Line colors
/LCw {1 1 1} def
/LCb {0 0 0} def
/LCa {0 0 0} def
/LC0 {1 0 0} def
/LC1 {0 1 0} def
/LC2 {0 0 1} def
/LC3 {1 0 1} def
/LC4 {0 1 1} def
/LC5 {1 1 0} def
/LC6 {0 0 0} def
/LC7 {1 0.3 0} def
/LC8 {0.5 0.5 0.5} def
% Default Line Types
/LTw {PL [] 1 setgray} def
/LTb {BL [] LCb DL} def
/LTa {AL [1 udl mul 2 udl mul] 0 setdash LCa setrgbcolor} def
/LT0 {PL [] LC0 DL} def
/LT1 {PL [4 dl1 2 dl2] LC1 DL} def
/LT2 {PL [2 dl1 3 dl2] LC2 DL} def
/LT3 {PL [1 dl1 1.5 dl2] LC3 DL} def
/LT4 {PL [6 dl1 2 dl2 1 dl1 2 dl2] LC4 DL} def
/LT5 {PL [3 dl1 3 dl2 1 dl1 3 dl2] LC5 DL} def
/LT6 {PL [2 dl1 2 dl2 2 dl1 6 dl2] LC6 DL} def
/LT7 {PL [1 dl1 2 dl2 6 dl1 2 dl2 1 dl1 2 dl2] LC7 DL} def
/LT8 {PL [2 dl1 2 dl2 2 dl1 2 dl2 2 dl1 2 dl2 2 dl1 4 dl2] LC8 DL} def
/Pnt {stroke [] 0 setdash gsave 1 setlinecap M 0 0 V stroke grestore} def
/Dia {stroke [] 0 setdash 2 copy vpt add M
  hpt neg vpt neg V hpt vpt neg V
  hpt vpt V hpt neg vpt V closepath stroke
  Pnt} def
/Pls {stroke [] 0 setdash vpt sub M 0 vpt2 V
  currentpoint stroke M
  hpt neg vpt neg R hpt2 0 V stroke
 } def
/Box {stroke [] 0 setdash 2 copy exch hpt sub exch vpt add M
  0 vpt2 neg V hpt2 0 V 0 vpt2 V
  hpt2 neg 0 V closepath stroke
  Pnt} def
/Crs {stroke [] 0 setdash exch hpt sub exch vpt add M
  hpt2 vpt2 neg V currentpoint stroke M
  hpt2 neg 0 R hpt2 vpt2 V stroke} def
/TriU {stroke [] 0 setdash 2 copy vpt 1.12 mul add M
  hpt neg vpt -1.62 mul V
  hpt 2 mul 0 V
  hpt neg vpt 1.62 mul V closepath stroke
  Pnt} def
/Star {2 copy Pls Crs} def
/BoxF {stroke [] 0 setdash exch hpt sub exch vpt add M
  0 vpt2 neg V hpt2 0 V 0 vpt2 V
  hpt2 neg 0 V closepath fill} def
/TriUF {stroke [] 0 setdash vpt 1.12 mul add M
  hpt neg vpt -1.62 mul V
  hpt 2 mul 0 V
  hpt neg vpt 1.62 mul V closepath fill} def
/TriD {stroke [] 0 setdash 2 copy vpt 1.12 mul sub M
  hpt neg vpt 1.62 mul V
  hpt 2 mul 0 V
  hpt neg vpt -1.62 mul V closepath stroke
  Pnt} def
/TriDF {stroke [] 0 setdash vpt 1.12 mul sub M
  hpt neg vpt 1.62 mul V
  hpt 2 mul 0 V
  hpt neg vpt -1.62 mul V closepath fill} def
/DiaF {stroke [] 0 setdash vpt add M
  hpt neg vpt neg V hpt vpt neg V
  hpt vpt V hpt neg vpt V closepath fill} def
/Pent {stroke [] 0 setdash 2 copy gsave
  translate 0 hpt M 4 {72 rotate 0 hpt L} repeat
  closepath stroke grestore Pnt} def
/PentF {stroke [] 0 setdash gsave
  translate 0 hpt M 4 {72 rotate 0 hpt L} repeat
  closepath fill grestore} def
/Circle {stroke [] 0 setdash 2 copy
  hpt 0 360 arc stroke Pnt} def
/CircleF {stroke [] 0 setdash hpt 0 360 arc fill} def
/C0 {BL [] 0 setdash 2 copy moveto vpt 90 450 arc} bind def
/C1 {BL [] 0 setdash 2 copy moveto
	2 copy vpt 0 90 arc closepath fill
	vpt 0 360 arc closepath} bind def
/C2 {BL [] 0 setdash 2 copy moveto
	2 copy vpt 90 180 arc closepath fill
	vpt 0 360 arc closepath} bind def
/C3 {BL [] 0 setdash 2 copy moveto
	2 copy vpt 0 180 arc closepath fill
	vpt 0 360 arc closepath} bind def
/C4 {BL [] 0 setdash 2 copy moveto
	2 copy vpt 180 270 arc closepath fill
	vpt 0 360 arc closepath} bind def
/C5 {BL [] 0 setdash 2 copy moveto
	2 copy vpt 0 90 arc
	2 copy moveto
	2 copy vpt 180 270 arc closepath fill
	vpt 0 360 arc} bind def
/C6 {BL [] 0 setdash 2 copy moveto
	2 copy vpt 90 270 arc closepath fill
	vpt 0 360 arc closepath} bind def
/C7 {BL [] 0 setdash 2 copy moveto
	2 copy vpt 0 270 arc closepath fill
	vpt 0 360 arc closepath} bind def
/C8 {BL [] 0 setdash 2 copy moveto
	2 copy vpt 270 360 arc closepath fill
	vpt 0 360 arc closepath} bind def
/C9 {BL [] 0 setdash 2 copy moveto
	2 copy vpt 270 450 arc closepath fill
	vpt 0 360 arc closepath} bind def
/C10 {BL [] 0 setdash 2 copy 2 copy moveto vpt 270 360 arc closepath fill
	2 copy moveto
	2 copy vpt 90 180 arc closepath fill
	vpt 0 360 arc closepath} bind def
/C11 {BL [] 0 setdash 2 copy moveto
	2 copy vpt 0 180 arc closepath fill
	2 copy moveto
	2 copy vpt 270 360 arc closepath fill
	vpt 0 360 arc closepath} bind def
/C12 {BL [] 0 setdash 2 copy moveto
	2 copy vpt 180 360 arc closepath fill
	vpt 0 360 arc closepath} bind def
/C13 {BL [] 0 setdash 2 copy moveto
	2 copy vpt 0 90 arc closepath fill
	2 copy moveto
	2 copy vpt 180 360 arc closepath fill
	vpt 0 360 arc closepath} bind def
/C14 {BL [] 0 setdash 2 copy moveto
	2 copy vpt 90 360 arc closepath fill
	vpt 0 360 arc} bind def
/C15 {BL [] 0 setdash 2 copy vpt 0 360 arc closepath fill
	vpt 0 360 arc closepath} bind def
/Rec {newpath 4 2 roll moveto 1 index 0 rlineto 0 exch rlineto
	neg 0 rlineto closepath} bind def
/Square {dup Rec} bind def
/Bsquare {vpt sub exch vpt sub exch vpt2 Square} bind def
/S0 {BL [] 0 setdash 2 copy moveto 0 vpt rlineto BL Bsquare} bind def
/S1 {BL [] 0 setdash 2 copy vpt Square fill Bsquare} bind def
/S2 {BL [] 0 setdash 2 copy exch vpt sub exch vpt Square fill Bsquare} bind def
/S3 {BL [] 0 setdash 2 copy exch vpt sub exch vpt2 vpt Rec fill Bsquare} bind def
/S4 {BL [] 0 setdash 2 copy exch vpt sub exch vpt sub vpt Square fill Bsquare} bind def
/S5 {BL [] 0 setdash 2 copy 2 copy vpt Square fill
	exch vpt sub exch vpt sub vpt Square fill Bsquare} bind def
/S6 {BL [] 0 setdash 2 copy exch vpt sub exch vpt sub vpt vpt2 Rec fill Bsquare} bind def
/S7 {BL [] 0 setdash 2 copy exch vpt sub exch vpt sub vpt vpt2 Rec fill
	2 copy vpt Square fill Bsquare} bind def
/S8 {BL [] 0 setdash 2 copy vpt sub vpt Square fill Bsquare} bind def
/S9 {BL [] 0 setdash 2 copy vpt sub vpt vpt2 Rec fill Bsquare} bind def
/S10 {BL [] 0 setdash 2 copy vpt sub vpt Square fill 2 copy exch vpt sub exch vpt Square fill
	Bsquare} bind def
/S11 {BL [] 0 setdash 2 copy vpt sub vpt Square fill 2 copy exch vpt sub exch vpt2 vpt Rec fill
	Bsquare} bind def
/S12 {BL [] 0 setdash 2 copy exch vpt sub exch vpt sub vpt2 vpt Rec fill Bsquare} bind def
/S13 {BL [] 0 setdash 2 copy exch vpt sub exch vpt sub vpt2 vpt Rec fill
	2 copy vpt Square fill Bsquare} bind def
/S14 {BL [] 0 setdash 2 copy exch vpt sub exch vpt sub vpt2 vpt Rec fill
	2 copy exch vpt sub exch vpt Square fill Bsquare} bind def
/S15 {BL [] 0 setdash 2 copy Bsquare fill Bsquare} bind def
/D0 {gsave translate 45 rotate 0 0 S0 stroke grestore} bind def
/D1 {gsave translate 45 rotate 0 0 S1 stroke grestore} bind def
/D2 {gsave translate 45 rotate 0 0 S2 stroke grestore} bind def
/D3 {gsave translate 45 rotate 0 0 S3 stroke grestore} bind def
/D4 {gsave translate 45 rotate 0 0 S4 stroke grestore} bind def
/D5 {gsave translate 45 rotate 0 0 S5 stroke grestore} bind def
/D6 {gsave translate 45 rotate 0 0 S6 stroke grestore} bind def
/D7 {gsave translate 45 rotate 0 0 S7 stroke grestore} bind def
/D8 {gsave translate 45 rotate 0 0 S8 stroke grestore} bind def
/D9 {gsave translate 45 rotate 0 0 S9 stroke grestore} bind def
/D10 {gsave translate 45 rotate 0 0 S10 stroke grestore} bind def
/D11 {gsave translate 45 rotate 0 0 S11 stroke grestore} bind def
/D12 {gsave translate 45 rotate 0 0 S12 stroke grestore} bind def
/D13 {gsave translate 45 rotate 0 0 S13 stroke grestore} bind def
/D14 {gsave translate 45 rotate 0 0 S14 stroke grestore} bind def
/D15 {gsave translate 45 rotate 0 0 S15 stroke grestore} bind def
/DiaE {stroke [] 0 setdash vpt add M
  hpt neg vpt neg V hpt vpt neg V
  hpt vpt V hpt neg vpt V closepath stroke} def
/BoxE {stroke [] 0 setdash exch hpt sub exch vpt add M
  0 vpt2 neg V hpt2 0 V 0 vpt2 V
  hpt2 neg 0 V closepath stroke} def
/TriUE {stroke [] 0 setdash vpt 1.12 mul add M
  hpt neg vpt -1.62 mul V
  hpt 2 mul 0 V
  hpt neg vpt 1.62 mul V closepath stroke} def
/TriDE {stroke [] 0 setdash vpt 1.12 mul sub M
  hpt neg vpt 1.62 mul V
  hpt 2 mul 0 V
  hpt neg vpt -1.62 mul V closepath stroke} def
/PentE {stroke [] 0 setdash gsave
  translate 0 hpt M 4 {72 rotate 0 hpt L} repeat
  closepath stroke grestore} def
/CircE {stroke [] 0 setdash 
  hpt 0 360 arc stroke} def
/Opaque {gsave closepath 1 setgray fill grestore 0 setgray closepath} def
/DiaW {stroke [] 0 setdash vpt add M
  hpt neg vpt neg V hpt vpt neg V
  hpt vpt V hpt neg vpt V Opaque stroke} def
/BoxW {stroke [] 0 setdash exch hpt sub exch vpt add M
  0 vpt2 neg V hpt2 0 V 0 vpt2 V
  hpt2 neg 0 V Opaque stroke} def
/TriUW {stroke [] 0 setdash vpt 1.12 mul add M
  hpt neg vpt -1.62 mul V
  hpt 2 mul 0 V
  hpt neg vpt 1.62 mul V Opaque stroke} def
/TriDW {stroke [] 0 setdash vpt 1.12 mul sub M
  hpt neg vpt 1.62 mul V
  hpt 2 mul 0 V
  hpt neg vpt -1.62 mul V Opaque stroke} def
/PentW {stroke [] 0 setdash gsave
  translate 0 hpt M 4 {72 rotate 0 hpt L} repeat
  Opaque stroke grestore} def
/CircW {stroke [] 0 setdash 
  hpt 0 360 arc Opaque stroke} def
/BoxFill {gsave Rec 1 setgray fill grestore} def
/Density {
  /Fillden exch def
  currentrgbcolor
  /ColB exch def /ColG exch def /ColR exch def
  /ColR ColR Fillden mul Fillden sub 1 add def
  /ColG ColG Fillden mul Fillden sub 1 add def
  /ColB ColB Fillden mul Fillden sub 1 add def
  ColR ColG ColB setrgbcolor} def
/BoxColFill {gsave Rec PolyFill} def
/PolyFill {gsave Density fill grestore grestore} def
/h {rlineto rlineto rlineto gsave closepath fill grestore} bind def
%
% PostScript Level 1 Pattern Fill routine for rectangles
% Usage: x y w h s a XX PatternFill
%	x,y = lower left corner of box to be filled
%	w,h = width and height of box
%	  a = angle in degrees between lines and x-axis
%	 XX = 0/1 for no/yes cross-hatch
%
/PatternFill {gsave /PFa [ 9 2 roll ] def
  PFa 0 get PFa 2 get 2 div add PFa 1 get PFa 3 get 2 div add translate
  PFa 2 get -2 div PFa 3 get -2 div PFa 2 get PFa 3 get Rec
  TransparentPatterns {} {gsave 1 setgray fill grestore} ifelse
  clip
  currentlinewidth 0.5 mul setlinewidth
  /PFs PFa 2 get dup mul PFa 3 get dup mul add sqrt def
  0 0 M PFa 5 get rotate PFs -2 div dup translate
  0 1 PFs PFa 4 get div 1 add floor cvi
	{PFa 4 get mul 0 M 0 PFs V} for
  0 PFa 6 get ne {
	0 1 PFs PFa 4 get div 1 add floor cvi
	{PFa 4 get mul 0 2 1 roll M PFs 0 V} for
 } if
  stroke grestore} def
%
/languagelevel where
 {pop languagelevel} {1} ifelse
 2 lt
	{/InterpretLevel1 true def}
	{/InterpretLevel1 Level1 def}
 ifelse
%
% PostScript level 2 pattern fill definitions
%
/Level2PatternFill {
/Tile8x8 {/PaintType 2 /PatternType 1 /TilingType 1 /BBox [0 0 8 8] /XStep 8 /YStep 8}
	bind def
/KeepColor {currentrgbcolor [/Pattern /DeviceRGB] setcolorspace} bind def
<< Tile8x8
 /PaintProc {0.5 setlinewidth pop 0 0 M 8 8 L 0 8 M 8 0 L stroke} 
>> matrix makepattern
/Pat1 exch def
<< Tile8x8
 /PaintProc {0.5 setlinewidth pop 0 0 M 8 8 L 0 8 M 8 0 L stroke
	0 4 M 4 8 L 8 4 L 4 0 L 0 4 L stroke}
>> matrix makepattern
/Pat2 exch def
<< Tile8x8
 /PaintProc {0.5 setlinewidth pop 0 0 M 0 8 L
	8 8 L 8 0 L 0 0 L fill}
>> matrix makepattern
/Pat3 exch def
<< Tile8x8
 /PaintProc {0.5 setlinewidth pop -4 8 M 8 -4 L
	0 12 M 12 0 L stroke}
>> matrix makepattern
/Pat4 exch def
<< Tile8x8
 /PaintProc {0.5 setlinewidth pop -4 0 M 8 12 L
	0 -4 M 12 8 L stroke}
>> matrix makepattern
/Pat5 exch def
<< Tile8x8
 /PaintProc {0.5 setlinewidth pop -2 8 M 4 -4 L
	0 12 M 8 -4 L 4 12 M 10 0 L stroke}
>> matrix makepattern
/Pat6 exch def
<< Tile8x8
 /PaintProc {0.5 setlinewidth pop -2 0 M 4 12 L
	0 -4 M 8 12 L 4 -4 M 10 8 L stroke}
>> matrix makepattern
/Pat7 exch def
<< Tile8x8
 /PaintProc {0.5 setlinewidth pop 8 -2 M -4 4 L
	12 0 M -4 8 L 12 4 M 0 10 L stroke}
>> matrix makepattern
/Pat8 exch def
<< Tile8x8
 /PaintProc {0.5 setlinewidth pop 0 -2 M 12 4 L
	-4 0 M 12 8 L -4 4 M 8 10 L stroke}
>> matrix makepattern
/Pat9 exch def
/Pattern1 {PatternBgnd KeepColor Pat1 setpattern} bind def
/Pattern2 {PatternBgnd KeepColor Pat2 setpattern} bind def
/Pattern3 {PatternBgnd KeepColor Pat3 setpattern} bind def
/Pattern4 {PatternBgnd KeepColor Landscape {Pat5} {Pat4} ifelse setpattern} bind def
/Pattern5 {PatternBgnd KeepColor Landscape {Pat4} {Pat5} ifelse setpattern} bind def
/Pattern6 {PatternBgnd KeepColor Landscape {Pat9} {Pat6} ifelse setpattern} bind def
/Pattern7 {PatternBgnd KeepColor Landscape {Pat8} {Pat7} ifelse setpattern} bind def
} def
%
%
%End of PostScript Level 2 code
%
/PatternBgnd {
  TransparentPatterns {} {gsave 1 setgray fill grestore} ifelse
} def
%
% Substitute for Level 2 pattern fill codes with
% grayscale if Level 2 support is not selected.
%
/Level1PatternFill {
/Pattern1 {0.250 Density} bind def
/Pattern2 {0.500 Density} bind def
/Pattern3 {0.750 Density} bind def
/Pattern4 {0.125 Density} bind def
/Pattern5 {0.375 Density} bind def
/Pattern6 {0.625 Density} bind def
/Pattern7 {0.875 Density} bind def
} def
%
% Now test for support of Level 2 code
%
Level1 {Level1PatternFill} {Level2PatternFill} ifelse
%
/Symbol-Oblique /Symbol findfont [1 0 .167 1 0 0] makefont
dup length dict begin {1 index /FID eq {pop pop} {def} ifelse} forall
currentdict end definefont pop
Level1 SuppressPDFMark or 
{} {
/SDict 10 dict def
systemdict /pdfmark known not {
  userdict /pdfmark systemdict /cleartomark get put
} if
SDict begin [
  /Title (out.ps)
  /Subject (gnuplot plot)
  /Creator (gnuplot 4.6 patchlevel 6)
  /Author (yani)
%  /Producer (gnuplot)
%  /Keywords ()
  /CreationDate (Thu May 28 15:46:48 2015)
  /DOCINFO pdfmark
end
} ifelse
end
%%EndProlog
%%Page: 1 1
gnudict begin
gsave
doclip
50 50 translate
0.100 0.100 scale
90 rotate
0 -5040 translate
0 setgray
newpath
(Helvetica) findfont 140 scalefont setfont
BackgroundColor 0 lt 3 1 roll 0 lt exch 0 lt or or not {gsave BackgroundColor C clippath fill grestore} if
1.000 UL
LT0
0.50 0.50 0.50 C 1.000 UL
LTa
0.50 0.50 0.50 C 966 280 M
5981 0 V
stroke
LT0
0.50 0.50 0.50 C 966 280 M
63 0 V
5918 0 R
-63 0 V
882 280 M
( 0) Rshow
1.000 UL
LT0
0.50 0.50 0.50 C 1.000 UL
LTa
0.50 0.50 0.50 C 966 372 M
5981 0 V
stroke
LT0
0.50 0.50 0.50 C 966 372 M
63 0 V
5918 0 R
-63 0 V
882 372 M
( 0.707106) Rshow
1.000 UL
LT0
0.50 0.50 0.50 C 1.000 UL
LTa
0.50 0.50 0.50 C 966 464 M
5981 0 V
stroke
LT0
0.50 0.50 0.50 C 966 464 M
63 0 V
5918 0 R
-63 0 V
882 464 M
( 1.41421) Rshow
1.000 UL
LT0
0.50 0.50 0.50 C 1.000 UL
LTa
0.50 0.50 0.50 C 966 555 M
5981 0 V
stroke
LT0
0.50 0.50 0.50 C 966 555 M
63 0 V
5918 0 R
-63 0 V
882 555 M
( 2.12132) Rshow
1.000 UL
LT0
0.50 0.50 0.50 C 1.000 UL
LTa
0.50 0.50 0.50 C 966 647 M
5981 0 V
stroke
LT0
0.50 0.50 0.50 C 966 647 M
63 0 V
5918 0 R
-63 0 V
882 647 M
( 2.82842) Rshow
1.000 UL
LT0
0.50 0.50 0.50 C 1.000 UL
LTa
0.50 0.50 0.50 C 966 739 M
5981 0 V
stroke
LT0
0.50 0.50 0.50 C 966 739 M
63 0 V
5918 0 R
-63 0 V
882 739 M
( 3.53553) Rshow
1.000 UL
LT0
0.50 0.50 0.50 C 1.000 UL
LTa
0.50 0.50 0.50 C 966 831 M
5981 0 V
stroke
LT0
0.50 0.50 0.50 C 966 831 M
63 0 V
5918 0 R
-63 0 V
882 831 M
( 4.24264) Rshow
1.000 UL
LT0
0.50 0.50 0.50 C 1.000 UL
LTa
0.50 0.50 0.50 C 966 923 M
5981 0 V
stroke
LT0
0.50 0.50 0.50 C 966 923 M
63 0 V
5918 0 R
-63 0 V
882 923 M
( 4.94974) Rshow
1.000 UL
LT0
0.50 0.50 0.50 C 1.000 UL
LTa
0.50 0.50 0.50 C 966 1015 M
5981 0 V
stroke
LT0
0.50 0.50 0.50 C 966 1015 M
63 0 V
5918 0 R
-63 0 V
-6002 0 R
( 5.65685) Rshow
1.000 UL
LT0
0.50 0.50 0.50 C 1.000 UL
LTa
0.50 0.50 0.50 C 966 1106 M
5981 0 V
stroke
LT0
0.50 0.50 0.50 C 966 1106 M
63 0 V
5918 0 R
-63 0 V
-6002 0 R
( 6.36395) Rshow
1.000 UL
LT0
0.50 0.50 0.50 C 1.000 UL
LTa
0.50 0.50 0.50 C 966 1198 M
5981 0 V
stroke
LT0
0.50 0.50 0.50 C 966 1198 M
63 0 V
5918 0 R
-63 0 V
-6002 0 R
( 7.07106) Rshow
1.000 UL
LT0
0.50 0.50 0.50 C 1.000 UL
LTa
0.50 0.50 0.50 C 966 1290 M
5981 0 V
stroke
LT0
0.50 0.50 0.50 C 966 1290 M
63 0 V
5918 0 R
-63 0 V
-6002 0 R
( 7.77817) Rshow
1.000 UL
LT0
0.50 0.50 0.50 C 1.000 UL
LTa
0.50 0.50 0.50 C 966 1382 M
5981 0 V
stroke
LT0
0.50 0.50 0.50 C 966 1382 M
63 0 V
5918 0 R
-63 0 V
-6002 0 R
( 8.48527) Rshow
1.000 UL
LT0
0.50 0.50 0.50 C 1.000 UL
LTa
0.50 0.50 0.50 C 966 1474 M
5981 0 V
stroke
LT0
0.50 0.50 0.50 C 966 1474 M
63 0 V
5918 0 R
-63 0 V
-6002 0 R
( 9.19238) Rshow
1.000 UL
LT0
0.50 0.50 0.50 C 1.000 UL
LTa
0.50 0.50 0.50 C 966 1565 M
5981 0 V
stroke
LT0
0.50 0.50 0.50 C 966 1565 M
63 0 V
5918 0 R
-63 0 V
-6002 0 R
( 9.89948) Rshow
1.000 UL
LT0
0.50 0.50 0.50 C 1.000 UL
LTa
0.50 0.50 0.50 C 966 1657 M
5981 0 V
stroke
LT0
0.50 0.50 0.50 C 966 1657 M
63 0 V
5918 0 R
-63 0 V
-6002 0 R
( 10.6066) Rshow
1.000 UL
LT0
0.50 0.50 0.50 C 1.000 UL
LTa
0.50 0.50 0.50 C 966 1749 M
5981 0 V
stroke
LT0
0.50 0.50 0.50 C 966 1749 M
63 0 V
5918 0 R
-63 0 V
-6002 0 R
( 11.3137) Rshow
1.000 UL
LT0
0.50 0.50 0.50 C 1.000 UL
LTa
0.50 0.50 0.50 C 966 1841 M
5981 0 V
stroke
LT0
0.50 0.50 0.50 C 966 1841 M
63 0 V
5918 0 R
-63 0 V
-6002 0 R
( 12.0208) Rshow
1.000 UL
LT0
0.50 0.50 0.50 C 1.000 UL
LTa
0.50 0.50 0.50 C 966 1933 M
5981 0 V
stroke
LT0
0.50 0.50 0.50 C 966 1933 M
63 0 V
5918 0 R
-63 0 V
-6002 0 R
( 12.7279) Rshow
1.000 UL
LT0
0.50 0.50 0.50 C 1.000 UL
LTa
0.50 0.50 0.50 C 966 2025 M
5981 0 V
stroke
LT0
0.50 0.50 0.50 C 966 2025 M
63 0 V
5918 0 R
-63 0 V
-6002 0 R
( 13.435) Rshow
1.000 UL
LT0
0.50 0.50 0.50 C 1.000 UL
LTa
0.50 0.50 0.50 C 966 2116 M
5981 0 V
stroke
LT0
0.50 0.50 0.50 C 966 2116 M
63 0 V
5918 0 R
-63 0 V
-6002 0 R
( 14.1421) Rshow
1.000 UL
LT0
0.50 0.50 0.50 C 1.000 UL
LTa
0.50 0.50 0.50 C 966 2208 M
5981 0 V
stroke
LT0
0.50 0.50 0.50 C 966 2208 M
63 0 V
5918 0 R
-63 0 V
-6002 0 R
( 14.8492) Rshow
1.000 UL
LT0
0.50 0.50 0.50 C 1.000 UL
LTa
0.50 0.50 0.50 C 966 2300 M
5981 0 V
stroke
LT0
0.50 0.50 0.50 C 966 2300 M
63 0 V
5918 0 R
-63 0 V
-6002 0 R
( 15.5563) Rshow
1.000 UL
LT0
0.50 0.50 0.50 C 1.000 UL
LTa
0.50 0.50 0.50 C 966 2392 M
5981 0 V
stroke
LT0
0.50 0.50 0.50 C 966 2392 M
63 0 V
5918 0 R
-63 0 V
-6002 0 R
( 16.2634) Rshow
1.000 UL
LT0
0.50 0.50 0.50 C 1.000 UL
LTa
0.50 0.50 0.50 C 966 2484 M
5981 0 V
stroke
LT0
0.50 0.50 0.50 C 966 2484 M
63 0 V
5918 0 R
-63 0 V
-6002 0 R
( 16.9705) Rshow
1.000 UL
LT0
0.50 0.50 0.50 C 1.000 UL
LTa
0.50 0.50 0.50 C 966 2575 M
5981 0 V
stroke
LT0
0.50 0.50 0.50 C 966 2575 M
63 0 V
5918 0 R
-63 0 V
-6002 0 R
( 17.6776) Rshow
1.000 UL
LT0
0.50 0.50 0.50 C 1.000 UL
LTa
0.50 0.50 0.50 C 966 2667 M
5981 0 V
stroke
LT0
0.50 0.50 0.50 C 966 2667 M
63 0 V
5918 0 R
-63 0 V
-6002 0 R
( 18.3848) Rshow
1.000 UL
LT0
0.50 0.50 0.50 C 1.000 UL
LTa
0.50 0.50 0.50 C 966 2759 M
5981 0 V
stroke
LT0
0.50 0.50 0.50 C 966 2759 M
63 0 V
5918 0 R
-63 0 V
-6002 0 R
( 19.0919) Rshow
1.000 UL
LT0
0.50 0.50 0.50 C 1.000 UL
LTa
0.50 0.50 0.50 C 966 2851 M
5981 0 V
stroke
LT0
0.50 0.50 0.50 C 966 2851 M
63 0 V
5918 0 R
-63 0 V
-6002 0 R
( 19.799) Rshow
1.000 UL
LT0
0.50 0.50 0.50 C 1.000 UL
LTa
0.50 0.50 0.50 C 966 2943 M
5981 0 V
stroke
LT0
0.50 0.50 0.50 C 966 2943 M
63 0 V
5918 0 R
-63 0 V
-6002 0 R
( 20.5061) Rshow
1.000 UL
LT0
0.50 0.50 0.50 C 1.000 UL
LTa
0.50 0.50 0.50 C 966 3035 M
5981 0 V
stroke
LT0
0.50 0.50 0.50 C 966 3035 M
63 0 V
5918 0 R
-63 0 V
-6002 0 R
( 21.2132) Rshow
1.000 UL
LT0
0.50 0.50 0.50 C 1.000 UL
LTa
0.50 0.50 0.50 C 966 3126 M
5981 0 V
stroke
LT0
0.50 0.50 0.50 C 966 3126 M
63 0 V
5918 0 R
-63 0 V
-6002 0 R
( 21.9203) Rshow
1.000 UL
LT0
0.50 0.50 0.50 C 1.000 UL
LTa
0.50 0.50 0.50 C 966 3218 M
5981 0 V
stroke
LT0
0.50 0.50 0.50 C 966 3218 M
63 0 V
5918 0 R
-63 0 V
-6002 0 R
( 22.6274) Rshow
1.000 UL
LT0
0.50 0.50 0.50 C 1.000 UL
LTa
0.50 0.50 0.50 C 966 3310 M
5981 0 V
stroke
LT0
0.50 0.50 0.50 C 966 3310 M
63 0 V
5918 0 R
-63 0 V
-6002 0 R
( 23.3345) Rshow
1.000 UL
LT0
0.50 0.50 0.50 C 1.000 UL
LTa
0.50 0.50 0.50 C 966 3402 M
5981 0 V
stroke
LT0
0.50 0.50 0.50 C 966 3402 M
63 0 V
5918 0 R
-63 0 V
-6002 0 R
( 24.0416) Rshow
1.000 UL
LT0
0.50 0.50 0.50 C 1.000 UL
LTa
0.50 0.50 0.50 C 966 3494 M
5981 0 V
stroke
LT0
0.50 0.50 0.50 C 966 3494 M
63 0 V
5918 0 R
-63 0 V
-6002 0 R
( 24.7487) Rshow
1.000 UL
LT0
0.50 0.50 0.50 C 1.000 UL
LTa
0.50 0.50 0.50 C 966 3586 M
5981 0 V
stroke
LT0
0.50 0.50 0.50 C 966 3586 M
63 0 V
5918 0 R
-63 0 V
-6002 0 R
( 25.4558) Rshow
1.000 UL
LT0
0.50 0.50 0.50 C 1.000 UL
LTa
0.50 0.50 0.50 C 966 3677 M
5981 0 V
stroke
LT0
0.50 0.50 0.50 C 966 3677 M
63 0 V
5918 0 R
-63 0 V
-6002 0 R
( 26.1629) Rshow
1.000 UL
LT0
0.50 0.50 0.50 C 1.000 UL
LTa
0.50 0.50 0.50 C 966 3769 M
5981 0 V
stroke
LT0
0.50 0.50 0.50 C 966 3769 M
63 0 V
5918 0 R
-63 0 V
-6002 0 R
( 26.87) Rshow
1.000 UL
LT0
0.50 0.50 0.50 C 1.000 UL
LTa
0.50 0.50 0.50 C 966 3861 M
5981 0 V
stroke
LT0
0.50 0.50 0.50 C 966 3861 M
63 0 V
5918 0 R
-63 0 V
-6002 0 R
( 27.5771) Rshow
1.000 UL
LT0
0.50 0.50 0.50 C 1.000 UL
LTa
0.50 0.50 0.50 C 966 3953 M
5981 0 V
stroke
LT0
0.50 0.50 0.50 C 966 3953 M
63 0 V
5918 0 R
-63 0 V
-6002 0 R
( 28.2842) Rshow
1.000 UL
LT0
0.50 0.50 0.50 C 1.000 UL
LTa
0.50 0.50 0.50 C 966 4045 M
5981 0 V
stroke
LT0
0.50 0.50 0.50 C 966 4045 M
63 0 V
5918 0 R
-63 0 V
-6002 0 R
( 28.9913) Rshow
1.000 UL
LT0
0.50 0.50 0.50 C 1.000 UL
LTa
0.50 0.50 0.50 C 966 4136 M
5981 0 V
stroke
LT0
0.50 0.50 0.50 C 966 4136 M
63 0 V
5918 0 R
-63 0 V
-6002 0 R
( 29.6985) Rshow
1.000 UL
LT0
0.50 0.50 0.50 C 1.000 UL
LTa
0.50 0.50 0.50 C 966 4228 M
5981 0 V
stroke
LT0
0.50 0.50 0.50 C 966 4228 M
63 0 V
5918 0 R
-63 0 V
-6002 0 R
( 30.4056) Rshow
1.000 UL
LT0
0.50 0.50 0.50 C 1.000 UL
LTa
0.50 0.50 0.50 C 966 4320 M
5981 0 V
stroke
LT0
0.50 0.50 0.50 C 966 4320 M
63 0 V
5918 0 R
-63 0 V
-6002 0 R
( 31.1127) Rshow
1.000 UL
LT0
0.50 0.50 0.50 C 1.000 UL
LTa
0.50 0.50 0.50 C 966 4412 M
5981 0 V
stroke
LT0
0.50 0.50 0.50 C 966 4412 M
63 0 V
5918 0 R
-63 0 V
-6002 0 R
( 31.8198) Rshow
1.000 UL
LT0
0.50 0.50 0.50 C 1.000 UL
LTa
0.50 0.50 0.50 C 966 4504 M
5981 0 V
stroke
LT0
0.50 0.50 0.50 C 966 4504 M
63 0 V
5918 0 R
-63 0 V
-6002 0 R
( 32.5269) Rshow
1.000 UL
LT0
0.50 0.50 0.50 C 1.000 UL
LTa
0.50 0.50 0.50 C 966 4596 M
5981 0 V
stroke
LT0
0.50 0.50 0.50 C 966 4596 M
63 0 V
5918 0 R
-63 0 V
-6002 0 R
( 33.234) Rshow
1.000 UL
LT0
0.50 0.50 0.50 C 1.000 UL
LTa
0.50 0.50 0.50 C 966 4687 M
5981 0 V
stroke
LT0
0.50 0.50 0.50 C 966 4687 M
63 0 V
5918 0 R
-63 0 V
-6002 0 R
( 33.9411) Rshow
1.000 UL
LT0
0.50 0.50 0.50 C 1.000 UL
LTa
0.50 0.50 0.50 C 966 4779 M
5981 0 V
stroke
LT0
0.50 0.50 0.50 C 966 4779 M
63 0 V
5918 0 R
-63 0 V
-6002 0 R
( 34.6482) Rshow
1.000 UL
LT0
0.50 0.50 0.50 C 1.000 UL
LTa
0.50 0.50 0.50 C 966 4871 M
5981 0 V
stroke
LT0
0.50 0.50 0.50 C 966 4871 M
63 0 V
5918 0 R
-63 0 V
-6002 0 R
( 35.3553) Rshow
1.000 UL
LT0
0.50 0.50 0.50 C 1.000 UL
LTa
0.50 0.50 0.50 C 966 280 M
0 4591 V
stroke
LT0
0.50 0.50 0.50 C 966 280 M
0 63 V
0 4528 R
0 -63 V
966 140 M
( 0) Cshow
1.000 UL
LT0
0.50 0.50 0.50 C 1.000 UL
LTa
0.50 0.50 0.50 C 1086 280 M
0 4591 V
stroke
LT0
0.50 0.50 0.50 C 1086 280 M
0 63 V
0 4528 R
0 -63 V
0 -4668 R
( 0.707106) Cshow
1.000 UL
LT0
0.50 0.50 0.50 C 1.000 UL
LTa
0.50 0.50 0.50 C 1205 280 M
0 4591 V
stroke
LT0
0.50 0.50 0.50 C 1205 280 M
0 63 V
0 4528 R
0 -63 V
0 -4668 R
( 1.41421) Cshow
1.000 UL
LT0
0.50 0.50 0.50 C 1.000 UL
LTa
0.50 0.50 0.50 C 1325 280 M
0 4591 V
stroke
LT0
0.50 0.50 0.50 C 1325 280 M
0 63 V
0 4528 R
0 -63 V
0 -4668 R
( 2.12132) Cshow
1.000 UL
LT0
0.50 0.50 0.50 C 1.000 UL
LTa
0.50 0.50 0.50 C 1444 280 M
0 4591 V
stroke
LT0
0.50 0.50 0.50 C 1444 280 M
0 63 V
0 4528 R
0 -63 V
0 -4668 R
( 2.82842) Cshow
1.000 UL
LT0
0.50 0.50 0.50 C 1.000 UL
LTa
0.50 0.50 0.50 C 1564 280 M
0 4591 V
stroke
LT0
0.50 0.50 0.50 C 1564 280 M
0 63 V
0 4528 R
0 -63 V
0 -4668 R
( 3.53553) Cshow
1.000 UL
LT0
0.50 0.50 0.50 C 1.000 UL
LTa
0.50 0.50 0.50 C 1684 280 M
0 4591 V
stroke
LT0
0.50 0.50 0.50 C 1684 280 M
0 63 V
0 4528 R
0 -63 V
0 -4668 R
( 4.24264) Cshow
1.000 UL
LT0
0.50 0.50 0.50 C 1.000 UL
LTa
0.50 0.50 0.50 C 1803 280 M
0 4591 V
stroke
LT0
0.50 0.50 0.50 C 1803 280 M
0 63 V
0 4528 R
0 -63 V
0 -4668 R
( 4.94974) Cshow
1.000 UL
LT0
0.50 0.50 0.50 C 1.000 UL
LTa
0.50 0.50 0.50 C 1923 280 M
0 4591 V
stroke
LT0
0.50 0.50 0.50 C 1923 280 M
0 63 V
0 4528 R
0 -63 V
0 -4668 R
( 5.65685) Cshow
1.000 UL
LT0
0.50 0.50 0.50 C 1.000 UL
LTa
0.50 0.50 0.50 C 2043 280 M
0 4591 V
stroke
LT0
0.50 0.50 0.50 C 2043 280 M
0 63 V
0 4528 R
0 -63 V
0 -4668 R
( 6.36395) Cshow
1.000 UL
LT0
0.50 0.50 0.50 C 1.000 UL
LTa
0.50 0.50 0.50 C 2162 280 M
0 4591 V
stroke
LT0
0.50 0.50 0.50 C 2162 280 M
0 63 V
0 4528 R
0 -63 V
0 -4668 R
( 7.07106) Cshow
1.000 UL
LT0
0.50 0.50 0.50 C 1.000 UL
LTa
0.50 0.50 0.50 C 2282 280 M
0 4591 V
stroke
LT0
0.50 0.50 0.50 C 2282 280 M
0 63 V
0 4528 R
0 -63 V
0 -4668 R
( 7.77817) Cshow
1.000 UL
LT0
0.50 0.50 0.50 C 1.000 UL
LTa
0.50 0.50 0.50 C 2401 280 M
0 4591 V
stroke
LT0
0.50 0.50 0.50 C 2401 280 M
0 63 V
0 4528 R
0 -63 V
0 -4668 R
( 8.48527) Cshow
1.000 UL
LT0
0.50 0.50 0.50 C 1.000 UL
LTa
0.50 0.50 0.50 C 2521 280 M
0 4591 V
stroke
LT0
0.50 0.50 0.50 C 2521 280 M
0 63 V
0 4528 R
0 -63 V
0 -4668 R
( 9.19238) Cshow
1.000 UL
LT0
0.50 0.50 0.50 C 1.000 UL
LTa
0.50 0.50 0.50 C 2641 280 M
0 4591 V
stroke
LT0
0.50 0.50 0.50 C 2641 280 M
0 63 V
0 4528 R
0 -63 V
0 -4668 R
( 9.89948) Cshow
1.000 UL
LT0
0.50 0.50 0.50 C 1.000 UL
LTa
0.50 0.50 0.50 C 2760 280 M
0 4591 V
stroke
LT0
0.50 0.50 0.50 C 2760 280 M
0 63 V
0 4528 R
0 -63 V
0 -4668 R
( 10.6066) Cshow
1.000 UL
LT0
0.50 0.50 0.50 C 1.000 UL
LTa
0.50 0.50 0.50 C 2880 280 M
0 4591 V
stroke
LT0
0.50 0.50 0.50 C 2880 280 M
0 63 V
0 4528 R
0 -63 V
0 -4668 R
( 11.3137) Cshow
1.000 UL
LT0
0.50 0.50 0.50 C 1.000 UL
LTa
0.50 0.50 0.50 C 3000 280 M
0 4591 V
stroke
LT0
0.50 0.50 0.50 C 3000 280 M
0 63 V
0 4528 R
0 -63 V
0 -4668 R
( 12.0208) Cshow
1.000 UL
LT0
0.50 0.50 0.50 C 1.000 UL
LTa
0.50 0.50 0.50 C 3119 280 M
0 4591 V
stroke
LT0
0.50 0.50 0.50 C 3119 280 M
0 63 V
0 4528 R
0 -63 V
0 -4668 R
( 12.7279) Cshow
1.000 UL
LT0
0.50 0.50 0.50 C 1.000 UL
LTa
0.50 0.50 0.50 C 3239 280 M
0 4591 V
stroke
LT0
0.50 0.50 0.50 C 3239 280 M
0 63 V
0 4528 R
0 -63 V
0 -4668 R
( 13.435) Cshow
1.000 UL
LT0
0.50 0.50 0.50 C 1.000 UL
LTa
0.50 0.50 0.50 C 3358 280 M
0 4591 V
stroke
LT0
0.50 0.50 0.50 C 3358 280 M
0 63 V
0 4528 R
0 -63 V
0 -4668 R
( 14.1421) Cshow
1.000 UL
LT0
0.50 0.50 0.50 C 1.000 UL
LTa
0.50 0.50 0.50 C 3478 280 M
0 4591 V
stroke
LT0
0.50 0.50 0.50 C 3478 280 M
0 63 V
0 4528 R
0 -63 V
0 -4668 R
( 14.8492) Cshow
1.000 UL
LT0
0.50 0.50 0.50 C 1.000 UL
LTa
0.50 0.50 0.50 C 3598 280 M
0 4591 V
stroke
LT0
0.50 0.50 0.50 C 3598 280 M
0 63 V
0 4528 R
0 -63 V
0 -4668 R
( 15.5563) Cshow
1.000 UL
LT0
0.50 0.50 0.50 C 1.000 UL
LTa
0.50 0.50 0.50 C 3717 280 M
0 4591 V
stroke
LT0
0.50 0.50 0.50 C 3717 280 M
0 63 V
0 4528 R
0 -63 V
0 -4668 R
( 16.2634) Cshow
1.000 UL
LT0
0.50 0.50 0.50 C 1.000 UL
LTa
0.50 0.50 0.50 C 3837 280 M
0 4591 V
stroke
LT0
0.50 0.50 0.50 C 3837 280 M
0 63 V
0 4528 R
0 -63 V
0 -4668 R
( 16.9705) Cshow
1.000 UL
LT0
0.50 0.50 0.50 C 1.000 UL
LTa
0.50 0.50 0.50 C 3956 280 M
0 4591 V
stroke
LT0
0.50 0.50 0.50 C 3956 280 M
0 63 V
0 4528 R
0 -63 V
0 -4668 R
( 17.6776) Cshow
1.000 UL
LT0
0.50 0.50 0.50 C 1.000 UL
LTa
0.50 0.50 0.50 C 4076 280 M
0 4591 V
stroke
LT0
0.50 0.50 0.50 C 4076 280 M
0 63 V
0 4528 R
0 -63 V
0 -4668 R
( 18.3848) Cshow
1.000 UL
LT0
0.50 0.50 0.50 C 1.000 UL
LTa
0.50 0.50 0.50 C 4196 280 M
0 4591 V
stroke
LT0
0.50 0.50 0.50 C 4196 280 M
0 63 V
0 4528 R
0 -63 V
0 -4668 R
( 19.0919) Cshow
1.000 UL
LT0
0.50 0.50 0.50 C 1.000 UL
LTa
0.50 0.50 0.50 C 4315 280 M
0 4591 V
stroke
LT0
0.50 0.50 0.50 C 4315 280 M
0 63 V
0 4528 R
0 -63 V
0 -4668 R
( 19.799) Cshow
1.000 UL
LT0
0.50 0.50 0.50 C 1.000 UL
LTa
0.50 0.50 0.50 C 4435 280 M
0 4591 V
stroke
LT0
0.50 0.50 0.50 C 4435 280 M
0 63 V
0 4528 R
0 -63 V
0 -4668 R
( 20.5061) Cshow
1.000 UL
LT0
0.50 0.50 0.50 C 1.000 UL
LTa
0.50 0.50 0.50 C 4555 280 M
0 4591 V
stroke
LT0
0.50 0.50 0.50 C 4555 280 M
0 63 V
0 4528 R
0 -63 V
0 -4668 R
( 21.2132) Cshow
1.000 UL
LT0
0.50 0.50 0.50 C 1.000 UL
LTa
0.50 0.50 0.50 C 4674 280 M
0 4591 V
stroke
LT0
0.50 0.50 0.50 C 4674 280 M
0 63 V
0 4528 R
0 -63 V
0 -4668 R
( 21.9203) Cshow
1.000 UL
LT0
0.50 0.50 0.50 C 1.000 UL
LTa
0.50 0.50 0.50 C 4794 280 M
0 4591 V
stroke
LT0
0.50 0.50 0.50 C 4794 280 M
0 63 V
0 4528 R
0 -63 V
0 -4668 R
( 22.6274) Cshow
1.000 UL
LT0
0.50 0.50 0.50 C 1.000 UL
LTa
0.50 0.50 0.50 C 4913 280 M
0 4591 V
stroke
LT0
0.50 0.50 0.50 C 4913 280 M
0 63 V
0 4528 R
0 -63 V
0 -4668 R
( 23.3345) Cshow
1.000 UL
LT0
0.50 0.50 0.50 C 1.000 UL
LTa
0.50 0.50 0.50 C 5033 280 M
0 4591 V
stroke
LT0
0.50 0.50 0.50 C 5033 280 M
0 63 V
0 4528 R
0 -63 V
0 -4668 R
( 24.0416) Cshow
1.000 UL
LT0
0.50 0.50 0.50 C 1.000 UL
LTa
0.50 0.50 0.50 C 5153 280 M
0 4591 V
stroke
LT0
0.50 0.50 0.50 C 5153 280 M
0 63 V
0 4528 R
0 -63 V
0 -4668 R
( 24.7487) Cshow
1.000 UL
LT0
0.50 0.50 0.50 C 1.000 UL
LTa
0.50 0.50 0.50 C 5272 280 M
0 4591 V
stroke
LT0
0.50 0.50 0.50 C 5272 280 M
0 63 V
0 4528 R
0 -63 V
0 -4668 R
( 25.4558) Cshow
1.000 UL
LT0
0.50 0.50 0.50 C 1.000 UL
LTa
0.50 0.50 0.50 C 5392 280 M
0 4591 V
stroke
LT0
0.50 0.50 0.50 C 5392 280 M
0 63 V
0 4528 R
0 -63 V
0 -4668 R
( 26.1629) Cshow
1.000 UL
LT0
0.50 0.50 0.50 C 1.000 UL
LTa
0.50 0.50 0.50 C 5512 280 M
0 4591 V
stroke
LT0
0.50 0.50 0.50 C 5512 280 M
0 63 V
0 4528 R
0 -63 V
0 -4668 R
( 26.87) Cshow
1.000 UL
LT0
0.50 0.50 0.50 C 1.000 UL
LTa
0.50 0.50 0.50 C 5631 280 M
0 4591 V
stroke
LT0
0.50 0.50 0.50 C 5631 280 M
0 63 V
0 4528 R
0 -63 V
0 -4668 R
( 27.5771) Cshow
1.000 UL
LT0
0.50 0.50 0.50 C 1.000 UL
LTa
0.50 0.50 0.50 C 5751 280 M
0 4591 V
stroke
LT0
0.50 0.50 0.50 C 5751 280 M
0 63 V
0 4528 R
0 -63 V
0 -4668 R
( 28.2842) Cshow
1.000 UL
LT0
0.50 0.50 0.50 C 1.000 UL
LTa
0.50 0.50 0.50 C 5870 280 M
0 4591 V
stroke
LT0
0.50 0.50 0.50 C 5870 280 M
0 63 V
0 4528 R
0 -63 V
0 -4668 R
( 28.9913) Cshow
1.000 UL
LT0
0.50 0.50 0.50 C 1.000 UL
LTa
0.50 0.50 0.50 C 5990 280 M
0 4591 V
stroke
LT0
0.50 0.50 0.50 C 5990 280 M
0 63 V
0 4528 R
0 -63 V
0 -4668 R
( 29.6985) Cshow
1.000 UL
LT0
0.50 0.50 0.50 C 1.000 UL
LTa
0.50 0.50 0.50 C 6110 280 M
0 4591 V
stroke
LT0
0.50 0.50 0.50 C 6110 280 M
0 63 V
0 4528 R
0 -63 V
0 -4668 R
( 30.4056) Cshow
1.000 UL
LT0
0.50 0.50 0.50 C 1.000 UL
LTa
0.50 0.50 0.50 C 6229 280 M
0 4591 V
stroke
LT0
0.50 0.50 0.50 C 6229 280 M
0 63 V
0 4528 R
0 -63 V
0 -4668 R
( 31.1127) Cshow
1.000 UL
LT0
0.50 0.50 0.50 C 1.000 UL
LTa
0.50 0.50 0.50 C 6349 280 M
0 4591 V
stroke
LT0
0.50 0.50 0.50 C 6349 280 M
0 63 V
0 4528 R
0 -63 V
0 -4668 R
( 31.8198) Cshow
1.000 UL
LT0
0.50 0.50 0.50 C 1.000 UL
LTa
0.50 0.50 0.50 C 6469 280 M
0 4591 V
stroke
LT0
0.50 0.50 0.50 C 6469 280 M
0 63 V
0 4528 R
0 -63 V
0 -4668 R
( 32.5269) Cshow
1.000 UL
LT0
0.50 0.50 0.50 C 1.000 UL
LTa
0.50 0.50 0.50 C 6588 280 M
0 4591 V
stroke
LT0
0.50 0.50 0.50 C 6588 280 M
0 63 V
0 4528 R
0 -63 V
0 -4668 R
( 33.234) Cshow
1.000 UL
LT0
0.50 0.50 0.50 C 1.000 UL
LTa
0.50 0.50 0.50 C 6708 280 M
0 4591 V
stroke
LT0
0.50 0.50 0.50 C 6708 280 M
0 63 V
0 4528 R
0 -63 V
0 -4668 R
( 33.9411) Cshow
1.000 UL
LT0
0.50 0.50 0.50 C 1.000 UL
LTa
0.50 0.50 0.50 C 6827 280 M
0 4591 V
stroke
LT0
0.50 0.50 0.50 C 6827 280 M
0 63 V
0 4528 R
0 -63 V
0 -4668 R
( 34.6482) Cshow
1.000 UL
LT0
0.50 0.50 0.50 C 1.000 UL
LTa
0.50 0.50 0.50 C 6947 280 M
0 4591 V
stroke
LT0
0.50 0.50 0.50 C 6947 280 M
0 63 V
0 4528 R
0 -63 V
0 -4668 R
( 35.3553) Cshow
1.000 UL
LT0
0.50 0.50 0.50 C 1.000 UL
LT0
0.50 0.50 0.50 C 966 4871 M
966 280 L
5981 0 V
0 4591 R
-5981 0 R
1.000 UP
stroke
LT0
0.50 0.50 0.50 C % Begin plot #1
1.500 UP
2.000 UL
LT0
0.00 0.00 1.00 C /Helvetica findfont 140 scalefont setfont
/vshift -46 def
1086 464 M
119 0 V
120 0 V
0 91 R
119 0 V
120 0 V
120 0 V
0 92 R
119 0 V
0 184 R
120 0 V
0 92 R
120 0 V
119 0 V
120 0 V
119 0 V
0 367 R
120 0 V
120 0 V
119 0 V
120 0 V
120 0 V
119 0 V
0 92 R
120 0 V
0 275 R
119 0 V
120 0 V
120 0 V
0 459 R
119 0 V
120 0 V
0 184 R
120 0 V
119 0 V
120 0 V
119 0 V
120 0 V
120 0 V
119 0 V
120 0 V
0 643 R
119 0 V
0 459 R
120 0 V
0 92 R
120 0 V
119 0 V
120 0 V
120 0 V
0 183 R
119 0 V
120 0 V
0 368 R
119 0 V
0 183 R
120 0 V
120 0 V
119 0 V
120 0 V
120 0 V
119 0 V
0 184 R
120 0 V
0 92 R
119 0 V
966 280 M
120 0 V
0 92 V
0 92 V
239 0 R
0 91 V
359 0 R
0 92 V
119 0 R
0 92 V
0 92 V
120 0 R
0 92 V
478 0 R
0 92 V
0 91 V
0 92 V
0 92 V
718 0 R
0 92 V
120 0 R
0 92 V
0 91 V
0 92 V
359 0 R
0 92 V
0 92 V
0 92 V
0 92 V
0 91 V
239 0 R
0 92 V
0 92 V
957 0 R
0 92 V
0 92 V
0 92 V
0 91 V
0 92 V
stroke 4794 2759 M
0 92 V
0 92 V
119 0 R
0 92 V
0 91 V
0 92 V
0 92 V
0 92 V
120 0 R
0 92 V
479 0 R
0 92 V
0 91 V
239 0 R
0 92 V
0 92 V
0 92 V
0 92 V
119 0 R
0 91 V
0 92 V
718 0 R
0 92 V
0 92 V
120 0 R
0 92 V
119 183 R
0 92 V
0 -275 R
0 92 V
0 91 V
1086 464 CircleF
1205 464 CircleF
1205 464 CircleF
1325 464 CircleF
1325 555 CircleF
1444 555 CircleF
1444 555 CircleF
1564 555 CircleF
1564 555 CircleF
1684 555 CircleF
1684 647 CircleF
1803 647 CircleF
1803 831 CircleF
1923 831 CircleF
1923 923 CircleF
2043 923 CircleF
2043 923 CircleF
2162 923 CircleF
2162 923 CircleF
2282 923 CircleF
2282 923 CircleF
2401 923 CircleF
2401 1290 CircleF
2521 1290 CircleF
2521 1290 CircleF
2641 1290 CircleF
2641 1290 CircleF
2760 1290 CircleF
2760 1290 CircleF
2880 1290 CircleF
2880 1290 CircleF
3000 1290 CircleF
3000 1290 CircleF
3119 1290 CircleF
3119 1382 CircleF
3239 1382 CircleF
3239 1657 CircleF
3358 1657 CircleF
3358 1657 CircleF
3478 1657 CircleF
3478 1657 CircleF
3598 1657 CircleF
3598 2116 CircleF
3717 2116 CircleF
3717 2116 CircleF
3837 2116 CircleF
3837 2300 CircleF
3957 2300 CircleF
3957 2300 CircleF
4076 2300 CircleF
4076 2300 CircleF
4196 2300 CircleF
4196 2300 CircleF
4315 2300 CircleF
4315 2300 CircleF
4435 2300 CircleF
4435 2300 CircleF
4555 2300 CircleF
4555 2300 CircleF
4674 2300 CircleF
4674 2300 CircleF
4794 2300 CircleF
4794 2943 CircleF
4913 2943 CircleF
4913 3402 CircleF
5033 3402 CircleF
5033 3494 CircleF
5153 3494 CircleF
5153 3494 CircleF
5272 3494 CircleF
5272 3494 CircleF
5392 3494 CircleF
5392 3494 CircleF
5512 3494 CircleF
5512 3677 CircleF
5631 3677 CircleF
5631 3677 CircleF
5751 3677 CircleF
5751 4045 CircleF
5870 4045 CircleF
5870 4228 CircleF
5990 4228 CircleF
5990 4228 CircleF
6110 4228 CircleF
6110 4228 CircleF
6229 4228 CircleF
6229 4228 CircleF
6349 4228 CircleF
6349 4228 CircleF
6469 4228 CircleF
6469 4228 CircleF
6588 4228 CircleF
6588 4412 CircleF
6708 4412 CircleF
6708 4504 CircleF
6827 4504 CircleF
966 280 CircleF
1086 280 CircleF
1086 280 CircleF
1086 372 CircleF
1086 372 CircleF
1086 464 CircleF
1325 464 CircleF
1325 555 CircleF
1684 555 CircleF
1684 647 CircleF
1803 647 CircleF
1803 739 CircleF
1803 739 CircleF
1803 831 CircleF
1923 831 CircleF
1923 923 CircleF
2401 923 CircleF
2401 1015 CircleF
2401 1015 CircleF
2401 1106 CircleF
2401 1106 CircleF
2401 1198 CircleF
2401 1198 CircleF
2401 1290 CircleF
3119 1290 CircleF
3119 1382 CircleF
3239 1382 CircleF
3239 1474 CircleF
3239 1474 CircleF
3239 1565 CircleF
3239 1565 CircleF
3239 1657 CircleF
3598 1657 CircleF
3598 1749 CircleF
3598 1749 CircleF
3598 1841 CircleF
3598 1841 CircleF
3598 1933 CircleF
3598 1933 CircleF
3598 2025 CircleF
3598 2025 CircleF
3598 2116 CircleF
3837 2116 CircleF
3837 2208 CircleF
3837 2208 CircleF
3837 2300 CircleF
4794 2300 CircleF
4794 2392 CircleF
4794 2392 CircleF
4794 2484 CircleF
4794 2484 CircleF
4794 2576 CircleF
4794 2576 CircleF
4794 2667 CircleF
4794 2667 CircleF
4794 2759 CircleF
4794 2759 CircleF
4794 2851 CircleF
4794 2851 CircleF
4794 2943 CircleF
4913 2943 CircleF
4913 3035 CircleF
4913 3035 CircleF
4913 3126 CircleF
4913 3126 CircleF
4913 3218 CircleF
4913 3218 CircleF
4913 3310 CircleF
4913 3310 CircleF
4913 3402 CircleF
5033 3402 CircleF
5033 3494 CircleF
5512 3494 CircleF
5512 3586 CircleF
5512 3586 CircleF
5512 3677 CircleF
5751 3677 CircleF
5751 3769 CircleF
5751 3769 CircleF
5751 3861 CircleF
5751 3861 CircleF
5751 3953 CircleF
5751 3953 CircleF
5751 4045 CircleF
5870 4045 CircleF
5870 4136 CircleF
5870 4136 CircleF
5870 4228 CircleF
6588 4228 CircleF
6588 4320 CircleF
6588 4320 CircleF
6588 4412 CircleF
6708 4412 CircleF
6708 4504 CircleF
6827 4687 CircleF
6827 4779 CircleF
6827 4504 CircleF
6827 4596 CircleF
6827 4596 CircleF
6827 4687 CircleF
% End plot #1
% Begin plot #2
1.500 UP
2.000 UL
LT0
1.00 0.55 0.00 C /Helvetica findfont 140 scalefont setfont
6604 2530 M
120 92 V
5416 882 M
120 92 V
-54 2947 R
119 92 V
-1800 48 R
120 92 V
906 -699 R
120 91 V
3306 3312 M
120 92 V
1727 2584 M
119 92 V
850 1691 R
119 92 V
1400 1927 M
120 92 V
2146 842 M
119 91 V
3724 3023 M
120 92 V
6327 1328 M
120 92 V
2808 4413 M
120 92 V
3872 419 M
120 92 V
3139 2025 M
120 92 V
1288 3394 M
119 92 V
5283 938 R
120 92 V
1845 1475 M
120 92 V
4007 689 R
120 92 V
4699 2712 M
120 92 V
5596 1508 M
119 92 V
4803 310 M
120 92 V
2815 933 M
119 92 V
5066 2676 M
119 92 V
6404 4672 M
120 91 V
5940 4264 M
119 92 V
5924 2156 M
119 92 V
1276 1391 M
119 92 V
4326 4010 M
119 92 V
2104 115 R
120 91 V
1392 1047 M
119 92 V
4133 4007 M
119 92 V
4083 3051 M
120 92 V
3603 864 M
120 92 V
1726 4414 M
119 92 V
3535 4305 M
120 92 V
1857 4119 M
120 92 V
5410 3581 M
119 92 V
3890 622 M
119 92 V
5821 2000 M
120 92 V
2086 3999 M
119 92 V
3319 1650 M
120 91 V
5705 2748 M
120 92 V
4318 2056 M
119 92 V
1414 1448 M
119 91 V
3356 2679 M
119 92 V
598 839 R
120 92 V
3319 2040 M
119 92 V
1229 735 R
119 92 V
1838 1410 M
120 92 V
6349 547 M
120 91 V
4736 2553 M
119 92 V
3019 673 M
119 92 V
stroke 3138 765 M
6314 4589 M
120 92 V
5709 897 M
119 92 V
1847 4353 M
120 92 V
3876 2299 M
120 92 V
1417 2600 M
119 92 V
3653 -93 R
120 92 V
3222 1963 M
120 92 V
4127 740 M
120 92 V
2413 487 M
120 92 V
6511 1728 M
120 91 V
3282 3201 M
120 92 V
4614 4683 M
119 91 V
3848 2565 M
120 92 V
5667 3691 M
120 92 V
4755 765 M
119 91 V
6321 3333 M
119 92 V
3128 1511 M
119 92 V
4309 416 M
120 92 V
1029 1430 M
120 92 V
-69 2092 R
119 92 V
1082 939 R
120 92 V
5879 1883 M
120 92 V
1612 3760 M
120 92 V
2118 2374 M
120 92 V
3704 819 M
119 92 V
5802 748 M
120 92 V
5560 2380 M
120 92 V
-392 604 R
119 91 V
4061 2422 M
120 92 V
2930 3083 M
120 92 V
-499 534 R
120 92 V
4082 2975 M
119 92 V
3706 1090 M
119 92 V
718 1668 R
120 91 V
-653 181 R
120 92 V
2120 988 R
119 91 V
5109 299 M
120 91 V
1541 2376 M
120 91 V
3413 1656 M
119 92 V
1279 3537 M
119 92 V
1130 936 R
119 92 V
5200 2424 M
120 92 V
5025 2196 M
119 92 V
-97 -743 R
120 92 V
6532 4141 M
119 92 V
3726 3453 M
120 92 V
254 5 R
120 92 V
2399 3571 M
120 92 V
4964 1841 M
120 91 V
-2990 79 R
119 91 V
4038 1385 M
120 92 V
5405 4223 M
120 91 V
stroke 5525 4314 M
4176 1573 M
120 92 V
6558 4313 M
120 92 V
5749 3816 M
119 92 V
2288 713 M
120 91 V
438 2064 R
119 92 V
361 -178 R
120 92 V
4788 2516 M
119 92 V
3536 2543 M
120 92 V
498 887 R
119 92 V
3882 868 M
119 91 V
1989 393 R
120 92 V
4614 2250 M
120 92 V
6230 853 M
119 92 V
106 3584 R
120 92 V
5274 3837 M
119 92 V
468 -800 R
120 92 V
1646 4157 M
119 92 V
4306 2413 M
120 92 V
2522 1253 M
119 92 V
3087 245 R
120 92 V
2371 2732 M
120 92 V
2735 1289 M
120 92 V
2000 884 R
119 92 V
3995 355 M
120 91 V
3143 351 M
120 92 V
4729 4481 M
120 91 V
2813 2762 M
119 92 V
1399 591 R
120 92 V
4304 755 M
120 91 V
6666 4149 M
120 92 V
5245 1361 M
120 92 V
4267 791 M
119 92 V
1852 2594 M
120 92 V
2372 8 R
119 92 V
6090 4156 M
120 92 V
6502 1979 M
120 92 V
3943 4115 M
120 92 V
1135 420 M
120 91 V
346 1865 R
119 91 V
1002 3964 M
120 92 V
4732 605 R
120 92 V
3497 3311 M
119 92 V
6604 764 M
120 92 V
1953 4245 M
120 92 V
3024 3261 M
119 92 V
980 1252 M
119 92 V
2610 802 R
120 92 V
1345 3652 M
119 92 V
2566 626 R
120 92 V
2366 3564 M
119 92 V
6452 1146 M
119 92 V
1345 3054 M
120 92 V
stroke 1465 3146 M
791 474 R
120 92 V
5890 1262 M
120 91 V
6149 452 M
120 92 V
2572 2576 M
119 92 V
466 454 R
119 92 V
5552 1119 M
120 92 V
2226 2966 M
120 92 V
1067 2990 M
119 91 V
4455 4627 M
120 92 V
2055 2170 M
120 92 V
5741 874 M
120 92 V
1403 2559 M
120 91 V
2439 495 M
120 92 V
-46 1799 R
120 92 V
3081 89 R
119 92 V
1188 888 M
120 92 V
3692 2979 M
120 92 V
1532 1357 M
120 92 V
4314 3113 M
119 92 V
5951 1812 M
119 92 V
2351 3984 M
119 92 V
3744 1220 M
119 92 V
3121 2657 M
120 92 V
2958 3805 M
120 92 V
4979 1850 M
119 92 V
4231 1209 M
119 92 V
3615 2748 M
119 92 V
2314 1215 M
119 92 V
528 2697 R
119 92 V
4387 3019 M
119 92 V
3793 2157 M
120 92 V
5720 4248 M
119 92 V
4425 1052 M
119 91 V
4355 2237 M
120 92 V
5037 372 M
120 92 V
3306 1160 M
119 92 V
1941 835 M
119 92 V
683 3651 R
119 91 V
2313 2324 M
120 91 V
2257 -13 R
120 92 V
1820 3075 M
119 92 V
5302 2614 M
120 92 V
1870 3718 M
119 92 V
5426 2955 M
120 92 V
3876 3994 M
120 91 V
3664 2081 M
119 92 V
4821 1689 M
120 92 V
2173 4104 M
120 92 V
1824 2875 M
119 92 V
5147 4450 M
119 92 V
5589 2440 M
120 92 V
4488 2354 M
120 91 V
stroke 4608 2445 M
4210 1555 M
119 92 V
2976 1421 M
120 92 V
408 130 R
119 92 V
1909 676 R
120 92 V
1345 3670 M
120 92 V
1884 -31 R
120 92 V
5462 2271 M
120 91 V
174 1935 R
120 91 V
6444 545 M
120 92 V
1164 874 M
120 92 V
5605 2567 M
120 92 V
5462 4511 M
120 92 V
4458 3558 M
120 92 V
155 555 R
120 92 V
1486 3911 M
120 92 V
-20 60 R
119 92 V
6080 2794 M
120 92 V
2458 2201 M
119 92 V
2220 1973 M
120 92 V
5027 4642 M
119 92 V
1702 4049 M
120 92 V
3806 2646 M
119 92 V
2159 1319 M
120 92 V
3625 906 R
120 92 V
2758 1978 M
120 92 V
1693 1432 M
119 92 V
6290 2950 M
120 92 V
2442 1801 M
120 92 V
5689 1112 M
120 92 V
1596 977 M
120 92 V
2441 776 M
119 92 V
5387 2583 M
119 92 V
5822 1629 M
120 92 V
4090 1491 M
120 92 V
2550 3489 M
120 92 V
4635 2233 M
120 92 V
1953 855 R
119 91 V
6462 2347 M
119 92 V
4228 2982 M
120 91 V
3367 2447 M
119 92 V
1585 1324 M
119 92 V
5759 2881 M
120 92 V
2302 1077 M
120 92 V
5070 4591 M
120 92 V
4903 1936 M
120 92 V
3731 1903 M
119 92 V
1301 360 M
120 92 V
3364 2374 M
120 91 V
2644 726 R
120 92 V
-485 729 R
119 92 V
4333 298 M
120 92 V
1852 1317 M
120 92 V
stroke 1972 1409 M
2544 852 M
120 92 V
1748 4319 M
120 92 V
4233 3972 M
120 92 V
2528 3769 M
119 92 V
1680 571 R
120 92 V
5541 3027 M
120 92 V
-84 -560 R
119 92 V
4465 3453 M
119 92 V
1622 69 R
119 92 V
5053 2251 M
120 92 V
3456 4372 M
119 92 V
5114 680 M
119 92 V
2713 1951 M
120 92 V
5864 4145 M
120 92 V
3785 4664 M
120 92 V
2609 3864 M
120 91 V
2796 409 R
120 92 V
2707 3625 M
119 92 V
4998 2191 M
120 92 V
1729 677 M
120 92 V
4469 3128 M
120 92 V
3173 3023 M
119 92 V
2202 290 M
119 92 V
2255 628 R
120 91 V
2565 3782 M
119 92 V
5433 1864 M
120 91 V
379 286 R
120 92 V
1764 3284 M
120 92 V
1034 -18 R
119 91 V
6445 805 M
120 92 V
3535 3451 M
120 92 V
5292 548 M
119 92 V
-69 967 R
119 92 V
2137 565 M
119 92 V
1235 919 R
120 92 V
-3 2131 R
120 92 V
4312 1536 M
120 92 V
448 1455 R
119 92 V
1472 543 M
120 92 V
3493 1865 M
119 92 V
1741 4342 M
120 92 V
2699 1770 M
119 92 V
1428 4346 M
119 92 V
5446 1023 M
120 91 V
3852 2256 M
120 92 V
747 1790 R
120 92 V
4321 852 M
119 92 V
6400 3618 M
119 92 V
4061 1674 M
120 92 V
1406 678 M
120 91 V
4645 627 R
120 92 V
4593 2466 M
119 92 V
stroke 4712 2558 M
6562 1693 M
120 91 V
5228 3471 M
120 92 V
3869 4653 M
120 92 V
2451 3046 M
119 92 V
2430 672 R
120 92 V
1958 2442 M
120 92 V
1076 2688 M
119 91 V
202 -871 R
119 92 V
4911 3318 M
119 92 V
5639 1689 M
119 92 V
1701 4267 M
120 92 V
1505 4203 M
120 92 V
3648 4006 M
119 92 V
2460 2574 M
119 91 V
-953 292 R
119 91 V
2371 686 M
119 92 V
4943 2761 M
119 92 V
4273 1270 M
120 91 V
978 2101 R
119 92 V
4712 2604 M
120 92 V
4237 4028 M
120 92 V
5726 1348 M
120 92 V
4970 4253 M
120 92 V
1830 3790 M
119 91 V
3526 561 R
119 92 V
4596 1599 M
119 92 V
3198 323 M
119 92 V
-209 916 R
120 92 V
1441 568 R
119 91 V
1640 526 M
119 92 V
3395 4349 M
119 92 V
3610 784 M
120 92 V
1991 4195 M
119 92 V
3097 55 R
119 92 V
5025 2914 M
120 92 V
595 1554 R
120 92 V
983 2436 M
120 92 V
6604 2530 CircleF
6724 2622 CircleF
5416 882 CircleF
5536 974 CircleF
5482 3921 CircleF
5601 4013 CircleF
3801 4061 CircleF
3921 4153 CircleF
4827 3454 CircleF
4947 3545 CircleF
3306 3312 CircleF
3426 3404 CircleF
1727 2584 CircleF
1846 2676 CircleF
2696 4367 CircleF
2815 4459 CircleF
1400 1927 CircleF
1520 2019 CircleF
2146 842 CircleF
2265 933 CircleF
3724 3023 CircleF
3844 3115 CircleF
6327 1328 CircleF
6447 1420 CircleF
2808 4413 CircleF
2928 4505 CircleF
3872 419 CircleF
3992 511 CircleF
3139 2025 CircleF
3259 2117 CircleF
1288 3394 CircleF
1407 3486 CircleF
6690 4424 CircleF
6810 4516 CircleF
1845 1475 CircleF
1965 1567 CircleF
5972 2256 CircleF
6092 2348 CircleF
4699 2712 CircleF
4819 2804 CircleF
5596 1508 CircleF
5715 1600 CircleF
4803 310 CircleF
4923 402 CircleF
2815 933 CircleF
2934 1025 CircleF
5066 2676 CircleF
5185 2768 CircleF
6404 4672 CircleF
6524 4763 CircleF
5940 4264 CircleF
6059 4356 CircleF
5924 2156 CircleF
6043 2248 CircleF
1276 1391 CircleF
1395 1483 CircleF
4326 4010 CircleF
4445 4102 CircleF
6549 4217 CircleF
6669 4308 CircleF
1392 1047 CircleF
1511 1139 CircleF
4133 4007 CircleF
4252 4099 CircleF
4083 3051 CircleF
4203 3143 CircleF
3603 864 CircleF
3723 956 CircleF
1726 4414 CircleF
1845 4506 CircleF
3535 4305 CircleF
3655 4397 CircleF
1857 4119 CircleF
1977 4211 CircleF
5410 3581 CircleF
5529 3673 CircleF
3890 622 CircleF
4009 714 CircleF
5821 2000 CircleF
5941 2092 CircleF
2086 3999 CircleF
2205 4091 CircleF
3319 1650 CircleF
3439 1741 CircleF
5705 2748 CircleF
5825 2840 CircleF
4318 2056 CircleF
4437 2148 CircleF
1414 1448 CircleF
1533 1539 CircleF
3356 2679 CircleF
3475 2771 CircleF
4073 3610 CircleF
4193 3702 CircleF
3319 2040 CircleF
3438 2132 CircleF
4667 2867 CircleF
4786 2959 CircleF
1838 1410 CircleF
1958 1502 CircleF
6349 547 CircleF
6469 638 CircleF
4736 2553 CircleF
4855 2645 CircleF
3019 673 CircleF
3138 765 CircleF
6314 4589 CircleF
6434 4681 CircleF
5709 897 CircleF
5828 989 CircleF
1847 4353 CircleF
1967 4445 CircleF
3876 2299 CircleF
3996 2391 CircleF
1417 2600 CircleF
1536 2692 CircleF
5189 2599 CircleF
5309 2691 CircleF
3222 1963 CircleF
3342 2055 CircleF
4127 740 CircleF
4247 832 CircleF
2413 487 CircleF
2533 579 CircleF
6511 1728 CircleF
6631 1819 CircleF
3282 3201 CircleF
3402 3293 CircleF
4614 4683 CircleF
4733 4774 CircleF
3848 2565 CircleF
3968 2657 CircleF
5667 3691 CircleF
5787 3783 CircleF
4755 765 CircleF
4874 856 CircleF
6321 3333 CircleF
6440 3425 CircleF
3128 1511 CircleF
3247 1603 CircleF
4309 416 CircleF
4429 508 CircleF
1029 1430 CircleF
1149 1522 CircleF
1080 3614 CircleF
1199 3706 CircleF
2281 4645 CircleF
2401 4737 CircleF
5879 1883 CircleF
5999 1975 CircleF
1612 3760 CircleF
1732 3852 CircleF
2118 2374 CircleF
2238 2466 CircleF
3704 819 CircleF
3823 911 CircleF
5802 748 CircleF
5922 840 CircleF
5560 2380 CircleF
5680 2472 CircleF
5288 3076 CircleF
5407 3167 CircleF
4061 2422 CircleF
4181 2514 CircleF
2930 3083 CircleF
3050 3175 CircleF
2551 3709 CircleF
2671 3801 CircleF
4082 2975 CircleF
4201 3067 CircleF
3706 1090 CircleF
3825 1182 CircleF
4543 2850 CircleF
4663 2941 CircleF
4010 3122 CircleF
4130 3214 CircleF
6250 4202 CircleF
6369 4293 CircleF
5109 299 CircleF
5229 390 CircleF
1541 2376 CircleF
1661 2467 CircleF
3413 1656 CircleF
3532 1748 CircleF
1279 3537 CircleF
1398 3629 CircleF
2528 4565 CircleF
2647 4657 CircleF
5200 2424 CircleF
5320 2516 CircleF
5025 2196 CircleF
5144 2288 CircleF
5047 1545 CircleF
5167 1637 CircleF
6532 4141 CircleF
6651 4233 CircleF
3726 3453 CircleF
3846 3545 CircleF
4100 3550 CircleF
4220 3642 CircleF
2399 3571 CircleF
2519 3663 CircleF
4964 1841 CircleF
5084 1932 CircleF
2094 2011 CircleF
2213 2102 CircleF
4038 1385 CircleF
4158 1477 CircleF
5405 4223 CircleF
5525 4314 CircleF
4176 1573 CircleF
4296 1665 CircleF
6558 4313 CircleF
6678 4405 CircleF
5749 3816 CircleF
5868 3908 CircleF
2288 713 CircleF
2408 804 CircleF
2846 2868 CircleF
2965 2960 CircleF
3326 2782 CircleF
3446 2874 CircleF
4788 2516 CircleF
4907 2608 CircleF
3536 2543 CircleF
3656 2635 CircleF
4154 3522 CircleF
4273 3614 CircleF
3882 868 CircleF
4001 959 CircleF
5990 1352 CircleF
6110 1444 CircleF
4614 2250 CircleF
4734 2342 CircleF
6230 853 CircleF
6349 945 CircleF
6455 4529 CircleF
6575 4621 CircleF
5274 3837 CircleF
5393 3929 CircleF
5861 3129 CircleF
5981 3221 CircleF
1646 4157 CircleF
1765 4249 CircleF
4306 2413 CircleF
4426 2505 CircleF
2522 1253 CircleF
2641 1345 CircleF
5728 1590 CircleF
5848 1682 CircleF
2371 2732 CircleF
2491 2824 CircleF
2735 1289 CircleF
2855 1381 CircleF
4855 2265 CircleF
4974 2357 CircleF
3995 355 CircleF
4115 446 CircleF
3143 351 CircleF
3263 443 CircleF
4729 4481 CircleF
4849 4572 CircleF
2813 2762 CircleF
2932 2854 CircleF
4331 3445 CircleF
4451 3537 CircleF
4304 755 CircleF
4424 846 CircleF
6666 4149 CircleF
6786 4241 CircleF
5245 1361 CircleF
5365 1453 CircleF
4267 791 CircleF
4386 883 CircleF
1852 2594 CircleF
1972 2686 CircleF
4344 2694 CircleF
4463 2786 CircleF
6090 4156 CircleF
6210 4248 CircleF
6502 1979 CircleF
6622 2071 CircleF
3943 4115 CircleF
4063 4207 CircleF
1135 420 CircleF
1255 511 CircleF
1601 2376 CircleF
1720 2467 CircleF
1002 3964 CircleF
1122 4056 CircleF
5854 4661 CircleF
5974 4753 CircleF
3497 3311 CircleF
3616 3403 CircleF
6604 764 CircleF
6724 856 CircleF
1953 4245 CircleF
2073 4337 CircleF
3024 3261 CircleF
3143 3353 CircleF
980 1252 CircleF
1099 1344 CircleF
3709 2146 CircleF
3829 2238 CircleF
1345 3652 CircleF
1464 3744 CircleF
4030 4370 CircleF
4150 4462 CircleF
2366 3564 CircleF
2485 3656 CircleF
6452 1146 CircleF
6571 1238 CircleF
1345 3054 CircleF
1465 3146 CircleF
2256 3620 CircleF
2376 3712 CircleF
5890 1262 CircleF
6010 1353 CircleF
6149 452 CircleF
6269 544 CircleF
2572 2576 CircleF
2691 2668 CircleF
3157 3122 CircleF
3276 3214 CircleF
5552 1119 CircleF
5672 1211 CircleF
2226 2966 CircleF
2346 3058 CircleF
1067 2990 CircleF
1186 3081 CircleF
4455 4627 CircleF
4575 4719 CircleF
2055 2170 CircleF
2175 2262 CircleF
5741 874 CircleF
5861 966 CircleF
1403 2559 CircleF
1523 2650 CircleF
2439 495 CircleF
2559 587 CircleF
2513 2386 CircleF
2633 2478 CircleF
5714 2567 CircleF
5833 2659 CircleF
1188 888 CircleF
1308 980 CircleF
3692 2979 CircleF
3812 3071 CircleF
1532 1357 CircleF
1652 1449 CircleF
4314 3113 CircleF
4433 3205 CircleF
5951 1812 CircleF
6070 1904 CircleF
2351 3984 CircleF
2470 4076 CircleF
3744 1220 CircleF
3863 1312 CircleF
3121 2657 CircleF
3241 2749 CircleF
2958 3805 CircleF
3078 3897 CircleF
4979 1850 CircleF
5098 1942 CircleF
4231 1209 CircleF
4350 1301 CircleF
3615 2748 CircleF
3734 2840 CircleF
2314 1215 CircleF
2433 1307 CircleF
2961 4004 CircleF
3080 4096 CircleF
4387 3019 CircleF
4506 3111 CircleF
3793 2157 CircleF
3913 2249 CircleF
5720 4248 CircleF
5839 4340 CircleF
4425 1052 CircleF
4544 1143 CircleF
4355 2237 CircleF
4475 2329 CircleF
5037 372 CircleF
5157 464 CircleF
3306 1160 CircleF
3425 1252 CircleF
1941 835 CircleF
2060 927 CircleF
2743 4578 CircleF
2862 4669 CircleF
2313 2324 CircleF
2433 2415 CircleF
4690 2402 CircleF
4810 2494 CircleF
1820 3075 CircleF
1939 3167 CircleF
5302 2614 CircleF
5422 2706 CircleF
1870 3718 CircleF
1989 3810 CircleF
5426 2955 CircleF
5546 3047 CircleF
3876 3994 CircleF
3996 4085 CircleF
3664 2081 CircleF
3783 2173 CircleF
4821 1689 CircleF
4941 1781 CircleF
2173 4104 CircleF
2293 4196 CircleF
1824 2875 CircleF
1943 2967 CircleF
5147 4450 CircleF
5266 4542 CircleF
5589 2440 CircleF
5709 2532 CircleF
4488 2354 CircleF
4608 2445 CircleF
4210 1555 CircleF
4329 1647 CircleF
2976 1421 CircleF
3096 1513 CircleF
3504 1643 CircleF
3623 1735 CircleF
5532 2411 CircleF
5652 2503 CircleF
1345 3670 CircleF
1465 3762 CircleF
3349 3731 CircleF
3469 3823 CircleF
5462 2271 CircleF
5582 2362 CircleF
5756 4297 CircleF
5876 4388 CircleF
6444 545 CircleF
6564 637 CircleF
1164 874 CircleF
1284 966 CircleF
5605 2567 CircleF
5725 2659 CircleF
5462 4511 CircleF
5582 4603 CircleF
4458 3558 CircleF
4578 3650 CircleF
4733 4205 CircleF
4853 4297 CircleF
1486 3911 CircleF
1606 4003 CircleF
1586 4063 CircleF
1705 4155 CircleF
6080 2794 CircleF
6200 2886 CircleF
2458 2201 CircleF
2577 2293 CircleF
2220 1973 CircleF
2340 2065 CircleF
5027 4642 CircleF
5146 4734 CircleF
1702 4049 CircleF
1822 4141 CircleF
3806 2646 CircleF
3925 2738 CircleF
2159 1319 CircleF
2279 1411 CircleF
5904 2317 CircleF
6024 2409 CircleF
2758 1978 CircleF
2878 2070 CircleF
1693 1432 CircleF
1812 1524 CircleF
6290 2950 CircleF
6410 3042 CircleF
2442 1801 CircleF
2562 1893 CircleF
5689 1112 CircleF
5809 1204 CircleF
1596 977 CircleF
1716 1069 CircleF
2441 776 CircleF
2560 868 CircleF
5387 2583 CircleF
5506 2675 CircleF
5822 1629 CircleF
5942 1721 CircleF
4090 1491 CircleF
4210 1583 CircleF
2550 3489 CircleF
2670 3581 CircleF
4635 2233 CircleF
4755 2325 CircleF
6708 3180 CircleF
6827 3271 CircleF
6462 2347 CircleF
6581 2439 CircleF
4228 2982 CircleF
4348 3073 CircleF
3367 2447 CircleF
3486 2539 CircleF
1585 1324 CircleF
1704 1416 CircleF
5759 2881 CircleF
5879 2973 CircleF
2302 1077 CircleF
2422 1169 CircleF
5070 4591 CircleF
5190 4683 CircleF
4903 1936 CircleF
5023 2028 CircleF
3731 1903 CircleF
3850 1995 CircleF
1301 360 CircleF
1421 452 CircleF
3364 2374 CircleF
3484 2465 CircleF
6128 3191 CircleF
6248 3283 CircleF
5763 4012 CircleF
5882 4104 CircleF
4333 298 CircleF
4453 390 CircleF
1852 1317 CircleF
1972 1409 CircleF
2544 852 CircleF
2664 944 CircleF
1748 4319 CircleF
1868 4411 CircleF
4233 3972 CircleF
4353 4064 CircleF
2528 3769 CircleF
2647 3861 CircleF
4327 4432 CircleF
4447 4524 CircleF
5541 3027 CircleF
5661 3119 CircleF
5577 2559 CircleF
5696 2651 CircleF
4465 3453 CircleF
4584 3545 CircleF
6206 3614 CircleF
6325 3706 CircleF
5053 2251 CircleF
5173 2343 CircleF
3456 4372 CircleF
3575 4464 CircleF
5114 680 CircleF
5233 772 CircleF
2713 1951 CircleF
2833 2043 CircleF
5864 4145 CircleF
5984 4237 CircleF
3785 4664 CircleF
3905 4756 CircleF
2609 3864 CircleF
2729 3955 CircleF
5525 4364 CircleF
5645 4456 CircleF
2707 3625 CircleF
2826 3717 CircleF
4998 2191 CircleF
5118 2283 CircleF
1729 677 CircleF
1849 769 CircleF
4469 3128 CircleF
4589 3220 CircleF
3173 3023 CircleF
3292 3115 CircleF
2202 290 CircleF
2321 382 CircleF
4576 1010 CircleF
4696 1101 CircleF
2565 3782 CircleF
2684 3874 CircleF
5433 1864 CircleF
5553 1955 CircleF
5932 2241 CircleF
6052 2333 CircleF
1764 3284 CircleF
1884 3376 CircleF
2918 3358 CircleF
3037 3449 CircleF
6445 805 CircleF
6565 897 CircleF
3535 3451 CircleF
3655 3543 CircleF
5292 548 CircleF
5411 640 CircleF
5342 1607 CircleF
5461 1699 CircleF
2137 565 CircleF
2256 657 CircleF
3491 1576 CircleF
3611 1668 CircleF
3608 3799 CircleF
3728 3891 CircleF
4312 1536 CircleF
4432 1628 CircleF
4880 3083 CircleF
4999 3175 CircleF
1472 543 CircleF
1592 635 CircleF
3493 1865 CircleF
3612 1957 CircleF
1741 4342 CircleF
1861 4434 CircleF
2699 1770 CircleF
2818 1862 CircleF
1428 4346 CircleF
1547 4438 CircleF
5446 1023 CircleF
5566 1114 CircleF
3852 2256 CircleF
3972 2348 CircleF
4719 4138 CircleF
4839 4230 CircleF
4321 852 CircleF
4440 944 CircleF
6400 3618 CircleF
6519 3710 CircleF
4061 1674 CircleF
4181 1766 CircleF
1406 678 CircleF
1526 769 CircleF
6171 1396 CircleF
6291 1488 CircleF
4593 2466 CircleF
4712 2558 CircleF
6562 1693 CircleF
6682 1784 CircleF
5228 3471 CircleF
5348 3563 CircleF
3869 4653 CircleF
3989 4745 CircleF
2451 3046 CircleF
2570 3138 CircleF
5000 3810 CircleF
5120 3902 CircleF
1958 2442 CircleF
2078 2534 CircleF
1076 2688 CircleF
1195 2779 CircleF
1397 1908 CircleF
1516 2000 CircleF
4911 3318 CircleF
5030 3410 CircleF
5639 1689 CircleF
5758 1781 CircleF
1701 4267 CircleF
1821 4359 CircleF
1505 4203 CircleF
1625 4295 CircleF
3648 4006 CircleF
3767 4098 CircleF
2460 2574 CircleF
2579 2665 CircleF
1626 2957 CircleF
1745 3048 CircleF
2371 686 CircleF
2490 778 CircleF
4943 2761 CircleF
5062 2853 CircleF
4273 1270 CircleF
4393 1361 CircleF
5371 3462 CircleF
5490 3554 CircleF
4712 2604 CircleF
4832 2696 CircleF
4237 4028 CircleF
4357 4120 CircleF
5726 1348 CircleF
5846 1440 CircleF
4970 4253 CircleF
5090 4345 CircleF
1830 3790 CircleF
1949 3881 CircleF
5475 4442 CircleF
5594 4534 CircleF
4596 1599 CircleF
4715 1691 CircleF
3198 323 CircleF
3317 415 CircleF
3108 1331 CircleF
3228 1423 CircleF
4669 1991 CircleF
4788 2082 CircleF
1640 526 CircleF
1759 618 CircleF
3395 4349 CircleF
3514 4441 CircleF
3610 784 CircleF
3730 876 CircleF
1991 4195 CircleF
2110 4287 CircleF
5207 4342 CircleF
5326 4434 CircleF
5025 2914 CircleF
5145 3006 CircleF
5740 4560 CircleF
5860 4652 CircleF
983 2436 CircleF
1103 2528 CircleF
% End plot #2
1.000 UP
1.000 UL
LT0
0.50 0.50 0.50 C stroke
grestore
end
showpage
%%Trailer
%%DocumentFonts: Helvetica
%%Pages: 1
