%!PS-Adobe-2.0
%%Title: out.ps
%%Creator: gnuplot 4.6 patchlevel 6
%%CreationDate: Thu May 28 17:44:49 2015
%%DocumentFonts: (atend)
%%BoundingBox: 50 50 554 770
%%Orientation: Landscape
%%Pages: (atend)
%%EndComments
%%BeginProlog
/gnudict 256 dict def
gnudict begin
%
% The following true/false flags may be edited by hand if desired.
% The unit line width and grayscale image gamma correction may also be changed.
%
/Color false def
/Blacktext false def
/Solid false def
/Dashlength 1 def
/Landscape true def
/Level1 false def
/Rounded false def
/ClipToBoundingBox false def
/SuppressPDFMark false def
/TransparentPatterns false def
/gnulinewidth 5.000 def
/userlinewidth gnulinewidth def
/Gamma 1.0 def
/BackgroundColor {-1.000 -1.000 -1.000} def
%
/vshift -46 def
/dl1 {
  10.0 Dashlength mul mul
  Rounded { currentlinewidth 0.75 mul sub dup 0 le { pop 0.01 } if } if
} def
/dl2 {
  10.0 Dashlength mul mul
  Rounded { currentlinewidth 0.75 mul add } if
} def
/hpt_ 31.5 def
/vpt_ 31.5 def
/hpt hpt_ def
/vpt vpt_ def
/doclip {
  ClipToBoundingBox {
    newpath 50 50 moveto 554 50 lineto 554 770 lineto 50 770 lineto closepath
    clip
  } if
} def
%
% Gnuplot Prolog Version 4.6 (September 2012)
%
%/SuppressPDFMark true def
%
/M {moveto} bind def
/L {lineto} bind def
/R {rmoveto} bind def
/V {rlineto} bind def
/N {newpath moveto} bind def
/Z {closepath} bind def
/C {setrgbcolor} bind def
/f {rlineto fill} bind def
/g {setgray} bind def
/Gshow {show} def   % May be redefined later in the file to support UTF-8
/vpt2 vpt 2 mul def
/hpt2 hpt 2 mul def
/Lshow {currentpoint stroke M 0 vshift R 
	Blacktext {gsave 0 setgray show grestore} {show} ifelse} def
/Rshow {currentpoint stroke M dup stringwidth pop neg vshift R
	Blacktext {gsave 0 setgray show grestore} {show} ifelse} def
/Cshow {currentpoint stroke M dup stringwidth pop -2 div vshift R 
	Blacktext {gsave 0 setgray show grestore} {show} ifelse} def
/UP {dup vpt_ mul /vpt exch def hpt_ mul /hpt exch def
  /hpt2 hpt 2 mul def /vpt2 vpt 2 mul def} def
/DL {Color {setrgbcolor Solid {pop []} if 0 setdash}
 {pop pop pop 0 setgray Solid {pop []} if 0 setdash} ifelse} def
/BL {stroke userlinewidth 2 mul setlinewidth
	Rounded {1 setlinejoin 1 setlinecap} if} def
/AL {stroke userlinewidth 2 div setlinewidth
	Rounded {1 setlinejoin 1 setlinecap} if} def
/UL {dup gnulinewidth mul /userlinewidth exch def
	dup 1 lt {pop 1} if 10 mul /udl exch def} def
/PL {stroke userlinewidth setlinewidth
	Rounded {1 setlinejoin 1 setlinecap} if} def
3.8 setmiterlimit
% Default Line colors
/LCw {1 1 1} def
/LCb {0 0 0} def
/LCa {0 0 0} def
/LC0 {1 0 0} def
/LC1 {0 1 0} def
/LC2 {0 0 1} def
/LC3 {1 0 1} def
/LC4 {0 1 1} def
/LC5 {1 1 0} def
/LC6 {0 0 0} def
/LC7 {1 0.3 0} def
/LC8 {0.5 0.5 0.5} def
% Default Line Types
/LTw {PL [] 1 setgray} def
/LTb {BL [] LCb DL} def
/LTa {AL [1 udl mul 2 udl mul] 0 setdash LCa setrgbcolor} def
/LT0 {PL [] LC0 DL} def
/LT1 {PL [4 dl1 2 dl2] LC1 DL} def
/LT2 {PL [2 dl1 3 dl2] LC2 DL} def
/LT3 {PL [1 dl1 1.5 dl2] LC3 DL} def
/LT4 {PL [6 dl1 2 dl2 1 dl1 2 dl2] LC4 DL} def
/LT5 {PL [3 dl1 3 dl2 1 dl1 3 dl2] LC5 DL} def
/LT6 {PL [2 dl1 2 dl2 2 dl1 6 dl2] LC6 DL} def
/LT7 {PL [1 dl1 2 dl2 6 dl1 2 dl2 1 dl1 2 dl2] LC7 DL} def
/LT8 {PL [2 dl1 2 dl2 2 dl1 2 dl2 2 dl1 2 dl2 2 dl1 4 dl2] LC8 DL} def
/Pnt {stroke [] 0 setdash gsave 1 setlinecap M 0 0 V stroke grestore} def
/Dia {stroke [] 0 setdash 2 copy vpt add M
  hpt neg vpt neg V hpt vpt neg V
  hpt vpt V hpt neg vpt V closepath stroke
  Pnt} def
/Pls {stroke [] 0 setdash vpt sub M 0 vpt2 V
  currentpoint stroke M
  hpt neg vpt neg R hpt2 0 V stroke
 } def
/Box {stroke [] 0 setdash 2 copy exch hpt sub exch vpt add M
  0 vpt2 neg V hpt2 0 V 0 vpt2 V
  hpt2 neg 0 V closepath stroke
  Pnt} def
/Crs {stroke [] 0 setdash exch hpt sub exch vpt add M
  hpt2 vpt2 neg V currentpoint stroke M
  hpt2 neg 0 R hpt2 vpt2 V stroke} def
/TriU {stroke [] 0 setdash 2 copy vpt 1.12 mul add M
  hpt neg vpt -1.62 mul V
  hpt 2 mul 0 V
  hpt neg vpt 1.62 mul V closepath stroke
  Pnt} def
/Star {2 copy Pls Crs} def
/BoxF {stroke [] 0 setdash exch hpt sub exch vpt add M
  0 vpt2 neg V hpt2 0 V 0 vpt2 V
  hpt2 neg 0 V closepath fill} def
/TriUF {stroke [] 0 setdash vpt 1.12 mul add M
  hpt neg vpt -1.62 mul V
  hpt 2 mul 0 V
  hpt neg vpt 1.62 mul V closepath fill} def
/TriD {stroke [] 0 setdash 2 copy vpt 1.12 mul sub M
  hpt neg vpt 1.62 mul V
  hpt 2 mul 0 V
  hpt neg vpt -1.62 mul V closepath stroke
  Pnt} def
/TriDF {stroke [] 0 setdash vpt 1.12 mul sub M
  hpt neg vpt 1.62 mul V
  hpt 2 mul 0 V
  hpt neg vpt -1.62 mul V closepath fill} def
/DiaF {stroke [] 0 setdash vpt add M
  hpt neg vpt neg V hpt vpt neg V
  hpt vpt V hpt neg vpt V closepath fill} def
/Pent {stroke [] 0 setdash 2 copy gsave
  translate 0 hpt M 4 {72 rotate 0 hpt L} repeat
  closepath stroke grestore Pnt} def
/PentF {stroke [] 0 setdash gsave
  translate 0 hpt M 4 {72 rotate 0 hpt L} repeat
  closepath fill grestore} def
/Circle {stroke [] 0 setdash 2 copy
  hpt 0 360 arc stroke Pnt} def
/CircleF {stroke [] 0 setdash hpt 0 360 arc fill} def
/C0 {BL [] 0 setdash 2 copy moveto vpt 90 450 arc} bind def
/C1 {BL [] 0 setdash 2 copy moveto
	2 copy vpt 0 90 arc closepath fill
	vpt 0 360 arc closepath} bind def
/C2 {BL [] 0 setdash 2 copy moveto
	2 copy vpt 90 180 arc closepath fill
	vpt 0 360 arc closepath} bind def
/C3 {BL [] 0 setdash 2 copy moveto
	2 copy vpt 0 180 arc closepath fill
	vpt 0 360 arc closepath} bind def
/C4 {BL [] 0 setdash 2 copy moveto
	2 copy vpt 180 270 arc closepath fill
	vpt 0 360 arc closepath} bind def
/C5 {BL [] 0 setdash 2 copy moveto
	2 copy vpt 0 90 arc
	2 copy moveto
	2 copy vpt 180 270 arc closepath fill
	vpt 0 360 arc} bind def
/C6 {BL [] 0 setdash 2 copy moveto
	2 copy vpt 90 270 arc closepath fill
	vpt 0 360 arc closepath} bind def
/C7 {BL [] 0 setdash 2 copy moveto
	2 copy vpt 0 270 arc closepath fill
	vpt 0 360 arc closepath} bind def
/C8 {BL [] 0 setdash 2 copy moveto
	2 copy vpt 270 360 arc closepath fill
	vpt 0 360 arc closepath} bind def
/C9 {BL [] 0 setdash 2 copy moveto
	2 copy vpt 270 450 arc closepath fill
	vpt 0 360 arc closepath} bind def
/C10 {BL [] 0 setdash 2 copy 2 copy moveto vpt 270 360 arc closepath fill
	2 copy moveto
	2 copy vpt 90 180 arc closepath fill
	vpt 0 360 arc closepath} bind def
/C11 {BL [] 0 setdash 2 copy moveto
	2 copy vpt 0 180 arc closepath fill
	2 copy moveto
	2 copy vpt 270 360 arc closepath fill
	vpt 0 360 arc closepath} bind def
/C12 {BL [] 0 setdash 2 copy moveto
	2 copy vpt 180 360 arc closepath fill
	vpt 0 360 arc closepath} bind def
/C13 {BL [] 0 setdash 2 copy moveto
	2 copy vpt 0 90 arc closepath fill
	2 copy moveto
	2 copy vpt 180 360 arc closepath fill
	vpt 0 360 arc closepath} bind def
/C14 {BL [] 0 setdash 2 copy moveto
	2 copy vpt 90 360 arc closepath fill
	vpt 0 360 arc} bind def
/C15 {BL [] 0 setdash 2 copy vpt 0 360 arc closepath fill
	vpt 0 360 arc closepath} bind def
/Rec {newpath 4 2 roll moveto 1 index 0 rlineto 0 exch rlineto
	neg 0 rlineto closepath} bind def
/Square {dup Rec} bind def
/Bsquare {vpt sub exch vpt sub exch vpt2 Square} bind def
/S0 {BL [] 0 setdash 2 copy moveto 0 vpt rlineto BL Bsquare} bind def
/S1 {BL [] 0 setdash 2 copy vpt Square fill Bsquare} bind def
/S2 {BL [] 0 setdash 2 copy exch vpt sub exch vpt Square fill Bsquare} bind def
/S3 {BL [] 0 setdash 2 copy exch vpt sub exch vpt2 vpt Rec fill Bsquare} bind def
/S4 {BL [] 0 setdash 2 copy exch vpt sub exch vpt sub vpt Square fill Bsquare} bind def
/S5 {BL [] 0 setdash 2 copy 2 copy vpt Square fill
	exch vpt sub exch vpt sub vpt Square fill Bsquare} bind def
/S6 {BL [] 0 setdash 2 copy exch vpt sub exch vpt sub vpt vpt2 Rec fill Bsquare} bind def
/S7 {BL [] 0 setdash 2 copy exch vpt sub exch vpt sub vpt vpt2 Rec fill
	2 copy vpt Square fill Bsquare} bind def
/S8 {BL [] 0 setdash 2 copy vpt sub vpt Square fill Bsquare} bind def
/S9 {BL [] 0 setdash 2 copy vpt sub vpt vpt2 Rec fill Bsquare} bind def
/S10 {BL [] 0 setdash 2 copy vpt sub vpt Square fill 2 copy exch vpt sub exch vpt Square fill
	Bsquare} bind def
/S11 {BL [] 0 setdash 2 copy vpt sub vpt Square fill 2 copy exch vpt sub exch vpt2 vpt Rec fill
	Bsquare} bind def
/S12 {BL [] 0 setdash 2 copy exch vpt sub exch vpt sub vpt2 vpt Rec fill Bsquare} bind def
/S13 {BL [] 0 setdash 2 copy exch vpt sub exch vpt sub vpt2 vpt Rec fill
	2 copy vpt Square fill Bsquare} bind def
/S14 {BL [] 0 setdash 2 copy exch vpt sub exch vpt sub vpt2 vpt Rec fill
	2 copy exch vpt sub exch vpt Square fill Bsquare} bind def
/S15 {BL [] 0 setdash 2 copy Bsquare fill Bsquare} bind def
/D0 {gsave translate 45 rotate 0 0 S0 stroke grestore} bind def
/D1 {gsave translate 45 rotate 0 0 S1 stroke grestore} bind def
/D2 {gsave translate 45 rotate 0 0 S2 stroke grestore} bind def
/D3 {gsave translate 45 rotate 0 0 S3 stroke grestore} bind def
/D4 {gsave translate 45 rotate 0 0 S4 stroke grestore} bind def
/D5 {gsave translate 45 rotate 0 0 S5 stroke grestore} bind def
/D6 {gsave translate 45 rotate 0 0 S6 stroke grestore} bind def
/D7 {gsave translate 45 rotate 0 0 S7 stroke grestore} bind def
/D8 {gsave translate 45 rotate 0 0 S8 stroke grestore} bind def
/D9 {gsave translate 45 rotate 0 0 S9 stroke grestore} bind def
/D10 {gsave translate 45 rotate 0 0 S10 stroke grestore} bind def
/D11 {gsave translate 45 rotate 0 0 S11 stroke grestore} bind def
/D12 {gsave translate 45 rotate 0 0 S12 stroke grestore} bind def
/D13 {gsave translate 45 rotate 0 0 S13 stroke grestore} bind def
/D14 {gsave translate 45 rotate 0 0 S14 stroke grestore} bind def
/D15 {gsave translate 45 rotate 0 0 S15 stroke grestore} bind def
/DiaE {stroke [] 0 setdash vpt add M
  hpt neg vpt neg V hpt vpt neg V
  hpt vpt V hpt neg vpt V closepath stroke} def
/BoxE {stroke [] 0 setdash exch hpt sub exch vpt add M
  0 vpt2 neg V hpt2 0 V 0 vpt2 V
  hpt2 neg 0 V closepath stroke} def
/TriUE {stroke [] 0 setdash vpt 1.12 mul add M
  hpt neg vpt -1.62 mul V
  hpt 2 mul 0 V
  hpt neg vpt 1.62 mul V closepath stroke} def
/TriDE {stroke [] 0 setdash vpt 1.12 mul sub M
  hpt neg vpt 1.62 mul V
  hpt 2 mul 0 V
  hpt neg vpt -1.62 mul V closepath stroke} def
/PentE {stroke [] 0 setdash gsave
  translate 0 hpt M 4 {72 rotate 0 hpt L} repeat
  closepath stroke grestore} def
/CircE {stroke [] 0 setdash 
  hpt 0 360 arc stroke} def
/Opaque {gsave closepath 1 setgray fill grestore 0 setgray closepath} def
/DiaW {stroke [] 0 setdash vpt add M
  hpt neg vpt neg V hpt vpt neg V
  hpt vpt V hpt neg vpt V Opaque stroke} def
/BoxW {stroke [] 0 setdash exch hpt sub exch vpt add M
  0 vpt2 neg V hpt2 0 V 0 vpt2 V
  hpt2 neg 0 V Opaque stroke} def
/TriUW {stroke [] 0 setdash vpt 1.12 mul add M
  hpt neg vpt -1.62 mul V
  hpt 2 mul 0 V
  hpt neg vpt 1.62 mul V Opaque stroke} def
/TriDW {stroke [] 0 setdash vpt 1.12 mul sub M
  hpt neg vpt 1.62 mul V
  hpt 2 mul 0 V
  hpt neg vpt -1.62 mul V Opaque stroke} def
/PentW {stroke [] 0 setdash gsave
  translate 0 hpt M 4 {72 rotate 0 hpt L} repeat
  Opaque stroke grestore} def
/CircW {stroke [] 0 setdash 
  hpt 0 360 arc Opaque stroke} def
/BoxFill {gsave Rec 1 setgray fill grestore} def
/Density {
  /Fillden exch def
  currentrgbcolor
  /ColB exch def /ColG exch def /ColR exch def
  /ColR ColR Fillden mul Fillden sub 1 add def
  /ColG ColG Fillden mul Fillden sub 1 add def
  /ColB ColB Fillden mul Fillden sub 1 add def
  ColR ColG ColB setrgbcolor} def
/BoxColFill {gsave Rec PolyFill} def
/PolyFill {gsave Density fill grestore grestore} def
/h {rlineto rlineto rlineto gsave closepath fill grestore} bind def
%
% PostScript Level 1 Pattern Fill routine for rectangles
% Usage: x y w h s a XX PatternFill
%	x,y = lower left corner of box to be filled
%	w,h = width and height of box
%	  a = angle in degrees between lines and x-axis
%	 XX = 0/1 for no/yes cross-hatch
%
/PatternFill {gsave /PFa [ 9 2 roll ] def
  PFa 0 get PFa 2 get 2 div add PFa 1 get PFa 3 get 2 div add translate
  PFa 2 get -2 div PFa 3 get -2 div PFa 2 get PFa 3 get Rec
  TransparentPatterns {} {gsave 1 setgray fill grestore} ifelse
  clip
  currentlinewidth 0.5 mul setlinewidth
  /PFs PFa 2 get dup mul PFa 3 get dup mul add sqrt def
  0 0 M PFa 5 get rotate PFs -2 div dup translate
  0 1 PFs PFa 4 get div 1 add floor cvi
	{PFa 4 get mul 0 M 0 PFs V} for
  0 PFa 6 get ne {
	0 1 PFs PFa 4 get div 1 add floor cvi
	{PFa 4 get mul 0 2 1 roll M PFs 0 V} for
 } if
  stroke grestore} def
%
/languagelevel where
 {pop languagelevel} {1} ifelse
 2 lt
	{/InterpretLevel1 true def}
	{/InterpretLevel1 Level1 def}
 ifelse
%
% PostScript level 2 pattern fill definitions
%
/Level2PatternFill {
/Tile8x8 {/PaintType 2 /PatternType 1 /TilingType 1 /BBox [0 0 8 8] /XStep 8 /YStep 8}
	bind def
/KeepColor {currentrgbcolor [/Pattern /DeviceRGB] setcolorspace} bind def
<< Tile8x8
 /PaintProc {0.5 setlinewidth pop 0 0 M 8 8 L 0 8 M 8 0 L stroke} 
>> matrix makepattern
/Pat1 exch def
<< Tile8x8
 /PaintProc {0.5 setlinewidth pop 0 0 M 8 8 L 0 8 M 8 0 L stroke
	0 4 M 4 8 L 8 4 L 4 0 L 0 4 L stroke}
>> matrix makepattern
/Pat2 exch def
<< Tile8x8
 /PaintProc {0.5 setlinewidth pop 0 0 M 0 8 L
	8 8 L 8 0 L 0 0 L fill}
>> matrix makepattern
/Pat3 exch def
<< Tile8x8
 /PaintProc {0.5 setlinewidth pop -4 8 M 8 -4 L
	0 12 M 12 0 L stroke}
>> matrix makepattern
/Pat4 exch def
<< Tile8x8
 /PaintProc {0.5 setlinewidth pop -4 0 M 8 12 L
	0 -4 M 12 8 L stroke}
>> matrix makepattern
/Pat5 exch def
<< Tile8x8
 /PaintProc {0.5 setlinewidth pop -2 8 M 4 -4 L
	0 12 M 8 -4 L 4 12 M 10 0 L stroke}
>> matrix makepattern
/Pat6 exch def
<< Tile8x8
 /PaintProc {0.5 setlinewidth pop -2 0 M 4 12 L
	0 -4 M 8 12 L 4 -4 M 10 8 L stroke}
>> matrix makepattern
/Pat7 exch def
<< Tile8x8
 /PaintProc {0.5 setlinewidth pop 8 -2 M -4 4 L
	12 0 M -4 8 L 12 4 M 0 10 L stroke}
>> matrix makepattern
/Pat8 exch def
<< Tile8x8
 /PaintProc {0.5 setlinewidth pop 0 -2 M 12 4 L
	-4 0 M 12 8 L -4 4 M 8 10 L stroke}
>> matrix makepattern
/Pat9 exch def
/Pattern1 {PatternBgnd KeepColor Pat1 setpattern} bind def
/Pattern2 {PatternBgnd KeepColor Pat2 setpattern} bind def
/Pattern3 {PatternBgnd KeepColor Pat3 setpattern} bind def
/Pattern4 {PatternBgnd KeepColor Landscape {Pat5} {Pat4} ifelse setpattern} bind def
/Pattern5 {PatternBgnd KeepColor Landscape {Pat4} {Pat5} ifelse setpattern} bind def
/Pattern6 {PatternBgnd KeepColor Landscape {Pat9} {Pat6} ifelse setpattern} bind def
/Pattern7 {PatternBgnd KeepColor Landscape {Pat8} {Pat7} ifelse setpattern} bind def
} def
%
%
%End of PostScript Level 2 code
%
/PatternBgnd {
  TransparentPatterns {} {gsave 1 setgray fill grestore} ifelse
} def
%
% Substitute for Level 2 pattern fill codes with
% grayscale if Level 2 support is not selected.
%
/Level1PatternFill {
/Pattern1 {0.250 Density} bind def
/Pattern2 {0.500 Density} bind def
/Pattern3 {0.750 Density} bind def
/Pattern4 {0.125 Density} bind def
/Pattern5 {0.375 Density} bind def
/Pattern6 {0.625 Density} bind def
/Pattern7 {0.875 Density} bind def
} def
%
% Now test for support of Level 2 code
%
Level1 {Level1PatternFill} {Level2PatternFill} ifelse
%
/Symbol-Oblique /Symbol findfont [1 0 .167 1 0 0] makefont
dup length dict begin {1 index /FID eq {pop pop} {def} ifelse} forall
currentdict end definefont pop
Level1 SuppressPDFMark or 
{} {
/SDict 10 dict def
systemdict /pdfmark known not {
  userdict /pdfmark systemdict /cleartomark get put
} if
SDict begin [
  /Title (out.ps)
  /Subject (gnuplot plot)
  /Creator (gnuplot 4.6 patchlevel 6)
  /Author (yani)
%  /Producer (gnuplot)
%  /Keywords ()
  /CreationDate (Thu May 28 17:44:49 2015)
  /DOCINFO pdfmark
end
} ifelse
end
%%EndProlog
%%Page: 1 1
gnudict begin
gsave
doclip
50 50 translate
0.100 0.100 scale
90 rotate
0 -5040 translate
0 setgray
newpath
(Helvetica) findfont 140 scalefont setfont
BackgroundColor 0 lt 3 1 roll 0 lt exch 0 lt or or not {gsave BackgroundColor C clippath fill grestore} if
1.000 UL
LT0
0.50 0.50 0.50 C 1.000 UL
LTa
0.50 0.50 0.50 C 966 280 M
5981 0 V
stroke
LT0
0.50 0.50 0.50 C 966 280 M
63 0 V
5918 0 R
-63 0 V
882 280 M
( 0) Rshow
1.000 UL
LT0
0.50 0.50 0.50 C 1.000 UL
LTa
0.50 0.50 0.50 C 966 372 M
5981 0 V
stroke
LT0
0.50 0.50 0.50 C 966 372 M
63 0 V
5918 0 R
-63 0 V
882 372 M
( 0.707106) Rshow
1.000 UL
LT0
0.50 0.50 0.50 C 1.000 UL
LTa
0.50 0.50 0.50 C 966 464 M
5981 0 V
stroke
LT0
0.50 0.50 0.50 C 966 464 M
63 0 V
5918 0 R
-63 0 V
882 464 M
( 1.41421) Rshow
1.000 UL
LT0
0.50 0.50 0.50 C 1.000 UL
LTa
0.50 0.50 0.50 C 966 555 M
5981 0 V
stroke
LT0
0.50 0.50 0.50 C 966 555 M
63 0 V
5918 0 R
-63 0 V
882 555 M
( 2.12132) Rshow
1.000 UL
LT0
0.50 0.50 0.50 C 1.000 UL
LTa
0.50 0.50 0.50 C 966 647 M
5981 0 V
stroke
LT0
0.50 0.50 0.50 C 966 647 M
63 0 V
5918 0 R
-63 0 V
882 647 M
( 2.82842) Rshow
1.000 UL
LT0
0.50 0.50 0.50 C 1.000 UL
LTa
0.50 0.50 0.50 C 966 739 M
5981 0 V
stroke
LT0
0.50 0.50 0.50 C 966 739 M
63 0 V
5918 0 R
-63 0 V
882 739 M
( 3.53553) Rshow
1.000 UL
LT0
0.50 0.50 0.50 C 1.000 UL
LTa
0.50 0.50 0.50 C 966 831 M
5981 0 V
stroke
LT0
0.50 0.50 0.50 C 966 831 M
63 0 V
5918 0 R
-63 0 V
882 831 M
( 4.24264) Rshow
1.000 UL
LT0
0.50 0.50 0.50 C 1.000 UL
LTa
0.50 0.50 0.50 C 966 923 M
5981 0 V
stroke
LT0
0.50 0.50 0.50 C 966 923 M
63 0 V
5918 0 R
-63 0 V
882 923 M
( 4.94974) Rshow
1.000 UL
LT0
0.50 0.50 0.50 C 1.000 UL
LTa
0.50 0.50 0.50 C 966 1015 M
5981 0 V
stroke
LT0
0.50 0.50 0.50 C 966 1015 M
63 0 V
5918 0 R
-63 0 V
-6002 0 R
( 5.65685) Rshow
1.000 UL
LT0
0.50 0.50 0.50 C 1.000 UL
LTa
0.50 0.50 0.50 C 966 1106 M
5981 0 V
stroke
LT0
0.50 0.50 0.50 C 966 1106 M
63 0 V
5918 0 R
-63 0 V
-6002 0 R
( 6.36395) Rshow
1.000 UL
LT0
0.50 0.50 0.50 C 1.000 UL
LTa
0.50 0.50 0.50 C 966 1198 M
5981 0 V
stroke
LT0
0.50 0.50 0.50 C 966 1198 M
63 0 V
5918 0 R
-63 0 V
-6002 0 R
( 7.07106) Rshow
1.000 UL
LT0
0.50 0.50 0.50 C 1.000 UL
LTa
0.50 0.50 0.50 C 966 1290 M
5981 0 V
stroke
LT0
0.50 0.50 0.50 C 966 1290 M
63 0 V
5918 0 R
-63 0 V
-6002 0 R
( 7.77817) Rshow
1.000 UL
LT0
0.50 0.50 0.50 C 1.000 UL
LTa
0.50 0.50 0.50 C 966 1382 M
5981 0 V
stroke
LT0
0.50 0.50 0.50 C 966 1382 M
63 0 V
5918 0 R
-63 0 V
-6002 0 R
( 8.48527) Rshow
1.000 UL
LT0
0.50 0.50 0.50 C 1.000 UL
LTa
0.50 0.50 0.50 C 966 1474 M
5981 0 V
stroke
LT0
0.50 0.50 0.50 C 966 1474 M
63 0 V
5918 0 R
-63 0 V
-6002 0 R
( 9.19238) Rshow
1.000 UL
LT0
0.50 0.50 0.50 C 1.000 UL
LTa
0.50 0.50 0.50 C 966 1565 M
5981 0 V
stroke
LT0
0.50 0.50 0.50 C 966 1565 M
63 0 V
5918 0 R
-63 0 V
-6002 0 R
( 9.89948) Rshow
1.000 UL
LT0
0.50 0.50 0.50 C 1.000 UL
LTa
0.50 0.50 0.50 C 966 1657 M
5981 0 V
stroke
LT0
0.50 0.50 0.50 C 966 1657 M
63 0 V
5918 0 R
-63 0 V
-6002 0 R
( 10.6066) Rshow
1.000 UL
LT0
0.50 0.50 0.50 C 1.000 UL
LTa
0.50 0.50 0.50 C 966 1749 M
5981 0 V
stroke
LT0
0.50 0.50 0.50 C 966 1749 M
63 0 V
5918 0 R
-63 0 V
-6002 0 R
( 11.3137) Rshow
1.000 UL
LT0
0.50 0.50 0.50 C 1.000 UL
LTa
0.50 0.50 0.50 C 966 1841 M
5981 0 V
stroke
LT0
0.50 0.50 0.50 C 966 1841 M
63 0 V
5918 0 R
-63 0 V
-6002 0 R
( 12.0208) Rshow
1.000 UL
LT0
0.50 0.50 0.50 C 1.000 UL
LTa
0.50 0.50 0.50 C 966 1933 M
5981 0 V
stroke
LT0
0.50 0.50 0.50 C 966 1933 M
63 0 V
5918 0 R
-63 0 V
-6002 0 R
( 12.7279) Rshow
1.000 UL
LT0
0.50 0.50 0.50 C 1.000 UL
LTa
0.50 0.50 0.50 C 966 2025 M
5981 0 V
stroke
LT0
0.50 0.50 0.50 C 966 2025 M
63 0 V
5918 0 R
-63 0 V
-6002 0 R
( 13.435) Rshow
1.000 UL
LT0
0.50 0.50 0.50 C 1.000 UL
LTa
0.50 0.50 0.50 C 966 2116 M
5981 0 V
stroke
LT0
0.50 0.50 0.50 C 966 2116 M
63 0 V
5918 0 R
-63 0 V
-6002 0 R
( 14.1421) Rshow
1.000 UL
LT0
0.50 0.50 0.50 C 1.000 UL
LTa
0.50 0.50 0.50 C 966 2208 M
5981 0 V
stroke
LT0
0.50 0.50 0.50 C 966 2208 M
63 0 V
5918 0 R
-63 0 V
-6002 0 R
( 14.8492) Rshow
1.000 UL
LT0
0.50 0.50 0.50 C 1.000 UL
LTa
0.50 0.50 0.50 C 966 2300 M
5981 0 V
stroke
LT0
0.50 0.50 0.50 C 966 2300 M
63 0 V
5918 0 R
-63 0 V
-6002 0 R
( 15.5563) Rshow
1.000 UL
LT0
0.50 0.50 0.50 C 1.000 UL
LTa
0.50 0.50 0.50 C 966 2392 M
5981 0 V
stroke
LT0
0.50 0.50 0.50 C 966 2392 M
63 0 V
5918 0 R
-63 0 V
-6002 0 R
( 16.2634) Rshow
1.000 UL
LT0
0.50 0.50 0.50 C 1.000 UL
LTa
0.50 0.50 0.50 C 966 2484 M
5981 0 V
stroke
LT0
0.50 0.50 0.50 C 966 2484 M
63 0 V
5918 0 R
-63 0 V
-6002 0 R
( 16.9705) Rshow
1.000 UL
LT0
0.50 0.50 0.50 C 1.000 UL
LTa
0.50 0.50 0.50 C 966 2575 M
5981 0 V
stroke
LT0
0.50 0.50 0.50 C 966 2575 M
63 0 V
5918 0 R
-63 0 V
-6002 0 R
( 17.6776) Rshow
1.000 UL
LT0
0.50 0.50 0.50 C 1.000 UL
LTa
0.50 0.50 0.50 C 966 2667 M
5981 0 V
stroke
LT0
0.50 0.50 0.50 C 966 2667 M
63 0 V
5918 0 R
-63 0 V
-6002 0 R
( 18.3848) Rshow
1.000 UL
LT0
0.50 0.50 0.50 C 1.000 UL
LTa
0.50 0.50 0.50 C 966 2759 M
5981 0 V
stroke
LT0
0.50 0.50 0.50 C 966 2759 M
63 0 V
5918 0 R
-63 0 V
-6002 0 R
( 19.0919) Rshow
1.000 UL
LT0
0.50 0.50 0.50 C 1.000 UL
LTa
0.50 0.50 0.50 C 966 2851 M
5981 0 V
stroke
LT0
0.50 0.50 0.50 C 966 2851 M
63 0 V
5918 0 R
-63 0 V
-6002 0 R
( 19.799) Rshow
1.000 UL
LT0
0.50 0.50 0.50 C 1.000 UL
LTa
0.50 0.50 0.50 C 966 2943 M
5981 0 V
stroke
LT0
0.50 0.50 0.50 C 966 2943 M
63 0 V
5918 0 R
-63 0 V
-6002 0 R
( 20.5061) Rshow
1.000 UL
LT0
0.50 0.50 0.50 C 1.000 UL
LTa
0.50 0.50 0.50 C 966 3035 M
5981 0 V
stroke
LT0
0.50 0.50 0.50 C 966 3035 M
63 0 V
5918 0 R
-63 0 V
-6002 0 R
( 21.2132) Rshow
1.000 UL
LT0
0.50 0.50 0.50 C 1.000 UL
LTa
0.50 0.50 0.50 C 966 3126 M
5981 0 V
stroke
LT0
0.50 0.50 0.50 C 966 3126 M
63 0 V
5918 0 R
-63 0 V
-6002 0 R
( 21.9203) Rshow
1.000 UL
LT0
0.50 0.50 0.50 C 1.000 UL
LTa
0.50 0.50 0.50 C 966 3218 M
5981 0 V
stroke
LT0
0.50 0.50 0.50 C 966 3218 M
63 0 V
5918 0 R
-63 0 V
-6002 0 R
( 22.6274) Rshow
1.000 UL
LT0
0.50 0.50 0.50 C 1.000 UL
LTa
0.50 0.50 0.50 C 966 3310 M
5981 0 V
stroke
LT0
0.50 0.50 0.50 C 966 3310 M
63 0 V
5918 0 R
-63 0 V
-6002 0 R
( 23.3345) Rshow
1.000 UL
LT0
0.50 0.50 0.50 C 1.000 UL
LTa
0.50 0.50 0.50 C 966 3402 M
5981 0 V
stroke
LT0
0.50 0.50 0.50 C 966 3402 M
63 0 V
5918 0 R
-63 0 V
-6002 0 R
( 24.0416) Rshow
1.000 UL
LT0
0.50 0.50 0.50 C 1.000 UL
LTa
0.50 0.50 0.50 C 966 3494 M
5981 0 V
stroke
LT0
0.50 0.50 0.50 C 966 3494 M
63 0 V
5918 0 R
-63 0 V
-6002 0 R
( 24.7487) Rshow
1.000 UL
LT0
0.50 0.50 0.50 C 1.000 UL
LTa
0.50 0.50 0.50 C 966 3586 M
5981 0 V
stroke
LT0
0.50 0.50 0.50 C 966 3586 M
63 0 V
5918 0 R
-63 0 V
-6002 0 R
( 25.4558) Rshow
1.000 UL
LT0
0.50 0.50 0.50 C 1.000 UL
LTa
0.50 0.50 0.50 C 966 3677 M
5981 0 V
stroke
LT0
0.50 0.50 0.50 C 966 3677 M
63 0 V
5918 0 R
-63 0 V
-6002 0 R
( 26.1629) Rshow
1.000 UL
LT0
0.50 0.50 0.50 C 1.000 UL
LTa
0.50 0.50 0.50 C 966 3769 M
5981 0 V
stroke
LT0
0.50 0.50 0.50 C 966 3769 M
63 0 V
5918 0 R
-63 0 V
-6002 0 R
( 26.87) Rshow
1.000 UL
LT0
0.50 0.50 0.50 C 1.000 UL
LTa
0.50 0.50 0.50 C 966 3861 M
5981 0 V
stroke
LT0
0.50 0.50 0.50 C 966 3861 M
63 0 V
5918 0 R
-63 0 V
-6002 0 R
( 27.5771) Rshow
1.000 UL
LT0
0.50 0.50 0.50 C 1.000 UL
LTa
0.50 0.50 0.50 C 966 3953 M
5981 0 V
stroke
LT0
0.50 0.50 0.50 C 966 3953 M
63 0 V
5918 0 R
-63 0 V
-6002 0 R
( 28.2842) Rshow
1.000 UL
LT0
0.50 0.50 0.50 C 1.000 UL
LTa
0.50 0.50 0.50 C 966 4045 M
5981 0 V
stroke
LT0
0.50 0.50 0.50 C 966 4045 M
63 0 V
5918 0 R
-63 0 V
-6002 0 R
( 28.9913) Rshow
1.000 UL
LT0
0.50 0.50 0.50 C 1.000 UL
LTa
0.50 0.50 0.50 C 966 4136 M
5981 0 V
stroke
LT0
0.50 0.50 0.50 C 966 4136 M
63 0 V
5918 0 R
-63 0 V
-6002 0 R
( 29.6985) Rshow
1.000 UL
LT0
0.50 0.50 0.50 C 1.000 UL
LTa
0.50 0.50 0.50 C 966 4228 M
5981 0 V
stroke
LT0
0.50 0.50 0.50 C 966 4228 M
63 0 V
5918 0 R
-63 0 V
-6002 0 R
( 30.4056) Rshow
1.000 UL
LT0
0.50 0.50 0.50 C 1.000 UL
LTa
0.50 0.50 0.50 C 966 4320 M
5981 0 V
stroke
LT0
0.50 0.50 0.50 C 966 4320 M
63 0 V
5918 0 R
-63 0 V
-6002 0 R
( 31.1127) Rshow
1.000 UL
LT0
0.50 0.50 0.50 C 1.000 UL
LTa
0.50 0.50 0.50 C 966 4412 M
5981 0 V
stroke
LT0
0.50 0.50 0.50 C 966 4412 M
63 0 V
5918 0 R
-63 0 V
-6002 0 R
( 31.8198) Rshow
1.000 UL
LT0
0.50 0.50 0.50 C 1.000 UL
LTa
0.50 0.50 0.50 C 966 4504 M
5981 0 V
stroke
LT0
0.50 0.50 0.50 C 966 4504 M
63 0 V
5918 0 R
-63 0 V
-6002 0 R
( 32.5269) Rshow
1.000 UL
LT0
0.50 0.50 0.50 C 1.000 UL
LTa
0.50 0.50 0.50 C 966 4596 M
5981 0 V
stroke
LT0
0.50 0.50 0.50 C 966 4596 M
63 0 V
5918 0 R
-63 0 V
-6002 0 R
( 33.234) Rshow
1.000 UL
LT0
0.50 0.50 0.50 C 1.000 UL
LTa
0.50 0.50 0.50 C 966 4687 M
5981 0 V
stroke
LT0
0.50 0.50 0.50 C 966 4687 M
63 0 V
5918 0 R
-63 0 V
-6002 0 R
( 33.9411) Rshow
1.000 UL
LT0
0.50 0.50 0.50 C 1.000 UL
LTa
0.50 0.50 0.50 C 966 4779 M
5981 0 V
stroke
LT0
0.50 0.50 0.50 C 966 4779 M
63 0 V
5918 0 R
-63 0 V
-6002 0 R
( 34.6482) Rshow
1.000 UL
LT0
0.50 0.50 0.50 C 1.000 UL
LTa
0.50 0.50 0.50 C 966 4871 M
5981 0 V
stroke
LT0
0.50 0.50 0.50 C 966 4871 M
63 0 V
5918 0 R
-63 0 V
-6002 0 R
( 35.3553) Rshow
1.000 UL
LT0
0.50 0.50 0.50 C 1.000 UL
LTa
0.50 0.50 0.50 C 966 280 M
0 4591 V
stroke
LT0
0.50 0.50 0.50 C 966 280 M
0 63 V
0 4528 R
0 -63 V
966 140 M
( 0) Cshow
1.000 UL
LT0
0.50 0.50 0.50 C 1.000 UL
LTa
0.50 0.50 0.50 C 1086 280 M
0 4591 V
stroke
LT0
0.50 0.50 0.50 C 1086 280 M
0 63 V
0 4528 R
0 -63 V
0 -4668 R
( 0.707106) Cshow
1.000 UL
LT0
0.50 0.50 0.50 C 1.000 UL
LTa
0.50 0.50 0.50 C 1205 280 M
0 4591 V
stroke
LT0
0.50 0.50 0.50 C 1205 280 M
0 63 V
0 4528 R
0 -63 V
0 -4668 R
( 1.41421) Cshow
1.000 UL
LT0
0.50 0.50 0.50 C 1.000 UL
LTa
0.50 0.50 0.50 C 1325 280 M
0 4591 V
stroke
LT0
0.50 0.50 0.50 C 1325 280 M
0 63 V
0 4528 R
0 -63 V
0 -4668 R
( 2.12132) Cshow
1.000 UL
LT0
0.50 0.50 0.50 C 1.000 UL
LTa
0.50 0.50 0.50 C 1444 280 M
0 4591 V
stroke
LT0
0.50 0.50 0.50 C 1444 280 M
0 63 V
0 4528 R
0 -63 V
0 -4668 R
( 2.82842) Cshow
1.000 UL
LT0
0.50 0.50 0.50 C 1.000 UL
LTa
0.50 0.50 0.50 C 1564 280 M
0 4591 V
stroke
LT0
0.50 0.50 0.50 C 1564 280 M
0 63 V
0 4528 R
0 -63 V
0 -4668 R
( 3.53553) Cshow
1.000 UL
LT0
0.50 0.50 0.50 C 1.000 UL
LTa
0.50 0.50 0.50 C 1684 280 M
0 4591 V
stroke
LT0
0.50 0.50 0.50 C 1684 280 M
0 63 V
0 4528 R
0 -63 V
0 -4668 R
( 4.24264) Cshow
1.000 UL
LT0
0.50 0.50 0.50 C 1.000 UL
LTa
0.50 0.50 0.50 C 1803 280 M
0 4591 V
stroke
LT0
0.50 0.50 0.50 C 1803 280 M
0 63 V
0 4528 R
0 -63 V
0 -4668 R
( 4.94974) Cshow
1.000 UL
LT0
0.50 0.50 0.50 C 1.000 UL
LTa
0.50 0.50 0.50 C 1923 280 M
0 4591 V
stroke
LT0
0.50 0.50 0.50 C 1923 280 M
0 63 V
0 4528 R
0 -63 V
0 -4668 R
( 5.65685) Cshow
1.000 UL
LT0
0.50 0.50 0.50 C 1.000 UL
LTa
0.50 0.50 0.50 C 2043 280 M
0 4591 V
stroke
LT0
0.50 0.50 0.50 C 2043 280 M
0 63 V
0 4528 R
0 -63 V
0 -4668 R
( 6.36395) Cshow
1.000 UL
LT0
0.50 0.50 0.50 C 1.000 UL
LTa
0.50 0.50 0.50 C 2162 280 M
0 4591 V
stroke
LT0
0.50 0.50 0.50 C 2162 280 M
0 63 V
0 4528 R
0 -63 V
0 -4668 R
( 7.07106) Cshow
1.000 UL
LT0
0.50 0.50 0.50 C 1.000 UL
LTa
0.50 0.50 0.50 C 2282 280 M
0 4591 V
stroke
LT0
0.50 0.50 0.50 C 2282 280 M
0 63 V
0 4528 R
0 -63 V
0 -4668 R
( 7.77817) Cshow
1.000 UL
LT0
0.50 0.50 0.50 C 1.000 UL
LTa
0.50 0.50 0.50 C 2401 280 M
0 4591 V
stroke
LT0
0.50 0.50 0.50 C 2401 280 M
0 63 V
0 4528 R
0 -63 V
0 -4668 R
( 8.48527) Cshow
1.000 UL
LT0
0.50 0.50 0.50 C 1.000 UL
LTa
0.50 0.50 0.50 C 2521 280 M
0 4591 V
stroke
LT0
0.50 0.50 0.50 C 2521 280 M
0 63 V
0 4528 R
0 -63 V
0 -4668 R
( 9.19238) Cshow
1.000 UL
LT0
0.50 0.50 0.50 C 1.000 UL
LTa
0.50 0.50 0.50 C 2641 280 M
0 4591 V
stroke
LT0
0.50 0.50 0.50 C 2641 280 M
0 63 V
0 4528 R
0 -63 V
0 -4668 R
( 9.89948) Cshow
1.000 UL
LT0
0.50 0.50 0.50 C 1.000 UL
LTa
0.50 0.50 0.50 C 2760 280 M
0 4591 V
stroke
LT0
0.50 0.50 0.50 C 2760 280 M
0 63 V
0 4528 R
0 -63 V
0 -4668 R
( 10.6066) Cshow
1.000 UL
LT0
0.50 0.50 0.50 C 1.000 UL
LTa
0.50 0.50 0.50 C 2880 280 M
0 4591 V
stroke
LT0
0.50 0.50 0.50 C 2880 280 M
0 63 V
0 4528 R
0 -63 V
0 -4668 R
( 11.3137) Cshow
1.000 UL
LT0
0.50 0.50 0.50 C 1.000 UL
LTa
0.50 0.50 0.50 C 3000 280 M
0 4591 V
stroke
LT0
0.50 0.50 0.50 C 3000 280 M
0 63 V
0 4528 R
0 -63 V
0 -4668 R
( 12.0208) Cshow
1.000 UL
LT0
0.50 0.50 0.50 C 1.000 UL
LTa
0.50 0.50 0.50 C 3119 280 M
0 4591 V
stroke
LT0
0.50 0.50 0.50 C 3119 280 M
0 63 V
0 4528 R
0 -63 V
0 -4668 R
( 12.7279) Cshow
1.000 UL
LT0
0.50 0.50 0.50 C 1.000 UL
LTa
0.50 0.50 0.50 C 3239 280 M
0 4591 V
stroke
LT0
0.50 0.50 0.50 C 3239 280 M
0 63 V
0 4528 R
0 -63 V
0 -4668 R
( 13.435) Cshow
1.000 UL
LT0
0.50 0.50 0.50 C 1.000 UL
LTa
0.50 0.50 0.50 C 3358 280 M
0 4591 V
stroke
LT0
0.50 0.50 0.50 C 3358 280 M
0 63 V
0 4528 R
0 -63 V
0 -4668 R
( 14.1421) Cshow
1.000 UL
LT0
0.50 0.50 0.50 C 1.000 UL
LTa
0.50 0.50 0.50 C 3478 280 M
0 4591 V
stroke
LT0
0.50 0.50 0.50 C 3478 280 M
0 63 V
0 4528 R
0 -63 V
0 -4668 R
( 14.8492) Cshow
1.000 UL
LT0
0.50 0.50 0.50 C 1.000 UL
LTa
0.50 0.50 0.50 C 3598 280 M
0 4591 V
stroke
LT0
0.50 0.50 0.50 C 3598 280 M
0 63 V
0 4528 R
0 -63 V
0 -4668 R
( 15.5563) Cshow
1.000 UL
LT0
0.50 0.50 0.50 C 1.000 UL
LTa
0.50 0.50 0.50 C 3717 280 M
0 4591 V
stroke
LT0
0.50 0.50 0.50 C 3717 280 M
0 63 V
0 4528 R
0 -63 V
0 -4668 R
( 16.2634) Cshow
1.000 UL
LT0
0.50 0.50 0.50 C 1.000 UL
LTa
0.50 0.50 0.50 C 3837 280 M
0 4591 V
stroke
LT0
0.50 0.50 0.50 C 3837 280 M
0 63 V
0 4528 R
0 -63 V
0 -4668 R
( 16.9705) Cshow
1.000 UL
LT0
0.50 0.50 0.50 C 1.000 UL
LTa
0.50 0.50 0.50 C 3956 280 M
0 4591 V
stroke
LT0
0.50 0.50 0.50 C 3956 280 M
0 63 V
0 4528 R
0 -63 V
0 -4668 R
( 17.6776) Cshow
1.000 UL
LT0
0.50 0.50 0.50 C 1.000 UL
LTa
0.50 0.50 0.50 C 4076 280 M
0 4591 V
stroke
LT0
0.50 0.50 0.50 C 4076 280 M
0 63 V
0 4528 R
0 -63 V
0 -4668 R
( 18.3848) Cshow
1.000 UL
LT0
0.50 0.50 0.50 C 1.000 UL
LTa
0.50 0.50 0.50 C 4196 280 M
0 4591 V
stroke
LT0
0.50 0.50 0.50 C 4196 280 M
0 63 V
0 4528 R
0 -63 V
0 -4668 R
( 19.0919) Cshow
1.000 UL
LT0
0.50 0.50 0.50 C 1.000 UL
LTa
0.50 0.50 0.50 C 4315 280 M
0 4591 V
stroke
LT0
0.50 0.50 0.50 C 4315 280 M
0 63 V
0 4528 R
0 -63 V
0 -4668 R
( 19.799) Cshow
1.000 UL
LT0
0.50 0.50 0.50 C 1.000 UL
LTa
0.50 0.50 0.50 C 4435 280 M
0 4591 V
stroke
LT0
0.50 0.50 0.50 C 4435 280 M
0 63 V
0 4528 R
0 -63 V
0 -4668 R
( 20.5061) Cshow
1.000 UL
LT0
0.50 0.50 0.50 C 1.000 UL
LTa
0.50 0.50 0.50 C 4555 280 M
0 4591 V
stroke
LT0
0.50 0.50 0.50 C 4555 280 M
0 63 V
0 4528 R
0 -63 V
0 -4668 R
( 21.2132) Cshow
1.000 UL
LT0
0.50 0.50 0.50 C 1.000 UL
LTa
0.50 0.50 0.50 C 4674 280 M
0 4591 V
stroke
LT0
0.50 0.50 0.50 C 4674 280 M
0 63 V
0 4528 R
0 -63 V
0 -4668 R
( 21.9203) Cshow
1.000 UL
LT0
0.50 0.50 0.50 C 1.000 UL
LTa
0.50 0.50 0.50 C 4794 280 M
0 4591 V
stroke
LT0
0.50 0.50 0.50 C 4794 280 M
0 63 V
0 4528 R
0 -63 V
0 -4668 R
( 22.6274) Cshow
1.000 UL
LT0
0.50 0.50 0.50 C 1.000 UL
LTa
0.50 0.50 0.50 C 4913 280 M
0 4591 V
stroke
LT0
0.50 0.50 0.50 C 4913 280 M
0 63 V
0 4528 R
0 -63 V
0 -4668 R
( 23.3345) Cshow
1.000 UL
LT0
0.50 0.50 0.50 C 1.000 UL
LTa
0.50 0.50 0.50 C 5033 280 M
0 4591 V
stroke
LT0
0.50 0.50 0.50 C 5033 280 M
0 63 V
0 4528 R
0 -63 V
0 -4668 R
( 24.0416) Cshow
1.000 UL
LT0
0.50 0.50 0.50 C 1.000 UL
LTa
0.50 0.50 0.50 C 5153 280 M
0 4591 V
stroke
LT0
0.50 0.50 0.50 C 5153 280 M
0 63 V
0 4528 R
0 -63 V
0 -4668 R
( 24.7487) Cshow
1.000 UL
LT0
0.50 0.50 0.50 C 1.000 UL
LTa
0.50 0.50 0.50 C 5272 280 M
0 4591 V
stroke
LT0
0.50 0.50 0.50 C 5272 280 M
0 63 V
0 4528 R
0 -63 V
0 -4668 R
( 25.4558) Cshow
1.000 UL
LT0
0.50 0.50 0.50 C 1.000 UL
LTa
0.50 0.50 0.50 C 5392 280 M
0 4591 V
stroke
LT0
0.50 0.50 0.50 C 5392 280 M
0 63 V
0 4528 R
0 -63 V
0 -4668 R
( 26.1629) Cshow
1.000 UL
LT0
0.50 0.50 0.50 C 1.000 UL
LTa
0.50 0.50 0.50 C 5512 280 M
0 4591 V
stroke
LT0
0.50 0.50 0.50 C 5512 280 M
0 63 V
0 4528 R
0 -63 V
0 -4668 R
( 26.87) Cshow
1.000 UL
LT0
0.50 0.50 0.50 C 1.000 UL
LTa
0.50 0.50 0.50 C 5631 280 M
0 4591 V
stroke
LT0
0.50 0.50 0.50 C 5631 280 M
0 63 V
0 4528 R
0 -63 V
0 -4668 R
( 27.5771) Cshow
1.000 UL
LT0
0.50 0.50 0.50 C 1.000 UL
LTa
0.50 0.50 0.50 C 5751 280 M
0 4591 V
stroke
LT0
0.50 0.50 0.50 C 5751 280 M
0 63 V
0 4528 R
0 -63 V
0 -4668 R
( 28.2842) Cshow
1.000 UL
LT0
0.50 0.50 0.50 C 1.000 UL
LTa
0.50 0.50 0.50 C 5870 280 M
0 4591 V
stroke
LT0
0.50 0.50 0.50 C 5870 280 M
0 63 V
0 4528 R
0 -63 V
0 -4668 R
( 28.9913) Cshow
1.000 UL
LT0
0.50 0.50 0.50 C 1.000 UL
LTa
0.50 0.50 0.50 C 5990 280 M
0 4591 V
stroke
LT0
0.50 0.50 0.50 C 5990 280 M
0 63 V
0 4528 R
0 -63 V
0 -4668 R
( 29.6985) Cshow
1.000 UL
LT0
0.50 0.50 0.50 C 1.000 UL
LTa
0.50 0.50 0.50 C 6110 280 M
0 4591 V
stroke
LT0
0.50 0.50 0.50 C 6110 280 M
0 63 V
0 4528 R
0 -63 V
0 -4668 R
( 30.4056) Cshow
1.000 UL
LT0
0.50 0.50 0.50 C 1.000 UL
LTa
0.50 0.50 0.50 C 6229 280 M
0 4591 V
stroke
LT0
0.50 0.50 0.50 C 6229 280 M
0 63 V
0 4528 R
0 -63 V
0 -4668 R
( 31.1127) Cshow
1.000 UL
LT0
0.50 0.50 0.50 C 1.000 UL
LTa
0.50 0.50 0.50 C 6349 280 M
0 4591 V
stroke
LT0
0.50 0.50 0.50 C 6349 280 M
0 63 V
0 4528 R
0 -63 V
0 -4668 R
( 31.8198) Cshow
1.000 UL
LT0
0.50 0.50 0.50 C 1.000 UL
LTa
0.50 0.50 0.50 C 6469 280 M
0 4591 V
stroke
LT0
0.50 0.50 0.50 C 6469 280 M
0 63 V
0 4528 R
0 -63 V
0 -4668 R
( 32.5269) Cshow
1.000 UL
LT0
0.50 0.50 0.50 C 1.000 UL
LTa
0.50 0.50 0.50 C 6588 280 M
0 4591 V
stroke
LT0
0.50 0.50 0.50 C 6588 280 M
0 63 V
0 4528 R
0 -63 V
0 -4668 R
( 33.234) Cshow
1.000 UL
LT0
0.50 0.50 0.50 C 1.000 UL
LTa
0.50 0.50 0.50 C 6708 280 M
0 4591 V
stroke
LT0
0.50 0.50 0.50 C 6708 280 M
0 63 V
0 4528 R
0 -63 V
0 -4668 R
( 33.9411) Cshow
1.000 UL
LT0
0.50 0.50 0.50 C 1.000 UL
LTa
0.50 0.50 0.50 C 6827 280 M
0 4591 V
stroke
LT0
0.50 0.50 0.50 C 6827 280 M
0 63 V
0 4528 R
0 -63 V
0 -4668 R
( 34.6482) Cshow
1.000 UL
LT0
0.50 0.50 0.50 C 1.000 UL
LTa
0.50 0.50 0.50 C 6947 280 M
0 4591 V
stroke
LT0
0.50 0.50 0.50 C 6947 280 M
0 63 V
0 4528 R
0 -63 V
0 -4668 R
( 35.3553) Cshow
1.000 UL
LT0
0.50 0.50 0.50 C 1.000 UL
LT0
0.50 0.50 0.50 C 966 4871 M
966 280 L
5981 0 V
0 4591 R
-5981 0 R
1.000 UP
stroke
LT0
0.50 0.50 0.50 C % Begin plot #1
1.500 UP
2.000 UL
LT0
0.00 0.00 1.00 C /Helvetica findfont 140 scalefont setfont
/vshift -46 def
966 372 M
120 0 V
0 183 R
119 0 V
0 184 R
120 0 V
119 0 V
0 276 R
120 0 V
120 0 V
119 0 V
120 0 V
120 0 V
119 0 V
120 0 V
0 367 R
119 0 V
120 0 V
120 0 V
119 0 V
0 92 R
120 0 V
120 0 V
0 91 R
119 0 V
0 735 R
120 0 V
119 0 V
120 0 V
120 0 V
0 735 R
119 0 V
120 0 V
120 0 V
0 91 R
119 0 V
120 0 V
119 0 V
120 0 V
120 0 V
0 184 R
119 0 V
0 276 R
120 0 V
119 0 V
0 183 R
120 0 V
120 0 V
119 0 V
120 0 V
120 0 V
119 0 V
120 0 V
119 0 V
0 551 R
120 0 V
120 0 V
119 0 V
0 184 R
120 0 V
120 0 V
0 183 R
119 0 V
120 0 V
0 92 R
119 0 V
1086 372 M
0 92 V
0 91 V
119 0 R
0 92 V
0 92 V
239 0 R
0 92 V
0 92 V
0 92 V
838 0 R
0 91 V
0 92 V
0 92 V
0 92 V
478 0 R
0 92 V
240 0 R
0 91 V
119 0 R
0 92 V
0 92 V
0 92 V
0 92 V
0 92 V
0 91 V
0 92 V
0 92 V
479 0 R
0 92 V
0 92 V
0 92 V
0 91 V
0 92 V
0 92 V
0 92 V
0 92 V
359 0 R
0 91 V
stroke 3957 3126 M
598 0 R
0 92 V
0 92 V
119 0 R
0 92 V
0 92 V
0 92 V
239 0 R
0 91 V
0 92 V
957 0 R
0 92 V
0 92 V
0 92 V
0 91 V
0 92 V
0 92 V
359 0 R
0 92 V
0 92 V
240 0 R
0 92 V
0 91 V
239 0 R
0 92 V
966 280 M
0 92 V
966 372 CircleF
1086 372 CircleF
1086 555 CircleF
1205 555 CircleF
1205 739 CircleF
1325 739 CircleF
1325 739 CircleF
1444 739 CircleF
1444 1015 CircleF
1564 1015 CircleF
1564 1015 CircleF
1684 1015 CircleF
1684 1015 CircleF
1803 1015 CircleF
1803 1015 CircleF
1923 1015 CircleF
1923 1015 CircleF
2043 1015 CircleF
2043 1015 CircleF
2162 1015 CircleF
2162 1015 CircleF
2282 1015 CircleF
2282 1382 CircleF
2401 1382 CircleF
2401 1382 CircleF
2521 1382 CircleF
2521 1382 CircleF
2641 1382 CircleF
2641 1382 CircleF
2760 1382 CircleF
2760 1474 CircleF
2880 1474 CircleF
2880 1474 CircleF
3000 1474 CircleF
3000 1565 CircleF
3119 1565 CircleF
3119 2300 CircleF
3239 2300 CircleF
3239 2300 CircleF
3358 2300 CircleF
3358 2300 CircleF
3478 2300 CircleF
3478 2300 CircleF
3598 2300 CircleF
3598 3035 CircleF
3717 3035 CircleF
3717 3035 CircleF
3837 3035 CircleF
3837 3035 CircleF
3957 3035 CircleF
3957 3126 CircleF
4076 3126 CircleF
4076 3126 CircleF
4196 3126 CircleF
4196 3126 CircleF
4315 3126 CircleF
4315 3126 CircleF
4435 3126 CircleF
4435 3126 CircleF
4555 3126 CircleF
4555 3310 CircleF
4674 3310 CircleF
4674 3586 CircleF
4794 3586 CircleF
4794 3586 CircleF
4913 3586 CircleF
4913 3769 CircleF
5033 3769 CircleF
5033 3769 CircleF
5153 3769 CircleF
5153 3769 CircleF
5272 3769 CircleF
5272 3769 CircleF
5392 3769 CircleF
5392 3769 CircleF
5512 3769 CircleF
5512 3769 CircleF
5631 3769 CircleF
5631 3769 CircleF
5751 3769 CircleF
5751 3769 CircleF
5870 3769 CircleF
5870 4320 CircleF
5990 4320 CircleF
5990 4320 CircleF
6110 4320 CircleF
6110 4320 CircleF
6229 4320 CircleF
6229 4504 CircleF
6349 4504 CircleF
6349 4504 CircleF
6469 4504 CircleF
6469 4687 CircleF
6588 4687 CircleF
6588 4687 CircleF
6708 4687 CircleF
6708 4779 CircleF
6827 4779 CircleF
1086 372 CircleF
1086 464 CircleF
1086 464 CircleF
1086 555 CircleF
1205 555 CircleF
1205 647 CircleF
1205 647 CircleF
1205 739 CircleF
1444 739 CircleF
1444 831 CircleF
1444 831 CircleF
1444 923 CircleF
1444 923 CircleF
1444 1015 CircleF
2282 1015 CircleF
2282 1106 CircleF
2282 1106 CircleF
2282 1198 CircleF
2282 1198 CircleF
2282 1290 CircleF
2282 1290 CircleF
2282 1382 CircleF
2760 1382 CircleF
2760 1474 CircleF
3000 1474 CircleF
3000 1565 CircleF
3119 1565 CircleF
3119 1657 CircleF
3119 1657 CircleF
3119 1749 CircleF
3119 1749 CircleF
3119 1841 CircleF
3119 1841 CircleF
3119 1933 CircleF
3119 1933 CircleF
3119 2025 CircleF
3119 2025 CircleF
3119 2116 CircleF
3119 2116 CircleF
3119 2208 CircleF
3119 2208 CircleF
3119 2300 CircleF
3598 2300 CircleF
3598 2392 CircleF
3598 2392 CircleF
3598 2484 CircleF
3598 2484 CircleF
3598 2576 CircleF
3598 2576 CircleF
3598 2667 CircleF
3598 2667 CircleF
3598 2759 CircleF
3598 2759 CircleF
3598 2851 CircleF
3598 2851 CircleF
3598 2943 CircleF
3598 2943 CircleF
3598 3035 CircleF
3957 3035 CircleF
3957 3126 CircleF
4555 3126 CircleF
4555 3218 CircleF
4555 3218 CircleF
4555 3310 CircleF
4674 3310 CircleF
4674 3402 CircleF
4674 3402 CircleF
4674 3494 CircleF
4674 3494 CircleF
4674 3586 CircleF
4913 3586 CircleF
4913 3677 CircleF
4913 3677 CircleF
4913 3769 CircleF
5870 3769 CircleF
5870 3861 CircleF
5870 3861 CircleF
5870 3953 CircleF
5870 3953 CircleF
5870 4045 CircleF
5870 4045 CircleF
5870 4136 CircleF
5870 4136 CircleF
5870 4228 CircleF
5870 4228 CircleF
5870 4320 CircleF
6229 4320 CircleF
6229 4412 CircleF
6229 4412 CircleF
6229 4504 CircleF
6469 4504 CircleF
6469 4596 CircleF
6469 4596 CircleF
6469 4687 CircleF
6708 4687 CircleF
6708 4779 CircleF
966 280 CircleF
966 372 CircleF
% End plot #1
% Begin plot #2
1.500 UP
2.000 UL
LT0
1.00 0.55 0.00 C /Helvetica findfont 140 scalefont setfont
1180 3797 M
120 92 V
3612 1952 M
119 92 V
5436 532 M
120 92 V
4237 1250 M
119 92 V
1488 1804 M
120 92 V
4424 967 M
120 92 V
3074 1573 M
120 92 V
5615 1183 M
119 91 V
-99 2871 R
120 92 V
5492 1913 M
120 92 V
2580 4569 M
119 92 V
6066 3490 M
120 91 V
2013 2896 M
120 92 V
2379 720 R
120 92 V
89 117 R
119 92 V
1698 583 M
120 91 V
90 3965 R
120 92 V
4485 1027 M
120 92 V
6437 3959 M
120 91 V
2085 940 M
120 92 V
5798 3518 M
120 92 V
-4355 47 R
119 92 V
1388 3649 M
119 91 V
4915 1471 M
120 92 V
144 2195 R
120 92 V
4694 1359 M
120 92 V
2725 3657 M
120 92 V
4698 822 M
120 92 V
1702 1395 M
120 91 V
96 1829 R
119 92 V
1070 1145 M
119 92 V
6125 2919 M
120 92 V
285 1605 R
120 92 V
5343 2578 M
120 92 V
2707 639 M
120 92 V
744 2368 R
120 92 V
2410 168 R
120 92 V
3179 392 M
120 92 V
4682 3243 M
120 92 V
3071 2212 M
120 92 V
1779 2178 M
119 92 V
3392 541 R
120 92 V
1052 3486 M
120 92 V
1272 1690 M
120 92 V
951 68 R
119 92 V
3469 1615 M
120 92 V
5153 3513 M
119 92 V
3802 4462 M
119 92 V
1979 2406 M
119 92 V
6238 1383 M
119 92 V
1252 4315 M
119 92 V
1656 615 M
119 91 V
4956 2066 M
120 92 V
stroke 5076 2158 M
6501 4680 M
120 92 V
5162 1952 M
120 91 V
1584 3965 M
120 92 V
4777 100 R
120 91 V
1032 1016 M
120 92 V
6074 3836 M
119 92 V
4064 3836 M
119 92 V
5342 1111 M
120 91 V
3775 1353 M
120 91 V
2401 4031 M
119 92 V
5079 1299 M
119 92 V
3138 1068 M
120 92 V
3239 694 M
120 92 V
2063 3388 M
119 92 V
93 -2295 R
119 92 V
-859 1 R
120 92 V
4743 4489 M
119 92 V
4131 1714 M
120 92 V
3984 1047 M
120 92 V
5674 3915 M
119 92 V
2763 2365 M
120 92 V
6195 486 M
120 92 V
3542 1792 M
120 92 V
168 1728 R
119 92 V
5355 1814 M
120 92 V
6503 4611 M
120 92 V
6530 1308 M
119 92 V
3678 3680 M
120 92 V
6038 2476 M
120 92 V
2335 2415 M
119 92 V
6006 1544 M
119 92 V
5267 3047 M
119 92 V
2642 2811 M
120 92 V
2185 4461 M
120 92 V
4757 1360 M
120 92 V
-659 874 R
119 91 V
-810 418 R
120 92 V
1517 706 R
120 91 V
10 -946 R
120 92 V
-380 484 R
120 92 V
5479 893 M
119 92 V
4564 1929 M
119 92 V
2368 2935 M
120 92 V
1340 -4 R
120 92 V
2927 2795 M
120 91 V
1897 2528 M
120 91 V
992 2922 M
119 92 V
2312 1910 M
120 92 V
2476 974 R
119 91 V
2032 3592 M
119 91 V
3890 2255 M
120 92 V
1456 1233 M
120 92 V
stroke 1576 1325 M
3483 624 R
120 92 V
3537 2610 M
119 92 V
-1425 2 R
119 92 V
512 -888 R
120 91 V
4847 3636 M
120 92 V
3902 2389 M
120 92 V
6653 633 M
120 92 V
3708 1298 M
120 92 V
5117 3116 M
120 92 V
3007 4252 M
119 92 V
2828 2817 M
120 91 V
5499 4456 M
119 92 V
3128 3879 M
120 92 V
6262 3850 M
120 92 V
1745 2907 M
120 92 V
6144 4262 M
119 91 V
2364 4516 M
119 91 V
6138 449 M
120 91 V
1063 3544 M
119 92 V
4907 535 M
119 92 V
3594 3716 M
119 92 V
930 -175 R
120 92 V
3576 4398 M
120 92 V
4335 2024 M
119 92 V
148 1993 R
120 92 V
5636 1185 M
120 92 V
-615 173 R
120 92 V
5218 662 M
119 92 V
4726 364 M
119 92 V
6152 3570 M
119 92 V
1171 4089 M
120 92 V
5205 969 M
119 92 V
5047 2454 M
119 91 V
384 -884 R
119 92 V
510 921 R
120 92 V
2424 2503 M
119 92 V
4591 1072 M
119 92 V
6326 3332 M
120 91 V
2180 1747 M
120 92 V
1872 937 M
120 91 V
4427 3501 M
120 92 V
1165 2227 M
120 92 V
5928 3376 M
120 92 V
4407 3361 M
119 92 V
1483 3130 M
120 92 V
3271 451 M
120 92 V
4893 752 M
120 92 V
-224 48 R
120 92 V
354 3155 R
119 91 V
1377 1156 M
120 91 V
6456 938 M
119 92 V
5320 2885 M
120 92 V
stroke 5440 2977 M
2474 4348 M
120 91 V
1920 124 R
120 91 V
995 2206 M
119 92 V
2120 4328 M
119 92 V
1469 165 R
120 92 V
6426 1655 M
119 92 V
2405 2452 M
120 92 V
1249 356 M
120 91 V
828 663 R
120 92 V
2980 134 R
120 92 V
1982 4598 M
120 92 V
3670 3015 M
120 92 V
1138 3887 M
120 92 V
3844 1316 M
120 92 V
3816 571 M
120 92 V
1396 4634 M
119 92 V
668 -182 R
119 91 V
5238 802 M
120 91 V
6546 455 M
120 92 V
-847 953 R
119 91 V
4871 3053 M
119 92 V
457 -918 R
120 92 V
4890 359 M
119 92 V
3016 3144 M
120 92 V
1562 3130 M
119 92 V
524 -419 R
119 92 V
-878 795 R
120 91 V
5 -1042 R
120 92 V
-524 -55 R
119 92 V
4831 4573 M
120 92 V
4381 3063 M
119 92 V
2333 1605 M
120 91 V
1792 1525 M
120 92 V
4665 4037 M
119 92 V
4711 1907 M
119 92 V
3000 1679 M
120 92 V
4770 4412 M
120 92 V
6268 1811 M
119 92 V
5663 4476 M
120 92 V
4080 1958 M
120 91 V
-696 265 R
120 92 V
1262 1207 M
120 92 V
3583 3927 M
120 92 V
1106 3742 M
120 91 V
3210 92 R
120 92 V
-2489 28 R
120 92 V
3672 2221 M
119 92 V
5616 4087 M
119 91 V
2860 2367 M
119 92 V
1686 1069 M
120 91 V
630 2928 R
120 92 V
5033 1205 M
120 92 V
stroke 5153 1297 M
476 -110 R
120 92 V
4505 780 M
120 92 V
1817 3928 M
120 92 V
6372 3318 M
119 92 V
4056 1332 M
120 92 V
-179 782 R
119 92 V
3420 1031 M
120 92 V
5325 469 M
119 92 V
1526 3782 M
120 92 V
4363 689 R
119 91 V
5932 1395 M
119 92 V
1469 3752 M
120 92 V
2575 2539 M
119 92 V
4509 1335 M
119 92 V
3541 3878 M
120 92 V
-142 131 R
120 92 V
5444 1050 M
120 92 V
3973 4501 M
120 92 V
2386 913 M
119 92 V
837 2846 R
119 92 V
6384 955 M
120 92 V
5987 3672 M
120 92 V
6009 2071 M
119 91 V
3512 2787 M
120 92 V
5235 940 M
119 92 V
3547 4522 M
120 92 V
5278 1107 M
120 92 V
2683 1351 M
119 91 V
2611 718 M
120 92 V
2436 513 M
120 92 V
3562 2286 M
119 91 V
1670 3866 M
119 92 V
4777 1188 M
119 92 V
641 2929 R
120 92 V
2181 3927 M
120 91 V
1060 3676 M
120 92 V
4892 1864 M
119 91 V
1160 3201 M
119 91 V
3843 702 M
119 92 V
5945 4230 M
119 92 V
2862 3806 M
120 92 V
3473 2782 M
119 92 V
2112 565 R
120 91 V
-4646 34 R
119 91 V
6384 2309 M
120 92 V
5346 1524 M
119 92 V
4804 504 M
119 91 V
3351 2387 M
119 92 V
2091 3399 M
120 92 V
1762 3356 M
120 92 V
3188 987 M
120 92 V
6209 4658 M
120 91 V
stroke 6329 4749 M
4638 4036 M
119 92 V
1493 1833 M
120 92 V
374 800 R
120 92 V
3581 1035 M
120 92 V
-428 510 R
120 92 V
2325 4154 M
120 92 V
6420 2995 M
120 92 V
4311 2789 M
120 92 V
3174 920 M
119 92 V
1419 967 M
120 92 V
3975 756 R
119 92 V
311 2171 R
119 92 V
2193 4477 M
120 92 V
5522 1413 M
119 92 V
4432 2553 M
120 92 V
5747 1706 M
119 92 V
3608 2390 M
119 92 V
2959 758 R
120 92 V
4887 3595 M
119 92 V
3147 4101 M
119 92 V
1311 1130 M
120 91 V
4215 3085 M
120 92 V
3878 1475 M
120 92 V
6001 3613 M
119 92 V
1142 3237 M
120 91 V
2641 194 R
120 92 V
3171 2771 M
120 92 V
2482 846 R
120 92 V
1247 2740 M
120 91 V
1413 791 M
120 92 V
5562 2213 M
120 92 V
1887 536 M
120 91 V
1371 961 R
120 92 V
6610 2721 M
120 92 V
1939 2638 M
119 92 V
1733 1067 M
120 92 V
2014 889 R
120 92 V
6127 416 M
120 92 V
5820 4439 M
120 92 V
3563 2997 M
120 92 V
763 461 R
119 92 V
3033 301 M
119 92 V
460 647 R
120 92 V
1458 1322 M
120 92 V
2774 1136 M
120 92 V
1750 230 R
120 92 V
3888 4522 M
120 92 V
3892 3010 M
120 91 V
1543 1891 M
119 92 V
933 2429 R
120 92 V
1555 3340 M
119 92 V
6338 2478 M
119 92 V
stroke 6457 2570 M
3521 3651 M
119 92 V
5621 907 M
120 92 V
4517 2979 M
120 92 V
1178 4607 M
119 92 V
6488 2578 M
120 91 V
6302 2445 M
119 92 V
2021 943 M
120 92 V
-756 102 R
120 92 V
4733 3125 M
120 92 V
3745 2041 M
119 92 V
2076 1932 M
120 92 V
745 -589 R
120 92 V
831 -473 R
120 92 V
1365 1616 M
120 92 V
1267 713 M
120 92 V
494 2647 R
120 92 V
6692 1363 M
120 92 V
2604 4069 M
120 92 V
6509 3899 M
119 92 V
1387 3684 M
119 92 V
528 -753 R
120 92 V
1909 2363 M
120 92 V
2167 1290 M
120 92 V
756 2371 R
120 92 V
3033 2172 M
119 92 V
5602 3339 M
120 91 V
2985 2334 M
119 91 V
2248 3806 M
119 92 V
3796 551 R
119 91 V
3160 1814 M
120 92 V
1216 656 R
120 92 V
2244 358 M
120 92 V
1901 3532 M
120 92 V
4622 2010 M
120 91 V
2831 734 M
120 92 V
4545 3278 M
119 91 V
5705 2670 M
120 91 V
2009 2943 M
119 91 V
524 1455 R
119 91 V
1754 2495 M
120 92 V
1119 2117 M
119 91 V
4205 3628 M
120 92 V
5795 1360 M
119 92 V
-79 1170 R
120 91 V
5116 1579 M
119 92 V
5306 411 M
119 92 V
466 1216 R
120 92 V
5827 3715 M
119 92 V
5644 2688 M
120 91 V
1737 1347 M
119 92 V
3119 851 M
119 92 V
-7 -400 R
120 92 V
stroke 3351 635 M
2705 2878 M
120 92 V
1236 2264 M
120 92 V
6485 1808 M
120 92 V
3830 1452 M
120 91 V
5978 4544 M
120 92 V
3932 1933 M
120 92 V
-29 1012 R
120 92 V
3046 3721 M
120 92 V
6187 530 M
119 91 V
299 3648 R
119 92 V
5765 3237 M
120 92 V
3034 4495 M
120 92 V
5194 2496 M
120 92 V
2011 942 M
120 92 V
4763 305 M
119 92 V
2911 646 M
120 92 V
994 3900 R
120 92 V
5011 839 M
120 92 V
6172 479 M
120 92 V
5355 1870 M
120 91 V
4006 460 M
119 92 V
1814 1096 M
119 92 V
815 2598 R
120 92 V
6299 1344 M
120 91 V
4997 1266 M
120 92 V
2428 839 M
119 92 V
4512 376 M
119 92 V
2616 948 M
120 92 V
4713 2697 M
120 92 V
22 1468 R
120 92 V
3211 1383 M
120 92 V
1146 4623 M
120 92 V
2390 1937 M
120 92 V
3761 3902 M
120 92 V
5746 3700 M
120 92 V
3825 1440 M
120 92 V
2857 4169 M
119 92 V
1841 190 R
119 91 V
5891 892 M
120 92 V
5151 3741 M
120 92 V
6498 1731 M
120 92 V
3421 2279 M
119 92 V
4956 683 M
120 92 V
3109 1650 M
119 92 V
187 332 R
119 91 V
440 1163 R
119 92 V
2889 3755 M
119 92 V
5493 2883 M
120 92 V
1312 3846 M
120 91 V
63 -1588 R
120 92 V
3021 911 R
120 92 V
2305 1052 M
120 92 V
stroke 2425 1144 M
5431 2784 M
120 92 V
4497 3220 M
119 92 V
4733 1927 M
120 92 V
-1035 58 R
119 91 V
1450 4569 M
120 92 V
5955 1158 M
119 91 V
5130 2725 M
119 91 V
1122 2789 M
120 92 V
3911 2273 M
119 92 V
837 927 R
120 92 V
2367 3110 M
119 92 V
3890 654 M
119 92 V
5752 4164 M
119 92 V
1155 4605 M
120 91 V
1750 1591 M
120 92 V
4204 3374 M
119 92 V
3961 4588 M
120 92 V
5171 1239 M
119 91 V
-68 1290 R
119 92 V
5622 1516 M
119 91 V
4454 4216 M
120 92 V
-2793 99 R
120 92 V
698 -34 R
119 92 V
6109 1278 M
120 92 V
2889 2497 M
120 91 V
5397 494 M
120 92 V
4093 843 M
120 92 V
3729 2632 M
119 91 V
4025 988 M
120 92 V
3297 4578 M
119 92 V
2817 925 M
119 92 V
-92 1500 R
120 91 V
1411 585 M
119 92 V
4824 812 R
119 92 V
2191 3037 M
120 92 V
1924 1656 M
120 92 V
1495 10 R
119 92 V
2772 1682 M
119 91 V
1175 408 R
120 92 V
-332 950 R
120 92 V
6527 1248 M
119 91 V
4183 2675 M
119 92 V
1571 334 M
120 92 V
6008 2666 M
119 91 V
6014 748 M
120 92 V
5876 4318 M
119 91 V
2025 948 M
119 92 V
1130 2198 M
120 92 V
4020 736 M
119 91 V
-546 737 R
119 92 V
2719 889 M
120 92 V
6613 789 M
120 92 V
stroke 6733 881 M
1062 1658 M
120 92 V
2416 493 R
120 92 V
1897 4052 M
120 92 V
4424 849 M
120 92 V
1489 3873 M
120 92 V
6441 3853 M
120 92 V
3194 4136 M
120 92 V
1188 -76 R
119 92 V
2934 2292 M
119 91 V
2770 1466 M
120 91 V
2254 2694 M
120 92 V
5770 1178 M
119 91 V
379 1486 R
120 92 V
89 -585 R
119 91 V
2981 1314 M
119 91 V
3211 378 M
120 92 V
772 2758 R
120 92 V
1068 3232 M
120 91 V
6088 853 M
119 91 V
3436 3788 M
120 92 V
2607 2689 M
119 92 V
4491 4141 M
119 92 V
3134 1550 M
120 91 V
657 976 R
120 92 V
-570 158 R
119 92 V
-41 -661 R
119 92 V
4513 413 M
120 91 V
-812 539 R
119 91 V
5424 3902 M
119 92 V
267 31 R
119 92 V
4610 2854 M
120 91 V
6322 4502 M
119 92 V
5918 760 M
120 92 V
4571 1389 M
120 92 V
2782 2943 M
120 92 V
1722 4565 M
120 91 V
4687 3549 M
120 92 V
978 4347 M
120 92 V
5783 1858 M
120 91 V
5727 3348 M
120 92 V
2194 3875 M
120 92 V
6086 1061 M
119 92 V
2017 3165 M
120 92 V
3098 1973 M
120 92 V
6212 4168 M
119 92 V
6194 2394 M
120 92 V
6136 283 M
119 92 V
6134 3972 M
120 92 V
992 3359 M
119 92 V
1232 452 R
120 92 V
2573 1952 M
119 91 V
5393 1347 M
120 92 V
stroke 5513 1439 M
4290 4608 M
119 92 V
3424 2861 M
120 91 V
209 580 R
119 92 V
1319 1365 M
120 91 V
476 3051 R
120 91 V
5409 3121 M
120 92 V
5358 1598 M
120 91 V
4872 3563 M
120 92 V
3582 4073 M
120 92 V
2930 1702 M
120 92 V
-1916 87 R
119 92 V
1115 3552 M
119 92 V
2270 3389 M
120 92 V
4384 1479 M
119 92 V
1916 3610 M
120 92 V
4218 1872 M
119 92 V
32 1023 R
119 92 V
1100 1773 M
119 92 V
2238 4172 M
120 92 V
6470 1472 M
120 92 V
4639 3380 M
119 92 V
5455 1817 M
120 92 V
4333 2609 M
119 92 V
3327 1765 M
120 91 V
1556 1476 M
119 92 V
1655 950 M
119 91 V
665 3504 R
120 92 V
1334 2171 M
120 92 V
1231 1079 M
119 92 V
3822 4440 M
119 92 V
1837 3889 M
120 92 V
3372 3351 M
119 92 V
3877 1011 M
120 91 V
5786 3360 M
119 92 V
4790 2120 M
119 92 V
429 540 R
119 92 V
1868 521 M
120 91 V
1705 1857 M
120 92 V
-293 323 R
119 91 V
4952 3904 M
119 92 V
3702 2354 M
120 92 V
5014 4378 M
119 91 V
1107 4166 M
119 92 V
46 -639 R
119 91 V
1291 188 R
119 92 V
697 -549 R
119 92 V
1857 3984 M
119 92 V
2686 2805 M
120 92 V
6455 4223 M
120 92 V
4827 4646 M
120 92 V
1786 4430 M
119 92 V
5749 964 M
119 92 V
stroke 5868 1056 M
5815 596 M
119 91 V
5062 4394 M
120 91 V
5560 1427 M
120 92 V
4564 3676 M
120 91 V
6439 1129 M
120 92 V
6350 4191 M
120 92 V
4421 1060 M
119 91 V
1291 81 R
119 92 V
1205 1484 M
120 92 V
3635 2682 M
119 92 V
6554 851 M
120 92 V
2314 4168 M
119 92 V
990 3373 M
120 92 V
6385 1288 M
119 92 V
2842 2101 M
119 92 V
1346 4392 M
120 92 V
5553 3550 M
120 92 V
2365 908 M
120 92 V
2497 970 R
120 92 V
3040 3880 M
120 92 V
3918 1769 M
120 91 V
-937 -86 R
119 92 V
3310 846 R
120 91 V
2978 656 M
119 91 V
3504 410 R
119 91 V
1143 2874 M
119 92 V
4564 927 R
120 92 V
4405 1059 M
119 92 V
5478 550 M
120 92 V
236 265 R
120 92 V
4251 1603 M
119 91 V
1089 775 R
119 92 V
1288 3945 M
120 92 V
3564 2278 M
120 92 V
-286 374 R
119 92 V
5902 2365 M
120 92 V
5483 4269 M
120 91 V
6526 2914 M
119 92 V
5535 400 M
120 92 V
4911 2863 M
120 92 V
2158 3524 M
119 91 V
42 403 R
120 92 V
1622 7 R
119 92 V
2447 1398 M
120 91 V
3695 4458 M
120 91 V
4159 602 M
120 92 V
64 461 R
120 92 V
3012 2877 M
119 92 V
2029 3396 M
120 92 V
2161 948 R
119 92 V
6126 2408 M
120 92 V
2525 1687 M
120 92 V
stroke 2645 1779 M
3240 184 R
120 92 V
1163 4025 M
120 92 V
3744 2870 M
120 92 V
6174 4038 M
119 92 V
3103 1723 M
120 92 V
6616 1033 M
120 92 V
-511 49 R
120 91 V
2572 3717 M
120 92 V
2596 2343 M
120 91 V
2209 229 R
119 92 V
3539 4681 M
119 92 V
4657 2539 M
119 92 V
3402 1744 M
120 91 V
1734 3828 M
120 92 V
5874 3291 M
120 92 V
1104 535 M
119 92 V
5410 2647 M
120 92 V
2158 2039 M
119 92 V
6170 1446 M
119 92 V
1713 754 M
119 92 V
5525 966 M
120 92 V
6520 347 M
120 92 V
2955 3234 M
120 92 V
4754 2786 M
120 91 V
3911 1072 M
120 92 V
1180 3797 CircleF
1300 3889 CircleF
3612 1952 CircleF
3731 2044 CircleF
5436 532 CircleF
5556 624 CircleF
4237 1250 CircleF
4356 1342 CircleF
1488 1804 CircleF
1608 1896 CircleF
4424 967 CircleF
4544 1059 CircleF
3074 1573 CircleF
3194 1665 CircleF
5615 1183 CircleF
5734 1274 CircleF
5635 4145 CircleF
5755 4237 CircleF
5492 1913 CircleF
5612 2005 CircleF
2580 4569 CircleF
2699 4661 CircleF
6066 3490 CircleF
6186 3581 CircleF
2013 2896 CircleF
2133 2988 CircleF
4512 3708 CircleF
4632 3800 CircleF
4721 3917 CircleF
4840 4009 CircleF
1698 583 CircleF
1818 674 CircleF
1908 4639 CircleF
2028 4731 CircleF
4485 1027 CircleF
4605 1119 CircleF
6437 3959 CircleF
6557 4050 CircleF
2085 940 CircleF
2205 1032 CircleF
5798 3518 CircleF
5918 3610 CircleF
1563 3657 CircleF
1682 3749 CircleF
1388 3649 CircleF
1507 3740 CircleF
4915 1471 CircleF
5035 1563 CircleF
5179 3758 CircleF
5299 3850 CircleF
4694 1359 CircleF
4814 1451 CircleF
2725 3657 CircleF
2845 3749 CircleF
4698 822 CircleF
4818 914 CircleF
1702 1395 CircleF
1822 1486 CircleF
1918 3315 CircleF
2037 3407 CircleF
1070 1145 CircleF
1189 1237 CircleF
6125 2919 CircleF
6245 3011 CircleF
6530 4616 CircleF
6650 4708 CircleF
5343 2578 CircleF
5463 2670 CircleF
2707 639 CircleF
2827 731 CircleF
3571 3099 CircleF
3691 3191 CircleF
6101 3359 CircleF
6221 3451 CircleF
3179 392 CircleF
3299 484 CircleF
4682 3243 CircleF
4802 3335 CircleF
3071 2212 CircleF
3191 2304 CircleF
1779 2178 CircleF
1898 2270 CircleF
5290 2811 CircleF
5410 2903 CircleF
1052 3486 CircleF
1172 3578 CircleF
1272 1690 CircleF
1392 1782 CircleF
2343 1850 CircleF
2462 1942 CircleF
3469 1615 CircleF
3589 1707 CircleF
5153 3513 CircleF
5272 3605 CircleF
3802 4462 CircleF
3921 4554 CircleF
1979 2406 CircleF
2098 2498 CircleF
6238 1383 CircleF
6357 1475 CircleF
1252 4315 CircleF
1371 4407 CircleF
1656 615 CircleF
1775 706 CircleF
4956 2066 CircleF
5076 2158 CircleF
6501 4680 CircleF
6621 4772 CircleF
5162 1952 CircleF
5282 2043 CircleF
1584 3965 CircleF
1704 4057 CircleF
6481 4157 CircleF
6601 4248 CircleF
1032 1016 CircleF
1152 1108 CircleF
6074 3836 CircleF
6193 3928 CircleF
4064 3836 CircleF
4183 3928 CircleF
5342 1111 CircleF
5462 1202 CircleF
3775 1353 CircleF
3895 1444 CircleF
2401 4031 CircleF
2520 4123 CircleF
5079 1299 CircleF
5198 1391 CircleF
3138 1068 CircleF
3258 1160 CircleF
3239 694 CircleF
3359 786 CircleF
2063 3388 CircleF
2182 3480 CircleF
2275 1185 CircleF
2394 1277 CircleF
1535 1278 CircleF
1655 1370 CircleF
4743 4489 CircleF
4862 4581 CircleF
4131 1714 CircleF
4251 1806 CircleF
3984 1047 CircleF
4104 1139 CircleF
5674 3915 CircleF
5793 4007 CircleF
2763 2365 CircleF
2883 2457 CircleF
6195 486 CircleF
6315 578 CircleF
3542 1792 CircleF
3662 1884 CircleF
3830 3612 CircleF
3949 3704 CircleF
5355 1814 CircleF
5475 1906 CircleF
6503 4611 CircleF
6623 4703 CircleF
6530 1308 CircleF
6649 1400 CircleF
3678 3680 CircleF
3798 3772 CircleF
6038 2476 CircleF
6158 2568 CircleF
2335 2415 CircleF
2454 2507 CircleF
6006 1544 CircleF
6125 1636 CircleF
5267 3047 CircleF
5386 3139 CircleF
2642 2811 CircleF
2762 2903 CircleF
2185 4461 CircleF
2305 4553 CircleF
4757 1360 CircleF
4877 1452 CircleF
4218 2326 CircleF
4337 2417 CircleF
3527 2835 CircleF
3647 2927 CircleF
5164 3633 CircleF
5284 3724 CircleF
5294 2778 CircleF
5414 2870 CircleF
5034 3354 CircleF
5154 3446 CircleF
5479 893 CircleF
5598 985 CircleF
4564 1929 CircleF
4683 2021 CircleF
2368 2935 CircleF
2488 3027 CircleF
3828 3023 CircleF
3948 3115 CircleF
2927 2795 CircleF
3047 2886 CircleF
1897 2528 CircleF
2017 2619 CircleF
992 2922 CircleF
1111 3014 CircleF
2312 1910 CircleF
2432 2002 CircleF
4908 2976 CircleF
5027 3067 CircleF
2032 3592 CircleF
2151 3683 CircleF
3890 2255 CircleF
4010 2347 CircleF
1456 1233 CircleF
1576 1325 CircleF
5059 1949 CircleF
5179 2041 CircleF
3537 2610 CircleF
3656 2702 CircleF
2231 2704 CircleF
2350 2796 CircleF
2862 1908 CircleF
2982 1999 CircleF
4847 3636 CircleF
4967 3728 CircleF
3902 2389 CircleF
4022 2481 CircleF
6653 633 CircleF
6773 725 CircleF
3708 1298 CircleF
3828 1390 CircleF
5117 3116 CircleF
5237 3208 CircleF
3007 4252 CircleF
3126 4344 CircleF
2828 2817 CircleF
2948 2908 CircleF
5499 4456 CircleF
5618 4548 CircleF
3128 3879 CircleF
3248 3971 CircleF
6262 3850 CircleF
6382 3942 CircleF
1745 2907 CircleF
1865 2999 CircleF
6144 4262 CircleF
6263 4353 CircleF
2364 4516 CircleF
2483 4607 CircleF
6138 449 CircleF
6258 540 CircleF
1063 3544 CircleF
1182 3636 CircleF
4907 535 CircleF
5026 627 CircleF
3594 3716 CircleF
3713 3808 CircleF
4643 3633 CircleF
4763 3725 CircleF
3576 4398 CircleF
3696 4490 CircleF
4335 2024 CircleF
4454 2116 CircleF
4602 4109 CircleF
4722 4201 CircleF
5636 1185 CircleF
5756 1277 CircleF
5141 1450 CircleF
5261 1542 CircleF
5218 662 CircleF
5337 754 CircleF
4726 364 CircleF
4845 456 CircleF
6152 3570 CircleF
6271 3662 CircleF
1171 4089 CircleF
1291 4181 CircleF
5205 969 CircleF
5324 1061 CircleF
5047 2454 CircleF
5166 2545 CircleF
5550 1661 CircleF
5669 1753 CircleF
6179 2674 CircleF
6299 2766 CircleF
2424 2503 CircleF
2543 2595 CircleF
4591 1072 CircleF
4710 1164 CircleF
6326 3332 CircleF
6446 3423 CircleF
2180 1747 CircleF
2300 1839 CircleF
1872 937 CircleF
1992 1028 CircleF
4427 3501 CircleF
4547 3593 CircleF
1165 2227 CircleF
1285 2319 CircleF
5928 3376 CircleF
6048 3468 CircleF
4407 3361 CircleF
4526 3453 CircleF
1483 3130 CircleF
1603 3222 CircleF
3271 451 CircleF
3391 543 CircleF
4893 752 CircleF
5013 844 CircleF
4789 892 CircleF
4909 984 CircleF
5263 4139 CircleF
5382 4230 CircleF
1377 1156 CircleF
1497 1247 CircleF
6456 938 CircleF
6575 1030 CircleF
5320 2885 CircleF
5440 2977 CircleF
2474 4348 CircleF
2594 4439 CircleF
4514 4563 CircleF
4634 4654 CircleF
995 2206 CircleF
1114 2298 CircleF
2120 4328 CircleF
2239 4420 CircleF
3708 4585 CircleF
3828 4677 CircleF
6426 1655 CircleF
6545 1747 CircleF
2405 2452 CircleF
2525 2544 CircleF
1249 356 CircleF
1369 447 CircleF
2197 1110 CircleF
2317 1202 CircleF
5297 1336 CircleF
5417 1428 CircleF
1982 4598 CircleF
2102 4690 CircleF
3670 3015 CircleF
3790 3107 CircleF
1138 3887 CircleF
1258 3979 CircleF
3844 1316 CircleF
3964 1408 CircleF
3816 571 CircleF
3936 663 CircleF
1396 4634 CircleF
1515 4726 CircleF
2183 4544 CircleF
2302 4635 CircleF
5238 802 CircleF
5358 893 CircleF
6546 455 CircleF
6666 547 CircleF
5819 1500 CircleF
5938 1591 CircleF
4871 3053 CircleF
4990 3145 CircleF
5447 2227 CircleF
5567 2319 CircleF
4890 359 CircleF
5009 451 CircleF
3016 3144 CircleF
3136 3236 CircleF
1562 3130 CircleF
1681 3222 CircleF
2205 2803 CircleF
2324 2895 CircleF
1446 3690 CircleF
1566 3781 CircleF
1571 2739 CircleF
1691 2831 CircleF
1167 2776 CircleF
1286 2868 CircleF
4831 4573 CircleF
4951 4665 CircleF
4381 3063 CircleF
4500 3155 CircleF
2333 1605 CircleF
2453 1696 CircleF
1792 1525 CircleF
1912 1617 CircleF
4665 4037 CircleF
4784 4129 CircleF
4711 1907 CircleF
4830 1999 CircleF
3000 1679 CircleF
3120 1771 CircleF
4770 4412 CircleF
4890 4504 CircleF
6268 1811 CircleF
6387 1903 CircleF
5663 4476 CircleF
5783 4568 CircleF
4080 1958 CircleF
4200 2049 CircleF
3504 2314 CircleF
3624 2406 CircleF
1262 1207 CircleF
1382 1299 CircleF
3583 3927 CircleF
3703 4019 CircleF
1106 3742 CircleF
1226 3833 CircleF
4436 3925 CircleF
4556 4017 CircleF
2067 4045 CircleF
2187 4137 CircleF
3672 2221 CircleF
3791 2313 CircleF
5616 4087 CircleF
5735 4178 CircleF
2860 2367 CircleF
2979 2459 CircleF
1686 1069 CircleF
1806 1160 CircleF
2436 4088 CircleF
2556 4180 CircleF
5033 1205 CircleF
5153 1297 CircleF
5629 1187 CircleF
5749 1279 CircleF
4505 780 CircleF
4625 872 CircleF
1817 3928 CircleF
1937 4020 CircleF
6372 3318 CircleF
6491 3410 CircleF
4056 1332 CircleF
4176 1424 CircleF
3997 2206 CircleF
4116 2298 CircleF
3420 1031 CircleF
3540 1123 CircleF
5325 469 CircleF
5444 561 CircleF
1526 3782 CircleF
1646 3874 CircleF
6009 4563 CircleF
6128 4654 CircleF
5932 1395 CircleF
6051 1487 CircleF
1469 3752 CircleF
1589 3844 CircleF
2575 2539 CircleF
2694 2631 CircleF
4509 1335 CircleF
4628 1427 CircleF
3541 3878 CircleF
3661 3970 CircleF
3519 4101 CircleF
3639 4193 CircleF
5444 1050 CircleF
5564 1142 CircleF
3973 4501 CircleF
4093 4593 CircleF
2386 913 CircleF
2505 1005 CircleF
3342 3851 CircleF
3461 3943 CircleF
6384 955 CircleF
6504 1047 CircleF
5987 3672 CircleF
6107 3764 CircleF
6009 2071 CircleF
6128 2162 CircleF
3512 2787 CircleF
3632 2879 CircleF
5235 940 CircleF
5354 1032 CircleF
3547 4522 CircleF
3667 4614 CircleF
5278 1107 CircleF
5398 1199 CircleF
2683 1351 CircleF
2802 1442 CircleF
2611 718 CircleF
2731 810 CircleF
2436 513 CircleF
2556 605 CircleF
3562 2286 CircleF
3681 2377 CircleF
1670 3866 CircleF
1789 3958 CircleF
4777 1188 CircleF
4896 1280 CircleF
5537 4209 CircleF
5657 4301 CircleF
2181 3927 CircleF
2301 4018 CircleF
1060 3676 CircleF
1180 3768 CircleF
4892 1864 CircleF
5011 1955 CircleF
1160 3201 CircleF
1279 3292 CircleF
3843 702 CircleF
3962 794 CircleF
5945 4230 CircleF
6064 4322 CircleF
2862 3806 CircleF
2982 3898 CircleF
3473 2782 CircleF
3592 2874 CircleF
5704 3439 CircleF
5824 3530 CircleF
1178 3564 CircleF
1297 3655 CircleF
6384 2309 CircleF
6504 2401 CircleF
5346 1524 CircleF
5465 1616 CircleF
4804 504 CircleF
4923 595 CircleF
3351 2387 CircleF
3470 2479 CircleF
2091 3399 CircleF
2211 3491 CircleF
1762 3356 CircleF
1882 3448 CircleF
3188 987 CircleF
3308 1079 CircleF
6209 4658 CircleF
6329 4749 CircleF
4638 4036 CircleF
4757 4128 CircleF
1493 1833 CircleF
1613 1925 CircleF
1987 2725 CircleF
2107 2817 CircleF
3581 1035 CircleF
3701 1127 CircleF
3273 1637 CircleF
3393 1729 CircleF
2325 4154 CircleF
2445 4246 CircleF
6420 2995 CircleF
6540 3087 CircleF
4311 2789 CircleF
4431 2881 CircleF
3174 920 CircleF
3293 1012 CircleF
1419 967 CircleF
1539 1059 CircleF
5514 1815 CircleF
5633 1907 CircleF
5944 4078 CircleF
6063 4170 CircleF
2193 4477 CircleF
2313 4569 CircleF
5522 1413 CircleF
5641 1505 CircleF
4432 2553 CircleF
4552 2645 CircleF
5747 1706 CircleF
5866 1798 CircleF
3608 2390 CircleF
3727 2482 CircleF
6686 3240 CircleF
6806 3332 CircleF
4887 3595 CircleF
5006 3687 CircleF
3147 4101 CircleF
3266 4193 CircleF
1311 1130 CircleF
1431 1221 CircleF
4215 3085 CircleF
4335 3177 CircleF
3878 1475 CircleF
3998 1567 CircleF
6001 3613 CircleF
6120 3705 CircleF
1142 3237 CircleF
1262 3328 CircleF
3903 3522 CircleF
4023 3614 CircleF
3171 2771 CircleF
3291 2863 CircleF
5773 3709 CircleF
5893 3801 CircleF
1247 2740 CircleF
1367 2831 CircleF
1413 791 CircleF
1533 883 CircleF
5562 2213 CircleF
5682 2305 CircleF
1887 536 CircleF
2007 627 CircleF
3378 1588 CircleF
3498 1680 CircleF
6610 2721 CircleF
6730 2813 CircleF
1939 2638 CircleF
2058 2730 CircleF
1733 1067 CircleF
1853 1159 CircleF
3867 2048 CircleF
3987 2140 CircleF
6127 416 CircleF
6247 508 CircleF
5820 4439 CircleF
5940 4531 CircleF
3563 2997 CircleF
3683 3089 CircleF
4446 3550 CircleF
4565 3642 CircleF
3033 301 CircleF
3152 393 CircleF
3612 1040 CircleF
3732 1132 CircleF
1458 1322 CircleF
1578 1414 CircleF
2774 1136 CircleF
2894 1228 CircleF
4644 1458 CircleF
4764 1550 CircleF
3888 4522 CircleF
4008 4614 CircleF
3892 3010 CircleF
4012 3101 CircleF
1543 1891 CircleF
1662 1983 CircleF
2595 4412 CircleF
2715 4504 CircleF
1555 3340 CircleF
1674 3432 CircleF
6338 2478 CircleF
6457 2570 CircleF
3521 3651 CircleF
3640 3743 CircleF
5621 907 CircleF
5741 999 CircleF
4517 2979 CircleF
4637 3071 CircleF
1178 4607 CircleF
1297 4699 CircleF
6488 2578 CircleF
6608 2669 CircleF
6302 2445 CircleF
6421 2537 CircleF
2021 943 CircleF
2141 1035 CircleF
1385 1137 CircleF
1505 1229 CircleF
4733 3125 CircleF
4853 3217 CircleF
3745 2041 CircleF
3864 2133 CircleF
2076 1932 CircleF
2196 2024 CircleF
2941 1435 CircleF
3061 1527 CircleF
3892 1054 CircleF
4012 1146 CircleF
1365 1616 CircleF
1485 1708 CircleF
1267 713 CircleF
1387 805 CircleF
1881 3452 CircleF
2001 3544 CircleF
6692 1363 CircleF
6812 1455 CircleF
2604 4069 CircleF
2724 4161 CircleF
6509 3899 CircleF
6628 3991 CircleF
1387 3684 CircleF
1506 3776 CircleF
2034 3023 CircleF
2154 3115 CircleF
1909 2363 CircleF
2029 2455 CircleF
2167 1290 CircleF
2287 1382 CircleF
3043 3753 CircleF
3163 3845 CircleF
3033 2172 CircleF
3152 2264 CircleF
5602 3339 CircleF
5722 3430 CircleF
2985 2334 CircleF
3104 2425 CircleF
2248 3806 CircleF
2367 3898 CircleF
6163 4449 CircleF
6282 4540 CircleF
3160 1814 CircleF
3280 1906 CircleF
4496 2562 CircleF
4616 2654 CircleF
2244 358 CircleF
2364 450 CircleF
1901 3532 CircleF
2021 3624 CircleF
4622 2010 CircleF
4742 2101 CircleF
2831 734 CircleF
2951 826 CircleF
4545 3278 CircleF
4664 3369 CircleF
5705 2670 CircleF
5825 2761 CircleF
2009 2943 CircleF
2128 3034 CircleF
2652 4489 CircleF
2771 4580 CircleF
1754 2495 CircleF
1874 2587 CircleF
1119 2117 CircleF
1238 2208 CircleF
4205 3628 CircleF
4325 3720 CircleF
5795 1360 CircleF
5914 1452 CircleF
5835 2622 CircleF
5955 2713 CircleF
5116 1579 CircleF
5235 1671 CircleF
5306 411 CircleF
5425 503 CircleF
5891 1719 CircleF
6011 1811 CircleF
5827 3715 CircleF
5946 3807 CircleF
5644 2688 CircleF
5764 2779 CircleF
1737 1347 CircleF
1856 1439 CircleF
3119 851 CircleF
3238 943 CircleF
3231 543 CircleF
3351 635 CircleF
2705 2878 CircleF
2825 2970 CircleF
1236 2264 CircleF
1356 2356 CircleF
6485 1808 CircleF
6605 1900 CircleF
3830 1452 CircleF
3950 1543 CircleF
5978 4544 CircleF
6098 4636 CircleF
3932 1933 CircleF
4052 2025 CircleF
4023 3037 CircleF
4143 3129 CircleF
3046 3721 CircleF
3166 3813 CircleF
6187 530 CircleF
6306 621 CircleF
6605 4269 CircleF
6724 4361 CircleF
5765 3237 CircleF
5885 3329 CircleF
3034 4495 CircleF
3154 4587 CircleF
5194 2496 CircleF
5314 2588 CircleF
2011 942 CircleF
2131 1034 CircleF
4763 305 CircleF
4882 397 CircleF
2911 646 CircleF
3031 738 CircleF
4025 4638 CircleF
4145 4730 CircleF
5011 839 CircleF
5131 931 CircleF
6172 479 CircleF
6292 571 CircleF
5355 1870 CircleF
5475 1961 CircleF
4006 460 CircleF
4125 552 CircleF
1814 1096 CircleF
1933 1188 CircleF
2748 3786 CircleF
2868 3878 CircleF
6299 1344 CircleF
6419 1435 CircleF
4997 1266 CircleF
5117 1358 CircleF
2428 839 CircleF
2547 931 CircleF
4512 376 CircleF
4631 468 CircleF
2616 948 CircleF
2736 1040 CircleF
4713 2697 CircleF
4833 2789 CircleF
4855 4257 CircleF
4975 4349 CircleF
3211 1383 CircleF
3331 1475 CircleF
1146 4623 CircleF
1266 4715 CircleF
2390 1937 CircleF
2510 2029 CircleF
3761 3902 CircleF
3881 3994 CircleF
5746 3700 CircleF
5866 3792 CircleF
3825 1440 CircleF
3945 1532 CircleF
2857 4169 CircleF
2976 4261 CircleF
4817 4451 CircleF
4936 4542 CircleF
5891 892 CircleF
6011 984 CircleF
5151 3741 CircleF
5271 3833 CircleF
6498 1731 CircleF
6618 1823 CircleF
3421 2279 CircleF
3540 2371 CircleF
4956 683 CircleF
5076 775 CircleF
3109 1650 CircleF
3228 1742 CircleF
3415 2074 CircleF
3534 2165 CircleF
3974 3328 CircleF
4093 3420 CircleF
2889 3755 CircleF
3008 3847 CircleF
5493 2883 CircleF
5613 2975 CircleF
1312 3846 CircleF
1432 3937 CircleF
1495 2349 CircleF
1615 2441 CircleF
4636 3352 CircleF
4756 3444 CircleF
2305 1052 CircleF
2425 1144 CircleF
5431 2784 CircleF
5551 2876 CircleF
4497 3220 CircleF
4616 3312 CircleF
4733 1927 CircleF
4853 2019 CircleF
3818 2077 CircleF
3937 2168 CircleF
1450 4569 CircleF
1570 4661 CircleF
5955 1158 CircleF
6074 1249 CircleF
5130 2725 CircleF
5249 2816 CircleF
1122 2789 CircleF
1242 2881 CircleF
3911 2273 CircleF
4030 2365 CircleF
4867 3292 CircleF
4987 3384 CircleF
2367 3110 CircleF
2486 3202 CircleF
3890 654 CircleF
4009 746 CircleF
5752 4164 CircleF
5871 4256 CircleF
1155 4605 CircleF
1275 4696 CircleF
1750 1591 CircleF
1870 1683 CircleF
4204 3374 CircleF
4323 3466 CircleF
3961 4588 CircleF
4081 4680 CircleF
5171 1239 CircleF
5290 1330 CircleF
5222 2620 CircleF
5341 2712 CircleF
5622 1516 CircleF
5741 1607 CircleF
4454 4216 CircleF
4574 4308 CircleF
1781 4407 CircleF
1901 4499 CircleF
2599 4465 CircleF
2718 4557 CircleF
6109 1278 CircleF
6229 1370 CircleF
2889 2497 CircleF
3009 2588 CircleF
5397 494 CircleF
5517 586 CircleF
4093 843 CircleF
4213 935 CircleF
3729 2632 CircleF
3848 2723 CircleF
4025 988 CircleF
4145 1080 CircleF
3297 4578 CircleF
3416 4670 CircleF
2817 925 CircleF
2936 1017 CircleF
2844 2517 CircleF
2964 2608 CircleF
1411 585 CircleF
1530 677 CircleF
6354 1489 CircleF
6473 1581 CircleF
2191 3037 CircleF
2311 3129 CircleF
1924 1656 CircleF
2044 1748 CircleF
3539 1758 CircleF
3658 1850 CircleF
2772 1682 CircleF
2891 1773 CircleF
4066 2181 CircleF
4186 2273 CircleF
3854 3223 CircleF
3974 3315 CircleF
6527 1248 CircleF
6646 1339 CircleF
4183 2675 CircleF
4302 2767 CircleF
1571 334 CircleF
1691 426 CircleF
6008 2666 CircleF
6127 2757 CircleF
6014 748 CircleF
6134 840 CircleF
5876 4318 CircleF
5995 4409 CircleF
2025 948 CircleF
2144 1040 CircleF
1130 2198 CircleF
1250 2290 CircleF
4020 736 CircleF
4139 827 CircleF
3593 1564 CircleF
3712 1656 CircleF
2719 889 CircleF
2839 981 CircleF
6613 789 CircleF
6733 881 CircleF
1062 1658 CircleF
1182 1750 CircleF
3598 2243 CircleF
3718 2335 CircleF
1897 4052 CircleF
2017 4144 CircleF
4424 849 CircleF
4544 941 CircleF
1489 3873 CircleF
1609 3965 CircleF
6441 3853 CircleF
6561 3945 CircleF
3194 4136 CircleF
3314 4228 CircleF
4502 4152 CircleF
4621 4244 CircleF
2934 2292 CircleF
3053 2383 CircleF
2770 1466 CircleF
2890 1557 CircleF
2254 2694 CircleF
2374 2786 CircleF
5770 1178 CircleF
5889 1269 CircleF
6268 2755 CircleF
6388 2847 CircleF
6477 2262 CircleF
6596 2353 CircleF
2981 1314 CircleF
3100 1405 CircleF
3211 378 CircleF
3331 470 CircleF
4103 3228 CircleF
4223 3320 CircleF
1068 3232 CircleF
1188 3323 CircleF
6088 853 CircleF
6207 944 CircleF
3436 3788 CircleF
3556 3880 CircleF
2607 2689 CircleF
2726 2781 CircleF
4491 4141 CircleF
4610 4233 CircleF
3134 1550 CircleF
3254 1641 CircleF
3911 2617 CircleF
4031 2709 CircleF
3461 2867 CircleF
3580 2959 CircleF
3539 2298 CircleF
3658 2390 CircleF
4513 413 CircleF
4633 504 CircleF
3821 1043 CircleF
3940 1134 CircleF
5424 3902 CircleF
5543 3994 CircleF
5810 4025 CircleF
5929 4117 CircleF
4610 2854 CircleF
4730 2945 CircleF
6322 4502 CircleF
6441 4594 CircleF
5918 760 CircleF
6038 852 CircleF
4571 1389 CircleF
4691 1481 CircleF
2782 2943 CircleF
2902 3035 CircleF
1722 4565 CircleF
1842 4656 CircleF
4687 3549 CircleF
4807 3641 CircleF
978 4347 CircleF
1098 4439 CircleF
5783 1858 CircleF
5903 1949 CircleF
5727 3348 CircleF
5847 3440 CircleF
2194 3875 CircleF
2314 3967 CircleF
6086 1061 CircleF
6205 1153 CircleF
2017 3165 CircleF
2137 3257 CircleF
3098 1973 CircleF
3218 2065 CircleF
6212 4168 CircleF
6331 4260 CircleF
6194 2394 CircleF
6314 2486 CircleF
6136 283 CircleF
6255 375 CircleF
6134 3972 CircleF
6254 4064 CircleF
992 3359 CircleF
1111 3451 CircleF
2343 3903 CircleF
2463 3995 CircleF
2573 1952 CircleF
2692 2043 CircleF
5393 1347 CircleF
5513 1439 CircleF
4290 4608 CircleF
4409 4700 CircleF
3424 2861 CircleF
3544 2952 CircleF
3753 3532 CircleF
3872 3624 CircleF
1319 1365 CircleF
1439 1456 CircleF
1915 4507 CircleF
2035 4598 CircleF
5409 3121 CircleF
5529 3213 CircleF
5358 1598 CircleF
5478 1689 CircleF
4872 3563 CircleF
4992 3655 CircleF
3582 4073 CircleF
3702 4165 CircleF
2930 1702 CircleF
3050 1794 CircleF
1134 1881 CircleF
1253 1973 CircleF
1115 3552 CircleF
1234 3644 CircleF
2270 3389 CircleF
2390 3481 CircleF
4384 1479 CircleF
4503 1571 CircleF
1916 3610 CircleF
2036 3702 CircleF
4218 1872 CircleF
4337 1964 CircleF
4369 2987 CircleF
4488 3079 CircleF
1100 1773 CircleF
1219 1865 CircleF
2238 4172 CircleF
2358 4264 CircleF
6470 1472 CircleF
6590 1564 CircleF
4639 3380 CircleF
4758 3472 CircleF
5455 1817 CircleF
5575 1909 CircleF
4333 2609 CircleF
4452 2701 CircleF
3327 1765 CircleF
3447 1856 CircleF
1556 1476 CircleF
1675 1568 CircleF
1655 950 CircleF
1774 1041 CircleF
2439 4545 CircleF
2559 4637 CircleF
1334 2171 CircleF
1454 2263 CircleF
1231 1079 CircleF
1350 1171 CircleF
3822 4440 CircleF
3941 4532 CircleF
1837 3889 CircleF
1957 3981 CircleF
3372 3351 CircleF
3491 3443 CircleF
3877 1011 CircleF
3997 1102 CircleF
5786 3360 CircleF
5905 3452 CircleF
4790 2120 CircleF
4909 2212 CircleF
5338 2752 CircleF
5457 2844 CircleF
1868 521 CircleF
1988 612 CircleF
1705 1857 CircleF
1825 1949 CircleF
1532 2272 CircleF
1651 2363 CircleF
4952 3904 CircleF
5071 3996 CircleF
3702 2354 CircleF
3822 2446 CircleF
5014 4378 CircleF
5133 4469 CircleF
1107 4166 CircleF
1226 4258 CircleF
1272 3619 CircleF
1391 3710 CircleF
2682 3898 CircleF
2801 3990 CircleF
3498 3441 CircleF
3617 3533 CircleF
1857 3984 CircleF
1976 4076 CircleF
2686 2805 CircleF
2806 2897 CircleF
6455 4223 CircleF
6575 4315 CircleF
4827 4646 CircleF
4947 4738 CircleF
1786 4430 CircleF
1905 4522 CircleF
5749 964 CircleF
5868 1056 CircleF
5815 596 CircleF
5934 687 CircleF
5062 4394 CircleF
5182 4485 CircleF
5560 1427 CircleF
5680 1519 CircleF
4564 3676 CircleF
4684 3767 CircleF
6439 1129 CircleF
6559 1221 CircleF
6350 4191 CircleF
6470 4283 CircleF
4421 1060 CircleF
4540 1151 CircleF
5831 1232 CircleF
5950 1324 CircleF
1205 1484 CircleF
1325 1576 CircleF
3635 2682 CircleF
3754 2774 CircleF
6554 851 CircleF
6674 943 CircleF
2314 4168 CircleF
2433 4260 CircleF
990 3373 CircleF
1110 3465 CircleF
6385 1288 CircleF
6504 1380 CircleF
2842 2101 CircleF
2961 2193 CircleF
1346 4392 CircleF
1466 4484 CircleF
5553 3550 CircleF
5673 3642 CircleF
2365 908 CircleF
2485 1000 CircleF
4982 1970 CircleF
5102 2062 CircleF
3040 3880 CircleF
3160 3972 CircleF
3918 1769 CircleF
4038 1860 CircleF
3101 1774 CircleF
3220 1866 CircleF
6530 2712 CircleF
6650 2803 CircleF
2978 656 CircleF
3097 747 CircleF
6601 1157 CircleF
6720 1248 CircleF
1143 2874 CircleF
1262 2966 CircleF
5826 3893 CircleF
5946 3985 CircleF
4405 1059 CircleF
4524 1151 CircleF
5478 550 CircleF
5598 642 CircleF
5834 907 CircleF
5954 999 CircleF
4251 1603 CircleF
4370 1694 CircleF
5459 2469 CircleF
5578 2561 CircleF
1288 3945 CircleF
1408 4037 CircleF
3564 2278 CircleF
3684 2370 CircleF
3398 2744 CircleF
3517 2836 CircleF
5902 2365 CircleF
6022 2457 CircleF
5483 4269 CircleF
5603 4360 CircleF
6526 2914 CircleF
6645 3006 CircleF
5535 400 CircleF
5655 492 CircleF
4911 2863 CircleF
5031 2955 CircleF
2158 3524 CircleF
2277 3615 CircleF
2319 4018 CircleF
2439 4110 CircleF
4061 4117 CircleF
4180 4209 CircleF
2447 1398 CircleF
2567 1489 CircleF
3695 4458 CircleF
3815 4549 CircleF
4159 602 CircleF
4279 694 CircleF
4343 1155 CircleF
4463 1247 CircleF
3012 2877 CircleF
3131 2969 CircleF
2029 3396 CircleF
2149 3488 CircleF
4310 4436 CircleF
4429 4528 CircleF
6126 2408 CircleF
6246 2500 CircleF
2525 1687 CircleF
2645 1779 CircleF
5885 1963 CircleF
6005 2055 CircleF
1163 4025 CircleF
1283 4117 CircleF
3744 2870 CircleF
3864 2962 CircleF
6174 4038 CircleF
6293 4130 CircleF
3103 1723 CircleF
3223 1815 CircleF
6616 1033 CircleF
6736 1125 CircleF
6225 1174 CircleF
6345 1265 CircleF
2572 3717 CircleF
2692 3809 CircleF
2596 2343 CircleF
2716 2434 CircleF
4925 2663 CircleF
5044 2755 CircleF
3539 4681 CircleF
3658 4773 CircleF
4657 2539 CircleF
4776 2631 CircleF
3402 1744 CircleF
3522 1835 CircleF
1734 3828 CircleF
1854 3920 CircleF
5874 3291 CircleF
5994 3383 CircleF
1104 535 CircleF
1223 627 CircleF
5410 2647 CircleF
5530 2739 CircleF
2158 2039 CircleF
2277 2131 CircleF
6170 1446 CircleF
6289 1538 CircleF
1713 754 CircleF
1832 846 CircleF
5525 966 CircleF
5645 1058 CircleF
6520 347 CircleF
6640 439 CircleF
2955 3234 CircleF
3075 3326 CircleF
4754 2786 CircleF
4874 2877 CircleF
3911 1072 CircleF
4031 1164 CircleF
% End plot #2
1.000 UP
1.000 UL
LT0
0.50 0.50 0.50 C stroke
grestore
end
showpage
%%Trailer
%%DocumentFonts: Helvetica
%%Pages: 1
