%!PS-Adobe-2.0
%%Title: out.ps
%%Creator: gnuplot 4.6 patchlevel 6
%%CreationDate: Thu May 28 16:54:04 2015
%%DocumentFonts: (atend)
%%BoundingBox: 50 50 554 770
%%Orientation: Landscape
%%Pages: (atend)
%%EndComments
%%BeginProlog
/gnudict 256 dict def
gnudict begin
%
% The following true/false flags may be edited by hand if desired.
% The unit line width and grayscale image gamma correction may also be changed.
%
/Color false def
/Blacktext false def
/Solid false def
/Dashlength 1 def
/Landscape true def
/Level1 false def
/Rounded false def
/ClipToBoundingBox false def
/SuppressPDFMark false def
/TransparentPatterns false def
/gnulinewidth 5.000 def
/userlinewidth gnulinewidth def
/Gamma 1.0 def
/BackgroundColor {-1.000 -1.000 -1.000} def
%
/vshift -46 def
/dl1 {
  10.0 Dashlength mul mul
  Rounded { currentlinewidth 0.75 mul sub dup 0 le { pop 0.01 } if } if
} def
/dl2 {
  10.0 Dashlength mul mul
  Rounded { currentlinewidth 0.75 mul add } if
} def
/hpt_ 31.5 def
/vpt_ 31.5 def
/hpt hpt_ def
/vpt vpt_ def
/doclip {
  ClipToBoundingBox {
    newpath 50 50 moveto 554 50 lineto 554 770 lineto 50 770 lineto closepath
    clip
  } if
} def
%
% Gnuplot Prolog Version 4.6 (September 2012)
%
%/SuppressPDFMark true def
%
/M {moveto} bind def
/L {lineto} bind def
/R {rmoveto} bind def
/V {rlineto} bind def
/N {newpath moveto} bind def
/Z {closepath} bind def
/C {setrgbcolor} bind def
/f {rlineto fill} bind def
/g {setgray} bind def
/Gshow {show} def   % May be redefined later in the file to support UTF-8
/vpt2 vpt 2 mul def
/hpt2 hpt 2 mul def
/Lshow {currentpoint stroke M 0 vshift R 
	Blacktext {gsave 0 setgray show grestore} {show} ifelse} def
/Rshow {currentpoint stroke M dup stringwidth pop neg vshift R
	Blacktext {gsave 0 setgray show grestore} {show} ifelse} def
/Cshow {currentpoint stroke M dup stringwidth pop -2 div vshift R 
	Blacktext {gsave 0 setgray show grestore} {show} ifelse} def
/UP {dup vpt_ mul /vpt exch def hpt_ mul /hpt exch def
  /hpt2 hpt 2 mul def /vpt2 vpt 2 mul def} def
/DL {Color {setrgbcolor Solid {pop []} if 0 setdash}
 {pop pop pop 0 setgray Solid {pop []} if 0 setdash} ifelse} def
/BL {stroke userlinewidth 2 mul setlinewidth
	Rounded {1 setlinejoin 1 setlinecap} if} def
/AL {stroke userlinewidth 2 div setlinewidth
	Rounded {1 setlinejoin 1 setlinecap} if} def
/UL {dup gnulinewidth mul /userlinewidth exch def
	dup 1 lt {pop 1} if 10 mul /udl exch def} def
/PL {stroke userlinewidth setlinewidth
	Rounded {1 setlinejoin 1 setlinecap} if} def
3.8 setmiterlimit
% Default Line colors
/LCw {1 1 1} def
/LCb {0 0 0} def
/LCa {0 0 0} def
/LC0 {1 0 0} def
/LC1 {0 1 0} def
/LC2 {0 0 1} def
/LC3 {1 0 1} def
/LC4 {0 1 1} def
/LC5 {1 1 0} def
/LC6 {0 0 0} def
/LC7 {1 0.3 0} def
/LC8 {0.5 0.5 0.5} def
% Default Line Types
/LTw {PL [] 1 setgray} def
/LTb {BL [] LCb DL} def
/LTa {AL [1 udl mul 2 udl mul] 0 setdash LCa setrgbcolor} def
/LT0 {PL [] LC0 DL} def
/LT1 {PL [4 dl1 2 dl2] LC1 DL} def
/LT2 {PL [2 dl1 3 dl2] LC2 DL} def
/LT3 {PL [1 dl1 1.5 dl2] LC3 DL} def
/LT4 {PL [6 dl1 2 dl2 1 dl1 2 dl2] LC4 DL} def
/LT5 {PL [3 dl1 3 dl2 1 dl1 3 dl2] LC5 DL} def
/LT6 {PL [2 dl1 2 dl2 2 dl1 6 dl2] LC6 DL} def
/LT7 {PL [1 dl1 2 dl2 6 dl1 2 dl2 1 dl1 2 dl2] LC7 DL} def
/LT8 {PL [2 dl1 2 dl2 2 dl1 2 dl2 2 dl1 2 dl2 2 dl1 4 dl2] LC8 DL} def
/Pnt {stroke [] 0 setdash gsave 1 setlinecap M 0 0 V stroke grestore} def
/Dia {stroke [] 0 setdash 2 copy vpt add M
  hpt neg vpt neg V hpt vpt neg V
  hpt vpt V hpt neg vpt V closepath stroke
  Pnt} def
/Pls {stroke [] 0 setdash vpt sub M 0 vpt2 V
  currentpoint stroke M
  hpt neg vpt neg R hpt2 0 V stroke
 } def
/Box {stroke [] 0 setdash 2 copy exch hpt sub exch vpt add M
  0 vpt2 neg V hpt2 0 V 0 vpt2 V
  hpt2 neg 0 V closepath stroke
  Pnt} def
/Crs {stroke [] 0 setdash exch hpt sub exch vpt add M
  hpt2 vpt2 neg V currentpoint stroke M
  hpt2 neg 0 R hpt2 vpt2 V stroke} def
/TriU {stroke [] 0 setdash 2 copy vpt 1.12 mul add M
  hpt neg vpt -1.62 mul V
  hpt 2 mul 0 V
  hpt neg vpt 1.62 mul V closepath stroke
  Pnt} def
/Star {2 copy Pls Crs} def
/BoxF {stroke [] 0 setdash exch hpt sub exch vpt add M
  0 vpt2 neg V hpt2 0 V 0 vpt2 V
  hpt2 neg 0 V closepath fill} def
/TriUF {stroke [] 0 setdash vpt 1.12 mul add M
  hpt neg vpt -1.62 mul V
  hpt 2 mul 0 V
  hpt neg vpt 1.62 mul V closepath fill} def
/TriD {stroke [] 0 setdash 2 copy vpt 1.12 mul sub M
  hpt neg vpt 1.62 mul V
  hpt 2 mul 0 V
  hpt neg vpt -1.62 mul V closepath stroke
  Pnt} def
/TriDF {stroke [] 0 setdash vpt 1.12 mul sub M
  hpt neg vpt 1.62 mul V
  hpt 2 mul 0 V
  hpt neg vpt -1.62 mul V closepath fill} def
/DiaF {stroke [] 0 setdash vpt add M
  hpt neg vpt neg V hpt vpt neg V
  hpt vpt V hpt neg vpt V closepath fill} def
/Pent {stroke [] 0 setdash 2 copy gsave
  translate 0 hpt M 4 {72 rotate 0 hpt L} repeat
  closepath stroke grestore Pnt} def
/PentF {stroke [] 0 setdash gsave
  translate 0 hpt M 4 {72 rotate 0 hpt L} repeat
  closepath fill grestore} def
/Circle {stroke [] 0 setdash 2 copy
  hpt 0 360 arc stroke Pnt} def
/CircleF {stroke [] 0 setdash hpt 0 360 arc fill} def
/C0 {BL [] 0 setdash 2 copy moveto vpt 90 450 arc} bind def
/C1 {BL [] 0 setdash 2 copy moveto
	2 copy vpt 0 90 arc closepath fill
	vpt 0 360 arc closepath} bind def
/C2 {BL [] 0 setdash 2 copy moveto
	2 copy vpt 90 180 arc closepath fill
	vpt 0 360 arc closepath} bind def
/C3 {BL [] 0 setdash 2 copy moveto
	2 copy vpt 0 180 arc closepath fill
	vpt 0 360 arc closepath} bind def
/C4 {BL [] 0 setdash 2 copy moveto
	2 copy vpt 180 270 arc closepath fill
	vpt 0 360 arc closepath} bind def
/C5 {BL [] 0 setdash 2 copy moveto
	2 copy vpt 0 90 arc
	2 copy moveto
	2 copy vpt 180 270 arc closepath fill
	vpt 0 360 arc} bind def
/C6 {BL [] 0 setdash 2 copy moveto
	2 copy vpt 90 270 arc closepath fill
	vpt 0 360 arc closepath} bind def
/C7 {BL [] 0 setdash 2 copy moveto
	2 copy vpt 0 270 arc closepath fill
	vpt 0 360 arc closepath} bind def
/C8 {BL [] 0 setdash 2 copy moveto
	2 copy vpt 270 360 arc closepath fill
	vpt 0 360 arc closepath} bind def
/C9 {BL [] 0 setdash 2 copy moveto
	2 copy vpt 270 450 arc closepath fill
	vpt 0 360 arc closepath} bind def
/C10 {BL [] 0 setdash 2 copy 2 copy moveto vpt 270 360 arc closepath fill
	2 copy moveto
	2 copy vpt 90 180 arc closepath fill
	vpt 0 360 arc closepath} bind def
/C11 {BL [] 0 setdash 2 copy moveto
	2 copy vpt 0 180 arc closepath fill
	2 copy moveto
	2 copy vpt 270 360 arc closepath fill
	vpt 0 360 arc closepath} bind def
/C12 {BL [] 0 setdash 2 copy moveto
	2 copy vpt 180 360 arc closepath fill
	vpt 0 360 arc closepath} bind def
/C13 {BL [] 0 setdash 2 copy moveto
	2 copy vpt 0 90 arc closepath fill
	2 copy moveto
	2 copy vpt 180 360 arc closepath fill
	vpt 0 360 arc closepath} bind def
/C14 {BL [] 0 setdash 2 copy moveto
	2 copy vpt 90 360 arc closepath fill
	vpt 0 360 arc} bind def
/C15 {BL [] 0 setdash 2 copy vpt 0 360 arc closepath fill
	vpt 0 360 arc closepath} bind def
/Rec {newpath 4 2 roll moveto 1 index 0 rlineto 0 exch rlineto
	neg 0 rlineto closepath} bind def
/Square {dup Rec} bind def
/Bsquare {vpt sub exch vpt sub exch vpt2 Square} bind def
/S0 {BL [] 0 setdash 2 copy moveto 0 vpt rlineto BL Bsquare} bind def
/S1 {BL [] 0 setdash 2 copy vpt Square fill Bsquare} bind def
/S2 {BL [] 0 setdash 2 copy exch vpt sub exch vpt Square fill Bsquare} bind def
/S3 {BL [] 0 setdash 2 copy exch vpt sub exch vpt2 vpt Rec fill Bsquare} bind def
/S4 {BL [] 0 setdash 2 copy exch vpt sub exch vpt sub vpt Square fill Bsquare} bind def
/S5 {BL [] 0 setdash 2 copy 2 copy vpt Square fill
	exch vpt sub exch vpt sub vpt Square fill Bsquare} bind def
/S6 {BL [] 0 setdash 2 copy exch vpt sub exch vpt sub vpt vpt2 Rec fill Bsquare} bind def
/S7 {BL [] 0 setdash 2 copy exch vpt sub exch vpt sub vpt vpt2 Rec fill
	2 copy vpt Square fill Bsquare} bind def
/S8 {BL [] 0 setdash 2 copy vpt sub vpt Square fill Bsquare} bind def
/S9 {BL [] 0 setdash 2 copy vpt sub vpt vpt2 Rec fill Bsquare} bind def
/S10 {BL [] 0 setdash 2 copy vpt sub vpt Square fill 2 copy exch vpt sub exch vpt Square fill
	Bsquare} bind def
/S11 {BL [] 0 setdash 2 copy vpt sub vpt Square fill 2 copy exch vpt sub exch vpt2 vpt Rec fill
	Bsquare} bind def
/S12 {BL [] 0 setdash 2 copy exch vpt sub exch vpt sub vpt2 vpt Rec fill Bsquare} bind def
/S13 {BL [] 0 setdash 2 copy exch vpt sub exch vpt sub vpt2 vpt Rec fill
	2 copy vpt Square fill Bsquare} bind def
/S14 {BL [] 0 setdash 2 copy exch vpt sub exch vpt sub vpt2 vpt Rec fill
	2 copy exch vpt sub exch vpt Square fill Bsquare} bind def
/S15 {BL [] 0 setdash 2 copy Bsquare fill Bsquare} bind def
/D0 {gsave translate 45 rotate 0 0 S0 stroke grestore} bind def
/D1 {gsave translate 45 rotate 0 0 S1 stroke grestore} bind def
/D2 {gsave translate 45 rotate 0 0 S2 stroke grestore} bind def
/D3 {gsave translate 45 rotate 0 0 S3 stroke grestore} bind def
/D4 {gsave translate 45 rotate 0 0 S4 stroke grestore} bind def
/D5 {gsave translate 45 rotate 0 0 S5 stroke grestore} bind def
/D6 {gsave translate 45 rotate 0 0 S6 stroke grestore} bind def
/D7 {gsave translate 45 rotate 0 0 S7 stroke grestore} bind def
/D8 {gsave translate 45 rotate 0 0 S8 stroke grestore} bind def
/D9 {gsave translate 45 rotate 0 0 S9 stroke grestore} bind def
/D10 {gsave translate 45 rotate 0 0 S10 stroke grestore} bind def
/D11 {gsave translate 45 rotate 0 0 S11 stroke grestore} bind def
/D12 {gsave translate 45 rotate 0 0 S12 stroke grestore} bind def
/D13 {gsave translate 45 rotate 0 0 S13 stroke grestore} bind def
/D14 {gsave translate 45 rotate 0 0 S14 stroke grestore} bind def
/D15 {gsave translate 45 rotate 0 0 S15 stroke grestore} bind def
/DiaE {stroke [] 0 setdash vpt add M
  hpt neg vpt neg V hpt vpt neg V
  hpt vpt V hpt neg vpt V closepath stroke} def
/BoxE {stroke [] 0 setdash exch hpt sub exch vpt add M
  0 vpt2 neg V hpt2 0 V 0 vpt2 V
  hpt2 neg 0 V closepath stroke} def
/TriUE {stroke [] 0 setdash vpt 1.12 mul add M
  hpt neg vpt -1.62 mul V
  hpt 2 mul 0 V
  hpt neg vpt 1.62 mul V closepath stroke} def
/TriDE {stroke [] 0 setdash vpt 1.12 mul sub M
  hpt neg vpt 1.62 mul V
  hpt 2 mul 0 V
  hpt neg vpt -1.62 mul V closepath stroke} def
/PentE {stroke [] 0 setdash gsave
  translate 0 hpt M 4 {72 rotate 0 hpt L} repeat
  closepath stroke grestore} def
/CircE {stroke [] 0 setdash 
  hpt 0 360 arc stroke} def
/Opaque {gsave closepath 1 setgray fill grestore 0 setgray closepath} def
/DiaW {stroke [] 0 setdash vpt add M
  hpt neg vpt neg V hpt vpt neg V
  hpt vpt V hpt neg vpt V Opaque stroke} def
/BoxW {stroke [] 0 setdash exch hpt sub exch vpt add M
  0 vpt2 neg V hpt2 0 V 0 vpt2 V
  hpt2 neg 0 V Opaque stroke} def
/TriUW {stroke [] 0 setdash vpt 1.12 mul add M
  hpt neg vpt -1.62 mul V
  hpt 2 mul 0 V
  hpt neg vpt 1.62 mul V Opaque stroke} def
/TriDW {stroke [] 0 setdash vpt 1.12 mul sub M
  hpt neg vpt 1.62 mul V
  hpt 2 mul 0 V
  hpt neg vpt -1.62 mul V Opaque stroke} def
/PentW {stroke [] 0 setdash gsave
  translate 0 hpt M 4 {72 rotate 0 hpt L} repeat
  Opaque stroke grestore} def
/CircW {stroke [] 0 setdash 
  hpt 0 360 arc Opaque stroke} def
/BoxFill {gsave Rec 1 setgray fill grestore} def
/Density {
  /Fillden exch def
  currentrgbcolor
  /ColB exch def /ColG exch def /ColR exch def
  /ColR ColR Fillden mul Fillden sub 1 add def
  /ColG ColG Fillden mul Fillden sub 1 add def
  /ColB ColB Fillden mul Fillden sub 1 add def
  ColR ColG ColB setrgbcolor} def
/BoxColFill {gsave Rec PolyFill} def
/PolyFill {gsave Density fill grestore grestore} def
/h {rlineto rlineto rlineto gsave closepath fill grestore} bind def
%
% PostScript Level 1 Pattern Fill routine for rectangles
% Usage: x y w h s a XX PatternFill
%	x,y = lower left corner of box to be filled
%	w,h = width and height of box
%	  a = angle in degrees between lines and x-axis
%	 XX = 0/1 for no/yes cross-hatch
%
/PatternFill {gsave /PFa [ 9 2 roll ] def
  PFa 0 get PFa 2 get 2 div add PFa 1 get PFa 3 get 2 div add translate
  PFa 2 get -2 div PFa 3 get -2 div PFa 2 get PFa 3 get Rec
  TransparentPatterns {} {gsave 1 setgray fill grestore} ifelse
  clip
  currentlinewidth 0.5 mul setlinewidth
  /PFs PFa 2 get dup mul PFa 3 get dup mul add sqrt def
  0 0 M PFa 5 get rotate PFs -2 div dup translate
  0 1 PFs PFa 4 get div 1 add floor cvi
	{PFa 4 get mul 0 M 0 PFs V} for
  0 PFa 6 get ne {
	0 1 PFs PFa 4 get div 1 add floor cvi
	{PFa 4 get mul 0 2 1 roll M PFs 0 V} for
 } if
  stroke grestore} def
%
/languagelevel where
 {pop languagelevel} {1} ifelse
 2 lt
	{/InterpretLevel1 true def}
	{/InterpretLevel1 Level1 def}
 ifelse
%
% PostScript level 2 pattern fill definitions
%
/Level2PatternFill {
/Tile8x8 {/PaintType 2 /PatternType 1 /TilingType 1 /BBox [0 0 8 8] /XStep 8 /YStep 8}
	bind def
/KeepColor {currentrgbcolor [/Pattern /DeviceRGB] setcolorspace} bind def
<< Tile8x8
 /PaintProc {0.5 setlinewidth pop 0 0 M 8 8 L 0 8 M 8 0 L stroke} 
>> matrix makepattern
/Pat1 exch def
<< Tile8x8
 /PaintProc {0.5 setlinewidth pop 0 0 M 8 8 L 0 8 M 8 0 L stroke
	0 4 M 4 8 L 8 4 L 4 0 L 0 4 L stroke}
>> matrix makepattern
/Pat2 exch def
<< Tile8x8
 /PaintProc {0.5 setlinewidth pop 0 0 M 0 8 L
	8 8 L 8 0 L 0 0 L fill}
>> matrix makepattern
/Pat3 exch def
<< Tile8x8
 /PaintProc {0.5 setlinewidth pop -4 8 M 8 -4 L
	0 12 M 12 0 L stroke}
>> matrix makepattern
/Pat4 exch def
<< Tile8x8
 /PaintProc {0.5 setlinewidth pop -4 0 M 8 12 L
	0 -4 M 12 8 L stroke}
>> matrix makepattern
/Pat5 exch def
<< Tile8x8
 /PaintProc {0.5 setlinewidth pop -2 8 M 4 -4 L
	0 12 M 8 -4 L 4 12 M 10 0 L stroke}
>> matrix makepattern
/Pat6 exch def
<< Tile8x8
 /PaintProc {0.5 setlinewidth pop -2 0 M 4 12 L
	0 -4 M 8 12 L 4 -4 M 10 8 L stroke}
>> matrix makepattern
/Pat7 exch def
<< Tile8x8
 /PaintProc {0.5 setlinewidth pop 8 -2 M -4 4 L
	12 0 M -4 8 L 12 4 M 0 10 L stroke}
>> matrix makepattern
/Pat8 exch def
<< Tile8x8
 /PaintProc {0.5 setlinewidth pop 0 -2 M 12 4 L
	-4 0 M 12 8 L -4 4 M 8 10 L stroke}
>> matrix makepattern
/Pat9 exch def
/Pattern1 {PatternBgnd KeepColor Pat1 setpattern} bind def
/Pattern2 {PatternBgnd KeepColor Pat2 setpattern} bind def
/Pattern3 {PatternBgnd KeepColor Pat3 setpattern} bind def
/Pattern4 {PatternBgnd KeepColor Landscape {Pat5} {Pat4} ifelse setpattern} bind def
/Pattern5 {PatternBgnd KeepColor Landscape {Pat4} {Pat5} ifelse setpattern} bind def
/Pattern6 {PatternBgnd KeepColor Landscape {Pat9} {Pat6} ifelse setpattern} bind def
/Pattern7 {PatternBgnd KeepColor Landscape {Pat8} {Pat7} ifelse setpattern} bind def
} def
%
%
%End of PostScript Level 2 code
%
/PatternBgnd {
  TransparentPatterns {} {gsave 1 setgray fill grestore} ifelse
} def
%
% Substitute for Level 2 pattern fill codes with
% grayscale if Level 2 support is not selected.
%
/Level1PatternFill {
/Pattern1 {0.250 Density} bind def
/Pattern2 {0.500 Density} bind def
/Pattern3 {0.750 Density} bind def
/Pattern4 {0.125 Density} bind def
/Pattern5 {0.375 Density} bind def
/Pattern6 {0.625 Density} bind def
/Pattern7 {0.875 Density} bind def
} def
%
% Now test for support of Level 2 code
%
Level1 {Level1PatternFill} {Level2PatternFill} ifelse
%
/Symbol-Oblique /Symbol findfont [1 0 .167 1 0 0] makefont
dup length dict begin {1 index /FID eq {pop pop} {def} ifelse} forall
currentdict end definefont pop
Level1 SuppressPDFMark or 
{} {
/SDict 10 dict def
systemdict /pdfmark known not {
  userdict /pdfmark systemdict /cleartomark get put
} if
SDict begin [
  /Title (out.ps)
  /Subject (gnuplot plot)
  /Creator (gnuplot 4.6 patchlevel 6)
  /Author (yani)
%  /Producer (gnuplot)
%  /Keywords ()
  /CreationDate (Thu May 28 16:54:04 2015)
  /DOCINFO pdfmark
end
} ifelse
end
%%EndProlog
%%Page: 1 1
gnudict begin
gsave
doclip
50 50 translate
0.100 0.100 scale
90 rotate
0 -5040 translate
0 setgray
newpath
(Helvetica) findfont 140 scalefont setfont
BackgroundColor 0 lt 3 1 roll 0 lt exch 0 lt or or not {gsave BackgroundColor C clippath fill grestore} if
1.000 UL
LT0
0.50 0.50 0.50 C 1.000 UL
LTa
0.50 0.50 0.50 C 966 280 M
5981 0 V
stroke
LT0
0.50 0.50 0.50 C 966 280 M
63 0 V
5918 0 R
-63 0 V
882 280 M
( 0) Rshow
1.000 UL
LT0
0.50 0.50 0.50 C 1.000 UL
LTa
0.50 0.50 0.50 C 966 372 M
5981 0 V
stroke
LT0
0.50 0.50 0.50 C 966 372 M
63 0 V
5918 0 R
-63 0 V
882 372 M
( 0.707106) Rshow
1.000 UL
LT0
0.50 0.50 0.50 C 1.000 UL
LTa
0.50 0.50 0.50 C 966 464 M
5981 0 V
stroke
LT0
0.50 0.50 0.50 C 966 464 M
63 0 V
5918 0 R
-63 0 V
882 464 M
( 1.41421) Rshow
1.000 UL
LT0
0.50 0.50 0.50 C 1.000 UL
LTa
0.50 0.50 0.50 C 966 555 M
5981 0 V
stroke
LT0
0.50 0.50 0.50 C 966 555 M
63 0 V
5918 0 R
-63 0 V
882 555 M
( 2.12132) Rshow
1.000 UL
LT0
0.50 0.50 0.50 C 1.000 UL
LTa
0.50 0.50 0.50 C 966 647 M
5981 0 V
stroke
LT0
0.50 0.50 0.50 C 966 647 M
63 0 V
5918 0 R
-63 0 V
882 647 M
( 2.82842) Rshow
1.000 UL
LT0
0.50 0.50 0.50 C 1.000 UL
LTa
0.50 0.50 0.50 C 966 739 M
5981 0 V
stroke
LT0
0.50 0.50 0.50 C 966 739 M
63 0 V
5918 0 R
-63 0 V
882 739 M
( 3.53553) Rshow
1.000 UL
LT0
0.50 0.50 0.50 C 1.000 UL
LTa
0.50 0.50 0.50 C 966 831 M
5981 0 V
stroke
LT0
0.50 0.50 0.50 C 966 831 M
63 0 V
5918 0 R
-63 0 V
882 831 M
( 4.24264) Rshow
1.000 UL
LT0
0.50 0.50 0.50 C 1.000 UL
LTa
0.50 0.50 0.50 C 966 923 M
5981 0 V
stroke
LT0
0.50 0.50 0.50 C 966 923 M
63 0 V
5918 0 R
-63 0 V
882 923 M
( 4.94974) Rshow
1.000 UL
LT0
0.50 0.50 0.50 C 1.000 UL
LTa
0.50 0.50 0.50 C 966 1015 M
5981 0 V
stroke
LT0
0.50 0.50 0.50 C 966 1015 M
63 0 V
5918 0 R
-63 0 V
-6002 0 R
( 5.65685) Rshow
1.000 UL
LT0
0.50 0.50 0.50 C 1.000 UL
LTa
0.50 0.50 0.50 C 966 1106 M
5981 0 V
stroke
LT0
0.50 0.50 0.50 C 966 1106 M
63 0 V
5918 0 R
-63 0 V
-6002 0 R
( 6.36395) Rshow
1.000 UL
LT0
0.50 0.50 0.50 C 1.000 UL
LTa
0.50 0.50 0.50 C 966 1198 M
5981 0 V
stroke
LT0
0.50 0.50 0.50 C 966 1198 M
63 0 V
5918 0 R
-63 0 V
-6002 0 R
( 7.07106) Rshow
1.000 UL
LT0
0.50 0.50 0.50 C 1.000 UL
LTa
0.50 0.50 0.50 C 966 1290 M
5981 0 V
stroke
LT0
0.50 0.50 0.50 C 966 1290 M
63 0 V
5918 0 R
-63 0 V
-6002 0 R
( 7.77817) Rshow
1.000 UL
LT0
0.50 0.50 0.50 C 1.000 UL
LTa
0.50 0.50 0.50 C 966 1382 M
5981 0 V
stroke
LT0
0.50 0.50 0.50 C 966 1382 M
63 0 V
5918 0 R
-63 0 V
-6002 0 R
( 8.48527) Rshow
1.000 UL
LT0
0.50 0.50 0.50 C 1.000 UL
LTa
0.50 0.50 0.50 C 966 1474 M
5981 0 V
stroke
LT0
0.50 0.50 0.50 C 966 1474 M
63 0 V
5918 0 R
-63 0 V
-6002 0 R
( 9.19238) Rshow
1.000 UL
LT0
0.50 0.50 0.50 C 1.000 UL
LTa
0.50 0.50 0.50 C 966 1565 M
5981 0 V
stroke
LT0
0.50 0.50 0.50 C 966 1565 M
63 0 V
5918 0 R
-63 0 V
-6002 0 R
( 9.89948) Rshow
1.000 UL
LT0
0.50 0.50 0.50 C 1.000 UL
LTa
0.50 0.50 0.50 C 966 1657 M
5981 0 V
stroke
LT0
0.50 0.50 0.50 C 966 1657 M
63 0 V
5918 0 R
-63 0 V
-6002 0 R
( 10.6066) Rshow
1.000 UL
LT0
0.50 0.50 0.50 C 1.000 UL
LTa
0.50 0.50 0.50 C 966 1749 M
5981 0 V
stroke
LT0
0.50 0.50 0.50 C 966 1749 M
63 0 V
5918 0 R
-63 0 V
-6002 0 R
( 11.3137) Rshow
1.000 UL
LT0
0.50 0.50 0.50 C 1.000 UL
LTa
0.50 0.50 0.50 C 966 1841 M
5981 0 V
stroke
LT0
0.50 0.50 0.50 C 966 1841 M
63 0 V
5918 0 R
-63 0 V
-6002 0 R
( 12.0208) Rshow
1.000 UL
LT0
0.50 0.50 0.50 C 1.000 UL
LTa
0.50 0.50 0.50 C 966 1933 M
5981 0 V
stroke
LT0
0.50 0.50 0.50 C 966 1933 M
63 0 V
5918 0 R
-63 0 V
-6002 0 R
( 12.7279) Rshow
1.000 UL
LT0
0.50 0.50 0.50 C 1.000 UL
LTa
0.50 0.50 0.50 C 966 2025 M
5981 0 V
stroke
LT0
0.50 0.50 0.50 C 966 2025 M
63 0 V
5918 0 R
-63 0 V
-6002 0 R
( 13.435) Rshow
1.000 UL
LT0
0.50 0.50 0.50 C 1.000 UL
LTa
0.50 0.50 0.50 C 966 2116 M
5981 0 V
stroke
LT0
0.50 0.50 0.50 C 966 2116 M
63 0 V
5918 0 R
-63 0 V
-6002 0 R
( 14.1421) Rshow
1.000 UL
LT0
0.50 0.50 0.50 C 1.000 UL
LTa
0.50 0.50 0.50 C 966 2208 M
5981 0 V
stroke
LT0
0.50 0.50 0.50 C 966 2208 M
63 0 V
5918 0 R
-63 0 V
-6002 0 R
( 14.8492) Rshow
1.000 UL
LT0
0.50 0.50 0.50 C 1.000 UL
LTa
0.50 0.50 0.50 C 966 2300 M
5981 0 V
stroke
LT0
0.50 0.50 0.50 C 966 2300 M
63 0 V
5918 0 R
-63 0 V
-6002 0 R
( 15.5563) Rshow
1.000 UL
LT0
0.50 0.50 0.50 C 1.000 UL
LTa
0.50 0.50 0.50 C 966 2392 M
5981 0 V
stroke
LT0
0.50 0.50 0.50 C 966 2392 M
63 0 V
5918 0 R
-63 0 V
-6002 0 R
( 16.2634) Rshow
1.000 UL
LT0
0.50 0.50 0.50 C 1.000 UL
LTa
0.50 0.50 0.50 C 966 2484 M
5981 0 V
stroke
LT0
0.50 0.50 0.50 C 966 2484 M
63 0 V
5918 0 R
-63 0 V
-6002 0 R
( 16.9705) Rshow
1.000 UL
LT0
0.50 0.50 0.50 C 1.000 UL
LTa
0.50 0.50 0.50 C 966 2575 M
5981 0 V
stroke
LT0
0.50 0.50 0.50 C 966 2575 M
63 0 V
5918 0 R
-63 0 V
-6002 0 R
( 17.6776) Rshow
1.000 UL
LT0
0.50 0.50 0.50 C 1.000 UL
LTa
0.50 0.50 0.50 C 966 2667 M
5981 0 V
stroke
LT0
0.50 0.50 0.50 C 966 2667 M
63 0 V
5918 0 R
-63 0 V
-6002 0 R
( 18.3848) Rshow
1.000 UL
LT0
0.50 0.50 0.50 C 1.000 UL
LTa
0.50 0.50 0.50 C 966 2759 M
5981 0 V
stroke
LT0
0.50 0.50 0.50 C 966 2759 M
63 0 V
5918 0 R
-63 0 V
-6002 0 R
( 19.0919) Rshow
1.000 UL
LT0
0.50 0.50 0.50 C 1.000 UL
LTa
0.50 0.50 0.50 C 966 2851 M
5981 0 V
stroke
LT0
0.50 0.50 0.50 C 966 2851 M
63 0 V
5918 0 R
-63 0 V
-6002 0 R
( 19.799) Rshow
1.000 UL
LT0
0.50 0.50 0.50 C 1.000 UL
LTa
0.50 0.50 0.50 C 966 2943 M
5981 0 V
stroke
LT0
0.50 0.50 0.50 C 966 2943 M
63 0 V
5918 0 R
-63 0 V
-6002 0 R
( 20.5061) Rshow
1.000 UL
LT0
0.50 0.50 0.50 C 1.000 UL
LTa
0.50 0.50 0.50 C 966 3035 M
5981 0 V
stroke
LT0
0.50 0.50 0.50 C 966 3035 M
63 0 V
5918 0 R
-63 0 V
-6002 0 R
( 21.2132) Rshow
1.000 UL
LT0
0.50 0.50 0.50 C 1.000 UL
LTa
0.50 0.50 0.50 C 966 3126 M
5981 0 V
stroke
LT0
0.50 0.50 0.50 C 966 3126 M
63 0 V
5918 0 R
-63 0 V
-6002 0 R
( 21.9203) Rshow
1.000 UL
LT0
0.50 0.50 0.50 C 1.000 UL
LTa
0.50 0.50 0.50 C 966 3218 M
5981 0 V
stroke
LT0
0.50 0.50 0.50 C 966 3218 M
63 0 V
5918 0 R
-63 0 V
-6002 0 R
( 22.6274) Rshow
1.000 UL
LT0
0.50 0.50 0.50 C 1.000 UL
LTa
0.50 0.50 0.50 C 966 3310 M
5981 0 V
stroke
LT0
0.50 0.50 0.50 C 966 3310 M
63 0 V
5918 0 R
-63 0 V
-6002 0 R
( 23.3345) Rshow
1.000 UL
LT0
0.50 0.50 0.50 C 1.000 UL
LTa
0.50 0.50 0.50 C 966 3402 M
5981 0 V
stroke
LT0
0.50 0.50 0.50 C 966 3402 M
63 0 V
5918 0 R
-63 0 V
-6002 0 R
( 24.0416) Rshow
1.000 UL
LT0
0.50 0.50 0.50 C 1.000 UL
LTa
0.50 0.50 0.50 C 966 3494 M
5981 0 V
stroke
LT0
0.50 0.50 0.50 C 966 3494 M
63 0 V
5918 0 R
-63 0 V
-6002 0 R
( 24.7487) Rshow
1.000 UL
LT0
0.50 0.50 0.50 C 1.000 UL
LTa
0.50 0.50 0.50 C 966 3586 M
5981 0 V
stroke
LT0
0.50 0.50 0.50 C 966 3586 M
63 0 V
5918 0 R
-63 0 V
-6002 0 R
( 25.4558) Rshow
1.000 UL
LT0
0.50 0.50 0.50 C 1.000 UL
LTa
0.50 0.50 0.50 C 966 3677 M
5981 0 V
stroke
LT0
0.50 0.50 0.50 C 966 3677 M
63 0 V
5918 0 R
-63 0 V
-6002 0 R
( 26.1629) Rshow
1.000 UL
LT0
0.50 0.50 0.50 C 1.000 UL
LTa
0.50 0.50 0.50 C 966 3769 M
5981 0 V
stroke
LT0
0.50 0.50 0.50 C 966 3769 M
63 0 V
5918 0 R
-63 0 V
-6002 0 R
( 26.87) Rshow
1.000 UL
LT0
0.50 0.50 0.50 C 1.000 UL
LTa
0.50 0.50 0.50 C 966 3861 M
5981 0 V
stroke
LT0
0.50 0.50 0.50 C 966 3861 M
63 0 V
5918 0 R
-63 0 V
-6002 0 R
( 27.5771) Rshow
1.000 UL
LT0
0.50 0.50 0.50 C 1.000 UL
LTa
0.50 0.50 0.50 C 966 3953 M
5981 0 V
stroke
LT0
0.50 0.50 0.50 C 966 3953 M
63 0 V
5918 0 R
-63 0 V
-6002 0 R
( 28.2842) Rshow
1.000 UL
LT0
0.50 0.50 0.50 C 1.000 UL
LTa
0.50 0.50 0.50 C 966 4045 M
5981 0 V
stroke
LT0
0.50 0.50 0.50 C 966 4045 M
63 0 V
5918 0 R
-63 0 V
-6002 0 R
( 28.9913) Rshow
1.000 UL
LT0
0.50 0.50 0.50 C 1.000 UL
LTa
0.50 0.50 0.50 C 966 4136 M
5981 0 V
stroke
LT0
0.50 0.50 0.50 C 966 4136 M
63 0 V
5918 0 R
-63 0 V
-6002 0 R
( 29.6985) Rshow
1.000 UL
LT0
0.50 0.50 0.50 C 1.000 UL
LTa
0.50 0.50 0.50 C 966 4228 M
5981 0 V
stroke
LT0
0.50 0.50 0.50 C 966 4228 M
63 0 V
5918 0 R
-63 0 V
-6002 0 R
( 30.4056) Rshow
1.000 UL
LT0
0.50 0.50 0.50 C 1.000 UL
LTa
0.50 0.50 0.50 C 966 4320 M
5981 0 V
stroke
LT0
0.50 0.50 0.50 C 966 4320 M
63 0 V
5918 0 R
-63 0 V
-6002 0 R
( 31.1127) Rshow
1.000 UL
LT0
0.50 0.50 0.50 C 1.000 UL
LTa
0.50 0.50 0.50 C 966 4412 M
5981 0 V
stroke
LT0
0.50 0.50 0.50 C 966 4412 M
63 0 V
5918 0 R
-63 0 V
-6002 0 R
( 31.8198) Rshow
1.000 UL
LT0
0.50 0.50 0.50 C 1.000 UL
LTa
0.50 0.50 0.50 C 966 4504 M
5981 0 V
stroke
LT0
0.50 0.50 0.50 C 966 4504 M
63 0 V
5918 0 R
-63 0 V
-6002 0 R
( 32.5269) Rshow
1.000 UL
LT0
0.50 0.50 0.50 C 1.000 UL
LTa
0.50 0.50 0.50 C 966 4596 M
5981 0 V
stroke
LT0
0.50 0.50 0.50 C 966 4596 M
63 0 V
5918 0 R
-63 0 V
-6002 0 R
( 33.234) Rshow
1.000 UL
LT0
0.50 0.50 0.50 C 1.000 UL
LTa
0.50 0.50 0.50 C 966 4687 M
5981 0 V
stroke
LT0
0.50 0.50 0.50 C 966 4687 M
63 0 V
5918 0 R
-63 0 V
-6002 0 R
( 33.9411) Rshow
1.000 UL
LT0
0.50 0.50 0.50 C 1.000 UL
LTa
0.50 0.50 0.50 C 966 4779 M
5981 0 V
stroke
LT0
0.50 0.50 0.50 C 966 4779 M
63 0 V
5918 0 R
-63 0 V
-6002 0 R
( 34.6482) Rshow
1.000 UL
LT0
0.50 0.50 0.50 C 1.000 UL
LTa
0.50 0.50 0.50 C 966 4871 M
5981 0 V
stroke
LT0
0.50 0.50 0.50 C 966 4871 M
63 0 V
5918 0 R
-63 0 V
-6002 0 R
( 35.3553) Rshow
1.000 UL
LT0
0.50 0.50 0.50 C 1.000 UL
LTa
0.50 0.50 0.50 C 966 280 M
0 4591 V
stroke
LT0
0.50 0.50 0.50 C 966 280 M
0 63 V
0 4528 R
0 -63 V
966 140 M
( 0) Cshow
1.000 UL
LT0
0.50 0.50 0.50 C 1.000 UL
LTa
0.50 0.50 0.50 C 1086 280 M
0 4591 V
stroke
LT0
0.50 0.50 0.50 C 1086 280 M
0 63 V
0 4528 R
0 -63 V
0 -4668 R
( 0.707106) Cshow
1.000 UL
LT0
0.50 0.50 0.50 C 1.000 UL
LTa
0.50 0.50 0.50 C 1205 280 M
0 4591 V
stroke
LT0
0.50 0.50 0.50 C 1205 280 M
0 63 V
0 4528 R
0 -63 V
0 -4668 R
( 1.41421) Cshow
1.000 UL
LT0
0.50 0.50 0.50 C 1.000 UL
LTa
0.50 0.50 0.50 C 1325 280 M
0 4591 V
stroke
LT0
0.50 0.50 0.50 C 1325 280 M
0 63 V
0 4528 R
0 -63 V
0 -4668 R
( 2.12132) Cshow
1.000 UL
LT0
0.50 0.50 0.50 C 1.000 UL
LTa
0.50 0.50 0.50 C 1444 280 M
0 4591 V
stroke
LT0
0.50 0.50 0.50 C 1444 280 M
0 63 V
0 4528 R
0 -63 V
0 -4668 R
( 2.82842) Cshow
1.000 UL
LT0
0.50 0.50 0.50 C 1.000 UL
LTa
0.50 0.50 0.50 C 1564 280 M
0 4591 V
stroke
LT0
0.50 0.50 0.50 C 1564 280 M
0 63 V
0 4528 R
0 -63 V
0 -4668 R
( 3.53553) Cshow
1.000 UL
LT0
0.50 0.50 0.50 C 1.000 UL
LTa
0.50 0.50 0.50 C 1684 280 M
0 4591 V
stroke
LT0
0.50 0.50 0.50 C 1684 280 M
0 63 V
0 4528 R
0 -63 V
0 -4668 R
( 4.24264) Cshow
1.000 UL
LT0
0.50 0.50 0.50 C 1.000 UL
LTa
0.50 0.50 0.50 C 1803 280 M
0 4591 V
stroke
LT0
0.50 0.50 0.50 C 1803 280 M
0 63 V
0 4528 R
0 -63 V
0 -4668 R
( 4.94974) Cshow
1.000 UL
LT0
0.50 0.50 0.50 C 1.000 UL
LTa
0.50 0.50 0.50 C 1923 280 M
0 4591 V
stroke
LT0
0.50 0.50 0.50 C 1923 280 M
0 63 V
0 4528 R
0 -63 V
0 -4668 R
( 5.65685) Cshow
1.000 UL
LT0
0.50 0.50 0.50 C 1.000 UL
LTa
0.50 0.50 0.50 C 2043 280 M
0 4591 V
stroke
LT0
0.50 0.50 0.50 C 2043 280 M
0 63 V
0 4528 R
0 -63 V
0 -4668 R
( 6.36395) Cshow
1.000 UL
LT0
0.50 0.50 0.50 C 1.000 UL
LTa
0.50 0.50 0.50 C 2162 280 M
0 4591 V
stroke
LT0
0.50 0.50 0.50 C 2162 280 M
0 63 V
0 4528 R
0 -63 V
0 -4668 R
( 7.07106) Cshow
1.000 UL
LT0
0.50 0.50 0.50 C 1.000 UL
LTa
0.50 0.50 0.50 C 2282 280 M
0 4591 V
stroke
LT0
0.50 0.50 0.50 C 2282 280 M
0 63 V
0 4528 R
0 -63 V
0 -4668 R
( 7.77817) Cshow
1.000 UL
LT0
0.50 0.50 0.50 C 1.000 UL
LTa
0.50 0.50 0.50 C 2401 280 M
0 4591 V
stroke
LT0
0.50 0.50 0.50 C 2401 280 M
0 63 V
0 4528 R
0 -63 V
0 -4668 R
( 8.48527) Cshow
1.000 UL
LT0
0.50 0.50 0.50 C 1.000 UL
LTa
0.50 0.50 0.50 C 2521 280 M
0 4591 V
stroke
LT0
0.50 0.50 0.50 C 2521 280 M
0 63 V
0 4528 R
0 -63 V
0 -4668 R
( 9.19238) Cshow
1.000 UL
LT0
0.50 0.50 0.50 C 1.000 UL
LTa
0.50 0.50 0.50 C 2641 280 M
0 4591 V
stroke
LT0
0.50 0.50 0.50 C 2641 280 M
0 63 V
0 4528 R
0 -63 V
0 -4668 R
( 9.89948) Cshow
1.000 UL
LT0
0.50 0.50 0.50 C 1.000 UL
LTa
0.50 0.50 0.50 C 2760 280 M
0 4591 V
stroke
LT0
0.50 0.50 0.50 C 2760 280 M
0 63 V
0 4528 R
0 -63 V
0 -4668 R
( 10.6066) Cshow
1.000 UL
LT0
0.50 0.50 0.50 C 1.000 UL
LTa
0.50 0.50 0.50 C 2880 280 M
0 4591 V
stroke
LT0
0.50 0.50 0.50 C 2880 280 M
0 63 V
0 4528 R
0 -63 V
0 -4668 R
( 11.3137) Cshow
1.000 UL
LT0
0.50 0.50 0.50 C 1.000 UL
LTa
0.50 0.50 0.50 C 3000 280 M
0 4591 V
stroke
LT0
0.50 0.50 0.50 C 3000 280 M
0 63 V
0 4528 R
0 -63 V
0 -4668 R
( 12.0208) Cshow
1.000 UL
LT0
0.50 0.50 0.50 C 1.000 UL
LTa
0.50 0.50 0.50 C 3119 280 M
0 4591 V
stroke
LT0
0.50 0.50 0.50 C 3119 280 M
0 63 V
0 4528 R
0 -63 V
0 -4668 R
( 12.7279) Cshow
1.000 UL
LT0
0.50 0.50 0.50 C 1.000 UL
LTa
0.50 0.50 0.50 C 3239 280 M
0 4591 V
stroke
LT0
0.50 0.50 0.50 C 3239 280 M
0 63 V
0 4528 R
0 -63 V
0 -4668 R
( 13.435) Cshow
1.000 UL
LT0
0.50 0.50 0.50 C 1.000 UL
LTa
0.50 0.50 0.50 C 3358 280 M
0 4591 V
stroke
LT0
0.50 0.50 0.50 C 3358 280 M
0 63 V
0 4528 R
0 -63 V
0 -4668 R
( 14.1421) Cshow
1.000 UL
LT0
0.50 0.50 0.50 C 1.000 UL
LTa
0.50 0.50 0.50 C 3478 280 M
0 4591 V
stroke
LT0
0.50 0.50 0.50 C 3478 280 M
0 63 V
0 4528 R
0 -63 V
0 -4668 R
( 14.8492) Cshow
1.000 UL
LT0
0.50 0.50 0.50 C 1.000 UL
LTa
0.50 0.50 0.50 C 3598 280 M
0 4591 V
stroke
LT0
0.50 0.50 0.50 C 3598 280 M
0 63 V
0 4528 R
0 -63 V
0 -4668 R
( 15.5563) Cshow
1.000 UL
LT0
0.50 0.50 0.50 C 1.000 UL
LTa
0.50 0.50 0.50 C 3717 280 M
0 4591 V
stroke
LT0
0.50 0.50 0.50 C 3717 280 M
0 63 V
0 4528 R
0 -63 V
0 -4668 R
( 16.2634) Cshow
1.000 UL
LT0
0.50 0.50 0.50 C 1.000 UL
LTa
0.50 0.50 0.50 C 3837 280 M
0 4591 V
stroke
LT0
0.50 0.50 0.50 C 3837 280 M
0 63 V
0 4528 R
0 -63 V
0 -4668 R
( 16.9705) Cshow
1.000 UL
LT0
0.50 0.50 0.50 C 1.000 UL
LTa
0.50 0.50 0.50 C 3956 280 M
0 4591 V
stroke
LT0
0.50 0.50 0.50 C 3956 280 M
0 63 V
0 4528 R
0 -63 V
0 -4668 R
( 17.6776) Cshow
1.000 UL
LT0
0.50 0.50 0.50 C 1.000 UL
LTa
0.50 0.50 0.50 C 4076 280 M
0 4591 V
stroke
LT0
0.50 0.50 0.50 C 4076 280 M
0 63 V
0 4528 R
0 -63 V
0 -4668 R
( 18.3848) Cshow
1.000 UL
LT0
0.50 0.50 0.50 C 1.000 UL
LTa
0.50 0.50 0.50 C 4196 280 M
0 4591 V
stroke
LT0
0.50 0.50 0.50 C 4196 280 M
0 63 V
0 4528 R
0 -63 V
0 -4668 R
( 19.0919) Cshow
1.000 UL
LT0
0.50 0.50 0.50 C 1.000 UL
LTa
0.50 0.50 0.50 C 4315 280 M
0 4591 V
stroke
LT0
0.50 0.50 0.50 C 4315 280 M
0 63 V
0 4528 R
0 -63 V
0 -4668 R
( 19.799) Cshow
1.000 UL
LT0
0.50 0.50 0.50 C 1.000 UL
LTa
0.50 0.50 0.50 C 4435 280 M
0 4591 V
stroke
LT0
0.50 0.50 0.50 C 4435 280 M
0 63 V
0 4528 R
0 -63 V
0 -4668 R
( 20.5061) Cshow
1.000 UL
LT0
0.50 0.50 0.50 C 1.000 UL
LTa
0.50 0.50 0.50 C 4555 280 M
0 4591 V
stroke
LT0
0.50 0.50 0.50 C 4555 280 M
0 63 V
0 4528 R
0 -63 V
0 -4668 R
( 21.2132) Cshow
1.000 UL
LT0
0.50 0.50 0.50 C 1.000 UL
LTa
0.50 0.50 0.50 C 4674 280 M
0 4591 V
stroke
LT0
0.50 0.50 0.50 C 4674 280 M
0 63 V
0 4528 R
0 -63 V
0 -4668 R
( 21.9203) Cshow
1.000 UL
LT0
0.50 0.50 0.50 C 1.000 UL
LTa
0.50 0.50 0.50 C 4794 280 M
0 4591 V
stroke
LT0
0.50 0.50 0.50 C 4794 280 M
0 63 V
0 4528 R
0 -63 V
0 -4668 R
( 22.6274) Cshow
1.000 UL
LT0
0.50 0.50 0.50 C 1.000 UL
LTa
0.50 0.50 0.50 C 4913 280 M
0 4591 V
stroke
LT0
0.50 0.50 0.50 C 4913 280 M
0 63 V
0 4528 R
0 -63 V
0 -4668 R
( 23.3345) Cshow
1.000 UL
LT0
0.50 0.50 0.50 C 1.000 UL
LTa
0.50 0.50 0.50 C 5033 280 M
0 4591 V
stroke
LT0
0.50 0.50 0.50 C 5033 280 M
0 63 V
0 4528 R
0 -63 V
0 -4668 R
( 24.0416) Cshow
1.000 UL
LT0
0.50 0.50 0.50 C 1.000 UL
LTa
0.50 0.50 0.50 C 5153 280 M
0 4591 V
stroke
LT0
0.50 0.50 0.50 C 5153 280 M
0 63 V
0 4528 R
0 -63 V
0 -4668 R
( 24.7487) Cshow
1.000 UL
LT0
0.50 0.50 0.50 C 1.000 UL
LTa
0.50 0.50 0.50 C 5272 280 M
0 4591 V
stroke
LT0
0.50 0.50 0.50 C 5272 280 M
0 63 V
0 4528 R
0 -63 V
0 -4668 R
( 25.4558) Cshow
1.000 UL
LT0
0.50 0.50 0.50 C 1.000 UL
LTa
0.50 0.50 0.50 C 5392 280 M
0 4591 V
stroke
LT0
0.50 0.50 0.50 C 5392 280 M
0 63 V
0 4528 R
0 -63 V
0 -4668 R
( 26.1629) Cshow
1.000 UL
LT0
0.50 0.50 0.50 C 1.000 UL
LTa
0.50 0.50 0.50 C 5512 280 M
0 4591 V
stroke
LT0
0.50 0.50 0.50 C 5512 280 M
0 63 V
0 4528 R
0 -63 V
0 -4668 R
( 26.87) Cshow
1.000 UL
LT0
0.50 0.50 0.50 C 1.000 UL
LTa
0.50 0.50 0.50 C 5631 280 M
0 4591 V
stroke
LT0
0.50 0.50 0.50 C 5631 280 M
0 63 V
0 4528 R
0 -63 V
0 -4668 R
( 27.5771) Cshow
1.000 UL
LT0
0.50 0.50 0.50 C 1.000 UL
LTa
0.50 0.50 0.50 C 5751 280 M
0 4591 V
stroke
LT0
0.50 0.50 0.50 C 5751 280 M
0 63 V
0 4528 R
0 -63 V
0 -4668 R
( 28.2842) Cshow
1.000 UL
LT0
0.50 0.50 0.50 C 1.000 UL
LTa
0.50 0.50 0.50 C 5870 280 M
0 4591 V
stroke
LT0
0.50 0.50 0.50 C 5870 280 M
0 63 V
0 4528 R
0 -63 V
0 -4668 R
( 28.9913) Cshow
1.000 UL
LT0
0.50 0.50 0.50 C 1.000 UL
LTa
0.50 0.50 0.50 C 5990 280 M
0 4591 V
stroke
LT0
0.50 0.50 0.50 C 5990 280 M
0 63 V
0 4528 R
0 -63 V
0 -4668 R
( 29.6985) Cshow
1.000 UL
LT0
0.50 0.50 0.50 C 1.000 UL
LTa
0.50 0.50 0.50 C 6110 280 M
0 4591 V
stroke
LT0
0.50 0.50 0.50 C 6110 280 M
0 63 V
0 4528 R
0 -63 V
0 -4668 R
( 30.4056) Cshow
1.000 UL
LT0
0.50 0.50 0.50 C 1.000 UL
LTa
0.50 0.50 0.50 C 6229 280 M
0 4591 V
stroke
LT0
0.50 0.50 0.50 C 6229 280 M
0 63 V
0 4528 R
0 -63 V
0 -4668 R
( 31.1127) Cshow
1.000 UL
LT0
0.50 0.50 0.50 C 1.000 UL
LTa
0.50 0.50 0.50 C 6349 280 M
0 4591 V
stroke
LT0
0.50 0.50 0.50 C 6349 280 M
0 63 V
0 4528 R
0 -63 V
0 -4668 R
( 31.8198) Cshow
1.000 UL
LT0
0.50 0.50 0.50 C 1.000 UL
LTa
0.50 0.50 0.50 C 6469 280 M
0 4591 V
stroke
LT0
0.50 0.50 0.50 C 6469 280 M
0 63 V
0 4528 R
0 -63 V
0 -4668 R
( 32.5269) Cshow
1.000 UL
LT0
0.50 0.50 0.50 C 1.000 UL
LTa
0.50 0.50 0.50 C 6588 280 M
0 4591 V
stroke
LT0
0.50 0.50 0.50 C 6588 280 M
0 63 V
0 4528 R
0 -63 V
0 -4668 R
( 33.234) Cshow
1.000 UL
LT0
0.50 0.50 0.50 C 1.000 UL
LTa
0.50 0.50 0.50 C 6708 280 M
0 4591 V
stroke
LT0
0.50 0.50 0.50 C 6708 280 M
0 63 V
0 4528 R
0 -63 V
0 -4668 R
( 33.9411) Cshow
1.000 UL
LT0
0.50 0.50 0.50 C 1.000 UL
LTa
0.50 0.50 0.50 C 6827 280 M
0 4591 V
stroke
LT0
0.50 0.50 0.50 C 6827 280 M
0 63 V
0 4528 R
0 -63 V
0 -4668 R
( 34.6482) Cshow
1.000 UL
LT0
0.50 0.50 0.50 C 1.000 UL
LTa
0.50 0.50 0.50 C 6947 280 M
0 4591 V
stroke
LT0
0.50 0.50 0.50 C 6947 280 M
0 63 V
0 4528 R
0 -63 V
0 -4668 R
( 35.3553) Cshow
1.000 UL
LT0
0.50 0.50 0.50 C 1.000 UL
LT0
0.50 0.50 0.50 C 966 4871 M
966 280 L
5981 0 V
0 4591 R
-5981 0 R
1.000 UP
stroke
LT0
0.50 0.50 0.50 C % Begin plot #1
1.500 UP
2.000 UL
LT0
0.00 0.00 1.00 C /Helvetica findfont 140 scalefont setfont
/vshift -46 def
966 464 M
120 0 V
0 367 R
119 0 V
120 0 V
0 275 R
119 0 V
0 276 R
120 0 V
120 0 V
119 0 V
120 0 V
120 0 V
119 0 V
0 367 R
120 0 V
119 0 V
120 0 V
120 0 V
0 276 R
119 0 V
0 459 R
120 0 V
0 275 R
120 0 V
0 92 R
119 0 V
120 0 V
0 92 R
119 0 V
120 0 V
0 92 R
120 0 V
119 0 V
120 0 V
120 0 V
119 0 V
120 0 V
119 0 V
120 0 V
0 91 R
120 0 V
119 0 V
120 0 V
0 368 R
119 0 V
120 0 V
0 183 R
120 0 V
119 0 V
120 0 V
120 0 V
0 92 R
119 0 V
0 92 R
120 0 V
0 184 R
119 0 V
120 0 V
120 0 V
119 0 V
120 0 V
120 0 V
119 0 V
0 183 R
120 0 V
119 0 V
1086 464 M
0 91 V
0 92 V
0 92 V
0 92 V
239 0 R
0 92 V
0 92 V
0 91 V
119 0 R
0 92 V
0 92 V
0 92 V
718 0 R
0 92 V
0 91 V
0 92 V
0 92 V
479 0 R
0 92 V
0 92 V
0 92 V
119 0 R
0 91 V
0 92 V
0 92 V
0 92 V
0 92 V
120 0 R
0 92 V
0 91 V
0 92 V
120 0 R
0 92 V
239 0 R
0 92 V
239 0 R
0 92 V
stroke 3478 3035 M
957 0 R
0 91 V
359 0 R
0 92 V
0 92 V
0 92 V
0 92 V
239 0 R
0 92 V
0 91 V
479 0 R
0 92 V
119 0 R
0 92 V
120 0 R
0 92 V
0 92 V
837 0 R
0 91 V
0 92 V
966 280 M
0 92 V
6827 4687 M
0 92 V
966 372 M
0 92 V
6827 4228 M
0 92 V
0 92 V
0 92 V
0 92 V
0 91 V
966 464 CircleF
1086 464 CircleF
1086 831 CircleF
1205 831 CircleF
1205 831 CircleF
1325 831 CircleF
1325 1106 CircleF
1444 1106 CircleF
1444 1382 CircleF
1564 1382 CircleF
1564 1382 CircleF
1684 1382 CircleF
1684 1382 CircleF
1803 1382 CircleF
1803 1382 CircleF
1923 1382 CircleF
1923 1382 CircleF
2043 1382 CircleF
2043 1382 CircleF
2162 1382 CircleF
2162 1749 CircleF
2282 1749 CircleF
2282 1749 CircleF
2401 1749 CircleF
2401 1749 CircleF
2521 1749 CircleF
2521 1749 CircleF
2641 1749 CircleF
2641 2025 CircleF
2760 2025 CircleF
2760 2484 CircleF
2880 2484 CircleF
2880 2759 CircleF
3000 2759 CircleF
3000 2851 CircleF
3119 2851 CircleF
3119 2851 CircleF
3239 2851 CircleF
3239 2943 CircleF
3358 2943 CircleF
3358 2943 CircleF
3478 2943 CircleF
3478 3035 CircleF
3598 3035 CircleF
3598 3035 CircleF
3717 3035 CircleF
3717 3035 CircleF
3837 3035 CircleF
3837 3035 CircleF
3957 3035 CircleF
3957 3035 CircleF
4076 3035 CircleF
4076 3035 CircleF
4196 3035 CircleF
4196 3035 CircleF
4315 3035 CircleF
4315 3035 CircleF
4435 3035 CircleF
4435 3126 CircleF
4555 3126 CircleF
4555 3126 CircleF
4674 3126 CircleF
4674 3126 CircleF
4794 3126 CircleF
4794 3494 CircleF
4913 3494 CircleF
4913 3494 CircleF
5033 3494 CircleF
5033 3677 CircleF
5153 3677 CircleF
5153 3677 CircleF
5272 3677 CircleF
5272 3677 CircleF
5392 3677 CircleF
5392 3677 CircleF
5512 3677 CircleF
5512 3769 CircleF
5631 3769 CircleF
5631 3861 CircleF
5751 3861 CircleF
5751 4045 CircleF
5870 4045 CircleF
5870 4045 CircleF
5990 4045 CircleF
5990 4045 CircleF
6110 4045 CircleF
6110 4045 CircleF
6229 4045 CircleF
6229 4045 CircleF
6349 4045 CircleF
6349 4045 CircleF
6469 4045 CircleF
6469 4045 CircleF
6588 4045 CircleF
6588 4228 CircleF
6708 4228 CircleF
6708 4228 CircleF
6827 4228 CircleF
1086 464 CircleF
1086 555 CircleF
1086 555 CircleF
1086 647 CircleF
1086 647 CircleF
1086 739 CircleF
1086 739 CircleF
1086 831 CircleF
1325 831 CircleF
1325 923 CircleF
1325 923 CircleF
1325 1015 CircleF
1325 1015 CircleF
1325 1106 CircleF
1444 1106 CircleF
1444 1198 CircleF
1444 1198 CircleF
1444 1290 CircleF
1444 1290 CircleF
1444 1382 CircleF
2162 1382 CircleF
2162 1474 CircleF
2162 1474 CircleF
2162 1565 CircleF
2162 1565 CircleF
2162 1657 CircleF
2162 1657 CircleF
2162 1749 CircleF
2641 1749 CircleF
2641 1841 CircleF
2641 1841 CircleF
2641 1933 CircleF
2641 1933 CircleF
2641 2025 CircleF
2760 2025 CircleF
2760 2116 CircleF
2760 2116 CircleF
2760 2208 CircleF
2760 2208 CircleF
2760 2300 CircleF
2760 2300 CircleF
2760 2392 CircleF
2760 2392 CircleF
2760 2484 CircleF
2880 2484 CircleF
2880 2576 CircleF
2880 2576 CircleF
2880 2667 CircleF
2880 2667 CircleF
2880 2759 CircleF
3000 2759 CircleF
3000 2851 CircleF
3239 2851 CircleF
3239 2943 CircleF
3478 2943 CircleF
3478 3035 CircleF
4435 3035 CircleF
4435 3126 CircleF
4794 3126 CircleF
4794 3218 CircleF
4794 3218 CircleF
4794 3310 CircleF
4794 3310 CircleF
4794 3402 CircleF
4794 3402 CircleF
4794 3494 CircleF
5033 3494 CircleF
5033 3586 CircleF
5033 3586 CircleF
5033 3677 CircleF
5512 3677 CircleF
5512 3769 CircleF
5631 3769 CircleF
5631 3861 CircleF
5751 3861 CircleF
5751 3953 CircleF
5751 3953 CircleF
5751 4045 CircleF
6588 4045 CircleF
6588 4136 CircleF
6588 4136 CircleF
6588 4228 CircleF
966 280 CircleF
966 372 CircleF
6827 4687 CircleF
6827 4779 CircleF
966 372 CircleF
966 464 CircleF
6827 4228 CircleF
6827 4320 CircleF
6827 4320 CircleF
6827 4412 CircleF
6827 4412 CircleF
6827 4504 CircleF
6827 4504 CircleF
6827 4596 CircleF
6827 4596 CircleF
6827 4687 CircleF
% End plot #1
% Begin plot #2
1.500 UP
2.000 UL
LT0
1.00 0.55 0.00 C /Helvetica findfont 140 scalefont setfont
1044 2030 M
119 92 V
3252 1375 M
120 92 V
1167 2684 M
120 92 V
1780 836 R
119 92 V
2762 900 M
119 92 V
2240 511 M
120 92 V
6183 526 M
120 92 V
1382 3794 M
119 92 V
5757 2235 M
120 92 V
4819 4258 M
119 92 V
3571 2206 M
120 92 V
-2476 95 R
120 92 V
2217 538 R
120 91 V
4850 1375 M
120 92 V
2987 2048 M
119 92 V
1603 4413 M
119 92 V
2443 2514 M
119 92 V
6591 388 M
120 92 V
2121 1695 M
119 92 V
3705 539 M
120 92 V
5877 4033 M
119 92 V
2836 2709 M
120 91 V
5852 2521 M
119 92 V
6660 1257 M
120 92 V
4437 1835 M
120 92 V
3488 410 M
119 91 V
351 3965 R
119 92 V
1238 1493 M
120 91 V
580 2165 R
120 92 V
4045 1738 M
120 92 V
2425 2169 M
119 92 V
178 58 R
120 92 V
4586 1685 M
120 92 V
-189 -40 R
120 91 V
2739 2877 M
120 92 V
2696 1651 M
120 91 V
3592 449 M
119 91 V
2046 852 R
120 92 V
2713 1235 M
120 91 V
-46 3078 R
120 92 V
2491 3887 M
120 92 V
949 340 R
120 92 V
1372 2031 M
120 91 V
6627 1011 M
119 92 V
6076 2670 M
120 92 V
4358 4067 M
120 92 V
2337 1727 M
119 92 V
1794 3722 M
119 92 V
3661 538 R
119 92 V
1634 3758 M
120 92 V
3816 2814 M
120 92 V
5822 1366 M
119 92 V
-546 92 R
120 91 V
stroke 5515 1641 M
3498 1967 M
120 91 V
5936 305 M
119 92 V
592 30 R
120 92 V
5601 2372 M
120 92 V
816 2216 R
120 92 V
4165 1123 M
120 92 V
6492 3745 M
119 92 V
5488 1788 M
120 92 V
3024 874 M
120 91 V
340 22 R
119 91 V
5312 4435 M
119 92 V
5164 2874 M
120 91 V
3242 1282 M
119 92 V
884 1935 R
119 92 V
5605 4553 M
120 91 V
6061 879 M
120 92 V
2468 380 M
120 92 V
-126 76 R
120 92 V
1926 525 R
119 92 V
9 1398 R
120 92 V
4489 4342 M
120 91 V
3480 317 M
120 92 V
6362 3672 M
119 92 V
5910 3344 M
119 91 V
498 603 R
119 92 V
2416 2776 M
120 92 V
2536 405 R
119 92 V
1207 2541 M
120 92 V
5623 3825 M
120 92 V
186 -154 R
119 92 V
4524 4577 M
119 91 V
4407 3078 M
119 92 V
1918 21 R
120 92 V
4617 1234 M
119 91 V
2934 955 M
120 92 V
-597 76 R
120 92 V
3996 3032 M
120 92 V
5443 4507 M
119 91 V
2841 2704 M
119 92 V
1528 2402 M
120 92 V
-69 -535 R
120 92 V
670 2269 R
119 92 V
5109 2363 M
120 92 V
904 2079 R
120 92 V
4146 2470 M
120 92 V
2113 2278 M
119 92 V
4888 1253 M
119 91 V
6573 4039 M
120 91 V
5649 1922 M
119 92 V
6253 601 M
119 92 V
4327 2523 M
119 92 V
2301 4306 M
120 92 V
stroke 2421 4398 M
2042 776 M
120 92 V
4374 191 R
119 92 V
2008 874 M
119 92 V
6349 3256 M
120 92 V
6092 3119 M
120 92 V
3450 2117 M
120 92 V
1049 847 R
119 92 V
937 1046 R
119 92 V
2734 2422 M
119 91 V
3342 710 R
120 92 V
4282 1861 M
120 92 V
1028 1329 M
120 92 V
3946 1149 M
120 92 V
5807 785 M
119 92 V
1231 4567 M
120 91 V
4430 1949 M
119 92 V
1406 2566 M
120 92 V
3031 1049 M
119 92 V
5018 1023 M
120 92 V
3722 4191 M
120 92 V
4677 738 M
120 92 V
4164 3599 M
119 92 V
6007 1969 M
120 92 V
1392 3652 M
120 92 V
4140 92 R
120 91 V
126 -922 R
120 92 V
234 -806 R
119 91 V
1596 3233 M
119 92 V
4921 4611 M
119 91 V
1851 1023 M
119 92 V
4765 2647 M
120 92 V
1103 3219 M
120 91 V
4040 895 R
119 92 V
1074 1284 M
119 91 V
6365 3192 M
120 92 V
5656 535 M
120 92 V
-679 578 R
120 92 V
1152 2246 M
120 92 V
5804 1970 M
120 92 V
4888 3476 M
120 92 V
1489 2911 M
119 92 V
3690 11 R
120 92 V
74 -1423 R
120 92 V
5061 3009 M
120 92 V
3514 1899 M
120 92 V
1186 669 M
120 91 V
4773 4452 M
120 91 V
5907 1018 M
119 92 V
5197 2552 M
119 92 V
103 812 R
120 92 V
4933 3057 M
119 92 V
-341 449 R
119 92 V
stroke 4830 3690 M
5319 382 M
120 92 V
2047 3781 M
119 92 V
2676 418 R
120 92 V
-436 -91 R
120 92 V
6546 502 M
120 92 V
40 1498 R
119 92 V
3042 1418 M
119 92 V
983 2556 M
119 92 V
2672 1248 M
119 92 V
522 3258 R
120 92 V
4117 2138 M
120 92 V
2705 1987 M
120 92 V
4040 4154 M
119 92 V
197 -572 R
119 91 V
1391 1083 M
120 92 V
1297 986 M
119 92 V
5842 769 M
120 91 V
258 1874 R
120 91 V
5453 4131 M
120 91 V
4789 3407 M
119 92 V
456 440 R
119 92 V
971 4075 M
120 92 V
5086 2886 M
120 92 V
1853 899 M
119 92 V
3316 2127 M
120 91 V
1985 901 R
120 92 V
3910 3937 M
119 92 V
1251 2470 M
120 92 V
3417 1419 M
120 92 V
3359 3591 M
119 92 V
2545 3259 M
120 92 V
4496 1043 M
120 92 V
2424 619 M
120 92 V
820 473 R
120 92 V
5665 2973 M
120 92 V
2606 1904 M
120 92 V
5438 3235 M
120 92 V
-1695 32 R
120 92 V
3207 547 M
120 92 V
1326 617 M
119 92 V
1530 510 R
119 92 V
4186 1184 M
120 92 V
1617 4041 M
120 92 V
5228 3010 M
119 92 V
-1820 76 R
120 92 V
229 -104 R
120 91 V
5408 1810 M
120 92 V
2783 3407 M
119 92 V
5996 2548 M
119 92 V
2820 2039 M
120 92 V
842 773 R
120 92 V
4961 1761 M
120 92 V
stroke 5081 1853 M
4844 591 M
119 91 V
4308 3264 M
120 92 V
4109 4612 M
120 91 V
5716 901 M
119 92 V
1710 2529 M
120 92 V
-820 686 R
119 92 V
6494 605 M
120 92 V
5585 4560 M
119 92 V
1269 3583 M
120 92 V
4571 2984 M
120 92 V
-272 523 R
120 92 V
2213 2032 M
119 91 V
3222 794 M
120 91 V
-722 842 R
120 92 V
4146 3387 M
120 92 V
1140 2347 M
120 92 V
915 1522 R
120 92 V
2182 171 R
119 92 V
777 205 R
120 92 V
7 -2698 R
120 92 V
2652 2372 M
119 92 V
3686 103 R
120 91 V
3020 665 M
120 91 V
2692 869 M
119 92 V
-218 894 R
120 91 V
4453 521 M
120 92 V
540 532 R
120 92 V
288 1587 R
120 92 V
5770 1913 M
120 92 V
1576 2762 M
119 92 V
1014 466 M
119 92 V
5389 4457 M
120 92 V
3572 2974 M
119 92 V
-914 405 R
120 92 V
1098 1843 M
119 92 V
1001 934 R
119 92 V
3336 128 R
119 92 V
-465 61 R
120 92 V
6091 2011 M
120 92 V
1002 901 M
120 92 V
4263 252 R
120 92 V
3690 3920 M
120 92 V
4011 1866 M
120 91 V
2514 3196 M
119 92 V
6079 976 M
119 92 V
-921 -21 R
120 92 V
2896 3878 M
119 92 V
4239 347 M
119 92 V
6156 653 M
120 92 V
3181 1693 M
119 92 V
5510 3430 M
120 92 V
4317 3034 M
119 92 V
stroke 4436 3126 M
5798 4281 M
119 92 V
2333 3876 M
119 91 V
657 315 R
119 92 V
1224 3125 M
120 91 V
2935 3053 M
119 92 V
2611 1844 M
120 92 V
3648 660 R
119 91 V
3735 2808 M
119 92 V
2184 4036 M
119 92 V
-314 442 R
119 91 V
1164 2242 M
120 92 V
4091 3723 M
120 91 V
1989 1366 M
119 92 V
5432 972 M
120 92 V
1155 766 R
119 92 V
4028 2255 M
119 92 V
1000 1586 M
120 91 V
4118 503 R
120 92 V
959 1760 R
119 92 V
3647 2843 M
119 92 V
1745 913 M
119 92 V
1195 4498 M
119 91 V
1899 3570 M
120 92 V
4618 266 R
120 92 V
1280 3227 M
120 92 V
6257 2161 M
120 92 V
5578 489 M
120 92 V
953 2893 R
120 92 V
3266 3496 M
120 92 V
1030 3820 M
120 92 V
3945 3560 M
119 91 V
2923 469 M
119 92 V
5763 2647 M
120 92 V
747 1446 R
119 92 V
6428 3675 M
119 92 V
-637 -54 R
119 92 V
4749 3255 M
120 91 V
4446 1306 M
119 92 V
2692 4054 M
120 91 V
3465 2627 M
119 92 V
6219 3789 M
119 91 V
3547 1364 M
120 91 V
1706 4349 M
120 92 V
3241 1791 M
120 92 V
220 1597 R
120 92 V
6616 2103 M
120 91 V
3756 1231 M
120 92 V
5259 2756 M
119 92 V
4546 1215 M
120 92 V
1061 -39 R
120 91 V
781 941 R
120 92 V
4264 1118 M
119 92 V
stroke 4383 1210 M
5467 4557 M
120 92 V
722 -384 R
119 92 V
1958 2132 M
120 92 V
234 176 R
120 92 V
4097 1375 M
119 91 V
6215 3709 M
120 91 V
4742 2263 M
119 92 V
-1696 65 R
119 92 V
5770 4234 M
119 92 V
5399 1609 M
120 91 V
5341 3594 M
119 91 V
-531 651 R
119 92 V
3090 702 M
119 92 V
1184 1796 M
119 92 V
543 -569 R
120 92 V
1044 2567 M
120 91 V
5794 4312 M
120 92 V
5657 2952 M
120 92 V
995 3400 M
119 92 V
4821 1927 M
120 92 V
-17 1737 R
120 92 V
3129 941 M
119 91 V
2847 2515 M
119 91 V
2648 4494 M
119 91 V
1309 1388 M
120 91 V
1072 805 M
120 92 V
5921 680 M
120 92 V
5810 2787 M
119 92 V
234 346 R
119 92 V
2176 302 M
119 92 V
3607 865 M
120 92 V
2202 15 R
120 92 V
1631 1942 M
120 92 V
2924 455 M
120 92 V
4115 2212 M
120 91 V
2185 1082 M
119 92 V
44 -61 R
120 91 V
-950 475 R
119 91 V
1724 533 M
120 92 V
4193 920 M
120 91 V
801 1439 R
119 92 V
2646 2030 M
120 92 V
5098 650 M
120 92 V
415 3109 R
120 92 V
3891 444 M
120 92 V
2695 894 R
119 92 V
1407 747 M
120 92 V
6369 3450 M
119 92 V
5506 672 M
120 91 V
1801 2867 M
119 92 V
5732 983 M
119 92 V
487 1187 R
119 92 V
stroke 6457 2354 M
-4330 24 R
120 92 V
5495 3869 M
120 92 V
6160 2644 M
120 92 V
3570 3365 M
120 92 V
2094 1381 M
120 92 V
1296 839 M
120 92 V
-28 3587 R
120 92 V
6232 3981 M
119 91 V
4036 4310 M
120 92 V
4716 3342 M
120 92 V
1983 3285 M
120 92 V
-72 750 R
120 92 V
4858 1616 M
120 92 V
3389 4207 M
120 92 V
6191 3289 M
120 92 V
4753 836 M
119 92 V
2669 4678 M
120 92 V
3798 1320 M
119 92 V
743 2598 R
120 92 V
2925 2626 M
120 92 V
2483 1479 M
120 92 V
6346 3938 M
119 92 V
-620 131 R
120 92 V
1296 624 M
120 92 V
2988 591 M
120 91 V
764 1211 R
120 92 V
6185 3368 M
120 91 V
3186 2836 M
120 92 V
4731 2422 M
119 92 V
678 -640 R
120 92 V
153 -907 R
120 92 V
486 1412 R
120 91 V
2772 582 M
120 92 V
747 3652 R
119 92 V
2800 1086 M
119 92 V
61 1931 R
119 91 V
4139 682 M
119 92 V
6310 2653 M
120 92 V
2221 3494 M
120 92 V
2005 293 R
119 92 V
3077 1284 M
119 91 V
1138 1808 M
120 92 V
4210 746 M
120 91 V
2675 4335 M
119 92 V
2446 2896 M
120 92 V
3786 965 R
120 92 V
3170 1495 M
120 91 V
4502 4082 M
119 92 V
4019 474 M
120 92 V
3851 2726 M
120 92 V
-574 833 R
120 92 V
4802 968 M
119 92 V
stroke 4921 1060 M
6068 3591 M
120 92 V
3424 2943 M
119 92 V
6490 1984 M
120 92 V
-353 682 R
119 92 V
5978 432 M
120 92 V
191 2701 R
119 92 V
4542 4570 M
119 92 V
1319 281 M
120 91 V
3600 1629 M
120 92 V
2314 4253 M
120 92 V
5293 4136 M
120 92 V
4858 1056 M
119 92 V
564 3206 R
119 91 V
1903 2068 M
120 92 V
4216 1505 M
120 92 V
463 -427 R
120 91 V
2711 2419 M
120 92 V
1030 1857 M
119 92 V
3527 868 R
120 92 V
12 546 R
119 92 V
2854 2596 M
120 92 V
6512 910 M
120 92 V
4445 900 M
120 92 V
1673 2143 M
119 92 V
-712 663 R
120 92 V
4946 497 M
119 92 V
-479 517 R
119 92 V
2563 4215 M
120 92 V
1024 140 R
120 92 V
1882 2612 M
119 92 V
1138 1228 M
120 92 V
1189 43 R
120 91 V
588 221 R
120 91 V
2682 3121 M
120 91 V
6302 2738 M
120 92 V
5351 2050 M
120 92 V
5333 2007 M
120 92 V
4094 592 M
120 92 V
4006 2158 M
120 92 V
5744 1804 M
120 92 V
3526 1150 M
120 91 V
5311 4328 M
120 92 V
3608 1297 M
119 92 V
931 -9 R
120 92 V
5844 3052 M
120 92 V
1141 3337 M
119 92 V
195 -793 R
120 92 V
2866 950 R
119 92 V
4219 996 M
119 92 V
-3116 -2 R
120 91 V
334 200 R
120 91 V
3849 2967 M
120 92 V
stroke 3969 3059 M
934 -521 R
119 92 V
2129 4623 M
120 92 V
985 2951 M
120 92 V
1060 742 M
120 92 V
4016 2515 M
119 91 V
-171 400 R
120 92 V
1132 1709 M
119 92 V
3838 4539 M
120 92 V
1708 3763 M
119 92 V
2059 1455 M
120 92 V
3064 322 M
120 92 V
980 4088 M
120 92 V
5132 3627 M
119 92 V
3997 3325 M
120 91 V
1220 3163 M
119 92 V
3421 2131 M
120 91 V
2002 -19 R
120 92 V
3054 2988 M
120 92 V
4044 513 M
120 91 V
415 109 R
120 91 V
868 240 R
120 92 V
4683 3422 M
120 92 V
259 162 R
119 92 V
-168 721 R
119 92 V
1781 2091 M
120 92 V
851 679 R
120 92 V
2638 735 M
120 91 V
4063 3538 M
119 92 V
1421 1914 M
119 92 V
3980 1445 M
119 91 V
5492 1145 M
120 92 V
2246 2628 M
120 92 V
2207 1695 M
120 92 V
3465 659 M
120 92 V
2528 3935 M
119 91 V
676 -125 R
119 92 V
5044 1358 M
120 92 V
1583 3519 M
120 92 V
3447 2270 M
120 92 V
5024 3601 M
120 92 V
2627 1048 M
120 92 V
4311 4464 M
120 91 V
4090 3734 M
120 92 V
4083 303 M
119 92 V
2462 1886 M
119 92 V
5266 3375 M
120 92 V
4146 4591 M
120 92 V
3597 3033 M
120 92 V
1423 624 M
120 92 V
5427 3040 M
120 92 V
2155 1640 M
119 92 V
2039 2993 M
120 92 V
stroke 2159 3085 M
3826 2784 M
119 92 V
1377 1468 M
120 91 V
3563 669 M
120 92 V
2869 2066 M
120 91 V
2749 1811 M
120 92 V
4363 4022 M
120 92 V
3451 2247 M
120 92 V
2592 1770 M
120 92 V
1616 2177 M
119 92 V
-598 285 R
119 92 V
4679 810 R
119 91 V
3858 1791 M
120 92 V
4986 1621 M
119 92 V
4937 839 M
119 92 V
2079 3005 M
120 92 V
5905 2496 M
119 91 V
90 1438 R
119 92 V
1300 2914 M
120 92 V
5089 2283 M
119 92 V
2671 4416 M
120 92 V
655 -180 R
120 92 V
3846 681 M
120 92 V
1966 535 M
119 92 V
3504 4507 M
119 92 V
6584 2492 M
120 92 V
2040 2739 M
120 92 V
1837 2176 M
120 92 V
3753 4000 M
120 92 V
1462 2395 M
119 92 V
6365 938 M
120 92 V
4350 3552 M
120 92 V
5494 1760 M
120 92 V
3467 2019 M
119 92 V
4917 1068 M
119 91 V
-476 780 R
119 91 V
511 2361 R
120 91 V
1292 1059 M
120 92 V
3502 2498 M
119 92 V
2708 4136 M
119 92 V
79 -1307 R
120 92 V
4251 1651 M
119 91 V
6036 1599 M
120 92 V
3820 2235 M
120 92 V
2365 4421 M
120 91 V
3281 896 M
120 92 V
3033 649 R
119 92 V
5642 2963 M
119 92 V
1498 352 M
120 92 V
143 1014 R
120 92 V
1399 55 R
120 92 V
2412 4143 M
120 92 V
2248 3381 M
120 92 V
stroke 2368 3473 M
2655 46 R
120 92 V
88 -2147 R
120 92 V
5161 364 M
119 91 V
-792 882 R
120 92 V
4227 2630 M
119 92 V
3417 1229 M
120 91 V
1467 1778 M
120 92 V
2283 468 R
119 92 V
3551 1871 M
119 92 V
6602 1437 M
120 92 V
-2724 54 R
120 92 V
2190 656 M
119 91 V
4377 414 R
119 92 V
3215 3865 M
119 92 V
3118 1644 M
120 92 V
4723 1460 M
120 92 V
108 645 R
119 92 V
588 -257 R
120 92 V
4350 3564 M
120 92 V
6623 1246 M
120 92 V
4078 2062 M
119 92 V
2449 4624 M
120 92 V
5126 3012 M
119 92 V
271 655 R
120 92 V
4300 1960 M
120 92 V
1298 2335 M
120 92 V
2589 1960 M
119 91 V
1044 2030 CircleF
1163 2122 CircleF
3252 1375 CircleF
3372 1467 CircleF
1167 2684 CircleF
1287 2776 CircleF
3067 3612 CircleF
3186 3704 CircleF
2762 900 CircleF
2881 992 CircleF
2240 511 CircleF
2360 603 CircleF
6183 526 CircleF
6303 618 CircleF
1382 3794 CircleF
1501 3886 CircleF
5757 2235 CircleF
5877 2327 CircleF
4819 4258 CircleF
4938 4350 CircleF
3571 2206 CircleF
3691 2298 CircleF
1215 2393 CircleF
1335 2485 CircleF
3552 3023 CircleF
3672 3114 CircleF
4850 1375 CircleF
4970 1467 CircleF
2987 2048 CircleF
3106 2140 CircleF
1603 4413 CircleF
1722 4505 CircleF
2443 2514 CircleF
2562 2606 CircleF
6591 388 CircleF
6711 480 CircleF
2121 1695 CircleF
2240 1787 CircleF
3705 539 CircleF
3825 631 CircleF
5877 4033 CircleF
5996 4125 CircleF
2836 2709 CircleF
2956 2800 CircleF
5852 2521 CircleF
5971 2613 CircleF
6660 1257 CircleF
6780 1349 CircleF
4437 1835 CircleF
4557 1927 CircleF
3488 410 CircleF
3607 501 CircleF
3958 4466 CircleF
4077 4558 CircleF
1238 1493 CircleF
1358 1584 CircleF
1938 3749 CircleF
2058 3841 CircleF
4045 1738 CircleF
4165 1830 CircleF
2425 2169 CircleF
2544 2261 CircleF
2722 2319 CircleF
2842 2411 CircleF
4586 1685 CircleF
4706 1777 CircleF
4517 1737 CircleF
4637 1828 CircleF
2739 2877 CircleF
2859 2969 CircleF
2696 1651 CircleF
2816 1742 CircleF
3592 449 CircleF
3711 540 CircleF
5757 1392 CircleF
5877 1484 CircleF
2713 1235 CircleF
2833 1326 CircleF
2787 4404 CircleF
2907 4496 CircleF
2491 3887 CircleF
2611 3979 CircleF
3560 4319 CircleF
3680 4411 CircleF
1372 2031 CircleF
1492 2122 CircleF
6627 1011 CircleF
6746 1103 CircleF
6076 2670 CircleF
6196 2762 CircleF
4358 4067 CircleF
4478 4159 CircleF
2337 1727 CircleF
2456 1819 CircleF
1794 3722 CircleF
1913 3814 CircleF
5574 4352 CircleF
5693 4444 CircleF
1634 3758 CircleF
1754 3850 CircleF
3816 2814 CircleF
3936 2906 CircleF
5822 1366 CircleF
5941 1458 CircleF
5395 1550 CircleF
5515 1641 CircleF
3498 1967 CircleF
3618 2058 CircleF
5936 305 CircleF
6055 397 CircleF
6647 427 CircleF
6767 519 CircleF
5601 2372 CircleF
5721 2464 CircleF
6537 4680 CircleF
6657 4772 CircleF
4165 1123 CircleF
4285 1215 CircleF
6492 3745 CircleF
6611 3837 CircleF
5488 1788 CircleF
5608 1880 CircleF
3024 874 CircleF
3144 965 CircleF
3484 987 CircleF
3603 1078 CircleF
5312 4435 CircleF
5431 4527 CircleF
5164 2874 CircleF
5284 2965 CircleF
3242 1282 CircleF
3361 1374 CircleF
4245 3309 CircleF
4364 3401 CircleF
5605 4553 CircleF
5725 4644 CircleF
6061 879 CircleF
6181 971 CircleF
2468 380 CircleF
2588 472 CircleF
2462 548 CircleF
2582 640 CircleF
4508 1165 CircleF
4627 1257 CircleF
4636 2655 CircleF
4756 2747 CircleF
4489 4342 CircleF
4609 4433 CircleF
3480 317 CircleF
3600 409 CircleF
6362 3672 CircleF
6481 3764 CircleF
5910 3344 CircleF
6029 3435 CircleF
6527 4038 CircleF
6646 4130 CircleF
2416 2776 CircleF
2536 2868 CircleF
5072 3273 CircleF
5191 3365 CircleF
1207 2541 CircleF
1327 2633 CircleF
5623 3825 CircleF
5743 3917 CircleF
5929 3763 CircleF
6048 3855 CircleF
4524 4577 CircleF
4643 4668 CircleF
4407 3078 CircleF
4526 3170 CircleF
6444 3191 CircleF
6564 3283 CircleF
4617 1234 CircleF
4736 1325 CircleF
2934 955 CircleF
3054 1047 CircleF
2457 1123 CircleF
2577 1215 CircleF
3996 3032 CircleF
4116 3124 CircleF
5443 4507 CircleF
5562 4598 CircleF
2841 2704 CircleF
2960 2796 CircleF
1528 2402 CircleF
1648 2494 CircleF
1579 1959 CircleF
1699 2051 CircleF
2369 4320 CircleF
2488 4412 CircleF
5109 2363 CircleF
5229 2455 CircleF
6133 4534 CircleF
6253 4626 CircleF
4146 2470 CircleF
4266 2562 CircleF
2113 2278 CircleF
2232 2370 CircleF
4888 1253 CircleF
5007 1344 CircleF
6573 4039 CircleF
6693 4130 CircleF
5649 1922 CircleF
5768 2014 CircleF
6253 601 CircleF
6372 693 CircleF
4327 2523 CircleF
4446 2615 CircleF
2301 4306 CircleF
2421 4398 CircleF
2042 776 CircleF
2162 868 CircleF
6536 1059 CircleF
6655 1151 CircleF
2008 874 CircleF
2127 966 CircleF
6349 3256 CircleF
6469 3348 CircleF
6092 3119 CircleF
6212 3211 CircleF
3450 2117 CircleF
3570 2209 CircleF
4619 3056 CircleF
4738 3148 CircleF
5675 4194 CircleF
5794 4286 CircleF
2734 2422 CircleF
2853 2513 CircleF
6195 3223 CircleF
6315 3315 CircleF
4282 1861 CircleF
4402 1953 CircleF
1028 1329 CircleF
1148 1421 CircleF
3946 1149 CircleF
4066 1241 CircleF
5807 785 CircleF
5926 877 CircleF
1231 4567 CircleF
1351 4658 CircleF
4430 1949 CircleF
4549 2041 CircleF
1406 2566 CircleF
1526 2658 CircleF
3031 1049 CircleF
3150 1141 CircleF
5018 1023 CircleF
5138 1115 CircleF
3722 4191 CircleF
3842 4283 CircleF
4677 738 CircleF
4797 830 CircleF
4164 3599 CircleF
4283 3691 CircleF
6007 1969 CircleF
6127 2061 CircleF
1392 3652 CircleF
1512 3744 CircleF
5652 3836 CircleF
5772 3927 CircleF
5898 3005 CircleF
6018 3097 CircleF
6252 2291 CircleF
6371 2382 CircleF
1596 3233 CircleF
1715 3325 CircleF
4921 4611 CircleF
5040 4702 CircleF
1851 1023 CircleF
1970 1115 CircleF
4765 2647 CircleF
4885 2739 CircleF
1103 3219 CircleF
1223 3310 CircleF
5263 4205 CircleF
5382 4297 CircleF
1074 1284 CircleF
1193 1375 CircleF
6365 3192 CircleF
6485 3284 CircleF
5656 535 CircleF
5776 627 CircleF
5097 1205 CircleF
5217 1297 CircleF
1152 2246 CircleF
1272 2338 CircleF
5804 1970 CircleF
5924 2062 CircleF
4888 3476 CircleF
5008 3568 CircleF
1489 2911 CircleF
1608 3003 CircleF
5298 3014 CircleF
5418 3106 CircleF
5492 1683 CircleF
5612 1775 CircleF
5061 3009 CircleF
5181 3101 CircleF
3514 1899 CircleF
3634 1991 CircleF
1186 669 CircleF
1306 760 CircleF
4773 4452 CircleF
4893 4543 CircleF
5907 1018 CircleF
6026 1110 CircleF
5197 2552 CircleF
5316 2644 CircleF
5419 3456 CircleF
5539 3548 CircleF
4933 3057 CircleF
5052 3149 CircleF
4711 3598 CircleF
4830 3690 CircleF
5319 382 CircleF
5439 474 CircleF
2047 3781 CircleF
2166 3873 CircleF
4842 4291 CircleF
4962 4383 CircleF
4526 4292 CircleF
4646 4384 CircleF
6546 502 CircleF
6666 594 CircleF
6706 2092 CircleF
6825 2184 CircleF
3042 1418 CircleF
3161 1510 CircleF
983 2556 CircleF
1102 2648 CircleF
2672 1248 CircleF
2791 1340 CircleF
3313 4598 CircleF
3433 4690 CircleF
4117 2138 CircleF
4237 2230 CircleF
2705 1987 CircleF
2825 2079 CircleF
4040 4154 CircleF
4159 4246 CircleF
4356 3674 CircleF
4475 3765 CircleF
1391 1083 CircleF
1511 1175 CircleF
1297 986 CircleF
1416 1078 CircleF
5842 769 CircleF
5962 860 CircleF
6220 2734 CircleF
6340 2825 CircleF
5453 4131 CircleF
5573 4222 CircleF
4789 3407 CircleF
4908 3499 CircleF
5364 3939 CircleF
5483 4031 CircleF
971 4075 CircleF
1091 4167 CircleF
5086 2886 CircleF
5206 2978 CircleF
1853 899 CircleF
1972 991 CircleF
3316 2127 CircleF
3436 2218 CircleF
5421 3119 CircleF
5541 3211 CircleF
3910 3937 CircleF
4029 4029 CircleF
1251 2470 CircleF
1371 2562 CircleF
3417 1419 CircleF
3537 1511 CircleF
3359 3591 CircleF
3478 3683 CircleF
2545 3259 CircleF
2665 3351 CircleF
4496 1043 CircleF
4616 1135 CircleF
2424 619 CircleF
2544 711 CircleF
3364 1184 CircleF
3484 1276 CircleF
5665 2973 CircleF
5785 3065 CircleF
2606 1904 CircleF
2726 1996 CircleF
5438 3235 CircleF
5558 3327 CircleF
3863 3359 CircleF
3983 3451 CircleF
3207 547 CircleF
3327 639 CircleF
1326 617 CircleF
1445 709 CircleF
2975 1219 CircleF
3094 1311 CircleF
4186 1184 CircleF
4306 1276 CircleF
1617 4041 CircleF
1737 4133 CircleF
5228 3010 CircleF
5347 3102 CircleF
3527 3178 CircleF
3647 3270 CircleF
3876 3166 CircleF
3996 3257 CircleF
5408 1810 CircleF
5528 1902 CircleF
2783 3407 CircleF
2902 3499 CircleF
5996 2548 CircleF
6115 2640 CircleF
2820 2039 CircleF
2940 2131 CircleF
3782 2904 CircleF
3902 2996 CircleF
4961 1761 CircleF
5081 1853 CircleF
4844 591 CircleF
4963 682 CircleF
4308 3264 CircleF
4428 3356 CircleF
4109 4612 CircleF
4229 4703 CircleF
5716 901 CircleF
5835 993 CircleF
1710 2529 CircleF
1830 2621 CircleF
1010 3307 CircleF
1129 3399 CircleF
6494 605 CircleF
6614 697 CircleF
5585 4560 CircleF
5704 4652 CircleF
1269 3583 CircleF
1389 3675 CircleF
4571 2984 CircleF
4691 3076 CircleF
4419 3599 CircleF
4539 3691 CircleF
2213 2032 CircleF
2332 2123 CircleF
3222 794 CircleF
3342 885 CircleF
2620 1727 CircleF
2740 1819 CircleF
4146 3387 CircleF
4266 3479 CircleF
1140 2347 CircleF
1260 2439 CircleF
2175 3961 CircleF
2295 4053 CircleF
4477 4224 CircleF
4596 4316 CircleF
5373 4521 CircleF
5493 4613 CircleF
5500 1915 CircleF
5620 2007 CircleF
2652 2372 CircleF
2771 2464 CircleF
6457 2567 CircleF
6577 2658 CircleF
3020 665 CircleF
3140 756 CircleF
2692 869 CircleF
2811 961 CircleF
2593 1855 CircleF
2713 1946 CircleF
4453 521 CircleF
4573 613 CircleF
5113 1145 CircleF
5233 1237 CircleF
5521 2824 CircleF
5641 2916 CircleF
5770 1913 CircleF
5890 2005 CircleF
1576 2762 CircleF
1695 2854 CircleF
1014 466 CircleF
1133 558 CircleF
5389 4457 CircleF
5509 4549 CircleF
3572 2974 CircleF
3691 3066 CircleF
2777 3471 CircleF
2897 3563 CircleF
1098 1843 CircleF
1217 1935 CircleF
2218 2869 CircleF
2337 2961 CircleF
5673 3089 CircleF
5792 3181 CircleF
5327 3242 CircleF
5447 3334 CircleF
6091 2011 CircleF
6211 2103 CircleF
1002 901 CircleF
1122 993 CircleF
5385 1245 CircleF
5505 1337 CircleF
3690 3920 CircleF
3810 4012 CircleF
4011 1866 CircleF
4131 1957 CircleF
2514 3196 CircleF
2633 3288 CircleF
6079 976 CircleF
6198 1068 CircleF
5277 1047 CircleF
5397 1139 CircleF
2896 3878 CircleF
3015 3970 CircleF
4239 347 CircleF
4358 439 CircleF
6156 653 CircleF
6276 745 CircleF
3181 1693 CircleF
3300 1785 CircleF
5510 3430 CircleF
5630 3522 CircleF
4317 3034 CircleF
4436 3126 CircleF
5798 4281 CircleF
5917 4373 CircleF
2333 3876 CircleF
2452 3967 CircleF
3109 4282 CircleF
3228 4374 CircleF
1224 3125 CircleF
1344 3216 CircleF
2935 3053 CircleF
3054 3145 CircleF
2611 1844 CircleF
2731 1936 CircleF
6379 2596 CircleF
6498 2687 CircleF
3735 2808 CircleF
3854 2900 CircleF
2184 4036 CircleF
2303 4128 CircleF
1989 4570 CircleF
2108 4661 CircleF
1164 2242 CircleF
1284 2334 CircleF
4091 3723 CircleF
4211 3814 CircleF
1989 1366 CircleF
2108 1458 CircleF
5432 972 CircleF
5552 1064 CircleF
6707 1830 CircleF
6826 1922 CircleF
4028 2255 CircleF
4147 2347 CircleF
1000 1586 CircleF
1120 1677 CircleF
5238 2180 CircleF
5358 2272 CircleF
6317 4032 CircleF
6436 4124 CircleF
3647 2843 CircleF
3766 2935 CircleF
1745 913 CircleF
1864 1005 CircleF
1195 4498 CircleF
1314 4589 CircleF
1899 3570 CircleF
2019 3662 CircleF
6637 3928 CircleF
6757 4020 CircleF
1280 3227 CircleF
1400 3319 CircleF
6257 2161 CircleF
6377 2253 CircleF
5578 489 CircleF
5698 581 CircleF
6651 3474 CircleF
6771 3566 CircleF
3266 3496 CircleF
3386 3588 CircleF
1030 3820 CircleF
1150 3912 CircleF
3945 3560 CircleF
4064 3651 CircleF
2923 469 CircleF
3042 561 CircleF
5763 2647 CircleF
5883 2739 CircleF
6630 4185 CircleF
6749 4277 CircleF
6428 3675 CircleF
6547 3767 CircleF
5910 3713 CircleF
6029 3805 CircleF
4749 3255 CircleF
4869 3346 CircleF
4446 1306 CircleF
4565 1398 CircleF
2692 4054 CircleF
2812 4145 CircleF
3465 2627 CircleF
3584 2719 CircleF
6219 3789 CircleF
6338 3880 CircleF
3547 1364 CircleF
3667 1455 CircleF
1706 4349 CircleF
1826 4441 CircleF
3241 1791 CircleF
3361 1883 CircleF
3581 3480 CircleF
3701 3572 CircleF
6616 2103 CircleF
6736 2194 CircleF
3756 1231 CircleF
3876 1323 CircleF
5259 2756 CircleF
5378 2848 CircleF
4546 1215 CircleF
4666 1307 CircleF
5727 1268 CircleF
5847 1359 CircleF
6628 2300 CircleF
6748 2392 CircleF
4264 1118 CircleF
4383 1210 CircleF
5467 4557 CircleF
5587 4649 CircleF
6309 4265 CircleF
6428 4357 CircleF
1958 2132 CircleF
2078 2224 CircleF
2312 2400 CircleF
2432 2492 CircleF
4097 1375 CircleF
4216 1466 CircleF
6215 3709 CircleF
6335 3800 CircleF
4742 2263 CircleF
4861 2355 CircleF
3165 2420 CircleF
3284 2512 CircleF
5770 4234 CircleF
5889 4326 CircleF
5399 1609 CircleF
5519 1700 CircleF
5341 3594 CircleF
5460 3685 CircleF
4929 4336 CircleF
5048 4428 CircleF
3090 702 CircleF
3209 794 CircleF
1184 1796 CircleF
1303 1888 CircleF
1846 1319 CircleF
1966 1411 CircleF
1044 2567 CircleF
1164 2658 CircleF
5794 4312 CircleF
5914 4404 CircleF
5657 2952 CircleF
5777 3044 CircleF
995 3400 CircleF
1114 3492 CircleF
4821 1927 CircleF
4941 2019 CircleF
4924 3756 CircleF
5044 3848 CircleF
3129 941 CircleF
3248 1032 CircleF
2847 2515 CircleF
2966 2606 CircleF
2648 4494 CircleF
2767 4585 CircleF
1309 1388 CircleF
1429 1479 CircleF
1072 805 CircleF
1192 897 CircleF
5921 680 CircleF
6041 772 CircleF
5810 2787 CircleF
5929 2879 CircleF
6163 3225 CircleF
6282 3317 CircleF
2176 302 CircleF
2295 394 CircleF
3607 865 CircleF
3727 957 CircleF
5929 972 CircleF
6049 1064 CircleF
1631 1942 CircleF
1751 2034 CircleF
2924 455 CircleF
3044 547 CircleF
4115 2212 CircleF
4235 2303 CircleF
2185 1082 CircleF
2304 1174 CircleF
2348 1113 CircleF
2468 1204 CircleF
1518 1679 CircleF
1637 1770 CircleF
1724 533 CircleF
1844 625 CircleF
4193 920 CircleF
4313 1011 CircleF
5114 2450 CircleF
5233 2542 CircleF
2646 2030 CircleF
2766 2122 CircleF
5098 650 CircleF
5218 742 CircleF
5633 3851 CircleF
5753 3943 CircleF
3891 444 CircleF
4011 536 CircleF
6706 1430 CircleF
6825 1522 CircleF
1407 747 CircleF
1527 839 CircleF
6369 3450 CircleF
6488 3542 CircleF
5506 672 CircleF
5626 763 CircleF
1801 2867 CircleF
1920 2959 CircleF
5732 983 CircleF
5851 1075 CircleF
6338 2262 CircleF
6457 2354 CircleF
2127 2378 CircleF
2247 2470 CircleF
5495 3869 CircleF
5615 3961 CircleF
6160 2644 CircleF
6280 2736 CircleF
3570 3365 CircleF
3690 3457 CircleF
2094 1381 CircleF
2214 1473 CircleF
1296 839 CircleF
1416 931 CircleF
1388 4518 CircleF
1508 4610 CircleF
6232 3981 CircleF
6351 4072 CircleF
4036 4310 CircleF
4156 4402 CircleF
4716 3342 CircleF
4836 3434 CircleF
1983 3285 CircleF
2103 3377 CircleF
2031 4127 CircleF
2151 4219 CircleF
4858 1616 CircleF
4978 1708 CircleF
3389 4207 CircleF
3509 4299 CircleF
6191 3289 CircleF
6311 3381 CircleF
4753 836 CircleF
4872 928 CircleF
2669 4678 CircleF
2789 4770 CircleF
3798 1320 CircleF
3917 1412 CircleF
4660 4010 CircleF
4780 4102 CircleF
2925 2626 CircleF
3045 2718 CircleF
2483 1479 CircleF
2603 1571 CircleF
6346 3938 CircleF
6465 4030 CircleF
5845 4161 CircleF
5965 4253 CircleF
1296 624 CircleF
1416 716 CircleF
2988 591 CircleF
3108 682 CircleF
3872 1893 CircleF
3992 1985 CircleF
6185 3368 CircleF
6305 3459 CircleF
3186 2836 CircleF
3306 2928 CircleF
4731 2422 CircleF
4850 2514 CircleF
5528 1874 CircleF
5648 1966 CircleF
5801 1059 CircleF
5921 1151 CircleF
6407 2563 CircleF
6527 2654 CircleF
2772 582 CircleF
2892 674 CircleF
3639 4326 CircleF
3758 4418 CircleF
2800 1086 CircleF
2919 1178 CircleF
2980 3109 CircleF
3099 3200 CircleF
4139 682 CircleF
4258 774 CircleF
6310 2653 CircleF
6430 2745 CircleF
2221 3494 CircleF
2341 3586 CircleF
4346 3879 CircleF
4465 3971 CircleF
3077 1284 CircleF
3196 1375 CircleF
1138 1808 CircleF
1258 1900 CircleF
4210 746 CircleF
4330 837 CircleF
2675 4335 CircleF
2794 4427 CircleF
2446 2896 CircleF
2566 2988 CircleF
6352 3953 CircleF
6472 4045 CircleF
3170 1495 CircleF
3290 1586 CircleF
4502 4082 CircleF
4621 4174 CircleF
4019 474 CircleF
4139 566 CircleF
3851 2726 CircleF
3971 2818 CircleF
3397 3651 CircleF
3517 3743 CircleF
4802 968 CircleF
4921 1060 CircleF
6068 3591 CircleF
6188 3683 CircleF
3424 2943 CircleF
3543 3035 CircleF
6490 1984 CircleF
6610 2076 CircleF
6257 2758 CircleF
6376 2850 CircleF
5978 432 CircleF
6098 524 CircleF
6289 3225 CircleF
6408 3317 CircleF
4542 4570 CircleF
4661 4662 CircleF
1319 281 CircleF
1439 372 CircleF
3600 1629 CircleF
3720 1721 CircleF
2314 4253 CircleF
2434 4345 CircleF
5293 4136 CircleF
5413 4228 CircleF
4858 1056 CircleF
4977 1148 CircleF
5541 4354 CircleF
5660 4445 CircleF
1903 2068 CircleF
2023 2160 CircleF
4216 1505 CircleF
4336 1597 CircleF
4799 1170 CircleF
4919 1261 CircleF
2711 2419 CircleF
2831 2511 CircleF
1030 1857 CircleF
1149 1949 CircleF
4676 2817 CircleF
4796 2909 CircleF
4808 3455 CircleF
4927 3547 CircleF
2854 2596 CircleF
2974 2688 CircleF
6512 910 CircleF
6632 1002 CircleF
4445 900 CircleF
4565 992 CircleF
1673 2143 CircleF
1792 2235 CircleF
1080 2898 CircleF
1200 2990 CircleF
4946 497 CircleF
5065 589 CircleF
4586 1106 CircleF
4705 1198 CircleF
2563 4215 CircleF
2683 4307 CircleF
3707 4447 CircleF
3827 4539 CircleF
1882 2612 CircleF
2001 2704 CircleF
1138 1228 CircleF
1258 1320 CircleF
2447 1363 CircleF
2567 1454 CircleF
3155 1675 CircleF
3275 1766 CircleF
2682 3121 CircleF
2802 3212 CircleF
6302 2738 CircleF
6422 2830 CircleF
5351 2050 CircleF
5471 2142 CircleF
5333 2007 CircleF
5453 2099 CircleF
4094 592 CircleF
4214 684 CircleF
4006 2158 CircleF
4126 2250 CircleF
5744 1804 CircleF
5864 1896 CircleF
3526 1150 CircleF
3646 1241 CircleF
5311 4328 CircleF
5431 4420 CircleF
3608 1297 CircleF
3727 1389 CircleF
4658 1380 CircleF
4778 1472 CircleF
5844 3052 CircleF
5964 3144 CircleF
1141 3337 CircleF
1260 3429 CircleF
1455 2636 CircleF
1575 2728 CircleF
4441 3678 CircleF
4560 3770 CircleF
4219 996 CircleF
4338 1088 CircleF
1222 1086 CircleF
1342 1177 CircleF
1676 1377 CircleF
1796 1468 CircleF
3849 2967 CircleF
3969 3059 CircleF
4903 2538 CircleF
5022 2630 CircleF
2129 4623 CircleF
2249 4715 CircleF
985 2951 CircleF
1105 3043 CircleF
1060 742 CircleF
1180 834 CircleF
4016 2515 CircleF
4135 2606 CircleF
3964 3006 CircleF
4084 3098 CircleF
1132 1709 CircleF
1251 1801 CircleF
3838 4539 CircleF
3958 4631 CircleF
1708 3763 CircleF
1827 3855 CircleF
2059 1455 CircleF
2179 1547 CircleF
3064 322 CircleF
3184 414 CircleF
980 4088 CircleF
1100 4180 CircleF
5132 3627 CircleF
5251 3719 CircleF
3997 3325 CircleF
4117 3416 CircleF
1220 3163 CircleF
1339 3255 CircleF
3421 2131 CircleF
3541 2222 CircleF
5543 2203 CircleF
5663 2295 CircleF
3054 2988 CircleF
3174 3080 CircleF
4044 513 CircleF
4164 604 CircleF
4579 713 CircleF
4699 804 CircleF
5567 1044 CircleF
5687 1136 CircleF
4683 3422 CircleF
4803 3514 CircleF
5062 3676 CircleF
5181 3768 CircleF
5013 4489 CircleF
5132 4581 CircleF
1781 2091 CircleF
1901 2183 CircleF
2752 2862 CircleF
2872 2954 CircleF
2638 735 CircleF
2758 826 CircleF
4063 3538 CircleF
4182 3630 CircleF
1421 1914 CircleF
1540 2006 CircleF
3980 1445 CircleF
4099 1536 CircleF
5492 1145 CircleF
5612 1237 CircleF
2246 2628 CircleF
2366 2720 CircleF
2207 1695 CircleF
2327 1787 CircleF
3465 659 CircleF
3585 751 CircleF
2528 3935 CircleF
2647 4026 CircleF
3323 3901 CircleF
3442 3993 CircleF
5044 1358 CircleF
5164 1450 CircleF
1583 3519 CircleF
1703 3611 CircleF
3447 2270 CircleF
3567 2362 CircleF
5024 3601 CircleF
5144 3693 CircleF
2627 1048 CircleF
2747 1140 CircleF
4311 4464 CircleF
4431 4555 CircleF
4090 3734 CircleF
4210 3826 CircleF
4083 303 CircleF
4202 395 CircleF
2462 1886 CircleF
2581 1978 CircleF
5266 3375 CircleF
5386 3467 CircleF
4146 4591 CircleF
4266 4683 CircleF
3597 3033 CircleF
3717 3125 CircleF
1423 624 CircleF
1543 716 CircleF
5427 3040 CircleF
5547 3132 CircleF
2155 1640 CircleF
2274 1732 CircleF
2039 2993 CircleF
2159 3085 CircleF
3826 2784 CircleF
3945 2876 CircleF
1377 1468 CircleF
1497 1559 CircleF
3563 669 CircleF
3683 761 CircleF
2869 2066 CircleF
2989 2157 CircleF
2749 1811 CircleF
2869 1903 CircleF
4363 4022 CircleF
4483 4114 CircleF
3451 2247 CircleF
3571 2339 CircleF
2592 1770 CircleF
2712 1862 CircleF
1616 2177 CircleF
1735 2269 CircleF
1137 2554 CircleF
1256 2646 CircleF
5935 3456 CircleF
6054 3547 CircleF
3858 1791 CircleF
3978 1883 CircleF
4986 1621 CircleF
5105 1713 CircleF
4937 839 CircleF
5056 931 CircleF
2079 3005 CircleF
2199 3097 CircleF
5905 2496 CircleF
6024 2587 CircleF
6114 4025 CircleF
6233 4117 CircleF
1300 2914 CircleF
1420 3006 CircleF
5089 2283 CircleF
5208 2375 CircleF
2671 4416 CircleF
2791 4508 CircleF
3446 4328 CircleF
3566 4420 CircleF
3846 681 CircleF
3966 773 CircleF
1966 535 CircleF
2085 627 CircleF
3504 4507 CircleF
3623 4599 CircleF
6584 2492 CircleF
6704 2584 CircleF
2040 2739 CircleF
2160 2831 CircleF
1837 2176 CircleF
1957 2268 CircleF
3753 4000 CircleF
3873 4092 CircleF
1462 2395 CircleF
1581 2487 CircleF
6365 938 CircleF
6485 1030 CircleF
4350 3552 CircleF
4470 3644 CircleF
5494 1760 CircleF
5614 1852 CircleF
3467 2019 CircleF
3586 2111 CircleF
4917 1068 CircleF
5036 1159 CircleF
4560 1939 CircleF
4679 2030 CircleF
5190 4391 CircleF
5310 4482 CircleF
1292 1059 CircleF
1412 1151 CircleF
3502 2498 CircleF
3621 2590 CircleF
2708 4136 CircleF
2827 4228 CircleF
2906 2921 CircleF
3026 3013 CircleF
4251 1651 CircleF
4370 1742 CircleF
6036 1599 CircleF
6156 1691 CircleF
3820 2235 CircleF
3940 2327 CircleF
2365 4421 CircleF
2485 4512 CircleF
3281 896 CircleF
3401 988 CircleF
6434 1637 CircleF
6553 1729 CircleF
5642 2963 CircleF
5761 3055 CircleF
1498 352 CircleF
1618 444 CircleF
1761 1458 CircleF
1881 1550 CircleF
3280 1605 CircleF
3400 1697 CircleF
2412 4143 CircleF
2532 4235 CircleF
2248 3381 CircleF
2368 3473 CircleF
5023 3519 CircleF
5143 3611 CircleF
5231 1464 CircleF
5351 1556 CircleF
5161 364 CircleF
5280 455 CircleF
4488 1337 CircleF
4608 1429 CircleF
4227 2630 CircleF
4346 2722 CircleF
3417 1229 CircleF
3537 1320 CircleF
1467 1778 CircleF
1587 1870 CircleF
3870 2338 CircleF
3989 2430 CircleF
3551 1871 CircleF
3670 1963 CircleF
6602 1437 CircleF
6722 1529 CircleF
3998 1583 CircleF
4118 1675 CircleF
2190 656 CircleF
2309 747 CircleF
6686 1161 CircleF
6805 1253 CircleF
3215 3865 CircleF
3334 3957 CircleF
3118 1644 CircleF
3238 1736 CircleF
4723 1460 CircleF
4843 1552 CircleF
4951 2197 CircleF
5070 2289 CircleF
5658 2032 CircleF
5778 2124 CircleF
4350 3564 CircleF
4470 3656 CircleF
6623 1246 CircleF
6743 1338 CircleF
4078 2062 CircleF
4197 2154 CircleF
2449 4624 CircleF
2569 4716 CircleF
5126 3012 CircleF
5245 3104 CircleF
5516 3759 CircleF
5636 3851 CircleF
4300 1960 CircleF
4420 2052 CircleF
1298 2335 CircleF
1418 2427 CircleF
2589 1960 CircleF
2708 2051 CircleF
% End plot #2
1.000 UP
1.000 UL
LT0
0.50 0.50 0.50 C stroke
grestore
end
showpage
%%Trailer
%%DocumentFonts: Helvetica
%%Pages: 1
