%!PS-Adobe-2.0
%%Title: out.ps
%%Creator: gnuplot 4.6 patchlevel 6
%%CreationDate: Thu May 28 14:40:41 2015
%%DocumentFonts: (atend)
%%BoundingBox: 50 50 554 770
%%Orientation: Landscape
%%Pages: (atend)
%%EndComments
%%BeginProlog
/gnudict 256 dict def
gnudict begin
%
% The following true/false flags may be edited by hand if desired.
% The unit line width and grayscale image gamma correction may also be changed.
%
/Color false def
/Blacktext false def
/Solid false def
/Dashlength 1 def
/Landscape true def
/Level1 false def
/Rounded false def
/ClipToBoundingBox false def
/SuppressPDFMark false def
/TransparentPatterns false def
/gnulinewidth 5.000 def
/userlinewidth gnulinewidth def
/Gamma 1.0 def
/BackgroundColor {-1.000 -1.000 -1.000} def
%
/vshift -46 def
/dl1 {
  10.0 Dashlength mul mul
  Rounded { currentlinewidth 0.75 mul sub dup 0 le { pop 0.01 } if } if
} def
/dl2 {
  10.0 Dashlength mul mul
  Rounded { currentlinewidth 0.75 mul add } if
} def
/hpt_ 31.5 def
/vpt_ 31.5 def
/hpt hpt_ def
/vpt vpt_ def
/doclip {
  ClipToBoundingBox {
    newpath 50 50 moveto 554 50 lineto 554 770 lineto 50 770 lineto closepath
    clip
  } if
} def
%
% Gnuplot Prolog Version 4.6 (September 2012)
%
%/SuppressPDFMark true def
%
/M {moveto} bind def
/L {lineto} bind def
/R {rmoveto} bind def
/V {rlineto} bind def
/N {newpath moveto} bind def
/Z {closepath} bind def
/C {setrgbcolor} bind def
/f {rlineto fill} bind def
/g {setgray} bind def
/Gshow {show} def   % May be redefined later in the file to support UTF-8
/vpt2 vpt 2 mul def
/hpt2 hpt 2 mul def
/Lshow {currentpoint stroke M 0 vshift R 
	Blacktext {gsave 0 setgray show grestore} {show} ifelse} def
/Rshow {currentpoint stroke M dup stringwidth pop neg vshift R
	Blacktext {gsave 0 setgray show grestore} {show} ifelse} def
/Cshow {currentpoint stroke M dup stringwidth pop -2 div vshift R 
	Blacktext {gsave 0 setgray show grestore} {show} ifelse} def
/UP {dup vpt_ mul /vpt exch def hpt_ mul /hpt exch def
  /hpt2 hpt 2 mul def /vpt2 vpt 2 mul def} def
/DL {Color {setrgbcolor Solid {pop []} if 0 setdash}
 {pop pop pop 0 setgray Solid {pop []} if 0 setdash} ifelse} def
/BL {stroke userlinewidth 2 mul setlinewidth
	Rounded {1 setlinejoin 1 setlinecap} if} def
/AL {stroke userlinewidth 2 div setlinewidth
	Rounded {1 setlinejoin 1 setlinecap} if} def
/UL {dup gnulinewidth mul /userlinewidth exch def
	dup 1 lt {pop 1} if 10 mul /udl exch def} def
/PL {stroke userlinewidth setlinewidth
	Rounded {1 setlinejoin 1 setlinecap} if} def
3.8 setmiterlimit
% Default Line colors
/LCw {1 1 1} def
/LCb {0 0 0} def
/LCa {0 0 0} def
/LC0 {1 0 0} def
/LC1 {0 1 0} def
/LC2 {0 0 1} def
/LC3 {1 0 1} def
/LC4 {0 1 1} def
/LC5 {1 1 0} def
/LC6 {0 0 0} def
/LC7 {1 0.3 0} def
/LC8 {0.5 0.5 0.5} def
% Default Line Types
/LTw {PL [] 1 setgray} def
/LTb {BL [] LCb DL} def
/LTa {AL [1 udl mul 2 udl mul] 0 setdash LCa setrgbcolor} def
/LT0 {PL [] LC0 DL} def
/LT1 {PL [4 dl1 2 dl2] LC1 DL} def
/LT2 {PL [2 dl1 3 dl2] LC2 DL} def
/LT3 {PL [1 dl1 1.5 dl2] LC3 DL} def
/LT4 {PL [6 dl1 2 dl2 1 dl1 2 dl2] LC4 DL} def
/LT5 {PL [3 dl1 3 dl2 1 dl1 3 dl2] LC5 DL} def
/LT6 {PL [2 dl1 2 dl2 2 dl1 6 dl2] LC6 DL} def
/LT7 {PL [1 dl1 2 dl2 6 dl1 2 dl2 1 dl1 2 dl2] LC7 DL} def
/LT8 {PL [2 dl1 2 dl2 2 dl1 2 dl2 2 dl1 2 dl2 2 dl1 4 dl2] LC8 DL} def
/Pnt {stroke [] 0 setdash gsave 1 setlinecap M 0 0 V stroke grestore} def
/Dia {stroke [] 0 setdash 2 copy vpt add M
  hpt neg vpt neg V hpt vpt neg V
  hpt vpt V hpt neg vpt V closepath stroke
  Pnt} def
/Pls {stroke [] 0 setdash vpt sub M 0 vpt2 V
  currentpoint stroke M
  hpt neg vpt neg R hpt2 0 V stroke
 } def
/Box {stroke [] 0 setdash 2 copy exch hpt sub exch vpt add M
  0 vpt2 neg V hpt2 0 V 0 vpt2 V
  hpt2 neg 0 V closepath stroke
  Pnt} def
/Crs {stroke [] 0 setdash exch hpt sub exch vpt add M
  hpt2 vpt2 neg V currentpoint stroke M
  hpt2 neg 0 R hpt2 vpt2 V stroke} def
/TriU {stroke [] 0 setdash 2 copy vpt 1.12 mul add M
  hpt neg vpt -1.62 mul V
  hpt 2 mul 0 V
  hpt neg vpt 1.62 mul V closepath stroke
  Pnt} def
/Star {2 copy Pls Crs} def
/BoxF {stroke [] 0 setdash exch hpt sub exch vpt add M
  0 vpt2 neg V hpt2 0 V 0 vpt2 V
  hpt2 neg 0 V closepath fill} def
/TriUF {stroke [] 0 setdash vpt 1.12 mul add M
  hpt neg vpt -1.62 mul V
  hpt 2 mul 0 V
  hpt neg vpt 1.62 mul V closepath fill} def
/TriD {stroke [] 0 setdash 2 copy vpt 1.12 mul sub M
  hpt neg vpt 1.62 mul V
  hpt 2 mul 0 V
  hpt neg vpt -1.62 mul V closepath stroke
  Pnt} def
/TriDF {stroke [] 0 setdash vpt 1.12 mul sub M
  hpt neg vpt 1.62 mul V
  hpt 2 mul 0 V
  hpt neg vpt -1.62 mul V closepath fill} def
/DiaF {stroke [] 0 setdash vpt add M
  hpt neg vpt neg V hpt vpt neg V
  hpt vpt V hpt neg vpt V closepath fill} def
/Pent {stroke [] 0 setdash 2 copy gsave
  translate 0 hpt M 4 {72 rotate 0 hpt L} repeat
  closepath stroke grestore Pnt} def
/PentF {stroke [] 0 setdash gsave
  translate 0 hpt M 4 {72 rotate 0 hpt L} repeat
  closepath fill grestore} def
/Circle {stroke [] 0 setdash 2 copy
  hpt 0 360 arc stroke Pnt} def
/CircleF {stroke [] 0 setdash hpt 0 360 arc fill} def
/C0 {BL [] 0 setdash 2 copy moveto vpt 90 450 arc} bind def
/C1 {BL [] 0 setdash 2 copy moveto
	2 copy vpt 0 90 arc closepath fill
	vpt 0 360 arc closepath} bind def
/C2 {BL [] 0 setdash 2 copy moveto
	2 copy vpt 90 180 arc closepath fill
	vpt 0 360 arc closepath} bind def
/C3 {BL [] 0 setdash 2 copy moveto
	2 copy vpt 0 180 arc closepath fill
	vpt 0 360 arc closepath} bind def
/C4 {BL [] 0 setdash 2 copy moveto
	2 copy vpt 180 270 arc closepath fill
	vpt 0 360 arc closepath} bind def
/C5 {BL [] 0 setdash 2 copy moveto
	2 copy vpt 0 90 arc
	2 copy moveto
	2 copy vpt 180 270 arc closepath fill
	vpt 0 360 arc} bind def
/C6 {BL [] 0 setdash 2 copy moveto
	2 copy vpt 90 270 arc closepath fill
	vpt 0 360 arc closepath} bind def
/C7 {BL [] 0 setdash 2 copy moveto
	2 copy vpt 0 270 arc closepath fill
	vpt 0 360 arc closepath} bind def
/C8 {BL [] 0 setdash 2 copy moveto
	2 copy vpt 270 360 arc closepath fill
	vpt 0 360 arc closepath} bind def
/C9 {BL [] 0 setdash 2 copy moveto
	2 copy vpt 270 450 arc closepath fill
	vpt 0 360 arc closepath} bind def
/C10 {BL [] 0 setdash 2 copy 2 copy moveto vpt 270 360 arc closepath fill
	2 copy moveto
	2 copy vpt 90 180 arc closepath fill
	vpt 0 360 arc closepath} bind def
/C11 {BL [] 0 setdash 2 copy moveto
	2 copy vpt 0 180 arc closepath fill
	2 copy moveto
	2 copy vpt 270 360 arc closepath fill
	vpt 0 360 arc closepath} bind def
/C12 {BL [] 0 setdash 2 copy moveto
	2 copy vpt 180 360 arc closepath fill
	vpt 0 360 arc closepath} bind def
/C13 {BL [] 0 setdash 2 copy moveto
	2 copy vpt 0 90 arc closepath fill
	2 copy moveto
	2 copy vpt 180 360 arc closepath fill
	vpt 0 360 arc closepath} bind def
/C14 {BL [] 0 setdash 2 copy moveto
	2 copy vpt 90 360 arc closepath fill
	vpt 0 360 arc} bind def
/C15 {BL [] 0 setdash 2 copy vpt 0 360 arc closepath fill
	vpt 0 360 arc closepath} bind def
/Rec {newpath 4 2 roll moveto 1 index 0 rlineto 0 exch rlineto
	neg 0 rlineto closepath} bind def
/Square {dup Rec} bind def
/Bsquare {vpt sub exch vpt sub exch vpt2 Square} bind def
/S0 {BL [] 0 setdash 2 copy moveto 0 vpt rlineto BL Bsquare} bind def
/S1 {BL [] 0 setdash 2 copy vpt Square fill Bsquare} bind def
/S2 {BL [] 0 setdash 2 copy exch vpt sub exch vpt Square fill Bsquare} bind def
/S3 {BL [] 0 setdash 2 copy exch vpt sub exch vpt2 vpt Rec fill Bsquare} bind def
/S4 {BL [] 0 setdash 2 copy exch vpt sub exch vpt sub vpt Square fill Bsquare} bind def
/S5 {BL [] 0 setdash 2 copy 2 copy vpt Square fill
	exch vpt sub exch vpt sub vpt Square fill Bsquare} bind def
/S6 {BL [] 0 setdash 2 copy exch vpt sub exch vpt sub vpt vpt2 Rec fill Bsquare} bind def
/S7 {BL [] 0 setdash 2 copy exch vpt sub exch vpt sub vpt vpt2 Rec fill
	2 copy vpt Square fill Bsquare} bind def
/S8 {BL [] 0 setdash 2 copy vpt sub vpt Square fill Bsquare} bind def
/S9 {BL [] 0 setdash 2 copy vpt sub vpt vpt2 Rec fill Bsquare} bind def
/S10 {BL [] 0 setdash 2 copy vpt sub vpt Square fill 2 copy exch vpt sub exch vpt Square fill
	Bsquare} bind def
/S11 {BL [] 0 setdash 2 copy vpt sub vpt Square fill 2 copy exch vpt sub exch vpt2 vpt Rec fill
	Bsquare} bind def
/S12 {BL [] 0 setdash 2 copy exch vpt sub exch vpt sub vpt2 vpt Rec fill Bsquare} bind def
/S13 {BL [] 0 setdash 2 copy exch vpt sub exch vpt sub vpt2 vpt Rec fill
	2 copy vpt Square fill Bsquare} bind def
/S14 {BL [] 0 setdash 2 copy exch vpt sub exch vpt sub vpt2 vpt Rec fill
	2 copy exch vpt sub exch vpt Square fill Bsquare} bind def
/S15 {BL [] 0 setdash 2 copy Bsquare fill Bsquare} bind def
/D0 {gsave translate 45 rotate 0 0 S0 stroke grestore} bind def
/D1 {gsave translate 45 rotate 0 0 S1 stroke grestore} bind def
/D2 {gsave translate 45 rotate 0 0 S2 stroke grestore} bind def
/D3 {gsave translate 45 rotate 0 0 S3 stroke grestore} bind def
/D4 {gsave translate 45 rotate 0 0 S4 stroke grestore} bind def
/D5 {gsave translate 45 rotate 0 0 S5 stroke grestore} bind def
/D6 {gsave translate 45 rotate 0 0 S6 stroke grestore} bind def
/D7 {gsave translate 45 rotate 0 0 S7 stroke grestore} bind def
/D8 {gsave translate 45 rotate 0 0 S8 stroke grestore} bind def
/D9 {gsave translate 45 rotate 0 0 S9 stroke grestore} bind def
/D10 {gsave translate 45 rotate 0 0 S10 stroke grestore} bind def
/D11 {gsave translate 45 rotate 0 0 S11 stroke grestore} bind def
/D12 {gsave translate 45 rotate 0 0 S12 stroke grestore} bind def
/D13 {gsave translate 45 rotate 0 0 S13 stroke grestore} bind def
/D14 {gsave translate 45 rotate 0 0 S14 stroke grestore} bind def
/D15 {gsave translate 45 rotate 0 0 S15 stroke grestore} bind def
/DiaE {stroke [] 0 setdash vpt add M
  hpt neg vpt neg V hpt vpt neg V
  hpt vpt V hpt neg vpt V closepath stroke} def
/BoxE {stroke [] 0 setdash exch hpt sub exch vpt add M
  0 vpt2 neg V hpt2 0 V 0 vpt2 V
  hpt2 neg 0 V closepath stroke} def
/TriUE {stroke [] 0 setdash vpt 1.12 mul add M
  hpt neg vpt -1.62 mul V
  hpt 2 mul 0 V
  hpt neg vpt 1.62 mul V closepath stroke} def
/TriDE {stroke [] 0 setdash vpt 1.12 mul sub M
  hpt neg vpt 1.62 mul V
  hpt 2 mul 0 V
  hpt neg vpt -1.62 mul V closepath stroke} def
/PentE {stroke [] 0 setdash gsave
  translate 0 hpt M 4 {72 rotate 0 hpt L} repeat
  closepath stroke grestore} def
/CircE {stroke [] 0 setdash 
  hpt 0 360 arc stroke} def
/Opaque {gsave closepath 1 setgray fill grestore 0 setgray closepath} def
/DiaW {stroke [] 0 setdash vpt add M
  hpt neg vpt neg V hpt vpt neg V
  hpt vpt V hpt neg vpt V Opaque stroke} def
/BoxW {stroke [] 0 setdash exch hpt sub exch vpt add M
  0 vpt2 neg V hpt2 0 V 0 vpt2 V
  hpt2 neg 0 V Opaque stroke} def
/TriUW {stroke [] 0 setdash vpt 1.12 mul add M
  hpt neg vpt -1.62 mul V
  hpt 2 mul 0 V
  hpt neg vpt 1.62 mul V Opaque stroke} def
/TriDW {stroke [] 0 setdash vpt 1.12 mul sub M
  hpt neg vpt 1.62 mul V
  hpt 2 mul 0 V
  hpt neg vpt -1.62 mul V Opaque stroke} def
/PentW {stroke [] 0 setdash gsave
  translate 0 hpt M 4 {72 rotate 0 hpt L} repeat
  Opaque stroke grestore} def
/CircW {stroke [] 0 setdash 
  hpt 0 360 arc Opaque stroke} def
/BoxFill {gsave Rec 1 setgray fill grestore} def
/Density {
  /Fillden exch def
  currentrgbcolor
  /ColB exch def /ColG exch def /ColR exch def
  /ColR ColR Fillden mul Fillden sub 1 add def
  /ColG ColG Fillden mul Fillden sub 1 add def
  /ColB ColB Fillden mul Fillden sub 1 add def
  ColR ColG ColB setrgbcolor} def
/BoxColFill {gsave Rec PolyFill} def
/PolyFill {gsave Density fill grestore grestore} def
/h {rlineto rlineto rlineto gsave closepath fill grestore} bind def
%
% PostScript Level 1 Pattern Fill routine for rectangles
% Usage: x y w h s a XX PatternFill
%	x,y = lower left corner of box to be filled
%	w,h = width and height of box
%	  a = angle in degrees between lines and x-axis
%	 XX = 0/1 for no/yes cross-hatch
%
/PatternFill {gsave /PFa [ 9 2 roll ] def
  PFa 0 get PFa 2 get 2 div add PFa 1 get PFa 3 get 2 div add translate
  PFa 2 get -2 div PFa 3 get -2 div PFa 2 get PFa 3 get Rec
  TransparentPatterns {} {gsave 1 setgray fill grestore} ifelse
  clip
  currentlinewidth 0.5 mul setlinewidth
  /PFs PFa 2 get dup mul PFa 3 get dup mul add sqrt def
  0 0 M PFa 5 get rotate PFs -2 div dup translate
  0 1 PFs PFa 4 get div 1 add floor cvi
	{PFa 4 get mul 0 M 0 PFs V} for
  0 PFa 6 get ne {
	0 1 PFs PFa 4 get div 1 add floor cvi
	{PFa 4 get mul 0 2 1 roll M PFs 0 V} for
 } if
  stroke grestore} def
%
/languagelevel where
 {pop languagelevel} {1} ifelse
 2 lt
	{/InterpretLevel1 true def}
	{/InterpretLevel1 Level1 def}
 ifelse
%
% PostScript level 2 pattern fill definitions
%
/Level2PatternFill {
/Tile8x8 {/PaintType 2 /PatternType 1 /TilingType 1 /BBox [0 0 8 8] /XStep 8 /YStep 8}
	bind def
/KeepColor {currentrgbcolor [/Pattern /DeviceRGB] setcolorspace} bind def
<< Tile8x8
 /PaintProc {0.5 setlinewidth pop 0 0 M 8 8 L 0 8 M 8 0 L stroke} 
>> matrix makepattern
/Pat1 exch def
<< Tile8x8
 /PaintProc {0.5 setlinewidth pop 0 0 M 8 8 L 0 8 M 8 0 L stroke
	0 4 M 4 8 L 8 4 L 4 0 L 0 4 L stroke}
>> matrix makepattern
/Pat2 exch def
<< Tile8x8
 /PaintProc {0.5 setlinewidth pop 0 0 M 0 8 L
	8 8 L 8 0 L 0 0 L fill}
>> matrix makepattern
/Pat3 exch def
<< Tile8x8
 /PaintProc {0.5 setlinewidth pop -4 8 M 8 -4 L
	0 12 M 12 0 L stroke}
>> matrix makepattern
/Pat4 exch def
<< Tile8x8
 /PaintProc {0.5 setlinewidth pop -4 0 M 8 12 L
	0 -4 M 12 8 L stroke}
>> matrix makepattern
/Pat5 exch def
<< Tile8x8
 /PaintProc {0.5 setlinewidth pop -2 8 M 4 -4 L
	0 12 M 8 -4 L 4 12 M 10 0 L stroke}
>> matrix makepattern
/Pat6 exch def
<< Tile8x8
 /PaintProc {0.5 setlinewidth pop -2 0 M 4 12 L
	0 -4 M 8 12 L 4 -4 M 10 8 L stroke}
>> matrix makepattern
/Pat7 exch def
<< Tile8x8
 /PaintProc {0.5 setlinewidth pop 8 -2 M -4 4 L
	12 0 M -4 8 L 12 4 M 0 10 L stroke}
>> matrix makepattern
/Pat8 exch def
<< Tile8x8
 /PaintProc {0.5 setlinewidth pop 0 -2 M 12 4 L
	-4 0 M 12 8 L -4 4 M 8 10 L stroke}
>> matrix makepattern
/Pat9 exch def
/Pattern1 {PatternBgnd KeepColor Pat1 setpattern} bind def
/Pattern2 {PatternBgnd KeepColor Pat2 setpattern} bind def
/Pattern3 {PatternBgnd KeepColor Pat3 setpattern} bind def
/Pattern4 {PatternBgnd KeepColor Landscape {Pat5} {Pat4} ifelse setpattern} bind def
/Pattern5 {PatternBgnd KeepColor Landscape {Pat4} {Pat5} ifelse setpattern} bind def
/Pattern6 {PatternBgnd KeepColor Landscape {Pat9} {Pat6} ifelse setpattern} bind def
/Pattern7 {PatternBgnd KeepColor Landscape {Pat8} {Pat7} ifelse setpattern} bind def
} def
%
%
%End of PostScript Level 2 code
%
/PatternBgnd {
  TransparentPatterns {} {gsave 1 setgray fill grestore} ifelse
} def
%
% Substitute for Level 2 pattern fill codes with
% grayscale if Level 2 support is not selected.
%
/Level1PatternFill {
/Pattern1 {0.250 Density} bind def
/Pattern2 {0.500 Density} bind def
/Pattern3 {0.750 Density} bind def
/Pattern4 {0.125 Density} bind def
/Pattern5 {0.375 Density} bind def
/Pattern6 {0.625 Density} bind def
/Pattern7 {0.875 Density} bind def
} def
%
% Now test for support of Level 2 code
%
Level1 {Level1PatternFill} {Level2PatternFill} ifelse
%
/Symbol-Oblique /Symbol findfont [1 0 .167 1 0 0] makefont
dup length dict begin {1 index /FID eq {pop pop} {def} ifelse} forall
currentdict end definefont pop
Level1 SuppressPDFMark or 
{} {
/SDict 10 dict def
systemdict /pdfmark known not {
  userdict /pdfmark systemdict /cleartomark get put
} if
SDict begin [
  /Title (out.ps)
  /Subject (gnuplot plot)
  /Creator (gnuplot 4.6 patchlevel 6)
  /Author (yani)
%  /Producer (gnuplot)
%  /Keywords ()
  /CreationDate (Thu May 28 14:40:41 2015)
  /DOCINFO pdfmark
end
} ifelse
end
%%EndProlog
%%Page: 1 1
gnudict begin
gsave
doclip
50 50 translate
0.100 0.100 scale
90 rotate
0 -5040 translate
0 setgray
newpath
(Helvetica) findfont 140 scalefont setfont
BackgroundColor 0 lt 3 1 roll 0 lt exch 0 lt or or not {gsave BackgroundColor C clippath fill grestore} if
1.000 UL
LT0
0.50 0.50 0.50 C 1.000 UL
LTa
0.50 0.50 0.50 C 966 280 M
5981 0 V
stroke
LT0
0.50 0.50 0.50 C 966 280 M
63 0 V
5918 0 R
-63 0 V
882 280 M
( 0) Rshow
1.000 UL
LT0
0.50 0.50 0.50 C 1.000 UL
LTa
0.50 0.50 0.50 C 966 311 M
5981 0 V
stroke
LT0
0.50 0.50 0.50 C 966 311 M
63 0 V
5918 0 R
-63 0 V
882 311 M
( 0.707106) Rshow
1.000 UL
LT0
0.50 0.50 0.50 C 1.000 UL
LTa
0.50 0.50 0.50 C 966 343 M
5981 0 V
stroke
LT0
0.50 0.50 0.50 C 966 343 M
63 0 V
5918 0 R
-63 0 V
882 343 M
( 1.41421) Rshow
1.000 UL
LT0
0.50 0.50 0.50 C 1.000 UL
LTa
0.50 0.50 0.50 C 966 374 M
5981 0 V
stroke
LT0
0.50 0.50 0.50 C 966 374 M
63 0 V
5918 0 R
-63 0 V
882 374 M
( 2.12132) Rshow
1.000 UL
LT0
0.50 0.50 0.50 C 1.000 UL
LTa
0.50 0.50 0.50 C 966 406 M
5981 0 V
stroke
LT0
0.50 0.50 0.50 C 966 406 M
63 0 V
5918 0 R
-63 0 V
882 406 M
( 2.82842) Rshow
1.000 UL
LT0
0.50 0.50 0.50 C 1.000 UL
LTa
0.50 0.50 0.50 C 966 437 M
5981 0 V
stroke
LT0
0.50 0.50 0.50 C 966 437 M
63 0 V
5918 0 R
-63 0 V
882 437 M
( 3.53553) Rshow
1.000 UL
LT0
0.50 0.50 0.50 C 1.000 UL
LTa
0.50 0.50 0.50 C 966 469 M
5981 0 V
stroke
LT0
0.50 0.50 0.50 C 966 469 M
63 0 V
5918 0 R
-63 0 V
882 469 M
( 4.24264) Rshow
1.000 UL
LT0
0.50 0.50 0.50 C 1.000 UL
LTa
0.50 0.50 0.50 C 966 500 M
5981 0 V
stroke
LT0
0.50 0.50 0.50 C 966 500 M
63 0 V
5918 0 R
-63 0 V
882 500 M
( 4.94974) Rshow
1.000 UL
LT0
0.50 0.50 0.50 C 1.000 UL
LTa
0.50 0.50 0.50 C 966 532 M
5981 0 V
stroke
LT0
0.50 0.50 0.50 C 966 532 M
63 0 V
5918 0 R
-63 0 V
882 532 M
( 5.65685) Rshow
1.000 UL
LT0
0.50 0.50 0.50 C 1.000 UL
LTa
0.50 0.50 0.50 C 966 563 M
5981 0 V
stroke
LT0
0.50 0.50 0.50 C 966 563 M
63 0 V
5918 0 R
-63 0 V
882 563 M
( 6.36395) Rshow
1.000 UL
LT0
0.50 0.50 0.50 C 1.000 UL
LTa
0.50 0.50 0.50 C 966 594 M
5981 0 V
stroke
LT0
0.50 0.50 0.50 C 966 594 M
63 0 V
5918 0 R
-63 0 V
882 594 M
( 7.07106) Rshow
1.000 UL
LT0
0.50 0.50 0.50 C 1.000 UL
LTa
0.50 0.50 0.50 C 966 626 M
5981 0 V
stroke
LT0
0.50 0.50 0.50 C 966 626 M
63 0 V
5918 0 R
-63 0 V
882 626 M
( 7.77817) Rshow
1.000 UL
LT0
0.50 0.50 0.50 C 1.000 UL
LTa
0.50 0.50 0.50 C 966 657 M
5981 0 V
stroke
LT0
0.50 0.50 0.50 C 966 657 M
63 0 V
5918 0 R
-63 0 V
882 657 M
( 8.48527) Rshow
1.000 UL
LT0
0.50 0.50 0.50 C 1.000 UL
LTa
0.50 0.50 0.50 C 966 689 M
5981 0 V
stroke
LT0
0.50 0.50 0.50 C 966 689 M
63 0 V
5918 0 R
-63 0 V
882 689 M
( 9.19238) Rshow
1.000 UL
LT0
0.50 0.50 0.50 C 1.000 UL
LTa
0.50 0.50 0.50 C 966 720 M
5981 0 V
stroke
LT0
0.50 0.50 0.50 C 966 720 M
63 0 V
5918 0 R
-63 0 V
882 720 M
( 9.89948) Rshow
1.000 UL
LT0
0.50 0.50 0.50 C 1.000 UL
LTa
0.50 0.50 0.50 C 966 752 M
5981 0 V
stroke
LT0
0.50 0.50 0.50 C 966 752 M
63 0 V
5918 0 R
-63 0 V
882 752 M
( 10.6066) Rshow
1.000 UL
LT0
0.50 0.50 0.50 C 1.000 UL
LTa
0.50 0.50 0.50 C 966 783 M
5981 0 V
stroke
LT0
0.50 0.50 0.50 C 966 783 M
63 0 V
5918 0 R
-63 0 V
882 783 M
( 11.3137) Rshow
1.000 UL
LT0
0.50 0.50 0.50 C 1.000 UL
LTa
0.50 0.50 0.50 C 966 815 M
5981 0 V
stroke
LT0
0.50 0.50 0.50 C 966 815 M
63 0 V
5918 0 R
-63 0 V
882 815 M
( 12.0208) Rshow
1.000 UL
LT0
0.50 0.50 0.50 C 1.000 UL
LTa
0.50 0.50 0.50 C 966 846 M
5981 0 V
stroke
LT0
0.50 0.50 0.50 C 966 846 M
63 0 V
5918 0 R
-63 0 V
882 846 M
( 12.7279) Rshow
1.000 UL
LT0
0.50 0.50 0.50 C 1.000 UL
LTa
0.50 0.50 0.50 C 966 877 M
5981 0 V
stroke
LT0
0.50 0.50 0.50 C 966 877 M
63 0 V
5918 0 R
-63 0 V
882 877 M
( 13.435) Rshow
1.000 UL
LT0
0.50 0.50 0.50 C 1.000 UL
LTa
0.50 0.50 0.50 C 966 909 M
5981 0 V
stroke
LT0
0.50 0.50 0.50 C 966 909 M
63 0 V
5918 0 R
-63 0 V
882 909 M
( 14.1421) Rshow
1.000 UL
LT0
0.50 0.50 0.50 C 1.000 UL
LTa
0.50 0.50 0.50 C 966 940 M
5981 0 V
stroke
LT0
0.50 0.50 0.50 C 966 940 M
63 0 V
5918 0 R
-63 0 V
882 940 M
( 14.8492) Rshow
1.000 UL
LT0
0.50 0.50 0.50 C 1.000 UL
LTa
0.50 0.50 0.50 C 966 972 M
5981 0 V
stroke
LT0
0.50 0.50 0.50 C 966 972 M
63 0 V
5918 0 R
-63 0 V
882 972 M
( 15.5563) Rshow
1.000 UL
LT0
0.50 0.50 0.50 C 1.000 UL
LTa
0.50 0.50 0.50 C 966 1003 M
5981 0 V
stroke
LT0
0.50 0.50 0.50 C 966 1003 M
63 0 V
5918 0 R
-63 0 V
-6002 0 R
( 16.2634) Rshow
1.000 UL
LT0
0.50 0.50 0.50 C 1.000 UL
LTa
0.50 0.50 0.50 C 966 1035 M
5981 0 V
stroke
LT0
0.50 0.50 0.50 C 966 1035 M
63 0 V
5918 0 R
-63 0 V
-6002 0 R
( 16.9705) Rshow
1.000 UL
LT0
0.50 0.50 0.50 C 1.000 UL
LTa
0.50 0.50 0.50 C 966 1066 M
5981 0 V
stroke
LT0
0.50 0.50 0.50 C 966 1066 M
63 0 V
5918 0 R
-63 0 V
-6002 0 R
( 17.6776) Rshow
1.000 UL
LT0
0.50 0.50 0.50 C 1.000 UL
LTa
0.50 0.50 0.50 C 966 1098 M
5981 0 V
stroke
LT0
0.50 0.50 0.50 C 966 1098 M
63 0 V
5918 0 R
-63 0 V
-6002 0 R
( 18.3848) Rshow
1.000 UL
LT0
0.50 0.50 0.50 C 1.000 UL
LTa
0.50 0.50 0.50 C 966 1129 M
5981 0 V
stroke
LT0
0.50 0.50 0.50 C 966 1129 M
63 0 V
5918 0 R
-63 0 V
-6002 0 R
( 19.0919) Rshow
1.000 UL
LT0
0.50 0.50 0.50 C 1.000 UL
LTa
0.50 0.50 0.50 C 966 1160 M
5981 0 V
stroke
LT0
0.50 0.50 0.50 C 966 1160 M
63 0 V
5918 0 R
-63 0 V
-6002 0 R
( 19.799) Rshow
1.000 UL
LT0
0.50 0.50 0.50 C 1.000 UL
LTa
0.50 0.50 0.50 C 966 1192 M
5981 0 V
stroke
LT0
0.50 0.50 0.50 C 966 1192 M
63 0 V
5918 0 R
-63 0 V
-6002 0 R
( 20.5061) Rshow
1.000 UL
LT0
0.50 0.50 0.50 C 1.000 UL
LTa
0.50 0.50 0.50 C 966 1223 M
5981 0 V
stroke
LT0
0.50 0.50 0.50 C 966 1223 M
63 0 V
5918 0 R
-63 0 V
-6002 0 R
( 21.2132) Rshow
1.000 UL
LT0
0.50 0.50 0.50 C 1.000 UL
LTa
0.50 0.50 0.50 C 966 1255 M
5981 0 V
stroke
LT0
0.50 0.50 0.50 C 966 1255 M
63 0 V
5918 0 R
-63 0 V
-6002 0 R
( 21.9203) Rshow
1.000 UL
LT0
0.50 0.50 0.50 C 1.000 UL
LTa
0.50 0.50 0.50 C 966 1286 M
5981 0 V
stroke
LT0
0.50 0.50 0.50 C 966 1286 M
63 0 V
5918 0 R
-63 0 V
-6002 0 R
( 22.6274) Rshow
1.000 UL
LT0
0.50 0.50 0.50 C 1.000 UL
LTa
0.50 0.50 0.50 C 966 1318 M
5981 0 V
stroke
LT0
0.50 0.50 0.50 C 966 1318 M
63 0 V
5918 0 R
-63 0 V
-6002 0 R
( 23.3345) Rshow
1.000 UL
LT0
0.50 0.50 0.50 C 1.000 UL
LTa
0.50 0.50 0.50 C 966 1349 M
5981 0 V
stroke
LT0
0.50 0.50 0.50 C 966 1349 M
63 0 V
5918 0 R
-63 0 V
-6002 0 R
( 24.0416) Rshow
1.000 UL
LT0
0.50 0.50 0.50 C 1.000 UL
LTa
0.50 0.50 0.50 C 966 1381 M
5981 0 V
stroke
LT0
0.50 0.50 0.50 C 966 1381 M
63 0 V
5918 0 R
-63 0 V
-6002 0 R
( 24.7487) Rshow
1.000 UL
LT0
0.50 0.50 0.50 C 1.000 UL
LTa
0.50 0.50 0.50 C 966 1412 M
5981 0 V
stroke
LT0
0.50 0.50 0.50 C 966 1412 M
63 0 V
5918 0 R
-63 0 V
-6002 0 R
( 25.4558) Rshow
1.000 UL
LT0
0.50 0.50 0.50 C 1.000 UL
LTa
0.50 0.50 0.50 C 966 1443 M
5981 0 V
stroke
LT0
0.50 0.50 0.50 C 966 1443 M
63 0 V
5918 0 R
-63 0 V
-6002 0 R
( 26.1629) Rshow
1.000 UL
LT0
0.50 0.50 0.50 C 1.000 UL
LTa
0.50 0.50 0.50 C 966 1475 M
5981 0 V
stroke
LT0
0.50 0.50 0.50 C 966 1475 M
63 0 V
5918 0 R
-63 0 V
-6002 0 R
( 26.87) Rshow
1.000 UL
LT0
0.50 0.50 0.50 C 1.000 UL
LTa
0.50 0.50 0.50 C 966 1506 M
5981 0 V
stroke
LT0
0.50 0.50 0.50 C 966 1506 M
63 0 V
5918 0 R
-63 0 V
-6002 0 R
( 27.5771) Rshow
1.000 UL
LT0
0.50 0.50 0.50 C 1.000 UL
LTa
0.50 0.50 0.50 C 966 1538 M
5981 0 V
stroke
LT0
0.50 0.50 0.50 C 966 1538 M
63 0 V
5918 0 R
-63 0 V
-6002 0 R
( 28.2842) Rshow
1.000 UL
LT0
0.50 0.50 0.50 C 1.000 UL
LTa
0.50 0.50 0.50 C 966 1569 M
5981 0 V
stroke
LT0
0.50 0.50 0.50 C 966 1569 M
63 0 V
5918 0 R
-63 0 V
-6002 0 R
( 28.9913) Rshow
1.000 UL
LT0
0.50 0.50 0.50 C 1.000 UL
LTa
0.50 0.50 0.50 C 966 1601 M
5981 0 V
stroke
LT0
0.50 0.50 0.50 C 966 1601 M
63 0 V
5918 0 R
-63 0 V
-6002 0 R
( 29.6985) Rshow
1.000 UL
LT0
0.50 0.50 0.50 C 1.000 UL
LTa
0.50 0.50 0.50 C 966 1632 M
5981 0 V
stroke
LT0
0.50 0.50 0.50 C 966 1632 M
63 0 V
5918 0 R
-63 0 V
-6002 0 R
( 30.4056) Rshow
1.000 UL
LT0
0.50 0.50 0.50 C 1.000 UL
LTa
0.50 0.50 0.50 C 966 1664 M
5981 0 V
stroke
LT0
0.50 0.50 0.50 C 966 1664 M
63 0 V
5918 0 R
-63 0 V
-6002 0 R
( 31.1127) Rshow
1.000 UL
LT0
0.50 0.50 0.50 C 1.000 UL
LTa
0.50 0.50 0.50 C 966 1695 M
5981 0 V
stroke
LT0
0.50 0.50 0.50 C 966 1695 M
63 0 V
5918 0 R
-63 0 V
-6002 0 R
( 31.8198) Rshow
1.000 UL
LT0
0.50 0.50 0.50 C 1.000 UL
LTa
0.50 0.50 0.50 C 966 1726 M
5981 0 V
stroke
LT0
0.50 0.50 0.50 C 966 1726 M
63 0 V
5918 0 R
-63 0 V
-6002 0 R
( 32.5269) Rshow
1.000 UL
LT0
0.50 0.50 0.50 C 1.000 UL
LTa
0.50 0.50 0.50 C 966 1758 M
5981 0 V
stroke
LT0
0.50 0.50 0.50 C 966 1758 M
63 0 V
5918 0 R
-63 0 V
-6002 0 R
( 33.234) Rshow
1.000 UL
LT0
0.50 0.50 0.50 C 1.000 UL
LTa
0.50 0.50 0.50 C 966 1789 M
5981 0 V
stroke
LT0
0.50 0.50 0.50 C 966 1789 M
63 0 V
5918 0 R
-63 0 V
-6002 0 R
( 33.9411) Rshow
1.000 UL
LT0
0.50 0.50 0.50 C 1.000 UL
LTa
0.50 0.50 0.50 C 966 1821 M
5981 0 V
stroke
LT0
0.50 0.50 0.50 C 966 1821 M
63 0 V
5918 0 R
-63 0 V
-6002 0 R
( 34.6482) Rshow
1.000 UL
LT0
0.50 0.50 0.50 C 1.000 UL
LTa
0.50 0.50 0.50 C 966 1852 M
5981 0 V
stroke
LT0
0.50 0.50 0.50 C 966 1852 M
63 0 V
5918 0 R
-63 0 V
-6002 0 R
( 35.3553) Rshow
1.000 UL
LT0
0.50 0.50 0.50 C 1.000 UL
LTa
0.50 0.50 0.50 C 966 1884 M
5981 0 V
stroke
LT0
0.50 0.50 0.50 C 966 1884 M
63 0 V
5918 0 R
-63 0 V
-6002 0 R
( 36.0624) Rshow
1.000 UL
LT0
0.50 0.50 0.50 C 1.000 UL
LTa
0.50 0.50 0.50 C 966 1915 M
5981 0 V
stroke
LT0
0.50 0.50 0.50 C 966 1915 M
63 0 V
5918 0 R
-63 0 V
-6002 0 R
( 36.7695) Rshow
1.000 UL
LT0
0.50 0.50 0.50 C 1.000 UL
LTa
0.50 0.50 0.50 C 966 1947 M
5981 0 V
stroke
LT0
0.50 0.50 0.50 C 966 1947 M
63 0 V
5918 0 R
-63 0 V
-6002 0 R
( 37.4766) Rshow
1.000 UL
LT0
0.50 0.50 0.50 C 1.000 UL
LTa
0.50 0.50 0.50 C 966 1978 M
5981 0 V
stroke
LT0
0.50 0.50 0.50 C 966 1978 M
63 0 V
5918 0 R
-63 0 V
-6002 0 R
( 38.1837) Rshow
1.000 UL
LT0
0.50 0.50 0.50 C 1.000 UL
LTa
0.50 0.50 0.50 C 966 2009 M
5981 0 V
stroke
LT0
0.50 0.50 0.50 C 966 2009 M
63 0 V
5918 0 R
-63 0 V
-6002 0 R
( 38.8908) Rshow
1.000 UL
LT0
0.50 0.50 0.50 C 1.000 UL
LTa
0.50 0.50 0.50 C 966 2041 M
5981 0 V
stroke
LT0
0.50 0.50 0.50 C 966 2041 M
63 0 V
5918 0 R
-63 0 V
-6002 0 R
( 39.5979) Rshow
1.000 UL
LT0
0.50 0.50 0.50 C 1.000 UL
LTa
0.50 0.50 0.50 C 966 2072 M
5981 0 V
stroke
LT0
0.50 0.50 0.50 C 966 2072 M
63 0 V
5918 0 R
-63 0 V
-6002 0 R
( 40.305) Rshow
1.000 UL
LT0
0.50 0.50 0.50 C 1.000 UL
LTa
0.50 0.50 0.50 C 966 2104 M
5981 0 V
stroke
LT0
0.50 0.50 0.50 C 966 2104 M
63 0 V
5918 0 R
-63 0 V
-6002 0 R
( 41.0121) Rshow
1.000 UL
LT0
0.50 0.50 0.50 C 1.000 UL
LTa
0.50 0.50 0.50 C 966 2135 M
5981 0 V
stroke
LT0
0.50 0.50 0.50 C 966 2135 M
63 0 V
5918 0 R
-63 0 V
-6002 0 R
( 41.7193) Rshow
1.000 UL
LT0
0.50 0.50 0.50 C 1.000 UL
LTa
0.50 0.50 0.50 C 966 2167 M
5981 0 V
stroke
LT0
0.50 0.50 0.50 C 966 2167 M
63 0 V
5918 0 R
-63 0 V
-6002 0 R
( 42.4264) Rshow
1.000 UL
LT0
0.50 0.50 0.50 C 1.000 UL
LTa
0.50 0.50 0.50 C 966 2198 M
5981 0 V
stroke
LT0
0.50 0.50 0.50 C 966 2198 M
63 0 V
5918 0 R
-63 0 V
-6002 0 R
( 43.1335) Rshow
1.000 UL
LT0
0.50 0.50 0.50 C 1.000 UL
LTa
0.50 0.50 0.50 C 966 2230 M
5981 0 V
stroke
LT0
0.50 0.50 0.50 C 966 2230 M
63 0 V
5918 0 R
-63 0 V
-6002 0 R
( 43.8406) Rshow
1.000 UL
LT0
0.50 0.50 0.50 C 1.000 UL
LTa
0.50 0.50 0.50 C 966 2261 M
5981 0 V
stroke
LT0
0.50 0.50 0.50 C 966 2261 M
63 0 V
5918 0 R
-63 0 V
-6002 0 R
( 44.5477) Rshow
1.000 UL
LT0
0.50 0.50 0.50 C 1.000 UL
LTa
0.50 0.50 0.50 C 966 2292 M
5981 0 V
stroke
LT0
0.50 0.50 0.50 C 966 2292 M
63 0 V
5918 0 R
-63 0 V
-6002 0 R
( 45.2548) Rshow
1.000 UL
LT0
0.50 0.50 0.50 C 1.000 UL
LTa
0.50 0.50 0.50 C 966 2324 M
5981 0 V
stroke
LT0
0.50 0.50 0.50 C 966 2324 M
63 0 V
5918 0 R
-63 0 V
-6002 0 R
( 45.9619) Rshow
1.000 UL
LT0
0.50 0.50 0.50 C 1.000 UL
LTa
0.50 0.50 0.50 C 966 2355 M
5981 0 V
stroke
LT0
0.50 0.50 0.50 C 966 2355 M
63 0 V
5918 0 R
-63 0 V
-6002 0 R
( 46.669) Rshow
1.000 UL
LT0
0.50 0.50 0.50 C 1.000 UL
LTa
0.50 0.50 0.50 C 966 2387 M
5981 0 V
stroke
LT0
0.50 0.50 0.50 C 966 2387 M
63 0 V
5918 0 R
-63 0 V
-6002 0 R
( 47.3761) Rshow
1.000 UL
LT0
0.50 0.50 0.50 C 1.000 UL
LTa
0.50 0.50 0.50 C 966 2418 M
5981 0 V
stroke
LT0
0.50 0.50 0.50 C 966 2418 M
63 0 V
5918 0 R
-63 0 V
-6002 0 R
( 48.0832) Rshow
1.000 UL
LT0
0.50 0.50 0.50 C 1.000 UL
LTa
0.50 0.50 0.50 C 966 2450 M
5981 0 V
stroke
LT0
0.50 0.50 0.50 C 966 2450 M
63 0 V
5918 0 R
-63 0 V
-6002 0 R
( 48.7903) Rshow
1.000 UL
LT0
0.50 0.50 0.50 C 1.000 UL
LTa
0.50 0.50 0.50 C 966 2481 M
5981 0 V
stroke
LT0
0.50 0.50 0.50 C 966 2481 M
63 0 V
5918 0 R
-63 0 V
-6002 0 R
( 49.4974) Rshow
1.000 UL
LT0
0.50 0.50 0.50 C 1.000 UL
LTa
0.50 0.50 0.50 C 966 2513 M
5981 0 V
stroke
LT0
0.50 0.50 0.50 C 966 2513 M
63 0 V
5918 0 R
-63 0 V
-6002 0 R
( 50.2045) Rshow
1.000 UL
LT0
0.50 0.50 0.50 C 1.000 UL
LTa
0.50 0.50 0.50 C 966 2544 M
5981 0 V
stroke
LT0
0.50 0.50 0.50 C 966 2544 M
63 0 V
5918 0 R
-63 0 V
-6002 0 R
( 50.9116) Rshow
1.000 UL
LT0
0.50 0.50 0.50 C 1.000 UL
LTa
0.50 0.50 0.50 C 966 2576 M
5981 0 V
stroke
LT0
0.50 0.50 0.50 C 966 2576 M
63 0 V
5918 0 R
-63 0 V
-6002 0 R
( 51.6187) Rshow
1.000 UL
LT0
0.50 0.50 0.50 C 1.000 UL
LTa
0.50 0.50 0.50 C 966 2607 M
5981 0 V
stroke
LT0
0.50 0.50 0.50 C 966 2607 M
63 0 V
5918 0 R
-63 0 V
-6002 0 R
( 52.3258) Rshow
1.000 UL
LT0
0.50 0.50 0.50 C 1.000 UL
LTa
0.50 0.50 0.50 C 966 2638 M
5981 0 V
stroke
LT0
0.50 0.50 0.50 C 966 2638 M
63 0 V
5918 0 R
-63 0 V
-6002 0 R
( 53.033) Rshow
1.000 UL
LT0
0.50 0.50 0.50 C 1.000 UL
LTa
0.50 0.50 0.50 C 966 2670 M
5981 0 V
stroke
LT0
0.50 0.50 0.50 C 966 2670 M
63 0 V
5918 0 R
-63 0 V
-6002 0 R
( 53.7401) Rshow
1.000 UL
LT0
0.50 0.50 0.50 C 1.000 UL
LTa
0.50 0.50 0.50 C 966 2701 M
5981 0 V
stroke
LT0
0.50 0.50 0.50 C 966 2701 M
63 0 V
5918 0 R
-63 0 V
-6002 0 R
( 54.4472) Rshow
1.000 UL
LT0
0.50 0.50 0.50 C 1.000 UL
LTa
0.50 0.50 0.50 C 966 2733 M
5981 0 V
stroke
LT0
0.50 0.50 0.50 C 966 2733 M
63 0 V
5918 0 R
-63 0 V
-6002 0 R
( 55.1543) Rshow
1.000 UL
LT0
0.50 0.50 0.50 C 1.000 UL
LTa
0.50 0.50 0.50 C 966 2764 M
5981 0 V
stroke
LT0
0.50 0.50 0.50 C 966 2764 M
63 0 V
5918 0 R
-63 0 V
-6002 0 R
( 55.8614) Rshow
1.000 UL
LT0
0.50 0.50 0.50 C 1.000 UL
LTa
0.50 0.50 0.50 C 966 2796 M
5981 0 V
stroke
LT0
0.50 0.50 0.50 C 966 2796 M
63 0 V
5918 0 R
-63 0 V
-6002 0 R
( 56.5685) Rshow
1.000 UL
LT0
0.50 0.50 0.50 C 1.000 UL
LTa
0.50 0.50 0.50 C 966 2827 M
5981 0 V
stroke
LT0
0.50 0.50 0.50 C 966 2827 M
63 0 V
5918 0 R
-63 0 V
-6002 0 R
( 57.2756) Rshow
1.000 UL
LT0
0.50 0.50 0.50 C 1.000 UL
LTa
0.50 0.50 0.50 C 966 2859 M
5981 0 V
stroke
LT0
0.50 0.50 0.50 C 966 2859 M
63 0 V
5918 0 R
-63 0 V
-6002 0 R
( 57.9827) Rshow
1.000 UL
LT0
0.50 0.50 0.50 C 1.000 UL
LTa
0.50 0.50 0.50 C 966 2890 M
5981 0 V
stroke
LT0
0.50 0.50 0.50 C 966 2890 M
63 0 V
5918 0 R
-63 0 V
-6002 0 R
( 58.6898) Rshow
1.000 UL
LT0
0.50 0.50 0.50 C 1.000 UL
LTa
0.50 0.50 0.50 C 966 2921 M
5981 0 V
stroke
LT0
0.50 0.50 0.50 C 966 2921 M
63 0 V
5918 0 R
-63 0 V
-6002 0 R
( 59.3969) Rshow
1.000 UL
LT0
0.50 0.50 0.50 C 1.000 UL
LTa
0.50 0.50 0.50 C 966 2953 M
5981 0 V
stroke
LT0
0.50 0.50 0.50 C 966 2953 M
63 0 V
5918 0 R
-63 0 V
-6002 0 R
( 60.104) Rshow
1.000 UL
LT0
0.50 0.50 0.50 C 1.000 UL
LTa
0.50 0.50 0.50 C 966 2984 M
5981 0 V
stroke
LT0
0.50 0.50 0.50 C 966 2984 M
63 0 V
5918 0 R
-63 0 V
-6002 0 R
( 60.8111) Rshow
1.000 UL
LT0
0.50 0.50 0.50 C 1.000 UL
LTa
0.50 0.50 0.50 C 966 3016 M
5981 0 V
stroke
LT0
0.50 0.50 0.50 C 966 3016 M
63 0 V
5918 0 R
-63 0 V
-6002 0 R
( 61.5182) Rshow
1.000 UL
LT0
0.50 0.50 0.50 C 1.000 UL
LTa
0.50 0.50 0.50 C 966 3047 M
5981 0 V
stroke
LT0
0.50 0.50 0.50 C 966 3047 M
63 0 V
5918 0 R
-63 0 V
-6002 0 R
( 62.2253) Rshow
1.000 UL
LT0
0.50 0.50 0.50 C 1.000 UL
LTa
0.50 0.50 0.50 C 966 3079 M
5981 0 V
stroke
LT0
0.50 0.50 0.50 C 966 3079 M
63 0 V
5918 0 R
-63 0 V
-6002 0 R
( 62.9324) Rshow
1.000 UL
LT0
0.50 0.50 0.50 C 1.000 UL
LTa
0.50 0.50 0.50 C 966 3110 M
5981 0 V
stroke
LT0
0.50 0.50 0.50 C 966 3110 M
63 0 V
5918 0 R
-63 0 V
-6002 0 R
( 63.6395) Rshow
1.000 UL
LT0
0.50 0.50 0.50 C 1.000 UL
LTa
0.50 0.50 0.50 C 966 3142 M
5981 0 V
stroke
LT0
0.50 0.50 0.50 C 966 3142 M
63 0 V
5918 0 R
-63 0 V
-6002 0 R
( 64.3466) Rshow
1.000 UL
LT0
0.50 0.50 0.50 C 1.000 UL
LTa
0.50 0.50 0.50 C 966 3173 M
5981 0 V
stroke
LT0
0.50 0.50 0.50 C 966 3173 M
63 0 V
5918 0 R
-63 0 V
-6002 0 R
( 65.0538) Rshow
1.000 UL
LT0
0.50 0.50 0.50 C 1.000 UL
LTa
0.50 0.50 0.50 C 966 3204 M
5981 0 V
stroke
LT0
0.50 0.50 0.50 C 966 3204 M
63 0 V
5918 0 R
-63 0 V
-6002 0 R
( 65.7609) Rshow
1.000 UL
LT0
0.50 0.50 0.50 C 1.000 UL
LTa
0.50 0.50 0.50 C 966 3236 M
5981 0 V
stroke
LT0
0.50 0.50 0.50 C 966 3236 M
63 0 V
5918 0 R
-63 0 V
-6002 0 R
( 66.468) Rshow
1.000 UL
LT0
0.50 0.50 0.50 C 1.000 UL
LTa
0.50 0.50 0.50 C 966 3267 M
5981 0 V
stroke
LT0
0.50 0.50 0.50 C 966 3267 M
63 0 V
5918 0 R
-63 0 V
-6002 0 R
( 67.1751) Rshow
1.000 UL
LT0
0.50 0.50 0.50 C 1.000 UL
LTa
0.50 0.50 0.50 C 966 3299 M
5981 0 V
stroke
LT0
0.50 0.50 0.50 C 966 3299 M
63 0 V
5918 0 R
-63 0 V
-6002 0 R
( 67.8822) Rshow
1.000 UL
LT0
0.50 0.50 0.50 C 1.000 UL
LTa
0.50 0.50 0.50 C 966 3330 M
5981 0 V
stroke
LT0
0.50 0.50 0.50 C 966 3330 M
63 0 V
5918 0 R
-63 0 V
-6002 0 R
( 68.5893) Rshow
1.000 UL
LT0
0.50 0.50 0.50 C 1.000 UL
LTa
0.50 0.50 0.50 C 966 3362 M
5981 0 V
stroke
LT0
0.50 0.50 0.50 C 966 3362 M
63 0 V
5918 0 R
-63 0 V
-6002 0 R
( 69.2964) Rshow
1.000 UL
LT0
0.50 0.50 0.50 C 1.000 UL
LTa
0.50 0.50 0.50 C 966 3393 M
5981 0 V
stroke
LT0
0.50 0.50 0.50 C 966 3393 M
63 0 V
5918 0 R
-63 0 V
-6002 0 R
( 70.0035) Rshow
1.000 UL
LT0
0.50 0.50 0.50 C 1.000 UL
LTa
0.50 0.50 0.50 C 966 3425 M
5981 0 V
stroke
LT0
0.50 0.50 0.50 C 966 3425 M
63 0 V
5918 0 R
-63 0 V
-6002 0 R
( 70.7106) Rshow
1.000 UL
LT0
0.50 0.50 0.50 C 1.000 UL
LTa
0.50 0.50 0.50 C 966 3456 M
5981 0 V
stroke
LT0
0.50 0.50 0.50 C 966 3456 M
63 0 V
5918 0 R
-63 0 V
-6002 0 R
( 71.4177) Rshow
1.000 UL
LT0
0.50 0.50 0.50 C 1.000 UL
LTa
0.50 0.50 0.50 C 966 3487 M
5981 0 V
stroke
LT0
0.50 0.50 0.50 C 966 3487 M
63 0 V
5918 0 R
-63 0 V
-6002 0 R
( 72.1248) Rshow
1.000 UL
LT0
0.50 0.50 0.50 C 1.000 UL
LTa
0.50 0.50 0.50 C 966 3519 M
5981 0 V
stroke
LT0
0.50 0.50 0.50 C 966 3519 M
63 0 V
5918 0 R
-63 0 V
-6002 0 R
( 72.8319) Rshow
1.000 UL
LT0
0.50 0.50 0.50 C 1.000 UL
LTa
0.50 0.50 0.50 C 966 3550 M
5981 0 V
stroke
LT0
0.50 0.50 0.50 C 966 3550 M
63 0 V
5918 0 R
-63 0 V
-6002 0 R
( 73.539) Rshow
1.000 UL
LT0
0.50 0.50 0.50 C 1.000 UL
LTa
0.50 0.50 0.50 C 966 3582 M
5981 0 V
stroke
LT0
0.50 0.50 0.50 C 966 3582 M
63 0 V
5918 0 R
-63 0 V
-6002 0 R
( 74.2461) Rshow
1.000 UL
LT0
0.50 0.50 0.50 C 1.000 UL
LTa
0.50 0.50 0.50 C 966 3613 M
5981 0 V
stroke
LT0
0.50 0.50 0.50 C 966 3613 M
63 0 V
5918 0 R
-63 0 V
-6002 0 R
( 74.9532) Rshow
1.000 UL
LT0
0.50 0.50 0.50 C 1.000 UL
LTa
0.50 0.50 0.50 C 966 3645 M
5981 0 V
stroke
LT0
0.50 0.50 0.50 C 966 3645 M
63 0 V
5918 0 R
-63 0 V
-6002 0 R
( 75.6603) Rshow
1.000 UL
LT0
0.50 0.50 0.50 C 1.000 UL
LTa
0.50 0.50 0.50 C 966 3676 M
5981 0 V
stroke
LT0
0.50 0.50 0.50 C 966 3676 M
63 0 V
5918 0 R
-63 0 V
-6002 0 R
( 76.3674) Rshow
1.000 UL
LT0
0.50 0.50 0.50 C 1.000 UL
LTa
0.50 0.50 0.50 C 966 3708 M
5981 0 V
stroke
LT0
0.50 0.50 0.50 C 966 3708 M
63 0 V
5918 0 R
-63 0 V
-6002 0 R
( 77.0746) Rshow
1.000 UL
LT0
0.50 0.50 0.50 C 1.000 UL
LTa
0.50 0.50 0.50 C 966 3739 M
5981 0 V
stroke
LT0
0.50 0.50 0.50 C 966 3739 M
63 0 V
5918 0 R
-63 0 V
-6002 0 R
( 77.7817) Rshow
1.000 UL
LT0
0.50 0.50 0.50 C 1.000 UL
LTa
0.50 0.50 0.50 C 966 3770 M
5981 0 V
stroke
LT0
0.50 0.50 0.50 C 966 3770 M
63 0 V
5918 0 R
-63 0 V
-6002 0 R
( 78.4888) Rshow
1.000 UL
LT0
0.50 0.50 0.50 C 1.000 UL
LTa
0.50 0.50 0.50 C 966 3802 M
5981 0 V
stroke
LT0
0.50 0.50 0.50 C 966 3802 M
63 0 V
5918 0 R
-63 0 V
-6002 0 R
( 79.1959) Rshow
1.000 UL
LT0
0.50 0.50 0.50 C 1.000 UL
LTa
0.50 0.50 0.50 C 966 3833 M
5981 0 V
stroke
LT0
0.50 0.50 0.50 C 966 3833 M
63 0 V
5918 0 R
-63 0 V
-6002 0 R
( 79.903) Rshow
1.000 UL
LT0
0.50 0.50 0.50 C 1.000 UL
LTa
0.50 0.50 0.50 C 966 3865 M
5981 0 V
stroke
LT0
0.50 0.50 0.50 C 966 3865 M
63 0 V
5918 0 R
-63 0 V
-6002 0 R
( 80.6101) Rshow
1.000 UL
LT0
0.50 0.50 0.50 C 1.000 UL
LTa
0.50 0.50 0.50 C 966 3896 M
5981 0 V
stroke
LT0
0.50 0.50 0.50 C 966 3896 M
63 0 V
5918 0 R
-63 0 V
-6002 0 R
( 81.3172) Rshow
1.000 UL
LT0
0.50 0.50 0.50 C 1.000 UL
LTa
0.50 0.50 0.50 C 966 3928 M
5981 0 V
stroke
LT0
0.50 0.50 0.50 C 966 3928 M
63 0 V
5918 0 R
-63 0 V
-6002 0 R
( 82.0243) Rshow
1.000 UL
LT0
0.50 0.50 0.50 C 1.000 UL
LTa
0.50 0.50 0.50 C 966 3959 M
5981 0 V
stroke
LT0
0.50 0.50 0.50 C 966 3959 M
63 0 V
5918 0 R
-63 0 V
-6002 0 R
( 82.7314) Rshow
1.000 UL
LT0
0.50 0.50 0.50 C 1.000 UL
LTa
0.50 0.50 0.50 C 966 3991 M
5981 0 V
stroke
LT0
0.50 0.50 0.50 C 966 3991 M
63 0 V
5918 0 R
-63 0 V
-6002 0 R
( 83.4385) Rshow
1.000 UL
LT0
0.50 0.50 0.50 C 1.000 UL
LTa
0.50 0.50 0.50 C 966 4022 M
5981 0 V
stroke
LT0
0.50 0.50 0.50 C 966 4022 M
63 0 V
5918 0 R
-63 0 V
-6002 0 R
( 84.1456) Rshow
1.000 UL
LT0
0.50 0.50 0.50 C 1.000 UL
LTa
0.50 0.50 0.50 C 966 4053 M
5981 0 V
stroke
LT0
0.50 0.50 0.50 C 966 4053 M
63 0 V
5918 0 R
-63 0 V
-6002 0 R
( 84.8527) Rshow
1.000 UL
LT0
0.50 0.50 0.50 C 1.000 UL
LTa
0.50 0.50 0.50 C 966 4085 M
5981 0 V
stroke
LT0
0.50 0.50 0.50 C 966 4085 M
63 0 V
5918 0 R
-63 0 V
-6002 0 R
( 85.5598) Rshow
1.000 UL
LT0
0.50 0.50 0.50 C 1.000 UL
LTa
0.50 0.50 0.50 C 966 4116 M
5981 0 V
stroke
LT0
0.50 0.50 0.50 C 966 4116 M
63 0 V
5918 0 R
-63 0 V
-6002 0 R
( 86.2669) Rshow
1.000 UL
LT0
0.50 0.50 0.50 C 1.000 UL
LTa
0.50 0.50 0.50 C 966 4148 M
5981 0 V
stroke
LT0
0.50 0.50 0.50 C 966 4148 M
63 0 V
5918 0 R
-63 0 V
-6002 0 R
( 86.974) Rshow
1.000 UL
LT0
0.50 0.50 0.50 C 1.000 UL
LTa
0.50 0.50 0.50 C 966 4179 M
5981 0 V
stroke
LT0
0.50 0.50 0.50 C 966 4179 M
63 0 V
5918 0 R
-63 0 V
-6002 0 R
( 87.6811) Rshow
1.000 UL
LT0
0.50 0.50 0.50 C 1.000 UL
LTa
0.50 0.50 0.50 C 966 4211 M
5981 0 V
stroke
LT0
0.50 0.50 0.50 C 966 4211 M
63 0 V
5918 0 R
-63 0 V
-6002 0 R
( 88.3882) Rshow
1.000 UL
LT0
0.50 0.50 0.50 C 1.000 UL
LTa
0.50 0.50 0.50 C 966 4242 M
5981 0 V
stroke
LT0
0.50 0.50 0.50 C 966 4242 M
63 0 V
5918 0 R
-63 0 V
-6002 0 R
( 89.0954) Rshow
1.000 UL
LT0
0.50 0.50 0.50 C 1.000 UL
LTa
0.50 0.50 0.50 C 966 4274 M
5981 0 V
stroke
LT0
0.50 0.50 0.50 C 966 4274 M
63 0 V
5918 0 R
-63 0 V
-6002 0 R
( 89.8025) Rshow
1.000 UL
LT0
0.50 0.50 0.50 C 1.000 UL
LTa
0.50 0.50 0.50 C 966 4305 M
5981 0 V
stroke
LT0
0.50 0.50 0.50 C 966 4305 M
63 0 V
5918 0 R
-63 0 V
-6002 0 R
( 90.5096) Rshow
1.000 UL
LT0
0.50 0.50 0.50 C 1.000 UL
LTa
0.50 0.50 0.50 C 966 4336 M
5981 0 V
stroke
LT0
0.50 0.50 0.50 C 966 4336 M
63 0 V
5918 0 R
-63 0 V
-6002 0 R
( 91.2167) Rshow
1.000 UL
LT0
0.50 0.50 0.50 C 1.000 UL
LTa
0.50 0.50 0.50 C 966 4368 M
5981 0 V
stroke
LT0
0.50 0.50 0.50 C 966 4368 M
63 0 V
5918 0 R
-63 0 V
-6002 0 R
( 91.9238) Rshow
1.000 UL
LT0
0.50 0.50 0.50 C 1.000 UL
LTa
0.50 0.50 0.50 C 966 4399 M
5981 0 V
stroke
LT0
0.50 0.50 0.50 C 966 4399 M
63 0 V
5918 0 R
-63 0 V
-6002 0 R
( 92.6309) Rshow
1.000 UL
LT0
0.50 0.50 0.50 C 1.000 UL
LTa
0.50 0.50 0.50 C 966 4431 M
5981 0 V
stroke
LT0
0.50 0.50 0.50 C 966 4431 M
63 0 V
5918 0 R
-63 0 V
-6002 0 R
( 93.338) Rshow
1.000 UL
LT0
0.50 0.50 0.50 C 1.000 UL
LTa
0.50 0.50 0.50 C 966 4462 M
5981 0 V
stroke
LT0
0.50 0.50 0.50 C 966 4462 M
63 0 V
5918 0 R
-63 0 V
-6002 0 R
( 94.0451) Rshow
1.000 UL
LT0
0.50 0.50 0.50 C 1.000 UL
LTa
0.50 0.50 0.50 C 966 4494 M
5981 0 V
stroke
LT0
0.50 0.50 0.50 C 966 4494 M
63 0 V
5918 0 R
-63 0 V
-6002 0 R
( 94.7522) Rshow
1.000 UL
LT0
0.50 0.50 0.50 C 1.000 UL
LTa
0.50 0.50 0.50 C 966 4525 M
5981 0 V
stroke
LT0
0.50 0.50 0.50 C 966 4525 M
63 0 V
5918 0 R
-63 0 V
-6002 0 R
( 95.4593) Rshow
1.000 UL
LT0
0.50 0.50 0.50 C 1.000 UL
LTa
0.50 0.50 0.50 C 966 4557 M
5981 0 V
stroke
LT0
0.50 0.50 0.50 C 966 4557 M
63 0 V
5918 0 R
-63 0 V
-6002 0 R
( 96.1664) Rshow
1.000 UL
LT0
0.50 0.50 0.50 C 1.000 UL
LTa
0.50 0.50 0.50 C 966 4588 M
5981 0 V
stroke
LT0
0.50 0.50 0.50 C 966 4588 M
63 0 V
5918 0 R
-63 0 V
-6002 0 R
( 96.8735) Rshow
1.000 UL
LT0
0.50 0.50 0.50 C 1.000 UL
LTa
0.50 0.50 0.50 C 966 4619 M
5981 0 V
stroke
LT0
0.50 0.50 0.50 C 966 4619 M
63 0 V
5918 0 R
-63 0 V
-6002 0 R
( 97.5806) Rshow
1.000 UL
LT0
0.50 0.50 0.50 C 1.000 UL
LTa
0.50 0.50 0.50 C 966 4651 M
5981 0 V
stroke
LT0
0.50 0.50 0.50 C 966 4651 M
63 0 V
5918 0 R
-63 0 V
-6002 0 R
( 98.2877) Rshow
1.000 UL
LT0
0.50 0.50 0.50 C 1.000 UL
LTa
0.50 0.50 0.50 C 966 4682 M
5981 0 V
stroke
LT0
0.50 0.50 0.50 C 966 4682 M
63 0 V
5918 0 R
-63 0 V
-6002 0 R
( 98.9948) Rshow
1.000 UL
LT0
0.50 0.50 0.50 C 1.000 UL
LTa
0.50 0.50 0.50 C 966 4714 M
5981 0 V
stroke
LT0
0.50 0.50 0.50 C 966 4714 M
63 0 V
5918 0 R
-63 0 V
-6002 0 R
( 99.7019) Rshow
1.000 UL
LT0
0.50 0.50 0.50 C 1.000 UL
LTa
0.50 0.50 0.50 C 966 4745 M
5981 0 V
stroke
LT0
0.50 0.50 0.50 C 966 4745 M
63 0 V
5918 0 R
-63 0 V
-6002 0 R
( 100.409) Rshow
1.000 UL
LT0
0.50 0.50 0.50 C 1.000 UL
LTa
0.50 0.50 0.50 C 966 4777 M
5981 0 V
stroke
LT0
0.50 0.50 0.50 C 966 4777 M
63 0 V
5918 0 R
-63 0 V
-6002 0 R
( 101.116) Rshow
1.000 UL
LT0
0.50 0.50 0.50 C 1.000 UL
LTa
0.50 0.50 0.50 C 966 4808 M
5981 0 V
stroke
LT0
0.50 0.50 0.50 C 966 4808 M
63 0 V
5918 0 R
-63 0 V
-6002 0 R
( 101.823) Rshow
1.000 UL
LT0
0.50 0.50 0.50 C 1.000 UL
LTa
0.50 0.50 0.50 C 966 4840 M
5981 0 V
stroke
LT0
0.50 0.50 0.50 C 966 4840 M
63 0 V
5918 0 R
-63 0 V
-6002 0 R
( 102.53) Rshow
1.000 UL
LT0
0.50 0.50 0.50 C 1.000 UL
LTa
0.50 0.50 0.50 C 966 4871 M
5981 0 V
stroke
LT0
0.50 0.50 0.50 C 966 4871 M
63 0 V
5918 0 R
-63 0 V
-6002 0 R
( 103.237) Rshow
1.000 UL
LT0
0.50 0.50 0.50 C 1.000 UL
LTa
0.50 0.50 0.50 C 966 280 M
0 4591 V
stroke
LT0
0.50 0.50 0.50 C 966 280 M
0 63 V
0 4528 R
0 -63 V
966 140 M
( 0) Cshow
1.000 UL
LT0
0.50 0.50 0.50 C 1.000 UL
LTa
0.50 0.50 0.50 C 1007 280 M
0 4591 V
stroke
LT0
0.50 0.50 0.50 C 1007 280 M
0 63 V
0 4528 R
0 -63 V
0 -4668 R
( 0.707106) Cshow
1.000 UL
LT0
0.50 0.50 0.50 C 1.000 UL
LTa
0.50 0.50 0.50 C 1048 280 M
0 4591 V
stroke
LT0
0.50 0.50 0.50 C 1048 280 M
0 63 V
0 4528 R
0 -63 V
0 -4668 R
( 1.41421) Cshow
1.000 UL
LT0
0.50 0.50 0.50 C 1.000 UL
LTa
0.50 0.50 0.50 C 1089 280 M
0 4591 V
stroke
LT0
0.50 0.50 0.50 C 1089 280 M
0 63 V
0 4528 R
0 -63 V
0 -4668 R
( 2.12132) Cshow
1.000 UL
LT0
0.50 0.50 0.50 C 1.000 UL
LTa
0.50 0.50 0.50 C 1130 280 M
0 4591 V
stroke
LT0
0.50 0.50 0.50 C 1130 280 M
0 63 V
0 4528 R
0 -63 V
0 -4668 R
( 2.82842) Cshow
1.000 UL
LT0
0.50 0.50 0.50 C 1.000 UL
LTa
0.50 0.50 0.50 C 1171 280 M
0 4591 V
stroke
LT0
0.50 0.50 0.50 C 1171 280 M
0 63 V
0 4528 R
0 -63 V
0 -4668 R
( 3.53553) Cshow
1.000 UL
LT0
0.50 0.50 0.50 C 1.000 UL
LTa
0.50 0.50 0.50 C 1212 280 M
0 4591 V
stroke
LT0
0.50 0.50 0.50 C 1212 280 M
0 63 V
0 4528 R
0 -63 V
0 -4668 R
( 4.24264) Cshow
1.000 UL
LT0
0.50 0.50 0.50 C 1.000 UL
LTa
0.50 0.50 0.50 C 1253 280 M
0 4591 V
stroke
LT0
0.50 0.50 0.50 C 1253 280 M
0 63 V
0 4528 R
0 -63 V
0 -4668 R
( 4.94974) Cshow
1.000 UL
LT0
0.50 0.50 0.50 C 1.000 UL
LTa
0.50 0.50 0.50 C 1294 280 M
0 4591 V
stroke
LT0
0.50 0.50 0.50 C 1294 280 M
0 63 V
0 4528 R
0 -63 V
0 -4668 R
( 5.65685) Cshow
1.000 UL
LT0
0.50 0.50 0.50 C 1.000 UL
LTa
0.50 0.50 0.50 C 1335 280 M
0 4591 V
stroke
LT0
0.50 0.50 0.50 C 1335 280 M
0 63 V
0 4528 R
0 -63 V
0 -4668 R
( 6.36395) Cshow
1.000 UL
LT0
0.50 0.50 0.50 C 1.000 UL
LTa
0.50 0.50 0.50 C 1376 280 M
0 4591 V
stroke
LT0
0.50 0.50 0.50 C 1376 280 M
0 63 V
0 4528 R
0 -63 V
0 -4668 R
( 7.07106) Cshow
1.000 UL
LT0
0.50 0.50 0.50 C 1.000 UL
LTa
0.50 0.50 0.50 C 1417 280 M
0 4591 V
stroke
LT0
0.50 0.50 0.50 C 1417 280 M
0 63 V
0 4528 R
0 -63 V
0 -4668 R
( 7.77817) Cshow
1.000 UL
LT0
0.50 0.50 0.50 C 1.000 UL
LTa
0.50 0.50 0.50 C 1458 280 M
0 4591 V
stroke
LT0
0.50 0.50 0.50 C 1458 280 M
0 63 V
0 4528 R
0 -63 V
0 -4668 R
( 8.48527) Cshow
1.000 UL
LT0
0.50 0.50 0.50 C 1.000 UL
LTa
0.50 0.50 0.50 C 1499 280 M
0 4591 V
stroke
LT0
0.50 0.50 0.50 C 1499 280 M
0 63 V
0 4528 R
0 -63 V
0 -4668 R
( 9.19238) Cshow
1.000 UL
LT0
0.50 0.50 0.50 C 1.000 UL
LTa
0.50 0.50 0.50 C 1540 280 M
0 4591 V
stroke
LT0
0.50 0.50 0.50 C 1540 280 M
0 63 V
0 4528 R
0 -63 V
0 -4668 R
( 9.89948) Cshow
1.000 UL
LT0
0.50 0.50 0.50 C 1.000 UL
LTa
0.50 0.50 0.50 C 1580 280 M
0 4591 V
stroke
LT0
0.50 0.50 0.50 C 1580 280 M
0 63 V
0 4528 R
0 -63 V
0 -4668 R
( 10.6066) Cshow
1.000 UL
LT0
0.50 0.50 0.50 C 1.000 UL
LTa
0.50 0.50 0.50 C 1621 280 M
0 4591 V
stroke
LT0
0.50 0.50 0.50 C 1621 280 M
0 63 V
0 4528 R
0 -63 V
0 -4668 R
( 11.3137) Cshow
1.000 UL
LT0
0.50 0.50 0.50 C 1.000 UL
LTa
0.50 0.50 0.50 C 1662 280 M
0 4591 V
stroke
LT0
0.50 0.50 0.50 C 1662 280 M
0 63 V
0 4528 R
0 -63 V
0 -4668 R
( 12.0208) Cshow
1.000 UL
LT0
0.50 0.50 0.50 C 1.000 UL
LTa
0.50 0.50 0.50 C 1703 280 M
0 4591 V
stroke
LT0
0.50 0.50 0.50 C 1703 280 M
0 63 V
0 4528 R
0 -63 V
0 -4668 R
( 12.7279) Cshow
1.000 UL
LT0
0.50 0.50 0.50 C 1.000 UL
LTa
0.50 0.50 0.50 C 1744 280 M
0 4591 V
stroke
LT0
0.50 0.50 0.50 C 1744 280 M
0 63 V
0 4528 R
0 -63 V
0 -4668 R
( 13.435) Cshow
1.000 UL
LT0
0.50 0.50 0.50 C 1.000 UL
LTa
0.50 0.50 0.50 C 1785 280 M
0 4591 V
stroke
LT0
0.50 0.50 0.50 C 1785 280 M
0 63 V
0 4528 R
0 -63 V
0 -4668 R
( 14.1421) Cshow
1.000 UL
LT0
0.50 0.50 0.50 C 1.000 UL
LTa
0.50 0.50 0.50 C 1826 280 M
0 4591 V
stroke
LT0
0.50 0.50 0.50 C 1826 280 M
0 63 V
0 4528 R
0 -63 V
0 -4668 R
( 14.8492) Cshow
1.000 UL
LT0
0.50 0.50 0.50 C 1.000 UL
LTa
0.50 0.50 0.50 C 1867 280 M
0 4591 V
stroke
LT0
0.50 0.50 0.50 C 1867 280 M
0 63 V
0 4528 R
0 -63 V
0 -4668 R
( 15.5563) Cshow
1.000 UL
LT0
0.50 0.50 0.50 C 1.000 UL
LTa
0.50 0.50 0.50 C 1908 280 M
0 4591 V
stroke
LT0
0.50 0.50 0.50 C 1908 280 M
0 63 V
0 4528 R
0 -63 V
0 -4668 R
( 16.2634) Cshow
1.000 UL
LT0
0.50 0.50 0.50 C 1.000 UL
LTa
0.50 0.50 0.50 C 1949 280 M
0 4591 V
stroke
LT0
0.50 0.50 0.50 C 1949 280 M
0 63 V
0 4528 R
0 -63 V
0 -4668 R
( 16.9705) Cshow
1.000 UL
LT0
0.50 0.50 0.50 C 1.000 UL
LTa
0.50 0.50 0.50 C 1990 280 M
0 4591 V
stroke
LT0
0.50 0.50 0.50 C 1990 280 M
0 63 V
0 4528 R
0 -63 V
0 -4668 R
( 17.6776) Cshow
1.000 UL
LT0
0.50 0.50 0.50 C 1.000 UL
LTa
0.50 0.50 0.50 C 2031 280 M
0 4591 V
stroke
LT0
0.50 0.50 0.50 C 2031 280 M
0 63 V
0 4528 R
0 -63 V
0 -4668 R
( 18.3848) Cshow
1.000 UL
LT0
0.50 0.50 0.50 C 1.000 UL
LTa
0.50 0.50 0.50 C 2072 280 M
0 4591 V
stroke
LT0
0.50 0.50 0.50 C 2072 280 M
0 63 V
0 4528 R
0 -63 V
0 -4668 R
( 19.0919) Cshow
1.000 UL
LT0
0.50 0.50 0.50 C 1.000 UL
LTa
0.50 0.50 0.50 C 2113 280 M
0 4591 V
stroke
LT0
0.50 0.50 0.50 C 2113 280 M
0 63 V
0 4528 R
0 -63 V
0 -4668 R
( 19.799) Cshow
1.000 UL
LT0
0.50 0.50 0.50 C 1.000 UL
LTa
0.50 0.50 0.50 C 2154 280 M
0 4591 V
stroke
LT0
0.50 0.50 0.50 C 2154 280 M
0 63 V
0 4528 R
0 -63 V
0 -4668 R
( 20.5061) Cshow
1.000 UL
LT0
0.50 0.50 0.50 C 1.000 UL
LTa
0.50 0.50 0.50 C 2195 280 M
0 4591 V
stroke
LT0
0.50 0.50 0.50 C 2195 280 M
0 63 V
0 4528 R
0 -63 V
0 -4668 R
( 21.2132) Cshow
1.000 UL
LT0
0.50 0.50 0.50 C 1.000 UL
LTa
0.50 0.50 0.50 C 2236 280 M
0 4591 V
stroke
LT0
0.50 0.50 0.50 C 2236 280 M
0 63 V
0 4528 R
0 -63 V
0 -4668 R
( 21.9203) Cshow
1.000 UL
LT0
0.50 0.50 0.50 C 1.000 UL
LTa
0.50 0.50 0.50 C 2277 280 M
0 4591 V
stroke
LT0
0.50 0.50 0.50 C 2277 280 M
0 63 V
0 4528 R
0 -63 V
0 -4668 R
( 22.6274) Cshow
1.000 UL
LT0
0.50 0.50 0.50 C 1.000 UL
LTa
0.50 0.50 0.50 C 2318 280 M
0 4591 V
stroke
LT0
0.50 0.50 0.50 C 2318 280 M
0 63 V
0 4528 R
0 -63 V
0 -4668 R
( 23.3345) Cshow
1.000 UL
LT0
0.50 0.50 0.50 C 1.000 UL
LTa
0.50 0.50 0.50 C 2359 280 M
0 4591 V
stroke
LT0
0.50 0.50 0.50 C 2359 280 M
0 63 V
0 4528 R
0 -63 V
0 -4668 R
( 24.0416) Cshow
1.000 UL
LT0
0.50 0.50 0.50 C 1.000 UL
LTa
0.50 0.50 0.50 C 2400 280 M
0 4591 V
stroke
LT0
0.50 0.50 0.50 C 2400 280 M
0 63 V
0 4528 R
0 -63 V
0 -4668 R
( 24.7487) Cshow
1.000 UL
LT0
0.50 0.50 0.50 C 1.000 UL
LTa
0.50 0.50 0.50 C 2441 280 M
0 4591 V
stroke
LT0
0.50 0.50 0.50 C 2441 280 M
0 63 V
0 4528 R
0 -63 V
0 -4668 R
( 25.4558) Cshow
1.000 UL
LT0
0.50 0.50 0.50 C 1.000 UL
LTa
0.50 0.50 0.50 C 2482 280 M
0 4591 V
stroke
LT0
0.50 0.50 0.50 C 2482 280 M
0 63 V
0 4528 R
0 -63 V
0 -4668 R
( 26.1629) Cshow
1.000 UL
LT0
0.50 0.50 0.50 C 1.000 UL
LTa
0.50 0.50 0.50 C 2523 280 M
0 4591 V
stroke
LT0
0.50 0.50 0.50 C 2523 280 M
0 63 V
0 4528 R
0 -63 V
0 -4668 R
( 26.87) Cshow
1.000 UL
LT0
0.50 0.50 0.50 C 1.000 UL
LTa
0.50 0.50 0.50 C 2564 280 M
0 4591 V
stroke
LT0
0.50 0.50 0.50 C 2564 280 M
0 63 V
0 4528 R
0 -63 V
0 -4668 R
( 27.5771) Cshow
1.000 UL
LT0
0.50 0.50 0.50 C 1.000 UL
LTa
0.50 0.50 0.50 C 2605 280 M
0 4591 V
stroke
LT0
0.50 0.50 0.50 C 2605 280 M
0 63 V
0 4528 R
0 -63 V
0 -4668 R
( 28.2842) Cshow
1.000 UL
LT0
0.50 0.50 0.50 C 1.000 UL
LTa
0.50 0.50 0.50 C 2646 280 M
0 4591 V
stroke
LT0
0.50 0.50 0.50 C 2646 280 M
0 63 V
0 4528 R
0 -63 V
0 -4668 R
( 28.9913) Cshow
1.000 UL
LT0
0.50 0.50 0.50 C 1.000 UL
LTa
0.50 0.50 0.50 C 2687 280 M
0 4591 V
stroke
LT0
0.50 0.50 0.50 C 2687 280 M
0 63 V
0 4528 R
0 -63 V
0 -4668 R
( 29.6985) Cshow
1.000 UL
LT0
0.50 0.50 0.50 C 1.000 UL
LTa
0.50 0.50 0.50 C 2728 280 M
0 4591 V
stroke
LT0
0.50 0.50 0.50 C 2728 280 M
0 63 V
0 4528 R
0 -63 V
0 -4668 R
( 30.4056) Cshow
1.000 UL
LT0
0.50 0.50 0.50 C 1.000 UL
LTa
0.50 0.50 0.50 C 2768 280 M
0 4591 V
stroke
LT0
0.50 0.50 0.50 C 2768 280 M
0 63 V
0 4528 R
0 -63 V
0 -4668 R
( 31.1127) Cshow
1.000 UL
LT0
0.50 0.50 0.50 C 1.000 UL
LTa
0.50 0.50 0.50 C 2809 280 M
0 4591 V
stroke
LT0
0.50 0.50 0.50 C 2809 280 M
0 63 V
0 4528 R
0 -63 V
0 -4668 R
( 31.8198) Cshow
1.000 UL
LT0
0.50 0.50 0.50 C 1.000 UL
LTa
0.50 0.50 0.50 C 2850 280 M
0 4591 V
stroke
LT0
0.50 0.50 0.50 C 2850 280 M
0 63 V
0 4528 R
0 -63 V
0 -4668 R
( 32.5269) Cshow
1.000 UL
LT0
0.50 0.50 0.50 C 1.000 UL
LTa
0.50 0.50 0.50 C 2891 280 M
0 4591 V
stroke
LT0
0.50 0.50 0.50 C 2891 280 M
0 63 V
0 4528 R
0 -63 V
0 -4668 R
( 33.234) Cshow
1.000 UL
LT0
0.50 0.50 0.50 C 1.000 UL
LTa
0.50 0.50 0.50 C 2932 280 M
0 4591 V
stroke
LT0
0.50 0.50 0.50 C 2932 280 M
0 63 V
0 4528 R
0 -63 V
0 -4668 R
( 33.9411) Cshow
1.000 UL
LT0
0.50 0.50 0.50 C 1.000 UL
LTa
0.50 0.50 0.50 C 2973 280 M
0 4591 V
stroke
LT0
0.50 0.50 0.50 C 2973 280 M
0 63 V
0 4528 R
0 -63 V
0 -4668 R
( 34.6482) Cshow
1.000 UL
LT0
0.50 0.50 0.50 C 1.000 UL
LTa
0.50 0.50 0.50 C 3014 280 M
0 4591 V
stroke
LT0
0.50 0.50 0.50 C 3014 280 M
0 63 V
0 4528 R
0 -63 V
0 -4668 R
( 35.3553) Cshow
1.000 UL
LT0
0.50 0.50 0.50 C 1.000 UL
LTa
0.50 0.50 0.50 C 3055 280 M
0 4591 V
stroke
LT0
0.50 0.50 0.50 C 3055 280 M
0 63 V
0 4528 R
0 -63 V
0 -4668 R
( 36.0624) Cshow
1.000 UL
LT0
0.50 0.50 0.50 C 1.000 UL
LTa
0.50 0.50 0.50 C 3096 280 M
0 4591 V
stroke
LT0
0.50 0.50 0.50 C 3096 280 M
0 63 V
0 4528 R
0 -63 V
0 -4668 R
( 36.7695) Cshow
1.000 UL
LT0
0.50 0.50 0.50 C 1.000 UL
LTa
0.50 0.50 0.50 C 3137 280 M
0 4591 V
stroke
LT0
0.50 0.50 0.50 C 3137 280 M
0 63 V
0 4528 R
0 -63 V
0 -4668 R
( 37.4766) Cshow
1.000 UL
LT0
0.50 0.50 0.50 C 1.000 UL
LTa
0.50 0.50 0.50 C 3178 280 M
0 4591 V
stroke
LT0
0.50 0.50 0.50 C 3178 280 M
0 63 V
0 4528 R
0 -63 V
0 -4668 R
( 38.1837) Cshow
1.000 UL
LT0
0.50 0.50 0.50 C 1.000 UL
LTa
0.50 0.50 0.50 C 3219 280 M
0 4591 V
stroke
LT0
0.50 0.50 0.50 C 3219 280 M
0 63 V
0 4528 R
0 -63 V
0 -4668 R
( 38.8908) Cshow
1.000 UL
LT0
0.50 0.50 0.50 C 1.000 UL
LTa
0.50 0.50 0.50 C 3260 280 M
0 4591 V
stroke
LT0
0.50 0.50 0.50 C 3260 280 M
0 63 V
0 4528 R
0 -63 V
0 -4668 R
( 39.5979) Cshow
1.000 UL
LT0
0.50 0.50 0.50 C 1.000 UL
LTa
0.50 0.50 0.50 C 3301 280 M
0 4591 V
stroke
LT0
0.50 0.50 0.50 C 3301 280 M
0 63 V
0 4528 R
0 -63 V
0 -4668 R
( 40.305) Cshow
1.000 UL
LT0
0.50 0.50 0.50 C 1.000 UL
LTa
0.50 0.50 0.50 C 3342 280 M
0 4591 V
stroke
LT0
0.50 0.50 0.50 C 3342 280 M
0 63 V
0 4528 R
0 -63 V
0 -4668 R
( 41.0121) Cshow
1.000 UL
LT0
0.50 0.50 0.50 C 1.000 UL
LTa
0.50 0.50 0.50 C 3383 280 M
0 4591 V
stroke
LT0
0.50 0.50 0.50 C 3383 280 M
0 63 V
0 4528 R
0 -63 V
0 -4668 R
( 41.7193) Cshow
1.000 UL
LT0
0.50 0.50 0.50 C 1.000 UL
LTa
0.50 0.50 0.50 C 3424 280 M
0 4591 V
stroke
LT0
0.50 0.50 0.50 C 3424 280 M
0 63 V
0 4528 R
0 -63 V
0 -4668 R
( 42.4264) Cshow
1.000 UL
LT0
0.50 0.50 0.50 C 1.000 UL
LTa
0.50 0.50 0.50 C 3465 280 M
0 4591 V
stroke
LT0
0.50 0.50 0.50 C 3465 280 M
0 63 V
0 4528 R
0 -63 V
0 -4668 R
( 43.1335) Cshow
1.000 UL
LT0
0.50 0.50 0.50 C 1.000 UL
LTa
0.50 0.50 0.50 C 3506 280 M
0 4591 V
stroke
LT0
0.50 0.50 0.50 C 3506 280 M
0 63 V
0 4528 R
0 -63 V
0 -4668 R
( 43.8406) Cshow
1.000 UL
LT0
0.50 0.50 0.50 C 1.000 UL
LTa
0.50 0.50 0.50 C 3547 280 M
0 4591 V
stroke
LT0
0.50 0.50 0.50 C 3547 280 M
0 63 V
0 4528 R
0 -63 V
0 -4668 R
( 44.5477) Cshow
1.000 UL
LT0
0.50 0.50 0.50 C 1.000 UL
LTa
0.50 0.50 0.50 C 3588 280 M
0 4591 V
stroke
LT0
0.50 0.50 0.50 C 3588 280 M
0 63 V
0 4528 R
0 -63 V
0 -4668 R
( 45.2548) Cshow
1.000 UL
LT0
0.50 0.50 0.50 C 1.000 UL
LTa
0.50 0.50 0.50 C 3629 280 M
0 4591 V
stroke
LT0
0.50 0.50 0.50 C 3629 280 M
0 63 V
0 4528 R
0 -63 V
0 -4668 R
( 45.9619) Cshow
1.000 UL
LT0
0.50 0.50 0.50 C 1.000 UL
LTa
0.50 0.50 0.50 C 3670 280 M
0 4591 V
stroke
LT0
0.50 0.50 0.50 C 3670 280 M
0 63 V
0 4528 R
0 -63 V
0 -4668 R
( 46.669) Cshow
1.000 UL
LT0
0.50 0.50 0.50 C 1.000 UL
LTa
0.50 0.50 0.50 C 3711 280 M
0 4591 V
stroke
LT0
0.50 0.50 0.50 C 3711 280 M
0 63 V
0 4528 R
0 -63 V
0 -4668 R
( 47.3761) Cshow
1.000 UL
LT0
0.50 0.50 0.50 C 1.000 UL
LTa
0.50 0.50 0.50 C 3752 280 M
0 4591 V
stroke
LT0
0.50 0.50 0.50 C 3752 280 M
0 63 V
0 4528 R
0 -63 V
0 -4668 R
( 48.0832) Cshow
1.000 UL
LT0
0.50 0.50 0.50 C 1.000 UL
LTa
0.50 0.50 0.50 C 3793 280 M
0 4591 V
stroke
LT0
0.50 0.50 0.50 C 3793 280 M
0 63 V
0 4528 R
0 -63 V
0 -4668 R
( 48.7903) Cshow
1.000 UL
LT0
0.50 0.50 0.50 C 1.000 UL
LTa
0.50 0.50 0.50 C 3834 280 M
0 4591 V
stroke
LT0
0.50 0.50 0.50 C 3834 280 M
0 63 V
0 4528 R
0 -63 V
0 -4668 R
( 49.4974) Cshow
1.000 UL
LT0
0.50 0.50 0.50 C 1.000 UL
LTa
0.50 0.50 0.50 C 3875 280 M
0 4591 V
stroke
LT0
0.50 0.50 0.50 C 3875 280 M
0 63 V
0 4528 R
0 -63 V
0 -4668 R
( 50.2045) Cshow
1.000 UL
LT0
0.50 0.50 0.50 C 1.000 UL
LTa
0.50 0.50 0.50 C 3916 280 M
0 4591 V
stroke
LT0
0.50 0.50 0.50 C 3916 280 M
0 63 V
0 4528 R
0 -63 V
0 -4668 R
( 50.9116) Cshow
1.000 UL
LT0
0.50 0.50 0.50 C 1.000 UL
LTa
0.50 0.50 0.50 C 3957 280 M
0 4591 V
stroke
LT0
0.50 0.50 0.50 C 3957 280 M
0 63 V
0 4528 R
0 -63 V
0 -4668 R
( 51.6187) Cshow
1.000 UL
LT0
0.50 0.50 0.50 C 1.000 UL
LTa
0.50 0.50 0.50 C 3997 280 M
0 4591 V
stroke
LT0
0.50 0.50 0.50 C 3997 280 M
0 63 V
0 4528 R
0 -63 V
0 -4668 R
( 52.3258) Cshow
1.000 UL
LT0
0.50 0.50 0.50 C 1.000 UL
LTa
0.50 0.50 0.50 C 4038 280 M
0 4591 V
stroke
LT0
0.50 0.50 0.50 C 4038 280 M
0 63 V
0 4528 R
0 -63 V
0 -4668 R
( 53.033) Cshow
1.000 UL
LT0
0.50 0.50 0.50 C 1.000 UL
LTa
0.50 0.50 0.50 C 4079 280 M
0 4591 V
stroke
LT0
0.50 0.50 0.50 C 4079 280 M
0 63 V
0 4528 R
0 -63 V
0 -4668 R
( 53.7401) Cshow
1.000 UL
LT0
0.50 0.50 0.50 C 1.000 UL
LTa
0.50 0.50 0.50 C 4120 280 M
0 4591 V
stroke
LT0
0.50 0.50 0.50 C 4120 280 M
0 63 V
0 4528 R
0 -63 V
0 -4668 R
( 54.4472) Cshow
1.000 UL
LT0
0.50 0.50 0.50 C 1.000 UL
LTa
0.50 0.50 0.50 C 4161 280 M
0 4591 V
stroke
LT0
0.50 0.50 0.50 C 4161 280 M
0 63 V
0 4528 R
0 -63 V
0 -4668 R
( 55.1543) Cshow
1.000 UL
LT0
0.50 0.50 0.50 C 1.000 UL
LTa
0.50 0.50 0.50 C 4202 280 M
0 4591 V
stroke
LT0
0.50 0.50 0.50 C 4202 280 M
0 63 V
0 4528 R
0 -63 V
0 -4668 R
( 55.8614) Cshow
1.000 UL
LT0
0.50 0.50 0.50 C 1.000 UL
LTa
0.50 0.50 0.50 C 4243 280 M
0 4591 V
stroke
LT0
0.50 0.50 0.50 C 4243 280 M
0 63 V
0 4528 R
0 -63 V
0 -4668 R
( 56.5685) Cshow
1.000 UL
LT0
0.50 0.50 0.50 C 1.000 UL
LTa
0.50 0.50 0.50 C 4284 280 M
0 4591 V
stroke
LT0
0.50 0.50 0.50 C 4284 280 M
0 63 V
0 4528 R
0 -63 V
0 -4668 R
( 57.2756) Cshow
1.000 UL
LT0
0.50 0.50 0.50 C 1.000 UL
LTa
0.50 0.50 0.50 C 4325 280 M
0 4591 V
stroke
LT0
0.50 0.50 0.50 C 4325 280 M
0 63 V
0 4528 R
0 -63 V
0 -4668 R
( 57.9827) Cshow
1.000 UL
LT0
0.50 0.50 0.50 C 1.000 UL
LTa
0.50 0.50 0.50 C 4366 280 M
0 4591 V
stroke
LT0
0.50 0.50 0.50 C 4366 280 M
0 63 V
0 4528 R
0 -63 V
0 -4668 R
( 58.6898) Cshow
1.000 UL
LT0
0.50 0.50 0.50 C 1.000 UL
LTa
0.50 0.50 0.50 C 4407 280 M
0 4591 V
stroke
LT0
0.50 0.50 0.50 C 4407 280 M
0 63 V
0 4528 R
0 -63 V
0 -4668 R
( 59.3969) Cshow
1.000 UL
LT0
0.50 0.50 0.50 C 1.000 UL
LTa
0.50 0.50 0.50 C 4448 280 M
0 4591 V
stroke
LT0
0.50 0.50 0.50 C 4448 280 M
0 63 V
0 4528 R
0 -63 V
0 -4668 R
( 60.104) Cshow
1.000 UL
LT0
0.50 0.50 0.50 C 1.000 UL
LTa
0.50 0.50 0.50 C 4489 280 M
0 4591 V
stroke
LT0
0.50 0.50 0.50 C 4489 280 M
0 63 V
0 4528 R
0 -63 V
0 -4668 R
( 60.8111) Cshow
1.000 UL
LT0
0.50 0.50 0.50 C 1.000 UL
LTa
0.50 0.50 0.50 C 4530 280 M
0 4591 V
stroke
LT0
0.50 0.50 0.50 C 4530 280 M
0 63 V
0 4528 R
0 -63 V
0 -4668 R
( 61.5182) Cshow
1.000 UL
LT0
0.50 0.50 0.50 C 1.000 UL
LTa
0.50 0.50 0.50 C 4571 280 M
0 4591 V
stroke
LT0
0.50 0.50 0.50 C 4571 280 M
0 63 V
0 4528 R
0 -63 V
0 -4668 R
( 62.2253) Cshow
1.000 UL
LT0
0.50 0.50 0.50 C 1.000 UL
LTa
0.50 0.50 0.50 C 4612 280 M
0 4591 V
stroke
LT0
0.50 0.50 0.50 C 4612 280 M
0 63 V
0 4528 R
0 -63 V
0 -4668 R
( 62.9324) Cshow
1.000 UL
LT0
0.50 0.50 0.50 C 1.000 UL
LTa
0.50 0.50 0.50 C 4653 280 M
0 4591 V
stroke
LT0
0.50 0.50 0.50 C 4653 280 M
0 63 V
0 4528 R
0 -63 V
0 -4668 R
( 63.6395) Cshow
1.000 UL
LT0
0.50 0.50 0.50 C 1.000 UL
LTa
0.50 0.50 0.50 C 4694 280 M
0 4591 V
stroke
LT0
0.50 0.50 0.50 C 4694 280 M
0 63 V
0 4528 R
0 -63 V
0 -4668 R
( 64.3466) Cshow
1.000 UL
LT0
0.50 0.50 0.50 C 1.000 UL
LTa
0.50 0.50 0.50 C 4735 280 M
0 4591 V
stroke
LT0
0.50 0.50 0.50 C 4735 280 M
0 63 V
0 4528 R
0 -63 V
0 -4668 R
( 65.0538) Cshow
1.000 UL
LT0
0.50 0.50 0.50 C 1.000 UL
LTa
0.50 0.50 0.50 C 4776 280 M
0 4591 V
stroke
LT0
0.50 0.50 0.50 C 4776 280 M
0 63 V
0 4528 R
0 -63 V
0 -4668 R
( 65.7609) Cshow
1.000 UL
LT0
0.50 0.50 0.50 C 1.000 UL
LTa
0.50 0.50 0.50 C 4817 280 M
0 4591 V
stroke
LT0
0.50 0.50 0.50 C 4817 280 M
0 63 V
0 4528 R
0 -63 V
0 -4668 R
( 66.468) Cshow
1.000 UL
LT0
0.50 0.50 0.50 C 1.000 UL
LTa
0.50 0.50 0.50 C 4858 280 M
0 4591 V
stroke
LT0
0.50 0.50 0.50 C 4858 280 M
0 63 V
0 4528 R
0 -63 V
0 -4668 R
( 67.1751) Cshow
1.000 UL
LT0
0.50 0.50 0.50 C 1.000 UL
LTa
0.50 0.50 0.50 C 4899 280 M
0 4591 V
stroke
LT0
0.50 0.50 0.50 C 4899 280 M
0 63 V
0 4528 R
0 -63 V
0 -4668 R
( 67.8822) Cshow
1.000 UL
LT0
0.50 0.50 0.50 C 1.000 UL
LTa
0.50 0.50 0.50 C 4940 280 M
0 4591 V
stroke
LT0
0.50 0.50 0.50 C 4940 280 M
0 63 V
0 4528 R
0 -63 V
0 -4668 R
( 68.5893) Cshow
1.000 UL
LT0
0.50 0.50 0.50 C 1.000 UL
LTa
0.50 0.50 0.50 C 4981 280 M
0 4591 V
stroke
LT0
0.50 0.50 0.50 C 4981 280 M
0 63 V
0 4528 R
0 -63 V
0 -4668 R
( 69.2964) Cshow
1.000 UL
LT0
0.50 0.50 0.50 C 1.000 UL
LTa
0.50 0.50 0.50 C 5022 280 M
0 4591 V
stroke
LT0
0.50 0.50 0.50 C 5022 280 M
0 63 V
0 4528 R
0 -63 V
0 -4668 R
( 70.0035) Cshow
1.000 UL
LT0
0.50 0.50 0.50 C 1.000 UL
LTa
0.50 0.50 0.50 C 5063 280 M
0 4591 V
stroke
LT0
0.50 0.50 0.50 C 5063 280 M
0 63 V
0 4528 R
0 -63 V
0 -4668 R
( 70.7106) Cshow
1.000 UL
LT0
0.50 0.50 0.50 C 1.000 UL
LTa
0.50 0.50 0.50 C 5104 280 M
0 4591 V
stroke
LT0
0.50 0.50 0.50 C 5104 280 M
0 63 V
0 4528 R
0 -63 V
0 -4668 R
( 71.4177) Cshow
1.000 UL
LT0
0.50 0.50 0.50 C 1.000 UL
LTa
0.50 0.50 0.50 C 5145 280 M
0 4591 V
stroke
LT0
0.50 0.50 0.50 C 5145 280 M
0 63 V
0 4528 R
0 -63 V
0 -4668 R
( 72.1248) Cshow
1.000 UL
LT0
0.50 0.50 0.50 C 1.000 UL
LTa
0.50 0.50 0.50 C 5185 280 M
0 4591 V
stroke
LT0
0.50 0.50 0.50 C 5185 280 M
0 63 V
0 4528 R
0 -63 V
0 -4668 R
( 72.8319) Cshow
1.000 UL
LT0
0.50 0.50 0.50 C 1.000 UL
LTa
0.50 0.50 0.50 C 5226 280 M
0 4591 V
stroke
LT0
0.50 0.50 0.50 C 5226 280 M
0 63 V
0 4528 R
0 -63 V
0 -4668 R
( 73.539) Cshow
1.000 UL
LT0
0.50 0.50 0.50 C 1.000 UL
LTa
0.50 0.50 0.50 C 5267 280 M
0 4591 V
stroke
LT0
0.50 0.50 0.50 C 5267 280 M
0 63 V
0 4528 R
0 -63 V
0 -4668 R
( 74.2461) Cshow
1.000 UL
LT0
0.50 0.50 0.50 C 1.000 UL
LTa
0.50 0.50 0.50 C 5308 280 M
0 4591 V
stroke
LT0
0.50 0.50 0.50 C 5308 280 M
0 63 V
0 4528 R
0 -63 V
0 -4668 R
( 74.9532) Cshow
1.000 UL
LT0
0.50 0.50 0.50 C 1.000 UL
LTa
0.50 0.50 0.50 C 5349 280 M
0 4591 V
stroke
LT0
0.50 0.50 0.50 C 5349 280 M
0 63 V
0 4528 R
0 -63 V
0 -4668 R
( 75.6603) Cshow
1.000 UL
LT0
0.50 0.50 0.50 C 1.000 UL
LTa
0.50 0.50 0.50 C 5390 280 M
0 4591 V
stroke
LT0
0.50 0.50 0.50 C 5390 280 M
0 63 V
0 4528 R
0 -63 V
0 -4668 R
( 76.3674) Cshow
1.000 UL
LT0
0.50 0.50 0.50 C 1.000 UL
LTa
0.50 0.50 0.50 C 5431 280 M
0 4591 V
stroke
LT0
0.50 0.50 0.50 C 5431 280 M
0 63 V
0 4528 R
0 -63 V
0 -4668 R
( 77.0746) Cshow
1.000 UL
LT0
0.50 0.50 0.50 C 1.000 UL
LTa
0.50 0.50 0.50 C 5472 280 M
0 4591 V
stroke
LT0
0.50 0.50 0.50 C 5472 280 M
0 63 V
0 4528 R
0 -63 V
0 -4668 R
( 77.7817) Cshow
1.000 UL
LT0
0.50 0.50 0.50 C 1.000 UL
LTa
0.50 0.50 0.50 C 5513 280 M
0 4591 V
stroke
LT0
0.50 0.50 0.50 C 5513 280 M
0 63 V
0 4528 R
0 -63 V
0 -4668 R
( 78.4888) Cshow
1.000 UL
LT0
0.50 0.50 0.50 C 1.000 UL
LTa
0.50 0.50 0.50 C 5554 280 M
0 4591 V
stroke
LT0
0.50 0.50 0.50 C 5554 280 M
0 63 V
0 4528 R
0 -63 V
0 -4668 R
( 79.1959) Cshow
1.000 UL
LT0
0.50 0.50 0.50 C 1.000 UL
LTa
0.50 0.50 0.50 C 5595 280 M
0 4591 V
stroke
LT0
0.50 0.50 0.50 C 5595 280 M
0 63 V
0 4528 R
0 -63 V
0 -4668 R
( 79.903) Cshow
1.000 UL
LT0
0.50 0.50 0.50 C 1.000 UL
LTa
0.50 0.50 0.50 C 5636 280 M
0 4591 V
stroke
LT0
0.50 0.50 0.50 C 5636 280 M
0 63 V
0 4528 R
0 -63 V
0 -4668 R
( 80.6101) Cshow
1.000 UL
LT0
0.50 0.50 0.50 C 1.000 UL
LTa
0.50 0.50 0.50 C 5677 280 M
0 4591 V
stroke
LT0
0.50 0.50 0.50 C 5677 280 M
0 63 V
0 4528 R
0 -63 V
0 -4668 R
( 81.3172) Cshow
1.000 UL
LT0
0.50 0.50 0.50 C 1.000 UL
LTa
0.50 0.50 0.50 C 5718 280 M
0 4591 V
stroke
LT0
0.50 0.50 0.50 C 5718 280 M
0 63 V
0 4528 R
0 -63 V
0 -4668 R
( 82.0243) Cshow
1.000 UL
LT0
0.50 0.50 0.50 C 1.000 UL
LTa
0.50 0.50 0.50 C 5759 280 M
0 4591 V
stroke
LT0
0.50 0.50 0.50 C 5759 280 M
0 63 V
0 4528 R
0 -63 V
0 -4668 R
( 82.7314) Cshow
1.000 UL
LT0
0.50 0.50 0.50 C 1.000 UL
LTa
0.50 0.50 0.50 C 5800 280 M
0 4591 V
stroke
LT0
0.50 0.50 0.50 C 5800 280 M
0 63 V
0 4528 R
0 -63 V
0 -4668 R
( 83.4385) Cshow
1.000 UL
LT0
0.50 0.50 0.50 C 1.000 UL
LTa
0.50 0.50 0.50 C 5841 280 M
0 4591 V
stroke
LT0
0.50 0.50 0.50 C 5841 280 M
0 63 V
0 4528 R
0 -63 V
0 -4668 R
( 84.1456) Cshow
1.000 UL
LT0
0.50 0.50 0.50 C 1.000 UL
LTa
0.50 0.50 0.50 C 5882 280 M
0 4591 V
stroke
LT0
0.50 0.50 0.50 C 5882 280 M
0 63 V
0 4528 R
0 -63 V
0 -4668 R
( 84.8527) Cshow
1.000 UL
LT0
0.50 0.50 0.50 C 1.000 UL
LTa
0.50 0.50 0.50 C 5923 280 M
0 4591 V
stroke
LT0
0.50 0.50 0.50 C 5923 280 M
0 63 V
0 4528 R
0 -63 V
0 -4668 R
( 85.5598) Cshow
1.000 UL
LT0
0.50 0.50 0.50 C 1.000 UL
LTa
0.50 0.50 0.50 C 5964 280 M
0 4591 V
stroke
LT0
0.50 0.50 0.50 C 5964 280 M
0 63 V
0 4528 R
0 -63 V
0 -4668 R
( 86.2669) Cshow
1.000 UL
LT0
0.50 0.50 0.50 C 1.000 UL
LTa
0.50 0.50 0.50 C 6005 280 M
0 4591 V
stroke
LT0
0.50 0.50 0.50 C 6005 280 M
0 63 V
0 4528 R
0 -63 V
0 -4668 R
( 86.974) Cshow
1.000 UL
LT0
0.50 0.50 0.50 C 1.000 UL
LTa
0.50 0.50 0.50 C 6046 280 M
0 4591 V
stroke
LT0
0.50 0.50 0.50 C 6046 280 M
0 63 V
0 4528 R
0 -63 V
0 -4668 R
( 87.6811) Cshow
1.000 UL
LT0
0.50 0.50 0.50 C 1.000 UL
LTa
0.50 0.50 0.50 C 6087 280 M
0 4591 V
stroke
LT0
0.50 0.50 0.50 C 6087 280 M
0 63 V
0 4528 R
0 -63 V
0 -4668 R
( 88.3882) Cshow
1.000 UL
LT0
0.50 0.50 0.50 C 1.000 UL
LTa
0.50 0.50 0.50 C 6128 280 M
0 4591 V
stroke
LT0
0.50 0.50 0.50 C 6128 280 M
0 63 V
0 4528 R
0 -63 V
0 -4668 R
( 89.0954) Cshow
1.000 UL
LT0
0.50 0.50 0.50 C 1.000 UL
LTa
0.50 0.50 0.50 C 6169 280 M
0 4591 V
stroke
LT0
0.50 0.50 0.50 C 6169 280 M
0 63 V
0 4528 R
0 -63 V
0 -4668 R
( 89.8025) Cshow
1.000 UL
LT0
0.50 0.50 0.50 C 1.000 UL
LTa
0.50 0.50 0.50 C 6210 280 M
0 4591 V
stroke
LT0
0.50 0.50 0.50 C 6210 280 M
0 63 V
0 4528 R
0 -63 V
0 -4668 R
( 90.5096) Cshow
1.000 UL
LT0
0.50 0.50 0.50 C 1.000 UL
LTa
0.50 0.50 0.50 C 6251 280 M
0 4591 V
stroke
LT0
0.50 0.50 0.50 C 6251 280 M
0 63 V
0 4528 R
0 -63 V
0 -4668 R
( 91.2167) Cshow
1.000 UL
LT0
0.50 0.50 0.50 C 1.000 UL
LTa
0.50 0.50 0.50 C 6292 280 M
0 4591 V
stroke
LT0
0.50 0.50 0.50 C 6292 280 M
0 63 V
0 4528 R
0 -63 V
0 -4668 R
( 91.9238) Cshow
1.000 UL
LT0
0.50 0.50 0.50 C 1.000 UL
LTa
0.50 0.50 0.50 C 6333 280 M
0 4591 V
stroke
LT0
0.50 0.50 0.50 C 6333 280 M
0 63 V
0 4528 R
0 -63 V
0 -4668 R
( 92.6309) Cshow
1.000 UL
LT0
0.50 0.50 0.50 C 1.000 UL
LTa
0.50 0.50 0.50 C 6373 280 M
0 4591 V
stroke
LT0
0.50 0.50 0.50 C 6373 280 M
0 63 V
0 4528 R
0 -63 V
0 -4668 R
( 93.338) Cshow
1.000 UL
LT0
0.50 0.50 0.50 C 1.000 UL
LTa
0.50 0.50 0.50 C 6414 280 M
0 4591 V
stroke
LT0
0.50 0.50 0.50 C 6414 280 M
0 63 V
0 4528 R
0 -63 V
0 -4668 R
( 94.0451) Cshow
1.000 UL
LT0
0.50 0.50 0.50 C 1.000 UL
LTa
0.50 0.50 0.50 C 6455 280 M
0 4591 V
stroke
LT0
0.50 0.50 0.50 C 6455 280 M
0 63 V
0 4528 R
0 -63 V
0 -4668 R
( 94.7522) Cshow
1.000 UL
LT0
0.50 0.50 0.50 C 1.000 UL
LTa
0.50 0.50 0.50 C 6496 280 M
0 4591 V
stroke
LT0
0.50 0.50 0.50 C 6496 280 M
0 63 V
0 4528 R
0 -63 V
0 -4668 R
( 95.4593) Cshow
1.000 UL
LT0
0.50 0.50 0.50 C 1.000 UL
LTa
0.50 0.50 0.50 C 6537 280 M
0 4591 V
stroke
LT0
0.50 0.50 0.50 C 6537 280 M
0 63 V
0 4528 R
0 -63 V
0 -4668 R
( 96.1664) Cshow
1.000 UL
LT0
0.50 0.50 0.50 C 1.000 UL
LTa
0.50 0.50 0.50 C 6578 280 M
0 4591 V
stroke
LT0
0.50 0.50 0.50 C 6578 280 M
0 63 V
0 4528 R
0 -63 V
0 -4668 R
( 96.8735) Cshow
1.000 UL
LT0
0.50 0.50 0.50 C 1.000 UL
LTa
0.50 0.50 0.50 C 6619 280 M
0 4591 V
stroke
LT0
0.50 0.50 0.50 C 6619 280 M
0 63 V
0 4528 R
0 -63 V
0 -4668 R
( 97.5806) Cshow
1.000 UL
LT0
0.50 0.50 0.50 C 1.000 UL
LTa
0.50 0.50 0.50 C 6660 280 M
0 4591 V
stroke
LT0
0.50 0.50 0.50 C 6660 280 M
0 63 V
0 4528 R
0 -63 V
0 -4668 R
( 98.2877) Cshow
1.000 UL
LT0
0.50 0.50 0.50 C 1.000 UL
LTa
0.50 0.50 0.50 C 6701 280 M
0 4591 V
stroke
LT0
0.50 0.50 0.50 C 6701 280 M
0 63 V
0 4528 R
0 -63 V
0 -4668 R
( 98.9948) Cshow
1.000 UL
LT0
0.50 0.50 0.50 C 1.000 UL
LTa
0.50 0.50 0.50 C 6742 280 M
0 4591 V
stroke
LT0
0.50 0.50 0.50 C 6742 280 M
0 63 V
0 4528 R
0 -63 V
0 -4668 R
( 99.7019) Cshow
1.000 UL
LT0
0.50 0.50 0.50 C 1.000 UL
LTa
0.50 0.50 0.50 C 6783 280 M
0 4591 V
stroke
LT0
0.50 0.50 0.50 C 6783 280 M
0 63 V
0 4528 R
0 -63 V
0 -4668 R
( 100.409) Cshow
1.000 UL
LT0
0.50 0.50 0.50 C 1.000 UL
LTa
0.50 0.50 0.50 C 6824 280 M
0 4591 V
stroke
LT0
0.50 0.50 0.50 C 6824 280 M
0 63 V
0 4528 R
0 -63 V
0 -4668 R
( 101.116) Cshow
1.000 UL
LT0
0.50 0.50 0.50 C 1.000 UL
LTa
0.50 0.50 0.50 C 6865 280 M
0 4591 V
stroke
LT0
0.50 0.50 0.50 C 6865 280 M
0 63 V
0 4528 R
0 -63 V
0 -4668 R
( 101.823) Cshow
1.000 UL
LT0
0.50 0.50 0.50 C 1.000 UL
LTa
0.50 0.50 0.50 C 6906 280 M
0 4591 V
stroke
LT0
0.50 0.50 0.50 C 6906 280 M
0 63 V
0 4528 R
0 -63 V
0 -4668 R
( 102.53) Cshow
1.000 UL
LT0
0.50 0.50 0.50 C 1.000 UL
LTa
0.50 0.50 0.50 C 6947 280 M
0 4591 V
stroke
LT0
0.50 0.50 0.50 C 6947 280 M
0 63 V
0 4528 R
0 -63 V
0 -4668 R
( 103.237) Cshow
1.000 UL
LT0
0.50 0.50 0.50 C 1.000 UL
LT0
0.50 0.50 0.50 C 966 4871 M
966 280 L
5981 0 V
0 4591 R
-5981 0 R
1.000 UP
stroke
LT0
0.50 0.50 0.50 C % Begin plot #1
1.500 UP
2.000 UL
LT0
0.00 0.00 1.00 C /Helvetica findfont 140 scalefont setfont
/vshift -46 def
1335 532 M
41 0 V
0 31 R
41 0 V
0 63 R
41 0 V
41 0 V
0 31 R
41 0 V
40 0 V
41 0 V
41 0 V
0 63 R
41 0 V
0 32 R
41 0 V
41 0 V
0 31 R
41 0 V
0 94 R
41 0 V
41 0 V
41 0 V
41 0 V
0 126 R
41 0 V
0 189 R
41 0 V
0 126 R
41 0 V
0 314 R
41 0 V
0 32 R
41 0 V
41 0 V
41 0 V
41 0 V
0 31 R
41 0 V
41 0 V
0 31 R
41 0 V
41 0 V
0 32 R
41 0 V
41 0 V
0 283 R
41 0 V
0 31 R
41 0 V
0 63 R
41 0 V
0 220 R
41 0 V
40 0 V
41 0 V
41 0 V
41 0 V
41 0 V
0 63 R
41 0 V
41 0 V
41 0 V
41 0 V
41 0 V
0 32 R
41 0 V
41 0 V
0 31 R
41 0 V
41 0 V
41 0 V
41 0 V
41 0 V
0 32 R
41 0 V
0 31 R
41 0 V
41 0 V
41 0 V
0 31 R
41 0 V
41 0 V
0 63 R
41 0 V
0 32 R
41 0 V
0 31 R
41 0 V
41 0 V
0 63 R
41 0 V
0 32 R
41 0 V
0 31 R
40 0 V
0 32 R
41 0 V
41 0 V
41 0 V
41 0 V
41 0 V
41 0 V
41 0 V
0 31 R
41 0 V
stroke 4284 2890 M
41 0 V
41 0 V
0 220 R
41 0 V
41 0 V
0 220 R
41 0 V
0 32 R
41 0 V
0 503 R
41 0 V
41 0 V
41 0 V
0 63 R
41 0 V
41 0 V
0 31 R
41 0 V
41 0 V
0 63 R
41 0 V
0 31 R
41 0 V
41 0 V
0 95 R
41 0 V
41 0 V
41 0 V
41 0 V
41 0 V
40 0 V
41 0 V
41 0 V
41 0 V
41 0 V
41 0 V
41 0 V
0 63 R
41 0 V
0 31 R
41 0 V
41 0 V
41 0 V
41 0 V
41 0 V
0 157 R
41 0 V
41 0 V
41 0 V
41 0 V
41 0 V
41 0 V
0 63 R
41 0 V
0 95 R
41 0 V
41 0 V
0 62 R
41 0 V
0 126 R
41 0 V
41 0 V
0 32 R
41 0 V
41 0 V
0 31 R
41 0 V
41 0 V
40 0 V
0 32 R
41 0 V
41 0 V
966 280 M
41 0 V
6906 4871 M
41 0 V
1007 280 M
41 0 V
41 0 V
41 0 V
41 0 V
41 0 V
41 0 V
41 0 V
41 0 V
6455 4871 M
41 0 V
41 0 V
41 0 V
41 0 V
41 0 V
41 0 V
41 0 V
41 0 V
41 0 V
41 0 V
41 0 V
1335 280 M
0 31 V
0 32 V
0 31 V
0 32 V
0 31 V
0 32 V
stroke 1335 469 M
0 31 V
0 32 V
41 0 R
0 31 V
41 0 R
0 31 V
0 32 V
82 0 R
0 31 V
163 0 R
0 32 V
0 31 V
41 0 R
0 32 V
82 0 R
0 31 V
41 0 R
0 32 V
0 31 V
0 31 V
164 0 R
0 32 V
0 31 V
0 32 V
0 31 V
41 0 R
0 32 V
0 31 V
0 32 V
0 31 V
0 31 V
0 32 V
41 0 R
0 31 V
0 32 V
0 31 V
0 32 V
41 0 R
0 31 V
0 32 V
0 31 V
0 31 V
0 32 V
0 31 V
0 32 V
0 31 V
0 32 V
0 31 V
41 0 R
0 32 V
164 0 R
0 31 V
82 0 R
0 31 V
82 0 R
0 32 V
82 0 R
0 31 V
0 32 V
0 31 V
0 32 V
0 31 V
0 32 V
0 31 V
0 31 V
0 32 V
41 0 R
0 31 V
41 0 R
0 32 V
0 31 V
41 0 R
0 32 V
0 31 V
0 32 V
0 31 V
0 31 V
0 32 V
0 31 V
245 0 R
0 32 V
0 31 V
205 0 R
0 32 V
82 0 R
0 31 V
205 0 R
0 32 V
41 0 R
0 31 V
123 0 R
0 31 V
82 0 R
0 32 V
0 31 V
41 0 R
0 32 V
41 0 R
0 31 V
82 0 R
0 32 V
0 31 V
41 0 R
0 32 V
stroke 3875 2796 M
41 0 R
0 31 V
40 0 R
0 32 V
287 0 R
0 31 V
123 0 R
0 31 V
0 32 V
0 31 V
0 32 V
0 31 V
0 32 V
0 31 V
82 0 R
0 32 V
0 31 V
0 31 V
0 32 V
0 31 V
0 32 V
0 31 V
41 0 R
0 32 V
41 0 R
0 31 V
0 32 V
0 31 V
0 31 V
0 32 V
0 31 V
0 32 V
0 31 V
0 32 V
0 31 V
0 32 V
0 31 V
0 31 V
0 32 V
0 31 V
0 32 V
123 0 R
0 31 V
0 32 V
82 0 R
0 31 V
82 0 R
0 32 V
0 31 V
41 0 R
0 31 V
82 0 R
0 32 V
0 31 V
0 32 V
491 0 R
0 31 V
0 32 V
41 0 R
0 31 V
205 0 R
0 32 V
0 31 V
0 31 V
0 32 V
0 31 V
246 0 R
0 32 V
0 31 V
41 0 R
0 32 V
0 31 V
0 32 V
82 0 R
0 31 V
0 31 V
41 0 R
0 32 V
0 31 V
0 32 V
0 31 V
82 0 R
0 32 V
82 0 R
0 31 V
122 0 R
0 32 V
82 0 R
0 31 V
1335 532 CircleF
1376 532 CircleF
1376 563 CircleF
1417 563 CircleF
1417 626 CircleF
1458 626 CircleF
1458 626 CircleF
1499 626 CircleF
1499 657 CircleF
1540 657 CircleF
1540 657 CircleF
1580 657 CircleF
1580 657 CircleF
1621 657 CircleF
1621 657 CircleF
1662 657 CircleF
1662 720 CircleF
1703 720 CircleF
1703 752 CircleF
1744 752 CircleF
1744 752 CircleF
1785 752 CircleF
1785 783 CircleF
1826 783 CircleF
1826 877 CircleF
1867 877 CircleF
1867 877 CircleF
1908 877 CircleF
1908 877 CircleF
1949 877 CircleF
1949 877 CircleF
1990 877 CircleF
1990 1003 CircleF
2031 1003 CircleF
2031 1192 CircleF
2072 1192 CircleF
2072 1318 CircleF
2113 1318 CircleF
2113 1632 CircleF
2154 1632 CircleF
2154 1664 CircleF
2195 1664 CircleF
2195 1664 CircleF
2236 1664 CircleF
2236 1664 CircleF
2277 1664 CircleF
2277 1664 CircleF
2318 1664 CircleF
2318 1695 CircleF
2359 1695 CircleF
2359 1695 CircleF
2400 1695 CircleF
2400 1726 CircleF
2441 1726 CircleF
2441 1726 CircleF
2482 1726 CircleF
2482 1758 CircleF
2523 1758 CircleF
2523 1758 CircleF
2564 1758 CircleF
2564 2041 CircleF
2605 2041 CircleF
2605 2072 CircleF
2646 2072 CircleF
2646 2135 CircleF
2687 2135 CircleF
2687 2355 CircleF
2728 2355 CircleF
2728 2355 CircleF
2768 2355 CircleF
2768 2355 CircleF
2809 2355 CircleF
2809 2355 CircleF
2850 2355 CircleF
2850 2355 CircleF
2891 2355 CircleF
2891 2355 CircleF
2932 2355 CircleF
2932 2418 CircleF
2973 2418 CircleF
2973 2418 CircleF
3014 2418 CircleF
3014 2418 CircleF
3055 2418 CircleF
3055 2418 CircleF
3096 2418 CircleF
3096 2418 CircleF
3137 2418 CircleF
3137 2450 CircleF
3178 2450 CircleF
3178 2450 CircleF
3219 2450 CircleF
3219 2481 CircleF
3260 2481 CircleF
3260 2481 CircleF
3301 2481 CircleF
3301 2481 CircleF
3342 2481 CircleF
3342 2481 CircleF
3383 2481 CircleF
3383 2481 CircleF
3424 2481 CircleF
3424 2513 CircleF
3465 2513 CircleF
3465 2544 CircleF
3506 2544 CircleF
3506 2544 CircleF
3547 2544 CircleF
3547 2544 CircleF
3588 2544 CircleF
3588 2575 CircleF
3629 2575 CircleF
3629 2575 CircleF
3670 2575 CircleF
3670 2638 CircleF
3711 2638 CircleF
3711 2670 CircleF
3752 2670 CircleF
3752 2701 CircleF
3793 2701 CircleF
3793 2701 CircleF
3834 2701 CircleF
3834 2764 CircleF
3875 2764 CircleF
3875 2796 CircleF
3916 2796 CircleF
3916 2827 CircleF
3956 2827 CircleF
3956 2859 CircleF
3997 2859 CircleF
3997 2859 CircleF
4038 2859 CircleF
4038 2859 CircleF
4079 2859 CircleF
4079 2859 CircleF
4120 2859 CircleF
4120 2859 CircleF
4161 2859 CircleF
4161 2859 CircleF
4202 2859 CircleF
4202 2859 CircleF
4243 2859 CircleF
4243 2890 CircleF
4284 2890 CircleF
4284 2890 CircleF
4325 2890 CircleF
4325 2890 CircleF
4366 2890 CircleF
4366 3110 CircleF
4407 3110 CircleF
4407 3110 CircleF
4448 3110 CircleF
4448 3330 CircleF
4489 3330 CircleF
4489 3362 CircleF
4530 3362 CircleF
4530 3865 CircleF
4571 3865 CircleF
4571 3865 CircleF
4612 3865 CircleF
4612 3865 CircleF
4653 3865 CircleF
4653 3928 CircleF
4694 3928 CircleF
4694 3928 CircleF
4735 3928 CircleF
4735 3959 CircleF
4776 3959 CircleF
4776 3959 CircleF
4817 3959 CircleF
4817 4022 CircleF
4858 4022 CircleF
4858 4053 CircleF
4899 4053 CircleF
4899 4053 CircleF
4940 4053 CircleF
4940 4148 CircleF
4981 4148 CircleF
4981 4148 CircleF
5022 4148 CircleF
5022 4148 CircleF
5063 4148 CircleF
5063 4148 CircleF
5104 4148 CircleF
5104 4148 CircleF
5145 4148 CircleF
5145 4148 CircleF
5185 4148 CircleF
5185 4148 CircleF
5226 4148 CircleF
5226 4148 CircleF
5267 4148 CircleF
5267 4148 CircleF
5308 4148 CircleF
5308 4148 CircleF
5349 4148 CircleF
5349 4148 CircleF
5390 4148 CircleF
5390 4148 CircleF
5431 4148 CircleF
5431 4211 CircleF
5472 4211 CircleF
5472 4242 CircleF
5513 4242 CircleF
5513 4242 CircleF
5554 4242 CircleF
5554 4242 CircleF
5595 4242 CircleF
5595 4242 CircleF
5636 4242 CircleF
5636 4242 CircleF
5677 4242 CircleF
5677 4399 CircleF
5718 4399 CircleF
5718 4399 CircleF
5759 4399 CircleF
5759 4399 CircleF
5800 4399 CircleF
5800 4399 CircleF
5841 4399 CircleF
5841 4399 CircleF
5882 4399 CircleF
5882 4399 CircleF
5923 4399 CircleF
5923 4462 CircleF
5964 4462 CircleF
5964 4557 CircleF
6005 4557 CircleF
6005 4557 CircleF
6046 4557 CircleF
6046 4619 CircleF
6087 4619 CircleF
6087 4745 CircleF
6128 4745 CircleF
6128 4745 CircleF
6169 4745 CircleF
6169 4777 CircleF
6210 4777 CircleF
6210 4777 CircleF
6251 4777 CircleF
6251 4808 CircleF
6292 4808 CircleF
6292 4808 CircleF
6333 4808 CircleF
6333 4808 CircleF
6373 4808 CircleF
6373 4840 CircleF
6414 4840 CircleF
6414 4840 CircleF
6455 4840 CircleF
966 280 CircleF
1007 280 CircleF
6906 4871 CircleF
6947 4871 CircleF
1007 280 CircleF
1048 280 CircleF
1048 280 CircleF
1089 280 CircleF
1089 280 CircleF
1130 280 CircleF
1130 280 CircleF
1171 280 CircleF
1171 280 CircleF
1212 280 CircleF
1212 280 CircleF
1253 280 CircleF
1253 280 CircleF
1294 280 CircleF
1294 280 CircleF
1335 280 CircleF
6455 4871 CircleF
6496 4871 CircleF
6496 4871 CircleF
6537 4871 CircleF
6537 4871 CircleF
6578 4871 CircleF
6578 4871 CircleF
6619 4871 CircleF
6619 4871 CircleF
6660 4871 CircleF
6660 4871 CircleF
6701 4871 CircleF
6701 4871 CircleF
6742 4871 CircleF
6742 4871 CircleF
6783 4871 CircleF
6783 4871 CircleF
6824 4871 CircleF
6824 4871 CircleF
6865 4871 CircleF
6865 4871 CircleF
6906 4871 CircleF
1335 280 CircleF
1335 311 CircleF
1335 311 CircleF
1335 343 CircleF
1335 343 CircleF
1335 374 CircleF
1335 374 CircleF
1335 406 CircleF
1335 406 CircleF
1335 437 CircleF
1335 437 CircleF
1335 469 CircleF
1335 469 CircleF
1335 500 CircleF
1335 500 CircleF
1335 532 CircleF
1376 532 CircleF
1376 563 CircleF
1417 563 CircleF
1417 594 CircleF
1417 594 CircleF
1417 626 CircleF
1499 626 CircleF
1499 657 CircleF
1662 657 CircleF
1662 689 CircleF
1662 689 CircleF
1662 720 CircleF
1703 720 CircleF
1703 752 CircleF
1785 752 CircleF
1785 783 CircleF
1826 783 CircleF
1826 815 CircleF
1826 815 CircleF
1826 846 CircleF
1826 846 CircleF
1826 877 CircleF
1990 877 CircleF
1990 909 CircleF
1990 909 CircleF
1990 940 CircleF
1990 940 CircleF
1990 972 CircleF
1990 972 CircleF
1990 1003 CircleF
2031 1003 CircleF
2031 1035 CircleF
2031 1035 CircleF
2031 1066 CircleF
2031 1066 CircleF
2031 1098 CircleF
2031 1098 CircleF
2031 1129 CircleF
2031 1129 CircleF
2031 1160 CircleF
2031 1160 CircleF
2031 1192 CircleF
2072 1192 CircleF
2072 1223 CircleF
2072 1223 CircleF
2072 1255 CircleF
2072 1255 CircleF
2072 1286 CircleF
2072 1286 CircleF
2072 1318 CircleF
2113 1318 CircleF
2113 1349 CircleF
2113 1349 CircleF
2113 1381 CircleF
2113 1381 CircleF
2113 1412 CircleF
2113 1412 CircleF
2113 1443 CircleF
2113 1443 CircleF
2113 1475 CircleF
2113 1475 CircleF
2113 1506 CircleF
2113 1506 CircleF
2113 1538 CircleF
2113 1538 CircleF
2113 1569 CircleF
2113 1569 CircleF
2113 1601 CircleF
2113 1601 CircleF
2113 1632 CircleF
2154 1632 CircleF
2154 1664 CircleF
2318 1664 CircleF
2318 1695 CircleF
2400 1695 CircleF
2400 1726 CircleF
2482 1726 CircleF
2482 1758 CircleF
2564 1758 CircleF
2564 1789 CircleF
2564 1789 CircleF
2564 1821 CircleF
2564 1821 CircleF
2564 1852 CircleF
2564 1852 CircleF
2564 1884 CircleF
2564 1884 CircleF
2564 1915 CircleF
2564 1915 CircleF
2564 1947 CircleF
2564 1947 CircleF
2564 1978 CircleF
2564 1978 CircleF
2564 2009 CircleF
2564 2009 CircleF
2564 2041 CircleF
2605 2041 CircleF
2605 2072 CircleF
2646 2072 CircleF
2646 2104 CircleF
2646 2104 CircleF
2646 2135 CircleF
2687 2135 CircleF
2687 2167 CircleF
2687 2167 CircleF
2687 2198 CircleF
2687 2198 CircleF
2687 2230 CircleF
2687 2230 CircleF
2687 2261 CircleF
2687 2261 CircleF
2687 2292 CircleF
2687 2292 CircleF
2687 2324 CircleF
2687 2324 CircleF
2687 2355 CircleF
2932 2355 CircleF
2932 2387 CircleF
2932 2387 CircleF
2932 2418 CircleF
3137 2418 CircleF
3137 2450 CircleF
3219 2450 CircleF
3219 2481 CircleF
3424 2481 CircleF
3424 2513 CircleF
3465 2513 CircleF
3465 2544 CircleF
3588 2544 CircleF
3588 2575 CircleF
3670 2575 CircleF
3670 2607 CircleF
3670 2607 CircleF
3670 2638 CircleF
3711 2638 CircleF
3711 2670 CircleF
3752 2670 CircleF
3752 2701 CircleF
3834 2701 CircleF
3834 2733 CircleF
3834 2733 CircleF
3834 2764 CircleF
3875 2764 CircleF
3875 2796 CircleF
3916 2796 CircleF
3916 2827 CircleF
3956 2827 CircleF
3956 2859 CircleF
4243 2859 CircleF
4243 2890 CircleF
4366 2890 CircleF
4366 2921 CircleF
4366 2921 CircleF
4366 2953 CircleF
4366 2953 CircleF
4366 2984 CircleF
4366 2984 CircleF
4366 3016 CircleF
4366 3016 CircleF
4366 3047 CircleF
4366 3047 CircleF
4366 3079 CircleF
4366 3079 CircleF
4366 3110 CircleF
4448 3110 CircleF
4448 3142 CircleF
4448 3142 CircleF
4448 3173 CircleF
4448 3173 CircleF
4448 3204 CircleF
4448 3204 CircleF
4448 3236 CircleF
4448 3236 CircleF
4448 3267 CircleF
4448 3267 CircleF
4448 3299 CircleF
4448 3299 CircleF
4448 3330 CircleF
4489 3330 CircleF
4489 3362 CircleF
4530 3362 CircleF
4530 3393 CircleF
4530 3393 CircleF
4530 3425 CircleF
4530 3425 CircleF
4530 3456 CircleF
4530 3456 CircleF
4530 3487 CircleF
4530 3487 CircleF
4530 3519 CircleF
4530 3519 CircleF
4530 3550 CircleF
4530 3550 CircleF
4530 3582 CircleF
4530 3582 CircleF
4530 3613 CircleF
4530 3613 CircleF
4530 3645 CircleF
4530 3645 CircleF
4530 3676 CircleF
4530 3676 CircleF
4530 3708 CircleF
4530 3708 CircleF
4530 3739 CircleF
4530 3739 CircleF
4530 3770 CircleF
4530 3770 CircleF
4530 3802 CircleF
4530 3802 CircleF
4530 3833 CircleF
4530 3833 CircleF
4530 3865 CircleF
4653 3865 CircleF
4653 3896 CircleF
4653 3896 CircleF
4653 3928 CircleF
4735 3928 CircleF
4735 3959 CircleF
4817 3959 CircleF
4817 3991 CircleF
4817 3991 CircleF
4817 4022 CircleF
4858 4022 CircleF
4858 4053 CircleF
4940 4053 CircleF
4940 4085 CircleF
4940 4085 CircleF
4940 4116 CircleF
4940 4116 CircleF
4940 4148 CircleF
5431 4148 CircleF
5431 4179 CircleF
5431 4179 CircleF
5431 4211 CircleF
5472 4211 CircleF
5472 4242 CircleF
5677 4242 CircleF
5677 4274 CircleF
5677 4274 CircleF
5677 4305 CircleF
5677 4305 CircleF
5677 4336 CircleF
5677 4336 CircleF
5677 4368 CircleF
5677 4368 CircleF
5677 4399 CircleF
5923 4399 CircleF
5923 4431 CircleF
5923 4431 CircleF
5923 4462 CircleF
5964 4462 CircleF
5964 4494 CircleF
5964 4494 CircleF
5964 4525 CircleF
5964 4525 CircleF
5964 4557 CircleF
6046 4557 CircleF
6046 4588 CircleF
6046 4588 CircleF
6046 4619 CircleF
6087 4619 CircleF
6087 4651 CircleF
6087 4651 CircleF
6087 4682 CircleF
6087 4682 CircleF
6087 4714 CircleF
6087 4714 CircleF
6087 4745 CircleF
6169 4745 CircleF
6169 4777 CircleF
6251 4777 CircleF
6251 4808 CircleF
6373 4808 CircleF
6373 4840 CircleF
6455 4840 CircleF
6455 4871 CircleF
% End plot #1
% Begin plot #2
1.500 UP
2.000 UL
LT0
1.00 0.55 0.00 C /Helvetica findfont 140 scalefont setfont
6731 2683 M
41 31 V
-2845 96 R
41 31 V
53 -1423 R
41 31 V
3660 3500 M
41 31 V
5755 2054 M
41 31 V
4624 2553 M
41 32 V
2265 578 M
41 32 V
5439 4187 M
41 31 V
4517 3844 M
41 31 V
5482 1968 M
41 31 V
4338 345 M
41 32 V
1951 4107 M
41 31 V
4802 186 R
41 31 V
6142 511 M
41 32 V
3179 2431 M
41 31 V
4727 1244 M
41 31 V
-869 35 R
41 31 V
6 -75 R
41 32 V
16 3451 R
41 32 V
-1347 -8 R
41 31 V
4481 3345 M
41 32 V
-1309 -7 R
41 32 V
6326 974 M
41 32 V
2993 4693 M
41 31 V
4921 4118 M
41 31 V
2682 2339 M
41 32 V
3829 2124 M
41 31 V
833 -854 R
41 32 V
2130 3840 M
41 32 V
6792 696 M
41 32 V
2018 1169 M
41 32 V
3604 804 R
41 31 V
-774 932 R
41 31 V
2595 2042 M
41 31 V
5948 3592 M
41 32 V
4822 2905 M
41 32 V
3864 2760 M
41 32 V
3987 803 M
41 32 V
2014 4672 M
41 31 V
1360 545 M
41 31 V
5777 2100 M
41 32 V
2905 338 M
41 32 V
5057 2585 M
41 32 V
3119 1047 M
41 32 V
-779 606 R
41 31 V
-41 1397 R
41 31 V
6450 4838 M
41 32 V
1828 3895 M
41 31 V
379 -199 R
41 32 V
777 -466 R
41 32 V
6731 2683 CircleF
6772 2714 CircleF
3927 2810 CircleF
3968 2841 CircleF
4021 1418 CircleF
4062 1449 CircleF
3660 3500 CircleF
3701 3531 CircleF
5755 2054 CircleF
5796 2085 CircleF
4624 2553 CircleF
4665 2585 CircleF
2265 578 CircleF
2306 610 CircleF
5439 4187 CircleF
5480 4218 CircleF
4517 3844 CircleF
4558 3875 CircleF
5482 1968 CircleF
5523 1999 CircleF
4338 345 CircleF
4379 377 CircleF
1951 4107 CircleF
1992 4138 CircleF
6794 4324 CircleF
6835 4355 CircleF
6142 511 CircleF
6183 543 CircleF
3179 2431 CircleF
3220 2462 CircleF
4727 1244 CircleF
4768 1275 CircleF
3899 1310 CircleF
3940 1341 CircleF
3946 1266 CircleF
3987 1298 CircleF
4003 4749 CircleF
4044 4781 CircleF
2697 4773 CircleF
2738 4804 CircleF
4481 3345 CircleF
4522 3377 CircleF
3213 3370 CircleF
3254 3402 CircleF
6326 974 CircleF
6367 1006 CircleF
2993 4693 CircleF
3034 4724 CircleF
4921 4118 CircleF
4962 4149 CircleF
2682 2339 CircleF
2723 2371 CircleF
3829 2124 CircleF
3870 2155 CircleF
4703 1301 CircleF
4744 1333 CircleF
2130 3840 CircleF
2171 3872 CircleF
6792 696 CircleF
6833 728 CircleF
2018 1169 CircleF
2059 1201 CircleF
5663 2005 CircleF
5704 2036 CircleF
4930 2968 CircleF
4971 2999 CircleF
2595 2042 CircleF
2636 2073 CircleF
5948 3592 CircleF
5989 3624 CircleF
4822 2905 CircleF
4863 2937 CircleF
3864 2760 CircleF
3905 2792 CircleF
3987 803 CircleF
4028 835 CircleF
2014 4672 CircleF
2055 4703 CircleF
1360 545 CircleF
1401 576 CircleF
5777 2100 CircleF
5818 2132 CircleF
2905 338 CircleF
2946 370 CircleF
5057 2585 CircleF
5098 2617 CircleF
3119 1047 CircleF
3160 1079 CircleF
2381 1685 CircleF
2422 1716 CircleF
2381 3113 CircleF
2422 3144 CircleF
6450 4838 CircleF
6491 4870 CircleF
1828 3895 CircleF
1869 3926 CircleF
2248 3727 CircleF
2289 3759 CircleF
3066 3293 CircleF
3107 3325 CircleF
% End plot #2
1.000 UP
1.000 UL
LT0
0.50 0.50 0.50 C stroke
grestore
end
showpage
%%Trailer
%%DocumentFonts: Helvetica
%%Pages: 1
