%!PS-Adobe-2.0
%%Title: out.ps
%%Creator: gnuplot 4.6 patchlevel 6
%%CreationDate: Thu May 28 16:23:54 2015
%%DocumentFonts: (atend)
%%BoundingBox: 50 50 554 770
%%Orientation: Landscape
%%Pages: (atend)
%%EndComments
%%BeginProlog
/gnudict 256 dict def
gnudict begin
%
% The following true/false flags may be edited by hand if desired.
% The unit line width and grayscale image gamma correction may also be changed.
%
/Color false def
/Blacktext false def
/Solid false def
/Dashlength 1 def
/Landscape true def
/Level1 false def
/Rounded false def
/ClipToBoundingBox false def
/SuppressPDFMark false def
/TransparentPatterns false def
/gnulinewidth 5.000 def
/userlinewidth gnulinewidth def
/Gamma 1.0 def
/BackgroundColor {-1.000 -1.000 -1.000} def
%
/vshift -46 def
/dl1 {
  10.0 Dashlength mul mul
  Rounded { currentlinewidth 0.75 mul sub dup 0 le { pop 0.01 } if } if
} def
/dl2 {
  10.0 Dashlength mul mul
  Rounded { currentlinewidth 0.75 mul add } if
} def
/hpt_ 31.5 def
/vpt_ 31.5 def
/hpt hpt_ def
/vpt vpt_ def
/doclip {
  ClipToBoundingBox {
    newpath 50 50 moveto 554 50 lineto 554 770 lineto 50 770 lineto closepath
    clip
  } if
} def
%
% Gnuplot Prolog Version 4.6 (September 2012)
%
%/SuppressPDFMark true def
%
/M {moveto} bind def
/L {lineto} bind def
/R {rmoveto} bind def
/V {rlineto} bind def
/N {newpath moveto} bind def
/Z {closepath} bind def
/C {setrgbcolor} bind def
/f {rlineto fill} bind def
/g {setgray} bind def
/Gshow {show} def   % May be redefined later in the file to support UTF-8
/vpt2 vpt 2 mul def
/hpt2 hpt 2 mul def
/Lshow {currentpoint stroke M 0 vshift R 
	Blacktext {gsave 0 setgray show grestore} {show} ifelse} def
/Rshow {currentpoint stroke M dup stringwidth pop neg vshift R
	Blacktext {gsave 0 setgray show grestore} {show} ifelse} def
/Cshow {currentpoint stroke M dup stringwidth pop -2 div vshift R 
	Blacktext {gsave 0 setgray show grestore} {show} ifelse} def
/UP {dup vpt_ mul /vpt exch def hpt_ mul /hpt exch def
  /hpt2 hpt 2 mul def /vpt2 vpt 2 mul def} def
/DL {Color {setrgbcolor Solid {pop []} if 0 setdash}
 {pop pop pop 0 setgray Solid {pop []} if 0 setdash} ifelse} def
/BL {stroke userlinewidth 2 mul setlinewidth
	Rounded {1 setlinejoin 1 setlinecap} if} def
/AL {stroke userlinewidth 2 div setlinewidth
	Rounded {1 setlinejoin 1 setlinecap} if} def
/UL {dup gnulinewidth mul /userlinewidth exch def
	dup 1 lt {pop 1} if 10 mul /udl exch def} def
/PL {stroke userlinewidth setlinewidth
	Rounded {1 setlinejoin 1 setlinecap} if} def
3.8 setmiterlimit
% Default Line colors
/LCw {1 1 1} def
/LCb {0 0 0} def
/LCa {0 0 0} def
/LC0 {1 0 0} def
/LC1 {0 1 0} def
/LC2 {0 0 1} def
/LC3 {1 0 1} def
/LC4 {0 1 1} def
/LC5 {1 1 0} def
/LC6 {0 0 0} def
/LC7 {1 0.3 0} def
/LC8 {0.5 0.5 0.5} def
% Default Line Types
/LTw {PL [] 1 setgray} def
/LTb {BL [] LCb DL} def
/LTa {AL [1 udl mul 2 udl mul] 0 setdash LCa setrgbcolor} def
/LT0 {PL [] LC0 DL} def
/LT1 {PL [4 dl1 2 dl2] LC1 DL} def
/LT2 {PL [2 dl1 3 dl2] LC2 DL} def
/LT3 {PL [1 dl1 1.5 dl2] LC3 DL} def
/LT4 {PL [6 dl1 2 dl2 1 dl1 2 dl2] LC4 DL} def
/LT5 {PL [3 dl1 3 dl2 1 dl1 3 dl2] LC5 DL} def
/LT6 {PL [2 dl1 2 dl2 2 dl1 6 dl2] LC6 DL} def
/LT7 {PL [1 dl1 2 dl2 6 dl1 2 dl2 1 dl1 2 dl2] LC7 DL} def
/LT8 {PL [2 dl1 2 dl2 2 dl1 2 dl2 2 dl1 2 dl2 2 dl1 4 dl2] LC8 DL} def
/Pnt {stroke [] 0 setdash gsave 1 setlinecap M 0 0 V stroke grestore} def
/Dia {stroke [] 0 setdash 2 copy vpt add M
  hpt neg vpt neg V hpt vpt neg V
  hpt vpt V hpt neg vpt V closepath stroke
  Pnt} def
/Pls {stroke [] 0 setdash vpt sub M 0 vpt2 V
  currentpoint stroke M
  hpt neg vpt neg R hpt2 0 V stroke
 } def
/Box {stroke [] 0 setdash 2 copy exch hpt sub exch vpt add M
  0 vpt2 neg V hpt2 0 V 0 vpt2 V
  hpt2 neg 0 V closepath stroke
  Pnt} def
/Crs {stroke [] 0 setdash exch hpt sub exch vpt add M
  hpt2 vpt2 neg V currentpoint stroke M
  hpt2 neg 0 R hpt2 vpt2 V stroke} def
/TriU {stroke [] 0 setdash 2 copy vpt 1.12 mul add M
  hpt neg vpt -1.62 mul V
  hpt 2 mul 0 V
  hpt neg vpt 1.62 mul V closepath stroke
  Pnt} def
/Star {2 copy Pls Crs} def
/BoxF {stroke [] 0 setdash exch hpt sub exch vpt add M
  0 vpt2 neg V hpt2 0 V 0 vpt2 V
  hpt2 neg 0 V closepath fill} def
/TriUF {stroke [] 0 setdash vpt 1.12 mul add M
  hpt neg vpt -1.62 mul V
  hpt 2 mul 0 V
  hpt neg vpt 1.62 mul V closepath fill} def
/TriD {stroke [] 0 setdash 2 copy vpt 1.12 mul sub M
  hpt neg vpt 1.62 mul V
  hpt 2 mul 0 V
  hpt neg vpt -1.62 mul V closepath stroke
  Pnt} def
/TriDF {stroke [] 0 setdash vpt 1.12 mul sub M
  hpt neg vpt 1.62 mul V
  hpt 2 mul 0 V
  hpt neg vpt -1.62 mul V closepath fill} def
/DiaF {stroke [] 0 setdash vpt add M
  hpt neg vpt neg V hpt vpt neg V
  hpt vpt V hpt neg vpt V closepath fill} def
/Pent {stroke [] 0 setdash 2 copy gsave
  translate 0 hpt M 4 {72 rotate 0 hpt L} repeat
  closepath stroke grestore Pnt} def
/PentF {stroke [] 0 setdash gsave
  translate 0 hpt M 4 {72 rotate 0 hpt L} repeat
  closepath fill grestore} def
/Circle {stroke [] 0 setdash 2 copy
  hpt 0 360 arc stroke Pnt} def
/CircleF {stroke [] 0 setdash hpt 0 360 arc fill} def
/C0 {BL [] 0 setdash 2 copy moveto vpt 90 450 arc} bind def
/C1 {BL [] 0 setdash 2 copy moveto
	2 copy vpt 0 90 arc closepath fill
	vpt 0 360 arc closepath} bind def
/C2 {BL [] 0 setdash 2 copy moveto
	2 copy vpt 90 180 arc closepath fill
	vpt 0 360 arc closepath} bind def
/C3 {BL [] 0 setdash 2 copy moveto
	2 copy vpt 0 180 arc closepath fill
	vpt 0 360 arc closepath} bind def
/C4 {BL [] 0 setdash 2 copy moveto
	2 copy vpt 180 270 arc closepath fill
	vpt 0 360 arc closepath} bind def
/C5 {BL [] 0 setdash 2 copy moveto
	2 copy vpt 0 90 arc
	2 copy moveto
	2 copy vpt 180 270 arc closepath fill
	vpt 0 360 arc} bind def
/C6 {BL [] 0 setdash 2 copy moveto
	2 copy vpt 90 270 arc closepath fill
	vpt 0 360 arc closepath} bind def
/C7 {BL [] 0 setdash 2 copy moveto
	2 copy vpt 0 270 arc closepath fill
	vpt 0 360 arc closepath} bind def
/C8 {BL [] 0 setdash 2 copy moveto
	2 copy vpt 270 360 arc closepath fill
	vpt 0 360 arc closepath} bind def
/C9 {BL [] 0 setdash 2 copy moveto
	2 copy vpt 270 450 arc closepath fill
	vpt 0 360 arc closepath} bind def
/C10 {BL [] 0 setdash 2 copy 2 copy moveto vpt 270 360 arc closepath fill
	2 copy moveto
	2 copy vpt 90 180 arc closepath fill
	vpt 0 360 arc closepath} bind def
/C11 {BL [] 0 setdash 2 copy moveto
	2 copy vpt 0 180 arc closepath fill
	2 copy moveto
	2 copy vpt 270 360 arc closepath fill
	vpt 0 360 arc closepath} bind def
/C12 {BL [] 0 setdash 2 copy moveto
	2 copy vpt 180 360 arc closepath fill
	vpt 0 360 arc closepath} bind def
/C13 {BL [] 0 setdash 2 copy moveto
	2 copy vpt 0 90 arc closepath fill
	2 copy moveto
	2 copy vpt 180 360 arc closepath fill
	vpt 0 360 arc closepath} bind def
/C14 {BL [] 0 setdash 2 copy moveto
	2 copy vpt 90 360 arc closepath fill
	vpt 0 360 arc} bind def
/C15 {BL [] 0 setdash 2 copy vpt 0 360 arc closepath fill
	vpt 0 360 arc closepath} bind def
/Rec {newpath 4 2 roll moveto 1 index 0 rlineto 0 exch rlineto
	neg 0 rlineto closepath} bind def
/Square {dup Rec} bind def
/Bsquare {vpt sub exch vpt sub exch vpt2 Square} bind def
/S0 {BL [] 0 setdash 2 copy moveto 0 vpt rlineto BL Bsquare} bind def
/S1 {BL [] 0 setdash 2 copy vpt Square fill Bsquare} bind def
/S2 {BL [] 0 setdash 2 copy exch vpt sub exch vpt Square fill Bsquare} bind def
/S3 {BL [] 0 setdash 2 copy exch vpt sub exch vpt2 vpt Rec fill Bsquare} bind def
/S4 {BL [] 0 setdash 2 copy exch vpt sub exch vpt sub vpt Square fill Bsquare} bind def
/S5 {BL [] 0 setdash 2 copy 2 copy vpt Square fill
	exch vpt sub exch vpt sub vpt Square fill Bsquare} bind def
/S6 {BL [] 0 setdash 2 copy exch vpt sub exch vpt sub vpt vpt2 Rec fill Bsquare} bind def
/S7 {BL [] 0 setdash 2 copy exch vpt sub exch vpt sub vpt vpt2 Rec fill
	2 copy vpt Square fill Bsquare} bind def
/S8 {BL [] 0 setdash 2 copy vpt sub vpt Square fill Bsquare} bind def
/S9 {BL [] 0 setdash 2 copy vpt sub vpt vpt2 Rec fill Bsquare} bind def
/S10 {BL [] 0 setdash 2 copy vpt sub vpt Square fill 2 copy exch vpt sub exch vpt Square fill
	Bsquare} bind def
/S11 {BL [] 0 setdash 2 copy vpt sub vpt Square fill 2 copy exch vpt sub exch vpt2 vpt Rec fill
	Bsquare} bind def
/S12 {BL [] 0 setdash 2 copy exch vpt sub exch vpt sub vpt2 vpt Rec fill Bsquare} bind def
/S13 {BL [] 0 setdash 2 copy exch vpt sub exch vpt sub vpt2 vpt Rec fill
	2 copy vpt Square fill Bsquare} bind def
/S14 {BL [] 0 setdash 2 copy exch vpt sub exch vpt sub vpt2 vpt Rec fill
	2 copy exch vpt sub exch vpt Square fill Bsquare} bind def
/S15 {BL [] 0 setdash 2 copy Bsquare fill Bsquare} bind def
/D0 {gsave translate 45 rotate 0 0 S0 stroke grestore} bind def
/D1 {gsave translate 45 rotate 0 0 S1 stroke grestore} bind def
/D2 {gsave translate 45 rotate 0 0 S2 stroke grestore} bind def
/D3 {gsave translate 45 rotate 0 0 S3 stroke grestore} bind def
/D4 {gsave translate 45 rotate 0 0 S4 stroke grestore} bind def
/D5 {gsave translate 45 rotate 0 0 S5 stroke grestore} bind def
/D6 {gsave translate 45 rotate 0 0 S6 stroke grestore} bind def
/D7 {gsave translate 45 rotate 0 0 S7 stroke grestore} bind def
/D8 {gsave translate 45 rotate 0 0 S8 stroke grestore} bind def
/D9 {gsave translate 45 rotate 0 0 S9 stroke grestore} bind def
/D10 {gsave translate 45 rotate 0 0 S10 stroke grestore} bind def
/D11 {gsave translate 45 rotate 0 0 S11 stroke grestore} bind def
/D12 {gsave translate 45 rotate 0 0 S12 stroke grestore} bind def
/D13 {gsave translate 45 rotate 0 0 S13 stroke grestore} bind def
/D14 {gsave translate 45 rotate 0 0 S14 stroke grestore} bind def
/D15 {gsave translate 45 rotate 0 0 S15 stroke grestore} bind def
/DiaE {stroke [] 0 setdash vpt add M
  hpt neg vpt neg V hpt vpt neg V
  hpt vpt V hpt neg vpt V closepath stroke} def
/BoxE {stroke [] 0 setdash exch hpt sub exch vpt add M
  0 vpt2 neg V hpt2 0 V 0 vpt2 V
  hpt2 neg 0 V closepath stroke} def
/TriUE {stroke [] 0 setdash vpt 1.12 mul add M
  hpt neg vpt -1.62 mul V
  hpt 2 mul 0 V
  hpt neg vpt 1.62 mul V closepath stroke} def
/TriDE {stroke [] 0 setdash vpt 1.12 mul sub M
  hpt neg vpt 1.62 mul V
  hpt 2 mul 0 V
  hpt neg vpt -1.62 mul V closepath stroke} def
/PentE {stroke [] 0 setdash gsave
  translate 0 hpt M 4 {72 rotate 0 hpt L} repeat
  closepath stroke grestore} def
/CircE {stroke [] 0 setdash 
  hpt 0 360 arc stroke} def
/Opaque {gsave closepath 1 setgray fill grestore 0 setgray closepath} def
/DiaW {stroke [] 0 setdash vpt add M
  hpt neg vpt neg V hpt vpt neg V
  hpt vpt V hpt neg vpt V Opaque stroke} def
/BoxW {stroke [] 0 setdash exch hpt sub exch vpt add M
  0 vpt2 neg V hpt2 0 V 0 vpt2 V
  hpt2 neg 0 V Opaque stroke} def
/TriUW {stroke [] 0 setdash vpt 1.12 mul add M
  hpt neg vpt -1.62 mul V
  hpt 2 mul 0 V
  hpt neg vpt 1.62 mul V Opaque stroke} def
/TriDW {stroke [] 0 setdash vpt 1.12 mul sub M
  hpt neg vpt 1.62 mul V
  hpt 2 mul 0 V
  hpt neg vpt -1.62 mul V Opaque stroke} def
/PentW {stroke [] 0 setdash gsave
  translate 0 hpt M 4 {72 rotate 0 hpt L} repeat
  Opaque stroke grestore} def
/CircW {stroke [] 0 setdash 
  hpt 0 360 arc Opaque stroke} def
/BoxFill {gsave Rec 1 setgray fill grestore} def
/Density {
  /Fillden exch def
  currentrgbcolor
  /ColB exch def /ColG exch def /ColR exch def
  /ColR ColR Fillden mul Fillden sub 1 add def
  /ColG ColG Fillden mul Fillden sub 1 add def
  /ColB ColB Fillden mul Fillden sub 1 add def
  ColR ColG ColB setrgbcolor} def
/BoxColFill {gsave Rec PolyFill} def
/PolyFill {gsave Density fill grestore grestore} def
/h {rlineto rlineto rlineto gsave closepath fill grestore} bind def
%
% PostScript Level 1 Pattern Fill routine for rectangles
% Usage: x y w h s a XX PatternFill
%	x,y = lower left corner of box to be filled
%	w,h = width and height of box
%	  a = angle in degrees between lines and x-axis
%	 XX = 0/1 for no/yes cross-hatch
%
/PatternFill {gsave /PFa [ 9 2 roll ] def
  PFa 0 get PFa 2 get 2 div add PFa 1 get PFa 3 get 2 div add translate
  PFa 2 get -2 div PFa 3 get -2 div PFa 2 get PFa 3 get Rec
  TransparentPatterns {} {gsave 1 setgray fill grestore} ifelse
  clip
  currentlinewidth 0.5 mul setlinewidth
  /PFs PFa 2 get dup mul PFa 3 get dup mul add sqrt def
  0 0 M PFa 5 get rotate PFs -2 div dup translate
  0 1 PFs PFa 4 get div 1 add floor cvi
	{PFa 4 get mul 0 M 0 PFs V} for
  0 PFa 6 get ne {
	0 1 PFs PFa 4 get div 1 add floor cvi
	{PFa 4 get mul 0 2 1 roll M PFs 0 V} for
 } if
  stroke grestore} def
%
/languagelevel where
 {pop languagelevel} {1} ifelse
 2 lt
	{/InterpretLevel1 true def}
	{/InterpretLevel1 Level1 def}
 ifelse
%
% PostScript level 2 pattern fill definitions
%
/Level2PatternFill {
/Tile8x8 {/PaintType 2 /PatternType 1 /TilingType 1 /BBox [0 0 8 8] /XStep 8 /YStep 8}
	bind def
/KeepColor {currentrgbcolor [/Pattern /DeviceRGB] setcolorspace} bind def
<< Tile8x8
 /PaintProc {0.5 setlinewidth pop 0 0 M 8 8 L 0 8 M 8 0 L stroke} 
>> matrix makepattern
/Pat1 exch def
<< Tile8x8
 /PaintProc {0.5 setlinewidth pop 0 0 M 8 8 L 0 8 M 8 0 L stroke
	0 4 M 4 8 L 8 4 L 4 0 L 0 4 L stroke}
>> matrix makepattern
/Pat2 exch def
<< Tile8x8
 /PaintProc {0.5 setlinewidth pop 0 0 M 0 8 L
	8 8 L 8 0 L 0 0 L fill}
>> matrix makepattern
/Pat3 exch def
<< Tile8x8
 /PaintProc {0.5 setlinewidth pop -4 8 M 8 -4 L
	0 12 M 12 0 L stroke}
>> matrix makepattern
/Pat4 exch def
<< Tile8x8
 /PaintProc {0.5 setlinewidth pop -4 0 M 8 12 L
	0 -4 M 12 8 L stroke}
>> matrix makepattern
/Pat5 exch def
<< Tile8x8
 /PaintProc {0.5 setlinewidth pop -2 8 M 4 -4 L
	0 12 M 8 -4 L 4 12 M 10 0 L stroke}
>> matrix makepattern
/Pat6 exch def
<< Tile8x8
 /PaintProc {0.5 setlinewidth pop -2 0 M 4 12 L
	0 -4 M 8 12 L 4 -4 M 10 8 L stroke}
>> matrix makepattern
/Pat7 exch def
<< Tile8x8
 /PaintProc {0.5 setlinewidth pop 8 -2 M -4 4 L
	12 0 M -4 8 L 12 4 M 0 10 L stroke}
>> matrix makepattern
/Pat8 exch def
<< Tile8x8
 /PaintProc {0.5 setlinewidth pop 0 -2 M 12 4 L
	-4 0 M 12 8 L -4 4 M 8 10 L stroke}
>> matrix makepattern
/Pat9 exch def
/Pattern1 {PatternBgnd KeepColor Pat1 setpattern} bind def
/Pattern2 {PatternBgnd KeepColor Pat2 setpattern} bind def
/Pattern3 {PatternBgnd KeepColor Pat3 setpattern} bind def
/Pattern4 {PatternBgnd KeepColor Landscape {Pat5} {Pat4} ifelse setpattern} bind def
/Pattern5 {PatternBgnd KeepColor Landscape {Pat4} {Pat5} ifelse setpattern} bind def
/Pattern6 {PatternBgnd KeepColor Landscape {Pat9} {Pat6} ifelse setpattern} bind def
/Pattern7 {PatternBgnd KeepColor Landscape {Pat8} {Pat7} ifelse setpattern} bind def
} def
%
%
%End of PostScript Level 2 code
%
/PatternBgnd {
  TransparentPatterns {} {gsave 1 setgray fill grestore} ifelse
} def
%
% Substitute for Level 2 pattern fill codes with
% grayscale if Level 2 support is not selected.
%
/Level1PatternFill {
/Pattern1 {0.250 Density} bind def
/Pattern2 {0.500 Density} bind def
/Pattern3 {0.750 Density} bind def
/Pattern4 {0.125 Density} bind def
/Pattern5 {0.375 Density} bind def
/Pattern6 {0.625 Density} bind def
/Pattern7 {0.875 Density} bind def
} def
%
% Now test for support of Level 2 code
%
Level1 {Level1PatternFill} {Level2PatternFill} ifelse
%
/Symbol-Oblique /Symbol findfont [1 0 .167 1 0 0] makefont
dup length dict begin {1 index /FID eq {pop pop} {def} ifelse} forall
currentdict end definefont pop
Level1 SuppressPDFMark or 
{} {
/SDict 10 dict def
systemdict /pdfmark known not {
  userdict /pdfmark systemdict /cleartomark get put
} if
SDict begin [
  /Title (out.ps)
  /Subject (gnuplot plot)
  /Creator (gnuplot 4.6 patchlevel 6)
  /Author (yani)
%  /Producer (gnuplot)
%  /Keywords ()
  /CreationDate (Thu May 28 16:23:54 2015)
  /DOCINFO pdfmark
end
} ifelse
end
%%EndProlog
%%Page: 1 1
gnudict begin
gsave
doclip
50 50 translate
0.100 0.100 scale
90 rotate
0 -5040 translate
0 setgray
newpath
(Helvetica) findfont 140 scalefont setfont
BackgroundColor 0 lt 3 1 roll 0 lt exch 0 lt or or not {gsave BackgroundColor C clippath fill grestore} if
1.000 UL
LT0
0.50 0.50 0.50 C 1.000 UL
LTa
0.50 0.50 0.50 C 966 280 M
5981 0 V
stroke
LT0
0.50 0.50 0.50 C 966 280 M
63 0 V
5918 0 R
-63 0 V
882 280 M
( 0) Rshow
1.000 UL
LT0
0.50 0.50 0.50 C 1.000 UL
LTa
0.50 0.50 0.50 C 966 326 M
5981 0 V
stroke
LT0
0.50 0.50 0.50 C 966 326 M
63 0 V
5918 0 R
-63 0 V
882 326 M
( 0.707106) Rshow
1.000 UL
LT0
0.50 0.50 0.50 C 1.000 UL
LTa
0.50 0.50 0.50 C 966 372 M
5981 0 V
stroke
LT0
0.50 0.50 0.50 C 966 372 M
63 0 V
5918 0 R
-63 0 V
882 372 M
( 1.41421) Rshow
1.000 UL
LT0
0.50 0.50 0.50 C 1.000 UL
LTa
0.50 0.50 0.50 C 966 418 M
5981 0 V
stroke
LT0
0.50 0.50 0.50 C 966 418 M
63 0 V
5918 0 R
-63 0 V
882 418 M
( 2.12132) Rshow
1.000 UL
LT0
0.50 0.50 0.50 C 1.000 UL
LTa
0.50 0.50 0.50 C 966 464 M
5981 0 V
stroke
LT0
0.50 0.50 0.50 C 966 464 M
63 0 V
5918 0 R
-63 0 V
882 464 M
( 2.82842) Rshow
1.000 UL
LT0
0.50 0.50 0.50 C 1.000 UL
LTa
0.50 0.50 0.50 C 966 510 M
5981 0 V
stroke
LT0
0.50 0.50 0.50 C 966 510 M
63 0 V
5918 0 R
-63 0 V
882 510 M
( 3.53553) Rshow
1.000 UL
LT0
0.50 0.50 0.50 C 1.000 UL
LTa
0.50 0.50 0.50 C 966 555 M
5981 0 V
stroke
LT0
0.50 0.50 0.50 C 966 555 M
63 0 V
5918 0 R
-63 0 V
882 555 M
( 4.24264) Rshow
1.000 UL
LT0
0.50 0.50 0.50 C 1.000 UL
LTa
0.50 0.50 0.50 C 966 601 M
5981 0 V
stroke
LT0
0.50 0.50 0.50 C 966 601 M
63 0 V
5918 0 R
-63 0 V
882 601 M
( 4.94974) Rshow
1.000 UL
LT0
0.50 0.50 0.50 C 1.000 UL
LTa
0.50 0.50 0.50 C 966 647 M
5981 0 V
stroke
LT0
0.50 0.50 0.50 C 966 647 M
63 0 V
5918 0 R
-63 0 V
882 647 M
( 5.65685) Rshow
1.000 UL
LT0
0.50 0.50 0.50 C 1.000 UL
LTa
0.50 0.50 0.50 C 966 693 M
5981 0 V
stroke
LT0
0.50 0.50 0.50 C 966 693 M
63 0 V
5918 0 R
-63 0 V
882 693 M
( 6.36395) Rshow
1.000 UL
LT0
0.50 0.50 0.50 C 1.000 UL
LTa
0.50 0.50 0.50 C 966 739 M
5981 0 V
stroke
LT0
0.50 0.50 0.50 C 966 739 M
63 0 V
5918 0 R
-63 0 V
882 739 M
( 7.07106) Rshow
1.000 UL
LT0
0.50 0.50 0.50 C 1.000 UL
LTa
0.50 0.50 0.50 C 966 785 M
5981 0 V
stroke
LT0
0.50 0.50 0.50 C 966 785 M
63 0 V
5918 0 R
-63 0 V
882 785 M
( 7.77817) Rshow
1.000 UL
LT0
0.50 0.50 0.50 C 1.000 UL
LTa
0.50 0.50 0.50 C 966 831 M
5981 0 V
stroke
LT0
0.50 0.50 0.50 C 966 831 M
63 0 V
5918 0 R
-63 0 V
882 831 M
( 8.48527) Rshow
1.000 UL
LT0
0.50 0.50 0.50 C 1.000 UL
LTa
0.50 0.50 0.50 C 966 877 M
5981 0 V
stroke
LT0
0.50 0.50 0.50 C 966 877 M
63 0 V
5918 0 R
-63 0 V
882 877 M
( 9.19238) Rshow
1.000 UL
LT0
0.50 0.50 0.50 C 1.000 UL
LTa
0.50 0.50 0.50 C 966 923 M
5981 0 V
stroke
LT0
0.50 0.50 0.50 C 966 923 M
63 0 V
5918 0 R
-63 0 V
882 923 M
( 9.89948) Rshow
1.000 UL
LT0
0.50 0.50 0.50 C 1.000 UL
LTa
0.50 0.50 0.50 C 966 969 M
5981 0 V
stroke
LT0
0.50 0.50 0.50 C 966 969 M
63 0 V
5918 0 R
-63 0 V
882 969 M
( 10.6066) Rshow
1.000 UL
LT0
0.50 0.50 0.50 C 1.000 UL
LTa
0.50 0.50 0.50 C 966 1015 M
5981 0 V
stroke
LT0
0.50 0.50 0.50 C 966 1015 M
63 0 V
5918 0 R
-63 0 V
-6002 0 R
( 11.3137) Rshow
1.000 UL
LT0
0.50 0.50 0.50 C 1.000 UL
LTa
0.50 0.50 0.50 C 966 1060 M
5981 0 V
stroke
LT0
0.50 0.50 0.50 C 966 1060 M
63 0 V
5918 0 R
-63 0 V
-6002 0 R
( 12.0208) Rshow
1.000 UL
LT0
0.50 0.50 0.50 C 1.000 UL
LTa
0.50 0.50 0.50 C 966 1106 M
5981 0 V
stroke
LT0
0.50 0.50 0.50 C 966 1106 M
63 0 V
5918 0 R
-63 0 V
-6002 0 R
( 12.7279) Rshow
1.000 UL
LT0
0.50 0.50 0.50 C 1.000 UL
LTa
0.50 0.50 0.50 C 966 1152 M
5981 0 V
stroke
LT0
0.50 0.50 0.50 C 966 1152 M
63 0 V
5918 0 R
-63 0 V
-6002 0 R
( 13.435) Rshow
1.000 UL
LT0
0.50 0.50 0.50 C 1.000 UL
LTa
0.50 0.50 0.50 C 966 1198 M
5981 0 V
stroke
LT0
0.50 0.50 0.50 C 966 1198 M
63 0 V
5918 0 R
-63 0 V
-6002 0 R
( 14.1421) Rshow
1.000 UL
LT0
0.50 0.50 0.50 C 1.000 UL
LTa
0.50 0.50 0.50 C 966 1244 M
5981 0 V
stroke
LT0
0.50 0.50 0.50 C 966 1244 M
63 0 V
5918 0 R
-63 0 V
-6002 0 R
( 14.8492) Rshow
1.000 UL
LT0
0.50 0.50 0.50 C 1.000 UL
LTa
0.50 0.50 0.50 C 966 1290 M
5981 0 V
stroke
LT0
0.50 0.50 0.50 C 966 1290 M
63 0 V
5918 0 R
-63 0 V
-6002 0 R
( 15.5563) Rshow
1.000 UL
LT0
0.50 0.50 0.50 C 1.000 UL
LTa
0.50 0.50 0.50 C 966 1336 M
5981 0 V
stroke
LT0
0.50 0.50 0.50 C 966 1336 M
63 0 V
5918 0 R
-63 0 V
-6002 0 R
( 16.2634) Rshow
1.000 UL
LT0
0.50 0.50 0.50 C 1.000 UL
LTa
0.50 0.50 0.50 C 966 1382 M
5981 0 V
stroke
LT0
0.50 0.50 0.50 C 966 1382 M
63 0 V
5918 0 R
-63 0 V
-6002 0 R
( 16.9705) Rshow
1.000 UL
LT0
0.50 0.50 0.50 C 1.000 UL
LTa
0.50 0.50 0.50 C 966 1428 M
5981 0 V
stroke
LT0
0.50 0.50 0.50 C 966 1428 M
63 0 V
5918 0 R
-63 0 V
-6002 0 R
( 17.6776) Rshow
1.000 UL
LT0
0.50 0.50 0.50 C 1.000 UL
LTa
0.50 0.50 0.50 C 966 1474 M
5981 0 V
stroke
LT0
0.50 0.50 0.50 C 966 1474 M
63 0 V
5918 0 R
-63 0 V
-6002 0 R
( 18.3848) Rshow
1.000 UL
LT0
0.50 0.50 0.50 C 1.000 UL
LTa
0.50 0.50 0.50 C 966 1520 M
5981 0 V
stroke
LT0
0.50 0.50 0.50 C 966 1520 M
63 0 V
5918 0 R
-63 0 V
-6002 0 R
( 19.0919) Rshow
1.000 UL
LT0
0.50 0.50 0.50 C 1.000 UL
LTa
0.50 0.50 0.50 C 966 1565 M
5981 0 V
stroke
LT0
0.50 0.50 0.50 C 966 1565 M
63 0 V
5918 0 R
-63 0 V
-6002 0 R
( 19.799) Rshow
1.000 UL
LT0
0.50 0.50 0.50 C 1.000 UL
LTa
0.50 0.50 0.50 C 966 1611 M
5981 0 V
stroke
LT0
0.50 0.50 0.50 C 966 1611 M
63 0 V
5918 0 R
-63 0 V
-6002 0 R
( 20.5061) Rshow
1.000 UL
LT0
0.50 0.50 0.50 C 1.000 UL
LTa
0.50 0.50 0.50 C 966 1657 M
5981 0 V
stroke
LT0
0.50 0.50 0.50 C 966 1657 M
63 0 V
5918 0 R
-63 0 V
-6002 0 R
( 21.2132) Rshow
1.000 UL
LT0
0.50 0.50 0.50 C 1.000 UL
LTa
0.50 0.50 0.50 C 966 1703 M
5981 0 V
stroke
LT0
0.50 0.50 0.50 C 966 1703 M
63 0 V
5918 0 R
-63 0 V
-6002 0 R
( 21.9203) Rshow
1.000 UL
LT0
0.50 0.50 0.50 C 1.000 UL
LTa
0.50 0.50 0.50 C 966 1749 M
5981 0 V
stroke
LT0
0.50 0.50 0.50 C 966 1749 M
63 0 V
5918 0 R
-63 0 V
-6002 0 R
( 22.6274) Rshow
1.000 UL
LT0
0.50 0.50 0.50 C 1.000 UL
LTa
0.50 0.50 0.50 C 966 1795 M
5981 0 V
stroke
LT0
0.50 0.50 0.50 C 966 1795 M
63 0 V
5918 0 R
-63 0 V
-6002 0 R
( 23.3345) Rshow
1.000 UL
LT0
0.50 0.50 0.50 C 1.000 UL
LTa
0.50 0.50 0.50 C 966 1841 M
5981 0 V
stroke
LT0
0.50 0.50 0.50 C 966 1841 M
63 0 V
5918 0 R
-63 0 V
-6002 0 R
( 24.0416) Rshow
1.000 UL
LT0
0.50 0.50 0.50 C 1.000 UL
LTa
0.50 0.50 0.50 C 966 1887 M
5981 0 V
stroke
LT0
0.50 0.50 0.50 C 966 1887 M
63 0 V
5918 0 R
-63 0 V
-6002 0 R
( 24.7487) Rshow
1.000 UL
LT0
0.50 0.50 0.50 C 1.000 UL
LTa
0.50 0.50 0.50 C 966 1933 M
5981 0 V
stroke
LT0
0.50 0.50 0.50 C 966 1933 M
63 0 V
5918 0 R
-63 0 V
-6002 0 R
( 25.4558) Rshow
1.000 UL
LT0
0.50 0.50 0.50 C 1.000 UL
LTa
0.50 0.50 0.50 C 966 1979 M
5981 0 V
stroke
LT0
0.50 0.50 0.50 C 966 1979 M
63 0 V
5918 0 R
-63 0 V
-6002 0 R
( 26.1629) Rshow
1.000 UL
LT0
0.50 0.50 0.50 C 1.000 UL
LTa
0.50 0.50 0.50 C 966 2025 M
5981 0 V
stroke
LT0
0.50 0.50 0.50 C 966 2025 M
63 0 V
5918 0 R
-63 0 V
-6002 0 R
( 26.87) Rshow
1.000 UL
LT0
0.50 0.50 0.50 C 1.000 UL
LTa
0.50 0.50 0.50 C 966 2070 M
5981 0 V
stroke
LT0
0.50 0.50 0.50 C 966 2070 M
63 0 V
5918 0 R
-63 0 V
-6002 0 R
( 27.5771) Rshow
1.000 UL
LT0
0.50 0.50 0.50 C 1.000 UL
LTa
0.50 0.50 0.50 C 966 2116 M
5981 0 V
stroke
LT0
0.50 0.50 0.50 C 966 2116 M
63 0 V
5918 0 R
-63 0 V
-6002 0 R
( 28.2842) Rshow
1.000 UL
LT0
0.50 0.50 0.50 C 1.000 UL
LTa
0.50 0.50 0.50 C 966 2162 M
5981 0 V
stroke
LT0
0.50 0.50 0.50 C 966 2162 M
63 0 V
5918 0 R
-63 0 V
-6002 0 R
( 28.9913) Rshow
1.000 UL
LT0
0.50 0.50 0.50 C 1.000 UL
LTa
0.50 0.50 0.50 C 966 2208 M
5981 0 V
stroke
LT0
0.50 0.50 0.50 C 966 2208 M
63 0 V
5918 0 R
-63 0 V
-6002 0 R
( 29.6985) Rshow
1.000 UL
LT0
0.50 0.50 0.50 C 1.000 UL
LTa
0.50 0.50 0.50 C 966 2254 M
5981 0 V
stroke
LT0
0.50 0.50 0.50 C 966 2254 M
63 0 V
5918 0 R
-63 0 V
-6002 0 R
( 30.4056) Rshow
1.000 UL
LT0
0.50 0.50 0.50 C 1.000 UL
LTa
0.50 0.50 0.50 C 966 2300 M
5981 0 V
stroke
LT0
0.50 0.50 0.50 C 966 2300 M
63 0 V
5918 0 R
-63 0 V
-6002 0 R
( 31.1127) Rshow
1.000 UL
LT0
0.50 0.50 0.50 C 1.000 UL
LTa
0.50 0.50 0.50 C 966 2346 M
5981 0 V
stroke
LT0
0.50 0.50 0.50 C 966 2346 M
63 0 V
5918 0 R
-63 0 V
-6002 0 R
( 31.8198) Rshow
1.000 UL
LT0
0.50 0.50 0.50 C 1.000 UL
LTa
0.50 0.50 0.50 C 966 2392 M
5981 0 V
stroke
LT0
0.50 0.50 0.50 C 966 2392 M
63 0 V
5918 0 R
-63 0 V
-6002 0 R
( 32.5269) Rshow
1.000 UL
LT0
0.50 0.50 0.50 C 1.000 UL
LTa
0.50 0.50 0.50 C 966 2438 M
5981 0 V
stroke
LT0
0.50 0.50 0.50 C 966 2438 M
63 0 V
5918 0 R
-63 0 V
-6002 0 R
( 33.234) Rshow
1.000 UL
LT0
0.50 0.50 0.50 C 1.000 UL
LTa
0.50 0.50 0.50 C 966 2484 M
5981 0 V
stroke
LT0
0.50 0.50 0.50 C 966 2484 M
63 0 V
5918 0 R
-63 0 V
-6002 0 R
( 33.9411) Rshow
1.000 UL
LT0
0.50 0.50 0.50 C 1.000 UL
LTa
0.50 0.50 0.50 C 966 2530 M
5981 0 V
stroke
LT0
0.50 0.50 0.50 C 966 2530 M
63 0 V
5918 0 R
-63 0 V
-6002 0 R
( 34.6482) Rshow
1.000 UL
LT0
0.50 0.50 0.50 C 1.000 UL
LTa
0.50 0.50 0.50 C 966 2576 M
5981 0 V
stroke
LT0
0.50 0.50 0.50 C 966 2576 M
63 0 V
5918 0 R
-63 0 V
-6002 0 R
( 35.3553) Rshow
1.000 UL
LT0
0.50 0.50 0.50 C 1.000 UL
LTa
0.50 0.50 0.50 C 966 2621 M
5981 0 V
stroke
LT0
0.50 0.50 0.50 C 966 2621 M
63 0 V
5918 0 R
-63 0 V
-6002 0 R
( 36.0624) Rshow
1.000 UL
LT0
0.50 0.50 0.50 C 1.000 UL
LTa
0.50 0.50 0.50 C 966 2667 M
5981 0 V
stroke
LT0
0.50 0.50 0.50 C 966 2667 M
63 0 V
5918 0 R
-63 0 V
-6002 0 R
( 36.7695) Rshow
1.000 UL
LT0
0.50 0.50 0.50 C 1.000 UL
LTa
0.50 0.50 0.50 C 966 2713 M
5981 0 V
stroke
LT0
0.50 0.50 0.50 C 966 2713 M
63 0 V
5918 0 R
-63 0 V
-6002 0 R
( 37.4766) Rshow
1.000 UL
LT0
0.50 0.50 0.50 C 1.000 UL
LTa
0.50 0.50 0.50 C 966 2759 M
5981 0 V
stroke
LT0
0.50 0.50 0.50 C 966 2759 M
63 0 V
5918 0 R
-63 0 V
-6002 0 R
( 38.1837) Rshow
1.000 UL
LT0
0.50 0.50 0.50 C 1.000 UL
LTa
0.50 0.50 0.50 C 966 2805 M
5981 0 V
stroke
LT0
0.50 0.50 0.50 C 966 2805 M
63 0 V
5918 0 R
-63 0 V
-6002 0 R
( 38.8908) Rshow
1.000 UL
LT0
0.50 0.50 0.50 C 1.000 UL
LTa
0.50 0.50 0.50 C 966 2851 M
5981 0 V
stroke
LT0
0.50 0.50 0.50 C 966 2851 M
63 0 V
5918 0 R
-63 0 V
-6002 0 R
( 39.5979) Rshow
1.000 UL
LT0
0.50 0.50 0.50 C 1.000 UL
LTa
0.50 0.50 0.50 C 966 2897 M
5981 0 V
stroke
LT0
0.50 0.50 0.50 C 966 2897 M
63 0 V
5918 0 R
-63 0 V
-6002 0 R
( 40.305) Rshow
1.000 UL
LT0
0.50 0.50 0.50 C 1.000 UL
LTa
0.50 0.50 0.50 C 966 2943 M
5981 0 V
stroke
LT0
0.50 0.50 0.50 C 966 2943 M
63 0 V
5918 0 R
-63 0 V
-6002 0 R
( 41.0121) Rshow
1.000 UL
LT0
0.50 0.50 0.50 C 1.000 UL
LTa
0.50 0.50 0.50 C 966 2989 M
5981 0 V
stroke
LT0
0.50 0.50 0.50 C 966 2989 M
63 0 V
5918 0 R
-63 0 V
-6002 0 R
( 41.7193) Rshow
1.000 UL
LT0
0.50 0.50 0.50 C 1.000 UL
LTa
0.50 0.50 0.50 C 966 3035 M
5981 0 V
stroke
LT0
0.50 0.50 0.50 C 966 3035 M
63 0 V
5918 0 R
-63 0 V
-6002 0 R
( 42.4264) Rshow
1.000 UL
LT0
0.50 0.50 0.50 C 1.000 UL
LTa
0.50 0.50 0.50 C 966 3081 M
5981 0 V
stroke
LT0
0.50 0.50 0.50 C 966 3081 M
63 0 V
5918 0 R
-63 0 V
-6002 0 R
( 43.1335) Rshow
1.000 UL
LT0
0.50 0.50 0.50 C 1.000 UL
LTa
0.50 0.50 0.50 C 966 3126 M
5981 0 V
stroke
LT0
0.50 0.50 0.50 C 966 3126 M
63 0 V
5918 0 R
-63 0 V
-6002 0 R
( 43.8406) Rshow
1.000 UL
LT0
0.50 0.50 0.50 C 1.000 UL
LTa
0.50 0.50 0.50 C 966 3172 M
5981 0 V
stroke
LT0
0.50 0.50 0.50 C 966 3172 M
63 0 V
5918 0 R
-63 0 V
-6002 0 R
( 44.5477) Rshow
1.000 UL
LT0
0.50 0.50 0.50 C 1.000 UL
LTa
0.50 0.50 0.50 C 966 3218 M
5981 0 V
stroke
LT0
0.50 0.50 0.50 C 966 3218 M
63 0 V
5918 0 R
-63 0 V
-6002 0 R
( 45.2548) Rshow
1.000 UL
LT0
0.50 0.50 0.50 C 1.000 UL
LTa
0.50 0.50 0.50 C 966 3264 M
5981 0 V
stroke
LT0
0.50 0.50 0.50 C 966 3264 M
63 0 V
5918 0 R
-63 0 V
-6002 0 R
( 45.9619) Rshow
1.000 UL
LT0
0.50 0.50 0.50 C 1.000 UL
LTa
0.50 0.50 0.50 C 966 3310 M
5981 0 V
stroke
LT0
0.50 0.50 0.50 C 966 3310 M
63 0 V
5918 0 R
-63 0 V
-6002 0 R
( 46.669) Rshow
1.000 UL
LT0
0.50 0.50 0.50 C 1.000 UL
LTa
0.50 0.50 0.50 C 966 3356 M
5981 0 V
stroke
LT0
0.50 0.50 0.50 C 966 3356 M
63 0 V
5918 0 R
-63 0 V
-6002 0 R
( 47.3761) Rshow
1.000 UL
LT0
0.50 0.50 0.50 C 1.000 UL
LTa
0.50 0.50 0.50 C 966 3402 M
5981 0 V
stroke
LT0
0.50 0.50 0.50 C 966 3402 M
63 0 V
5918 0 R
-63 0 V
-6002 0 R
( 48.0832) Rshow
1.000 UL
LT0
0.50 0.50 0.50 C 1.000 UL
LTa
0.50 0.50 0.50 C 966 3448 M
5981 0 V
stroke
LT0
0.50 0.50 0.50 C 966 3448 M
63 0 V
5918 0 R
-63 0 V
-6002 0 R
( 48.7903) Rshow
1.000 UL
LT0
0.50 0.50 0.50 C 1.000 UL
LTa
0.50 0.50 0.50 C 966 3494 M
5981 0 V
stroke
LT0
0.50 0.50 0.50 C 966 3494 M
63 0 V
5918 0 R
-63 0 V
-6002 0 R
( 49.4974) Rshow
1.000 UL
LT0
0.50 0.50 0.50 C 1.000 UL
LTa
0.50 0.50 0.50 C 966 3540 M
5981 0 V
stroke
LT0
0.50 0.50 0.50 C 966 3540 M
63 0 V
5918 0 R
-63 0 V
-6002 0 R
( 50.2045) Rshow
1.000 UL
LT0
0.50 0.50 0.50 C 1.000 UL
LTa
0.50 0.50 0.50 C 966 3586 M
5981 0 V
stroke
LT0
0.50 0.50 0.50 C 966 3586 M
63 0 V
5918 0 R
-63 0 V
-6002 0 R
( 50.9116) Rshow
1.000 UL
LT0
0.50 0.50 0.50 C 1.000 UL
LTa
0.50 0.50 0.50 C 966 3631 M
5981 0 V
stroke
LT0
0.50 0.50 0.50 C 966 3631 M
63 0 V
5918 0 R
-63 0 V
-6002 0 R
( 51.6187) Rshow
1.000 UL
LT0
0.50 0.50 0.50 C 1.000 UL
LTa
0.50 0.50 0.50 C 966 3677 M
5981 0 V
stroke
LT0
0.50 0.50 0.50 C 966 3677 M
63 0 V
5918 0 R
-63 0 V
-6002 0 R
( 52.3258) Rshow
1.000 UL
LT0
0.50 0.50 0.50 C 1.000 UL
LTa
0.50 0.50 0.50 C 966 3723 M
5981 0 V
stroke
LT0
0.50 0.50 0.50 C 966 3723 M
63 0 V
5918 0 R
-63 0 V
-6002 0 R
( 53.033) Rshow
1.000 UL
LT0
0.50 0.50 0.50 C 1.000 UL
LTa
0.50 0.50 0.50 C 966 3769 M
5981 0 V
stroke
LT0
0.50 0.50 0.50 C 966 3769 M
63 0 V
5918 0 R
-63 0 V
-6002 0 R
( 53.7401) Rshow
1.000 UL
LT0
0.50 0.50 0.50 C 1.000 UL
LTa
0.50 0.50 0.50 C 966 3815 M
5981 0 V
stroke
LT0
0.50 0.50 0.50 C 966 3815 M
63 0 V
5918 0 R
-63 0 V
-6002 0 R
( 54.4472) Rshow
1.000 UL
LT0
0.50 0.50 0.50 C 1.000 UL
LTa
0.50 0.50 0.50 C 966 3861 M
5981 0 V
stroke
LT0
0.50 0.50 0.50 C 966 3861 M
63 0 V
5918 0 R
-63 0 V
-6002 0 R
( 55.1543) Rshow
1.000 UL
LT0
0.50 0.50 0.50 C 1.000 UL
LTa
0.50 0.50 0.50 C 966 3907 M
5981 0 V
stroke
LT0
0.50 0.50 0.50 C 966 3907 M
63 0 V
5918 0 R
-63 0 V
-6002 0 R
( 55.8614) Rshow
1.000 UL
LT0
0.50 0.50 0.50 C 1.000 UL
LTa
0.50 0.50 0.50 C 966 3953 M
5981 0 V
stroke
LT0
0.50 0.50 0.50 C 966 3953 M
63 0 V
5918 0 R
-63 0 V
-6002 0 R
( 56.5685) Rshow
1.000 UL
LT0
0.50 0.50 0.50 C 1.000 UL
LTa
0.50 0.50 0.50 C 966 3999 M
5981 0 V
stroke
LT0
0.50 0.50 0.50 C 966 3999 M
63 0 V
5918 0 R
-63 0 V
-6002 0 R
( 57.2756) Rshow
1.000 UL
LT0
0.50 0.50 0.50 C 1.000 UL
LTa
0.50 0.50 0.50 C 966 4045 M
5981 0 V
stroke
LT0
0.50 0.50 0.50 C 966 4045 M
63 0 V
5918 0 R
-63 0 V
-6002 0 R
( 57.9827) Rshow
1.000 UL
LT0
0.50 0.50 0.50 C 1.000 UL
LTa
0.50 0.50 0.50 C 966 4091 M
5981 0 V
stroke
LT0
0.50 0.50 0.50 C 966 4091 M
63 0 V
5918 0 R
-63 0 V
-6002 0 R
( 58.6898) Rshow
1.000 UL
LT0
0.50 0.50 0.50 C 1.000 UL
LTa
0.50 0.50 0.50 C 966 4136 M
5981 0 V
stroke
LT0
0.50 0.50 0.50 C 966 4136 M
63 0 V
5918 0 R
-63 0 V
-6002 0 R
( 59.3969) Rshow
1.000 UL
LT0
0.50 0.50 0.50 C 1.000 UL
LTa
0.50 0.50 0.50 C 966 4182 M
5981 0 V
stroke
LT0
0.50 0.50 0.50 C 966 4182 M
63 0 V
5918 0 R
-63 0 V
-6002 0 R
( 60.104) Rshow
1.000 UL
LT0
0.50 0.50 0.50 C 1.000 UL
LTa
0.50 0.50 0.50 C 966 4228 M
5981 0 V
stroke
LT0
0.50 0.50 0.50 C 966 4228 M
63 0 V
5918 0 R
-63 0 V
-6002 0 R
( 60.8111) Rshow
1.000 UL
LT0
0.50 0.50 0.50 C 1.000 UL
LTa
0.50 0.50 0.50 C 966 4274 M
5981 0 V
stroke
LT0
0.50 0.50 0.50 C 966 4274 M
63 0 V
5918 0 R
-63 0 V
-6002 0 R
( 61.5182) Rshow
1.000 UL
LT0
0.50 0.50 0.50 C 1.000 UL
LTa
0.50 0.50 0.50 C 966 4320 M
5981 0 V
stroke
LT0
0.50 0.50 0.50 C 966 4320 M
63 0 V
5918 0 R
-63 0 V
-6002 0 R
( 62.2253) Rshow
1.000 UL
LT0
0.50 0.50 0.50 C 1.000 UL
LTa
0.50 0.50 0.50 C 966 4366 M
5981 0 V
stroke
LT0
0.50 0.50 0.50 C 966 4366 M
63 0 V
5918 0 R
-63 0 V
-6002 0 R
( 62.9324) Rshow
1.000 UL
LT0
0.50 0.50 0.50 C 1.000 UL
LTa
0.50 0.50 0.50 C 966 4412 M
5981 0 V
stroke
LT0
0.50 0.50 0.50 C 966 4412 M
63 0 V
5918 0 R
-63 0 V
-6002 0 R
( 63.6395) Rshow
1.000 UL
LT0
0.50 0.50 0.50 C 1.000 UL
LTa
0.50 0.50 0.50 C 966 4458 M
5981 0 V
stroke
LT0
0.50 0.50 0.50 C 966 4458 M
63 0 V
5918 0 R
-63 0 V
-6002 0 R
( 64.3466) Rshow
1.000 UL
LT0
0.50 0.50 0.50 C 1.000 UL
LTa
0.50 0.50 0.50 C 966 4504 M
5981 0 V
stroke
LT0
0.50 0.50 0.50 C 966 4504 M
63 0 V
5918 0 R
-63 0 V
-6002 0 R
( 65.0538) Rshow
1.000 UL
LT0
0.50 0.50 0.50 C 1.000 UL
LTa
0.50 0.50 0.50 C 966 4550 M
5981 0 V
stroke
LT0
0.50 0.50 0.50 C 966 4550 M
63 0 V
5918 0 R
-63 0 V
-6002 0 R
( 65.7609) Rshow
1.000 UL
LT0
0.50 0.50 0.50 C 1.000 UL
LTa
0.50 0.50 0.50 C 966 4596 M
5981 0 V
stroke
LT0
0.50 0.50 0.50 C 966 4596 M
63 0 V
5918 0 R
-63 0 V
-6002 0 R
( 66.468) Rshow
1.000 UL
LT0
0.50 0.50 0.50 C 1.000 UL
LTa
0.50 0.50 0.50 C 966 4641 M
5981 0 V
stroke
LT0
0.50 0.50 0.50 C 966 4641 M
63 0 V
5918 0 R
-63 0 V
-6002 0 R
( 67.1751) Rshow
1.000 UL
LT0
0.50 0.50 0.50 C 1.000 UL
LTa
0.50 0.50 0.50 C 966 4687 M
5981 0 V
stroke
LT0
0.50 0.50 0.50 C 966 4687 M
63 0 V
5918 0 R
-63 0 V
-6002 0 R
( 67.8822) Rshow
1.000 UL
LT0
0.50 0.50 0.50 C 1.000 UL
LTa
0.50 0.50 0.50 C 966 4733 M
5981 0 V
stroke
LT0
0.50 0.50 0.50 C 966 4733 M
63 0 V
5918 0 R
-63 0 V
-6002 0 R
( 68.5893) Rshow
1.000 UL
LT0
0.50 0.50 0.50 C 1.000 UL
LTa
0.50 0.50 0.50 C 966 4779 M
5981 0 V
stroke
LT0
0.50 0.50 0.50 C 966 4779 M
63 0 V
5918 0 R
-63 0 V
-6002 0 R
( 69.2964) Rshow
1.000 UL
LT0
0.50 0.50 0.50 C 1.000 UL
LTa
0.50 0.50 0.50 C 966 4825 M
5981 0 V
stroke
LT0
0.50 0.50 0.50 C 966 4825 M
63 0 V
5918 0 R
-63 0 V
-6002 0 R
( 70.0035) Rshow
1.000 UL
LT0
0.50 0.50 0.50 C 1.000 UL
LTa
0.50 0.50 0.50 C 966 4871 M
5981 0 V
stroke
LT0
0.50 0.50 0.50 C 966 4871 M
63 0 V
5918 0 R
-63 0 V
-6002 0 R
( 70.7106) Rshow
1.000 UL
LT0
0.50 0.50 0.50 C 1.000 UL
LTa
0.50 0.50 0.50 C 966 280 M
0 4591 V
stroke
LT0
0.50 0.50 0.50 C 966 280 M
0 63 V
0 4528 R
0 -63 V
966 140 M
( 0) Cshow
1.000 UL
LT0
0.50 0.50 0.50 C 1.000 UL
LTa
0.50 0.50 0.50 C 1026 280 M
0 4591 V
stroke
LT0
0.50 0.50 0.50 C 1026 280 M
0 63 V
0 4528 R
0 -63 V
0 -4668 R
( 0.707106) Cshow
1.000 UL
LT0
0.50 0.50 0.50 C 1.000 UL
LTa
0.50 0.50 0.50 C 1086 280 M
0 4591 V
stroke
LT0
0.50 0.50 0.50 C 1086 280 M
0 63 V
0 4528 R
0 -63 V
0 -4668 R
( 1.41421) Cshow
1.000 UL
LT0
0.50 0.50 0.50 C 1.000 UL
LTa
0.50 0.50 0.50 C 1145 280 M
0 4591 V
stroke
LT0
0.50 0.50 0.50 C 1145 280 M
0 63 V
0 4528 R
0 -63 V
0 -4668 R
( 2.12132) Cshow
1.000 UL
LT0
0.50 0.50 0.50 C 1.000 UL
LTa
0.50 0.50 0.50 C 1205 280 M
0 4591 V
stroke
LT0
0.50 0.50 0.50 C 1205 280 M
0 63 V
0 4528 R
0 -63 V
0 -4668 R
( 2.82842) Cshow
1.000 UL
LT0
0.50 0.50 0.50 C 1.000 UL
LTa
0.50 0.50 0.50 C 1265 280 M
0 4591 V
stroke
LT0
0.50 0.50 0.50 C 1265 280 M
0 63 V
0 4528 R
0 -63 V
0 -4668 R
( 3.53553) Cshow
1.000 UL
LT0
0.50 0.50 0.50 C 1.000 UL
LTa
0.50 0.50 0.50 C 1325 280 M
0 4591 V
stroke
LT0
0.50 0.50 0.50 C 1325 280 M
0 63 V
0 4528 R
0 -63 V
0 -4668 R
( 4.24264) Cshow
1.000 UL
LT0
0.50 0.50 0.50 C 1.000 UL
LTa
0.50 0.50 0.50 C 1385 280 M
0 4591 V
stroke
LT0
0.50 0.50 0.50 C 1385 280 M
0 63 V
0 4528 R
0 -63 V
0 -4668 R
( 4.94974) Cshow
1.000 UL
LT0
0.50 0.50 0.50 C 1.000 UL
LTa
0.50 0.50 0.50 C 1444 280 M
0 4591 V
stroke
LT0
0.50 0.50 0.50 C 1444 280 M
0 63 V
0 4528 R
0 -63 V
0 -4668 R
( 5.65685) Cshow
1.000 UL
LT0
0.50 0.50 0.50 C 1.000 UL
LTa
0.50 0.50 0.50 C 1504 280 M
0 4591 V
stroke
LT0
0.50 0.50 0.50 C 1504 280 M
0 63 V
0 4528 R
0 -63 V
0 -4668 R
( 6.36395) Cshow
1.000 UL
LT0
0.50 0.50 0.50 C 1.000 UL
LTa
0.50 0.50 0.50 C 1564 280 M
0 4591 V
stroke
LT0
0.50 0.50 0.50 C 1564 280 M
0 63 V
0 4528 R
0 -63 V
0 -4668 R
( 7.07106) Cshow
1.000 UL
LT0
0.50 0.50 0.50 C 1.000 UL
LTa
0.50 0.50 0.50 C 1624 280 M
0 4591 V
stroke
LT0
0.50 0.50 0.50 C 1624 280 M
0 63 V
0 4528 R
0 -63 V
0 -4668 R
( 7.77817) Cshow
1.000 UL
LT0
0.50 0.50 0.50 C 1.000 UL
LTa
0.50 0.50 0.50 C 1684 280 M
0 4591 V
stroke
LT0
0.50 0.50 0.50 C 1684 280 M
0 63 V
0 4528 R
0 -63 V
0 -4668 R
( 8.48527) Cshow
1.000 UL
LT0
0.50 0.50 0.50 C 1.000 UL
LTa
0.50 0.50 0.50 C 1744 280 M
0 4591 V
stroke
LT0
0.50 0.50 0.50 C 1744 280 M
0 63 V
0 4528 R
0 -63 V
0 -4668 R
( 9.19238) Cshow
1.000 UL
LT0
0.50 0.50 0.50 C 1.000 UL
LTa
0.50 0.50 0.50 C 1803 280 M
0 4591 V
stroke
LT0
0.50 0.50 0.50 C 1803 280 M
0 63 V
0 4528 R
0 -63 V
0 -4668 R
( 9.89948) Cshow
1.000 UL
LT0
0.50 0.50 0.50 C 1.000 UL
LTa
0.50 0.50 0.50 C 1863 280 M
0 4591 V
stroke
LT0
0.50 0.50 0.50 C 1863 280 M
0 63 V
0 4528 R
0 -63 V
0 -4668 R
( 10.6066) Cshow
1.000 UL
LT0
0.50 0.50 0.50 C 1.000 UL
LTa
0.50 0.50 0.50 C 1923 280 M
0 4591 V
stroke
LT0
0.50 0.50 0.50 C 1923 280 M
0 63 V
0 4528 R
0 -63 V
0 -4668 R
( 11.3137) Cshow
1.000 UL
LT0
0.50 0.50 0.50 C 1.000 UL
LTa
0.50 0.50 0.50 C 1983 280 M
0 4591 V
stroke
LT0
0.50 0.50 0.50 C 1983 280 M
0 63 V
0 4528 R
0 -63 V
0 -4668 R
( 12.0208) Cshow
1.000 UL
LT0
0.50 0.50 0.50 C 1.000 UL
LTa
0.50 0.50 0.50 C 2043 280 M
0 4591 V
stroke
LT0
0.50 0.50 0.50 C 2043 280 M
0 63 V
0 4528 R
0 -63 V
0 -4668 R
( 12.7279) Cshow
1.000 UL
LT0
0.50 0.50 0.50 C 1.000 UL
LTa
0.50 0.50 0.50 C 2102 280 M
0 4591 V
stroke
LT0
0.50 0.50 0.50 C 2102 280 M
0 63 V
0 4528 R
0 -63 V
0 -4668 R
( 13.435) Cshow
1.000 UL
LT0
0.50 0.50 0.50 C 1.000 UL
LTa
0.50 0.50 0.50 C 2162 280 M
0 4591 V
stroke
LT0
0.50 0.50 0.50 C 2162 280 M
0 63 V
0 4528 R
0 -63 V
0 -4668 R
( 14.1421) Cshow
1.000 UL
LT0
0.50 0.50 0.50 C 1.000 UL
LTa
0.50 0.50 0.50 C 2222 280 M
0 4591 V
stroke
LT0
0.50 0.50 0.50 C 2222 280 M
0 63 V
0 4528 R
0 -63 V
0 -4668 R
( 14.8492) Cshow
1.000 UL
LT0
0.50 0.50 0.50 C 1.000 UL
LTa
0.50 0.50 0.50 C 2282 280 M
0 4591 V
stroke
LT0
0.50 0.50 0.50 C 2282 280 M
0 63 V
0 4528 R
0 -63 V
0 -4668 R
( 15.5563) Cshow
1.000 UL
LT0
0.50 0.50 0.50 C 1.000 UL
LTa
0.50 0.50 0.50 C 2342 280 M
0 4591 V
stroke
LT0
0.50 0.50 0.50 C 2342 280 M
0 63 V
0 4528 R
0 -63 V
0 -4668 R
( 16.2634) Cshow
1.000 UL
LT0
0.50 0.50 0.50 C 1.000 UL
LTa
0.50 0.50 0.50 C 2401 280 M
0 4591 V
stroke
LT0
0.50 0.50 0.50 C 2401 280 M
0 63 V
0 4528 R
0 -63 V
0 -4668 R
( 16.9705) Cshow
1.000 UL
LT0
0.50 0.50 0.50 C 1.000 UL
LTa
0.50 0.50 0.50 C 2461 280 M
0 4591 V
stroke
LT0
0.50 0.50 0.50 C 2461 280 M
0 63 V
0 4528 R
0 -63 V
0 -4668 R
( 17.6776) Cshow
1.000 UL
LT0
0.50 0.50 0.50 C 1.000 UL
LTa
0.50 0.50 0.50 C 2521 280 M
0 4591 V
stroke
LT0
0.50 0.50 0.50 C 2521 280 M
0 63 V
0 4528 R
0 -63 V
0 -4668 R
( 18.3848) Cshow
1.000 UL
LT0
0.50 0.50 0.50 C 1.000 UL
LTa
0.50 0.50 0.50 C 2581 280 M
0 4591 V
stroke
LT0
0.50 0.50 0.50 C 2581 280 M
0 63 V
0 4528 R
0 -63 V
0 -4668 R
( 19.0919) Cshow
1.000 UL
LT0
0.50 0.50 0.50 C 1.000 UL
LTa
0.50 0.50 0.50 C 2641 280 M
0 4591 V
stroke
LT0
0.50 0.50 0.50 C 2641 280 M
0 63 V
0 4528 R
0 -63 V
0 -4668 R
( 19.799) Cshow
1.000 UL
LT0
0.50 0.50 0.50 C 1.000 UL
LTa
0.50 0.50 0.50 C 2700 280 M
0 4591 V
stroke
LT0
0.50 0.50 0.50 C 2700 280 M
0 63 V
0 4528 R
0 -63 V
0 -4668 R
( 20.5061) Cshow
1.000 UL
LT0
0.50 0.50 0.50 C 1.000 UL
LTa
0.50 0.50 0.50 C 2760 280 M
0 4591 V
stroke
LT0
0.50 0.50 0.50 C 2760 280 M
0 63 V
0 4528 R
0 -63 V
0 -4668 R
( 21.2132) Cshow
1.000 UL
LT0
0.50 0.50 0.50 C 1.000 UL
LTa
0.50 0.50 0.50 C 2820 280 M
0 4591 V
stroke
LT0
0.50 0.50 0.50 C 2820 280 M
0 63 V
0 4528 R
0 -63 V
0 -4668 R
( 21.9203) Cshow
1.000 UL
LT0
0.50 0.50 0.50 C 1.000 UL
LTa
0.50 0.50 0.50 C 2880 280 M
0 4591 V
stroke
LT0
0.50 0.50 0.50 C 2880 280 M
0 63 V
0 4528 R
0 -63 V
0 -4668 R
( 22.6274) Cshow
1.000 UL
LT0
0.50 0.50 0.50 C 1.000 UL
LTa
0.50 0.50 0.50 C 2940 280 M
0 4591 V
stroke
LT0
0.50 0.50 0.50 C 2940 280 M
0 63 V
0 4528 R
0 -63 V
0 -4668 R
( 23.3345) Cshow
1.000 UL
LT0
0.50 0.50 0.50 C 1.000 UL
LTa
0.50 0.50 0.50 C 3000 280 M
0 4591 V
stroke
LT0
0.50 0.50 0.50 C 3000 280 M
0 63 V
0 4528 R
0 -63 V
0 -4668 R
( 24.0416) Cshow
1.000 UL
LT0
0.50 0.50 0.50 C 1.000 UL
LTa
0.50 0.50 0.50 C 3059 280 M
0 4591 V
stroke
LT0
0.50 0.50 0.50 C 3059 280 M
0 63 V
0 4528 R
0 -63 V
0 -4668 R
( 24.7487) Cshow
1.000 UL
LT0
0.50 0.50 0.50 C 1.000 UL
LTa
0.50 0.50 0.50 C 3119 280 M
0 4591 V
stroke
LT0
0.50 0.50 0.50 C 3119 280 M
0 63 V
0 4528 R
0 -63 V
0 -4668 R
( 25.4558) Cshow
1.000 UL
LT0
0.50 0.50 0.50 C 1.000 UL
LTa
0.50 0.50 0.50 C 3179 280 M
0 4591 V
stroke
LT0
0.50 0.50 0.50 C 3179 280 M
0 63 V
0 4528 R
0 -63 V
0 -4668 R
( 26.1629) Cshow
1.000 UL
LT0
0.50 0.50 0.50 C 1.000 UL
LTa
0.50 0.50 0.50 C 3239 280 M
0 4591 V
stroke
LT0
0.50 0.50 0.50 C 3239 280 M
0 63 V
0 4528 R
0 -63 V
0 -4668 R
( 26.87) Cshow
1.000 UL
LT0
0.50 0.50 0.50 C 1.000 UL
LTa
0.50 0.50 0.50 C 3299 280 M
0 4591 V
stroke
LT0
0.50 0.50 0.50 C 3299 280 M
0 63 V
0 4528 R
0 -63 V
0 -4668 R
( 27.5771) Cshow
1.000 UL
LT0
0.50 0.50 0.50 C 1.000 UL
LTa
0.50 0.50 0.50 C 3358 280 M
0 4591 V
stroke
LT0
0.50 0.50 0.50 C 3358 280 M
0 63 V
0 4528 R
0 -63 V
0 -4668 R
( 28.2842) Cshow
1.000 UL
LT0
0.50 0.50 0.50 C 1.000 UL
LTa
0.50 0.50 0.50 C 3418 280 M
0 4591 V
stroke
LT0
0.50 0.50 0.50 C 3418 280 M
0 63 V
0 4528 R
0 -63 V
0 -4668 R
( 28.9913) Cshow
1.000 UL
LT0
0.50 0.50 0.50 C 1.000 UL
LTa
0.50 0.50 0.50 C 3478 280 M
0 4591 V
stroke
LT0
0.50 0.50 0.50 C 3478 280 M
0 63 V
0 4528 R
0 -63 V
0 -4668 R
( 29.6985) Cshow
1.000 UL
LT0
0.50 0.50 0.50 C 1.000 UL
LTa
0.50 0.50 0.50 C 3538 280 M
0 4591 V
stroke
LT0
0.50 0.50 0.50 C 3538 280 M
0 63 V
0 4528 R
0 -63 V
0 -4668 R
( 30.4056) Cshow
1.000 UL
LT0
0.50 0.50 0.50 C 1.000 UL
LTa
0.50 0.50 0.50 C 3598 280 M
0 4591 V
stroke
LT0
0.50 0.50 0.50 C 3598 280 M
0 63 V
0 4528 R
0 -63 V
0 -4668 R
( 31.1127) Cshow
1.000 UL
LT0
0.50 0.50 0.50 C 1.000 UL
LTa
0.50 0.50 0.50 C 3657 280 M
0 4591 V
stroke
LT0
0.50 0.50 0.50 C 3657 280 M
0 63 V
0 4528 R
0 -63 V
0 -4668 R
( 31.8198) Cshow
1.000 UL
LT0
0.50 0.50 0.50 C 1.000 UL
LTa
0.50 0.50 0.50 C 3717 280 M
0 4591 V
stroke
LT0
0.50 0.50 0.50 C 3717 280 M
0 63 V
0 4528 R
0 -63 V
0 -4668 R
( 32.5269) Cshow
1.000 UL
LT0
0.50 0.50 0.50 C 1.000 UL
LTa
0.50 0.50 0.50 C 3777 280 M
0 4591 V
stroke
LT0
0.50 0.50 0.50 C 3777 280 M
0 63 V
0 4528 R
0 -63 V
0 -4668 R
( 33.234) Cshow
1.000 UL
LT0
0.50 0.50 0.50 C 1.000 UL
LTa
0.50 0.50 0.50 C 3837 280 M
0 4591 V
stroke
LT0
0.50 0.50 0.50 C 3837 280 M
0 63 V
0 4528 R
0 -63 V
0 -4668 R
( 33.9411) Cshow
1.000 UL
LT0
0.50 0.50 0.50 C 1.000 UL
LTa
0.50 0.50 0.50 C 3897 280 M
0 4591 V
stroke
LT0
0.50 0.50 0.50 C 3897 280 M
0 63 V
0 4528 R
0 -63 V
0 -4668 R
( 34.6482) Cshow
1.000 UL
LT0
0.50 0.50 0.50 C 1.000 UL
LTa
0.50 0.50 0.50 C 3957 280 M
0 4591 V
stroke
LT0
0.50 0.50 0.50 C 3957 280 M
0 63 V
0 4528 R
0 -63 V
0 -4668 R
( 35.3553) Cshow
1.000 UL
LT0
0.50 0.50 0.50 C 1.000 UL
LTa
0.50 0.50 0.50 C 4016 280 M
0 4591 V
stroke
LT0
0.50 0.50 0.50 C 4016 280 M
0 63 V
0 4528 R
0 -63 V
0 -4668 R
( 36.0624) Cshow
1.000 UL
LT0
0.50 0.50 0.50 C 1.000 UL
LTa
0.50 0.50 0.50 C 4076 280 M
0 4591 V
stroke
LT0
0.50 0.50 0.50 C 4076 280 M
0 63 V
0 4528 R
0 -63 V
0 -4668 R
( 36.7695) Cshow
1.000 UL
LT0
0.50 0.50 0.50 C 1.000 UL
LTa
0.50 0.50 0.50 C 4136 280 M
0 4591 V
stroke
LT0
0.50 0.50 0.50 C 4136 280 M
0 63 V
0 4528 R
0 -63 V
0 -4668 R
( 37.4766) Cshow
1.000 UL
LT0
0.50 0.50 0.50 C 1.000 UL
LTa
0.50 0.50 0.50 C 4196 280 M
0 4591 V
stroke
LT0
0.50 0.50 0.50 C 4196 280 M
0 63 V
0 4528 R
0 -63 V
0 -4668 R
( 38.1837) Cshow
1.000 UL
LT0
0.50 0.50 0.50 C 1.000 UL
LTa
0.50 0.50 0.50 C 4256 280 M
0 4591 V
stroke
LT0
0.50 0.50 0.50 C 4256 280 M
0 63 V
0 4528 R
0 -63 V
0 -4668 R
( 38.8908) Cshow
1.000 UL
LT0
0.50 0.50 0.50 C 1.000 UL
LTa
0.50 0.50 0.50 C 4315 280 M
0 4591 V
stroke
LT0
0.50 0.50 0.50 C 4315 280 M
0 63 V
0 4528 R
0 -63 V
0 -4668 R
( 39.5979) Cshow
1.000 UL
LT0
0.50 0.50 0.50 C 1.000 UL
LTa
0.50 0.50 0.50 C 4375 280 M
0 4591 V
stroke
LT0
0.50 0.50 0.50 C 4375 280 M
0 63 V
0 4528 R
0 -63 V
0 -4668 R
( 40.305) Cshow
1.000 UL
LT0
0.50 0.50 0.50 C 1.000 UL
LTa
0.50 0.50 0.50 C 4435 280 M
0 4591 V
stroke
LT0
0.50 0.50 0.50 C 4435 280 M
0 63 V
0 4528 R
0 -63 V
0 -4668 R
( 41.0121) Cshow
1.000 UL
LT0
0.50 0.50 0.50 C 1.000 UL
LTa
0.50 0.50 0.50 C 4495 280 M
0 4591 V
stroke
LT0
0.50 0.50 0.50 C 4495 280 M
0 63 V
0 4528 R
0 -63 V
0 -4668 R
( 41.7193) Cshow
1.000 UL
LT0
0.50 0.50 0.50 C 1.000 UL
LTa
0.50 0.50 0.50 C 4555 280 M
0 4591 V
stroke
LT0
0.50 0.50 0.50 C 4555 280 M
0 63 V
0 4528 R
0 -63 V
0 -4668 R
( 42.4264) Cshow
1.000 UL
LT0
0.50 0.50 0.50 C 1.000 UL
LTa
0.50 0.50 0.50 C 4614 280 M
0 4591 V
stroke
LT0
0.50 0.50 0.50 C 4614 280 M
0 63 V
0 4528 R
0 -63 V
0 -4668 R
( 43.1335) Cshow
1.000 UL
LT0
0.50 0.50 0.50 C 1.000 UL
LTa
0.50 0.50 0.50 C 4674 280 M
0 4591 V
stroke
LT0
0.50 0.50 0.50 C 4674 280 M
0 63 V
0 4528 R
0 -63 V
0 -4668 R
( 43.8406) Cshow
1.000 UL
LT0
0.50 0.50 0.50 C 1.000 UL
LTa
0.50 0.50 0.50 C 4734 280 M
0 4591 V
stroke
LT0
0.50 0.50 0.50 C 4734 280 M
0 63 V
0 4528 R
0 -63 V
0 -4668 R
( 44.5477) Cshow
1.000 UL
LT0
0.50 0.50 0.50 C 1.000 UL
LTa
0.50 0.50 0.50 C 4794 280 M
0 4591 V
stroke
LT0
0.50 0.50 0.50 C 4794 280 M
0 63 V
0 4528 R
0 -63 V
0 -4668 R
( 45.2548) Cshow
1.000 UL
LT0
0.50 0.50 0.50 C 1.000 UL
LTa
0.50 0.50 0.50 C 4854 280 M
0 4591 V
stroke
LT0
0.50 0.50 0.50 C 4854 280 M
0 63 V
0 4528 R
0 -63 V
0 -4668 R
( 45.9619) Cshow
1.000 UL
LT0
0.50 0.50 0.50 C 1.000 UL
LTa
0.50 0.50 0.50 C 4913 280 M
0 4591 V
stroke
LT0
0.50 0.50 0.50 C 4913 280 M
0 63 V
0 4528 R
0 -63 V
0 -4668 R
( 46.669) Cshow
1.000 UL
LT0
0.50 0.50 0.50 C 1.000 UL
LTa
0.50 0.50 0.50 C 4973 280 M
0 4591 V
stroke
LT0
0.50 0.50 0.50 C 4973 280 M
0 63 V
0 4528 R
0 -63 V
0 -4668 R
( 47.3761) Cshow
1.000 UL
LT0
0.50 0.50 0.50 C 1.000 UL
LTa
0.50 0.50 0.50 C 5033 280 M
0 4591 V
stroke
LT0
0.50 0.50 0.50 C 5033 280 M
0 63 V
0 4528 R
0 -63 V
0 -4668 R
( 48.0832) Cshow
1.000 UL
LT0
0.50 0.50 0.50 C 1.000 UL
LTa
0.50 0.50 0.50 C 5093 280 M
0 4591 V
stroke
LT0
0.50 0.50 0.50 C 5093 280 M
0 63 V
0 4528 R
0 -63 V
0 -4668 R
( 48.7903) Cshow
1.000 UL
LT0
0.50 0.50 0.50 C 1.000 UL
LTa
0.50 0.50 0.50 C 5153 280 M
0 4591 V
stroke
LT0
0.50 0.50 0.50 C 5153 280 M
0 63 V
0 4528 R
0 -63 V
0 -4668 R
( 49.4974) Cshow
1.000 UL
LT0
0.50 0.50 0.50 C 1.000 UL
LTa
0.50 0.50 0.50 C 5213 280 M
0 4591 V
stroke
LT0
0.50 0.50 0.50 C 5213 280 M
0 63 V
0 4528 R
0 -63 V
0 -4668 R
( 50.2045) Cshow
1.000 UL
LT0
0.50 0.50 0.50 C 1.000 UL
LTa
0.50 0.50 0.50 C 5272 280 M
0 4591 V
stroke
LT0
0.50 0.50 0.50 C 5272 280 M
0 63 V
0 4528 R
0 -63 V
0 -4668 R
( 50.9116) Cshow
1.000 UL
LT0
0.50 0.50 0.50 C 1.000 UL
LTa
0.50 0.50 0.50 C 5332 280 M
0 4591 V
stroke
LT0
0.50 0.50 0.50 C 5332 280 M
0 63 V
0 4528 R
0 -63 V
0 -4668 R
( 51.6187) Cshow
1.000 UL
LT0
0.50 0.50 0.50 C 1.000 UL
LTa
0.50 0.50 0.50 C 5392 280 M
0 4591 V
stroke
LT0
0.50 0.50 0.50 C 5392 280 M
0 63 V
0 4528 R
0 -63 V
0 -4668 R
( 52.3258) Cshow
1.000 UL
LT0
0.50 0.50 0.50 C 1.000 UL
LTa
0.50 0.50 0.50 C 5452 280 M
0 4591 V
stroke
LT0
0.50 0.50 0.50 C 5452 280 M
0 63 V
0 4528 R
0 -63 V
0 -4668 R
( 53.033) Cshow
1.000 UL
LT0
0.50 0.50 0.50 C 1.000 UL
LTa
0.50 0.50 0.50 C 5512 280 M
0 4591 V
stroke
LT0
0.50 0.50 0.50 C 5512 280 M
0 63 V
0 4528 R
0 -63 V
0 -4668 R
( 53.7401) Cshow
1.000 UL
LT0
0.50 0.50 0.50 C 1.000 UL
LTa
0.50 0.50 0.50 C 5571 280 M
0 4591 V
stroke
LT0
0.50 0.50 0.50 C 5571 280 M
0 63 V
0 4528 R
0 -63 V
0 -4668 R
( 54.4472) Cshow
1.000 UL
LT0
0.50 0.50 0.50 C 1.000 UL
LTa
0.50 0.50 0.50 C 5631 280 M
0 4591 V
stroke
LT0
0.50 0.50 0.50 C 5631 280 M
0 63 V
0 4528 R
0 -63 V
0 -4668 R
( 55.1543) Cshow
1.000 UL
LT0
0.50 0.50 0.50 C 1.000 UL
LTa
0.50 0.50 0.50 C 5691 280 M
0 4591 V
stroke
LT0
0.50 0.50 0.50 C 5691 280 M
0 63 V
0 4528 R
0 -63 V
0 -4668 R
( 55.8614) Cshow
1.000 UL
LT0
0.50 0.50 0.50 C 1.000 UL
LTa
0.50 0.50 0.50 C 5751 280 M
0 4591 V
stroke
LT0
0.50 0.50 0.50 C 5751 280 M
0 63 V
0 4528 R
0 -63 V
0 -4668 R
( 56.5685) Cshow
1.000 UL
LT0
0.50 0.50 0.50 C 1.000 UL
LTa
0.50 0.50 0.50 C 5811 280 M
0 4591 V
stroke
LT0
0.50 0.50 0.50 C 5811 280 M
0 63 V
0 4528 R
0 -63 V
0 -4668 R
( 57.2756) Cshow
1.000 UL
LT0
0.50 0.50 0.50 C 1.000 UL
LTa
0.50 0.50 0.50 C 5870 280 M
0 4591 V
stroke
LT0
0.50 0.50 0.50 C 5870 280 M
0 63 V
0 4528 R
0 -63 V
0 -4668 R
( 57.9827) Cshow
1.000 UL
LT0
0.50 0.50 0.50 C 1.000 UL
LTa
0.50 0.50 0.50 C 5930 280 M
0 4591 V
stroke
LT0
0.50 0.50 0.50 C 5930 280 M
0 63 V
0 4528 R
0 -63 V
0 -4668 R
( 58.6898) Cshow
1.000 UL
LT0
0.50 0.50 0.50 C 1.000 UL
LTa
0.50 0.50 0.50 C 5990 280 M
0 4591 V
stroke
LT0
0.50 0.50 0.50 C 5990 280 M
0 63 V
0 4528 R
0 -63 V
0 -4668 R
( 59.3969) Cshow
1.000 UL
LT0
0.50 0.50 0.50 C 1.000 UL
LTa
0.50 0.50 0.50 C 6050 280 M
0 4591 V
stroke
LT0
0.50 0.50 0.50 C 6050 280 M
0 63 V
0 4528 R
0 -63 V
0 -4668 R
( 60.104) Cshow
1.000 UL
LT0
0.50 0.50 0.50 C 1.000 UL
LTa
0.50 0.50 0.50 C 6110 280 M
0 4591 V
stroke
LT0
0.50 0.50 0.50 C 6110 280 M
0 63 V
0 4528 R
0 -63 V
0 -4668 R
( 60.8111) Cshow
1.000 UL
LT0
0.50 0.50 0.50 C 1.000 UL
LTa
0.50 0.50 0.50 C 6169 280 M
0 4591 V
stroke
LT0
0.50 0.50 0.50 C 6169 280 M
0 63 V
0 4528 R
0 -63 V
0 -4668 R
( 61.5182) Cshow
1.000 UL
LT0
0.50 0.50 0.50 C 1.000 UL
LTa
0.50 0.50 0.50 C 6229 280 M
0 4591 V
stroke
LT0
0.50 0.50 0.50 C 6229 280 M
0 63 V
0 4528 R
0 -63 V
0 -4668 R
( 62.2253) Cshow
1.000 UL
LT0
0.50 0.50 0.50 C 1.000 UL
LTa
0.50 0.50 0.50 C 6289 280 M
0 4591 V
stroke
LT0
0.50 0.50 0.50 C 6289 280 M
0 63 V
0 4528 R
0 -63 V
0 -4668 R
( 62.9324) Cshow
1.000 UL
LT0
0.50 0.50 0.50 C 1.000 UL
LTa
0.50 0.50 0.50 C 6349 280 M
0 4591 V
stroke
LT0
0.50 0.50 0.50 C 6349 280 M
0 63 V
0 4528 R
0 -63 V
0 -4668 R
( 63.6395) Cshow
1.000 UL
LT0
0.50 0.50 0.50 C 1.000 UL
LTa
0.50 0.50 0.50 C 6409 280 M
0 4591 V
stroke
LT0
0.50 0.50 0.50 C 6409 280 M
0 63 V
0 4528 R
0 -63 V
0 -4668 R
( 64.3466) Cshow
1.000 UL
LT0
0.50 0.50 0.50 C 1.000 UL
LTa
0.50 0.50 0.50 C 6469 280 M
0 4591 V
stroke
LT0
0.50 0.50 0.50 C 6469 280 M
0 63 V
0 4528 R
0 -63 V
0 -4668 R
( 65.0538) Cshow
1.000 UL
LT0
0.50 0.50 0.50 C 1.000 UL
LTa
0.50 0.50 0.50 C 6528 280 M
0 4591 V
stroke
LT0
0.50 0.50 0.50 C 6528 280 M
0 63 V
0 4528 R
0 -63 V
0 -4668 R
( 65.7609) Cshow
1.000 UL
LT0
0.50 0.50 0.50 C 1.000 UL
LTa
0.50 0.50 0.50 C 6588 280 M
0 4591 V
stroke
LT0
0.50 0.50 0.50 C 6588 280 M
0 63 V
0 4528 R
0 -63 V
0 -4668 R
( 66.468) Cshow
1.000 UL
LT0
0.50 0.50 0.50 C 1.000 UL
LTa
0.50 0.50 0.50 C 6648 280 M
0 4591 V
stroke
LT0
0.50 0.50 0.50 C 6648 280 M
0 63 V
0 4528 R
0 -63 V
0 -4668 R
( 67.1751) Cshow
1.000 UL
LT0
0.50 0.50 0.50 C 1.000 UL
LTa
0.50 0.50 0.50 C 6708 280 M
0 4591 V
stroke
LT0
0.50 0.50 0.50 C 6708 280 M
0 63 V
0 4528 R
0 -63 V
0 -4668 R
( 67.8822) Cshow
1.000 UL
LT0
0.50 0.50 0.50 C 1.000 UL
LTa
0.50 0.50 0.50 C 6768 280 M
0 4591 V
stroke
LT0
0.50 0.50 0.50 C 6768 280 M
0 63 V
0 4528 R
0 -63 V
0 -4668 R
( 68.5893) Cshow
1.000 UL
LT0
0.50 0.50 0.50 C 1.000 UL
LTa
0.50 0.50 0.50 C 6827 280 M
0 4591 V
stroke
LT0
0.50 0.50 0.50 C 6827 280 M
0 63 V
0 4528 R
0 -63 V
0 -4668 R
( 69.2964) Cshow
1.000 UL
LT0
0.50 0.50 0.50 C 1.000 UL
LTa
0.50 0.50 0.50 C 6887 280 M
0 4591 V
stroke
LT0
0.50 0.50 0.50 C 6887 280 M
0 63 V
0 4528 R
0 -63 V
0 -4668 R
( 70.0035) Cshow
1.000 UL
LT0
0.50 0.50 0.50 C 1.000 UL
LTa
0.50 0.50 0.50 C 6947 280 M
0 4591 V
stroke
LT0
0.50 0.50 0.50 C 6947 280 M
0 63 V
0 4528 R
0 -63 V
0 -4668 R
( 70.7106) Cshow
1.000 UL
LT0
0.50 0.50 0.50 C 1.000 UL
LT0
0.50 0.50 0.50 C 966 4871 M
966 280 L
5981 0 V
0 4591 R
-5981 0 R
1.000 UP
stroke
LT0
0.50 0.50 0.50 C % Begin plot #1
1.500 UP
2.000 UL
LT0
0.00 0.00 1.00 C /Helvetica findfont 140 scalefont setfont
/vshift -46 def
966 372 M
60 0 V
60 0 V
0 46 R
59 0 V
0 46 R
60 0 V
0 46 R
60 0 V
60 0 V
0 45 R
60 0 V
59 0 V
60 0 V
60 0 V
0 138 R
60 0 V
60 0 V
60 0 V
59 0 V
0 46 R
60 0 V
60 0 V
60 0 V
60 0 V
59 0 V
60 0 V
60 0 V
60 0 V
60 0 V
59 0 V
60 0 V
60 0 V
60 0 V
0 46 R
60 0 V
59 0 V
60 0 V
0 46 R
60 0 V
60 0 V
0 46 R
60 0 V
0 92 R
60 0 V
59 0 V
60 0 V
60 0 V
60 0 V
60 0 V
59 0 V
0 46 R
60 0 V
0 45 R
60 0 V
0 46 R
60 0 V
60 0 V
59 0 V
0 138 R
60 0 V
0 92 R
60 0 V
0 46 R
60 0 V
0 413 R
60 0 V
60 0 V
0 46 R
59 0 V
60 0 V
60 0 V
60 0 V
60 0 V
59 0 V
60 0 V
60 0 V
60 0 V
0 184 R
60 0 V
59 0 V
0 183 R
60 0 V
60 0 V
0 46 R
60 0 V
0 46 R
60 0 V
0 92 R
59 0 V
0 46 R
60 0 V
0 138 R
60 0 V
0 91 R
60 0 V
60 0 V
60 0 V
59 0 V
60 0 V
0 46 R
60 0 V
60 0 V
60 0 V
59 0 V
stroke 5571 2713 M
60 0 V
60 0 V
60 0 V
0 138 R
60 0 V
0 46 R
59 0 V
0 46 R
60 0 V
60 0 V
60 0 V
60 0 V
59 0 V
0 92 R
60 0 V
0 46 R
60 0 V
0 183 R
60 0 V
0 643 R
60 0 V
60 0 V
59 0 V
0 92 R
60 0 V
0 46 R
60 0 V
60 0 V
60 0 V
0 459 R
59 0 V
60 0 V
1086 372 M
0 46 V
59 0 R
0 46 V
60 0 R
0 46 V
120 0 R
0 45 V
239 0 R
0 46 V
0 46 V
0 46 V
239 0 R
0 46 V
778 0 R
0 46 V
179 0 R
0 46 V
120 0 R
0 46 V
60 0 R
0 46 V
0 46 V
418 0 R
0 46 V
60 0 R
0 45 V
60 0 R
0 46 V
179 0 R
0 46 V
0 46 V
0 46 V
60 0 R
0 46 V
0 46 V
60 0 R
0 46 V
60 0 R
0 46 V
0 46 V
0 46 V
0 45 V
0 46 V
0 46 V
0 46 V
0 46 V
0 46 V
120 0 R
0 46 V
538 0 R
0 46 V
0 46 V
0 46 V
0 46 V
119 0 R
0 45 V
0 46 V
0 46 V
0 46 V
120 0 R
0 46 V
60 0 R
0 46 V
60 0 R
0 46 V
0 46 V
59 0 R
0 46 V
60 0 R
0 46 V
0 46 V
stroke 4973 2530 M
0 46 V
60 0 R
0 45 V
0 46 V
299 0 R
0 46 V
419 0 R
0 46 V
0 46 V
0 46 V
60 0 R
0 46 V
59 0 R
0 46 V
299 0 R
0 46 V
0 46 V
60 0 R
0 46 V
60 0 R
0 45 V
0 46 V
0 46 V
0 46 V
60 0 R
0 46 V
0 46 V
0 46 V
0 46 V
0 46 V
0 46 V
0 46 V
0 45 V
0 46 V
0 46 V
0 46 V
0 46 V
0 46 V
0 46 V
179 0 R
0 46 V
0 46 V
60 0 R
0 46 V
180 0 R
0 46 V
0 45 V
0 46 V
0 46 V
0 46 V
0 46 V
0 46 V
0 46 V
0 46 V
0 46 V
966 280 M
0 46 V
6887 4779 M
0 46 V
966 326 M
0 46 V
6887 4504 M
0 46 V
0 46 V
0 45 V
0 46 V
0 46 V
0 46 V
966 372 CircleF
1026 372 CircleF
1026 372 CircleF
1086 372 CircleF
1086 418 CircleF
1145 418 CircleF
1145 464 CircleF
1205 464 CircleF
1205 510 CircleF
1265 510 CircleF
1265 510 CircleF
1325 510 CircleF
1325 555 CircleF
1385 555 CircleF
1385 555 CircleF
1444 555 CircleF
1444 555 CircleF
1504 555 CircleF
1504 555 CircleF
1564 555 CircleF
1564 693 CircleF
1624 693 CircleF
1624 693 CircleF
1684 693 CircleF
1684 693 CircleF
1744 693 CircleF
1744 693 CircleF
1803 693 CircleF
1803 739 CircleF
1863 739 CircleF
1863 739 CircleF
1923 739 CircleF
1923 739 CircleF
1983 739 CircleF
1983 739 CircleF
2043 739 CircleF
2043 739 CircleF
2102 739 CircleF
2102 739 CircleF
2162 739 CircleF
2162 739 CircleF
2222 739 CircleF
2222 739 CircleF
2282 739 CircleF
2282 739 CircleF
2342 739 CircleF
2342 739 CircleF
2401 739 CircleF
2401 739 CircleF
2461 739 CircleF
2461 739 CircleF
2521 739 CircleF
2521 739 CircleF
2581 739 CircleF
2581 785 CircleF
2641 785 CircleF
2641 785 CircleF
2700 785 CircleF
2700 785 CircleF
2760 785 CircleF
2760 831 CircleF
2820 831 CircleF
2820 831 CircleF
2880 831 CircleF
2880 877 CircleF
2940 877 CircleF
2940 969 CircleF
3000 969 CircleF
3000 969 CircleF
3059 969 CircleF
3059 969 CircleF
3119 969 CircleF
3119 969 CircleF
3179 969 CircleF
3179 969 CircleF
3239 969 CircleF
3239 969 CircleF
3299 969 CircleF
3299 969 CircleF
3358 969 CircleF
3358 1015 CircleF
3418 1015 CircleF
3418 1060 CircleF
3478 1060 CircleF
3478 1106 CircleF
3538 1106 CircleF
3538 1106 CircleF
3598 1106 CircleF
3598 1106 CircleF
3657 1106 CircleF
3657 1244 CircleF
3717 1244 CircleF
3717 1336 CircleF
3777 1336 CircleF
3777 1382 CircleF
3837 1382 CircleF
3837 1795 CircleF
3897 1795 CircleF
3897 1795 CircleF
3957 1795 CircleF
3957 1841 CircleF
4016 1841 CircleF
4016 1841 CircleF
4076 1841 CircleF
4076 1841 CircleF
4136 1841 CircleF
4136 1841 CircleF
4196 1841 CircleF
4196 1841 CircleF
4256 1841 CircleF
4256 1841 CircleF
4315 1841 CircleF
4315 1841 CircleF
4375 1841 CircleF
4375 1841 CircleF
4435 1841 CircleF
4435 1841 CircleF
4495 1841 CircleF
4495 2025 CircleF
4555 2025 CircleF
4555 2025 CircleF
4614 2025 CircleF
4614 2208 CircleF
4674 2208 CircleF
4674 2208 CircleF
4734 2208 CircleF
4734 2254 CircleF
4794 2254 CircleF
4794 2300 CircleF
4854 2300 CircleF
4854 2392 CircleF
4913 2392 CircleF
4913 2438 CircleF
4973 2438 CircleF
4973 2576 CircleF
5033 2576 CircleF
5033 2667 CircleF
5093 2667 CircleF
5093 2667 CircleF
5153 2667 CircleF
5153 2667 CircleF
5213 2667 CircleF
5213 2667 CircleF
5272 2667 CircleF
5272 2667 CircleF
5332 2667 CircleF
5332 2713 CircleF
5392 2713 CircleF
5392 2713 CircleF
5452 2713 CircleF
5452 2713 CircleF
5512 2713 CircleF
5512 2713 CircleF
5571 2713 CircleF
5571 2713 CircleF
5631 2713 CircleF
5631 2713 CircleF
5691 2713 CircleF
5691 2713 CircleF
5751 2713 CircleF
5751 2851 CircleF
5811 2851 CircleF
5811 2897 CircleF
5870 2897 CircleF
5870 2943 CircleF
5930 2943 CircleF
5930 2943 CircleF
5990 2943 CircleF
5990 2943 CircleF
6050 2943 CircleF
6050 2943 CircleF
6110 2943 CircleF
6110 2943 CircleF
6169 2943 CircleF
6169 3035 CircleF
6229 3035 CircleF
6229 3081 CircleF
6289 3081 CircleF
6289 3264 CircleF
6349 3264 CircleF
6349 3907 CircleF
6409 3907 CircleF
6409 3907 CircleF
6469 3907 CircleF
6469 3907 CircleF
6528 3907 CircleF
6528 3999 CircleF
6588 3999 CircleF
6588 4045 CircleF
6648 4045 CircleF
6648 4045 CircleF
6708 4045 CircleF
6708 4045 CircleF
6768 4045 CircleF
6768 4504 CircleF
6827 4504 CircleF
6827 4504 CircleF
6887 4504 CircleF
1086 372 CircleF
1086 418 CircleF
1145 418 CircleF
1145 464 CircleF
1205 464 CircleF
1205 510 CircleF
1325 510 CircleF
1325 555 CircleF
1564 555 CircleF
1564 601 CircleF
1564 601 CircleF
1564 647 CircleF
1564 647 CircleF
1564 693 CircleF
1803 693 CircleF
1803 739 CircleF
2581 739 CircleF
2581 785 CircleF
2760 785 CircleF
2760 831 CircleF
2880 831 CircleF
2880 877 CircleF
2940 877 CircleF
2940 923 CircleF
2940 923 CircleF
2940 969 CircleF
3358 969 CircleF
3358 1015 CircleF
3418 1015 CircleF
3418 1060 CircleF
3478 1060 CircleF
3478 1106 CircleF
3657 1106 CircleF
3657 1152 CircleF
3657 1152 CircleF
3657 1198 CircleF
3657 1198 CircleF
3657 1244 CircleF
3717 1244 CircleF
3717 1290 CircleF
3717 1290 CircleF
3717 1336 CircleF
3777 1336 CircleF
3777 1382 CircleF
3837 1382 CircleF
3837 1428 CircleF
3837 1428 CircleF
3837 1474 CircleF
3837 1474 CircleF
3837 1520 CircleF
3837 1520 CircleF
3837 1565 CircleF
3837 1565 CircleF
3837 1611 CircleF
3837 1611 CircleF
3837 1657 CircleF
3837 1657 CircleF
3837 1703 CircleF
3837 1703 CircleF
3837 1749 CircleF
3837 1749 CircleF
3837 1795 CircleF
3957 1795 CircleF
3957 1841 CircleF
4495 1841 CircleF
4495 1887 CircleF
4495 1887 CircleF
4495 1933 CircleF
4495 1933 CircleF
4495 1979 CircleF
4495 1979 CircleF
4495 2025 CircleF
4614 2025 CircleF
4614 2070 CircleF
4614 2070 CircleF
4614 2116 CircleF
4614 2116 CircleF
4614 2162 CircleF
4614 2162 CircleF
4614 2208 CircleF
4734 2208 CircleF
4734 2254 CircleF
4794 2254 CircleF
4794 2300 CircleF
4854 2300 CircleF
4854 2346 CircleF
4854 2346 CircleF
4854 2392 CircleF
4913 2392 CircleF
4913 2438 CircleF
4973 2438 CircleF
4973 2484 CircleF
4973 2484 CircleF
4973 2530 CircleF
4973 2530 CircleF
4973 2576 CircleF
5033 2576 CircleF
5033 2621 CircleF
5033 2621 CircleF
5033 2667 CircleF
5332 2667 CircleF
5332 2713 CircleF
5751 2713 CircleF
5751 2759 CircleF
5751 2759 CircleF
5751 2805 CircleF
5751 2805 CircleF
5751 2851 CircleF
5811 2851 CircleF
5811 2897 CircleF
5870 2897 CircleF
5870 2943 CircleF
6169 2943 CircleF
6169 2989 CircleF
6169 2989 CircleF
6169 3035 CircleF
6229 3035 CircleF
6229 3081 CircleF
6289 3081 CircleF
6289 3126 CircleF
6289 3126 CircleF
6289 3172 CircleF
6289 3172 CircleF
6289 3218 CircleF
6289 3218 CircleF
6289 3264 CircleF
6349 3264 CircleF
6349 3310 CircleF
6349 3310 CircleF
6349 3356 CircleF
6349 3356 CircleF
6349 3402 CircleF
6349 3402 CircleF
6349 3448 CircleF
6349 3448 CircleF
6349 3494 CircleF
6349 3494 CircleF
6349 3540 CircleF
6349 3540 CircleF
6349 3586 CircleF
6349 3586 CircleF
6349 3631 CircleF
6349 3631 CircleF
6349 3677 CircleF
6349 3677 CircleF
6349 3723 CircleF
6349 3723 CircleF
6349 3769 CircleF
6349 3769 CircleF
6349 3815 CircleF
6349 3815 CircleF
6349 3861 CircleF
6349 3861 CircleF
6349 3907 CircleF
6528 3907 CircleF
6528 3953 CircleF
6528 3953 CircleF
6528 3999 CircleF
6588 3999 CircleF
6588 4045 CircleF
6768 4045 CircleF
6768 4091 CircleF
6768 4091 CircleF
6768 4136 CircleF
6768 4136 CircleF
6768 4182 CircleF
6768 4182 CircleF
6768 4228 CircleF
6768 4228 CircleF
6768 4274 CircleF
6768 4274 CircleF
6768 4320 CircleF
6768 4320 CircleF
6768 4366 CircleF
6768 4366 CircleF
6768 4412 CircleF
6768 4412 CircleF
6768 4458 CircleF
6768 4458 CircleF
6768 4504 CircleF
966 280 CircleF
966 326 CircleF
6887 4779 CircleF
6887 4825 CircleF
966 326 CircleF
966 372 CircleF
6887 4504 CircleF
6887 4550 CircleF
6887 4550 CircleF
6887 4596 CircleF
6887 4596 CircleF
6887 4641 CircleF
6887 4641 CircleF
6887 4687 CircleF
6887 4687 CircleF
6887 4733 CircleF
6887 4733 CircleF
6887 4779 CircleF
% End plot #1
% Begin plot #2
1.500 UP
2.000 UL
LT0
1.00 0.55 0.00 C /Helvetica findfont 140 scalefont setfont
6823 2640 M
60 45 V
2249 1809 M
60 46 V
4071 4399 M
60 46 V
2303 54 R
59 45 V
5130 3602 M
60 46 V
361 197 R
59 46 V
6098 1508 M
60 46 V
588 2604 R
60 46 V
1126 2367 M
59 45 V
2056 195 R
60 46 V
2720 1440 M
60 45 V
893 2425 R
60 46 V
5721 3518 M
60 46 V
-898 8 R
59 45 V
6224 456 M
60 46 V
357 3315 R
60 46 V
4732 1681 M
60 46 V
2460 4559 M
60 46 V
2897 3338 M
60 46 V
5381 2996 M
59 46 V
2329 2711 M
60 46 V
6677 2335 M
60 46 V
5029 2579 M
60 46 V
1405 325 R
60 46 V
3095 4013 M
60 46 V
3807 2388 M
60 46 V
5202 3514 M
60 46 V
-649 761 R
60 45 V
4798 3174 M
60 46 V
3395 1837 M
60 46 V
3334 1247 M
60 46 V
5184 724 M
60 46 V
929 667 R
60 45 V
2725 2797 M
60 46 V
-829 411 R
60 46 V
-949 169 R
60 46 V
2588 2736 M
60 45 V
5732 3964 M
60 46 V
3807 1468 M
60 46 V
3353 1379 M
60 46 V
6531 977 M
60 46 V
4694 3346 M
60 46 V
2924 939 M
59 45 V
979 3959 M
60 46 V
5052 303 R
60 46 V
1604 2884 M
60 46 V
5626 1285 M
60 45 V
4963 2433 M
60 46 V
3685 3612 M
60 46 V
1178 2226 M
60 46 V
5376 4046 M
60 46 V
2537 2094 M
60 46 V
4576 1013 M
60 46 V
stroke 4636 1059 M
2561 1887 M
60 45 V
130 1794 R
60 46 V
1284 882 M
60 46 V
4970 4309 M
59 46 V
2396 4124 M
60 46 V
968 -136 R
60 46 V
1254 4466 M
60 46 V
4185 3385 M
60 46 V
2062 350 R
59 46 V
4665 856 M
60 46 V
-621 569 R
60 46 V
2280 4494 M
60 46 V
4608 680 M
59 45 V
4264 1911 M
59 46 V
1954 4150 M
59 46 V
3062 1252 M
60 46 V
6422 2337 M
59 46 V
4620 453 M
60 46 V
128 490 R
60 45 V
1708 230 R
60 45 V
1370 575 M
60 46 V
4344 4176 M
60 46 V
2492 2173 M
59 46 V
6763 4491 M
60 46 V
2203 730 M
60 45 V
1806 4282 M
60 46 V
5817 1623 M
60 46 V
724 19 R
60 46 V
5752 3437 M
60 46 V
2930 1860 M
59 46 V
1554 571 M
60 46 V
6612 2559 M
60 45 V
5161 1734 M
60 46 V
2423 3267 M
59 45 V
192 106 R
60 46 V
2379 562 R
60 46 V
2851 3818 M
60 46 V
1223 2898 M
60 46 V
1343 167 R
59 46 V
5120 2936 M
60 46 V
1454 802 R
60 46 V
1061 2958 M
60 46 V
5174 231 R
60 46 V
4394 1511 M
60 46 V
6487 550 M
60 46 V
3993 2079 M
60 46 V
1949 721 R
60 45 V
-482 293 R
60 46 V
1900 978 M
60 46 V
1054 3315 M
60 46 V
4601 1610 M
60 46 V
3290 450 M
60 46 V
stroke 3350 496 M
2715 995 R
60 46 V
6006 4577 M
60 46 V
4474 2657 M
60 46 V
1294 307 R
60 46 V
568 1599 R
60 46 V
3311 459 M
60 46 V
-986 845 R
60 46 V
-42 3236 R
60 46 V
5671 4261 M
60 45 V
4010 553 M
60 45 V
1755 661 M
60 46 V
327 1642 R
60 46 V
2797 201 R
60 46 V
3527 892 M
60 46 V
1342 921 R
60 46 V
618 2142 R
60 45 V
1194 3170 M
60 46 V
2329 533 M
60 45 V
393 704 R
60 46 V
3975 2958 M
60 46 V
247 -440 R
60 46 V
1843 4386 M
60 46 V
537 -566 R
60 46 V
2362 258 R
60 46 V
1321 4186 M
60 46 V
3658 3361 M
59 46 V
2255 373 M
60 46 V
4933 1934 M
60 46 V
2919 1097 M
60 46 V
6521 575 M
60 46 V
4130 3858 M
60 46 V
1258 3757 M
60 46 V
5476 653 M
60 46 V
2317 3558 M
59 46 V
5381 1475 M
60 46 V
4318 2564 M
60 45 V
3120 3221 M
60 46 V
2651 718 R
59 46 V
1203 1875 M
60 46 V
1161 655 R
60 46 V
5648 987 M
60 46 V
4840 2989 M
60 46 V
-581 596 R
60 46 V
2511 4655 M
59 46 V
3865 574 M
60 46 V
918 3027 R
60 46 V
832 -543 R
60 45 V
3101 3907 M
60 46 V
682 -906 R
59 46 V
6102 2328 M
60 46 V
6021 1135 M
60 46 V
5357 4621 M
60 46 V
stroke 5417 4667 M
1459 2054 M
59 46 V
3416 1042 M
60 46 V
2869 3610 M
59 46 V
5242 3414 M
60 46 V
6558 1095 M
60 46 V
2351 2833 M
60 46 V
1316 1332 M
60 46 V
1922 716 M
60 46 V
383 3517 R
60 45 V
5003 2400 M
60 46 V
2849 820 M
60 46 V
1592 1456 M
60 46 V
1457 3682 M
60 46 V
4661 3536 M
59 46 V
5454 412 M
59 46 V
1806 2481 M
59 46 V
407 1238 R
60 46 V
6605 2117 M
59 46 V
4750 4114 M
60 46 V
1649 24 R
60 46 V
2590 3496 M
60 46 V
1565 2477 M
60 46 V
6663 1056 M
60 46 V
2472 4735 M
60 46 V
3571 3741 M
60 46 V
3149 239 R
59 46 V
2976 966 M
60 45 V
6724 4048 M
60 46 V
1435 3040 M
59 46 V
2758 106 R
60 46 V
3047 4126 M
60 46 V
2152 1349 M
60 46 V
4350 4651 M
59 46 V
5618 4112 M
60 46 V
2286 2963 M
59 46 V
1110 166 R
60 46 V
991 -505 R
60 46 V
3014 1646 M
60 46 V
3761 691 M
60 46 V
156 2063 R
59 46 V
-865 387 R
60 46 V
1914 1450 M
59 46 V
3083 4391 M
60 45 V
2050 1356 M
60 46 V
4513 2676 M
60 46 V
2712 3205 M
60 46 V
1206 4596 M
59 46 V
3052 2272 M
59 46 V
6246 364 M
60 46 V
2487 2082 M
60 46 V
5223 1221 M
60 45 V
3445 1533 M
59 46 V
stroke 3504 1579 M
2844 3332 M
60 46 V
4998 4709 M
59 46 V
2967 3356 M
60 46 V
979 1068 M
59 46 V
5996 2726 M
60 46 V
5245 2285 M
60 46 V
1336 919 R
59 46 V
3482 3841 M
60 46 V
1358 3608 M
60 46 V
5550 1648 M
60 46 V
6651 2735 M
60 46 V
6165 2297 M
60 46 V
5219 1432 M
60 46 V
4839 4131 M
60 45 V
6476 3862 M
60 46 V
1174 1256 M
60 46 V
5586 916 M
60 46 V
4563 1986 M
60 46 V
4435 4643 M
60 46 V
4174 286 M
60 46 V
4011 4243 M
60 45 V
-402 71 R
60 46 V
2075 3907 M
60 46 V
3553 2853 M
59 46 V
572 994 R
60 46 V
6325 2483 M
60 46 V
2650 4284 M
60 46 V
5381 316 M
60 46 V
3312 393 M
60 46 V
-798 824 R
60 45 V
941 1182 R
60 46 V
2402 1860 M
59 46 V
4695 3384 M
60 46 V
5463 2196 M
60 45 V
5793 607 M
60 46 V
1431 4223 M
60 46 V
4755 494 R
60 46 V
4382 3731 M
60 46 V
29 -1926 R
59 46 V
2652 2948 M
60 46 V
1460 539 M
60 46 V
3607 793 R
60 46 V
2674 4671 M
60 46 V
3314 1797 M
59 46 V
4466 451 M
60 45 V
2368 4751 M
60 46 V
3522 941 M
60 46 V
-868 176 R
60 46 V
1168 2518 M
60 46 V
3936 2088 M
60 46 V
6819 1205 M
60 46 V
4358 3895 M
60 46 V
stroke 4418 3941 M
6774 1273 M
60 46 V
1733 1434 M
59 46 V
4771 340 R
60 45 V
2351 4149 M
60 46 V
3563 2099 M
60 46 V
5600 3941 M
60 46 V
5496 2631 M
60 46 V
-174 591 R
60 46 V
3208 915 M
60 46 V
1094 4589 M
60 45 V
5259 893 M
60 46 V
97 1752 R
60 46 V
3179 3976 M
60 46 V
3522 1102 M
60 46 V
5293 2669 M
60 46 V
6827 503 M
60 45 V
2324 3665 M
60 46 V
987 369 M
60 46 V
2609 816 R
59 46 V
669 3478 R
60 46 V
2687 4454 M
60 46 V
656 278 R
60 46 V
5049 4406 M
60 46 V
3369 2316 M
59 46 V
-93 22 R
60 46 V
1609 1284 M
60 45 V
5053 812 M
59 46 V
1574 1919 M
60 46 V
44 2212 R
60 46 V
5296 3557 M
60 46 V
3145 2396 M
60 46 V
1683 662 R
60 46 V
4258 2620 M
60 46 V
1954 2024 M
60 46 V
1457 3544 M
60 46 V
5298 1358 M
60 46 V
6475 2603 M
59 46 V
3224 4690 M
60 46 V
5160 2863 M
59 46 V
1531 1689 M
60 46 V
3865 3906 M
60 46 V
2991 1140 M
59 46 V
5614 2381 M
59 46 V
627 1147 R
59 46 V
-606 225 R
60 46 V
5270 387 M
60 46 V
2563 742 M
60 46 V
554 150 R
60 46 V
4909 2993 M
60 45 V
6316 2796 M
60 46 V
5299 1508 M
60 46 V
3339 3583 M
60 46 V
stroke 3399 3629 M
1085 3188 M
60 46 V
4251 2030 M
59 46 V
5180 662 M
60 46 V
2322 2879 M
60 46 V
4269 1812 M
60 45 V
-1308 97 R
60 46 V
5553 4658 M
60 45 V
5326 780 M
60 46 V
345 1884 R
60 46 V
2894 2632 M
60 46 V
-24 10 R
59 46 V
4212 1836 M
59 46 V
5818 4168 M
60 46 V
3581 1819 M
60 46 V
3064 4430 M
60 45 V
6366 4020 M
60 46 V
2059 4005 M
60 46 V
1622 3292 M
60 46 V
2697 1647 M
60 46 V
2534 3570 M
60 46 V
1961 3365 M
60 46 V
6789 3068 M
60 46 V
4355 4684 M
60 46 V
994 3661 M
60 45 V
2254 2163 M
60 46 V
6434 3441 M
60 46 V
5610 3293 M
60 46 V
-309 789 R
60 46 V
4330 4681 M
60 46 V
3134 2278 M
60 46 V
1711 2794 M
60 46 V
3178 468 M
60 46 V
2371 843 R
60 46 V
5158 287 M
59 45 V
2867 1928 M
60 46 V
4662 3972 M
60 46 V
2743 3357 M
60 46 V
6807 1594 M
60 46 V
6736 565 M
60 46 V
1795 3521 M
59 46 V
1625 1907 M
60 45 V
78 2417 R
60 46 V
6732 355 M
60 46 V
4052 919 M
60 46 V
2906 2068 M
60 46 V
4066 904 M
60 46 V
467 811 R
60 46 V
4039 3485 M
60 45 V
6318 1521 M
60 46 V
3975 4072 M
60 46 V
5312 464 M
60 46 V
-597 996 R
60 46 V
stroke 4835 1552 M
1537 663 M
60 46 V
140 228 R
60 46 V
2602 50 R
60 46 V
-69 140 R
60 46 V
-1779 63 R
60 46 V
1700 4548 M
60 46 V
3813 3446 M
60 46 V
1758 3293 M
60 46 V
4508 2008 M
60 46 V
1379 2730 M
60 45 V
3498 380 M
60 46 V
1812 1873 M
60 45 V
-65 1460 R
60 46 V
1183 3044 M
60 46 V
4428 4756 M
60 46 V
6777 2405 M
60 46 V
-460 717 R
60 46 V
1878 2462 M
60 46 V
1991 309 M
60 46 V
4529 4217 M
60 46 V
2627 1954 M
60 45 V
4820 832 M
59 46 V
6616 2372 M
60 46 V
6397 4308 M
60 46 V
1923 1853 M
60 46 V
4516 941 R
60 46 V
1459 3250 M
60 46 V
2810 2059 M
59 45 V
5936 1447 M
60 46 V
1859 3028 M
59 46 V
6355 4590 M
60 46 V
6636 1958 M
60 46 V
3997 2335 M
60 46 V
1324 3664 M
60 46 V
5449 971 M
60 46 V
-930 613 R
60 46 V
5933 3426 M
60 46 V
421 394 R
60 46 V
3794 1752 M
60 46 V
6660 325 M
60 46 V
4357 1168 M
59 46 V
-35 2858 R
60 46 V
61 146 R
60 45 V
5542 1910 M
60 46 V
5069 1465 M
60 46 V
3145 2352 M
60 46 V
5367 740 M
60 46 V
2061 4601 M
60 46 V
3413 3887 M
60 46 V
5654 558 M
60 46 V
4642 3011 M
60 46 V
1758 589 M
60 46 V
stroke 1818 635 M
5015 1722 M
60 46 V
1504 695 M
60 46 V
134 2892 R
60 46 V
5904 522 M
59 46 V
4696 3155 M
60 45 V
1735 2193 M
60 46 V
4643 3762 M
60 46 V
2263 4523 M
59 46 V
2588 1123 M
60 46 V
6264 2497 M
60 46 V
33 -558 R
60 46 V
1931 2363 M
60 46 V
513 330 R
60 46 V
6506 1909 M
60 45 V
4160 3819 M
60 46 V
6090 1796 M
59 46 V
2649 1337 M
60 46 V
-1404 62 R
60 46 V
-63 2669 R
60 46 V
4076 1298 M
60 46 V
3829 695 M
60 45 V
3540 2790 M
60 46 V
302 -375 R
59 46 V
1903 391 R
59 46 V
1536 2062 M
60 46 V
2980 -21 R
60 46 V
6486 3933 M
60 46 V
216 -858 R
60 46 V
5042 1669 M
60 46 V
35 -305 R
60 46 V
3901 1089 M
60 46 V
-2272 38 R
60 46 V
1483 3810 M
60 45 V
6628 2725 M
60 46 V
3149 2187 M
59 46 V
3039 2037 M
60 46 V
2335 4324 M
60 46 V
5550 2016 M
60 46 V
3201 1179 M
60 46 V
2150 1741 M
60 46 V
4117 882 R
60 46 V
2731 340 M
60 46 V
4287 3708 M
59 46 V
2188 2252 M
60 46 V
1946 519 R
60 46 V
3290 1568 M
60 46 V
1820 420 M
60 46 V
6737 2865 M
60 46 V
6295 4475 M
60 46 V
4182 1166 M
60 46 V
6663 851 M
60 46 V
1255 2931 M
60 46 V
stroke 1315 2977 M
5699 2080 M
59 46 V
4217 3869 M
59 46 V
6569 1408 M
60 46 V
3288 4500 M
60 46 V
3777 1362 M
60 45 V
2010 1330 M
60 46 V
3886 747 R
60 46 V
3078 4066 M
60 46 V
2263 800 M
59 46 V
2974 563 M
60 46 V
467 2704 R
60 46 V
1344 4545 M
60 46 V
4049 1833 M
60 46 V
6324 3361 M
60 46 V
4913 1642 M
59 46 V
1158 4253 M
60 46 V
3380 2695 M
60 46 V
1380 2382 M
60 46 V
2510 4384 M
60 46 V
5828 3620 M
60 46 V
2768 2246 M
60 46 V
6257 1980 M
59 46 V
4611 2186 M
60 46 V
2486 3027 M
60 46 V
1630 4701 M
60 46 V
6400 3349 M
60 45 V
5783 1384 M
60 46 V
4336 916 M
60 46 V
4091 613 M
60 46 V
5901 2907 M
60 46 V
717 -453 R
60 46 V
6823 2640 CircleF
6883 2685 CircleF
2249 1809 CircleF
2309 1855 CircleF
4071 4399 CircleF
4131 4445 CircleF
6434 4499 CircleF
6493 4544 CircleF
5130 3602 CircleF
5190 3648 CircleF
5551 3845 CircleF
5610 3891 CircleF
6098 1508 CircleF
6158 1554 CircleF
6746 4158 CircleF
6806 4204 CircleF
1126 2367 CircleF
1185 2412 CircleF
3241 2607 CircleF
3301 2653 CircleF
2720 1440 CircleF
2780 1485 CircleF
3673 3910 CircleF
3733 3956 CircleF
5721 3518 CircleF
5781 3564 CircleF
4883 3572 CircleF
4942 3617 CircleF
6224 456 CircleF
6284 502 CircleF
6641 3817 CircleF
6701 3863 CircleF
4732 1681 CircleF
4792 1727 CircleF
2460 4559 CircleF
2520 4605 CircleF
2897 3338 CircleF
2957 3384 CircleF
5381 2996 CircleF
5440 3042 CircleF
2329 2711 CircleF
2389 2757 CircleF
6677 2335 CircleF
6737 2381 CircleF
5029 2579 CircleF
5089 2625 CircleF
6494 2950 CircleF
6554 2996 CircleF
3095 4013 CircleF
3155 4059 CircleF
3807 2388 CircleF
3867 2434 CircleF
5202 3514 CircleF
5262 3560 CircleF
4613 4321 CircleF
4673 4366 CircleF
4798 3174 CircleF
4858 3220 CircleF
3395 1837 CircleF
3455 1883 CircleF
3334 1247 CircleF
3394 1293 CircleF
5184 724 CircleF
5244 770 CircleF
6173 1437 CircleF
6233 1482 CircleF
2725 2797 CircleF
2785 2843 CircleF
1956 3254 CircleF
2016 3300 CircleF
1067 3469 CircleF
1127 3515 CircleF
2588 2736 CircleF
2648 2781 CircleF
5732 3964 CircleF
5792 4010 CircleF
3807 1468 CircleF
3867 1514 CircleF
3353 1379 CircleF
3413 1425 CircleF
6531 977 CircleF
6591 1023 CircleF
4694 3346 CircleF
4754 3392 CircleF
2924 939 CircleF
2983 984 CircleF
979 3959 CircleF
1039 4005 CircleF
6091 4308 CircleF
6151 4354 CircleF
1604 2884 CircleF
1664 2930 CircleF
5626 1285 CircleF
5686 1330 CircleF
4963 2433 CircleF
5023 2479 CircleF
3685 3612 CircleF
3745 3658 CircleF
1178 2226 CircleF
1238 2272 CircleF
5376 4046 CircleF
5436 4092 CircleF
2537 2094 CircleF
2597 2140 CircleF
4576 1013 CircleF
4636 1059 CircleF
2561 1887 CircleF
2621 1932 CircleF
2751 3726 CircleF
2811 3772 CircleF
1284 882 CircleF
1344 928 CircleF
4970 4309 CircleF
5029 4355 CircleF
2396 4124 CircleF
2456 4170 CircleF
3424 4034 CircleF
3484 4080 CircleF
1254 4466 CircleF
1314 4512 CircleF
4185 3385 CircleF
4245 3431 CircleF
6307 3781 CircleF
6366 3827 CircleF
4665 856 CircleF
4725 902 CircleF
4104 1471 CircleF
4164 1517 CircleF
2280 4494 CircleF
2340 4540 CircleF
4608 680 CircleF
4667 725 CircleF
4264 1911 CircleF
4323 1957 CircleF
1954 4150 CircleF
2013 4196 CircleF
3062 1252 CircleF
3122 1298 CircleF
6422 2337 CircleF
6481 2383 CircleF
4620 453 CircleF
4680 499 CircleF
4808 989 CircleF
4868 1034 CircleF
6576 1264 CircleF
6636 1309 CircleF
1370 575 CircleF
1430 621 CircleF
4344 4176 CircleF
4404 4222 CircleF
2492 2173 CircleF
2551 2219 CircleF
6763 4491 CircleF
6823 4537 CircleF
2203 730 CircleF
2263 775 CircleF
1806 4282 CircleF
1866 4328 CircleF
5817 1623 CircleF
5877 1669 CircleF
6601 1688 CircleF
6661 1734 CircleF
5752 3437 CircleF
5812 3483 CircleF
2930 1860 CircleF
2989 1906 CircleF
1554 571 CircleF
1614 617 CircleF
6612 2559 CircleF
6672 2604 CircleF
5161 1734 CircleF
5221 1780 CircleF
2423 3267 CircleF
2482 3312 CircleF
2674 3418 CircleF
2734 3464 CircleF
5113 4026 CircleF
5173 4072 CircleF
2851 3818 CircleF
2911 3864 CircleF
1223 2898 CircleF
1283 2944 CircleF
2626 3111 CircleF
2685 3157 CircleF
5120 2936 CircleF
5180 2982 CircleF
6634 3784 CircleF
6694 3830 CircleF
1061 2958 CircleF
1121 3004 CircleF
6295 3235 CircleF
6355 3281 CircleF
4394 1511 CircleF
4454 1557 CircleF
6487 550 CircleF
6547 596 CircleF
3993 2079 CircleF
4053 2125 CircleF
6002 2846 CircleF
6062 2891 CircleF
5580 3184 CircleF
5640 3230 CircleF
1900 978 CircleF
1960 1024 CircleF
1054 3315 CircleF
1114 3361 CircleF
4601 1610 CircleF
4661 1656 CircleF
3290 450 CircleF
3350 496 CircleF
6065 1491 CircleF
6125 1537 CircleF
6006 4577 CircleF
6066 4623 CircleF
4474 2657 CircleF
4534 2703 CircleF
5828 3010 CircleF
5888 3056 CircleF
6456 4655 CircleF
6516 4701 CircleF
3311 459 CircleF
3371 505 CircleF
2385 1350 CircleF
2445 1396 CircleF
2403 4632 CircleF
2463 4678 CircleF
5671 4261 CircleF
5731 4306 CircleF
4010 553 CircleF
4070 598 CircleF
1755 661 CircleF
1815 707 CircleF
2142 2349 CircleF
2202 2395 CircleF
4999 2596 CircleF
5059 2642 CircleF
3527 892 CircleF
3587 938 CircleF
4929 1859 CircleF
4989 1905 CircleF
5607 4047 CircleF
5667 4092 CircleF
1194 3170 CircleF
1254 3216 CircleF
2329 533 CircleF
2389 578 CircleF
2782 1282 CircleF
2842 1328 CircleF
3975 2958 CircleF
4035 3004 CircleF
4282 2564 CircleF
4342 2610 CircleF
1843 4386 CircleF
1903 4432 CircleF
2440 3866 CircleF
2500 3912 CircleF
4862 4170 CircleF
4922 4216 CircleF
1321 4186 CircleF
1381 4232 CircleF
3658 3361 CircleF
3717 3407 CircleF
2255 373 CircleF
2315 419 CircleF
4933 1934 CircleF
4993 1980 CircleF
2919 1097 CircleF
2979 1143 CircleF
6521 575 CircleF
6581 621 CircleF
4130 3858 CircleF
4190 3904 CircleF
1258 3757 CircleF
1318 3803 CircleF
5476 653 CircleF
5536 699 CircleF
2317 3558 CircleF
2376 3604 CircleF
5381 1475 CircleF
5441 1521 CircleF
4318 2564 CircleF
4378 2609 CircleF
3120 3221 CircleF
3180 3267 CircleF
5831 3985 CircleF
5890 4031 CircleF
1203 1875 CircleF
1263 1921 CircleF
2424 2576 CircleF
2484 2622 CircleF
5648 987 CircleF
5708 1033 CircleF
4840 2989 CircleF
4900 3035 CircleF
4319 3631 CircleF
4379 3677 CircleF
2511 4655 CircleF
2570 4701 CircleF
3865 574 CircleF
3925 620 CircleF
4843 3647 CircleF
4903 3693 CircleF
5735 3150 CircleF
5795 3195 CircleF
3101 3907 CircleF
3161 3953 CircleF
3843 3047 CircleF
3902 3093 CircleF
6102 2328 CircleF
6162 2374 CircleF
6021 1135 CircleF
6081 1181 CircleF
5357 4621 CircleF
5417 4667 CircleF
1459 2054 CircleF
1518 2100 CircleF
3416 1042 CircleF
3476 1088 CircleF
2869 3610 CircleF
2928 3656 CircleF
5242 3414 CircleF
5302 3460 CircleF
6558 1095 CircleF
6618 1141 CircleF
2351 2833 CircleF
2411 2879 CircleF
1316 1332 CircleF
1376 1378 CircleF
1922 716 CircleF
1982 762 CircleF
2365 4279 CircleF
2425 4324 CircleF
5003 2400 CircleF
5063 2446 CircleF
2849 820 CircleF
2909 866 CircleF
1592 1456 CircleF
1652 1502 CircleF
1457 3682 CircleF
1517 3728 CircleF
4661 3536 CircleF
4720 3582 CircleF
5454 412 CircleF
5513 458 CircleF
1806 2481 CircleF
1865 2527 CircleF
2272 3765 CircleF
2332 3811 CircleF
6605 2117 CircleF
6664 2163 CircleF
4750 4114 CircleF
4810 4160 CircleF
6459 4184 CircleF
6519 4230 CircleF
2590 3496 CircleF
2650 3542 CircleF
1565 2477 CircleF
1625 2523 CircleF
6663 1056 CircleF
6723 1102 CircleF
2472 4735 CircleF
2532 4781 CircleF
3571 3741 CircleF
3631 3787 CircleF
6780 4026 CircleF
6839 4072 CircleF
2976 966 CircleF
3036 1011 CircleF
6724 4048 CircleF
6784 4094 CircleF
1435 3040 CircleF
1494 3086 CircleF
4252 3192 CircleF
4312 3238 CircleF
3047 4126 CircleF
3107 4172 CircleF
2152 1349 CircleF
2212 1395 CircleF
4350 4651 CircleF
4409 4697 CircleF
5618 4112 CircleF
5678 4158 CircleF
2286 2963 CircleF
2345 3009 CircleF
3455 3175 CircleF
3515 3221 CircleF
4506 2716 CircleF
4566 2762 CircleF
3014 1646 CircleF
3074 1692 CircleF
3761 691 CircleF
3821 737 CircleF
3977 2800 CircleF
4036 2846 CircleF
3171 3233 CircleF
3231 3279 CircleF
1914 1450 CircleF
1973 1496 CircleF
3083 4391 CircleF
3143 4436 CircleF
2050 1356 CircleF
2110 1402 CircleF
4513 2676 CircleF
4573 2722 CircleF
2712 3205 CircleF
2772 3251 CircleF
1206 4596 CircleF
1265 4642 CircleF
3052 2272 CircleF
3111 2318 CircleF
6246 364 CircleF
6306 410 CircleF
2487 2082 CircleF
2547 2128 CircleF
5223 1221 CircleF
5283 1266 CircleF
3445 1533 CircleF
3504 1579 CircleF
2844 3332 CircleF
2904 3378 CircleF
4998 4709 CircleF
5057 4755 CircleF
2967 3356 CircleF
3027 3402 CircleF
979 1068 CircleF
1038 1114 CircleF
5996 2726 CircleF
6056 2772 CircleF
5245 2285 CircleF
5305 2331 CircleF
6641 3250 CircleF
6700 3296 CircleF
3482 3841 CircleF
3542 3887 CircleF
1358 3608 CircleF
1418 3654 CircleF
5550 1648 CircleF
5610 1694 CircleF
6651 2735 CircleF
6711 2781 CircleF
6165 2297 CircleF
6225 2343 CircleF
5219 1432 CircleF
5279 1478 CircleF
4839 4131 CircleF
4899 4176 CircleF
6476 3862 CircleF
6536 3908 CircleF
1174 1256 CircleF
1234 1302 CircleF
5586 916 CircleF
5646 962 CircleF
4563 1986 CircleF
4623 2032 CircleF
4435 4643 CircleF
4495 4689 CircleF
4174 286 CircleF
4234 332 CircleF
4011 4243 CircleF
4071 4288 CircleF
3669 4359 CircleF
3729 4405 CircleF
2075 3907 CircleF
2135 3953 CircleF
3553 2853 CircleF
3612 2899 CircleF
4184 3893 CircleF
4244 3939 CircleF
6325 2483 CircleF
6385 2529 CircleF
2650 4284 CircleF
2710 4330 CircleF
5381 316 CircleF
5441 362 CircleF
3312 393 CircleF
3372 439 CircleF
2574 1263 CircleF
2634 1308 CircleF
3575 2490 CircleF
3635 2536 CircleF
2402 1860 CircleF
2461 1906 CircleF
4695 3384 CircleF
4755 3430 CircleF
5463 2196 CircleF
5523 2241 CircleF
5793 607 CircleF
5853 653 CircleF
1431 4223 CircleF
1491 4269 CircleF
6246 4763 CircleF
6306 4809 CircleF
4382 3731 CircleF
4442 3777 CircleF
4471 1851 CircleF
4530 1897 CircleF
2652 2948 CircleF
2712 2994 CircleF
1460 539 CircleF
1520 585 CircleF
5127 1378 CircleF
5187 1424 CircleF
2674 4671 CircleF
2734 4717 CircleF
3314 1797 CircleF
3373 1843 CircleF
4466 451 CircleF
4526 496 CircleF
2368 4751 CircleF
2428 4797 CircleF
3522 941 CircleF
3582 987 CircleF
2714 1163 CircleF
2774 1209 CircleF
1168 2518 CircleF
1228 2564 CircleF
3936 2088 CircleF
3996 2134 CircleF
6819 1205 CircleF
6879 1251 CircleF
4358 3895 CircleF
4418 3941 CircleF
6774 1273 CircleF
6834 1319 CircleF
1733 1434 CircleF
1792 1480 CircleF
6563 1820 CircleF
6623 1865 CircleF
2351 4149 CircleF
2411 4195 CircleF
3563 2099 CircleF
3623 2145 CircleF
5600 3941 CircleF
5660 3987 CircleF
5496 2631 CircleF
5556 2677 CircleF
5382 3268 CircleF
5442 3314 CircleF
3208 915 CircleF
3268 961 CircleF
1094 4589 CircleF
1154 4634 CircleF
5259 893 CircleF
5319 939 CircleF
5416 2691 CircleF
5476 2737 CircleF
3179 3976 CircleF
3239 4022 CircleF
3522 1102 CircleF
3582 1148 CircleF
5293 2669 CircleF
5353 2715 CircleF
6827 503 CircleF
6887 548 CircleF
2324 3665 CircleF
2384 3711 CircleF
987 369 CircleF
1047 415 CircleF
3656 1231 CircleF
3715 1277 CircleF
4384 4755 CircleF
4444 4801 CircleF
2687 4454 CircleF
2747 4500 CircleF
3403 4778 CircleF
3463 4824 CircleF
5049 4406 CircleF
5109 4452 CircleF
3369 2316 CircleF
3428 2362 CircleF
3335 2384 CircleF
3395 2430 CircleF
1609 1284 CircleF
1669 1329 CircleF
5053 812 CircleF
5112 858 CircleF
1574 1919 CircleF
1634 1965 CircleF
1678 4177 CircleF
1738 4223 CircleF
5296 3557 CircleF
5356 3603 CircleF
3145 2396 CircleF
3205 2442 CircleF
4888 3104 CircleF
4948 3150 CircleF
4258 2620 CircleF
4318 2666 CircleF
1954 2024 CircleF
2014 2070 CircleF
1457 3544 CircleF
1517 3590 CircleF
5298 1358 CircleF
5358 1404 CircleF
6475 2603 CircleF
6534 2649 CircleF
3224 4690 CircleF
3284 4736 CircleF
5160 2863 CircleF
5219 2909 CircleF
1531 1689 CircleF
1591 1735 CircleF
3865 3906 CircleF
3925 3952 CircleF
2991 1140 CircleF
3050 1186 CircleF
5614 2381 CircleF
5673 2427 CircleF
6300 3574 CircleF
6359 3620 CircleF
5753 3845 CircleF
5813 3891 CircleF
5270 387 CircleF
5330 433 CircleF
2563 742 CircleF
2623 788 CircleF
3177 938 CircleF
3237 984 CircleF
4909 2993 CircleF
4969 3038 CircleF
6316 2796 CircleF
6376 2842 CircleF
5299 1508 CircleF
5359 1554 CircleF
3339 3583 CircleF
3399 3629 CircleF
1085 3188 CircleF
1145 3234 CircleF
4251 2030 CircleF
4310 2076 CircleF
5180 662 CircleF
5240 708 CircleF
2322 2879 CircleF
2382 2925 CircleF
4269 1812 CircleF
4329 1857 CircleF
3021 1954 CircleF
3081 2000 CircleF
5553 4658 CircleF
5613 4703 CircleF
5326 780 CircleF
5386 826 CircleF
5731 2710 CircleF
5791 2756 CircleF
2894 2632 CircleF
2954 2678 CircleF
2930 2688 CircleF
2989 2734 CircleF
4212 1836 CircleF
4271 1882 CircleF
5818 4168 CircleF
5878 4214 CircleF
3581 1819 CircleF
3641 1865 CircleF
3064 4430 CircleF
3124 4475 CircleF
6366 4020 CircleF
6426 4066 CircleF
2059 4005 CircleF
2119 4051 CircleF
1622 3292 CircleF
1682 3338 CircleF
2697 1647 CircleF
2757 1693 CircleF
2534 3570 CircleF
2594 3616 CircleF
1961 3365 CircleF
2021 3411 CircleF
6789 3068 CircleF
6849 3114 CircleF
4355 4684 CircleF
4415 4730 CircleF
994 3661 CircleF
1054 3706 CircleF
2254 2163 CircleF
2314 2209 CircleF
6434 3441 CircleF
6494 3487 CircleF
5610 3293 CircleF
5670 3339 CircleF
5361 4128 CircleF
5421 4174 CircleF
4330 4681 CircleF
4390 4727 CircleF
3134 2278 CircleF
3194 2324 CircleF
1711 2794 CircleF
1771 2840 CircleF
3178 468 CircleF
3238 514 CircleF
5609 1357 CircleF
5669 1403 CircleF
5158 287 CircleF
5217 332 CircleF
2867 1928 CircleF
2927 1974 CircleF
4662 3972 CircleF
4722 4018 CircleF
2743 3357 CircleF
2803 3403 CircleF
6807 1594 CircleF
6867 1640 CircleF
6736 565 CircleF
6796 611 CircleF
1795 3521 CircleF
1854 3567 CircleF
1625 1907 CircleF
1685 1952 CircleF
1763 4369 CircleF
1823 4415 CircleF
6732 355 CircleF
6792 401 CircleF
4052 919 CircleF
4112 965 CircleF
2906 2068 CircleF
2966 2114 CircleF
4066 904 CircleF
4126 950 CircleF
4593 1761 CircleF
4653 1807 CircleF
4039 3485 CircleF
4099 3530 CircleF
6318 1521 CircleF
6378 1567 CircleF
3975 4072 CircleF
4035 4118 CircleF
5312 464 CircleF
5372 510 CircleF
4775 1506 CircleF
4835 1552 CircleF
1537 663 CircleF
1597 709 CircleF
1737 937 CircleF
1797 983 CircleF
4399 1033 CircleF
4459 1079 CircleF
4390 1219 CircleF
4450 1265 CircleF
2671 1328 CircleF
2731 1374 CircleF
1700 4548 CircleF
1760 4594 CircleF
3813 3446 CircleF
3873 3492 CircleF
1758 3293 CircleF
1818 3339 CircleF
4508 2008 CircleF
4568 2054 CircleF
1379 2730 CircleF
1439 2775 CircleF
3498 380 CircleF
3558 426 CircleF
1812 1873 CircleF
1872 1918 CircleF
1807 3378 CircleF
1867 3424 CircleF
1183 3044 CircleF
1243 3090 CircleF
4428 4756 CircleF
4488 4802 CircleF
6777 2405 CircleF
6837 2451 CircleF
6377 3168 CircleF
6437 3214 CircleF
1878 2462 CircleF
1938 2508 CircleF
1991 309 CircleF
2051 355 CircleF
4529 4217 CircleF
4589 4263 CircleF
2627 1954 CircleF
2687 1999 CircleF
4820 832 CircleF
4879 878 CircleF
6616 2372 CircleF
6676 2418 CircleF
6397 4308 CircleF
6457 4354 CircleF
1923 1853 CircleF
1983 1899 CircleF
6499 2840 CircleF
6559 2886 CircleF
1459 3250 CircleF
1519 3296 CircleF
2810 2059 CircleF
2869 2104 CircleF
5936 1447 CircleF
5996 1493 CircleF
1859 3028 CircleF
1918 3074 CircleF
6355 4590 CircleF
6415 4636 CircleF
6636 1958 CircleF
6696 2004 CircleF
3997 2335 CircleF
4057 2381 CircleF
1324 3664 CircleF
1384 3710 CircleF
5449 971 CircleF
5509 1017 CircleF
4579 1630 CircleF
4639 1676 CircleF
5933 3426 CircleF
5993 3472 CircleF
6414 3866 CircleF
6474 3912 CircleF
3794 1752 CircleF
3854 1798 CircleF
6660 325 CircleF
6720 371 CircleF
4357 1168 CircleF
4416 1214 CircleF
4381 4072 CircleF
4441 4118 CircleF
4502 4264 CircleF
4562 4309 CircleF
5542 1910 CircleF
5602 1956 CircleF
5069 1465 CircleF
5129 1511 CircleF
3145 2352 CircleF
3205 2398 CircleF
5367 740 CircleF
5427 786 CircleF
2061 4601 CircleF
2121 4647 CircleF
3413 3887 CircleF
3473 3933 CircleF
5654 558 CircleF
5714 604 CircleF
4642 3011 CircleF
4702 3057 CircleF
1758 589 CircleF
1818 635 CircleF
5015 1722 CircleF
5075 1768 CircleF
1504 695 CircleF
1564 741 CircleF
1698 3633 CircleF
1758 3679 CircleF
5904 522 CircleF
5963 568 CircleF
4696 3155 CircleF
4756 3200 CircleF
1735 2193 CircleF
1795 2239 CircleF
4643 3762 CircleF
4703 3808 CircleF
2263 4523 CircleF
2322 4569 CircleF
2588 1123 CircleF
2648 1169 CircleF
6264 2497 CircleF
6324 2543 CircleF
6357 1985 CircleF
6417 2031 CircleF
1931 2363 CircleF
1991 2409 CircleF
2504 2739 CircleF
2564 2785 CircleF
6506 1909 CircleF
6566 1954 CircleF
4160 3819 CircleF
4220 3865 CircleF
6090 1796 CircleF
6149 1842 CircleF
2649 1337 CircleF
2709 1383 CircleF
1305 1445 CircleF
1365 1491 CircleF
1302 4160 CircleF
1362 4206 CircleF
4076 1298 CircleF
4136 1344 CircleF
3829 695 CircleF
3889 740 CircleF
3540 2790 CircleF
3600 2836 CircleF
3902 2461 CircleF
3961 2507 CircleF
5864 2898 CircleF
5923 2944 CircleF
1536 2062 CircleF
1596 2108 CircleF
4576 2087 CircleF
4636 2133 CircleF
6486 3933 CircleF
6546 3979 CircleF
6762 3121 CircleF
6822 3167 CircleF
5042 1669 CircleF
5102 1715 CircleF
5137 1410 CircleF
5197 1456 CircleF
3901 1089 CircleF
3961 1135 CircleF
1689 1173 CircleF
1749 1219 CircleF
1483 3810 CircleF
1543 3855 CircleF
6628 2725 CircleF
6688 2771 CircleF
3149 2187 CircleF
3208 2233 CircleF
3039 2037 CircleF
3099 2083 CircleF
2335 4324 CircleF
2395 4370 CircleF
5550 2016 CircleF
5610 2062 CircleF
3201 1179 CircleF
3261 1225 CircleF
2150 1741 CircleF
2210 1787 CircleF
6327 2669 CircleF
6387 2715 CircleF
2731 340 CircleF
2791 386 CircleF
4287 3708 CircleF
4346 3754 CircleF
2188 2252 CircleF
2248 2298 CircleF
4194 2817 CircleF
4254 2863 CircleF
3290 1568 CircleF
3350 1614 CircleF
1820 420 CircleF
1880 466 CircleF
6737 2865 CircleF
6797 2911 CircleF
6295 4475 CircleF
6355 4521 CircleF
4182 1166 CircleF
4242 1212 CircleF
6663 851 CircleF
6723 897 CircleF
1255 2931 CircleF
1315 2977 CircleF
5699 2080 CircleF
5758 2126 CircleF
4217 3869 CircleF
4276 3915 CircleF
6569 1408 CircleF
6629 1454 CircleF
3288 4500 CircleF
3348 4546 CircleF
3777 1362 CircleF
3837 1407 CircleF
2010 1330 CircleF
2070 1376 CircleF
5956 2123 CircleF
6016 2169 CircleF
3078 4066 CircleF
3138 4112 CircleF
2263 800 CircleF
2322 846 CircleF
2974 563 CircleF
3034 609 CircleF
3501 3313 CircleF
3561 3359 CircleF
1344 4545 CircleF
1404 4591 CircleF
4049 1833 CircleF
4109 1879 CircleF
6324 3361 CircleF
6384 3407 CircleF
4913 1642 CircleF
4972 1688 CircleF
1158 4253 CircleF
1218 4299 CircleF
3380 2695 CircleF
3440 2741 CircleF
1380 2382 CircleF
1440 2428 CircleF
2510 4384 CircleF
2570 4430 CircleF
5828 3620 CircleF
5888 3666 CircleF
2768 2246 CircleF
2828 2292 CircleF
6257 1980 CircleF
6316 2026 CircleF
4611 2186 CircleF
4671 2232 CircleF
2486 3027 CircleF
2546 3073 CircleF
1630 4701 CircleF
1690 4747 CircleF
6400 3349 CircleF
6460 3394 CircleF
5783 1384 CircleF
5843 1430 CircleF
4336 916 CircleF
4396 962 CircleF
4091 613 CircleF
4151 659 CircleF
5901 2907 CircleF
5961 2953 CircleF
6678 2500 CircleF
6738 2546 CircleF
% End plot #2
1.000 UP
1.000 UL
LT0
0.50 0.50 0.50 C stroke
grestore
end
showpage
%%Trailer
%%DocumentFonts: Helvetica
%%Pages: 1
