%!PS-Adobe-2.0
%%Title: out.ps
%%Creator: gnuplot 4.6 patchlevel 6
%%CreationDate: Thu May 28 18:14:16 2015
%%DocumentFonts: (atend)
%%BoundingBox: 50 50 554 770
%%Orientation: Landscape
%%Pages: (atend)
%%EndComments
%%BeginProlog
/gnudict 256 dict def
gnudict begin
%
% The following true/false flags may be edited by hand if desired.
% The unit line width and grayscale image gamma correction may also be changed.
%
/Color false def
/Blacktext false def
/Solid false def
/Dashlength 1 def
/Landscape true def
/Level1 false def
/Rounded false def
/ClipToBoundingBox false def
/SuppressPDFMark false def
/TransparentPatterns false def
/gnulinewidth 5.000 def
/userlinewidth gnulinewidth def
/Gamma 1.0 def
/BackgroundColor {-1.000 -1.000 -1.000} def
%
/vshift -46 def
/dl1 {
  10.0 Dashlength mul mul
  Rounded { currentlinewidth 0.75 mul sub dup 0 le { pop 0.01 } if } if
} def
/dl2 {
  10.0 Dashlength mul mul
  Rounded { currentlinewidth 0.75 mul add } if
} def
/hpt_ 31.5 def
/vpt_ 31.5 def
/hpt hpt_ def
/vpt vpt_ def
/doclip {
  ClipToBoundingBox {
    newpath 50 50 moveto 554 50 lineto 554 770 lineto 50 770 lineto closepath
    clip
  } if
} def
%
% Gnuplot Prolog Version 4.6 (September 2012)
%
%/SuppressPDFMark true def
%
/M {moveto} bind def
/L {lineto} bind def
/R {rmoveto} bind def
/V {rlineto} bind def
/N {newpath moveto} bind def
/Z {closepath} bind def
/C {setrgbcolor} bind def
/f {rlineto fill} bind def
/g {setgray} bind def
/Gshow {show} def   % May be redefined later in the file to support UTF-8
/vpt2 vpt 2 mul def
/hpt2 hpt 2 mul def
/Lshow {currentpoint stroke M 0 vshift R 
	Blacktext {gsave 0 setgray show grestore} {show} ifelse} def
/Rshow {currentpoint stroke M dup stringwidth pop neg vshift R
	Blacktext {gsave 0 setgray show grestore} {show} ifelse} def
/Cshow {currentpoint stroke M dup stringwidth pop -2 div vshift R 
	Blacktext {gsave 0 setgray show grestore} {show} ifelse} def
/UP {dup vpt_ mul /vpt exch def hpt_ mul /hpt exch def
  /hpt2 hpt 2 mul def /vpt2 vpt 2 mul def} def
/DL {Color {setrgbcolor Solid {pop []} if 0 setdash}
 {pop pop pop 0 setgray Solid {pop []} if 0 setdash} ifelse} def
/BL {stroke userlinewidth 2 mul setlinewidth
	Rounded {1 setlinejoin 1 setlinecap} if} def
/AL {stroke userlinewidth 2 div setlinewidth
	Rounded {1 setlinejoin 1 setlinecap} if} def
/UL {dup gnulinewidth mul /userlinewidth exch def
	dup 1 lt {pop 1} if 10 mul /udl exch def} def
/PL {stroke userlinewidth setlinewidth
	Rounded {1 setlinejoin 1 setlinecap} if} def
3.8 setmiterlimit
% Default Line colors
/LCw {1 1 1} def
/LCb {0 0 0} def
/LCa {0 0 0} def
/LC0 {1 0 0} def
/LC1 {0 1 0} def
/LC2 {0 0 1} def
/LC3 {1 0 1} def
/LC4 {0 1 1} def
/LC5 {1 1 0} def
/LC6 {0 0 0} def
/LC7 {1 0.3 0} def
/LC8 {0.5 0.5 0.5} def
% Default Line Types
/LTw {PL [] 1 setgray} def
/LTb {BL [] LCb DL} def
/LTa {AL [1 udl mul 2 udl mul] 0 setdash LCa setrgbcolor} def
/LT0 {PL [] LC0 DL} def
/LT1 {PL [4 dl1 2 dl2] LC1 DL} def
/LT2 {PL [2 dl1 3 dl2] LC2 DL} def
/LT3 {PL [1 dl1 1.5 dl2] LC3 DL} def
/LT4 {PL [6 dl1 2 dl2 1 dl1 2 dl2] LC4 DL} def
/LT5 {PL [3 dl1 3 dl2 1 dl1 3 dl2] LC5 DL} def
/LT6 {PL [2 dl1 2 dl2 2 dl1 6 dl2] LC6 DL} def
/LT7 {PL [1 dl1 2 dl2 6 dl1 2 dl2 1 dl1 2 dl2] LC7 DL} def
/LT8 {PL [2 dl1 2 dl2 2 dl1 2 dl2 2 dl1 2 dl2 2 dl1 4 dl2] LC8 DL} def
/Pnt {stroke [] 0 setdash gsave 1 setlinecap M 0 0 V stroke grestore} def
/Dia {stroke [] 0 setdash 2 copy vpt add M
  hpt neg vpt neg V hpt vpt neg V
  hpt vpt V hpt neg vpt V closepath stroke
  Pnt} def
/Pls {stroke [] 0 setdash vpt sub M 0 vpt2 V
  currentpoint stroke M
  hpt neg vpt neg R hpt2 0 V stroke
 } def
/Box {stroke [] 0 setdash 2 copy exch hpt sub exch vpt add M
  0 vpt2 neg V hpt2 0 V 0 vpt2 V
  hpt2 neg 0 V closepath stroke
  Pnt} def
/Crs {stroke [] 0 setdash exch hpt sub exch vpt add M
  hpt2 vpt2 neg V currentpoint stroke M
  hpt2 neg 0 R hpt2 vpt2 V stroke} def
/TriU {stroke [] 0 setdash 2 copy vpt 1.12 mul add M
  hpt neg vpt -1.62 mul V
  hpt 2 mul 0 V
  hpt neg vpt 1.62 mul V closepath stroke
  Pnt} def
/Star {2 copy Pls Crs} def
/BoxF {stroke [] 0 setdash exch hpt sub exch vpt add M
  0 vpt2 neg V hpt2 0 V 0 vpt2 V
  hpt2 neg 0 V closepath fill} def
/TriUF {stroke [] 0 setdash vpt 1.12 mul add M
  hpt neg vpt -1.62 mul V
  hpt 2 mul 0 V
  hpt neg vpt 1.62 mul V closepath fill} def
/TriD {stroke [] 0 setdash 2 copy vpt 1.12 mul sub M
  hpt neg vpt 1.62 mul V
  hpt 2 mul 0 V
  hpt neg vpt -1.62 mul V closepath stroke
  Pnt} def
/TriDF {stroke [] 0 setdash vpt 1.12 mul sub M
  hpt neg vpt 1.62 mul V
  hpt 2 mul 0 V
  hpt neg vpt -1.62 mul V closepath fill} def
/DiaF {stroke [] 0 setdash vpt add M
  hpt neg vpt neg V hpt vpt neg V
  hpt vpt V hpt neg vpt V closepath fill} def
/Pent {stroke [] 0 setdash 2 copy gsave
  translate 0 hpt M 4 {72 rotate 0 hpt L} repeat
  closepath stroke grestore Pnt} def
/PentF {stroke [] 0 setdash gsave
  translate 0 hpt M 4 {72 rotate 0 hpt L} repeat
  closepath fill grestore} def
/Circle {stroke [] 0 setdash 2 copy
  hpt 0 360 arc stroke Pnt} def
/CircleF {stroke [] 0 setdash hpt 0 360 arc fill} def
/C0 {BL [] 0 setdash 2 copy moveto vpt 90 450 arc} bind def
/C1 {BL [] 0 setdash 2 copy moveto
	2 copy vpt 0 90 arc closepath fill
	vpt 0 360 arc closepath} bind def
/C2 {BL [] 0 setdash 2 copy moveto
	2 copy vpt 90 180 arc closepath fill
	vpt 0 360 arc closepath} bind def
/C3 {BL [] 0 setdash 2 copy moveto
	2 copy vpt 0 180 arc closepath fill
	vpt 0 360 arc closepath} bind def
/C4 {BL [] 0 setdash 2 copy moveto
	2 copy vpt 180 270 arc closepath fill
	vpt 0 360 arc closepath} bind def
/C5 {BL [] 0 setdash 2 copy moveto
	2 copy vpt 0 90 arc
	2 copy moveto
	2 copy vpt 180 270 arc closepath fill
	vpt 0 360 arc} bind def
/C6 {BL [] 0 setdash 2 copy moveto
	2 copy vpt 90 270 arc closepath fill
	vpt 0 360 arc closepath} bind def
/C7 {BL [] 0 setdash 2 copy moveto
	2 copy vpt 0 270 arc closepath fill
	vpt 0 360 arc closepath} bind def
/C8 {BL [] 0 setdash 2 copy moveto
	2 copy vpt 270 360 arc closepath fill
	vpt 0 360 arc closepath} bind def
/C9 {BL [] 0 setdash 2 copy moveto
	2 copy vpt 270 450 arc closepath fill
	vpt 0 360 arc closepath} bind def
/C10 {BL [] 0 setdash 2 copy 2 copy moveto vpt 270 360 arc closepath fill
	2 copy moveto
	2 copy vpt 90 180 arc closepath fill
	vpt 0 360 arc closepath} bind def
/C11 {BL [] 0 setdash 2 copy moveto
	2 copy vpt 0 180 arc closepath fill
	2 copy moveto
	2 copy vpt 270 360 arc closepath fill
	vpt 0 360 arc closepath} bind def
/C12 {BL [] 0 setdash 2 copy moveto
	2 copy vpt 180 360 arc closepath fill
	vpt 0 360 arc closepath} bind def
/C13 {BL [] 0 setdash 2 copy moveto
	2 copy vpt 0 90 arc closepath fill
	2 copy moveto
	2 copy vpt 180 360 arc closepath fill
	vpt 0 360 arc closepath} bind def
/C14 {BL [] 0 setdash 2 copy moveto
	2 copy vpt 90 360 arc closepath fill
	vpt 0 360 arc} bind def
/C15 {BL [] 0 setdash 2 copy vpt 0 360 arc closepath fill
	vpt 0 360 arc closepath} bind def
/Rec {newpath 4 2 roll moveto 1 index 0 rlineto 0 exch rlineto
	neg 0 rlineto closepath} bind def
/Square {dup Rec} bind def
/Bsquare {vpt sub exch vpt sub exch vpt2 Square} bind def
/S0 {BL [] 0 setdash 2 copy moveto 0 vpt rlineto BL Bsquare} bind def
/S1 {BL [] 0 setdash 2 copy vpt Square fill Bsquare} bind def
/S2 {BL [] 0 setdash 2 copy exch vpt sub exch vpt Square fill Bsquare} bind def
/S3 {BL [] 0 setdash 2 copy exch vpt sub exch vpt2 vpt Rec fill Bsquare} bind def
/S4 {BL [] 0 setdash 2 copy exch vpt sub exch vpt sub vpt Square fill Bsquare} bind def
/S5 {BL [] 0 setdash 2 copy 2 copy vpt Square fill
	exch vpt sub exch vpt sub vpt Square fill Bsquare} bind def
/S6 {BL [] 0 setdash 2 copy exch vpt sub exch vpt sub vpt vpt2 Rec fill Bsquare} bind def
/S7 {BL [] 0 setdash 2 copy exch vpt sub exch vpt sub vpt vpt2 Rec fill
	2 copy vpt Square fill Bsquare} bind def
/S8 {BL [] 0 setdash 2 copy vpt sub vpt Square fill Bsquare} bind def
/S9 {BL [] 0 setdash 2 copy vpt sub vpt vpt2 Rec fill Bsquare} bind def
/S10 {BL [] 0 setdash 2 copy vpt sub vpt Square fill 2 copy exch vpt sub exch vpt Square fill
	Bsquare} bind def
/S11 {BL [] 0 setdash 2 copy vpt sub vpt Square fill 2 copy exch vpt sub exch vpt2 vpt Rec fill
	Bsquare} bind def
/S12 {BL [] 0 setdash 2 copy exch vpt sub exch vpt sub vpt2 vpt Rec fill Bsquare} bind def
/S13 {BL [] 0 setdash 2 copy exch vpt sub exch vpt sub vpt2 vpt Rec fill
	2 copy vpt Square fill Bsquare} bind def
/S14 {BL [] 0 setdash 2 copy exch vpt sub exch vpt sub vpt2 vpt Rec fill
	2 copy exch vpt sub exch vpt Square fill Bsquare} bind def
/S15 {BL [] 0 setdash 2 copy Bsquare fill Bsquare} bind def
/D0 {gsave translate 45 rotate 0 0 S0 stroke grestore} bind def
/D1 {gsave translate 45 rotate 0 0 S1 stroke grestore} bind def
/D2 {gsave translate 45 rotate 0 0 S2 stroke grestore} bind def
/D3 {gsave translate 45 rotate 0 0 S3 stroke grestore} bind def
/D4 {gsave translate 45 rotate 0 0 S4 stroke grestore} bind def
/D5 {gsave translate 45 rotate 0 0 S5 stroke grestore} bind def
/D6 {gsave translate 45 rotate 0 0 S6 stroke grestore} bind def
/D7 {gsave translate 45 rotate 0 0 S7 stroke grestore} bind def
/D8 {gsave translate 45 rotate 0 0 S8 stroke grestore} bind def
/D9 {gsave translate 45 rotate 0 0 S9 stroke grestore} bind def
/D10 {gsave translate 45 rotate 0 0 S10 stroke grestore} bind def
/D11 {gsave translate 45 rotate 0 0 S11 stroke grestore} bind def
/D12 {gsave translate 45 rotate 0 0 S12 stroke grestore} bind def
/D13 {gsave translate 45 rotate 0 0 S13 stroke grestore} bind def
/D14 {gsave translate 45 rotate 0 0 S14 stroke grestore} bind def
/D15 {gsave translate 45 rotate 0 0 S15 stroke grestore} bind def
/DiaE {stroke [] 0 setdash vpt add M
  hpt neg vpt neg V hpt vpt neg V
  hpt vpt V hpt neg vpt V closepath stroke} def
/BoxE {stroke [] 0 setdash exch hpt sub exch vpt add M
  0 vpt2 neg V hpt2 0 V 0 vpt2 V
  hpt2 neg 0 V closepath stroke} def
/TriUE {stroke [] 0 setdash vpt 1.12 mul add M
  hpt neg vpt -1.62 mul V
  hpt 2 mul 0 V
  hpt neg vpt 1.62 mul V closepath stroke} def
/TriDE {stroke [] 0 setdash vpt 1.12 mul sub M
  hpt neg vpt 1.62 mul V
  hpt 2 mul 0 V
  hpt neg vpt -1.62 mul V closepath stroke} def
/PentE {stroke [] 0 setdash gsave
  translate 0 hpt M 4 {72 rotate 0 hpt L} repeat
  closepath stroke grestore} def
/CircE {stroke [] 0 setdash 
  hpt 0 360 arc stroke} def
/Opaque {gsave closepath 1 setgray fill grestore 0 setgray closepath} def
/DiaW {stroke [] 0 setdash vpt add M
  hpt neg vpt neg V hpt vpt neg V
  hpt vpt V hpt neg vpt V Opaque stroke} def
/BoxW {stroke [] 0 setdash exch hpt sub exch vpt add M
  0 vpt2 neg V hpt2 0 V 0 vpt2 V
  hpt2 neg 0 V Opaque stroke} def
/TriUW {stroke [] 0 setdash vpt 1.12 mul add M
  hpt neg vpt -1.62 mul V
  hpt 2 mul 0 V
  hpt neg vpt 1.62 mul V Opaque stroke} def
/TriDW {stroke [] 0 setdash vpt 1.12 mul sub M
  hpt neg vpt 1.62 mul V
  hpt 2 mul 0 V
  hpt neg vpt -1.62 mul V Opaque stroke} def
/PentW {stroke [] 0 setdash gsave
  translate 0 hpt M 4 {72 rotate 0 hpt L} repeat
  Opaque stroke grestore} def
/CircW {stroke [] 0 setdash 
  hpt 0 360 arc Opaque stroke} def
/BoxFill {gsave Rec 1 setgray fill grestore} def
/Density {
  /Fillden exch def
  currentrgbcolor
  /ColB exch def /ColG exch def /ColR exch def
  /ColR ColR Fillden mul Fillden sub 1 add def
  /ColG ColG Fillden mul Fillden sub 1 add def
  /ColB ColB Fillden mul Fillden sub 1 add def
  ColR ColG ColB setrgbcolor} def
/BoxColFill {gsave Rec PolyFill} def
/PolyFill {gsave Density fill grestore grestore} def
/h {rlineto rlineto rlineto gsave closepath fill grestore} bind def
%
% PostScript Level 1 Pattern Fill routine for rectangles
% Usage: x y w h s a XX PatternFill
%	x,y = lower left corner of box to be filled
%	w,h = width and height of box
%	  a = angle in degrees between lines and x-axis
%	 XX = 0/1 for no/yes cross-hatch
%
/PatternFill {gsave /PFa [ 9 2 roll ] def
  PFa 0 get PFa 2 get 2 div add PFa 1 get PFa 3 get 2 div add translate
  PFa 2 get -2 div PFa 3 get -2 div PFa 2 get PFa 3 get Rec
  TransparentPatterns {} {gsave 1 setgray fill grestore} ifelse
  clip
  currentlinewidth 0.5 mul setlinewidth
  /PFs PFa 2 get dup mul PFa 3 get dup mul add sqrt def
  0 0 M PFa 5 get rotate PFs -2 div dup translate
  0 1 PFs PFa 4 get div 1 add floor cvi
	{PFa 4 get mul 0 M 0 PFs V} for
  0 PFa 6 get ne {
	0 1 PFs PFa 4 get div 1 add floor cvi
	{PFa 4 get mul 0 2 1 roll M PFs 0 V} for
 } if
  stroke grestore} def
%
/languagelevel where
 {pop languagelevel} {1} ifelse
 2 lt
	{/InterpretLevel1 true def}
	{/InterpretLevel1 Level1 def}
 ifelse
%
% PostScript level 2 pattern fill definitions
%
/Level2PatternFill {
/Tile8x8 {/PaintType 2 /PatternType 1 /TilingType 1 /BBox [0 0 8 8] /XStep 8 /YStep 8}
	bind def
/KeepColor {currentrgbcolor [/Pattern /DeviceRGB] setcolorspace} bind def
<< Tile8x8
 /PaintProc {0.5 setlinewidth pop 0 0 M 8 8 L 0 8 M 8 0 L stroke} 
>> matrix makepattern
/Pat1 exch def
<< Tile8x8
 /PaintProc {0.5 setlinewidth pop 0 0 M 8 8 L 0 8 M 8 0 L stroke
	0 4 M 4 8 L 8 4 L 4 0 L 0 4 L stroke}
>> matrix makepattern
/Pat2 exch def
<< Tile8x8
 /PaintProc {0.5 setlinewidth pop 0 0 M 0 8 L
	8 8 L 8 0 L 0 0 L fill}
>> matrix makepattern
/Pat3 exch def
<< Tile8x8
 /PaintProc {0.5 setlinewidth pop -4 8 M 8 -4 L
	0 12 M 12 0 L stroke}
>> matrix makepattern
/Pat4 exch def
<< Tile8x8
 /PaintProc {0.5 setlinewidth pop -4 0 M 8 12 L
	0 -4 M 12 8 L stroke}
>> matrix makepattern
/Pat5 exch def
<< Tile8x8
 /PaintProc {0.5 setlinewidth pop -2 8 M 4 -4 L
	0 12 M 8 -4 L 4 12 M 10 0 L stroke}
>> matrix makepattern
/Pat6 exch def
<< Tile8x8
 /PaintProc {0.5 setlinewidth pop -2 0 M 4 12 L
	0 -4 M 8 12 L 4 -4 M 10 8 L stroke}
>> matrix makepattern
/Pat7 exch def
<< Tile8x8
 /PaintProc {0.5 setlinewidth pop 8 -2 M -4 4 L
	12 0 M -4 8 L 12 4 M 0 10 L stroke}
>> matrix makepattern
/Pat8 exch def
<< Tile8x8
 /PaintProc {0.5 setlinewidth pop 0 -2 M 12 4 L
	-4 0 M 12 8 L -4 4 M 8 10 L stroke}
>> matrix makepattern
/Pat9 exch def
/Pattern1 {PatternBgnd KeepColor Pat1 setpattern} bind def
/Pattern2 {PatternBgnd KeepColor Pat2 setpattern} bind def
/Pattern3 {PatternBgnd KeepColor Pat3 setpattern} bind def
/Pattern4 {PatternBgnd KeepColor Landscape {Pat5} {Pat4} ifelse setpattern} bind def
/Pattern5 {PatternBgnd KeepColor Landscape {Pat4} {Pat5} ifelse setpattern} bind def
/Pattern6 {PatternBgnd KeepColor Landscape {Pat9} {Pat6} ifelse setpattern} bind def
/Pattern7 {PatternBgnd KeepColor Landscape {Pat8} {Pat7} ifelse setpattern} bind def
} def
%
%
%End of PostScript Level 2 code
%
/PatternBgnd {
  TransparentPatterns {} {gsave 1 setgray fill grestore} ifelse
} def
%
% Substitute for Level 2 pattern fill codes with
% grayscale if Level 2 support is not selected.
%
/Level1PatternFill {
/Pattern1 {0.250 Density} bind def
/Pattern2 {0.500 Density} bind def
/Pattern3 {0.750 Density} bind def
/Pattern4 {0.125 Density} bind def
/Pattern5 {0.375 Density} bind def
/Pattern6 {0.625 Density} bind def
/Pattern7 {0.875 Density} bind def
} def
%
% Now test for support of Level 2 code
%
Level1 {Level1PatternFill} {Level2PatternFill} ifelse
%
/Symbol-Oblique /Symbol findfont [1 0 .167 1 0 0] makefont
dup length dict begin {1 index /FID eq {pop pop} {def} ifelse} forall
currentdict end definefont pop
Level1 SuppressPDFMark or 
{} {
/SDict 10 dict def
systemdict /pdfmark known not {
  userdict /pdfmark systemdict /cleartomark get put
} if
SDict begin [
  /Title (out.ps)
  /Subject (gnuplot plot)
  /Creator (gnuplot 4.6 patchlevel 6)
  /Author (yani)
%  /Producer (gnuplot)
%  /Keywords ()
  /CreationDate (Thu May 28 18:14:16 2015)
  /DOCINFO pdfmark
end
} ifelse
end
%%EndProlog
%%Page: 1 1
gnudict begin
gsave
doclip
50 50 translate
0.100 0.100 scale
90 rotate
0 -5040 translate
0 setgray
newpath
(Helvetica) findfont 140 scalefont setfont
BackgroundColor 0 lt 3 1 roll 0 lt exch 0 lt or or not {gsave BackgroundColor C clippath fill grestore} if
1.000 UL
LT0
0.50 0.50 0.50 C 1.000 UL
LTa
0.50 0.50 0.50 C 966 280 M
5981 0 V
stroke
LT0
0.50 0.50 0.50 C 966 280 M
63 0 V
5918 0 R
-63 0 V
882 280 M
( 0) Rshow
1.000 UL
LT0
0.50 0.50 0.50 C 1.000 UL
LTa
0.50 0.50 0.50 C 966 372 M
5981 0 V
stroke
LT0
0.50 0.50 0.50 C 966 372 M
63 0 V
5918 0 R
-63 0 V
882 372 M
( 0.707106) Rshow
1.000 UL
LT0
0.50 0.50 0.50 C 1.000 UL
LTa
0.50 0.50 0.50 C 966 464 M
5981 0 V
stroke
LT0
0.50 0.50 0.50 C 966 464 M
63 0 V
5918 0 R
-63 0 V
882 464 M
( 1.41421) Rshow
1.000 UL
LT0
0.50 0.50 0.50 C 1.000 UL
LTa
0.50 0.50 0.50 C 966 555 M
5981 0 V
stroke
LT0
0.50 0.50 0.50 C 966 555 M
63 0 V
5918 0 R
-63 0 V
882 555 M
( 2.12132) Rshow
1.000 UL
LT0
0.50 0.50 0.50 C 1.000 UL
LTa
0.50 0.50 0.50 C 966 647 M
5981 0 V
stroke
LT0
0.50 0.50 0.50 C 966 647 M
63 0 V
5918 0 R
-63 0 V
882 647 M
( 2.82842) Rshow
1.000 UL
LT0
0.50 0.50 0.50 C 1.000 UL
LTa
0.50 0.50 0.50 C 966 739 M
5981 0 V
stroke
LT0
0.50 0.50 0.50 C 966 739 M
63 0 V
5918 0 R
-63 0 V
882 739 M
( 3.53553) Rshow
1.000 UL
LT0
0.50 0.50 0.50 C 1.000 UL
LTa
0.50 0.50 0.50 C 966 831 M
5981 0 V
stroke
LT0
0.50 0.50 0.50 C 966 831 M
63 0 V
5918 0 R
-63 0 V
882 831 M
( 4.24264) Rshow
1.000 UL
LT0
0.50 0.50 0.50 C 1.000 UL
LTa
0.50 0.50 0.50 C 966 923 M
5981 0 V
stroke
LT0
0.50 0.50 0.50 C 966 923 M
63 0 V
5918 0 R
-63 0 V
882 923 M
( 4.94974) Rshow
1.000 UL
LT0
0.50 0.50 0.50 C 1.000 UL
LTa
0.50 0.50 0.50 C 966 1015 M
5981 0 V
stroke
LT0
0.50 0.50 0.50 C 966 1015 M
63 0 V
5918 0 R
-63 0 V
-6002 0 R
( 5.65685) Rshow
1.000 UL
LT0
0.50 0.50 0.50 C 1.000 UL
LTa
0.50 0.50 0.50 C 966 1106 M
5981 0 V
stroke
LT0
0.50 0.50 0.50 C 966 1106 M
63 0 V
5918 0 R
-63 0 V
-6002 0 R
( 6.36395) Rshow
1.000 UL
LT0
0.50 0.50 0.50 C 1.000 UL
LTa
0.50 0.50 0.50 C 966 1198 M
5981 0 V
stroke
LT0
0.50 0.50 0.50 C 966 1198 M
63 0 V
5918 0 R
-63 0 V
-6002 0 R
( 7.07106) Rshow
1.000 UL
LT0
0.50 0.50 0.50 C 1.000 UL
LTa
0.50 0.50 0.50 C 966 1290 M
5981 0 V
stroke
LT0
0.50 0.50 0.50 C 966 1290 M
63 0 V
5918 0 R
-63 0 V
-6002 0 R
( 7.77817) Rshow
1.000 UL
LT0
0.50 0.50 0.50 C 1.000 UL
LTa
0.50 0.50 0.50 C 966 1382 M
5981 0 V
stroke
LT0
0.50 0.50 0.50 C 966 1382 M
63 0 V
5918 0 R
-63 0 V
-6002 0 R
( 8.48527) Rshow
1.000 UL
LT0
0.50 0.50 0.50 C 1.000 UL
LTa
0.50 0.50 0.50 C 966 1474 M
5981 0 V
stroke
LT0
0.50 0.50 0.50 C 966 1474 M
63 0 V
5918 0 R
-63 0 V
-6002 0 R
( 9.19238) Rshow
1.000 UL
LT0
0.50 0.50 0.50 C 1.000 UL
LTa
0.50 0.50 0.50 C 966 1565 M
5981 0 V
stroke
LT0
0.50 0.50 0.50 C 966 1565 M
63 0 V
5918 0 R
-63 0 V
-6002 0 R
( 9.89948) Rshow
1.000 UL
LT0
0.50 0.50 0.50 C 1.000 UL
LTa
0.50 0.50 0.50 C 966 1657 M
5981 0 V
stroke
LT0
0.50 0.50 0.50 C 966 1657 M
63 0 V
5918 0 R
-63 0 V
-6002 0 R
( 10.6066) Rshow
1.000 UL
LT0
0.50 0.50 0.50 C 1.000 UL
LTa
0.50 0.50 0.50 C 966 1749 M
5981 0 V
stroke
LT0
0.50 0.50 0.50 C 966 1749 M
63 0 V
5918 0 R
-63 0 V
-6002 0 R
( 11.3137) Rshow
1.000 UL
LT0
0.50 0.50 0.50 C 1.000 UL
LTa
0.50 0.50 0.50 C 966 1841 M
5981 0 V
stroke
LT0
0.50 0.50 0.50 C 966 1841 M
63 0 V
5918 0 R
-63 0 V
-6002 0 R
( 12.0208) Rshow
1.000 UL
LT0
0.50 0.50 0.50 C 1.000 UL
LTa
0.50 0.50 0.50 C 966 1933 M
5981 0 V
stroke
LT0
0.50 0.50 0.50 C 966 1933 M
63 0 V
5918 0 R
-63 0 V
-6002 0 R
( 12.7279) Rshow
1.000 UL
LT0
0.50 0.50 0.50 C 1.000 UL
LTa
0.50 0.50 0.50 C 966 2025 M
5981 0 V
stroke
LT0
0.50 0.50 0.50 C 966 2025 M
63 0 V
5918 0 R
-63 0 V
-6002 0 R
( 13.435) Rshow
1.000 UL
LT0
0.50 0.50 0.50 C 1.000 UL
LTa
0.50 0.50 0.50 C 966 2116 M
5981 0 V
stroke
LT0
0.50 0.50 0.50 C 966 2116 M
63 0 V
5918 0 R
-63 0 V
-6002 0 R
( 14.1421) Rshow
1.000 UL
LT0
0.50 0.50 0.50 C 1.000 UL
LTa
0.50 0.50 0.50 C 966 2208 M
5981 0 V
stroke
LT0
0.50 0.50 0.50 C 966 2208 M
63 0 V
5918 0 R
-63 0 V
-6002 0 R
( 14.8492) Rshow
1.000 UL
LT0
0.50 0.50 0.50 C 1.000 UL
LTa
0.50 0.50 0.50 C 966 2300 M
5981 0 V
stroke
LT0
0.50 0.50 0.50 C 966 2300 M
63 0 V
5918 0 R
-63 0 V
-6002 0 R
( 15.5563) Rshow
1.000 UL
LT0
0.50 0.50 0.50 C 1.000 UL
LTa
0.50 0.50 0.50 C 966 2392 M
5981 0 V
stroke
LT0
0.50 0.50 0.50 C 966 2392 M
63 0 V
5918 0 R
-63 0 V
-6002 0 R
( 16.2634) Rshow
1.000 UL
LT0
0.50 0.50 0.50 C 1.000 UL
LTa
0.50 0.50 0.50 C 966 2484 M
5981 0 V
stroke
LT0
0.50 0.50 0.50 C 966 2484 M
63 0 V
5918 0 R
-63 0 V
-6002 0 R
( 16.9705) Rshow
1.000 UL
LT0
0.50 0.50 0.50 C 1.000 UL
LTa
0.50 0.50 0.50 C 966 2575 M
5981 0 V
stroke
LT0
0.50 0.50 0.50 C 966 2575 M
63 0 V
5918 0 R
-63 0 V
-6002 0 R
( 17.6776) Rshow
1.000 UL
LT0
0.50 0.50 0.50 C 1.000 UL
LTa
0.50 0.50 0.50 C 966 2667 M
5981 0 V
stroke
LT0
0.50 0.50 0.50 C 966 2667 M
63 0 V
5918 0 R
-63 0 V
-6002 0 R
( 18.3848) Rshow
1.000 UL
LT0
0.50 0.50 0.50 C 1.000 UL
LTa
0.50 0.50 0.50 C 966 2759 M
5981 0 V
stroke
LT0
0.50 0.50 0.50 C 966 2759 M
63 0 V
5918 0 R
-63 0 V
-6002 0 R
( 19.0919) Rshow
1.000 UL
LT0
0.50 0.50 0.50 C 1.000 UL
LTa
0.50 0.50 0.50 C 966 2851 M
5981 0 V
stroke
LT0
0.50 0.50 0.50 C 966 2851 M
63 0 V
5918 0 R
-63 0 V
-6002 0 R
( 19.799) Rshow
1.000 UL
LT0
0.50 0.50 0.50 C 1.000 UL
LTa
0.50 0.50 0.50 C 966 2943 M
5981 0 V
stroke
LT0
0.50 0.50 0.50 C 966 2943 M
63 0 V
5918 0 R
-63 0 V
-6002 0 R
( 20.5061) Rshow
1.000 UL
LT0
0.50 0.50 0.50 C 1.000 UL
LTa
0.50 0.50 0.50 C 966 3035 M
5981 0 V
stroke
LT0
0.50 0.50 0.50 C 966 3035 M
63 0 V
5918 0 R
-63 0 V
-6002 0 R
( 21.2132) Rshow
1.000 UL
LT0
0.50 0.50 0.50 C 1.000 UL
LTa
0.50 0.50 0.50 C 966 3126 M
5981 0 V
stroke
LT0
0.50 0.50 0.50 C 966 3126 M
63 0 V
5918 0 R
-63 0 V
-6002 0 R
( 21.9203) Rshow
1.000 UL
LT0
0.50 0.50 0.50 C 1.000 UL
LTa
0.50 0.50 0.50 C 966 3218 M
5981 0 V
stroke
LT0
0.50 0.50 0.50 C 966 3218 M
63 0 V
5918 0 R
-63 0 V
-6002 0 R
( 22.6274) Rshow
1.000 UL
LT0
0.50 0.50 0.50 C 1.000 UL
LTa
0.50 0.50 0.50 C 966 3310 M
5981 0 V
stroke
LT0
0.50 0.50 0.50 C 966 3310 M
63 0 V
5918 0 R
-63 0 V
-6002 0 R
( 23.3345) Rshow
1.000 UL
LT0
0.50 0.50 0.50 C 1.000 UL
LTa
0.50 0.50 0.50 C 966 3402 M
5981 0 V
stroke
LT0
0.50 0.50 0.50 C 966 3402 M
63 0 V
5918 0 R
-63 0 V
-6002 0 R
( 24.0416) Rshow
1.000 UL
LT0
0.50 0.50 0.50 C 1.000 UL
LTa
0.50 0.50 0.50 C 966 3494 M
5981 0 V
stroke
LT0
0.50 0.50 0.50 C 966 3494 M
63 0 V
5918 0 R
-63 0 V
-6002 0 R
( 24.7487) Rshow
1.000 UL
LT0
0.50 0.50 0.50 C 1.000 UL
LTa
0.50 0.50 0.50 C 966 3586 M
5981 0 V
stroke
LT0
0.50 0.50 0.50 C 966 3586 M
63 0 V
5918 0 R
-63 0 V
-6002 0 R
( 25.4558) Rshow
1.000 UL
LT0
0.50 0.50 0.50 C 1.000 UL
LTa
0.50 0.50 0.50 C 966 3677 M
5981 0 V
stroke
LT0
0.50 0.50 0.50 C 966 3677 M
63 0 V
5918 0 R
-63 0 V
-6002 0 R
( 26.1629) Rshow
1.000 UL
LT0
0.50 0.50 0.50 C 1.000 UL
LTa
0.50 0.50 0.50 C 966 3769 M
5981 0 V
stroke
LT0
0.50 0.50 0.50 C 966 3769 M
63 0 V
5918 0 R
-63 0 V
-6002 0 R
( 26.87) Rshow
1.000 UL
LT0
0.50 0.50 0.50 C 1.000 UL
LTa
0.50 0.50 0.50 C 966 3861 M
5981 0 V
stroke
LT0
0.50 0.50 0.50 C 966 3861 M
63 0 V
5918 0 R
-63 0 V
-6002 0 R
( 27.5771) Rshow
1.000 UL
LT0
0.50 0.50 0.50 C 1.000 UL
LTa
0.50 0.50 0.50 C 966 3953 M
5981 0 V
stroke
LT0
0.50 0.50 0.50 C 966 3953 M
63 0 V
5918 0 R
-63 0 V
-6002 0 R
( 28.2842) Rshow
1.000 UL
LT0
0.50 0.50 0.50 C 1.000 UL
LTa
0.50 0.50 0.50 C 966 4045 M
5981 0 V
stroke
LT0
0.50 0.50 0.50 C 966 4045 M
63 0 V
5918 0 R
-63 0 V
-6002 0 R
( 28.9913) Rshow
1.000 UL
LT0
0.50 0.50 0.50 C 1.000 UL
LTa
0.50 0.50 0.50 C 966 4136 M
5981 0 V
stroke
LT0
0.50 0.50 0.50 C 966 4136 M
63 0 V
5918 0 R
-63 0 V
-6002 0 R
( 29.6985) Rshow
1.000 UL
LT0
0.50 0.50 0.50 C 1.000 UL
LTa
0.50 0.50 0.50 C 966 4228 M
5981 0 V
stroke
LT0
0.50 0.50 0.50 C 966 4228 M
63 0 V
5918 0 R
-63 0 V
-6002 0 R
( 30.4056) Rshow
1.000 UL
LT0
0.50 0.50 0.50 C 1.000 UL
LTa
0.50 0.50 0.50 C 966 4320 M
5981 0 V
stroke
LT0
0.50 0.50 0.50 C 966 4320 M
63 0 V
5918 0 R
-63 0 V
-6002 0 R
( 31.1127) Rshow
1.000 UL
LT0
0.50 0.50 0.50 C 1.000 UL
LTa
0.50 0.50 0.50 C 966 4412 M
5981 0 V
stroke
LT0
0.50 0.50 0.50 C 966 4412 M
63 0 V
5918 0 R
-63 0 V
-6002 0 R
( 31.8198) Rshow
1.000 UL
LT0
0.50 0.50 0.50 C 1.000 UL
LTa
0.50 0.50 0.50 C 966 4504 M
5981 0 V
stroke
LT0
0.50 0.50 0.50 C 966 4504 M
63 0 V
5918 0 R
-63 0 V
-6002 0 R
( 32.5269) Rshow
1.000 UL
LT0
0.50 0.50 0.50 C 1.000 UL
LTa
0.50 0.50 0.50 C 966 4596 M
5981 0 V
stroke
LT0
0.50 0.50 0.50 C 966 4596 M
63 0 V
5918 0 R
-63 0 V
-6002 0 R
( 33.234) Rshow
1.000 UL
LT0
0.50 0.50 0.50 C 1.000 UL
LTa
0.50 0.50 0.50 C 966 4687 M
5981 0 V
stroke
LT0
0.50 0.50 0.50 C 966 4687 M
63 0 V
5918 0 R
-63 0 V
-6002 0 R
( 33.9411) Rshow
1.000 UL
LT0
0.50 0.50 0.50 C 1.000 UL
LTa
0.50 0.50 0.50 C 966 4779 M
5981 0 V
stroke
LT0
0.50 0.50 0.50 C 966 4779 M
63 0 V
5918 0 R
-63 0 V
-6002 0 R
( 34.6482) Rshow
1.000 UL
LT0
0.50 0.50 0.50 C 1.000 UL
LTa
0.50 0.50 0.50 C 966 4871 M
5981 0 V
stroke
LT0
0.50 0.50 0.50 C 966 4871 M
63 0 V
5918 0 R
-63 0 V
-6002 0 R
( 35.3553) Rshow
1.000 UL
LT0
0.50 0.50 0.50 C 1.000 UL
LTa
0.50 0.50 0.50 C 966 280 M
0 4591 V
stroke
LT0
0.50 0.50 0.50 C 966 280 M
0 63 V
0 4528 R
0 -63 V
966 140 M
( 0) Cshow
1.000 UL
LT0
0.50 0.50 0.50 C 1.000 UL
LTa
0.50 0.50 0.50 C 1086 280 M
0 4591 V
stroke
LT0
0.50 0.50 0.50 C 1086 280 M
0 63 V
0 4528 R
0 -63 V
0 -4668 R
( 0.707106) Cshow
1.000 UL
LT0
0.50 0.50 0.50 C 1.000 UL
LTa
0.50 0.50 0.50 C 1205 280 M
0 4591 V
stroke
LT0
0.50 0.50 0.50 C 1205 280 M
0 63 V
0 4528 R
0 -63 V
0 -4668 R
( 1.41421) Cshow
1.000 UL
LT0
0.50 0.50 0.50 C 1.000 UL
LTa
0.50 0.50 0.50 C 1325 280 M
0 4591 V
stroke
LT0
0.50 0.50 0.50 C 1325 280 M
0 63 V
0 4528 R
0 -63 V
0 -4668 R
( 2.12132) Cshow
1.000 UL
LT0
0.50 0.50 0.50 C 1.000 UL
LTa
0.50 0.50 0.50 C 1444 280 M
0 4591 V
stroke
LT0
0.50 0.50 0.50 C 1444 280 M
0 63 V
0 4528 R
0 -63 V
0 -4668 R
( 2.82842) Cshow
1.000 UL
LT0
0.50 0.50 0.50 C 1.000 UL
LTa
0.50 0.50 0.50 C 1564 280 M
0 4591 V
stroke
LT0
0.50 0.50 0.50 C 1564 280 M
0 63 V
0 4528 R
0 -63 V
0 -4668 R
( 3.53553) Cshow
1.000 UL
LT0
0.50 0.50 0.50 C 1.000 UL
LTa
0.50 0.50 0.50 C 1684 280 M
0 4591 V
stroke
LT0
0.50 0.50 0.50 C 1684 280 M
0 63 V
0 4528 R
0 -63 V
0 -4668 R
( 4.24264) Cshow
1.000 UL
LT0
0.50 0.50 0.50 C 1.000 UL
LTa
0.50 0.50 0.50 C 1803 280 M
0 4591 V
stroke
LT0
0.50 0.50 0.50 C 1803 280 M
0 63 V
0 4528 R
0 -63 V
0 -4668 R
( 4.94974) Cshow
1.000 UL
LT0
0.50 0.50 0.50 C 1.000 UL
LTa
0.50 0.50 0.50 C 1923 280 M
0 4591 V
stroke
LT0
0.50 0.50 0.50 C 1923 280 M
0 63 V
0 4528 R
0 -63 V
0 -4668 R
( 5.65685) Cshow
1.000 UL
LT0
0.50 0.50 0.50 C 1.000 UL
LTa
0.50 0.50 0.50 C 2043 280 M
0 4591 V
stroke
LT0
0.50 0.50 0.50 C 2043 280 M
0 63 V
0 4528 R
0 -63 V
0 -4668 R
( 6.36395) Cshow
1.000 UL
LT0
0.50 0.50 0.50 C 1.000 UL
LTa
0.50 0.50 0.50 C 2162 280 M
0 4591 V
stroke
LT0
0.50 0.50 0.50 C 2162 280 M
0 63 V
0 4528 R
0 -63 V
0 -4668 R
( 7.07106) Cshow
1.000 UL
LT0
0.50 0.50 0.50 C 1.000 UL
LTa
0.50 0.50 0.50 C 2282 280 M
0 4591 V
stroke
LT0
0.50 0.50 0.50 C 2282 280 M
0 63 V
0 4528 R
0 -63 V
0 -4668 R
( 7.77817) Cshow
1.000 UL
LT0
0.50 0.50 0.50 C 1.000 UL
LTa
0.50 0.50 0.50 C 2401 280 M
0 4591 V
stroke
LT0
0.50 0.50 0.50 C 2401 280 M
0 63 V
0 4528 R
0 -63 V
0 -4668 R
( 8.48527) Cshow
1.000 UL
LT0
0.50 0.50 0.50 C 1.000 UL
LTa
0.50 0.50 0.50 C 2521 280 M
0 4591 V
stroke
LT0
0.50 0.50 0.50 C 2521 280 M
0 63 V
0 4528 R
0 -63 V
0 -4668 R
( 9.19238) Cshow
1.000 UL
LT0
0.50 0.50 0.50 C 1.000 UL
LTa
0.50 0.50 0.50 C 2641 280 M
0 4591 V
stroke
LT0
0.50 0.50 0.50 C 2641 280 M
0 63 V
0 4528 R
0 -63 V
0 -4668 R
( 9.89948) Cshow
1.000 UL
LT0
0.50 0.50 0.50 C 1.000 UL
LTa
0.50 0.50 0.50 C 2760 280 M
0 4591 V
stroke
LT0
0.50 0.50 0.50 C 2760 280 M
0 63 V
0 4528 R
0 -63 V
0 -4668 R
( 10.6066) Cshow
1.000 UL
LT0
0.50 0.50 0.50 C 1.000 UL
LTa
0.50 0.50 0.50 C 2880 280 M
0 4591 V
stroke
LT0
0.50 0.50 0.50 C 2880 280 M
0 63 V
0 4528 R
0 -63 V
0 -4668 R
( 11.3137) Cshow
1.000 UL
LT0
0.50 0.50 0.50 C 1.000 UL
LTa
0.50 0.50 0.50 C 3000 280 M
0 4591 V
stroke
LT0
0.50 0.50 0.50 C 3000 280 M
0 63 V
0 4528 R
0 -63 V
0 -4668 R
( 12.0208) Cshow
1.000 UL
LT0
0.50 0.50 0.50 C 1.000 UL
LTa
0.50 0.50 0.50 C 3119 280 M
0 4591 V
stroke
LT0
0.50 0.50 0.50 C 3119 280 M
0 63 V
0 4528 R
0 -63 V
0 -4668 R
( 12.7279) Cshow
1.000 UL
LT0
0.50 0.50 0.50 C 1.000 UL
LTa
0.50 0.50 0.50 C 3239 280 M
0 4591 V
stroke
LT0
0.50 0.50 0.50 C 3239 280 M
0 63 V
0 4528 R
0 -63 V
0 -4668 R
( 13.435) Cshow
1.000 UL
LT0
0.50 0.50 0.50 C 1.000 UL
LTa
0.50 0.50 0.50 C 3358 280 M
0 4591 V
stroke
LT0
0.50 0.50 0.50 C 3358 280 M
0 63 V
0 4528 R
0 -63 V
0 -4668 R
( 14.1421) Cshow
1.000 UL
LT0
0.50 0.50 0.50 C 1.000 UL
LTa
0.50 0.50 0.50 C 3478 280 M
0 4591 V
stroke
LT0
0.50 0.50 0.50 C 3478 280 M
0 63 V
0 4528 R
0 -63 V
0 -4668 R
( 14.8492) Cshow
1.000 UL
LT0
0.50 0.50 0.50 C 1.000 UL
LTa
0.50 0.50 0.50 C 3598 280 M
0 4591 V
stroke
LT0
0.50 0.50 0.50 C 3598 280 M
0 63 V
0 4528 R
0 -63 V
0 -4668 R
( 15.5563) Cshow
1.000 UL
LT0
0.50 0.50 0.50 C 1.000 UL
LTa
0.50 0.50 0.50 C 3717 280 M
0 4591 V
stroke
LT0
0.50 0.50 0.50 C 3717 280 M
0 63 V
0 4528 R
0 -63 V
0 -4668 R
( 16.2634) Cshow
1.000 UL
LT0
0.50 0.50 0.50 C 1.000 UL
LTa
0.50 0.50 0.50 C 3837 280 M
0 4591 V
stroke
LT0
0.50 0.50 0.50 C 3837 280 M
0 63 V
0 4528 R
0 -63 V
0 -4668 R
( 16.9705) Cshow
1.000 UL
LT0
0.50 0.50 0.50 C 1.000 UL
LTa
0.50 0.50 0.50 C 3956 280 M
0 4591 V
stroke
LT0
0.50 0.50 0.50 C 3956 280 M
0 63 V
0 4528 R
0 -63 V
0 -4668 R
( 17.6776) Cshow
1.000 UL
LT0
0.50 0.50 0.50 C 1.000 UL
LTa
0.50 0.50 0.50 C 4076 280 M
0 4591 V
stroke
LT0
0.50 0.50 0.50 C 4076 280 M
0 63 V
0 4528 R
0 -63 V
0 -4668 R
( 18.3848) Cshow
1.000 UL
LT0
0.50 0.50 0.50 C 1.000 UL
LTa
0.50 0.50 0.50 C 4196 280 M
0 4591 V
stroke
LT0
0.50 0.50 0.50 C 4196 280 M
0 63 V
0 4528 R
0 -63 V
0 -4668 R
( 19.0919) Cshow
1.000 UL
LT0
0.50 0.50 0.50 C 1.000 UL
LTa
0.50 0.50 0.50 C 4315 280 M
0 4591 V
stroke
LT0
0.50 0.50 0.50 C 4315 280 M
0 63 V
0 4528 R
0 -63 V
0 -4668 R
( 19.799) Cshow
1.000 UL
LT0
0.50 0.50 0.50 C 1.000 UL
LTa
0.50 0.50 0.50 C 4435 280 M
0 4591 V
stroke
LT0
0.50 0.50 0.50 C 4435 280 M
0 63 V
0 4528 R
0 -63 V
0 -4668 R
( 20.5061) Cshow
1.000 UL
LT0
0.50 0.50 0.50 C 1.000 UL
LTa
0.50 0.50 0.50 C 4555 280 M
0 4591 V
stroke
LT0
0.50 0.50 0.50 C 4555 280 M
0 63 V
0 4528 R
0 -63 V
0 -4668 R
( 21.2132) Cshow
1.000 UL
LT0
0.50 0.50 0.50 C 1.000 UL
LTa
0.50 0.50 0.50 C 4674 280 M
0 4591 V
stroke
LT0
0.50 0.50 0.50 C 4674 280 M
0 63 V
0 4528 R
0 -63 V
0 -4668 R
( 21.9203) Cshow
1.000 UL
LT0
0.50 0.50 0.50 C 1.000 UL
LTa
0.50 0.50 0.50 C 4794 280 M
0 4591 V
stroke
LT0
0.50 0.50 0.50 C 4794 280 M
0 63 V
0 4528 R
0 -63 V
0 -4668 R
( 22.6274) Cshow
1.000 UL
LT0
0.50 0.50 0.50 C 1.000 UL
LTa
0.50 0.50 0.50 C 4913 280 M
0 4591 V
stroke
LT0
0.50 0.50 0.50 C 4913 280 M
0 63 V
0 4528 R
0 -63 V
0 -4668 R
( 23.3345) Cshow
1.000 UL
LT0
0.50 0.50 0.50 C 1.000 UL
LTa
0.50 0.50 0.50 C 5033 280 M
0 4591 V
stroke
LT0
0.50 0.50 0.50 C 5033 280 M
0 63 V
0 4528 R
0 -63 V
0 -4668 R
( 24.0416) Cshow
1.000 UL
LT0
0.50 0.50 0.50 C 1.000 UL
LTa
0.50 0.50 0.50 C 5153 280 M
0 4591 V
stroke
LT0
0.50 0.50 0.50 C 5153 280 M
0 63 V
0 4528 R
0 -63 V
0 -4668 R
( 24.7487) Cshow
1.000 UL
LT0
0.50 0.50 0.50 C 1.000 UL
LTa
0.50 0.50 0.50 C 5272 280 M
0 4591 V
stroke
LT0
0.50 0.50 0.50 C 5272 280 M
0 63 V
0 4528 R
0 -63 V
0 -4668 R
( 25.4558) Cshow
1.000 UL
LT0
0.50 0.50 0.50 C 1.000 UL
LTa
0.50 0.50 0.50 C 5392 280 M
0 4591 V
stroke
LT0
0.50 0.50 0.50 C 5392 280 M
0 63 V
0 4528 R
0 -63 V
0 -4668 R
( 26.1629) Cshow
1.000 UL
LT0
0.50 0.50 0.50 C 1.000 UL
LTa
0.50 0.50 0.50 C 5512 280 M
0 4591 V
stroke
LT0
0.50 0.50 0.50 C 5512 280 M
0 63 V
0 4528 R
0 -63 V
0 -4668 R
( 26.87) Cshow
1.000 UL
LT0
0.50 0.50 0.50 C 1.000 UL
LTa
0.50 0.50 0.50 C 5631 280 M
0 4591 V
stroke
LT0
0.50 0.50 0.50 C 5631 280 M
0 63 V
0 4528 R
0 -63 V
0 -4668 R
( 27.5771) Cshow
1.000 UL
LT0
0.50 0.50 0.50 C 1.000 UL
LTa
0.50 0.50 0.50 C 5751 280 M
0 4591 V
stroke
LT0
0.50 0.50 0.50 C 5751 280 M
0 63 V
0 4528 R
0 -63 V
0 -4668 R
( 28.2842) Cshow
1.000 UL
LT0
0.50 0.50 0.50 C 1.000 UL
LTa
0.50 0.50 0.50 C 5870 280 M
0 4591 V
stroke
LT0
0.50 0.50 0.50 C 5870 280 M
0 63 V
0 4528 R
0 -63 V
0 -4668 R
( 28.9913) Cshow
1.000 UL
LT0
0.50 0.50 0.50 C 1.000 UL
LTa
0.50 0.50 0.50 C 5990 280 M
0 4591 V
stroke
LT0
0.50 0.50 0.50 C 5990 280 M
0 63 V
0 4528 R
0 -63 V
0 -4668 R
( 29.6985) Cshow
1.000 UL
LT0
0.50 0.50 0.50 C 1.000 UL
LTa
0.50 0.50 0.50 C 6110 280 M
0 4591 V
stroke
LT0
0.50 0.50 0.50 C 6110 280 M
0 63 V
0 4528 R
0 -63 V
0 -4668 R
( 30.4056) Cshow
1.000 UL
LT0
0.50 0.50 0.50 C 1.000 UL
LTa
0.50 0.50 0.50 C 6229 280 M
0 4591 V
stroke
LT0
0.50 0.50 0.50 C 6229 280 M
0 63 V
0 4528 R
0 -63 V
0 -4668 R
( 31.1127) Cshow
1.000 UL
LT0
0.50 0.50 0.50 C 1.000 UL
LTa
0.50 0.50 0.50 C 6349 280 M
0 4591 V
stroke
LT0
0.50 0.50 0.50 C 6349 280 M
0 63 V
0 4528 R
0 -63 V
0 -4668 R
( 31.8198) Cshow
1.000 UL
LT0
0.50 0.50 0.50 C 1.000 UL
LTa
0.50 0.50 0.50 C 6469 280 M
0 4591 V
stroke
LT0
0.50 0.50 0.50 C 6469 280 M
0 63 V
0 4528 R
0 -63 V
0 -4668 R
( 32.5269) Cshow
1.000 UL
LT0
0.50 0.50 0.50 C 1.000 UL
LTa
0.50 0.50 0.50 C 6588 280 M
0 4591 V
stroke
LT0
0.50 0.50 0.50 C 6588 280 M
0 63 V
0 4528 R
0 -63 V
0 -4668 R
( 33.234) Cshow
1.000 UL
LT0
0.50 0.50 0.50 C 1.000 UL
LTa
0.50 0.50 0.50 C 6708 280 M
0 4591 V
stroke
LT0
0.50 0.50 0.50 C 6708 280 M
0 63 V
0 4528 R
0 -63 V
0 -4668 R
( 33.9411) Cshow
1.000 UL
LT0
0.50 0.50 0.50 C 1.000 UL
LTa
0.50 0.50 0.50 C 6827 280 M
0 4591 V
stroke
LT0
0.50 0.50 0.50 C 6827 280 M
0 63 V
0 4528 R
0 -63 V
0 -4668 R
( 34.6482) Cshow
1.000 UL
LT0
0.50 0.50 0.50 C 1.000 UL
LTa
0.50 0.50 0.50 C 6947 280 M
0 4591 V
stroke
LT0
0.50 0.50 0.50 C 6947 280 M
0 63 V
0 4528 R
0 -63 V
0 -4668 R
( 35.3553) Cshow
1.000 UL
LT0
0.50 0.50 0.50 C 1.000 UL
LT0
0.50 0.50 0.50 C 966 4871 M
966 280 L
5981 0 V
0 4591 R
-5981 0 R
1.000 UP
stroke
LT0
0.50 0.50 0.50 C % Begin plot #1
1.500 UP
2.000 UL
LT0
0.00 0.00 1.00 C /Helvetica findfont 140 scalefont setfont
/vshift -46 def
966 647 M
120 0 V
0 92 R
119 0 V
120 0 V
0 184 R
119 0 V
120 0 V
120 0 V
119 0 V
120 0 V
120 0 V
119 0 V
120 0 V
119 0 V
120 0 V
0 92 R
120 0 V
119 0 V
120 0 V
120 0 V
119 0 V
0 183 R
120 0 V
0 184 R
119 0 V
120 0 V
0 367 R
120 0 V
119 0 V
0 92 R
120 0 V
0 275 R
120 0 V
119 0 V
0 184 R
120 0 V
119 0 V
120 0 V
120 0 V
119 0 V
120 0 V
0 276 R
119 0 V
120 0 V
120 0 V
0 367 R
119 0 V
120 0 V
0 459 R
120 0 V
119 0 V
120 0 V
0 643 R
119 0 V
0 183 R
120 0 V
120 0 V
119 0 V
0 92 R
120 0 V
120 0 V
119 0 V
120 0 V
0 367 R
119 0 V
1086 647 M
0 92 V
239 0 R
0 92 V
0 92 V
1196 0 R
0 92 V
598 0 R
0 91 V
0 92 V
120 0 R
0 92 V
0 92 V
239 0 R
0 92 V
0 91 V
0 92 V
0 92 V
239 0 R
0 92 V
120 0 R
0 92 V
0 92 V
0 91 V
239 0 R
0 92 V
0 92 V
718 0 R
0 92 V
0 92 V
0 92 V
359 0 R
0 91 V
0 92 V
0 92 V
0 92 V
239 0 R
0 92 V
0 91 V
stroke 5392 3126 M
0 92 V
0 92 V
0 92 V
359 0 R
0 92 V
0 92 V
0 91 V
0 92 V
0 92 V
0 92 V
0 92 V
119 0 R
0 91 V
0 92 V
359 0 R
0 92 V
479 0 R
0 92 V
0 92 V
0 92 V
0 91 V
966 280 M
0 92 V
6827 4687 M
0 92 V
966 372 M
0 92 V
0 91 V
0 92 V
966 647 CircleF
1086 647 CircleF
1086 739 CircleF
1205 739 CircleF
1205 739 CircleF
1325 739 CircleF
1325 923 CircleF
1444 923 CircleF
1444 923 CircleF
1564 923 CircleF
1564 923 CircleF
1684 923 CircleF
1684 923 CircleF
1803 923 CircleF
1803 923 CircleF
1923 923 CircleF
1923 923 CircleF
2043 923 CircleF
2043 923 CircleF
2162 923 CircleF
2162 923 CircleF
2282 923 CircleF
2282 923 CircleF
2401 923 CircleF
2401 923 CircleF
2521 923 CircleF
2521 1015 CircleF
2641 1015 CircleF
2641 1015 CircleF
2760 1015 CircleF
2760 1015 CircleF
2880 1015 CircleF
2880 1015 CircleF
3000 1015 CircleF
3000 1015 CircleF
3119 1015 CircleF
3119 1198 CircleF
3239 1198 CircleF
3239 1382 CircleF
3358 1382 CircleF
3358 1382 CircleF
3478 1382 CircleF
3478 1749 CircleF
3598 1749 CircleF
3598 1749 CircleF
3717 1749 CircleF
3717 1841 CircleF
3837 1841 CircleF
3837 2116 CircleF
3957 2116 CircleF
3957 2116 CircleF
4076 2116 CircleF
4076 2300 CircleF
4196 2300 CircleF
4196 2300 CircleF
4315 2300 CircleF
4315 2300 CircleF
4435 2300 CircleF
4435 2300 CircleF
4555 2300 CircleF
4555 2300 CircleF
4674 2300 CircleF
4674 2300 CircleF
4794 2300 CircleF
4794 2576 CircleF
4913 2576 CircleF
4913 2576 CircleF
5033 2576 CircleF
5033 2576 CircleF
5153 2576 CircleF
5153 2943 CircleF
5272 2943 CircleF
5272 2943 CircleF
5392 2943 CircleF
5392 3402 CircleF
5512 3402 CircleF
5512 3402 CircleF
5631 3402 CircleF
5631 3402 CircleF
5751 3402 CircleF
5751 4045 CircleF
5870 4045 CircleF
5870 4228 CircleF
5990 4228 CircleF
5990 4228 CircleF
6110 4228 CircleF
6110 4228 CircleF
6229 4228 CircleF
6229 4320 CircleF
6349 4320 CircleF
6349 4320 CircleF
6469 4320 CircleF
6469 4320 CircleF
6588 4320 CircleF
6588 4320 CircleF
6708 4320 CircleF
6708 4687 CircleF
6827 4687 CircleF
1086 647 CircleF
1086 739 CircleF
1325 739 CircleF
1325 831 CircleF
1325 831 CircleF
1325 923 CircleF
2521 923 CircleF
2521 1015 CircleF
3119 1015 CircleF
3119 1106 CircleF
3119 1106 CircleF
3119 1198 CircleF
3239 1198 CircleF
3239 1290 CircleF
3239 1290 CircleF
3239 1382 CircleF
3478 1382 CircleF
3478 1474 CircleF
3478 1474 CircleF
3478 1565 CircleF
3478 1565 CircleF
3478 1657 CircleF
3478 1657 CircleF
3478 1749 CircleF
3717 1749 CircleF
3717 1841 CircleF
3837 1841 CircleF
3837 1933 CircleF
3837 1933 CircleF
3837 2025 CircleF
3837 2025 CircleF
3837 2116 CircleF
4076 2116 CircleF
4076 2208 CircleF
4076 2208 CircleF
4076 2300 CircleF
4794 2300 CircleF
4794 2392 CircleF
4794 2392 CircleF
4794 2484 CircleF
4794 2484 CircleF
4794 2576 CircleF
5153 2576 CircleF
5153 2667 CircleF
5153 2667 CircleF
5153 2759 CircleF
5153 2759 CircleF
5153 2851 CircleF
5153 2851 CircleF
5153 2943 CircleF
5392 2943 CircleF
5392 3035 CircleF
5392 3035 CircleF
5392 3126 CircleF
5392 3126 CircleF
5392 3218 CircleF
5392 3218 CircleF
5392 3310 CircleF
5392 3310 CircleF
5392 3402 CircleF
5751 3402 CircleF
5751 3494 CircleF
5751 3494 CircleF
5751 3586 CircleF
5751 3586 CircleF
5751 3677 CircleF
5751 3677 CircleF
5751 3769 CircleF
5751 3769 CircleF
5751 3861 CircleF
5751 3861 CircleF
5751 3953 CircleF
5751 3953 CircleF
5751 4045 CircleF
5870 4045 CircleF
5870 4136 CircleF
5870 4136 CircleF
5870 4228 CircleF
6229 4228 CircleF
6229 4320 CircleF
6708 4320 CircleF
6708 4412 CircleF
6708 4412 CircleF
6708 4504 CircleF
6708 4504 CircleF
6708 4596 CircleF
6708 4596 CircleF
6708 4687 CircleF
966 280 CircleF
966 372 CircleF
6827 4687 CircleF
6827 4779 CircleF
966 372 CircleF
966 464 CircleF
966 464 CircleF
966 555 CircleF
966 555 CircleF
966 647 CircleF
% End plot #1
% Begin plot #2
1.500 UP
2.000 UL
LT0
1.00 0.55 0.00 C /Helvetica findfont 140 scalefont setfont
1260 1273 M
119 92 V
4499 3869 M
120 92 V
1989 4503 M
120 91 V
4971 3692 M
119 92 V
3307 4459 M
120 92 V
2404 4532 M
120 91 V
4887 1965 M
120 92 V
2553 1095 M
119 92 V
5182 2394 M
119 92 V
2595 2399 M
120 91 V
3871 -4 R
120 92 V
4469 3848 M
119 92 V
3029 3262 M
120 92 V
1652 1393 M
120 92 V
5128 3934 M
119 92 V
-466 100 R
120 92 V
6240 4065 M
120 92 V
2514 982 M
120 92 V
5705 2096 M
119 92 V
3021 3379 M
120 92 V
-112 780 R
120 92 V
1224 4449 M
119 92 V
2727 1163 M
120 91 V
5481 2694 M
120 92 V
4481 4371 M
120 91 V
1227 2029 M
120 92 V
2225 480 R
119 91 V
-20 -908 R
120 92 V
1794 218 R
120 92 V
5195 3391 M
119 92 V
4067 3313 M
119 92 V
2037 1735 M
119 92 V
910 2158 R
119 91 V
1194 4011 M
120 91 V
981 2026 M
120 92 V
1031 8 R
120 92 V
3825 2104 M
119 92 V
3545 3371 M
119 92 V
3026 1032 M
120 92 V
3345 874 R
120 92 V
6103 4473 M
120 92 V
5510 610 M
119 92 V
2159 856 M
119 91 V
6490 822 M
119 92 V
2584 2322 M
120 92 V
1083 394 R
120 92 V
2646 413 R
120 92 V
-13 393 R
119 92 V
2821 2182 M
120 92 V
5570 1394 M
119 91 V
3641 3477 M
119 92 V
4551 1078 M
120 91 V
2793 2569 M
119 92 V
stroke 2912 2661 M
5645 2062 M
120 92 V
1562 1133 M
119 92 V
2287 585 M
120 92 V
6192 3862 M
120 92 V
1656 505 M
120 91 V
331 2940 R
120 92 V
3447 1478 M
119 92 V
513 410 R
119 92 V
5499 1600 M
120 92 V
5217 731 M
119 92 V
6597 957 M
120 92 V
1089 1475 M
119 92 V
3826 -45 R
119 91 V
596 1505 R
120 92 V
6493 1673 M
119 92 V
1778 4323 M
120 91 V
2209 664 M
120 92 V
205 1872 R
120 92 V
2321 4502 M
119 92 V
2803 789 M
120 92 V
6183 3141 M
119 92 V
3366 1390 M
120 92 V
3209 2917 M
119 92 V
2087 3484 M
119 92 V
6011 1455 M
120 92 V
5931 3577 M
120 92 V
3242 1440 M
119 92 V
-48 1509 R
119 92 V
2136 -25 R
120 92 V
3133 3548 M
119 92 V
3829 1329 M
120 92 V
6467 3149 M
120 92 V
1552 2549 M
120 92 V
-229 79 R
120 92 V
721 990 R
120 92 V
5093 1172 M
119 92 V
2560 755 M
120 92 V
240 3731 R
120 91 V
1878 3963 M
120 91 V
1926 463 M
119 91 V
2513 626 R
120 91 V
4403 2543 M
119 92 V
1983 406 R
120 91 V
3229 1397 M
120 92 V
2883 366 R
119 92 V
2278 2745 M
120 92 V
297 1144 R
120 92 V
4777 1025 M
120 92 V
6550 556 M
120 92 V
3143 4569 M
119 92 V
1773 2282 M
120 92 V
5865 3826 M
119 92 V
stroke 5984 3918 M
5394 1471 M
120 92 V
6685 4656 M
119 92 V
2168 677 M
119 92 V
2132 3883 M
120 92 V
2619 2474 M
120 92 V
1703 859 M
120 91 V
3058 554 R
119 91 V
1511 1133 M
119 92 V
3905 3913 M
120 92 V
6528 2895 M
119 92 V
2913 1331 M
119 92 V
6398 4269 M
120 92 V
1773 369 M
120 92 V
5372 4394 M
120 91 V
1166 4684 M
120 92 V
3949 4240 M
120 92 V
3102 1653 M
120 91 V
1741 3772 M
120 92 V
3584 984 M
120 92 V
5325 937 M
119 92 V
3889 1747 M
120 92 V
1847 4518 M
120 92 V
3500 510 M
120 91 V
527 3861 R
120 91 V
2867 3906 M
119 92 V
3700 2626 M
119 92 V
1711 629 R
120 92 V
5198 2660 M
120 92 V
4018 1850 M
120 92 V
1756 3793 M
120 92 V
3848 1058 M
119 92 V
499 2915 R
119 92 V
5406 1968 M
120 92 V
-1573 -3 R
120 92 V
3231 776 M
120 92 V
6675 2484 M
120 92 V
4319 2736 M
120 92 V
1985 934 M
119 92 V
742 3012 R
119 92 V
1785 3350 M
120 92 V
2720 2227 M
120 92 V
5097 4065 M
119 92 V
4606 1583 M
120 92 V
2676 1359 M
120 92 V
6334 302 M
120 91 V
4770 2415 M
120 92 V
250 -562 R
119 92 V
3243 1107 M
119 92 V
5967 967 M
119 92 V
4865 3408 M
120 92 V
3369 3846 M
120 92 V
3950 2781 M
120 92 V
stroke 4070 2873 M
5463 744 M
120 92 V
3142 3250 M
120 92 V
4265 2289 M
120 92 V
2352 4014 M
120 92 V
2600 1874 M
119 92 V
1442 1412 M
120 92 V
2839 3362 M
120 92 V
3854 1713 M
120 92 V
377 142 R
120 92 V
2209 4034 M
119 92 V
1457 1503 M
120 92 V
6603 4298 M
120 92 V
3057 2480 M
119 92 V
4089 923 M
120 91 V
328 1545 R
120 92 V
165 -757 R
120 91 V
2483 1318 M
119 92 V
6367 3390 M
120 91 V
5374 3167 M
119 91 V
6041 2228 M
120 92 V
5733 1934 M
120 91 V
-39 2518 R
120 92 V
115 -745 R
119 92 V
4536 578 M
120 92 V
-59 3094 R
119 91 V
2339 2085 M
119 92 V
2053 4321 M
120 91 V
1442 4081 M
119 91 V
1557 -16 R
120 91 V
548 423 R
120 92 V
724 -903 R
119 92 V
1770 34 R
120 92 V
2585 2723 M
120 92 V
4888 798 M
120 92 V
4121 2240 M
119 92 V
5717 3957 M
120 91 V
4117 944 M
119 92 V
1469 2398 M
119 92 V
3061 1752 M
120 92 V
5023 2865 M
120 91 V
193 25 R
119 92 V
1971 2477 M
120 92 V
1605 1125 M
119 92 V
4864 2261 M
120 92 V
1837 1141 M
119 91 V
1002 830 M
120 92 V
2248 2945 M
120 92 V
1835 4389 M
120 91 V
5829 4173 M
119 92 V
4766 983 M
120 92 V
2153 2667 M
120 92 V
3953 2104 M
119 92 V
stroke 4072 2196 M
5001 473 M
119 92 V
1145 2015 M
120 92 V
6439 3133 M
120 92 V
6068 1557 M
120 92 V
-638 196 R
120 92 V
-575 -39 R
120 92 V
1225 1851 M
119 92 V
2792 4093 M
119 92 V
962 -717 R
119 92 V
1399 435 R
119 91 V
6687 2340 M
120 92 V
2030 2606 M
119 92 V
4756 703 M
120 92 V
3840 3405 M
119 92 V
3078 2483 M
120 92 V
2257 398 M
120 92 V
3431 3357 M
120 91 V
-109 32 R
119 92 V
6327 585 M
119 92 V
6235 2432 M
119 92 V
3222 4487 M
119 92 V
4011 1973 M
120 92 V
-2809 53 R
120 92 V
987 2433 R
119 92 V
4184 696 M
119 92 V
-865 634 R
120 91 V
944 1818 R
120 92 V
1203 1115 M
119 92 V
1679 313 R
119 92 V
1225 3428 M
120 92 V
4554 421 M
120 92 V
4352 3438 M
120 91 V
1134 1117 M
119 92 V
438 1219 R
120 91 V
4661 4034 M
120 92 V
4019 3785 M
120 91 V
1568 1545 M
119 91 V
928 -624 R
119 92 V
2331 751 R
120 92 V
2617 2847 M
120 92 V
802 1674 R
119 91 V
6634 4457 M
120 91 V
1247 3143 M
119 92 V
6182 4419 M
119 91 V
5421 3595 M
119 92 V
6364 389 M
120 92 V
3527 1212 M
120 92 V
6491 4096 M
119 92 V
2563 2112 M
120 92 V
6328 1360 M
120 92 V
5832 449 M
119 92 V
2562 1934 M
120 92 V
stroke 2682 2026 M
4783 1764 M
120 92 V
3850 411 M
120 92 V
882 4171 R
120 92 V
3340 2644 M
120 92 V
2343 876 M
120 91 V
1254 961 R
120 92 V
5801 835 M
119 91 V
12 1161 R
120 92 V
3397 334 M
120 92 V
5947 357 M
120 92 V
5886 2914 M
120 92 V
6027 601 M
120 92 V
1256 788 M
120 91 V
3337 621 M
119 92 V
5973 485 M
120 92 V
2700 4227 M
120 92 V
4180 1517 M
120 91 V
2695 3737 M
119 92 V
867 -858 R
120 91 V
2070 3790 M
119 92 V
5304 1206 M
120 92 V
1232 4646 M
120 92 V
4837 1408 M
120 92 V
-73 2363 R
120 92 V
5200 303 M
120 92 V
3285 1078 M
120 92 V
551 3368 R
120 92 V
2764 1012 M
120 92 V
-470 336 R
120 92 V
214 1486 R
120 92 V
1616 2739 M
119 92 V
4536 4269 M
120 92 V
313 139 R
119 92 V
3345 1859 M
119 92 V
2729 765 R
120 92 V
-39 754 R
120 92 V
5321 3265 M
119 92 V
3974 902 M
119 92 V
1704 1467 M
119 92 V
4235 3834 M
120 92 V
3916 923 M
120 92 V
3488 2984 M
120 92 V
2508 3909 M
120 92 V
4115 2424 M
120 92 V
571 18 R
120 91 V
4718 3938 M
119 92 V
5877 2640 M
120 92 V
1244 3087 M
120 92 V
4885 4553 M
119 91 V
977 3443 M
120 92 V
4227 1170 M
120 92 V
-853 800 R
119 92 V
stroke 3613 2154 M
2706 727 M
119 91 V
5900 2520 M
119 92 V
4988 3179 M
120 92 V
6361 763 M
120 92 V
4208 503 M
119 92 V
5656 1994 M
120 92 V
5503 1850 M
120 92 V
107 -639 R
120 92 V
-611 379 R
119 92 V
1420 1265 M
120 92 V
-85 1232 R
119 92 V
4864 2569 M
120 92 V
611 1109 R
120 92 V
4690 2342 M
120 92 V
3589 3283 M
119 92 V
5742 1644 M
120 92 V
-4097 69 R
119 91 V
4767 3563 M
119 92 V
4143 282 M
120 92 V
3034 314 M
119 91 V
5715 3707 M
120 92 V
2684 756 M
119 92 V
5696 4230 M
120 92 V
1105 1505 M
120 92 V
976 4562 M
119 92 V
31 -1044 R
120 92 V
3557 712 M
120 92 V
-321 199 R
120 92 V
4876 2677 M
120 92 V
3438 1062 M
119 92 V
6162 2975 M
120 92 V
2353 3302 M
120 91 V
999 1144 R
120 92 V
3452 1545 M
120 92 V
1882 875 M
120 92 V
4565 883 R
120 92 V
6643 982 M
120 91 V
3004 4242 M
120 92 V
-1124 95 R
119 92 V
4999 1615 M
120 92 V
2268 4406 M
120 92 V
6041 3351 M
120 92 V
-4921 60 R
120 92 V
3394 2402 M
120 92 V
2558 795 R
119 92 V
3614 775 M
120 92 V
1279 981 M
120 91 V
3469 4498 M
120 92 V
4113 2536 M
120 92 V
6191 3954 M
119 92 V
3803 2010 M
120 92 V
-1976 51 R
120 92 V
stroke 2067 2245 M
230 -93 R
120 91 V
1155 2014 M
120 92 V
5646 3461 M
120 92 V
3226 1260 M
120 92 V
590 2048 R
119 92 V
1436 2312 M
119 92 V
3587 722 R
120 92 V
-2567 3 R
119 92 V
5555 2530 M
119 92 V
2372 859 M
120 91 V
455 1400 R
120 92 V
6186 2024 M
119 92 V
4429 2256 M
120 92 V
625 -295 R
120 92 V
4258 1481 M
119 92 V
141 723 R
120 92 V
3054 2269 M
119 92 V
206 2297 R
119 92 V
5669 3637 M
120 92 V
407 124 R
120 92 V
-840 104 R
120 92 V
-909 417 R
120 92 V
4336 2344 M
120 92 V
494 -728 R
119 91 V
1000 702 R
120 92 V
5954 740 M
120 92 V
4491 3581 M
120 92 V
3393 3306 M
119 92 V
1877 4654 M
120 92 V
1652 3541 M
120 92 V
2147 2581 M
120 92 V
1571 920 M
119 92 V
6652 3930 M
120 91 V
1879 3007 M
119 92 V
2903 1455 M
120 91 V
5974 353 M
120 91 V
5645 3328 M
120 92 V
1349 4385 M
120 92 V
3978 3620 M
119 92 V
4343 2652 M
120 92 V
1946 4450 M
120 92 V
1924 3802 M
119 91 V
1486 385 M
120 92 V
3704 3108 M
120 91 V
6165 1014 M
119 92 V
2657 4645 M
120 92 V
3023 2743 M
120 92 V
2844 588 M
119 92 V
584 3969 R
120 92 V
2269 823 M
119 92 V
898 54 R
120 92 V
1241 687 R
119 92 V
stroke 4766 1840 M
6325 993 M
120 92 V
3324 3287 M
119 92 V
5243 1708 M
120 91 V
4471 949 M
120 91 V
2683 4530 M
120 92 V
6385 3715 M
119 91 V
4200 4405 M
119 92 V
1298 1372 M
120 92 V
519 2400 R
119 92 V
6185 1040 M
120 92 V
1328 2643 M
120 91 V
4350 669 M
120 92 V
2584 3699 M
120 92 V
6442 1671 M
119 92 V
3560 3035 M
119 92 V
2836 -65 R
120 92 V
6060 1280 M
119 92 V
986 816 M
119 92 V
3778 2652 M
120 92 V
4438 966 M
120 92 V
5738 801 M
120 92 V
1516 3909 M
119 92 V
1991 2765 M
119 92 V
1438 336 R
120 92 V
2191 2088 M
119 92 V
1019 4341 M
120 92 V
-12 -763 R
120 91 V
614 -669 R
119 92 V
3487 2305 M
120 92 V
3165 3559 M
120 92 V
4053 2499 M
120 92 V
5914 2051 M
120 92 V
6017 612 M
120 92 V
2032 4662 M
120 92 V
5471 3186 M
119 92 V
2644 3133 M
120 92 V
1605 2079 M
119 92 V
-677 280 R
120 92 V
2178 104 R
119 92 V
3362 1950 M
120 91 V
4534 4438 M
120 91 V
5312 2923 M
119 92 V
6155 1976 M
120 92 V
10 2215 R
120 92 V
5066 2632 M
120 91 V
3561 3324 M
120 92 V
494 -25 R
120 92 V
1910 2429 M
120 92 V
3683 507 R
119 92 V
5207 450 M
119 92 V
2096 4235 M
120 91 V
4704 3988 M
119 92 V
stroke 4823 4080 M
3509 3834 M
119 91 V
2036 4203 M
120 92 V
3636 2511 M
119 91 V
1452 4409 M
120 92 V
2482 2762 M
120 91 V
3987 1666 M
120 92 V
3737 720 M
119 91 V
6662 3477 M
120 92 V
3074 3178 M
119 92 V
3058 1480 M
120 92 V
602 1083 R
119 92 V
3001 4667 M
119 92 V
3968 898 M
120 91 V
1486 1093 M
119 92 V
4424 3185 M
119 92 V
4604 368 M
120 92 V
3913 4414 M
119 91 V
4697 2691 M
120 92 V
2300 1397 M
119 92 V
442 2393 R
120 92 V
6637 3695 M
120 92 V
2296 290 M
120 92 V
6282 3748 M
120 92 V
3080 1156 M
119 92 V
539 1053 R
119 92 V
2092 3000 M
119 91 V
5002 4271 M
119 92 V
2673 2296 M
120 91 V
4063 4056 M
120 92 V
-695 387 R
120 92 V
6516 1905 M
120 92 V
3479 1901 M
120 92 V
604 541 R
120 92 V
3675 4238 M
120 92 V
2477 3854 M
120 92 V
4306 1346 M
119 92 V
-53 1240 R
120 92 V
6021 2402 M
120 92 V
1211 3078 M
120 92 V
6135 1617 M
120 92 V
2234 283 M
119 92 V
2982 774 R
120 92 V
1505 2860 M
119 92 V
4645 821 M
120 92 V
3639 3943 M
119 92 V
3183 1797 M
120 92 V
1061 3519 M
119 92 V
1611 1466 M
119 92 V
4467 2827 M
119 92 V
-421 438 R
120 92 V
2018 2056 M
119 92 V
3926 318 M
119 92 V
stroke 4045 410 M
2831 4523 M
120 92 V
1620 37 R
119 92 V
1231 2115 M
120 92 V
3697 367 M
120 92 V
5152 3879 M
120 92 V
3080 3840 M
120 92 V
1816 4386 M
120 92 V
5131 993 M
119 92 V
5350 539 M
120 92 V
4332 1785 M
119 92 V
1797 892 M
119 92 V
4674 96 R
120 92 V
3676 4306 M
120 92 V
2665 1277 M
120 92 V
4754 578 M
120 92 V
2891 4287 M
120 92 V
6570 3543 M
119 92 V
6369 2430 M
119 92 V
-1093 84 R
120 92 V
135 1105 R
120 92 V
5550 2628 M
119 92 V
3483 1086 M
119 91 V
1263 726 M
119 92 V
6324 405 M
119 92 V
2270 667 M
119 92 V
828 1416 R
120 92 V
365 -85 R
119 91 V
1723 97 R
120 92 V
4698 2235 M
119 92 V
26 -386 R
119 92 V
3576 2488 M
119 92 V
1404 359 M
120 92 V
924 1951 R
120 91 V
4441 1386 M
120 92 V
23 -31 R
119 92 V
6280 3848 M
119 92 V
4017 3832 M
120 92 V
4275 2346 M
119 92 V
3703 4602 M
119 92 V
3689 3211 M
120 92 V
156 -997 R
120 92 V
1587 80 R
120 92 V
-357 311 R
120 92 V
1848 1269 M
119 92 V
3768 961 R
119 92 V
4457 2075 M
120 92 V
877 1576 R
120 91 V
863 73 R
119 91 V
4510 1461 M
119 92 V
1387 3452 M
119 92 V
2868 3212 M
120 92 V
5702 2693 M
119 91 V
stroke 5821 2784 M
2521 3630 M
119 92 V
4634 990 M
119 92 V
122 1890 R
120 92 V
-47 698 R
120 92 V
405 82 R
120 92 V
713 563 R
120 92 V
1652 3404 M
119 91 V
3412 840 R
120 92 V
4955 2360 M
120 92 V
1978 4040 M
120 92 V
3911 677 M
120 92 V
5123 4532 M
119 92 V
3353 1932 M
119 91 V
2787 980 M
119 92 V
4018 4332 M
120 92 V
1827 4002 M
119 92 V
6250 1366 M
119 92 V
3860 3242 M
119 91 V
3325 633 M
119 92 V
5211 4662 M
120 91 V
6036 1330 M
120 92 V
3396 330 M
119 92 V
6611 652 M
120 92 V
1277 2577 M
120 91 V
2782 41 R
119 92 V
989 1785 R
120 92 V
2579 1617 M
120 92 V
5089 3104 M
119 92 V
3546 427 M
120 92 V
2459 4327 M
119 92 V
2813 1317 M
120 92 V
4910 3982 M
119 92 V
5854 677 M
119 92 V
3117 1763 M
119 92 V
1307 -3 R
120 92 V
2055 2056 M
119 92 V
4512 4331 M
119 91 V
2093 517 M
120 92 V
4275 1667 M
120 91 V
838 -567 R
120 92 V
6118 670 M
120 92 V
3915 2939 M
120 91 V
2752 3810 M
120 92 V
1281 215 R
120 92 V
5956 2857 M
119 91 V
3382 349 M
120 92 V
4932 1565 M
119 92 V
2947 3290 M
119 92 V
2267 4544 M
120 92 V
1850 1542 M
120 92 V
1009 1415 M
120 92 V
5531 4427 M
119 92 V
stroke 5650 4519 M
1165 649 M
119 92 V
624 1988 R
120 92 V
5049 4082 M
119 91 V
5870 1914 M
120 92 V
3481 1020 M
120 92 V
6152 543 M
120 92 V
3826 1911 M
120 92 V
5138 746 M
119 91 V
3462 347 M
119 92 V
1835 715 M
120 92 V
-73 2072 R
120 92 V
1472 2563 M
119 91 V
3358 2045 M
120 92 V
-964 370 R
120 92 V
5989 4150 M
119 91 V
3740 1539 M
120 92 V
5689 4439 M
120 92 V
1616 685 M
120 92 V
321 859 R
119 91 V
823 312 R
120 92 V
474 609 R
120 92 V
1461 2491 M
119 92 V
4754 3869 M
120 92 V
3436 1598 M
120 91 V
2981 528 M
120 92 V
830 1243 R
120 92 V
1560 4214 M
120 92 V
5716 2879 M
119 92 V
1435 3140 M
119 92 V
5891 2182 M
119 92 V
4422 557 M
120 92 V
5894 2991 M
120 92 V
4104 1731 M
119 91 V
5910 680 M
119 92 V
2135 3373 M
120 92 V
1062 4468 M
120 92 V
369 -823 R
120 92 V
3047 622 R
120 92 V
4049 3957 M
120 92 V
3044 670 M
120 92 V
2343 2310 M
120 91 V
6386 1321 M
120 92 V
1525 1698 M
120 92 V
3900 863 M
119 92 V
986 3390 R
119 92 V
576 -69 R
120 92 V
5430 2262 M
120 92 V
3166 3482 M
120 92 V
3900 1461 M
120 92 V
2165 2397 M
120 92 V
3481 1691 M
119 92 V
147 2007 R
120 92 V
stroke 3867 3882 M
2526 2098 M
120 92 V
5386 3722 M
119 92 V
3669 4600 M
120 91 V
2902 3441 M
120 92 V
6446 1848 M
119 91 V
6260 1786 M
119 91 V
3332 3293 M
120 92 V
2467 2794 M
120 92 V
1690 1839 M
120 92 V
141 -33 R
119 92 V
2988 856 R
120 91 V
3818 2002 M
120 91 V
5638 3337 M
120 92 V
1269 2193 M
119 92 V
3344 1378 M
120 92 V
6596 4245 M
119 92 V
4709 1926 M
120 92 V
2147 1924 M
119 92 V
5442 1235 M
120 92 V
4682 1181 M
120 92 V
2820 4267 M
120 92 V
5850 2054 M
120 92 V
5208 1644 M
119 92 V
2450 312 M
120 91 V
3642 817 M
119 92 V
1998 4575 M
120 92 V
3275 2571 M
119 92 V
6295 4667 M
120 92 V
4936 4512 M
119 91 V
5834 2794 M
120 92 V
1019 686 M
119 91 V
5299 2347 M
120 92 V
1546 4549 M
119 92 V
4065 1646 M
119 92 V
2333 377 R
120 91 V
5136 535 M
120 92 V
1486 4434 M
120 92 V
2707 4174 M
120 92 V
3656 784 M
119 91 V
2439 2117 M
120 92 V
2406 835 M
120 92 V
-860 359 R
120 92 V
209 1195 R
119 92 V
4085 3913 M
120 91 V
2807 1907 M
120 92 V
2735 1805 M
119 92 V
82 974 R
120 92 V
4405 4174 M
120 91 V
6098 1676 M
119 91 V
2108 3076 M
120 91 V
3816 995 R
119 92 V
4434 2971 M
120 92 V
stroke 4554 3063 M
457 -555 R
119 92 V
284 729 R
120 92 V
4412 1853 M
120 91 V
4794 624 M
120 92 V
1388 3320 M
120 92 V
2228 389 M
120 92 V
3626 2865 M
119 92 V
2869 369 M
119 92 V
1236 833 R
120 92 V
6663 957 M
119 92 V
3181 4046 M
120 92 V
3795 984 M
119 92 V
2519 1841 M
120 92 V
2824 -35 R
120 91 V
2664 3060 M
120 92 V
1195 602 R
120 91 V
3827 2578 M
120 92 V
2134 105 R
119 92 V
1400 2979 M
120 92 V
548 -917 R
120 92 V
629 548 R
120 92 V
1260 1273 CircleF
1379 1365 CircleF
4499 3869 CircleF
4619 3961 CircleF
1989 4503 CircleF
2109 4594 CircleF
4971 3692 CircleF
5090 3784 CircleF
3307 4459 CircleF
3427 4551 CircleF
2404 4532 CircleF
2524 4623 CircleF
4887 1965 CircleF
5007 2057 CircleF
2553 1095 CircleF
2672 1187 CircleF
5182 2394 CircleF
5301 2486 CircleF
2595 2399 CircleF
2715 2490 CircleF
6586 2486 CircleF
6706 2578 CircleF
4469 3848 CircleF
4588 3940 CircleF
3029 3262 CircleF
3149 3354 CircleF
1652 1393 CircleF
1772 1485 CircleF
5128 3934 CircleF
5247 4026 CircleF
4781 4126 CircleF
4901 4218 CircleF
6240 4065 CircleF
6360 4157 CircleF
2514 982 CircleF
2634 1074 CircleF
5705 2096 CircleF
5824 2188 CircleF
3021 3379 CircleF
3141 3471 CircleF
3029 4251 CircleF
3149 4343 CircleF
1224 4449 CircleF
1343 4541 CircleF
2727 1163 CircleF
2847 1254 CircleF
5481 2694 CircleF
5601 2786 CircleF
4481 4371 CircleF
4601 4462 CircleF
1227 2029 CircleF
1347 2121 CircleF
3572 2601 CircleF
3691 2692 CircleF
3671 1784 CircleF
3791 1876 CircleF
5585 2094 CircleF
5705 2186 CircleF
5195 3391 CircleF
5314 3483 CircleF
4067 3313 CircleF
4186 3405 CircleF
2037 1735 CircleF
2156 1827 CircleF
3066 3985 CircleF
3185 4076 CircleF
1194 4011 CircleF
1314 4102 CircleF
981 2026 CircleF
1101 2118 CircleF
2132 2126 CircleF
2252 2218 CircleF
3825 2104 CircleF
3944 2196 CircleF
3545 3371 CircleF
3664 3463 CircleF
3026 1032 CircleF
3146 1124 CircleF
6491 1998 CircleF
6611 2090 CircleF
6103 4473 CircleF
6223 4565 CircleF
5510 610 CircleF
5629 702 CircleF
2159 856 CircleF
2278 947 CircleF
6490 822 CircleF
6609 914 CircleF
2584 2322 CircleF
2704 2414 CircleF
3787 2808 CircleF
3907 2900 CircleF
6553 3313 CircleF
6673 3405 CircleF
6660 3798 CircleF
6779 3890 CircleF
2821 2182 CircleF
2941 2274 CircleF
5570 1394 CircleF
5689 1485 CircleF
3641 3477 CircleF
3760 3569 CircleF
4551 1078 CircleF
4671 1169 CircleF
2793 2569 CircleF
2912 2661 CircleF
5645 2062 CircleF
5765 2154 CircleF
1562 1133 CircleF
1681 1225 CircleF
2287 585 CircleF
2407 677 CircleF
6192 3862 CircleF
6312 3954 CircleF
1656 505 CircleF
1776 596 CircleF
2107 3536 CircleF
2227 3628 CircleF
3447 1478 CircleF
3566 1570 CircleF
4079 1980 CircleF
4198 2072 CircleF
5499 1600 CircleF
5619 1692 CircleF
5217 731 CircleF
5336 823 CircleF
6597 957 CircleF
6717 1049 CircleF
1089 1475 CircleF
1208 1567 CircleF
5034 1522 CircleF
5153 1613 CircleF
5749 3118 CircleF
5869 3210 CircleF
6493 1673 CircleF
6612 1765 CircleF
1778 4323 CircleF
1898 4414 CircleF
2209 664 CircleF
2329 756 CircleF
2534 2628 CircleF
2654 2720 CircleF
2321 4502 CircleF
2440 4594 CircleF
2803 789 CircleF
2923 881 CircleF
6183 3141 CircleF
6302 3233 CircleF
3366 1390 CircleF
3486 1482 CircleF
3209 2917 CircleF
3328 3009 CircleF
2087 3484 CircleF
2206 3576 CircleF
6011 1455 CircleF
6131 1547 CircleF
5931 3577 CircleF
6051 3669 CircleF
3242 1440 CircleF
3361 1532 CircleF
3313 3041 CircleF
3432 3133 CircleF
5568 3108 CircleF
5688 3200 CircleF
3133 3548 CircleF
3252 3640 CircleF
3829 1329 CircleF
3949 1421 CircleF
6467 3149 CircleF
6587 3241 CircleF
1552 2549 CircleF
1672 2641 CircleF
1443 2720 CircleF
1563 2812 CircleF
2284 3802 CircleF
2404 3894 CircleF
5093 1172 CircleF
5212 1264 CircleF
2560 755 CircleF
2680 847 CircleF
2920 4578 CircleF
3040 4669 CircleF
1878 3963 CircleF
1998 4054 CircleF
1926 463 CircleF
2045 554 CircleF
4558 1180 CircleF
4678 1271 CircleF
4403 2543 CircleF
4522 2635 CircleF
6505 3041 CircleF
6625 3132 CircleF
3229 1397 CircleF
3349 1489 CircleF
6232 1855 CircleF
6351 1947 CircleF
2278 2745 CircleF
2398 2837 CircleF
2695 3981 CircleF
2815 4073 CircleF
4777 1025 CircleF
4897 1117 CircleF
6550 556 CircleF
6670 648 CircleF
3143 4569 CircleF
3262 4661 CircleF
1773 2282 CircleF
1893 2374 CircleF
5865 3826 CircleF
5984 3918 CircleF
5394 1471 CircleF
5514 1563 CircleF
6685 4656 CircleF
6804 4748 CircleF
2168 677 CircleF
2287 769 CircleF
2132 3883 CircleF
2252 3975 CircleF
2619 2474 CircleF
2739 2566 CircleF
1703 859 CircleF
1823 950 CircleF
4881 1504 CircleF
5000 1595 CircleF
1511 1133 CircleF
1630 1225 CircleF
3905 3913 CircleF
4025 4005 CircleF
6528 2895 CircleF
6647 2987 CircleF
2913 1331 CircleF
3032 1423 CircleF
6398 4269 CircleF
6518 4361 CircleF
1773 369 CircleF
1893 461 CircleF
5372 4394 CircleF
5492 4485 CircleF
1166 4684 CircleF
1286 4776 CircleF
3949 4240 CircleF
4069 4332 CircleF
3102 1653 CircleF
3222 1744 CircleF
1741 3772 CircleF
1861 3864 CircleF
3584 984 CircleF
3704 1076 CircleF
5325 937 CircleF
5444 1029 CircleF
3889 1747 CircleF
4009 1839 CircleF
1847 4518 CircleF
1967 4610 CircleF
3500 510 CircleF
3620 601 CircleF
4147 4462 CircleF
4267 4553 CircleF
2867 3906 CircleF
2986 3998 CircleF
3700 2626 CircleF
3819 2718 CircleF
5530 3347 CircleF
5650 3439 CircleF
5198 2660 CircleF
5318 2752 CircleF
4018 1850 CircleF
4138 1942 CircleF
1756 3793 CircleF
1876 3885 CircleF
3848 1058 CircleF
3967 1150 CircleF
4466 4065 CircleF
4585 4157 CircleF
5406 1968 CircleF
5526 2060 CircleF
3953 2057 CircleF
4073 2149 CircleF
3231 776 CircleF
3351 868 CircleF
6675 2484 CircleF
6795 2576 CircleF
4319 2736 CircleF
4439 2828 CircleF
1985 934 CircleF
2104 1026 CircleF
2846 4038 CircleF
2965 4130 CircleF
1785 3350 CircleF
1905 3442 CircleF
2720 2227 CircleF
2840 2319 CircleF
5097 4065 CircleF
5216 4157 CircleF
4606 1583 CircleF
4726 1675 CircleF
2676 1359 CircleF
2796 1451 CircleF
6334 302 CircleF
6454 393 CircleF
4770 2415 CircleF
4890 2507 CircleF
5140 1945 CircleF
5259 2037 CircleF
3243 1107 CircleF
3362 1199 CircleF
5967 967 CircleF
6086 1059 CircleF
4865 3408 CircleF
4985 3500 CircleF
3369 3846 CircleF
3489 3938 CircleF
3950 2781 CircleF
4070 2873 CircleF
5463 744 CircleF
5583 836 CircleF
3142 3250 CircleF
3262 3342 CircleF
4265 2289 CircleF
4385 2381 CircleF
2352 4014 CircleF
2472 4106 CircleF
2600 1874 CircleF
2719 1966 CircleF
1442 1412 CircleF
1562 1504 CircleF
2839 3362 CircleF
2959 3454 CircleF
3854 1713 CircleF
3974 1805 CircleF
4351 1947 CircleF
4471 2039 CircleF
2209 4034 CircleF
2328 4126 CircleF
1457 1503 CircleF
1577 1595 CircleF
6603 4298 CircleF
6723 4390 CircleF
3057 2480 CircleF
3176 2572 CircleF
4089 923 CircleF
4209 1014 CircleF
4537 2559 CircleF
4657 2651 CircleF
4822 1894 CircleF
4942 1985 CircleF
2483 1318 CircleF
2602 1410 CircleF
6367 3390 CircleF
6487 3481 CircleF
5374 3167 CircleF
5493 3258 CircleF
6041 2228 CircleF
6161 2320 CircleF
5733 1934 CircleF
5853 2025 CircleF
5814 4543 CircleF
5934 4635 CircleF
6049 3890 CircleF
6168 3982 CircleF
4536 578 CircleF
4656 670 CircleF
4597 3764 CircleF
4716 3855 CircleF
2339 2085 CircleF
2458 2177 CircleF
2053 4321 CircleF
2173 4412 CircleF
1442 4081 CircleF
1561 4172 CircleF
3118 4156 CircleF
3238 4247 CircleF
3786 4670 CircleF
3906 4762 CircleF
4630 3859 CircleF
4749 3951 CircleF
6519 3985 CircleF
6639 4077 CircleF
2585 2723 CircleF
2705 2815 CircleF
4888 798 CircleF
5008 890 CircleF
4121 2240 CircleF
4240 2332 CircleF
5717 3957 CircleF
5837 4048 CircleF
4117 944 CircleF
4236 1036 CircleF
1469 2398 CircleF
1588 2490 CircleF
3061 1752 CircleF
3181 1844 CircleF
5023 2865 CircleF
5143 2956 CircleF
5336 2981 CircleF
5455 3073 CircleF
1971 2477 CircleF
2091 2569 CircleF
1605 1125 CircleF
1724 1217 CircleF
4864 2261 CircleF
4984 2353 CircleF
1837 1141 CircleF
1956 1232 CircleF
1002 830 CircleF
1122 922 CircleF
2248 2945 CircleF
2368 3037 CircleF
1835 4389 CircleF
1955 4480 CircleF
5829 4173 CircleF
5948 4265 CircleF
4766 983 CircleF
4886 1075 CircleF
2153 2667 CircleF
2273 2759 CircleF
3953 2104 CircleF
4072 2196 CircleF
5001 473 CircleF
5120 565 CircleF
1145 2015 CircleF
1265 2107 CircleF
6439 3133 CircleF
6559 3225 CircleF
6068 1557 CircleF
6188 1649 CircleF
5550 1845 CircleF
5670 1937 CircleF
5095 1898 CircleF
5215 1990 CircleF
1225 1851 CircleF
1344 1943 CircleF
2792 4093 CircleF
2911 4185 CircleF
3873 3468 CircleF
3992 3560 CircleF
5391 3995 CircleF
5510 4086 CircleF
6687 2340 CircleF
6807 2432 CircleF
2030 2606 CircleF
2149 2698 CircleF
4756 703 CircleF
4876 795 CircleF
3840 3405 CircleF
3959 3497 CircleF
3078 2483 CircleF
3198 2575 CircleF
2257 398 CircleF
2377 490 CircleF
3431 3357 CircleF
3551 3448 CircleF
3442 3480 CircleF
3561 3572 CircleF
6327 585 CircleF
6446 677 CircleF
6235 2432 CircleF
6354 2524 CircleF
3222 4487 CircleF
3341 4579 CircleF
4011 1973 CircleF
4131 2065 CircleF
1322 2118 CircleF
1442 2210 CircleF
2429 4643 CircleF
2548 4735 CircleF
4184 696 CircleF
4303 788 CircleF
3438 1422 CircleF
3558 1513 CircleF
4502 3331 CircleF
4622 3423 CircleF
1203 1115 CircleF
1322 1207 CircleF
3001 1520 CircleF
3120 1612 CircleF
1225 3428 CircleF
1345 3520 CircleF
4554 421 CircleF
4674 513 CircleF
4352 3438 CircleF
4472 3529 CircleF
1134 1117 CircleF
1253 1209 CircleF
1691 2428 CircleF
1811 2519 CircleF
4661 4034 CircleF
4781 4126 CircleF
4019 3785 CircleF
4139 3876 CircleF
1568 1545 CircleF
1687 1636 CircleF
2615 1012 CircleF
2734 1104 CircleF
5065 1855 CircleF
5185 1947 CircleF
2617 2847 CircleF
2737 2939 CircleF
3539 4613 CircleF
3658 4704 CircleF
6634 4457 CircleF
6754 4548 CircleF
1247 3143 CircleF
1366 3235 CircleF
6182 4419 CircleF
6301 4510 CircleF
5421 3595 CircleF
5540 3687 CircleF
6364 389 CircleF
6484 481 CircleF
3527 1212 CircleF
3647 1304 CircleF
6491 4096 CircleF
6610 4188 CircleF
2563 2112 CircleF
2683 2204 CircleF
6328 1360 CircleF
6448 1452 CircleF
5832 449 CircleF
5951 541 CircleF
2562 1934 CircleF
2682 2026 CircleF
4783 1764 CircleF
4903 1856 CircleF
3850 411 CircleF
3970 503 CircleF
4852 4674 CircleF
4972 4766 CircleF
3340 2644 CircleF
3460 2736 CircleF
2343 876 CircleF
2463 967 CircleF
3717 1928 CircleF
3837 2020 CircleF
5801 835 CircleF
5920 926 CircleF
5932 2087 CircleF
6052 2179 CircleF
3397 334 CircleF
3517 426 CircleF
5947 357 CircleF
6067 449 CircleF
5886 2914 CircleF
6006 3006 CircleF
6027 601 CircleF
6147 693 CircleF
1256 788 CircleF
1376 879 CircleF
3337 621 CircleF
3456 713 CircleF
5973 485 CircleF
6093 577 CircleF
2700 4227 CircleF
2820 4319 CircleF
4180 1517 CircleF
4300 1608 CircleF
2695 3737 CircleF
2814 3829 CircleF
3681 2971 CircleF
3801 3062 CircleF
2070 3790 CircleF
2189 3882 CircleF
5304 1206 CircleF
5424 1298 CircleF
1232 4646 CircleF
1352 4738 CircleF
4837 1408 CircleF
4957 1500 CircleF
4884 3863 CircleF
5004 3955 CircleF
5200 303 CircleF
5320 395 CircleF
3285 1078 CircleF
3405 1170 CircleF
3956 4538 CircleF
4076 4630 CircleF
2764 1012 CircleF
2884 1104 CircleF
2414 1440 CircleF
2534 1532 CircleF
2748 3018 CircleF
2868 3110 CircleF
1616 2739 CircleF
1735 2831 CircleF
4536 4269 CircleF
4656 4361 CircleF
4969 4500 CircleF
5088 4592 CircleF
3345 1859 CircleF
3464 1951 CircleF
6193 2716 CircleF
6313 2808 CircleF
6274 3562 CircleF
6394 3654 CircleF
5321 3265 CircleF
5440 3357 CircleF
3974 902 CircleF
4093 994 CircleF
1704 1467 CircleF
1823 1559 CircleF
4235 3834 CircleF
4355 3926 CircleF
3916 923 CircleF
4036 1015 CircleF
3488 2984 CircleF
3608 3076 CircleF
2508 3909 CircleF
2628 4001 CircleF
4115 2424 CircleF
4235 2516 CircleF
4806 2534 CircleF
4926 2625 CircleF
4718 3938 CircleF
4837 4030 CircleF
5877 2640 CircleF
5997 2732 CircleF
1244 3087 CircleF
1364 3179 CircleF
4885 4553 CircleF
5004 4644 CircleF
977 3443 CircleF
1097 3535 CircleF
4227 1170 CircleF
4347 1262 CircleF
3494 2062 CircleF
3613 2154 CircleF
2706 727 CircleF
2825 818 CircleF
5900 2520 CircleF
6019 2612 CircleF
4988 3179 CircleF
5108 3271 CircleF
6361 763 CircleF
6481 855 CircleF
4208 503 CircleF
4327 595 CircleF
5656 1994 CircleF
5776 2086 CircleF
5503 1850 CircleF
5623 1942 CircleF
5730 1303 CircleF
5850 1395 CircleF
5239 1774 CircleF
5358 1866 CircleF
1420 1265 CircleF
1540 1357 CircleF
1455 2589 CircleF
1574 2681 CircleF
4864 2569 CircleF
4984 2661 CircleF
5595 3770 CircleF
5715 3862 CircleF
4690 2342 CircleF
4810 2434 CircleF
3589 3283 CircleF
3708 3375 CircleF
5742 1644 CircleF
5862 1736 CircleF
1765 1805 CircleF
1884 1896 CircleF
4767 3563 CircleF
4886 3655 CircleF
4143 282 CircleF
4263 374 CircleF
3034 314 CircleF
3153 405 CircleF
5715 3707 CircleF
5835 3799 CircleF
2684 756 CircleF
2803 848 CircleF
5696 4230 CircleF
5816 4322 CircleF
1105 1505 CircleF
1225 1597 CircleF
976 4562 CircleF
1095 4654 CircleF
1126 3610 CircleF
1246 3702 CircleF
3557 712 CircleF
3677 804 CircleF
3356 1003 CircleF
3476 1095 CircleF
4876 2677 CircleF
4996 2769 CircleF
3438 1062 CircleF
3557 1154 CircleF
6162 2975 CircleF
6282 3067 CircleF
2353 3302 CircleF
2473 3393 CircleF
3472 4537 CircleF
3592 4629 CircleF
3452 1545 CircleF
3572 1637 CircleF
1882 875 CircleF
2002 967 CircleF
6567 1850 CircleF
6687 1942 CircleF
6643 982 CircleF
6763 1073 CircleF
3004 4242 CircleF
3124 4334 CircleF
2000 4429 CircleF
2119 4521 CircleF
4999 1615 CircleF
5119 1707 CircleF
2268 4406 CircleF
2388 4498 CircleF
6041 3351 CircleF
6161 3443 CircleF
1240 3503 CircleF
1360 3595 CircleF
3394 2402 CircleF
3514 2494 CircleF
6072 3289 CircleF
6191 3381 CircleF
3614 775 CircleF
3734 867 CircleF
1279 981 CircleF
1399 1072 CircleF
3469 4498 CircleF
3589 4590 CircleF
4113 2536 CircleF
4233 2628 CircleF
6191 3954 CircleF
6310 4046 CircleF
3803 2010 CircleF
3923 2102 CircleF
1947 2153 CircleF
2067 2245 CircleF
2297 2152 CircleF
2417 2243 CircleF
1155 2014 CircleF
1275 2106 CircleF
5646 3461 CircleF
5766 3553 CircleF
3226 1260 CircleF
3346 1352 CircleF
3936 3400 CircleF
4055 3492 CircleF
1436 2312 CircleF
1555 2404 CircleF
5142 3126 CircleF
5262 3218 CircleF
2695 3221 CircleF
2814 3313 CircleF
5555 2530 CircleF
5674 2622 CircleF
2372 859 CircleF
2492 950 CircleF
2947 2350 CircleF
3067 2442 CircleF
6186 2024 CircleF
6305 2116 CircleF
4429 2256 CircleF
4549 2348 CircleF
5174 2053 CircleF
5294 2145 CircleF
4258 1481 CircleF
4377 1573 CircleF
4518 2296 CircleF
4638 2388 CircleF
3054 2269 CircleF
3173 2361 CircleF
3379 4658 CircleF
3498 4750 CircleF
5669 3637 CircleF
5789 3729 CircleF
6196 3853 CircleF
6316 3945 CircleF
5476 4049 CircleF
5596 4141 CircleF
4687 4558 CircleF
4807 4650 CircleF
4336 2344 CircleF
4456 2436 CircleF
4950 1708 CircleF
5069 1799 CircleF
6069 2501 CircleF
6189 2593 CircleF
5954 740 CircleF
6074 832 CircleF
4491 3581 CircleF
4611 3673 CircleF
3393 3306 CircleF
3512 3398 CircleF
1877 4654 CircleF
1997 4746 CircleF
1652 3541 CircleF
1772 3633 CircleF
2147 2581 CircleF
2267 2673 CircleF
1571 920 CircleF
1690 1012 CircleF
6652 3930 CircleF
6772 4021 CircleF
1879 3007 CircleF
1998 3099 CircleF
2903 1455 CircleF
3023 1546 CircleF
5974 353 CircleF
6094 444 CircleF
5645 3328 CircleF
5765 3420 CircleF
1349 4385 CircleF
1469 4477 CircleF
3978 3620 CircleF
4097 3712 CircleF
4343 2652 CircleF
4463 2744 CircleF
1946 4450 CircleF
2066 4542 CircleF
1924 3802 CircleF
2043 3893 CircleF
1486 385 CircleF
1606 477 CircleF
3704 3108 CircleF
3824 3199 CircleF
6165 1014 CircleF
6284 1106 CircleF
2657 4645 CircleF
2777 4737 CircleF
3023 2743 CircleF
3143 2835 CircleF
2844 588 CircleF
2963 680 CircleF
3547 4649 CircleF
3667 4741 CircleF
2269 823 CircleF
2388 915 CircleF
3286 969 CircleF
3406 1061 CircleF
4647 1748 CircleF
4766 1840 CircleF
6325 993 CircleF
6445 1085 CircleF
3324 3287 CircleF
3443 3379 CircleF
5243 1708 CircleF
5363 1799 CircleF
4471 949 CircleF
4591 1040 CircleF
2683 4530 CircleF
2803 4622 CircleF
6385 3715 CircleF
6504 3806 CircleF
4200 4405 CircleF
4319 4497 CircleF
1298 1372 CircleF
1418 1464 CircleF
1937 3864 CircleF
2056 3956 CircleF
6185 1040 CircleF
6305 1132 CircleF
1328 2643 CircleF
1448 2734 CircleF
4350 669 CircleF
4470 761 CircleF
2584 3699 CircleF
2704 3791 CircleF
6442 1671 CircleF
6561 1763 CircleF
3560 3035 CircleF
3679 3127 CircleF
6515 3062 CircleF
6635 3154 CircleF
6060 1280 CircleF
6179 1372 CircleF
986 816 CircleF
1105 908 CircleF
3778 2652 CircleF
3898 2744 CircleF
4438 966 CircleF
4558 1058 CircleF
5738 801 CircleF
5858 893 CircleF
1516 3909 CircleF
1635 4001 CircleF
1991 2765 CircleF
2110 2857 CircleF
3548 3193 CircleF
3668 3285 CircleF
2191 2088 CircleF
2310 2180 CircleF
1019 4341 CircleF
1139 4433 CircleF
1127 3670 CircleF
1247 3761 CircleF
1861 3092 CircleF
1980 3184 CircleF
3487 2305 CircleF
3607 2397 CircleF
3165 3559 CircleF
3285 3651 CircleF
4053 2499 CircleF
4173 2591 CircleF
5914 2051 CircleF
6034 2143 CircleF
6017 612 CircleF
6137 704 CircleF
2032 4662 CircleF
2152 4754 CircleF
5471 3186 CircleF
5590 3278 CircleF
2644 3133 CircleF
2764 3225 CircleF
1605 2079 CircleF
1724 2171 CircleF
1047 2451 CircleF
1167 2543 CircleF
3345 2647 CircleF
3464 2739 CircleF
3362 1950 CircleF
3482 2041 CircleF
4534 4438 CircleF
4654 4529 CircleF
5312 2923 CircleF
5431 3015 CircleF
6155 1976 CircleF
6275 2068 CircleF
6285 4283 CircleF
6405 4375 CircleF
5066 2632 CircleF
5186 2723 CircleF
3561 3324 CircleF
3681 3416 CircleF
4175 3391 CircleF
4295 3483 CircleF
1910 2429 CircleF
2030 2521 CircleF
5713 3028 CircleF
5832 3120 CircleF
5207 450 CircleF
5326 542 CircleF
2096 4235 CircleF
2216 4326 CircleF
4704 3988 CircleF
4823 4080 CircleF
3509 3834 CircleF
3628 3925 CircleF
2036 4203 CircleF
2156 4295 CircleF
3636 2511 CircleF
3755 2602 CircleF
1452 4409 CircleF
1572 4501 CircleF
2482 2762 CircleF
2602 2853 CircleF
3987 1666 CircleF
4107 1758 CircleF
3737 720 CircleF
3856 811 CircleF
6662 3477 CircleF
6782 3569 CircleF
3074 3178 CircleF
3193 3270 CircleF
3058 1480 CircleF
3178 1572 CircleF
3780 2655 CircleF
3899 2747 CircleF
3001 4667 CircleF
3120 4759 CircleF
3968 898 CircleF
4088 989 CircleF
1486 1093 CircleF
1605 1185 CircleF
4424 3185 CircleF
4543 3277 CircleF
4604 368 CircleF
4724 460 CircleF
3913 4414 CircleF
4032 4505 CircleF
4697 2691 CircleF
4817 2783 CircleF
2300 1397 CircleF
2419 1489 CircleF
2861 3882 CircleF
2981 3974 CircleF
6637 3695 CircleF
6757 3787 CircleF
2296 290 CircleF
2416 382 CircleF
6282 3748 CircleF
6402 3840 CircleF
3080 1156 CircleF
3199 1248 CircleF
3738 2301 CircleF
3857 2393 CircleF
2092 3000 CircleF
2211 3091 CircleF
5002 4271 CircleF
5121 4363 CircleF
2673 2296 CircleF
2793 2387 CircleF
4063 4056 CircleF
4183 4148 CircleF
3488 4535 CircleF
3608 4627 CircleF
6516 1905 CircleF
6636 1997 CircleF
3479 1901 CircleF
3599 1993 CircleF
4203 2534 CircleF
4323 2626 CircleF
3675 4238 CircleF
3795 4330 CircleF
2477 3854 CircleF
2597 3946 CircleF
4306 1346 CircleF
4425 1438 CircleF
4372 2678 CircleF
4492 2770 CircleF
6021 2402 CircleF
6141 2494 CircleF
1211 3078 CircleF
1331 3170 CircleF
6135 1617 CircleF
6255 1709 CircleF
2234 283 CircleF
2353 375 CircleF
5335 1149 CircleF
5455 1241 CircleF
1505 2860 CircleF
1624 2952 CircleF
4645 821 CircleF
4765 913 CircleF
3639 3943 CircleF
3758 4035 CircleF
3183 1797 CircleF
3303 1889 CircleF
1061 3519 CircleF
1180 3611 CircleF
1611 1466 CircleF
1730 1558 CircleF
4467 2827 CircleF
4586 2919 CircleF
4165 3357 CircleF
4285 3449 CircleF
2018 2056 CircleF
2137 2148 CircleF
3926 318 CircleF
4045 410 CircleF
2831 4523 CircleF
2951 4615 CircleF
4571 4652 CircleF
4690 4744 CircleF
1231 2115 CircleF
1351 2207 CircleF
3697 367 CircleF
3817 459 CircleF
5152 3879 CircleF
5272 3971 CircleF
3080 3840 CircleF
3200 3932 CircleF
1816 4386 CircleF
1936 4478 CircleF
5131 993 CircleF
5250 1085 CircleF
5350 539 CircleF
5470 631 CircleF
4332 1785 CircleF
4451 1877 CircleF
1797 892 CircleF
1916 984 CircleF
6590 1080 CircleF
6710 1172 CircleF
3676 4306 CircleF
3796 4398 CircleF
2665 1277 CircleF
2785 1369 CircleF
4754 578 CircleF
4874 670 CircleF
2891 4287 CircleF
3011 4379 CircleF
6570 3543 CircleF
6689 3635 CircleF
6369 2430 CircleF
6488 2522 CircleF
5395 2606 CircleF
5515 2698 CircleF
5650 3803 CircleF
5770 3895 CircleF
5550 2628 CircleF
5669 2720 CircleF
3483 1086 CircleF
3602 1177 CircleF
1263 726 CircleF
1382 818 CircleF
6324 405 CircleF
6443 497 CircleF
2270 667 CircleF
2389 759 CircleF
3217 2175 CircleF
3337 2267 CircleF
3702 2182 CircleF
3821 2273 CircleF
5544 2370 CircleF
5664 2462 CircleF
4698 2235 CircleF
4817 2327 CircleF
4843 1941 CircleF
4962 2033 CircleF
3576 2488 CircleF
3695 2580 CircleF
1404 359 CircleF
1524 451 CircleF
2448 2402 CircleF
2568 2493 CircleF
4441 1386 CircleF
4561 1478 CircleF
4584 1447 CircleF
4703 1539 CircleF
6280 3848 CircleF
6399 3940 CircleF
4017 3832 CircleF
4137 3924 CircleF
4275 2346 CircleF
4394 2438 CircleF
3703 4602 CircleF
3822 4694 CircleF
3689 3211 CircleF
3809 3303 CircleF
3965 2306 CircleF
4085 2398 CircleF
5672 2478 CircleF
5792 2570 CircleF
5435 2881 CircleF
5555 2973 CircleF
1848 1269 CircleF
1967 1361 CircleF
5735 2322 CircleF
5854 2414 CircleF
4457 2075 CircleF
4577 2167 CircleF
5454 3743 CircleF
5574 3834 CircleF
6437 3907 CircleF
6556 3998 CircleF
4510 1461 CircleF
4629 1553 CircleF
1387 3452 CircleF
1506 3544 CircleF
2868 3212 CircleF
2988 3304 CircleF
5702 2693 CircleF
5821 2784 CircleF
2521 3630 CircleF
2640 3722 CircleF
4634 990 CircleF
4753 1082 CircleF
4875 2972 CircleF
4995 3064 CircleF
4948 3762 CircleF
5068 3854 CircleF
5473 3936 CircleF
5593 4028 CircleF
6306 4591 CircleF
6426 4683 CircleF
1652 3404 CircleF
1771 3495 CircleF
5183 4335 CircleF
5303 4427 CircleF
4955 2360 CircleF
5075 2452 CircleF
1978 4040 CircleF
2098 4132 CircleF
3911 677 CircleF
4031 769 CircleF
5123 4532 CircleF
5242 4624 CircleF
3353 1932 CircleF
3472 2023 CircleF
2787 980 CircleF
2906 1072 CircleF
4018 4332 CircleF
4138 4424 CircleF
1827 4002 CircleF
1946 4094 CircleF
6250 1366 CircleF
6369 1458 CircleF
3860 3242 CircleF
3979 3333 CircleF
3325 633 CircleF
3444 725 CircleF
5211 4662 CircleF
5331 4753 CircleF
6036 1330 CircleF
6156 1422 CircleF
3396 330 CircleF
3515 422 CircleF
6611 652 CircleF
6731 744 CircleF
1277 2577 CircleF
1397 2668 CircleF
4179 2709 CircleF
4298 2801 CircleF
5287 4586 CircleF
5407 4678 CircleF
2579 1617 CircleF
2699 1709 CircleF
5089 3104 CircleF
5208 3196 CircleF
3546 427 CircleF
3666 519 CircleF
2459 4327 CircleF
2578 4419 CircleF
2813 1317 CircleF
2933 1409 CircleF
4910 3982 CircleF
5029 4074 CircleF
5854 677 CircleF
5973 769 CircleF
3117 1763 CircleF
3236 1855 CircleF
4543 1852 CircleF
4663 1944 CircleF
2055 2056 CircleF
2174 2148 CircleF
4512 4331 CircleF
4631 4422 CircleF
2093 517 CircleF
2213 609 CircleF
4275 1667 CircleF
4395 1758 CircleF
5233 1191 CircleF
5353 1283 CircleF
6118 670 CircleF
6238 762 CircleF
3915 2939 CircleF
4035 3030 CircleF
2752 3810 CircleF
2872 3902 CircleF
4153 4117 CircleF
4273 4209 CircleF
5956 2857 CircleF
6075 2948 CircleF
3382 349 CircleF
3502 441 CircleF
4932 1565 CircleF
5051 1657 CircleF
2947 3290 CircleF
3066 3382 CircleF
2267 4544 CircleF
2387 4636 CircleF
1850 1542 CircleF
1970 1634 CircleF
1009 1415 CircleF
1129 1507 CircleF
5531 4427 CircleF
5650 4519 CircleF
1165 649 CircleF
1284 741 CircleF
1908 2729 CircleF
2028 2821 CircleF
5049 4082 CircleF
5168 4173 CircleF
5870 1914 CircleF
5990 2006 CircleF
3481 1020 CircleF
3601 1112 CircleF
6152 543 CircleF
6272 635 CircleF
3826 1911 CircleF
3946 2003 CircleF
5138 746 CircleF
5257 837 CircleF
3462 347 CircleF
3581 439 CircleF
1835 715 CircleF
1955 807 CircleF
1882 2879 CircleF
2002 2971 CircleF
1472 2563 CircleF
1591 2654 CircleF
3358 2045 CircleF
3478 2137 CircleF
2514 2507 CircleF
2634 2599 CircleF
5989 4150 CircleF
6108 4241 CircleF
3740 1539 CircleF
3860 1631 CircleF
5689 4439 CircleF
5809 4531 CircleF
1616 685 CircleF
1736 777 CircleF
2057 1636 CircleF
2176 1727 CircleF
2999 2039 CircleF
3119 2131 CircleF
3593 2740 CircleF
3713 2832 CircleF
1461 2491 CircleF
1580 2583 CircleF
4754 3869 CircleF
4874 3961 CircleF
3436 1598 CircleF
3556 1689 CircleF
2981 528 CircleF
3101 620 CircleF
3931 1863 CircleF
4051 1955 CircleF
1560 4214 CircleF
1680 4306 CircleF
5716 2879 CircleF
5835 2971 CircleF
1435 3140 CircleF
1554 3232 CircleF
5891 2182 CircleF
6010 2274 CircleF
4422 557 CircleF
4542 649 CircleF
5894 2991 CircleF
6014 3083 CircleF
4104 1731 CircleF
4223 1822 CircleF
5910 680 CircleF
6029 772 CircleF
2135 3373 CircleF
2255 3465 CircleF
1062 4468 CircleF
1182 4560 CircleF
1551 3737 CircleF
1671 3829 CircleF
4718 4451 CircleF
4838 4543 CircleF
4049 3957 CircleF
4169 4049 CircleF
3044 670 CircleF
3164 762 CircleF
2343 2310 CircleF
2463 2401 CircleF
6386 1321 CircleF
6506 1413 CircleF
1525 1698 CircleF
1645 1790 CircleF
3900 863 CircleF
4019 955 CircleF
5005 4345 CircleF
5124 4437 CircleF
5700 4368 CircleF
5820 4460 CircleF
5430 2262 CircleF
5550 2354 CircleF
3166 3482 CircleF
3286 3574 CircleF
3900 1461 CircleF
4020 1553 CircleF
2165 2397 CircleF
2285 2489 CircleF
3481 1691 CircleF
3600 1783 CircleF
3747 3790 CircleF
3867 3882 CircleF
2526 2098 CircleF
2646 2190 CircleF
5386 3722 CircleF
5505 3814 CircleF
3669 4600 CircleF
3789 4691 CircleF
2902 3441 CircleF
3022 3533 CircleF
6446 1848 CircleF
6565 1939 CircleF
6260 1786 CircleF
6379 1877 CircleF
3332 3293 CircleF
3452 3385 CircleF
2467 2794 CircleF
2587 2886 CircleF
1690 1839 CircleF
1810 1931 CircleF
1951 1898 CircleF
2070 1990 CircleF
5058 2846 CircleF
5178 2937 CircleF
3818 2002 CircleF
3938 2093 CircleF
5638 3337 CircleF
5758 3429 CircleF
1269 2193 CircleF
1388 2285 CircleF
3344 1378 CircleF
3464 1470 CircleF
6596 4245 CircleF
6715 4337 CircleF
4709 1926 CircleF
4829 2018 CircleF
2147 1924 CircleF
2266 2016 CircleF
5442 1235 CircleF
5562 1327 CircleF
4682 1181 CircleF
4802 1273 CircleF
2820 4267 CircleF
2940 4359 CircleF
5850 2054 CircleF
5970 2146 CircleF
5208 1644 CircleF
5327 1736 CircleF
2450 312 CircleF
2570 403 CircleF
3642 817 CircleF
3761 909 CircleF
1998 4575 CircleF
2118 4667 CircleF
3275 2571 CircleF
3394 2663 CircleF
6295 4667 CircleF
6415 4759 CircleF
4936 4512 CircleF
5055 4603 CircleF
5834 2794 CircleF
5954 2886 CircleF
1019 686 CircleF
1138 777 CircleF
5299 2347 CircleF
5419 2439 CircleF
1546 4549 CircleF
1665 4641 CircleF
4065 1646 CircleF
4184 1738 CircleF
6517 2115 CircleF
6637 2206 CircleF
5136 535 CircleF
5256 627 CircleF
1486 4434 CircleF
1606 4526 CircleF
2707 4174 CircleF
2827 4266 CircleF
3656 784 CircleF
3775 875 CircleF
2439 2117 CircleF
2559 2209 CircleF
2406 835 CircleF
2526 927 CircleF
1666 1286 CircleF
1786 1378 CircleF
1995 2573 CircleF
2114 2665 CircleF
4085 3913 CircleF
4205 4004 CircleF
2807 1907 CircleF
2927 1999 CircleF
2735 1805 CircleF
2854 1897 CircleF
2936 2871 CircleF
3056 2963 CircleF
4405 4174 CircleF
4525 4265 CircleF
6098 1676 CircleF
6217 1767 CircleF
2108 3076 CircleF
2228 3167 CircleF
6044 4162 CircleF
6163 4254 CircleF
4434 2971 CircleF
4554 3063 CircleF
5011 2508 CircleF
5130 2600 CircleF
5414 3329 CircleF
5534 3421 CircleF
4412 1853 CircleF
4532 1944 CircleF
4794 624 CircleF
4914 716 CircleF
1388 3320 CircleF
1508 3412 CircleF
2228 389 CircleF
2348 481 CircleF
3626 2865 CircleF
3745 2957 CircleF
2869 369 CircleF
2988 461 CircleF
4224 1294 CircleF
4344 1386 CircleF
6663 957 CircleF
6782 1049 CircleF
3181 4046 CircleF
3301 4138 CircleF
3795 984 CircleF
3914 1076 CircleF
2519 1841 CircleF
2639 1933 CircleF
5463 1898 CircleF
5583 1989 CircleF
2664 3060 CircleF
2784 3152 CircleF
3979 3754 CircleF
4099 3845 CircleF
3827 2578 CircleF
3947 2670 CircleF
6081 2775 CircleF
6200 2867 CircleF
1400 2979 CircleF
1520 3071 CircleF
2068 2154 CircleF
2188 2246 CircleF
2817 2794 CircleF
2937 2886 CircleF
% End plot #2
1.000 UP
1.000 UL
LT0
0.50 0.50 0.50 C stroke
grestore
end
showpage
%%Trailer
%%DocumentFonts: Helvetica
%%Pages: 1
