%!PS-Adobe-2.0
%%Title: out.ps
%%Creator: gnuplot 4.6 patchlevel 6
%%CreationDate: Thu May 28 16:10:42 2015
%%DocumentFonts: (atend)
%%BoundingBox: 50 50 554 770
%%Orientation: Landscape
%%Pages: (atend)
%%EndComments
%%BeginProlog
/gnudict 256 dict def
gnudict begin
%
% The following true/false flags may be edited by hand if desired.
% The unit line width and grayscale image gamma correction may also be changed.
%
/Color false def
/Blacktext false def
/Solid false def
/Dashlength 1 def
/Landscape true def
/Level1 false def
/Rounded false def
/ClipToBoundingBox false def
/SuppressPDFMark false def
/TransparentPatterns false def
/gnulinewidth 5.000 def
/userlinewidth gnulinewidth def
/Gamma 1.0 def
/BackgroundColor {-1.000 -1.000 -1.000} def
%
/vshift -46 def
/dl1 {
  10.0 Dashlength mul mul
  Rounded { currentlinewidth 0.75 mul sub dup 0 le { pop 0.01 } if } if
} def
/dl2 {
  10.0 Dashlength mul mul
  Rounded { currentlinewidth 0.75 mul add } if
} def
/hpt_ 31.5 def
/vpt_ 31.5 def
/hpt hpt_ def
/vpt vpt_ def
/doclip {
  ClipToBoundingBox {
    newpath 50 50 moveto 554 50 lineto 554 770 lineto 50 770 lineto closepath
    clip
  } if
} def
%
% Gnuplot Prolog Version 4.6 (September 2012)
%
%/SuppressPDFMark true def
%
/M {moveto} bind def
/L {lineto} bind def
/R {rmoveto} bind def
/V {rlineto} bind def
/N {newpath moveto} bind def
/Z {closepath} bind def
/C {setrgbcolor} bind def
/f {rlineto fill} bind def
/g {setgray} bind def
/Gshow {show} def   % May be redefined later in the file to support UTF-8
/vpt2 vpt 2 mul def
/hpt2 hpt 2 mul def
/Lshow {currentpoint stroke M 0 vshift R 
	Blacktext {gsave 0 setgray show grestore} {show} ifelse} def
/Rshow {currentpoint stroke M dup stringwidth pop neg vshift R
	Blacktext {gsave 0 setgray show grestore} {show} ifelse} def
/Cshow {currentpoint stroke M dup stringwidth pop -2 div vshift R 
	Blacktext {gsave 0 setgray show grestore} {show} ifelse} def
/UP {dup vpt_ mul /vpt exch def hpt_ mul /hpt exch def
  /hpt2 hpt 2 mul def /vpt2 vpt 2 mul def} def
/DL {Color {setrgbcolor Solid {pop []} if 0 setdash}
 {pop pop pop 0 setgray Solid {pop []} if 0 setdash} ifelse} def
/BL {stroke userlinewidth 2 mul setlinewidth
	Rounded {1 setlinejoin 1 setlinecap} if} def
/AL {stroke userlinewidth 2 div setlinewidth
	Rounded {1 setlinejoin 1 setlinecap} if} def
/UL {dup gnulinewidth mul /userlinewidth exch def
	dup 1 lt {pop 1} if 10 mul /udl exch def} def
/PL {stroke userlinewidth setlinewidth
	Rounded {1 setlinejoin 1 setlinecap} if} def
3.8 setmiterlimit
% Default Line colors
/LCw {1 1 1} def
/LCb {0 0 0} def
/LCa {0 0 0} def
/LC0 {1 0 0} def
/LC1 {0 1 0} def
/LC2 {0 0 1} def
/LC3 {1 0 1} def
/LC4 {0 1 1} def
/LC5 {1 1 0} def
/LC6 {0 0 0} def
/LC7 {1 0.3 0} def
/LC8 {0.5 0.5 0.5} def
% Default Line Types
/LTw {PL [] 1 setgray} def
/LTb {BL [] LCb DL} def
/LTa {AL [1 udl mul 2 udl mul] 0 setdash LCa setrgbcolor} def
/LT0 {PL [] LC0 DL} def
/LT1 {PL [4 dl1 2 dl2] LC1 DL} def
/LT2 {PL [2 dl1 3 dl2] LC2 DL} def
/LT3 {PL [1 dl1 1.5 dl2] LC3 DL} def
/LT4 {PL [6 dl1 2 dl2 1 dl1 2 dl2] LC4 DL} def
/LT5 {PL [3 dl1 3 dl2 1 dl1 3 dl2] LC5 DL} def
/LT6 {PL [2 dl1 2 dl2 2 dl1 6 dl2] LC6 DL} def
/LT7 {PL [1 dl1 2 dl2 6 dl1 2 dl2 1 dl1 2 dl2] LC7 DL} def
/LT8 {PL [2 dl1 2 dl2 2 dl1 2 dl2 2 dl1 2 dl2 2 dl1 4 dl2] LC8 DL} def
/Pnt {stroke [] 0 setdash gsave 1 setlinecap M 0 0 V stroke grestore} def
/Dia {stroke [] 0 setdash 2 copy vpt add M
  hpt neg vpt neg V hpt vpt neg V
  hpt vpt V hpt neg vpt V closepath stroke
  Pnt} def
/Pls {stroke [] 0 setdash vpt sub M 0 vpt2 V
  currentpoint stroke M
  hpt neg vpt neg R hpt2 0 V stroke
 } def
/Box {stroke [] 0 setdash 2 copy exch hpt sub exch vpt add M
  0 vpt2 neg V hpt2 0 V 0 vpt2 V
  hpt2 neg 0 V closepath stroke
  Pnt} def
/Crs {stroke [] 0 setdash exch hpt sub exch vpt add M
  hpt2 vpt2 neg V currentpoint stroke M
  hpt2 neg 0 R hpt2 vpt2 V stroke} def
/TriU {stroke [] 0 setdash 2 copy vpt 1.12 mul add M
  hpt neg vpt -1.62 mul V
  hpt 2 mul 0 V
  hpt neg vpt 1.62 mul V closepath stroke
  Pnt} def
/Star {2 copy Pls Crs} def
/BoxF {stroke [] 0 setdash exch hpt sub exch vpt add M
  0 vpt2 neg V hpt2 0 V 0 vpt2 V
  hpt2 neg 0 V closepath fill} def
/TriUF {stroke [] 0 setdash vpt 1.12 mul add M
  hpt neg vpt -1.62 mul V
  hpt 2 mul 0 V
  hpt neg vpt 1.62 mul V closepath fill} def
/TriD {stroke [] 0 setdash 2 copy vpt 1.12 mul sub M
  hpt neg vpt 1.62 mul V
  hpt 2 mul 0 V
  hpt neg vpt -1.62 mul V closepath stroke
  Pnt} def
/TriDF {stroke [] 0 setdash vpt 1.12 mul sub M
  hpt neg vpt 1.62 mul V
  hpt 2 mul 0 V
  hpt neg vpt -1.62 mul V closepath fill} def
/DiaF {stroke [] 0 setdash vpt add M
  hpt neg vpt neg V hpt vpt neg V
  hpt vpt V hpt neg vpt V closepath fill} def
/Pent {stroke [] 0 setdash 2 copy gsave
  translate 0 hpt M 4 {72 rotate 0 hpt L} repeat
  closepath stroke grestore Pnt} def
/PentF {stroke [] 0 setdash gsave
  translate 0 hpt M 4 {72 rotate 0 hpt L} repeat
  closepath fill grestore} def
/Circle {stroke [] 0 setdash 2 copy
  hpt 0 360 arc stroke Pnt} def
/CircleF {stroke [] 0 setdash hpt 0 360 arc fill} def
/C0 {BL [] 0 setdash 2 copy moveto vpt 90 450 arc} bind def
/C1 {BL [] 0 setdash 2 copy moveto
	2 copy vpt 0 90 arc closepath fill
	vpt 0 360 arc closepath} bind def
/C2 {BL [] 0 setdash 2 copy moveto
	2 copy vpt 90 180 arc closepath fill
	vpt 0 360 arc closepath} bind def
/C3 {BL [] 0 setdash 2 copy moveto
	2 copy vpt 0 180 arc closepath fill
	vpt 0 360 arc closepath} bind def
/C4 {BL [] 0 setdash 2 copy moveto
	2 copy vpt 180 270 arc closepath fill
	vpt 0 360 arc closepath} bind def
/C5 {BL [] 0 setdash 2 copy moveto
	2 copy vpt 0 90 arc
	2 copy moveto
	2 copy vpt 180 270 arc closepath fill
	vpt 0 360 arc} bind def
/C6 {BL [] 0 setdash 2 copy moveto
	2 copy vpt 90 270 arc closepath fill
	vpt 0 360 arc closepath} bind def
/C7 {BL [] 0 setdash 2 copy moveto
	2 copy vpt 0 270 arc closepath fill
	vpt 0 360 arc closepath} bind def
/C8 {BL [] 0 setdash 2 copy moveto
	2 copy vpt 270 360 arc closepath fill
	vpt 0 360 arc closepath} bind def
/C9 {BL [] 0 setdash 2 copy moveto
	2 copy vpt 270 450 arc closepath fill
	vpt 0 360 arc closepath} bind def
/C10 {BL [] 0 setdash 2 copy 2 copy moveto vpt 270 360 arc closepath fill
	2 copy moveto
	2 copy vpt 90 180 arc closepath fill
	vpt 0 360 arc closepath} bind def
/C11 {BL [] 0 setdash 2 copy moveto
	2 copy vpt 0 180 arc closepath fill
	2 copy moveto
	2 copy vpt 270 360 arc closepath fill
	vpt 0 360 arc closepath} bind def
/C12 {BL [] 0 setdash 2 copy moveto
	2 copy vpt 180 360 arc closepath fill
	vpt 0 360 arc closepath} bind def
/C13 {BL [] 0 setdash 2 copy moveto
	2 copy vpt 0 90 arc closepath fill
	2 copy moveto
	2 copy vpt 180 360 arc closepath fill
	vpt 0 360 arc closepath} bind def
/C14 {BL [] 0 setdash 2 copy moveto
	2 copy vpt 90 360 arc closepath fill
	vpt 0 360 arc} bind def
/C15 {BL [] 0 setdash 2 copy vpt 0 360 arc closepath fill
	vpt 0 360 arc closepath} bind def
/Rec {newpath 4 2 roll moveto 1 index 0 rlineto 0 exch rlineto
	neg 0 rlineto closepath} bind def
/Square {dup Rec} bind def
/Bsquare {vpt sub exch vpt sub exch vpt2 Square} bind def
/S0 {BL [] 0 setdash 2 copy moveto 0 vpt rlineto BL Bsquare} bind def
/S1 {BL [] 0 setdash 2 copy vpt Square fill Bsquare} bind def
/S2 {BL [] 0 setdash 2 copy exch vpt sub exch vpt Square fill Bsquare} bind def
/S3 {BL [] 0 setdash 2 copy exch vpt sub exch vpt2 vpt Rec fill Bsquare} bind def
/S4 {BL [] 0 setdash 2 copy exch vpt sub exch vpt sub vpt Square fill Bsquare} bind def
/S5 {BL [] 0 setdash 2 copy 2 copy vpt Square fill
	exch vpt sub exch vpt sub vpt Square fill Bsquare} bind def
/S6 {BL [] 0 setdash 2 copy exch vpt sub exch vpt sub vpt vpt2 Rec fill Bsquare} bind def
/S7 {BL [] 0 setdash 2 copy exch vpt sub exch vpt sub vpt vpt2 Rec fill
	2 copy vpt Square fill Bsquare} bind def
/S8 {BL [] 0 setdash 2 copy vpt sub vpt Square fill Bsquare} bind def
/S9 {BL [] 0 setdash 2 copy vpt sub vpt vpt2 Rec fill Bsquare} bind def
/S10 {BL [] 0 setdash 2 copy vpt sub vpt Square fill 2 copy exch vpt sub exch vpt Square fill
	Bsquare} bind def
/S11 {BL [] 0 setdash 2 copy vpt sub vpt Square fill 2 copy exch vpt sub exch vpt2 vpt Rec fill
	Bsquare} bind def
/S12 {BL [] 0 setdash 2 copy exch vpt sub exch vpt sub vpt2 vpt Rec fill Bsquare} bind def
/S13 {BL [] 0 setdash 2 copy exch vpt sub exch vpt sub vpt2 vpt Rec fill
	2 copy vpt Square fill Bsquare} bind def
/S14 {BL [] 0 setdash 2 copy exch vpt sub exch vpt sub vpt2 vpt Rec fill
	2 copy exch vpt sub exch vpt Square fill Bsquare} bind def
/S15 {BL [] 0 setdash 2 copy Bsquare fill Bsquare} bind def
/D0 {gsave translate 45 rotate 0 0 S0 stroke grestore} bind def
/D1 {gsave translate 45 rotate 0 0 S1 stroke grestore} bind def
/D2 {gsave translate 45 rotate 0 0 S2 stroke grestore} bind def
/D3 {gsave translate 45 rotate 0 0 S3 stroke grestore} bind def
/D4 {gsave translate 45 rotate 0 0 S4 stroke grestore} bind def
/D5 {gsave translate 45 rotate 0 0 S5 stroke grestore} bind def
/D6 {gsave translate 45 rotate 0 0 S6 stroke grestore} bind def
/D7 {gsave translate 45 rotate 0 0 S7 stroke grestore} bind def
/D8 {gsave translate 45 rotate 0 0 S8 stroke grestore} bind def
/D9 {gsave translate 45 rotate 0 0 S9 stroke grestore} bind def
/D10 {gsave translate 45 rotate 0 0 S10 stroke grestore} bind def
/D11 {gsave translate 45 rotate 0 0 S11 stroke grestore} bind def
/D12 {gsave translate 45 rotate 0 0 S12 stroke grestore} bind def
/D13 {gsave translate 45 rotate 0 0 S13 stroke grestore} bind def
/D14 {gsave translate 45 rotate 0 0 S14 stroke grestore} bind def
/D15 {gsave translate 45 rotate 0 0 S15 stroke grestore} bind def
/DiaE {stroke [] 0 setdash vpt add M
  hpt neg vpt neg V hpt vpt neg V
  hpt vpt V hpt neg vpt V closepath stroke} def
/BoxE {stroke [] 0 setdash exch hpt sub exch vpt add M
  0 vpt2 neg V hpt2 0 V 0 vpt2 V
  hpt2 neg 0 V closepath stroke} def
/TriUE {stroke [] 0 setdash vpt 1.12 mul add M
  hpt neg vpt -1.62 mul V
  hpt 2 mul 0 V
  hpt neg vpt 1.62 mul V closepath stroke} def
/TriDE {stroke [] 0 setdash vpt 1.12 mul sub M
  hpt neg vpt 1.62 mul V
  hpt 2 mul 0 V
  hpt neg vpt -1.62 mul V closepath stroke} def
/PentE {stroke [] 0 setdash gsave
  translate 0 hpt M 4 {72 rotate 0 hpt L} repeat
  closepath stroke grestore} def
/CircE {stroke [] 0 setdash 
  hpt 0 360 arc stroke} def
/Opaque {gsave closepath 1 setgray fill grestore 0 setgray closepath} def
/DiaW {stroke [] 0 setdash vpt add M
  hpt neg vpt neg V hpt vpt neg V
  hpt vpt V hpt neg vpt V Opaque stroke} def
/BoxW {stroke [] 0 setdash exch hpt sub exch vpt add M
  0 vpt2 neg V hpt2 0 V 0 vpt2 V
  hpt2 neg 0 V Opaque stroke} def
/TriUW {stroke [] 0 setdash vpt 1.12 mul add M
  hpt neg vpt -1.62 mul V
  hpt 2 mul 0 V
  hpt neg vpt 1.62 mul V Opaque stroke} def
/TriDW {stroke [] 0 setdash vpt 1.12 mul sub M
  hpt neg vpt 1.62 mul V
  hpt 2 mul 0 V
  hpt neg vpt -1.62 mul V Opaque stroke} def
/PentW {stroke [] 0 setdash gsave
  translate 0 hpt M 4 {72 rotate 0 hpt L} repeat
  Opaque stroke grestore} def
/CircW {stroke [] 0 setdash 
  hpt 0 360 arc Opaque stroke} def
/BoxFill {gsave Rec 1 setgray fill grestore} def
/Density {
  /Fillden exch def
  currentrgbcolor
  /ColB exch def /ColG exch def /ColR exch def
  /ColR ColR Fillden mul Fillden sub 1 add def
  /ColG ColG Fillden mul Fillden sub 1 add def
  /ColB ColB Fillden mul Fillden sub 1 add def
  ColR ColG ColB setrgbcolor} def
/BoxColFill {gsave Rec PolyFill} def
/PolyFill {gsave Density fill grestore grestore} def
/h {rlineto rlineto rlineto gsave closepath fill grestore} bind def
%
% PostScript Level 1 Pattern Fill routine for rectangles
% Usage: x y w h s a XX PatternFill
%	x,y = lower left corner of box to be filled
%	w,h = width and height of box
%	  a = angle in degrees between lines and x-axis
%	 XX = 0/1 for no/yes cross-hatch
%
/PatternFill {gsave /PFa [ 9 2 roll ] def
  PFa 0 get PFa 2 get 2 div add PFa 1 get PFa 3 get 2 div add translate
  PFa 2 get -2 div PFa 3 get -2 div PFa 2 get PFa 3 get Rec
  TransparentPatterns {} {gsave 1 setgray fill grestore} ifelse
  clip
  currentlinewidth 0.5 mul setlinewidth
  /PFs PFa 2 get dup mul PFa 3 get dup mul add sqrt def
  0 0 M PFa 5 get rotate PFs -2 div dup translate
  0 1 PFs PFa 4 get div 1 add floor cvi
	{PFa 4 get mul 0 M 0 PFs V} for
  0 PFa 6 get ne {
	0 1 PFs PFa 4 get div 1 add floor cvi
	{PFa 4 get mul 0 2 1 roll M PFs 0 V} for
 } if
  stroke grestore} def
%
/languagelevel where
 {pop languagelevel} {1} ifelse
 2 lt
	{/InterpretLevel1 true def}
	{/InterpretLevel1 Level1 def}
 ifelse
%
% PostScript level 2 pattern fill definitions
%
/Level2PatternFill {
/Tile8x8 {/PaintType 2 /PatternType 1 /TilingType 1 /BBox [0 0 8 8] /XStep 8 /YStep 8}
	bind def
/KeepColor {currentrgbcolor [/Pattern /DeviceRGB] setcolorspace} bind def
<< Tile8x8
 /PaintProc {0.5 setlinewidth pop 0 0 M 8 8 L 0 8 M 8 0 L stroke} 
>> matrix makepattern
/Pat1 exch def
<< Tile8x8
 /PaintProc {0.5 setlinewidth pop 0 0 M 8 8 L 0 8 M 8 0 L stroke
	0 4 M 4 8 L 8 4 L 4 0 L 0 4 L stroke}
>> matrix makepattern
/Pat2 exch def
<< Tile8x8
 /PaintProc {0.5 setlinewidth pop 0 0 M 0 8 L
	8 8 L 8 0 L 0 0 L fill}
>> matrix makepattern
/Pat3 exch def
<< Tile8x8
 /PaintProc {0.5 setlinewidth pop -4 8 M 8 -4 L
	0 12 M 12 0 L stroke}
>> matrix makepattern
/Pat4 exch def
<< Tile8x8
 /PaintProc {0.5 setlinewidth pop -4 0 M 8 12 L
	0 -4 M 12 8 L stroke}
>> matrix makepattern
/Pat5 exch def
<< Tile8x8
 /PaintProc {0.5 setlinewidth pop -2 8 M 4 -4 L
	0 12 M 8 -4 L 4 12 M 10 0 L stroke}
>> matrix makepattern
/Pat6 exch def
<< Tile8x8
 /PaintProc {0.5 setlinewidth pop -2 0 M 4 12 L
	0 -4 M 8 12 L 4 -4 M 10 8 L stroke}
>> matrix makepattern
/Pat7 exch def
<< Tile8x8
 /PaintProc {0.5 setlinewidth pop 8 -2 M -4 4 L
	12 0 M -4 8 L 12 4 M 0 10 L stroke}
>> matrix makepattern
/Pat8 exch def
<< Tile8x8
 /PaintProc {0.5 setlinewidth pop 0 -2 M 12 4 L
	-4 0 M 12 8 L -4 4 M 8 10 L stroke}
>> matrix makepattern
/Pat9 exch def
/Pattern1 {PatternBgnd KeepColor Pat1 setpattern} bind def
/Pattern2 {PatternBgnd KeepColor Pat2 setpattern} bind def
/Pattern3 {PatternBgnd KeepColor Pat3 setpattern} bind def
/Pattern4 {PatternBgnd KeepColor Landscape {Pat5} {Pat4} ifelse setpattern} bind def
/Pattern5 {PatternBgnd KeepColor Landscape {Pat4} {Pat5} ifelse setpattern} bind def
/Pattern6 {PatternBgnd KeepColor Landscape {Pat9} {Pat6} ifelse setpattern} bind def
/Pattern7 {PatternBgnd KeepColor Landscape {Pat8} {Pat7} ifelse setpattern} bind def
} def
%
%
%End of PostScript Level 2 code
%
/PatternBgnd {
  TransparentPatterns {} {gsave 1 setgray fill grestore} ifelse
} def
%
% Substitute for Level 2 pattern fill codes with
% grayscale if Level 2 support is not selected.
%
/Level1PatternFill {
/Pattern1 {0.250 Density} bind def
/Pattern2 {0.500 Density} bind def
/Pattern3 {0.750 Density} bind def
/Pattern4 {0.125 Density} bind def
/Pattern5 {0.375 Density} bind def
/Pattern6 {0.625 Density} bind def
/Pattern7 {0.875 Density} bind def
} def
%
% Now test for support of Level 2 code
%
Level1 {Level1PatternFill} {Level2PatternFill} ifelse
%
/Symbol-Oblique /Symbol findfont [1 0 .167 1 0 0] makefont
dup length dict begin {1 index /FID eq {pop pop} {def} ifelse} forall
currentdict end definefont pop
Level1 SuppressPDFMark or 
{} {
/SDict 10 dict def
systemdict /pdfmark known not {
  userdict /pdfmark systemdict /cleartomark get put
} if
SDict begin [
  /Title (out.ps)
  /Subject (gnuplot plot)
  /Creator (gnuplot 4.6 patchlevel 6)
  /Author (yani)
%  /Producer (gnuplot)
%  /Keywords ()
  /CreationDate (Thu May 28 16:10:42 2015)
  /DOCINFO pdfmark
end
} ifelse
end
%%EndProlog
%%Page: 1 1
gnudict begin
gsave
doclip
50 50 translate
0.100 0.100 scale
90 rotate
0 -5040 translate
0 setgray
newpath
(Helvetica) findfont 140 scalefont setfont
BackgroundColor 0 lt 3 1 roll 0 lt exch 0 lt or or not {gsave BackgroundColor C clippath fill grestore} if
1.000 UL
LT0
0.50 0.50 0.50 C 1.000 UL
LTa
0.50 0.50 0.50 C 966 280 M
5981 0 V
stroke
LT0
0.50 0.50 0.50 C 966 280 M
63 0 V
5918 0 R
-63 0 V
882 280 M
( 0) Rshow
1.000 UL
LT0
0.50 0.50 0.50 C 1.000 UL
LTa
0.50 0.50 0.50 C 966 326 M
5981 0 V
stroke
LT0
0.50 0.50 0.50 C 966 326 M
63 0 V
5918 0 R
-63 0 V
882 326 M
( 0.707106) Rshow
1.000 UL
LT0
0.50 0.50 0.50 C 1.000 UL
LTa
0.50 0.50 0.50 C 966 372 M
5981 0 V
stroke
LT0
0.50 0.50 0.50 C 966 372 M
63 0 V
5918 0 R
-63 0 V
882 372 M
( 1.41421) Rshow
1.000 UL
LT0
0.50 0.50 0.50 C 1.000 UL
LTa
0.50 0.50 0.50 C 966 418 M
5981 0 V
stroke
LT0
0.50 0.50 0.50 C 966 418 M
63 0 V
5918 0 R
-63 0 V
882 418 M
( 2.12132) Rshow
1.000 UL
LT0
0.50 0.50 0.50 C 1.000 UL
LTa
0.50 0.50 0.50 C 966 464 M
5981 0 V
stroke
LT0
0.50 0.50 0.50 C 966 464 M
63 0 V
5918 0 R
-63 0 V
882 464 M
( 2.82842) Rshow
1.000 UL
LT0
0.50 0.50 0.50 C 1.000 UL
LTa
0.50 0.50 0.50 C 966 510 M
5981 0 V
stroke
LT0
0.50 0.50 0.50 C 966 510 M
63 0 V
5918 0 R
-63 0 V
882 510 M
( 3.53553) Rshow
1.000 UL
LT0
0.50 0.50 0.50 C 1.000 UL
LTa
0.50 0.50 0.50 C 966 555 M
5981 0 V
stroke
LT0
0.50 0.50 0.50 C 966 555 M
63 0 V
5918 0 R
-63 0 V
882 555 M
( 4.24264) Rshow
1.000 UL
LT0
0.50 0.50 0.50 C 1.000 UL
LTa
0.50 0.50 0.50 C 966 601 M
5981 0 V
stroke
LT0
0.50 0.50 0.50 C 966 601 M
63 0 V
5918 0 R
-63 0 V
882 601 M
( 4.94974) Rshow
1.000 UL
LT0
0.50 0.50 0.50 C 1.000 UL
LTa
0.50 0.50 0.50 C 966 647 M
5981 0 V
stroke
LT0
0.50 0.50 0.50 C 966 647 M
63 0 V
5918 0 R
-63 0 V
882 647 M
( 5.65685) Rshow
1.000 UL
LT0
0.50 0.50 0.50 C 1.000 UL
LTa
0.50 0.50 0.50 C 966 693 M
5981 0 V
stroke
LT0
0.50 0.50 0.50 C 966 693 M
63 0 V
5918 0 R
-63 0 V
882 693 M
( 6.36395) Rshow
1.000 UL
LT0
0.50 0.50 0.50 C 1.000 UL
LTa
0.50 0.50 0.50 C 966 739 M
5981 0 V
stroke
LT0
0.50 0.50 0.50 C 966 739 M
63 0 V
5918 0 R
-63 0 V
882 739 M
( 7.07106) Rshow
1.000 UL
LT0
0.50 0.50 0.50 C 1.000 UL
LTa
0.50 0.50 0.50 C 966 785 M
5981 0 V
stroke
LT0
0.50 0.50 0.50 C 966 785 M
63 0 V
5918 0 R
-63 0 V
882 785 M
( 7.77817) Rshow
1.000 UL
LT0
0.50 0.50 0.50 C 1.000 UL
LTa
0.50 0.50 0.50 C 966 831 M
5981 0 V
stroke
LT0
0.50 0.50 0.50 C 966 831 M
63 0 V
5918 0 R
-63 0 V
882 831 M
( 8.48527) Rshow
1.000 UL
LT0
0.50 0.50 0.50 C 1.000 UL
LTa
0.50 0.50 0.50 C 966 877 M
5981 0 V
stroke
LT0
0.50 0.50 0.50 C 966 877 M
63 0 V
5918 0 R
-63 0 V
882 877 M
( 9.19238) Rshow
1.000 UL
LT0
0.50 0.50 0.50 C 1.000 UL
LTa
0.50 0.50 0.50 C 966 923 M
5981 0 V
stroke
LT0
0.50 0.50 0.50 C 966 923 M
63 0 V
5918 0 R
-63 0 V
882 923 M
( 9.89948) Rshow
1.000 UL
LT0
0.50 0.50 0.50 C 1.000 UL
LTa
0.50 0.50 0.50 C 966 969 M
5981 0 V
stroke
LT0
0.50 0.50 0.50 C 966 969 M
63 0 V
5918 0 R
-63 0 V
882 969 M
( 10.6066) Rshow
1.000 UL
LT0
0.50 0.50 0.50 C 1.000 UL
LTa
0.50 0.50 0.50 C 966 1015 M
5981 0 V
stroke
LT0
0.50 0.50 0.50 C 966 1015 M
63 0 V
5918 0 R
-63 0 V
-6002 0 R
( 11.3137) Rshow
1.000 UL
LT0
0.50 0.50 0.50 C 1.000 UL
LTa
0.50 0.50 0.50 C 966 1060 M
5981 0 V
stroke
LT0
0.50 0.50 0.50 C 966 1060 M
63 0 V
5918 0 R
-63 0 V
-6002 0 R
( 12.0208) Rshow
1.000 UL
LT0
0.50 0.50 0.50 C 1.000 UL
LTa
0.50 0.50 0.50 C 966 1106 M
5981 0 V
stroke
LT0
0.50 0.50 0.50 C 966 1106 M
63 0 V
5918 0 R
-63 0 V
-6002 0 R
( 12.7279) Rshow
1.000 UL
LT0
0.50 0.50 0.50 C 1.000 UL
LTa
0.50 0.50 0.50 C 966 1152 M
5981 0 V
stroke
LT0
0.50 0.50 0.50 C 966 1152 M
63 0 V
5918 0 R
-63 0 V
-6002 0 R
( 13.435) Rshow
1.000 UL
LT0
0.50 0.50 0.50 C 1.000 UL
LTa
0.50 0.50 0.50 C 966 1198 M
5981 0 V
stroke
LT0
0.50 0.50 0.50 C 966 1198 M
63 0 V
5918 0 R
-63 0 V
-6002 0 R
( 14.1421) Rshow
1.000 UL
LT0
0.50 0.50 0.50 C 1.000 UL
LTa
0.50 0.50 0.50 C 966 1244 M
5981 0 V
stroke
LT0
0.50 0.50 0.50 C 966 1244 M
63 0 V
5918 0 R
-63 0 V
-6002 0 R
( 14.8492) Rshow
1.000 UL
LT0
0.50 0.50 0.50 C 1.000 UL
LTa
0.50 0.50 0.50 C 966 1290 M
5981 0 V
stroke
LT0
0.50 0.50 0.50 C 966 1290 M
63 0 V
5918 0 R
-63 0 V
-6002 0 R
( 15.5563) Rshow
1.000 UL
LT0
0.50 0.50 0.50 C 1.000 UL
LTa
0.50 0.50 0.50 C 966 1336 M
5981 0 V
stroke
LT0
0.50 0.50 0.50 C 966 1336 M
63 0 V
5918 0 R
-63 0 V
-6002 0 R
( 16.2634) Rshow
1.000 UL
LT0
0.50 0.50 0.50 C 1.000 UL
LTa
0.50 0.50 0.50 C 966 1382 M
5981 0 V
stroke
LT0
0.50 0.50 0.50 C 966 1382 M
63 0 V
5918 0 R
-63 0 V
-6002 0 R
( 16.9705) Rshow
1.000 UL
LT0
0.50 0.50 0.50 C 1.000 UL
LTa
0.50 0.50 0.50 C 966 1428 M
5981 0 V
stroke
LT0
0.50 0.50 0.50 C 966 1428 M
63 0 V
5918 0 R
-63 0 V
-6002 0 R
( 17.6776) Rshow
1.000 UL
LT0
0.50 0.50 0.50 C 1.000 UL
LTa
0.50 0.50 0.50 C 966 1474 M
5981 0 V
stroke
LT0
0.50 0.50 0.50 C 966 1474 M
63 0 V
5918 0 R
-63 0 V
-6002 0 R
( 18.3848) Rshow
1.000 UL
LT0
0.50 0.50 0.50 C 1.000 UL
LTa
0.50 0.50 0.50 C 966 1520 M
5981 0 V
stroke
LT0
0.50 0.50 0.50 C 966 1520 M
63 0 V
5918 0 R
-63 0 V
-6002 0 R
( 19.0919) Rshow
1.000 UL
LT0
0.50 0.50 0.50 C 1.000 UL
LTa
0.50 0.50 0.50 C 966 1565 M
5981 0 V
stroke
LT0
0.50 0.50 0.50 C 966 1565 M
63 0 V
5918 0 R
-63 0 V
-6002 0 R
( 19.799) Rshow
1.000 UL
LT0
0.50 0.50 0.50 C 1.000 UL
LTa
0.50 0.50 0.50 C 966 1611 M
5981 0 V
stroke
LT0
0.50 0.50 0.50 C 966 1611 M
63 0 V
5918 0 R
-63 0 V
-6002 0 R
( 20.5061) Rshow
1.000 UL
LT0
0.50 0.50 0.50 C 1.000 UL
LTa
0.50 0.50 0.50 C 966 1657 M
5981 0 V
stroke
LT0
0.50 0.50 0.50 C 966 1657 M
63 0 V
5918 0 R
-63 0 V
-6002 0 R
( 21.2132) Rshow
1.000 UL
LT0
0.50 0.50 0.50 C 1.000 UL
LTa
0.50 0.50 0.50 C 966 1703 M
5981 0 V
stroke
LT0
0.50 0.50 0.50 C 966 1703 M
63 0 V
5918 0 R
-63 0 V
-6002 0 R
( 21.9203) Rshow
1.000 UL
LT0
0.50 0.50 0.50 C 1.000 UL
LTa
0.50 0.50 0.50 C 966 1749 M
5981 0 V
stroke
LT0
0.50 0.50 0.50 C 966 1749 M
63 0 V
5918 0 R
-63 0 V
-6002 0 R
( 22.6274) Rshow
1.000 UL
LT0
0.50 0.50 0.50 C 1.000 UL
LTa
0.50 0.50 0.50 C 966 1795 M
5981 0 V
stroke
LT0
0.50 0.50 0.50 C 966 1795 M
63 0 V
5918 0 R
-63 0 V
-6002 0 R
( 23.3345) Rshow
1.000 UL
LT0
0.50 0.50 0.50 C 1.000 UL
LTa
0.50 0.50 0.50 C 966 1841 M
5981 0 V
stroke
LT0
0.50 0.50 0.50 C 966 1841 M
63 0 V
5918 0 R
-63 0 V
-6002 0 R
( 24.0416) Rshow
1.000 UL
LT0
0.50 0.50 0.50 C 1.000 UL
LTa
0.50 0.50 0.50 C 966 1887 M
5981 0 V
stroke
LT0
0.50 0.50 0.50 C 966 1887 M
63 0 V
5918 0 R
-63 0 V
-6002 0 R
( 24.7487) Rshow
1.000 UL
LT0
0.50 0.50 0.50 C 1.000 UL
LTa
0.50 0.50 0.50 C 966 1933 M
5981 0 V
stroke
LT0
0.50 0.50 0.50 C 966 1933 M
63 0 V
5918 0 R
-63 0 V
-6002 0 R
( 25.4558) Rshow
1.000 UL
LT0
0.50 0.50 0.50 C 1.000 UL
LTa
0.50 0.50 0.50 C 966 1979 M
5981 0 V
stroke
LT0
0.50 0.50 0.50 C 966 1979 M
63 0 V
5918 0 R
-63 0 V
-6002 0 R
( 26.1629) Rshow
1.000 UL
LT0
0.50 0.50 0.50 C 1.000 UL
LTa
0.50 0.50 0.50 C 966 2025 M
5981 0 V
stroke
LT0
0.50 0.50 0.50 C 966 2025 M
63 0 V
5918 0 R
-63 0 V
-6002 0 R
( 26.87) Rshow
1.000 UL
LT0
0.50 0.50 0.50 C 1.000 UL
LTa
0.50 0.50 0.50 C 966 2070 M
5981 0 V
stroke
LT0
0.50 0.50 0.50 C 966 2070 M
63 0 V
5918 0 R
-63 0 V
-6002 0 R
( 27.5771) Rshow
1.000 UL
LT0
0.50 0.50 0.50 C 1.000 UL
LTa
0.50 0.50 0.50 C 966 2116 M
5981 0 V
stroke
LT0
0.50 0.50 0.50 C 966 2116 M
63 0 V
5918 0 R
-63 0 V
-6002 0 R
( 28.2842) Rshow
1.000 UL
LT0
0.50 0.50 0.50 C 1.000 UL
LTa
0.50 0.50 0.50 C 966 2162 M
5981 0 V
stroke
LT0
0.50 0.50 0.50 C 966 2162 M
63 0 V
5918 0 R
-63 0 V
-6002 0 R
( 28.9913) Rshow
1.000 UL
LT0
0.50 0.50 0.50 C 1.000 UL
LTa
0.50 0.50 0.50 C 966 2208 M
5981 0 V
stroke
LT0
0.50 0.50 0.50 C 966 2208 M
63 0 V
5918 0 R
-63 0 V
-6002 0 R
( 29.6985) Rshow
1.000 UL
LT0
0.50 0.50 0.50 C 1.000 UL
LTa
0.50 0.50 0.50 C 966 2254 M
5981 0 V
stroke
LT0
0.50 0.50 0.50 C 966 2254 M
63 0 V
5918 0 R
-63 0 V
-6002 0 R
( 30.4056) Rshow
1.000 UL
LT0
0.50 0.50 0.50 C 1.000 UL
LTa
0.50 0.50 0.50 C 966 2300 M
5981 0 V
stroke
LT0
0.50 0.50 0.50 C 966 2300 M
63 0 V
5918 0 R
-63 0 V
-6002 0 R
( 31.1127) Rshow
1.000 UL
LT0
0.50 0.50 0.50 C 1.000 UL
LTa
0.50 0.50 0.50 C 966 2346 M
5981 0 V
stroke
LT0
0.50 0.50 0.50 C 966 2346 M
63 0 V
5918 0 R
-63 0 V
-6002 0 R
( 31.8198) Rshow
1.000 UL
LT0
0.50 0.50 0.50 C 1.000 UL
LTa
0.50 0.50 0.50 C 966 2392 M
5981 0 V
stroke
LT0
0.50 0.50 0.50 C 966 2392 M
63 0 V
5918 0 R
-63 0 V
-6002 0 R
( 32.5269) Rshow
1.000 UL
LT0
0.50 0.50 0.50 C 1.000 UL
LTa
0.50 0.50 0.50 C 966 2438 M
5981 0 V
stroke
LT0
0.50 0.50 0.50 C 966 2438 M
63 0 V
5918 0 R
-63 0 V
-6002 0 R
( 33.234) Rshow
1.000 UL
LT0
0.50 0.50 0.50 C 1.000 UL
LTa
0.50 0.50 0.50 C 966 2484 M
5981 0 V
stroke
LT0
0.50 0.50 0.50 C 966 2484 M
63 0 V
5918 0 R
-63 0 V
-6002 0 R
( 33.9411) Rshow
1.000 UL
LT0
0.50 0.50 0.50 C 1.000 UL
LTa
0.50 0.50 0.50 C 966 2530 M
5981 0 V
stroke
LT0
0.50 0.50 0.50 C 966 2530 M
63 0 V
5918 0 R
-63 0 V
-6002 0 R
( 34.6482) Rshow
1.000 UL
LT0
0.50 0.50 0.50 C 1.000 UL
LTa
0.50 0.50 0.50 C 966 2576 M
5981 0 V
stroke
LT0
0.50 0.50 0.50 C 966 2576 M
63 0 V
5918 0 R
-63 0 V
-6002 0 R
( 35.3553) Rshow
1.000 UL
LT0
0.50 0.50 0.50 C 1.000 UL
LTa
0.50 0.50 0.50 C 966 2621 M
5981 0 V
stroke
LT0
0.50 0.50 0.50 C 966 2621 M
63 0 V
5918 0 R
-63 0 V
-6002 0 R
( 36.0624) Rshow
1.000 UL
LT0
0.50 0.50 0.50 C 1.000 UL
LTa
0.50 0.50 0.50 C 966 2667 M
5981 0 V
stroke
LT0
0.50 0.50 0.50 C 966 2667 M
63 0 V
5918 0 R
-63 0 V
-6002 0 R
( 36.7695) Rshow
1.000 UL
LT0
0.50 0.50 0.50 C 1.000 UL
LTa
0.50 0.50 0.50 C 966 2713 M
5981 0 V
stroke
LT0
0.50 0.50 0.50 C 966 2713 M
63 0 V
5918 0 R
-63 0 V
-6002 0 R
( 37.4766) Rshow
1.000 UL
LT0
0.50 0.50 0.50 C 1.000 UL
LTa
0.50 0.50 0.50 C 966 2759 M
5981 0 V
stroke
LT0
0.50 0.50 0.50 C 966 2759 M
63 0 V
5918 0 R
-63 0 V
-6002 0 R
( 38.1837) Rshow
1.000 UL
LT0
0.50 0.50 0.50 C 1.000 UL
LTa
0.50 0.50 0.50 C 966 2805 M
5981 0 V
stroke
LT0
0.50 0.50 0.50 C 966 2805 M
63 0 V
5918 0 R
-63 0 V
-6002 0 R
( 38.8908) Rshow
1.000 UL
LT0
0.50 0.50 0.50 C 1.000 UL
LTa
0.50 0.50 0.50 C 966 2851 M
5981 0 V
stroke
LT0
0.50 0.50 0.50 C 966 2851 M
63 0 V
5918 0 R
-63 0 V
-6002 0 R
( 39.5979) Rshow
1.000 UL
LT0
0.50 0.50 0.50 C 1.000 UL
LTa
0.50 0.50 0.50 C 966 2897 M
5981 0 V
stroke
LT0
0.50 0.50 0.50 C 966 2897 M
63 0 V
5918 0 R
-63 0 V
-6002 0 R
( 40.305) Rshow
1.000 UL
LT0
0.50 0.50 0.50 C 1.000 UL
LTa
0.50 0.50 0.50 C 966 2943 M
5981 0 V
stroke
LT0
0.50 0.50 0.50 C 966 2943 M
63 0 V
5918 0 R
-63 0 V
-6002 0 R
( 41.0121) Rshow
1.000 UL
LT0
0.50 0.50 0.50 C 1.000 UL
LTa
0.50 0.50 0.50 C 966 2989 M
5981 0 V
stroke
LT0
0.50 0.50 0.50 C 966 2989 M
63 0 V
5918 0 R
-63 0 V
-6002 0 R
( 41.7193) Rshow
1.000 UL
LT0
0.50 0.50 0.50 C 1.000 UL
LTa
0.50 0.50 0.50 C 966 3035 M
5981 0 V
stroke
LT0
0.50 0.50 0.50 C 966 3035 M
63 0 V
5918 0 R
-63 0 V
-6002 0 R
( 42.4264) Rshow
1.000 UL
LT0
0.50 0.50 0.50 C 1.000 UL
LTa
0.50 0.50 0.50 C 966 3081 M
5981 0 V
stroke
LT0
0.50 0.50 0.50 C 966 3081 M
63 0 V
5918 0 R
-63 0 V
-6002 0 R
( 43.1335) Rshow
1.000 UL
LT0
0.50 0.50 0.50 C 1.000 UL
LTa
0.50 0.50 0.50 C 966 3126 M
5981 0 V
stroke
LT0
0.50 0.50 0.50 C 966 3126 M
63 0 V
5918 0 R
-63 0 V
-6002 0 R
( 43.8406) Rshow
1.000 UL
LT0
0.50 0.50 0.50 C 1.000 UL
LTa
0.50 0.50 0.50 C 966 3172 M
5981 0 V
stroke
LT0
0.50 0.50 0.50 C 966 3172 M
63 0 V
5918 0 R
-63 0 V
-6002 0 R
( 44.5477) Rshow
1.000 UL
LT0
0.50 0.50 0.50 C 1.000 UL
LTa
0.50 0.50 0.50 C 966 3218 M
5981 0 V
stroke
LT0
0.50 0.50 0.50 C 966 3218 M
63 0 V
5918 0 R
-63 0 V
-6002 0 R
( 45.2548) Rshow
1.000 UL
LT0
0.50 0.50 0.50 C 1.000 UL
LTa
0.50 0.50 0.50 C 966 3264 M
5981 0 V
stroke
LT0
0.50 0.50 0.50 C 966 3264 M
63 0 V
5918 0 R
-63 0 V
-6002 0 R
( 45.9619) Rshow
1.000 UL
LT0
0.50 0.50 0.50 C 1.000 UL
LTa
0.50 0.50 0.50 C 966 3310 M
5981 0 V
stroke
LT0
0.50 0.50 0.50 C 966 3310 M
63 0 V
5918 0 R
-63 0 V
-6002 0 R
( 46.669) Rshow
1.000 UL
LT0
0.50 0.50 0.50 C 1.000 UL
LTa
0.50 0.50 0.50 C 966 3356 M
5981 0 V
stroke
LT0
0.50 0.50 0.50 C 966 3356 M
63 0 V
5918 0 R
-63 0 V
-6002 0 R
( 47.3761) Rshow
1.000 UL
LT0
0.50 0.50 0.50 C 1.000 UL
LTa
0.50 0.50 0.50 C 966 3402 M
5981 0 V
stroke
LT0
0.50 0.50 0.50 C 966 3402 M
63 0 V
5918 0 R
-63 0 V
-6002 0 R
( 48.0832) Rshow
1.000 UL
LT0
0.50 0.50 0.50 C 1.000 UL
LTa
0.50 0.50 0.50 C 966 3448 M
5981 0 V
stroke
LT0
0.50 0.50 0.50 C 966 3448 M
63 0 V
5918 0 R
-63 0 V
-6002 0 R
( 48.7903) Rshow
1.000 UL
LT0
0.50 0.50 0.50 C 1.000 UL
LTa
0.50 0.50 0.50 C 966 3494 M
5981 0 V
stroke
LT0
0.50 0.50 0.50 C 966 3494 M
63 0 V
5918 0 R
-63 0 V
-6002 0 R
( 49.4974) Rshow
1.000 UL
LT0
0.50 0.50 0.50 C 1.000 UL
LTa
0.50 0.50 0.50 C 966 3540 M
5981 0 V
stroke
LT0
0.50 0.50 0.50 C 966 3540 M
63 0 V
5918 0 R
-63 0 V
-6002 0 R
( 50.2045) Rshow
1.000 UL
LT0
0.50 0.50 0.50 C 1.000 UL
LTa
0.50 0.50 0.50 C 966 3586 M
5981 0 V
stroke
LT0
0.50 0.50 0.50 C 966 3586 M
63 0 V
5918 0 R
-63 0 V
-6002 0 R
( 50.9116) Rshow
1.000 UL
LT0
0.50 0.50 0.50 C 1.000 UL
LTa
0.50 0.50 0.50 C 966 3631 M
5981 0 V
stroke
LT0
0.50 0.50 0.50 C 966 3631 M
63 0 V
5918 0 R
-63 0 V
-6002 0 R
( 51.6187) Rshow
1.000 UL
LT0
0.50 0.50 0.50 C 1.000 UL
LTa
0.50 0.50 0.50 C 966 3677 M
5981 0 V
stroke
LT0
0.50 0.50 0.50 C 966 3677 M
63 0 V
5918 0 R
-63 0 V
-6002 0 R
( 52.3258) Rshow
1.000 UL
LT0
0.50 0.50 0.50 C 1.000 UL
LTa
0.50 0.50 0.50 C 966 3723 M
5981 0 V
stroke
LT0
0.50 0.50 0.50 C 966 3723 M
63 0 V
5918 0 R
-63 0 V
-6002 0 R
( 53.033) Rshow
1.000 UL
LT0
0.50 0.50 0.50 C 1.000 UL
LTa
0.50 0.50 0.50 C 966 3769 M
5981 0 V
stroke
LT0
0.50 0.50 0.50 C 966 3769 M
63 0 V
5918 0 R
-63 0 V
-6002 0 R
( 53.7401) Rshow
1.000 UL
LT0
0.50 0.50 0.50 C 1.000 UL
LTa
0.50 0.50 0.50 C 966 3815 M
5981 0 V
stroke
LT0
0.50 0.50 0.50 C 966 3815 M
63 0 V
5918 0 R
-63 0 V
-6002 0 R
( 54.4472) Rshow
1.000 UL
LT0
0.50 0.50 0.50 C 1.000 UL
LTa
0.50 0.50 0.50 C 966 3861 M
5981 0 V
stroke
LT0
0.50 0.50 0.50 C 966 3861 M
63 0 V
5918 0 R
-63 0 V
-6002 0 R
( 55.1543) Rshow
1.000 UL
LT0
0.50 0.50 0.50 C 1.000 UL
LTa
0.50 0.50 0.50 C 966 3907 M
5981 0 V
stroke
LT0
0.50 0.50 0.50 C 966 3907 M
63 0 V
5918 0 R
-63 0 V
-6002 0 R
( 55.8614) Rshow
1.000 UL
LT0
0.50 0.50 0.50 C 1.000 UL
LTa
0.50 0.50 0.50 C 966 3953 M
5981 0 V
stroke
LT0
0.50 0.50 0.50 C 966 3953 M
63 0 V
5918 0 R
-63 0 V
-6002 0 R
( 56.5685) Rshow
1.000 UL
LT0
0.50 0.50 0.50 C 1.000 UL
LTa
0.50 0.50 0.50 C 966 3999 M
5981 0 V
stroke
LT0
0.50 0.50 0.50 C 966 3999 M
63 0 V
5918 0 R
-63 0 V
-6002 0 R
( 57.2756) Rshow
1.000 UL
LT0
0.50 0.50 0.50 C 1.000 UL
LTa
0.50 0.50 0.50 C 966 4045 M
5981 0 V
stroke
LT0
0.50 0.50 0.50 C 966 4045 M
63 0 V
5918 0 R
-63 0 V
-6002 0 R
( 57.9827) Rshow
1.000 UL
LT0
0.50 0.50 0.50 C 1.000 UL
LTa
0.50 0.50 0.50 C 966 4091 M
5981 0 V
stroke
LT0
0.50 0.50 0.50 C 966 4091 M
63 0 V
5918 0 R
-63 0 V
-6002 0 R
( 58.6898) Rshow
1.000 UL
LT0
0.50 0.50 0.50 C 1.000 UL
LTa
0.50 0.50 0.50 C 966 4136 M
5981 0 V
stroke
LT0
0.50 0.50 0.50 C 966 4136 M
63 0 V
5918 0 R
-63 0 V
-6002 0 R
( 59.3969) Rshow
1.000 UL
LT0
0.50 0.50 0.50 C 1.000 UL
LTa
0.50 0.50 0.50 C 966 4182 M
5981 0 V
stroke
LT0
0.50 0.50 0.50 C 966 4182 M
63 0 V
5918 0 R
-63 0 V
-6002 0 R
( 60.104) Rshow
1.000 UL
LT0
0.50 0.50 0.50 C 1.000 UL
LTa
0.50 0.50 0.50 C 966 4228 M
5981 0 V
stroke
LT0
0.50 0.50 0.50 C 966 4228 M
63 0 V
5918 0 R
-63 0 V
-6002 0 R
( 60.8111) Rshow
1.000 UL
LT0
0.50 0.50 0.50 C 1.000 UL
LTa
0.50 0.50 0.50 C 966 4274 M
5981 0 V
stroke
LT0
0.50 0.50 0.50 C 966 4274 M
63 0 V
5918 0 R
-63 0 V
-6002 0 R
( 61.5182) Rshow
1.000 UL
LT0
0.50 0.50 0.50 C 1.000 UL
LTa
0.50 0.50 0.50 C 966 4320 M
5981 0 V
stroke
LT0
0.50 0.50 0.50 C 966 4320 M
63 0 V
5918 0 R
-63 0 V
-6002 0 R
( 62.2253) Rshow
1.000 UL
LT0
0.50 0.50 0.50 C 1.000 UL
LTa
0.50 0.50 0.50 C 966 4366 M
5981 0 V
stroke
LT0
0.50 0.50 0.50 C 966 4366 M
63 0 V
5918 0 R
-63 0 V
-6002 0 R
( 62.9324) Rshow
1.000 UL
LT0
0.50 0.50 0.50 C 1.000 UL
LTa
0.50 0.50 0.50 C 966 4412 M
5981 0 V
stroke
LT0
0.50 0.50 0.50 C 966 4412 M
63 0 V
5918 0 R
-63 0 V
-6002 0 R
( 63.6395) Rshow
1.000 UL
LT0
0.50 0.50 0.50 C 1.000 UL
LTa
0.50 0.50 0.50 C 966 4458 M
5981 0 V
stroke
LT0
0.50 0.50 0.50 C 966 4458 M
63 0 V
5918 0 R
-63 0 V
-6002 0 R
( 64.3466) Rshow
1.000 UL
LT0
0.50 0.50 0.50 C 1.000 UL
LTa
0.50 0.50 0.50 C 966 4504 M
5981 0 V
stroke
LT0
0.50 0.50 0.50 C 966 4504 M
63 0 V
5918 0 R
-63 0 V
-6002 0 R
( 65.0538) Rshow
1.000 UL
LT0
0.50 0.50 0.50 C 1.000 UL
LTa
0.50 0.50 0.50 C 966 4550 M
5981 0 V
stroke
LT0
0.50 0.50 0.50 C 966 4550 M
63 0 V
5918 0 R
-63 0 V
-6002 0 R
( 65.7609) Rshow
1.000 UL
LT0
0.50 0.50 0.50 C 1.000 UL
LTa
0.50 0.50 0.50 C 966 4596 M
5981 0 V
stroke
LT0
0.50 0.50 0.50 C 966 4596 M
63 0 V
5918 0 R
-63 0 V
-6002 0 R
( 66.468) Rshow
1.000 UL
LT0
0.50 0.50 0.50 C 1.000 UL
LTa
0.50 0.50 0.50 C 966 4641 M
5981 0 V
stroke
LT0
0.50 0.50 0.50 C 966 4641 M
63 0 V
5918 0 R
-63 0 V
-6002 0 R
( 67.1751) Rshow
1.000 UL
LT0
0.50 0.50 0.50 C 1.000 UL
LTa
0.50 0.50 0.50 C 966 4687 M
5981 0 V
stroke
LT0
0.50 0.50 0.50 C 966 4687 M
63 0 V
5918 0 R
-63 0 V
-6002 0 R
( 67.8822) Rshow
1.000 UL
LT0
0.50 0.50 0.50 C 1.000 UL
LTa
0.50 0.50 0.50 C 966 4733 M
5981 0 V
stroke
LT0
0.50 0.50 0.50 C 966 4733 M
63 0 V
5918 0 R
-63 0 V
-6002 0 R
( 68.5893) Rshow
1.000 UL
LT0
0.50 0.50 0.50 C 1.000 UL
LTa
0.50 0.50 0.50 C 966 4779 M
5981 0 V
stroke
LT0
0.50 0.50 0.50 C 966 4779 M
63 0 V
5918 0 R
-63 0 V
-6002 0 R
( 69.2964) Rshow
1.000 UL
LT0
0.50 0.50 0.50 C 1.000 UL
LTa
0.50 0.50 0.50 C 966 4825 M
5981 0 V
stroke
LT0
0.50 0.50 0.50 C 966 4825 M
63 0 V
5918 0 R
-63 0 V
-6002 0 R
( 70.0035) Rshow
1.000 UL
LT0
0.50 0.50 0.50 C 1.000 UL
LTa
0.50 0.50 0.50 C 966 4871 M
5981 0 V
stroke
LT0
0.50 0.50 0.50 C 966 4871 M
63 0 V
5918 0 R
-63 0 V
-6002 0 R
( 70.7106) Rshow
1.000 UL
LT0
0.50 0.50 0.50 C 1.000 UL
LTa
0.50 0.50 0.50 C 966 280 M
0 4591 V
stroke
LT0
0.50 0.50 0.50 C 966 280 M
0 63 V
0 4528 R
0 -63 V
966 140 M
( 0) Cshow
1.000 UL
LT0
0.50 0.50 0.50 C 1.000 UL
LTa
0.50 0.50 0.50 C 1026 280 M
0 4591 V
stroke
LT0
0.50 0.50 0.50 C 1026 280 M
0 63 V
0 4528 R
0 -63 V
0 -4668 R
( 0.707106) Cshow
1.000 UL
LT0
0.50 0.50 0.50 C 1.000 UL
LTa
0.50 0.50 0.50 C 1086 280 M
0 4591 V
stroke
LT0
0.50 0.50 0.50 C 1086 280 M
0 63 V
0 4528 R
0 -63 V
0 -4668 R
( 1.41421) Cshow
1.000 UL
LT0
0.50 0.50 0.50 C 1.000 UL
LTa
0.50 0.50 0.50 C 1145 280 M
0 4591 V
stroke
LT0
0.50 0.50 0.50 C 1145 280 M
0 63 V
0 4528 R
0 -63 V
0 -4668 R
( 2.12132) Cshow
1.000 UL
LT0
0.50 0.50 0.50 C 1.000 UL
LTa
0.50 0.50 0.50 C 1205 280 M
0 4591 V
stroke
LT0
0.50 0.50 0.50 C 1205 280 M
0 63 V
0 4528 R
0 -63 V
0 -4668 R
( 2.82842) Cshow
1.000 UL
LT0
0.50 0.50 0.50 C 1.000 UL
LTa
0.50 0.50 0.50 C 1265 280 M
0 4591 V
stroke
LT0
0.50 0.50 0.50 C 1265 280 M
0 63 V
0 4528 R
0 -63 V
0 -4668 R
( 3.53553) Cshow
1.000 UL
LT0
0.50 0.50 0.50 C 1.000 UL
LTa
0.50 0.50 0.50 C 1325 280 M
0 4591 V
stroke
LT0
0.50 0.50 0.50 C 1325 280 M
0 63 V
0 4528 R
0 -63 V
0 -4668 R
( 4.24264) Cshow
1.000 UL
LT0
0.50 0.50 0.50 C 1.000 UL
LTa
0.50 0.50 0.50 C 1385 280 M
0 4591 V
stroke
LT0
0.50 0.50 0.50 C 1385 280 M
0 63 V
0 4528 R
0 -63 V
0 -4668 R
( 4.94974) Cshow
1.000 UL
LT0
0.50 0.50 0.50 C 1.000 UL
LTa
0.50 0.50 0.50 C 1444 280 M
0 4591 V
stroke
LT0
0.50 0.50 0.50 C 1444 280 M
0 63 V
0 4528 R
0 -63 V
0 -4668 R
( 5.65685) Cshow
1.000 UL
LT0
0.50 0.50 0.50 C 1.000 UL
LTa
0.50 0.50 0.50 C 1504 280 M
0 4591 V
stroke
LT0
0.50 0.50 0.50 C 1504 280 M
0 63 V
0 4528 R
0 -63 V
0 -4668 R
( 6.36395) Cshow
1.000 UL
LT0
0.50 0.50 0.50 C 1.000 UL
LTa
0.50 0.50 0.50 C 1564 280 M
0 4591 V
stroke
LT0
0.50 0.50 0.50 C 1564 280 M
0 63 V
0 4528 R
0 -63 V
0 -4668 R
( 7.07106) Cshow
1.000 UL
LT0
0.50 0.50 0.50 C 1.000 UL
LTa
0.50 0.50 0.50 C 1624 280 M
0 4591 V
stroke
LT0
0.50 0.50 0.50 C 1624 280 M
0 63 V
0 4528 R
0 -63 V
0 -4668 R
( 7.77817) Cshow
1.000 UL
LT0
0.50 0.50 0.50 C 1.000 UL
LTa
0.50 0.50 0.50 C 1684 280 M
0 4591 V
stroke
LT0
0.50 0.50 0.50 C 1684 280 M
0 63 V
0 4528 R
0 -63 V
0 -4668 R
( 8.48527) Cshow
1.000 UL
LT0
0.50 0.50 0.50 C 1.000 UL
LTa
0.50 0.50 0.50 C 1744 280 M
0 4591 V
stroke
LT0
0.50 0.50 0.50 C 1744 280 M
0 63 V
0 4528 R
0 -63 V
0 -4668 R
( 9.19238) Cshow
1.000 UL
LT0
0.50 0.50 0.50 C 1.000 UL
LTa
0.50 0.50 0.50 C 1803 280 M
0 4591 V
stroke
LT0
0.50 0.50 0.50 C 1803 280 M
0 63 V
0 4528 R
0 -63 V
0 -4668 R
( 9.89948) Cshow
1.000 UL
LT0
0.50 0.50 0.50 C 1.000 UL
LTa
0.50 0.50 0.50 C 1863 280 M
0 4591 V
stroke
LT0
0.50 0.50 0.50 C 1863 280 M
0 63 V
0 4528 R
0 -63 V
0 -4668 R
( 10.6066) Cshow
1.000 UL
LT0
0.50 0.50 0.50 C 1.000 UL
LTa
0.50 0.50 0.50 C 1923 280 M
0 4591 V
stroke
LT0
0.50 0.50 0.50 C 1923 280 M
0 63 V
0 4528 R
0 -63 V
0 -4668 R
( 11.3137) Cshow
1.000 UL
LT0
0.50 0.50 0.50 C 1.000 UL
LTa
0.50 0.50 0.50 C 1983 280 M
0 4591 V
stroke
LT0
0.50 0.50 0.50 C 1983 280 M
0 63 V
0 4528 R
0 -63 V
0 -4668 R
( 12.0208) Cshow
1.000 UL
LT0
0.50 0.50 0.50 C 1.000 UL
LTa
0.50 0.50 0.50 C 2043 280 M
0 4591 V
stroke
LT0
0.50 0.50 0.50 C 2043 280 M
0 63 V
0 4528 R
0 -63 V
0 -4668 R
( 12.7279) Cshow
1.000 UL
LT0
0.50 0.50 0.50 C 1.000 UL
LTa
0.50 0.50 0.50 C 2102 280 M
0 4591 V
stroke
LT0
0.50 0.50 0.50 C 2102 280 M
0 63 V
0 4528 R
0 -63 V
0 -4668 R
( 13.435) Cshow
1.000 UL
LT0
0.50 0.50 0.50 C 1.000 UL
LTa
0.50 0.50 0.50 C 2162 280 M
0 4591 V
stroke
LT0
0.50 0.50 0.50 C 2162 280 M
0 63 V
0 4528 R
0 -63 V
0 -4668 R
( 14.1421) Cshow
1.000 UL
LT0
0.50 0.50 0.50 C 1.000 UL
LTa
0.50 0.50 0.50 C 2222 280 M
0 4591 V
stroke
LT0
0.50 0.50 0.50 C 2222 280 M
0 63 V
0 4528 R
0 -63 V
0 -4668 R
( 14.8492) Cshow
1.000 UL
LT0
0.50 0.50 0.50 C 1.000 UL
LTa
0.50 0.50 0.50 C 2282 280 M
0 4591 V
stroke
LT0
0.50 0.50 0.50 C 2282 280 M
0 63 V
0 4528 R
0 -63 V
0 -4668 R
( 15.5563) Cshow
1.000 UL
LT0
0.50 0.50 0.50 C 1.000 UL
LTa
0.50 0.50 0.50 C 2342 280 M
0 4591 V
stroke
LT0
0.50 0.50 0.50 C 2342 280 M
0 63 V
0 4528 R
0 -63 V
0 -4668 R
( 16.2634) Cshow
1.000 UL
LT0
0.50 0.50 0.50 C 1.000 UL
LTa
0.50 0.50 0.50 C 2401 280 M
0 4591 V
stroke
LT0
0.50 0.50 0.50 C 2401 280 M
0 63 V
0 4528 R
0 -63 V
0 -4668 R
( 16.9705) Cshow
1.000 UL
LT0
0.50 0.50 0.50 C 1.000 UL
LTa
0.50 0.50 0.50 C 2461 280 M
0 4591 V
stroke
LT0
0.50 0.50 0.50 C 2461 280 M
0 63 V
0 4528 R
0 -63 V
0 -4668 R
( 17.6776) Cshow
1.000 UL
LT0
0.50 0.50 0.50 C 1.000 UL
LTa
0.50 0.50 0.50 C 2521 280 M
0 4591 V
stroke
LT0
0.50 0.50 0.50 C 2521 280 M
0 63 V
0 4528 R
0 -63 V
0 -4668 R
( 18.3848) Cshow
1.000 UL
LT0
0.50 0.50 0.50 C 1.000 UL
LTa
0.50 0.50 0.50 C 2581 280 M
0 4591 V
stroke
LT0
0.50 0.50 0.50 C 2581 280 M
0 63 V
0 4528 R
0 -63 V
0 -4668 R
( 19.0919) Cshow
1.000 UL
LT0
0.50 0.50 0.50 C 1.000 UL
LTa
0.50 0.50 0.50 C 2641 280 M
0 4591 V
stroke
LT0
0.50 0.50 0.50 C 2641 280 M
0 63 V
0 4528 R
0 -63 V
0 -4668 R
( 19.799) Cshow
1.000 UL
LT0
0.50 0.50 0.50 C 1.000 UL
LTa
0.50 0.50 0.50 C 2700 280 M
0 4591 V
stroke
LT0
0.50 0.50 0.50 C 2700 280 M
0 63 V
0 4528 R
0 -63 V
0 -4668 R
( 20.5061) Cshow
1.000 UL
LT0
0.50 0.50 0.50 C 1.000 UL
LTa
0.50 0.50 0.50 C 2760 280 M
0 4591 V
stroke
LT0
0.50 0.50 0.50 C 2760 280 M
0 63 V
0 4528 R
0 -63 V
0 -4668 R
( 21.2132) Cshow
1.000 UL
LT0
0.50 0.50 0.50 C 1.000 UL
LTa
0.50 0.50 0.50 C 2820 280 M
0 4591 V
stroke
LT0
0.50 0.50 0.50 C 2820 280 M
0 63 V
0 4528 R
0 -63 V
0 -4668 R
( 21.9203) Cshow
1.000 UL
LT0
0.50 0.50 0.50 C 1.000 UL
LTa
0.50 0.50 0.50 C 2880 280 M
0 4591 V
stroke
LT0
0.50 0.50 0.50 C 2880 280 M
0 63 V
0 4528 R
0 -63 V
0 -4668 R
( 22.6274) Cshow
1.000 UL
LT0
0.50 0.50 0.50 C 1.000 UL
LTa
0.50 0.50 0.50 C 2940 280 M
0 4591 V
stroke
LT0
0.50 0.50 0.50 C 2940 280 M
0 63 V
0 4528 R
0 -63 V
0 -4668 R
( 23.3345) Cshow
1.000 UL
LT0
0.50 0.50 0.50 C 1.000 UL
LTa
0.50 0.50 0.50 C 3000 280 M
0 4591 V
stroke
LT0
0.50 0.50 0.50 C 3000 280 M
0 63 V
0 4528 R
0 -63 V
0 -4668 R
( 24.0416) Cshow
1.000 UL
LT0
0.50 0.50 0.50 C 1.000 UL
LTa
0.50 0.50 0.50 C 3059 280 M
0 4591 V
stroke
LT0
0.50 0.50 0.50 C 3059 280 M
0 63 V
0 4528 R
0 -63 V
0 -4668 R
( 24.7487) Cshow
1.000 UL
LT0
0.50 0.50 0.50 C 1.000 UL
LTa
0.50 0.50 0.50 C 3119 280 M
0 4591 V
stroke
LT0
0.50 0.50 0.50 C 3119 280 M
0 63 V
0 4528 R
0 -63 V
0 -4668 R
( 25.4558) Cshow
1.000 UL
LT0
0.50 0.50 0.50 C 1.000 UL
LTa
0.50 0.50 0.50 C 3179 280 M
0 4591 V
stroke
LT0
0.50 0.50 0.50 C 3179 280 M
0 63 V
0 4528 R
0 -63 V
0 -4668 R
( 26.1629) Cshow
1.000 UL
LT0
0.50 0.50 0.50 C 1.000 UL
LTa
0.50 0.50 0.50 C 3239 280 M
0 4591 V
stroke
LT0
0.50 0.50 0.50 C 3239 280 M
0 63 V
0 4528 R
0 -63 V
0 -4668 R
( 26.87) Cshow
1.000 UL
LT0
0.50 0.50 0.50 C 1.000 UL
LTa
0.50 0.50 0.50 C 3299 280 M
0 4591 V
stroke
LT0
0.50 0.50 0.50 C 3299 280 M
0 63 V
0 4528 R
0 -63 V
0 -4668 R
( 27.5771) Cshow
1.000 UL
LT0
0.50 0.50 0.50 C 1.000 UL
LTa
0.50 0.50 0.50 C 3358 280 M
0 4591 V
stroke
LT0
0.50 0.50 0.50 C 3358 280 M
0 63 V
0 4528 R
0 -63 V
0 -4668 R
( 28.2842) Cshow
1.000 UL
LT0
0.50 0.50 0.50 C 1.000 UL
LTa
0.50 0.50 0.50 C 3418 280 M
0 4591 V
stroke
LT0
0.50 0.50 0.50 C 3418 280 M
0 63 V
0 4528 R
0 -63 V
0 -4668 R
( 28.9913) Cshow
1.000 UL
LT0
0.50 0.50 0.50 C 1.000 UL
LTa
0.50 0.50 0.50 C 3478 280 M
0 4591 V
stroke
LT0
0.50 0.50 0.50 C 3478 280 M
0 63 V
0 4528 R
0 -63 V
0 -4668 R
( 29.6985) Cshow
1.000 UL
LT0
0.50 0.50 0.50 C 1.000 UL
LTa
0.50 0.50 0.50 C 3538 280 M
0 4591 V
stroke
LT0
0.50 0.50 0.50 C 3538 280 M
0 63 V
0 4528 R
0 -63 V
0 -4668 R
( 30.4056) Cshow
1.000 UL
LT0
0.50 0.50 0.50 C 1.000 UL
LTa
0.50 0.50 0.50 C 3598 280 M
0 4591 V
stroke
LT0
0.50 0.50 0.50 C 3598 280 M
0 63 V
0 4528 R
0 -63 V
0 -4668 R
( 31.1127) Cshow
1.000 UL
LT0
0.50 0.50 0.50 C 1.000 UL
LTa
0.50 0.50 0.50 C 3657 280 M
0 4591 V
stroke
LT0
0.50 0.50 0.50 C 3657 280 M
0 63 V
0 4528 R
0 -63 V
0 -4668 R
( 31.8198) Cshow
1.000 UL
LT0
0.50 0.50 0.50 C 1.000 UL
LTa
0.50 0.50 0.50 C 3717 280 M
0 4591 V
stroke
LT0
0.50 0.50 0.50 C 3717 280 M
0 63 V
0 4528 R
0 -63 V
0 -4668 R
( 32.5269) Cshow
1.000 UL
LT0
0.50 0.50 0.50 C 1.000 UL
LTa
0.50 0.50 0.50 C 3777 280 M
0 4591 V
stroke
LT0
0.50 0.50 0.50 C 3777 280 M
0 63 V
0 4528 R
0 -63 V
0 -4668 R
( 33.234) Cshow
1.000 UL
LT0
0.50 0.50 0.50 C 1.000 UL
LTa
0.50 0.50 0.50 C 3837 280 M
0 4591 V
stroke
LT0
0.50 0.50 0.50 C 3837 280 M
0 63 V
0 4528 R
0 -63 V
0 -4668 R
( 33.9411) Cshow
1.000 UL
LT0
0.50 0.50 0.50 C 1.000 UL
LTa
0.50 0.50 0.50 C 3897 280 M
0 4591 V
stroke
LT0
0.50 0.50 0.50 C 3897 280 M
0 63 V
0 4528 R
0 -63 V
0 -4668 R
( 34.6482) Cshow
1.000 UL
LT0
0.50 0.50 0.50 C 1.000 UL
LTa
0.50 0.50 0.50 C 3957 280 M
0 4591 V
stroke
LT0
0.50 0.50 0.50 C 3957 280 M
0 63 V
0 4528 R
0 -63 V
0 -4668 R
( 35.3553) Cshow
1.000 UL
LT0
0.50 0.50 0.50 C 1.000 UL
LTa
0.50 0.50 0.50 C 4016 280 M
0 4591 V
stroke
LT0
0.50 0.50 0.50 C 4016 280 M
0 63 V
0 4528 R
0 -63 V
0 -4668 R
( 36.0624) Cshow
1.000 UL
LT0
0.50 0.50 0.50 C 1.000 UL
LTa
0.50 0.50 0.50 C 4076 280 M
0 4591 V
stroke
LT0
0.50 0.50 0.50 C 4076 280 M
0 63 V
0 4528 R
0 -63 V
0 -4668 R
( 36.7695) Cshow
1.000 UL
LT0
0.50 0.50 0.50 C 1.000 UL
LTa
0.50 0.50 0.50 C 4136 280 M
0 4591 V
stroke
LT0
0.50 0.50 0.50 C 4136 280 M
0 63 V
0 4528 R
0 -63 V
0 -4668 R
( 37.4766) Cshow
1.000 UL
LT0
0.50 0.50 0.50 C 1.000 UL
LTa
0.50 0.50 0.50 C 4196 280 M
0 4591 V
stroke
LT0
0.50 0.50 0.50 C 4196 280 M
0 63 V
0 4528 R
0 -63 V
0 -4668 R
( 38.1837) Cshow
1.000 UL
LT0
0.50 0.50 0.50 C 1.000 UL
LTa
0.50 0.50 0.50 C 4256 280 M
0 4591 V
stroke
LT0
0.50 0.50 0.50 C 4256 280 M
0 63 V
0 4528 R
0 -63 V
0 -4668 R
( 38.8908) Cshow
1.000 UL
LT0
0.50 0.50 0.50 C 1.000 UL
LTa
0.50 0.50 0.50 C 4315 280 M
0 4591 V
stroke
LT0
0.50 0.50 0.50 C 4315 280 M
0 63 V
0 4528 R
0 -63 V
0 -4668 R
( 39.5979) Cshow
1.000 UL
LT0
0.50 0.50 0.50 C 1.000 UL
LTa
0.50 0.50 0.50 C 4375 280 M
0 4591 V
stroke
LT0
0.50 0.50 0.50 C 4375 280 M
0 63 V
0 4528 R
0 -63 V
0 -4668 R
( 40.305) Cshow
1.000 UL
LT0
0.50 0.50 0.50 C 1.000 UL
LTa
0.50 0.50 0.50 C 4435 280 M
0 4591 V
stroke
LT0
0.50 0.50 0.50 C 4435 280 M
0 63 V
0 4528 R
0 -63 V
0 -4668 R
( 41.0121) Cshow
1.000 UL
LT0
0.50 0.50 0.50 C 1.000 UL
LTa
0.50 0.50 0.50 C 4495 280 M
0 4591 V
stroke
LT0
0.50 0.50 0.50 C 4495 280 M
0 63 V
0 4528 R
0 -63 V
0 -4668 R
( 41.7193) Cshow
1.000 UL
LT0
0.50 0.50 0.50 C 1.000 UL
LTa
0.50 0.50 0.50 C 4555 280 M
0 4591 V
stroke
LT0
0.50 0.50 0.50 C 4555 280 M
0 63 V
0 4528 R
0 -63 V
0 -4668 R
( 42.4264) Cshow
1.000 UL
LT0
0.50 0.50 0.50 C 1.000 UL
LTa
0.50 0.50 0.50 C 4614 280 M
0 4591 V
stroke
LT0
0.50 0.50 0.50 C 4614 280 M
0 63 V
0 4528 R
0 -63 V
0 -4668 R
( 43.1335) Cshow
1.000 UL
LT0
0.50 0.50 0.50 C 1.000 UL
LTa
0.50 0.50 0.50 C 4674 280 M
0 4591 V
stroke
LT0
0.50 0.50 0.50 C 4674 280 M
0 63 V
0 4528 R
0 -63 V
0 -4668 R
( 43.8406) Cshow
1.000 UL
LT0
0.50 0.50 0.50 C 1.000 UL
LTa
0.50 0.50 0.50 C 4734 280 M
0 4591 V
stroke
LT0
0.50 0.50 0.50 C 4734 280 M
0 63 V
0 4528 R
0 -63 V
0 -4668 R
( 44.5477) Cshow
1.000 UL
LT0
0.50 0.50 0.50 C 1.000 UL
LTa
0.50 0.50 0.50 C 4794 280 M
0 4591 V
stroke
LT0
0.50 0.50 0.50 C 4794 280 M
0 63 V
0 4528 R
0 -63 V
0 -4668 R
( 45.2548) Cshow
1.000 UL
LT0
0.50 0.50 0.50 C 1.000 UL
LTa
0.50 0.50 0.50 C 4854 280 M
0 4591 V
stroke
LT0
0.50 0.50 0.50 C 4854 280 M
0 63 V
0 4528 R
0 -63 V
0 -4668 R
( 45.9619) Cshow
1.000 UL
LT0
0.50 0.50 0.50 C 1.000 UL
LTa
0.50 0.50 0.50 C 4913 280 M
0 4591 V
stroke
LT0
0.50 0.50 0.50 C 4913 280 M
0 63 V
0 4528 R
0 -63 V
0 -4668 R
( 46.669) Cshow
1.000 UL
LT0
0.50 0.50 0.50 C 1.000 UL
LTa
0.50 0.50 0.50 C 4973 280 M
0 4591 V
stroke
LT0
0.50 0.50 0.50 C 4973 280 M
0 63 V
0 4528 R
0 -63 V
0 -4668 R
( 47.3761) Cshow
1.000 UL
LT0
0.50 0.50 0.50 C 1.000 UL
LTa
0.50 0.50 0.50 C 5033 280 M
0 4591 V
stroke
LT0
0.50 0.50 0.50 C 5033 280 M
0 63 V
0 4528 R
0 -63 V
0 -4668 R
( 48.0832) Cshow
1.000 UL
LT0
0.50 0.50 0.50 C 1.000 UL
LTa
0.50 0.50 0.50 C 5093 280 M
0 4591 V
stroke
LT0
0.50 0.50 0.50 C 5093 280 M
0 63 V
0 4528 R
0 -63 V
0 -4668 R
( 48.7903) Cshow
1.000 UL
LT0
0.50 0.50 0.50 C 1.000 UL
LTa
0.50 0.50 0.50 C 5153 280 M
0 4591 V
stroke
LT0
0.50 0.50 0.50 C 5153 280 M
0 63 V
0 4528 R
0 -63 V
0 -4668 R
( 49.4974) Cshow
1.000 UL
LT0
0.50 0.50 0.50 C 1.000 UL
LTa
0.50 0.50 0.50 C 5213 280 M
0 4591 V
stroke
LT0
0.50 0.50 0.50 C 5213 280 M
0 63 V
0 4528 R
0 -63 V
0 -4668 R
( 50.2045) Cshow
1.000 UL
LT0
0.50 0.50 0.50 C 1.000 UL
LTa
0.50 0.50 0.50 C 5272 280 M
0 4591 V
stroke
LT0
0.50 0.50 0.50 C 5272 280 M
0 63 V
0 4528 R
0 -63 V
0 -4668 R
( 50.9116) Cshow
1.000 UL
LT0
0.50 0.50 0.50 C 1.000 UL
LTa
0.50 0.50 0.50 C 5332 280 M
0 4591 V
stroke
LT0
0.50 0.50 0.50 C 5332 280 M
0 63 V
0 4528 R
0 -63 V
0 -4668 R
( 51.6187) Cshow
1.000 UL
LT0
0.50 0.50 0.50 C 1.000 UL
LTa
0.50 0.50 0.50 C 5392 280 M
0 4591 V
stroke
LT0
0.50 0.50 0.50 C 5392 280 M
0 63 V
0 4528 R
0 -63 V
0 -4668 R
( 52.3258) Cshow
1.000 UL
LT0
0.50 0.50 0.50 C 1.000 UL
LTa
0.50 0.50 0.50 C 5452 280 M
0 4591 V
stroke
LT0
0.50 0.50 0.50 C 5452 280 M
0 63 V
0 4528 R
0 -63 V
0 -4668 R
( 53.033) Cshow
1.000 UL
LT0
0.50 0.50 0.50 C 1.000 UL
LTa
0.50 0.50 0.50 C 5512 280 M
0 4591 V
stroke
LT0
0.50 0.50 0.50 C 5512 280 M
0 63 V
0 4528 R
0 -63 V
0 -4668 R
( 53.7401) Cshow
1.000 UL
LT0
0.50 0.50 0.50 C 1.000 UL
LTa
0.50 0.50 0.50 C 5571 280 M
0 4591 V
stroke
LT0
0.50 0.50 0.50 C 5571 280 M
0 63 V
0 4528 R
0 -63 V
0 -4668 R
( 54.4472) Cshow
1.000 UL
LT0
0.50 0.50 0.50 C 1.000 UL
LTa
0.50 0.50 0.50 C 5631 280 M
0 4591 V
stroke
LT0
0.50 0.50 0.50 C 5631 280 M
0 63 V
0 4528 R
0 -63 V
0 -4668 R
( 55.1543) Cshow
1.000 UL
LT0
0.50 0.50 0.50 C 1.000 UL
LTa
0.50 0.50 0.50 C 5691 280 M
0 4591 V
stroke
LT0
0.50 0.50 0.50 C 5691 280 M
0 63 V
0 4528 R
0 -63 V
0 -4668 R
( 55.8614) Cshow
1.000 UL
LT0
0.50 0.50 0.50 C 1.000 UL
LTa
0.50 0.50 0.50 C 5751 280 M
0 4591 V
stroke
LT0
0.50 0.50 0.50 C 5751 280 M
0 63 V
0 4528 R
0 -63 V
0 -4668 R
( 56.5685) Cshow
1.000 UL
LT0
0.50 0.50 0.50 C 1.000 UL
LTa
0.50 0.50 0.50 C 5811 280 M
0 4591 V
stroke
LT0
0.50 0.50 0.50 C 5811 280 M
0 63 V
0 4528 R
0 -63 V
0 -4668 R
( 57.2756) Cshow
1.000 UL
LT0
0.50 0.50 0.50 C 1.000 UL
LTa
0.50 0.50 0.50 C 5870 280 M
0 4591 V
stroke
LT0
0.50 0.50 0.50 C 5870 280 M
0 63 V
0 4528 R
0 -63 V
0 -4668 R
( 57.9827) Cshow
1.000 UL
LT0
0.50 0.50 0.50 C 1.000 UL
LTa
0.50 0.50 0.50 C 5930 280 M
0 4591 V
stroke
LT0
0.50 0.50 0.50 C 5930 280 M
0 63 V
0 4528 R
0 -63 V
0 -4668 R
( 58.6898) Cshow
1.000 UL
LT0
0.50 0.50 0.50 C 1.000 UL
LTa
0.50 0.50 0.50 C 5990 280 M
0 4591 V
stroke
LT0
0.50 0.50 0.50 C 5990 280 M
0 63 V
0 4528 R
0 -63 V
0 -4668 R
( 59.3969) Cshow
1.000 UL
LT0
0.50 0.50 0.50 C 1.000 UL
LTa
0.50 0.50 0.50 C 6050 280 M
0 4591 V
stroke
LT0
0.50 0.50 0.50 C 6050 280 M
0 63 V
0 4528 R
0 -63 V
0 -4668 R
( 60.104) Cshow
1.000 UL
LT0
0.50 0.50 0.50 C 1.000 UL
LTa
0.50 0.50 0.50 C 6110 280 M
0 4591 V
stroke
LT0
0.50 0.50 0.50 C 6110 280 M
0 63 V
0 4528 R
0 -63 V
0 -4668 R
( 60.8111) Cshow
1.000 UL
LT0
0.50 0.50 0.50 C 1.000 UL
LTa
0.50 0.50 0.50 C 6169 280 M
0 4591 V
stroke
LT0
0.50 0.50 0.50 C 6169 280 M
0 63 V
0 4528 R
0 -63 V
0 -4668 R
( 61.5182) Cshow
1.000 UL
LT0
0.50 0.50 0.50 C 1.000 UL
LTa
0.50 0.50 0.50 C 6229 280 M
0 4591 V
stroke
LT0
0.50 0.50 0.50 C 6229 280 M
0 63 V
0 4528 R
0 -63 V
0 -4668 R
( 62.2253) Cshow
1.000 UL
LT0
0.50 0.50 0.50 C 1.000 UL
LTa
0.50 0.50 0.50 C 6289 280 M
0 4591 V
stroke
LT0
0.50 0.50 0.50 C 6289 280 M
0 63 V
0 4528 R
0 -63 V
0 -4668 R
( 62.9324) Cshow
1.000 UL
LT0
0.50 0.50 0.50 C 1.000 UL
LTa
0.50 0.50 0.50 C 6349 280 M
0 4591 V
stroke
LT0
0.50 0.50 0.50 C 6349 280 M
0 63 V
0 4528 R
0 -63 V
0 -4668 R
( 63.6395) Cshow
1.000 UL
LT0
0.50 0.50 0.50 C 1.000 UL
LTa
0.50 0.50 0.50 C 6409 280 M
0 4591 V
stroke
LT0
0.50 0.50 0.50 C 6409 280 M
0 63 V
0 4528 R
0 -63 V
0 -4668 R
( 64.3466) Cshow
1.000 UL
LT0
0.50 0.50 0.50 C 1.000 UL
LTa
0.50 0.50 0.50 C 6469 280 M
0 4591 V
stroke
LT0
0.50 0.50 0.50 C 6469 280 M
0 63 V
0 4528 R
0 -63 V
0 -4668 R
( 65.0538) Cshow
1.000 UL
LT0
0.50 0.50 0.50 C 1.000 UL
LTa
0.50 0.50 0.50 C 6528 280 M
0 4591 V
stroke
LT0
0.50 0.50 0.50 C 6528 280 M
0 63 V
0 4528 R
0 -63 V
0 -4668 R
( 65.7609) Cshow
1.000 UL
LT0
0.50 0.50 0.50 C 1.000 UL
LTa
0.50 0.50 0.50 C 6588 280 M
0 4591 V
stroke
LT0
0.50 0.50 0.50 C 6588 280 M
0 63 V
0 4528 R
0 -63 V
0 -4668 R
( 66.468) Cshow
1.000 UL
LT0
0.50 0.50 0.50 C 1.000 UL
LTa
0.50 0.50 0.50 C 6648 280 M
0 4591 V
stroke
LT0
0.50 0.50 0.50 C 6648 280 M
0 63 V
0 4528 R
0 -63 V
0 -4668 R
( 67.1751) Cshow
1.000 UL
LT0
0.50 0.50 0.50 C 1.000 UL
LTa
0.50 0.50 0.50 C 6708 280 M
0 4591 V
stroke
LT0
0.50 0.50 0.50 C 6708 280 M
0 63 V
0 4528 R
0 -63 V
0 -4668 R
( 67.8822) Cshow
1.000 UL
LT0
0.50 0.50 0.50 C 1.000 UL
LTa
0.50 0.50 0.50 C 6768 280 M
0 4591 V
stroke
LT0
0.50 0.50 0.50 C 6768 280 M
0 63 V
0 4528 R
0 -63 V
0 -4668 R
( 68.5893) Cshow
1.000 UL
LT0
0.50 0.50 0.50 C 1.000 UL
LTa
0.50 0.50 0.50 C 6827 280 M
0 4591 V
stroke
LT0
0.50 0.50 0.50 C 6827 280 M
0 63 V
0 4528 R
0 -63 V
0 -4668 R
( 69.2964) Cshow
1.000 UL
LT0
0.50 0.50 0.50 C 1.000 UL
LTa
0.50 0.50 0.50 C 6887 280 M
0 4591 V
stroke
LT0
0.50 0.50 0.50 C 6887 280 M
0 63 V
0 4528 R
0 -63 V
0 -4668 R
( 70.0035) Cshow
1.000 UL
LT0
0.50 0.50 0.50 C 1.000 UL
LTa
0.50 0.50 0.50 C 6947 280 M
0 4591 V
stroke
LT0
0.50 0.50 0.50 C 6947 280 M
0 63 V
0 4528 R
0 -63 V
0 -4668 R
( 70.7106) Cshow
1.000 UL
LT0
0.50 0.50 0.50 C 1.000 UL
LT0
0.50 0.50 0.50 C 966 4871 M
966 280 L
5981 0 V
0 4591 R
-5981 0 R
1.000 UP
stroke
LT0
0.50 0.50 0.50 C % Begin plot #1
1.500 UP
2.000 UL
LT0
0.00 0.00 1.00 C /Helvetica findfont 140 scalefont setfont
/vshift -46 def
966 877 M
60 0 V
60 0 V
0 46 R
59 0 V
0 183 R
60 0 V
60 0 V
0 138 R
60 0 V
60 0 V
0 46 R
59 0 V
0 46 R
60 0 V
60 0 V
0 46 R
60 0 V
0 46 R
60 0 V
0 46 R
60 0 V
0 91 R
59 0 V
0 46 R
60 0 V
0 322 R
60 0 V
60 0 V
0 229 R
60 0 V
0 92 R
59 0 V
0 46 R
60 0 V
60 0 V
60 0 V
60 0 V
59 0 V
60 0 V
60 0 V
60 0 V
60 0 V
59 0 V
60 0 V
60 0 V
60 0 V
60 0 V
60 0 V
0 46 R
59 0 V
0 138 R
60 0 V
60 0 V
60 0 V
60 0 V
59 0 V
0 46 R
60 0 V
0 91 R
60 0 V
0 46 R
60 0 V
0 46 R
60 0 V
59 0 V
0 184 R
60 0 V
60 0 V
0 46 R
60 0 V
0 46 R
60 0 V
0 46 R
60 0 V
0 91 R
59 0 V
0 414 R
60 0 V
0 46 R
60 0 V
60 0 V
60 0 V
59 0 V
60 0 V
60 0 V
60 0 V
0 45 R
60 0 V
59 0 V
60 0 V
0 46 R
60 0 V
60 0 V
60 0 V
0 46 R
59 0 V
0 46 R
60 0 V
60 0 V
60 0 V
0 92 R
60 0 V
0 46 R
60 0 V
stroke 5213 3907 M
0 92 R
59 0 V
60 0 V
60 0 V
0 46 R
60 0 V
60 0 V
59 0 V
0 46 R
60 0 V
60 0 V
60 0 V
0 45 R
60 0 V
0 184 R
59 0 V
60 0 V
60 0 V
60 0 V
60 0 V
59 0 V
60 0 V
60 0 V
60 0 V
0 230 R
60 0 V
60 0 V
59 0 V
0 183 R
60 0 V
239 92 R
60 0 V
-299 0 R
60 0 V
60 0 V
60 0 V
59 0 V
1086 877 M
0 46 V
59 0 R
0 46 V
0 46 V
0 45 V
0 46 V
120 0 R
0 46 V
0 46 V
0 46 V
120 0 R
0 46 V
59 0 R
0 46 V
120 0 R
0 46 V
60 0 R
0 46 V
60 0 R
0 46 V
60 0 R
0 46 V
0 45 V
59 0 R
0 46 V
60 0 R
0 46 V
0 46 V
0 46 V
0 46 V
0 46 V
0 46 V
0 46 V
120 0 R
0 46 V
0 46 V
0 45 V
0 46 V
0 46 V
60 0 R
0 46 V
0 46 V
59 0 R
0 46 V
898 0 R
0 46 V
59 0 R
0 46 V
0 46 V
0 46 V
299 0 R
0 46 V
60 0 R
0 46 V
0 45 V
60 0 R
0 46 V
60 0 R
0 46 V
119 0 R
0 46 V
0 46 V
0 46 V
0 46 V
120 0 R
0 46 V
stroke 3777 2943 M
60 0 R
0 46 V
60 0 R
0 46 V
60 0 R
0 46 V
0 45 V
59 0 R
0 46 V
0 46 V
0 46 V
0 46 V
0 46 V
0 46 V
0 46 V
0 46 V
0 46 V
60 0 R
0 46 V
419 0 R
0 45 V
179 0 R
0 46 V
180 0 R
0 46 V
59 0 R
0 46 V
180 0 R
0 46 V
0 46 V
60 0 R
0 46 V
60 0 R
0 46 V
0 46 V
179 0 R
0 46 V
179 0 R
0 46 V
180 0 R
0 45 V
60 0 R
0 46 V
0 46 V
0 46 V
0 46 V
538 0 R
0 46 V
0 46 V
0 46 V
0 46 V
0 46 V
179 0 R
0 46 V
0 45 V
0 46 V
0 46 V
60 0 R
0 46 V
0 46 V
966 280 M
0 46 V
0 46 V
0 46 V
0 46 V
0 46 V
0 45 V
0 46 V
0 46 V
0 46 V
0 46 V
0 46 V
0 46 V
0 46 V
966 877 CircleF
1026 877 CircleF
1026 877 CircleF
1086 877 CircleF
1086 923 CircleF
1145 923 CircleF
1145 1106 CircleF
1205 1106 CircleF
1205 1106 CircleF
1265 1106 CircleF
1265 1244 CircleF
1325 1244 CircleF
1325 1244 CircleF
1385 1244 CircleF
1385 1290 CircleF
1444 1290 CircleF
1444 1336 CircleF
1504 1336 CircleF
1504 1336 CircleF
1564 1336 CircleF
1564 1382 CircleF
1624 1382 CircleF
1624 1428 CircleF
1684 1428 CircleF
1684 1474 CircleF
1744 1474 CircleF
1744 1565 CircleF
1803 1565 CircleF
1803 1611 CircleF
1863 1611 CircleF
1863 1933 CircleF
1923 1933 CircleF
1923 1933 CircleF
1983 1933 CircleF
1983 2162 CircleF
2043 2162 CircleF
2043 2254 CircleF
2102 2254 CircleF
2102 2300 CircleF
2162 2300 CircleF
2162 2300 CircleF
2222 2300 CircleF
2222 2300 CircleF
2282 2300 CircleF
2282 2300 CircleF
2342 2300 CircleF
2342 2300 CircleF
2401 2300 CircleF
2401 2300 CircleF
2461 2300 CircleF
2461 2300 CircleF
2521 2300 CircleF
2521 2300 CircleF
2581 2300 CircleF
2581 2300 CircleF
2641 2300 CircleF
2641 2300 CircleF
2700 2300 CircleF
2700 2300 CircleF
2760 2300 CircleF
2760 2300 CircleF
2820 2300 CircleF
2820 2300 CircleF
2880 2300 CircleF
2880 2300 CircleF
2940 2300 CircleF
2940 2300 CircleF
3000 2300 CircleF
3000 2346 CircleF
3059 2346 CircleF
3059 2484 CircleF
3119 2484 CircleF
3119 2484 CircleF
3179 2484 CircleF
3179 2484 CircleF
3239 2484 CircleF
3239 2484 CircleF
3299 2484 CircleF
3299 2484 CircleF
3358 2484 CircleF
3358 2530 CircleF
3418 2530 CircleF
3418 2621 CircleF
3478 2621 CircleF
3478 2667 CircleF
3538 2667 CircleF
3538 2713 CircleF
3598 2713 CircleF
3598 2713 CircleF
3657 2713 CircleF
3657 2897 CircleF
3717 2897 CircleF
3717 2897 CircleF
3777 2897 CircleF
3777 2943 CircleF
3837 2943 CircleF
3837 2989 CircleF
3897 2989 CircleF
3897 3035 CircleF
3957 3035 CircleF
3957 3126 CircleF
4016 3126 CircleF
4016 3540 CircleF
4076 3540 CircleF
4076 3586 CircleF
4136 3586 CircleF
4136 3586 CircleF
4196 3586 CircleF
4196 3586 CircleF
4256 3586 CircleF
4256 3586 CircleF
4315 3586 CircleF
4315 3586 CircleF
4375 3586 CircleF
4375 3586 CircleF
4435 3586 CircleF
4435 3586 CircleF
4495 3586 CircleF
4495 3631 CircleF
4555 3631 CircleF
4555 3631 CircleF
4614 3631 CircleF
4614 3631 CircleF
4674 3631 CircleF
4674 3677 CircleF
4734 3677 CircleF
4734 3677 CircleF
4794 3677 CircleF
4794 3677 CircleF
4854 3677 CircleF
4854 3723 CircleF
4913 3723 CircleF
4913 3769 CircleF
4973 3769 CircleF
4973 3769 CircleF
5033 3769 CircleF
5033 3769 CircleF
5093 3769 CircleF
5093 3861 CircleF
5153 3861 CircleF
5153 3907 CircleF
5213 3907 CircleF
5213 3999 CircleF
5272 3999 CircleF
5272 3999 CircleF
5332 3999 CircleF
5332 3999 CircleF
5392 3999 CircleF
5392 4045 CircleF
5452 4045 CircleF
5452 4045 CircleF
5512 4045 CircleF
5512 4045 CircleF
5571 4045 CircleF
5571 4091 CircleF
5631 4091 CircleF
5631 4091 CircleF
5691 4091 CircleF
5691 4091 CircleF
5751 4091 CircleF
5751 4136 CircleF
5811 4136 CircleF
5811 4320 CircleF
5870 4320 CircleF
5870 4320 CircleF
5930 4320 CircleF
5930 4320 CircleF
5990 4320 CircleF
5990 4320 CircleF
6050 4320 CircleF
6050 4320 CircleF
6110 4320 CircleF
6110 4320 CircleF
6169 4320 CircleF
6169 4320 CircleF
6229 4320 CircleF
6229 4320 CircleF
6289 4320 CircleF
6289 4320 CircleF
6349 4320 CircleF
6349 4550 CircleF
6409 4550 CircleF
6409 4550 CircleF
6469 4550 CircleF
6469 4550 CircleF
6528 4550 CircleF
6528 4733 CircleF
6588 4733 CircleF
6827 4825 CircleF
6887 4825 CircleF
6588 4825 CircleF
6648 4825 CircleF
6648 4825 CircleF
6708 4825 CircleF
6708 4825 CircleF
6768 4825 CircleF
6768 4825 CircleF
6827 4825 CircleF
1086 877 CircleF
1086 923 CircleF
1145 923 CircleF
1145 969 CircleF
1145 969 CircleF
1145 1015 CircleF
1145 1015 CircleF
1145 1060 CircleF
1145 1060 CircleF
1145 1106 CircleF
1265 1106 CircleF
1265 1152 CircleF
1265 1152 CircleF
1265 1198 CircleF
1265 1198 CircleF
1265 1244 CircleF
1385 1244 CircleF
1385 1290 CircleF
1444 1290 CircleF
1444 1336 CircleF
1564 1336 CircleF
1564 1382 CircleF
1624 1382 CircleF
1624 1428 CircleF
1684 1428 CircleF
1684 1474 CircleF
1744 1474 CircleF
1744 1520 CircleF
1744 1520 CircleF
1744 1565 CircleF
1803 1565 CircleF
1803 1611 CircleF
1863 1611 CircleF
1863 1657 CircleF
1863 1657 CircleF
1863 1703 CircleF
1863 1703 CircleF
1863 1749 CircleF
1863 1749 CircleF
1863 1795 CircleF
1863 1795 CircleF
1863 1841 CircleF
1863 1841 CircleF
1863 1887 CircleF
1863 1887 CircleF
1863 1933 CircleF
1983 1933 CircleF
1983 1979 CircleF
1983 1979 CircleF
1983 2025 CircleF
1983 2025 CircleF
1983 2070 CircleF
1983 2070 CircleF
1983 2116 CircleF
1983 2116 CircleF
1983 2162 CircleF
2043 2162 CircleF
2043 2208 CircleF
2043 2208 CircleF
2043 2254 CircleF
2102 2254 CircleF
2102 2300 CircleF
3000 2300 CircleF
3000 2346 CircleF
3059 2346 CircleF
3059 2392 CircleF
3059 2392 CircleF
3059 2438 CircleF
3059 2438 CircleF
3059 2484 CircleF
3358 2484 CircleF
3358 2530 CircleF
3418 2530 CircleF
3418 2576 CircleF
3418 2576 CircleF
3418 2621 CircleF
3478 2621 CircleF
3478 2667 CircleF
3538 2667 CircleF
3538 2713 CircleF
3657 2713 CircleF
3657 2759 CircleF
3657 2759 CircleF
3657 2805 CircleF
3657 2805 CircleF
3657 2851 CircleF
3657 2851 CircleF
3657 2897 CircleF
3777 2897 CircleF
3777 2943 CircleF
3837 2943 CircleF
3837 2989 CircleF
3897 2989 CircleF
3897 3035 CircleF
3957 3035 CircleF
3957 3081 CircleF
3957 3081 CircleF
3957 3126 CircleF
4016 3126 CircleF
4016 3172 CircleF
4016 3172 CircleF
4016 3218 CircleF
4016 3218 CircleF
4016 3264 CircleF
4016 3264 CircleF
4016 3310 CircleF
4016 3310 CircleF
4016 3356 CircleF
4016 3356 CircleF
4016 3402 CircleF
4016 3402 CircleF
4016 3448 CircleF
4016 3448 CircleF
4016 3494 CircleF
4016 3494 CircleF
4016 3540 CircleF
4076 3540 CircleF
4076 3586 CircleF
4495 3586 CircleF
4495 3631 CircleF
4674 3631 CircleF
4674 3677 CircleF
4854 3677 CircleF
4854 3723 CircleF
4913 3723 CircleF
4913 3769 CircleF
5093 3769 CircleF
5093 3815 CircleF
5093 3815 CircleF
5093 3861 CircleF
5153 3861 CircleF
5153 3907 CircleF
5213 3907 CircleF
5213 3953 CircleF
5213 3953 CircleF
5213 3999 CircleF
5392 3999 CircleF
5392 4045 CircleF
5571 4045 CircleF
5571 4091 CircleF
5751 4091 CircleF
5751 4136 CircleF
5811 4136 CircleF
5811 4182 CircleF
5811 4182 CircleF
5811 4228 CircleF
5811 4228 CircleF
5811 4274 CircleF
5811 4274 CircleF
5811 4320 CircleF
6349 4320 CircleF
6349 4366 CircleF
6349 4366 CircleF
6349 4412 CircleF
6349 4412 CircleF
6349 4458 CircleF
6349 4458 CircleF
6349 4504 CircleF
6349 4504 CircleF
6349 4550 CircleF
6528 4550 CircleF
6528 4596 CircleF
6528 4596 CircleF
6528 4641 CircleF
6528 4641 CircleF
6528 4687 CircleF
6528 4687 CircleF
6528 4733 CircleF
6588 4733 CircleF
6588 4779 CircleF
6588 4779 CircleF
6588 4825 CircleF
966 280 CircleF
966 326 CircleF
966 326 CircleF
966 372 CircleF
966 372 CircleF
966 418 CircleF
966 418 CircleF
966 464 CircleF
966 464 CircleF
966 510 CircleF
966 510 CircleF
966 555 CircleF
966 555 CircleF
966 601 CircleF
966 601 CircleF
966 647 CircleF
966 647 CircleF
966 693 CircleF
966 693 CircleF
966 739 CircleF
966 739 CircleF
966 785 CircleF
966 785 CircleF
966 831 CircleF
966 831 CircleF
966 877 CircleF
% End plot #1
% Begin plot #2
1.500 UP
2.000 UL
LT0
1.00 0.55 0.00 C /Helvetica findfont 140 scalefont setfont
6787 3023 M
60 46 V
2670 308 M
60 46 V
4738 4499 M
60 46 V
5465 3135 M
60 46 V
1355 1769 M
59 46 V
4332 505 R
60 46 V
3386 4604 M
60 45 V
5370 2074 M
60 46 V
338 -120 R
59 45 V
3837 3483 M
60 45 V
-86 -66 R
59 46 V
1964 3708 M
60 46 V
2956 2286 M
60 46 V
1060 890 M
59 46 V
2476 723 M
60 46 V
5742 3203 M
60 46 V
2752 3944 M
60 46 V
5364 3187 M
59 46 V
4161 799 M
59 46 V
5852 4717 M
60 46 V
1387 1745 M
60 45 V
-55 -135 R
60 46 V
6789 681 M
60 46 V
6544 3316 M
60 46 V
6373 571 M
59 46 V
124 -65 R
60 46 V
6129 2721 M
60 46 V
5672 1888 M
60 46 V
2754 2506 M
60 46 V
1786 2530 M
60 46 V
3387 592 R
60 46 V
5942 562 M
60 46 V
3552 350 M
59 46 V
1235 4242 M
60 46 V
3517 2076 M
60 46 V
77 -778 R
60 46 V
3206 3114 M
60 46 V
2799 4359 M
60 46 V
1614 3419 M
60 46 V
4046 337 R
59 45 V
6674 803 M
59 46 V
1556 3888 M
59 46 V
1805 -23 R
60 46 V
3222 3619 M
59 46 V
-541 769 R
60 45 V
6153 2910 M
60 46 V
3856 3596 M
59 46 V
5082 968 M
59 46 V
6359 4542 M
59 46 V
2581 1498 M
60 46 V
-20 -444 R
59 46 V
456 1493 R
60 46 V
-1192 95 R
60 46 V
stroke 2064 2826 M
3144 1381 M
60 45 V
1489 4629 M
60 46 V
1289 26 R
60 46 V
4259 1237 M
60 46 V
240 1891 R
60 46 V
2156 3703 M
60 46 V
1260 548 R
60 46 V
4874 3724 M
60 46 V
4140 2469 M
60 45 V
3304 1947 M
60 46 V
4462 3588 M
60 46 V
2821 642 M
59 46 V
6233 4610 M
60 46 V
5643 726 M
60 45 V
3163 2787 M
60 46 V
1039 439 R
59 46 V
1279 2316 M
59 46 V
3531 1475 M
60 45 V
2724 810 M
60 46 V
-962 742 R
60 46 V
1149 3859 M
60 46 V
2081 602 R
60 46 V
4929 980 M
60 46 V
3455 855 M
60 46 V
988 4677 M
60 46 V
1204 2076 M
60 46 V
5284 4198 M
60 46 V
1941 4472 M
60 46 V
2480 883 M
60 45 V
6350 411 M
60 46 V
1947 4186 M
60 45 V
3596 1896 M
60 46 V
1416 3254 M
60 46 V
3494 2651 M
60 46 V
1852 638 M
60 46 V
3698 29 R
59 46 V
4662 701 M
60 46 V
1635 724 R
60 46 V
2237 3009 M
60 46 V
6290 2728 M
60 46 V
1488 3567 M
60 46 V
3410 2602 M
60 46 V
4553 4562 M
60 46 V
2571 2080 M
60 46 V
5805 4268 M
60 46 V
6453 2693 M
60 46 V
5586 547 M
60 46 V
3852 4339 M
60 46 V
2809 1033 M
60 46 V
3967 797 M
60 46 V
1282 4295 M
59 45 V
3632 238 R
60 46 V
stroke 5033 4624 M
2513 3800 M
59 46 V
2310 2324 M
60 46 V
6125 1049 M
60 46 V
2492 2277 M
60 46 V
6717 4282 M
60 46 V
3519 1628 M
60 46 V
2238 3585 M
60 46 V
4726 3439 M
60 46 V
2937 577 M
60 45 V
6072 4418 M
59 46 V
1478 4644 M
59 46 V
3788 2511 M
60 46 V
6321 4412 M
60 46 V
1943 3779 M
60 46 V
414 -80 R
60 46 V
3331 2322 M
60 46 V
5004 2030 M
59 46 V
344 2506 R
60 46 V
1011 4218 M
60 46 V
3472 3332 M
60 46 V
1527 3939 M
60 46 V
2147 1711 M
60 46 V
1559 3858 M
60 46 V
3863 1272 M
60 46 V
6263 714 M
60 46 V
3380 305 M
60 45 V
612 1946 R
59 45 V
1629 306 M
59 46 V
3252 2438 M
60 46 V
6298 4308 M
60 45 V
2922 1336 M
59 46 V
1350 699 M
59 46 V
6569 3408 M
60 46 V
3934 2417 M
60 46 V
1025 1911 M
60 46 V
1860 877 R
60 46 V
5811 4318 M
60 46 V
1125 1360 M
60 46 V
2379 3974 M
60 45 V
3608 3766 M
60 46 V
3302 2753 M
60 46 V
2084 2255 M
59 45 V
-1008 10 R
59 46 V
5218 379 R
60 46 V
4769 1167 M
60 46 V
4656 4444 M
60 46 V
6196 1307 M
60 45 V
5515 1247 M
60 46 V
1873 3791 M
59 46 V
1007 3339 M
60 46 V
3495 2767 M
60 46 V
1899 2321 M
60 46 V
stroke 1959 2367 M
4762 427 M
60 46 V
3383 2242 M
59 46 V
6345 1008 M
60 46 V
2429 3862 M
60 46 V
1826 2689 M
60 45 V
2864 345 M
60 46 V
4342 3068 M
60 46 V
1705 437 R
60 46 V
5379 2124 M
60 46 V
2167 2292 M
60 45 V
868 1242 R
60 46 V
3693 2230 M
60 46 V
6755 989 M
60 46 V
6363 2514 M
60 46 V
5397 2209 M
59 46 V
5284 885 M
60 46 V
2560 486 M
60 46 V
6414 3273 M
60 46 V
1557 1995 M
60 46 V
2217 94 R
59 46 V
6475 4346 M
60 46 V
5213 4206 M
59 45 V
1088 974 M
60 46 V
746 66 R
60 46 V
5765 3951 M
60 46 V
4154 3578 M
60 46 V
963 183 R
59 46 V
1336 717 M
60 45 V
5662 2843 M
60 46 V
1263 1185 M
60 46 V
1773 688 R
60 46 V
1080 1600 M
60 46 V
3689 822 M
60 46 V
45 606 R
60 45 V
3374 481 M
60 46 V
2099 1553 M
60 46 V
1013 2112 M
60 46 V
3987 3410 M
60 46 V
6319 1247 M
59 45 V
5288 2755 M
60 46 V
3278 543 M
59 46 V
3020 2449 M
59 46 V
661 -365 R
60 46 V
3469 364 M
60 46 V
3023 635 R
60 46 V
5394 1278 M
60 46 V
3630 958 M
60 46 V
2933 2121 M
60 46 V
3992 365 M
60 46 V
5075 2327 M
60 46 V
3223 2704 M
59 46 V
1326 509 R
60 46 V
stroke 4668 3305 M
4173 419 M
60 46 V
905 2150 R
60 46 V
2041 4297 M
60 46 V
2580 2211 M
60 46 V
6615 4485 M
59 46 V
2001 292 M
60 46 V
3877 85 R
60 46 V
1106 973 M
60 46 V
4344 2216 M
60 46 V
3252 789 M
60 46 V
5099 3523 M
59 46 V
-28 -270 R
60 46 V
1278 3003 M
60 46 V
4169 619 M
60 46 V
6764 542 M
59 46 V
3860 540 M
60 46 V
5509 3224 M
60 46 V
395 145 R
60 46 V
4607 4192 M
59 46 V
6171 1990 M
60 46 V
5729 3229 M
60 46 V
1864 2774 M
60 46 V
6629 4413 M
59 46 V
3924 3022 M
60 46 V
2660 529 M
60 46 V
5791 4489 M
60 45 V
3800 3789 M
60 46 V
2678 892 R
59 46 V
6279 3959 M
60 46 V
1518 1004 M
60 46 V
6536 4275 M
60 46 V
4315 2114 M
60 46 V
2280 1230 M
60 46 V
466 1570 R
60 45 V
6473 2305 M
60 46 V
-1 -828 R
60 46 V
6453 675 M
60 45 V
-980 689 R
59 46 V
5359 3064 M
60 45 V
1763 2421 M
60 46 V
2828 1 R
60 46 V
4410 3817 M
60 46 V
5060 1898 M
60 46 V
4022 1425 M
60 46 V
5390 4011 M
60 46 V
4510 365 M
60 46 V
673 1276 R
60 46 V
327 1113 R
60 46 V
6562 1725 M
60 46 V
4516 834 M
60 46 V
486 2941 R
59 46 V
5004 3228 M
60 46 V
stroke 5064 3274 M
1875 2931 M
59 46 V
2879 1559 M
60 46 V
601 420 R
60 46 V
6544 3310 M
60 46 V
2276 346 M
59 46 V
3897 2217 M
60 46 V
4133 758 M
60 46 V
2072 3986 M
60 46 V
4340 3319 M
60 46 V
1160 4156 M
60 46 V
4947 452 R
60 46 V
6158 397 M
60 46 V
4927 1039 M
60 45 V
-226 -46 R
60 46 V
986 2327 R
60 46 V
4731 1218 M
60 46 V
897 2194 R
60 46 V
5625 2586 M
60 46 V
1681 1465 M
60 46 V
6508 4543 M
60 46 V
1631 335 M
60 46 V
3839 526 M
60 46 V
1563 1361 M
60 46 V
1211 1066 M
60 46 V
4627 660 R
60 46 V
5749 3853 M
59 46 V
-722 456 R
60 46 V
1780 441 M
59 46 V
6596 1699 M
60 46 V
3924 3088 M
60 46 V
3725 4234 M
60 46 V
249 -685 R
60 46 V
5864 932 M
60 46 V
645 2211 R
60 46 V
4946 1212 M
59 46 V
2 1765 R
60 46 V
4066 2030 M
60 46 V
3869 3551 M
60 46 V
1369 2445 M
60 46 V
1162 448 R
60 46 V
517 1005 R
60 46 V
1124 481 R
59 46 V
5447 1449 M
60 45 V
2755 2206 M
60 45 V
1322 3376 M
60 46 V
6686 1264 M
60 46 V
1735 1151 M
60 45 V
4259 822 R
59 46 V
1884 3425 M
60 46 V
4335 2714 M
60 46 V
4301 1274 M
60 46 V
270 2287 R
59 46 V
stroke 4690 3653 M
1043 1592 M
60 46 V
3759 378 M
60 46 V
-642 880 R
60 46 V
1217 3648 M
60 46 V
4348 2448 M
60 46 V
3495 441 M
60 46 V
4568 3630 M
60 46 V
95 598 R
60 46 V
1165 1753 M
59 46 V
3368 62 R
60 46 V
4029 361 M
60 46 V
5497 2971 M
60 46 V
6676 672 M
60 46 V
74 3555 R
60 46 V
3561 3236 M
59 46 V
1496 871 M
60 46 V
4567 4310 M
60 46 V
762 -500 R
60 46 V
6401 2621 M
60 45 V
2466 568 M
59 46 V
1475 2291 M
60 46 V
3090 5 R
59 46 V
6214 4196 M
60 45 V
5153 3874 M
59 46 V
1216 3025 M
59 46 V
6493 2309 M
60 46 V
116 551 R
60 45 V
5658 3465 M
60 46 V
1626 4446 M
60 46 V
4799 3663 M
59 46 V
6421 1473 M
60 46 V
4170 3725 M
60 46 V
1240 3511 M
60 46 V
4388 1435 M
60 46 V
3639 2704 M
60 46 V
5477 4112 M
60 46 V
2909 1100 M
60 45 V
3977 2977 M
60 46 V
5863 2589 M
59 46 V
6357 653 M
60 46 V
4783 2820 M
59 46 V
3068 4330 M
59 46 V
2177 2919 M
60 46 V
13 -682 R
60 45 V
4885 3541 M
60 46 V
6732 1150 M
60 46 V
5982 2763 M
60 46 V
4926 3917 M
59 46 V
-937 -94 R
60 46 V
6314 1252 M
60 46 V
-797 915 R
60 46 V
4608 356 M
60 46 V
stroke 4668 402 M
1438 2683 M
60 46 V
5399 4167 M
60 46 V
6381 643 M
60 46 V
3097 1362 M
60 46 V
4662 1300 M
60 46 V
4210 4551 M
60 46 V
-2673 63 R
60 46 V
3773 3684 M
59 46 V
1516 3710 M
60 46 V
2010 339 R
60 46 V
4645 3127 M
60 46 V
4573 4459 M
60 46 V
5596 1486 M
60 46 V
-884 926 R
59 46 V
4337 471 M
59 46 V
1924 1894 M
60 46 V
4747 3646 M
60 46 V
4225 1493 M
60 46 V
-422 926 R
59 46 V
2052 2871 M
60 46 V
932 -129 R
59 46 V
2616 1009 M
60 46 V
4067 3565 M
59 46 V
6154 1815 M
60 46 V
152 528 R
60 46 V
-753 99 R
60 46 V
3797 3661 M
60 46 V
124 -211 R
60 46 V
5194 1153 M
60 46 V
3758 676 M
60 46 V
2963 2284 M
60 46 V
4356 1288 M
60 46 V
1661 2505 M
60 46 V
5212 3983 M
60 46 V
4106 1831 M
60 46 V
1170 3656 M
60 46 V
710 -215 R
60 46 V
1137 1072 M
60 46 V
-16 3346 R
60 46 V
5022 2581 M
60 46 V
5353 757 M
59 46 V
-3 -417 R
60 46 V
3992 919 M
60 46 V
5135 2152 M
60 46 V
1916 3415 M
60 46 V
3205 295 M
60 46 V
5896 813 M
60 46 V
718 2531 R
60 46 V
2366 3854 M
60 46 V
513 -224 R
60 46 V
2982 214 R
60 46 V
2859 3946 M
59 45 V
stroke 2918 3991 M
5330 319 M
60 46 V
66 3872 R
60 46 V
5980 2793 M
60 46 V
4882 1921 M
60 46 V
3473 1642 M
60 46 V
-534 346 R
59 46 V
5443 4006 M
60 46 V
3871 3861 M
59 46 V
-554 383 R
60 46 V
1702 339 M
60 46 V
1610 1654 M
59 46 V
742 -505 R
60 46 V
2032 3957 M
60 46 V
5337 2150 M
60 46 V
3596 1594 M
60 46 V
6590 4251 M
60 46 V
1147 3766 M
60 46 V
5149 1910 M
60 46 V
-651 31 R
60 46 V
2374 925 M
59 46 V
1958 684 R
60 46 V
192 2516 R
60 46 V
4060 3000 M
59 46 V
5686 2426 M
60 46 V
-10 1650 R
60 46 V
1907 438 M
60 46 V
3716 3193 M
60 45 V
1312 1202 M
60 46 V
6379 3212 M
60 46 V
1677 1297 M
60 46 V
3010 955 R
60 46 V
-8 2260 R
60 46 V
6655 1287 M
60 46 V
6787 3023 CircleF
6847 3069 CircleF
2670 308 CircleF
2730 354 CircleF
4738 4499 CircleF
4798 4545 CircleF
5465 3135 CircleF
5525 3181 CircleF
1355 1769 CircleF
1414 1815 CircleF
5746 2320 CircleF
5806 2366 CircleF
3386 4604 CircleF
3446 4649 CircleF
5370 2074 CircleF
5430 2120 CircleF
5768 2000 CircleF
5827 2045 CircleF
3837 3483 CircleF
3897 3528 CircleF
3811 3462 CircleF
3870 3508 CircleF
1964 3708 CircleF
2024 3754 CircleF
2956 2286 CircleF
3016 2332 CircleF
1060 890 CircleF
1119 936 CircleF
2476 723 CircleF
2536 769 CircleF
5742 3203 CircleF
5802 3249 CircleF
2752 3944 CircleF
2812 3990 CircleF
5364 3187 CircleF
5423 3233 CircleF
4161 799 CircleF
4220 845 CircleF
5852 4717 CircleF
5912 4763 CircleF
1387 1745 CircleF
1447 1790 CircleF
1392 1655 CircleF
1452 1701 CircleF
6789 681 CircleF
6849 727 CircleF
6544 3316 CircleF
6604 3362 CircleF
6373 571 CircleF
6432 617 CircleF
6556 552 CircleF
6616 598 CircleF
6129 2721 CircleF
6189 2767 CircleF
5672 1888 CircleF
5732 1934 CircleF
2754 2506 CircleF
2814 2552 CircleF
1786 2530 CircleF
1846 2576 CircleF
5233 3168 CircleF
5293 3214 CircleF
5942 562 CircleF
6002 608 CircleF
3552 350 CircleF
3611 396 CircleF
1235 4242 CircleF
1295 4288 CircleF
3517 2076 CircleF
3577 2122 CircleF
3654 1344 CircleF
3714 1390 CircleF
3206 3114 CircleF
3266 3160 CircleF
2799 4359 CircleF
2859 4405 CircleF
1614 3419 CircleF
1674 3465 CircleF
5720 3802 CircleF
5779 3847 CircleF
6674 803 CircleF
6733 849 CircleF
1556 3888 CircleF
1615 3934 CircleF
3420 3911 CircleF
3480 3957 CircleF
3222 3619 CircleF
3281 3665 CircleF
2740 4434 CircleF
2800 4479 CircleF
6153 2910 CircleF
6213 2956 CircleF
3856 3596 CircleF
3915 3642 CircleF
5082 968 CircleF
5141 1014 CircleF
6359 4542 CircleF
6418 4588 CircleF
2581 1498 CircleF
2641 1544 CircleF
2621 1100 CircleF
2680 1146 CircleF
3136 2639 CircleF
3196 2685 CircleF
2004 2780 CircleF
2064 2826 CircleF
3144 1381 CircleF
3204 1426 CircleF
1489 4629 CircleF
1549 4675 CircleF
2838 4701 CircleF
2898 4747 CircleF
4259 1237 CircleF
4319 1283 CircleF
4559 3174 CircleF
4619 3220 CircleF
2156 3703 CircleF
2216 3749 CircleF
3476 4297 CircleF
3536 4343 CircleF
4874 3724 CircleF
4934 3770 CircleF
4140 2469 CircleF
4200 2514 CircleF
3304 1947 CircleF
3364 1993 CircleF
4462 3588 CircleF
4522 3634 CircleF
2821 642 CircleF
2880 688 CircleF
6233 4610 CircleF
6293 4656 CircleF
5643 726 CircleF
5703 771 CircleF
3163 2787 CircleF
3223 2833 CircleF
4262 3272 CircleF
4321 3318 CircleF
1279 2316 CircleF
1338 2362 CircleF
3531 1475 CircleF
3591 1520 CircleF
2724 810 CircleF
2784 856 CircleF
1822 1598 CircleF
1882 1644 CircleF
1149 3859 CircleF
1209 3905 CircleF
3290 4507 CircleF
3350 4553 CircleF
4929 980 CircleF
4989 1026 CircleF
3455 855 CircleF
3515 901 CircleF
988 4677 CircleF
1048 4723 CircleF
1204 2076 CircleF
1264 2122 CircleF
5284 4198 CircleF
5344 4244 CircleF
1941 4472 CircleF
2001 4518 CircleF
2480 883 CircleF
2540 928 CircleF
6350 411 CircleF
6410 457 CircleF
1947 4186 CircleF
2007 4231 CircleF
3596 1896 CircleF
3656 1942 CircleF
1416 3254 CircleF
1476 3300 CircleF
3494 2651 CircleF
3554 2697 CircleF
1852 638 CircleF
1912 684 CircleF
5610 713 CircleF
5669 759 CircleF
4662 701 CircleF
4722 747 CircleF
6357 1471 CircleF
6417 1517 CircleF
2237 3009 CircleF
2297 3055 CircleF
6290 2728 CircleF
6350 2774 CircleF
1488 3567 CircleF
1548 3613 CircleF
3410 2602 CircleF
3470 2648 CircleF
4553 4562 CircleF
4613 4608 CircleF
2571 2080 CircleF
2631 2126 CircleF
5805 4268 CircleF
5865 4314 CircleF
6453 2693 CircleF
6513 2739 CircleF
5586 547 CircleF
5646 593 CircleF
3852 4339 CircleF
3912 4385 CircleF
2809 1033 CircleF
2869 1079 CircleF
3967 797 CircleF
4027 843 CircleF
1282 4295 CircleF
1341 4340 CircleF
4973 4578 CircleF
5033 4624 CircleF
2513 3800 CircleF
2572 3846 CircleF
2310 2324 CircleF
2370 2370 CircleF
6125 1049 CircleF
6185 1095 CircleF
2492 2277 CircleF
2552 2323 CircleF
6717 4282 CircleF
6777 4328 CircleF
3519 1628 CircleF
3579 1674 CircleF
2238 3585 CircleF
2298 3631 CircleF
4726 3439 CircleF
4786 3485 CircleF
2937 577 CircleF
2997 622 CircleF
6072 4418 CircleF
6131 4464 CircleF
1478 4644 CircleF
1537 4690 CircleF
3788 2511 CircleF
3848 2557 CircleF
6321 4412 CircleF
6381 4458 CircleF
1943 3779 CircleF
2003 3825 CircleF
2417 3745 CircleF
2477 3791 CircleF
3331 2322 CircleF
3391 2368 CircleF
5004 2030 CircleF
5063 2076 CircleF
5407 4582 CircleF
5467 4628 CircleF
1011 4218 CircleF
1071 4264 CircleF
3472 3332 CircleF
3532 3378 CircleF
1527 3939 CircleF
1587 3985 CircleF
2147 1711 CircleF
2207 1757 CircleF
1559 3858 CircleF
1619 3904 CircleF
3863 1272 CircleF
3923 1318 CircleF
6263 714 CircleF
6323 760 CircleF
3380 305 CircleF
3440 350 CircleF
4052 2296 CircleF
4111 2341 CircleF
1629 306 CircleF
1688 352 CircleF
3252 2438 CircleF
3312 2484 CircleF
6298 4308 CircleF
6358 4353 CircleF
2922 1336 CircleF
2981 1382 CircleF
1350 699 CircleF
1409 745 CircleF
6569 3408 CircleF
6629 3454 CircleF
3934 2417 CircleF
3994 2463 CircleF
1025 1911 CircleF
1085 1957 CircleF
2945 2834 CircleF
3005 2880 CircleF
5811 4318 CircleF
5871 4364 CircleF
1125 1360 CircleF
1185 1406 CircleF
2379 3974 CircleF
2439 4019 CircleF
3608 3766 CircleF
3668 3812 CircleF
3302 2753 CircleF
3362 2799 CircleF
2084 2255 CircleF
2143 2300 CircleF
1135 2310 CircleF
1194 2356 CircleF
6412 2735 CircleF
6472 2781 CircleF
4769 1167 CircleF
4829 1213 CircleF
4656 4444 CircleF
4716 4490 CircleF
6196 1307 CircleF
6256 1352 CircleF
5515 1247 CircleF
5575 1293 CircleF
1873 3791 CircleF
1932 3837 CircleF
1007 3339 CircleF
1067 3385 CircleF
3495 2767 CircleF
3555 2813 CircleF
1899 2321 CircleF
1959 2367 CircleF
4762 427 CircleF
4822 473 CircleF
3383 2242 CircleF
3442 2288 CircleF
6345 1008 CircleF
6405 1054 CircleF
2429 3862 CircleF
2489 3908 CircleF
1826 2689 CircleF
1886 2734 CircleF
2864 345 CircleF
2924 391 CircleF
4342 3068 CircleF
4402 3114 CircleF
6107 3551 CircleF
6167 3597 CircleF
5379 2124 CircleF
5439 2170 CircleF
2167 2292 CircleF
2227 2337 CircleF
3095 3579 CircleF
3155 3625 CircleF
3693 2230 CircleF
3753 2276 CircleF
6755 989 CircleF
6815 1035 CircleF
6363 2514 CircleF
6423 2560 CircleF
5397 2209 CircleF
5456 2255 CircleF
5284 885 CircleF
5344 931 CircleF
2560 486 CircleF
2620 532 CircleF
6414 3273 CircleF
6474 3319 CircleF
1557 1995 CircleF
1617 2041 CircleF
3834 2135 CircleF
3893 2181 CircleF
6475 4346 CircleF
6535 4392 CircleF
5213 4206 CircleF
5272 4251 CircleF
1088 974 CircleF
1148 1020 CircleF
1894 1086 CircleF
1954 1132 CircleF
5765 3951 CircleF
5825 3997 CircleF
4154 3578 CircleF
4214 3624 CircleF
5177 3807 CircleF
5236 3853 CircleF
1336 717 CircleF
1396 762 CircleF
5662 2843 CircleF
5722 2889 CircleF
1263 1185 CircleF
1323 1231 CircleF
3096 1919 CircleF
3156 1965 CircleF
1080 1600 CircleF
1140 1646 CircleF
3689 822 CircleF
3749 868 CircleF
3794 1474 CircleF
3854 1519 CircleF
3374 481 CircleF
3434 527 CircleF
2099 1553 CircleF
2159 1599 CircleF
1013 2112 CircleF
1073 2158 CircleF
3987 3410 CircleF
4047 3456 CircleF
6319 1247 CircleF
6378 1292 CircleF
5288 2755 CircleF
5348 2801 CircleF
3278 543 CircleF
3337 589 CircleF
3020 2449 CircleF
3079 2495 CircleF
3740 2130 CircleF
3800 2176 CircleF
3469 364 CircleF
3529 410 CircleF
6552 1045 CircleF
6612 1091 CircleF
5394 1278 CircleF
5454 1324 CircleF
3630 958 CircleF
3690 1004 CircleF
2933 2121 CircleF
2993 2167 CircleF
3992 365 CircleF
4052 411 CircleF
5075 2327 CircleF
5135 2373 CircleF
3223 2704 CircleF
3282 2750 CircleF
4608 3259 CircleF
4668 3305 CircleF
4173 419 CircleF
4233 465 CircleF
5138 2615 CircleF
5198 2661 CircleF
2041 4297 CircleF
2101 4343 CircleF
2580 2211 CircleF
2640 2257 CircleF
6615 4485 CircleF
6674 4531 CircleF
2001 292 CircleF
2061 338 CircleF
5938 423 CircleF
5998 469 CircleF
1106 973 CircleF
1166 1019 CircleF
4344 2216 CircleF
4404 2262 CircleF
3252 789 CircleF
3312 835 CircleF
5099 3523 CircleF
5158 3569 CircleF
5130 3299 CircleF
5190 3345 CircleF
1278 3003 CircleF
1338 3049 CircleF
4169 619 CircleF
4229 665 CircleF
6764 542 CircleF
6823 588 CircleF
3860 540 CircleF
3920 586 CircleF
5509 3224 CircleF
5569 3270 CircleF
5964 3415 CircleF
6024 3461 CircleF
4607 4192 CircleF
4666 4238 CircleF
6171 1990 CircleF
6231 2036 CircleF
5729 3229 CircleF
5789 3275 CircleF
1864 2774 CircleF
1924 2820 CircleF
6629 4413 CircleF
6688 4459 CircleF
3924 3022 CircleF
3984 3068 CircleF
2660 529 CircleF
2720 575 CircleF
5791 4489 CircleF
5851 4534 CircleF
3800 3789 CircleF
3860 3835 CircleF
6538 4727 CircleF
6597 4773 CircleF
6279 3959 CircleF
6339 4005 CircleF
1518 1004 CircleF
1578 1050 CircleF
6536 4275 CircleF
6596 4321 CircleF
4315 2114 CircleF
4375 2160 CircleF
2280 1230 CircleF
2340 1276 CircleF
2806 2846 CircleF
2866 2891 CircleF
6473 2305 CircleF
6533 2351 CircleF
6532 1523 CircleF
6592 1569 CircleF
6453 675 CircleF
6513 720 CircleF
5533 1409 CircleF
5592 1455 CircleF
5359 3064 CircleF
5419 3109 CircleF
1763 2421 CircleF
1823 2467 CircleF
4651 2468 CircleF
4711 2514 CircleF
4410 3817 CircleF
4470 3863 CircleF
5060 1898 CircleF
5120 1944 CircleF
4022 1425 CircleF
4082 1471 CircleF
5390 4011 CircleF
5450 4057 CircleF
4510 365 CircleF
4570 411 CircleF
5243 1687 CircleF
5303 1733 CircleF
5630 2846 CircleF
5690 2892 CircleF
6562 1725 CircleF
6622 1771 CircleF
4516 834 CircleF
4576 880 CircleF
5062 3821 CircleF
5121 3867 CircleF
5004 3228 CircleF
5064 3274 CircleF
1875 2931 CircleF
1934 2977 CircleF
2879 1559 CircleF
2939 1605 CircleF
3540 2025 CircleF
3600 2071 CircleF
6544 3310 CircleF
6604 3356 CircleF
2276 346 CircleF
2335 392 CircleF
3897 2217 CircleF
3957 2263 CircleF
4133 758 CircleF
4193 804 CircleF
2072 3986 CircleF
2132 4032 CircleF
4340 3319 CircleF
4400 3365 CircleF
1160 4156 CircleF
1220 4202 CircleF
6167 4654 CircleF
6227 4700 CircleF
6158 397 CircleF
6218 443 CircleF
4927 1039 CircleF
4987 1084 CircleF
4761 1038 CircleF
4821 1084 CircleF
5807 3411 CircleF
5867 3457 CircleF
4731 1218 CircleF
4791 1264 CircleF
5688 3458 CircleF
5748 3504 CircleF
5625 2586 CircleF
5685 2632 CircleF
1681 1465 CircleF
1741 1511 CircleF
6508 4543 CircleF
6568 4589 CircleF
1631 335 CircleF
1691 381 CircleF
3839 526 CircleF
3899 572 CircleF
1563 1361 CircleF
1623 1407 CircleF
1211 1066 CircleF
1271 1112 CircleF
5898 1772 CircleF
5958 1818 CircleF
5749 3853 CircleF
5808 3899 CircleF
5086 4355 CircleF
5146 4401 CircleF
1780 441 CircleF
1839 487 CircleF
6596 1699 CircleF
6656 1745 CircleF
3924 3088 CircleF
3984 3134 CircleF
3725 4234 CircleF
3785 4280 CircleF
4034 3595 CircleF
4094 3641 CircleF
5864 932 CircleF
5924 978 CircleF
6569 3189 CircleF
6629 3235 CircleF
4946 1212 CircleF
5005 1258 CircleF
5007 3023 CircleF
5067 3069 CircleF
4066 2030 CircleF
4126 2076 CircleF
3869 3551 CircleF
3929 3597 CircleF
1369 2445 CircleF
1429 2491 CircleF
2591 2939 CircleF
2651 2985 CircleF
3168 3990 CircleF
3228 4036 CircleF
4352 4517 CircleF
4411 4563 CircleF
5447 1449 CircleF
5507 1494 CircleF
2755 2206 CircleF
2815 2251 CircleF
1322 3376 CircleF
1382 3422 CircleF
6686 1264 CircleF
6746 1310 CircleF
1735 1151 CircleF
1795 1196 CircleF
6054 2018 CircleF
6113 2064 CircleF
1884 3425 CircleF
1944 3471 CircleF
4335 2714 CircleF
4395 2760 CircleF
4301 1274 CircleF
4361 1320 CircleF
4631 3607 CircleF
4690 3653 CircleF
1043 1592 CircleF
1103 1638 CircleF
3759 378 CircleF
3819 424 CircleF
3177 1304 CircleF
3237 1350 CircleF
1217 3648 CircleF
1277 3694 CircleF
4348 2448 CircleF
4408 2494 CircleF
3495 441 CircleF
3555 487 CircleF
4568 3630 CircleF
4628 3676 CircleF
4723 4274 CircleF
4783 4320 CircleF
1165 1753 CircleF
1224 1799 CircleF
4592 1861 CircleF
4652 1907 CircleF
4029 361 CircleF
4089 407 CircleF
5497 2971 CircleF
5557 3017 CircleF
6676 672 CircleF
6736 718 CircleF
6810 4273 CircleF
6870 4319 CircleF
3561 3236 CircleF
3620 3282 CircleF
1496 871 CircleF
1556 917 CircleF
4567 4310 CircleF
4627 4356 CircleF
5389 3856 CircleF
5449 3902 CircleF
6401 2621 CircleF
6461 2666 CircleF
2466 568 CircleF
2525 614 CircleF
1475 2291 CircleF
1535 2337 CircleF
4625 2342 CircleF
4684 2388 CircleF
6214 4196 CircleF
6274 4241 CircleF
5153 3874 CircleF
5212 3920 CircleF
1216 3025 CircleF
1275 3071 CircleF
6493 2309 CircleF
6553 2355 CircleF
6669 2906 CircleF
6729 2951 CircleF
5658 3465 CircleF
5718 3511 CircleF
1626 4446 CircleF
1686 4492 CircleF
4799 3663 CircleF
4858 3709 CircleF
6421 1473 CircleF
6481 1519 CircleF
4170 3725 CircleF
4230 3771 CircleF
1240 3511 CircleF
1300 3557 CircleF
4388 1435 CircleF
4448 1481 CircleF
3639 2704 CircleF
3699 2750 CircleF
5477 4112 CircleF
5537 4158 CircleF
2909 1100 CircleF
2969 1145 CircleF
3977 2977 CircleF
4037 3023 CircleF
5863 2589 CircleF
5922 2635 CircleF
6357 653 CircleF
6417 699 CircleF
4783 2820 CircleF
4842 2866 CircleF
3068 4330 CircleF
3127 4376 CircleF
2177 2919 CircleF
2237 2965 CircleF
2250 2283 CircleF
2310 2328 CircleF
4885 3541 CircleF
4945 3587 CircleF
6732 1150 CircleF
6792 1196 CircleF
5982 2763 CircleF
6042 2809 CircleF
4926 3917 CircleF
4985 3963 CircleF
4048 3869 CircleF
4108 3915 CircleF
6314 1252 CircleF
6374 1298 CircleF
5577 2213 CircleF
5637 2259 CircleF
4608 356 CircleF
4668 402 CircleF
1438 2683 CircleF
1498 2729 CircleF
5399 4167 CircleF
5459 4213 CircleF
6381 643 CircleF
6441 689 CircleF
3097 1362 CircleF
3157 1408 CircleF
4662 1300 CircleF
4722 1346 CircleF
4210 4551 CircleF
4270 4597 CircleF
1597 4660 CircleF
1657 4706 CircleF
3773 3684 CircleF
3832 3730 CircleF
1516 3710 CircleF
1576 3756 CircleF
3586 4095 CircleF
3646 4141 CircleF
4645 3127 CircleF
4705 3173 CircleF
4573 4459 CircleF
4633 4505 CircleF
5596 1486 CircleF
5656 1532 CircleF
4772 2458 CircleF
4831 2504 CircleF
4337 471 CircleF
4396 517 CircleF
1924 1894 CircleF
1984 1940 CircleF
4747 3646 CircleF
4807 3692 CircleF
4225 1493 CircleF
4285 1539 CircleF
3863 2465 CircleF
3922 2511 CircleF
2052 2871 CircleF
2112 2917 CircleF
3044 2788 CircleF
3103 2834 CircleF
2616 1009 CircleF
2676 1055 CircleF
4067 3565 CircleF
4126 3611 CircleF
6154 1815 CircleF
6214 1861 CircleF
6366 2389 CircleF
6426 2435 CircleF
5673 2534 CircleF
5733 2580 CircleF
3797 3661 CircleF
3857 3707 CircleF
3981 3496 CircleF
4041 3542 CircleF
5194 1153 CircleF
5254 1199 CircleF
3758 676 CircleF
3818 722 CircleF
2963 2284 CircleF
3023 2330 CircleF
4356 1288 CircleF
4416 1334 CircleF
1661 2505 CircleF
1721 2551 CircleF
5212 3983 CircleF
5272 4029 CircleF
4106 1831 CircleF
4166 1877 CircleF
1170 3656 CircleF
1230 3702 CircleF
1940 3487 CircleF
2000 3533 CircleF
1137 1072 CircleF
1197 1118 CircleF
1181 4464 CircleF
1241 4510 CircleF
5022 2581 CircleF
5082 2627 CircleF
5353 757 CircleF
5412 803 CircleF
5409 386 CircleF
5469 432 CircleF
3992 919 CircleF
4052 965 CircleF
5135 2152 CircleF
5195 2198 CircleF
1916 3415 CircleF
1976 3461 CircleF
3205 295 CircleF
3265 341 CircleF
5896 813 CircleF
5956 859 CircleF
6674 3390 CircleF
6734 3436 CircleF
2366 3854 CircleF
2426 3900 CircleF
2939 3676 CircleF
2999 3722 CircleF
5981 3936 CircleF
6041 3982 CircleF
2859 3946 CircleF
2918 3991 CircleF
5330 319 CircleF
5390 365 CircleF
5456 4237 CircleF
5516 4283 CircleF
5980 2793 CircleF
6040 2839 CircleF
4882 1921 CircleF
4942 1967 CircleF
3473 1642 CircleF
3533 1688 CircleF
2999 2034 CircleF
3058 2080 CircleF
5443 4006 CircleF
5503 4052 CircleF
3871 3861 CircleF
3930 3907 CircleF
3376 4290 CircleF
3436 4336 CircleF
1702 339 CircleF
1762 385 CircleF
1610 1654 CircleF
1669 1700 CircleF
2411 1195 CircleF
2471 1241 CircleF
2032 3957 CircleF
2092 4003 CircleF
5337 2150 CircleF
5397 2196 CircleF
3596 1594 CircleF
3656 1640 CircleF
6590 4251 CircleF
6650 4297 CircleF
1147 3766 CircleF
1207 3812 CircleF
5149 1910 CircleF
5209 1956 CircleF
4558 1987 CircleF
4618 2033 CircleF
2374 925 CircleF
2433 971 CircleF
4391 1655 CircleF
4451 1701 CircleF
4643 4217 CircleF
4703 4263 CircleF
4060 3000 CircleF
4119 3046 CircleF
5686 2426 CircleF
5746 2472 CircleF
5736 4122 CircleF
5796 4168 CircleF
1907 438 CircleF
1967 484 CircleF
3716 3193 CircleF
3776 3238 CircleF
1312 1202 CircleF
1372 1248 CircleF
6379 3212 CircleF
6439 3258 CircleF
1677 1297 CircleF
1737 1343 CircleF
4747 2298 CircleF
4807 2344 CircleF
4799 4604 CircleF
4859 4650 CircleF
6655 1287 CircleF
6715 1333 CircleF
% End plot #2
1.000 UP
1.000 UL
LT0
0.50 0.50 0.50 C stroke
grestore
end
showpage
%%Trailer
%%DocumentFonts: Helvetica
%%Pages: 1
