%!PS-Adobe-2.0
%%Title: out.ps
%%Creator: gnuplot 4.6 patchlevel 6
%%CreationDate: Thu May 28 17:44:52 2015
%%DocumentFonts: (atend)
%%BoundingBox: 50 50 554 770
%%Orientation: Landscape
%%Pages: (atend)
%%EndComments
%%BeginProlog
/gnudict 256 dict def
gnudict begin
%
% The following true/false flags may be edited by hand if desired.
% The unit line width and grayscale image gamma correction may also be changed.
%
/Color false def
/Blacktext false def
/Solid false def
/Dashlength 1 def
/Landscape true def
/Level1 false def
/Rounded false def
/ClipToBoundingBox false def
/SuppressPDFMark false def
/TransparentPatterns false def
/gnulinewidth 5.000 def
/userlinewidth gnulinewidth def
/Gamma 1.0 def
/BackgroundColor {-1.000 -1.000 -1.000} def
%
/vshift -46 def
/dl1 {
  10.0 Dashlength mul mul
  Rounded { currentlinewidth 0.75 mul sub dup 0 le { pop 0.01 } if } if
} def
/dl2 {
  10.0 Dashlength mul mul
  Rounded { currentlinewidth 0.75 mul add } if
} def
/hpt_ 31.5 def
/vpt_ 31.5 def
/hpt hpt_ def
/vpt vpt_ def
/doclip {
  ClipToBoundingBox {
    newpath 50 50 moveto 554 50 lineto 554 770 lineto 50 770 lineto closepath
    clip
  } if
} def
%
% Gnuplot Prolog Version 4.6 (September 2012)
%
%/SuppressPDFMark true def
%
/M {moveto} bind def
/L {lineto} bind def
/R {rmoveto} bind def
/V {rlineto} bind def
/N {newpath moveto} bind def
/Z {closepath} bind def
/C {setrgbcolor} bind def
/f {rlineto fill} bind def
/g {setgray} bind def
/Gshow {show} def   % May be redefined later in the file to support UTF-8
/vpt2 vpt 2 mul def
/hpt2 hpt 2 mul def
/Lshow {currentpoint stroke M 0 vshift R 
	Blacktext {gsave 0 setgray show grestore} {show} ifelse} def
/Rshow {currentpoint stroke M dup stringwidth pop neg vshift R
	Blacktext {gsave 0 setgray show grestore} {show} ifelse} def
/Cshow {currentpoint stroke M dup stringwidth pop -2 div vshift R 
	Blacktext {gsave 0 setgray show grestore} {show} ifelse} def
/UP {dup vpt_ mul /vpt exch def hpt_ mul /hpt exch def
  /hpt2 hpt 2 mul def /vpt2 vpt 2 mul def} def
/DL {Color {setrgbcolor Solid {pop []} if 0 setdash}
 {pop pop pop 0 setgray Solid {pop []} if 0 setdash} ifelse} def
/BL {stroke userlinewidth 2 mul setlinewidth
	Rounded {1 setlinejoin 1 setlinecap} if} def
/AL {stroke userlinewidth 2 div setlinewidth
	Rounded {1 setlinejoin 1 setlinecap} if} def
/UL {dup gnulinewidth mul /userlinewidth exch def
	dup 1 lt {pop 1} if 10 mul /udl exch def} def
/PL {stroke userlinewidth setlinewidth
	Rounded {1 setlinejoin 1 setlinecap} if} def
3.8 setmiterlimit
% Default Line colors
/LCw {1 1 1} def
/LCb {0 0 0} def
/LCa {0 0 0} def
/LC0 {1 0 0} def
/LC1 {0 1 0} def
/LC2 {0 0 1} def
/LC3 {1 0 1} def
/LC4 {0 1 1} def
/LC5 {1 1 0} def
/LC6 {0 0 0} def
/LC7 {1 0.3 0} def
/LC8 {0.5 0.5 0.5} def
% Default Line Types
/LTw {PL [] 1 setgray} def
/LTb {BL [] LCb DL} def
/LTa {AL [1 udl mul 2 udl mul] 0 setdash LCa setrgbcolor} def
/LT0 {PL [] LC0 DL} def
/LT1 {PL [4 dl1 2 dl2] LC1 DL} def
/LT2 {PL [2 dl1 3 dl2] LC2 DL} def
/LT3 {PL [1 dl1 1.5 dl2] LC3 DL} def
/LT4 {PL [6 dl1 2 dl2 1 dl1 2 dl2] LC4 DL} def
/LT5 {PL [3 dl1 3 dl2 1 dl1 3 dl2] LC5 DL} def
/LT6 {PL [2 dl1 2 dl2 2 dl1 6 dl2] LC6 DL} def
/LT7 {PL [1 dl1 2 dl2 6 dl1 2 dl2 1 dl1 2 dl2] LC7 DL} def
/LT8 {PL [2 dl1 2 dl2 2 dl1 2 dl2 2 dl1 2 dl2 2 dl1 4 dl2] LC8 DL} def
/Pnt {stroke [] 0 setdash gsave 1 setlinecap M 0 0 V stroke grestore} def
/Dia {stroke [] 0 setdash 2 copy vpt add M
  hpt neg vpt neg V hpt vpt neg V
  hpt vpt V hpt neg vpt V closepath stroke
  Pnt} def
/Pls {stroke [] 0 setdash vpt sub M 0 vpt2 V
  currentpoint stroke M
  hpt neg vpt neg R hpt2 0 V stroke
 } def
/Box {stroke [] 0 setdash 2 copy exch hpt sub exch vpt add M
  0 vpt2 neg V hpt2 0 V 0 vpt2 V
  hpt2 neg 0 V closepath stroke
  Pnt} def
/Crs {stroke [] 0 setdash exch hpt sub exch vpt add M
  hpt2 vpt2 neg V currentpoint stroke M
  hpt2 neg 0 R hpt2 vpt2 V stroke} def
/TriU {stroke [] 0 setdash 2 copy vpt 1.12 mul add M
  hpt neg vpt -1.62 mul V
  hpt 2 mul 0 V
  hpt neg vpt 1.62 mul V closepath stroke
  Pnt} def
/Star {2 copy Pls Crs} def
/BoxF {stroke [] 0 setdash exch hpt sub exch vpt add M
  0 vpt2 neg V hpt2 0 V 0 vpt2 V
  hpt2 neg 0 V closepath fill} def
/TriUF {stroke [] 0 setdash vpt 1.12 mul add M
  hpt neg vpt -1.62 mul V
  hpt 2 mul 0 V
  hpt neg vpt 1.62 mul V closepath fill} def
/TriD {stroke [] 0 setdash 2 copy vpt 1.12 mul sub M
  hpt neg vpt 1.62 mul V
  hpt 2 mul 0 V
  hpt neg vpt -1.62 mul V closepath stroke
  Pnt} def
/TriDF {stroke [] 0 setdash vpt 1.12 mul sub M
  hpt neg vpt 1.62 mul V
  hpt 2 mul 0 V
  hpt neg vpt -1.62 mul V closepath fill} def
/DiaF {stroke [] 0 setdash vpt add M
  hpt neg vpt neg V hpt vpt neg V
  hpt vpt V hpt neg vpt V closepath fill} def
/Pent {stroke [] 0 setdash 2 copy gsave
  translate 0 hpt M 4 {72 rotate 0 hpt L} repeat
  closepath stroke grestore Pnt} def
/PentF {stroke [] 0 setdash gsave
  translate 0 hpt M 4 {72 rotate 0 hpt L} repeat
  closepath fill grestore} def
/Circle {stroke [] 0 setdash 2 copy
  hpt 0 360 arc stroke Pnt} def
/CircleF {stroke [] 0 setdash hpt 0 360 arc fill} def
/C0 {BL [] 0 setdash 2 copy moveto vpt 90 450 arc} bind def
/C1 {BL [] 0 setdash 2 copy moveto
	2 copy vpt 0 90 arc closepath fill
	vpt 0 360 arc closepath} bind def
/C2 {BL [] 0 setdash 2 copy moveto
	2 copy vpt 90 180 arc closepath fill
	vpt 0 360 arc closepath} bind def
/C3 {BL [] 0 setdash 2 copy moveto
	2 copy vpt 0 180 arc closepath fill
	vpt 0 360 arc closepath} bind def
/C4 {BL [] 0 setdash 2 copy moveto
	2 copy vpt 180 270 arc closepath fill
	vpt 0 360 arc closepath} bind def
/C5 {BL [] 0 setdash 2 copy moveto
	2 copy vpt 0 90 arc
	2 copy moveto
	2 copy vpt 180 270 arc closepath fill
	vpt 0 360 arc} bind def
/C6 {BL [] 0 setdash 2 copy moveto
	2 copy vpt 90 270 arc closepath fill
	vpt 0 360 arc closepath} bind def
/C7 {BL [] 0 setdash 2 copy moveto
	2 copy vpt 0 270 arc closepath fill
	vpt 0 360 arc closepath} bind def
/C8 {BL [] 0 setdash 2 copy moveto
	2 copy vpt 270 360 arc closepath fill
	vpt 0 360 arc closepath} bind def
/C9 {BL [] 0 setdash 2 copy moveto
	2 copy vpt 270 450 arc closepath fill
	vpt 0 360 arc closepath} bind def
/C10 {BL [] 0 setdash 2 copy 2 copy moveto vpt 270 360 arc closepath fill
	2 copy moveto
	2 copy vpt 90 180 arc closepath fill
	vpt 0 360 arc closepath} bind def
/C11 {BL [] 0 setdash 2 copy moveto
	2 copy vpt 0 180 arc closepath fill
	2 copy moveto
	2 copy vpt 270 360 arc closepath fill
	vpt 0 360 arc closepath} bind def
/C12 {BL [] 0 setdash 2 copy moveto
	2 copy vpt 180 360 arc closepath fill
	vpt 0 360 arc closepath} bind def
/C13 {BL [] 0 setdash 2 copy moveto
	2 copy vpt 0 90 arc closepath fill
	2 copy moveto
	2 copy vpt 180 360 arc closepath fill
	vpt 0 360 arc closepath} bind def
/C14 {BL [] 0 setdash 2 copy moveto
	2 copy vpt 90 360 arc closepath fill
	vpt 0 360 arc} bind def
/C15 {BL [] 0 setdash 2 copy vpt 0 360 arc closepath fill
	vpt 0 360 arc closepath} bind def
/Rec {newpath 4 2 roll moveto 1 index 0 rlineto 0 exch rlineto
	neg 0 rlineto closepath} bind def
/Square {dup Rec} bind def
/Bsquare {vpt sub exch vpt sub exch vpt2 Square} bind def
/S0 {BL [] 0 setdash 2 copy moveto 0 vpt rlineto BL Bsquare} bind def
/S1 {BL [] 0 setdash 2 copy vpt Square fill Bsquare} bind def
/S2 {BL [] 0 setdash 2 copy exch vpt sub exch vpt Square fill Bsquare} bind def
/S3 {BL [] 0 setdash 2 copy exch vpt sub exch vpt2 vpt Rec fill Bsquare} bind def
/S4 {BL [] 0 setdash 2 copy exch vpt sub exch vpt sub vpt Square fill Bsquare} bind def
/S5 {BL [] 0 setdash 2 copy 2 copy vpt Square fill
	exch vpt sub exch vpt sub vpt Square fill Bsquare} bind def
/S6 {BL [] 0 setdash 2 copy exch vpt sub exch vpt sub vpt vpt2 Rec fill Bsquare} bind def
/S7 {BL [] 0 setdash 2 copy exch vpt sub exch vpt sub vpt vpt2 Rec fill
	2 copy vpt Square fill Bsquare} bind def
/S8 {BL [] 0 setdash 2 copy vpt sub vpt Square fill Bsquare} bind def
/S9 {BL [] 0 setdash 2 copy vpt sub vpt vpt2 Rec fill Bsquare} bind def
/S10 {BL [] 0 setdash 2 copy vpt sub vpt Square fill 2 copy exch vpt sub exch vpt Square fill
	Bsquare} bind def
/S11 {BL [] 0 setdash 2 copy vpt sub vpt Square fill 2 copy exch vpt sub exch vpt2 vpt Rec fill
	Bsquare} bind def
/S12 {BL [] 0 setdash 2 copy exch vpt sub exch vpt sub vpt2 vpt Rec fill Bsquare} bind def
/S13 {BL [] 0 setdash 2 copy exch vpt sub exch vpt sub vpt2 vpt Rec fill
	2 copy vpt Square fill Bsquare} bind def
/S14 {BL [] 0 setdash 2 copy exch vpt sub exch vpt sub vpt2 vpt Rec fill
	2 copy exch vpt sub exch vpt Square fill Bsquare} bind def
/S15 {BL [] 0 setdash 2 copy Bsquare fill Bsquare} bind def
/D0 {gsave translate 45 rotate 0 0 S0 stroke grestore} bind def
/D1 {gsave translate 45 rotate 0 0 S1 stroke grestore} bind def
/D2 {gsave translate 45 rotate 0 0 S2 stroke grestore} bind def
/D3 {gsave translate 45 rotate 0 0 S3 stroke grestore} bind def
/D4 {gsave translate 45 rotate 0 0 S4 stroke grestore} bind def
/D5 {gsave translate 45 rotate 0 0 S5 stroke grestore} bind def
/D6 {gsave translate 45 rotate 0 0 S6 stroke grestore} bind def
/D7 {gsave translate 45 rotate 0 0 S7 stroke grestore} bind def
/D8 {gsave translate 45 rotate 0 0 S8 stroke grestore} bind def
/D9 {gsave translate 45 rotate 0 0 S9 stroke grestore} bind def
/D10 {gsave translate 45 rotate 0 0 S10 stroke grestore} bind def
/D11 {gsave translate 45 rotate 0 0 S11 stroke grestore} bind def
/D12 {gsave translate 45 rotate 0 0 S12 stroke grestore} bind def
/D13 {gsave translate 45 rotate 0 0 S13 stroke grestore} bind def
/D14 {gsave translate 45 rotate 0 0 S14 stroke grestore} bind def
/D15 {gsave translate 45 rotate 0 0 S15 stroke grestore} bind def
/DiaE {stroke [] 0 setdash vpt add M
  hpt neg vpt neg V hpt vpt neg V
  hpt vpt V hpt neg vpt V closepath stroke} def
/BoxE {stroke [] 0 setdash exch hpt sub exch vpt add M
  0 vpt2 neg V hpt2 0 V 0 vpt2 V
  hpt2 neg 0 V closepath stroke} def
/TriUE {stroke [] 0 setdash vpt 1.12 mul add M
  hpt neg vpt -1.62 mul V
  hpt 2 mul 0 V
  hpt neg vpt 1.62 mul V closepath stroke} def
/TriDE {stroke [] 0 setdash vpt 1.12 mul sub M
  hpt neg vpt 1.62 mul V
  hpt 2 mul 0 V
  hpt neg vpt -1.62 mul V closepath stroke} def
/PentE {stroke [] 0 setdash gsave
  translate 0 hpt M 4 {72 rotate 0 hpt L} repeat
  closepath stroke grestore} def
/CircE {stroke [] 0 setdash 
  hpt 0 360 arc stroke} def
/Opaque {gsave closepath 1 setgray fill grestore 0 setgray closepath} def
/DiaW {stroke [] 0 setdash vpt add M
  hpt neg vpt neg V hpt vpt neg V
  hpt vpt V hpt neg vpt V Opaque stroke} def
/BoxW {stroke [] 0 setdash exch hpt sub exch vpt add M
  0 vpt2 neg V hpt2 0 V 0 vpt2 V
  hpt2 neg 0 V Opaque stroke} def
/TriUW {stroke [] 0 setdash vpt 1.12 mul add M
  hpt neg vpt -1.62 mul V
  hpt 2 mul 0 V
  hpt neg vpt 1.62 mul V Opaque stroke} def
/TriDW {stroke [] 0 setdash vpt 1.12 mul sub M
  hpt neg vpt 1.62 mul V
  hpt 2 mul 0 V
  hpt neg vpt -1.62 mul V Opaque stroke} def
/PentW {stroke [] 0 setdash gsave
  translate 0 hpt M 4 {72 rotate 0 hpt L} repeat
  Opaque stroke grestore} def
/CircW {stroke [] 0 setdash 
  hpt 0 360 arc Opaque stroke} def
/BoxFill {gsave Rec 1 setgray fill grestore} def
/Density {
  /Fillden exch def
  currentrgbcolor
  /ColB exch def /ColG exch def /ColR exch def
  /ColR ColR Fillden mul Fillden sub 1 add def
  /ColG ColG Fillden mul Fillden sub 1 add def
  /ColB ColB Fillden mul Fillden sub 1 add def
  ColR ColG ColB setrgbcolor} def
/BoxColFill {gsave Rec PolyFill} def
/PolyFill {gsave Density fill grestore grestore} def
/h {rlineto rlineto rlineto gsave closepath fill grestore} bind def
%
% PostScript Level 1 Pattern Fill routine for rectangles
% Usage: x y w h s a XX PatternFill
%	x,y = lower left corner of box to be filled
%	w,h = width and height of box
%	  a = angle in degrees between lines and x-axis
%	 XX = 0/1 for no/yes cross-hatch
%
/PatternFill {gsave /PFa [ 9 2 roll ] def
  PFa 0 get PFa 2 get 2 div add PFa 1 get PFa 3 get 2 div add translate
  PFa 2 get -2 div PFa 3 get -2 div PFa 2 get PFa 3 get Rec
  TransparentPatterns {} {gsave 1 setgray fill grestore} ifelse
  clip
  currentlinewidth 0.5 mul setlinewidth
  /PFs PFa 2 get dup mul PFa 3 get dup mul add sqrt def
  0 0 M PFa 5 get rotate PFs -2 div dup translate
  0 1 PFs PFa 4 get div 1 add floor cvi
	{PFa 4 get mul 0 M 0 PFs V} for
  0 PFa 6 get ne {
	0 1 PFs PFa 4 get div 1 add floor cvi
	{PFa 4 get mul 0 2 1 roll M PFs 0 V} for
 } if
  stroke grestore} def
%
/languagelevel where
 {pop languagelevel} {1} ifelse
 2 lt
	{/InterpretLevel1 true def}
	{/InterpretLevel1 Level1 def}
 ifelse
%
% PostScript level 2 pattern fill definitions
%
/Level2PatternFill {
/Tile8x8 {/PaintType 2 /PatternType 1 /TilingType 1 /BBox [0 0 8 8] /XStep 8 /YStep 8}
	bind def
/KeepColor {currentrgbcolor [/Pattern /DeviceRGB] setcolorspace} bind def
<< Tile8x8
 /PaintProc {0.5 setlinewidth pop 0 0 M 8 8 L 0 8 M 8 0 L stroke} 
>> matrix makepattern
/Pat1 exch def
<< Tile8x8
 /PaintProc {0.5 setlinewidth pop 0 0 M 8 8 L 0 8 M 8 0 L stroke
	0 4 M 4 8 L 8 4 L 4 0 L 0 4 L stroke}
>> matrix makepattern
/Pat2 exch def
<< Tile8x8
 /PaintProc {0.5 setlinewidth pop 0 0 M 0 8 L
	8 8 L 8 0 L 0 0 L fill}
>> matrix makepattern
/Pat3 exch def
<< Tile8x8
 /PaintProc {0.5 setlinewidth pop -4 8 M 8 -4 L
	0 12 M 12 0 L stroke}
>> matrix makepattern
/Pat4 exch def
<< Tile8x8
 /PaintProc {0.5 setlinewidth pop -4 0 M 8 12 L
	0 -4 M 12 8 L stroke}
>> matrix makepattern
/Pat5 exch def
<< Tile8x8
 /PaintProc {0.5 setlinewidth pop -2 8 M 4 -4 L
	0 12 M 8 -4 L 4 12 M 10 0 L stroke}
>> matrix makepattern
/Pat6 exch def
<< Tile8x8
 /PaintProc {0.5 setlinewidth pop -2 0 M 4 12 L
	0 -4 M 8 12 L 4 -4 M 10 8 L stroke}
>> matrix makepattern
/Pat7 exch def
<< Tile8x8
 /PaintProc {0.5 setlinewidth pop 8 -2 M -4 4 L
	12 0 M -4 8 L 12 4 M 0 10 L stroke}
>> matrix makepattern
/Pat8 exch def
<< Tile8x8
 /PaintProc {0.5 setlinewidth pop 0 -2 M 12 4 L
	-4 0 M 12 8 L -4 4 M 8 10 L stroke}
>> matrix makepattern
/Pat9 exch def
/Pattern1 {PatternBgnd KeepColor Pat1 setpattern} bind def
/Pattern2 {PatternBgnd KeepColor Pat2 setpattern} bind def
/Pattern3 {PatternBgnd KeepColor Pat3 setpattern} bind def
/Pattern4 {PatternBgnd KeepColor Landscape {Pat5} {Pat4} ifelse setpattern} bind def
/Pattern5 {PatternBgnd KeepColor Landscape {Pat4} {Pat5} ifelse setpattern} bind def
/Pattern6 {PatternBgnd KeepColor Landscape {Pat9} {Pat6} ifelse setpattern} bind def
/Pattern7 {PatternBgnd KeepColor Landscape {Pat8} {Pat7} ifelse setpattern} bind def
} def
%
%
%End of PostScript Level 2 code
%
/PatternBgnd {
  TransparentPatterns {} {gsave 1 setgray fill grestore} ifelse
} def
%
% Substitute for Level 2 pattern fill codes with
% grayscale if Level 2 support is not selected.
%
/Level1PatternFill {
/Pattern1 {0.250 Density} bind def
/Pattern2 {0.500 Density} bind def
/Pattern3 {0.750 Density} bind def
/Pattern4 {0.125 Density} bind def
/Pattern5 {0.375 Density} bind def
/Pattern6 {0.625 Density} bind def
/Pattern7 {0.875 Density} bind def
} def
%
% Now test for support of Level 2 code
%
Level1 {Level1PatternFill} {Level2PatternFill} ifelse
%
/Symbol-Oblique /Symbol findfont [1 0 .167 1 0 0] makefont
dup length dict begin {1 index /FID eq {pop pop} {def} ifelse} forall
currentdict end definefont pop
Level1 SuppressPDFMark or 
{} {
/SDict 10 dict def
systemdict /pdfmark known not {
  userdict /pdfmark systemdict /cleartomark get put
} if
SDict begin [
  /Title (out.ps)
  /Subject (gnuplot plot)
  /Creator (gnuplot 4.6 patchlevel 6)
  /Author (yani)
%  /Producer (gnuplot)
%  /Keywords ()
  /CreationDate (Thu May 28 17:44:52 2015)
  /DOCINFO pdfmark
end
} ifelse
end
%%EndProlog
%%Page: 1 1
gnudict begin
gsave
doclip
50 50 translate
0.100 0.100 scale
90 rotate
0 -5040 translate
0 setgray
newpath
(Helvetica) findfont 140 scalefont setfont
BackgroundColor 0 lt 3 1 roll 0 lt exch 0 lt or or not {gsave BackgroundColor C clippath fill grestore} if
1.000 UL
LT0
0.50 0.50 0.50 C 1.000 UL
LTa
0.50 0.50 0.50 C 966 280 M
5981 0 V
stroke
LT0
0.50 0.50 0.50 C 966 280 M
63 0 V
5918 0 R
-63 0 V
882 280 M
( 0) Rshow
1.000 UL
LT0
0.50 0.50 0.50 C 1.000 UL
LTa
0.50 0.50 0.50 C 966 326 M
5981 0 V
stroke
LT0
0.50 0.50 0.50 C 966 326 M
63 0 V
5918 0 R
-63 0 V
882 326 M
( 0.707106) Rshow
1.000 UL
LT0
0.50 0.50 0.50 C 1.000 UL
LTa
0.50 0.50 0.50 C 966 372 M
5981 0 V
stroke
LT0
0.50 0.50 0.50 C 966 372 M
63 0 V
5918 0 R
-63 0 V
882 372 M
( 1.41421) Rshow
1.000 UL
LT0
0.50 0.50 0.50 C 1.000 UL
LTa
0.50 0.50 0.50 C 966 418 M
5981 0 V
stroke
LT0
0.50 0.50 0.50 C 966 418 M
63 0 V
5918 0 R
-63 0 V
882 418 M
( 2.12132) Rshow
1.000 UL
LT0
0.50 0.50 0.50 C 1.000 UL
LTa
0.50 0.50 0.50 C 966 464 M
5981 0 V
stroke
LT0
0.50 0.50 0.50 C 966 464 M
63 0 V
5918 0 R
-63 0 V
882 464 M
( 2.82842) Rshow
1.000 UL
LT0
0.50 0.50 0.50 C 1.000 UL
LTa
0.50 0.50 0.50 C 966 510 M
5981 0 V
stroke
LT0
0.50 0.50 0.50 C 966 510 M
63 0 V
5918 0 R
-63 0 V
882 510 M
( 3.53553) Rshow
1.000 UL
LT0
0.50 0.50 0.50 C 1.000 UL
LTa
0.50 0.50 0.50 C 966 555 M
5981 0 V
stroke
LT0
0.50 0.50 0.50 C 966 555 M
63 0 V
5918 0 R
-63 0 V
882 555 M
( 4.24264) Rshow
1.000 UL
LT0
0.50 0.50 0.50 C 1.000 UL
LTa
0.50 0.50 0.50 C 966 601 M
5981 0 V
stroke
LT0
0.50 0.50 0.50 C 966 601 M
63 0 V
5918 0 R
-63 0 V
882 601 M
( 4.94974) Rshow
1.000 UL
LT0
0.50 0.50 0.50 C 1.000 UL
LTa
0.50 0.50 0.50 C 966 647 M
5981 0 V
stroke
LT0
0.50 0.50 0.50 C 966 647 M
63 0 V
5918 0 R
-63 0 V
882 647 M
( 5.65685) Rshow
1.000 UL
LT0
0.50 0.50 0.50 C 1.000 UL
LTa
0.50 0.50 0.50 C 966 693 M
5981 0 V
stroke
LT0
0.50 0.50 0.50 C 966 693 M
63 0 V
5918 0 R
-63 0 V
882 693 M
( 6.36395) Rshow
1.000 UL
LT0
0.50 0.50 0.50 C 1.000 UL
LTa
0.50 0.50 0.50 C 966 739 M
5981 0 V
stroke
LT0
0.50 0.50 0.50 C 966 739 M
63 0 V
5918 0 R
-63 0 V
882 739 M
( 7.07106) Rshow
1.000 UL
LT0
0.50 0.50 0.50 C 1.000 UL
LTa
0.50 0.50 0.50 C 966 785 M
5981 0 V
stroke
LT0
0.50 0.50 0.50 C 966 785 M
63 0 V
5918 0 R
-63 0 V
882 785 M
( 7.77817) Rshow
1.000 UL
LT0
0.50 0.50 0.50 C 1.000 UL
LTa
0.50 0.50 0.50 C 966 831 M
5981 0 V
stroke
LT0
0.50 0.50 0.50 C 966 831 M
63 0 V
5918 0 R
-63 0 V
882 831 M
( 8.48527) Rshow
1.000 UL
LT0
0.50 0.50 0.50 C 1.000 UL
LTa
0.50 0.50 0.50 C 966 877 M
5981 0 V
stroke
LT0
0.50 0.50 0.50 C 966 877 M
63 0 V
5918 0 R
-63 0 V
882 877 M
( 9.19238) Rshow
1.000 UL
LT0
0.50 0.50 0.50 C 1.000 UL
LTa
0.50 0.50 0.50 C 966 923 M
5981 0 V
stroke
LT0
0.50 0.50 0.50 C 966 923 M
63 0 V
5918 0 R
-63 0 V
882 923 M
( 9.89948) Rshow
1.000 UL
LT0
0.50 0.50 0.50 C 1.000 UL
LTa
0.50 0.50 0.50 C 966 969 M
5981 0 V
stroke
LT0
0.50 0.50 0.50 C 966 969 M
63 0 V
5918 0 R
-63 0 V
882 969 M
( 10.6066) Rshow
1.000 UL
LT0
0.50 0.50 0.50 C 1.000 UL
LTa
0.50 0.50 0.50 C 966 1015 M
5981 0 V
stroke
LT0
0.50 0.50 0.50 C 966 1015 M
63 0 V
5918 0 R
-63 0 V
-6002 0 R
( 11.3137) Rshow
1.000 UL
LT0
0.50 0.50 0.50 C 1.000 UL
LTa
0.50 0.50 0.50 C 966 1060 M
5981 0 V
stroke
LT0
0.50 0.50 0.50 C 966 1060 M
63 0 V
5918 0 R
-63 0 V
-6002 0 R
( 12.0208) Rshow
1.000 UL
LT0
0.50 0.50 0.50 C 1.000 UL
LTa
0.50 0.50 0.50 C 966 1106 M
5981 0 V
stroke
LT0
0.50 0.50 0.50 C 966 1106 M
63 0 V
5918 0 R
-63 0 V
-6002 0 R
( 12.7279) Rshow
1.000 UL
LT0
0.50 0.50 0.50 C 1.000 UL
LTa
0.50 0.50 0.50 C 966 1152 M
5981 0 V
stroke
LT0
0.50 0.50 0.50 C 966 1152 M
63 0 V
5918 0 R
-63 0 V
-6002 0 R
( 13.435) Rshow
1.000 UL
LT0
0.50 0.50 0.50 C 1.000 UL
LTa
0.50 0.50 0.50 C 966 1198 M
5981 0 V
stroke
LT0
0.50 0.50 0.50 C 966 1198 M
63 0 V
5918 0 R
-63 0 V
-6002 0 R
( 14.1421) Rshow
1.000 UL
LT0
0.50 0.50 0.50 C 1.000 UL
LTa
0.50 0.50 0.50 C 966 1244 M
5981 0 V
stroke
LT0
0.50 0.50 0.50 C 966 1244 M
63 0 V
5918 0 R
-63 0 V
-6002 0 R
( 14.8492) Rshow
1.000 UL
LT0
0.50 0.50 0.50 C 1.000 UL
LTa
0.50 0.50 0.50 C 966 1290 M
5981 0 V
stroke
LT0
0.50 0.50 0.50 C 966 1290 M
63 0 V
5918 0 R
-63 0 V
-6002 0 R
( 15.5563) Rshow
1.000 UL
LT0
0.50 0.50 0.50 C 1.000 UL
LTa
0.50 0.50 0.50 C 966 1336 M
5981 0 V
stroke
LT0
0.50 0.50 0.50 C 966 1336 M
63 0 V
5918 0 R
-63 0 V
-6002 0 R
( 16.2634) Rshow
1.000 UL
LT0
0.50 0.50 0.50 C 1.000 UL
LTa
0.50 0.50 0.50 C 966 1382 M
5981 0 V
stroke
LT0
0.50 0.50 0.50 C 966 1382 M
63 0 V
5918 0 R
-63 0 V
-6002 0 R
( 16.9705) Rshow
1.000 UL
LT0
0.50 0.50 0.50 C 1.000 UL
LTa
0.50 0.50 0.50 C 966 1428 M
5981 0 V
stroke
LT0
0.50 0.50 0.50 C 966 1428 M
63 0 V
5918 0 R
-63 0 V
-6002 0 R
( 17.6776) Rshow
1.000 UL
LT0
0.50 0.50 0.50 C 1.000 UL
LTa
0.50 0.50 0.50 C 966 1474 M
5981 0 V
stroke
LT0
0.50 0.50 0.50 C 966 1474 M
63 0 V
5918 0 R
-63 0 V
-6002 0 R
( 18.3848) Rshow
1.000 UL
LT0
0.50 0.50 0.50 C 1.000 UL
LTa
0.50 0.50 0.50 C 966 1520 M
5981 0 V
stroke
LT0
0.50 0.50 0.50 C 966 1520 M
63 0 V
5918 0 R
-63 0 V
-6002 0 R
( 19.0919) Rshow
1.000 UL
LT0
0.50 0.50 0.50 C 1.000 UL
LTa
0.50 0.50 0.50 C 966 1565 M
5981 0 V
stroke
LT0
0.50 0.50 0.50 C 966 1565 M
63 0 V
5918 0 R
-63 0 V
-6002 0 R
( 19.799) Rshow
1.000 UL
LT0
0.50 0.50 0.50 C 1.000 UL
LTa
0.50 0.50 0.50 C 966 1611 M
5981 0 V
stroke
LT0
0.50 0.50 0.50 C 966 1611 M
63 0 V
5918 0 R
-63 0 V
-6002 0 R
( 20.5061) Rshow
1.000 UL
LT0
0.50 0.50 0.50 C 1.000 UL
LTa
0.50 0.50 0.50 C 966 1657 M
5981 0 V
stroke
LT0
0.50 0.50 0.50 C 966 1657 M
63 0 V
5918 0 R
-63 0 V
-6002 0 R
( 21.2132) Rshow
1.000 UL
LT0
0.50 0.50 0.50 C 1.000 UL
LTa
0.50 0.50 0.50 C 966 1703 M
5981 0 V
stroke
LT0
0.50 0.50 0.50 C 966 1703 M
63 0 V
5918 0 R
-63 0 V
-6002 0 R
( 21.9203) Rshow
1.000 UL
LT0
0.50 0.50 0.50 C 1.000 UL
LTa
0.50 0.50 0.50 C 966 1749 M
5981 0 V
stroke
LT0
0.50 0.50 0.50 C 966 1749 M
63 0 V
5918 0 R
-63 0 V
-6002 0 R
( 22.6274) Rshow
1.000 UL
LT0
0.50 0.50 0.50 C 1.000 UL
LTa
0.50 0.50 0.50 C 966 1795 M
5981 0 V
stroke
LT0
0.50 0.50 0.50 C 966 1795 M
63 0 V
5918 0 R
-63 0 V
-6002 0 R
( 23.3345) Rshow
1.000 UL
LT0
0.50 0.50 0.50 C 1.000 UL
LTa
0.50 0.50 0.50 C 966 1841 M
5981 0 V
stroke
LT0
0.50 0.50 0.50 C 966 1841 M
63 0 V
5918 0 R
-63 0 V
-6002 0 R
( 24.0416) Rshow
1.000 UL
LT0
0.50 0.50 0.50 C 1.000 UL
LTa
0.50 0.50 0.50 C 966 1887 M
5981 0 V
stroke
LT0
0.50 0.50 0.50 C 966 1887 M
63 0 V
5918 0 R
-63 0 V
-6002 0 R
( 24.7487) Rshow
1.000 UL
LT0
0.50 0.50 0.50 C 1.000 UL
LTa
0.50 0.50 0.50 C 966 1933 M
5981 0 V
stroke
LT0
0.50 0.50 0.50 C 966 1933 M
63 0 V
5918 0 R
-63 0 V
-6002 0 R
( 25.4558) Rshow
1.000 UL
LT0
0.50 0.50 0.50 C 1.000 UL
LTa
0.50 0.50 0.50 C 966 1979 M
5981 0 V
stroke
LT0
0.50 0.50 0.50 C 966 1979 M
63 0 V
5918 0 R
-63 0 V
-6002 0 R
( 26.1629) Rshow
1.000 UL
LT0
0.50 0.50 0.50 C 1.000 UL
LTa
0.50 0.50 0.50 C 966 2025 M
5981 0 V
stroke
LT0
0.50 0.50 0.50 C 966 2025 M
63 0 V
5918 0 R
-63 0 V
-6002 0 R
( 26.87) Rshow
1.000 UL
LT0
0.50 0.50 0.50 C 1.000 UL
LTa
0.50 0.50 0.50 C 966 2070 M
5981 0 V
stroke
LT0
0.50 0.50 0.50 C 966 2070 M
63 0 V
5918 0 R
-63 0 V
-6002 0 R
( 27.5771) Rshow
1.000 UL
LT0
0.50 0.50 0.50 C 1.000 UL
LTa
0.50 0.50 0.50 C 966 2116 M
5981 0 V
stroke
LT0
0.50 0.50 0.50 C 966 2116 M
63 0 V
5918 0 R
-63 0 V
-6002 0 R
( 28.2842) Rshow
1.000 UL
LT0
0.50 0.50 0.50 C 1.000 UL
LTa
0.50 0.50 0.50 C 966 2162 M
5981 0 V
stroke
LT0
0.50 0.50 0.50 C 966 2162 M
63 0 V
5918 0 R
-63 0 V
-6002 0 R
( 28.9913) Rshow
1.000 UL
LT0
0.50 0.50 0.50 C 1.000 UL
LTa
0.50 0.50 0.50 C 966 2208 M
5981 0 V
stroke
LT0
0.50 0.50 0.50 C 966 2208 M
63 0 V
5918 0 R
-63 0 V
-6002 0 R
( 29.6985) Rshow
1.000 UL
LT0
0.50 0.50 0.50 C 1.000 UL
LTa
0.50 0.50 0.50 C 966 2254 M
5981 0 V
stroke
LT0
0.50 0.50 0.50 C 966 2254 M
63 0 V
5918 0 R
-63 0 V
-6002 0 R
( 30.4056) Rshow
1.000 UL
LT0
0.50 0.50 0.50 C 1.000 UL
LTa
0.50 0.50 0.50 C 966 2300 M
5981 0 V
stroke
LT0
0.50 0.50 0.50 C 966 2300 M
63 0 V
5918 0 R
-63 0 V
-6002 0 R
( 31.1127) Rshow
1.000 UL
LT0
0.50 0.50 0.50 C 1.000 UL
LTa
0.50 0.50 0.50 C 966 2346 M
5981 0 V
stroke
LT0
0.50 0.50 0.50 C 966 2346 M
63 0 V
5918 0 R
-63 0 V
-6002 0 R
( 31.8198) Rshow
1.000 UL
LT0
0.50 0.50 0.50 C 1.000 UL
LTa
0.50 0.50 0.50 C 966 2392 M
5981 0 V
stroke
LT0
0.50 0.50 0.50 C 966 2392 M
63 0 V
5918 0 R
-63 0 V
-6002 0 R
( 32.5269) Rshow
1.000 UL
LT0
0.50 0.50 0.50 C 1.000 UL
LTa
0.50 0.50 0.50 C 966 2438 M
5981 0 V
stroke
LT0
0.50 0.50 0.50 C 966 2438 M
63 0 V
5918 0 R
-63 0 V
-6002 0 R
( 33.234) Rshow
1.000 UL
LT0
0.50 0.50 0.50 C 1.000 UL
LTa
0.50 0.50 0.50 C 966 2484 M
5981 0 V
stroke
LT0
0.50 0.50 0.50 C 966 2484 M
63 0 V
5918 0 R
-63 0 V
-6002 0 R
( 33.9411) Rshow
1.000 UL
LT0
0.50 0.50 0.50 C 1.000 UL
LTa
0.50 0.50 0.50 C 966 2530 M
5981 0 V
stroke
LT0
0.50 0.50 0.50 C 966 2530 M
63 0 V
5918 0 R
-63 0 V
-6002 0 R
( 34.6482) Rshow
1.000 UL
LT0
0.50 0.50 0.50 C 1.000 UL
LTa
0.50 0.50 0.50 C 966 2576 M
5981 0 V
stroke
LT0
0.50 0.50 0.50 C 966 2576 M
63 0 V
5918 0 R
-63 0 V
-6002 0 R
( 35.3553) Rshow
1.000 UL
LT0
0.50 0.50 0.50 C 1.000 UL
LTa
0.50 0.50 0.50 C 966 2621 M
5981 0 V
stroke
LT0
0.50 0.50 0.50 C 966 2621 M
63 0 V
5918 0 R
-63 0 V
-6002 0 R
( 36.0624) Rshow
1.000 UL
LT0
0.50 0.50 0.50 C 1.000 UL
LTa
0.50 0.50 0.50 C 966 2667 M
5981 0 V
stroke
LT0
0.50 0.50 0.50 C 966 2667 M
63 0 V
5918 0 R
-63 0 V
-6002 0 R
( 36.7695) Rshow
1.000 UL
LT0
0.50 0.50 0.50 C 1.000 UL
LTa
0.50 0.50 0.50 C 966 2713 M
5981 0 V
stroke
LT0
0.50 0.50 0.50 C 966 2713 M
63 0 V
5918 0 R
-63 0 V
-6002 0 R
( 37.4766) Rshow
1.000 UL
LT0
0.50 0.50 0.50 C 1.000 UL
LTa
0.50 0.50 0.50 C 966 2759 M
5981 0 V
stroke
LT0
0.50 0.50 0.50 C 966 2759 M
63 0 V
5918 0 R
-63 0 V
-6002 0 R
( 38.1837) Rshow
1.000 UL
LT0
0.50 0.50 0.50 C 1.000 UL
LTa
0.50 0.50 0.50 C 966 2805 M
5981 0 V
stroke
LT0
0.50 0.50 0.50 C 966 2805 M
63 0 V
5918 0 R
-63 0 V
-6002 0 R
( 38.8908) Rshow
1.000 UL
LT0
0.50 0.50 0.50 C 1.000 UL
LTa
0.50 0.50 0.50 C 966 2851 M
5981 0 V
stroke
LT0
0.50 0.50 0.50 C 966 2851 M
63 0 V
5918 0 R
-63 0 V
-6002 0 R
( 39.5979) Rshow
1.000 UL
LT0
0.50 0.50 0.50 C 1.000 UL
LTa
0.50 0.50 0.50 C 966 2897 M
5981 0 V
stroke
LT0
0.50 0.50 0.50 C 966 2897 M
63 0 V
5918 0 R
-63 0 V
-6002 0 R
( 40.305) Rshow
1.000 UL
LT0
0.50 0.50 0.50 C 1.000 UL
LTa
0.50 0.50 0.50 C 966 2943 M
5981 0 V
stroke
LT0
0.50 0.50 0.50 C 966 2943 M
63 0 V
5918 0 R
-63 0 V
-6002 0 R
( 41.0121) Rshow
1.000 UL
LT0
0.50 0.50 0.50 C 1.000 UL
LTa
0.50 0.50 0.50 C 966 2989 M
5981 0 V
stroke
LT0
0.50 0.50 0.50 C 966 2989 M
63 0 V
5918 0 R
-63 0 V
-6002 0 R
( 41.7193) Rshow
1.000 UL
LT0
0.50 0.50 0.50 C 1.000 UL
LTa
0.50 0.50 0.50 C 966 3035 M
5981 0 V
stroke
LT0
0.50 0.50 0.50 C 966 3035 M
63 0 V
5918 0 R
-63 0 V
-6002 0 R
( 42.4264) Rshow
1.000 UL
LT0
0.50 0.50 0.50 C 1.000 UL
LTa
0.50 0.50 0.50 C 966 3081 M
5981 0 V
stroke
LT0
0.50 0.50 0.50 C 966 3081 M
63 0 V
5918 0 R
-63 0 V
-6002 0 R
( 43.1335) Rshow
1.000 UL
LT0
0.50 0.50 0.50 C 1.000 UL
LTa
0.50 0.50 0.50 C 966 3126 M
5981 0 V
stroke
LT0
0.50 0.50 0.50 C 966 3126 M
63 0 V
5918 0 R
-63 0 V
-6002 0 R
( 43.8406) Rshow
1.000 UL
LT0
0.50 0.50 0.50 C 1.000 UL
LTa
0.50 0.50 0.50 C 966 3172 M
5981 0 V
stroke
LT0
0.50 0.50 0.50 C 966 3172 M
63 0 V
5918 0 R
-63 0 V
-6002 0 R
( 44.5477) Rshow
1.000 UL
LT0
0.50 0.50 0.50 C 1.000 UL
LTa
0.50 0.50 0.50 C 966 3218 M
5981 0 V
stroke
LT0
0.50 0.50 0.50 C 966 3218 M
63 0 V
5918 0 R
-63 0 V
-6002 0 R
( 45.2548) Rshow
1.000 UL
LT0
0.50 0.50 0.50 C 1.000 UL
LTa
0.50 0.50 0.50 C 966 3264 M
5981 0 V
stroke
LT0
0.50 0.50 0.50 C 966 3264 M
63 0 V
5918 0 R
-63 0 V
-6002 0 R
( 45.9619) Rshow
1.000 UL
LT0
0.50 0.50 0.50 C 1.000 UL
LTa
0.50 0.50 0.50 C 966 3310 M
5981 0 V
stroke
LT0
0.50 0.50 0.50 C 966 3310 M
63 0 V
5918 0 R
-63 0 V
-6002 0 R
( 46.669) Rshow
1.000 UL
LT0
0.50 0.50 0.50 C 1.000 UL
LTa
0.50 0.50 0.50 C 966 3356 M
5981 0 V
stroke
LT0
0.50 0.50 0.50 C 966 3356 M
63 0 V
5918 0 R
-63 0 V
-6002 0 R
( 47.3761) Rshow
1.000 UL
LT0
0.50 0.50 0.50 C 1.000 UL
LTa
0.50 0.50 0.50 C 966 3402 M
5981 0 V
stroke
LT0
0.50 0.50 0.50 C 966 3402 M
63 0 V
5918 0 R
-63 0 V
-6002 0 R
( 48.0832) Rshow
1.000 UL
LT0
0.50 0.50 0.50 C 1.000 UL
LTa
0.50 0.50 0.50 C 966 3448 M
5981 0 V
stroke
LT0
0.50 0.50 0.50 C 966 3448 M
63 0 V
5918 0 R
-63 0 V
-6002 0 R
( 48.7903) Rshow
1.000 UL
LT0
0.50 0.50 0.50 C 1.000 UL
LTa
0.50 0.50 0.50 C 966 3494 M
5981 0 V
stroke
LT0
0.50 0.50 0.50 C 966 3494 M
63 0 V
5918 0 R
-63 0 V
-6002 0 R
( 49.4974) Rshow
1.000 UL
LT0
0.50 0.50 0.50 C 1.000 UL
LTa
0.50 0.50 0.50 C 966 3540 M
5981 0 V
stroke
LT0
0.50 0.50 0.50 C 966 3540 M
63 0 V
5918 0 R
-63 0 V
-6002 0 R
( 50.2045) Rshow
1.000 UL
LT0
0.50 0.50 0.50 C 1.000 UL
LTa
0.50 0.50 0.50 C 966 3586 M
5981 0 V
stroke
LT0
0.50 0.50 0.50 C 966 3586 M
63 0 V
5918 0 R
-63 0 V
-6002 0 R
( 50.9116) Rshow
1.000 UL
LT0
0.50 0.50 0.50 C 1.000 UL
LTa
0.50 0.50 0.50 C 966 3631 M
5981 0 V
stroke
LT0
0.50 0.50 0.50 C 966 3631 M
63 0 V
5918 0 R
-63 0 V
-6002 0 R
( 51.6187) Rshow
1.000 UL
LT0
0.50 0.50 0.50 C 1.000 UL
LTa
0.50 0.50 0.50 C 966 3677 M
5981 0 V
stroke
LT0
0.50 0.50 0.50 C 966 3677 M
63 0 V
5918 0 R
-63 0 V
-6002 0 R
( 52.3258) Rshow
1.000 UL
LT0
0.50 0.50 0.50 C 1.000 UL
LTa
0.50 0.50 0.50 C 966 3723 M
5981 0 V
stroke
LT0
0.50 0.50 0.50 C 966 3723 M
63 0 V
5918 0 R
-63 0 V
-6002 0 R
( 53.033) Rshow
1.000 UL
LT0
0.50 0.50 0.50 C 1.000 UL
LTa
0.50 0.50 0.50 C 966 3769 M
5981 0 V
stroke
LT0
0.50 0.50 0.50 C 966 3769 M
63 0 V
5918 0 R
-63 0 V
-6002 0 R
( 53.7401) Rshow
1.000 UL
LT0
0.50 0.50 0.50 C 1.000 UL
LTa
0.50 0.50 0.50 C 966 3815 M
5981 0 V
stroke
LT0
0.50 0.50 0.50 C 966 3815 M
63 0 V
5918 0 R
-63 0 V
-6002 0 R
( 54.4472) Rshow
1.000 UL
LT0
0.50 0.50 0.50 C 1.000 UL
LTa
0.50 0.50 0.50 C 966 3861 M
5981 0 V
stroke
LT0
0.50 0.50 0.50 C 966 3861 M
63 0 V
5918 0 R
-63 0 V
-6002 0 R
( 55.1543) Rshow
1.000 UL
LT0
0.50 0.50 0.50 C 1.000 UL
LTa
0.50 0.50 0.50 C 966 3907 M
5981 0 V
stroke
LT0
0.50 0.50 0.50 C 966 3907 M
63 0 V
5918 0 R
-63 0 V
-6002 0 R
( 55.8614) Rshow
1.000 UL
LT0
0.50 0.50 0.50 C 1.000 UL
LTa
0.50 0.50 0.50 C 966 3953 M
5981 0 V
stroke
LT0
0.50 0.50 0.50 C 966 3953 M
63 0 V
5918 0 R
-63 0 V
-6002 0 R
( 56.5685) Rshow
1.000 UL
LT0
0.50 0.50 0.50 C 1.000 UL
LTa
0.50 0.50 0.50 C 966 3999 M
5981 0 V
stroke
LT0
0.50 0.50 0.50 C 966 3999 M
63 0 V
5918 0 R
-63 0 V
-6002 0 R
( 57.2756) Rshow
1.000 UL
LT0
0.50 0.50 0.50 C 1.000 UL
LTa
0.50 0.50 0.50 C 966 4045 M
5981 0 V
stroke
LT0
0.50 0.50 0.50 C 966 4045 M
63 0 V
5918 0 R
-63 0 V
-6002 0 R
( 57.9827) Rshow
1.000 UL
LT0
0.50 0.50 0.50 C 1.000 UL
LTa
0.50 0.50 0.50 C 966 4091 M
5981 0 V
stroke
LT0
0.50 0.50 0.50 C 966 4091 M
63 0 V
5918 0 R
-63 0 V
-6002 0 R
( 58.6898) Rshow
1.000 UL
LT0
0.50 0.50 0.50 C 1.000 UL
LTa
0.50 0.50 0.50 C 966 4136 M
5981 0 V
stroke
LT0
0.50 0.50 0.50 C 966 4136 M
63 0 V
5918 0 R
-63 0 V
-6002 0 R
( 59.3969) Rshow
1.000 UL
LT0
0.50 0.50 0.50 C 1.000 UL
LTa
0.50 0.50 0.50 C 966 4182 M
5981 0 V
stroke
LT0
0.50 0.50 0.50 C 966 4182 M
63 0 V
5918 0 R
-63 0 V
-6002 0 R
( 60.104) Rshow
1.000 UL
LT0
0.50 0.50 0.50 C 1.000 UL
LTa
0.50 0.50 0.50 C 966 4228 M
5981 0 V
stroke
LT0
0.50 0.50 0.50 C 966 4228 M
63 0 V
5918 0 R
-63 0 V
-6002 0 R
( 60.8111) Rshow
1.000 UL
LT0
0.50 0.50 0.50 C 1.000 UL
LTa
0.50 0.50 0.50 C 966 4274 M
5981 0 V
stroke
LT0
0.50 0.50 0.50 C 966 4274 M
63 0 V
5918 0 R
-63 0 V
-6002 0 R
( 61.5182) Rshow
1.000 UL
LT0
0.50 0.50 0.50 C 1.000 UL
LTa
0.50 0.50 0.50 C 966 4320 M
5981 0 V
stroke
LT0
0.50 0.50 0.50 C 966 4320 M
63 0 V
5918 0 R
-63 0 V
-6002 0 R
( 62.2253) Rshow
1.000 UL
LT0
0.50 0.50 0.50 C 1.000 UL
LTa
0.50 0.50 0.50 C 966 4366 M
5981 0 V
stroke
LT0
0.50 0.50 0.50 C 966 4366 M
63 0 V
5918 0 R
-63 0 V
-6002 0 R
( 62.9324) Rshow
1.000 UL
LT0
0.50 0.50 0.50 C 1.000 UL
LTa
0.50 0.50 0.50 C 966 4412 M
5981 0 V
stroke
LT0
0.50 0.50 0.50 C 966 4412 M
63 0 V
5918 0 R
-63 0 V
-6002 0 R
( 63.6395) Rshow
1.000 UL
LT0
0.50 0.50 0.50 C 1.000 UL
LTa
0.50 0.50 0.50 C 966 4458 M
5981 0 V
stroke
LT0
0.50 0.50 0.50 C 966 4458 M
63 0 V
5918 0 R
-63 0 V
-6002 0 R
( 64.3466) Rshow
1.000 UL
LT0
0.50 0.50 0.50 C 1.000 UL
LTa
0.50 0.50 0.50 C 966 4504 M
5981 0 V
stroke
LT0
0.50 0.50 0.50 C 966 4504 M
63 0 V
5918 0 R
-63 0 V
-6002 0 R
( 65.0538) Rshow
1.000 UL
LT0
0.50 0.50 0.50 C 1.000 UL
LTa
0.50 0.50 0.50 C 966 4550 M
5981 0 V
stroke
LT0
0.50 0.50 0.50 C 966 4550 M
63 0 V
5918 0 R
-63 0 V
-6002 0 R
( 65.7609) Rshow
1.000 UL
LT0
0.50 0.50 0.50 C 1.000 UL
LTa
0.50 0.50 0.50 C 966 4596 M
5981 0 V
stroke
LT0
0.50 0.50 0.50 C 966 4596 M
63 0 V
5918 0 R
-63 0 V
-6002 0 R
( 66.468) Rshow
1.000 UL
LT0
0.50 0.50 0.50 C 1.000 UL
LTa
0.50 0.50 0.50 C 966 4641 M
5981 0 V
stroke
LT0
0.50 0.50 0.50 C 966 4641 M
63 0 V
5918 0 R
-63 0 V
-6002 0 R
( 67.1751) Rshow
1.000 UL
LT0
0.50 0.50 0.50 C 1.000 UL
LTa
0.50 0.50 0.50 C 966 4687 M
5981 0 V
stroke
LT0
0.50 0.50 0.50 C 966 4687 M
63 0 V
5918 0 R
-63 0 V
-6002 0 R
( 67.8822) Rshow
1.000 UL
LT0
0.50 0.50 0.50 C 1.000 UL
LTa
0.50 0.50 0.50 C 966 4733 M
5981 0 V
stroke
LT0
0.50 0.50 0.50 C 966 4733 M
63 0 V
5918 0 R
-63 0 V
-6002 0 R
( 68.5893) Rshow
1.000 UL
LT0
0.50 0.50 0.50 C 1.000 UL
LTa
0.50 0.50 0.50 C 966 4779 M
5981 0 V
stroke
LT0
0.50 0.50 0.50 C 966 4779 M
63 0 V
5918 0 R
-63 0 V
-6002 0 R
( 69.2964) Rshow
1.000 UL
LT0
0.50 0.50 0.50 C 1.000 UL
LTa
0.50 0.50 0.50 C 966 4825 M
5981 0 V
stroke
LT0
0.50 0.50 0.50 C 966 4825 M
63 0 V
5918 0 R
-63 0 V
-6002 0 R
( 70.0035) Rshow
1.000 UL
LT0
0.50 0.50 0.50 C 1.000 UL
LTa
0.50 0.50 0.50 C 966 4871 M
5981 0 V
stroke
LT0
0.50 0.50 0.50 C 966 4871 M
63 0 V
5918 0 R
-63 0 V
-6002 0 R
( 70.7106) Rshow
1.000 UL
LT0
0.50 0.50 0.50 C 1.000 UL
LTa
0.50 0.50 0.50 C 966 280 M
0 4591 V
stroke
LT0
0.50 0.50 0.50 C 966 280 M
0 63 V
0 4528 R
0 -63 V
966 140 M
( 0) Cshow
1.000 UL
LT0
0.50 0.50 0.50 C 1.000 UL
LTa
0.50 0.50 0.50 C 1026 280 M
0 4591 V
stroke
LT0
0.50 0.50 0.50 C 1026 280 M
0 63 V
0 4528 R
0 -63 V
0 -4668 R
( 0.707106) Cshow
1.000 UL
LT0
0.50 0.50 0.50 C 1.000 UL
LTa
0.50 0.50 0.50 C 1086 280 M
0 4591 V
stroke
LT0
0.50 0.50 0.50 C 1086 280 M
0 63 V
0 4528 R
0 -63 V
0 -4668 R
( 1.41421) Cshow
1.000 UL
LT0
0.50 0.50 0.50 C 1.000 UL
LTa
0.50 0.50 0.50 C 1145 280 M
0 4591 V
stroke
LT0
0.50 0.50 0.50 C 1145 280 M
0 63 V
0 4528 R
0 -63 V
0 -4668 R
( 2.12132) Cshow
1.000 UL
LT0
0.50 0.50 0.50 C 1.000 UL
LTa
0.50 0.50 0.50 C 1205 280 M
0 4591 V
stroke
LT0
0.50 0.50 0.50 C 1205 280 M
0 63 V
0 4528 R
0 -63 V
0 -4668 R
( 2.82842) Cshow
1.000 UL
LT0
0.50 0.50 0.50 C 1.000 UL
LTa
0.50 0.50 0.50 C 1265 280 M
0 4591 V
stroke
LT0
0.50 0.50 0.50 C 1265 280 M
0 63 V
0 4528 R
0 -63 V
0 -4668 R
( 3.53553) Cshow
1.000 UL
LT0
0.50 0.50 0.50 C 1.000 UL
LTa
0.50 0.50 0.50 C 1325 280 M
0 4591 V
stroke
LT0
0.50 0.50 0.50 C 1325 280 M
0 63 V
0 4528 R
0 -63 V
0 -4668 R
( 4.24264) Cshow
1.000 UL
LT0
0.50 0.50 0.50 C 1.000 UL
LTa
0.50 0.50 0.50 C 1385 280 M
0 4591 V
stroke
LT0
0.50 0.50 0.50 C 1385 280 M
0 63 V
0 4528 R
0 -63 V
0 -4668 R
( 4.94974) Cshow
1.000 UL
LT0
0.50 0.50 0.50 C 1.000 UL
LTa
0.50 0.50 0.50 C 1444 280 M
0 4591 V
stroke
LT0
0.50 0.50 0.50 C 1444 280 M
0 63 V
0 4528 R
0 -63 V
0 -4668 R
( 5.65685) Cshow
1.000 UL
LT0
0.50 0.50 0.50 C 1.000 UL
LTa
0.50 0.50 0.50 C 1504 280 M
0 4591 V
stroke
LT0
0.50 0.50 0.50 C 1504 280 M
0 63 V
0 4528 R
0 -63 V
0 -4668 R
( 6.36395) Cshow
1.000 UL
LT0
0.50 0.50 0.50 C 1.000 UL
LTa
0.50 0.50 0.50 C 1564 280 M
0 4591 V
stroke
LT0
0.50 0.50 0.50 C 1564 280 M
0 63 V
0 4528 R
0 -63 V
0 -4668 R
( 7.07106) Cshow
1.000 UL
LT0
0.50 0.50 0.50 C 1.000 UL
LTa
0.50 0.50 0.50 C 1624 280 M
0 4591 V
stroke
LT0
0.50 0.50 0.50 C 1624 280 M
0 63 V
0 4528 R
0 -63 V
0 -4668 R
( 7.77817) Cshow
1.000 UL
LT0
0.50 0.50 0.50 C 1.000 UL
LTa
0.50 0.50 0.50 C 1684 280 M
0 4591 V
stroke
LT0
0.50 0.50 0.50 C 1684 280 M
0 63 V
0 4528 R
0 -63 V
0 -4668 R
( 8.48527) Cshow
1.000 UL
LT0
0.50 0.50 0.50 C 1.000 UL
LTa
0.50 0.50 0.50 C 1744 280 M
0 4591 V
stroke
LT0
0.50 0.50 0.50 C 1744 280 M
0 63 V
0 4528 R
0 -63 V
0 -4668 R
( 9.19238) Cshow
1.000 UL
LT0
0.50 0.50 0.50 C 1.000 UL
LTa
0.50 0.50 0.50 C 1803 280 M
0 4591 V
stroke
LT0
0.50 0.50 0.50 C 1803 280 M
0 63 V
0 4528 R
0 -63 V
0 -4668 R
( 9.89948) Cshow
1.000 UL
LT0
0.50 0.50 0.50 C 1.000 UL
LTa
0.50 0.50 0.50 C 1863 280 M
0 4591 V
stroke
LT0
0.50 0.50 0.50 C 1863 280 M
0 63 V
0 4528 R
0 -63 V
0 -4668 R
( 10.6066) Cshow
1.000 UL
LT0
0.50 0.50 0.50 C 1.000 UL
LTa
0.50 0.50 0.50 C 1923 280 M
0 4591 V
stroke
LT0
0.50 0.50 0.50 C 1923 280 M
0 63 V
0 4528 R
0 -63 V
0 -4668 R
( 11.3137) Cshow
1.000 UL
LT0
0.50 0.50 0.50 C 1.000 UL
LTa
0.50 0.50 0.50 C 1983 280 M
0 4591 V
stroke
LT0
0.50 0.50 0.50 C 1983 280 M
0 63 V
0 4528 R
0 -63 V
0 -4668 R
( 12.0208) Cshow
1.000 UL
LT0
0.50 0.50 0.50 C 1.000 UL
LTa
0.50 0.50 0.50 C 2043 280 M
0 4591 V
stroke
LT0
0.50 0.50 0.50 C 2043 280 M
0 63 V
0 4528 R
0 -63 V
0 -4668 R
( 12.7279) Cshow
1.000 UL
LT0
0.50 0.50 0.50 C 1.000 UL
LTa
0.50 0.50 0.50 C 2102 280 M
0 4591 V
stroke
LT0
0.50 0.50 0.50 C 2102 280 M
0 63 V
0 4528 R
0 -63 V
0 -4668 R
( 13.435) Cshow
1.000 UL
LT0
0.50 0.50 0.50 C 1.000 UL
LTa
0.50 0.50 0.50 C 2162 280 M
0 4591 V
stroke
LT0
0.50 0.50 0.50 C 2162 280 M
0 63 V
0 4528 R
0 -63 V
0 -4668 R
( 14.1421) Cshow
1.000 UL
LT0
0.50 0.50 0.50 C 1.000 UL
LTa
0.50 0.50 0.50 C 2222 280 M
0 4591 V
stroke
LT0
0.50 0.50 0.50 C 2222 280 M
0 63 V
0 4528 R
0 -63 V
0 -4668 R
( 14.8492) Cshow
1.000 UL
LT0
0.50 0.50 0.50 C 1.000 UL
LTa
0.50 0.50 0.50 C 2282 280 M
0 4591 V
stroke
LT0
0.50 0.50 0.50 C 2282 280 M
0 63 V
0 4528 R
0 -63 V
0 -4668 R
( 15.5563) Cshow
1.000 UL
LT0
0.50 0.50 0.50 C 1.000 UL
LTa
0.50 0.50 0.50 C 2342 280 M
0 4591 V
stroke
LT0
0.50 0.50 0.50 C 2342 280 M
0 63 V
0 4528 R
0 -63 V
0 -4668 R
( 16.2634) Cshow
1.000 UL
LT0
0.50 0.50 0.50 C 1.000 UL
LTa
0.50 0.50 0.50 C 2401 280 M
0 4591 V
stroke
LT0
0.50 0.50 0.50 C 2401 280 M
0 63 V
0 4528 R
0 -63 V
0 -4668 R
( 16.9705) Cshow
1.000 UL
LT0
0.50 0.50 0.50 C 1.000 UL
LTa
0.50 0.50 0.50 C 2461 280 M
0 4591 V
stroke
LT0
0.50 0.50 0.50 C 2461 280 M
0 63 V
0 4528 R
0 -63 V
0 -4668 R
( 17.6776) Cshow
1.000 UL
LT0
0.50 0.50 0.50 C 1.000 UL
LTa
0.50 0.50 0.50 C 2521 280 M
0 4591 V
stroke
LT0
0.50 0.50 0.50 C 2521 280 M
0 63 V
0 4528 R
0 -63 V
0 -4668 R
( 18.3848) Cshow
1.000 UL
LT0
0.50 0.50 0.50 C 1.000 UL
LTa
0.50 0.50 0.50 C 2581 280 M
0 4591 V
stroke
LT0
0.50 0.50 0.50 C 2581 280 M
0 63 V
0 4528 R
0 -63 V
0 -4668 R
( 19.0919) Cshow
1.000 UL
LT0
0.50 0.50 0.50 C 1.000 UL
LTa
0.50 0.50 0.50 C 2641 280 M
0 4591 V
stroke
LT0
0.50 0.50 0.50 C 2641 280 M
0 63 V
0 4528 R
0 -63 V
0 -4668 R
( 19.799) Cshow
1.000 UL
LT0
0.50 0.50 0.50 C 1.000 UL
LTa
0.50 0.50 0.50 C 2700 280 M
0 4591 V
stroke
LT0
0.50 0.50 0.50 C 2700 280 M
0 63 V
0 4528 R
0 -63 V
0 -4668 R
( 20.5061) Cshow
1.000 UL
LT0
0.50 0.50 0.50 C 1.000 UL
LTa
0.50 0.50 0.50 C 2760 280 M
0 4591 V
stroke
LT0
0.50 0.50 0.50 C 2760 280 M
0 63 V
0 4528 R
0 -63 V
0 -4668 R
( 21.2132) Cshow
1.000 UL
LT0
0.50 0.50 0.50 C 1.000 UL
LTa
0.50 0.50 0.50 C 2820 280 M
0 4591 V
stroke
LT0
0.50 0.50 0.50 C 2820 280 M
0 63 V
0 4528 R
0 -63 V
0 -4668 R
( 21.9203) Cshow
1.000 UL
LT0
0.50 0.50 0.50 C 1.000 UL
LTa
0.50 0.50 0.50 C 2880 280 M
0 4591 V
stroke
LT0
0.50 0.50 0.50 C 2880 280 M
0 63 V
0 4528 R
0 -63 V
0 -4668 R
( 22.6274) Cshow
1.000 UL
LT0
0.50 0.50 0.50 C 1.000 UL
LTa
0.50 0.50 0.50 C 2940 280 M
0 4591 V
stroke
LT0
0.50 0.50 0.50 C 2940 280 M
0 63 V
0 4528 R
0 -63 V
0 -4668 R
( 23.3345) Cshow
1.000 UL
LT0
0.50 0.50 0.50 C 1.000 UL
LTa
0.50 0.50 0.50 C 3000 280 M
0 4591 V
stroke
LT0
0.50 0.50 0.50 C 3000 280 M
0 63 V
0 4528 R
0 -63 V
0 -4668 R
( 24.0416) Cshow
1.000 UL
LT0
0.50 0.50 0.50 C 1.000 UL
LTa
0.50 0.50 0.50 C 3059 280 M
0 4591 V
stroke
LT0
0.50 0.50 0.50 C 3059 280 M
0 63 V
0 4528 R
0 -63 V
0 -4668 R
( 24.7487) Cshow
1.000 UL
LT0
0.50 0.50 0.50 C 1.000 UL
LTa
0.50 0.50 0.50 C 3119 280 M
0 4591 V
stroke
LT0
0.50 0.50 0.50 C 3119 280 M
0 63 V
0 4528 R
0 -63 V
0 -4668 R
( 25.4558) Cshow
1.000 UL
LT0
0.50 0.50 0.50 C 1.000 UL
LTa
0.50 0.50 0.50 C 3179 280 M
0 4591 V
stroke
LT0
0.50 0.50 0.50 C 3179 280 M
0 63 V
0 4528 R
0 -63 V
0 -4668 R
( 26.1629) Cshow
1.000 UL
LT0
0.50 0.50 0.50 C 1.000 UL
LTa
0.50 0.50 0.50 C 3239 280 M
0 4591 V
stroke
LT0
0.50 0.50 0.50 C 3239 280 M
0 63 V
0 4528 R
0 -63 V
0 -4668 R
( 26.87) Cshow
1.000 UL
LT0
0.50 0.50 0.50 C 1.000 UL
LTa
0.50 0.50 0.50 C 3299 280 M
0 4591 V
stroke
LT0
0.50 0.50 0.50 C 3299 280 M
0 63 V
0 4528 R
0 -63 V
0 -4668 R
( 27.5771) Cshow
1.000 UL
LT0
0.50 0.50 0.50 C 1.000 UL
LTa
0.50 0.50 0.50 C 3358 280 M
0 4591 V
stroke
LT0
0.50 0.50 0.50 C 3358 280 M
0 63 V
0 4528 R
0 -63 V
0 -4668 R
( 28.2842) Cshow
1.000 UL
LT0
0.50 0.50 0.50 C 1.000 UL
LTa
0.50 0.50 0.50 C 3418 280 M
0 4591 V
stroke
LT0
0.50 0.50 0.50 C 3418 280 M
0 63 V
0 4528 R
0 -63 V
0 -4668 R
( 28.9913) Cshow
1.000 UL
LT0
0.50 0.50 0.50 C 1.000 UL
LTa
0.50 0.50 0.50 C 3478 280 M
0 4591 V
stroke
LT0
0.50 0.50 0.50 C 3478 280 M
0 63 V
0 4528 R
0 -63 V
0 -4668 R
( 29.6985) Cshow
1.000 UL
LT0
0.50 0.50 0.50 C 1.000 UL
LTa
0.50 0.50 0.50 C 3538 280 M
0 4591 V
stroke
LT0
0.50 0.50 0.50 C 3538 280 M
0 63 V
0 4528 R
0 -63 V
0 -4668 R
( 30.4056) Cshow
1.000 UL
LT0
0.50 0.50 0.50 C 1.000 UL
LTa
0.50 0.50 0.50 C 3598 280 M
0 4591 V
stroke
LT0
0.50 0.50 0.50 C 3598 280 M
0 63 V
0 4528 R
0 -63 V
0 -4668 R
( 31.1127) Cshow
1.000 UL
LT0
0.50 0.50 0.50 C 1.000 UL
LTa
0.50 0.50 0.50 C 3657 280 M
0 4591 V
stroke
LT0
0.50 0.50 0.50 C 3657 280 M
0 63 V
0 4528 R
0 -63 V
0 -4668 R
( 31.8198) Cshow
1.000 UL
LT0
0.50 0.50 0.50 C 1.000 UL
LTa
0.50 0.50 0.50 C 3717 280 M
0 4591 V
stroke
LT0
0.50 0.50 0.50 C 3717 280 M
0 63 V
0 4528 R
0 -63 V
0 -4668 R
( 32.5269) Cshow
1.000 UL
LT0
0.50 0.50 0.50 C 1.000 UL
LTa
0.50 0.50 0.50 C 3777 280 M
0 4591 V
stroke
LT0
0.50 0.50 0.50 C 3777 280 M
0 63 V
0 4528 R
0 -63 V
0 -4668 R
( 33.234) Cshow
1.000 UL
LT0
0.50 0.50 0.50 C 1.000 UL
LTa
0.50 0.50 0.50 C 3837 280 M
0 4591 V
stroke
LT0
0.50 0.50 0.50 C 3837 280 M
0 63 V
0 4528 R
0 -63 V
0 -4668 R
( 33.9411) Cshow
1.000 UL
LT0
0.50 0.50 0.50 C 1.000 UL
LTa
0.50 0.50 0.50 C 3897 280 M
0 4591 V
stroke
LT0
0.50 0.50 0.50 C 3897 280 M
0 63 V
0 4528 R
0 -63 V
0 -4668 R
( 34.6482) Cshow
1.000 UL
LT0
0.50 0.50 0.50 C 1.000 UL
LTa
0.50 0.50 0.50 C 3957 280 M
0 4591 V
stroke
LT0
0.50 0.50 0.50 C 3957 280 M
0 63 V
0 4528 R
0 -63 V
0 -4668 R
( 35.3553) Cshow
1.000 UL
LT0
0.50 0.50 0.50 C 1.000 UL
LTa
0.50 0.50 0.50 C 4016 280 M
0 4591 V
stroke
LT0
0.50 0.50 0.50 C 4016 280 M
0 63 V
0 4528 R
0 -63 V
0 -4668 R
( 36.0624) Cshow
1.000 UL
LT0
0.50 0.50 0.50 C 1.000 UL
LTa
0.50 0.50 0.50 C 4076 280 M
0 4591 V
stroke
LT0
0.50 0.50 0.50 C 4076 280 M
0 63 V
0 4528 R
0 -63 V
0 -4668 R
( 36.7695) Cshow
1.000 UL
LT0
0.50 0.50 0.50 C 1.000 UL
LTa
0.50 0.50 0.50 C 4136 280 M
0 4591 V
stroke
LT0
0.50 0.50 0.50 C 4136 280 M
0 63 V
0 4528 R
0 -63 V
0 -4668 R
( 37.4766) Cshow
1.000 UL
LT0
0.50 0.50 0.50 C 1.000 UL
LTa
0.50 0.50 0.50 C 4196 280 M
0 4591 V
stroke
LT0
0.50 0.50 0.50 C 4196 280 M
0 63 V
0 4528 R
0 -63 V
0 -4668 R
( 38.1837) Cshow
1.000 UL
LT0
0.50 0.50 0.50 C 1.000 UL
LTa
0.50 0.50 0.50 C 4256 280 M
0 4591 V
stroke
LT0
0.50 0.50 0.50 C 4256 280 M
0 63 V
0 4528 R
0 -63 V
0 -4668 R
( 38.8908) Cshow
1.000 UL
LT0
0.50 0.50 0.50 C 1.000 UL
LTa
0.50 0.50 0.50 C 4315 280 M
0 4591 V
stroke
LT0
0.50 0.50 0.50 C 4315 280 M
0 63 V
0 4528 R
0 -63 V
0 -4668 R
( 39.5979) Cshow
1.000 UL
LT0
0.50 0.50 0.50 C 1.000 UL
LTa
0.50 0.50 0.50 C 4375 280 M
0 4591 V
stroke
LT0
0.50 0.50 0.50 C 4375 280 M
0 63 V
0 4528 R
0 -63 V
0 -4668 R
( 40.305) Cshow
1.000 UL
LT0
0.50 0.50 0.50 C 1.000 UL
LTa
0.50 0.50 0.50 C 4435 280 M
0 4591 V
stroke
LT0
0.50 0.50 0.50 C 4435 280 M
0 63 V
0 4528 R
0 -63 V
0 -4668 R
( 41.0121) Cshow
1.000 UL
LT0
0.50 0.50 0.50 C 1.000 UL
LTa
0.50 0.50 0.50 C 4495 280 M
0 4591 V
stroke
LT0
0.50 0.50 0.50 C 4495 280 M
0 63 V
0 4528 R
0 -63 V
0 -4668 R
( 41.7193) Cshow
1.000 UL
LT0
0.50 0.50 0.50 C 1.000 UL
LTa
0.50 0.50 0.50 C 4555 280 M
0 4591 V
stroke
LT0
0.50 0.50 0.50 C 4555 280 M
0 63 V
0 4528 R
0 -63 V
0 -4668 R
( 42.4264) Cshow
1.000 UL
LT0
0.50 0.50 0.50 C 1.000 UL
LTa
0.50 0.50 0.50 C 4614 280 M
0 4591 V
stroke
LT0
0.50 0.50 0.50 C 4614 280 M
0 63 V
0 4528 R
0 -63 V
0 -4668 R
( 43.1335) Cshow
1.000 UL
LT0
0.50 0.50 0.50 C 1.000 UL
LTa
0.50 0.50 0.50 C 4674 280 M
0 4591 V
stroke
LT0
0.50 0.50 0.50 C 4674 280 M
0 63 V
0 4528 R
0 -63 V
0 -4668 R
( 43.8406) Cshow
1.000 UL
LT0
0.50 0.50 0.50 C 1.000 UL
LTa
0.50 0.50 0.50 C 4734 280 M
0 4591 V
stroke
LT0
0.50 0.50 0.50 C 4734 280 M
0 63 V
0 4528 R
0 -63 V
0 -4668 R
( 44.5477) Cshow
1.000 UL
LT0
0.50 0.50 0.50 C 1.000 UL
LTa
0.50 0.50 0.50 C 4794 280 M
0 4591 V
stroke
LT0
0.50 0.50 0.50 C 4794 280 M
0 63 V
0 4528 R
0 -63 V
0 -4668 R
( 45.2548) Cshow
1.000 UL
LT0
0.50 0.50 0.50 C 1.000 UL
LTa
0.50 0.50 0.50 C 4854 280 M
0 4591 V
stroke
LT0
0.50 0.50 0.50 C 4854 280 M
0 63 V
0 4528 R
0 -63 V
0 -4668 R
( 45.9619) Cshow
1.000 UL
LT0
0.50 0.50 0.50 C 1.000 UL
LTa
0.50 0.50 0.50 C 4913 280 M
0 4591 V
stroke
LT0
0.50 0.50 0.50 C 4913 280 M
0 63 V
0 4528 R
0 -63 V
0 -4668 R
( 46.669) Cshow
1.000 UL
LT0
0.50 0.50 0.50 C 1.000 UL
LTa
0.50 0.50 0.50 C 4973 280 M
0 4591 V
stroke
LT0
0.50 0.50 0.50 C 4973 280 M
0 63 V
0 4528 R
0 -63 V
0 -4668 R
( 47.3761) Cshow
1.000 UL
LT0
0.50 0.50 0.50 C 1.000 UL
LTa
0.50 0.50 0.50 C 5033 280 M
0 4591 V
stroke
LT0
0.50 0.50 0.50 C 5033 280 M
0 63 V
0 4528 R
0 -63 V
0 -4668 R
( 48.0832) Cshow
1.000 UL
LT0
0.50 0.50 0.50 C 1.000 UL
LTa
0.50 0.50 0.50 C 5093 280 M
0 4591 V
stroke
LT0
0.50 0.50 0.50 C 5093 280 M
0 63 V
0 4528 R
0 -63 V
0 -4668 R
( 48.7903) Cshow
1.000 UL
LT0
0.50 0.50 0.50 C 1.000 UL
LTa
0.50 0.50 0.50 C 5153 280 M
0 4591 V
stroke
LT0
0.50 0.50 0.50 C 5153 280 M
0 63 V
0 4528 R
0 -63 V
0 -4668 R
( 49.4974) Cshow
1.000 UL
LT0
0.50 0.50 0.50 C 1.000 UL
LTa
0.50 0.50 0.50 C 5213 280 M
0 4591 V
stroke
LT0
0.50 0.50 0.50 C 5213 280 M
0 63 V
0 4528 R
0 -63 V
0 -4668 R
( 50.2045) Cshow
1.000 UL
LT0
0.50 0.50 0.50 C 1.000 UL
LTa
0.50 0.50 0.50 C 5272 280 M
0 4591 V
stroke
LT0
0.50 0.50 0.50 C 5272 280 M
0 63 V
0 4528 R
0 -63 V
0 -4668 R
( 50.9116) Cshow
1.000 UL
LT0
0.50 0.50 0.50 C 1.000 UL
LTa
0.50 0.50 0.50 C 5332 280 M
0 4591 V
stroke
LT0
0.50 0.50 0.50 C 5332 280 M
0 63 V
0 4528 R
0 -63 V
0 -4668 R
( 51.6187) Cshow
1.000 UL
LT0
0.50 0.50 0.50 C 1.000 UL
LTa
0.50 0.50 0.50 C 5392 280 M
0 4591 V
stroke
LT0
0.50 0.50 0.50 C 5392 280 M
0 63 V
0 4528 R
0 -63 V
0 -4668 R
( 52.3258) Cshow
1.000 UL
LT0
0.50 0.50 0.50 C 1.000 UL
LTa
0.50 0.50 0.50 C 5452 280 M
0 4591 V
stroke
LT0
0.50 0.50 0.50 C 5452 280 M
0 63 V
0 4528 R
0 -63 V
0 -4668 R
( 53.033) Cshow
1.000 UL
LT0
0.50 0.50 0.50 C 1.000 UL
LTa
0.50 0.50 0.50 C 5512 280 M
0 4591 V
stroke
LT0
0.50 0.50 0.50 C 5512 280 M
0 63 V
0 4528 R
0 -63 V
0 -4668 R
( 53.7401) Cshow
1.000 UL
LT0
0.50 0.50 0.50 C 1.000 UL
LTa
0.50 0.50 0.50 C 5571 280 M
0 4591 V
stroke
LT0
0.50 0.50 0.50 C 5571 280 M
0 63 V
0 4528 R
0 -63 V
0 -4668 R
( 54.4472) Cshow
1.000 UL
LT0
0.50 0.50 0.50 C 1.000 UL
LTa
0.50 0.50 0.50 C 5631 280 M
0 4591 V
stroke
LT0
0.50 0.50 0.50 C 5631 280 M
0 63 V
0 4528 R
0 -63 V
0 -4668 R
( 55.1543) Cshow
1.000 UL
LT0
0.50 0.50 0.50 C 1.000 UL
LTa
0.50 0.50 0.50 C 5691 280 M
0 4591 V
stroke
LT0
0.50 0.50 0.50 C 5691 280 M
0 63 V
0 4528 R
0 -63 V
0 -4668 R
( 55.8614) Cshow
1.000 UL
LT0
0.50 0.50 0.50 C 1.000 UL
LTa
0.50 0.50 0.50 C 5751 280 M
0 4591 V
stroke
LT0
0.50 0.50 0.50 C 5751 280 M
0 63 V
0 4528 R
0 -63 V
0 -4668 R
( 56.5685) Cshow
1.000 UL
LT0
0.50 0.50 0.50 C 1.000 UL
LTa
0.50 0.50 0.50 C 5811 280 M
0 4591 V
stroke
LT0
0.50 0.50 0.50 C 5811 280 M
0 63 V
0 4528 R
0 -63 V
0 -4668 R
( 57.2756) Cshow
1.000 UL
LT0
0.50 0.50 0.50 C 1.000 UL
LTa
0.50 0.50 0.50 C 5870 280 M
0 4591 V
stroke
LT0
0.50 0.50 0.50 C 5870 280 M
0 63 V
0 4528 R
0 -63 V
0 -4668 R
( 57.9827) Cshow
1.000 UL
LT0
0.50 0.50 0.50 C 1.000 UL
LTa
0.50 0.50 0.50 C 5930 280 M
0 4591 V
stroke
LT0
0.50 0.50 0.50 C 5930 280 M
0 63 V
0 4528 R
0 -63 V
0 -4668 R
( 58.6898) Cshow
1.000 UL
LT0
0.50 0.50 0.50 C 1.000 UL
LTa
0.50 0.50 0.50 C 5990 280 M
0 4591 V
stroke
LT0
0.50 0.50 0.50 C 5990 280 M
0 63 V
0 4528 R
0 -63 V
0 -4668 R
( 59.3969) Cshow
1.000 UL
LT0
0.50 0.50 0.50 C 1.000 UL
LTa
0.50 0.50 0.50 C 6050 280 M
0 4591 V
stroke
LT0
0.50 0.50 0.50 C 6050 280 M
0 63 V
0 4528 R
0 -63 V
0 -4668 R
( 60.104) Cshow
1.000 UL
LT0
0.50 0.50 0.50 C 1.000 UL
LTa
0.50 0.50 0.50 C 6110 280 M
0 4591 V
stroke
LT0
0.50 0.50 0.50 C 6110 280 M
0 63 V
0 4528 R
0 -63 V
0 -4668 R
( 60.8111) Cshow
1.000 UL
LT0
0.50 0.50 0.50 C 1.000 UL
LTa
0.50 0.50 0.50 C 6169 280 M
0 4591 V
stroke
LT0
0.50 0.50 0.50 C 6169 280 M
0 63 V
0 4528 R
0 -63 V
0 -4668 R
( 61.5182) Cshow
1.000 UL
LT0
0.50 0.50 0.50 C 1.000 UL
LTa
0.50 0.50 0.50 C 6229 280 M
0 4591 V
stroke
LT0
0.50 0.50 0.50 C 6229 280 M
0 63 V
0 4528 R
0 -63 V
0 -4668 R
( 62.2253) Cshow
1.000 UL
LT0
0.50 0.50 0.50 C 1.000 UL
LTa
0.50 0.50 0.50 C 6289 280 M
0 4591 V
stroke
LT0
0.50 0.50 0.50 C 6289 280 M
0 63 V
0 4528 R
0 -63 V
0 -4668 R
( 62.9324) Cshow
1.000 UL
LT0
0.50 0.50 0.50 C 1.000 UL
LTa
0.50 0.50 0.50 C 6349 280 M
0 4591 V
stroke
LT0
0.50 0.50 0.50 C 6349 280 M
0 63 V
0 4528 R
0 -63 V
0 -4668 R
( 63.6395) Cshow
1.000 UL
LT0
0.50 0.50 0.50 C 1.000 UL
LTa
0.50 0.50 0.50 C 6409 280 M
0 4591 V
stroke
LT0
0.50 0.50 0.50 C 6409 280 M
0 63 V
0 4528 R
0 -63 V
0 -4668 R
( 64.3466) Cshow
1.000 UL
LT0
0.50 0.50 0.50 C 1.000 UL
LTa
0.50 0.50 0.50 C 6469 280 M
0 4591 V
stroke
LT0
0.50 0.50 0.50 C 6469 280 M
0 63 V
0 4528 R
0 -63 V
0 -4668 R
( 65.0538) Cshow
1.000 UL
LT0
0.50 0.50 0.50 C 1.000 UL
LTa
0.50 0.50 0.50 C 6528 280 M
0 4591 V
stroke
LT0
0.50 0.50 0.50 C 6528 280 M
0 63 V
0 4528 R
0 -63 V
0 -4668 R
( 65.7609) Cshow
1.000 UL
LT0
0.50 0.50 0.50 C 1.000 UL
LTa
0.50 0.50 0.50 C 6588 280 M
0 4591 V
stroke
LT0
0.50 0.50 0.50 C 6588 280 M
0 63 V
0 4528 R
0 -63 V
0 -4668 R
( 66.468) Cshow
1.000 UL
LT0
0.50 0.50 0.50 C 1.000 UL
LTa
0.50 0.50 0.50 C 6648 280 M
0 4591 V
stroke
LT0
0.50 0.50 0.50 C 6648 280 M
0 63 V
0 4528 R
0 -63 V
0 -4668 R
( 67.1751) Cshow
1.000 UL
LT0
0.50 0.50 0.50 C 1.000 UL
LTa
0.50 0.50 0.50 C 6708 280 M
0 4591 V
stroke
LT0
0.50 0.50 0.50 C 6708 280 M
0 63 V
0 4528 R
0 -63 V
0 -4668 R
( 67.8822) Cshow
1.000 UL
LT0
0.50 0.50 0.50 C 1.000 UL
LTa
0.50 0.50 0.50 C 6768 280 M
0 4591 V
stroke
LT0
0.50 0.50 0.50 C 6768 280 M
0 63 V
0 4528 R
0 -63 V
0 -4668 R
( 68.5893) Cshow
1.000 UL
LT0
0.50 0.50 0.50 C 1.000 UL
LTa
0.50 0.50 0.50 C 6827 280 M
0 4591 V
stroke
LT0
0.50 0.50 0.50 C 6827 280 M
0 63 V
0 4528 R
0 -63 V
0 -4668 R
( 69.2964) Cshow
1.000 UL
LT0
0.50 0.50 0.50 C 1.000 UL
LTa
0.50 0.50 0.50 C 6887 280 M
0 4591 V
stroke
LT0
0.50 0.50 0.50 C 6887 280 M
0 63 V
0 4528 R
0 -63 V
0 -4668 R
( 70.0035) Cshow
1.000 UL
LT0
0.50 0.50 0.50 C 1.000 UL
LTa
0.50 0.50 0.50 C 6947 280 M
0 4591 V
stroke
LT0
0.50 0.50 0.50 C 6947 280 M
0 63 V
0 4528 R
0 -63 V
0 -4668 R
( 70.7106) Cshow
1.000 UL
LT0
0.50 0.50 0.50 C 1.000 UL
LT0
0.50 0.50 0.50 C 966 4871 M
966 280 L
5981 0 V
0 4591 R
-5981 0 R
1.000 UP
stroke
LT0
0.50 0.50 0.50 C % Begin plot #1
1.500 UP
2.000 UL
LT0
0.00 0.00 1.00 C /Helvetica findfont 140 scalefont setfont
/vshift -46 def
1026 464 M
60 0 V
0 596 R
59 0 V
60 0 V
60 0 V
0 46 R
60 0 V
60 0 V
59 0 V
60 0 V
60 0 V
60 0 V
0 138 R
60 0 V
60 0 V
59 0 V
60 0 V
60 0 V
0 46 R
60 0 V
60 0 V
59 0 V
60 0 V
0 46 R
60 0 V
60 0 V
60 0 V
59 0 V
60 0 V
60 0 V
60 0 V
60 0 V
59 0 V
60 0 V
0 184 R
60 0 V
60 0 V
60 0 V
60 0 V
59 0 V
60 0 V
60 0 V
60 0 V
60 0 V
59 0 V
0 45 R
60 0 V
0 230 R
60 0 V
0 321 R
60 0 V
60 0 V
59 0 V
60 0 V
60 0 V
60 0 V
0 46 R
60 0 V
60 0 V
0 230 R
59 0 V
60 0 V
60 0 V
60 0 V
0 92 R
60 0 V
59 0 V
0 46 R
60 0 V
60 0 V
60 0 V
0 137 R
60 0 V
0 230 R
59 0 V
60 0 V
60 0 V
0 46 R
60 0 V
60 0 V
59 0 V
0 92 R
60 0 V
60 0 V
60 0 V
60 0 V
60 0 V
59 0 V
60 0 V
60 0 V
60 0 V
60 0 V
59 0 V
0 275 R
60 0 V
0 46 R
60 0 V
0 46 R
60 0 V
60 0 V
0 46 R
59 0 V
0 183 R
60 0 V
stroke 5930 3631 M
60 0 V
0 46 R
60 0 V
0 92 R
60 0 V
59 0 V
0 597 R
60 0 V
0 46 R
60 0 V
60 0 V
0 92 R
60 0 V
60 0 V
59 0 V
0 183 R
60 0 V
0 46 R
60 0 V
60 0 V
60 0 V
59 0 V
60 0 V
966 280 M
60 0 V
0 46 V
0 46 V
0 46 V
0 46 V
60 0 R
0 46 V
0 45 V
0 46 V
0 46 V
0 46 V
0 46 V
0 46 V
0 46 V
0 46 V
0 46 V
0 46 V
0 46 V
0 45 V
179 0 R
0 46 V
359 0 R
0 46 V
0 46 V
0 46 V
299 0 R
0 46 V
239 0 R
0 46 V
598 0 R
0 46 V
0 46 V
0 46 V
0 46 V
598 0 R
0 45 V
60 0 R
0 46 V
0 46 V
0 46 V
0 46 V
0 46 V
60 0 R
0 46 V
0 46 V
0 46 V
0 46 V
0 46 V
0 45 V
0 46 V
359 0 R
0 46 V
120 0 R
0 46 V
0 46 V
0 46 V
0 46 V
0 46 V
239 0 R
0 46 V
0 46 V
119 0 R
0 46 V
180 0 R
0 46 V
0 45 V
0 46 V
60 0 R
0 46 V
0 46 V
0 46 V
0 46 V
0 46 V
179 0 R
0 46 V
179 0 R
0 46 V
0 46 V
658 0 R
0 46 V
stroke 5571 3081 M
0 45 V
0 46 V
0 46 V
0 46 V
0 46 V
60 0 R
0 46 V
60 0 R
0 46 V
120 0 R
0 46 V
59 0 R
0 46 V
0 46 V
0 46 V
0 45 V
120 0 R
0 46 V
60 0 R
0 46 V
0 46 V
119 0 R
0 46 V
0 46 V
0 46 V
0 46 V
0 46 V
0 46 V
0 46 V
0 45 V
0 46 V
0 46 V
0 46 V
0 46 V
0 46 V
60 0 R
0 46 V
120 0 R
0 46 V
0 46 V
179 0 R
0 46 V
0 46 V
0 45 V
0 46 V
60 0 R
0 46 V
299 46 R
0 46 V
0 -92 R
0 46 V
1026 464 CircleF
1086 464 CircleF
1086 1060 CircleF
1145 1060 CircleF
1145 1060 CircleF
1205 1060 CircleF
1205 1060 CircleF
1265 1060 CircleF
1265 1106 CircleF
1325 1106 CircleF
1325 1106 CircleF
1385 1106 CircleF
1385 1106 CircleF
1444 1106 CircleF
1444 1106 CircleF
1504 1106 CircleF
1504 1106 CircleF
1564 1106 CircleF
1564 1106 CircleF
1624 1106 CircleF
1624 1244 CircleF
1684 1244 CircleF
1684 1244 CircleF
1744 1244 CircleF
1744 1244 CircleF
1803 1244 CircleF
1803 1244 CircleF
1863 1244 CircleF
1863 1244 CircleF
1923 1244 CircleF
1923 1290 CircleF
1983 1290 CircleF
1983 1290 CircleF
2043 1290 CircleF
2043 1290 CircleF
2102 1290 CircleF
2102 1290 CircleF
2162 1290 CircleF
2162 1336 CircleF
2222 1336 CircleF
2222 1336 CircleF
2282 1336 CircleF
2282 1336 CircleF
2342 1336 CircleF
2342 1336 CircleF
2401 1336 CircleF
2401 1336 CircleF
2461 1336 CircleF
2461 1336 CircleF
2521 1336 CircleF
2521 1336 CircleF
2581 1336 CircleF
2581 1336 CircleF
2641 1336 CircleF
2641 1336 CircleF
2700 1336 CircleF
2700 1336 CircleF
2760 1336 CircleF
2760 1520 CircleF
2820 1520 CircleF
2820 1520 CircleF
2880 1520 CircleF
2880 1520 CircleF
2940 1520 CircleF
2940 1520 CircleF
3000 1520 CircleF
3000 1520 CircleF
3059 1520 CircleF
3059 1520 CircleF
3119 1520 CircleF
3119 1520 CircleF
3179 1520 CircleF
3179 1520 CircleF
3239 1520 CircleF
3239 1520 CircleF
3299 1520 CircleF
3299 1520 CircleF
3358 1520 CircleF
3358 1565 CircleF
3418 1565 CircleF
3418 1795 CircleF
3478 1795 CircleF
3478 2116 CircleF
3538 2116 CircleF
3538 2116 CircleF
3598 2116 CircleF
3598 2116 CircleF
3657 2116 CircleF
3657 2116 CircleF
3717 2116 CircleF
3717 2116 CircleF
3777 2116 CircleF
3777 2116 CircleF
3837 2116 CircleF
3837 2162 CircleF
3897 2162 CircleF
3897 2162 CircleF
3957 2162 CircleF
3957 2392 CircleF
4016 2392 CircleF
4016 2392 CircleF
4076 2392 CircleF
4076 2392 CircleF
4136 2392 CircleF
4136 2392 CircleF
4196 2392 CircleF
4196 2484 CircleF
4256 2484 CircleF
4256 2484 CircleF
4315 2484 CircleF
4315 2530 CircleF
4375 2530 CircleF
4375 2530 CircleF
4435 2530 CircleF
4435 2530 CircleF
4495 2530 CircleF
4495 2667 CircleF
4555 2667 CircleF
4555 2897 CircleF
4614 2897 CircleF
4614 2897 CircleF
4674 2897 CircleF
4674 2897 CircleF
4734 2897 CircleF
4734 2943 CircleF
4794 2943 CircleF
4794 2943 CircleF
4854 2943 CircleF
4854 2943 CircleF
4913 2943 CircleF
4913 3035 CircleF
4973 3035 CircleF
4973 3035 CircleF
5033 3035 CircleF
5033 3035 CircleF
5093 3035 CircleF
5093 3035 CircleF
5153 3035 CircleF
5153 3035 CircleF
5213 3035 CircleF
5213 3035 CircleF
5272 3035 CircleF
5272 3035 CircleF
5332 3035 CircleF
5332 3035 CircleF
5392 3035 CircleF
5392 3035 CircleF
5452 3035 CircleF
5452 3035 CircleF
5512 3035 CircleF
5512 3035 CircleF
5571 3035 CircleF
5571 3310 CircleF
5631 3310 CircleF
5631 3356 CircleF
5691 3356 CircleF
5691 3402 CircleF
5751 3402 CircleF
5751 3402 CircleF
5811 3402 CircleF
5811 3448 CircleF
5870 3448 CircleF
5870 3631 CircleF
5930 3631 CircleF
5930 3631 CircleF
5990 3631 CircleF
5990 3677 CircleF
6050 3677 CircleF
6050 3769 CircleF
6110 3769 CircleF
6110 3769 CircleF
6169 3769 CircleF
6169 4366 CircleF
6229 4366 CircleF
6229 4412 CircleF
6289 4412 CircleF
6289 4412 CircleF
6349 4412 CircleF
6349 4504 CircleF
6409 4504 CircleF
6409 4504 CircleF
6469 4504 CircleF
6469 4504 CircleF
6528 4504 CircleF
6528 4687 CircleF
6588 4687 CircleF
6588 4733 CircleF
6648 4733 CircleF
6648 4733 CircleF
6708 4733 CircleF
6708 4733 CircleF
6768 4733 CircleF
6768 4733 CircleF
6827 4733 CircleF
6827 4733 CircleF
6887 4733 CircleF
966 280 CircleF
1026 280 CircleF
1026 280 CircleF
1026 326 CircleF
1026 326 CircleF
1026 372 CircleF
1026 372 CircleF
1026 418 CircleF
1026 418 CircleF
1026 464 CircleF
1086 464 CircleF
1086 510 CircleF
1086 510 CircleF
1086 555 CircleF
1086 555 CircleF
1086 601 CircleF
1086 601 CircleF
1086 647 CircleF
1086 647 CircleF
1086 693 CircleF
1086 693 CircleF
1086 739 CircleF
1086 739 CircleF
1086 785 CircleF
1086 785 CircleF
1086 831 CircleF
1086 831 CircleF
1086 877 CircleF
1086 877 CircleF
1086 923 CircleF
1086 923 CircleF
1086 969 CircleF
1086 969 CircleF
1086 1015 CircleF
1086 1015 CircleF
1086 1060 CircleF
1265 1060 CircleF
1265 1106 CircleF
1624 1106 CircleF
1624 1152 CircleF
1624 1152 CircleF
1624 1198 CircleF
1624 1198 CircleF
1624 1244 CircleF
1923 1244 CircleF
1923 1290 CircleF
2162 1290 CircleF
2162 1336 CircleF
2760 1336 CircleF
2760 1382 CircleF
2760 1382 CircleF
2760 1428 CircleF
2760 1428 CircleF
2760 1474 CircleF
2760 1474 CircleF
2760 1520 CircleF
3358 1520 CircleF
3358 1565 CircleF
3418 1565 CircleF
3418 1611 CircleF
3418 1611 CircleF
3418 1657 CircleF
3418 1657 CircleF
3418 1703 CircleF
3418 1703 CircleF
3418 1749 CircleF
3418 1749 CircleF
3418 1795 CircleF
3478 1795 CircleF
3478 1841 CircleF
3478 1841 CircleF
3478 1887 CircleF
3478 1887 CircleF
3478 1933 CircleF
3478 1933 CircleF
3478 1979 CircleF
3478 1979 CircleF
3478 2025 CircleF
3478 2025 CircleF
3478 2070 CircleF
3478 2070 CircleF
3478 2116 CircleF
3837 2116 CircleF
3837 2162 CircleF
3957 2162 CircleF
3957 2208 CircleF
3957 2208 CircleF
3957 2254 CircleF
3957 2254 CircleF
3957 2300 CircleF
3957 2300 CircleF
3957 2346 CircleF
3957 2346 CircleF
3957 2392 CircleF
4196 2392 CircleF
4196 2438 CircleF
4196 2438 CircleF
4196 2484 CircleF
4315 2484 CircleF
4315 2530 CircleF
4495 2530 CircleF
4495 2576 CircleF
4495 2576 CircleF
4495 2621 CircleF
4495 2621 CircleF
4495 2667 CircleF
4555 2667 CircleF
4555 2713 CircleF
4555 2713 CircleF
4555 2759 CircleF
4555 2759 CircleF
4555 2805 CircleF
4555 2805 CircleF
4555 2851 CircleF
4555 2851 CircleF
4555 2897 CircleF
4734 2897 CircleF
4734 2943 CircleF
4913 2943 CircleF
4913 2989 CircleF
4913 2989 CircleF
4913 3035 CircleF
5571 3035 CircleF
5571 3081 CircleF
5571 3081 CircleF
5571 3126 CircleF
5571 3126 CircleF
5571 3172 CircleF
5571 3172 CircleF
5571 3218 CircleF
5571 3218 CircleF
5571 3264 CircleF
5571 3264 CircleF
5571 3310 CircleF
5631 3310 CircleF
5631 3356 CircleF
5691 3356 CircleF
5691 3402 CircleF
5811 3402 CircleF
5811 3448 CircleF
5870 3448 CircleF
5870 3494 CircleF
5870 3494 CircleF
5870 3540 CircleF
5870 3540 CircleF
5870 3586 CircleF
5870 3586 CircleF
5870 3631 CircleF
5990 3631 CircleF
5990 3677 CircleF
6050 3677 CircleF
6050 3723 CircleF
6050 3723 CircleF
6050 3769 CircleF
6169 3769 CircleF
6169 3815 CircleF
6169 3815 CircleF
6169 3861 CircleF
6169 3861 CircleF
6169 3907 CircleF
6169 3907 CircleF
6169 3953 CircleF
6169 3953 CircleF
6169 3999 CircleF
6169 3999 CircleF
6169 4045 CircleF
6169 4045 CircleF
6169 4091 CircleF
6169 4091 CircleF
6169 4136 CircleF
6169 4136 CircleF
6169 4182 CircleF
6169 4182 CircleF
6169 4228 CircleF
6169 4228 CircleF
6169 4274 CircleF
6169 4274 CircleF
6169 4320 CircleF
6169 4320 CircleF
6169 4366 CircleF
6229 4366 CircleF
6229 4412 CircleF
6349 4412 CircleF
6349 4458 CircleF
6349 4458 CircleF
6349 4504 CircleF
6528 4504 CircleF
6528 4550 CircleF
6528 4550 CircleF
6528 4596 CircleF
6528 4596 CircleF
6528 4641 CircleF
6528 4641 CircleF
6528 4687 CircleF
6588 4687 CircleF
6588 4733 CircleF
6887 4779 CircleF
6887 4825 CircleF
6887 4733 CircleF
6887 4779 CircleF
% End plot #1
% Begin plot #2
1.500 UP
2.000 UL
LT0
1.00 0.55 0.00 C /Helvetica findfont 140 scalefont setfont
1185 555 M
60 46 V
6663 1615 M
60 46 V
-810 847 R
60 46 V
4856 2880 M
60 46 V
3601 1248 M
60 46 V
3130 1156 M
60 46 V
1136 1911 M
60 46 V
6338 1469 M
60 46 V
1878 4295 M
59 46 V
4220 2548 M
59 46 V
1646 1840 M
60 46 V
1354 2930 M
60 46 V
4679 216 R
60 46 V
5664 665 M
60 46 V
3814 1304 M
60 46 V
6523 2948 M
60 46 V
5005 657 M
59 46 V
1465 3996 M
59 46 V
2245 1843 M
60 46 V
2003 4241 M
60 46 V
871 -859 R
59 46 V
4185 1508 M
60 46 V
3173 4373 M
60 46 V
6541 458 M
60 46 V
2602 3258 M
60 46 V
2034 1182 M
60 45 V
3455 475 R
60 45 V
3126 2332 M
60 46 V
1560 497 M
59 46 V
6735 3923 M
59 46 V
5815 1204 M
60 45 V
549 97 R
60 46 V
5 3260 R
60 46 V
2693 3442 M
60 46 V
2131 1310 M
60 46 V
1443 759 R
60 46 V
-99 486 R
59 46 V
-80 1881 R
60 46 V
434 -865 R
60 46 V
2052 883 R
60 46 V
5638 3346 M
60 46 V
5566 4560 M
60 46 V
-255 112 R
60 46 V
4048 3748 M
60 46 V
2365 880 M
60 46 V
6255 4399 M
60 46 V
3493 3699 M
60 46 V
4929 3163 M
60 46 V
969 1024 M
60 46 V
3643 645 M
60 46 V
1695 4110 M
60 46 V
5037 2226 M
60 46 V
980 2748 M
60 46 V
stroke 1040 2794 M
4300 570 M
60 46 V
5654 1973 M
59 46 V
1074 1777 M
59 46 V
242 1431 R
59 46 V
1063 809 R
60 46 V
2192 1325 M
59 46 V
6645 585 M
60 46 V
6500 3599 M
60 46 V
3869 604 M
59 46 V
2746 1498 M
60 46 V
4436 3479 M
60 46 V
808 417 R
60 46 V
1962 2071 M
60 46 V
3848 585 M
60 46 V
6825 4693 M
60 46 V
1544 2626 M
60 46 V
4239 515 R
60 46 V
5253 1343 M
60 46 V
4705 2396 M
60 46 V
811 728 R
60 46 V
4463 2993 M
60 46 V
3398 387 M
60 46 V
3174 1474 M
60 46 V
5367 980 M
60 46 V
3328 3009 M
60 46 V
2243 1563 M
59 46 V
-92 2448 R
60 46 V
6640 3539 M
60 46 V
4846 4351 M
60 46 V
2696 1575 M
60 45 V
5249 2849 M
60 46 V
4741 2298 M
59 45 V
4215 1835 M
60 46 V
3291 1509 M
60 46 V
5669 4670 M
60 46 V
1391 3584 M
59 46 V
1038 2486 M
60 46 V
2390 741 R
59 46 V
3145 2216 M
60 46 V
1035 856 M
60 46 V
722 3684 R
59 46 V
1710 711 M
59 46 V
291 2287 R
60 46 V
5065 1439 M
59 45 V
843 1023 R
60 46 V
1347 3769 M
60 46 V
6143 1400 M
59 46 V
4556 3763 M
60 46 V
4839 2622 M
60 45 V
6172 1765 M
60 46 V
4390 2426 M
60 46 V
2679 479 M
60 46 V
stroke 2739 525 M
6044 873 M
60 46 V
2887 4726 M
60 46 V
3639 -77 R
59 46 V
6427 3800 M
60 46 V
-4587 32 R
60 46 V
2627 2658 M
60 46 V
6342 1227 M
60 46 V
-135 -53 R
60 46 V
1308 314 M
60 46 V
5388 3585 M
60 46 V
1295 1880 M
60 46 V
6108 1297 M
60 46 V
2591 3858 M
60 46 V
387 -466 R
60 46 V
5463 3093 M
59 46 V
-660 663 R
60 46 V
2012 2864 M
60 46 V
4665 2355 M
60 46 V
1054 495 M
60 46 V
6518 1588 M
60 45 V
3655 3795 M
60 46 V
2063 1249 M
60 46 V
1511 3743 M
59 46 V
6544 3685 M
60 46 V
1223 2717 M
60 46 V
2321 4162 M
60 46 V
6336 2210 M
60 46 V
2540 1836 M
59 46 V
1450 2287 M
59 46 V
-160 305 R
60 46 V
6476 3697 M
60 46 V
4002 3406 M
60 46 V
1523 556 M
60 45 V
3029 4244 M
60 46 V
5379 764 M
60 46 V
4728 2651 M
60 46 V
1054 938 M
59 45 V
2325 790 R
59 46 V
3805 861 M
60 46 V
3075 2542 M
60 46 V
2487 488 M
60 46 V
1028 4582 M
60 46 V
2908 4355 M
60 46 V
1189 4638 M
60 46 V
3792 1343 M
59 46 V
5620 2730 M
60 46 V
1101 1963 M
60 46 V
5531 1789 M
59 46 V
2152 2588 M
60 46 V
3728 2231 M
60 45 V
-1 -1089 R
60 46 V
6043 3731 M
60 46 V
stroke 6103 3777 M
6370 1760 M
60 46 V
6265 1608 M
60 45 V
6684 989 M
60 45 V
5816 424 M
60 46 V
691 2549 R
60 46 V
2265 1941 M
59 46 V
6078 3290 M
60 46 V
1467 4234 M
60 46 V
3730 179 R
60 46 V
4133 880 M
60 46 V
1721 3679 M
59 46 V
-641 51 R
60 46 V
5476 1748 M
60 46 V
382 1130 R
60 46 V
4039 2634 M
60 46 V
3993 4227 M
60 46 V
1747 4094 M
60 46 V
3235 456 M
60 46 V
1002 1911 M
60 46 V
3707 519 R
60 45 V
-35 1943 R
60 46 V
1673 862 M
60 46 V
5460 566 M
60 46 V
1057 3339 M
60 46 V
4789 4476 M
59 46 V
2771 2117 M
60 46 V
4582 3491 M
60 46 V
4476 1386 M
60 46 V
3445 2430 M
60 46 V
2768 362 M
59 46 V
3509 76 R
60 46 V
4798 1062 M
60 46 V
2776 3816 M
59 46 V
4643 1377 M
59 46 V
2204 4225 M
60 46 V
5049 1747 M
60 46 V
4799 718 M
60 46 V
2428 973 M
60 46 V
729 1265 R
60 46 V
123 -280 R
60 46 V
1091 427 R
60 45 V
2052 1623 M
60 45 V
233 -222 R
60 46 V
5631 456 M
60 46 V
682 884 R
60 46 V
2543 2146 M
60 46 V
1570 1109 M
60 45 V
403 1304 R
59 46 V
917 840 R
60 46 V
1947 3568 M
60 45 V
5054 4665 M
60 45 V
5946 2666 M
60 46 V
stroke 6006 2712 M
2488 3879 M
60 45 V
5172 591 M
60 46 V
1332 4184 M
60 46 V
4465 504 R
60 46 V
1611 4357 M
60 46 V
6353 2946 M
60 46 V
5595 4026 M
60 46 V
6089 355 M
60 46 V
2035 3870 M
60 46 V
4428 417 M
60 46 V
112 862 R
59 46 V
2373 1475 M
59 46 V
4710 2912 M
60 46 V
230 -499 R
60 46 V
3282 1148 M
60 46 V
1829 709 M
60 45 V
6799 2200 M
60 45 V
4656 4175 M
59 46 V
6599 3969 M
60 46 V
3089 1757 M
60 46 V
3584 288 M
60 46 V
256 2491 R
60 45 V
3119 4453 M
60 46 V
5850 2406 M
59 46 V
-3356 -9 R
59 46 V
4968 1997 M
59 46 V
6701 1547 M
59 46 V
2790 2956 M
60 46 V
960 1612 R
60 46 V
3434 2204 M
60 46 V
2154 854 M
60 45 V
920 2802 R
60 46 V
5203 1930 M
60 46 V
302 240 R
60 46 V
1433 1754 M
60 46 V
5278 1670 M
60 45 V
4973 4139 M
60 46 V
3179 397 M
60 46 V
1051 1038 M
60 46 V
1779 724 R
60 46 V
3636 754 M
59 46 V
1197 877 R
60 46 V
2577 1108 M
59 46 V
2976 626 M
60 46 V
461 3117 R
60 46 V
5995 3008 M
60 46 V
294 1496 R
59 46 V
3215 3520 M
60 46 V
-2168 60 R
60 46 V
2875 917 M
60 46 V
260 522 R
59 46 V
5634 422 M
60 46 V
stroke 5694 468 M
2041 4702 M
60 46 V
6695 1660 M
60 46 V
1630 1238 M
60 46 V
3002 3240 M
60 46 V
2666 -79 R
60 46 V
933 440 R
59 46 V
6122 846 M
59 46 V
5205 3956 M
60 46 V
3528 2374 M
60 46 V
1636 1928 M
60 46 V
3751 665 M
60 46 V
5155 2603 M
60 46 V
4722 756 M
60 46 V
4115 3760 M
60 46 V
2589 4398 M
59 46 V
4546 1153 M
59 46 V
296 -6 R
59 46 V
1407 2897 M
60 46 V
3816 1328 M
60 46 V
290 2101 R
60 46 V
995 3755 M
60 46 V
5513 591 M
60 46 V
1618 1746 M
60 46 V
545 663 R
60 46 V
4003 703 M
60 46 V
1194 2535 M
59 46 V
4167 2461 M
59 46 V
2742 1939 M
60 46 V
1151 2820 M
60 46 V
4542 2284 M
60 46 V
179 1605 R
60 46 V
1478 1747 M
60 46 V
1035 1130 M
60 46 V
2873 3726 M
59 46 V
2707 1315 M
60 46 V
5178 1171 M
59 46 V
1886 594 M
60 46 V
3028 3383 M
59 46 V
3601 1212 M
60 46 V
488 2168 R
60 46 V
6316 1522 M
59 46 V
3799 476 M
60 45 V
2837 3040 M
60 46 V
970 -941 R
59 46 V
1227 821 R
59 46 V
-554 780 R
60 46 V
6429 3516 M
60 46 V
6305 660 M
60 46 V
302 944 R
60 46 V
1002 4293 M
60 46 V
6778 3712 M
60 46 V
6728 2808 M
60 46 V
stroke 6788 2854 M
6542 4546 M
60 46 V
3642 3886 M
60 46 V
1451 3364 M
59 46 V
4720 420 R
60 46 V
6455 2328 M
60 46 V
4661 1298 M
60 46 V
975 948 R
60 46 V
-4390 72 R
60 46 V
3011 116 R
60 46 V
6039 417 M
60 46 V
2586 2622 M
60 46 V
4849 967 M
60 46 V
1859 2469 M
59 46 V
-63 2221 R
60 46 V
2563 1591 M
60 46 V
2121 3720 M
59 46 V
-509 831 R
60 46 V
2837 1219 M
60 46 V
646 -4 R
60 46 V
1663 983 M
60 46 V
2338 664 R
60 46 V
2706 3673 M
60 45 V
1268 3306 M
59 46 V
354 1248 R
60 46 V
5037 2449 M
60 46 V
2078 1264 M
60 46 V
5532 3072 M
60 46 V
-2265 92 R
60 46 V
2060 654 R
60 45 V
3276 328 M
60 46 V
287 3150 R
59 46 V
4895 534 M
59 46 V
1813 553 M
60 46 V
4418 2715 M
60 46 V
6073 1026 M
60 46 V
1086 344 M
59 46 V
-60 2768 R
60 46 V
3328 4509 M
60 46 V
2630 721 M
59 46 V
123 1246 R
60 46 V
22 116 R
60 46 V
1123 3982 M
60 46 V
6500 1581 M
60 46 V
3834 2986 M
60 46 V
2215 2571 M
60 45 V
4024 880 M
60 46 V
1272 2749 M
60 46 V
5169 1736 M
60 46 V
667 836 R
60 46 V
3513 3142 M
60 46 V
2080 744 M
59 46 V
903 1653 R
59 45 V
stroke 3101 2488 M
3142 922 M
60 46 V
2479 326 M
60 46 V
584 1742 R
60 46 V
-17 1434 R
60 46 V
5068 1011 M
60 46 V
1450 1250 M
60 46 V
4705 189 R
60 46 V
3411 1366 M
60 45 V
2119 4130 M
59 46 V
3808 1216 M
60 46 V
5922 2722 M
60 46 V
323 544 R
60 46 V
2691 2115 M
60 45 V
-638 -98 R
60 46 V
1689 19 R
60 46 V
2207 1623 M
60 46 V
1348 1128 M
59 46 V
4407 3951 M
60 46 V
3902 2801 M
60 46 V
3554 380 M
60 46 V
1107 697 R
60 46 V
1659 2935 M
60 46 V
2408 648 R
60 45 V
4823 1292 M
60 46 V
3527 4030 M
60 46 V
4360 2287 M
60 46 V
842 -612 R
60 46 V
2277 4387 M
60 46 V
3428 2065 M
60 46 V
419 -909 R
60 46 V
1011 1948 M
60 46 V
4836 3793 M
60 46 V
1476 1083 M
60 45 V
1124 1015 M
60 46 V
6695 4054 M
60 46 V
1579 1664 M
59 46 V
-364 535 R
60 46 V
3367 820 M
60 46 V
4695 3711 M
60 46 V
784 -484 R
60 45 V
77 -838 R
60 46 V
6393 1248 M
59 46 V
3141 2397 M
60 46 V
6004 3649 M
59 46 V
2049 2767 M
60 46 V
6499 2304 M
60 45 V
1280 4636 M
60 46 V
1614 2189 M
60 46 V
2450 993 M
59 46 V
2240 710 M
60 46 V
985 585 R
60 46 V
573 3249 R
60 46 V
stroke 3978 4682 M
4099 2714 M
60 46 V
5896 2179 M
59 46 V
3436 3649 M
60 46 V
5304 2805 M
60 46 V
3140 4457 M
60 46 V
2642 3318 M
60 46 V
3938 2558 M
60 46 V
2635 4472 M
60 46 V
2902 1076 M
59 46 V
337 381 R
60 46 V
1562 3831 M
60 46 V
3935 517 M
59 46 V
5274 4242 M
59 45 V
3981 4090 M
60 46 V
5285 2934 M
60 46 V
216 1182 R
59 46 V
3701 3851 M
60 46 V
2192 927 M
59 46 V
3358 4451 M
60 46 V
1375 3308 M
60 46 V
2641 480 M
60 46 V
1098 765 M
60 46 V
688 2556 R
60 46 V
4837 2200 M
59 46 V
2102 3882 M
60 46 V
1623 457 M
60 46 V
6480 4479 M
60 46 V
2019 1057 M
60 46 V
1667 4371 M
59 46 V
1732 69 R
60 46 V
4485 2257 M
60 46 V
4582 755 M
60 46 V
5844 3810 M
60 46 V
-734 666 R
60 46 V
4486 4398 M
60 46 V
5362 3186 M
60 46 V
1885 4621 M
60 46 V
4499 2631 M
60 46 V
4196 1508 M
60 46 V
2530 3433 M
60 46 V
2229 165 R
60 46 V
1800 1228 M
59 46 V
1183 272 R
60 46 V
3582 746 R
59 46 V
4675 2160 M
60 46 V
3116 1396 M
60 46 V
2182 3616 M
60 45 V
1848 336 M
60 46 V
3093 3630 M
60 46 V
666 -113 R
59 46 V
6765 2989 M
60 45 V
6321 4159 M
59 46 V
stroke 6380 4205 M
1651 2352 M
60 46 V
4315 481 R
60 46 V
-283 509 R
60 46 V
-3248 18 R
60 46 V
949 -878 R
60 46 V
5783 4732 M
59 46 V
1705 3884 M
60 46 V
6074 3733 M
60 46 V
1870 2788 M
60 46 V
231 -480 R
60 45 V
5192 1522 M
60 46 V
1544 2137 M
60 46 V
851 -876 R
60 46 V
1683 3730 M
60 46 V
2812 1505 M
60 46 V
-535 581 R
60 46 V
3790 3497 M
60 46 V
4339 772 M
60 46 V
1393 3898 M
60 46 V
1549 801 M
60 46 V
5342 4026 M
60 46 V
2800 4535 M
60 46 V
2244 -95 R
60 46 V
2439 2148 M
60 45 V
2551 911 M
60 46 V
416 2438 R
59 46 V
516 1 R
60 46 V
-221 566 R
60 46 V
2322 201 R
60 46 V
3778 3472 M
60 46 V
6595 597 M
60 46 V
5747 961 M
59 46 V
1637 2992 M
60 46 V
1621 140 R
60 46 V
4730 1523 M
60 46 V
2939 1264 M
59 46 V
2873 662 M
60 46 V
5568 3274 M
60 46 V
1984 2931 M
60 46 V
5827 497 M
60 46 V
3729 3541 M
60 46 V
1203 1368 M
59 46 V
4897 508 R
59 45 V
1629 3461 M
59 46 V
1356 289 M
59 46 V
3308 454 M
60 46 V
5571 1871 M
60 46 V
1457 3124 M
60 46 V
6765 4270 M
60 46 V
2759 1197 M
59 46 V
2456 2610 M
60 46 V
4263 780 M
60 46 V
stroke 4323 826 M
6570 2027 M
60 46 V
3261 867 M
60 46 V
-130 386 R
60 46 V
6640 1180 M
60 46 V
3425 4248 M
59 46 V
3827 637 M
60 46 V
5532 4167 M
60 46 V
-47 -941 R
59 46 V
5294 313 M
60 46 V
4578 2893 M
60 46 V
4943 1931 M
59 46 V
2945 3666 M
60 46 V
-397 808 R
59 46 V
3319 3024 M
59 46 V
5190 2660 M
60 46 V
3013 385 M
60 46 V
1427 4154 M
59 46 V
3779 3136 M
60 46 V
785 -290 R
59 46 V
988 2447 M
60 46 V
10 -300 R
59 46 V
2966 3822 M
60 46 V
6353 3386 M
60 46 V
1632 3210 M
59 46 V
4992 3022 M
60 46 V
4291 2505 M
60 46 V
1353 3613 M
60 46 V
2272 787 M
60 46 V
6362 2892 M
60 46 V
1938 2655 M
60 46 V
5948 2005 M
59 46 V
6524 446 M
60 46 V
4331 1684 M
60 46 V
5871 1176 M
60 46 V
371 2417 R
60 46 V
4551 763 M
60 46 V
4391 4430 M
59 46 V
2109 1254 M
59 46 V
618 3409 R
60 46 V
4824 2115 M
60 46 V
6778 4322 M
60 46 V
2548 3389 M
60 46 V
941 169 R
60 46 V
765 1087 R
59 46 V
3607 2681 M
59 45 V
2470 788 M
60 46 V
683 1348 R
60 46 V
1772 794 R
60 46 V
3615 836 M
60 46 V
1 747 R
60 46 V
5857 3458 M
60 46 V
2508 3959 M
60 46 V
stroke 2568 4005 M
3556 326 R
60 46 V
2633 3521 M
59 45 V
-202 868 R
60 46 V
3207 413 M
60 46 V
4718 626 M
60 46 V
69 2269 R
60 46 V
5438 1723 M
60 46 V
3311 4350 M
60 45 V
1131 4364 M
60 46 V
5363 2150 M
60 46 V
4940 4005 M
59 46 V
643 -530 R
60 46 V
2470 1139 M
60 46 V
-47 2612 R
60 46 V
5834 3148 M
60 46 V
5511 2809 M
60 46 V
1058 4751 M
60 46 V
6775 2121 M
59 46 V
2274 3139 M
60 46 V
5461 1710 M
60 46 V
4811 1430 M
60 46 V
2714 3917 M
60 46 V
326 454 R
60 46 V
813 -612 R
60 46 V
2645 2256 M
60 46 V
2065 124 R
60 46 V
6461 4510 M
60 46 V
2480 2346 M
60 46 V
701 211 R
60 46 V
4754 1813 M
60 46 V
1324 255 R
60 46 V
5392 826 M
60 46 V
691 3436 R
60 46 V
4885 2090 M
60 46 V
1890 4335 M
60 46 V
2114 171 R
59 46 V
2259 660 M
60 46 V
3389 520 M
60 45 V
5649 4432 M
60 46 V
3936 2314 M
60 46 V
2446 3713 M
59 46 V
6761 2831 M
60 46 V
1709 683 M
60 46 V
6368 2537 M
60 46 V
5556 1345 M
60 46 V
1402 843 M
60 46 V
4262 3043 M
60 46 V
401 385 R
59 46 V
6470 4547 M
60 46 V
3783 1262 M
59 46 V
1378 2836 M
60 46 V
2366 696 M
59 46 V
stroke 2425 742 M
1083 762 M
60 46 V
2349 2296 M
60 46 V
1946 2141 M
60 46 V
4265 3849 M
60 46 V
2495 539 R
60 46 V
4856 587 M
59 46 V
2139 2937 M
60 46 V
4108 519 R
60 46 V
4900 1500 M
60 46 V
-766 872 R
60 46 V
2167 432 M
60 45 V
1542 1680 M
60 46 V
3287 3007 M
60 46 V
1264 1105 M
59 46 V
3386 2538 M
60 46 V
3919 822 M
60 46 V
3204 4430 M
60 45 V
2590 74 R
60 46 V
2970 648 M
59 46 V
5070 2764 M
60 46 V
6523 2177 M
60 46 V
4275 351 M
60 45 V
160 1517 R
60 46 V
-52 809 R
60 46 V
4319 3955 M
60 46 V
1185 555 CircleF
1245 601 CircleF
6663 1615 CircleF
6723 1661 CircleF
5913 2508 CircleF
5973 2554 CircleF
4856 2880 CircleF
4916 2926 CircleF
3601 1248 CircleF
3661 1294 CircleF
3130 1156 CircleF
3190 1202 CircleF
1136 1911 CircleF
1196 1957 CircleF
6338 1469 CircleF
6398 1515 CircleF
1878 4295 CircleF
1937 4341 CircleF
4220 2548 CircleF
4279 2594 CircleF
1646 1840 CircleF
1706 1886 CircleF
1354 2930 CircleF
1414 2976 CircleF
6093 3192 CircleF
6153 3238 CircleF
5664 665 CircleF
5724 711 CircleF
3814 1304 CircleF
3874 1350 CircleF
6523 2948 CircleF
6583 2994 CircleF
5005 657 CircleF
5064 703 CircleF
1465 3996 CircleF
1524 4042 CircleF
2245 1843 CircleF
2305 1889 CircleF
2003 4241 CircleF
2063 4287 CircleF
2934 3428 CircleF
2993 3474 CircleF
4185 1508 CircleF
4245 1554 CircleF
3173 4373 CircleF
3233 4419 CircleF
6541 458 CircleF
6601 504 CircleF
2602 3258 CircleF
2662 3304 CircleF
2034 1182 CircleF
2094 1227 CircleF
5549 1702 CircleF
5609 1747 CircleF
3126 2332 CircleF
3186 2378 CircleF
1560 497 CircleF
1619 543 CircleF
6735 3923 CircleF
6794 3969 CircleF
5815 1204 CircleF
5875 1249 CircleF
6424 1346 CircleF
6484 1392 CircleF
6489 4652 CircleF
6549 4698 CircleF
2693 3442 CircleF
2753 3488 CircleF
2131 1310 CircleF
2191 1356 CircleF
3634 2115 CircleF
3694 2161 CircleF
3595 2647 CircleF
3654 2693 CircleF
3574 4574 CircleF
3634 4620 CircleF
4068 3755 CircleF
4128 3801 CircleF
6180 4684 CircleF
6240 4730 CircleF
5638 3346 CircleF
5698 3392 CircleF
5566 4560 CircleF
5626 4606 CircleF
5371 4718 CircleF
5431 4764 CircleF
4048 3748 CircleF
4108 3794 CircleF
2365 880 CircleF
2425 926 CircleF
6255 4399 CircleF
6315 4445 CircleF
3493 3699 CircleF
3553 3745 CircleF
4929 3163 CircleF
4989 3209 CircleF
969 1024 CircleF
1029 1070 CircleF
3643 645 CircleF
3703 691 CircleF
1695 4110 CircleF
1755 4156 CircleF
5037 2226 CircleF
5097 2272 CircleF
980 2748 CircleF
1040 2794 CircleF
4300 570 CircleF
4360 616 CircleF
5654 1973 CircleF
5713 2019 CircleF
1074 1777 CircleF
1133 1823 CircleF
1375 3254 CircleF
1434 3300 CircleF
2497 4109 CircleF
2557 4155 CircleF
2192 1325 CircleF
2251 1371 CircleF
6645 585 CircleF
6705 631 CircleF
6500 3599 CircleF
6560 3645 CircleF
3869 604 CircleF
3928 650 CircleF
2746 1498 CircleF
2806 1544 CircleF
4436 3479 CircleF
4496 3525 CircleF
5304 3942 CircleF
5364 3988 CircleF
1962 2071 CircleF
2022 2117 CircleF
3848 585 CircleF
3908 631 CircleF
6825 4693 CircleF
6885 4739 CircleF
1544 2626 CircleF
1604 2672 CircleF
5843 3187 CircleF
5903 3233 CircleF
5253 1343 CircleF
5313 1389 CircleF
4705 2396 CircleF
4765 2442 CircleF
5576 3170 CircleF
5636 3216 CircleF
4463 2993 CircleF
4523 3039 CircleF
3398 387 CircleF
3458 433 CircleF
3174 1474 CircleF
3234 1520 CircleF
5367 980 CircleF
5427 1026 CircleF
3328 3009 CircleF
3388 3055 CircleF
2243 1563 CircleF
2302 1609 CircleF
2210 4057 CircleF
2270 4103 CircleF
6640 3539 CircleF
6700 3585 CircleF
4846 4351 CircleF
4906 4397 CircleF
2696 1575 CircleF
2756 1620 CircleF
5249 2849 CircleF
5309 2895 CircleF
4741 2298 CircleF
4800 2343 CircleF
4215 1835 CircleF
4275 1881 CircleF
3291 1509 CircleF
3351 1555 CircleF
5669 4670 CircleF
5729 4716 CircleF
1391 3584 CircleF
1450 3630 CircleF
1038 2486 CircleF
1098 2532 CircleF
3488 3273 CircleF
3547 3319 CircleF
3145 2216 CircleF
3205 2262 CircleF
1035 856 CircleF
1095 902 CircleF
1817 4586 CircleF
1876 4632 CircleF
1710 711 CircleF
1769 757 CircleF
2060 3044 CircleF
2120 3090 CircleF
5065 1439 CircleF
5124 1484 CircleF
5967 2507 CircleF
6027 2553 CircleF
1347 3769 CircleF
1407 3815 CircleF
6143 1400 CircleF
6202 1446 CircleF
4556 3763 CircleF
4616 3809 CircleF
4839 2622 CircleF
4899 2667 CircleF
6172 1765 CircleF
6232 1811 CircleF
4390 2426 CircleF
4450 2472 CircleF
2679 479 CircleF
2739 525 CircleF
6044 873 CircleF
6104 919 CircleF
2887 4726 CircleF
2947 4772 CircleF
6586 4695 CircleF
6645 4741 CircleF
6427 3800 CircleF
6487 3846 CircleF
1900 3878 CircleF
1960 3924 CircleF
2627 2658 CircleF
2687 2704 CircleF
6342 1227 CircleF
6402 1273 CircleF
6267 1220 CircleF
6327 1266 CircleF
1308 314 CircleF
1368 360 CircleF
5388 3585 CircleF
5448 3631 CircleF
1295 1880 CircleF
1355 1926 CircleF
6108 1297 CircleF
6168 1343 CircleF
2591 3858 CircleF
2651 3904 CircleF
3038 3438 CircleF
3098 3484 CircleF
5463 3093 CircleF
5522 3139 CircleF
4862 3802 CircleF
4922 3848 CircleF
2012 2864 CircleF
2072 2910 CircleF
4665 2355 CircleF
4725 2401 CircleF
1054 495 CircleF
1114 541 CircleF
6518 1588 CircleF
6578 1633 CircleF
3655 3795 CircleF
3715 3841 CircleF
2063 1249 CircleF
2123 1295 CircleF
1511 3743 CircleF
1570 3789 CircleF
6544 3685 CircleF
6604 3731 CircleF
1223 2717 CircleF
1283 2763 CircleF
2321 4162 CircleF
2381 4208 CircleF
6336 2210 CircleF
6396 2256 CircleF
2540 1836 CircleF
2599 1882 CircleF
1450 2287 CircleF
1509 2333 CircleF
1349 2638 CircleF
1409 2684 CircleF
6476 3697 CircleF
6536 3743 CircleF
4002 3406 CircleF
4062 3452 CircleF
1523 556 CircleF
1583 601 CircleF
3029 4244 CircleF
3089 4290 CircleF
5379 764 CircleF
5439 810 CircleF
4728 2651 CircleF
4788 2697 CircleF
1054 938 CircleF
1113 983 CircleF
3438 1773 CircleF
3497 1819 CircleF
3805 861 CircleF
3865 907 CircleF
3075 2542 CircleF
3135 2588 CircleF
2487 488 CircleF
2547 534 CircleF
1028 4582 CircleF
1088 4628 CircleF
2908 4355 CircleF
2968 4401 CircleF
1189 4638 CircleF
1249 4684 CircleF
3792 1343 CircleF
3851 1389 CircleF
5620 2730 CircleF
5680 2776 CircleF
1101 1963 CircleF
1161 2009 CircleF
5531 1789 CircleF
5590 1835 CircleF
2152 2588 CircleF
2212 2634 CircleF
3728 2231 CircleF
3788 2276 CircleF
3787 1187 CircleF
3847 1233 CircleF
6043 3731 CircleF
6103 3777 CircleF
6370 1760 CircleF
6430 1806 CircleF
6265 1608 CircleF
6325 1653 CircleF
6684 989 CircleF
6744 1034 CircleF
5816 424 CircleF
5876 470 CircleF
6567 3019 CircleF
6627 3065 CircleF
2265 1941 CircleF
2324 1987 CircleF
6078 3290 CircleF
6138 3336 CircleF
1467 4234 CircleF
1527 4280 CircleF
5257 4459 CircleF
5317 4505 CircleF
4133 880 CircleF
4193 926 CircleF
1721 3679 CircleF
1780 3725 CircleF
1139 3776 CircleF
1199 3822 CircleF
5476 1748 CircleF
5536 1794 CircleF
5918 2924 CircleF
5978 2970 CircleF
4039 2634 CircleF
4099 2680 CircleF
3993 4227 CircleF
4053 4273 CircleF
1747 4094 CircleF
1807 4140 CircleF
3235 456 CircleF
3295 502 CircleF
1002 1911 CircleF
1062 1957 CircleF
4769 2476 CircleF
4829 2521 CircleF
4794 4464 CircleF
4854 4510 CircleF
1673 862 CircleF
1733 908 CircleF
5460 566 CircleF
5520 612 CircleF
1057 3339 CircleF
1117 3385 CircleF
4789 4476 CircleF
4848 4522 CircleF
2771 2117 CircleF
2831 2163 CircleF
4582 3491 CircleF
4642 3537 CircleF
4476 1386 CircleF
4536 1432 CircleF
3445 2430 CircleF
3505 2476 CircleF
2768 362 CircleF
2827 408 CircleF
6336 484 CircleF
6396 530 CircleF
4798 1062 CircleF
4858 1108 CircleF
2776 3816 CircleF
2835 3862 CircleF
4643 1377 CircleF
4702 1423 CircleF
2204 4225 CircleF
2264 4271 CircleF
5049 1747 CircleF
5109 1793 CircleF
4799 718 CircleF
4859 764 CircleF
2428 973 CircleF
2488 1019 CircleF
3217 2284 CircleF
3277 2330 CircleF
3400 2050 CircleF
3460 2096 CircleF
4551 2523 CircleF
4611 2568 CircleF
2052 1623 CircleF
2112 1668 CircleF
2345 1446 CircleF
2405 1492 CircleF
5631 456 CircleF
5691 502 CircleF
6373 1386 CircleF
6433 1432 CircleF
2543 2146 CircleF
2603 2192 CircleF
1570 1109 CircleF
1630 1154 CircleF
2033 2458 CircleF
2092 2504 CircleF
3009 3344 CircleF
3069 3390 CircleF
1947 3568 CircleF
2007 3613 CircleF
5054 4665 CircleF
5114 4710 CircleF
5946 2666 CircleF
6006 2712 CircleF
2488 3879 CircleF
2548 3924 CircleF
5172 591 CircleF
5232 637 CircleF
1332 4184 CircleF
1392 4230 CircleF
5857 4734 CircleF
5917 4780 CircleF
1611 4357 CircleF
1671 4403 CircleF
6353 2946 CircleF
6413 2992 CircleF
5595 4026 CircleF
5655 4072 CircleF
6089 355 CircleF
6149 401 CircleF
2035 3870 CircleF
2095 3916 CircleF
4428 417 CircleF
4488 463 CircleF
4600 1325 CircleF
4659 1371 CircleF
2373 1475 CircleF
2432 1521 CircleF
4710 2912 CircleF
4770 2958 CircleF
5000 2459 CircleF
5060 2505 CircleF
3282 1148 CircleF
3342 1194 CircleF
1829 709 CircleF
1889 754 CircleF
6799 2200 CircleF
6859 2245 CircleF
4656 4175 CircleF
4715 4221 CircleF
6599 3969 CircleF
6659 4015 CircleF
3089 1757 CircleF
3149 1803 CircleF
3584 288 CircleF
3644 334 CircleF
3900 2825 CircleF
3960 2870 CircleF
3119 4453 CircleF
3179 4499 CircleF
5850 2406 CircleF
5909 2452 CircleF
2553 2443 CircleF
2612 2489 CircleF
4968 1997 CircleF
5027 2043 CircleF
6701 1547 CircleF
6760 1593 CircleF
2790 2956 CircleF
2850 3002 CircleF
3810 4614 CircleF
3870 4660 CircleF
3434 2204 CircleF
3494 2250 CircleF
2154 854 CircleF
2214 899 CircleF
3134 3701 CircleF
3194 3747 CircleF
5203 1930 CircleF
5263 1976 CircleF
5565 2216 CircleF
5625 2262 CircleF
1433 1754 CircleF
1493 1800 CircleF
5278 1670 CircleF
5338 1715 CircleF
4973 4139 CircleF
5033 4185 CircleF
3179 397 CircleF
3239 443 CircleF
1051 1038 CircleF
1111 1084 CircleF
2890 1808 CircleF
2950 1854 CircleF
3636 754 CircleF
3695 800 CircleF
4892 1677 CircleF
4952 1723 CircleF
2577 1108 CircleF
2636 1154 CircleF
2976 626 CircleF
3036 672 CircleF
3497 3789 CircleF
3557 3835 CircleF
5995 3008 CircleF
6055 3054 CircleF
6349 4550 CircleF
6408 4596 CircleF
3215 3520 CircleF
3275 3566 CircleF
1107 3626 CircleF
1167 3672 CircleF
2875 917 CircleF
2935 963 CircleF
3195 1485 CircleF
3254 1531 CircleF
5634 422 CircleF
5694 468 CircleF
2041 4702 CircleF
2101 4748 CircleF
6695 1660 CircleF
6755 1706 CircleF
1630 1238 CircleF
1690 1284 CircleF
3002 3240 CircleF
3062 3286 CircleF
5728 3207 CircleF
5788 3253 CircleF
6721 3693 CircleF
6780 3739 CircleF
6122 846 CircleF
6181 892 CircleF
5205 3956 CircleF
5265 4002 CircleF
3528 2374 CircleF
3588 2420 CircleF
1636 1928 CircleF
1696 1974 CircleF
3751 665 CircleF
3811 711 CircleF
5155 2603 CircleF
5215 2649 CircleF
4722 756 CircleF
4782 802 CircleF
4115 3760 CircleF
4175 3806 CircleF
2589 4398 CircleF
2648 4444 CircleF
4546 1153 CircleF
4605 1199 CircleF
4901 1193 CircleF
4960 1239 CircleF
1407 2897 CircleF
1467 2943 CircleF
3816 1328 CircleF
3876 1374 CircleF
4166 3475 CircleF
4226 3521 CircleF
995 3755 CircleF
1055 3801 CircleF
5513 591 CircleF
5573 637 CircleF
1618 1746 CircleF
1678 1792 CircleF
2223 2455 CircleF
2283 2501 CircleF
4003 703 CircleF
4063 749 CircleF
1194 2535 CircleF
1253 2581 CircleF
4167 2461 CircleF
4226 2507 CircleF
2742 1939 CircleF
2802 1985 CircleF
1151 2820 CircleF
1211 2866 CircleF
4542 2284 CircleF
4602 2330 CircleF
4781 3935 CircleF
4841 3981 CircleF
1478 1747 CircleF
1538 1793 CircleF
1035 1130 CircleF
1095 1176 CircleF
2873 3726 CircleF
2932 3772 CircleF
2707 1315 CircleF
2767 1361 CircleF
5178 1171 CircleF
5237 1217 CircleF
1886 594 CircleF
1946 640 CircleF
3028 3383 CircleF
3087 3429 CircleF
3601 1212 CircleF
3661 1258 CircleF
4149 3426 CircleF
4209 3472 CircleF
6316 1522 CircleF
6375 1568 CircleF
3799 476 CircleF
3859 521 CircleF
2837 3040 CircleF
2897 3086 CircleF
3867 2145 CircleF
3926 2191 CircleF
5153 3012 CircleF
5212 3058 CircleF
4658 3838 CircleF
4718 3884 CircleF
6429 3516 CircleF
6489 3562 CircleF
6305 660 CircleF
6365 706 CircleF
6667 1650 CircleF
6727 1696 CircleF
1002 4293 CircleF
1062 4339 CircleF
6778 3712 CircleF
6838 3758 CircleF
6728 2808 CircleF
6788 2854 CircleF
6542 4546 CircleF
6602 4592 CircleF
3642 3886 CircleF
3702 3932 CircleF
1451 3364 CircleF
1510 3410 CircleF
6230 3830 CircleF
6290 3876 CircleF
6455 2328 CircleF
6515 2374 CircleF
4661 1298 CircleF
4721 1344 CircleF
5696 2292 CircleF
5756 2338 CircleF
1366 2410 CircleF
1426 2456 CircleF
4437 2572 CircleF
4497 2618 CircleF
6039 417 CircleF
6099 463 CircleF
2586 2622 CircleF
2646 2668 CircleF
4849 967 CircleF
4909 1013 CircleF
1859 2469 CircleF
1918 2515 CircleF
1855 4736 CircleF
1915 4782 CircleF
2563 1591 CircleF
2623 1637 CircleF
2121 3720 CircleF
2180 3766 CircleF
1671 4597 CircleF
1731 4643 CircleF
2837 1219 CircleF
2897 1265 CircleF
3543 1261 CircleF
3603 1307 CircleF
1663 983 CircleF
1723 1029 CircleF
4061 1693 CircleF
4121 1739 CircleF
2706 3673 CircleF
2766 3718 CircleF
1268 3306 CircleF
1327 3352 CircleF
1681 4600 CircleF
1741 4646 CircleF
5037 2449 CircleF
5097 2495 CircleF
2078 1264 CircleF
2138 1310 CircleF
5532 3072 CircleF
5592 3118 CircleF
3327 3210 CircleF
3387 3256 CircleF
5447 3910 CircleF
5507 3955 CircleF
3276 328 CircleF
3336 374 CircleF
3623 3524 CircleF
3682 3570 CircleF
4895 534 CircleF
4954 580 CircleF
1813 553 CircleF
1873 599 CircleF
4418 2715 CircleF
4478 2761 CircleF
6073 1026 CircleF
6133 1072 CircleF
1086 344 CircleF
1145 390 CircleF
1085 3158 CircleF
1145 3204 CircleF
3328 4509 CircleF
3388 4555 CircleF
2630 721 CircleF
2689 767 CircleF
2812 2013 CircleF
2872 2059 CircleF
2894 2175 CircleF
2954 2221 CircleF
1123 3982 CircleF
1183 4028 CircleF
6500 1581 CircleF
6560 1627 CircleF
3834 2986 CircleF
3894 3032 CircleF
2215 2571 CircleF
2275 2616 CircleF
4024 880 CircleF
4084 926 CircleF
1272 2749 CircleF
1332 2795 CircleF
5169 1736 CircleF
5229 1782 CircleF
5896 2618 CircleF
5956 2664 CircleF
3513 3142 CircleF
3573 3188 CircleF
2080 744 CircleF
2139 790 CircleF
3042 2443 CircleF
3101 2488 CircleF
3142 922 CircleF
3202 968 CircleF
2479 326 CircleF
2539 372 CircleF
3123 2114 CircleF
3183 2160 CircleF
3166 3594 CircleF
3226 3640 CircleF
5068 1011 CircleF
5128 1057 CircleF
1450 1250 CircleF
1510 1296 CircleF
6215 1485 CircleF
6275 1531 CircleF
3411 1366 CircleF
3471 1411 CircleF
2119 4130 CircleF
2178 4176 CircleF
3808 1216 CircleF
3868 1262 CircleF
5922 2722 CircleF
5982 2768 CircleF
6305 3312 CircleF
6365 3358 CircleF
2691 2115 CircleF
2751 2160 CircleF
2113 2062 CircleF
2173 2108 CircleF
3862 2127 CircleF
3922 2173 CircleF
2207 1623 CircleF
2267 1669 CircleF
1348 1128 CircleF
1407 1174 CircleF
4407 3951 CircleF
4467 3997 CircleF
3902 2801 CircleF
3962 2847 CircleF
3554 380 CircleF
3614 426 CircleF
4721 1123 CircleF
4781 1169 CircleF
1659 2935 CircleF
1719 2981 CircleF
4127 3629 CircleF
4187 3674 CircleF
4823 1292 CircleF
4883 1338 CircleF
3527 4030 CircleF
3587 4076 CircleF
4360 2287 CircleF
4420 2333 CircleF
5262 1721 CircleF
5322 1767 CircleF
2277 4387 CircleF
2337 4433 CircleF
3428 2065 CircleF
3488 2111 CircleF
3907 1202 CircleF
3967 1248 CircleF
1011 1948 CircleF
1071 1994 CircleF
4836 3793 CircleF
4896 3839 CircleF
1476 1083 CircleF
1536 1128 CircleF
1124 1015 CircleF
1184 1061 CircleF
6695 4054 CircleF
6755 4100 CircleF
1579 1664 CircleF
1638 1710 CircleF
1274 2245 CircleF
1334 2291 CircleF
3367 820 CircleF
3427 866 CircleF
4695 3711 CircleF
4755 3757 CircleF
5539 3273 CircleF
5599 3318 CircleF
5676 2480 CircleF
5736 2526 CircleF
6393 1248 CircleF
6452 1294 CircleF
3141 2397 CircleF
3201 2443 CircleF
6004 3649 CircleF
6063 3695 CircleF
2049 2767 CircleF
2109 2813 CircleF
6499 2304 CircleF
6559 2349 CircleF
1280 4636 CircleF
1340 4682 CircleF
1614 2189 CircleF
1674 2235 CircleF
2450 993 CircleF
2509 1039 CircleF
2240 710 CircleF
2300 756 CircleF
3285 1341 CircleF
3345 1387 CircleF
3918 4636 CircleF
3978 4682 CircleF
4099 2714 CircleF
4159 2760 CircleF
5896 2179 CircleF
5955 2225 CircleF
3436 3649 CircleF
3496 3695 CircleF
5304 2805 CircleF
5364 2851 CircleF
3140 4457 CircleF
3200 4503 CircleF
2642 3318 CircleF
2702 3364 CircleF
3938 2558 CircleF
3998 2604 CircleF
2635 4472 CircleF
2695 4518 CircleF
2902 1076 CircleF
2961 1122 CircleF
3298 1503 CircleF
3358 1549 CircleF
1562 3831 CircleF
1622 3877 CircleF
3935 517 CircleF
3994 563 CircleF
5274 4242 CircleF
5333 4287 CircleF
3981 4090 CircleF
4041 4136 CircleF
5285 2934 CircleF
5345 2980 CircleF
5561 4162 CircleF
5620 4208 CircleF
3701 3851 CircleF
3761 3897 CircleF
2192 927 CircleF
2251 973 CircleF
3358 4451 CircleF
3418 4497 CircleF
1375 3308 CircleF
1435 3354 CircleF
2641 480 CircleF
2701 526 CircleF
1098 765 CircleF
1158 811 CircleF
1846 3367 CircleF
1906 3413 CircleF
4837 2200 CircleF
4896 2246 CircleF
2102 3882 CircleF
2162 3928 CircleF
1623 457 CircleF
1683 503 CircleF
6480 4479 CircleF
6540 4525 CircleF
2019 1057 CircleF
2079 1103 CircleF
1667 4371 CircleF
1726 4417 CircleF
3458 4486 CircleF
3518 4532 CircleF
4485 2257 CircleF
4545 2303 CircleF
4582 755 CircleF
4642 801 CircleF
5844 3810 CircleF
5904 3856 CircleF
5170 4522 CircleF
5230 4568 CircleF
4486 4398 CircleF
4546 4444 CircleF
5362 3186 CircleF
5422 3232 CircleF
1885 4621 CircleF
1945 4667 CircleF
4499 2631 CircleF
4559 2677 CircleF
4196 1508 CircleF
4256 1554 CircleF
2530 3433 CircleF
2590 3479 CircleF
4819 3644 CircleF
4879 3690 CircleF
1800 1228 CircleF
1859 1274 CircleF
3042 1546 CircleF
3102 1592 CircleF
6684 2338 CircleF
6743 2384 CircleF
4675 2160 CircleF
4735 2206 CircleF
3116 1396 CircleF
3176 1442 CircleF
2182 3616 CircleF
2242 3661 CircleF
1848 336 CircleF
1908 382 CircleF
3093 3630 CircleF
3153 3676 CircleF
3819 3563 CircleF
3878 3609 CircleF
6765 2989 CircleF
6825 3034 CircleF
6321 4159 CircleF
6380 4205 CircleF
1651 2352 CircleF
1711 2398 CircleF
6026 2879 CircleF
6086 2925 CircleF
5803 3434 CircleF
5863 3480 CircleF
2615 3498 CircleF
2675 3544 CircleF
3624 2666 CircleF
3684 2712 CircleF
5783 4732 CircleF
5842 4778 CircleF
1705 3884 CircleF
1765 3930 CircleF
6074 3733 CircleF
6134 3779 CircleF
1870 2788 CircleF
1930 2834 CircleF
2161 2354 CircleF
2221 2399 CircleF
5192 1522 CircleF
5252 1568 CircleF
1544 2137 CircleF
1604 2183 CircleF
2455 1307 CircleF
2515 1353 CircleF
1683 3730 CircleF
1743 3776 CircleF
2812 1505 CircleF
2872 1551 CircleF
2337 2132 CircleF
2397 2178 CircleF
3790 3497 CircleF
3850 3543 CircleF
4339 772 CircleF
4399 818 CircleF
1393 3898 CircleF
1453 3944 CircleF
1549 801 CircleF
1609 847 CircleF
5342 4026 CircleF
5402 4072 CircleF
2800 4535 CircleF
2860 4581 CircleF
5104 4486 CircleF
5164 4532 CircleF
2439 2148 CircleF
2499 2193 CircleF
2551 911 CircleF
2611 957 CircleF
3027 3395 CircleF
3086 3441 CircleF
3602 3442 CircleF
3662 3488 CircleF
3441 4054 CircleF
3501 4100 CircleF
5823 4301 CircleF
5883 4347 CircleF
3778 3472 CircleF
3838 3518 CircleF
6595 597 CircleF
6655 643 CircleF
5747 961 CircleF
5806 1007 CircleF
1637 2992 CircleF
1697 3038 CircleF
3318 3178 CircleF
3378 3224 CircleF
4730 1523 CircleF
4790 1569 CircleF
2939 1264 CircleF
2998 1310 CircleF
2873 662 CircleF
2933 708 CircleF
5568 3274 CircleF
5628 3320 CircleF
1984 2931 CircleF
2044 2977 CircleF
5827 497 CircleF
5887 543 CircleF
3729 3541 CircleF
3789 3587 CircleF
1203 1368 CircleF
1262 1414 CircleF
6159 1922 CircleF
6218 1967 CircleF
1629 3461 CircleF
1688 3507 CircleF
1356 289 CircleF
1415 335 CircleF
3308 454 CircleF
3368 500 CircleF
5571 1871 CircleF
5631 1917 CircleF
1457 3124 CircleF
1517 3170 CircleF
6765 4270 CircleF
6825 4316 CircleF
2759 1197 CircleF
2818 1243 CircleF
2456 2610 CircleF
2516 2656 CircleF
4263 780 CircleF
4323 826 CircleF
6570 2027 CircleF
6630 2073 CircleF
3261 867 CircleF
3321 913 CircleF
3191 1299 CircleF
3251 1345 CircleF
6640 1180 CircleF
6700 1226 CircleF
3425 4248 CircleF
3484 4294 CircleF
3827 637 CircleF
3887 683 CircleF
5532 4167 CircleF
5592 4213 CircleF
5545 3272 CircleF
5604 3318 CircleF
5294 313 CircleF
5354 359 CircleF
4578 2893 CircleF
4638 2939 CircleF
4943 1931 CircleF
5002 1977 CircleF
2945 3666 CircleF
3005 3712 CircleF
2608 4520 CircleF
2667 4566 CircleF
3319 3024 CircleF
3378 3070 CircleF
5190 2660 CircleF
5250 2706 CircleF
3013 385 CircleF
3073 431 CircleF
1427 4154 CircleF
1486 4200 CircleF
3779 3136 CircleF
3839 3182 CircleF
4624 2892 CircleF
4683 2938 CircleF
988 2447 CircleF
1048 2493 CircleF
1058 2193 CircleF
1117 2239 CircleF
2966 3822 CircleF
3026 3868 CircleF
6353 3386 CircleF
6413 3432 CircleF
1632 3210 CircleF
1691 3256 CircleF
4992 3022 CircleF
5052 3068 CircleF
4291 2505 CircleF
4351 2551 CircleF
1353 3613 CircleF
1413 3659 CircleF
2272 787 CircleF
2332 833 CircleF
6362 2892 CircleF
6422 2938 CircleF
1938 2655 CircleF
1998 2701 CircleF
5948 2005 CircleF
6007 2051 CircleF
6524 446 CircleF
6584 492 CircleF
4331 1684 CircleF
4391 1730 CircleF
5871 1176 CircleF
5931 1222 CircleF
6302 3639 CircleF
6362 3685 CircleF
4551 763 CircleF
4611 809 CircleF
4391 4430 CircleF
4450 4476 CircleF
2109 1254 CircleF
2168 1300 CircleF
2786 4709 CircleF
2846 4755 CircleF
4824 2115 CircleF
4884 2161 CircleF
6778 4322 CircleF
6838 4368 CircleF
2548 3389 CircleF
2608 3435 CircleF
3549 3604 CircleF
3609 3650 CircleF
4374 4737 CircleF
4433 4783 CircleF
3607 2681 CircleF
3666 2726 CircleF
2470 788 CircleF
2530 834 CircleF
3213 2182 CircleF
3273 2228 CircleF
5045 3022 CircleF
5105 3068 CircleF
3615 836 CircleF
3675 882 CircleF
3676 1629 CircleF
3736 1675 CircleF
5857 3458 CircleF
5917 3504 CircleF
2508 3959 CircleF
2568 4005 CircleF
6124 4331 CircleF
6184 4377 CircleF
2633 3521 CircleF
2692 3566 CircleF
2490 4434 CircleF
2550 4480 CircleF
3207 413 CircleF
3267 459 CircleF
4718 626 CircleF
4778 672 CircleF
4847 2941 CircleF
4907 2987 CircleF
5438 1723 CircleF
5498 1769 CircleF
3311 4350 CircleF
3371 4395 CircleF
1131 4364 CircleF
1191 4410 CircleF
5363 2150 CircleF
5423 2196 CircleF
4940 4005 CircleF
4999 4051 CircleF
5642 3521 CircleF
5702 3567 CircleF
2470 1139 CircleF
2530 1185 CircleF
2483 3797 CircleF
2543 3843 CircleF
5834 3148 CircleF
5894 3194 CircleF
5511 2809 CircleF
5571 2855 CircleF
1058 4751 CircleF
1118 4797 CircleF
6775 2121 CircleF
6834 2167 CircleF
2274 3139 CircleF
2334 3185 CircleF
5461 1710 CircleF
5521 1756 CircleF
4811 1430 CircleF
4871 1476 CircleF
2714 3917 CircleF
2774 3963 CircleF
3100 4417 CircleF
3160 4463 CircleF
3973 3851 CircleF
4033 3897 CircleF
2645 2256 CircleF
2705 2302 CircleF
4770 2426 CircleF
4830 2472 CircleF
6461 4510 CircleF
6521 4556 CircleF
2480 2346 CircleF
2540 2392 CircleF
3241 2603 CircleF
3301 2649 CircleF
4754 1813 CircleF
4814 1859 CircleF
6138 2114 CircleF
6198 2160 CircleF
5392 826 CircleF
5452 872 CircleF
6143 4308 CircleF
6203 4354 CircleF
4885 2090 CircleF
4945 2136 CircleF
1890 4335 CircleF
1950 4381 CircleF
4064 4552 CircleF
4123 4598 CircleF
2259 660 CircleF
2319 706 CircleF
3389 520 CircleF
3449 565 CircleF
5649 4432 CircleF
5709 4478 CircleF
3936 2314 CircleF
3996 2360 CircleF
2446 3713 CircleF
2505 3759 CircleF
6761 2831 CircleF
6821 2877 CircleF
1709 683 CircleF
1769 729 CircleF
6368 2537 CircleF
6428 2583 CircleF
5556 1345 CircleF
5616 1391 CircleF
1402 843 CircleF
1462 889 CircleF
4262 3043 CircleF
4322 3089 CircleF
4723 3474 CircleF
4782 3520 CircleF
6470 4547 CircleF
6530 4593 CircleF
3783 1262 CircleF
3842 1308 CircleF
1378 2836 CircleF
1438 2882 CircleF
2366 696 CircleF
2425 742 CircleF
1083 762 CircleF
1143 808 CircleF
2349 2296 CircleF
2409 2342 CircleF
1946 2141 CircleF
2006 2187 CircleF
4265 3849 CircleF
4325 3895 CircleF
6820 4434 CircleF
6880 4480 CircleF
4856 587 CircleF
4915 633 CircleF
2139 2937 CircleF
2199 2983 CircleF
6307 3502 CircleF
6367 3548 CircleF
4900 1500 CircleF
4960 1546 CircleF
4194 2418 CircleF
4254 2464 CircleF
2167 432 CircleF
2227 477 CircleF
1542 1680 CircleF
1602 1726 CircleF
3287 3007 CircleF
3347 3053 CircleF
1264 1105 CircleF
1323 1151 CircleF
3386 2538 CircleF
3446 2584 CircleF
3919 822 CircleF
3979 868 CircleF
3204 4430 CircleF
3264 4475 CircleF
5854 4549 CircleF
5914 4595 CircleF
2970 648 CircleF
3029 694 CircleF
5070 2764 CircleF
5130 2810 CircleF
6523 2177 CircleF
6583 2223 CircleF
4275 351 CircleF
4335 396 CircleF
4495 1913 CircleF
4555 1959 CircleF
4503 2768 CircleF
4563 2814 CircleF
4319 3955 CircleF
4379 4001 CircleF
% End plot #2
1.000 UP
1.000 UL
LT0
0.50 0.50 0.50 C stroke
grestore
end
showpage
%%Trailer
%%DocumentFonts: Helvetica
%%Pages: 1
