%!PS-Adobe-2.0
%%Title: out.ps
%%Creator: gnuplot 4.6 patchlevel 6
%%CreationDate: Thu May 28 17:59:59 2015
%%DocumentFonts: (atend)
%%BoundingBox: 50 50 554 770
%%Orientation: Landscape
%%Pages: (atend)
%%EndComments
%%BeginProlog
/gnudict 256 dict def
gnudict begin
%
% The following true/false flags may be edited by hand if desired.
% The unit line width and grayscale image gamma correction may also be changed.
%
/Color false def
/Blacktext false def
/Solid false def
/Dashlength 1 def
/Landscape true def
/Level1 false def
/Rounded false def
/ClipToBoundingBox false def
/SuppressPDFMark false def
/TransparentPatterns false def
/gnulinewidth 5.000 def
/userlinewidth gnulinewidth def
/Gamma 1.0 def
/BackgroundColor {-1.000 -1.000 -1.000} def
%
/vshift -46 def
/dl1 {
  10.0 Dashlength mul mul
  Rounded { currentlinewidth 0.75 mul sub dup 0 le { pop 0.01 } if } if
} def
/dl2 {
  10.0 Dashlength mul mul
  Rounded { currentlinewidth 0.75 mul add } if
} def
/hpt_ 31.5 def
/vpt_ 31.5 def
/hpt hpt_ def
/vpt vpt_ def
/doclip {
  ClipToBoundingBox {
    newpath 50 50 moveto 554 50 lineto 554 770 lineto 50 770 lineto closepath
    clip
  } if
} def
%
% Gnuplot Prolog Version 4.6 (September 2012)
%
%/SuppressPDFMark true def
%
/M {moveto} bind def
/L {lineto} bind def
/R {rmoveto} bind def
/V {rlineto} bind def
/N {newpath moveto} bind def
/Z {closepath} bind def
/C {setrgbcolor} bind def
/f {rlineto fill} bind def
/g {setgray} bind def
/Gshow {show} def   % May be redefined later in the file to support UTF-8
/vpt2 vpt 2 mul def
/hpt2 hpt 2 mul def
/Lshow {currentpoint stroke M 0 vshift R 
	Blacktext {gsave 0 setgray show grestore} {show} ifelse} def
/Rshow {currentpoint stroke M dup stringwidth pop neg vshift R
	Blacktext {gsave 0 setgray show grestore} {show} ifelse} def
/Cshow {currentpoint stroke M dup stringwidth pop -2 div vshift R 
	Blacktext {gsave 0 setgray show grestore} {show} ifelse} def
/UP {dup vpt_ mul /vpt exch def hpt_ mul /hpt exch def
  /hpt2 hpt 2 mul def /vpt2 vpt 2 mul def} def
/DL {Color {setrgbcolor Solid {pop []} if 0 setdash}
 {pop pop pop 0 setgray Solid {pop []} if 0 setdash} ifelse} def
/BL {stroke userlinewidth 2 mul setlinewidth
	Rounded {1 setlinejoin 1 setlinecap} if} def
/AL {stroke userlinewidth 2 div setlinewidth
	Rounded {1 setlinejoin 1 setlinecap} if} def
/UL {dup gnulinewidth mul /userlinewidth exch def
	dup 1 lt {pop 1} if 10 mul /udl exch def} def
/PL {stroke userlinewidth setlinewidth
	Rounded {1 setlinejoin 1 setlinecap} if} def
3.8 setmiterlimit
% Default Line colors
/LCw {1 1 1} def
/LCb {0 0 0} def
/LCa {0 0 0} def
/LC0 {1 0 0} def
/LC1 {0 1 0} def
/LC2 {0 0 1} def
/LC3 {1 0 1} def
/LC4 {0 1 1} def
/LC5 {1 1 0} def
/LC6 {0 0 0} def
/LC7 {1 0.3 0} def
/LC8 {0.5 0.5 0.5} def
% Default Line Types
/LTw {PL [] 1 setgray} def
/LTb {BL [] LCb DL} def
/LTa {AL [1 udl mul 2 udl mul] 0 setdash LCa setrgbcolor} def
/LT0 {PL [] LC0 DL} def
/LT1 {PL [4 dl1 2 dl2] LC1 DL} def
/LT2 {PL [2 dl1 3 dl2] LC2 DL} def
/LT3 {PL [1 dl1 1.5 dl2] LC3 DL} def
/LT4 {PL [6 dl1 2 dl2 1 dl1 2 dl2] LC4 DL} def
/LT5 {PL [3 dl1 3 dl2 1 dl1 3 dl2] LC5 DL} def
/LT6 {PL [2 dl1 2 dl2 2 dl1 6 dl2] LC6 DL} def
/LT7 {PL [1 dl1 2 dl2 6 dl1 2 dl2 1 dl1 2 dl2] LC7 DL} def
/LT8 {PL [2 dl1 2 dl2 2 dl1 2 dl2 2 dl1 2 dl2 2 dl1 4 dl2] LC8 DL} def
/Pnt {stroke [] 0 setdash gsave 1 setlinecap M 0 0 V stroke grestore} def
/Dia {stroke [] 0 setdash 2 copy vpt add M
  hpt neg vpt neg V hpt vpt neg V
  hpt vpt V hpt neg vpt V closepath stroke
  Pnt} def
/Pls {stroke [] 0 setdash vpt sub M 0 vpt2 V
  currentpoint stroke M
  hpt neg vpt neg R hpt2 0 V stroke
 } def
/Box {stroke [] 0 setdash 2 copy exch hpt sub exch vpt add M
  0 vpt2 neg V hpt2 0 V 0 vpt2 V
  hpt2 neg 0 V closepath stroke
  Pnt} def
/Crs {stroke [] 0 setdash exch hpt sub exch vpt add M
  hpt2 vpt2 neg V currentpoint stroke M
  hpt2 neg 0 R hpt2 vpt2 V stroke} def
/TriU {stroke [] 0 setdash 2 copy vpt 1.12 mul add M
  hpt neg vpt -1.62 mul V
  hpt 2 mul 0 V
  hpt neg vpt 1.62 mul V closepath stroke
  Pnt} def
/Star {2 copy Pls Crs} def
/BoxF {stroke [] 0 setdash exch hpt sub exch vpt add M
  0 vpt2 neg V hpt2 0 V 0 vpt2 V
  hpt2 neg 0 V closepath fill} def
/TriUF {stroke [] 0 setdash vpt 1.12 mul add M
  hpt neg vpt -1.62 mul V
  hpt 2 mul 0 V
  hpt neg vpt 1.62 mul V closepath fill} def
/TriD {stroke [] 0 setdash 2 copy vpt 1.12 mul sub M
  hpt neg vpt 1.62 mul V
  hpt 2 mul 0 V
  hpt neg vpt -1.62 mul V closepath stroke
  Pnt} def
/TriDF {stroke [] 0 setdash vpt 1.12 mul sub M
  hpt neg vpt 1.62 mul V
  hpt 2 mul 0 V
  hpt neg vpt -1.62 mul V closepath fill} def
/DiaF {stroke [] 0 setdash vpt add M
  hpt neg vpt neg V hpt vpt neg V
  hpt vpt V hpt neg vpt V closepath fill} def
/Pent {stroke [] 0 setdash 2 copy gsave
  translate 0 hpt M 4 {72 rotate 0 hpt L} repeat
  closepath stroke grestore Pnt} def
/PentF {stroke [] 0 setdash gsave
  translate 0 hpt M 4 {72 rotate 0 hpt L} repeat
  closepath fill grestore} def
/Circle {stroke [] 0 setdash 2 copy
  hpt 0 360 arc stroke Pnt} def
/CircleF {stroke [] 0 setdash hpt 0 360 arc fill} def
/C0 {BL [] 0 setdash 2 copy moveto vpt 90 450 arc} bind def
/C1 {BL [] 0 setdash 2 copy moveto
	2 copy vpt 0 90 arc closepath fill
	vpt 0 360 arc closepath} bind def
/C2 {BL [] 0 setdash 2 copy moveto
	2 copy vpt 90 180 arc closepath fill
	vpt 0 360 arc closepath} bind def
/C3 {BL [] 0 setdash 2 copy moveto
	2 copy vpt 0 180 arc closepath fill
	vpt 0 360 arc closepath} bind def
/C4 {BL [] 0 setdash 2 copy moveto
	2 copy vpt 180 270 arc closepath fill
	vpt 0 360 arc closepath} bind def
/C5 {BL [] 0 setdash 2 copy moveto
	2 copy vpt 0 90 arc
	2 copy moveto
	2 copy vpt 180 270 arc closepath fill
	vpt 0 360 arc} bind def
/C6 {BL [] 0 setdash 2 copy moveto
	2 copy vpt 90 270 arc closepath fill
	vpt 0 360 arc closepath} bind def
/C7 {BL [] 0 setdash 2 copy moveto
	2 copy vpt 0 270 arc closepath fill
	vpt 0 360 arc closepath} bind def
/C8 {BL [] 0 setdash 2 copy moveto
	2 copy vpt 270 360 arc closepath fill
	vpt 0 360 arc closepath} bind def
/C9 {BL [] 0 setdash 2 copy moveto
	2 copy vpt 270 450 arc closepath fill
	vpt 0 360 arc closepath} bind def
/C10 {BL [] 0 setdash 2 copy 2 copy moveto vpt 270 360 arc closepath fill
	2 copy moveto
	2 copy vpt 90 180 arc closepath fill
	vpt 0 360 arc closepath} bind def
/C11 {BL [] 0 setdash 2 copy moveto
	2 copy vpt 0 180 arc closepath fill
	2 copy moveto
	2 copy vpt 270 360 arc closepath fill
	vpt 0 360 arc closepath} bind def
/C12 {BL [] 0 setdash 2 copy moveto
	2 copy vpt 180 360 arc closepath fill
	vpt 0 360 arc closepath} bind def
/C13 {BL [] 0 setdash 2 copy moveto
	2 copy vpt 0 90 arc closepath fill
	2 copy moveto
	2 copy vpt 180 360 arc closepath fill
	vpt 0 360 arc closepath} bind def
/C14 {BL [] 0 setdash 2 copy moveto
	2 copy vpt 90 360 arc closepath fill
	vpt 0 360 arc} bind def
/C15 {BL [] 0 setdash 2 copy vpt 0 360 arc closepath fill
	vpt 0 360 arc closepath} bind def
/Rec {newpath 4 2 roll moveto 1 index 0 rlineto 0 exch rlineto
	neg 0 rlineto closepath} bind def
/Square {dup Rec} bind def
/Bsquare {vpt sub exch vpt sub exch vpt2 Square} bind def
/S0 {BL [] 0 setdash 2 copy moveto 0 vpt rlineto BL Bsquare} bind def
/S1 {BL [] 0 setdash 2 copy vpt Square fill Bsquare} bind def
/S2 {BL [] 0 setdash 2 copy exch vpt sub exch vpt Square fill Bsquare} bind def
/S3 {BL [] 0 setdash 2 copy exch vpt sub exch vpt2 vpt Rec fill Bsquare} bind def
/S4 {BL [] 0 setdash 2 copy exch vpt sub exch vpt sub vpt Square fill Bsquare} bind def
/S5 {BL [] 0 setdash 2 copy 2 copy vpt Square fill
	exch vpt sub exch vpt sub vpt Square fill Bsquare} bind def
/S6 {BL [] 0 setdash 2 copy exch vpt sub exch vpt sub vpt vpt2 Rec fill Bsquare} bind def
/S7 {BL [] 0 setdash 2 copy exch vpt sub exch vpt sub vpt vpt2 Rec fill
	2 copy vpt Square fill Bsquare} bind def
/S8 {BL [] 0 setdash 2 copy vpt sub vpt Square fill Bsquare} bind def
/S9 {BL [] 0 setdash 2 copy vpt sub vpt vpt2 Rec fill Bsquare} bind def
/S10 {BL [] 0 setdash 2 copy vpt sub vpt Square fill 2 copy exch vpt sub exch vpt Square fill
	Bsquare} bind def
/S11 {BL [] 0 setdash 2 copy vpt sub vpt Square fill 2 copy exch vpt sub exch vpt2 vpt Rec fill
	Bsquare} bind def
/S12 {BL [] 0 setdash 2 copy exch vpt sub exch vpt sub vpt2 vpt Rec fill Bsquare} bind def
/S13 {BL [] 0 setdash 2 copy exch vpt sub exch vpt sub vpt2 vpt Rec fill
	2 copy vpt Square fill Bsquare} bind def
/S14 {BL [] 0 setdash 2 copy exch vpt sub exch vpt sub vpt2 vpt Rec fill
	2 copy exch vpt sub exch vpt Square fill Bsquare} bind def
/S15 {BL [] 0 setdash 2 copy Bsquare fill Bsquare} bind def
/D0 {gsave translate 45 rotate 0 0 S0 stroke grestore} bind def
/D1 {gsave translate 45 rotate 0 0 S1 stroke grestore} bind def
/D2 {gsave translate 45 rotate 0 0 S2 stroke grestore} bind def
/D3 {gsave translate 45 rotate 0 0 S3 stroke grestore} bind def
/D4 {gsave translate 45 rotate 0 0 S4 stroke grestore} bind def
/D5 {gsave translate 45 rotate 0 0 S5 stroke grestore} bind def
/D6 {gsave translate 45 rotate 0 0 S6 stroke grestore} bind def
/D7 {gsave translate 45 rotate 0 0 S7 stroke grestore} bind def
/D8 {gsave translate 45 rotate 0 0 S8 stroke grestore} bind def
/D9 {gsave translate 45 rotate 0 0 S9 stroke grestore} bind def
/D10 {gsave translate 45 rotate 0 0 S10 stroke grestore} bind def
/D11 {gsave translate 45 rotate 0 0 S11 stroke grestore} bind def
/D12 {gsave translate 45 rotate 0 0 S12 stroke grestore} bind def
/D13 {gsave translate 45 rotate 0 0 S13 stroke grestore} bind def
/D14 {gsave translate 45 rotate 0 0 S14 stroke grestore} bind def
/D15 {gsave translate 45 rotate 0 0 S15 stroke grestore} bind def
/DiaE {stroke [] 0 setdash vpt add M
  hpt neg vpt neg V hpt vpt neg V
  hpt vpt V hpt neg vpt V closepath stroke} def
/BoxE {stroke [] 0 setdash exch hpt sub exch vpt add M
  0 vpt2 neg V hpt2 0 V 0 vpt2 V
  hpt2 neg 0 V closepath stroke} def
/TriUE {stroke [] 0 setdash vpt 1.12 mul add M
  hpt neg vpt -1.62 mul V
  hpt 2 mul 0 V
  hpt neg vpt 1.62 mul V closepath stroke} def
/TriDE {stroke [] 0 setdash vpt 1.12 mul sub M
  hpt neg vpt 1.62 mul V
  hpt 2 mul 0 V
  hpt neg vpt -1.62 mul V closepath stroke} def
/PentE {stroke [] 0 setdash gsave
  translate 0 hpt M 4 {72 rotate 0 hpt L} repeat
  closepath stroke grestore} def
/CircE {stroke [] 0 setdash 
  hpt 0 360 arc stroke} def
/Opaque {gsave closepath 1 setgray fill grestore 0 setgray closepath} def
/DiaW {stroke [] 0 setdash vpt add M
  hpt neg vpt neg V hpt vpt neg V
  hpt vpt V hpt neg vpt V Opaque stroke} def
/BoxW {stroke [] 0 setdash exch hpt sub exch vpt add M
  0 vpt2 neg V hpt2 0 V 0 vpt2 V
  hpt2 neg 0 V Opaque stroke} def
/TriUW {stroke [] 0 setdash vpt 1.12 mul add M
  hpt neg vpt -1.62 mul V
  hpt 2 mul 0 V
  hpt neg vpt 1.62 mul V Opaque stroke} def
/TriDW {stroke [] 0 setdash vpt 1.12 mul sub M
  hpt neg vpt 1.62 mul V
  hpt 2 mul 0 V
  hpt neg vpt -1.62 mul V Opaque stroke} def
/PentW {stroke [] 0 setdash gsave
  translate 0 hpt M 4 {72 rotate 0 hpt L} repeat
  Opaque stroke grestore} def
/CircW {stroke [] 0 setdash 
  hpt 0 360 arc Opaque stroke} def
/BoxFill {gsave Rec 1 setgray fill grestore} def
/Density {
  /Fillden exch def
  currentrgbcolor
  /ColB exch def /ColG exch def /ColR exch def
  /ColR ColR Fillden mul Fillden sub 1 add def
  /ColG ColG Fillden mul Fillden sub 1 add def
  /ColB ColB Fillden mul Fillden sub 1 add def
  ColR ColG ColB setrgbcolor} def
/BoxColFill {gsave Rec PolyFill} def
/PolyFill {gsave Density fill grestore grestore} def
/h {rlineto rlineto rlineto gsave closepath fill grestore} bind def
%
% PostScript Level 1 Pattern Fill routine for rectangles
% Usage: x y w h s a XX PatternFill
%	x,y = lower left corner of box to be filled
%	w,h = width and height of box
%	  a = angle in degrees between lines and x-axis
%	 XX = 0/1 for no/yes cross-hatch
%
/PatternFill {gsave /PFa [ 9 2 roll ] def
  PFa 0 get PFa 2 get 2 div add PFa 1 get PFa 3 get 2 div add translate
  PFa 2 get -2 div PFa 3 get -2 div PFa 2 get PFa 3 get Rec
  TransparentPatterns {} {gsave 1 setgray fill grestore} ifelse
  clip
  currentlinewidth 0.5 mul setlinewidth
  /PFs PFa 2 get dup mul PFa 3 get dup mul add sqrt def
  0 0 M PFa 5 get rotate PFs -2 div dup translate
  0 1 PFs PFa 4 get div 1 add floor cvi
	{PFa 4 get mul 0 M 0 PFs V} for
  0 PFa 6 get ne {
	0 1 PFs PFa 4 get div 1 add floor cvi
	{PFa 4 get mul 0 2 1 roll M PFs 0 V} for
 } if
  stroke grestore} def
%
/languagelevel where
 {pop languagelevel} {1} ifelse
 2 lt
	{/InterpretLevel1 true def}
	{/InterpretLevel1 Level1 def}
 ifelse
%
% PostScript level 2 pattern fill definitions
%
/Level2PatternFill {
/Tile8x8 {/PaintType 2 /PatternType 1 /TilingType 1 /BBox [0 0 8 8] /XStep 8 /YStep 8}
	bind def
/KeepColor {currentrgbcolor [/Pattern /DeviceRGB] setcolorspace} bind def
<< Tile8x8
 /PaintProc {0.5 setlinewidth pop 0 0 M 8 8 L 0 8 M 8 0 L stroke} 
>> matrix makepattern
/Pat1 exch def
<< Tile8x8
 /PaintProc {0.5 setlinewidth pop 0 0 M 8 8 L 0 8 M 8 0 L stroke
	0 4 M 4 8 L 8 4 L 4 0 L 0 4 L stroke}
>> matrix makepattern
/Pat2 exch def
<< Tile8x8
 /PaintProc {0.5 setlinewidth pop 0 0 M 0 8 L
	8 8 L 8 0 L 0 0 L fill}
>> matrix makepattern
/Pat3 exch def
<< Tile8x8
 /PaintProc {0.5 setlinewidth pop -4 8 M 8 -4 L
	0 12 M 12 0 L stroke}
>> matrix makepattern
/Pat4 exch def
<< Tile8x8
 /PaintProc {0.5 setlinewidth pop -4 0 M 8 12 L
	0 -4 M 12 8 L stroke}
>> matrix makepattern
/Pat5 exch def
<< Tile8x8
 /PaintProc {0.5 setlinewidth pop -2 8 M 4 -4 L
	0 12 M 8 -4 L 4 12 M 10 0 L stroke}
>> matrix makepattern
/Pat6 exch def
<< Tile8x8
 /PaintProc {0.5 setlinewidth pop -2 0 M 4 12 L
	0 -4 M 8 12 L 4 -4 M 10 8 L stroke}
>> matrix makepattern
/Pat7 exch def
<< Tile8x8
 /PaintProc {0.5 setlinewidth pop 8 -2 M -4 4 L
	12 0 M -4 8 L 12 4 M 0 10 L stroke}
>> matrix makepattern
/Pat8 exch def
<< Tile8x8
 /PaintProc {0.5 setlinewidth pop 0 -2 M 12 4 L
	-4 0 M 12 8 L -4 4 M 8 10 L stroke}
>> matrix makepattern
/Pat9 exch def
/Pattern1 {PatternBgnd KeepColor Pat1 setpattern} bind def
/Pattern2 {PatternBgnd KeepColor Pat2 setpattern} bind def
/Pattern3 {PatternBgnd KeepColor Pat3 setpattern} bind def
/Pattern4 {PatternBgnd KeepColor Landscape {Pat5} {Pat4} ifelse setpattern} bind def
/Pattern5 {PatternBgnd KeepColor Landscape {Pat4} {Pat5} ifelse setpattern} bind def
/Pattern6 {PatternBgnd KeepColor Landscape {Pat9} {Pat6} ifelse setpattern} bind def
/Pattern7 {PatternBgnd KeepColor Landscape {Pat8} {Pat7} ifelse setpattern} bind def
} def
%
%
%End of PostScript Level 2 code
%
/PatternBgnd {
  TransparentPatterns {} {gsave 1 setgray fill grestore} ifelse
} def
%
% Substitute for Level 2 pattern fill codes with
% grayscale if Level 2 support is not selected.
%
/Level1PatternFill {
/Pattern1 {0.250 Density} bind def
/Pattern2 {0.500 Density} bind def
/Pattern3 {0.750 Density} bind def
/Pattern4 {0.125 Density} bind def
/Pattern5 {0.375 Density} bind def
/Pattern6 {0.625 Density} bind def
/Pattern7 {0.875 Density} bind def
} def
%
% Now test for support of Level 2 code
%
Level1 {Level1PatternFill} {Level2PatternFill} ifelse
%
/Symbol-Oblique /Symbol findfont [1 0 .167 1 0 0] makefont
dup length dict begin {1 index /FID eq {pop pop} {def} ifelse} forall
currentdict end definefont pop
Level1 SuppressPDFMark or 
{} {
/SDict 10 dict def
systemdict /pdfmark known not {
  userdict /pdfmark systemdict /cleartomark get put
} if
SDict begin [
  /Title (out.ps)
  /Subject (gnuplot plot)
  /Creator (gnuplot 4.6 patchlevel 6)
  /Author (yani)
%  /Producer (gnuplot)
%  /Keywords ()
  /CreationDate (Thu May 28 17:59:59 2015)
  /DOCINFO pdfmark
end
} ifelse
end
%%EndProlog
%%Page: 1 1
gnudict begin
gsave
doclip
50 50 translate
0.100 0.100 scale
90 rotate
0 -5040 translate
0 setgray
newpath
(Helvetica) findfont 140 scalefont setfont
BackgroundColor 0 lt 3 1 roll 0 lt exch 0 lt or or not {gsave BackgroundColor C clippath fill grestore} if
1.000 UL
LT0
0.50 0.50 0.50 C 1.000 UL
LTa
0.50 0.50 0.50 C 966 280 M
5981 0 V
stroke
LT0
0.50 0.50 0.50 C 966 280 M
63 0 V
5918 0 R
-63 0 V
882 280 M
( 0) Rshow
1.000 UL
LT0
0.50 0.50 0.50 C 1.000 UL
LTa
0.50 0.50 0.50 C 966 372 M
5981 0 V
stroke
LT0
0.50 0.50 0.50 C 966 372 M
63 0 V
5918 0 R
-63 0 V
882 372 M
( 0.707106) Rshow
1.000 UL
LT0
0.50 0.50 0.50 C 1.000 UL
LTa
0.50 0.50 0.50 C 966 464 M
5981 0 V
stroke
LT0
0.50 0.50 0.50 C 966 464 M
63 0 V
5918 0 R
-63 0 V
882 464 M
( 1.41421) Rshow
1.000 UL
LT0
0.50 0.50 0.50 C 1.000 UL
LTa
0.50 0.50 0.50 C 966 555 M
5981 0 V
stroke
LT0
0.50 0.50 0.50 C 966 555 M
63 0 V
5918 0 R
-63 0 V
882 555 M
( 2.12132) Rshow
1.000 UL
LT0
0.50 0.50 0.50 C 1.000 UL
LTa
0.50 0.50 0.50 C 966 647 M
5981 0 V
stroke
LT0
0.50 0.50 0.50 C 966 647 M
63 0 V
5918 0 R
-63 0 V
882 647 M
( 2.82842) Rshow
1.000 UL
LT0
0.50 0.50 0.50 C 1.000 UL
LTa
0.50 0.50 0.50 C 966 739 M
5981 0 V
stroke
LT0
0.50 0.50 0.50 C 966 739 M
63 0 V
5918 0 R
-63 0 V
882 739 M
( 3.53553) Rshow
1.000 UL
LT0
0.50 0.50 0.50 C 1.000 UL
LTa
0.50 0.50 0.50 C 966 831 M
5981 0 V
stroke
LT0
0.50 0.50 0.50 C 966 831 M
63 0 V
5918 0 R
-63 0 V
882 831 M
( 4.24264) Rshow
1.000 UL
LT0
0.50 0.50 0.50 C 1.000 UL
LTa
0.50 0.50 0.50 C 966 923 M
5981 0 V
stroke
LT0
0.50 0.50 0.50 C 966 923 M
63 0 V
5918 0 R
-63 0 V
882 923 M
( 4.94974) Rshow
1.000 UL
LT0
0.50 0.50 0.50 C 1.000 UL
LTa
0.50 0.50 0.50 C 966 1015 M
5981 0 V
stroke
LT0
0.50 0.50 0.50 C 966 1015 M
63 0 V
5918 0 R
-63 0 V
-6002 0 R
( 5.65685) Rshow
1.000 UL
LT0
0.50 0.50 0.50 C 1.000 UL
LTa
0.50 0.50 0.50 C 966 1106 M
5981 0 V
stroke
LT0
0.50 0.50 0.50 C 966 1106 M
63 0 V
5918 0 R
-63 0 V
-6002 0 R
( 6.36395) Rshow
1.000 UL
LT0
0.50 0.50 0.50 C 1.000 UL
LTa
0.50 0.50 0.50 C 966 1198 M
5981 0 V
stroke
LT0
0.50 0.50 0.50 C 966 1198 M
63 0 V
5918 0 R
-63 0 V
-6002 0 R
( 7.07106) Rshow
1.000 UL
LT0
0.50 0.50 0.50 C 1.000 UL
LTa
0.50 0.50 0.50 C 966 1290 M
5981 0 V
stroke
LT0
0.50 0.50 0.50 C 966 1290 M
63 0 V
5918 0 R
-63 0 V
-6002 0 R
( 7.77817) Rshow
1.000 UL
LT0
0.50 0.50 0.50 C 1.000 UL
LTa
0.50 0.50 0.50 C 966 1382 M
5981 0 V
stroke
LT0
0.50 0.50 0.50 C 966 1382 M
63 0 V
5918 0 R
-63 0 V
-6002 0 R
( 8.48527) Rshow
1.000 UL
LT0
0.50 0.50 0.50 C 1.000 UL
LTa
0.50 0.50 0.50 C 966 1474 M
5981 0 V
stroke
LT0
0.50 0.50 0.50 C 966 1474 M
63 0 V
5918 0 R
-63 0 V
-6002 0 R
( 9.19238) Rshow
1.000 UL
LT0
0.50 0.50 0.50 C 1.000 UL
LTa
0.50 0.50 0.50 C 966 1565 M
5981 0 V
stroke
LT0
0.50 0.50 0.50 C 966 1565 M
63 0 V
5918 0 R
-63 0 V
-6002 0 R
( 9.89948) Rshow
1.000 UL
LT0
0.50 0.50 0.50 C 1.000 UL
LTa
0.50 0.50 0.50 C 966 1657 M
5981 0 V
stroke
LT0
0.50 0.50 0.50 C 966 1657 M
63 0 V
5918 0 R
-63 0 V
-6002 0 R
( 10.6066) Rshow
1.000 UL
LT0
0.50 0.50 0.50 C 1.000 UL
LTa
0.50 0.50 0.50 C 966 1749 M
5981 0 V
stroke
LT0
0.50 0.50 0.50 C 966 1749 M
63 0 V
5918 0 R
-63 0 V
-6002 0 R
( 11.3137) Rshow
1.000 UL
LT0
0.50 0.50 0.50 C 1.000 UL
LTa
0.50 0.50 0.50 C 966 1841 M
5981 0 V
stroke
LT0
0.50 0.50 0.50 C 966 1841 M
63 0 V
5918 0 R
-63 0 V
-6002 0 R
( 12.0208) Rshow
1.000 UL
LT0
0.50 0.50 0.50 C 1.000 UL
LTa
0.50 0.50 0.50 C 966 1933 M
5981 0 V
stroke
LT0
0.50 0.50 0.50 C 966 1933 M
63 0 V
5918 0 R
-63 0 V
-6002 0 R
( 12.7279) Rshow
1.000 UL
LT0
0.50 0.50 0.50 C 1.000 UL
LTa
0.50 0.50 0.50 C 966 2025 M
5981 0 V
stroke
LT0
0.50 0.50 0.50 C 966 2025 M
63 0 V
5918 0 R
-63 0 V
-6002 0 R
( 13.435) Rshow
1.000 UL
LT0
0.50 0.50 0.50 C 1.000 UL
LTa
0.50 0.50 0.50 C 966 2116 M
5981 0 V
stroke
LT0
0.50 0.50 0.50 C 966 2116 M
63 0 V
5918 0 R
-63 0 V
-6002 0 R
( 14.1421) Rshow
1.000 UL
LT0
0.50 0.50 0.50 C 1.000 UL
LTa
0.50 0.50 0.50 C 966 2208 M
5981 0 V
stroke
LT0
0.50 0.50 0.50 C 966 2208 M
63 0 V
5918 0 R
-63 0 V
-6002 0 R
( 14.8492) Rshow
1.000 UL
LT0
0.50 0.50 0.50 C 1.000 UL
LTa
0.50 0.50 0.50 C 966 2300 M
5981 0 V
stroke
LT0
0.50 0.50 0.50 C 966 2300 M
63 0 V
5918 0 R
-63 0 V
-6002 0 R
( 15.5563) Rshow
1.000 UL
LT0
0.50 0.50 0.50 C 1.000 UL
LTa
0.50 0.50 0.50 C 966 2392 M
5981 0 V
stroke
LT0
0.50 0.50 0.50 C 966 2392 M
63 0 V
5918 0 R
-63 0 V
-6002 0 R
( 16.2634) Rshow
1.000 UL
LT0
0.50 0.50 0.50 C 1.000 UL
LTa
0.50 0.50 0.50 C 966 2484 M
5981 0 V
stroke
LT0
0.50 0.50 0.50 C 966 2484 M
63 0 V
5918 0 R
-63 0 V
-6002 0 R
( 16.9705) Rshow
1.000 UL
LT0
0.50 0.50 0.50 C 1.000 UL
LTa
0.50 0.50 0.50 C 966 2575 M
5981 0 V
stroke
LT0
0.50 0.50 0.50 C 966 2575 M
63 0 V
5918 0 R
-63 0 V
-6002 0 R
( 17.6776) Rshow
1.000 UL
LT0
0.50 0.50 0.50 C 1.000 UL
LTa
0.50 0.50 0.50 C 966 2667 M
5981 0 V
stroke
LT0
0.50 0.50 0.50 C 966 2667 M
63 0 V
5918 0 R
-63 0 V
-6002 0 R
( 18.3848) Rshow
1.000 UL
LT0
0.50 0.50 0.50 C 1.000 UL
LTa
0.50 0.50 0.50 C 966 2759 M
5981 0 V
stroke
LT0
0.50 0.50 0.50 C 966 2759 M
63 0 V
5918 0 R
-63 0 V
-6002 0 R
( 19.0919) Rshow
1.000 UL
LT0
0.50 0.50 0.50 C 1.000 UL
LTa
0.50 0.50 0.50 C 966 2851 M
5981 0 V
stroke
LT0
0.50 0.50 0.50 C 966 2851 M
63 0 V
5918 0 R
-63 0 V
-6002 0 R
( 19.799) Rshow
1.000 UL
LT0
0.50 0.50 0.50 C 1.000 UL
LTa
0.50 0.50 0.50 C 966 2943 M
5981 0 V
stroke
LT0
0.50 0.50 0.50 C 966 2943 M
63 0 V
5918 0 R
-63 0 V
-6002 0 R
( 20.5061) Rshow
1.000 UL
LT0
0.50 0.50 0.50 C 1.000 UL
LTa
0.50 0.50 0.50 C 966 3035 M
5981 0 V
stroke
LT0
0.50 0.50 0.50 C 966 3035 M
63 0 V
5918 0 R
-63 0 V
-6002 0 R
( 21.2132) Rshow
1.000 UL
LT0
0.50 0.50 0.50 C 1.000 UL
LTa
0.50 0.50 0.50 C 966 3126 M
5981 0 V
stroke
LT0
0.50 0.50 0.50 C 966 3126 M
63 0 V
5918 0 R
-63 0 V
-6002 0 R
( 21.9203) Rshow
1.000 UL
LT0
0.50 0.50 0.50 C 1.000 UL
LTa
0.50 0.50 0.50 C 966 3218 M
5981 0 V
stroke
LT0
0.50 0.50 0.50 C 966 3218 M
63 0 V
5918 0 R
-63 0 V
-6002 0 R
( 22.6274) Rshow
1.000 UL
LT0
0.50 0.50 0.50 C 1.000 UL
LTa
0.50 0.50 0.50 C 966 3310 M
5981 0 V
stroke
LT0
0.50 0.50 0.50 C 966 3310 M
63 0 V
5918 0 R
-63 0 V
-6002 0 R
( 23.3345) Rshow
1.000 UL
LT0
0.50 0.50 0.50 C 1.000 UL
LTa
0.50 0.50 0.50 C 966 3402 M
5981 0 V
stroke
LT0
0.50 0.50 0.50 C 966 3402 M
63 0 V
5918 0 R
-63 0 V
-6002 0 R
( 24.0416) Rshow
1.000 UL
LT0
0.50 0.50 0.50 C 1.000 UL
LTa
0.50 0.50 0.50 C 966 3494 M
5981 0 V
stroke
LT0
0.50 0.50 0.50 C 966 3494 M
63 0 V
5918 0 R
-63 0 V
-6002 0 R
( 24.7487) Rshow
1.000 UL
LT0
0.50 0.50 0.50 C 1.000 UL
LTa
0.50 0.50 0.50 C 966 3586 M
5981 0 V
stroke
LT0
0.50 0.50 0.50 C 966 3586 M
63 0 V
5918 0 R
-63 0 V
-6002 0 R
( 25.4558) Rshow
1.000 UL
LT0
0.50 0.50 0.50 C 1.000 UL
LTa
0.50 0.50 0.50 C 966 3677 M
5981 0 V
stroke
LT0
0.50 0.50 0.50 C 966 3677 M
63 0 V
5918 0 R
-63 0 V
-6002 0 R
( 26.1629) Rshow
1.000 UL
LT0
0.50 0.50 0.50 C 1.000 UL
LTa
0.50 0.50 0.50 C 966 3769 M
5981 0 V
stroke
LT0
0.50 0.50 0.50 C 966 3769 M
63 0 V
5918 0 R
-63 0 V
-6002 0 R
( 26.87) Rshow
1.000 UL
LT0
0.50 0.50 0.50 C 1.000 UL
LTa
0.50 0.50 0.50 C 966 3861 M
5981 0 V
stroke
LT0
0.50 0.50 0.50 C 966 3861 M
63 0 V
5918 0 R
-63 0 V
-6002 0 R
( 27.5771) Rshow
1.000 UL
LT0
0.50 0.50 0.50 C 1.000 UL
LTa
0.50 0.50 0.50 C 966 3953 M
5981 0 V
stroke
LT0
0.50 0.50 0.50 C 966 3953 M
63 0 V
5918 0 R
-63 0 V
-6002 0 R
( 28.2842) Rshow
1.000 UL
LT0
0.50 0.50 0.50 C 1.000 UL
LTa
0.50 0.50 0.50 C 966 4045 M
5981 0 V
stroke
LT0
0.50 0.50 0.50 C 966 4045 M
63 0 V
5918 0 R
-63 0 V
-6002 0 R
( 28.9913) Rshow
1.000 UL
LT0
0.50 0.50 0.50 C 1.000 UL
LTa
0.50 0.50 0.50 C 966 4136 M
5981 0 V
stroke
LT0
0.50 0.50 0.50 C 966 4136 M
63 0 V
5918 0 R
-63 0 V
-6002 0 R
( 29.6985) Rshow
1.000 UL
LT0
0.50 0.50 0.50 C 1.000 UL
LTa
0.50 0.50 0.50 C 966 4228 M
5981 0 V
stroke
LT0
0.50 0.50 0.50 C 966 4228 M
63 0 V
5918 0 R
-63 0 V
-6002 0 R
( 30.4056) Rshow
1.000 UL
LT0
0.50 0.50 0.50 C 1.000 UL
LTa
0.50 0.50 0.50 C 966 4320 M
5981 0 V
stroke
LT0
0.50 0.50 0.50 C 966 4320 M
63 0 V
5918 0 R
-63 0 V
-6002 0 R
( 31.1127) Rshow
1.000 UL
LT0
0.50 0.50 0.50 C 1.000 UL
LTa
0.50 0.50 0.50 C 966 4412 M
5981 0 V
stroke
LT0
0.50 0.50 0.50 C 966 4412 M
63 0 V
5918 0 R
-63 0 V
-6002 0 R
( 31.8198) Rshow
1.000 UL
LT0
0.50 0.50 0.50 C 1.000 UL
LTa
0.50 0.50 0.50 C 966 4504 M
5981 0 V
stroke
LT0
0.50 0.50 0.50 C 966 4504 M
63 0 V
5918 0 R
-63 0 V
-6002 0 R
( 32.5269) Rshow
1.000 UL
LT0
0.50 0.50 0.50 C 1.000 UL
LTa
0.50 0.50 0.50 C 966 4596 M
5981 0 V
stroke
LT0
0.50 0.50 0.50 C 966 4596 M
63 0 V
5918 0 R
-63 0 V
-6002 0 R
( 33.234) Rshow
1.000 UL
LT0
0.50 0.50 0.50 C 1.000 UL
LTa
0.50 0.50 0.50 C 966 4687 M
5981 0 V
stroke
LT0
0.50 0.50 0.50 C 966 4687 M
63 0 V
5918 0 R
-63 0 V
-6002 0 R
( 33.9411) Rshow
1.000 UL
LT0
0.50 0.50 0.50 C 1.000 UL
LTa
0.50 0.50 0.50 C 966 4779 M
5981 0 V
stroke
LT0
0.50 0.50 0.50 C 966 4779 M
63 0 V
5918 0 R
-63 0 V
-6002 0 R
( 34.6482) Rshow
1.000 UL
LT0
0.50 0.50 0.50 C 1.000 UL
LTa
0.50 0.50 0.50 C 966 4871 M
5981 0 V
stroke
LT0
0.50 0.50 0.50 C 966 4871 M
63 0 V
5918 0 R
-63 0 V
-6002 0 R
( 35.3553) Rshow
1.000 UL
LT0
0.50 0.50 0.50 C 1.000 UL
LTa
0.50 0.50 0.50 C 966 280 M
0 4591 V
stroke
LT0
0.50 0.50 0.50 C 966 280 M
0 63 V
0 4528 R
0 -63 V
966 140 M
( 0) Cshow
1.000 UL
LT0
0.50 0.50 0.50 C 1.000 UL
LTa
0.50 0.50 0.50 C 1086 280 M
0 4591 V
stroke
LT0
0.50 0.50 0.50 C 1086 280 M
0 63 V
0 4528 R
0 -63 V
0 -4668 R
( 0.707106) Cshow
1.000 UL
LT0
0.50 0.50 0.50 C 1.000 UL
LTa
0.50 0.50 0.50 C 1205 280 M
0 4591 V
stroke
LT0
0.50 0.50 0.50 C 1205 280 M
0 63 V
0 4528 R
0 -63 V
0 -4668 R
( 1.41421) Cshow
1.000 UL
LT0
0.50 0.50 0.50 C 1.000 UL
LTa
0.50 0.50 0.50 C 1325 280 M
0 4591 V
stroke
LT0
0.50 0.50 0.50 C 1325 280 M
0 63 V
0 4528 R
0 -63 V
0 -4668 R
( 2.12132) Cshow
1.000 UL
LT0
0.50 0.50 0.50 C 1.000 UL
LTa
0.50 0.50 0.50 C 1444 280 M
0 4591 V
stroke
LT0
0.50 0.50 0.50 C 1444 280 M
0 63 V
0 4528 R
0 -63 V
0 -4668 R
( 2.82842) Cshow
1.000 UL
LT0
0.50 0.50 0.50 C 1.000 UL
LTa
0.50 0.50 0.50 C 1564 280 M
0 4591 V
stroke
LT0
0.50 0.50 0.50 C 1564 280 M
0 63 V
0 4528 R
0 -63 V
0 -4668 R
( 3.53553) Cshow
1.000 UL
LT0
0.50 0.50 0.50 C 1.000 UL
LTa
0.50 0.50 0.50 C 1684 280 M
0 4591 V
stroke
LT0
0.50 0.50 0.50 C 1684 280 M
0 63 V
0 4528 R
0 -63 V
0 -4668 R
( 4.24264) Cshow
1.000 UL
LT0
0.50 0.50 0.50 C 1.000 UL
LTa
0.50 0.50 0.50 C 1803 280 M
0 4591 V
stroke
LT0
0.50 0.50 0.50 C 1803 280 M
0 63 V
0 4528 R
0 -63 V
0 -4668 R
( 4.94974) Cshow
1.000 UL
LT0
0.50 0.50 0.50 C 1.000 UL
LTa
0.50 0.50 0.50 C 1923 280 M
0 4591 V
stroke
LT0
0.50 0.50 0.50 C 1923 280 M
0 63 V
0 4528 R
0 -63 V
0 -4668 R
( 5.65685) Cshow
1.000 UL
LT0
0.50 0.50 0.50 C 1.000 UL
LTa
0.50 0.50 0.50 C 2043 280 M
0 4591 V
stroke
LT0
0.50 0.50 0.50 C 2043 280 M
0 63 V
0 4528 R
0 -63 V
0 -4668 R
( 6.36395) Cshow
1.000 UL
LT0
0.50 0.50 0.50 C 1.000 UL
LTa
0.50 0.50 0.50 C 2162 280 M
0 4591 V
stroke
LT0
0.50 0.50 0.50 C 2162 280 M
0 63 V
0 4528 R
0 -63 V
0 -4668 R
( 7.07106) Cshow
1.000 UL
LT0
0.50 0.50 0.50 C 1.000 UL
LTa
0.50 0.50 0.50 C 2282 280 M
0 4591 V
stroke
LT0
0.50 0.50 0.50 C 2282 280 M
0 63 V
0 4528 R
0 -63 V
0 -4668 R
( 7.77817) Cshow
1.000 UL
LT0
0.50 0.50 0.50 C 1.000 UL
LTa
0.50 0.50 0.50 C 2401 280 M
0 4591 V
stroke
LT0
0.50 0.50 0.50 C 2401 280 M
0 63 V
0 4528 R
0 -63 V
0 -4668 R
( 8.48527) Cshow
1.000 UL
LT0
0.50 0.50 0.50 C 1.000 UL
LTa
0.50 0.50 0.50 C 2521 280 M
0 4591 V
stroke
LT0
0.50 0.50 0.50 C 2521 280 M
0 63 V
0 4528 R
0 -63 V
0 -4668 R
( 9.19238) Cshow
1.000 UL
LT0
0.50 0.50 0.50 C 1.000 UL
LTa
0.50 0.50 0.50 C 2641 280 M
0 4591 V
stroke
LT0
0.50 0.50 0.50 C 2641 280 M
0 63 V
0 4528 R
0 -63 V
0 -4668 R
( 9.89948) Cshow
1.000 UL
LT0
0.50 0.50 0.50 C 1.000 UL
LTa
0.50 0.50 0.50 C 2760 280 M
0 4591 V
stroke
LT0
0.50 0.50 0.50 C 2760 280 M
0 63 V
0 4528 R
0 -63 V
0 -4668 R
( 10.6066) Cshow
1.000 UL
LT0
0.50 0.50 0.50 C 1.000 UL
LTa
0.50 0.50 0.50 C 2880 280 M
0 4591 V
stroke
LT0
0.50 0.50 0.50 C 2880 280 M
0 63 V
0 4528 R
0 -63 V
0 -4668 R
( 11.3137) Cshow
1.000 UL
LT0
0.50 0.50 0.50 C 1.000 UL
LTa
0.50 0.50 0.50 C 3000 280 M
0 4591 V
stroke
LT0
0.50 0.50 0.50 C 3000 280 M
0 63 V
0 4528 R
0 -63 V
0 -4668 R
( 12.0208) Cshow
1.000 UL
LT0
0.50 0.50 0.50 C 1.000 UL
LTa
0.50 0.50 0.50 C 3119 280 M
0 4591 V
stroke
LT0
0.50 0.50 0.50 C 3119 280 M
0 63 V
0 4528 R
0 -63 V
0 -4668 R
( 12.7279) Cshow
1.000 UL
LT0
0.50 0.50 0.50 C 1.000 UL
LTa
0.50 0.50 0.50 C 3239 280 M
0 4591 V
stroke
LT0
0.50 0.50 0.50 C 3239 280 M
0 63 V
0 4528 R
0 -63 V
0 -4668 R
( 13.435) Cshow
1.000 UL
LT0
0.50 0.50 0.50 C 1.000 UL
LTa
0.50 0.50 0.50 C 3358 280 M
0 4591 V
stroke
LT0
0.50 0.50 0.50 C 3358 280 M
0 63 V
0 4528 R
0 -63 V
0 -4668 R
( 14.1421) Cshow
1.000 UL
LT0
0.50 0.50 0.50 C 1.000 UL
LTa
0.50 0.50 0.50 C 3478 280 M
0 4591 V
stroke
LT0
0.50 0.50 0.50 C 3478 280 M
0 63 V
0 4528 R
0 -63 V
0 -4668 R
( 14.8492) Cshow
1.000 UL
LT0
0.50 0.50 0.50 C 1.000 UL
LTa
0.50 0.50 0.50 C 3598 280 M
0 4591 V
stroke
LT0
0.50 0.50 0.50 C 3598 280 M
0 63 V
0 4528 R
0 -63 V
0 -4668 R
( 15.5563) Cshow
1.000 UL
LT0
0.50 0.50 0.50 C 1.000 UL
LTa
0.50 0.50 0.50 C 3717 280 M
0 4591 V
stroke
LT0
0.50 0.50 0.50 C 3717 280 M
0 63 V
0 4528 R
0 -63 V
0 -4668 R
( 16.2634) Cshow
1.000 UL
LT0
0.50 0.50 0.50 C 1.000 UL
LTa
0.50 0.50 0.50 C 3837 280 M
0 4591 V
stroke
LT0
0.50 0.50 0.50 C 3837 280 M
0 63 V
0 4528 R
0 -63 V
0 -4668 R
( 16.9705) Cshow
1.000 UL
LT0
0.50 0.50 0.50 C 1.000 UL
LTa
0.50 0.50 0.50 C 3956 280 M
0 4591 V
stroke
LT0
0.50 0.50 0.50 C 3956 280 M
0 63 V
0 4528 R
0 -63 V
0 -4668 R
( 17.6776) Cshow
1.000 UL
LT0
0.50 0.50 0.50 C 1.000 UL
LTa
0.50 0.50 0.50 C 4076 280 M
0 4591 V
stroke
LT0
0.50 0.50 0.50 C 4076 280 M
0 63 V
0 4528 R
0 -63 V
0 -4668 R
( 18.3848) Cshow
1.000 UL
LT0
0.50 0.50 0.50 C 1.000 UL
LTa
0.50 0.50 0.50 C 4196 280 M
0 4591 V
stroke
LT0
0.50 0.50 0.50 C 4196 280 M
0 63 V
0 4528 R
0 -63 V
0 -4668 R
( 19.0919) Cshow
1.000 UL
LT0
0.50 0.50 0.50 C 1.000 UL
LTa
0.50 0.50 0.50 C 4315 280 M
0 4591 V
stroke
LT0
0.50 0.50 0.50 C 4315 280 M
0 63 V
0 4528 R
0 -63 V
0 -4668 R
( 19.799) Cshow
1.000 UL
LT0
0.50 0.50 0.50 C 1.000 UL
LTa
0.50 0.50 0.50 C 4435 280 M
0 4591 V
stroke
LT0
0.50 0.50 0.50 C 4435 280 M
0 63 V
0 4528 R
0 -63 V
0 -4668 R
( 20.5061) Cshow
1.000 UL
LT0
0.50 0.50 0.50 C 1.000 UL
LTa
0.50 0.50 0.50 C 4555 280 M
0 4591 V
stroke
LT0
0.50 0.50 0.50 C 4555 280 M
0 63 V
0 4528 R
0 -63 V
0 -4668 R
( 21.2132) Cshow
1.000 UL
LT0
0.50 0.50 0.50 C 1.000 UL
LTa
0.50 0.50 0.50 C 4674 280 M
0 4591 V
stroke
LT0
0.50 0.50 0.50 C 4674 280 M
0 63 V
0 4528 R
0 -63 V
0 -4668 R
( 21.9203) Cshow
1.000 UL
LT0
0.50 0.50 0.50 C 1.000 UL
LTa
0.50 0.50 0.50 C 4794 280 M
0 4591 V
stroke
LT0
0.50 0.50 0.50 C 4794 280 M
0 63 V
0 4528 R
0 -63 V
0 -4668 R
( 22.6274) Cshow
1.000 UL
LT0
0.50 0.50 0.50 C 1.000 UL
LTa
0.50 0.50 0.50 C 4913 280 M
0 4591 V
stroke
LT0
0.50 0.50 0.50 C 4913 280 M
0 63 V
0 4528 R
0 -63 V
0 -4668 R
( 23.3345) Cshow
1.000 UL
LT0
0.50 0.50 0.50 C 1.000 UL
LTa
0.50 0.50 0.50 C 5033 280 M
0 4591 V
stroke
LT0
0.50 0.50 0.50 C 5033 280 M
0 63 V
0 4528 R
0 -63 V
0 -4668 R
( 24.0416) Cshow
1.000 UL
LT0
0.50 0.50 0.50 C 1.000 UL
LTa
0.50 0.50 0.50 C 5153 280 M
0 4591 V
stroke
LT0
0.50 0.50 0.50 C 5153 280 M
0 63 V
0 4528 R
0 -63 V
0 -4668 R
( 24.7487) Cshow
1.000 UL
LT0
0.50 0.50 0.50 C 1.000 UL
LTa
0.50 0.50 0.50 C 5272 280 M
0 4591 V
stroke
LT0
0.50 0.50 0.50 C 5272 280 M
0 63 V
0 4528 R
0 -63 V
0 -4668 R
( 25.4558) Cshow
1.000 UL
LT0
0.50 0.50 0.50 C 1.000 UL
LTa
0.50 0.50 0.50 C 5392 280 M
0 4591 V
stroke
LT0
0.50 0.50 0.50 C 5392 280 M
0 63 V
0 4528 R
0 -63 V
0 -4668 R
( 26.1629) Cshow
1.000 UL
LT0
0.50 0.50 0.50 C 1.000 UL
LTa
0.50 0.50 0.50 C 5512 280 M
0 4591 V
stroke
LT0
0.50 0.50 0.50 C 5512 280 M
0 63 V
0 4528 R
0 -63 V
0 -4668 R
( 26.87) Cshow
1.000 UL
LT0
0.50 0.50 0.50 C 1.000 UL
LTa
0.50 0.50 0.50 C 5631 280 M
0 4591 V
stroke
LT0
0.50 0.50 0.50 C 5631 280 M
0 63 V
0 4528 R
0 -63 V
0 -4668 R
( 27.5771) Cshow
1.000 UL
LT0
0.50 0.50 0.50 C 1.000 UL
LTa
0.50 0.50 0.50 C 5751 280 M
0 4591 V
stroke
LT0
0.50 0.50 0.50 C 5751 280 M
0 63 V
0 4528 R
0 -63 V
0 -4668 R
( 28.2842) Cshow
1.000 UL
LT0
0.50 0.50 0.50 C 1.000 UL
LTa
0.50 0.50 0.50 C 5870 280 M
0 4591 V
stroke
LT0
0.50 0.50 0.50 C 5870 280 M
0 63 V
0 4528 R
0 -63 V
0 -4668 R
( 28.9913) Cshow
1.000 UL
LT0
0.50 0.50 0.50 C 1.000 UL
LTa
0.50 0.50 0.50 C 5990 280 M
0 4591 V
stroke
LT0
0.50 0.50 0.50 C 5990 280 M
0 63 V
0 4528 R
0 -63 V
0 -4668 R
( 29.6985) Cshow
1.000 UL
LT0
0.50 0.50 0.50 C 1.000 UL
LTa
0.50 0.50 0.50 C 6110 280 M
0 4591 V
stroke
LT0
0.50 0.50 0.50 C 6110 280 M
0 63 V
0 4528 R
0 -63 V
0 -4668 R
( 30.4056) Cshow
1.000 UL
LT0
0.50 0.50 0.50 C 1.000 UL
LTa
0.50 0.50 0.50 C 6229 280 M
0 4591 V
stroke
LT0
0.50 0.50 0.50 C 6229 280 M
0 63 V
0 4528 R
0 -63 V
0 -4668 R
( 31.1127) Cshow
1.000 UL
LT0
0.50 0.50 0.50 C 1.000 UL
LTa
0.50 0.50 0.50 C 6349 280 M
0 4591 V
stroke
LT0
0.50 0.50 0.50 C 6349 280 M
0 63 V
0 4528 R
0 -63 V
0 -4668 R
( 31.8198) Cshow
1.000 UL
LT0
0.50 0.50 0.50 C 1.000 UL
LTa
0.50 0.50 0.50 C 6469 280 M
0 4591 V
stroke
LT0
0.50 0.50 0.50 C 6469 280 M
0 63 V
0 4528 R
0 -63 V
0 -4668 R
( 32.5269) Cshow
1.000 UL
LT0
0.50 0.50 0.50 C 1.000 UL
LTa
0.50 0.50 0.50 C 6588 280 M
0 4591 V
stroke
LT0
0.50 0.50 0.50 C 6588 280 M
0 63 V
0 4528 R
0 -63 V
0 -4668 R
( 33.234) Cshow
1.000 UL
LT0
0.50 0.50 0.50 C 1.000 UL
LTa
0.50 0.50 0.50 C 6708 280 M
0 4591 V
stroke
LT0
0.50 0.50 0.50 C 6708 280 M
0 63 V
0 4528 R
0 -63 V
0 -4668 R
( 33.9411) Cshow
1.000 UL
LT0
0.50 0.50 0.50 C 1.000 UL
LTa
0.50 0.50 0.50 C 6827 280 M
0 4591 V
stroke
LT0
0.50 0.50 0.50 C 6827 280 M
0 63 V
0 4528 R
0 -63 V
0 -4668 R
( 34.6482) Cshow
1.000 UL
LT0
0.50 0.50 0.50 C 1.000 UL
LTa
0.50 0.50 0.50 C 6947 280 M
0 4591 V
stroke
LT0
0.50 0.50 0.50 C 6947 280 M
0 63 V
0 4528 R
0 -63 V
0 -4668 R
( 35.3553) Cshow
1.000 UL
LT0
0.50 0.50 0.50 C 1.000 UL
LT0
0.50 0.50 0.50 C 966 4871 M
966 280 L
5981 0 V
0 4591 R
-5981 0 R
1.000 UP
stroke
LT0
0.50 0.50 0.50 C % Begin plot #1
1.500 UP
2.000 UL
LT0
0.00 0.00 1.00 C /Helvetica findfont 140 scalefont setfont
/vshift -46 def
966 372 M
120 0 V
0 92 R
119 0 V
0 367 R
120 0 V
119 0 V
120 0 V
0 643 R
120 0 V
119 0 V
120 0 V
120 0 V
119 0 V
120 0 V
119 0 V
120 0 V
0 642 R
120 0 V
0 184 R
119 0 V
120 0 V
120 0 V
119 0 V
120 0 V
0 184 R
119 0 V
120 0 V
120 0 V
0 92 R
119 0 V
120 0 V
120 0 V
119 0 V
120 0 V
0 275 R
119 0 V
0 367 R
120 0 V
0 827 R
120 0 V
119 0 V
0 91 R
120 0 V
119 0 V
120 0 V
120 0 V
119 0 V
120 0 V
0 92 R
120 0 V
0 184 R
119 0 V
120 0 V
119 0 V
120 0 V
120 0 V
119 0 V
120 0 V
120 0 V
0 184 R
119 0 V
0 91 R
120 0 V
0 92 R
119 0 V
1086 372 M
0 92 V
119 0 R
0 91 V
0 92 V
0 92 V
0 92 V
359 0 R
0 92 V
0 92 V
0 91 V
0 92 V
0 92 V
0 92 V
0 92 V
957 0 R
0 91 V
0 92 V
0 92 V
0 92 V
0 92 V
0 92 V
0 91 V
120 0 R
0 92 V
0 92 V
598 0 R
0 92 V
0 92 V
359 0 R
0 92 V
598 0 R
0 91 V
0 92 V
0 92 V
119 0 R
0 92 V
0 92 V
0 91 V
stroke 4315 3126 M
0 92 V
120 0 R
0 92 V
0 92 V
0 92 V
0 92 V
0 91 V
0 92 V
0 92 V
0 92 V
0 92 V
239 0 R
0 91 V
718 0 R
0 92 V
120 0 R
0 92 V
0 92 V
957 0 R
0 92 V
0 92 V
119 0 R
0 91 V
120 0 R
0 92 V
966 280 M
0 92 V
966 372 CircleF
1086 372 CircleF
1086 464 CircleF
1205 464 CircleF
1205 831 CircleF
1325 831 CircleF
1325 831 CircleF
1444 831 CircleF
1444 831 CircleF
1564 831 CircleF
1564 1474 CircleF
1684 1474 CircleF
1684 1474 CircleF
1803 1474 CircleF
1803 1474 CircleF
1923 1474 CircleF
1923 1474 CircleF
2043 1474 CircleF
2043 1474 CircleF
2162 1474 CircleF
2162 1474 CircleF
2282 1474 CircleF
2282 1474 CircleF
2401 1474 CircleF
2401 1474 CircleF
2521 1474 CircleF
2521 2116 CircleF
2641 2116 CircleF
2641 2300 CircleF
2760 2300 CircleF
2760 2300 CircleF
2880 2300 CircleF
2880 2300 CircleF
3000 2300 CircleF
3000 2300 CircleF
3119 2300 CircleF
3119 2300 CircleF
3239 2300 CircleF
3239 2484 CircleF
3358 2484 CircleF
3358 2484 CircleF
3478 2484 CircleF
3478 2484 CircleF
3598 2484 CircleF
3598 2576 CircleF
3717 2576 CircleF
3717 2576 CircleF
3837 2576 CircleF
3837 2576 CircleF
3957 2576 CircleF
3957 2576 CircleF
4076 2576 CircleF
4076 2576 CircleF
4196 2576 CircleF
4196 2851 CircleF
4315 2851 CircleF
4315 3218 CircleF
4435 3218 CircleF
4435 4045 CircleF
4555 4045 CircleF
4555 4045 CircleF
4674 4045 CircleF
4674 4136 CircleF
4794 4136 CircleF
4794 4136 CircleF
4913 4136 CircleF
4913 4136 CircleF
5033 4136 CircleF
5033 4136 CircleF
5153 4136 CircleF
5153 4136 CircleF
5272 4136 CircleF
5272 4136 CircleF
5392 4136 CircleF
5392 4228 CircleF
5512 4228 CircleF
5512 4412 CircleF
5631 4412 CircleF
5631 4412 CircleF
5751 4412 CircleF
5751 4412 CircleF
5870 4412 CircleF
5870 4412 CircleF
5990 4412 CircleF
5990 4412 CircleF
6110 4412 CircleF
6110 4412 CircleF
6229 4412 CircleF
6229 4412 CircleF
6349 4412 CircleF
6349 4412 CircleF
6469 4412 CircleF
6469 4596 CircleF
6588 4596 CircleF
6588 4687 CircleF
6708 4687 CircleF
6708 4779 CircleF
6827 4779 CircleF
1086 372 CircleF
1086 464 CircleF
1205 464 CircleF
1205 555 CircleF
1205 555 CircleF
1205 647 CircleF
1205 647 CircleF
1205 739 CircleF
1205 739 CircleF
1205 831 CircleF
1564 831 CircleF
1564 923 CircleF
1564 923 CircleF
1564 1015 CircleF
1564 1015 CircleF
1564 1106 CircleF
1564 1106 CircleF
1564 1198 CircleF
1564 1198 CircleF
1564 1290 CircleF
1564 1290 CircleF
1564 1382 CircleF
1564 1382 CircleF
1564 1474 CircleF
2521 1474 CircleF
2521 1565 CircleF
2521 1565 CircleF
2521 1657 CircleF
2521 1657 CircleF
2521 1749 CircleF
2521 1749 CircleF
2521 1841 CircleF
2521 1841 CircleF
2521 1933 CircleF
2521 1933 CircleF
2521 2025 CircleF
2521 2025 CircleF
2521 2116 CircleF
2641 2116 CircleF
2641 2208 CircleF
2641 2208 CircleF
2641 2300 CircleF
3239 2300 CircleF
3239 2392 CircleF
3239 2392 CircleF
3239 2484 CircleF
3598 2484 CircleF
3598 2576 CircleF
4196 2576 CircleF
4196 2667 CircleF
4196 2667 CircleF
4196 2759 CircleF
4196 2759 CircleF
4196 2851 CircleF
4315 2851 CircleF
4315 2943 CircleF
4315 2943 CircleF
4315 3035 CircleF
4315 3035 CircleF
4315 3126 CircleF
4315 3126 CircleF
4315 3218 CircleF
4435 3218 CircleF
4435 3310 CircleF
4435 3310 CircleF
4435 3402 CircleF
4435 3402 CircleF
4435 3494 CircleF
4435 3494 CircleF
4435 3586 CircleF
4435 3586 CircleF
4435 3677 CircleF
4435 3677 CircleF
4435 3769 CircleF
4435 3769 CircleF
4435 3861 CircleF
4435 3861 CircleF
4435 3953 CircleF
4435 3953 CircleF
4435 4045 CircleF
4674 4045 CircleF
4674 4136 CircleF
5392 4136 CircleF
5392 4228 CircleF
5512 4228 CircleF
5512 4320 CircleF
5512 4320 CircleF
5512 4412 CircleF
6469 4412 CircleF
6469 4504 CircleF
6469 4504 CircleF
6469 4596 CircleF
6588 4596 CircleF
6588 4687 CircleF
6708 4687 CircleF
6708 4779 CircleF
966 280 CircleF
966 372 CircleF
% End plot #1
% Begin plot #2
1.500 UP
2.000 UL
LT0
1.00 0.55 0.00 C /Helvetica findfont 140 scalefont setfont
1221 2473 M
120 91 V
-21 1026 R
119 92 V
4392 1647 M
120 91 V
3149 4630 M
120 92 V
2406 4319 M
119 91 V
4349 3915 M
119 92 V
4099 3603 M
119 92 V
3606 1302 M
119 92 V
452 2775 R
119 91 V
4965 1148 M
120 92 V
2076 4406 M
120 92 V
5887 2155 M
120 92 V
2081 715 M
120 92 V
520 3193 R
120 92 V
-650 193 R
120 92 V
3949 3228 M
119 92 V
6687 1081 M
119 92 V
3535 4082 M
120 92 V
4721 1021 M
120 92 V
1189 2959 M
120 92 V
3372 999 R
119 92 V
5128 1690 M
120 92 V
6452 4284 M
119 92 V
3696 1839 M
119 92 V
6132 4350 M
120 92 V
1882 4603 M
120 92 V
4877 4385 M
120 92 V
4303 3121 M
119 92 V
5898 809 M
120 92 V
4096 3816 M
120 91 V
2415 1655 M
120 92 V
5125 4330 M
119 91 V
5636 2495 M
120 92 V
6443 669 M
120 92 V
5380 1131 M
119 92 V
1524 1201 M
120 92 V
-456 188 R
120 91 V
3582 3238 M
120 92 V
6358 1376 M
119 92 V
2944 1710 M
120 92 V
516 740 R
120 92 V
2073 582 M
119 92 V
1655 2977 M
119 92 V
1067 2241 M
120 91 V
5252 4497 M
119 92 V
4660 526 M
119 92 V
1845 3861 M
119 92 V
3304 3771 M
120 92 V
1941 1413 M
120 92 V
4629 -81 R
119 91 V
6687 3454 M
119 92 V
3742 1841 M
119 92 V
436 1041 R
120 92 V
stroke 4417 3066 M
1846 620 M
119 92 V
1427 4670 M
119 92 V
3756 3729 M
120 91 V
4594 2266 M
120 92 V
4551 2144 M
119 92 V
2562 2090 M
120 92 V
3599 283 R
119 91 V
4201 561 M
120 91 V
2223 1383 M
119 92 V
5027 3749 M
120 91 V
2130 2704 M
120 92 V
6671 896 M
120 92 V
4167 2340 M
119 92 V
6684 3498 M
120 92 V
2800 436 M
119 92 V
5924 2402 M
119 92 V
651 -324 R
120 92 V
4124 3574 M
120 92 V
274 986 R
120 92 V
-69 -927 R
120 91 V
3085 2620 M
119 92 V
-253 190 R
120 92 V
5080 4422 M
119 92 V
2039 2638 M
119 92 V
425 1882 R
120 92 V
2530 3029 M
120 91 V
4732 411 M
120 92 V
1014 1710 M
120 92 V
747 488 R
119 92 V
1309 312 M
120 92 V
6653 2598 M
119 92 V
6489 336 M
120 92 V
4833 2547 M
120 91 V
-3468 64 R
119 91 V
1246 588 R
120 92 V
5838 2103 M
120 92 V
1629 4288 M
119 92 V
5549 1839 M
119 92 V
428 70 R
119 92 V
5022 2808 M
120 92 V
2200 1417 M
120 92 V
29 2105 R
120 92 V
1499 378 M
120 92 V
5885 2939 M
120 92 V
1880 1221 M
120 92 V
4171 299 R
120 92 V
5531 607 M
120 92 V
2155 1945 M
120 92 V
6644 849 M
120 92 V
5795 408 M
120 92 V
4220 2853 M
119 91 V
2173 4609 M
120 91 V
stroke 2293 4700 M
3981 515 M
119 92 V
6035 2921 M
120 91 V
2403 3738 M
119 92 V
6626 1675 M
120 92 V
4626 878 M
120 91 V
812 268 R
119 92 V
4493 2071 M
119 92 V
4939 1026 M
119 92 V
2751 1638 M
120 92 V
6422 448 M
119 92 V
2560 2451 M
119 92 V
2779 448 R
120 92 V
2073 882 M
120 91 V
1290 3327 M
120 92 V
2152 987 R
120 92 V
1371 516 M
119 92 V
4970 335 M
120 92 V
2083 2574 M
120 92 V
-14 -91 R
119 91 V
3439 4409 M
119 91 V
6703 2834 M
119 92 V
3210 3081 M
119 92 V
6169 557 M
120 92 V
4735 3397 M
120 92 V
3387 328 M
119 92 V
6312 1733 M
120 92 V
5367 3130 M
120 92 V
6621 4674 M
120 92 V
2460 1808 M
120 92 V
2224 917 R
120 92 V
3843 854 M
120 92 V
-98 -41 R
120 92 V
337 3536 R
119 92 V
5251 3060 M
119 92 V
2955 1624 M
120 92 V
5354 3815 M
120 92 V
2063 4354 M
119 91 V
1098 3115 M
119 91 V
1962 -90 R
120 92 V
1408 765 M
120 92 V
1767 596 R
119 92 V
1295 2331 M
120 91 V
3489 1128 M
120 92 V
2476 1567 M
119 92 V
993 2531 R
120 92 V
6607 1226 M
120 91 V
6408 2609 M
119 91 V
1120 2554 M
120 92 V
2834 4526 M
120 92 V
6254 572 M
119 92 V
6107 4341 M
120 92 V
5661 3193 M
120 92 V
stroke 5781 3285 M
2454 3115 M
119 92 V
5497 754 M
120 92 V
-914 502 R
120 92 V
2532 3096 M
120 92 V
6504 2675 M
119 92 V
1558 1563 M
120 91 V
1098 3282 M
120 92 V
3868 671 M
119 91 V
5338 696 M
119 92 V
3265 4192 M
119 92 V
2358 4274 M
120 92 V
4570 3982 M
119 92 V
-880 119 R
120 92 V
5702 2972 M
120 92 V
1991 719 M
120 92 V
6556 3422 M
120 92 V
3530 2553 M
119 92 V
3054 780 M
120 92 V
4262 4129 M
120 92 V
3912 2082 M
120 92 V
-784 255 R
120 92 V
871 -850 R
120 92 V
279 1924 R
120 91 V
6503 1404 M
119 91 V
4610 3619 M
119 91 V
2114 3868 M
120 91 V
4995 2715 M
120 92 V
-517 9 R
120 92 V
4391 1603 M
120 92 V
2318 590 M
119 91 V
5997 4493 M
120 92 V
3033 3107 M
120 92 V
1811 1773 M
119 92 V
6359 4337 M
120 92 V
1011 1974 M
120 92 V
565 -955 R
119 92 V
5223 3197 M
120 92 V
2844 1829 M
120 92 V
-41 254 R
119 92 V
4927 948 M
119 92 V
-644 460 R
119 92 V
6046 1475 M
120 91 V
1606 1289 M
119 92 V
-331 -91 R
120 92 V
1421 256 R
120 92 V
56 2592 R
119 92 V
6532 4150 M
120 92 V
1898 798 M
119 91 V
5767 4375 M
119 91 V
2109 1294 M
120 92 V
1423 1019 M
119 92 V
6628 541 M
119 91 V
stroke 6747 632 M
3476 2466 M
120 91 V
4783 4315 M
120 91 V
1916 356 M
120 92 V
348 1916 R
120 91 V
5248 4200 M
120 92 V
4169 1219 M
120 92 V
2615 2658 M
119 92 V
1320 749 M
120 92 V
3404 774 R
119 92 V
1044 3300 M
119 92 V
2305 572 R
119 92 V
3292 1339 M
119 92 V
268 1120 R
119 92 V
976 3456 M
120 92 V
2127 930 M
119 92 V
1797 3459 M
119 92 V
3106 139 R
119 92 V
4574 825 M
119 92 V
1247 3877 M
120 92 V
6612 2542 M
120 92 V
5753 1597 M
120 91 V
5262 4122 M
120 92 V
3560 2783 M
119 92 V
1667 726 R
120 92 V
-837 -73 R
119 92 V
4005 3207 M
119 92 V
2091 4400 M
119 92 V
5739 1952 M
119 92 V
5005 879 M
120 92 V
2901 2924 M
120 92 V
6617 2056 M
120 92 V
4598 2743 M
120 91 V
4594 1722 M
119 92 V
4174 630 M
120 92 V
1996 2346 M
120 92 V
601 770 R
120 92 V
4658 1066 M
120 92 V
3641 4593 M
120 92 V
1895 1119 M
120 91 V
4913 2984 M
120 92 V
2678 3304 M
119 92 V
4136 2931 M
119 92 V
3230 1937 M
119 92 V
2559 3537 M
120 92 V
1417 3981 M
120 92 V
83 -724 R
120 92 V
1341 293 R
119 92 V
1078 3055 M
120 92 V
6471 444 M
119 92 V
2489 2929 M
119 92 V
2555 378 M
119 92 V
5553 2230 M
119 92 V
stroke 5672 2322 M
1590 1719 M
120 91 V
1144 2864 M
120 92 V
5689 4669 M
119 92 V
2411 2707 M
120 92 V
2473 1439 M
119 92 V
2285 409 M
120 92 V
6504 3045 M
120 91 V
4340 1477 M
120 92 V
2987 3898 M
119 92 V
2071 4133 M
120 91 V
4562 3541 M
119 92 V
4453 3096 M
120 92 V
-500 698 R
120 92 V
2161 1429 M
119 92 V
3898 194 R
119 92 V
-293 207 R
119 92 V
4172 4577 M
120 92 V
6395 3750 M
120 92 V
2245 2717 M
120 92 V
6638 2499 M
119 92 V
6282 4160 M
120 91 V
1470 2694 M
120 92 V
2942 1341 M
120 91 V
794 1806 R
120 92 V
5809 1137 M
120 92 V
3520 734 M
119 92 V
1535 4464 M
119 92 V
5251 2699 M
119 92 V
1949 2467 M
119 92 V
312 2053 R
120 92 V
5125 2260 M
120 91 V
6267 428 M
120 92 V
4691 1150 M
120 92 V
5182 347 M
119 91 V
2291 3596 M
119 92 V
161 857 R
119 92 V
1061 3141 M
119 92 V
5310 643 R
120 92 V
-1383 50 R
120 92 V
5056 1642 M
120 92 V
1671 3679 M
120 92 V
4041 2796 M
119 91 V
6634 3989 M
120 92 V
2333 1249 M
119 92 V
1159 606 M
120 92 V
5299 2421 M
120 92 V
1188 1495 M
120 92 V
210 -19 R
119 92 V
6409 2965 M
120 92 V
6503 1269 M
119 92 V
4497 4051 M
120 92 V
4226 1558 M
120 92 V
stroke 4346 1650 M
5749 766 M
120 92 V
4650 541 M
120 91 V
844 3408 R
120 92 V
6132 1340 M
119 92 V
3419 2083 M
120 92 V
6203 4375 M
120 92 V
5241 1098 M
119 92 V
6063 988 M
120 92 V
4434 3312 M
120 92 V
1466 2130 M
119 92 V
5065 829 R
120 92 V
2291 2219 M
119 91 V
3857 624 R
120 92 V
3536 4649 M
119 92 V
1943 4459 M
119 92 V
2362 758 M
120 91 V
6406 294 M
120 91 V
4823 3264 M
120 92 V
5528 2131 M
120 92 V
31 162 R
120 91 V
5490 1891 M
119 92 V
3770 2568 M
120 92 V
3413 4408 M
119 92 V
2493 555 M
120 92 V
4495 2036 M
119 92 V
558 33 R
120 92 V
350 1690 R
119 92 V
6419 315 M
120 92 V
6306 3152 M
120 92 V
-783 523 R
119 92 V
1653 315 M
120 92 V
6213 2986 M
119 92 V
-736 -24 R
119 92 V
6145 546 M
119 91 V
348 2736 R
120 92 V
2753 3343 M
120 92 V
901 777 R
119 92 V
6437 2275 M
120 92 V
5890 699 M
120 92 V
1112 710 M
119 92 V
4606 2425 M
119 92 V
1570 2779 M
119 92 V
5629 1703 M
120 92 V
4598 2199 M
119 92 V
855 1643 R
120 92 V
2443 1137 M
119 92 V
18 978 R
120 92 V
6279 1721 M
120 92 V
-955 345 R
119 92 V
-288 270 R
120 92 V
2311 996 M
120 92 V
6690 2789 M
120 92 V
stroke 6810 2881 M
3399 1771 M
119 91 V
1464 1798 M
120 92 V
1124 687 M
119 91 V
2746 2406 M
119 92 V
1843 3237 M
119 92 V
-716 498 R
120 91 V
3558 315 R
120 92 V
2735 1718 M
120 92 V
4766 3016 M
120 92 V
536 624 R
120 92 V
2218 1922 M
120 92 V
3976 176 R
120 92 V
4189 1228 M
120 92 V
3195 432 M
119 92 V
1406 878 R
120 92 V
4099 832 M
120 92 V
5283 4099 M
119 92 V
2435 3327 M
120 92 V
2316 2397 M
120 92 V
5606 1826 M
120 92 V
1718 3089 M
120 92 V
5318 2236 M
119 91 V
3735 2273 M
120 91 V
5120 3878 M
119 92 V
1146 3339 M
120 91 V
5904 1798 M
120 92 V
1801 3985 M
120 91 V
2457 2507 M
120 91 V
3119 -70 R
120 91 V
-125 220 R
120 91 V
719 1669 R
120 92 V
1830 4041 M
119 92 V
6626 2414 M
120 92 V
2282 1366 M
119 92 V
2898 380 R
120 92 V
3674 2389 M
120 92 V
3292 865 M
119 92 V
6193 4646 M
119 92 V
990 4527 M
120 92 V
1476 582 M
119 91 V
2104 298 M
119 92 V
1825 4542 M
119 92 V
2987 2840 M
120 91 V
4514 2605 M
119 92 V
3629 3444 M
119 91 V
5141 3084 M
120 91 V
3091 2725 M
120 92 V
2832 4138 M
120 92 V
5618 3716 M
120 91 V
1361 1788 M
119 92 V
5524 3871 M
119 92 V
2517 333 M
119 92 V
stroke 2636 425 M
-904 985 R
120 92 V
3889 1065 M
120 91 V
5789 587 M
119 92 V
2572 1670 M
119 92 V
3775 3040 M
120 92 V
998 659 R
119 92 V
3864 2952 M
120 92 V
2142 2309 M
120 92 V
3385 1321 M
119 92 V
697 966 R
119 92 V
-376 177 R
119 91 V
2476 2084 M
120 91 V
978 2789 M
120 92 V
576 1228 R
120 92 V
2387 1759 M
119 91 V
4874 3785 M
120 91 V
3693 2126 M
120 92 V
4903 3336 M
120 91 V
2129 3734 M
119 92 V
2387 509 R
120 92 V
2149 3634 M
119 92 V
3211 522 R
120 92 V
2130 342 M
119 92 V
5583 1810 M
120 92 V
1857 4244 M
120 92 V
4702 4084 M
120 92 V
5474 3017 M
120 92 V
2828 1617 M
120 92 V
949 1778 R
120 92 V
1822 2809 M
120 92 V
5933 2295 M
119 91 V
2024 3053 M
120 92 V
3715 2707 M
120 92 V
3169 2455 M
120 91 V
3142 2405 M
120 92 V
3578 948 M
120 92 V
6250 3415 M
120 92 V
3746 1888 M
119 92 V
691 2 R
119 92 V
1437 3415 M
119 92 V
3395 2841 M
119 91 V
3091 999 M
119 92 V
2694 2554 M
119 92 V
2073 1880 M
119 92 V
5458 4469 M
119 92 V
-685 -86 R
119 91 V
4855 2453 M
119 92 V
3612 768 M
119 92 V
4937 4069 M
120 92 V
127 -696 R
120 92 V
4212 998 M
119 92 V
1769 4125 M
120 92 V
stroke 1889 4217 M
4158 2557 M
120 91 V
634 592 R
120 92 V
5840 1949 M
120 92 V
4362 3800 M
120 92 V
6589 1001 M
119 92 V
-36 -10 R
120 92 V
2200 1419 M
119 92 V
4052 223 R
120 92 V
4458 2020 M
120 92 V
1700 2760 M
119 92 V
223 1588 R
120 92 V
1354 1915 M
120 91 V
2997 4402 M
120 92 V
6301 3673 M
120 91 V
968 2255 M
120 92 V
6314 1074 M
119 92 V
1968 3210 M
120 92 V
3023 -12 R
120 92 V
2168 4134 M
119 92 V
6704 1574 M
120 92 V
6671 3369 M
120 92 V
4901 2984 M
119 91 V
262 -114 R
120 92 V
3688 665 M
119 92 V
5472 1842 M
119 92 V
4087 916 M
119 92 V
2025 861 M
120 92 V
3288 887 M
120 92 V
4421 2669 M
119 92 V
2810 499 M
120 92 V
5946 4343 M
120 92 V
4601 4582 M
120 92 V
4141 4048 M
120 92 V
4113 3690 M
120 92 V
4458 1873 M
119 92 V
2806 822 M
119 92 V
5821 4430 M
120 92 V
2789 3767 M
119 92 V
1687 2748 M
120 92 V
5937 4315 M
120 92 V
3144 2280 M
120 91 V
840 299 R
119 92 V
2200 955 R
119 91 V
5750 1520 M
120 92 V
3636 2244 M
119 92 V
3129 3887 M
120 92 V
4916 2673 M
120 92 V
3486 1736 M
120 92 V
1576 1970 M
120 92 V
838 729 R
120 92 V
4656 2389 M
119 92 V
1243 618 R
120 92 V
stroke 6138 3191 M
2112 4053 M
120 92 V
5522 2521 M
120 92 V
3058 505 M
120 92 V
831 882 R
120 92 V
5646 4096 M
119 92 V
5477 2429 M
120 92 V
1783 1826 M
119 92 V
2155 102 R
119 92 V
1575 3166 M
120 91 V
-172 336 R
120 92 V
3490 501 M
119 92 V
6040 1805 M
120 92 V
2692 2250 M
120 92 V
316 2236 R
120 92 V
5379 3186 M
120 92 V
206 -93 R
120 92 V
5122 4460 M
120 92 V
5457 665 M
120 91 V
2854 1143 M
119 92 V
778 510 R
119 92 V
4988 1090 M
119 91 V
2522 3915 M
120 92 V
6579 1208 M
120 91 V
-116 511 R
119 92 V
6164 990 M
120 91 V
4893 640 M
120 92 V
4370 3330 M
119 92 V
2596 2530 M
119 92 V
6334 4039 M
120 92 V
4955 3135 M
120 92 V
504 -132 R
120 92 V
2466 1873 M
119 91 V
1088 3643 M
120 91 V
4921 1842 M
120 92 V
6058 1175 M
120 92 V
4461 1052 M
120 92 V
3859 4376 M
120 92 V
2281 458 M
120 92 V
4398 3686 M
120 92 V
3024 1392 M
120 92 V
5696 870 M
120 92 V
-557 644 R
119 92 V
3359 3991 M
119 92 V
2982 3938 M
120 92 V
2831 654 M
119 92 V
4310 3835 M
120 92 V
6663 3710 M
120 92 V
4569 1080 M
120 92 V
4456 793 M
119 92 V
1479 3377 M
120 92 V
4553 942 R
119 92 V
3996 3059 M
119 92 V
stroke 4115 3151 M
1132 926 M
120 92 V
3785 4571 M
120 92 V
1454 4562 M
120 92 V
3387 3431 M
120 92 V
3664 2378 M
120 92 V
4020 1436 M
120 92 V
6696 2915 M
119 92 V
3063 2217 M
120 91 V
6366 419 M
120 91 V
2993 3526 M
119 92 V
1181 463 R
120 92 V
3494 1515 M
119 91 V
5577 1468 M
119 92 V
2718 3669 M
120 92 V
4445 1981 M
120 91 V
736 -797 R
120 92 V
3741 1739 M
120 92 V
2550 2217 M
120 92 V
6676 596 M
120 92 V
6277 3781 M
120 92 V
1418 4464 M
120 91 V
6268 4221 M
120 92 V
5045 4434 M
119 92 V
3018 2221 M
120 92 V
2498 434 R
120 91 V
2881 3823 M
119 92 V
2516 3182 M
120 92 V
4676 3145 M
119 92 V
5838 614 M
120 92 V
1730 2082 M
120 92 V
5616 1124 M
120 92 V
3109 3341 M
120 91 V
112 394 R
119 92 V
5426 1242 M
120 92 V
-1698 11 R
119 92 V
1744 1385 M
119 92 V
257 1180 R
120 92 V
3720 4077 M
119 91 V
2274 2651 M
120 92 V
1868 274 R
119 92 V
4685 368 M
119 92 V
5858 292 M
119 92 V
516 2041 R
120 92 V
2110 713 M
120 92 V
1606 985 R
119 92 V
3005 3513 M
120 91 V
5537 1384 M
119 92 V
318 940 R
120 92 V
2084 2640 M
119 92 V
2513 1444 M
120 92 V
6575 1378 M
119 92 V
2968 831 M
120 92 V
stroke 3088 923 M
1586 1785 M
119 92 V
5391 861 M
120 92 V
3272 2130 M
120 91 V
2807 3914 M
120 92 V
3591 2005 M
119 91 V
2104 2512 M
120 91 V
20 654 R
120 92 V
2166 678 R
120 92 V
-867 52 R
119 92 V
410 -894 R
119 91 V
5747 326 M
119 92 V
273 3590 R
120 92 V
4097 4673 M
120 91 V
2984 4323 M
120 91 V
5322 838 M
120 91 V
3043 2484 M
120 92 V
2990 4006 M
120 92 V
2171 2614 M
120 92 V
1361 785 M
120 92 V
4104 2017 M
120 92 V
6236 852 M
120 92 V
4925 1451 M
120 92 V
4639 4347 M
119 92 V
1248 2383 M
120 92 V
3646 543 M
120 91 V
2546 683 M
119 92 V
1187 1638 M
119 92 V
2136 675 R
120 92 V
483 376 R
120 92 V
2054 569 M
120 92 V
4422 3986 M
120 92 V
2648 4032 M
119 92 V
5981 3743 M
119 92 V
1148 4203 M
119 92 V
2586 22 R
120 92 V
5025 3183 M
119 92 V
2816 3415 M
120 92 V
4044 3252 M
120 92 V
1498 883 M
119 92 V
3104 209 R
120 92 V
1887 2820 M
119 91 V
1216 -65 R
120 92 V
4699 2328 M
120 92 V
-669 267 R
120 92 V
1513 1384 M
120 92 V
4319 3550 M
119 92 V
3314 2160 M
120 92 V
6280 715 M
119 92 V
-82 61 R
120 91 V
3769 2435 M
119 91 V
3756 4466 M
119 92 V
5407 4300 M
120 92 V
stroke 5527 4392 M
6030 1060 M
120 92 V
4519 4033 M
119 92 V
6569 3027 M
120 92 V
5949 2467 M
119 92 V
2256 4633 M
119 92 V
6482 2888 M
120 92 V
2263 1821 M
120 92 V
1358 3657 M
119 92 V
6404 3484 M
119 92 V
5568 4616 M
120 92 V
3351 3135 M
120 92 V
5025 1815 M
120 92 V
140 2045 R
120 92 V
4387 3488 M
120 91 V
5292 2506 M
119 92 V
3263 931 M
119 91 V
1771 600 M
120 92 V
1854 408 M
120 91 V
1024 619 R
120 92 V
546 1910 R
120 92 V
1203 670 M
120 92 V
1086 4484 M
120 92 V
3242 2114 M
119 92 V
1221 2473 CircleF
1341 2564 CircleF
1320 3590 CircleF
1439 3682 CircleF
4392 1647 CircleF
4512 1738 CircleF
3149 4630 CircleF
3269 4722 CircleF
2406 4319 CircleF
2525 4410 CircleF
4349 3915 CircleF
4468 4007 CircleF
4099 3603 CircleF
4218 3695 CircleF
3606 1302 CircleF
3725 1394 CircleF
4177 4169 CircleF
4296 4260 CircleF
4965 1148 CircleF
5085 1240 CircleF
2076 4406 CircleF
2196 4498 CircleF
5887 2155 CircleF
6007 2247 CircleF
2081 715 CircleF
2201 807 CircleF
2721 4000 CircleF
2841 4092 CircleF
2191 4285 CircleF
2311 4377 CircleF
3949 3228 CircleF
4068 3320 CircleF
6687 1081 CircleF
6806 1173 CircleF
3535 4082 CircleF
3655 4174 CircleF
4721 1021 CircleF
4841 1113 CircleF
1189 2959 CircleF
1309 3051 CircleF
4681 4050 CircleF
4800 4142 CircleF
5128 1690 CircleF
5248 1782 CircleF
6452 4284 CircleF
6571 4376 CircleF
3696 1839 CircleF
3815 1931 CircleF
6132 4350 CircleF
6252 4442 CircleF
1882 4603 CircleF
2002 4695 CircleF
4877 4385 CircleF
4997 4477 CircleF
4303 3121 CircleF
4422 3213 CircleF
5898 809 CircleF
6018 901 CircleF
4096 3816 CircleF
4216 3907 CircleF
2415 1655 CircleF
2535 1747 CircleF
5125 4330 CircleF
5244 4421 CircleF
5636 2495 CircleF
5756 2587 CircleF
6443 669 CircleF
6563 761 CircleF
5380 1131 CircleF
5499 1223 CircleF
1524 1201 CircleF
1644 1293 CircleF
1188 1481 CircleF
1308 1572 CircleF
3582 3238 CircleF
3702 3330 CircleF
6358 1376 CircleF
6477 1468 CircleF
2944 1710 CircleF
3064 1802 CircleF
3580 2542 CircleF
3700 2634 CircleF
2073 582 CircleF
2192 674 CircleF
1655 2977 CircleF
1774 3069 CircleF
1067 2241 CircleF
1187 2332 CircleF
5252 4497 CircleF
5371 4589 CircleF
4660 526 CircleF
4779 618 CircleF
1845 3861 CircleF
1964 3953 CircleF
3304 3771 CircleF
3424 3863 CircleF
1941 1413 CircleF
2061 1505 CircleF
6690 1424 CircleF
6809 1515 CircleF
6687 3454 CircleF
6806 3546 CircleF
3742 1841 CircleF
3861 1933 CircleF
4297 2974 CircleF
4417 3066 CircleF
1846 620 CircleF
1965 712 CircleF
1427 4670 CircleF
1546 4762 CircleF
3756 3729 CircleF
3876 3820 CircleF
4594 2266 CircleF
4714 2358 CircleF
4551 2144 CircleF
4670 2236 CircleF
2562 2090 CircleF
2682 2182 CircleF
6281 2465 CircleF
6400 2556 CircleF
4201 561 CircleF
4321 652 CircleF
2223 1383 CircleF
2342 1475 CircleF
5027 3749 CircleF
5147 3840 CircleF
2130 2704 CircleF
2250 2796 CircleF
6671 896 CircleF
6791 988 CircleF
4167 2340 CircleF
4286 2432 CircleF
6684 3498 CircleF
6804 3590 CircleF
2800 436 CircleF
2919 528 CircleF
5924 2402 CircleF
6043 2494 CircleF
6694 2170 CircleF
6814 2262 CircleF
4124 3574 CircleF
4244 3666 CircleF
4518 4652 CircleF
4638 4744 CircleF
4569 3817 CircleF
4689 3908 CircleF
3085 2620 CircleF
3204 2712 CircleF
2951 2902 CircleF
3071 2994 CircleF
5080 4422 CircleF
5199 4514 CircleF
2039 2638 CircleF
2158 2730 CircleF
2583 4612 CircleF
2703 4704 CircleF
2530 3029 CircleF
2650 3120 CircleF
4732 411 CircleF
4852 503 CircleF
1014 1710 CircleF
1134 1802 CircleF
1881 2290 CircleF
2000 2382 CircleF
1309 312 CircleF
1429 404 CircleF
6653 2598 CircleF
6772 2690 CircleF
6489 336 CircleF
6609 428 CircleF
4833 2547 CircleF
4953 2638 CircleF
1485 2702 CircleF
1604 2793 CircleF
2850 3381 CircleF
2970 3473 CircleF
5838 2103 CircleF
5958 2195 CircleF
1629 4288 CircleF
1748 4380 CircleF
5549 1839 CircleF
5668 1931 CircleF
6096 2001 CircleF
6215 2093 CircleF
5022 2808 CircleF
5142 2900 CircleF
2200 1417 CircleF
2320 1509 CircleF
2349 3614 CircleF
2469 3706 CircleF
1499 378 CircleF
1619 470 CircleF
5885 2939 CircleF
6005 3031 CircleF
1880 1221 CircleF
2000 1313 CircleF
6171 1612 CircleF
6291 1704 CircleF
5531 607 CircleF
5651 699 CircleF
2155 1945 CircleF
2275 2037 CircleF
6644 849 CircleF
6764 941 CircleF
5795 408 CircleF
5915 500 CircleF
4220 2853 CircleF
4339 2944 CircleF
2173 4609 CircleF
2293 4700 CircleF
3981 515 CircleF
4100 607 CircleF
6035 2921 CircleF
6155 3012 CircleF
2403 3738 CircleF
2522 3830 CircleF
6626 1675 CircleF
6746 1767 CircleF
4626 878 CircleF
4746 969 CircleF
5558 1237 CircleF
5677 1329 CircleF
4493 2071 CircleF
4612 2163 CircleF
4939 1026 CircleF
5058 1118 CircleF
2751 1638 CircleF
2871 1730 CircleF
6422 448 CircleF
6541 540 CircleF
2560 2451 CircleF
2679 2543 CircleF
5458 2991 CircleF
5578 3083 CircleF
2073 882 CircleF
2193 973 CircleF
1290 3327 CircleF
1410 3419 CircleF
3562 4406 CircleF
3682 4498 CircleF
1371 516 CircleF
1490 608 CircleF
4970 335 CircleF
5090 427 CircleF
2083 2574 CircleF
2203 2666 CircleF
2189 2575 CircleF
2308 2666 CircleF
3439 4409 CircleF
3558 4500 CircleF
6703 2834 CircleF
6822 2926 CircleF
3210 3081 CircleF
3329 3173 CircleF
6169 557 CircleF
6289 649 CircleF
4735 3397 CircleF
4855 3489 CircleF
3387 328 CircleF
3506 420 CircleF
6312 1733 CircleF
6432 1825 CircleF
5367 3130 CircleF
5487 3222 CircleF
6621 4674 CircleF
6741 4766 CircleF
2460 1808 CircleF
2580 1900 CircleF
4804 2817 CircleF
4924 2909 CircleF
3843 854 CircleF
3963 946 CircleF
3865 905 CircleF
3985 997 CircleF
4322 4533 CircleF
4441 4625 CircleF
5251 3060 CircleF
5370 3152 CircleF
2955 1624 CircleF
3075 1716 CircleF
5354 3815 CircleF
5474 3907 CircleF
2063 4354 CircleF
2182 4445 CircleF
1098 3115 CircleF
1217 3206 CircleF
3179 3116 CircleF
3299 3208 CircleF
1408 765 CircleF
1528 857 CircleF
3295 1453 CircleF
3414 1545 CircleF
1295 2331 CircleF
1415 2422 CircleF
3489 1128 CircleF
3609 1220 CircleF
2476 1567 CircleF
2595 1659 CircleF
3588 4190 CircleF
3708 4282 CircleF
6607 1226 CircleF
6727 1317 CircleF
6408 2609 CircleF
6527 2700 CircleF
1120 2554 CircleF
1240 2646 CircleF
2834 4526 CircleF
2954 4618 CircleF
6254 572 CircleF
6373 664 CircleF
6107 4341 CircleF
6227 4433 CircleF
5661 3193 CircleF
5781 3285 CircleF
2454 3115 CircleF
2573 3207 CircleF
5497 754 CircleF
5617 846 CircleF
4703 1348 CircleF
4823 1440 CircleF
2532 3096 CircleF
2652 3188 CircleF
6504 2675 CircleF
6623 2767 CircleF
1558 1563 CircleF
1678 1654 CircleF
1098 3282 CircleF
1218 3374 CircleF
3868 671 CircleF
3987 762 CircleF
5338 696 CircleF
5457 788 CircleF
3265 4192 CircleF
3384 4284 CircleF
2358 4274 CircleF
2478 4366 CircleF
4570 3982 CircleF
4689 4074 CircleF
3809 4193 CircleF
3929 4285 CircleF
5702 2972 CircleF
5822 3064 CircleF
1991 719 CircleF
2111 811 CircleF
6556 3422 CircleF
6676 3514 CircleF
3530 2553 CircleF
3649 2645 CircleF
3054 780 CircleF
3174 872 CircleF
4262 4129 CircleF
4382 4221 CircleF
3912 2082 CircleF
4032 2174 CircleF
3248 2429 CircleF
3368 2521 CircleF
4239 1671 CircleF
4359 1763 CircleF
4638 3687 CircleF
4758 3778 CircleF
6503 1404 CircleF
6622 1495 CircleF
4610 3619 CircleF
4729 3710 CircleF
2114 3868 CircleF
2234 3959 CircleF
4995 2715 CircleF
5115 2807 CircleF
4598 2816 CircleF
4718 2908 CircleF
4391 1603 CircleF
4511 1695 CircleF
2318 590 CircleF
2437 681 CircleF
5997 4493 CircleF
6117 4585 CircleF
3033 3107 CircleF
3153 3199 CircleF
1811 1773 CircleF
1930 1865 CircleF
6359 4337 CircleF
6479 4429 CircleF
1011 1974 CircleF
1131 2066 CircleF
1696 1111 CircleF
1815 1203 CircleF
5223 3197 CircleF
5343 3289 CircleF
2844 1829 CircleF
2964 1921 CircleF
2923 2175 CircleF
3042 2267 CircleF
4927 948 CircleF
5046 1040 CircleF
4402 1500 CircleF
4521 1592 CircleF
6046 1475 CircleF
6166 1566 CircleF
1606 1289 CircleF
1725 1381 CircleF
1394 1290 CircleF
1514 1382 CircleF
2935 1638 CircleF
3055 1730 CircleF
3111 4322 CircleF
3230 4414 CircleF
6532 4150 CircleF
6652 4242 CircleF
1898 798 CircleF
2017 889 CircleF
5767 4375 CircleF
5886 4466 CircleF
2109 1294 CircleF
2229 1386 CircleF
1423 1019 CircleF
1542 1111 CircleF
6628 541 CircleF
6747 632 CircleF
3476 2466 CircleF
3596 2557 CircleF
4783 4315 CircleF
4903 4406 CircleF
1916 356 CircleF
2036 448 CircleF
2384 2364 CircleF
2504 2455 CircleF
5248 4200 CircleF
5368 4292 CircleF
4169 1219 CircleF
4289 1311 CircleF
2615 2658 CircleF
2734 2750 CircleF
1320 749 CircleF
1440 841 CircleF
4844 1615 CircleF
4963 1707 CircleF
1044 3300 CircleF
1163 3392 CircleF
3468 3964 CircleF
3587 4056 CircleF
3292 1339 CircleF
3411 1431 CircleF
3679 2551 CircleF
3798 2643 CircleF
976 3456 CircleF
1096 3548 CircleF
2127 930 CircleF
2246 1022 CircleF
1797 3459 CircleF
1916 3551 CircleF
5022 3690 CircleF
5141 3782 CircleF
4574 825 CircleF
4693 917 CircleF
1247 3877 CircleF
1367 3969 CircleF
6612 2542 CircleF
6732 2634 CircleF
5753 1597 CircleF
5873 1688 CircleF
5262 4122 CircleF
5382 4214 CircleF
3560 2783 CircleF
3679 2875 CircleF
5346 3601 CircleF
5466 3693 CircleF
4629 3620 CircleF
4748 3712 CircleF
4005 3207 CircleF
4124 3299 CircleF
2091 4400 CircleF
2210 4492 CircleF
5739 1952 CircleF
5858 2044 CircleF
5005 879 CircleF
5125 971 CircleF
2901 2924 CircleF
3021 3016 CircleF
6617 2056 CircleF
6737 2148 CircleF
4598 2743 CircleF
4718 2834 CircleF
4594 1722 CircleF
4713 1814 CircleF
4174 630 CircleF
4294 722 CircleF
1996 2346 CircleF
2116 2438 CircleF
2717 3208 CircleF
2837 3300 CircleF
4658 1066 CircleF
4778 1158 CircleF
3641 4593 CircleF
3761 4685 CircleF
1895 1119 CircleF
2015 1210 CircleF
4913 2984 CircleF
5033 3076 CircleF
2678 3304 CircleF
2797 3396 CircleF
4136 2931 CircleF
4255 3023 CircleF
3230 1937 CircleF
3349 2029 CircleF
2559 3537 CircleF
2679 3629 CircleF
1417 3981 CircleF
1537 4073 CircleF
1620 3349 CircleF
1740 3441 CircleF
3081 3734 CircleF
3200 3826 CircleF
1078 3055 CircleF
1198 3147 CircleF
6471 444 CircleF
6590 536 CircleF
2489 2929 CircleF
2608 3021 CircleF
2555 378 CircleF
2674 470 CircleF
5553 2230 CircleF
5672 2322 CircleF
1590 1719 CircleF
1710 1810 CircleF
1144 2864 CircleF
1264 2956 CircleF
5689 4669 CircleF
5808 4761 CircleF
2411 2707 CircleF
2531 2799 CircleF
2473 1439 CircleF
2592 1531 CircleF
2285 409 CircleF
2405 501 CircleF
6504 3045 CircleF
6624 3136 CircleF
4340 1477 CircleF
4460 1569 CircleF
2987 3898 CircleF
3106 3990 CircleF
2071 4133 CircleF
2191 4224 CircleF
4562 3541 CircleF
4681 3633 CircleF
4453 3096 CircleF
4573 3188 CircleF
4073 3886 CircleF
4193 3978 CircleF
2161 1429 CircleF
2280 1521 CircleF
6178 1715 CircleF
6297 1807 CircleF
6004 2014 CircleF
6123 2106 CircleF
4172 4577 CircleF
4292 4669 CircleF
6395 3750 CircleF
6515 3842 CircleF
2245 2717 CircleF
2365 2809 CircleF
6638 2499 CircleF
6757 2591 CircleF
6282 4160 CircleF
6402 4251 CircleF
1470 2694 CircleF
1590 2786 CircleF
2942 1341 CircleF
3062 1432 CircleF
3856 3238 CircleF
3976 3330 CircleF
5809 1137 CircleF
5929 1229 CircleF
3520 734 CircleF
3639 826 CircleF
1535 4464 CircleF
1654 4556 CircleF
5251 2699 CircleF
5370 2791 CircleF
1949 2467 CircleF
2068 2559 CircleF
2380 4612 CircleF
2500 4704 CircleF
5125 2260 CircleF
5245 2351 CircleF
6267 428 CircleF
6387 520 CircleF
4691 1150 CircleF
4811 1242 CircleF
5182 347 CircleF
5301 438 CircleF
2291 3596 CircleF
2410 3688 CircleF
2571 4545 CircleF
2690 4637 CircleF
1061 3141 CircleF
1180 3233 CircleF
6490 3876 CircleF
6610 3968 CircleF
5227 4018 CircleF
5347 4110 CircleF
5056 1642 CircleF
5176 1734 CircleF
1671 3679 CircleF
1791 3771 CircleF
4041 2796 CircleF
4160 2887 CircleF
6634 3989 CircleF
6754 4081 CircleF
2333 1249 CircleF
2452 1341 CircleF
1159 606 CircleF
1279 698 CircleF
5299 2421 CircleF
5419 2513 CircleF
1188 1495 CircleF
1308 1587 CircleF
1518 1568 CircleF
1637 1660 CircleF
6409 2965 CircleF
6529 3057 CircleF
6503 1269 CircleF
6622 1361 CircleF
4497 4051 CircleF
4617 4143 CircleF
4226 1558 CircleF
4346 1650 CircleF
5749 766 CircleF
5869 858 CircleF
4650 541 CircleF
4770 632 CircleF
5614 4040 CircleF
5734 4132 CircleF
6132 1340 CircleF
6251 1432 CircleF
3419 2083 CircleF
3539 2175 CircleF
6203 4375 CircleF
6323 4467 CircleF
5241 1098 CircleF
5360 1190 CircleF
6063 988 CircleF
6183 1080 CircleF
4434 3312 CircleF
4554 3404 CircleF
1466 2130 CircleF
1585 2222 CircleF
6650 3051 CircleF
6770 3143 CircleF
2291 2219 CircleF
2410 2310 CircleF
6267 2934 CircleF
6387 3026 CircleF
3536 4649 CircleF
3655 4741 CircleF
1943 4459 CircleF
2062 4551 CircleF
2362 758 CircleF
2482 849 CircleF
6406 294 CircleF
6526 385 CircleF
4823 3264 CircleF
4943 3356 CircleF
5528 2131 CircleF
5648 2223 CircleF
5679 2385 CircleF
5799 2476 CircleF
5490 1891 CircleF
5609 1983 CircleF
3770 2568 CircleF
3890 2660 CircleF
3413 4408 CircleF
3532 4500 CircleF
2493 555 CircleF
2613 647 CircleF
4495 2036 CircleF
4614 2128 CircleF
5172 2161 CircleF
5292 2253 CircleF
5642 3943 CircleF
5761 4035 CircleF
6419 315 CircleF
6539 407 CircleF
6306 3152 CircleF
6426 3244 CircleF
5643 3767 CircleF
5762 3859 CircleF
1653 315 CircleF
1773 407 CircleF
6213 2986 CircleF
6332 3078 CircleF
5596 3054 CircleF
5715 3146 CircleF
6145 546 CircleF
6264 637 CircleF
6612 3373 CircleF
6732 3465 CircleF
2753 3343 CircleF
2873 3435 CircleF
3774 4212 CircleF
3893 4304 CircleF
6437 2275 CircleF
6557 2367 CircleF
5890 699 CircleF
6010 791 CircleF
1112 710 CircleF
1231 802 CircleF
4606 2425 CircleF
4725 2517 CircleF
1570 2779 CircleF
1689 2871 CircleF
5629 1703 CircleF
5749 1795 CircleF
4598 2199 CircleF
4717 2291 CircleF
5572 3934 CircleF
5692 4026 CircleF
2443 1137 CircleF
2562 1229 CircleF
2580 2207 CircleF
2700 2299 CircleF
6279 1721 CircleF
6399 1813 CircleF
5444 2158 CircleF
5563 2250 CircleF
5275 2520 CircleF
5395 2612 CircleF
2311 996 CircleF
2431 1088 CircleF
6690 2789 CircleF
6810 2881 CircleF
3399 1771 CircleF
3518 1862 CircleF
1464 1798 CircleF
1584 1890 CircleF
1124 687 CircleF
1243 778 CircleF
2746 2406 CircleF
2865 2498 CircleF
1843 3237 CircleF
1962 3329 CircleF
1246 3827 CircleF
1366 3918 CircleF
4924 4233 CircleF
5044 4325 CircleF
2735 1718 CircleF
2855 1810 CircleF
4766 3016 CircleF
4886 3108 CircleF
5422 3732 CircleF
5542 3824 CircleF
2218 1922 CircleF
2338 2014 CircleF
6314 2190 CircleF
6434 2282 CircleF
4189 1228 CircleF
4309 1320 CircleF
3195 432 CircleF
3314 524 CircleF
4720 1402 CircleF
4840 1494 CircleF
4099 832 CircleF
4219 924 CircleF
5283 4099 CircleF
5402 4191 CircleF
2435 3327 CircleF
2555 3419 CircleF
2316 2397 CircleF
2436 2489 CircleF
5606 1826 CircleF
5726 1918 CircleF
1718 3089 CircleF
1838 3181 CircleF
5318 2236 CircleF
5437 2327 CircleF
3735 2273 CircleF
3855 2364 CircleF
5120 3878 CircleF
5239 3970 CircleF
1146 3339 CircleF
1266 3430 CircleF
5904 1798 CircleF
6024 1890 CircleF
1801 3985 CircleF
1921 4076 CircleF
2457 2507 CircleF
2577 2598 CircleF
5696 2528 CircleF
5816 2619 CircleF
5691 2839 CircleF
5811 2930 CircleF
6530 4599 CircleF
6650 4691 CircleF
1830 4041 CircleF
1949 4133 CircleF
6626 2414 CircleF
6746 2506 CircleF
2282 1366 CircleF
2401 1458 CircleF
5299 1838 CircleF
5419 1930 CircleF
3674 2389 CircleF
3794 2481 CircleF
3292 865 CircleF
3411 957 CircleF
6193 4646 CircleF
6312 4738 CircleF
990 4527 CircleF
1110 4619 CircleF
1476 582 CircleF
1595 673 CircleF
2104 298 CircleF
2223 390 CircleF
1825 4542 CircleF
1944 4634 CircleF
2987 2840 CircleF
3107 2931 CircleF
4514 2605 CircleF
4633 2697 CircleF
3629 3444 CircleF
3748 3535 CircleF
5141 3084 CircleF
5261 3175 CircleF
3091 2725 CircleF
3211 2817 CircleF
2832 4138 CircleF
2952 4230 CircleF
5618 3716 CircleF
5738 3807 CircleF
1361 1788 CircleF
1480 1880 CircleF
5524 3871 CircleF
5643 3963 CircleF
2517 333 CircleF
2636 425 CircleF
1732 1410 CircleF
1852 1502 CircleF
3889 1065 CircleF
4009 1156 CircleF
5789 587 CircleF
5908 679 CircleF
2572 1670 CircleF
2691 1762 CircleF
3775 3040 CircleF
3895 3132 CircleF
4893 3791 CircleF
5012 3883 CircleF
3864 2952 CircleF
3984 3044 CircleF
2142 2309 CircleF
2262 2401 CircleF
3385 1321 CircleF
3504 1413 CircleF
4201 2379 CircleF
4320 2471 CircleF
3944 2648 CircleF
4063 2739 CircleF
2476 2084 CircleF
2596 2175 CircleF
978 2789 CircleF
1098 2881 CircleF
1674 4109 CircleF
1794 4201 CircleF
2387 1759 CircleF
2506 1850 CircleF
4874 3785 CircleF
4994 3876 CircleF
3693 2126 CircleF
3813 2218 CircleF
4903 3336 CircleF
5023 3427 CircleF
2129 3734 CircleF
2248 3826 CircleF
4635 4335 CircleF
4755 4427 CircleF
2149 3634 CircleF
2268 3726 CircleF
5479 4248 CircleF
5599 4340 CircleF
2130 342 CircleF
2249 434 CircleF
5583 1810 CircleF
5703 1902 CircleF
1857 4244 CircleF
1977 4336 CircleF
4702 4084 CircleF
4822 4176 CircleF
5474 3017 CircleF
5594 3109 CircleF
2828 1617 CircleF
2948 1709 CircleF
3897 3487 CircleF
4017 3579 CircleF
1822 2809 CircleF
1942 2901 CircleF
5933 2295 CircleF
6052 2386 CircleF
2024 3053 CircleF
2144 3145 CircleF
3715 2707 CircleF
3835 2799 CircleF
3169 2455 CircleF
3289 2546 CircleF
3142 2405 CircleF
3262 2497 CircleF
3578 948 CircleF
3698 1040 CircleF
6250 3415 CircleF
6370 3507 CircleF
3746 1888 CircleF
3865 1980 CircleF
4556 1982 CircleF
4675 2074 CircleF
1437 3415 CircleF
1556 3507 CircleF
3395 2841 CircleF
3514 2932 CircleF
3091 999 CircleF
3210 1091 CircleF
2694 2554 CircleF
2813 2646 CircleF
2073 1880 CircleF
2192 1972 CircleF
5458 4469 CircleF
5577 4561 CircleF
4892 4475 CircleF
5011 4566 CircleF
4855 2453 CircleF
4974 2545 CircleF
3612 768 CircleF
3731 860 CircleF
4937 4069 CircleF
5057 4161 CircleF
5184 3465 CircleF
5304 3557 CircleF
4212 998 CircleF
4331 1090 CircleF
1769 4125 CircleF
1889 4217 CircleF
4158 2557 CircleF
4278 2648 CircleF
4912 3240 CircleF
5032 3332 CircleF
5840 1949 CircleF
5960 2041 CircleF
4362 3800 CircleF
4482 3892 CircleF
6589 1001 CircleF
6708 1093 CircleF
6672 1083 CircleF
6792 1175 CircleF
2200 1419 CircleF
2319 1511 CircleF
6371 1734 CircleF
6491 1826 CircleF
4458 2020 CircleF
4578 2112 CircleF
1700 2760 CircleF
1819 2852 CircleF
2042 4440 CircleF
2162 4532 CircleF
1354 1915 CircleF
1474 2006 CircleF
2997 4402 CircleF
3117 4494 CircleF
6301 3673 CircleF
6421 3764 CircleF
968 2255 CircleF
1088 2347 CircleF
6314 1074 CircleF
6433 1166 CircleF
1968 3210 CircleF
2088 3302 CircleF
5111 3290 CircleF
5231 3382 CircleF
2168 4134 CircleF
2287 4226 CircleF
6704 1574 CircleF
6824 1666 CircleF
6671 3369 CircleF
6791 3461 CircleF
4901 2984 CircleF
5020 3075 CircleF
5282 2961 CircleF
5402 3053 CircleF
3688 665 CircleF
3807 757 CircleF
5472 1842 CircleF
5591 1934 CircleF
4087 916 CircleF
4206 1008 CircleF
2025 861 CircleF
2145 953 CircleF
3288 887 CircleF
3408 979 CircleF
4421 2669 CircleF
4540 2761 CircleF
2810 499 CircleF
2930 591 CircleF
5946 4343 CircleF
6066 4435 CircleF
4601 4582 CircleF
4721 4674 CircleF
4141 4048 CircleF
4261 4140 CircleF
4113 3690 CircleF
4233 3782 CircleF
4458 1873 CircleF
4577 1965 CircleF
2806 822 CircleF
2925 914 CircleF
5821 4430 CircleF
5941 4522 CircleF
2789 3767 CircleF
2908 3859 CircleF
1687 2748 CircleF
1807 2840 CircleF
5937 4315 CircleF
6057 4407 CircleF
3144 2280 CircleF
3264 2371 CircleF
4104 2670 CircleF
4223 2762 CircleF
6423 3717 CircleF
6542 3808 CircleF
5750 1520 CircleF
5870 1612 CircleF
3636 2244 CircleF
3755 2336 CircleF
3129 3887 CircleF
3249 3979 CircleF
4916 2673 CircleF
5036 2765 CircleF
3486 1736 CircleF
3606 1828 CircleF
1576 1970 CircleF
1696 2062 CircleF
2534 2791 CircleF
2654 2883 CircleF
4656 2389 CircleF
4775 2481 CircleF
6018 3099 CircleF
6138 3191 CircleF
2112 4053 CircleF
2232 4145 CircleF
5522 2521 CircleF
5642 2613 CircleF
3058 505 CircleF
3178 597 CircleF
4009 1479 CircleF
4129 1571 CircleF
5646 4096 CircleF
5765 4188 CircleF
5477 2429 CircleF
5597 2521 CircleF
1783 1826 CircleF
1902 1918 CircleF
4057 2020 CircleF
4176 2112 CircleF
1575 3166 CircleF
1695 3257 CircleF
1523 3593 CircleF
1643 3685 CircleF
3490 501 CircleF
3609 593 CircleF
6040 1805 CircleF
6160 1897 CircleF
2692 2250 CircleF
2812 2342 CircleF
3128 4578 CircleF
3248 4670 CircleF
5379 3186 CircleF
5499 3278 CircleF
5705 3185 CircleF
5825 3277 CircleF
5122 4460 CircleF
5242 4552 CircleF
5457 665 CircleF
5577 756 CircleF
2854 1143 CircleF
2973 1235 CircleF
3751 1745 CircleF
3870 1837 CircleF
4988 1090 CircleF
5107 1181 CircleF
2522 3915 CircleF
2642 4007 CircleF
6579 1208 CircleF
6699 1299 CircleF
6583 1810 CircleF
6702 1902 CircleF
6164 990 CircleF
6284 1081 CircleF
4893 640 CircleF
5013 732 CircleF
4370 3330 CircleF
4489 3422 CircleF
2596 2530 CircleF
2715 2622 CircleF
6334 4039 CircleF
6454 4131 CircleF
4955 3135 CircleF
5075 3227 CircleF
5579 3095 CircleF
5699 3187 CircleF
2466 1873 CircleF
2585 1964 CircleF
1088 3643 CircleF
1208 3734 CircleF
4921 1842 CircleF
5041 1934 CircleF
6058 1175 CircleF
6178 1267 CircleF
4461 1052 CircleF
4581 1144 CircleF
3859 4376 CircleF
3979 4468 CircleF
2281 458 CircleF
2401 550 CircleF
4398 3686 CircleF
4518 3778 CircleF
3024 1392 CircleF
3144 1484 CircleF
5696 870 CircleF
5816 962 CircleF
5259 1606 CircleF
5378 1698 CircleF
3359 3991 CircleF
3478 4083 CircleF
2982 3938 CircleF
3102 4030 CircleF
2831 654 CircleF
2950 746 CircleF
4310 3835 CircleF
4430 3927 CircleF
6663 3710 CircleF
6783 3802 CircleF
4569 1080 CircleF
4689 1172 CircleF
4456 793 CircleF
4575 885 CircleF
1479 3377 CircleF
1599 3469 CircleF
6152 4411 CircleF
6271 4503 CircleF
3996 3059 CircleF
4115 3151 CircleF
1132 926 CircleF
1252 1018 CircleF
3785 4571 CircleF
3905 4663 CircleF
1454 4562 CircleF
1574 4654 CircleF
3387 3431 CircleF
3507 3523 CircleF
3664 2378 CircleF
3784 2470 CircleF
4020 1436 CircleF
4140 1528 CircleF
6696 2915 CircleF
6815 3007 CircleF
3063 2217 CircleF
3183 2308 CircleF
6366 419 CircleF
6486 510 CircleF
2993 3526 CircleF
3112 3618 CircleF
4293 4081 CircleF
4413 4173 CircleF
3494 1515 CircleF
3613 1606 CircleF
5577 1468 CircleF
5696 1560 CircleF
2718 3669 CircleF
2838 3761 CircleF
4445 1981 CircleF
4565 2072 CircleF
5301 1275 CircleF
5421 1367 CircleF
3741 1739 CircleF
3861 1831 CircleF
2550 2217 CircleF
2670 2309 CircleF
6676 596 CircleF
6796 688 CircleF
6277 3781 CircleF
6397 3873 CircleF
1418 4464 CircleF
1538 4555 CircleF
6268 4221 CircleF
6388 4313 CircleF
5045 4434 CircleF
5164 4526 CircleF
3018 2221 CircleF
3138 2313 CircleF
5636 2747 CircleF
5756 2838 CircleF
2881 3823 CircleF
3000 3915 CircleF
2516 3182 CircleF
2636 3274 CircleF
4676 3145 CircleF
4795 3237 CircleF
5838 614 CircleF
5958 706 CircleF
1730 2082 CircleF
1850 2174 CircleF
5616 1124 CircleF
5736 1216 CircleF
3109 3341 CircleF
3229 3432 CircleF
3341 3826 CircleF
3460 3918 CircleF
5426 1242 CircleF
5546 1334 CircleF
3848 1345 CircleF
3967 1437 CircleF
1744 1385 CircleF
1863 1477 CircleF
2120 2657 CircleF
2240 2749 CircleF
3720 4077 CircleF
3839 4168 CircleF
2274 2651 CircleF
2394 2743 CircleF
4262 3017 CircleF
4381 3109 CircleF
4685 368 CircleF
4804 460 CircleF
5858 292 CircleF
5977 384 CircleF
6493 2425 CircleF
6613 2517 CircleF
2110 713 CircleF
2230 805 CircleF
3836 1790 CircleF
3955 1882 CircleF
3005 3513 CircleF
3125 3604 CircleF
5537 1384 CircleF
5656 1476 CircleF
5974 2416 CircleF
6094 2508 CircleF
2084 2640 CircleF
2203 2732 CircleF
2513 1444 CircleF
2633 1536 CircleF
6575 1378 CircleF
6694 1470 CircleF
2968 831 CircleF
3088 923 CircleF
1586 1785 CircleF
1705 1877 CircleF
5391 861 CircleF
5511 953 CircleF
3272 2130 CircleF
3392 2221 CircleF
2807 3914 CircleF
2927 4006 CircleF
3591 2005 CircleF
3710 2096 CircleF
2104 2512 CircleF
2224 2603 CircleF
2244 3257 CircleF
2364 3349 CircleF
4530 4027 CircleF
4650 4119 CircleF
3783 4171 CircleF
3902 4263 CircleF
4312 3369 CircleF
4431 3460 CircleF
5747 326 CircleF
5866 418 CircleF
6139 4008 CircleF
6259 4100 CircleF
4097 4673 CircleF
4217 4764 CircleF
2984 4323 CircleF
3104 4414 CircleF
5322 838 CircleF
5442 929 CircleF
3043 2484 CircleF
3163 2576 CircleF
2990 4006 CircleF
3110 4098 CircleF
2171 2614 CircleF
2291 2706 CircleF
1361 785 CircleF
1481 877 CircleF
4104 2017 CircleF
4224 2109 CircleF
6236 852 CircleF
6356 944 CircleF
4925 1451 CircleF
5045 1543 CircleF
4639 4347 CircleF
4758 4439 CircleF
1248 2383 CircleF
1368 2475 CircleF
3646 543 CircleF
3766 634 CircleF
2546 683 CircleF
2665 775 CircleF
1187 1638 CircleF
1306 1730 CircleF
3442 2405 CircleF
3562 2497 CircleF
4045 2873 CircleF
4165 2965 CircleF
2054 569 CircleF
2174 661 CircleF
4422 3986 CircleF
4542 4078 CircleF
2648 4032 CircleF
2767 4124 CircleF
5981 3743 CircleF
6100 3835 CircleF
1148 4203 CircleF
1267 4295 CircleF
3853 4317 CircleF
3973 4409 CircleF
5025 3183 CircleF
5144 3275 CircleF
2816 3415 CircleF
2936 3507 CircleF
4044 3252 CircleF
4164 3344 CircleF
1498 883 CircleF
1617 975 CircleF
4721 1184 CircleF
4841 1276 CircleF
1887 2820 CircleF
2006 2911 CircleF
3222 2846 CircleF
3342 2938 CircleF
4699 2328 CircleF
4819 2420 CircleF
4150 2687 CircleF
4270 2779 CircleF
1513 1384 CircleF
1633 1476 CircleF
4319 3550 CircleF
4438 3642 CircleF
3314 2160 CircleF
3434 2252 CircleF
6280 715 CircleF
6399 807 CircleF
6317 868 CircleF
6437 959 CircleF
3769 2435 CircleF
3888 2526 CircleF
3756 4466 CircleF
3875 4558 CircleF
5407 4300 CircleF
5527 4392 CircleF
6030 1060 CircleF
6150 1152 CircleF
4519 4033 CircleF
4638 4125 CircleF
6569 3027 CircleF
6689 3119 CircleF
5949 2467 CircleF
6068 2559 CircleF
2256 4633 CircleF
2375 4725 CircleF
6482 2888 CircleF
6602 2980 CircleF
2263 1821 CircleF
2383 1913 CircleF
1358 3657 CircleF
1477 3749 CircleF
6404 3484 CircleF
6523 3576 CircleF
5568 4616 CircleF
5688 4708 CircleF
3351 3135 CircleF
3471 3227 CircleF
5025 1815 CircleF
5145 1907 CircleF
5285 3952 CircleF
5405 4044 CircleF
4387 3488 CircleF
4507 3579 CircleF
5292 2506 CircleF
5411 2598 CircleF
3263 931 CircleF
3382 1022 CircleF
1771 600 CircleF
1891 692 CircleF
1854 408 CircleF
1974 499 CircleF
2998 1118 CircleF
3118 1210 CircleF
3664 3120 CircleF
3784 3212 CircleF
1203 670 CircleF
1323 762 CircleF
1086 4484 CircleF
1206 4576 CircleF
3242 2114 CircleF
3361 2206 CircleF
% End plot #2
1.000 UP
1.000 UL
LT0
0.50 0.50 0.50 C stroke
grestore
end
showpage
%%Trailer
%%DocumentFonts: Helvetica
%%Pages: 1
