%!PS-Adobe-2.0
%%Title: out.ps
%%Creator: gnuplot 4.6 patchlevel 6
%%CreationDate: Thu May 28 15:04:46 2015
%%DocumentFonts: (atend)
%%BoundingBox: 50 50 554 770
%%Orientation: Landscape
%%Pages: (atend)
%%EndComments
%%BeginProlog
/gnudict 256 dict def
gnudict begin
%
% The following true/false flags may be edited by hand if desired.
% The unit line width and grayscale image gamma correction may also be changed.
%
/Color false def
/Blacktext false def
/Solid false def
/Dashlength 1 def
/Landscape true def
/Level1 false def
/Rounded false def
/ClipToBoundingBox false def
/SuppressPDFMark false def
/TransparentPatterns false def
/gnulinewidth 5.000 def
/userlinewidth gnulinewidth def
/Gamma 1.0 def
/BackgroundColor {-1.000 -1.000 -1.000} def
%
/vshift -46 def
/dl1 {
  10.0 Dashlength mul mul
  Rounded { currentlinewidth 0.75 mul sub dup 0 le { pop 0.01 } if } if
} def
/dl2 {
  10.0 Dashlength mul mul
  Rounded { currentlinewidth 0.75 mul add } if
} def
/hpt_ 31.5 def
/vpt_ 31.5 def
/hpt hpt_ def
/vpt vpt_ def
/doclip {
  ClipToBoundingBox {
    newpath 50 50 moveto 554 50 lineto 554 770 lineto 50 770 lineto closepath
    clip
  } if
} def
%
% Gnuplot Prolog Version 4.6 (September 2012)
%
%/SuppressPDFMark true def
%
/M {moveto} bind def
/L {lineto} bind def
/R {rmoveto} bind def
/V {rlineto} bind def
/N {newpath moveto} bind def
/Z {closepath} bind def
/C {setrgbcolor} bind def
/f {rlineto fill} bind def
/g {setgray} bind def
/Gshow {show} def   % May be redefined later in the file to support UTF-8
/vpt2 vpt 2 mul def
/hpt2 hpt 2 mul def
/Lshow {currentpoint stroke M 0 vshift R 
	Blacktext {gsave 0 setgray show grestore} {show} ifelse} def
/Rshow {currentpoint stroke M dup stringwidth pop neg vshift R
	Blacktext {gsave 0 setgray show grestore} {show} ifelse} def
/Cshow {currentpoint stroke M dup stringwidth pop -2 div vshift R 
	Blacktext {gsave 0 setgray show grestore} {show} ifelse} def
/UP {dup vpt_ mul /vpt exch def hpt_ mul /hpt exch def
  /hpt2 hpt 2 mul def /vpt2 vpt 2 mul def} def
/DL {Color {setrgbcolor Solid {pop []} if 0 setdash}
 {pop pop pop 0 setgray Solid {pop []} if 0 setdash} ifelse} def
/BL {stroke userlinewidth 2 mul setlinewidth
	Rounded {1 setlinejoin 1 setlinecap} if} def
/AL {stroke userlinewidth 2 div setlinewidth
	Rounded {1 setlinejoin 1 setlinecap} if} def
/UL {dup gnulinewidth mul /userlinewidth exch def
	dup 1 lt {pop 1} if 10 mul /udl exch def} def
/PL {stroke userlinewidth setlinewidth
	Rounded {1 setlinejoin 1 setlinecap} if} def
3.8 setmiterlimit
% Default Line colors
/LCw {1 1 1} def
/LCb {0 0 0} def
/LCa {0 0 0} def
/LC0 {1 0 0} def
/LC1 {0 1 0} def
/LC2 {0 0 1} def
/LC3 {1 0 1} def
/LC4 {0 1 1} def
/LC5 {1 1 0} def
/LC6 {0 0 0} def
/LC7 {1 0.3 0} def
/LC8 {0.5 0.5 0.5} def
% Default Line Types
/LTw {PL [] 1 setgray} def
/LTb {BL [] LCb DL} def
/LTa {AL [1 udl mul 2 udl mul] 0 setdash LCa setrgbcolor} def
/LT0 {PL [] LC0 DL} def
/LT1 {PL [4 dl1 2 dl2] LC1 DL} def
/LT2 {PL [2 dl1 3 dl2] LC2 DL} def
/LT3 {PL [1 dl1 1.5 dl2] LC3 DL} def
/LT4 {PL [6 dl1 2 dl2 1 dl1 2 dl2] LC4 DL} def
/LT5 {PL [3 dl1 3 dl2 1 dl1 3 dl2] LC5 DL} def
/LT6 {PL [2 dl1 2 dl2 2 dl1 6 dl2] LC6 DL} def
/LT7 {PL [1 dl1 2 dl2 6 dl1 2 dl2 1 dl1 2 dl2] LC7 DL} def
/LT8 {PL [2 dl1 2 dl2 2 dl1 2 dl2 2 dl1 2 dl2 2 dl1 4 dl2] LC8 DL} def
/Pnt {stroke [] 0 setdash gsave 1 setlinecap M 0 0 V stroke grestore} def
/Dia {stroke [] 0 setdash 2 copy vpt add M
  hpt neg vpt neg V hpt vpt neg V
  hpt vpt V hpt neg vpt V closepath stroke
  Pnt} def
/Pls {stroke [] 0 setdash vpt sub M 0 vpt2 V
  currentpoint stroke M
  hpt neg vpt neg R hpt2 0 V stroke
 } def
/Box {stroke [] 0 setdash 2 copy exch hpt sub exch vpt add M
  0 vpt2 neg V hpt2 0 V 0 vpt2 V
  hpt2 neg 0 V closepath stroke
  Pnt} def
/Crs {stroke [] 0 setdash exch hpt sub exch vpt add M
  hpt2 vpt2 neg V currentpoint stroke M
  hpt2 neg 0 R hpt2 vpt2 V stroke} def
/TriU {stroke [] 0 setdash 2 copy vpt 1.12 mul add M
  hpt neg vpt -1.62 mul V
  hpt 2 mul 0 V
  hpt neg vpt 1.62 mul V closepath stroke
  Pnt} def
/Star {2 copy Pls Crs} def
/BoxF {stroke [] 0 setdash exch hpt sub exch vpt add M
  0 vpt2 neg V hpt2 0 V 0 vpt2 V
  hpt2 neg 0 V closepath fill} def
/TriUF {stroke [] 0 setdash vpt 1.12 mul add M
  hpt neg vpt -1.62 mul V
  hpt 2 mul 0 V
  hpt neg vpt 1.62 mul V closepath fill} def
/TriD {stroke [] 0 setdash 2 copy vpt 1.12 mul sub M
  hpt neg vpt 1.62 mul V
  hpt 2 mul 0 V
  hpt neg vpt -1.62 mul V closepath stroke
  Pnt} def
/TriDF {stroke [] 0 setdash vpt 1.12 mul sub M
  hpt neg vpt 1.62 mul V
  hpt 2 mul 0 V
  hpt neg vpt -1.62 mul V closepath fill} def
/DiaF {stroke [] 0 setdash vpt add M
  hpt neg vpt neg V hpt vpt neg V
  hpt vpt V hpt neg vpt V closepath fill} def
/Pent {stroke [] 0 setdash 2 copy gsave
  translate 0 hpt M 4 {72 rotate 0 hpt L} repeat
  closepath stroke grestore Pnt} def
/PentF {stroke [] 0 setdash gsave
  translate 0 hpt M 4 {72 rotate 0 hpt L} repeat
  closepath fill grestore} def
/Circle {stroke [] 0 setdash 2 copy
  hpt 0 360 arc stroke Pnt} def
/CircleF {stroke [] 0 setdash hpt 0 360 arc fill} def
/C0 {BL [] 0 setdash 2 copy moveto vpt 90 450 arc} bind def
/C1 {BL [] 0 setdash 2 copy moveto
	2 copy vpt 0 90 arc closepath fill
	vpt 0 360 arc closepath} bind def
/C2 {BL [] 0 setdash 2 copy moveto
	2 copy vpt 90 180 arc closepath fill
	vpt 0 360 arc closepath} bind def
/C3 {BL [] 0 setdash 2 copy moveto
	2 copy vpt 0 180 arc closepath fill
	vpt 0 360 arc closepath} bind def
/C4 {BL [] 0 setdash 2 copy moveto
	2 copy vpt 180 270 arc closepath fill
	vpt 0 360 arc closepath} bind def
/C5 {BL [] 0 setdash 2 copy moveto
	2 copy vpt 0 90 arc
	2 copy moveto
	2 copy vpt 180 270 arc closepath fill
	vpt 0 360 arc} bind def
/C6 {BL [] 0 setdash 2 copy moveto
	2 copy vpt 90 270 arc closepath fill
	vpt 0 360 arc closepath} bind def
/C7 {BL [] 0 setdash 2 copy moveto
	2 copy vpt 0 270 arc closepath fill
	vpt 0 360 arc closepath} bind def
/C8 {BL [] 0 setdash 2 copy moveto
	2 copy vpt 270 360 arc closepath fill
	vpt 0 360 arc closepath} bind def
/C9 {BL [] 0 setdash 2 copy moveto
	2 copy vpt 270 450 arc closepath fill
	vpt 0 360 arc closepath} bind def
/C10 {BL [] 0 setdash 2 copy 2 copy moveto vpt 270 360 arc closepath fill
	2 copy moveto
	2 copy vpt 90 180 arc closepath fill
	vpt 0 360 arc closepath} bind def
/C11 {BL [] 0 setdash 2 copy moveto
	2 copy vpt 0 180 arc closepath fill
	2 copy moveto
	2 copy vpt 270 360 arc closepath fill
	vpt 0 360 arc closepath} bind def
/C12 {BL [] 0 setdash 2 copy moveto
	2 copy vpt 180 360 arc closepath fill
	vpt 0 360 arc closepath} bind def
/C13 {BL [] 0 setdash 2 copy moveto
	2 copy vpt 0 90 arc closepath fill
	2 copy moveto
	2 copy vpt 180 360 arc closepath fill
	vpt 0 360 arc closepath} bind def
/C14 {BL [] 0 setdash 2 copy moveto
	2 copy vpt 90 360 arc closepath fill
	vpt 0 360 arc} bind def
/C15 {BL [] 0 setdash 2 copy vpt 0 360 arc closepath fill
	vpt 0 360 arc closepath} bind def
/Rec {newpath 4 2 roll moveto 1 index 0 rlineto 0 exch rlineto
	neg 0 rlineto closepath} bind def
/Square {dup Rec} bind def
/Bsquare {vpt sub exch vpt sub exch vpt2 Square} bind def
/S0 {BL [] 0 setdash 2 copy moveto 0 vpt rlineto BL Bsquare} bind def
/S1 {BL [] 0 setdash 2 copy vpt Square fill Bsquare} bind def
/S2 {BL [] 0 setdash 2 copy exch vpt sub exch vpt Square fill Bsquare} bind def
/S3 {BL [] 0 setdash 2 copy exch vpt sub exch vpt2 vpt Rec fill Bsquare} bind def
/S4 {BL [] 0 setdash 2 copy exch vpt sub exch vpt sub vpt Square fill Bsquare} bind def
/S5 {BL [] 0 setdash 2 copy 2 copy vpt Square fill
	exch vpt sub exch vpt sub vpt Square fill Bsquare} bind def
/S6 {BL [] 0 setdash 2 copy exch vpt sub exch vpt sub vpt vpt2 Rec fill Bsquare} bind def
/S7 {BL [] 0 setdash 2 copy exch vpt sub exch vpt sub vpt vpt2 Rec fill
	2 copy vpt Square fill Bsquare} bind def
/S8 {BL [] 0 setdash 2 copy vpt sub vpt Square fill Bsquare} bind def
/S9 {BL [] 0 setdash 2 copy vpt sub vpt vpt2 Rec fill Bsquare} bind def
/S10 {BL [] 0 setdash 2 copy vpt sub vpt Square fill 2 copy exch vpt sub exch vpt Square fill
	Bsquare} bind def
/S11 {BL [] 0 setdash 2 copy vpt sub vpt Square fill 2 copy exch vpt sub exch vpt2 vpt Rec fill
	Bsquare} bind def
/S12 {BL [] 0 setdash 2 copy exch vpt sub exch vpt sub vpt2 vpt Rec fill Bsquare} bind def
/S13 {BL [] 0 setdash 2 copy exch vpt sub exch vpt sub vpt2 vpt Rec fill
	2 copy vpt Square fill Bsquare} bind def
/S14 {BL [] 0 setdash 2 copy exch vpt sub exch vpt sub vpt2 vpt Rec fill
	2 copy exch vpt sub exch vpt Square fill Bsquare} bind def
/S15 {BL [] 0 setdash 2 copy Bsquare fill Bsquare} bind def
/D0 {gsave translate 45 rotate 0 0 S0 stroke grestore} bind def
/D1 {gsave translate 45 rotate 0 0 S1 stroke grestore} bind def
/D2 {gsave translate 45 rotate 0 0 S2 stroke grestore} bind def
/D3 {gsave translate 45 rotate 0 0 S3 stroke grestore} bind def
/D4 {gsave translate 45 rotate 0 0 S4 stroke grestore} bind def
/D5 {gsave translate 45 rotate 0 0 S5 stroke grestore} bind def
/D6 {gsave translate 45 rotate 0 0 S6 stroke grestore} bind def
/D7 {gsave translate 45 rotate 0 0 S7 stroke grestore} bind def
/D8 {gsave translate 45 rotate 0 0 S8 stroke grestore} bind def
/D9 {gsave translate 45 rotate 0 0 S9 stroke grestore} bind def
/D10 {gsave translate 45 rotate 0 0 S10 stroke grestore} bind def
/D11 {gsave translate 45 rotate 0 0 S11 stroke grestore} bind def
/D12 {gsave translate 45 rotate 0 0 S12 stroke grestore} bind def
/D13 {gsave translate 45 rotate 0 0 S13 stroke grestore} bind def
/D14 {gsave translate 45 rotate 0 0 S14 stroke grestore} bind def
/D15 {gsave translate 45 rotate 0 0 S15 stroke grestore} bind def
/DiaE {stroke [] 0 setdash vpt add M
  hpt neg vpt neg V hpt vpt neg V
  hpt vpt V hpt neg vpt V closepath stroke} def
/BoxE {stroke [] 0 setdash exch hpt sub exch vpt add M
  0 vpt2 neg V hpt2 0 V 0 vpt2 V
  hpt2 neg 0 V closepath stroke} def
/TriUE {stroke [] 0 setdash vpt 1.12 mul add M
  hpt neg vpt -1.62 mul V
  hpt 2 mul 0 V
  hpt neg vpt 1.62 mul V closepath stroke} def
/TriDE {stroke [] 0 setdash vpt 1.12 mul sub M
  hpt neg vpt 1.62 mul V
  hpt 2 mul 0 V
  hpt neg vpt -1.62 mul V closepath stroke} def
/PentE {stroke [] 0 setdash gsave
  translate 0 hpt M 4 {72 rotate 0 hpt L} repeat
  closepath stroke grestore} def
/CircE {stroke [] 0 setdash 
  hpt 0 360 arc stroke} def
/Opaque {gsave closepath 1 setgray fill grestore 0 setgray closepath} def
/DiaW {stroke [] 0 setdash vpt add M
  hpt neg vpt neg V hpt vpt neg V
  hpt vpt V hpt neg vpt V Opaque stroke} def
/BoxW {stroke [] 0 setdash exch hpt sub exch vpt add M
  0 vpt2 neg V hpt2 0 V 0 vpt2 V
  hpt2 neg 0 V Opaque stroke} def
/TriUW {stroke [] 0 setdash vpt 1.12 mul add M
  hpt neg vpt -1.62 mul V
  hpt 2 mul 0 V
  hpt neg vpt 1.62 mul V Opaque stroke} def
/TriDW {stroke [] 0 setdash vpt 1.12 mul sub M
  hpt neg vpt 1.62 mul V
  hpt 2 mul 0 V
  hpt neg vpt -1.62 mul V Opaque stroke} def
/PentW {stroke [] 0 setdash gsave
  translate 0 hpt M 4 {72 rotate 0 hpt L} repeat
  Opaque stroke grestore} def
/CircW {stroke [] 0 setdash 
  hpt 0 360 arc Opaque stroke} def
/BoxFill {gsave Rec 1 setgray fill grestore} def
/Density {
  /Fillden exch def
  currentrgbcolor
  /ColB exch def /ColG exch def /ColR exch def
  /ColR ColR Fillden mul Fillden sub 1 add def
  /ColG ColG Fillden mul Fillden sub 1 add def
  /ColB ColB Fillden mul Fillden sub 1 add def
  ColR ColG ColB setrgbcolor} def
/BoxColFill {gsave Rec PolyFill} def
/PolyFill {gsave Density fill grestore grestore} def
/h {rlineto rlineto rlineto gsave closepath fill grestore} bind def
%
% PostScript Level 1 Pattern Fill routine for rectangles
% Usage: x y w h s a XX PatternFill
%	x,y = lower left corner of box to be filled
%	w,h = width and height of box
%	  a = angle in degrees between lines and x-axis
%	 XX = 0/1 for no/yes cross-hatch
%
/PatternFill {gsave /PFa [ 9 2 roll ] def
  PFa 0 get PFa 2 get 2 div add PFa 1 get PFa 3 get 2 div add translate
  PFa 2 get -2 div PFa 3 get -2 div PFa 2 get PFa 3 get Rec
  TransparentPatterns {} {gsave 1 setgray fill grestore} ifelse
  clip
  currentlinewidth 0.5 mul setlinewidth
  /PFs PFa 2 get dup mul PFa 3 get dup mul add sqrt def
  0 0 M PFa 5 get rotate PFs -2 div dup translate
  0 1 PFs PFa 4 get div 1 add floor cvi
	{PFa 4 get mul 0 M 0 PFs V} for
  0 PFa 6 get ne {
	0 1 PFs PFa 4 get div 1 add floor cvi
	{PFa 4 get mul 0 2 1 roll M PFs 0 V} for
 } if
  stroke grestore} def
%
/languagelevel where
 {pop languagelevel} {1} ifelse
 2 lt
	{/InterpretLevel1 true def}
	{/InterpretLevel1 Level1 def}
 ifelse
%
% PostScript level 2 pattern fill definitions
%
/Level2PatternFill {
/Tile8x8 {/PaintType 2 /PatternType 1 /TilingType 1 /BBox [0 0 8 8] /XStep 8 /YStep 8}
	bind def
/KeepColor {currentrgbcolor [/Pattern /DeviceRGB] setcolorspace} bind def
<< Tile8x8
 /PaintProc {0.5 setlinewidth pop 0 0 M 8 8 L 0 8 M 8 0 L stroke} 
>> matrix makepattern
/Pat1 exch def
<< Tile8x8
 /PaintProc {0.5 setlinewidth pop 0 0 M 8 8 L 0 8 M 8 0 L stroke
	0 4 M 4 8 L 8 4 L 4 0 L 0 4 L stroke}
>> matrix makepattern
/Pat2 exch def
<< Tile8x8
 /PaintProc {0.5 setlinewidth pop 0 0 M 0 8 L
	8 8 L 8 0 L 0 0 L fill}
>> matrix makepattern
/Pat3 exch def
<< Tile8x8
 /PaintProc {0.5 setlinewidth pop -4 8 M 8 -4 L
	0 12 M 12 0 L stroke}
>> matrix makepattern
/Pat4 exch def
<< Tile8x8
 /PaintProc {0.5 setlinewidth pop -4 0 M 8 12 L
	0 -4 M 12 8 L stroke}
>> matrix makepattern
/Pat5 exch def
<< Tile8x8
 /PaintProc {0.5 setlinewidth pop -2 8 M 4 -4 L
	0 12 M 8 -4 L 4 12 M 10 0 L stroke}
>> matrix makepattern
/Pat6 exch def
<< Tile8x8
 /PaintProc {0.5 setlinewidth pop -2 0 M 4 12 L
	0 -4 M 8 12 L 4 -4 M 10 8 L stroke}
>> matrix makepattern
/Pat7 exch def
<< Tile8x8
 /PaintProc {0.5 setlinewidth pop 8 -2 M -4 4 L
	12 0 M -4 8 L 12 4 M 0 10 L stroke}
>> matrix makepattern
/Pat8 exch def
<< Tile8x8
 /PaintProc {0.5 setlinewidth pop 0 -2 M 12 4 L
	-4 0 M 12 8 L -4 4 M 8 10 L stroke}
>> matrix makepattern
/Pat9 exch def
/Pattern1 {PatternBgnd KeepColor Pat1 setpattern} bind def
/Pattern2 {PatternBgnd KeepColor Pat2 setpattern} bind def
/Pattern3 {PatternBgnd KeepColor Pat3 setpattern} bind def
/Pattern4 {PatternBgnd KeepColor Landscape {Pat5} {Pat4} ifelse setpattern} bind def
/Pattern5 {PatternBgnd KeepColor Landscape {Pat4} {Pat5} ifelse setpattern} bind def
/Pattern6 {PatternBgnd KeepColor Landscape {Pat9} {Pat6} ifelse setpattern} bind def
/Pattern7 {PatternBgnd KeepColor Landscape {Pat8} {Pat7} ifelse setpattern} bind def
} def
%
%
%End of PostScript Level 2 code
%
/PatternBgnd {
  TransparentPatterns {} {gsave 1 setgray fill grestore} ifelse
} def
%
% Substitute for Level 2 pattern fill codes with
% grayscale if Level 2 support is not selected.
%
/Level1PatternFill {
/Pattern1 {0.250 Density} bind def
/Pattern2 {0.500 Density} bind def
/Pattern3 {0.750 Density} bind def
/Pattern4 {0.125 Density} bind def
/Pattern5 {0.375 Density} bind def
/Pattern6 {0.625 Density} bind def
/Pattern7 {0.875 Density} bind def
} def
%
% Now test for support of Level 2 code
%
Level1 {Level1PatternFill} {Level2PatternFill} ifelse
%
/Symbol-Oblique /Symbol findfont [1 0 .167 1 0 0] makefont
dup length dict begin {1 index /FID eq {pop pop} {def} ifelse} forall
currentdict end definefont pop
Level1 SuppressPDFMark or 
{} {
/SDict 10 dict def
systemdict /pdfmark known not {
  userdict /pdfmark systemdict /cleartomark get put
} if
SDict begin [
  /Title (out.ps)
  /Subject (gnuplot plot)
  /Creator (gnuplot 4.6 patchlevel 6)
  /Author (yani)
%  /Producer (gnuplot)
%  /Keywords ()
  /CreationDate (Thu May 28 15:04:46 2015)
  /DOCINFO pdfmark
end
} ifelse
end
%%EndProlog
%%Page: 1 1
gnudict begin
gsave
doclip
50 50 translate
0.100 0.100 scale
90 rotate
0 -5040 translate
0 setgray
newpath
(Helvetica) findfont 140 scalefont setfont
BackgroundColor 0 lt 3 1 roll 0 lt exch 0 lt or or not {gsave BackgroundColor C clippath fill grestore} if
1.000 UL
LT0
0.50 0.50 0.50 C 1.000 UL
LTa
0.50 0.50 0.50 C 966 280 M
5981 0 V
stroke
LT0
0.50 0.50 0.50 C 966 280 M
63 0 V
5918 0 R
-63 0 V
882 280 M
( 0) Rshow
1.000 UL
LT0
0.50 0.50 0.50 C 1.000 UL
LTa
0.50 0.50 0.50 C 966 311 M
5981 0 V
stroke
LT0
0.50 0.50 0.50 C 966 311 M
63 0 V
5918 0 R
-63 0 V
882 311 M
( 0.707106) Rshow
1.000 UL
LT0
0.50 0.50 0.50 C 1.000 UL
LTa
0.50 0.50 0.50 C 966 342 M
5981 0 V
stroke
LT0
0.50 0.50 0.50 C 966 342 M
63 0 V
5918 0 R
-63 0 V
882 342 M
( 1.41421) Rshow
1.000 UL
LT0
0.50 0.50 0.50 C 1.000 UL
LTa
0.50 0.50 0.50 C 966 372 M
5981 0 V
stroke
LT0
0.50 0.50 0.50 C 966 372 M
63 0 V
5918 0 R
-63 0 V
882 372 M
( 2.12132) Rshow
1.000 UL
LT0
0.50 0.50 0.50 C 1.000 UL
LTa
0.50 0.50 0.50 C 966 403 M
5981 0 V
stroke
LT0
0.50 0.50 0.50 C 966 403 M
63 0 V
5918 0 R
-63 0 V
882 403 M
( 2.82842) Rshow
1.000 UL
LT0
0.50 0.50 0.50 C 1.000 UL
LTa
0.50 0.50 0.50 C 966 434 M
5981 0 V
stroke
LT0
0.50 0.50 0.50 C 966 434 M
63 0 V
5918 0 R
-63 0 V
882 434 M
( 3.53553) Rshow
1.000 UL
LT0
0.50 0.50 0.50 C 1.000 UL
LTa
0.50 0.50 0.50 C 966 465 M
5981 0 V
stroke
LT0
0.50 0.50 0.50 C 966 465 M
63 0 V
5918 0 R
-63 0 V
882 465 M
( 4.24264) Rshow
1.000 UL
LT0
0.50 0.50 0.50 C 1.000 UL
LTa
0.50 0.50 0.50 C 966 496 M
5981 0 V
stroke
LT0
0.50 0.50 0.50 C 966 496 M
63 0 V
5918 0 R
-63 0 V
882 496 M
( 4.94974) Rshow
1.000 UL
LT0
0.50 0.50 0.50 C 1.000 UL
LTa
0.50 0.50 0.50 C 966 526 M
5981 0 V
stroke
LT0
0.50 0.50 0.50 C 966 526 M
63 0 V
5918 0 R
-63 0 V
882 526 M
( 5.65685) Rshow
1.000 UL
LT0
0.50 0.50 0.50 C 1.000 UL
LTa
0.50 0.50 0.50 C 966 557 M
5981 0 V
stroke
LT0
0.50 0.50 0.50 C 966 557 M
63 0 V
5918 0 R
-63 0 V
882 557 M
( 6.36395) Rshow
1.000 UL
LT0
0.50 0.50 0.50 C 1.000 UL
LTa
0.50 0.50 0.50 C 966 588 M
5981 0 V
stroke
LT0
0.50 0.50 0.50 C 966 588 M
63 0 V
5918 0 R
-63 0 V
882 588 M
( 7.07106) Rshow
1.000 UL
LT0
0.50 0.50 0.50 C 1.000 UL
LTa
0.50 0.50 0.50 C 966 619 M
5981 0 V
stroke
LT0
0.50 0.50 0.50 C 966 619 M
63 0 V
5918 0 R
-63 0 V
882 619 M
( 7.77817) Rshow
1.000 UL
LT0
0.50 0.50 0.50 C 1.000 UL
LTa
0.50 0.50 0.50 C 966 650 M
5981 0 V
stroke
LT0
0.50 0.50 0.50 C 966 650 M
63 0 V
5918 0 R
-63 0 V
882 650 M
( 8.48527) Rshow
1.000 UL
LT0
0.50 0.50 0.50 C 1.000 UL
LTa
0.50 0.50 0.50 C 966 681 M
5981 0 V
stroke
LT0
0.50 0.50 0.50 C 966 681 M
63 0 V
5918 0 R
-63 0 V
882 681 M
( 9.19238) Rshow
1.000 UL
LT0
0.50 0.50 0.50 C 1.000 UL
LTa
0.50 0.50 0.50 C 966 711 M
5981 0 V
stroke
LT0
0.50 0.50 0.50 C 966 711 M
63 0 V
5918 0 R
-63 0 V
882 711 M
( 9.89948) Rshow
1.000 UL
LT0
0.50 0.50 0.50 C 1.000 UL
LTa
0.50 0.50 0.50 C 966 742 M
5981 0 V
stroke
LT0
0.50 0.50 0.50 C 966 742 M
63 0 V
5918 0 R
-63 0 V
882 742 M
( 10.6066) Rshow
1.000 UL
LT0
0.50 0.50 0.50 C 1.000 UL
LTa
0.50 0.50 0.50 C 966 773 M
5981 0 V
stroke
LT0
0.50 0.50 0.50 C 966 773 M
63 0 V
5918 0 R
-63 0 V
882 773 M
( 11.3137) Rshow
1.000 UL
LT0
0.50 0.50 0.50 C 1.000 UL
LTa
0.50 0.50 0.50 C 966 804 M
5981 0 V
stroke
LT0
0.50 0.50 0.50 C 966 804 M
63 0 V
5918 0 R
-63 0 V
882 804 M
( 12.0208) Rshow
1.000 UL
LT0
0.50 0.50 0.50 C 1.000 UL
LTa
0.50 0.50 0.50 C 966 835 M
5981 0 V
stroke
LT0
0.50 0.50 0.50 C 966 835 M
63 0 V
5918 0 R
-63 0 V
882 835 M
( 12.7279) Rshow
1.000 UL
LT0
0.50 0.50 0.50 C 1.000 UL
LTa
0.50 0.50 0.50 C 966 865 M
5981 0 V
stroke
LT0
0.50 0.50 0.50 C 966 865 M
63 0 V
5918 0 R
-63 0 V
882 865 M
( 13.435) Rshow
1.000 UL
LT0
0.50 0.50 0.50 C 1.000 UL
LTa
0.50 0.50 0.50 C 966 896 M
5981 0 V
stroke
LT0
0.50 0.50 0.50 C 966 896 M
63 0 V
5918 0 R
-63 0 V
882 896 M
( 14.1421) Rshow
1.000 UL
LT0
0.50 0.50 0.50 C 1.000 UL
LTa
0.50 0.50 0.50 C 966 927 M
5981 0 V
stroke
LT0
0.50 0.50 0.50 C 966 927 M
63 0 V
5918 0 R
-63 0 V
882 927 M
( 14.8492) Rshow
1.000 UL
LT0
0.50 0.50 0.50 C 1.000 UL
LTa
0.50 0.50 0.50 C 966 958 M
5981 0 V
stroke
LT0
0.50 0.50 0.50 C 966 958 M
63 0 V
5918 0 R
-63 0 V
882 958 M
( 15.5563) Rshow
1.000 UL
LT0
0.50 0.50 0.50 C 1.000 UL
LTa
0.50 0.50 0.50 C 966 989 M
5981 0 V
stroke
LT0
0.50 0.50 0.50 C 966 989 M
63 0 V
5918 0 R
-63 0 V
882 989 M
( 16.2634) Rshow
1.000 UL
LT0
0.50 0.50 0.50 C 1.000 UL
LTa
0.50 0.50 0.50 C 966 1019 M
5981 0 V
stroke
LT0
0.50 0.50 0.50 C 966 1019 M
63 0 V
5918 0 R
-63 0 V
-6002 0 R
( 16.9705) Rshow
1.000 UL
LT0
0.50 0.50 0.50 C 1.000 UL
LTa
0.50 0.50 0.50 C 966 1050 M
5981 0 V
stroke
LT0
0.50 0.50 0.50 C 966 1050 M
63 0 V
5918 0 R
-63 0 V
-6002 0 R
( 17.6776) Rshow
1.000 UL
LT0
0.50 0.50 0.50 C 1.000 UL
LTa
0.50 0.50 0.50 C 966 1081 M
5981 0 V
stroke
LT0
0.50 0.50 0.50 C 966 1081 M
63 0 V
5918 0 R
-63 0 V
-6002 0 R
( 18.3848) Rshow
1.000 UL
LT0
0.50 0.50 0.50 C 1.000 UL
LTa
0.50 0.50 0.50 C 966 1112 M
5981 0 V
stroke
LT0
0.50 0.50 0.50 C 966 1112 M
63 0 V
5918 0 R
-63 0 V
-6002 0 R
( 19.0919) Rshow
1.000 UL
LT0
0.50 0.50 0.50 C 1.000 UL
LTa
0.50 0.50 0.50 C 966 1143 M
5981 0 V
stroke
LT0
0.50 0.50 0.50 C 966 1143 M
63 0 V
5918 0 R
-63 0 V
-6002 0 R
( 19.799) Rshow
1.000 UL
LT0
0.50 0.50 0.50 C 1.000 UL
LTa
0.50 0.50 0.50 C 966 1174 M
5981 0 V
stroke
LT0
0.50 0.50 0.50 C 966 1174 M
63 0 V
5918 0 R
-63 0 V
-6002 0 R
( 20.5061) Rshow
1.000 UL
LT0
0.50 0.50 0.50 C 1.000 UL
LTa
0.50 0.50 0.50 C 966 1204 M
5981 0 V
stroke
LT0
0.50 0.50 0.50 C 966 1204 M
63 0 V
5918 0 R
-63 0 V
-6002 0 R
( 21.2132) Rshow
1.000 UL
LT0
0.50 0.50 0.50 C 1.000 UL
LTa
0.50 0.50 0.50 C 966 1235 M
5981 0 V
stroke
LT0
0.50 0.50 0.50 C 966 1235 M
63 0 V
5918 0 R
-63 0 V
-6002 0 R
( 21.9203) Rshow
1.000 UL
LT0
0.50 0.50 0.50 C 1.000 UL
LTa
0.50 0.50 0.50 C 966 1266 M
5981 0 V
stroke
LT0
0.50 0.50 0.50 C 966 1266 M
63 0 V
5918 0 R
-63 0 V
-6002 0 R
( 22.6274) Rshow
1.000 UL
LT0
0.50 0.50 0.50 C 1.000 UL
LTa
0.50 0.50 0.50 C 966 1297 M
5981 0 V
stroke
LT0
0.50 0.50 0.50 C 966 1297 M
63 0 V
5918 0 R
-63 0 V
-6002 0 R
( 23.3345) Rshow
1.000 UL
LT0
0.50 0.50 0.50 C 1.000 UL
LTa
0.50 0.50 0.50 C 966 1328 M
5981 0 V
stroke
LT0
0.50 0.50 0.50 C 966 1328 M
63 0 V
5918 0 R
-63 0 V
-6002 0 R
( 24.0416) Rshow
1.000 UL
LT0
0.50 0.50 0.50 C 1.000 UL
LTa
0.50 0.50 0.50 C 966 1358 M
5981 0 V
stroke
LT0
0.50 0.50 0.50 C 966 1358 M
63 0 V
5918 0 R
-63 0 V
-6002 0 R
( 24.7487) Rshow
1.000 UL
LT0
0.50 0.50 0.50 C 1.000 UL
LTa
0.50 0.50 0.50 C 966 1389 M
5981 0 V
stroke
LT0
0.50 0.50 0.50 C 966 1389 M
63 0 V
5918 0 R
-63 0 V
-6002 0 R
( 25.4558) Rshow
1.000 UL
LT0
0.50 0.50 0.50 C 1.000 UL
LTa
0.50 0.50 0.50 C 966 1420 M
5981 0 V
stroke
LT0
0.50 0.50 0.50 C 966 1420 M
63 0 V
5918 0 R
-63 0 V
-6002 0 R
( 26.1629) Rshow
1.000 UL
LT0
0.50 0.50 0.50 C 1.000 UL
LTa
0.50 0.50 0.50 C 966 1451 M
5981 0 V
stroke
LT0
0.50 0.50 0.50 C 966 1451 M
63 0 V
5918 0 R
-63 0 V
-6002 0 R
( 26.87) Rshow
1.000 UL
LT0
0.50 0.50 0.50 C 1.000 UL
LTa
0.50 0.50 0.50 C 966 1482 M
5981 0 V
stroke
LT0
0.50 0.50 0.50 C 966 1482 M
63 0 V
5918 0 R
-63 0 V
-6002 0 R
( 27.5771) Rshow
1.000 UL
LT0
0.50 0.50 0.50 C 1.000 UL
LTa
0.50 0.50 0.50 C 966 1512 M
5981 0 V
stroke
LT0
0.50 0.50 0.50 C 966 1512 M
63 0 V
5918 0 R
-63 0 V
-6002 0 R
( 28.2842) Rshow
1.000 UL
LT0
0.50 0.50 0.50 C 1.000 UL
LTa
0.50 0.50 0.50 C 966 1543 M
5981 0 V
stroke
LT0
0.50 0.50 0.50 C 966 1543 M
63 0 V
5918 0 R
-63 0 V
-6002 0 R
( 28.9913) Rshow
1.000 UL
LT0
0.50 0.50 0.50 C 1.000 UL
LTa
0.50 0.50 0.50 C 966 1574 M
5981 0 V
stroke
LT0
0.50 0.50 0.50 C 966 1574 M
63 0 V
5918 0 R
-63 0 V
-6002 0 R
( 29.6985) Rshow
1.000 UL
LT0
0.50 0.50 0.50 C 1.000 UL
LTa
0.50 0.50 0.50 C 966 1605 M
5981 0 V
stroke
LT0
0.50 0.50 0.50 C 966 1605 M
63 0 V
5918 0 R
-63 0 V
-6002 0 R
( 30.4056) Rshow
1.000 UL
LT0
0.50 0.50 0.50 C 1.000 UL
LTa
0.50 0.50 0.50 C 966 1636 M
5981 0 V
stroke
LT0
0.50 0.50 0.50 C 966 1636 M
63 0 V
5918 0 R
-63 0 V
-6002 0 R
( 31.1127) Rshow
1.000 UL
LT0
0.50 0.50 0.50 C 1.000 UL
LTa
0.50 0.50 0.50 C 966 1667 M
5981 0 V
stroke
LT0
0.50 0.50 0.50 C 966 1667 M
63 0 V
5918 0 R
-63 0 V
-6002 0 R
( 31.8198) Rshow
1.000 UL
LT0
0.50 0.50 0.50 C 1.000 UL
LTa
0.50 0.50 0.50 C 966 1697 M
5981 0 V
stroke
LT0
0.50 0.50 0.50 C 966 1697 M
63 0 V
5918 0 R
-63 0 V
-6002 0 R
( 32.5269) Rshow
1.000 UL
LT0
0.50 0.50 0.50 C 1.000 UL
LTa
0.50 0.50 0.50 C 966 1728 M
5981 0 V
stroke
LT0
0.50 0.50 0.50 C 966 1728 M
63 0 V
5918 0 R
-63 0 V
-6002 0 R
( 33.234) Rshow
1.000 UL
LT0
0.50 0.50 0.50 C 1.000 UL
LTa
0.50 0.50 0.50 C 966 1759 M
5981 0 V
stroke
LT0
0.50 0.50 0.50 C 966 1759 M
63 0 V
5918 0 R
-63 0 V
-6002 0 R
( 33.9411) Rshow
1.000 UL
LT0
0.50 0.50 0.50 C 1.000 UL
LTa
0.50 0.50 0.50 C 966 1790 M
5981 0 V
stroke
LT0
0.50 0.50 0.50 C 966 1790 M
63 0 V
5918 0 R
-63 0 V
-6002 0 R
( 34.6482) Rshow
1.000 UL
LT0
0.50 0.50 0.50 C 1.000 UL
LTa
0.50 0.50 0.50 C 966 1821 M
5981 0 V
stroke
LT0
0.50 0.50 0.50 C 966 1821 M
63 0 V
5918 0 R
-63 0 V
-6002 0 R
( 35.3553) Rshow
1.000 UL
LT0
0.50 0.50 0.50 C 1.000 UL
LTa
0.50 0.50 0.50 C 966 1851 M
5981 0 V
stroke
LT0
0.50 0.50 0.50 C 966 1851 M
63 0 V
5918 0 R
-63 0 V
-6002 0 R
( 36.0624) Rshow
1.000 UL
LT0
0.50 0.50 0.50 C 1.000 UL
LTa
0.50 0.50 0.50 C 966 1882 M
5981 0 V
stroke
LT0
0.50 0.50 0.50 C 966 1882 M
63 0 V
5918 0 R
-63 0 V
-6002 0 R
( 36.7695) Rshow
1.000 UL
LT0
0.50 0.50 0.50 C 1.000 UL
LTa
0.50 0.50 0.50 C 966 1913 M
5981 0 V
stroke
LT0
0.50 0.50 0.50 C 966 1913 M
63 0 V
5918 0 R
-63 0 V
-6002 0 R
( 37.4766) Rshow
1.000 UL
LT0
0.50 0.50 0.50 C 1.000 UL
LTa
0.50 0.50 0.50 C 966 1944 M
5981 0 V
stroke
LT0
0.50 0.50 0.50 C 966 1944 M
63 0 V
5918 0 R
-63 0 V
-6002 0 R
( 38.1837) Rshow
1.000 UL
LT0
0.50 0.50 0.50 C 1.000 UL
LTa
0.50 0.50 0.50 C 966 1975 M
5981 0 V
stroke
LT0
0.50 0.50 0.50 C 966 1975 M
63 0 V
5918 0 R
-63 0 V
-6002 0 R
( 38.8908) Rshow
1.000 UL
LT0
0.50 0.50 0.50 C 1.000 UL
LTa
0.50 0.50 0.50 C 966 2005 M
5981 0 V
stroke
LT0
0.50 0.50 0.50 C 966 2005 M
63 0 V
5918 0 R
-63 0 V
-6002 0 R
( 39.5979) Rshow
1.000 UL
LT0
0.50 0.50 0.50 C 1.000 UL
LTa
0.50 0.50 0.50 C 966 2036 M
5981 0 V
stroke
LT0
0.50 0.50 0.50 C 966 2036 M
63 0 V
5918 0 R
-63 0 V
-6002 0 R
( 40.305) Rshow
1.000 UL
LT0
0.50 0.50 0.50 C 1.000 UL
LTa
0.50 0.50 0.50 C 966 2067 M
5981 0 V
stroke
LT0
0.50 0.50 0.50 C 966 2067 M
63 0 V
5918 0 R
-63 0 V
-6002 0 R
( 41.0121) Rshow
1.000 UL
LT0
0.50 0.50 0.50 C 1.000 UL
LTa
0.50 0.50 0.50 C 966 2098 M
5981 0 V
stroke
LT0
0.50 0.50 0.50 C 966 2098 M
63 0 V
5918 0 R
-63 0 V
-6002 0 R
( 41.7193) Rshow
1.000 UL
LT0
0.50 0.50 0.50 C 1.000 UL
LTa
0.50 0.50 0.50 C 966 2129 M
5981 0 V
stroke
LT0
0.50 0.50 0.50 C 966 2129 M
63 0 V
5918 0 R
-63 0 V
-6002 0 R
( 42.4264) Rshow
1.000 UL
LT0
0.50 0.50 0.50 C 1.000 UL
LTa
0.50 0.50 0.50 C 966 2160 M
5981 0 V
stroke
LT0
0.50 0.50 0.50 C 966 2160 M
63 0 V
5918 0 R
-63 0 V
-6002 0 R
( 43.1335) Rshow
1.000 UL
LT0
0.50 0.50 0.50 C 1.000 UL
LTa
0.50 0.50 0.50 C 966 2190 M
5981 0 V
stroke
LT0
0.50 0.50 0.50 C 966 2190 M
63 0 V
5918 0 R
-63 0 V
-6002 0 R
( 43.8406) Rshow
1.000 UL
LT0
0.50 0.50 0.50 C 1.000 UL
LTa
0.50 0.50 0.50 C 966 2221 M
5981 0 V
stroke
LT0
0.50 0.50 0.50 C 966 2221 M
63 0 V
5918 0 R
-63 0 V
-6002 0 R
( 44.5477) Rshow
1.000 UL
LT0
0.50 0.50 0.50 C 1.000 UL
LTa
0.50 0.50 0.50 C 966 2252 M
5981 0 V
stroke
LT0
0.50 0.50 0.50 C 966 2252 M
63 0 V
5918 0 R
-63 0 V
-6002 0 R
( 45.2548) Rshow
1.000 UL
LT0
0.50 0.50 0.50 C 1.000 UL
LTa
0.50 0.50 0.50 C 966 2283 M
5981 0 V
stroke
LT0
0.50 0.50 0.50 C 966 2283 M
63 0 V
5918 0 R
-63 0 V
-6002 0 R
( 45.9619) Rshow
1.000 UL
LT0
0.50 0.50 0.50 C 1.000 UL
LTa
0.50 0.50 0.50 C 966 2314 M
5981 0 V
stroke
LT0
0.50 0.50 0.50 C 966 2314 M
63 0 V
5918 0 R
-63 0 V
-6002 0 R
( 46.669) Rshow
1.000 UL
LT0
0.50 0.50 0.50 C 1.000 UL
LTa
0.50 0.50 0.50 C 966 2344 M
5981 0 V
stroke
LT0
0.50 0.50 0.50 C 966 2344 M
63 0 V
5918 0 R
-63 0 V
-6002 0 R
( 47.3761) Rshow
1.000 UL
LT0
0.50 0.50 0.50 C 1.000 UL
LTa
0.50 0.50 0.50 C 966 2375 M
5981 0 V
stroke
LT0
0.50 0.50 0.50 C 966 2375 M
63 0 V
5918 0 R
-63 0 V
-6002 0 R
( 48.0832) Rshow
1.000 UL
LT0
0.50 0.50 0.50 C 1.000 UL
LTa
0.50 0.50 0.50 C 966 2406 M
5981 0 V
stroke
LT0
0.50 0.50 0.50 C 966 2406 M
63 0 V
5918 0 R
-63 0 V
-6002 0 R
( 48.7903) Rshow
1.000 UL
LT0
0.50 0.50 0.50 C 1.000 UL
LTa
0.50 0.50 0.50 C 966 2437 M
5981 0 V
stroke
LT0
0.50 0.50 0.50 C 966 2437 M
63 0 V
5918 0 R
-63 0 V
-6002 0 R
( 49.4974) Rshow
1.000 UL
LT0
0.50 0.50 0.50 C 1.000 UL
LTa
0.50 0.50 0.50 C 966 2468 M
5981 0 V
stroke
LT0
0.50 0.50 0.50 C 966 2468 M
63 0 V
5918 0 R
-63 0 V
-6002 0 R
( 50.2045) Rshow
1.000 UL
LT0
0.50 0.50 0.50 C 1.000 UL
LTa
0.50 0.50 0.50 C 966 2498 M
5981 0 V
stroke
LT0
0.50 0.50 0.50 C 966 2498 M
63 0 V
5918 0 R
-63 0 V
-6002 0 R
( 50.9116) Rshow
1.000 UL
LT0
0.50 0.50 0.50 C 1.000 UL
LTa
0.50 0.50 0.50 C 966 2529 M
5981 0 V
stroke
LT0
0.50 0.50 0.50 C 966 2529 M
63 0 V
5918 0 R
-63 0 V
-6002 0 R
( 51.6187) Rshow
1.000 UL
LT0
0.50 0.50 0.50 C 1.000 UL
LTa
0.50 0.50 0.50 C 966 2560 M
5981 0 V
stroke
LT0
0.50 0.50 0.50 C 966 2560 M
63 0 V
5918 0 R
-63 0 V
-6002 0 R
( 52.3258) Rshow
1.000 UL
LT0
0.50 0.50 0.50 C 1.000 UL
LTa
0.50 0.50 0.50 C 966 2591 M
5981 0 V
stroke
LT0
0.50 0.50 0.50 C 966 2591 M
63 0 V
5918 0 R
-63 0 V
-6002 0 R
( 53.033) Rshow
1.000 UL
LT0
0.50 0.50 0.50 C 1.000 UL
LTa
0.50 0.50 0.50 C 966 2622 M
5981 0 V
stroke
LT0
0.50 0.50 0.50 C 966 2622 M
63 0 V
5918 0 R
-63 0 V
-6002 0 R
( 53.7401) Rshow
1.000 UL
LT0
0.50 0.50 0.50 C 1.000 UL
LTa
0.50 0.50 0.50 C 966 2653 M
5981 0 V
stroke
LT0
0.50 0.50 0.50 C 966 2653 M
63 0 V
5918 0 R
-63 0 V
-6002 0 R
( 54.4472) Rshow
1.000 UL
LT0
0.50 0.50 0.50 C 1.000 UL
LTa
0.50 0.50 0.50 C 966 2683 M
5981 0 V
stroke
LT0
0.50 0.50 0.50 C 966 2683 M
63 0 V
5918 0 R
-63 0 V
-6002 0 R
( 55.1543) Rshow
1.000 UL
LT0
0.50 0.50 0.50 C 1.000 UL
LTa
0.50 0.50 0.50 C 966 2714 M
5981 0 V
stroke
LT0
0.50 0.50 0.50 C 966 2714 M
63 0 V
5918 0 R
-63 0 V
-6002 0 R
( 55.8614) Rshow
1.000 UL
LT0
0.50 0.50 0.50 C 1.000 UL
LTa
0.50 0.50 0.50 C 966 2745 M
5981 0 V
stroke
LT0
0.50 0.50 0.50 C 966 2745 M
63 0 V
5918 0 R
-63 0 V
-6002 0 R
( 56.5685) Rshow
1.000 UL
LT0
0.50 0.50 0.50 C 1.000 UL
LTa
0.50 0.50 0.50 C 966 2776 M
5981 0 V
stroke
LT0
0.50 0.50 0.50 C 966 2776 M
63 0 V
5918 0 R
-63 0 V
-6002 0 R
( 57.2756) Rshow
1.000 UL
LT0
0.50 0.50 0.50 C 1.000 UL
LTa
0.50 0.50 0.50 C 966 2807 M
5981 0 V
stroke
LT0
0.50 0.50 0.50 C 966 2807 M
63 0 V
5918 0 R
-63 0 V
-6002 0 R
( 57.9827) Rshow
1.000 UL
LT0
0.50 0.50 0.50 C 1.000 UL
LTa
0.50 0.50 0.50 C 966 2837 M
5981 0 V
stroke
LT0
0.50 0.50 0.50 C 966 2837 M
63 0 V
5918 0 R
-63 0 V
-6002 0 R
( 58.6898) Rshow
1.000 UL
LT0
0.50 0.50 0.50 C 1.000 UL
LTa
0.50 0.50 0.50 C 966 2868 M
5981 0 V
stroke
LT0
0.50 0.50 0.50 C 966 2868 M
63 0 V
5918 0 R
-63 0 V
-6002 0 R
( 59.3969) Rshow
1.000 UL
LT0
0.50 0.50 0.50 C 1.000 UL
LTa
0.50 0.50 0.50 C 966 2899 M
5981 0 V
stroke
LT0
0.50 0.50 0.50 C 966 2899 M
63 0 V
5918 0 R
-63 0 V
-6002 0 R
( 60.104) Rshow
1.000 UL
LT0
0.50 0.50 0.50 C 1.000 UL
LTa
0.50 0.50 0.50 C 966 2930 M
5981 0 V
stroke
LT0
0.50 0.50 0.50 C 966 2930 M
63 0 V
5918 0 R
-63 0 V
-6002 0 R
( 60.8111) Rshow
1.000 UL
LT0
0.50 0.50 0.50 C 1.000 UL
LTa
0.50 0.50 0.50 C 966 2961 M
5981 0 V
stroke
LT0
0.50 0.50 0.50 C 966 2961 M
63 0 V
5918 0 R
-63 0 V
-6002 0 R
( 61.5182) Rshow
1.000 UL
LT0
0.50 0.50 0.50 C 1.000 UL
LTa
0.50 0.50 0.50 C 966 2991 M
5981 0 V
stroke
LT0
0.50 0.50 0.50 C 966 2991 M
63 0 V
5918 0 R
-63 0 V
-6002 0 R
( 62.2253) Rshow
1.000 UL
LT0
0.50 0.50 0.50 C 1.000 UL
LTa
0.50 0.50 0.50 C 966 3022 M
5981 0 V
stroke
LT0
0.50 0.50 0.50 C 966 3022 M
63 0 V
5918 0 R
-63 0 V
-6002 0 R
( 62.9324) Rshow
1.000 UL
LT0
0.50 0.50 0.50 C 1.000 UL
LTa
0.50 0.50 0.50 C 966 3053 M
5981 0 V
stroke
LT0
0.50 0.50 0.50 C 966 3053 M
63 0 V
5918 0 R
-63 0 V
-6002 0 R
( 63.6395) Rshow
1.000 UL
LT0
0.50 0.50 0.50 C 1.000 UL
LTa
0.50 0.50 0.50 C 966 3084 M
5981 0 V
stroke
LT0
0.50 0.50 0.50 C 966 3084 M
63 0 V
5918 0 R
-63 0 V
-6002 0 R
( 64.3466) Rshow
1.000 UL
LT0
0.50 0.50 0.50 C 1.000 UL
LTa
0.50 0.50 0.50 C 966 3115 M
5981 0 V
stroke
LT0
0.50 0.50 0.50 C 966 3115 M
63 0 V
5918 0 R
-63 0 V
-6002 0 R
( 65.0538) Rshow
1.000 UL
LT0
0.50 0.50 0.50 C 1.000 UL
LTa
0.50 0.50 0.50 C 966 3146 M
5981 0 V
stroke
LT0
0.50 0.50 0.50 C 966 3146 M
63 0 V
5918 0 R
-63 0 V
-6002 0 R
( 65.7609) Rshow
1.000 UL
LT0
0.50 0.50 0.50 C 1.000 UL
LTa
0.50 0.50 0.50 C 966 3176 M
5981 0 V
stroke
LT0
0.50 0.50 0.50 C 966 3176 M
63 0 V
5918 0 R
-63 0 V
-6002 0 R
( 66.468) Rshow
1.000 UL
LT0
0.50 0.50 0.50 C 1.000 UL
LTa
0.50 0.50 0.50 C 966 3207 M
5981 0 V
stroke
LT0
0.50 0.50 0.50 C 966 3207 M
63 0 V
5918 0 R
-63 0 V
-6002 0 R
( 67.1751) Rshow
1.000 UL
LT0
0.50 0.50 0.50 C 1.000 UL
LTa
0.50 0.50 0.50 C 966 3238 M
5981 0 V
stroke
LT0
0.50 0.50 0.50 C 966 3238 M
63 0 V
5918 0 R
-63 0 V
-6002 0 R
( 67.8822) Rshow
1.000 UL
LT0
0.50 0.50 0.50 C 1.000 UL
LTa
0.50 0.50 0.50 C 966 3269 M
5981 0 V
stroke
LT0
0.50 0.50 0.50 C 966 3269 M
63 0 V
5918 0 R
-63 0 V
-6002 0 R
( 68.5893) Rshow
1.000 UL
LT0
0.50 0.50 0.50 C 1.000 UL
LTa
0.50 0.50 0.50 C 966 3300 M
5981 0 V
stroke
LT0
0.50 0.50 0.50 C 966 3300 M
63 0 V
5918 0 R
-63 0 V
-6002 0 R
( 69.2964) Rshow
1.000 UL
LT0
0.50 0.50 0.50 C 1.000 UL
LTa
0.50 0.50 0.50 C 966 3330 M
5981 0 V
stroke
LT0
0.50 0.50 0.50 C 966 3330 M
63 0 V
5918 0 R
-63 0 V
-6002 0 R
( 70.0035) Rshow
1.000 UL
LT0
0.50 0.50 0.50 C 1.000 UL
LTa
0.50 0.50 0.50 C 966 3361 M
5981 0 V
stroke
LT0
0.50 0.50 0.50 C 966 3361 M
63 0 V
5918 0 R
-63 0 V
-6002 0 R
( 70.7106) Rshow
1.000 UL
LT0
0.50 0.50 0.50 C 1.000 UL
LTa
0.50 0.50 0.50 C 966 3392 M
5981 0 V
stroke
LT0
0.50 0.50 0.50 C 966 3392 M
63 0 V
5918 0 R
-63 0 V
-6002 0 R
( 71.4177) Rshow
1.000 UL
LT0
0.50 0.50 0.50 C 1.000 UL
LTa
0.50 0.50 0.50 C 966 3423 M
5981 0 V
stroke
LT0
0.50 0.50 0.50 C 966 3423 M
63 0 V
5918 0 R
-63 0 V
-6002 0 R
( 72.1248) Rshow
1.000 UL
LT0
0.50 0.50 0.50 C 1.000 UL
LTa
0.50 0.50 0.50 C 966 3454 M
5981 0 V
stroke
LT0
0.50 0.50 0.50 C 966 3454 M
63 0 V
5918 0 R
-63 0 V
-6002 0 R
( 72.8319) Rshow
1.000 UL
LT0
0.50 0.50 0.50 C 1.000 UL
LTa
0.50 0.50 0.50 C 966 3484 M
5981 0 V
stroke
LT0
0.50 0.50 0.50 C 966 3484 M
63 0 V
5918 0 R
-63 0 V
-6002 0 R
( 73.539) Rshow
1.000 UL
LT0
0.50 0.50 0.50 C 1.000 UL
LTa
0.50 0.50 0.50 C 966 3515 M
5981 0 V
stroke
LT0
0.50 0.50 0.50 C 966 3515 M
63 0 V
5918 0 R
-63 0 V
-6002 0 R
( 74.2461) Rshow
1.000 UL
LT0
0.50 0.50 0.50 C 1.000 UL
LTa
0.50 0.50 0.50 C 966 3546 M
5981 0 V
stroke
LT0
0.50 0.50 0.50 C 966 3546 M
63 0 V
5918 0 R
-63 0 V
-6002 0 R
( 74.9532) Rshow
1.000 UL
LT0
0.50 0.50 0.50 C 1.000 UL
LTa
0.50 0.50 0.50 C 966 3577 M
5981 0 V
stroke
LT0
0.50 0.50 0.50 C 966 3577 M
63 0 V
5918 0 R
-63 0 V
-6002 0 R
( 75.6603) Rshow
1.000 UL
LT0
0.50 0.50 0.50 C 1.000 UL
LTa
0.50 0.50 0.50 C 966 3608 M
5981 0 V
stroke
LT0
0.50 0.50 0.50 C 966 3608 M
63 0 V
5918 0 R
-63 0 V
-6002 0 R
( 76.3674) Rshow
1.000 UL
LT0
0.50 0.50 0.50 C 1.000 UL
LTa
0.50 0.50 0.50 C 966 3639 M
5981 0 V
stroke
LT0
0.50 0.50 0.50 C 966 3639 M
63 0 V
5918 0 R
-63 0 V
-6002 0 R
( 77.0746) Rshow
1.000 UL
LT0
0.50 0.50 0.50 C 1.000 UL
LTa
0.50 0.50 0.50 C 966 3669 M
5981 0 V
stroke
LT0
0.50 0.50 0.50 C 966 3669 M
63 0 V
5918 0 R
-63 0 V
-6002 0 R
( 77.7817) Rshow
1.000 UL
LT0
0.50 0.50 0.50 C 1.000 UL
LTa
0.50 0.50 0.50 C 966 3700 M
5981 0 V
stroke
LT0
0.50 0.50 0.50 C 966 3700 M
63 0 V
5918 0 R
-63 0 V
-6002 0 R
( 78.4888) Rshow
1.000 UL
LT0
0.50 0.50 0.50 C 1.000 UL
LTa
0.50 0.50 0.50 C 966 3731 M
5981 0 V
stroke
LT0
0.50 0.50 0.50 C 966 3731 M
63 0 V
5918 0 R
-63 0 V
-6002 0 R
( 79.1959) Rshow
1.000 UL
LT0
0.50 0.50 0.50 C 1.000 UL
LTa
0.50 0.50 0.50 C 966 3762 M
5981 0 V
stroke
LT0
0.50 0.50 0.50 C 966 3762 M
63 0 V
5918 0 R
-63 0 V
-6002 0 R
( 79.903) Rshow
1.000 UL
LT0
0.50 0.50 0.50 C 1.000 UL
LTa
0.50 0.50 0.50 C 966 3793 M
5981 0 V
stroke
LT0
0.50 0.50 0.50 C 966 3793 M
63 0 V
5918 0 R
-63 0 V
-6002 0 R
( 80.6101) Rshow
1.000 UL
LT0
0.50 0.50 0.50 C 1.000 UL
LTa
0.50 0.50 0.50 C 966 3823 M
5981 0 V
stroke
LT0
0.50 0.50 0.50 C 966 3823 M
63 0 V
5918 0 R
-63 0 V
-6002 0 R
( 81.3172) Rshow
1.000 UL
LT0
0.50 0.50 0.50 C 1.000 UL
LTa
0.50 0.50 0.50 C 966 3854 M
5981 0 V
stroke
LT0
0.50 0.50 0.50 C 966 3854 M
63 0 V
5918 0 R
-63 0 V
-6002 0 R
( 82.0243) Rshow
1.000 UL
LT0
0.50 0.50 0.50 C 1.000 UL
LTa
0.50 0.50 0.50 C 966 3885 M
5981 0 V
stroke
LT0
0.50 0.50 0.50 C 966 3885 M
63 0 V
5918 0 R
-63 0 V
-6002 0 R
( 82.7314) Rshow
1.000 UL
LT0
0.50 0.50 0.50 C 1.000 UL
LTa
0.50 0.50 0.50 C 966 3916 M
5981 0 V
stroke
LT0
0.50 0.50 0.50 C 966 3916 M
63 0 V
5918 0 R
-63 0 V
-6002 0 R
( 83.4385) Rshow
1.000 UL
LT0
0.50 0.50 0.50 C 1.000 UL
LTa
0.50 0.50 0.50 C 966 3947 M
5981 0 V
stroke
LT0
0.50 0.50 0.50 C 966 3947 M
63 0 V
5918 0 R
-63 0 V
-6002 0 R
( 84.1456) Rshow
1.000 UL
LT0
0.50 0.50 0.50 C 1.000 UL
LTa
0.50 0.50 0.50 C 966 3977 M
5981 0 V
stroke
LT0
0.50 0.50 0.50 C 966 3977 M
63 0 V
5918 0 R
-63 0 V
-6002 0 R
( 84.8527) Rshow
1.000 UL
LT0
0.50 0.50 0.50 C 1.000 UL
LTa
0.50 0.50 0.50 C 966 4008 M
5981 0 V
stroke
LT0
0.50 0.50 0.50 C 966 4008 M
63 0 V
5918 0 R
-63 0 V
-6002 0 R
( 85.5598) Rshow
1.000 UL
LT0
0.50 0.50 0.50 C 1.000 UL
LTa
0.50 0.50 0.50 C 966 4039 M
5981 0 V
stroke
LT0
0.50 0.50 0.50 C 966 4039 M
63 0 V
5918 0 R
-63 0 V
-6002 0 R
( 86.2669) Rshow
1.000 UL
LT0
0.50 0.50 0.50 C 1.000 UL
LTa
0.50 0.50 0.50 C 966 4070 M
5981 0 V
stroke
LT0
0.50 0.50 0.50 C 966 4070 M
63 0 V
5918 0 R
-63 0 V
-6002 0 R
( 86.974) Rshow
1.000 UL
LT0
0.50 0.50 0.50 C 1.000 UL
LTa
0.50 0.50 0.50 C 966 4101 M
5981 0 V
stroke
LT0
0.50 0.50 0.50 C 966 4101 M
63 0 V
5918 0 R
-63 0 V
-6002 0 R
( 87.6811) Rshow
1.000 UL
LT0
0.50 0.50 0.50 C 1.000 UL
LTa
0.50 0.50 0.50 C 966 4132 M
5981 0 V
stroke
LT0
0.50 0.50 0.50 C 966 4132 M
63 0 V
5918 0 R
-63 0 V
-6002 0 R
( 88.3882) Rshow
1.000 UL
LT0
0.50 0.50 0.50 C 1.000 UL
LTa
0.50 0.50 0.50 C 966 4162 M
5981 0 V
stroke
LT0
0.50 0.50 0.50 C 966 4162 M
63 0 V
5918 0 R
-63 0 V
-6002 0 R
( 89.0954) Rshow
1.000 UL
LT0
0.50 0.50 0.50 C 1.000 UL
LTa
0.50 0.50 0.50 C 966 4193 M
5981 0 V
stroke
LT0
0.50 0.50 0.50 C 966 4193 M
63 0 V
5918 0 R
-63 0 V
-6002 0 R
( 89.8025) Rshow
1.000 UL
LT0
0.50 0.50 0.50 C 1.000 UL
LTa
0.50 0.50 0.50 C 966 4224 M
5981 0 V
stroke
LT0
0.50 0.50 0.50 C 966 4224 M
63 0 V
5918 0 R
-63 0 V
-6002 0 R
( 90.5096) Rshow
1.000 UL
LT0
0.50 0.50 0.50 C 1.000 UL
LTa
0.50 0.50 0.50 C 966 4255 M
5981 0 V
stroke
LT0
0.50 0.50 0.50 C 966 4255 M
63 0 V
5918 0 R
-63 0 V
-6002 0 R
( 91.2167) Rshow
1.000 UL
LT0
0.50 0.50 0.50 C 1.000 UL
LTa
0.50 0.50 0.50 C 966 4286 M
5981 0 V
stroke
LT0
0.50 0.50 0.50 C 966 4286 M
63 0 V
5918 0 R
-63 0 V
-6002 0 R
( 91.9238) Rshow
1.000 UL
LT0
0.50 0.50 0.50 C 1.000 UL
LTa
0.50 0.50 0.50 C 966 4316 M
5981 0 V
stroke
LT0
0.50 0.50 0.50 C 966 4316 M
63 0 V
5918 0 R
-63 0 V
-6002 0 R
( 92.6309) Rshow
1.000 UL
LT0
0.50 0.50 0.50 C 1.000 UL
LTa
0.50 0.50 0.50 C 966 4347 M
5981 0 V
stroke
LT0
0.50 0.50 0.50 C 966 4347 M
63 0 V
5918 0 R
-63 0 V
-6002 0 R
( 93.338) Rshow
1.000 UL
LT0
0.50 0.50 0.50 C 1.000 UL
LTa
0.50 0.50 0.50 C 966 4378 M
5981 0 V
stroke
LT0
0.50 0.50 0.50 C 966 4378 M
63 0 V
5918 0 R
-63 0 V
-6002 0 R
( 94.0451) Rshow
1.000 UL
LT0
0.50 0.50 0.50 C 1.000 UL
LTa
0.50 0.50 0.50 C 966 4409 M
5981 0 V
stroke
LT0
0.50 0.50 0.50 C 966 4409 M
63 0 V
5918 0 R
-63 0 V
-6002 0 R
( 94.7522) Rshow
1.000 UL
LT0
0.50 0.50 0.50 C 1.000 UL
LTa
0.50 0.50 0.50 C 966 4440 M
5981 0 V
stroke
LT0
0.50 0.50 0.50 C 966 4440 M
63 0 V
5918 0 R
-63 0 V
-6002 0 R
( 95.4593) Rshow
1.000 UL
LT0
0.50 0.50 0.50 C 1.000 UL
LTa
0.50 0.50 0.50 C 966 4470 M
5981 0 V
stroke
LT0
0.50 0.50 0.50 C 966 4470 M
63 0 V
5918 0 R
-63 0 V
-6002 0 R
( 96.1664) Rshow
1.000 UL
LT0
0.50 0.50 0.50 C 1.000 UL
LTa
0.50 0.50 0.50 C 966 4501 M
5981 0 V
stroke
LT0
0.50 0.50 0.50 C 966 4501 M
63 0 V
5918 0 R
-63 0 V
-6002 0 R
( 96.8735) Rshow
1.000 UL
LT0
0.50 0.50 0.50 C 1.000 UL
LTa
0.50 0.50 0.50 C 966 4532 M
5981 0 V
stroke
LT0
0.50 0.50 0.50 C 966 4532 M
63 0 V
5918 0 R
-63 0 V
-6002 0 R
( 97.5806) Rshow
1.000 UL
LT0
0.50 0.50 0.50 C 1.000 UL
LTa
0.50 0.50 0.50 C 966 4563 M
5981 0 V
stroke
LT0
0.50 0.50 0.50 C 966 4563 M
63 0 V
5918 0 R
-63 0 V
-6002 0 R
( 98.2877) Rshow
1.000 UL
LT0
0.50 0.50 0.50 C 1.000 UL
LTa
0.50 0.50 0.50 C 966 4594 M
5981 0 V
stroke
LT0
0.50 0.50 0.50 C 966 4594 M
63 0 V
5918 0 R
-63 0 V
-6002 0 R
( 98.9948) Rshow
1.000 UL
LT0
0.50 0.50 0.50 C 1.000 UL
LTa
0.50 0.50 0.50 C 966 4625 M
5981 0 V
stroke
LT0
0.50 0.50 0.50 C 966 4625 M
63 0 V
5918 0 R
-63 0 V
-6002 0 R
( 99.7019) Rshow
1.000 UL
LT0
0.50 0.50 0.50 C 1.000 UL
LTa
0.50 0.50 0.50 C 966 4655 M
5981 0 V
stroke
LT0
0.50 0.50 0.50 C 966 4655 M
63 0 V
5918 0 R
-63 0 V
-6002 0 R
( 100.409) Rshow
1.000 UL
LT0
0.50 0.50 0.50 C 1.000 UL
LTa
0.50 0.50 0.50 C 966 4686 M
5981 0 V
stroke
LT0
0.50 0.50 0.50 C 966 4686 M
63 0 V
5918 0 R
-63 0 V
-6002 0 R
( 101.116) Rshow
1.000 UL
LT0
0.50 0.50 0.50 C 1.000 UL
LTa
0.50 0.50 0.50 C 966 4717 M
5981 0 V
stroke
LT0
0.50 0.50 0.50 C 966 4717 M
63 0 V
5918 0 R
-63 0 V
-6002 0 R
( 101.823) Rshow
1.000 UL
LT0
0.50 0.50 0.50 C 1.000 UL
LTa
0.50 0.50 0.50 C 966 4748 M
5981 0 V
stroke
LT0
0.50 0.50 0.50 C 966 4748 M
63 0 V
5918 0 R
-63 0 V
-6002 0 R
( 102.53) Rshow
1.000 UL
LT0
0.50 0.50 0.50 C 1.000 UL
LTa
0.50 0.50 0.50 C 966 4779 M
5981 0 V
stroke
LT0
0.50 0.50 0.50 C 966 4779 M
63 0 V
5918 0 R
-63 0 V
-6002 0 R
( 103.237) Rshow
1.000 UL
LT0
0.50 0.50 0.50 C 1.000 UL
LTa
0.50 0.50 0.50 C 966 4809 M
5981 0 V
stroke
LT0
0.50 0.50 0.50 C 966 4809 M
63 0 V
5918 0 R
-63 0 V
-6002 0 R
( 103.945) Rshow
1.000 UL
LT0
0.50 0.50 0.50 C 1.000 UL
LTa
0.50 0.50 0.50 C 966 4840 M
5981 0 V
stroke
LT0
0.50 0.50 0.50 C 966 4840 M
63 0 V
5918 0 R
-63 0 V
-6002 0 R
( 104.652) Rshow
1.000 UL
LT0
0.50 0.50 0.50 C 1.000 UL
LTa
0.50 0.50 0.50 C 966 4871 M
5981 0 V
stroke
LT0
0.50 0.50 0.50 C 966 4871 M
63 0 V
5918 0 R
-63 0 V
-6002 0 R
( 105.359) Rshow
1.000 UL
LT0
0.50 0.50 0.50 C 1.000 UL
LTa
0.50 0.50 0.50 C 966 280 M
0 4591 V
stroke
LT0
0.50 0.50 0.50 C 966 280 M
0 63 V
0 4528 R
0 -63 V
966 140 M
( 0) Cshow
1.000 UL
LT0
0.50 0.50 0.50 C 1.000 UL
LTa
0.50 0.50 0.50 C 1006 280 M
0 4591 V
stroke
LT0
0.50 0.50 0.50 C 1006 280 M
0 63 V
0 4528 R
0 -63 V
0 -4668 R
( 0.707106) Cshow
1.000 UL
LT0
0.50 0.50 0.50 C 1.000 UL
LTa
0.50 0.50 0.50 C 1046 280 M
0 4591 V
stroke
LT0
0.50 0.50 0.50 C 1046 280 M
0 63 V
0 4528 R
0 -63 V
0 -4668 R
( 1.41421) Cshow
1.000 UL
LT0
0.50 0.50 0.50 C 1.000 UL
LTa
0.50 0.50 0.50 C 1086 280 M
0 4591 V
stroke
LT0
0.50 0.50 0.50 C 1086 280 M
0 63 V
0 4528 R
0 -63 V
0 -4668 R
( 2.12132) Cshow
1.000 UL
LT0
0.50 0.50 0.50 C 1.000 UL
LTa
0.50 0.50 0.50 C 1127 280 M
0 4591 V
stroke
LT0
0.50 0.50 0.50 C 1127 280 M
0 63 V
0 4528 R
0 -63 V
0 -4668 R
( 2.82842) Cshow
1.000 UL
LT0
0.50 0.50 0.50 C 1.000 UL
LTa
0.50 0.50 0.50 C 1167 280 M
0 4591 V
stroke
LT0
0.50 0.50 0.50 C 1167 280 M
0 63 V
0 4528 R
0 -63 V
0 -4668 R
( 3.53553) Cshow
1.000 UL
LT0
0.50 0.50 0.50 C 1.000 UL
LTa
0.50 0.50 0.50 C 1207 280 M
0 4591 V
stroke
LT0
0.50 0.50 0.50 C 1207 280 M
0 63 V
0 4528 R
0 -63 V
0 -4668 R
( 4.24264) Cshow
1.000 UL
LT0
0.50 0.50 0.50 C 1.000 UL
LTa
0.50 0.50 0.50 C 1247 280 M
0 4591 V
stroke
LT0
0.50 0.50 0.50 C 1247 280 M
0 63 V
0 4528 R
0 -63 V
0 -4668 R
( 4.94974) Cshow
1.000 UL
LT0
0.50 0.50 0.50 C 1.000 UL
LTa
0.50 0.50 0.50 C 1287 280 M
0 4591 V
stroke
LT0
0.50 0.50 0.50 C 1287 280 M
0 63 V
0 4528 R
0 -63 V
0 -4668 R
( 5.65685) Cshow
1.000 UL
LT0
0.50 0.50 0.50 C 1.000 UL
LTa
0.50 0.50 0.50 C 1327 280 M
0 4591 V
stroke
LT0
0.50 0.50 0.50 C 1327 280 M
0 63 V
0 4528 R
0 -63 V
0 -4668 R
( 6.36395) Cshow
1.000 UL
LT0
0.50 0.50 0.50 C 1.000 UL
LTa
0.50 0.50 0.50 C 1367 280 M
0 4591 V
stroke
LT0
0.50 0.50 0.50 C 1367 280 M
0 63 V
0 4528 R
0 -63 V
0 -4668 R
( 7.07106) Cshow
1.000 UL
LT0
0.50 0.50 0.50 C 1.000 UL
LTa
0.50 0.50 0.50 C 1408 280 M
0 4591 V
stroke
LT0
0.50 0.50 0.50 C 1408 280 M
0 63 V
0 4528 R
0 -63 V
0 -4668 R
( 7.77817) Cshow
1.000 UL
LT0
0.50 0.50 0.50 C 1.000 UL
LTa
0.50 0.50 0.50 C 1448 280 M
0 4591 V
stroke
LT0
0.50 0.50 0.50 C 1448 280 M
0 63 V
0 4528 R
0 -63 V
0 -4668 R
( 8.48527) Cshow
1.000 UL
LT0
0.50 0.50 0.50 C 1.000 UL
LTa
0.50 0.50 0.50 C 1488 280 M
0 4591 V
stroke
LT0
0.50 0.50 0.50 C 1488 280 M
0 63 V
0 4528 R
0 -63 V
0 -4668 R
( 9.19238) Cshow
1.000 UL
LT0
0.50 0.50 0.50 C 1.000 UL
LTa
0.50 0.50 0.50 C 1528 280 M
0 4591 V
stroke
LT0
0.50 0.50 0.50 C 1528 280 M
0 63 V
0 4528 R
0 -63 V
0 -4668 R
( 9.89948) Cshow
1.000 UL
LT0
0.50 0.50 0.50 C 1.000 UL
LTa
0.50 0.50 0.50 C 1568 280 M
0 4591 V
stroke
LT0
0.50 0.50 0.50 C 1568 280 M
0 63 V
0 4528 R
0 -63 V
0 -4668 R
( 10.6066) Cshow
1.000 UL
LT0
0.50 0.50 0.50 C 1.000 UL
LTa
0.50 0.50 0.50 C 1608 280 M
0 4591 V
stroke
LT0
0.50 0.50 0.50 C 1608 280 M
0 63 V
0 4528 R
0 -63 V
0 -4668 R
( 11.3137) Cshow
1.000 UL
LT0
0.50 0.50 0.50 C 1.000 UL
LTa
0.50 0.50 0.50 C 1648 280 M
0 4591 V
stroke
LT0
0.50 0.50 0.50 C 1648 280 M
0 63 V
0 4528 R
0 -63 V
0 -4668 R
( 12.0208) Cshow
1.000 UL
LT0
0.50 0.50 0.50 C 1.000 UL
LTa
0.50 0.50 0.50 C 1689 280 M
0 4591 V
stroke
LT0
0.50 0.50 0.50 C 1689 280 M
0 63 V
0 4528 R
0 -63 V
0 -4668 R
( 12.7279) Cshow
1.000 UL
LT0
0.50 0.50 0.50 C 1.000 UL
LTa
0.50 0.50 0.50 C 1729 280 M
0 4591 V
stroke
LT0
0.50 0.50 0.50 C 1729 280 M
0 63 V
0 4528 R
0 -63 V
0 -4668 R
( 13.435) Cshow
1.000 UL
LT0
0.50 0.50 0.50 C 1.000 UL
LTa
0.50 0.50 0.50 C 1769 280 M
0 4591 V
stroke
LT0
0.50 0.50 0.50 C 1769 280 M
0 63 V
0 4528 R
0 -63 V
0 -4668 R
( 14.1421) Cshow
1.000 UL
LT0
0.50 0.50 0.50 C 1.000 UL
LTa
0.50 0.50 0.50 C 1809 280 M
0 4591 V
stroke
LT0
0.50 0.50 0.50 C 1809 280 M
0 63 V
0 4528 R
0 -63 V
0 -4668 R
( 14.8492) Cshow
1.000 UL
LT0
0.50 0.50 0.50 C 1.000 UL
LTa
0.50 0.50 0.50 C 1849 280 M
0 4591 V
stroke
LT0
0.50 0.50 0.50 C 1849 280 M
0 63 V
0 4528 R
0 -63 V
0 -4668 R
( 15.5563) Cshow
1.000 UL
LT0
0.50 0.50 0.50 C 1.000 UL
LTa
0.50 0.50 0.50 C 1889 280 M
0 4591 V
stroke
LT0
0.50 0.50 0.50 C 1889 280 M
0 63 V
0 4528 R
0 -63 V
0 -4668 R
( 16.2634) Cshow
1.000 UL
LT0
0.50 0.50 0.50 C 1.000 UL
LTa
0.50 0.50 0.50 C 1929 280 M
0 4591 V
stroke
LT0
0.50 0.50 0.50 C 1929 280 M
0 63 V
0 4528 R
0 -63 V
0 -4668 R
( 16.9705) Cshow
1.000 UL
LT0
0.50 0.50 0.50 C 1.000 UL
LTa
0.50 0.50 0.50 C 1970 280 M
0 4591 V
stroke
LT0
0.50 0.50 0.50 C 1970 280 M
0 63 V
0 4528 R
0 -63 V
0 -4668 R
( 17.6776) Cshow
1.000 UL
LT0
0.50 0.50 0.50 C 1.000 UL
LTa
0.50 0.50 0.50 C 2010 280 M
0 4591 V
stroke
LT0
0.50 0.50 0.50 C 2010 280 M
0 63 V
0 4528 R
0 -63 V
0 -4668 R
( 18.3848) Cshow
1.000 UL
LT0
0.50 0.50 0.50 C 1.000 UL
LTa
0.50 0.50 0.50 C 2050 280 M
0 4591 V
stroke
LT0
0.50 0.50 0.50 C 2050 280 M
0 63 V
0 4528 R
0 -63 V
0 -4668 R
( 19.0919) Cshow
1.000 UL
LT0
0.50 0.50 0.50 C 1.000 UL
LTa
0.50 0.50 0.50 C 2090 280 M
0 4591 V
stroke
LT0
0.50 0.50 0.50 C 2090 280 M
0 63 V
0 4528 R
0 -63 V
0 -4668 R
( 19.799) Cshow
1.000 UL
LT0
0.50 0.50 0.50 C 1.000 UL
LTa
0.50 0.50 0.50 C 2130 280 M
0 4591 V
stroke
LT0
0.50 0.50 0.50 C 2130 280 M
0 63 V
0 4528 R
0 -63 V
0 -4668 R
( 20.5061) Cshow
1.000 UL
LT0
0.50 0.50 0.50 C 1.000 UL
LTa
0.50 0.50 0.50 C 2170 280 M
0 4591 V
stroke
LT0
0.50 0.50 0.50 C 2170 280 M
0 63 V
0 4528 R
0 -63 V
0 -4668 R
( 21.2132) Cshow
1.000 UL
LT0
0.50 0.50 0.50 C 1.000 UL
LTa
0.50 0.50 0.50 C 2210 280 M
0 4591 V
stroke
LT0
0.50 0.50 0.50 C 2210 280 M
0 63 V
0 4528 R
0 -63 V
0 -4668 R
( 21.9203) Cshow
1.000 UL
LT0
0.50 0.50 0.50 C 1.000 UL
LTa
0.50 0.50 0.50 C 2251 280 M
0 4591 V
stroke
LT0
0.50 0.50 0.50 C 2251 280 M
0 63 V
0 4528 R
0 -63 V
0 -4668 R
( 22.6274) Cshow
1.000 UL
LT0
0.50 0.50 0.50 C 1.000 UL
LTa
0.50 0.50 0.50 C 2291 280 M
0 4591 V
stroke
LT0
0.50 0.50 0.50 C 2291 280 M
0 63 V
0 4528 R
0 -63 V
0 -4668 R
( 23.3345) Cshow
1.000 UL
LT0
0.50 0.50 0.50 C 1.000 UL
LTa
0.50 0.50 0.50 C 2331 280 M
0 4591 V
stroke
LT0
0.50 0.50 0.50 C 2331 280 M
0 63 V
0 4528 R
0 -63 V
0 -4668 R
( 24.0416) Cshow
1.000 UL
LT0
0.50 0.50 0.50 C 1.000 UL
LTa
0.50 0.50 0.50 C 2371 280 M
0 4591 V
stroke
LT0
0.50 0.50 0.50 C 2371 280 M
0 63 V
0 4528 R
0 -63 V
0 -4668 R
( 24.7487) Cshow
1.000 UL
LT0
0.50 0.50 0.50 C 1.000 UL
LTa
0.50 0.50 0.50 C 2411 280 M
0 4591 V
stroke
LT0
0.50 0.50 0.50 C 2411 280 M
0 63 V
0 4528 R
0 -63 V
0 -4668 R
( 25.4558) Cshow
1.000 UL
LT0
0.50 0.50 0.50 C 1.000 UL
LTa
0.50 0.50 0.50 C 2451 280 M
0 4591 V
stroke
LT0
0.50 0.50 0.50 C 2451 280 M
0 63 V
0 4528 R
0 -63 V
0 -4668 R
( 26.1629) Cshow
1.000 UL
LT0
0.50 0.50 0.50 C 1.000 UL
LTa
0.50 0.50 0.50 C 2491 280 M
0 4591 V
stroke
LT0
0.50 0.50 0.50 C 2491 280 M
0 63 V
0 4528 R
0 -63 V
0 -4668 R
( 26.87) Cshow
1.000 UL
LT0
0.50 0.50 0.50 C 1.000 UL
LTa
0.50 0.50 0.50 C 2531 280 M
0 4591 V
stroke
LT0
0.50 0.50 0.50 C 2531 280 M
0 63 V
0 4528 R
0 -63 V
0 -4668 R
( 27.5771) Cshow
1.000 UL
LT0
0.50 0.50 0.50 C 1.000 UL
LTa
0.50 0.50 0.50 C 2572 280 M
0 4591 V
stroke
LT0
0.50 0.50 0.50 C 2572 280 M
0 63 V
0 4528 R
0 -63 V
0 -4668 R
( 28.2842) Cshow
1.000 UL
LT0
0.50 0.50 0.50 C 1.000 UL
LTa
0.50 0.50 0.50 C 2612 280 M
0 4591 V
stroke
LT0
0.50 0.50 0.50 C 2612 280 M
0 63 V
0 4528 R
0 -63 V
0 -4668 R
( 28.9913) Cshow
1.000 UL
LT0
0.50 0.50 0.50 C 1.000 UL
LTa
0.50 0.50 0.50 C 2652 280 M
0 4591 V
stroke
LT0
0.50 0.50 0.50 C 2652 280 M
0 63 V
0 4528 R
0 -63 V
0 -4668 R
( 29.6985) Cshow
1.000 UL
LT0
0.50 0.50 0.50 C 1.000 UL
LTa
0.50 0.50 0.50 C 2692 280 M
0 4591 V
stroke
LT0
0.50 0.50 0.50 C 2692 280 M
0 63 V
0 4528 R
0 -63 V
0 -4668 R
( 30.4056) Cshow
1.000 UL
LT0
0.50 0.50 0.50 C 1.000 UL
LTa
0.50 0.50 0.50 C 2732 280 M
0 4591 V
stroke
LT0
0.50 0.50 0.50 C 2732 280 M
0 63 V
0 4528 R
0 -63 V
0 -4668 R
( 31.1127) Cshow
1.000 UL
LT0
0.50 0.50 0.50 C 1.000 UL
LTa
0.50 0.50 0.50 C 2772 280 M
0 4591 V
stroke
LT0
0.50 0.50 0.50 C 2772 280 M
0 63 V
0 4528 R
0 -63 V
0 -4668 R
( 31.8198) Cshow
1.000 UL
LT0
0.50 0.50 0.50 C 1.000 UL
LTa
0.50 0.50 0.50 C 2812 280 M
0 4591 V
stroke
LT0
0.50 0.50 0.50 C 2812 280 M
0 63 V
0 4528 R
0 -63 V
0 -4668 R
( 32.5269) Cshow
1.000 UL
LT0
0.50 0.50 0.50 C 1.000 UL
LTa
0.50 0.50 0.50 C 2853 280 M
0 4591 V
stroke
LT0
0.50 0.50 0.50 C 2853 280 M
0 63 V
0 4528 R
0 -63 V
0 -4668 R
( 33.234) Cshow
1.000 UL
LT0
0.50 0.50 0.50 C 1.000 UL
LTa
0.50 0.50 0.50 C 2893 280 M
0 4591 V
stroke
LT0
0.50 0.50 0.50 C 2893 280 M
0 63 V
0 4528 R
0 -63 V
0 -4668 R
( 33.9411) Cshow
1.000 UL
LT0
0.50 0.50 0.50 C 1.000 UL
LTa
0.50 0.50 0.50 C 2933 280 M
0 4591 V
stroke
LT0
0.50 0.50 0.50 C 2933 280 M
0 63 V
0 4528 R
0 -63 V
0 -4668 R
( 34.6482) Cshow
1.000 UL
LT0
0.50 0.50 0.50 C 1.000 UL
LTa
0.50 0.50 0.50 C 2973 280 M
0 4591 V
stroke
LT0
0.50 0.50 0.50 C 2973 280 M
0 63 V
0 4528 R
0 -63 V
0 -4668 R
( 35.3553) Cshow
1.000 UL
LT0
0.50 0.50 0.50 C 1.000 UL
LTa
0.50 0.50 0.50 C 3013 280 M
0 4591 V
stroke
LT0
0.50 0.50 0.50 C 3013 280 M
0 63 V
0 4528 R
0 -63 V
0 -4668 R
( 36.0624) Cshow
1.000 UL
LT0
0.50 0.50 0.50 C 1.000 UL
LTa
0.50 0.50 0.50 C 3053 280 M
0 4591 V
stroke
LT0
0.50 0.50 0.50 C 3053 280 M
0 63 V
0 4528 R
0 -63 V
0 -4668 R
( 36.7695) Cshow
1.000 UL
LT0
0.50 0.50 0.50 C 1.000 UL
LTa
0.50 0.50 0.50 C 3093 280 M
0 4591 V
stroke
LT0
0.50 0.50 0.50 C 3093 280 M
0 63 V
0 4528 R
0 -63 V
0 -4668 R
( 37.4766) Cshow
1.000 UL
LT0
0.50 0.50 0.50 C 1.000 UL
LTa
0.50 0.50 0.50 C 3134 280 M
0 4591 V
stroke
LT0
0.50 0.50 0.50 C 3134 280 M
0 63 V
0 4528 R
0 -63 V
0 -4668 R
( 38.1837) Cshow
1.000 UL
LT0
0.50 0.50 0.50 C 1.000 UL
LTa
0.50 0.50 0.50 C 3174 280 M
0 4591 V
stroke
LT0
0.50 0.50 0.50 C 3174 280 M
0 63 V
0 4528 R
0 -63 V
0 -4668 R
( 38.8908) Cshow
1.000 UL
LT0
0.50 0.50 0.50 C 1.000 UL
LTa
0.50 0.50 0.50 C 3214 280 M
0 4591 V
stroke
LT0
0.50 0.50 0.50 C 3214 280 M
0 63 V
0 4528 R
0 -63 V
0 -4668 R
( 39.5979) Cshow
1.000 UL
LT0
0.50 0.50 0.50 C 1.000 UL
LTa
0.50 0.50 0.50 C 3254 280 M
0 4591 V
stroke
LT0
0.50 0.50 0.50 C 3254 280 M
0 63 V
0 4528 R
0 -63 V
0 -4668 R
( 40.305) Cshow
1.000 UL
LT0
0.50 0.50 0.50 C 1.000 UL
LTa
0.50 0.50 0.50 C 3294 280 M
0 4591 V
stroke
LT0
0.50 0.50 0.50 C 3294 280 M
0 63 V
0 4528 R
0 -63 V
0 -4668 R
( 41.0121) Cshow
1.000 UL
LT0
0.50 0.50 0.50 C 1.000 UL
LTa
0.50 0.50 0.50 C 3334 280 M
0 4591 V
stroke
LT0
0.50 0.50 0.50 C 3334 280 M
0 63 V
0 4528 R
0 -63 V
0 -4668 R
( 41.7193) Cshow
1.000 UL
LT0
0.50 0.50 0.50 C 1.000 UL
LTa
0.50 0.50 0.50 C 3374 280 M
0 4591 V
stroke
LT0
0.50 0.50 0.50 C 3374 280 M
0 63 V
0 4528 R
0 -63 V
0 -4668 R
( 42.4264) Cshow
1.000 UL
LT0
0.50 0.50 0.50 C 1.000 UL
LTa
0.50 0.50 0.50 C 3415 280 M
0 4591 V
stroke
LT0
0.50 0.50 0.50 C 3415 280 M
0 63 V
0 4528 R
0 -63 V
0 -4668 R
( 43.1335) Cshow
1.000 UL
LT0
0.50 0.50 0.50 C 1.000 UL
LTa
0.50 0.50 0.50 C 3455 280 M
0 4591 V
stroke
LT0
0.50 0.50 0.50 C 3455 280 M
0 63 V
0 4528 R
0 -63 V
0 -4668 R
( 43.8406) Cshow
1.000 UL
LT0
0.50 0.50 0.50 C 1.000 UL
LTa
0.50 0.50 0.50 C 3495 280 M
0 4591 V
stroke
LT0
0.50 0.50 0.50 C 3495 280 M
0 63 V
0 4528 R
0 -63 V
0 -4668 R
( 44.5477) Cshow
1.000 UL
LT0
0.50 0.50 0.50 C 1.000 UL
LTa
0.50 0.50 0.50 C 3535 280 M
0 4591 V
stroke
LT0
0.50 0.50 0.50 C 3535 280 M
0 63 V
0 4528 R
0 -63 V
0 -4668 R
( 45.2548) Cshow
1.000 UL
LT0
0.50 0.50 0.50 C 1.000 UL
LTa
0.50 0.50 0.50 C 3575 280 M
0 4591 V
stroke
LT0
0.50 0.50 0.50 C 3575 280 M
0 63 V
0 4528 R
0 -63 V
0 -4668 R
( 45.9619) Cshow
1.000 UL
LT0
0.50 0.50 0.50 C 1.000 UL
LTa
0.50 0.50 0.50 C 3615 280 M
0 4591 V
stroke
LT0
0.50 0.50 0.50 C 3615 280 M
0 63 V
0 4528 R
0 -63 V
0 -4668 R
( 46.669) Cshow
1.000 UL
LT0
0.50 0.50 0.50 C 1.000 UL
LTa
0.50 0.50 0.50 C 3655 280 M
0 4591 V
stroke
LT0
0.50 0.50 0.50 C 3655 280 M
0 63 V
0 4528 R
0 -63 V
0 -4668 R
( 47.3761) Cshow
1.000 UL
LT0
0.50 0.50 0.50 C 1.000 UL
LTa
0.50 0.50 0.50 C 3696 280 M
0 4591 V
stroke
LT0
0.50 0.50 0.50 C 3696 280 M
0 63 V
0 4528 R
0 -63 V
0 -4668 R
( 48.0832) Cshow
1.000 UL
LT0
0.50 0.50 0.50 C 1.000 UL
LTa
0.50 0.50 0.50 C 3736 280 M
0 4591 V
stroke
LT0
0.50 0.50 0.50 C 3736 280 M
0 63 V
0 4528 R
0 -63 V
0 -4668 R
( 48.7903) Cshow
1.000 UL
LT0
0.50 0.50 0.50 C 1.000 UL
LTa
0.50 0.50 0.50 C 3776 280 M
0 4591 V
stroke
LT0
0.50 0.50 0.50 C 3776 280 M
0 63 V
0 4528 R
0 -63 V
0 -4668 R
( 49.4974) Cshow
1.000 UL
LT0
0.50 0.50 0.50 C 1.000 UL
LTa
0.50 0.50 0.50 C 3816 280 M
0 4591 V
stroke
LT0
0.50 0.50 0.50 C 3816 280 M
0 63 V
0 4528 R
0 -63 V
0 -4668 R
( 50.2045) Cshow
1.000 UL
LT0
0.50 0.50 0.50 C 1.000 UL
LTa
0.50 0.50 0.50 C 3856 280 M
0 4591 V
stroke
LT0
0.50 0.50 0.50 C 3856 280 M
0 63 V
0 4528 R
0 -63 V
0 -4668 R
( 50.9116) Cshow
1.000 UL
LT0
0.50 0.50 0.50 C 1.000 UL
LTa
0.50 0.50 0.50 C 3896 280 M
0 4591 V
stroke
LT0
0.50 0.50 0.50 C 3896 280 M
0 63 V
0 4528 R
0 -63 V
0 -4668 R
( 51.6187) Cshow
1.000 UL
LT0
0.50 0.50 0.50 C 1.000 UL
LTa
0.50 0.50 0.50 C 3936 280 M
0 4591 V
stroke
LT0
0.50 0.50 0.50 C 3936 280 M
0 63 V
0 4528 R
0 -63 V
0 -4668 R
( 52.3258) Cshow
1.000 UL
LT0
0.50 0.50 0.50 C 1.000 UL
LTa
0.50 0.50 0.50 C 3977 280 M
0 4591 V
stroke
LT0
0.50 0.50 0.50 C 3977 280 M
0 63 V
0 4528 R
0 -63 V
0 -4668 R
( 53.033) Cshow
1.000 UL
LT0
0.50 0.50 0.50 C 1.000 UL
LTa
0.50 0.50 0.50 C 4017 280 M
0 4591 V
stroke
LT0
0.50 0.50 0.50 C 4017 280 M
0 63 V
0 4528 R
0 -63 V
0 -4668 R
( 53.7401) Cshow
1.000 UL
LT0
0.50 0.50 0.50 C 1.000 UL
LTa
0.50 0.50 0.50 C 4057 280 M
0 4591 V
stroke
LT0
0.50 0.50 0.50 C 4057 280 M
0 63 V
0 4528 R
0 -63 V
0 -4668 R
( 54.4472) Cshow
1.000 UL
LT0
0.50 0.50 0.50 C 1.000 UL
LTa
0.50 0.50 0.50 C 4097 280 M
0 4591 V
stroke
LT0
0.50 0.50 0.50 C 4097 280 M
0 63 V
0 4528 R
0 -63 V
0 -4668 R
( 55.1543) Cshow
1.000 UL
LT0
0.50 0.50 0.50 C 1.000 UL
LTa
0.50 0.50 0.50 C 4137 280 M
0 4591 V
stroke
LT0
0.50 0.50 0.50 C 4137 280 M
0 63 V
0 4528 R
0 -63 V
0 -4668 R
( 55.8614) Cshow
1.000 UL
LT0
0.50 0.50 0.50 C 1.000 UL
LTa
0.50 0.50 0.50 C 4177 280 M
0 4591 V
stroke
LT0
0.50 0.50 0.50 C 4177 280 M
0 63 V
0 4528 R
0 -63 V
0 -4668 R
( 56.5685) Cshow
1.000 UL
LT0
0.50 0.50 0.50 C 1.000 UL
LTa
0.50 0.50 0.50 C 4217 280 M
0 4591 V
stroke
LT0
0.50 0.50 0.50 C 4217 280 M
0 63 V
0 4528 R
0 -63 V
0 -4668 R
( 57.2756) Cshow
1.000 UL
LT0
0.50 0.50 0.50 C 1.000 UL
LTa
0.50 0.50 0.50 C 4258 280 M
0 4591 V
stroke
LT0
0.50 0.50 0.50 C 4258 280 M
0 63 V
0 4528 R
0 -63 V
0 -4668 R
( 57.9827) Cshow
1.000 UL
LT0
0.50 0.50 0.50 C 1.000 UL
LTa
0.50 0.50 0.50 C 4298 280 M
0 4591 V
stroke
LT0
0.50 0.50 0.50 C 4298 280 M
0 63 V
0 4528 R
0 -63 V
0 -4668 R
( 58.6898) Cshow
1.000 UL
LT0
0.50 0.50 0.50 C 1.000 UL
LTa
0.50 0.50 0.50 C 4338 280 M
0 4591 V
stroke
LT0
0.50 0.50 0.50 C 4338 280 M
0 63 V
0 4528 R
0 -63 V
0 -4668 R
( 59.3969) Cshow
1.000 UL
LT0
0.50 0.50 0.50 C 1.000 UL
LTa
0.50 0.50 0.50 C 4378 280 M
0 4591 V
stroke
LT0
0.50 0.50 0.50 C 4378 280 M
0 63 V
0 4528 R
0 -63 V
0 -4668 R
( 60.104) Cshow
1.000 UL
LT0
0.50 0.50 0.50 C 1.000 UL
LTa
0.50 0.50 0.50 C 4418 280 M
0 4591 V
stroke
LT0
0.50 0.50 0.50 C 4418 280 M
0 63 V
0 4528 R
0 -63 V
0 -4668 R
( 60.8111) Cshow
1.000 UL
LT0
0.50 0.50 0.50 C 1.000 UL
LTa
0.50 0.50 0.50 C 4458 280 M
0 4591 V
stroke
LT0
0.50 0.50 0.50 C 4458 280 M
0 63 V
0 4528 R
0 -63 V
0 -4668 R
( 61.5182) Cshow
1.000 UL
LT0
0.50 0.50 0.50 C 1.000 UL
LTa
0.50 0.50 0.50 C 4498 280 M
0 4591 V
stroke
LT0
0.50 0.50 0.50 C 4498 280 M
0 63 V
0 4528 R
0 -63 V
0 -4668 R
( 62.2253) Cshow
1.000 UL
LT0
0.50 0.50 0.50 C 1.000 UL
LTa
0.50 0.50 0.50 C 4539 280 M
0 4591 V
stroke
LT0
0.50 0.50 0.50 C 4539 280 M
0 63 V
0 4528 R
0 -63 V
0 -4668 R
( 62.9324) Cshow
1.000 UL
LT0
0.50 0.50 0.50 C 1.000 UL
LTa
0.50 0.50 0.50 C 4579 280 M
0 4591 V
stroke
LT0
0.50 0.50 0.50 C 4579 280 M
0 63 V
0 4528 R
0 -63 V
0 -4668 R
( 63.6395) Cshow
1.000 UL
LT0
0.50 0.50 0.50 C 1.000 UL
LTa
0.50 0.50 0.50 C 4619 280 M
0 4591 V
stroke
LT0
0.50 0.50 0.50 C 4619 280 M
0 63 V
0 4528 R
0 -63 V
0 -4668 R
( 64.3466) Cshow
1.000 UL
LT0
0.50 0.50 0.50 C 1.000 UL
LTa
0.50 0.50 0.50 C 4659 280 M
0 4591 V
stroke
LT0
0.50 0.50 0.50 C 4659 280 M
0 63 V
0 4528 R
0 -63 V
0 -4668 R
( 65.0538) Cshow
1.000 UL
LT0
0.50 0.50 0.50 C 1.000 UL
LTa
0.50 0.50 0.50 C 4699 280 M
0 4591 V
stroke
LT0
0.50 0.50 0.50 C 4699 280 M
0 63 V
0 4528 R
0 -63 V
0 -4668 R
( 65.7609) Cshow
1.000 UL
LT0
0.50 0.50 0.50 C 1.000 UL
LTa
0.50 0.50 0.50 C 4739 280 M
0 4591 V
stroke
LT0
0.50 0.50 0.50 C 4739 280 M
0 63 V
0 4528 R
0 -63 V
0 -4668 R
( 66.468) Cshow
1.000 UL
LT0
0.50 0.50 0.50 C 1.000 UL
LTa
0.50 0.50 0.50 C 4779 280 M
0 4591 V
stroke
LT0
0.50 0.50 0.50 C 4779 280 M
0 63 V
0 4528 R
0 -63 V
0 -4668 R
( 67.1751) Cshow
1.000 UL
LT0
0.50 0.50 0.50 C 1.000 UL
LTa
0.50 0.50 0.50 C 4820 280 M
0 4591 V
stroke
LT0
0.50 0.50 0.50 C 4820 280 M
0 63 V
0 4528 R
0 -63 V
0 -4668 R
( 67.8822) Cshow
1.000 UL
LT0
0.50 0.50 0.50 C 1.000 UL
LTa
0.50 0.50 0.50 C 4860 280 M
0 4591 V
stroke
LT0
0.50 0.50 0.50 C 4860 280 M
0 63 V
0 4528 R
0 -63 V
0 -4668 R
( 68.5893) Cshow
1.000 UL
LT0
0.50 0.50 0.50 C 1.000 UL
LTa
0.50 0.50 0.50 C 4900 280 M
0 4591 V
stroke
LT0
0.50 0.50 0.50 C 4900 280 M
0 63 V
0 4528 R
0 -63 V
0 -4668 R
( 69.2964) Cshow
1.000 UL
LT0
0.50 0.50 0.50 C 1.000 UL
LTa
0.50 0.50 0.50 C 4940 280 M
0 4591 V
stroke
LT0
0.50 0.50 0.50 C 4940 280 M
0 63 V
0 4528 R
0 -63 V
0 -4668 R
( 70.0035) Cshow
1.000 UL
LT0
0.50 0.50 0.50 C 1.000 UL
LTa
0.50 0.50 0.50 C 4980 280 M
0 4591 V
stroke
LT0
0.50 0.50 0.50 C 4980 280 M
0 63 V
0 4528 R
0 -63 V
0 -4668 R
( 70.7106) Cshow
1.000 UL
LT0
0.50 0.50 0.50 C 1.000 UL
LTa
0.50 0.50 0.50 C 5020 280 M
0 4591 V
stroke
LT0
0.50 0.50 0.50 C 5020 280 M
0 63 V
0 4528 R
0 -63 V
0 -4668 R
( 71.4177) Cshow
1.000 UL
LT0
0.50 0.50 0.50 C 1.000 UL
LTa
0.50 0.50 0.50 C 5060 280 M
0 4591 V
stroke
LT0
0.50 0.50 0.50 C 5060 280 M
0 63 V
0 4528 R
0 -63 V
0 -4668 R
( 72.1248) Cshow
1.000 UL
LT0
0.50 0.50 0.50 C 1.000 UL
LTa
0.50 0.50 0.50 C 5101 280 M
0 4591 V
stroke
LT0
0.50 0.50 0.50 C 5101 280 M
0 63 V
0 4528 R
0 -63 V
0 -4668 R
( 72.8319) Cshow
1.000 UL
LT0
0.50 0.50 0.50 C 1.000 UL
LTa
0.50 0.50 0.50 C 5141 280 M
0 4591 V
stroke
LT0
0.50 0.50 0.50 C 5141 280 M
0 63 V
0 4528 R
0 -63 V
0 -4668 R
( 73.539) Cshow
1.000 UL
LT0
0.50 0.50 0.50 C 1.000 UL
LTa
0.50 0.50 0.50 C 5181 280 M
0 4591 V
stroke
LT0
0.50 0.50 0.50 C 5181 280 M
0 63 V
0 4528 R
0 -63 V
0 -4668 R
( 74.2461) Cshow
1.000 UL
LT0
0.50 0.50 0.50 C 1.000 UL
LTa
0.50 0.50 0.50 C 5221 280 M
0 4591 V
stroke
LT0
0.50 0.50 0.50 C 5221 280 M
0 63 V
0 4528 R
0 -63 V
0 -4668 R
( 74.9532) Cshow
1.000 UL
LT0
0.50 0.50 0.50 C 1.000 UL
LTa
0.50 0.50 0.50 C 5261 280 M
0 4591 V
stroke
LT0
0.50 0.50 0.50 C 5261 280 M
0 63 V
0 4528 R
0 -63 V
0 -4668 R
( 75.6603) Cshow
1.000 UL
LT0
0.50 0.50 0.50 C 1.000 UL
LTa
0.50 0.50 0.50 C 5301 280 M
0 4591 V
stroke
LT0
0.50 0.50 0.50 C 5301 280 M
0 63 V
0 4528 R
0 -63 V
0 -4668 R
( 76.3674) Cshow
1.000 UL
LT0
0.50 0.50 0.50 C 1.000 UL
LTa
0.50 0.50 0.50 C 5341 280 M
0 4591 V
stroke
LT0
0.50 0.50 0.50 C 5341 280 M
0 63 V
0 4528 R
0 -63 V
0 -4668 R
( 77.0746) Cshow
1.000 UL
LT0
0.50 0.50 0.50 C 1.000 UL
LTa
0.50 0.50 0.50 C 5382 280 M
0 4591 V
stroke
LT0
0.50 0.50 0.50 C 5382 280 M
0 63 V
0 4528 R
0 -63 V
0 -4668 R
( 77.7817) Cshow
1.000 UL
LT0
0.50 0.50 0.50 C 1.000 UL
LTa
0.50 0.50 0.50 C 5422 280 M
0 4591 V
stroke
LT0
0.50 0.50 0.50 C 5422 280 M
0 63 V
0 4528 R
0 -63 V
0 -4668 R
( 78.4888) Cshow
1.000 UL
LT0
0.50 0.50 0.50 C 1.000 UL
LTa
0.50 0.50 0.50 C 5462 280 M
0 4591 V
stroke
LT0
0.50 0.50 0.50 C 5462 280 M
0 63 V
0 4528 R
0 -63 V
0 -4668 R
( 79.1959) Cshow
1.000 UL
LT0
0.50 0.50 0.50 C 1.000 UL
LTa
0.50 0.50 0.50 C 5502 280 M
0 4591 V
stroke
LT0
0.50 0.50 0.50 C 5502 280 M
0 63 V
0 4528 R
0 -63 V
0 -4668 R
( 79.903) Cshow
1.000 UL
LT0
0.50 0.50 0.50 C 1.000 UL
LTa
0.50 0.50 0.50 C 5542 280 M
0 4591 V
stroke
LT0
0.50 0.50 0.50 C 5542 280 M
0 63 V
0 4528 R
0 -63 V
0 -4668 R
( 80.6101) Cshow
1.000 UL
LT0
0.50 0.50 0.50 C 1.000 UL
LTa
0.50 0.50 0.50 C 5582 280 M
0 4591 V
stroke
LT0
0.50 0.50 0.50 C 5582 280 M
0 63 V
0 4528 R
0 -63 V
0 -4668 R
( 81.3172) Cshow
1.000 UL
LT0
0.50 0.50 0.50 C 1.000 UL
LTa
0.50 0.50 0.50 C 5622 280 M
0 4591 V
stroke
LT0
0.50 0.50 0.50 C 5622 280 M
0 63 V
0 4528 R
0 -63 V
0 -4668 R
( 82.0243) Cshow
1.000 UL
LT0
0.50 0.50 0.50 C 1.000 UL
LTa
0.50 0.50 0.50 C 5662 280 M
0 4591 V
stroke
LT0
0.50 0.50 0.50 C 5662 280 M
0 63 V
0 4528 R
0 -63 V
0 -4668 R
( 82.7314) Cshow
1.000 UL
LT0
0.50 0.50 0.50 C 1.000 UL
LTa
0.50 0.50 0.50 C 5703 280 M
0 4591 V
stroke
LT0
0.50 0.50 0.50 C 5703 280 M
0 63 V
0 4528 R
0 -63 V
0 -4668 R
( 83.4385) Cshow
1.000 UL
LT0
0.50 0.50 0.50 C 1.000 UL
LTa
0.50 0.50 0.50 C 5743 280 M
0 4591 V
stroke
LT0
0.50 0.50 0.50 C 5743 280 M
0 63 V
0 4528 R
0 -63 V
0 -4668 R
( 84.1456) Cshow
1.000 UL
LT0
0.50 0.50 0.50 C 1.000 UL
LTa
0.50 0.50 0.50 C 5783 280 M
0 4591 V
stroke
LT0
0.50 0.50 0.50 C 5783 280 M
0 63 V
0 4528 R
0 -63 V
0 -4668 R
( 84.8527) Cshow
1.000 UL
LT0
0.50 0.50 0.50 C 1.000 UL
LTa
0.50 0.50 0.50 C 5823 280 M
0 4591 V
stroke
LT0
0.50 0.50 0.50 C 5823 280 M
0 63 V
0 4528 R
0 -63 V
0 -4668 R
( 85.5598) Cshow
1.000 UL
LT0
0.50 0.50 0.50 C 1.000 UL
LTa
0.50 0.50 0.50 C 5863 280 M
0 4591 V
stroke
LT0
0.50 0.50 0.50 C 5863 280 M
0 63 V
0 4528 R
0 -63 V
0 -4668 R
( 86.2669) Cshow
1.000 UL
LT0
0.50 0.50 0.50 C 1.000 UL
LTa
0.50 0.50 0.50 C 5903 280 M
0 4591 V
stroke
LT0
0.50 0.50 0.50 C 5903 280 M
0 63 V
0 4528 R
0 -63 V
0 -4668 R
( 86.974) Cshow
1.000 UL
LT0
0.50 0.50 0.50 C 1.000 UL
LTa
0.50 0.50 0.50 C 5943 280 M
0 4591 V
stroke
LT0
0.50 0.50 0.50 C 5943 280 M
0 63 V
0 4528 R
0 -63 V
0 -4668 R
( 87.6811) Cshow
1.000 UL
LT0
0.50 0.50 0.50 C 1.000 UL
LTa
0.50 0.50 0.50 C 5984 280 M
0 4591 V
stroke
LT0
0.50 0.50 0.50 C 5984 280 M
0 63 V
0 4528 R
0 -63 V
0 -4668 R
( 88.3882) Cshow
1.000 UL
LT0
0.50 0.50 0.50 C 1.000 UL
LTa
0.50 0.50 0.50 C 6024 280 M
0 4591 V
stroke
LT0
0.50 0.50 0.50 C 6024 280 M
0 63 V
0 4528 R
0 -63 V
0 -4668 R
( 89.0954) Cshow
1.000 UL
LT0
0.50 0.50 0.50 C 1.000 UL
LTa
0.50 0.50 0.50 C 6064 280 M
0 4591 V
stroke
LT0
0.50 0.50 0.50 C 6064 280 M
0 63 V
0 4528 R
0 -63 V
0 -4668 R
( 89.8025) Cshow
1.000 UL
LT0
0.50 0.50 0.50 C 1.000 UL
LTa
0.50 0.50 0.50 C 6104 280 M
0 4591 V
stroke
LT0
0.50 0.50 0.50 C 6104 280 M
0 63 V
0 4528 R
0 -63 V
0 -4668 R
( 90.5096) Cshow
1.000 UL
LT0
0.50 0.50 0.50 C 1.000 UL
LTa
0.50 0.50 0.50 C 6144 280 M
0 4591 V
stroke
LT0
0.50 0.50 0.50 C 6144 280 M
0 63 V
0 4528 R
0 -63 V
0 -4668 R
( 91.2167) Cshow
1.000 UL
LT0
0.50 0.50 0.50 C 1.000 UL
LTa
0.50 0.50 0.50 C 6184 280 M
0 4591 V
stroke
LT0
0.50 0.50 0.50 C 6184 280 M
0 63 V
0 4528 R
0 -63 V
0 -4668 R
( 91.9238) Cshow
1.000 UL
LT0
0.50 0.50 0.50 C 1.000 UL
LTa
0.50 0.50 0.50 C 6224 280 M
0 4591 V
stroke
LT0
0.50 0.50 0.50 C 6224 280 M
0 63 V
0 4528 R
0 -63 V
0 -4668 R
( 92.6309) Cshow
1.000 UL
LT0
0.50 0.50 0.50 C 1.000 UL
LTa
0.50 0.50 0.50 C 6265 280 M
0 4591 V
stroke
LT0
0.50 0.50 0.50 C 6265 280 M
0 63 V
0 4528 R
0 -63 V
0 -4668 R
( 93.338) Cshow
1.000 UL
LT0
0.50 0.50 0.50 C 1.000 UL
LTa
0.50 0.50 0.50 C 6305 280 M
0 4591 V
stroke
LT0
0.50 0.50 0.50 C 6305 280 M
0 63 V
0 4528 R
0 -63 V
0 -4668 R
( 94.0451) Cshow
1.000 UL
LT0
0.50 0.50 0.50 C 1.000 UL
LTa
0.50 0.50 0.50 C 6345 280 M
0 4591 V
stroke
LT0
0.50 0.50 0.50 C 6345 280 M
0 63 V
0 4528 R
0 -63 V
0 -4668 R
( 94.7522) Cshow
1.000 UL
LT0
0.50 0.50 0.50 C 1.000 UL
LTa
0.50 0.50 0.50 C 6385 280 M
0 4591 V
stroke
LT0
0.50 0.50 0.50 C 6385 280 M
0 63 V
0 4528 R
0 -63 V
0 -4668 R
( 95.4593) Cshow
1.000 UL
LT0
0.50 0.50 0.50 C 1.000 UL
LTa
0.50 0.50 0.50 C 6425 280 M
0 4591 V
stroke
LT0
0.50 0.50 0.50 C 6425 280 M
0 63 V
0 4528 R
0 -63 V
0 -4668 R
( 96.1664) Cshow
1.000 UL
LT0
0.50 0.50 0.50 C 1.000 UL
LTa
0.50 0.50 0.50 C 6465 280 M
0 4591 V
stroke
LT0
0.50 0.50 0.50 C 6465 280 M
0 63 V
0 4528 R
0 -63 V
0 -4668 R
( 96.8735) Cshow
1.000 UL
LT0
0.50 0.50 0.50 C 1.000 UL
LTa
0.50 0.50 0.50 C 6505 280 M
0 4591 V
stroke
LT0
0.50 0.50 0.50 C 6505 280 M
0 63 V
0 4528 R
0 -63 V
0 -4668 R
( 97.5806) Cshow
1.000 UL
LT0
0.50 0.50 0.50 C 1.000 UL
LTa
0.50 0.50 0.50 C 6546 280 M
0 4591 V
stroke
LT0
0.50 0.50 0.50 C 6546 280 M
0 63 V
0 4528 R
0 -63 V
0 -4668 R
( 98.2877) Cshow
1.000 UL
LT0
0.50 0.50 0.50 C 1.000 UL
LTa
0.50 0.50 0.50 C 6586 280 M
0 4591 V
stroke
LT0
0.50 0.50 0.50 C 6586 280 M
0 63 V
0 4528 R
0 -63 V
0 -4668 R
( 98.9948) Cshow
1.000 UL
LT0
0.50 0.50 0.50 C 1.000 UL
LTa
0.50 0.50 0.50 C 6626 280 M
0 4591 V
stroke
LT0
0.50 0.50 0.50 C 6626 280 M
0 63 V
0 4528 R
0 -63 V
0 -4668 R
( 99.7019) Cshow
1.000 UL
LT0
0.50 0.50 0.50 C 1.000 UL
LTa
0.50 0.50 0.50 C 6666 280 M
0 4591 V
stroke
LT0
0.50 0.50 0.50 C 6666 280 M
0 63 V
0 4528 R
0 -63 V
0 -4668 R
( 100.409) Cshow
1.000 UL
LT0
0.50 0.50 0.50 C 1.000 UL
LTa
0.50 0.50 0.50 C 6706 280 M
0 4591 V
stroke
LT0
0.50 0.50 0.50 C 6706 280 M
0 63 V
0 4528 R
0 -63 V
0 -4668 R
( 101.116) Cshow
1.000 UL
LT0
0.50 0.50 0.50 C 1.000 UL
LTa
0.50 0.50 0.50 C 6746 280 M
0 4591 V
stroke
LT0
0.50 0.50 0.50 C 6746 280 M
0 63 V
0 4528 R
0 -63 V
0 -4668 R
( 101.823) Cshow
1.000 UL
LT0
0.50 0.50 0.50 C 1.000 UL
LTa
0.50 0.50 0.50 C 6786 280 M
0 4591 V
stroke
LT0
0.50 0.50 0.50 C 6786 280 M
0 63 V
0 4528 R
0 -63 V
0 -4668 R
( 102.53) Cshow
1.000 UL
LT0
0.50 0.50 0.50 C 1.000 UL
LTa
0.50 0.50 0.50 C 6827 280 M
0 4591 V
stroke
LT0
0.50 0.50 0.50 C 6827 280 M
0 63 V
0 4528 R
0 -63 V
0 -4668 R
( 103.237) Cshow
1.000 UL
LT0
0.50 0.50 0.50 C 1.000 UL
LTa
0.50 0.50 0.50 C 6867 280 M
0 4591 V
stroke
LT0
0.50 0.50 0.50 C 6867 280 M
0 63 V
0 4528 R
0 -63 V
0 -4668 R
( 103.945) Cshow
1.000 UL
LT0
0.50 0.50 0.50 C 1.000 UL
LTa
0.50 0.50 0.50 C 6907 280 M
0 4591 V
stroke
LT0
0.50 0.50 0.50 C 6907 280 M
0 63 V
0 4528 R
0 -63 V
0 -4668 R
( 104.652) Cshow
1.000 UL
LT0
0.50 0.50 0.50 C 1.000 UL
LTa
0.50 0.50 0.50 C 6947 280 M
0 4591 V
stroke
LT0
0.50 0.50 0.50 C 6947 280 M
0 63 V
0 4528 R
0 -63 V
0 -4668 R
( 105.359) Cshow
1.000 UL
LT0
0.50 0.50 0.50 C 1.000 UL
LT0
0.50 0.50 0.50 C 966 4871 M
966 280 L
5981 0 V
0 4591 R
-5981 0 R
1.000 UP
stroke
LT0
0.50 0.50 0.50 C % Begin plot #1
1.500 UP
2.000 UL
LT0
0.00 0.00 1.00 C /Helvetica findfont 140 scalefont setfont
/vshift -46 def
966 588 M
40 0 V
0 154 R
40 0 V
40 0 V
0 31 R
41 0 V
0 31 R
40 0 V
0 31 R
40 0 V
0 92 R
40 0 V
0 31 R
40 0 V
0 31 R
40 0 V
0 61 R
40 0 V
41 0 V
0 31 R
40 0 V
40 0 V
0 93 R
40 0 V
40 0 V
40 0 V
40 0 V
0 30 R
41 0 V
40 0 V
40 0 V
40 0 V
40 0 V
40 0 V
40 0 V
41 0 V
40 0 V
40 0 V
40 0 V
40 0 V
40 0 V
0 31 R
40 0 V
0 31 R
41 0 V
40 0 V
40 0 V
40 0 V
40 0 V
40 0 V
40 0 V
40 0 V
0 31 R
41 0 V
40 0 V
40 0 V
40 0 V
0 31 R
40 0 V
0 30 R
40 0 V
40 0 V
41 0 V
40 0 V
40 0 V
0 124 R
40 0 V
0 92 R
40 0 V
40 0 V
40 0 V
0 216 R
41 0 V
40 0 V
40 0 V
40 0 V
40 0 V
40 0 V
40 0 V
41 0 V
40 0 V
0 31 R
40 0 V
40 0 V
0 277 R
40 0 V
40 0 V
0 92 R
40 0 V
0 31 R
41 0 V
0 31 R
40 0 V
0 462 R
40 0 V
40 0 V
0 93 R
40 0 V
0 30 R
40 0 V
0 31 R
40 0 V
41 0 V
0 31 R
40 0 V
stroke 4017 2899 M
0 92 R
40 0 V
0 678 R
40 0 V
40 0 V
0 31 R
40 0 V
40 0 V
41 0 V
40 0 V
40 0 V
40 0 V
40 0 V
0 31 R
40 0 V
0 31 R
40 0 V
0 61 R
41 0 V
40 0 V
40 0 V
0 31 R
40 0 V
40 0 V
40 0 V
40 0 V
41 0 V
0 31 R
40 0 V
0 62 R
40 0 V
0 30 R
40 0 V
40 0 V
40 0 V
0 31 R
40 0 V
0 185 R
41 0 V
0 123 R
40 0 V
0 31 R
40 0 V
0 185 R
40 0 V
40 0 V
40 0 V
0 31 R
40 0 V
41 0 V
0 31 R
40 0 V
40 0 V
0 31 R
40 0 V
40 0 V
40 0 V
40 0 V
40 0 V
41 0 V
40 0 V
40 0 V
40 0 V
0 30 R
40 0 V
40 0 V
40 0 V
0 31 R
41 0 V
40 0 V
40 0 V
40 0 V
0 31 R
40 0 V
40 0 V
40 0 V
41 0 V
40 0 V
40 0 V
40 0 V
0 92 R
40 0 V
442 31 R
40 0 V
-482 0 R
40 0 V
40 0 V
41 0 V
40 0 V
40 0 V
40 0 V
40 0 V
40 0 V
40 0 V
41 0 V
40 0 V
1006 588 M
0 31 V
0 31 V
0 31 V
0 30 V
0 31 V
80 0 R
0 31 V
stroke 1086 773 M
41 0 R
0 31 V
40 0 R
0 31 V
40 0 R
0 30 V
0 31 V
0 31 V
40 0 R
0 31 V
40 0 R
0 31 V
40 0 R
0 30 V
0 31 V
81 0 R
0 31 V
80 0 R
0 31 V
0 31 V
0 31 V
160 0 R
0 30 V
522 0 R
0 31 V
40 0 R
0 31 V
321 0 R
0 31 V
161 0 R
0 31 V
40 0 R
0 30 V
201 0 R
0 31 V
0 31 V
0 31 V
0 31 V
40 0 R
0 30 V
0 31 V
0 31 V
120 0 R
0 31 V
0 31 V
0 31 V
0 30 V
0 31 V
0 31 V
0 31 V
362 0 R
0 31 V
80 0 R
0 30 V
0 31 V
0 31 V
0 31 V
0 31 V
0 30 V
0 31 V
0 31 V
0 31 V
80 0 R
0 31 V
0 31 V
0 30 V
40 0 R
0 31 V
41 0 R
0 31 V
40 0 R
0 31 V
0 31 V
0 30 V
0 31 V
0 31 V
0 31 V
0 31 V
0 30 V
0 31 V
0 31 V
0 31 V
0 31 V
0 31 V
0 30 V
0 31 V
80 0 R
0 31 V
0 31 V
0 31 V
40 0 R
0 30 V
40 0 R
0 31 V
81 0 R
0 31 V
40 0 R
0 31 V
0 31 V
0 30 V
40 0 R
0 31 V
0 31 V
0 31 V
stroke 4057 3084 M
0 31 V
0 31 V
0 30 V
0 31 V
0 31 V
0 31 V
0 31 V
0 30 V
0 31 V
0 31 V
0 31 V
0 31 V
0 30 V
0 31 V
0 31 V
0 31 V
0 31 V
0 31 V
0 30 V
80 0 R
0 31 V
281 0 R
0 31 V
40 0 R
0 31 V
40 0 R
0 31 V
0 30 V
121 0 R
0 31 V
201 0 R
0 31 V
40 0 R
0 31 V
0 31 V
40 0 R
0 30 V
120 0 R
0 31 V
40 0 R
0 31 V
0 31 V
0 31 V
0 31 V
0 30 V
0 31 V
41 0 R
0 31 V
0 31 V
0 31 V
0 30 V
40 0 R
0 31 V
40 0 R
0 31 V
0 31 V
0 31 V
0 30 V
0 31 V
0 31 V
120 0 R
0 31 V
81 0 R
0 31 V
80 0 R
0 31 V
361 0 R
0 30 V
120 0 R
0 31 V
161 0 R
0 31 V
281 0 R
0 31 V
0 31 V
0 30 V
40 0 R
0 31 V
966 280 M
0 31 V
0 31 V
0 30 V
0 31 V
0 31 V
0 31 V
0 31 V
0 30 V
0 31 V
0 31 V
966 588 CircleF
1006 588 CircleF
1006 742 CircleF
1046 742 CircleF
1046 742 CircleF
1086 742 CircleF
1086 773 CircleF
1127 773 CircleF
1127 804 CircleF
1167 804 CircleF
1167 835 CircleF
1207 835 CircleF
1207 927 CircleF
1247 927 CircleF
1247 958 CircleF
1287 958 CircleF
1287 989 CircleF
1327 989 CircleF
1327 1050 CircleF
1367 1050 CircleF
1367 1050 CircleF
1408 1050 CircleF
1408 1081 CircleF
1448 1081 CircleF
1448 1081 CircleF
1488 1081 CircleF
1488 1174 CircleF
1528 1174 CircleF
1528 1174 CircleF
1568 1174 CircleF
1568 1174 CircleF
1608 1174 CircleF
1608 1174 CircleF
1648 1174 CircleF
1648 1204 CircleF
1689 1204 CircleF
1689 1204 CircleF
1729 1204 CircleF
1729 1204 CircleF
1769 1204 CircleF
1769 1204 CircleF
1809 1204 CircleF
1809 1204 CircleF
1849 1204 CircleF
1849 1204 CircleF
1889 1204 CircleF
1889 1204 CircleF
1929 1204 CircleF
1929 1204 CircleF
1970 1204 CircleF
1970 1204 CircleF
2010 1204 CircleF
2010 1204 CircleF
2050 1204 CircleF
2050 1204 CircleF
2090 1204 CircleF
2090 1204 CircleF
2130 1204 CircleF
2130 1204 CircleF
2170 1204 CircleF
2170 1235 CircleF
2210 1235 CircleF
2210 1266 CircleF
2251 1266 CircleF
2251 1266 CircleF
2291 1266 CircleF
2291 1266 CircleF
2331 1266 CircleF
2331 1266 CircleF
2371 1266 CircleF
2371 1266 CircleF
2411 1266 CircleF
2411 1266 CircleF
2451 1266 CircleF
2451 1266 CircleF
2491 1266 CircleF
2491 1266 CircleF
2531 1266 CircleF
2531 1297 CircleF
2572 1297 CircleF
2572 1297 CircleF
2612 1297 CircleF
2612 1297 CircleF
2652 1297 CircleF
2652 1297 CircleF
2692 1297 CircleF
2692 1328 CircleF
2732 1328 CircleF
2732 1358 CircleF
2772 1358 CircleF
2772 1358 CircleF
2812 1358 CircleF
2812 1358 CircleF
2853 1358 CircleF
2853 1358 CircleF
2893 1358 CircleF
2893 1358 CircleF
2933 1358 CircleF
2933 1482 CircleF
2973 1482 CircleF
2973 1574 CircleF
3013 1574 CircleF
3013 1574 CircleF
3053 1574 CircleF
3053 1574 CircleF
3093 1574 CircleF
3093 1790 CircleF
3134 1790 CircleF
3134 1790 CircleF
3174 1790 CircleF
3174 1790 CircleF
3214 1790 CircleF
3214 1790 CircleF
3254 1790 CircleF
3254 1790 CircleF
3294 1790 CircleF
3294 1790 CircleF
3334 1790 CircleF
3334 1790 CircleF
3374 1790 CircleF
3374 1790 CircleF
3415 1790 CircleF
3415 1790 CircleF
3455 1790 CircleF
3455 1821 CircleF
3495 1821 CircleF
3495 1821 CircleF
3535 1821 CircleF
3535 2098 CircleF
3575 2098 CircleF
3575 2098 CircleF
3615 2098 CircleF
3615 2190 CircleF
3655 2190 CircleF
3655 2221 CircleF
3696 2221 CircleF
3696 2252 CircleF
3736 2252 CircleF
3736 2714 CircleF
3776 2714 CircleF
3776 2714 CircleF
3816 2714 CircleF
3816 2807 CircleF
3856 2807 CircleF
3856 2837 CircleF
3896 2837 CircleF
3896 2868 CircleF
3936 2868 CircleF
3936 2868 CircleF
3977 2868 CircleF
3977 2899 CircleF
4017 2899 CircleF
4017 2991 CircleF
4057 2991 CircleF
4057 3669 CircleF
4097 3669 CircleF
4097 3669 CircleF
4137 3669 CircleF
4137 3700 CircleF
4177 3700 CircleF
4177 3700 CircleF
4217 3700 CircleF
4217 3700 CircleF
4258 3700 CircleF
4258 3700 CircleF
4298 3700 CircleF
4298 3700 CircleF
4338 3700 CircleF
4338 3700 CircleF
4378 3700 CircleF
4378 3700 CircleF
4418 3700 CircleF
4418 3731 CircleF
4458 3731 CircleF
4458 3762 CircleF
4498 3762 CircleF
4498 3823 CircleF
4539 3823 CircleF
4539 3823 CircleF
4579 3823 CircleF
4579 3823 CircleF
4619 3823 CircleF
4619 3854 CircleF
4659 3854 CircleF
4659 3854 CircleF
4699 3854 CircleF
4699 3854 CircleF
4739 3854 CircleF
4739 3854 CircleF
4779 3854 CircleF
4779 3854 CircleF
4820 3854 CircleF
4820 3885 CircleF
4860 3885 CircleF
4860 3947 CircleF
4900 3947 CircleF
4900 3977 CircleF
4940 3977 CircleF
4940 3977 CircleF
4980 3977 CircleF
4980 3977 CircleF
5020 3977 CircleF
5020 4008 CircleF
5060 4008 CircleF
5060 4193 CircleF
5101 4193 CircleF
5101 4316 CircleF
5141 4316 CircleF
5141 4347 CircleF
5181 4347 CircleF
5181 4532 CircleF
5221 4532 CircleF
5221 4532 CircleF
5261 4532 CircleF
5261 4532 CircleF
5301 4532 CircleF
5301 4563 CircleF
5341 4563 CircleF
5341 4563 CircleF
5382 4563 CircleF
5382 4594 CircleF
5422 4594 CircleF
5422 4594 CircleF
5462 4594 CircleF
5462 4625 CircleF
5502 4625 CircleF
5502 4625 CircleF
5542 4625 CircleF
5542 4625 CircleF
5582 4625 CircleF
5582 4625 CircleF
5622 4625 CircleF
5622 4625 CircleF
5662 4625 CircleF
5662 4625 CircleF
5703 4625 CircleF
5703 4625 CircleF
5743 4625 CircleF
5743 4625 CircleF
5783 4625 CircleF
5783 4625 CircleF
5823 4625 CircleF
5823 4655 CircleF
5863 4655 CircleF
5863 4655 CircleF
5903 4655 CircleF
5903 4655 CircleF
5943 4655 CircleF
5943 4686 CircleF
5984 4686 CircleF
5984 4686 CircleF
6024 4686 CircleF
6024 4686 CircleF
6064 4686 CircleF
6064 4686 CircleF
6104 4686 CircleF
6104 4717 CircleF
6144 4717 CircleF
6144 4717 CircleF
6184 4717 CircleF
6184 4717 CircleF
6224 4717 CircleF
6224 4717 CircleF
6265 4717 CircleF
6265 4717 CircleF
6305 4717 CircleF
6305 4717 CircleF
6345 4717 CircleF
6345 4717 CircleF
6385 4717 CircleF
6385 4809 CircleF
6425 4809 CircleF
6867 4840 CircleF
6907 4840 CircleF
6425 4840 CircleF
6465 4840 CircleF
6465 4840 CircleF
6505 4840 CircleF
6505 4840 CircleF
6546 4840 CircleF
6546 4840 CircleF
6586 4840 CircleF
6586 4840 CircleF
6626 4840 CircleF
6626 4840 CircleF
6666 4840 CircleF
6666 4840 CircleF
6706 4840 CircleF
6706 4840 CircleF
6746 4840 CircleF
6746 4840 CircleF
6786 4840 CircleF
6786 4840 CircleF
6827 4840 CircleF
6827 4840 CircleF
6867 4840 CircleF
1006 588 CircleF
1006 619 CircleF
1006 619 CircleF
1006 650 CircleF
1006 650 CircleF
1006 681 CircleF
1006 681 CircleF
1006 711 CircleF
1006 711 CircleF
1006 742 CircleF
1086 742 CircleF
1086 773 CircleF
1127 773 CircleF
1127 804 CircleF
1167 804 CircleF
1167 835 CircleF
1207 835 CircleF
1207 865 CircleF
1207 865 CircleF
1207 896 CircleF
1207 896 CircleF
1207 927 CircleF
1247 927 CircleF
1247 958 CircleF
1287 958 CircleF
1287 989 CircleF
1327 989 CircleF
1327 1019 CircleF
1327 1019 CircleF
1327 1050 CircleF
1408 1050 CircleF
1408 1081 CircleF
1488 1081 CircleF
1488 1112 CircleF
1488 1112 CircleF
1488 1143 CircleF
1488 1143 CircleF
1488 1174 CircleF
1648 1174 CircleF
1648 1204 CircleF
2170 1204 CircleF
2170 1235 CircleF
2210 1235 CircleF
2210 1266 CircleF
2531 1266 CircleF
2531 1297 CircleF
2692 1297 CircleF
2692 1328 CircleF
2732 1328 CircleF
2732 1358 CircleF
2933 1358 CircleF
2933 1389 CircleF
2933 1389 CircleF
2933 1420 CircleF
2933 1420 CircleF
2933 1451 CircleF
2933 1451 CircleF
2933 1482 CircleF
2973 1482 CircleF
2973 1512 CircleF
2973 1512 CircleF
2973 1543 CircleF
2973 1543 CircleF
2973 1574 CircleF
3093 1574 CircleF
3093 1605 CircleF
3093 1605 CircleF
3093 1636 CircleF
3093 1636 CircleF
3093 1667 CircleF
3093 1667 CircleF
3093 1697 CircleF
3093 1697 CircleF
3093 1728 CircleF
3093 1728 CircleF
3093 1759 CircleF
3093 1759 CircleF
3093 1790 CircleF
3455 1790 CircleF
3455 1821 CircleF
3535 1821 CircleF
3535 1851 CircleF
3535 1851 CircleF
3535 1882 CircleF
3535 1882 CircleF
3535 1913 CircleF
3535 1913 CircleF
3535 1944 CircleF
3535 1944 CircleF
3535 1975 CircleF
3535 1975 CircleF
3535 2005 CircleF
3535 2005 CircleF
3535 2036 CircleF
3535 2036 CircleF
3535 2067 CircleF
3535 2067 CircleF
3535 2098 CircleF
3615 2098 CircleF
3615 2129 CircleF
3615 2129 CircleF
3615 2160 CircleF
3615 2160 CircleF
3615 2190 CircleF
3655 2190 CircleF
3655 2221 CircleF
3696 2221 CircleF
3696 2252 CircleF
3736 2252 CircleF
3736 2283 CircleF
3736 2283 CircleF
3736 2314 CircleF
3736 2314 CircleF
3736 2344 CircleF
3736 2344 CircleF
3736 2375 CircleF
3736 2375 CircleF
3736 2406 CircleF
3736 2406 CircleF
3736 2437 CircleF
3736 2437 CircleF
3736 2468 CircleF
3736 2468 CircleF
3736 2498 CircleF
3736 2498 CircleF
3736 2529 CircleF
3736 2529 CircleF
3736 2560 CircleF
3736 2560 CircleF
3736 2591 CircleF
3736 2591 CircleF
3736 2622 CircleF
3736 2622 CircleF
3736 2653 CircleF
3736 2653 CircleF
3736 2683 CircleF
3736 2683 CircleF
3736 2714 CircleF
3816 2714 CircleF
3816 2745 CircleF
3816 2745 CircleF
3816 2776 CircleF
3816 2776 CircleF
3816 2807 CircleF
3856 2807 CircleF
3856 2837 CircleF
3896 2837 CircleF
3896 2868 CircleF
3977 2868 CircleF
3977 2899 CircleF
4017 2899 CircleF
4017 2930 CircleF
4017 2930 CircleF
4017 2961 CircleF
4017 2961 CircleF
4017 2991 CircleF
4057 2991 CircleF
4057 3022 CircleF
4057 3022 CircleF
4057 3053 CircleF
4057 3053 CircleF
4057 3084 CircleF
4057 3084 CircleF
4057 3115 CircleF
4057 3115 CircleF
4057 3146 CircleF
4057 3146 CircleF
4057 3176 CircleF
4057 3176 CircleF
4057 3207 CircleF
4057 3207 CircleF
4057 3238 CircleF
4057 3238 CircleF
4057 3269 CircleF
4057 3269 CircleF
4057 3300 CircleF
4057 3300 CircleF
4057 3330 CircleF
4057 3330 CircleF
4057 3361 CircleF
4057 3361 CircleF
4057 3392 CircleF
4057 3392 CircleF
4057 3423 CircleF
4057 3423 CircleF
4057 3454 CircleF
4057 3454 CircleF
4057 3484 CircleF
4057 3484 CircleF
4057 3515 CircleF
4057 3515 CircleF
4057 3546 CircleF
4057 3546 CircleF
4057 3577 CircleF
4057 3577 CircleF
4057 3608 CircleF
4057 3608 CircleF
4057 3639 CircleF
4057 3639 CircleF
4057 3669 CircleF
4137 3669 CircleF
4137 3700 CircleF
4418 3700 CircleF
4418 3731 CircleF
4458 3731 CircleF
4458 3762 CircleF
4498 3762 CircleF
4498 3793 CircleF
4498 3793 CircleF
4498 3823 CircleF
4619 3823 CircleF
4619 3854 CircleF
4820 3854 CircleF
4820 3885 CircleF
4860 3885 CircleF
4860 3916 CircleF
4860 3916 CircleF
4860 3947 CircleF
4900 3947 CircleF
4900 3977 CircleF
5020 3977 CircleF
5020 4008 CircleF
5060 4008 CircleF
5060 4039 CircleF
5060 4039 CircleF
5060 4070 CircleF
5060 4070 CircleF
5060 4101 CircleF
5060 4101 CircleF
5060 4132 CircleF
5060 4132 CircleF
5060 4162 CircleF
5060 4162 CircleF
5060 4193 CircleF
5101 4193 CircleF
5101 4224 CircleF
5101 4224 CircleF
5101 4255 CircleF
5101 4255 CircleF
5101 4286 CircleF
5101 4286 CircleF
5101 4316 CircleF
5141 4316 CircleF
5141 4347 CircleF
5181 4347 CircleF
5181 4378 CircleF
5181 4378 CircleF
5181 4409 CircleF
5181 4409 CircleF
5181 4440 CircleF
5181 4440 CircleF
5181 4470 CircleF
5181 4470 CircleF
5181 4501 CircleF
5181 4501 CircleF
5181 4532 CircleF
5301 4532 CircleF
5301 4563 CircleF
5382 4563 CircleF
5382 4594 CircleF
5462 4594 CircleF
5462 4625 CircleF
5823 4625 CircleF
5823 4655 CircleF
5943 4655 CircleF
5943 4686 CircleF
6104 4686 CircleF
6104 4717 CircleF
6385 4717 CircleF
6385 4748 CircleF
6385 4748 CircleF
6385 4779 CircleF
6385 4779 CircleF
6385 4809 CircleF
6425 4809 CircleF
6425 4840 CircleF
966 280 CircleF
966 311 CircleF
966 311 CircleF
966 342 CircleF
966 342 CircleF
966 372 CircleF
966 372 CircleF
966 403 CircleF
966 403 CircleF
966 434 CircleF
966 434 CircleF
966 465 CircleF
966 465 CircleF
966 496 CircleF
966 496 CircleF
966 526 CircleF
966 526 CircleF
966 557 CircleF
966 557 CircleF
966 588 CircleF
% End plot #1
% Begin plot #2
1.500 UP
2.000 UL
LT0
1.00 0.55 0.00 C /Helvetica findfont 140 scalefont setfont
6682 4763 M
40 31 V
4559 3331 M
40 31 V
6615 1636 M
40 31 V
4322 3417 M
41 31 V
-955 555 R
41 31 V
6398 3032 M
40 30 V
3652 848 M
40 31 V
1858 4135 M
41 31 V
1502 276 R
41 31 V
6495 965 M
40 31 V
1416 2382 M
41 31 V
970 710 M
40 31 V
2219 4210 M
40 31 V
1078 4495 M
41 31 V
5315 3865 M
41 31 V
155 351 R
40 31 V
4030 4612 M
40 31 V
2975 2538 M
40 30 V
4302 1387 M
40 31 V
2794 4730 M
40 30 V
2701 2065 M
40 31 V
2876 570 R
40 31 V
2647 2097 M
40 30 V
6559 299 M
40 30 V
4152 3693 M
41 31 V
1961 1183 M
40 31 V
5538 2383 M
41 31 V
330 -666 R
40 31 V
4942 2885 M
40 31 V
3903 3867 M
40 31 V
1626 3656 M
40 30 V
3137 1786 M
40 31 V
2817 4182 M
41 31 V
4804 3745 M
40 30 V
2061 2562 M
40 31 V
4887 3937 M
40 31 V
152 -311 R
40 31 V
4367 3153 M
41 31 V
787 -782 R
40 31 V
113 -725 R
40 31 V
3775 4476 M
41 31 V
2726 4365 M
40 31 V
6293 618 M
40 31 V
3391 2840 M
40 31 V
199 1761 R
40 31 V
6310 1022 M
40 31 V
2004 1191 M
40 31 V
1409 3737 M
40 30 V
6339 1412 M
40 30 V
2854 913 M
40 31 V
1833 90 R
41 31 V
4433 3487 M
41 31 V
968 1075 R
40 31 V
stroke 5482 4624 M
3638 2185 M
40 31 V
5343 4759 M
40 31 V
975 1376 M
40 31 V
4049 3353 M
40 31 V
-393 774 R
40 31 V
5975 3428 M
40 31 V
4567 3298 M
40 30 V
4097 4592 M
40 31 V
4941 3535 M
40 30 V
1100 4405 M
40 31 V
3336 1047 M
41 31 V
-448 383 R
40 31 V
2093 801 M
40 30 V
3418 957 R
40 31 V
2869 4568 M
40 31 V
4455 3606 M
40 31 V
6721 3308 M
40 31 V
5646 3734 M
40 31 V
1403 3627 M
40 30 V
2300 2078 M
40 31 V
5176 4506 M
40 30 V
3819 2099 M
40 31 V
1223 923 M
41 31 V
4500 2509 M
40 31 V
3423 1785 M
40 30 V
556 1825 R
40 31 V
2803 1684 M
41 31 V
2206 1259 M
40 31 V
816 2041 R
40 31 V
4588 1217 M
40 30 V
1504 3695 M
40 31 V
2725 1831 M
40 31 V
5912 1487 M
40 31 V
4579 2766 M
40 30 V
6203 589 M
40 31 V
2102 1800 M
40 31 V
6375 4783 M
40 31 V
3955 557 M
41 30 V
3427 459 M
40 31 V
5085 2975 M
40 31 V
2525 1273 M
40 30 V
896 39 R
40 30 V
-422 633 R
40 31 V
3285 486 R
41 31 V
2136 1743 M
40 31 V
3484 994 M
40 31 V
6424 4416 M
40 31 V
3971 2872 M
41 31 V
-1902 82 R
40 31 V
2075 286 M
40 31 V
6448 3745 M
40 31 V
2702 1331 M
40 31 V
stroke 2742 1362 M
1904 447 R
40 30 V
4271 795 M
40 31 V
2952 3283 M
40 31 V
1021 4733 M
41 31 V
2568 1747 M
40 31 V
1473 324 R
40 31 V
3257 3460 M
41 31 V
6408 2401 M
40 31 V
4902 2631 M
40 31 V
1164 4306 M
40 31 V
6453 1539 M
41 31 V
4139 2843 M
40 31 V
3571 379 M
40 31 V
1507 2181 M
40 31 V
4404 3691 M
40 30 V
3403 372 M
40 31 V
2143 3329 M
40 31 V
1528 405 R
40 30 V
209 629 R
40 31 V
6640 1026 M
40 31 V
5365 1804 M
40 31 V
2595 2679 M
40 31 V
5697 2308 M
40 31 V
2048 2816 M
40 31 V
1713 -74 R
40 31 V
120 1942 R
40 31 V
2762 4523 M
40 31 V
2046 1012 M
40 31 V
4601 429 R
41 31 V
1388 4534 M
40 31 V
5039 4162 M
41 31 V
1114 2748 M
40 31 V
3052 2490 M
40 30 V
4955 4551 M
40 30 V
6396 2968 M
40 31 V
4616 3828 M
40 31 V
4458 1421 M
41 30 V
1325 3764 M
40 31 V
507 900 R
40 31 V
4844 3392 M
40 31 V
5544 1418 M
40 31 V
943 1409 R
40 31 V
3599 1058 M
40 31 V
308 714 R
40 31 V
2040 718 R
40 31 V
6682 4763 CircleF
6722 4794 CircleF
4559 3331 CircleF
4599 3362 CircleF
6615 1636 CircleF
6655 1667 CircleF
4322 3417 CircleF
4363 3448 CircleF
3408 4003 CircleF
3449 4034 CircleF
6398 3032 CircleF
6438 3062 CircleF
3652 848 CircleF
3692 879 CircleF
1858 4135 CircleF
1899 4166 CircleF
3401 4442 CircleF
3442 4473 CircleF
6495 965 CircleF
6535 996 CircleF
1416 2382 CircleF
1457 2413 CircleF
970 710 CircleF
1010 741 CircleF
2219 4210 CircleF
2259 4241 CircleF
1078 4495 CircleF
1119 4526 CircleF
5315 3865 CircleF
5356 3896 CircleF
5511 4247 CircleF
5551 4278 CircleF
4030 4612 CircleF
4070 4643 CircleF
2975 2538 CircleF
3015 2568 CircleF
4302 1387 CircleF
4342 1418 CircleF
2794 4730 CircleF
2834 4760 CircleF
2701 2065 CircleF
2741 2096 CircleF
5617 2666 CircleF
5657 2697 CircleF
2647 2097 CircleF
2687 2127 CircleF
6559 299 CircleF
6599 329 CircleF
4152 3693 CircleF
4193 3724 CircleF
1961 1183 CircleF
2001 1214 CircleF
5538 2383 CircleF
5579 2414 CircleF
5909 1748 CircleF
5949 1779 CircleF
4942 2885 CircleF
4982 2916 CircleF
3903 3867 CircleF
3943 3898 CircleF
1626 3656 CircleF
1666 3686 CircleF
3137 1786 CircleF
3177 1817 CircleF
2817 4182 CircleF
2858 4213 CircleF
4804 3745 CircleF
4844 3775 CircleF
2061 2562 CircleF
2101 2593 CircleF
4887 3937 CircleF
4927 3968 CircleF
5079 3657 CircleF
5119 3688 CircleF
4367 3153 CircleF
4408 3184 CircleF
5195 2402 CircleF
5235 2433 CircleF
5348 1708 CircleF
5388 1739 CircleF
3775 4476 CircleF
3816 4507 CircleF
2726 4365 CircleF
2766 4396 CircleF
6293 618 CircleF
6333 649 CircleF
3391 2840 CircleF
3431 2871 CircleF
3630 4632 CircleF
3670 4663 CircleF
6310 1022 CircleF
6350 1053 CircleF
2004 1191 CircleF
2044 1222 CircleF
1409 3737 CircleF
1449 3767 CircleF
6339 1412 CircleF
6379 1442 CircleF
2854 913 CircleF
2894 944 CircleF
4727 1034 CircleF
4768 1065 CircleF
4433 3487 CircleF
4474 3518 CircleF
5442 4593 CircleF
5482 4624 CircleF
3638 2185 CircleF
3678 2216 CircleF
5343 4759 CircleF
5383 4790 CircleF
975 1376 CircleF
1015 1407 CircleF
4049 3353 CircleF
4089 3384 CircleF
3696 4158 CircleF
3736 4189 CircleF
5975 3428 CircleF
6015 3459 CircleF
4567 3298 CircleF
4607 3328 CircleF
4097 4592 CircleF
4137 4623 CircleF
4941 3535 CircleF
4981 3565 CircleF
1100 4405 CircleF
1140 4436 CircleF
3336 1047 CircleF
3377 1078 CircleF
2929 1461 CircleF
2969 1492 CircleF
2093 801 CircleF
2133 831 CircleF
5551 1788 CircleF
5591 1819 CircleF
2869 4568 CircleF
2909 4599 CircleF
4455 3606 CircleF
4495 3637 CircleF
6721 3308 CircleF
6761 3339 CircleF
5646 3734 CircleF
5686 3765 CircleF
1403 3627 CircleF
1443 3657 CircleF
2300 2078 CircleF
2340 2109 CircleF
5176 4506 CircleF
5216 4536 CircleF
3819 2099 CircleF
3859 2130 CircleF
1223 923 CircleF
1264 954 CircleF
4500 2509 CircleF
4540 2540 CircleF
3423 1785 CircleF
3463 1815 CircleF
4019 3640 CircleF
4059 3671 CircleF
2803 1684 CircleF
2844 1715 CircleF
2206 1259 CircleF
2246 1290 CircleF
3062 3331 CircleF
3102 3362 CircleF
4588 1217 CircleF
4628 1247 CircleF
1504 3695 CircleF
1544 3726 CircleF
2725 1831 CircleF
2765 1862 CircleF
5912 1487 CircleF
5952 1518 CircleF
4579 2766 CircleF
4619 2796 CircleF
6203 589 CircleF
6243 620 CircleF
2102 1800 CircleF
2142 1831 CircleF
6375 4783 CircleF
6415 4814 CircleF
3955 557 CircleF
3996 587 CircleF
3427 459 CircleF
3467 490 CircleF
5085 2975 CircleF
5125 3006 CircleF
2525 1273 CircleF
2565 1303 CircleF
3461 1342 CircleF
3501 1372 CircleF
3079 2005 CircleF
3119 2036 CircleF
6404 2522 CircleF
6445 2553 CircleF
2136 1743 CircleF
2176 1774 CircleF
3484 994 CircleF
3524 1025 CircleF
6424 4416 CircleF
6464 4447 CircleF
3971 2872 CircleF
4012 2903 CircleF
2110 2985 CircleF
2150 3016 CircleF
2075 286 CircleF
2115 317 CircleF
6448 3745 CircleF
6488 3776 CircleF
2702 1331 CircleF
2742 1362 CircleF
4646 1809 CircleF
4686 1839 CircleF
4271 795 CircleF
4311 826 CircleF
2952 3283 CircleF
2992 3314 CircleF
1021 4733 CircleF
1062 4764 CircleF
2568 1747 CircleF
2608 1778 CircleF
4081 2102 CircleF
4121 2133 CircleF
3257 3460 CircleF
3298 3491 CircleF
6408 2401 CircleF
6448 2432 CircleF
4902 2631 CircleF
4942 2662 CircleF
1164 4306 CircleF
1204 4337 CircleF
6453 1539 CircleF
6494 1570 CircleF
4139 2843 CircleF
4179 2874 CircleF
3571 379 CircleF
3611 410 CircleF
1507 2181 CircleF
1547 2212 CircleF
4404 3691 CircleF
4444 3721 CircleF
3403 372 CircleF
3443 403 CircleF
2143 3329 CircleF
2183 3360 CircleF
3711 3765 CircleF
3751 3795 CircleF
3960 4424 CircleF
4000 4455 CircleF
6640 1026 CircleF
6680 1057 CircleF
5365 1804 CircleF
5405 1835 CircleF
2595 2679 CircleF
2635 2710 CircleF
5697 2308 CircleF
5737 2339 CircleF
2048 2816 CircleF
2088 2847 CircleF
3801 2773 CircleF
3841 2804 CircleF
3961 4746 CircleF
4001 4777 CircleF
2762 4523 CircleF
2802 4554 CircleF
2046 1012 CircleF
2086 1043 CircleF
6687 1472 CircleF
6728 1503 CircleF
1388 4534 CircleF
1428 4565 CircleF
5039 4162 CircleF
5080 4193 CircleF
1114 2748 CircleF
1154 2779 CircleF
3052 2490 CircleF
3092 2520 CircleF
4955 4551 CircleF
4995 4581 CircleF
6396 2968 CircleF
6436 2999 CircleF
4616 3828 CircleF
4656 3859 CircleF
4458 1421 CircleF
4499 1451 CircleF
1325 3764 CircleF
1365 3795 CircleF
1872 4695 CircleF
1912 4726 CircleF
4844 3392 CircleF
4884 3423 CircleF
5544 1418 CircleF
5584 1449 CircleF
6527 2858 CircleF
6567 2889 CircleF
3599 1058 CircleF
3639 1089 CircleF
3947 1803 CircleF
3987 1834 CircleF
6027 2552 CircleF
6067 2583 CircleF
% End plot #2
1.000 UP
1.000 UL
LT0
0.50 0.50 0.50 C stroke
grestore
end
showpage
%%Trailer
%%DocumentFonts: Helvetica
%%Pages: 1
