%!PS-Adobe-2.0
%%Title: out.ps
%%Creator: gnuplot 4.6 patchlevel 6
%%CreationDate: Thu May 28 15:35:35 2015
%%DocumentFonts: (atend)
%%BoundingBox: 50 50 554 770
%%Orientation: Landscape
%%Pages: (atend)
%%EndComments
%%BeginProlog
/gnudict 256 dict def
gnudict begin
%
% The following true/false flags may be edited by hand if desired.
% The unit line width and grayscale image gamma correction may also be changed.
%
/Color false def
/Blacktext false def
/Solid false def
/Dashlength 1 def
/Landscape true def
/Level1 false def
/Rounded false def
/ClipToBoundingBox false def
/SuppressPDFMark false def
/TransparentPatterns false def
/gnulinewidth 5.000 def
/userlinewidth gnulinewidth def
/Gamma 1.0 def
/BackgroundColor {-1.000 -1.000 -1.000} def
%
/vshift -46 def
/dl1 {
  10.0 Dashlength mul mul
  Rounded { currentlinewidth 0.75 mul sub dup 0 le { pop 0.01 } if } if
} def
/dl2 {
  10.0 Dashlength mul mul
  Rounded { currentlinewidth 0.75 mul add } if
} def
/hpt_ 31.5 def
/vpt_ 31.5 def
/hpt hpt_ def
/vpt vpt_ def
/doclip {
  ClipToBoundingBox {
    newpath 50 50 moveto 554 50 lineto 554 770 lineto 50 770 lineto closepath
    clip
  } if
} def
%
% Gnuplot Prolog Version 4.6 (September 2012)
%
%/SuppressPDFMark true def
%
/M {moveto} bind def
/L {lineto} bind def
/R {rmoveto} bind def
/V {rlineto} bind def
/N {newpath moveto} bind def
/Z {closepath} bind def
/C {setrgbcolor} bind def
/f {rlineto fill} bind def
/g {setgray} bind def
/Gshow {show} def   % May be redefined later in the file to support UTF-8
/vpt2 vpt 2 mul def
/hpt2 hpt 2 mul def
/Lshow {currentpoint stroke M 0 vshift R 
	Blacktext {gsave 0 setgray show grestore} {show} ifelse} def
/Rshow {currentpoint stroke M dup stringwidth pop neg vshift R
	Blacktext {gsave 0 setgray show grestore} {show} ifelse} def
/Cshow {currentpoint stroke M dup stringwidth pop -2 div vshift R 
	Blacktext {gsave 0 setgray show grestore} {show} ifelse} def
/UP {dup vpt_ mul /vpt exch def hpt_ mul /hpt exch def
  /hpt2 hpt 2 mul def /vpt2 vpt 2 mul def} def
/DL {Color {setrgbcolor Solid {pop []} if 0 setdash}
 {pop pop pop 0 setgray Solid {pop []} if 0 setdash} ifelse} def
/BL {stroke userlinewidth 2 mul setlinewidth
	Rounded {1 setlinejoin 1 setlinecap} if} def
/AL {stroke userlinewidth 2 div setlinewidth
	Rounded {1 setlinejoin 1 setlinecap} if} def
/UL {dup gnulinewidth mul /userlinewidth exch def
	dup 1 lt {pop 1} if 10 mul /udl exch def} def
/PL {stroke userlinewidth setlinewidth
	Rounded {1 setlinejoin 1 setlinecap} if} def
3.8 setmiterlimit
% Default Line colors
/LCw {1 1 1} def
/LCb {0 0 0} def
/LCa {0 0 0} def
/LC0 {1 0 0} def
/LC1 {0 1 0} def
/LC2 {0 0 1} def
/LC3 {1 0 1} def
/LC4 {0 1 1} def
/LC5 {1 1 0} def
/LC6 {0 0 0} def
/LC7 {1 0.3 0} def
/LC8 {0.5 0.5 0.5} def
% Default Line Types
/LTw {PL [] 1 setgray} def
/LTb {BL [] LCb DL} def
/LTa {AL [1 udl mul 2 udl mul] 0 setdash LCa setrgbcolor} def
/LT0 {PL [] LC0 DL} def
/LT1 {PL [4 dl1 2 dl2] LC1 DL} def
/LT2 {PL [2 dl1 3 dl2] LC2 DL} def
/LT3 {PL [1 dl1 1.5 dl2] LC3 DL} def
/LT4 {PL [6 dl1 2 dl2 1 dl1 2 dl2] LC4 DL} def
/LT5 {PL [3 dl1 3 dl2 1 dl1 3 dl2] LC5 DL} def
/LT6 {PL [2 dl1 2 dl2 2 dl1 6 dl2] LC6 DL} def
/LT7 {PL [1 dl1 2 dl2 6 dl1 2 dl2 1 dl1 2 dl2] LC7 DL} def
/LT8 {PL [2 dl1 2 dl2 2 dl1 2 dl2 2 dl1 2 dl2 2 dl1 4 dl2] LC8 DL} def
/Pnt {stroke [] 0 setdash gsave 1 setlinecap M 0 0 V stroke grestore} def
/Dia {stroke [] 0 setdash 2 copy vpt add M
  hpt neg vpt neg V hpt vpt neg V
  hpt vpt V hpt neg vpt V closepath stroke
  Pnt} def
/Pls {stroke [] 0 setdash vpt sub M 0 vpt2 V
  currentpoint stroke M
  hpt neg vpt neg R hpt2 0 V stroke
 } def
/Box {stroke [] 0 setdash 2 copy exch hpt sub exch vpt add M
  0 vpt2 neg V hpt2 0 V 0 vpt2 V
  hpt2 neg 0 V closepath stroke
  Pnt} def
/Crs {stroke [] 0 setdash exch hpt sub exch vpt add M
  hpt2 vpt2 neg V currentpoint stroke M
  hpt2 neg 0 R hpt2 vpt2 V stroke} def
/TriU {stroke [] 0 setdash 2 copy vpt 1.12 mul add M
  hpt neg vpt -1.62 mul V
  hpt 2 mul 0 V
  hpt neg vpt 1.62 mul V closepath stroke
  Pnt} def
/Star {2 copy Pls Crs} def
/BoxF {stroke [] 0 setdash exch hpt sub exch vpt add M
  0 vpt2 neg V hpt2 0 V 0 vpt2 V
  hpt2 neg 0 V closepath fill} def
/TriUF {stroke [] 0 setdash vpt 1.12 mul add M
  hpt neg vpt -1.62 mul V
  hpt 2 mul 0 V
  hpt neg vpt 1.62 mul V closepath fill} def
/TriD {stroke [] 0 setdash 2 copy vpt 1.12 mul sub M
  hpt neg vpt 1.62 mul V
  hpt 2 mul 0 V
  hpt neg vpt -1.62 mul V closepath stroke
  Pnt} def
/TriDF {stroke [] 0 setdash vpt 1.12 mul sub M
  hpt neg vpt 1.62 mul V
  hpt 2 mul 0 V
  hpt neg vpt -1.62 mul V closepath fill} def
/DiaF {stroke [] 0 setdash vpt add M
  hpt neg vpt neg V hpt vpt neg V
  hpt vpt V hpt neg vpt V closepath fill} def
/Pent {stroke [] 0 setdash 2 copy gsave
  translate 0 hpt M 4 {72 rotate 0 hpt L} repeat
  closepath stroke grestore Pnt} def
/PentF {stroke [] 0 setdash gsave
  translate 0 hpt M 4 {72 rotate 0 hpt L} repeat
  closepath fill grestore} def
/Circle {stroke [] 0 setdash 2 copy
  hpt 0 360 arc stroke Pnt} def
/CircleF {stroke [] 0 setdash hpt 0 360 arc fill} def
/C0 {BL [] 0 setdash 2 copy moveto vpt 90 450 arc} bind def
/C1 {BL [] 0 setdash 2 copy moveto
	2 copy vpt 0 90 arc closepath fill
	vpt 0 360 arc closepath} bind def
/C2 {BL [] 0 setdash 2 copy moveto
	2 copy vpt 90 180 arc closepath fill
	vpt 0 360 arc closepath} bind def
/C3 {BL [] 0 setdash 2 copy moveto
	2 copy vpt 0 180 arc closepath fill
	vpt 0 360 arc closepath} bind def
/C4 {BL [] 0 setdash 2 copy moveto
	2 copy vpt 180 270 arc closepath fill
	vpt 0 360 arc closepath} bind def
/C5 {BL [] 0 setdash 2 copy moveto
	2 copy vpt 0 90 arc
	2 copy moveto
	2 copy vpt 180 270 arc closepath fill
	vpt 0 360 arc} bind def
/C6 {BL [] 0 setdash 2 copy moveto
	2 copy vpt 90 270 arc closepath fill
	vpt 0 360 arc closepath} bind def
/C7 {BL [] 0 setdash 2 copy moveto
	2 copy vpt 0 270 arc closepath fill
	vpt 0 360 arc closepath} bind def
/C8 {BL [] 0 setdash 2 copy moveto
	2 copy vpt 270 360 arc closepath fill
	vpt 0 360 arc closepath} bind def
/C9 {BL [] 0 setdash 2 copy moveto
	2 copy vpt 270 450 arc closepath fill
	vpt 0 360 arc closepath} bind def
/C10 {BL [] 0 setdash 2 copy 2 copy moveto vpt 270 360 arc closepath fill
	2 copy moveto
	2 copy vpt 90 180 arc closepath fill
	vpt 0 360 arc closepath} bind def
/C11 {BL [] 0 setdash 2 copy moveto
	2 copy vpt 0 180 arc closepath fill
	2 copy moveto
	2 copy vpt 270 360 arc closepath fill
	vpt 0 360 arc closepath} bind def
/C12 {BL [] 0 setdash 2 copy moveto
	2 copy vpt 180 360 arc closepath fill
	vpt 0 360 arc closepath} bind def
/C13 {BL [] 0 setdash 2 copy moveto
	2 copy vpt 0 90 arc closepath fill
	2 copy moveto
	2 copy vpt 180 360 arc closepath fill
	vpt 0 360 arc closepath} bind def
/C14 {BL [] 0 setdash 2 copy moveto
	2 copy vpt 90 360 arc closepath fill
	vpt 0 360 arc} bind def
/C15 {BL [] 0 setdash 2 copy vpt 0 360 arc closepath fill
	vpt 0 360 arc closepath} bind def
/Rec {newpath 4 2 roll moveto 1 index 0 rlineto 0 exch rlineto
	neg 0 rlineto closepath} bind def
/Square {dup Rec} bind def
/Bsquare {vpt sub exch vpt sub exch vpt2 Square} bind def
/S0 {BL [] 0 setdash 2 copy moveto 0 vpt rlineto BL Bsquare} bind def
/S1 {BL [] 0 setdash 2 copy vpt Square fill Bsquare} bind def
/S2 {BL [] 0 setdash 2 copy exch vpt sub exch vpt Square fill Bsquare} bind def
/S3 {BL [] 0 setdash 2 copy exch vpt sub exch vpt2 vpt Rec fill Bsquare} bind def
/S4 {BL [] 0 setdash 2 copy exch vpt sub exch vpt sub vpt Square fill Bsquare} bind def
/S5 {BL [] 0 setdash 2 copy 2 copy vpt Square fill
	exch vpt sub exch vpt sub vpt Square fill Bsquare} bind def
/S6 {BL [] 0 setdash 2 copy exch vpt sub exch vpt sub vpt vpt2 Rec fill Bsquare} bind def
/S7 {BL [] 0 setdash 2 copy exch vpt sub exch vpt sub vpt vpt2 Rec fill
	2 copy vpt Square fill Bsquare} bind def
/S8 {BL [] 0 setdash 2 copy vpt sub vpt Square fill Bsquare} bind def
/S9 {BL [] 0 setdash 2 copy vpt sub vpt vpt2 Rec fill Bsquare} bind def
/S10 {BL [] 0 setdash 2 copy vpt sub vpt Square fill 2 copy exch vpt sub exch vpt Square fill
	Bsquare} bind def
/S11 {BL [] 0 setdash 2 copy vpt sub vpt Square fill 2 copy exch vpt sub exch vpt2 vpt Rec fill
	Bsquare} bind def
/S12 {BL [] 0 setdash 2 copy exch vpt sub exch vpt sub vpt2 vpt Rec fill Bsquare} bind def
/S13 {BL [] 0 setdash 2 copy exch vpt sub exch vpt sub vpt2 vpt Rec fill
	2 copy vpt Square fill Bsquare} bind def
/S14 {BL [] 0 setdash 2 copy exch vpt sub exch vpt sub vpt2 vpt Rec fill
	2 copy exch vpt sub exch vpt Square fill Bsquare} bind def
/S15 {BL [] 0 setdash 2 copy Bsquare fill Bsquare} bind def
/D0 {gsave translate 45 rotate 0 0 S0 stroke grestore} bind def
/D1 {gsave translate 45 rotate 0 0 S1 stroke grestore} bind def
/D2 {gsave translate 45 rotate 0 0 S2 stroke grestore} bind def
/D3 {gsave translate 45 rotate 0 0 S3 stroke grestore} bind def
/D4 {gsave translate 45 rotate 0 0 S4 stroke grestore} bind def
/D5 {gsave translate 45 rotate 0 0 S5 stroke grestore} bind def
/D6 {gsave translate 45 rotate 0 0 S6 stroke grestore} bind def
/D7 {gsave translate 45 rotate 0 0 S7 stroke grestore} bind def
/D8 {gsave translate 45 rotate 0 0 S8 stroke grestore} bind def
/D9 {gsave translate 45 rotate 0 0 S9 stroke grestore} bind def
/D10 {gsave translate 45 rotate 0 0 S10 stroke grestore} bind def
/D11 {gsave translate 45 rotate 0 0 S11 stroke grestore} bind def
/D12 {gsave translate 45 rotate 0 0 S12 stroke grestore} bind def
/D13 {gsave translate 45 rotate 0 0 S13 stroke grestore} bind def
/D14 {gsave translate 45 rotate 0 0 S14 stroke grestore} bind def
/D15 {gsave translate 45 rotate 0 0 S15 stroke grestore} bind def
/DiaE {stroke [] 0 setdash vpt add M
  hpt neg vpt neg V hpt vpt neg V
  hpt vpt V hpt neg vpt V closepath stroke} def
/BoxE {stroke [] 0 setdash exch hpt sub exch vpt add M
  0 vpt2 neg V hpt2 0 V 0 vpt2 V
  hpt2 neg 0 V closepath stroke} def
/TriUE {stroke [] 0 setdash vpt 1.12 mul add M
  hpt neg vpt -1.62 mul V
  hpt 2 mul 0 V
  hpt neg vpt 1.62 mul V closepath stroke} def
/TriDE {stroke [] 0 setdash vpt 1.12 mul sub M
  hpt neg vpt 1.62 mul V
  hpt 2 mul 0 V
  hpt neg vpt -1.62 mul V closepath stroke} def
/PentE {stroke [] 0 setdash gsave
  translate 0 hpt M 4 {72 rotate 0 hpt L} repeat
  closepath stroke grestore} def
/CircE {stroke [] 0 setdash 
  hpt 0 360 arc stroke} def
/Opaque {gsave closepath 1 setgray fill grestore 0 setgray closepath} def
/DiaW {stroke [] 0 setdash vpt add M
  hpt neg vpt neg V hpt vpt neg V
  hpt vpt V hpt neg vpt V Opaque stroke} def
/BoxW {stroke [] 0 setdash exch hpt sub exch vpt add M
  0 vpt2 neg V hpt2 0 V 0 vpt2 V
  hpt2 neg 0 V Opaque stroke} def
/TriUW {stroke [] 0 setdash vpt 1.12 mul add M
  hpt neg vpt -1.62 mul V
  hpt 2 mul 0 V
  hpt neg vpt 1.62 mul V Opaque stroke} def
/TriDW {stroke [] 0 setdash vpt 1.12 mul sub M
  hpt neg vpt 1.62 mul V
  hpt 2 mul 0 V
  hpt neg vpt -1.62 mul V Opaque stroke} def
/PentW {stroke [] 0 setdash gsave
  translate 0 hpt M 4 {72 rotate 0 hpt L} repeat
  Opaque stroke grestore} def
/CircW {stroke [] 0 setdash 
  hpt 0 360 arc Opaque stroke} def
/BoxFill {gsave Rec 1 setgray fill grestore} def
/Density {
  /Fillden exch def
  currentrgbcolor
  /ColB exch def /ColG exch def /ColR exch def
  /ColR ColR Fillden mul Fillden sub 1 add def
  /ColG ColG Fillden mul Fillden sub 1 add def
  /ColB ColB Fillden mul Fillden sub 1 add def
  ColR ColG ColB setrgbcolor} def
/BoxColFill {gsave Rec PolyFill} def
/PolyFill {gsave Density fill grestore grestore} def
/h {rlineto rlineto rlineto gsave closepath fill grestore} bind def
%
% PostScript Level 1 Pattern Fill routine for rectangles
% Usage: x y w h s a XX PatternFill
%	x,y = lower left corner of box to be filled
%	w,h = width and height of box
%	  a = angle in degrees between lines and x-axis
%	 XX = 0/1 for no/yes cross-hatch
%
/PatternFill {gsave /PFa [ 9 2 roll ] def
  PFa 0 get PFa 2 get 2 div add PFa 1 get PFa 3 get 2 div add translate
  PFa 2 get -2 div PFa 3 get -2 div PFa 2 get PFa 3 get Rec
  TransparentPatterns {} {gsave 1 setgray fill grestore} ifelse
  clip
  currentlinewidth 0.5 mul setlinewidth
  /PFs PFa 2 get dup mul PFa 3 get dup mul add sqrt def
  0 0 M PFa 5 get rotate PFs -2 div dup translate
  0 1 PFs PFa 4 get div 1 add floor cvi
	{PFa 4 get mul 0 M 0 PFs V} for
  0 PFa 6 get ne {
	0 1 PFs PFa 4 get div 1 add floor cvi
	{PFa 4 get mul 0 2 1 roll M PFs 0 V} for
 } if
  stroke grestore} def
%
/languagelevel where
 {pop languagelevel} {1} ifelse
 2 lt
	{/InterpretLevel1 true def}
	{/InterpretLevel1 Level1 def}
 ifelse
%
% PostScript level 2 pattern fill definitions
%
/Level2PatternFill {
/Tile8x8 {/PaintType 2 /PatternType 1 /TilingType 1 /BBox [0 0 8 8] /XStep 8 /YStep 8}
	bind def
/KeepColor {currentrgbcolor [/Pattern /DeviceRGB] setcolorspace} bind def
<< Tile8x8
 /PaintProc {0.5 setlinewidth pop 0 0 M 8 8 L 0 8 M 8 0 L stroke} 
>> matrix makepattern
/Pat1 exch def
<< Tile8x8
 /PaintProc {0.5 setlinewidth pop 0 0 M 8 8 L 0 8 M 8 0 L stroke
	0 4 M 4 8 L 8 4 L 4 0 L 0 4 L stroke}
>> matrix makepattern
/Pat2 exch def
<< Tile8x8
 /PaintProc {0.5 setlinewidth pop 0 0 M 0 8 L
	8 8 L 8 0 L 0 0 L fill}
>> matrix makepattern
/Pat3 exch def
<< Tile8x8
 /PaintProc {0.5 setlinewidth pop -4 8 M 8 -4 L
	0 12 M 12 0 L stroke}
>> matrix makepattern
/Pat4 exch def
<< Tile8x8
 /PaintProc {0.5 setlinewidth pop -4 0 M 8 12 L
	0 -4 M 12 8 L stroke}
>> matrix makepattern
/Pat5 exch def
<< Tile8x8
 /PaintProc {0.5 setlinewidth pop -2 8 M 4 -4 L
	0 12 M 8 -4 L 4 12 M 10 0 L stroke}
>> matrix makepattern
/Pat6 exch def
<< Tile8x8
 /PaintProc {0.5 setlinewidth pop -2 0 M 4 12 L
	0 -4 M 8 12 L 4 -4 M 10 8 L stroke}
>> matrix makepattern
/Pat7 exch def
<< Tile8x8
 /PaintProc {0.5 setlinewidth pop 8 -2 M -4 4 L
	12 0 M -4 8 L 12 4 M 0 10 L stroke}
>> matrix makepattern
/Pat8 exch def
<< Tile8x8
 /PaintProc {0.5 setlinewidth pop 0 -2 M 12 4 L
	-4 0 M 12 8 L -4 4 M 8 10 L stroke}
>> matrix makepattern
/Pat9 exch def
/Pattern1 {PatternBgnd KeepColor Pat1 setpattern} bind def
/Pattern2 {PatternBgnd KeepColor Pat2 setpattern} bind def
/Pattern3 {PatternBgnd KeepColor Pat3 setpattern} bind def
/Pattern4 {PatternBgnd KeepColor Landscape {Pat5} {Pat4} ifelse setpattern} bind def
/Pattern5 {PatternBgnd KeepColor Landscape {Pat4} {Pat5} ifelse setpattern} bind def
/Pattern6 {PatternBgnd KeepColor Landscape {Pat9} {Pat6} ifelse setpattern} bind def
/Pattern7 {PatternBgnd KeepColor Landscape {Pat8} {Pat7} ifelse setpattern} bind def
} def
%
%
%End of PostScript Level 2 code
%
/PatternBgnd {
  TransparentPatterns {} {gsave 1 setgray fill grestore} ifelse
} def
%
% Substitute for Level 2 pattern fill codes with
% grayscale if Level 2 support is not selected.
%
/Level1PatternFill {
/Pattern1 {0.250 Density} bind def
/Pattern2 {0.500 Density} bind def
/Pattern3 {0.750 Density} bind def
/Pattern4 {0.125 Density} bind def
/Pattern5 {0.375 Density} bind def
/Pattern6 {0.625 Density} bind def
/Pattern7 {0.875 Density} bind def
} def
%
% Now test for support of Level 2 code
%
Level1 {Level1PatternFill} {Level2PatternFill} ifelse
%
/Symbol-Oblique /Symbol findfont [1 0 .167 1 0 0] makefont
dup length dict begin {1 index /FID eq {pop pop} {def} ifelse} forall
currentdict end definefont pop
Level1 SuppressPDFMark or 
{} {
/SDict 10 dict def
systemdict /pdfmark known not {
  userdict /pdfmark systemdict /cleartomark get put
} if
SDict begin [
  /Title (out.ps)
  /Subject (gnuplot plot)
  /Creator (gnuplot 4.6 patchlevel 6)
  /Author (yani)
%  /Producer (gnuplot)
%  /Keywords ()
  /CreationDate (Thu May 28 15:35:35 2015)
  /DOCINFO pdfmark
end
} ifelse
end
%%EndProlog
%%Page: 1 1
gnudict begin
gsave
doclip
50 50 translate
0.100 0.100 scale
90 rotate
0 -5040 translate
0 setgray
newpath
(Helvetica) findfont 140 scalefont setfont
BackgroundColor 0 lt 3 1 roll 0 lt exch 0 lt or or not {gsave BackgroundColor C clippath fill grestore} if
1.000 UL
LT0
0.50 0.50 0.50 C 1.000 UL
LTa
0.50 0.50 0.50 C 966 280 M
5981 0 V
stroke
LT0
0.50 0.50 0.50 C 966 280 M
63 0 V
5918 0 R
-63 0 V
882 280 M
( 0) Rshow
1.000 UL
LT0
0.50 0.50 0.50 C 1.000 UL
LTa
0.50 0.50 0.50 C 966 311 M
5981 0 V
stroke
LT0
0.50 0.50 0.50 C 966 311 M
63 0 V
5918 0 R
-63 0 V
882 311 M
( 0.707106) Rshow
1.000 UL
LT0
0.50 0.50 0.50 C 1.000 UL
LTa
0.50 0.50 0.50 C 966 341 M
5981 0 V
stroke
LT0
0.50 0.50 0.50 C 966 341 M
63 0 V
5918 0 R
-63 0 V
882 341 M
( 1.41421) Rshow
1.000 UL
LT0
0.50 0.50 0.50 C 1.000 UL
LTa
0.50 0.50 0.50 C 966 372 M
5981 0 V
stroke
LT0
0.50 0.50 0.50 C 966 372 M
63 0 V
5918 0 R
-63 0 V
882 372 M
( 2.12132) Rshow
1.000 UL
LT0
0.50 0.50 0.50 C 1.000 UL
LTa
0.50 0.50 0.50 C 966 402 M
5981 0 V
stroke
LT0
0.50 0.50 0.50 C 966 402 M
63 0 V
5918 0 R
-63 0 V
882 402 M
( 2.82842) Rshow
1.000 UL
LT0
0.50 0.50 0.50 C 1.000 UL
LTa
0.50 0.50 0.50 C 966 433 M
5981 0 V
stroke
LT0
0.50 0.50 0.50 C 966 433 M
63 0 V
5918 0 R
-63 0 V
882 433 M
( 3.53553) Rshow
1.000 UL
LT0
0.50 0.50 0.50 C 1.000 UL
LTa
0.50 0.50 0.50 C 966 464 M
5981 0 V
stroke
LT0
0.50 0.50 0.50 C 966 464 M
63 0 V
5918 0 R
-63 0 V
882 464 M
( 4.24264) Rshow
1.000 UL
LT0
0.50 0.50 0.50 C 1.000 UL
LTa
0.50 0.50 0.50 C 966 494 M
5981 0 V
stroke
LT0
0.50 0.50 0.50 C 966 494 M
63 0 V
5918 0 R
-63 0 V
882 494 M
( 4.94974) Rshow
1.000 UL
LT0
0.50 0.50 0.50 C 1.000 UL
LTa
0.50 0.50 0.50 C 966 525 M
5981 0 V
stroke
LT0
0.50 0.50 0.50 C 966 525 M
63 0 V
5918 0 R
-63 0 V
882 525 M
( 5.65685) Rshow
1.000 UL
LT0
0.50 0.50 0.50 C 1.000 UL
LTa
0.50 0.50 0.50 C 966 555 M
5981 0 V
stroke
LT0
0.50 0.50 0.50 C 966 555 M
63 0 V
5918 0 R
-63 0 V
882 555 M
( 6.36395) Rshow
1.000 UL
LT0
0.50 0.50 0.50 C 1.000 UL
LTa
0.50 0.50 0.50 C 966 586 M
5981 0 V
stroke
LT0
0.50 0.50 0.50 C 966 586 M
63 0 V
5918 0 R
-63 0 V
882 586 M
( 7.07106) Rshow
1.000 UL
LT0
0.50 0.50 0.50 C 1.000 UL
LTa
0.50 0.50 0.50 C 966 617 M
5981 0 V
stroke
LT0
0.50 0.50 0.50 C 966 617 M
63 0 V
5918 0 R
-63 0 V
882 617 M
( 7.77817) Rshow
1.000 UL
LT0
0.50 0.50 0.50 C 1.000 UL
LTa
0.50 0.50 0.50 C 966 647 M
5981 0 V
stroke
LT0
0.50 0.50 0.50 C 966 647 M
63 0 V
5918 0 R
-63 0 V
882 647 M
( 8.48527) Rshow
1.000 UL
LT0
0.50 0.50 0.50 C 1.000 UL
LTa
0.50 0.50 0.50 C 966 678 M
5981 0 V
stroke
LT0
0.50 0.50 0.50 C 966 678 M
63 0 V
5918 0 R
-63 0 V
882 678 M
( 9.19238) Rshow
1.000 UL
LT0
0.50 0.50 0.50 C 1.000 UL
LTa
0.50 0.50 0.50 C 966 708 M
5981 0 V
stroke
LT0
0.50 0.50 0.50 C 966 708 M
63 0 V
5918 0 R
-63 0 V
882 708 M
( 9.89948) Rshow
1.000 UL
LT0
0.50 0.50 0.50 C 1.000 UL
LTa
0.50 0.50 0.50 C 966 739 M
5981 0 V
stroke
LT0
0.50 0.50 0.50 C 966 739 M
63 0 V
5918 0 R
-63 0 V
882 739 M
( 10.6066) Rshow
1.000 UL
LT0
0.50 0.50 0.50 C 1.000 UL
LTa
0.50 0.50 0.50 C 966 770 M
5981 0 V
stroke
LT0
0.50 0.50 0.50 C 966 770 M
63 0 V
5918 0 R
-63 0 V
882 770 M
( 11.3137) Rshow
1.000 UL
LT0
0.50 0.50 0.50 C 1.000 UL
LTa
0.50 0.50 0.50 C 966 800 M
5981 0 V
stroke
LT0
0.50 0.50 0.50 C 966 800 M
63 0 V
5918 0 R
-63 0 V
882 800 M
( 12.0208) Rshow
1.000 UL
LT0
0.50 0.50 0.50 C 1.000 UL
LTa
0.50 0.50 0.50 C 966 831 M
5981 0 V
stroke
LT0
0.50 0.50 0.50 C 966 831 M
63 0 V
5918 0 R
-63 0 V
882 831 M
( 12.7279) Rshow
1.000 UL
LT0
0.50 0.50 0.50 C 1.000 UL
LTa
0.50 0.50 0.50 C 966 862 M
5981 0 V
stroke
LT0
0.50 0.50 0.50 C 966 862 M
63 0 V
5918 0 R
-63 0 V
882 862 M
( 13.435) Rshow
1.000 UL
LT0
0.50 0.50 0.50 C 1.000 UL
LTa
0.50 0.50 0.50 C 966 892 M
5981 0 V
stroke
LT0
0.50 0.50 0.50 C 966 892 M
63 0 V
5918 0 R
-63 0 V
882 892 M
( 14.1421) Rshow
1.000 UL
LT0
0.50 0.50 0.50 C 1.000 UL
LTa
0.50 0.50 0.50 C 966 923 M
5981 0 V
stroke
LT0
0.50 0.50 0.50 C 966 923 M
63 0 V
5918 0 R
-63 0 V
882 923 M
( 14.8492) Rshow
1.000 UL
LT0
0.50 0.50 0.50 C 1.000 UL
LTa
0.50 0.50 0.50 C 966 953 M
5981 0 V
stroke
LT0
0.50 0.50 0.50 C 966 953 M
63 0 V
5918 0 R
-63 0 V
882 953 M
( 15.5563) Rshow
1.000 UL
LT0
0.50 0.50 0.50 C 1.000 UL
LTa
0.50 0.50 0.50 C 966 984 M
5981 0 V
stroke
LT0
0.50 0.50 0.50 C 966 984 M
63 0 V
5918 0 R
-63 0 V
882 984 M
( 16.2634) Rshow
1.000 UL
LT0
0.50 0.50 0.50 C 1.000 UL
LTa
0.50 0.50 0.50 C 966 1015 M
5981 0 V
stroke
LT0
0.50 0.50 0.50 C 966 1015 M
63 0 V
5918 0 R
-63 0 V
-6002 0 R
( 16.9705) Rshow
1.000 UL
LT0
0.50 0.50 0.50 C 1.000 UL
LTa
0.50 0.50 0.50 C 966 1045 M
5981 0 V
stroke
LT0
0.50 0.50 0.50 C 966 1045 M
63 0 V
5918 0 R
-63 0 V
-6002 0 R
( 17.6776) Rshow
1.000 UL
LT0
0.50 0.50 0.50 C 1.000 UL
LTa
0.50 0.50 0.50 C 966 1076 M
5981 0 V
stroke
LT0
0.50 0.50 0.50 C 966 1076 M
63 0 V
5918 0 R
-63 0 V
-6002 0 R
( 18.3848) Rshow
1.000 UL
LT0
0.50 0.50 0.50 C 1.000 UL
LTa
0.50 0.50 0.50 C 966 1106 M
5981 0 V
stroke
LT0
0.50 0.50 0.50 C 966 1106 M
63 0 V
5918 0 R
-63 0 V
-6002 0 R
( 19.0919) Rshow
1.000 UL
LT0
0.50 0.50 0.50 C 1.000 UL
LTa
0.50 0.50 0.50 C 966 1137 M
5981 0 V
stroke
LT0
0.50 0.50 0.50 C 966 1137 M
63 0 V
5918 0 R
-63 0 V
-6002 0 R
( 19.799) Rshow
1.000 UL
LT0
0.50 0.50 0.50 C 1.000 UL
LTa
0.50 0.50 0.50 C 966 1168 M
5981 0 V
stroke
LT0
0.50 0.50 0.50 C 966 1168 M
63 0 V
5918 0 R
-63 0 V
-6002 0 R
( 20.5061) Rshow
1.000 UL
LT0
0.50 0.50 0.50 C 1.000 UL
LTa
0.50 0.50 0.50 C 966 1198 M
5981 0 V
stroke
LT0
0.50 0.50 0.50 C 966 1198 M
63 0 V
5918 0 R
-63 0 V
-6002 0 R
( 21.2132) Rshow
1.000 UL
LT0
0.50 0.50 0.50 C 1.000 UL
LTa
0.50 0.50 0.50 C 966 1229 M
5981 0 V
stroke
LT0
0.50 0.50 0.50 C 966 1229 M
63 0 V
5918 0 R
-63 0 V
-6002 0 R
( 21.9203) Rshow
1.000 UL
LT0
0.50 0.50 0.50 C 1.000 UL
LTa
0.50 0.50 0.50 C 966 1259 M
5981 0 V
stroke
LT0
0.50 0.50 0.50 C 966 1259 M
63 0 V
5918 0 R
-63 0 V
-6002 0 R
( 22.6274) Rshow
1.000 UL
LT0
0.50 0.50 0.50 C 1.000 UL
LTa
0.50 0.50 0.50 C 966 1290 M
5981 0 V
stroke
LT0
0.50 0.50 0.50 C 966 1290 M
63 0 V
5918 0 R
-63 0 V
-6002 0 R
( 23.3345) Rshow
1.000 UL
LT0
0.50 0.50 0.50 C 1.000 UL
LTa
0.50 0.50 0.50 C 966 1321 M
5981 0 V
stroke
LT0
0.50 0.50 0.50 C 966 1321 M
63 0 V
5918 0 R
-63 0 V
-6002 0 R
( 24.0416) Rshow
1.000 UL
LT0
0.50 0.50 0.50 C 1.000 UL
LTa
0.50 0.50 0.50 C 966 1351 M
5981 0 V
stroke
LT0
0.50 0.50 0.50 C 966 1351 M
63 0 V
5918 0 R
-63 0 V
-6002 0 R
( 24.7487) Rshow
1.000 UL
LT0
0.50 0.50 0.50 C 1.000 UL
LTa
0.50 0.50 0.50 C 966 1382 M
5981 0 V
stroke
LT0
0.50 0.50 0.50 C 966 1382 M
63 0 V
5918 0 R
-63 0 V
-6002 0 R
( 25.4558) Rshow
1.000 UL
LT0
0.50 0.50 0.50 C 1.000 UL
LTa
0.50 0.50 0.50 C 966 1412 M
5981 0 V
stroke
LT0
0.50 0.50 0.50 C 966 1412 M
63 0 V
5918 0 R
-63 0 V
-6002 0 R
( 26.1629) Rshow
1.000 UL
LT0
0.50 0.50 0.50 C 1.000 UL
LTa
0.50 0.50 0.50 C 966 1443 M
5981 0 V
stroke
LT0
0.50 0.50 0.50 C 966 1443 M
63 0 V
5918 0 R
-63 0 V
-6002 0 R
( 26.87) Rshow
1.000 UL
LT0
0.50 0.50 0.50 C 1.000 UL
LTa
0.50 0.50 0.50 C 966 1474 M
5981 0 V
stroke
LT0
0.50 0.50 0.50 C 966 1474 M
63 0 V
5918 0 R
-63 0 V
-6002 0 R
( 27.5771) Rshow
1.000 UL
LT0
0.50 0.50 0.50 C 1.000 UL
LTa
0.50 0.50 0.50 C 966 1504 M
5981 0 V
stroke
LT0
0.50 0.50 0.50 C 966 1504 M
63 0 V
5918 0 R
-63 0 V
-6002 0 R
( 28.2842) Rshow
1.000 UL
LT0
0.50 0.50 0.50 C 1.000 UL
LTa
0.50 0.50 0.50 C 966 1535 M
5981 0 V
stroke
LT0
0.50 0.50 0.50 C 966 1535 M
63 0 V
5918 0 R
-63 0 V
-6002 0 R
( 28.9913) Rshow
1.000 UL
LT0
0.50 0.50 0.50 C 1.000 UL
LTa
0.50 0.50 0.50 C 966 1565 M
5981 0 V
stroke
LT0
0.50 0.50 0.50 C 966 1565 M
63 0 V
5918 0 R
-63 0 V
-6002 0 R
( 29.6985) Rshow
1.000 UL
LT0
0.50 0.50 0.50 C 1.000 UL
LTa
0.50 0.50 0.50 C 966 1596 M
5981 0 V
stroke
LT0
0.50 0.50 0.50 C 966 1596 M
63 0 V
5918 0 R
-63 0 V
-6002 0 R
( 30.4056) Rshow
1.000 UL
LT0
0.50 0.50 0.50 C 1.000 UL
LTa
0.50 0.50 0.50 C 966 1627 M
5981 0 V
stroke
LT0
0.50 0.50 0.50 C 966 1627 M
63 0 V
5918 0 R
-63 0 V
-6002 0 R
( 31.1127) Rshow
1.000 UL
LT0
0.50 0.50 0.50 C 1.000 UL
LTa
0.50 0.50 0.50 C 966 1657 M
5981 0 V
stroke
LT0
0.50 0.50 0.50 C 966 1657 M
63 0 V
5918 0 R
-63 0 V
-6002 0 R
( 31.8198) Rshow
1.000 UL
LT0
0.50 0.50 0.50 C 1.000 UL
LTa
0.50 0.50 0.50 C 966 1688 M
5981 0 V
stroke
LT0
0.50 0.50 0.50 C 966 1688 M
63 0 V
5918 0 R
-63 0 V
-6002 0 R
( 32.5269) Rshow
1.000 UL
LT0
0.50 0.50 0.50 C 1.000 UL
LTa
0.50 0.50 0.50 C 966 1719 M
5981 0 V
stroke
LT0
0.50 0.50 0.50 C 966 1719 M
63 0 V
5918 0 R
-63 0 V
-6002 0 R
( 33.234) Rshow
1.000 UL
LT0
0.50 0.50 0.50 C 1.000 UL
LTa
0.50 0.50 0.50 C 966 1749 M
5981 0 V
stroke
LT0
0.50 0.50 0.50 C 966 1749 M
63 0 V
5918 0 R
-63 0 V
-6002 0 R
( 33.9411) Rshow
1.000 UL
LT0
0.50 0.50 0.50 C 1.000 UL
LTa
0.50 0.50 0.50 C 966 1780 M
5981 0 V
stroke
LT0
0.50 0.50 0.50 C 966 1780 M
63 0 V
5918 0 R
-63 0 V
-6002 0 R
( 34.6482) Rshow
1.000 UL
LT0
0.50 0.50 0.50 C 1.000 UL
LTa
0.50 0.50 0.50 C 966 1810 M
5981 0 V
stroke
LT0
0.50 0.50 0.50 C 966 1810 M
63 0 V
5918 0 R
-63 0 V
-6002 0 R
( 35.3553) Rshow
1.000 UL
LT0
0.50 0.50 0.50 C 1.000 UL
LTa
0.50 0.50 0.50 C 966 1841 M
5981 0 V
stroke
LT0
0.50 0.50 0.50 C 966 1841 M
63 0 V
5918 0 R
-63 0 V
-6002 0 R
( 36.0624) Rshow
1.000 UL
LT0
0.50 0.50 0.50 C 1.000 UL
LTa
0.50 0.50 0.50 C 966 1872 M
5981 0 V
stroke
LT0
0.50 0.50 0.50 C 966 1872 M
63 0 V
5918 0 R
-63 0 V
-6002 0 R
( 36.7695) Rshow
1.000 UL
LT0
0.50 0.50 0.50 C 1.000 UL
LTa
0.50 0.50 0.50 C 966 1902 M
5981 0 V
stroke
LT0
0.50 0.50 0.50 C 966 1902 M
63 0 V
5918 0 R
-63 0 V
-6002 0 R
( 37.4766) Rshow
1.000 UL
LT0
0.50 0.50 0.50 C 1.000 UL
LTa
0.50 0.50 0.50 C 966 1933 M
5981 0 V
stroke
LT0
0.50 0.50 0.50 C 966 1933 M
63 0 V
5918 0 R
-63 0 V
-6002 0 R
( 38.1837) Rshow
1.000 UL
LT0
0.50 0.50 0.50 C 1.000 UL
LTa
0.50 0.50 0.50 C 966 1963 M
5981 0 V
stroke
LT0
0.50 0.50 0.50 C 966 1963 M
63 0 V
5918 0 R
-63 0 V
-6002 0 R
( 38.8908) Rshow
1.000 UL
LT0
0.50 0.50 0.50 C 1.000 UL
LTa
0.50 0.50 0.50 C 966 1994 M
5981 0 V
stroke
LT0
0.50 0.50 0.50 C 966 1994 M
63 0 V
5918 0 R
-63 0 V
-6002 0 R
( 39.5979) Rshow
1.000 UL
LT0
0.50 0.50 0.50 C 1.000 UL
LTa
0.50 0.50 0.50 C 966 2025 M
5981 0 V
stroke
LT0
0.50 0.50 0.50 C 966 2025 M
63 0 V
5918 0 R
-63 0 V
-6002 0 R
( 40.305) Rshow
1.000 UL
LT0
0.50 0.50 0.50 C 1.000 UL
LTa
0.50 0.50 0.50 C 966 2055 M
5981 0 V
stroke
LT0
0.50 0.50 0.50 C 966 2055 M
63 0 V
5918 0 R
-63 0 V
-6002 0 R
( 41.0121) Rshow
1.000 UL
LT0
0.50 0.50 0.50 C 1.000 UL
LTa
0.50 0.50 0.50 C 966 2086 M
5981 0 V
stroke
LT0
0.50 0.50 0.50 C 966 2086 M
63 0 V
5918 0 R
-63 0 V
-6002 0 R
( 41.7193) Rshow
1.000 UL
LT0
0.50 0.50 0.50 C 1.000 UL
LTa
0.50 0.50 0.50 C 966 2116 M
5981 0 V
stroke
LT0
0.50 0.50 0.50 C 966 2116 M
63 0 V
5918 0 R
-63 0 V
-6002 0 R
( 42.4264) Rshow
1.000 UL
LT0
0.50 0.50 0.50 C 1.000 UL
LTa
0.50 0.50 0.50 C 966 2147 M
5981 0 V
stroke
LT0
0.50 0.50 0.50 C 966 2147 M
63 0 V
5918 0 R
-63 0 V
-6002 0 R
( 43.1335) Rshow
1.000 UL
LT0
0.50 0.50 0.50 C 1.000 UL
LTa
0.50 0.50 0.50 C 966 2178 M
5981 0 V
stroke
LT0
0.50 0.50 0.50 C 966 2178 M
63 0 V
5918 0 R
-63 0 V
-6002 0 R
( 43.8406) Rshow
1.000 UL
LT0
0.50 0.50 0.50 C 1.000 UL
LTa
0.50 0.50 0.50 C 966 2208 M
5981 0 V
stroke
LT0
0.50 0.50 0.50 C 966 2208 M
63 0 V
5918 0 R
-63 0 V
-6002 0 R
( 44.5477) Rshow
1.000 UL
LT0
0.50 0.50 0.50 C 1.000 UL
LTa
0.50 0.50 0.50 C 966 2239 M
5981 0 V
stroke
LT0
0.50 0.50 0.50 C 966 2239 M
63 0 V
5918 0 R
-63 0 V
-6002 0 R
( 45.2548) Rshow
1.000 UL
LT0
0.50 0.50 0.50 C 1.000 UL
LTa
0.50 0.50 0.50 C 966 2269 M
5981 0 V
stroke
LT0
0.50 0.50 0.50 C 966 2269 M
63 0 V
5918 0 R
-63 0 V
-6002 0 R
( 45.9619) Rshow
1.000 UL
LT0
0.50 0.50 0.50 C 1.000 UL
LTa
0.50 0.50 0.50 C 966 2300 M
5981 0 V
stroke
LT0
0.50 0.50 0.50 C 966 2300 M
63 0 V
5918 0 R
-63 0 V
-6002 0 R
( 46.669) Rshow
1.000 UL
LT0
0.50 0.50 0.50 C 1.000 UL
LTa
0.50 0.50 0.50 C 966 2331 M
5981 0 V
stroke
LT0
0.50 0.50 0.50 C 966 2331 M
63 0 V
5918 0 R
-63 0 V
-6002 0 R
( 47.3761) Rshow
1.000 UL
LT0
0.50 0.50 0.50 C 1.000 UL
LTa
0.50 0.50 0.50 C 966 2361 M
5981 0 V
stroke
LT0
0.50 0.50 0.50 C 966 2361 M
63 0 V
5918 0 R
-63 0 V
-6002 0 R
( 48.0832) Rshow
1.000 UL
LT0
0.50 0.50 0.50 C 1.000 UL
LTa
0.50 0.50 0.50 C 966 2392 M
5981 0 V
stroke
LT0
0.50 0.50 0.50 C 966 2392 M
63 0 V
5918 0 R
-63 0 V
-6002 0 R
( 48.7903) Rshow
1.000 UL
LT0
0.50 0.50 0.50 C 1.000 UL
LTa
0.50 0.50 0.50 C 966 2422 M
5981 0 V
stroke
LT0
0.50 0.50 0.50 C 966 2422 M
63 0 V
5918 0 R
-63 0 V
-6002 0 R
( 49.4974) Rshow
1.000 UL
LT0
0.50 0.50 0.50 C 1.000 UL
LTa
0.50 0.50 0.50 C 966 2453 M
5981 0 V
stroke
LT0
0.50 0.50 0.50 C 966 2453 M
63 0 V
5918 0 R
-63 0 V
-6002 0 R
( 50.2045) Rshow
1.000 UL
LT0
0.50 0.50 0.50 C 1.000 UL
LTa
0.50 0.50 0.50 C 966 2484 M
5981 0 V
stroke
LT0
0.50 0.50 0.50 C 966 2484 M
63 0 V
5918 0 R
-63 0 V
-6002 0 R
( 50.9116) Rshow
1.000 UL
LT0
0.50 0.50 0.50 C 1.000 UL
LTa
0.50 0.50 0.50 C 966 2514 M
5981 0 V
stroke
LT0
0.50 0.50 0.50 C 966 2514 M
63 0 V
5918 0 R
-63 0 V
-6002 0 R
( 51.6187) Rshow
1.000 UL
LT0
0.50 0.50 0.50 C 1.000 UL
LTa
0.50 0.50 0.50 C 966 2545 M
5981 0 V
stroke
LT0
0.50 0.50 0.50 C 966 2545 M
63 0 V
5918 0 R
-63 0 V
-6002 0 R
( 52.3258) Rshow
1.000 UL
LT0
0.50 0.50 0.50 C 1.000 UL
LTa
0.50 0.50 0.50 C 966 2576 M
5981 0 V
stroke
LT0
0.50 0.50 0.50 C 966 2576 M
63 0 V
5918 0 R
-63 0 V
-6002 0 R
( 53.033) Rshow
1.000 UL
LT0
0.50 0.50 0.50 C 1.000 UL
LTa
0.50 0.50 0.50 C 966 2606 M
5981 0 V
stroke
LT0
0.50 0.50 0.50 C 966 2606 M
63 0 V
5918 0 R
-63 0 V
-6002 0 R
( 53.7401) Rshow
1.000 UL
LT0
0.50 0.50 0.50 C 1.000 UL
LTa
0.50 0.50 0.50 C 966 2637 M
5981 0 V
stroke
LT0
0.50 0.50 0.50 C 966 2637 M
63 0 V
5918 0 R
-63 0 V
-6002 0 R
( 54.4472) Rshow
1.000 UL
LT0
0.50 0.50 0.50 C 1.000 UL
LTa
0.50 0.50 0.50 C 966 2667 M
5981 0 V
stroke
LT0
0.50 0.50 0.50 C 966 2667 M
63 0 V
5918 0 R
-63 0 V
-6002 0 R
( 55.1543) Rshow
1.000 UL
LT0
0.50 0.50 0.50 C 1.000 UL
LTa
0.50 0.50 0.50 C 966 2698 M
5981 0 V
stroke
LT0
0.50 0.50 0.50 C 966 2698 M
63 0 V
5918 0 R
-63 0 V
-6002 0 R
( 55.8614) Rshow
1.000 UL
LT0
0.50 0.50 0.50 C 1.000 UL
LTa
0.50 0.50 0.50 C 966 2729 M
5981 0 V
stroke
LT0
0.50 0.50 0.50 C 966 2729 M
63 0 V
5918 0 R
-63 0 V
-6002 0 R
( 56.5685) Rshow
1.000 UL
LT0
0.50 0.50 0.50 C 1.000 UL
LTa
0.50 0.50 0.50 C 966 2759 M
5981 0 V
stroke
LT0
0.50 0.50 0.50 C 966 2759 M
63 0 V
5918 0 R
-63 0 V
-6002 0 R
( 57.2756) Rshow
1.000 UL
LT0
0.50 0.50 0.50 C 1.000 UL
LTa
0.50 0.50 0.50 C 966 2790 M
5981 0 V
stroke
LT0
0.50 0.50 0.50 C 966 2790 M
63 0 V
5918 0 R
-63 0 V
-6002 0 R
( 57.9827) Rshow
1.000 UL
LT0
0.50 0.50 0.50 C 1.000 UL
LTa
0.50 0.50 0.50 C 966 2820 M
5981 0 V
stroke
LT0
0.50 0.50 0.50 C 966 2820 M
63 0 V
5918 0 R
-63 0 V
-6002 0 R
( 58.6898) Rshow
1.000 UL
LT0
0.50 0.50 0.50 C 1.000 UL
LTa
0.50 0.50 0.50 C 966 2851 M
5981 0 V
stroke
LT0
0.50 0.50 0.50 C 966 2851 M
63 0 V
5918 0 R
-63 0 V
-6002 0 R
( 59.3969) Rshow
1.000 UL
LT0
0.50 0.50 0.50 C 1.000 UL
LTa
0.50 0.50 0.50 C 966 2882 M
5981 0 V
stroke
LT0
0.50 0.50 0.50 C 966 2882 M
63 0 V
5918 0 R
-63 0 V
-6002 0 R
( 60.104) Rshow
1.000 UL
LT0
0.50 0.50 0.50 C 1.000 UL
LTa
0.50 0.50 0.50 C 966 2912 M
5981 0 V
stroke
LT0
0.50 0.50 0.50 C 966 2912 M
63 0 V
5918 0 R
-63 0 V
-6002 0 R
( 60.8111) Rshow
1.000 UL
LT0
0.50 0.50 0.50 C 1.000 UL
LTa
0.50 0.50 0.50 C 966 2943 M
5981 0 V
stroke
LT0
0.50 0.50 0.50 C 966 2943 M
63 0 V
5918 0 R
-63 0 V
-6002 0 R
( 61.5182) Rshow
1.000 UL
LT0
0.50 0.50 0.50 C 1.000 UL
LTa
0.50 0.50 0.50 C 966 2973 M
5981 0 V
stroke
LT0
0.50 0.50 0.50 C 966 2973 M
63 0 V
5918 0 R
-63 0 V
-6002 0 R
( 62.2253) Rshow
1.000 UL
LT0
0.50 0.50 0.50 C 1.000 UL
LTa
0.50 0.50 0.50 C 966 3004 M
5981 0 V
stroke
LT0
0.50 0.50 0.50 C 966 3004 M
63 0 V
5918 0 R
-63 0 V
-6002 0 R
( 62.9324) Rshow
1.000 UL
LT0
0.50 0.50 0.50 C 1.000 UL
LTa
0.50 0.50 0.50 C 966 3035 M
5981 0 V
stroke
LT0
0.50 0.50 0.50 C 966 3035 M
63 0 V
5918 0 R
-63 0 V
-6002 0 R
( 63.6395) Rshow
1.000 UL
LT0
0.50 0.50 0.50 C 1.000 UL
LTa
0.50 0.50 0.50 C 966 3065 M
5981 0 V
stroke
LT0
0.50 0.50 0.50 C 966 3065 M
63 0 V
5918 0 R
-63 0 V
-6002 0 R
( 64.3466) Rshow
1.000 UL
LT0
0.50 0.50 0.50 C 1.000 UL
LTa
0.50 0.50 0.50 C 966 3096 M
5981 0 V
stroke
LT0
0.50 0.50 0.50 C 966 3096 M
63 0 V
5918 0 R
-63 0 V
-6002 0 R
( 65.0538) Rshow
1.000 UL
LT0
0.50 0.50 0.50 C 1.000 UL
LTa
0.50 0.50 0.50 C 966 3126 M
5981 0 V
stroke
LT0
0.50 0.50 0.50 C 966 3126 M
63 0 V
5918 0 R
-63 0 V
-6002 0 R
( 65.7609) Rshow
1.000 UL
LT0
0.50 0.50 0.50 C 1.000 UL
LTa
0.50 0.50 0.50 C 966 3157 M
5981 0 V
stroke
LT0
0.50 0.50 0.50 C 966 3157 M
63 0 V
5918 0 R
-63 0 V
-6002 0 R
( 66.468) Rshow
1.000 UL
LT0
0.50 0.50 0.50 C 1.000 UL
LTa
0.50 0.50 0.50 C 966 3188 M
5981 0 V
stroke
LT0
0.50 0.50 0.50 C 966 3188 M
63 0 V
5918 0 R
-63 0 V
-6002 0 R
( 67.1751) Rshow
1.000 UL
LT0
0.50 0.50 0.50 C 1.000 UL
LTa
0.50 0.50 0.50 C 966 3218 M
5981 0 V
stroke
LT0
0.50 0.50 0.50 C 966 3218 M
63 0 V
5918 0 R
-63 0 V
-6002 0 R
( 67.8822) Rshow
1.000 UL
LT0
0.50 0.50 0.50 C 1.000 UL
LTa
0.50 0.50 0.50 C 966 3249 M
5981 0 V
stroke
LT0
0.50 0.50 0.50 C 966 3249 M
63 0 V
5918 0 R
-63 0 V
-6002 0 R
( 68.5893) Rshow
1.000 UL
LT0
0.50 0.50 0.50 C 1.000 UL
LTa
0.50 0.50 0.50 C 966 3279 M
5981 0 V
stroke
LT0
0.50 0.50 0.50 C 966 3279 M
63 0 V
5918 0 R
-63 0 V
-6002 0 R
( 69.2964) Rshow
1.000 UL
LT0
0.50 0.50 0.50 C 1.000 UL
LTa
0.50 0.50 0.50 C 966 3310 M
5981 0 V
stroke
LT0
0.50 0.50 0.50 C 966 3310 M
63 0 V
5918 0 R
-63 0 V
-6002 0 R
( 70.0035) Rshow
1.000 UL
LT0
0.50 0.50 0.50 C 1.000 UL
LTa
0.50 0.50 0.50 C 966 3341 M
5981 0 V
stroke
LT0
0.50 0.50 0.50 C 966 3341 M
63 0 V
5918 0 R
-63 0 V
-6002 0 R
( 70.7106) Rshow
1.000 UL
LT0
0.50 0.50 0.50 C 1.000 UL
LTa
0.50 0.50 0.50 C 966 3371 M
5981 0 V
stroke
LT0
0.50 0.50 0.50 C 966 3371 M
63 0 V
5918 0 R
-63 0 V
-6002 0 R
( 71.4177) Rshow
1.000 UL
LT0
0.50 0.50 0.50 C 1.000 UL
LTa
0.50 0.50 0.50 C 966 3402 M
5981 0 V
stroke
LT0
0.50 0.50 0.50 C 966 3402 M
63 0 V
5918 0 R
-63 0 V
-6002 0 R
( 72.1248) Rshow
1.000 UL
LT0
0.50 0.50 0.50 C 1.000 UL
LTa
0.50 0.50 0.50 C 966 3432 M
5981 0 V
stroke
LT0
0.50 0.50 0.50 C 966 3432 M
63 0 V
5918 0 R
-63 0 V
-6002 0 R
( 72.8319) Rshow
1.000 UL
LT0
0.50 0.50 0.50 C 1.000 UL
LTa
0.50 0.50 0.50 C 966 3463 M
5981 0 V
stroke
LT0
0.50 0.50 0.50 C 966 3463 M
63 0 V
5918 0 R
-63 0 V
-6002 0 R
( 73.539) Rshow
1.000 UL
LT0
0.50 0.50 0.50 C 1.000 UL
LTa
0.50 0.50 0.50 C 966 3494 M
5981 0 V
stroke
LT0
0.50 0.50 0.50 C 966 3494 M
63 0 V
5918 0 R
-63 0 V
-6002 0 R
( 74.2461) Rshow
1.000 UL
LT0
0.50 0.50 0.50 C 1.000 UL
LTa
0.50 0.50 0.50 C 966 3524 M
5981 0 V
stroke
LT0
0.50 0.50 0.50 C 966 3524 M
63 0 V
5918 0 R
-63 0 V
-6002 0 R
( 74.9532) Rshow
1.000 UL
LT0
0.50 0.50 0.50 C 1.000 UL
LTa
0.50 0.50 0.50 C 966 3555 M
5981 0 V
stroke
LT0
0.50 0.50 0.50 C 966 3555 M
63 0 V
5918 0 R
-63 0 V
-6002 0 R
( 75.6603) Rshow
1.000 UL
LT0
0.50 0.50 0.50 C 1.000 UL
LTa
0.50 0.50 0.50 C 966 3586 M
5981 0 V
stroke
LT0
0.50 0.50 0.50 C 966 3586 M
63 0 V
5918 0 R
-63 0 V
-6002 0 R
( 76.3674) Rshow
1.000 UL
LT0
0.50 0.50 0.50 C 1.000 UL
LTa
0.50 0.50 0.50 C 966 3616 M
5981 0 V
stroke
LT0
0.50 0.50 0.50 C 966 3616 M
63 0 V
5918 0 R
-63 0 V
-6002 0 R
( 77.0746) Rshow
1.000 UL
LT0
0.50 0.50 0.50 C 1.000 UL
LTa
0.50 0.50 0.50 C 966 3647 M
5981 0 V
stroke
LT0
0.50 0.50 0.50 C 966 3647 M
63 0 V
5918 0 R
-63 0 V
-6002 0 R
( 77.7817) Rshow
1.000 UL
LT0
0.50 0.50 0.50 C 1.000 UL
LTa
0.50 0.50 0.50 C 966 3677 M
5981 0 V
stroke
LT0
0.50 0.50 0.50 C 966 3677 M
63 0 V
5918 0 R
-63 0 V
-6002 0 R
( 78.4888) Rshow
1.000 UL
LT0
0.50 0.50 0.50 C 1.000 UL
LTa
0.50 0.50 0.50 C 966 3708 M
5981 0 V
stroke
LT0
0.50 0.50 0.50 C 966 3708 M
63 0 V
5918 0 R
-63 0 V
-6002 0 R
( 79.1959) Rshow
1.000 UL
LT0
0.50 0.50 0.50 C 1.000 UL
LTa
0.50 0.50 0.50 C 966 3739 M
5981 0 V
stroke
LT0
0.50 0.50 0.50 C 966 3739 M
63 0 V
5918 0 R
-63 0 V
-6002 0 R
( 79.903) Rshow
1.000 UL
LT0
0.50 0.50 0.50 C 1.000 UL
LTa
0.50 0.50 0.50 C 966 3769 M
5981 0 V
stroke
LT0
0.50 0.50 0.50 C 966 3769 M
63 0 V
5918 0 R
-63 0 V
-6002 0 R
( 80.6101) Rshow
1.000 UL
LT0
0.50 0.50 0.50 C 1.000 UL
LTa
0.50 0.50 0.50 C 966 3800 M
5981 0 V
stroke
LT0
0.50 0.50 0.50 C 966 3800 M
63 0 V
5918 0 R
-63 0 V
-6002 0 R
( 81.3172) Rshow
1.000 UL
LT0
0.50 0.50 0.50 C 1.000 UL
LTa
0.50 0.50 0.50 C 966 3830 M
5981 0 V
stroke
LT0
0.50 0.50 0.50 C 966 3830 M
63 0 V
5918 0 R
-63 0 V
-6002 0 R
( 82.0243) Rshow
1.000 UL
LT0
0.50 0.50 0.50 C 1.000 UL
LTa
0.50 0.50 0.50 C 966 3861 M
5981 0 V
stroke
LT0
0.50 0.50 0.50 C 966 3861 M
63 0 V
5918 0 R
-63 0 V
-6002 0 R
( 82.7314) Rshow
1.000 UL
LT0
0.50 0.50 0.50 C 1.000 UL
LTa
0.50 0.50 0.50 C 966 3892 M
5981 0 V
stroke
LT0
0.50 0.50 0.50 C 966 3892 M
63 0 V
5918 0 R
-63 0 V
-6002 0 R
( 83.4385) Rshow
1.000 UL
LT0
0.50 0.50 0.50 C 1.000 UL
LTa
0.50 0.50 0.50 C 966 3922 M
5981 0 V
stroke
LT0
0.50 0.50 0.50 C 966 3922 M
63 0 V
5918 0 R
-63 0 V
-6002 0 R
( 84.1456) Rshow
1.000 UL
LT0
0.50 0.50 0.50 C 1.000 UL
LTa
0.50 0.50 0.50 C 966 3953 M
5981 0 V
stroke
LT0
0.50 0.50 0.50 C 966 3953 M
63 0 V
5918 0 R
-63 0 V
-6002 0 R
( 84.8527) Rshow
1.000 UL
LT0
0.50 0.50 0.50 C 1.000 UL
LTa
0.50 0.50 0.50 C 966 3983 M
5981 0 V
stroke
LT0
0.50 0.50 0.50 C 966 3983 M
63 0 V
5918 0 R
-63 0 V
-6002 0 R
( 85.5598) Rshow
1.000 UL
LT0
0.50 0.50 0.50 C 1.000 UL
LTa
0.50 0.50 0.50 C 966 4014 M
5981 0 V
stroke
LT0
0.50 0.50 0.50 C 966 4014 M
63 0 V
5918 0 R
-63 0 V
-6002 0 R
( 86.2669) Rshow
1.000 UL
LT0
0.50 0.50 0.50 C 1.000 UL
LTa
0.50 0.50 0.50 C 966 4045 M
5981 0 V
stroke
LT0
0.50 0.50 0.50 C 966 4045 M
63 0 V
5918 0 R
-63 0 V
-6002 0 R
( 86.974) Rshow
1.000 UL
LT0
0.50 0.50 0.50 C 1.000 UL
LTa
0.50 0.50 0.50 C 966 4075 M
5981 0 V
stroke
LT0
0.50 0.50 0.50 C 966 4075 M
63 0 V
5918 0 R
-63 0 V
-6002 0 R
( 87.6811) Rshow
1.000 UL
LT0
0.50 0.50 0.50 C 1.000 UL
LTa
0.50 0.50 0.50 C 966 4106 M
5981 0 V
stroke
LT0
0.50 0.50 0.50 C 966 4106 M
63 0 V
5918 0 R
-63 0 V
-6002 0 R
( 88.3882) Rshow
1.000 UL
LT0
0.50 0.50 0.50 C 1.000 UL
LTa
0.50 0.50 0.50 C 966 4136 M
5981 0 V
stroke
LT0
0.50 0.50 0.50 C 966 4136 M
63 0 V
5918 0 R
-63 0 V
-6002 0 R
( 89.0954) Rshow
1.000 UL
LT0
0.50 0.50 0.50 C 1.000 UL
LTa
0.50 0.50 0.50 C 966 4167 M
5981 0 V
stroke
LT0
0.50 0.50 0.50 C 966 4167 M
63 0 V
5918 0 R
-63 0 V
-6002 0 R
( 89.8025) Rshow
1.000 UL
LT0
0.50 0.50 0.50 C 1.000 UL
LTa
0.50 0.50 0.50 C 966 4198 M
5981 0 V
stroke
LT0
0.50 0.50 0.50 C 966 4198 M
63 0 V
5918 0 R
-63 0 V
-6002 0 R
( 90.5096) Rshow
1.000 UL
LT0
0.50 0.50 0.50 C 1.000 UL
LTa
0.50 0.50 0.50 C 966 4228 M
5981 0 V
stroke
LT0
0.50 0.50 0.50 C 966 4228 M
63 0 V
5918 0 R
-63 0 V
-6002 0 R
( 91.2167) Rshow
1.000 UL
LT0
0.50 0.50 0.50 C 1.000 UL
LTa
0.50 0.50 0.50 C 966 4259 M
5981 0 V
stroke
LT0
0.50 0.50 0.50 C 966 4259 M
63 0 V
5918 0 R
-63 0 V
-6002 0 R
( 91.9238) Rshow
1.000 UL
LT0
0.50 0.50 0.50 C 1.000 UL
LTa
0.50 0.50 0.50 C 966 4289 M
5981 0 V
stroke
LT0
0.50 0.50 0.50 C 966 4289 M
63 0 V
5918 0 R
-63 0 V
-6002 0 R
( 92.6309) Rshow
1.000 UL
LT0
0.50 0.50 0.50 C 1.000 UL
LTa
0.50 0.50 0.50 C 966 4320 M
5981 0 V
stroke
LT0
0.50 0.50 0.50 C 966 4320 M
63 0 V
5918 0 R
-63 0 V
-6002 0 R
( 93.338) Rshow
1.000 UL
LT0
0.50 0.50 0.50 C 1.000 UL
LTa
0.50 0.50 0.50 C 966 4351 M
5981 0 V
stroke
LT0
0.50 0.50 0.50 C 966 4351 M
63 0 V
5918 0 R
-63 0 V
-6002 0 R
( 94.0451) Rshow
1.000 UL
LT0
0.50 0.50 0.50 C 1.000 UL
LTa
0.50 0.50 0.50 C 966 4381 M
5981 0 V
stroke
LT0
0.50 0.50 0.50 C 966 4381 M
63 0 V
5918 0 R
-63 0 V
-6002 0 R
( 94.7522) Rshow
1.000 UL
LT0
0.50 0.50 0.50 C 1.000 UL
LTa
0.50 0.50 0.50 C 966 4412 M
5981 0 V
stroke
LT0
0.50 0.50 0.50 C 966 4412 M
63 0 V
5918 0 R
-63 0 V
-6002 0 R
( 95.4593) Rshow
1.000 UL
LT0
0.50 0.50 0.50 C 1.000 UL
LTa
0.50 0.50 0.50 C 966 4443 M
5981 0 V
stroke
LT0
0.50 0.50 0.50 C 966 4443 M
63 0 V
5918 0 R
-63 0 V
-6002 0 R
( 96.1664) Rshow
1.000 UL
LT0
0.50 0.50 0.50 C 1.000 UL
LTa
0.50 0.50 0.50 C 966 4473 M
5981 0 V
stroke
LT0
0.50 0.50 0.50 C 966 4473 M
63 0 V
5918 0 R
-63 0 V
-6002 0 R
( 96.8735) Rshow
1.000 UL
LT0
0.50 0.50 0.50 C 1.000 UL
LTa
0.50 0.50 0.50 C 966 4504 M
5981 0 V
stroke
LT0
0.50 0.50 0.50 C 966 4504 M
63 0 V
5918 0 R
-63 0 V
-6002 0 R
( 97.5806) Rshow
1.000 UL
LT0
0.50 0.50 0.50 C 1.000 UL
LTa
0.50 0.50 0.50 C 966 4534 M
5981 0 V
stroke
LT0
0.50 0.50 0.50 C 966 4534 M
63 0 V
5918 0 R
-63 0 V
-6002 0 R
( 98.2877) Rshow
1.000 UL
LT0
0.50 0.50 0.50 C 1.000 UL
LTa
0.50 0.50 0.50 C 966 4565 M
5981 0 V
stroke
LT0
0.50 0.50 0.50 C 966 4565 M
63 0 V
5918 0 R
-63 0 V
-6002 0 R
( 98.9948) Rshow
1.000 UL
LT0
0.50 0.50 0.50 C 1.000 UL
LTa
0.50 0.50 0.50 C 966 4596 M
5981 0 V
stroke
LT0
0.50 0.50 0.50 C 966 4596 M
63 0 V
5918 0 R
-63 0 V
-6002 0 R
( 99.7019) Rshow
1.000 UL
LT0
0.50 0.50 0.50 C 1.000 UL
LTa
0.50 0.50 0.50 C 966 4626 M
5981 0 V
stroke
LT0
0.50 0.50 0.50 C 966 4626 M
63 0 V
5918 0 R
-63 0 V
-6002 0 R
( 100.409) Rshow
1.000 UL
LT0
0.50 0.50 0.50 C 1.000 UL
LTa
0.50 0.50 0.50 C 966 4657 M
5981 0 V
stroke
LT0
0.50 0.50 0.50 C 966 4657 M
63 0 V
5918 0 R
-63 0 V
-6002 0 R
( 101.116) Rshow
1.000 UL
LT0
0.50 0.50 0.50 C 1.000 UL
LTa
0.50 0.50 0.50 C 966 4687 M
5981 0 V
stroke
LT0
0.50 0.50 0.50 C 966 4687 M
63 0 V
5918 0 R
-63 0 V
-6002 0 R
( 101.823) Rshow
1.000 UL
LT0
0.50 0.50 0.50 C 1.000 UL
LTa
0.50 0.50 0.50 C 966 4718 M
5981 0 V
stroke
LT0
0.50 0.50 0.50 C 966 4718 M
63 0 V
5918 0 R
-63 0 V
-6002 0 R
( 102.53) Rshow
1.000 UL
LT0
0.50 0.50 0.50 C 1.000 UL
LTa
0.50 0.50 0.50 C 966 4749 M
5981 0 V
stroke
LT0
0.50 0.50 0.50 C 966 4749 M
63 0 V
5918 0 R
-63 0 V
-6002 0 R
( 103.237) Rshow
1.000 UL
LT0
0.50 0.50 0.50 C 1.000 UL
LTa
0.50 0.50 0.50 C 966 4779 M
5981 0 V
stroke
LT0
0.50 0.50 0.50 C 966 4779 M
63 0 V
5918 0 R
-63 0 V
-6002 0 R
( 103.945) Rshow
1.000 UL
LT0
0.50 0.50 0.50 C 1.000 UL
LTa
0.50 0.50 0.50 C 966 4810 M
5981 0 V
stroke
LT0
0.50 0.50 0.50 C 966 4810 M
63 0 V
5918 0 R
-63 0 V
-6002 0 R
( 104.652) Rshow
1.000 UL
LT0
0.50 0.50 0.50 C 1.000 UL
LTa
0.50 0.50 0.50 C 966 4840 M
5981 0 V
stroke
LT0
0.50 0.50 0.50 C 966 4840 M
63 0 V
5918 0 R
-63 0 V
-6002 0 R
( 105.359) Rshow
1.000 UL
LT0
0.50 0.50 0.50 C 1.000 UL
LTa
0.50 0.50 0.50 C 966 4871 M
5981 0 V
stroke
LT0
0.50 0.50 0.50 C 966 4871 M
63 0 V
5918 0 R
-63 0 V
-6002 0 R
( 106.066) Rshow
1.000 UL
LT0
0.50 0.50 0.50 C 1.000 UL
LTa
0.50 0.50 0.50 C 966 280 M
0 4591 V
stroke
LT0
0.50 0.50 0.50 C 966 280 M
0 63 V
0 4528 R
0 -63 V
966 140 M
( 0) Cshow
1.000 UL
LT0
0.50 0.50 0.50 C 1.000 UL
LTa
0.50 0.50 0.50 C 1006 280 M
0 4591 V
stroke
LT0
0.50 0.50 0.50 C 1006 280 M
0 63 V
0 4528 R
0 -63 V
0 -4668 R
( 0.707106) Cshow
1.000 UL
LT0
0.50 0.50 0.50 C 1.000 UL
LTa
0.50 0.50 0.50 C 1046 280 M
0 4591 V
stroke
LT0
0.50 0.50 0.50 C 1046 280 M
0 63 V
0 4528 R
0 -63 V
0 -4668 R
( 1.41421) Cshow
1.000 UL
LT0
0.50 0.50 0.50 C 1.000 UL
LTa
0.50 0.50 0.50 C 1086 280 M
0 4591 V
stroke
LT0
0.50 0.50 0.50 C 1086 280 M
0 63 V
0 4528 R
0 -63 V
0 -4668 R
( 2.12132) Cshow
1.000 UL
LT0
0.50 0.50 0.50 C 1.000 UL
LTa
0.50 0.50 0.50 C 1125 280 M
0 4591 V
stroke
LT0
0.50 0.50 0.50 C 1125 280 M
0 63 V
0 4528 R
0 -63 V
0 -4668 R
( 2.82842) Cshow
1.000 UL
LT0
0.50 0.50 0.50 C 1.000 UL
LTa
0.50 0.50 0.50 C 1165 280 M
0 4591 V
stroke
LT0
0.50 0.50 0.50 C 1165 280 M
0 63 V
0 4528 R
0 -63 V
0 -4668 R
( 3.53553) Cshow
1.000 UL
LT0
0.50 0.50 0.50 C 1.000 UL
LTa
0.50 0.50 0.50 C 1205 280 M
0 4591 V
stroke
LT0
0.50 0.50 0.50 C 1205 280 M
0 63 V
0 4528 R
0 -63 V
0 -4668 R
( 4.24264) Cshow
1.000 UL
LT0
0.50 0.50 0.50 C 1.000 UL
LTa
0.50 0.50 0.50 C 1245 280 M
0 4591 V
stroke
LT0
0.50 0.50 0.50 C 1245 280 M
0 63 V
0 4528 R
0 -63 V
0 -4668 R
( 4.94974) Cshow
1.000 UL
LT0
0.50 0.50 0.50 C 1.000 UL
LTa
0.50 0.50 0.50 C 1285 280 M
0 4591 V
stroke
LT0
0.50 0.50 0.50 C 1285 280 M
0 63 V
0 4528 R
0 -63 V
0 -4668 R
( 5.65685) Cshow
1.000 UL
LT0
0.50 0.50 0.50 C 1.000 UL
LTa
0.50 0.50 0.50 C 1325 280 M
0 4591 V
stroke
LT0
0.50 0.50 0.50 C 1325 280 M
0 63 V
0 4528 R
0 -63 V
0 -4668 R
( 6.36395) Cshow
1.000 UL
LT0
0.50 0.50 0.50 C 1.000 UL
LTa
0.50 0.50 0.50 C 1365 280 M
0 4591 V
stroke
LT0
0.50 0.50 0.50 C 1365 280 M
0 63 V
0 4528 R
0 -63 V
0 -4668 R
( 7.07106) Cshow
1.000 UL
LT0
0.50 0.50 0.50 C 1.000 UL
LTa
0.50 0.50 0.50 C 1405 280 M
0 4591 V
stroke
LT0
0.50 0.50 0.50 C 1405 280 M
0 63 V
0 4528 R
0 -63 V
0 -4668 R
( 7.77817) Cshow
1.000 UL
LT0
0.50 0.50 0.50 C 1.000 UL
LTa
0.50 0.50 0.50 C 1444 280 M
0 4591 V
stroke
LT0
0.50 0.50 0.50 C 1444 280 M
0 63 V
0 4528 R
0 -63 V
0 -4668 R
( 8.48527) Cshow
1.000 UL
LT0
0.50 0.50 0.50 C 1.000 UL
LTa
0.50 0.50 0.50 C 1484 280 M
0 4591 V
stroke
LT0
0.50 0.50 0.50 C 1484 280 M
0 63 V
0 4528 R
0 -63 V
0 -4668 R
( 9.19238) Cshow
1.000 UL
LT0
0.50 0.50 0.50 C 1.000 UL
LTa
0.50 0.50 0.50 C 1524 280 M
0 4591 V
stroke
LT0
0.50 0.50 0.50 C 1524 280 M
0 63 V
0 4528 R
0 -63 V
0 -4668 R
( 9.89948) Cshow
1.000 UL
LT0
0.50 0.50 0.50 C 1.000 UL
LTa
0.50 0.50 0.50 C 1564 280 M
0 4591 V
stroke
LT0
0.50 0.50 0.50 C 1564 280 M
0 63 V
0 4528 R
0 -63 V
0 -4668 R
( 10.6066) Cshow
1.000 UL
LT0
0.50 0.50 0.50 C 1.000 UL
LTa
0.50 0.50 0.50 C 1604 280 M
0 4591 V
stroke
LT0
0.50 0.50 0.50 C 1604 280 M
0 63 V
0 4528 R
0 -63 V
0 -4668 R
( 11.3137) Cshow
1.000 UL
LT0
0.50 0.50 0.50 C 1.000 UL
LTa
0.50 0.50 0.50 C 1644 280 M
0 4591 V
stroke
LT0
0.50 0.50 0.50 C 1644 280 M
0 63 V
0 4528 R
0 -63 V
0 -4668 R
( 12.0208) Cshow
1.000 UL
LT0
0.50 0.50 0.50 C 1.000 UL
LTa
0.50 0.50 0.50 C 1684 280 M
0 4591 V
stroke
LT0
0.50 0.50 0.50 C 1684 280 M
0 63 V
0 4528 R
0 -63 V
0 -4668 R
( 12.7279) Cshow
1.000 UL
LT0
0.50 0.50 0.50 C 1.000 UL
LTa
0.50 0.50 0.50 C 1724 280 M
0 4591 V
stroke
LT0
0.50 0.50 0.50 C 1724 280 M
0 63 V
0 4528 R
0 -63 V
0 -4668 R
( 13.435) Cshow
1.000 UL
LT0
0.50 0.50 0.50 C 1.000 UL
LTa
0.50 0.50 0.50 C 1763 280 M
0 4591 V
stroke
LT0
0.50 0.50 0.50 C 1763 280 M
0 63 V
0 4528 R
0 -63 V
0 -4668 R
( 14.1421) Cshow
1.000 UL
LT0
0.50 0.50 0.50 C 1.000 UL
LTa
0.50 0.50 0.50 C 1803 280 M
0 4591 V
stroke
LT0
0.50 0.50 0.50 C 1803 280 M
0 63 V
0 4528 R
0 -63 V
0 -4668 R
( 14.8492) Cshow
1.000 UL
LT0
0.50 0.50 0.50 C 1.000 UL
LTa
0.50 0.50 0.50 C 1843 280 M
0 4591 V
stroke
LT0
0.50 0.50 0.50 C 1843 280 M
0 63 V
0 4528 R
0 -63 V
0 -4668 R
( 15.5563) Cshow
1.000 UL
LT0
0.50 0.50 0.50 C 1.000 UL
LTa
0.50 0.50 0.50 C 1883 280 M
0 4591 V
stroke
LT0
0.50 0.50 0.50 C 1883 280 M
0 63 V
0 4528 R
0 -63 V
0 -4668 R
( 16.2634) Cshow
1.000 UL
LT0
0.50 0.50 0.50 C 1.000 UL
LTa
0.50 0.50 0.50 C 1923 280 M
0 4591 V
stroke
LT0
0.50 0.50 0.50 C 1923 280 M
0 63 V
0 4528 R
0 -63 V
0 -4668 R
( 16.9705) Cshow
1.000 UL
LT0
0.50 0.50 0.50 C 1.000 UL
LTa
0.50 0.50 0.50 C 1963 280 M
0 4591 V
stroke
LT0
0.50 0.50 0.50 C 1963 280 M
0 63 V
0 4528 R
0 -63 V
0 -4668 R
( 17.6776) Cshow
1.000 UL
LT0
0.50 0.50 0.50 C 1.000 UL
LTa
0.50 0.50 0.50 C 2003 280 M
0 4591 V
stroke
LT0
0.50 0.50 0.50 C 2003 280 M
0 63 V
0 4528 R
0 -63 V
0 -4668 R
( 18.3848) Cshow
1.000 UL
LT0
0.50 0.50 0.50 C 1.000 UL
LTa
0.50 0.50 0.50 C 2043 280 M
0 4591 V
stroke
LT0
0.50 0.50 0.50 C 2043 280 M
0 63 V
0 4528 R
0 -63 V
0 -4668 R
( 19.0919) Cshow
1.000 UL
LT0
0.50 0.50 0.50 C 1.000 UL
LTa
0.50 0.50 0.50 C 2082 280 M
0 4591 V
stroke
LT0
0.50 0.50 0.50 C 2082 280 M
0 63 V
0 4528 R
0 -63 V
0 -4668 R
( 19.799) Cshow
1.000 UL
LT0
0.50 0.50 0.50 C 1.000 UL
LTa
0.50 0.50 0.50 C 2122 280 M
0 4591 V
stroke
LT0
0.50 0.50 0.50 C 2122 280 M
0 63 V
0 4528 R
0 -63 V
0 -4668 R
( 20.5061) Cshow
1.000 UL
LT0
0.50 0.50 0.50 C 1.000 UL
LTa
0.50 0.50 0.50 C 2162 280 M
0 4591 V
stroke
LT0
0.50 0.50 0.50 C 2162 280 M
0 63 V
0 4528 R
0 -63 V
0 -4668 R
( 21.2132) Cshow
1.000 UL
LT0
0.50 0.50 0.50 C 1.000 UL
LTa
0.50 0.50 0.50 C 2202 280 M
0 4591 V
stroke
LT0
0.50 0.50 0.50 C 2202 280 M
0 63 V
0 4528 R
0 -63 V
0 -4668 R
( 21.9203) Cshow
1.000 UL
LT0
0.50 0.50 0.50 C 1.000 UL
LTa
0.50 0.50 0.50 C 2242 280 M
0 4591 V
stroke
LT0
0.50 0.50 0.50 C 2242 280 M
0 63 V
0 4528 R
0 -63 V
0 -4668 R
( 22.6274) Cshow
1.000 UL
LT0
0.50 0.50 0.50 C 1.000 UL
LTa
0.50 0.50 0.50 C 2282 280 M
0 4591 V
stroke
LT0
0.50 0.50 0.50 C 2282 280 M
0 63 V
0 4528 R
0 -63 V
0 -4668 R
( 23.3345) Cshow
1.000 UL
LT0
0.50 0.50 0.50 C 1.000 UL
LTa
0.50 0.50 0.50 C 2322 280 M
0 4591 V
stroke
LT0
0.50 0.50 0.50 C 2322 280 M
0 63 V
0 4528 R
0 -63 V
0 -4668 R
( 24.0416) Cshow
1.000 UL
LT0
0.50 0.50 0.50 C 1.000 UL
LTa
0.50 0.50 0.50 C 2362 280 M
0 4591 V
stroke
LT0
0.50 0.50 0.50 C 2362 280 M
0 63 V
0 4528 R
0 -63 V
0 -4668 R
( 24.7487) Cshow
1.000 UL
LT0
0.50 0.50 0.50 C 1.000 UL
LTa
0.50 0.50 0.50 C 2401 280 M
0 4591 V
stroke
LT0
0.50 0.50 0.50 C 2401 280 M
0 63 V
0 4528 R
0 -63 V
0 -4668 R
( 25.4558) Cshow
1.000 UL
LT0
0.50 0.50 0.50 C 1.000 UL
LTa
0.50 0.50 0.50 C 2441 280 M
0 4591 V
stroke
LT0
0.50 0.50 0.50 C 2441 280 M
0 63 V
0 4528 R
0 -63 V
0 -4668 R
( 26.1629) Cshow
1.000 UL
LT0
0.50 0.50 0.50 C 1.000 UL
LTa
0.50 0.50 0.50 C 2481 280 M
0 4591 V
stroke
LT0
0.50 0.50 0.50 C 2481 280 M
0 63 V
0 4528 R
0 -63 V
0 -4668 R
( 26.87) Cshow
1.000 UL
LT0
0.50 0.50 0.50 C 1.000 UL
LTa
0.50 0.50 0.50 C 2521 280 M
0 4591 V
stroke
LT0
0.50 0.50 0.50 C 2521 280 M
0 63 V
0 4528 R
0 -63 V
0 -4668 R
( 27.5771) Cshow
1.000 UL
LT0
0.50 0.50 0.50 C 1.000 UL
LTa
0.50 0.50 0.50 C 2561 280 M
0 4591 V
stroke
LT0
0.50 0.50 0.50 C 2561 280 M
0 63 V
0 4528 R
0 -63 V
0 -4668 R
( 28.2842) Cshow
1.000 UL
LT0
0.50 0.50 0.50 C 1.000 UL
LTa
0.50 0.50 0.50 C 2601 280 M
0 4591 V
stroke
LT0
0.50 0.50 0.50 C 2601 280 M
0 63 V
0 4528 R
0 -63 V
0 -4668 R
( 28.9913) Cshow
1.000 UL
LT0
0.50 0.50 0.50 C 1.000 UL
LTa
0.50 0.50 0.50 C 2641 280 M
0 4591 V
stroke
LT0
0.50 0.50 0.50 C 2641 280 M
0 63 V
0 4528 R
0 -63 V
0 -4668 R
( 29.6985) Cshow
1.000 UL
LT0
0.50 0.50 0.50 C 1.000 UL
LTa
0.50 0.50 0.50 C 2681 280 M
0 4591 V
stroke
LT0
0.50 0.50 0.50 C 2681 280 M
0 63 V
0 4528 R
0 -63 V
0 -4668 R
( 30.4056) Cshow
1.000 UL
LT0
0.50 0.50 0.50 C 1.000 UL
LTa
0.50 0.50 0.50 C 2720 280 M
0 4591 V
stroke
LT0
0.50 0.50 0.50 C 2720 280 M
0 63 V
0 4528 R
0 -63 V
0 -4668 R
( 31.1127) Cshow
1.000 UL
LT0
0.50 0.50 0.50 C 1.000 UL
LTa
0.50 0.50 0.50 C 2760 280 M
0 4591 V
stroke
LT0
0.50 0.50 0.50 C 2760 280 M
0 63 V
0 4528 R
0 -63 V
0 -4668 R
( 31.8198) Cshow
1.000 UL
LT0
0.50 0.50 0.50 C 1.000 UL
LTa
0.50 0.50 0.50 C 2800 280 M
0 4591 V
stroke
LT0
0.50 0.50 0.50 C 2800 280 M
0 63 V
0 4528 R
0 -63 V
0 -4668 R
( 32.5269) Cshow
1.000 UL
LT0
0.50 0.50 0.50 C 1.000 UL
LTa
0.50 0.50 0.50 C 2840 280 M
0 4591 V
stroke
LT0
0.50 0.50 0.50 C 2840 280 M
0 63 V
0 4528 R
0 -63 V
0 -4668 R
( 33.234) Cshow
1.000 UL
LT0
0.50 0.50 0.50 C 1.000 UL
LTa
0.50 0.50 0.50 C 2880 280 M
0 4591 V
stroke
LT0
0.50 0.50 0.50 C 2880 280 M
0 63 V
0 4528 R
0 -63 V
0 -4668 R
( 33.9411) Cshow
1.000 UL
LT0
0.50 0.50 0.50 C 1.000 UL
LTa
0.50 0.50 0.50 C 2920 280 M
0 4591 V
stroke
LT0
0.50 0.50 0.50 C 2920 280 M
0 63 V
0 4528 R
0 -63 V
0 -4668 R
( 34.6482) Cshow
1.000 UL
LT0
0.50 0.50 0.50 C 1.000 UL
LTa
0.50 0.50 0.50 C 2960 280 M
0 4591 V
stroke
LT0
0.50 0.50 0.50 C 2960 280 M
0 63 V
0 4528 R
0 -63 V
0 -4668 R
( 35.3553) Cshow
1.000 UL
LT0
0.50 0.50 0.50 C 1.000 UL
LTa
0.50 0.50 0.50 C 3000 280 M
0 4591 V
stroke
LT0
0.50 0.50 0.50 C 3000 280 M
0 63 V
0 4528 R
0 -63 V
0 -4668 R
( 36.0624) Cshow
1.000 UL
LT0
0.50 0.50 0.50 C 1.000 UL
LTa
0.50 0.50 0.50 C 3039 280 M
0 4591 V
stroke
LT0
0.50 0.50 0.50 C 3039 280 M
0 63 V
0 4528 R
0 -63 V
0 -4668 R
( 36.7695) Cshow
1.000 UL
LT0
0.50 0.50 0.50 C 1.000 UL
LTa
0.50 0.50 0.50 C 3079 280 M
0 4591 V
stroke
LT0
0.50 0.50 0.50 C 3079 280 M
0 63 V
0 4528 R
0 -63 V
0 -4668 R
( 37.4766) Cshow
1.000 UL
LT0
0.50 0.50 0.50 C 1.000 UL
LTa
0.50 0.50 0.50 C 3119 280 M
0 4591 V
stroke
LT0
0.50 0.50 0.50 C 3119 280 M
0 63 V
0 4528 R
0 -63 V
0 -4668 R
( 38.1837) Cshow
1.000 UL
LT0
0.50 0.50 0.50 C 1.000 UL
LTa
0.50 0.50 0.50 C 3159 280 M
0 4591 V
stroke
LT0
0.50 0.50 0.50 C 3159 280 M
0 63 V
0 4528 R
0 -63 V
0 -4668 R
( 38.8908) Cshow
1.000 UL
LT0
0.50 0.50 0.50 C 1.000 UL
LTa
0.50 0.50 0.50 C 3199 280 M
0 4591 V
stroke
LT0
0.50 0.50 0.50 C 3199 280 M
0 63 V
0 4528 R
0 -63 V
0 -4668 R
( 39.5979) Cshow
1.000 UL
LT0
0.50 0.50 0.50 C 1.000 UL
LTa
0.50 0.50 0.50 C 3239 280 M
0 4591 V
stroke
LT0
0.50 0.50 0.50 C 3239 280 M
0 63 V
0 4528 R
0 -63 V
0 -4668 R
( 40.305) Cshow
1.000 UL
LT0
0.50 0.50 0.50 C 1.000 UL
LTa
0.50 0.50 0.50 C 3279 280 M
0 4591 V
stroke
LT0
0.50 0.50 0.50 C 3279 280 M
0 63 V
0 4528 R
0 -63 V
0 -4668 R
( 41.0121) Cshow
1.000 UL
LT0
0.50 0.50 0.50 C 1.000 UL
LTa
0.50 0.50 0.50 C 3319 280 M
0 4591 V
stroke
LT0
0.50 0.50 0.50 C 3319 280 M
0 63 V
0 4528 R
0 -63 V
0 -4668 R
( 41.7193) Cshow
1.000 UL
LT0
0.50 0.50 0.50 C 1.000 UL
LTa
0.50 0.50 0.50 C 3358 280 M
0 4591 V
stroke
LT0
0.50 0.50 0.50 C 3358 280 M
0 63 V
0 4528 R
0 -63 V
0 -4668 R
( 42.4264) Cshow
1.000 UL
LT0
0.50 0.50 0.50 C 1.000 UL
LTa
0.50 0.50 0.50 C 3398 280 M
0 4591 V
stroke
LT0
0.50 0.50 0.50 C 3398 280 M
0 63 V
0 4528 R
0 -63 V
0 -4668 R
( 43.1335) Cshow
1.000 UL
LT0
0.50 0.50 0.50 C 1.000 UL
LTa
0.50 0.50 0.50 C 3438 280 M
0 4591 V
stroke
LT0
0.50 0.50 0.50 C 3438 280 M
0 63 V
0 4528 R
0 -63 V
0 -4668 R
( 43.8406) Cshow
1.000 UL
LT0
0.50 0.50 0.50 C 1.000 UL
LTa
0.50 0.50 0.50 C 3478 280 M
0 4591 V
stroke
LT0
0.50 0.50 0.50 C 3478 280 M
0 63 V
0 4528 R
0 -63 V
0 -4668 R
( 44.5477) Cshow
1.000 UL
LT0
0.50 0.50 0.50 C 1.000 UL
LTa
0.50 0.50 0.50 C 3518 280 M
0 4591 V
stroke
LT0
0.50 0.50 0.50 C 3518 280 M
0 63 V
0 4528 R
0 -63 V
0 -4668 R
( 45.2548) Cshow
1.000 UL
LT0
0.50 0.50 0.50 C 1.000 UL
LTa
0.50 0.50 0.50 C 3558 280 M
0 4591 V
stroke
LT0
0.50 0.50 0.50 C 3558 280 M
0 63 V
0 4528 R
0 -63 V
0 -4668 R
( 45.9619) Cshow
1.000 UL
LT0
0.50 0.50 0.50 C 1.000 UL
LTa
0.50 0.50 0.50 C 3598 280 M
0 4591 V
stroke
LT0
0.50 0.50 0.50 C 3598 280 M
0 63 V
0 4528 R
0 -63 V
0 -4668 R
( 46.669) Cshow
1.000 UL
LT0
0.50 0.50 0.50 C 1.000 UL
LTa
0.50 0.50 0.50 C 3638 280 M
0 4591 V
stroke
LT0
0.50 0.50 0.50 C 3638 280 M
0 63 V
0 4528 R
0 -63 V
0 -4668 R
( 47.3761) Cshow
1.000 UL
LT0
0.50 0.50 0.50 C 1.000 UL
LTa
0.50 0.50 0.50 C 3677 280 M
0 4591 V
stroke
LT0
0.50 0.50 0.50 C 3677 280 M
0 63 V
0 4528 R
0 -63 V
0 -4668 R
( 48.0832) Cshow
1.000 UL
LT0
0.50 0.50 0.50 C 1.000 UL
LTa
0.50 0.50 0.50 C 3717 280 M
0 4591 V
stroke
LT0
0.50 0.50 0.50 C 3717 280 M
0 63 V
0 4528 R
0 -63 V
0 -4668 R
( 48.7903) Cshow
1.000 UL
LT0
0.50 0.50 0.50 C 1.000 UL
LTa
0.50 0.50 0.50 C 3757 280 M
0 4591 V
stroke
LT0
0.50 0.50 0.50 C 3757 280 M
0 63 V
0 4528 R
0 -63 V
0 -4668 R
( 49.4974) Cshow
1.000 UL
LT0
0.50 0.50 0.50 C 1.000 UL
LTa
0.50 0.50 0.50 C 3797 280 M
0 4591 V
stroke
LT0
0.50 0.50 0.50 C 3797 280 M
0 63 V
0 4528 R
0 -63 V
0 -4668 R
( 50.2045) Cshow
1.000 UL
LT0
0.50 0.50 0.50 C 1.000 UL
LTa
0.50 0.50 0.50 C 3837 280 M
0 4591 V
stroke
LT0
0.50 0.50 0.50 C 3837 280 M
0 63 V
0 4528 R
0 -63 V
0 -4668 R
( 50.9116) Cshow
1.000 UL
LT0
0.50 0.50 0.50 C 1.000 UL
LTa
0.50 0.50 0.50 C 3877 280 M
0 4591 V
stroke
LT0
0.50 0.50 0.50 C 3877 280 M
0 63 V
0 4528 R
0 -63 V
0 -4668 R
( 51.6187) Cshow
1.000 UL
LT0
0.50 0.50 0.50 C 1.000 UL
LTa
0.50 0.50 0.50 C 3917 280 M
0 4591 V
stroke
LT0
0.50 0.50 0.50 C 3917 280 M
0 63 V
0 4528 R
0 -63 V
0 -4668 R
( 52.3258) Cshow
1.000 UL
LT0
0.50 0.50 0.50 C 1.000 UL
LTa
0.50 0.50 0.50 C 3957 280 M
0 4591 V
stroke
LT0
0.50 0.50 0.50 C 3957 280 M
0 63 V
0 4528 R
0 -63 V
0 -4668 R
( 53.033) Cshow
1.000 UL
LT0
0.50 0.50 0.50 C 1.000 UL
LTa
0.50 0.50 0.50 C 3996 280 M
0 4591 V
stroke
LT0
0.50 0.50 0.50 C 3996 280 M
0 63 V
0 4528 R
0 -63 V
0 -4668 R
( 53.7401) Cshow
1.000 UL
LT0
0.50 0.50 0.50 C 1.000 UL
LTa
0.50 0.50 0.50 C 4036 280 M
0 4591 V
stroke
LT0
0.50 0.50 0.50 C 4036 280 M
0 63 V
0 4528 R
0 -63 V
0 -4668 R
( 54.4472) Cshow
1.000 UL
LT0
0.50 0.50 0.50 C 1.000 UL
LTa
0.50 0.50 0.50 C 4076 280 M
0 4591 V
stroke
LT0
0.50 0.50 0.50 C 4076 280 M
0 63 V
0 4528 R
0 -63 V
0 -4668 R
( 55.1543) Cshow
1.000 UL
LT0
0.50 0.50 0.50 C 1.000 UL
LTa
0.50 0.50 0.50 C 4116 280 M
0 4591 V
stroke
LT0
0.50 0.50 0.50 C 4116 280 M
0 63 V
0 4528 R
0 -63 V
0 -4668 R
( 55.8614) Cshow
1.000 UL
LT0
0.50 0.50 0.50 C 1.000 UL
LTa
0.50 0.50 0.50 C 4156 280 M
0 4591 V
stroke
LT0
0.50 0.50 0.50 C 4156 280 M
0 63 V
0 4528 R
0 -63 V
0 -4668 R
( 56.5685) Cshow
1.000 UL
LT0
0.50 0.50 0.50 C 1.000 UL
LTa
0.50 0.50 0.50 C 4196 280 M
0 4591 V
stroke
LT0
0.50 0.50 0.50 C 4196 280 M
0 63 V
0 4528 R
0 -63 V
0 -4668 R
( 57.2756) Cshow
1.000 UL
LT0
0.50 0.50 0.50 C 1.000 UL
LTa
0.50 0.50 0.50 C 4236 280 M
0 4591 V
stroke
LT0
0.50 0.50 0.50 C 4236 280 M
0 63 V
0 4528 R
0 -63 V
0 -4668 R
( 57.9827) Cshow
1.000 UL
LT0
0.50 0.50 0.50 C 1.000 UL
LTa
0.50 0.50 0.50 C 4275 280 M
0 4591 V
stroke
LT0
0.50 0.50 0.50 C 4275 280 M
0 63 V
0 4528 R
0 -63 V
0 -4668 R
( 58.6898) Cshow
1.000 UL
LT0
0.50 0.50 0.50 C 1.000 UL
LTa
0.50 0.50 0.50 C 4315 280 M
0 4591 V
stroke
LT0
0.50 0.50 0.50 C 4315 280 M
0 63 V
0 4528 R
0 -63 V
0 -4668 R
( 59.3969) Cshow
1.000 UL
LT0
0.50 0.50 0.50 C 1.000 UL
LTa
0.50 0.50 0.50 C 4355 280 M
0 4591 V
stroke
LT0
0.50 0.50 0.50 C 4355 280 M
0 63 V
0 4528 R
0 -63 V
0 -4668 R
( 60.104) Cshow
1.000 UL
LT0
0.50 0.50 0.50 C 1.000 UL
LTa
0.50 0.50 0.50 C 4395 280 M
0 4591 V
stroke
LT0
0.50 0.50 0.50 C 4395 280 M
0 63 V
0 4528 R
0 -63 V
0 -4668 R
( 60.8111) Cshow
1.000 UL
LT0
0.50 0.50 0.50 C 1.000 UL
LTa
0.50 0.50 0.50 C 4435 280 M
0 4591 V
stroke
LT0
0.50 0.50 0.50 C 4435 280 M
0 63 V
0 4528 R
0 -63 V
0 -4668 R
( 61.5182) Cshow
1.000 UL
LT0
0.50 0.50 0.50 C 1.000 UL
LTa
0.50 0.50 0.50 C 4475 280 M
0 4591 V
stroke
LT0
0.50 0.50 0.50 C 4475 280 M
0 63 V
0 4528 R
0 -63 V
0 -4668 R
( 62.2253) Cshow
1.000 UL
LT0
0.50 0.50 0.50 C 1.000 UL
LTa
0.50 0.50 0.50 C 4515 280 M
0 4591 V
stroke
LT0
0.50 0.50 0.50 C 4515 280 M
0 63 V
0 4528 R
0 -63 V
0 -4668 R
( 62.9324) Cshow
1.000 UL
LT0
0.50 0.50 0.50 C 1.000 UL
LTa
0.50 0.50 0.50 C 4555 280 M
0 4591 V
stroke
LT0
0.50 0.50 0.50 C 4555 280 M
0 63 V
0 4528 R
0 -63 V
0 -4668 R
( 63.6395) Cshow
1.000 UL
LT0
0.50 0.50 0.50 C 1.000 UL
LTa
0.50 0.50 0.50 C 4594 280 M
0 4591 V
stroke
LT0
0.50 0.50 0.50 C 4594 280 M
0 63 V
0 4528 R
0 -63 V
0 -4668 R
( 64.3466) Cshow
1.000 UL
LT0
0.50 0.50 0.50 C 1.000 UL
LTa
0.50 0.50 0.50 C 4634 280 M
0 4591 V
stroke
LT0
0.50 0.50 0.50 C 4634 280 M
0 63 V
0 4528 R
0 -63 V
0 -4668 R
( 65.0538) Cshow
1.000 UL
LT0
0.50 0.50 0.50 C 1.000 UL
LTa
0.50 0.50 0.50 C 4674 280 M
0 4591 V
stroke
LT0
0.50 0.50 0.50 C 4674 280 M
0 63 V
0 4528 R
0 -63 V
0 -4668 R
( 65.7609) Cshow
1.000 UL
LT0
0.50 0.50 0.50 C 1.000 UL
LTa
0.50 0.50 0.50 C 4714 280 M
0 4591 V
stroke
LT0
0.50 0.50 0.50 C 4714 280 M
0 63 V
0 4528 R
0 -63 V
0 -4668 R
( 66.468) Cshow
1.000 UL
LT0
0.50 0.50 0.50 C 1.000 UL
LTa
0.50 0.50 0.50 C 4754 280 M
0 4591 V
stroke
LT0
0.50 0.50 0.50 C 4754 280 M
0 63 V
0 4528 R
0 -63 V
0 -4668 R
( 67.1751) Cshow
1.000 UL
LT0
0.50 0.50 0.50 C 1.000 UL
LTa
0.50 0.50 0.50 C 4794 280 M
0 4591 V
stroke
LT0
0.50 0.50 0.50 C 4794 280 M
0 63 V
0 4528 R
0 -63 V
0 -4668 R
( 67.8822) Cshow
1.000 UL
LT0
0.50 0.50 0.50 C 1.000 UL
LTa
0.50 0.50 0.50 C 4834 280 M
0 4591 V
stroke
LT0
0.50 0.50 0.50 C 4834 280 M
0 63 V
0 4528 R
0 -63 V
0 -4668 R
( 68.5893) Cshow
1.000 UL
LT0
0.50 0.50 0.50 C 1.000 UL
LTa
0.50 0.50 0.50 C 4874 280 M
0 4591 V
stroke
LT0
0.50 0.50 0.50 C 4874 280 M
0 63 V
0 4528 R
0 -63 V
0 -4668 R
( 69.2964) Cshow
1.000 UL
LT0
0.50 0.50 0.50 C 1.000 UL
LTa
0.50 0.50 0.50 C 4913 280 M
0 4591 V
stroke
LT0
0.50 0.50 0.50 C 4913 280 M
0 63 V
0 4528 R
0 -63 V
0 -4668 R
( 70.0035) Cshow
1.000 UL
LT0
0.50 0.50 0.50 C 1.000 UL
LTa
0.50 0.50 0.50 C 4953 280 M
0 4591 V
stroke
LT0
0.50 0.50 0.50 C 4953 280 M
0 63 V
0 4528 R
0 -63 V
0 -4668 R
( 70.7106) Cshow
1.000 UL
LT0
0.50 0.50 0.50 C 1.000 UL
LTa
0.50 0.50 0.50 C 4993 280 M
0 4591 V
stroke
LT0
0.50 0.50 0.50 C 4993 280 M
0 63 V
0 4528 R
0 -63 V
0 -4668 R
( 71.4177) Cshow
1.000 UL
LT0
0.50 0.50 0.50 C 1.000 UL
LTa
0.50 0.50 0.50 C 5033 280 M
0 4591 V
stroke
LT0
0.50 0.50 0.50 C 5033 280 M
0 63 V
0 4528 R
0 -63 V
0 -4668 R
( 72.1248) Cshow
1.000 UL
LT0
0.50 0.50 0.50 C 1.000 UL
LTa
0.50 0.50 0.50 C 5073 280 M
0 4591 V
stroke
LT0
0.50 0.50 0.50 C 5073 280 M
0 63 V
0 4528 R
0 -63 V
0 -4668 R
( 72.8319) Cshow
1.000 UL
LT0
0.50 0.50 0.50 C 1.000 UL
LTa
0.50 0.50 0.50 C 5113 280 M
0 4591 V
stroke
LT0
0.50 0.50 0.50 C 5113 280 M
0 63 V
0 4528 R
0 -63 V
0 -4668 R
( 73.539) Cshow
1.000 UL
LT0
0.50 0.50 0.50 C 1.000 UL
LTa
0.50 0.50 0.50 C 5153 280 M
0 4591 V
stroke
LT0
0.50 0.50 0.50 C 5153 280 M
0 63 V
0 4528 R
0 -63 V
0 -4668 R
( 74.2461) Cshow
1.000 UL
LT0
0.50 0.50 0.50 C 1.000 UL
LTa
0.50 0.50 0.50 C 5193 280 M
0 4591 V
stroke
LT0
0.50 0.50 0.50 C 5193 280 M
0 63 V
0 4528 R
0 -63 V
0 -4668 R
( 74.9532) Cshow
1.000 UL
LT0
0.50 0.50 0.50 C 1.000 UL
LTa
0.50 0.50 0.50 C 5232 280 M
0 4591 V
stroke
LT0
0.50 0.50 0.50 C 5232 280 M
0 63 V
0 4528 R
0 -63 V
0 -4668 R
( 75.6603) Cshow
1.000 UL
LT0
0.50 0.50 0.50 C 1.000 UL
LTa
0.50 0.50 0.50 C 5272 280 M
0 4591 V
stroke
LT0
0.50 0.50 0.50 C 5272 280 M
0 63 V
0 4528 R
0 -63 V
0 -4668 R
( 76.3674) Cshow
1.000 UL
LT0
0.50 0.50 0.50 C 1.000 UL
LTa
0.50 0.50 0.50 C 5312 280 M
0 4591 V
stroke
LT0
0.50 0.50 0.50 C 5312 280 M
0 63 V
0 4528 R
0 -63 V
0 -4668 R
( 77.0746) Cshow
1.000 UL
LT0
0.50 0.50 0.50 C 1.000 UL
LTa
0.50 0.50 0.50 C 5352 280 M
0 4591 V
stroke
LT0
0.50 0.50 0.50 C 5352 280 M
0 63 V
0 4528 R
0 -63 V
0 -4668 R
( 77.7817) Cshow
1.000 UL
LT0
0.50 0.50 0.50 C 1.000 UL
LTa
0.50 0.50 0.50 C 5392 280 M
0 4591 V
stroke
LT0
0.50 0.50 0.50 C 5392 280 M
0 63 V
0 4528 R
0 -63 V
0 -4668 R
( 78.4888) Cshow
1.000 UL
LT0
0.50 0.50 0.50 C 1.000 UL
LTa
0.50 0.50 0.50 C 5432 280 M
0 4591 V
stroke
LT0
0.50 0.50 0.50 C 5432 280 M
0 63 V
0 4528 R
0 -63 V
0 -4668 R
( 79.1959) Cshow
1.000 UL
LT0
0.50 0.50 0.50 C 1.000 UL
LTa
0.50 0.50 0.50 C 5472 280 M
0 4591 V
stroke
LT0
0.50 0.50 0.50 C 5472 280 M
0 63 V
0 4528 R
0 -63 V
0 -4668 R
( 79.903) Cshow
1.000 UL
LT0
0.50 0.50 0.50 C 1.000 UL
LTa
0.50 0.50 0.50 C 5512 280 M
0 4591 V
stroke
LT0
0.50 0.50 0.50 C 5512 280 M
0 63 V
0 4528 R
0 -63 V
0 -4668 R
( 80.6101) Cshow
1.000 UL
LT0
0.50 0.50 0.50 C 1.000 UL
LTa
0.50 0.50 0.50 C 5551 280 M
0 4591 V
stroke
LT0
0.50 0.50 0.50 C 5551 280 M
0 63 V
0 4528 R
0 -63 V
0 -4668 R
( 81.3172) Cshow
1.000 UL
LT0
0.50 0.50 0.50 C 1.000 UL
LTa
0.50 0.50 0.50 C 5591 280 M
0 4591 V
stroke
LT0
0.50 0.50 0.50 C 5591 280 M
0 63 V
0 4528 R
0 -63 V
0 -4668 R
( 82.0243) Cshow
1.000 UL
LT0
0.50 0.50 0.50 C 1.000 UL
LTa
0.50 0.50 0.50 C 5631 280 M
0 4591 V
stroke
LT0
0.50 0.50 0.50 C 5631 280 M
0 63 V
0 4528 R
0 -63 V
0 -4668 R
( 82.7314) Cshow
1.000 UL
LT0
0.50 0.50 0.50 C 1.000 UL
LTa
0.50 0.50 0.50 C 5671 280 M
0 4591 V
stroke
LT0
0.50 0.50 0.50 C 5671 280 M
0 63 V
0 4528 R
0 -63 V
0 -4668 R
( 83.4385) Cshow
1.000 UL
LT0
0.50 0.50 0.50 C 1.000 UL
LTa
0.50 0.50 0.50 C 5711 280 M
0 4591 V
stroke
LT0
0.50 0.50 0.50 C 5711 280 M
0 63 V
0 4528 R
0 -63 V
0 -4668 R
( 84.1456) Cshow
1.000 UL
LT0
0.50 0.50 0.50 C 1.000 UL
LTa
0.50 0.50 0.50 C 5751 280 M
0 4591 V
stroke
LT0
0.50 0.50 0.50 C 5751 280 M
0 63 V
0 4528 R
0 -63 V
0 -4668 R
( 84.8527) Cshow
1.000 UL
LT0
0.50 0.50 0.50 C 1.000 UL
LTa
0.50 0.50 0.50 C 5791 280 M
0 4591 V
stroke
LT0
0.50 0.50 0.50 C 5791 280 M
0 63 V
0 4528 R
0 -63 V
0 -4668 R
( 85.5598) Cshow
1.000 UL
LT0
0.50 0.50 0.50 C 1.000 UL
LTa
0.50 0.50 0.50 C 5831 280 M
0 4591 V
stroke
LT0
0.50 0.50 0.50 C 5831 280 M
0 63 V
0 4528 R
0 -63 V
0 -4668 R
( 86.2669) Cshow
1.000 UL
LT0
0.50 0.50 0.50 C 1.000 UL
LTa
0.50 0.50 0.50 C 5870 280 M
0 4591 V
stroke
LT0
0.50 0.50 0.50 C 5870 280 M
0 63 V
0 4528 R
0 -63 V
0 -4668 R
( 86.974) Cshow
1.000 UL
LT0
0.50 0.50 0.50 C 1.000 UL
LTa
0.50 0.50 0.50 C 5910 280 M
0 4591 V
stroke
LT0
0.50 0.50 0.50 C 5910 280 M
0 63 V
0 4528 R
0 -63 V
0 -4668 R
( 87.6811) Cshow
1.000 UL
LT0
0.50 0.50 0.50 C 1.000 UL
LTa
0.50 0.50 0.50 C 5950 280 M
0 4591 V
stroke
LT0
0.50 0.50 0.50 C 5950 280 M
0 63 V
0 4528 R
0 -63 V
0 -4668 R
( 88.3882) Cshow
1.000 UL
LT0
0.50 0.50 0.50 C 1.000 UL
LTa
0.50 0.50 0.50 C 5990 280 M
0 4591 V
stroke
LT0
0.50 0.50 0.50 C 5990 280 M
0 63 V
0 4528 R
0 -63 V
0 -4668 R
( 89.0954) Cshow
1.000 UL
LT0
0.50 0.50 0.50 C 1.000 UL
LTa
0.50 0.50 0.50 C 6030 280 M
0 4591 V
stroke
LT0
0.50 0.50 0.50 C 6030 280 M
0 63 V
0 4528 R
0 -63 V
0 -4668 R
( 89.8025) Cshow
1.000 UL
LT0
0.50 0.50 0.50 C 1.000 UL
LTa
0.50 0.50 0.50 C 6070 280 M
0 4591 V
stroke
LT0
0.50 0.50 0.50 C 6070 280 M
0 63 V
0 4528 R
0 -63 V
0 -4668 R
( 90.5096) Cshow
1.000 UL
LT0
0.50 0.50 0.50 C 1.000 UL
LTa
0.50 0.50 0.50 C 6110 280 M
0 4591 V
stroke
LT0
0.50 0.50 0.50 C 6110 280 M
0 63 V
0 4528 R
0 -63 V
0 -4668 R
( 91.2167) Cshow
1.000 UL
LT0
0.50 0.50 0.50 C 1.000 UL
LTa
0.50 0.50 0.50 C 6150 280 M
0 4591 V
stroke
LT0
0.50 0.50 0.50 C 6150 280 M
0 63 V
0 4528 R
0 -63 V
0 -4668 R
( 91.9238) Cshow
1.000 UL
LT0
0.50 0.50 0.50 C 1.000 UL
LTa
0.50 0.50 0.50 C 6189 280 M
0 4591 V
stroke
LT0
0.50 0.50 0.50 C 6189 280 M
0 63 V
0 4528 R
0 -63 V
0 -4668 R
( 92.6309) Cshow
1.000 UL
LT0
0.50 0.50 0.50 C 1.000 UL
LTa
0.50 0.50 0.50 C 6229 280 M
0 4591 V
stroke
LT0
0.50 0.50 0.50 C 6229 280 M
0 63 V
0 4528 R
0 -63 V
0 -4668 R
( 93.338) Cshow
1.000 UL
LT0
0.50 0.50 0.50 C 1.000 UL
LTa
0.50 0.50 0.50 C 6269 280 M
0 4591 V
stroke
LT0
0.50 0.50 0.50 C 6269 280 M
0 63 V
0 4528 R
0 -63 V
0 -4668 R
( 94.0451) Cshow
1.000 UL
LT0
0.50 0.50 0.50 C 1.000 UL
LTa
0.50 0.50 0.50 C 6309 280 M
0 4591 V
stroke
LT0
0.50 0.50 0.50 C 6309 280 M
0 63 V
0 4528 R
0 -63 V
0 -4668 R
( 94.7522) Cshow
1.000 UL
LT0
0.50 0.50 0.50 C 1.000 UL
LTa
0.50 0.50 0.50 C 6349 280 M
0 4591 V
stroke
LT0
0.50 0.50 0.50 C 6349 280 M
0 63 V
0 4528 R
0 -63 V
0 -4668 R
( 95.4593) Cshow
1.000 UL
LT0
0.50 0.50 0.50 C 1.000 UL
LTa
0.50 0.50 0.50 C 6389 280 M
0 4591 V
stroke
LT0
0.50 0.50 0.50 C 6389 280 M
0 63 V
0 4528 R
0 -63 V
0 -4668 R
( 96.1664) Cshow
1.000 UL
LT0
0.50 0.50 0.50 C 1.000 UL
LTa
0.50 0.50 0.50 C 6429 280 M
0 4591 V
stroke
LT0
0.50 0.50 0.50 C 6429 280 M
0 63 V
0 4528 R
0 -63 V
0 -4668 R
( 96.8735) Cshow
1.000 UL
LT0
0.50 0.50 0.50 C 1.000 UL
LTa
0.50 0.50 0.50 C 6469 280 M
0 4591 V
stroke
LT0
0.50 0.50 0.50 C 6469 280 M
0 63 V
0 4528 R
0 -63 V
0 -4668 R
( 97.5806) Cshow
1.000 UL
LT0
0.50 0.50 0.50 C 1.000 UL
LTa
0.50 0.50 0.50 C 6508 280 M
0 4591 V
stroke
LT0
0.50 0.50 0.50 C 6508 280 M
0 63 V
0 4528 R
0 -63 V
0 -4668 R
( 98.2877) Cshow
1.000 UL
LT0
0.50 0.50 0.50 C 1.000 UL
LTa
0.50 0.50 0.50 C 6548 280 M
0 4591 V
stroke
LT0
0.50 0.50 0.50 C 6548 280 M
0 63 V
0 4528 R
0 -63 V
0 -4668 R
( 98.9948) Cshow
1.000 UL
LT0
0.50 0.50 0.50 C 1.000 UL
LTa
0.50 0.50 0.50 C 6588 280 M
0 4591 V
stroke
LT0
0.50 0.50 0.50 C 6588 280 M
0 63 V
0 4528 R
0 -63 V
0 -4668 R
( 99.7019) Cshow
1.000 UL
LT0
0.50 0.50 0.50 C 1.000 UL
LTa
0.50 0.50 0.50 C 6628 280 M
0 4591 V
stroke
LT0
0.50 0.50 0.50 C 6628 280 M
0 63 V
0 4528 R
0 -63 V
0 -4668 R
( 100.409) Cshow
1.000 UL
LT0
0.50 0.50 0.50 C 1.000 UL
LTa
0.50 0.50 0.50 C 6668 280 M
0 4591 V
stroke
LT0
0.50 0.50 0.50 C 6668 280 M
0 63 V
0 4528 R
0 -63 V
0 -4668 R
( 101.116) Cshow
1.000 UL
LT0
0.50 0.50 0.50 C 1.000 UL
LTa
0.50 0.50 0.50 C 6708 280 M
0 4591 V
stroke
LT0
0.50 0.50 0.50 C 6708 280 M
0 63 V
0 4528 R
0 -63 V
0 -4668 R
( 101.823) Cshow
1.000 UL
LT0
0.50 0.50 0.50 C 1.000 UL
LTa
0.50 0.50 0.50 C 6748 280 M
0 4591 V
stroke
LT0
0.50 0.50 0.50 C 6748 280 M
0 63 V
0 4528 R
0 -63 V
0 -4668 R
( 102.53) Cshow
1.000 UL
LT0
0.50 0.50 0.50 C 1.000 UL
LTa
0.50 0.50 0.50 C 6788 280 M
0 4591 V
stroke
LT0
0.50 0.50 0.50 C 6788 280 M
0 63 V
0 4528 R
0 -63 V
0 -4668 R
( 103.237) Cshow
1.000 UL
LT0
0.50 0.50 0.50 C 1.000 UL
LTa
0.50 0.50 0.50 C 6827 280 M
0 4591 V
stroke
LT0
0.50 0.50 0.50 C 6827 280 M
0 63 V
0 4528 R
0 -63 V
0 -4668 R
( 103.945) Cshow
1.000 UL
LT0
0.50 0.50 0.50 C 1.000 UL
LTa
0.50 0.50 0.50 C 6867 280 M
0 4591 V
stroke
LT0
0.50 0.50 0.50 C 6867 280 M
0 63 V
0 4528 R
0 -63 V
0 -4668 R
( 104.652) Cshow
1.000 UL
LT0
0.50 0.50 0.50 C 1.000 UL
LTa
0.50 0.50 0.50 C 6907 280 M
0 4591 V
stroke
LT0
0.50 0.50 0.50 C 6907 280 M
0 63 V
0 4528 R
0 -63 V
0 -4668 R
( 105.359) Cshow
1.000 UL
LT0
0.50 0.50 0.50 C 1.000 UL
LTa
0.50 0.50 0.50 C 6947 280 M
0 4591 V
stroke
LT0
0.50 0.50 0.50 C 6947 280 M
0 63 V
0 4528 R
0 -63 V
0 -4668 R
( 106.066) Cshow
1.000 UL
LT0
0.50 0.50 0.50 C 1.000 UL
LT0
0.50 0.50 0.50 C 966 4871 M
966 280 L
5981 0 V
0 4591 R
-5981 0 R
1.000 UP
stroke
LT0
0.50 0.50 0.50 C % Begin plot #1
1.500 UP
2.000 UL
LT0
0.00 0.00 1.00 C /Helvetica findfont 140 scalefont setfont
/vshift -46 def
1205 341 M
40 0 V
40 0 V
40 0 V
40 0 V
40 0 V
39 0 V
0 92 R
40 0 V
0 31 R
40 0 V
40 0 V
0 61 R
40 0 V
0 245 R
40 0 V
40 0 V
40 0 V
0 61 R
39 0 V
40 0 V
40 0 V
40 0 V
40 0 V
40 0 V
40 0 V
0 61 R
40 0 V
39 0 V
40 0 V
0 123 R
40 0 V
40 0 V
40 0 V
40 0 V
40 0 V
40 0 V
39 0 V
40 0 V
40 0 V
40 0 V
40 0 V
40 0 V
40 0 V
40 0 V
39 0 V
0 30 R
40 0 V
40 0 V
40 0 V
40 0 V
40 0 V
40 0 V
40 0 V
39 0 V
40 0 V
40 0 V
0 123 R
40 0 V
40 0 V
40 0 V
40 0 V
40 0 V
39 0 V
40 0 V
0 30 R
40 0 V
0 245 R
40 0 V
40 0 V
40 0 V
40 0 V
0 31 R
40 0 V
39 0 V
40 0 V
0 30 R
40 0 V
40 0 V
40 0 V
0 92 R
40 0 V
0 31 R
40 0 V
0 92 R
40 0 V
0 30 R
39 0 V
40 0 V
0 214 R
40 0 V
0 31 R
40 0 V
0 214 R
40 0 V
0 306 R
40 0 V
40 0 V
0 31 R
39 0 V
0 31 R
40 0 V
0 30 R
40 0 V
40 0 V
stroke 4395 2606 M
40 0 V
40 0 V
40 0 V
0 61 R
40 0 V
39 0 V
0 31 R
40 0 V
40 0 V
40 0 V
40 0 V
40 0 V
40 0 V
40 0 V
39 0 V
40 0 V
40 0 V
0 31 R
40 0 V
0 30 R
40 0 V
0 123 R
40 0 V
0 91 R
40 0 V
0 276 R
40 0 V
39 0 V
40 0 V
40 0 V
40 0 V
40 0 V
40 0 V
40 0 V
0 183 R
40 0 V
0 123 R
39 0 V
0 306 R
40 0 V
40 0 V
40 0 V
0 31 R
40 0 V
40 0 V
40 0 V
40 0 V
0 734 R
39 0 V
40 0 V
40 0 V
40 0 V
40 0 V
40 0 V
0 31 R
40 0 V
40 0 V
39 0 V
40 0 V
40 0 V
40 0 V
40 0 V
0 61 R
40 0 V
0 31 R
40 0 V
0 30 R
40 0 V
39 0 V
0 31 R
40 0 V
40 0 V
40 0 V
40 0 V
40 0 V
40 0 V
39 0 V
40 0 V
966 280 M
40 0 V
6867 4840 M
40 0 V
1006 280 M
40 0 V
40 0 V
39 0 V
40 0 V
40 0 V
6827 4840 M
40 0 V
1205 280 M
0 31 V
0 30 V
239 0 R
0 31 V
0 30 V
0 31 V
40 0 R
0 31 V
80 0 R
0 30 V
0 31 V
40 0 R
0 30 V
stroke 1604 555 M
0 31 V
0 31 V
0 30 V
0 31 V
0 30 V
0 31 V
0 31 V
120 0 R
0 30 V
0 31 V
279 0 R
0 31 V
0 30 V
119 0 R
0 31 V
0 30 V
0 31 V
0 31 V
598 0 R
0 30 V
399 0 R
0 31 V
0 30 V
0 31 V
0 31 V
279 0 R
0 30 V
40 0 R
0 31 V
0 30 V
0 31 V
0 31 V
0 30 V
0 31 V
0 30 V
0 31 V
160 0 R
0 31 V
119 0 R
0 30 V
120 0 R
0 31 V
0 30 V
0 31 V
40 0 R
0 31 V
40 0 R
0 30 V
0 31 V
0 31 V
40 0 R
0 30 V
79 0 R
0 31 V
0 30 V
0 31 V
0 31 V
0 30 V
0 31 V
0 30 V
40 0 R
0 31 V
40 0 R
0 31 V
0 30 V
0 31 V
0 30 V
0 31 V
0 31 V
0 30 V
40 0 R
0 31 V
0 30 V
0 31 V
0 31 V
0 30 V
0 31 V
0 30 V
0 31 V
0 31 V
0 30 V
80 0 R
0 31 V
39 0 R
0 31 V
40 0 R
0 30 V
200 0 R
0 31 V
0 30 V
79 0 R
0 31 V
399 0 R
0 31 V
40 0 R
0 30 V
40 0 R
0 31 V
0 30 V
0 31 V
0 31 V
40 0 R
0 30 V
0 31 V
stroke 5113 2943 M
0 30 V
40 0 R
0 31 V
0 31 V
0 30 V
0 31 V
0 30 V
0 31 V
0 31 V
0 30 V
0 31 V
319 0 R
0 30 V
0 31 V
0 31 V
0 30 V
0 31 V
0 30 V
40 0 R
0 31 V
0 31 V
0 30 V
0 31 V
39 0 R
0 31 V
0 30 V
0 31 V
0 30 V
0 31 V
0 31 V
0 30 V
0 31 V
0 30 V
0 31 V
120 0 R
0 31 V
160 0 R
0 30 V
0 31 V
0 30 V
0 31 V
0 31 V
0 30 V
0 31 V
0 30 V
0 31 V
0 31 V
0 30 V
0 31 V
0 30 V
0 31 V
0 31 V
0 30 V
0 31 V
0 31 V
0 30 V
0 31 V
0 30 V
0 31 V
0 31 V
0 30 V
239 0 R
0 31 V
279 0 R
0 30 V
0 31 V
40 0 R
0 31 V
40 0 R
0 30 V
79 0 R
0 31 V
319 0 R
0 30 V
1205 341 CircleF
1245 341 CircleF
1245 341 CircleF
1285 341 CircleF
1285 341 CircleF
1325 341 CircleF
1325 341 CircleF
1365 341 CircleF
1365 341 CircleF
1405 341 CircleF
1405 341 CircleF
1444 341 CircleF
1444 433 CircleF
1484 433 CircleF
1484 464 CircleF
1524 464 CircleF
1524 464 CircleF
1564 464 CircleF
1564 525 CircleF
1604 525 CircleF
1604 770 CircleF
1644 770 CircleF
1644 770 CircleF
1684 770 CircleF
1684 770 CircleF
1724 770 CircleF
1724 831 CircleF
1763 831 CircleF
1763 831 CircleF
1803 831 CircleF
1803 831 CircleF
1843 831 CircleF
1843 831 CircleF
1883 831 CircleF
1883 831 CircleF
1923 831 CircleF
1923 831 CircleF
1963 831 CircleF
1963 831 CircleF
2003 831 CircleF
2003 892 CircleF
2043 892 CircleF
2043 892 CircleF
2082 892 CircleF
2082 892 CircleF
2122 892 CircleF
2122 1015 CircleF
2162 1015 CircleF
2162 1015 CircleF
2202 1015 CircleF
2202 1015 CircleF
2242 1015 CircleF
2242 1015 CircleF
2282 1015 CircleF
2282 1015 CircleF
2322 1015 CircleF
2322 1015 CircleF
2362 1015 CircleF
2362 1015 CircleF
2401 1015 CircleF
2401 1015 CircleF
2441 1015 CircleF
2441 1015 CircleF
2481 1015 CircleF
2481 1015 CircleF
2521 1015 CircleF
2521 1015 CircleF
2561 1015 CircleF
2561 1015 CircleF
2601 1015 CircleF
2601 1015 CircleF
2641 1015 CircleF
2641 1015 CircleF
2681 1015 CircleF
2681 1015 CircleF
2720 1015 CircleF
2720 1045 CircleF
2760 1045 CircleF
2760 1045 CircleF
2800 1045 CircleF
2800 1045 CircleF
2840 1045 CircleF
2840 1045 CircleF
2880 1045 CircleF
2880 1045 CircleF
2920 1045 CircleF
2920 1045 CircleF
2960 1045 CircleF
2960 1045 CircleF
3000 1045 CircleF
3000 1045 CircleF
3039 1045 CircleF
3039 1045 CircleF
3079 1045 CircleF
3079 1045 CircleF
3119 1045 CircleF
3119 1168 CircleF
3159 1168 CircleF
3159 1168 CircleF
3199 1168 CircleF
3199 1168 CircleF
3239 1168 CircleF
3239 1168 CircleF
3279 1168 CircleF
3279 1168 CircleF
3319 1168 CircleF
3319 1168 CircleF
3358 1168 CircleF
3358 1168 CircleF
3398 1168 CircleF
3398 1198 CircleF
3438 1198 CircleF
3438 1443 CircleF
3478 1443 CircleF
3478 1443 CircleF
3518 1443 CircleF
3518 1443 CircleF
3558 1443 CircleF
3558 1443 CircleF
3598 1443 CircleF
3598 1474 CircleF
3638 1474 CircleF
3638 1474 CircleF
3677 1474 CircleF
3677 1474 CircleF
3717 1474 CircleF
3717 1504 CircleF
3757 1504 CircleF
3757 1504 CircleF
3797 1504 CircleF
3797 1504 CircleF
3837 1504 CircleF
3837 1596 CircleF
3877 1596 CircleF
3877 1627 CircleF
3917 1627 CircleF
3917 1719 CircleF
3957 1719 CircleF
3957 1749 CircleF
3996 1749 CircleF
3996 1749 CircleF
4036 1749 CircleF
4036 1963 CircleF
4076 1963 CircleF
4076 1994 CircleF
4116 1994 CircleF
4116 2208 CircleF
4156 2208 CircleF
4156 2514 CircleF
4196 2514 CircleF
4196 2514 CircleF
4236 2514 CircleF
4236 2545 CircleF
4275 2545 CircleF
4275 2576 CircleF
4315 2576 CircleF
4315 2606 CircleF
4355 2606 CircleF
4355 2606 CircleF
4395 2606 CircleF
4395 2606 CircleF
4435 2606 CircleF
4435 2606 CircleF
4475 2606 CircleF
4475 2606 CircleF
4515 2606 CircleF
4515 2667 CircleF
4555 2667 CircleF
4555 2667 CircleF
4594 2667 CircleF
4594 2698 CircleF
4634 2698 CircleF
4634 2698 CircleF
4674 2698 CircleF
4674 2698 CircleF
4714 2698 CircleF
4714 2698 CircleF
4754 2698 CircleF
4754 2698 CircleF
4794 2698 CircleF
4794 2698 CircleF
4834 2698 CircleF
4834 2698 CircleF
4874 2698 CircleF
4874 2698 CircleF
4913 2698 CircleF
4913 2698 CircleF
4953 2698 CircleF
4953 2698 CircleF
4993 2698 CircleF
4993 2729 CircleF
5033 2729 CircleF
5033 2759 CircleF
5073 2759 CircleF
5073 2882 CircleF
5113 2882 CircleF
5113 2973 CircleF
5153 2973 CircleF
5153 3249 CircleF
5193 3249 CircleF
5193 3249 CircleF
5232 3249 CircleF
5232 3249 CircleF
5272 3249 CircleF
5272 3249 CircleF
5312 3249 CircleF
5312 3249 CircleF
5352 3249 CircleF
5352 3249 CircleF
5392 3249 CircleF
5392 3249 CircleF
5432 3249 CircleF
5432 3249 CircleF
5472 3249 CircleF
5472 3432 CircleF
5512 3432 CircleF
5512 3555 CircleF
5551 3555 CircleF
5551 3861 CircleF
5591 3861 CircleF
5591 3861 CircleF
5631 3861 CircleF
5631 3861 CircleF
5671 3861 CircleF
5671 3892 CircleF
5711 3892 CircleF
5711 3892 CircleF
5751 3892 CircleF
5751 3892 CircleF
5791 3892 CircleF
5791 3892 CircleF
5831 3892 CircleF
5831 4626 CircleF
5870 4626 CircleF
5870 4626 CircleF
5910 4626 CircleF
5910 4626 CircleF
5950 4626 CircleF
5950 4626 CircleF
5990 4626 CircleF
5990 4626 CircleF
6030 4626 CircleF
6030 4626 CircleF
6070 4626 CircleF
6070 4657 CircleF
6110 4657 CircleF
6110 4657 CircleF
6150 4657 CircleF
6150 4657 CircleF
6189 4657 CircleF
6189 4657 CircleF
6229 4657 CircleF
6229 4657 CircleF
6269 4657 CircleF
6269 4657 CircleF
6309 4657 CircleF
6309 4657 CircleF
6349 4657 CircleF
6349 4718 CircleF
6389 4718 CircleF
6389 4749 CircleF
6429 4749 CircleF
6429 4779 CircleF
6469 4779 CircleF
6469 4779 CircleF
6508 4779 CircleF
6508 4810 CircleF
6548 4810 CircleF
6548 4810 CircleF
6588 4810 CircleF
6588 4810 CircleF
6628 4810 CircleF
6628 4810 CircleF
6668 4810 CircleF
6668 4810 CircleF
6708 4810 CircleF
6708 4810 CircleF
6748 4810 CircleF
6748 4810 CircleF
6787 4810 CircleF
6787 4810 CircleF
6827 4810 CircleF
966 280 CircleF
1006 280 CircleF
6867 4840 CircleF
6907 4840 CircleF
1006 280 CircleF
1046 280 CircleF
1046 280 CircleF
1086 280 CircleF
1086 280 CircleF
1125 280 CircleF
1125 280 CircleF
1165 280 CircleF
1165 280 CircleF
1205 280 CircleF
6827 4840 CircleF
6867 4840 CircleF
1205 280 CircleF
1205 311 CircleF
1205 311 CircleF
1205 341 CircleF
1444 341 CircleF
1444 372 CircleF
1444 372 CircleF
1444 402 CircleF
1444 402 CircleF
1444 433 CircleF
1484 433 CircleF
1484 464 CircleF
1564 464 CircleF
1564 494 CircleF
1564 494 CircleF
1564 525 CircleF
1604 525 CircleF
1604 555 CircleF
1604 555 CircleF
1604 586 CircleF
1604 586 CircleF
1604 617 CircleF
1604 617 CircleF
1604 647 CircleF
1604 647 CircleF
1604 678 CircleF
1604 678 CircleF
1604 708 CircleF
1604 708 CircleF
1604 739 CircleF
1604 739 CircleF
1604 770 CircleF
1724 770 CircleF
1724 800 CircleF
1724 800 CircleF
1724 831 CircleF
2003 831 CircleF
2003 862 CircleF
2003 862 CircleF
2003 892 CircleF
2122 892 CircleF
2122 923 CircleF
2122 923 CircleF
2122 953 CircleF
2122 953 CircleF
2122 984 CircleF
2122 984 CircleF
2122 1015 CircleF
2720 1015 CircleF
2720 1045 CircleF
3119 1045 CircleF
3119 1076 CircleF
3119 1076 CircleF
3119 1106 CircleF
3119 1106 CircleF
3119 1137 CircleF
3119 1137 CircleF
3119 1168 CircleF
3398 1168 CircleF
3398 1198 CircleF
3438 1198 CircleF
3438 1229 CircleF
3438 1229 CircleF
3438 1259 CircleF
3438 1259 CircleF
3438 1290 CircleF
3438 1290 CircleF
3438 1321 CircleF
3438 1321 CircleF
3438 1351 CircleF
3438 1351 CircleF
3438 1382 CircleF
3438 1382 CircleF
3438 1412 CircleF
3438 1412 CircleF
3438 1443 CircleF
3598 1443 CircleF
3598 1474 CircleF
3717 1474 CircleF
3717 1504 CircleF
3837 1504 CircleF
3837 1535 CircleF
3837 1535 CircleF
3837 1565 CircleF
3837 1565 CircleF
3837 1596 CircleF
3877 1596 CircleF
3877 1627 CircleF
3917 1627 CircleF
3917 1657 CircleF
3917 1657 CircleF
3917 1688 CircleF
3917 1688 CircleF
3917 1719 CircleF
3957 1719 CircleF
3957 1749 CircleF
4036 1749 CircleF
4036 1780 CircleF
4036 1780 CircleF
4036 1810 CircleF
4036 1810 CircleF
4036 1841 CircleF
4036 1841 CircleF
4036 1872 CircleF
4036 1872 CircleF
4036 1902 CircleF
4036 1902 CircleF
4036 1933 CircleF
4036 1933 CircleF
4036 1963 CircleF
4076 1963 CircleF
4076 1994 CircleF
4116 1994 CircleF
4116 2025 CircleF
4116 2025 CircleF
4116 2055 CircleF
4116 2055 CircleF
4116 2086 CircleF
4116 2086 CircleF
4116 2116 CircleF
4116 2116 CircleF
4116 2147 CircleF
4116 2147 CircleF
4116 2178 CircleF
4116 2178 CircleF
4116 2208 CircleF
4156 2208 CircleF
4156 2239 CircleF
4156 2239 CircleF
4156 2269 CircleF
4156 2269 CircleF
4156 2300 CircleF
4156 2300 CircleF
4156 2331 CircleF
4156 2331 CircleF
4156 2361 CircleF
4156 2361 CircleF
4156 2392 CircleF
4156 2392 CircleF
4156 2422 CircleF
4156 2422 CircleF
4156 2453 CircleF
4156 2453 CircleF
4156 2484 CircleF
4156 2484 CircleF
4156 2514 CircleF
4236 2514 CircleF
4236 2545 CircleF
4275 2545 CircleF
4275 2576 CircleF
4315 2576 CircleF
4315 2606 CircleF
4515 2606 CircleF
4515 2637 CircleF
4515 2637 CircleF
4515 2667 CircleF
4594 2667 CircleF
4594 2698 CircleF
4993 2698 CircleF
4993 2729 CircleF
5033 2729 CircleF
5033 2759 CircleF
5073 2759 CircleF
5073 2790 CircleF
5073 2790 CircleF
5073 2820 CircleF
5073 2820 CircleF
5073 2851 CircleF
5073 2851 CircleF
5073 2882 CircleF
5113 2882 CircleF
5113 2912 CircleF
5113 2912 CircleF
5113 2943 CircleF
5113 2943 CircleF
5113 2973 CircleF
5153 2973 CircleF
5153 3004 CircleF
5153 3004 CircleF
5153 3035 CircleF
5153 3035 CircleF
5153 3065 CircleF
5153 3065 CircleF
5153 3096 CircleF
5153 3096 CircleF
5153 3126 CircleF
5153 3126 CircleF
5153 3157 CircleF
5153 3157 CircleF
5153 3188 CircleF
5153 3188 CircleF
5153 3218 CircleF
5153 3218 CircleF
5153 3249 CircleF
5472 3249 CircleF
5472 3279 CircleF
5472 3279 CircleF
5472 3310 CircleF
5472 3310 CircleF
5472 3341 CircleF
5472 3341 CircleF
5472 3371 CircleF
5472 3371 CircleF
5472 3402 CircleF
5472 3402 CircleF
5472 3432 CircleF
5512 3432 CircleF
5512 3463 CircleF
5512 3463 CircleF
5512 3494 CircleF
5512 3494 CircleF
5512 3524 CircleF
5512 3524 CircleF
5512 3555 CircleF
5551 3555 CircleF
5551 3586 CircleF
5551 3586 CircleF
5551 3616 CircleF
5551 3616 CircleF
5551 3647 CircleF
5551 3647 CircleF
5551 3677 CircleF
5551 3677 CircleF
5551 3708 CircleF
5551 3708 CircleF
5551 3739 CircleF
5551 3739 CircleF
5551 3769 CircleF
5551 3769 CircleF
5551 3800 CircleF
5551 3800 CircleF
5551 3830 CircleF
5551 3830 CircleF
5551 3861 CircleF
5671 3861 CircleF
5671 3892 CircleF
5831 3892 CircleF
5831 3922 CircleF
5831 3922 CircleF
5831 3953 CircleF
5831 3953 CircleF
5831 3983 CircleF
5831 3983 CircleF
5831 4014 CircleF
5831 4014 CircleF
5831 4045 CircleF
5831 4045 CircleF
5831 4075 CircleF
5831 4075 CircleF
5831 4106 CircleF
5831 4106 CircleF
5831 4136 CircleF
5831 4136 CircleF
5831 4167 CircleF
5831 4167 CircleF
5831 4198 CircleF
5831 4198 CircleF
5831 4228 CircleF
5831 4228 CircleF
5831 4259 CircleF
5831 4259 CircleF
5831 4289 CircleF
5831 4289 CircleF
5831 4320 CircleF
5831 4320 CircleF
5831 4351 CircleF
5831 4351 CircleF
5831 4381 CircleF
5831 4381 CircleF
5831 4412 CircleF
5831 4412 CircleF
5831 4443 CircleF
5831 4443 CircleF
5831 4473 CircleF
5831 4473 CircleF
5831 4504 CircleF
5831 4504 CircleF
5831 4534 CircleF
5831 4534 CircleF
5831 4565 CircleF
5831 4565 CircleF
5831 4596 CircleF
5831 4596 CircleF
5831 4626 CircleF
6070 4626 CircleF
6070 4657 CircleF
6349 4657 CircleF
6349 4687 CircleF
6349 4687 CircleF
6349 4718 CircleF
6389 4718 CircleF
6389 4749 CircleF
6429 4749 CircleF
6429 4779 CircleF
6508 4779 CircleF
6508 4810 CircleF
6827 4810 CircleF
6827 4840 CircleF
% End plot #1
% Begin plot #2
1.500 UP
2.000 UL
LT0
1.00 0.55 0.00 C /Helvetica findfont 140 scalefont setfont
6729 3316 M
40 31 V
5077 4259 M
40 31 V
6315 1535 M
40 31 V
3104 1156 M
40 30 V
2030 565 R
39 31 V
3773 4477 M
40 31 V
594 -106 R
40 31 V
5610 924 M
40 31 V
4982 805 M
40 31 V
2929 2428 M
39 30 V
-11 343 R
40 31 V
1879 844 R
40 31 V
3261 486 M
39 30 V
5062 2114 M
40 30 V
2447 2467 M
40 30 V
2777 848 M
40 30 V
5342 2644 M
40 31 V
3381 675 M
40 31 V
5567 3995 M
40 30 V
5520 396 M
40 31 V
1431 1171 M
39 31 V
34 1184 R
40 30 V
1398 146 R
39 31 V
2781 1588 M
40 30 V
5016 4481 M
40 31 V
3033 3058 M
40 30 V
628 201 R
40 31 V
4955 2670 M
40 31 V
2700 3664 M
40 31 V
6768 2671 M
40 30 V
2123 2930 M
40 30 V
6419 4566 M
40 30 V
4898 1380 M
40 30 V
56 -396 R
40 30 V
708 1806 R
40 31 V
3707 2745 M
40 31 V
2579 828 R
40 30 V
244 -942 R
40 31 V
5804 4222 M
40 31 V
5282 1822 M
40 31 V
340 -580 R
40 31 V
4342 714 M
40 30 V
5761 2916 M
40 30 V
5347 4568 M
40 30 V
3611 1956 M
40 31 V
1817 1759 M
39 31 V
5674 1139 M
40 31 V
4974 2971 M
40 30 V
2107 4064 M
40 30 V
47 -1359 R
40 31 V
6625 2422 M
40 31 V
3861 3532 M
39 31 V
3131 3220 M
39 30 V
stroke 3170 3250 M
6208 2101 M
40 31 V
5668 3352 M
40 30 V
-953 704 R
40 31 V
5251 663 M
40 30 V
2774 2153 M
40 30 V
4591 1262 M
40 31 V
2418 1639 M
40 31 V
893 1150 R
40 30 V
2166 664 M
40 31 V
4561 2643 M
40 31 V
5802 3920 M
40 31 V
1458 821 M
40 30 V
3525 165 R
39 30 V
1792 2158 M
39 30 V
11 -578 R
40 30 V
4562 4482 M
40 31 V
2902 3682 M
40 31 V
4141 2484 M
40 31 V
1929 613 M
40 31 V
3459 2857 M
40 31 V
3126 1026 M
40 31 V
4822 3488 M
40 31 V
2026 1918 M
40 31 V
1684 465 M
40 31 V
3499 1782 M
40 30 V
2724 1639 M
40 30 V
2288 4708 M
40 31 V
3780 1328 M
39 31 V
909 1938 R
40 30 V
1874 545 R
40 31 V
57 -101 R
40 31 V
3380 1946 M
40 30 V
6132 1575 M
40 31 V
4911 3910 M
40 31 V
6831 816 M
40 30 V
1450 3044 M
40 30 V
5852 413 M
40 31 V
3180 2792 M
40 30 V
6377 4712 M
40 31 V
6751 3561 M
39 31 V
1617 1089 M
40 30 V
6287 2632 M
40 30 V
5892 4207 M
40 30 V
-1178 86 R
40 31 V
5263 1017 M
40 31 V
5077 2814 M
40 31 V
3818 2426 M
39 30 V
4953 912 M
40 31 V
3775 2494 M
40 30 V
5564 3857 M
40 31 V
3759 4320 M
40 30 V
1720 792 M
40 31 V
stroke 1760 823 M
4870 2993 M
40 31 V
3489 2533 M
40 31 V
1709 364 M
39 31 V
2963 2701 M
40 30 V
2303 28 R
40 30 V
2452 286 M
40 31 V
2242 4719 M
39 31 V
2029 2841 M
40 30 V
4096 4339 M
40 31 V
2216 608 M
40 30 V
3782 1913 M
40 31 V
-2155 43 R
39 31 V
1204 54 R
40 30 V
5378 1775 M
40 31 V
1585 1615 M
40 30 V
3975 57 R
40 30 V
13 2796 R
40 30 V
2021 355 M
40 31 V
6125 1680 M
40 30 V
-3984 65 R
40 31 V
5913 4610 M
40 31 V
1608 2360 M
40 31 V
4973 937 M
40 31 V
3232 1155 M
40 30 V
2060 3638 M
40 31 V
1596 894 R
40 31 V
5361 3616 M
40 30 V
114 -102 R
40 30 V
4037 1436 M
39 31 V
597 225 R
40 30 V
3446 606 M
40 31 V
-721 741 R
40 30 V
539 1269 R
39 31 V
6802 1040 M
40 31 V
3046 1037 M
40 30 V
738 2187 R
40 31 V
69 -1555 R
40 31 V
2975 999 M
40 31 V
6347 2741 M
40 31 V
4013 401 M
40 30 V
1468 1474 M
40 31 V
4978 468 M
39 31 V
3525 3412 M
40 31 V
2821 2036 M
40 31 V
6781 4124 M
40 31 V
3731 4639 M
40 31 V
2118 3862 M
40 31 V
4017 1110 M
40 30 V
-215 59 R
40 30 V
2482 2707 M
39 30 V
1672 4150 M
40 30 V
5360 430 M
40 30 V
stroke 5400 460 M
1335 3071 M
40 31 V
521 757 R
40 30 V
3478 2567 M
40 31 V
5800 1196 M
40 31 V
4783 3957 M
40 31 V
3131 1149 M
40 31 V
6778 4466 M
40 30 V
1948 1846 M
40 31 V
5794 832 M
40 31 V
-391 411 R
40 30 V
172 90 R
40 31 V
2849 566 M
40 31 V
5231 3088 M
40 30 V
3568 3034 M
40 30 V
5736 4263 M
40 31 V
-359 -65 R
40 30 V
5796 2459 M
40 31 V
3758 3758 M
40 31 V
-632 736 R
40 30 V
3423 3431 M
40 31 V
3679 830 M
40 31 V
5726 2028 M
40 31 V
3252 2371 M
39 31 V
3440 544 R
40 31 V
3407 1193 M
40 31 V
808 509 R
40 30 V
3117 4768 M
39 31 V
5191 3800 M
40 31 V
2909 2847 M
40 30 V
4008 2719 M
40 30 V
1054 154 R
40 31 V
3224 3343 M
39 31 V
2476 335 R
40 31 V
3169 1617 M
40 31 V
5702 881 M
40 31 V
3871 1613 M
40 31 V
671 1095 R
40 30 V
6425 372 M
40 31 V
3628 2462 M
40 31 V
4329 960 M
40 31 V
958 1615 R
40 31 V
1537 4638 M
40 30 V
6695 1961 M
40 30 V
2714 2366 M
40 31 V
415 -409 R
40 31 V
4295 4680 M
40 30 V
3266 1664 M
40 30 V
4523 381 M
40 30 V
918 3018 R
39 31 V
6350 370 M
40 31 V
1422 3608 M
40 31 V
3149 295 M
39 31 V
stroke 3188 326 M
2349 2197 M
40 30 V
5619 4441 M
40 30 V
2149 992 M
39 30 V
5940 3998 M
40 31 V
5495 1930 M
40 31 V
2705 1014 M
40 30 V
1453 410 R
40 31 V
143 2737 R
39 31 V
-506 231 R
40 31 V
2471 665 M
39 31 V
6519 673 M
40 31 V
2482 1418 M
40 30 V
2128 977 R
40 31 V
3030 1269 M
39 31 V
-400 28 R
40 31 V
-815 781 R
40 31 V
4297 638 R
39 31 V
4831 4060 M
40 31 V
3554 4632 M
40 30 V
2694 656 M
40 31 V
2942 433 M
40 30 V
2045 1465 M
40 30 V
1883 3606 M
40 31 V
655 483 R
39 31 V
-120 -37 R
40 31 V
3967 870 M
40 31 V
2658 380 M
40 30 V
1585 981 M
40 30 V
2057 154 R
39 31 V
5438 3243 M
40 31 V
918 1461 R
40 31 V
2888 3574 M
39 30 V
4536 2205 M
39 31 V
6720 3673 M
40 31 V
2932 4230 M
40 31 V
6824 906 M
40 31 V
4097 4443 M
39 31 V
1244 4317 M
40 31 V
5062 3786 M
40 30 V
6499 701 M
39 30 V
5985 2527 M
40 31 V
5037 4262 M
40 31 V
5058 2860 M
40 31 V
45 331 R
40 31 V
3696 1464 M
40 30 V
6539 1307 M
40 30 V
5221 3649 M
40 31 V
5229 1643 M
40 30 V
-644 439 R
40 31 V
3585 3942 M
39 31 V
3450 1779 M
40 30 V
540 1365 R
40 30 V
stroke 4070 3204 M
1185 2506 M
39 31 V
3935 19 R
39 30 V
1566 698 M
40 31 V
5108 894 M
40 31 V
2956 4312 M
40 30 V
129 -480 R
39 31 V
5744 2006 M
40 31 V
4332 874 M
40 31 V
3467 2181 M
40 31 V
1661 3025 M
40 31 V
4726 1188 M
40 31 V
2177 2972 M
40 31 V
6584 2279 M
40 30 V
3068 4788 M
40 31 V
1525 449 M
40 31 V
2694 -5 R
40 31 V
1954 3105 M
40 30 V
5814 4559 M
40 30 V
3011 1244 M
40 30 V
3240 968 M
40 30 V
6718 3613 M
39 30 V
5040 4043 M
40 30 V
3542 3729 M
40 31 V
5831 1628 M
40 30 V
5669 3886 M
40 30 V
-635 406 R
40 30 V
4142 2214 M
40 30 V
1502 2344 M
40 31 V
3865 138 R
40 31 V
2116 899 M
40 30 V
1214 815 M
39 31 V
5094 2600 M
40 30 V
2103 972 M
40 31 V
622 28 R
40 31 V
6052 4616 M
40 31 V
5123 3459 M
40 31 V
4131 2236 M
40 30 V
-131 879 R
40 30 V
2527 2841 M
40 30 V
6729 3316 CircleF
6769 3347 CircleF
5077 4259 CircleF
5117 4290 CircleF
6315 1535 CircleF
6355 1566 CircleF
3104 1156 CircleF
3144 1186 CircleF
5174 1751 CircleF
5213 1782 CircleF
3773 4477 CircleF
3813 4508 CircleF
4407 4402 CircleF
4447 4433 CircleF
5610 924 CircleF
5650 955 CircleF
4982 805 CircleF
5022 836 CircleF
2929 2428 CircleF
2968 2458 CircleF
2957 2801 CircleF
2997 2832 CircleF
4876 3676 CircleF
4916 3707 CircleF
3261 486 CircleF
3300 516 CircleF
5062 2114 CircleF
5102 2144 CircleF
2447 2467 CircleF
2487 2497 CircleF
2777 848 CircleF
2817 878 CircleF
5342 2644 CircleF
5382 2675 CircleF
3381 675 CircleF
3421 706 CircleF
5567 3995 CircleF
5607 4025 CircleF
5520 396 CircleF
5560 427 CircleF
1431 1171 CircleF
1470 1202 CircleF
1504 2386 CircleF
1544 2416 CircleF
2942 2562 CircleF
2981 2593 CircleF
2781 1588 CircleF
2821 1618 CircleF
5016 4481 CircleF
5056 4512 CircleF
3033 3058 CircleF
3073 3088 CircleF
3701 3289 CircleF
3741 3320 CircleF
4955 2670 CircleF
4995 2701 CircleF
2700 3664 CircleF
2740 3695 CircleF
6768 2671 CircleF
6808 2701 CircleF
2123 2930 CircleF
2163 2960 CircleF
6419 4566 CircleF
6459 4596 CircleF
4898 1380 CircleF
4938 1410 CircleF
4994 1014 CircleF
5034 1044 CircleF
5742 2850 CircleF
5782 2881 CircleF
3707 2745 CircleF
3747 2776 CircleF
6326 3604 CircleF
6366 3634 CircleF
6610 2692 CircleF
6650 2723 CircleF
5804 4222 CircleF
5844 4253 CircleF
5282 1822 CircleF
5322 1853 CircleF
5662 1273 CircleF
5702 1304 CircleF
4342 714 CircleF
4382 744 CircleF
5761 2916 CircleF
5801 2946 CircleF
5347 4568 CircleF
5387 4598 CircleF
3611 1956 CircleF
3651 1987 CircleF
1817 1759 CircleF
1856 1790 CircleF
5674 1139 CircleF
5714 1170 CircleF
4974 2971 CircleF
5014 3001 CircleF
2107 4064 CircleF
2147 4094 CircleF
2194 2735 CircleF
2234 2766 CircleF
6625 2422 CircleF
6665 2453 CircleF
3861 3532 CircleF
3900 3563 CircleF
3131 3220 CircleF
3170 3250 CircleF
6208 2101 CircleF
6248 2132 CircleF
5668 3352 CircleF
5708 3382 CircleF
4755 4086 CircleF
4795 4117 CircleF
5251 663 CircleF
5291 693 CircleF
2774 2153 CircleF
2814 2183 CircleF
4591 1262 CircleF
4631 1293 CircleF
2418 1639 CircleF
2458 1670 CircleF
3351 2820 CircleF
3391 2850 CircleF
2166 664 CircleF
2206 695 CircleF
4561 2643 CircleF
4601 2674 CircleF
5802 3920 CircleF
5842 3951 CircleF
1458 821 CircleF
1498 851 CircleF
5023 1016 CircleF
5062 1046 CircleF
1792 2158 CircleF
1831 2188 CircleF
1842 1610 CircleF
1882 1640 CircleF
4562 4482 CircleF
4602 4513 CircleF
2902 3682 CircleF
2942 3713 CircleF
4141 2484 CircleF
4181 2515 CircleF
1929 613 CircleF
1969 644 CircleF
3459 2857 CircleF
3499 2888 CircleF
3126 1026 CircleF
3166 1057 CircleF
4822 3488 CircleF
4862 3519 CircleF
2026 1918 CircleF
2066 1949 CircleF
1684 465 CircleF
1724 496 CircleF
3499 1782 CircleF
3539 1812 CircleF
2724 1639 CircleF
2764 1669 CircleF
2288 4708 CircleF
2328 4739 CircleF
3780 1328 CircleF
3819 1359 CircleF
4728 3297 CircleF
4768 3327 CircleF
6642 3872 CircleF
6682 3903 CircleF
6739 3802 CircleF
6779 3833 CircleF
3380 1946 CircleF
3420 1976 CircleF
6132 1575 CircleF
6172 1606 CircleF
4911 3910 CircleF
4951 3941 CircleF
6831 816 CircleF
6871 846 CircleF
1450 3044 CircleF
1490 3074 CircleF
5852 413 CircleF
5892 444 CircleF
3180 2792 CircleF
3220 2822 CircleF
6377 4712 CircleF
6417 4743 CircleF
6751 3561 CircleF
6790 3592 CircleF
1617 1089 CircleF
1657 1119 CircleF
6287 2632 CircleF
6327 2662 CircleF
5892 4207 CircleF
5932 4237 CircleF
4754 4323 CircleF
4794 4354 CircleF
5263 1017 CircleF
5303 1048 CircleF
5077 2814 CircleF
5117 2845 CircleF
3818 2426 CircleF
3857 2456 CircleF
4953 912 CircleF
4993 943 CircleF
3775 2494 CircleF
3815 2524 CircleF
5564 3857 CircleF
5604 3888 CircleF
3759 4320 CircleF
3799 4350 CircleF
1720 792 CircleF
1760 823 CircleF
4870 2993 CircleF
4910 3024 CircleF
3489 2533 CircleF
3529 2564 CircleF
1709 364 CircleF
1748 395 CircleF
2963 2701 CircleF
3003 2731 CircleF
5306 2759 CircleF
5346 2789 CircleF
2452 286 CircleF
2492 317 CircleF
2242 4719 CircleF
2281 4750 CircleF
2029 2841 CircleF
2069 2871 CircleF
4096 4339 CircleF
4136 4370 CircleF
2216 608 CircleF
2256 638 CircleF
3782 1913 CircleF
3822 1944 CircleF
1667 1987 CircleF
1706 2018 CircleF
2910 2072 CircleF
2950 2102 CircleF
5378 1775 CircleF
5418 1806 CircleF
1585 1615 CircleF
1625 1645 CircleF
5600 1702 CircleF
5640 1732 CircleF
5653 4528 CircleF
5693 4558 CircleF
2021 355 CircleF
2061 386 CircleF
6125 1680 CircleF
6165 1710 CircleF
2181 1775 CircleF
2221 1806 CircleF
5913 4610 CircleF
5953 4641 CircleF
1608 2360 CircleF
1648 2391 CircleF
4973 937 CircleF
5013 968 CircleF
3232 1155 CircleF
3272 1185 CircleF
2060 3638 CircleF
2100 3669 CircleF
3696 4563 CircleF
3736 4594 CircleF
5361 3616 CircleF
5401 3646 CircleF
5515 3544 CircleF
5555 3574 CircleF
4037 1436 CircleF
4076 1467 CircleF
4673 1692 CircleF
4713 1722 CircleF
3446 606 CircleF
3486 637 CircleF
2765 1378 CircleF
2805 1408 CircleF
3344 2677 CircleF
3383 2708 CircleF
6802 1040 CircleF
6842 1071 CircleF
3046 1037 CircleF
3086 1067 CircleF
3824 3254 CircleF
3864 3285 CircleF
3933 1730 CircleF
3973 1761 CircleF
2975 999 CircleF
3015 1030 CircleF
6347 2741 CircleF
6387 2772 CircleF
4013 401 CircleF
4053 431 CircleF
1468 1474 CircleF
1508 1505 CircleF
4978 468 CircleF
5017 499 CircleF
3525 3412 CircleF
3565 3443 CircleF
2821 2036 CircleF
2861 2067 CircleF
6781 4124 CircleF
6821 4155 CircleF
3731 4639 CircleF
3771 4670 CircleF
2118 3862 CircleF
2158 3893 CircleF
4017 1110 CircleF
4057 1140 CircleF
3842 1199 CircleF
3882 1229 CircleF
2482 2707 CircleF
2521 2737 CircleF
1672 4150 CircleF
1712 4180 CircleF
5360 430 CircleF
5400 460 CircleF
1335 3071 CircleF
1375 3102 CircleF
1896 3859 CircleF
1936 3889 CircleF
3478 2567 CircleF
3518 2598 CircleF
5800 1196 CircleF
5840 1227 CircleF
4783 3957 CircleF
4823 3988 CircleF
3131 1149 CircleF
3171 1180 CircleF
6778 4466 CircleF
6818 4496 CircleF
1948 1846 CircleF
1988 1877 CircleF
5794 832 CircleF
5834 863 CircleF
5443 1274 CircleF
5483 1304 CircleF
5655 1394 CircleF
5695 1425 CircleF
2849 566 CircleF
2889 597 CircleF
5231 3088 CircleF
5271 3118 CircleF
3568 3034 CircleF
3608 3064 CircleF
5736 4263 CircleF
5776 4294 CircleF
5417 4229 CircleF
5457 4259 CircleF
5796 2459 CircleF
5836 2490 CircleF
3758 3758 CircleF
3798 3789 CircleF
3166 4525 CircleF
3206 4555 CircleF
3423 3431 CircleF
3463 3462 CircleF
3679 830 CircleF
3719 861 CircleF
5726 2028 CircleF
5766 2059 CircleF
3252 2371 CircleF
3291 2402 CircleF
6731 2946 CircleF
6771 2977 CircleF
3407 1193 CircleF
3447 1224 CircleF
4255 1733 CircleF
4295 1763 CircleF
3117 4768 CircleF
3156 4799 CircleF
5191 3800 CircleF
5231 3831 CircleF
2909 2847 CircleF
2949 2877 CircleF
4008 2719 CircleF
4048 2749 CircleF
5102 2903 CircleF
5142 2934 CircleF
3224 3343 CircleF
3263 3374 CircleF
5739 3709 CircleF
5779 3740 CircleF
3169 1617 CircleF
3209 1648 CircleF
5702 881 CircleF
5742 912 CircleF
3871 1613 CircleF
3911 1644 CircleF
4582 2739 CircleF
4622 2769 CircleF
6425 372 CircleF
6465 403 CircleF
3628 2462 CircleF
3668 2493 CircleF
4329 960 CircleF
4369 991 CircleF
5327 2606 CircleF
5367 2637 CircleF
1537 4638 CircleF
1577 4668 CircleF
6695 1961 CircleF
6735 1991 CircleF
2714 2366 CircleF
2754 2397 CircleF
3169 1988 CircleF
3209 2019 CircleF
4295 4680 CircleF
4335 4710 CircleF
3266 1664 CircleF
3306 1694 CircleF
4523 381 CircleF
4563 411 CircleF
5481 3429 CircleF
5520 3460 CircleF
6350 370 CircleF
6390 401 CircleF
1422 3608 CircleF
1462 3639 CircleF
3149 295 CircleF
3188 326 CircleF
2349 2197 CircleF
2389 2227 CircleF
5619 4441 CircleF
5659 4471 CircleF
2149 992 CircleF
2188 1022 CircleF
5940 3998 CircleF
5980 4029 CircleF
5495 1930 CircleF
5535 1961 CircleF
2705 1014 CircleF
2745 1044 CircleF
4198 1454 CircleF
4238 1485 CircleF
4381 4222 CircleF
4420 4253 CircleF
3914 4484 CircleF
3954 4515 CircleF
2471 665 CircleF
2510 696 CircleF
6519 673 CircleF
6559 704 CircleF
2482 1418 CircleF
2522 1448 CircleF
4650 2425 CircleF
4690 2456 CircleF
3030 1269 CircleF
3069 1300 CircleF
2669 1328 CircleF
2709 1359 CircleF
1894 2140 CircleF
1934 2171 CircleF
6231 2809 CircleF
6270 2840 CircleF
4831 4060 CircleF
4871 4091 CircleF
3554 4632 CircleF
3594 4662 CircleF
2694 656 CircleF
2734 687 CircleF
2942 433 CircleF
2982 463 CircleF
2045 1465 CircleF
2085 1495 CircleF
1883 3606 CircleF
1923 3637 CircleF
2578 4120 CircleF
2617 4151 CircleF
2497 4114 CircleF
2537 4145 CircleF
3967 870 CircleF
4007 901 CircleF
2658 380 CircleF
2698 410 CircleF
1585 981 CircleF
1625 1011 CircleF
3682 1165 CircleF
3721 1196 CircleF
5438 3243 CircleF
5478 3274 CircleF
6396 4735 CircleF
6436 4766 CircleF
2888 3574 CircleF
2927 3604 CircleF
4536 2205 CircleF
4575 2236 CircleF
6720 3673 CircleF
6760 3704 CircleF
2932 4230 CircleF
2972 4261 CircleF
6824 906 CircleF
6864 937 CircleF
4097 4443 CircleF
4136 4474 CircleF
1244 4317 CircleF
1284 4348 CircleF
5062 3786 CircleF
5102 3816 CircleF
6499 701 CircleF
6538 731 CircleF
5985 2527 CircleF
6025 2558 CircleF
5037 4262 CircleF
5077 4293 CircleF
5058 2860 CircleF
5098 2891 CircleF
5143 3222 CircleF
5183 3253 CircleF
3696 1464 CircleF
3736 1494 CircleF
6539 1307 CircleF
6579 1337 CircleF
5221 3649 CircleF
5261 3680 CircleF
5229 1643 CircleF
5269 1673 CircleF
4625 2112 CircleF
4665 2143 CircleF
3585 3942 CircleF
3624 3973 CircleF
3450 1779 CircleF
3490 1809 CircleF
4030 3174 CircleF
4070 3204 CircleF
1185 2506 CircleF
1224 2537 CircleF
5159 2556 CircleF
5198 2586 CircleF
1566 698 CircleF
1606 729 CircleF
5108 894 CircleF
5148 925 CircleF
2956 4312 CircleF
2996 4342 CircleF
3125 3862 CircleF
3164 3893 CircleF
5744 2006 CircleF
5784 2037 CircleF
4332 874 CircleF
4372 905 CircleF
3467 2181 CircleF
3507 2212 CircleF
1661 3025 CircleF
1701 3056 CircleF
4726 1188 CircleF
4766 1219 CircleF
2177 2972 CircleF
2217 3003 CircleF
6584 2279 CircleF
6624 2309 CircleF
3068 4788 CircleF
3108 4819 CircleF
1525 449 CircleF
1565 480 CircleF
4259 475 CircleF
4299 506 CircleF
1954 3105 CircleF
1994 3135 CircleF
5814 4559 CircleF
5854 4589 CircleF
3011 1244 CircleF
3051 1274 CircleF
3240 968 CircleF
3280 998 CircleF
6718 3613 CircleF
6757 3643 CircleF
5040 4043 CircleF
5080 4073 CircleF
3542 3729 CircleF
3582 3760 CircleF
5831 1628 CircleF
5871 1658 CircleF
5669 3886 CircleF
5709 3916 CircleF
5074 4322 CircleF
5114 4352 CircleF
4142 2214 CircleF
4182 2244 CircleF
1502 2344 CircleF
1542 2375 CircleF
5407 2513 CircleF
5447 2544 CircleF
2116 899 CircleF
2156 929 CircleF
1214 815 CircleF
1253 846 CircleF
5094 2600 CircleF
5134 2630 CircleF
2103 972 CircleF
2143 1003 CircleF
2765 1031 CircleF
2805 1062 CircleF
6052 4616 CircleF
6092 4647 CircleF
5123 3459 CircleF
5163 3490 CircleF
4131 2236 CircleF
4171 2266 CircleF
4040 3145 CircleF
4080 3175 CircleF
2527 2841 CircleF
2567 2871 CircleF
% End plot #2
1.000 UP
1.000 UL
LT0
0.50 0.50 0.50 C stroke
grestore
end
showpage
%%Trailer
%%DocumentFonts: Helvetica
%%Pages: 1
