%!PS-Adobe-2.0
%%Title: out.ps
%%Creator: gnuplot 4.6 patchlevel 6
%%CreationDate: Thu May 28 18:54:25 2015
%%DocumentFonts: (atend)
%%BoundingBox: 50 50 554 770
%%Orientation: Landscape
%%Pages: (atend)
%%EndComments
%%BeginProlog
/gnudict 256 dict def
gnudict begin
%
% The following true/false flags may be edited by hand if desired.
% The unit line width and grayscale image gamma correction may also be changed.
%
/Color false def
/Blacktext false def
/Solid false def
/Dashlength 1 def
/Landscape true def
/Level1 false def
/Rounded false def
/ClipToBoundingBox false def
/SuppressPDFMark false def
/TransparentPatterns false def
/gnulinewidth 5.000 def
/userlinewidth gnulinewidth def
/Gamma 1.0 def
/BackgroundColor {-1.000 -1.000 -1.000} def
%
/vshift -46 def
/dl1 {
  10.0 Dashlength mul mul
  Rounded { currentlinewidth 0.75 mul sub dup 0 le { pop 0.01 } if } if
} def
/dl2 {
  10.0 Dashlength mul mul
  Rounded { currentlinewidth 0.75 mul add } if
} def
/hpt_ 31.5 def
/vpt_ 31.5 def
/hpt hpt_ def
/vpt vpt_ def
/doclip {
  ClipToBoundingBox {
    newpath 50 50 moveto 554 50 lineto 554 770 lineto 50 770 lineto closepath
    clip
  } if
} def
%
% Gnuplot Prolog Version 4.6 (September 2012)
%
%/SuppressPDFMark true def
%
/M {moveto} bind def
/L {lineto} bind def
/R {rmoveto} bind def
/V {rlineto} bind def
/N {newpath moveto} bind def
/Z {closepath} bind def
/C {setrgbcolor} bind def
/f {rlineto fill} bind def
/g {setgray} bind def
/Gshow {show} def   % May be redefined later in the file to support UTF-8
/vpt2 vpt 2 mul def
/hpt2 hpt 2 mul def
/Lshow {currentpoint stroke M 0 vshift R 
	Blacktext {gsave 0 setgray show grestore} {show} ifelse} def
/Rshow {currentpoint stroke M dup stringwidth pop neg vshift R
	Blacktext {gsave 0 setgray show grestore} {show} ifelse} def
/Cshow {currentpoint stroke M dup stringwidth pop -2 div vshift R 
	Blacktext {gsave 0 setgray show grestore} {show} ifelse} def
/UP {dup vpt_ mul /vpt exch def hpt_ mul /hpt exch def
  /hpt2 hpt 2 mul def /vpt2 vpt 2 mul def} def
/DL {Color {setrgbcolor Solid {pop []} if 0 setdash}
 {pop pop pop 0 setgray Solid {pop []} if 0 setdash} ifelse} def
/BL {stroke userlinewidth 2 mul setlinewidth
	Rounded {1 setlinejoin 1 setlinecap} if} def
/AL {stroke userlinewidth 2 div setlinewidth
	Rounded {1 setlinejoin 1 setlinecap} if} def
/UL {dup gnulinewidth mul /userlinewidth exch def
	dup 1 lt {pop 1} if 10 mul /udl exch def} def
/PL {stroke userlinewidth setlinewidth
	Rounded {1 setlinejoin 1 setlinecap} if} def
3.8 setmiterlimit
% Default Line colors
/LCw {1 1 1} def
/LCb {0 0 0} def
/LCa {0 0 0} def
/LC0 {1 0 0} def
/LC1 {0 1 0} def
/LC2 {0 0 1} def
/LC3 {1 0 1} def
/LC4 {0 1 1} def
/LC5 {1 1 0} def
/LC6 {0 0 0} def
/LC7 {1 0.3 0} def
/LC8 {0.5 0.5 0.5} def
% Default Line Types
/LTw {PL [] 1 setgray} def
/LTb {BL [] LCb DL} def
/LTa {AL [1 udl mul 2 udl mul] 0 setdash LCa setrgbcolor} def
/LT0 {PL [] LC0 DL} def
/LT1 {PL [4 dl1 2 dl2] LC1 DL} def
/LT2 {PL [2 dl1 3 dl2] LC2 DL} def
/LT3 {PL [1 dl1 1.5 dl2] LC3 DL} def
/LT4 {PL [6 dl1 2 dl2 1 dl1 2 dl2] LC4 DL} def
/LT5 {PL [3 dl1 3 dl2 1 dl1 3 dl2] LC5 DL} def
/LT6 {PL [2 dl1 2 dl2 2 dl1 6 dl2] LC6 DL} def
/LT7 {PL [1 dl1 2 dl2 6 dl1 2 dl2 1 dl1 2 dl2] LC7 DL} def
/LT8 {PL [2 dl1 2 dl2 2 dl1 2 dl2 2 dl1 2 dl2 2 dl1 4 dl2] LC8 DL} def
/Pnt {stroke [] 0 setdash gsave 1 setlinecap M 0 0 V stroke grestore} def
/Dia {stroke [] 0 setdash 2 copy vpt add M
  hpt neg vpt neg V hpt vpt neg V
  hpt vpt V hpt neg vpt V closepath stroke
  Pnt} def
/Pls {stroke [] 0 setdash vpt sub M 0 vpt2 V
  currentpoint stroke M
  hpt neg vpt neg R hpt2 0 V stroke
 } def
/Box {stroke [] 0 setdash 2 copy exch hpt sub exch vpt add M
  0 vpt2 neg V hpt2 0 V 0 vpt2 V
  hpt2 neg 0 V closepath stroke
  Pnt} def
/Crs {stroke [] 0 setdash exch hpt sub exch vpt add M
  hpt2 vpt2 neg V currentpoint stroke M
  hpt2 neg 0 R hpt2 vpt2 V stroke} def
/TriU {stroke [] 0 setdash 2 copy vpt 1.12 mul add M
  hpt neg vpt -1.62 mul V
  hpt 2 mul 0 V
  hpt neg vpt 1.62 mul V closepath stroke
  Pnt} def
/Star {2 copy Pls Crs} def
/BoxF {stroke [] 0 setdash exch hpt sub exch vpt add M
  0 vpt2 neg V hpt2 0 V 0 vpt2 V
  hpt2 neg 0 V closepath fill} def
/TriUF {stroke [] 0 setdash vpt 1.12 mul add M
  hpt neg vpt -1.62 mul V
  hpt 2 mul 0 V
  hpt neg vpt 1.62 mul V closepath fill} def
/TriD {stroke [] 0 setdash 2 copy vpt 1.12 mul sub M
  hpt neg vpt 1.62 mul V
  hpt 2 mul 0 V
  hpt neg vpt -1.62 mul V closepath stroke
  Pnt} def
/TriDF {stroke [] 0 setdash vpt 1.12 mul sub M
  hpt neg vpt 1.62 mul V
  hpt 2 mul 0 V
  hpt neg vpt -1.62 mul V closepath fill} def
/DiaF {stroke [] 0 setdash vpt add M
  hpt neg vpt neg V hpt vpt neg V
  hpt vpt V hpt neg vpt V closepath fill} def
/Pent {stroke [] 0 setdash 2 copy gsave
  translate 0 hpt M 4 {72 rotate 0 hpt L} repeat
  closepath stroke grestore Pnt} def
/PentF {stroke [] 0 setdash gsave
  translate 0 hpt M 4 {72 rotate 0 hpt L} repeat
  closepath fill grestore} def
/Circle {stroke [] 0 setdash 2 copy
  hpt 0 360 arc stroke Pnt} def
/CircleF {stroke [] 0 setdash hpt 0 360 arc fill} def
/C0 {BL [] 0 setdash 2 copy moveto vpt 90 450 arc} bind def
/C1 {BL [] 0 setdash 2 copy moveto
	2 copy vpt 0 90 arc closepath fill
	vpt 0 360 arc closepath} bind def
/C2 {BL [] 0 setdash 2 copy moveto
	2 copy vpt 90 180 arc closepath fill
	vpt 0 360 arc closepath} bind def
/C3 {BL [] 0 setdash 2 copy moveto
	2 copy vpt 0 180 arc closepath fill
	vpt 0 360 arc closepath} bind def
/C4 {BL [] 0 setdash 2 copy moveto
	2 copy vpt 180 270 arc closepath fill
	vpt 0 360 arc closepath} bind def
/C5 {BL [] 0 setdash 2 copy moveto
	2 copy vpt 0 90 arc
	2 copy moveto
	2 copy vpt 180 270 arc closepath fill
	vpt 0 360 arc} bind def
/C6 {BL [] 0 setdash 2 copy moveto
	2 copy vpt 90 270 arc closepath fill
	vpt 0 360 arc closepath} bind def
/C7 {BL [] 0 setdash 2 copy moveto
	2 copy vpt 0 270 arc closepath fill
	vpt 0 360 arc closepath} bind def
/C8 {BL [] 0 setdash 2 copy moveto
	2 copy vpt 270 360 arc closepath fill
	vpt 0 360 arc closepath} bind def
/C9 {BL [] 0 setdash 2 copy moveto
	2 copy vpt 270 450 arc closepath fill
	vpt 0 360 arc closepath} bind def
/C10 {BL [] 0 setdash 2 copy 2 copy moveto vpt 270 360 arc closepath fill
	2 copy moveto
	2 copy vpt 90 180 arc closepath fill
	vpt 0 360 arc closepath} bind def
/C11 {BL [] 0 setdash 2 copy moveto
	2 copy vpt 0 180 arc closepath fill
	2 copy moveto
	2 copy vpt 270 360 arc closepath fill
	vpt 0 360 arc closepath} bind def
/C12 {BL [] 0 setdash 2 copy moveto
	2 copy vpt 180 360 arc closepath fill
	vpt 0 360 arc closepath} bind def
/C13 {BL [] 0 setdash 2 copy moveto
	2 copy vpt 0 90 arc closepath fill
	2 copy moveto
	2 copy vpt 180 360 arc closepath fill
	vpt 0 360 arc closepath} bind def
/C14 {BL [] 0 setdash 2 copy moveto
	2 copy vpt 90 360 arc closepath fill
	vpt 0 360 arc} bind def
/C15 {BL [] 0 setdash 2 copy vpt 0 360 arc closepath fill
	vpt 0 360 arc closepath} bind def
/Rec {newpath 4 2 roll moveto 1 index 0 rlineto 0 exch rlineto
	neg 0 rlineto closepath} bind def
/Square {dup Rec} bind def
/Bsquare {vpt sub exch vpt sub exch vpt2 Square} bind def
/S0 {BL [] 0 setdash 2 copy moveto 0 vpt rlineto BL Bsquare} bind def
/S1 {BL [] 0 setdash 2 copy vpt Square fill Bsquare} bind def
/S2 {BL [] 0 setdash 2 copy exch vpt sub exch vpt Square fill Bsquare} bind def
/S3 {BL [] 0 setdash 2 copy exch vpt sub exch vpt2 vpt Rec fill Bsquare} bind def
/S4 {BL [] 0 setdash 2 copy exch vpt sub exch vpt sub vpt Square fill Bsquare} bind def
/S5 {BL [] 0 setdash 2 copy 2 copy vpt Square fill
	exch vpt sub exch vpt sub vpt Square fill Bsquare} bind def
/S6 {BL [] 0 setdash 2 copy exch vpt sub exch vpt sub vpt vpt2 Rec fill Bsquare} bind def
/S7 {BL [] 0 setdash 2 copy exch vpt sub exch vpt sub vpt vpt2 Rec fill
	2 copy vpt Square fill Bsquare} bind def
/S8 {BL [] 0 setdash 2 copy vpt sub vpt Square fill Bsquare} bind def
/S9 {BL [] 0 setdash 2 copy vpt sub vpt vpt2 Rec fill Bsquare} bind def
/S10 {BL [] 0 setdash 2 copy vpt sub vpt Square fill 2 copy exch vpt sub exch vpt Square fill
	Bsquare} bind def
/S11 {BL [] 0 setdash 2 copy vpt sub vpt Square fill 2 copy exch vpt sub exch vpt2 vpt Rec fill
	Bsquare} bind def
/S12 {BL [] 0 setdash 2 copy exch vpt sub exch vpt sub vpt2 vpt Rec fill Bsquare} bind def
/S13 {BL [] 0 setdash 2 copy exch vpt sub exch vpt sub vpt2 vpt Rec fill
	2 copy vpt Square fill Bsquare} bind def
/S14 {BL [] 0 setdash 2 copy exch vpt sub exch vpt sub vpt2 vpt Rec fill
	2 copy exch vpt sub exch vpt Square fill Bsquare} bind def
/S15 {BL [] 0 setdash 2 copy Bsquare fill Bsquare} bind def
/D0 {gsave translate 45 rotate 0 0 S0 stroke grestore} bind def
/D1 {gsave translate 45 rotate 0 0 S1 stroke grestore} bind def
/D2 {gsave translate 45 rotate 0 0 S2 stroke grestore} bind def
/D3 {gsave translate 45 rotate 0 0 S3 stroke grestore} bind def
/D4 {gsave translate 45 rotate 0 0 S4 stroke grestore} bind def
/D5 {gsave translate 45 rotate 0 0 S5 stroke grestore} bind def
/D6 {gsave translate 45 rotate 0 0 S6 stroke grestore} bind def
/D7 {gsave translate 45 rotate 0 0 S7 stroke grestore} bind def
/D8 {gsave translate 45 rotate 0 0 S8 stroke grestore} bind def
/D9 {gsave translate 45 rotate 0 0 S9 stroke grestore} bind def
/D10 {gsave translate 45 rotate 0 0 S10 stroke grestore} bind def
/D11 {gsave translate 45 rotate 0 0 S11 stroke grestore} bind def
/D12 {gsave translate 45 rotate 0 0 S12 stroke grestore} bind def
/D13 {gsave translate 45 rotate 0 0 S13 stroke grestore} bind def
/D14 {gsave translate 45 rotate 0 0 S14 stroke grestore} bind def
/D15 {gsave translate 45 rotate 0 0 S15 stroke grestore} bind def
/DiaE {stroke [] 0 setdash vpt add M
  hpt neg vpt neg V hpt vpt neg V
  hpt vpt V hpt neg vpt V closepath stroke} def
/BoxE {stroke [] 0 setdash exch hpt sub exch vpt add M
  0 vpt2 neg V hpt2 0 V 0 vpt2 V
  hpt2 neg 0 V closepath stroke} def
/TriUE {stroke [] 0 setdash vpt 1.12 mul add M
  hpt neg vpt -1.62 mul V
  hpt 2 mul 0 V
  hpt neg vpt 1.62 mul V closepath stroke} def
/TriDE {stroke [] 0 setdash vpt 1.12 mul sub M
  hpt neg vpt 1.62 mul V
  hpt 2 mul 0 V
  hpt neg vpt -1.62 mul V closepath stroke} def
/PentE {stroke [] 0 setdash gsave
  translate 0 hpt M 4 {72 rotate 0 hpt L} repeat
  closepath stroke grestore} def
/CircE {stroke [] 0 setdash 
  hpt 0 360 arc stroke} def
/Opaque {gsave closepath 1 setgray fill grestore 0 setgray closepath} def
/DiaW {stroke [] 0 setdash vpt add M
  hpt neg vpt neg V hpt vpt neg V
  hpt vpt V hpt neg vpt V Opaque stroke} def
/BoxW {stroke [] 0 setdash exch hpt sub exch vpt add M
  0 vpt2 neg V hpt2 0 V 0 vpt2 V
  hpt2 neg 0 V Opaque stroke} def
/TriUW {stroke [] 0 setdash vpt 1.12 mul add M
  hpt neg vpt -1.62 mul V
  hpt 2 mul 0 V
  hpt neg vpt 1.62 mul V Opaque stroke} def
/TriDW {stroke [] 0 setdash vpt 1.12 mul sub M
  hpt neg vpt 1.62 mul V
  hpt 2 mul 0 V
  hpt neg vpt -1.62 mul V Opaque stroke} def
/PentW {stroke [] 0 setdash gsave
  translate 0 hpt M 4 {72 rotate 0 hpt L} repeat
  Opaque stroke grestore} def
/CircW {stroke [] 0 setdash 
  hpt 0 360 arc Opaque stroke} def
/BoxFill {gsave Rec 1 setgray fill grestore} def
/Density {
  /Fillden exch def
  currentrgbcolor
  /ColB exch def /ColG exch def /ColR exch def
  /ColR ColR Fillden mul Fillden sub 1 add def
  /ColG ColG Fillden mul Fillden sub 1 add def
  /ColB ColB Fillden mul Fillden sub 1 add def
  ColR ColG ColB setrgbcolor} def
/BoxColFill {gsave Rec PolyFill} def
/PolyFill {gsave Density fill grestore grestore} def
/h {rlineto rlineto rlineto gsave closepath fill grestore} bind def
%
% PostScript Level 1 Pattern Fill routine for rectangles
% Usage: x y w h s a XX PatternFill
%	x,y = lower left corner of box to be filled
%	w,h = width and height of box
%	  a = angle in degrees between lines and x-axis
%	 XX = 0/1 for no/yes cross-hatch
%
/PatternFill {gsave /PFa [ 9 2 roll ] def
  PFa 0 get PFa 2 get 2 div add PFa 1 get PFa 3 get 2 div add translate
  PFa 2 get -2 div PFa 3 get -2 div PFa 2 get PFa 3 get Rec
  TransparentPatterns {} {gsave 1 setgray fill grestore} ifelse
  clip
  currentlinewidth 0.5 mul setlinewidth
  /PFs PFa 2 get dup mul PFa 3 get dup mul add sqrt def
  0 0 M PFa 5 get rotate PFs -2 div dup translate
  0 1 PFs PFa 4 get div 1 add floor cvi
	{PFa 4 get mul 0 M 0 PFs V} for
  0 PFa 6 get ne {
	0 1 PFs PFa 4 get div 1 add floor cvi
	{PFa 4 get mul 0 2 1 roll M PFs 0 V} for
 } if
  stroke grestore} def
%
/languagelevel where
 {pop languagelevel} {1} ifelse
 2 lt
	{/InterpretLevel1 true def}
	{/InterpretLevel1 Level1 def}
 ifelse
%
% PostScript level 2 pattern fill definitions
%
/Level2PatternFill {
/Tile8x8 {/PaintType 2 /PatternType 1 /TilingType 1 /BBox [0 0 8 8] /XStep 8 /YStep 8}
	bind def
/KeepColor {currentrgbcolor [/Pattern /DeviceRGB] setcolorspace} bind def
<< Tile8x8
 /PaintProc {0.5 setlinewidth pop 0 0 M 8 8 L 0 8 M 8 0 L stroke} 
>> matrix makepattern
/Pat1 exch def
<< Tile8x8
 /PaintProc {0.5 setlinewidth pop 0 0 M 8 8 L 0 8 M 8 0 L stroke
	0 4 M 4 8 L 8 4 L 4 0 L 0 4 L stroke}
>> matrix makepattern
/Pat2 exch def
<< Tile8x8
 /PaintProc {0.5 setlinewidth pop 0 0 M 0 8 L
	8 8 L 8 0 L 0 0 L fill}
>> matrix makepattern
/Pat3 exch def
<< Tile8x8
 /PaintProc {0.5 setlinewidth pop -4 8 M 8 -4 L
	0 12 M 12 0 L stroke}
>> matrix makepattern
/Pat4 exch def
<< Tile8x8
 /PaintProc {0.5 setlinewidth pop -4 0 M 8 12 L
	0 -4 M 12 8 L stroke}
>> matrix makepattern
/Pat5 exch def
<< Tile8x8
 /PaintProc {0.5 setlinewidth pop -2 8 M 4 -4 L
	0 12 M 8 -4 L 4 12 M 10 0 L stroke}
>> matrix makepattern
/Pat6 exch def
<< Tile8x8
 /PaintProc {0.5 setlinewidth pop -2 0 M 4 12 L
	0 -4 M 8 12 L 4 -4 M 10 8 L stroke}
>> matrix makepattern
/Pat7 exch def
<< Tile8x8
 /PaintProc {0.5 setlinewidth pop 8 -2 M -4 4 L
	12 0 M -4 8 L 12 4 M 0 10 L stroke}
>> matrix makepattern
/Pat8 exch def
<< Tile8x8
 /PaintProc {0.5 setlinewidth pop 0 -2 M 12 4 L
	-4 0 M 12 8 L -4 4 M 8 10 L stroke}
>> matrix makepattern
/Pat9 exch def
/Pattern1 {PatternBgnd KeepColor Pat1 setpattern} bind def
/Pattern2 {PatternBgnd KeepColor Pat2 setpattern} bind def
/Pattern3 {PatternBgnd KeepColor Pat3 setpattern} bind def
/Pattern4 {PatternBgnd KeepColor Landscape {Pat5} {Pat4} ifelse setpattern} bind def
/Pattern5 {PatternBgnd KeepColor Landscape {Pat4} {Pat5} ifelse setpattern} bind def
/Pattern6 {PatternBgnd KeepColor Landscape {Pat9} {Pat6} ifelse setpattern} bind def
/Pattern7 {PatternBgnd KeepColor Landscape {Pat8} {Pat7} ifelse setpattern} bind def
} def
%
%
%End of PostScript Level 2 code
%
/PatternBgnd {
  TransparentPatterns {} {gsave 1 setgray fill grestore} ifelse
} def
%
% Substitute for Level 2 pattern fill codes with
% grayscale if Level 2 support is not selected.
%
/Level1PatternFill {
/Pattern1 {0.250 Density} bind def
/Pattern2 {0.500 Density} bind def
/Pattern3 {0.750 Density} bind def
/Pattern4 {0.125 Density} bind def
/Pattern5 {0.375 Density} bind def
/Pattern6 {0.625 Density} bind def
/Pattern7 {0.875 Density} bind def
} def
%
% Now test for support of Level 2 code
%
Level1 {Level1PatternFill} {Level2PatternFill} ifelse
%
/Symbol-Oblique /Symbol findfont [1 0 .167 1 0 0] makefont
dup length dict begin {1 index /FID eq {pop pop} {def} ifelse} forall
currentdict end definefont pop
Level1 SuppressPDFMark or 
{} {
/SDict 10 dict def
systemdict /pdfmark known not {
  userdict /pdfmark systemdict /cleartomark get put
} if
SDict begin [
  /Title (out.ps)
  /Subject (gnuplot plot)
  /Creator (gnuplot 4.6 patchlevel 6)
  /Author (yani)
%  /Producer (gnuplot)
%  /Keywords ()
  /CreationDate (Thu May 28 18:54:25 2015)
  /DOCINFO pdfmark
end
} ifelse
end
%%EndProlog
%%Page: 1 1
gnudict begin
gsave
doclip
50 50 translate
0.100 0.100 scale
90 rotate
0 -5040 translate
0 setgray
newpath
(Helvetica) findfont 140 scalefont setfont
BackgroundColor 0 lt 3 1 roll 0 lt exch 0 lt or or not {gsave BackgroundColor C clippath fill grestore} if
1.000 UL
LT0
0.50 0.50 0.50 C 1.000 UL
LTa
0.50 0.50 0.50 C 966 280 M
5981 0 V
stroke
LT0
0.50 0.50 0.50 C 966 280 M
63 0 V
5918 0 R
-63 0 V
882 280 M
( 0) Rshow
1.000 UL
LT0
0.50 0.50 0.50 C 1.000 UL
LTa
0.50 0.50 0.50 C 966 372 M
5981 0 V
stroke
LT0
0.50 0.50 0.50 C 966 372 M
63 0 V
5918 0 R
-63 0 V
882 372 M
( 0.707106) Rshow
1.000 UL
LT0
0.50 0.50 0.50 C 1.000 UL
LTa
0.50 0.50 0.50 C 966 464 M
5981 0 V
stroke
LT0
0.50 0.50 0.50 C 966 464 M
63 0 V
5918 0 R
-63 0 V
882 464 M
( 1.41421) Rshow
1.000 UL
LT0
0.50 0.50 0.50 C 1.000 UL
LTa
0.50 0.50 0.50 C 966 555 M
5981 0 V
stroke
LT0
0.50 0.50 0.50 C 966 555 M
63 0 V
5918 0 R
-63 0 V
882 555 M
( 2.12132) Rshow
1.000 UL
LT0
0.50 0.50 0.50 C 1.000 UL
LTa
0.50 0.50 0.50 C 966 647 M
5981 0 V
stroke
LT0
0.50 0.50 0.50 C 966 647 M
63 0 V
5918 0 R
-63 0 V
882 647 M
( 2.82842) Rshow
1.000 UL
LT0
0.50 0.50 0.50 C 1.000 UL
LTa
0.50 0.50 0.50 C 966 739 M
5981 0 V
stroke
LT0
0.50 0.50 0.50 C 966 739 M
63 0 V
5918 0 R
-63 0 V
882 739 M
( 3.53553) Rshow
1.000 UL
LT0
0.50 0.50 0.50 C 1.000 UL
LTa
0.50 0.50 0.50 C 966 831 M
5981 0 V
stroke
LT0
0.50 0.50 0.50 C 966 831 M
63 0 V
5918 0 R
-63 0 V
882 831 M
( 4.24264) Rshow
1.000 UL
LT0
0.50 0.50 0.50 C 1.000 UL
LTa
0.50 0.50 0.50 C 966 923 M
5981 0 V
stroke
LT0
0.50 0.50 0.50 C 966 923 M
63 0 V
5918 0 R
-63 0 V
882 923 M
( 4.94974) Rshow
1.000 UL
LT0
0.50 0.50 0.50 C 1.000 UL
LTa
0.50 0.50 0.50 C 966 1015 M
5981 0 V
stroke
LT0
0.50 0.50 0.50 C 966 1015 M
63 0 V
5918 0 R
-63 0 V
-6002 0 R
( 5.65685) Rshow
1.000 UL
LT0
0.50 0.50 0.50 C 1.000 UL
LTa
0.50 0.50 0.50 C 966 1106 M
5981 0 V
stroke
LT0
0.50 0.50 0.50 C 966 1106 M
63 0 V
5918 0 R
-63 0 V
-6002 0 R
( 6.36395) Rshow
1.000 UL
LT0
0.50 0.50 0.50 C 1.000 UL
LTa
0.50 0.50 0.50 C 966 1198 M
5981 0 V
stroke
LT0
0.50 0.50 0.50 C 966 1198 M
63 0 V
5918 0 R
-63 0 V
-6002 0 R
( 7.07106) Rshow
1.000 UL
LT0
0.50 0.50 0.50 C 1.000 UL
LTa
0.50 0.50 0.50 C 966 1290 M
5981 0 V
stroke
LT0
0.50 0.50 0.50 C 966 1290 M
63 0 V
5918 0 R
-63 0 V
-6002 0 R
( 7.77817) Rshow
1.000 UL
LT0
0.50 0.50 0.50 C 1.000 UL
LTa
0.50 0.50 0.50 C 966 1382 M
5981 0 V
stroke
LT0
0.50 0.50 0.50 C 966 1382 M
63 0 V
5918 0 R
-63 0 V
-6002 0 R
( 8.48527) Rshow
1.000 UL
LT0
0.50 0.50 0.50 C 1.000 UL
LTa
0.50 0.50 0.50 C 966 1474 M
5981 0 V
stroke
LT0
0.50 0.50 0.50 C 966 1474 M
63 0 V
5918 0 R
-63 0 V
-6002 0 R
( 9.19238) Rshow
1.000 UL
LT0
0.50 0.50 0.50 C 1.000 UL
LTa
0.50 0.50 0.50 C 966 1565 M
5981 0 V
stroke
LT0
0.50 0.50 0.50 C 966 1565 M
63 0 V
5918 0 R
-63 0 V
-6002 0 R
( 9.89948) Rshow
1.000 UL
LT0
0.50 0.50 0.50 C 1.000 UL
LTa
0.50 0.50 0.50 C 966 1657 M
5981 0 V
stroke
LT0
0.50 0.50 0.50 C 966 1657 M
63 0 V
5918 0 R
-63 0 V
-6002 0 R
( 10.6066) Rshow
1.000 UL
LT0
0.50 0.50 0.50 C 1.000 UL
LTa
0.50 0.50 0.50 C 966 1749 M
5981 0 V
stroke
LT0
0.50 0.50 0.50 C 966 1749 M
63 0 V
5918 0 R
-63 0 V
-6002 0 R
( 11.3137) Rshow
1.000 UL
LT0
0.50 0.50 0.50 C 1.000 UL
LTa
0.50 0.50 0.50 C 966 1841 M
5981 0 V
stroke
LT0
0.50 0.50 0.50 C 966 1841 M
63 0 V
5918 0 R
-63 0 V
-6002 0 R
( 12.0208) Rshow
1.000 UL
LT0
0.50 0.50 0.50 C 1.000 UL
LTa
0.50 0.50 0.50 C 966 1933 M
5981 0 V
stroke
LT0
0.50 0.50 0.50 C 966 1933 M
63 0 V
5918 0 R
-63 0 V
-6002 0 R
( 12.7279) Rshow
1.000 UL
LT0
0.50 0.50 0.50 C 1.000 UL
LTa
0.50 0.50 0.50 C 966 2025 M
5981 0 V
stroke
LT0
0.50 0.50 0.50 C 966 2025 M
63 0 V
5918 0 R
-63 0 V
-6002 0 R
( 13.435) Rshow
1.000 UL
LT0
0.50 0.50 0.50 C 1.000 UL
LTa
0.50 0.50 0.50 C 966 2116 M
5981 0 V
stroke
LT0
0.50 0.50 0.50 C 966 2116 M
63 0 V
5918 0 R
-63 0 V
-6002 0 R
( 14.1421) Rshow
1.000 UL
LT0
0.50 0.50 0.50 C 1.000 UL
LTa
0.50 0.50 0.50 C 966 2208 M
5981 0 V
stroke
LT0
0.50 0.50 0.50 C 966 2208 M
63 0 V
5918 0 R
-63 0 V
-6002 0 R
( 14.8492) Rshow
1.000 UL
LT0
0.50 0.50 0.50 C 1.000 UL
LTa
0.50 0.50 0.50 C 966 2300 M
5981 0 V
stroke
LT0
0.50 0.50 0.50 C 966 2300 M
63 0 V
5918 0 R
-63 0 V
-6002 0 R
( 15.5563) Rshow
1.000 UL
LT0
0.50 0.50 0.50 C 1.000 UL
LTa
0.50 0.50 0.50 C 966 2392 M
5981 0 V
stroke
LT0
0.50 0.50 0.50 C 966 2392 M
63 0 V
5918 0 R
-63 0 V
-6002 0 R
( 16.2634) Rshow
1.000 UL
LT0
0.50 0.50 0.50 C 1.000 UL
LTa
0.50 0.50 0.50 C 966 2484 M
5981 0 V
stroke
LT0
0.50 0.50 0.50 C 966 2484 M
63 0 V
5918 0 R
-63 0 V
-6002 0 R
( 16.9705) Rshow
1.000 UL
LT0
0.50 0.50 0.50 C 1.000 UL
LTa
0.50 0.50 0.50 C 966 2575 M
5981 0 V
stroke
LT0
0.50 0.50 0.50 C 966 2575 M
63 0 V
5918 0 R
-63 0 V
-6002 0 R
( 17.6776) Rshow
1.000 UL
LT0
0.50 0.50 0.50 C 1.000 UL
LTa
0.50 0.50 0.50 C 966 2667 M
5981 0 V
stroke
LT0
0.50 0.50 0.50 C 966 2667 M
63 0 V
5918 0 R
-63 0 V
-6002 0 R
( 18.3848) Rshow
1.000 UL
LT0
0.50 0.50 0.50 C 1.000 UL
LTa
0.50 0.50 0.50 C 966 2759 M
5981 0 V
stroke
LT0
0.50 0.50 0.50 C 966 2759 M
63 0 V
5918 0 R
-63 0 V
-6002 0 R
( 19.0919) Rshow
1.000 UL
LT0
0.50 0.50 0.50 C 1.000 UL
LTa
0.50 0.50 0.50 C 966 2851 M
5981 0 V
stroke
LT0
0.50 0.50 0.50 C 966 2851 M
63 0 V
5918 0 R
-63 0 V
-6002 0 R
( 19.799) Rshow
1.000 UL
LT0
0.50 0.50 0.50 C 1.000 UL
LTa
0.50 0.50 0.50 C 966 2943 M
5981 0 V
stroke
LT0
0.50 0.50 0.50 C 966 2943 M
63 0 V
5918 0 R
-63 0 V
-6002 0 R
( 20.5061) Rshow
1.000 UL
LT0
0.50 0.50 0.50 C 1.000 UL
LTa
0.50 0.50 0.50 C 966 3035 M
5981 0 V
stroke
LT0
0.50 0.50 0.50 C 966 3035 M
63 0 V
5918 0 R
-63 0 V
-6002 0 R
( 21.2132) Rshow
1.000 UL
LT0
0.50 0.50 0.50 C 1.000 UL
LTa
0.50 0.50 0.50 C 966 3126 M
5981 0 V
stroke
LT0
0.50 0.50 0.50 C 966 3126 M
63 0 V
5918 0 R
-63 0 V
-6002 0 R
( 21.9203) Rshow
1.000 UL
LT0
0.50 0.50 0.50 C 1.000 UL
LTa
0.50 0.50 0.50 C 966 3218 M
5981 0 V
stroke
LT0
0.50 0.50 0.50 C 966 3218 M
63 0 V
5918 0 R
-63 0 V
-6002 0 R
( 22.6274) Rshow
1.000 UL
LT0
0.50 0.50 0.50 C 1.000 UL
LTa
0.50 0.50 0.50 C 966 3310 M
5981 0 V
stroke
LT0
0.50 0.50 0.50 C 966 3310 M
63 0 V
5918 0 R
-63 0 V
-6002 0 R
( 23.3345) Rshow
1.000 UL
LT0
0.50 0.50 0.50 C 1.000 UL
LTa
0.50 0.50 0.50 C 966 3402 M
5981 0 V
stroke
LT0
0.50 0.50 0.50 C 966 3402 M
63 0 V
5918 0 R
-63 0 V
-6002 0 R
( 24.0416) Rshow
1.000 UL
LT0
0.50 0.50 0.50 C 1.000 UL
LTa
0.50 0.50 0.50 C 966 3494 M
5981 0 V
stroke
LT0
0.50 0.50 0.50 C 966 3494 M
63 0 V
5918 0 R
-63 0 V
-6002 0 R
( 24.7487) Rshow
1.000 UL
LT0
0.50 0.50 0.50 C 1.000 UL
LTa
0.50 0.50 0.50 C 966 3586 M
5981 0 V
stroke
LT0
0.50 0.50 0.50 C 966 3586 M
63 0 V
5918 0 R
-63 0 V
-6002 0 R
( 25.4558) Rshow
1.000 UL
LT0
0.50 0.50 0.50 C 1.000 UL
LTa
0.50 0.50 0.50 C 966 3677 M
5981 0 V
stroke
LT0
0.50 0.50 0.50 C 966 3677 M
63 0 V
5918 0 R
-63 0 V
-6002 0 R
( 26.1629) Rshow
1.000 UL
LT0
0.50 0.50 0.50 C 1.000 UL
LTa
0.50 0.50 0.50 C 966 3769 M
5981 0 V
stroke
LT0
0.50 0.50 0.50 C 966 3769 M
63 0 V
5918 0 R
-63 0 V
-6002 0 R
( 26.87) Rshow
1.000 UL
LT0
0.50 0.50 0.50 C 1.000 UL
LTa
0.50 0.50 0.50 C 966 3861 M
5981 0 V
stroke
LT0
0.50 0.50 0.50 C 966 3861 M
63 0 V
5918 0 R
-63 0 V
-6002 0 R
( 27.5771) Rshow
1.000 UL
LT0
0.50 0.50 0.50 C 1.000 UL
LTa
0.50 0.50 0.50 C 966 3953 M
5981 0 V
stroke
LT0
0.50 0.50 0.50 C 966 3953 M
63 0 V
5918 0 R
-63 0 V
-6002 0 R
( 28.2842) Rshow
1.000 UL
LT0
0.50 0.50 0.50 C 1.000 UL
LTa
0.50 0.50 0.50 C 966 4045 M
5981 0 V
stroke
LT0
0.50 0.50 0.50 C 966 4045 M
63 0 V
5918 0 R
-63 0 V
-6002 0 R
( 28.9913) Rshow
1.000 UL
LT0
0.50 0.50 0.50 C 1.000 UL
LTa
0.50 0.50 0.50 C 966 4136 M
5981 0 V
stroke
LT0
0.50 0.50 0.50 C 966 4136 M
63 0 V
5918 0 R
-63 0 V
-6002 0 R
( 29.6985) Rshow
1.000 UL
LT0
0.50 0.50 0.50 C 1.000 UL
LTa
0.50 0.50 0.50 C 966 4228 M
5981 0 V
stroke
LT0
0.50 0.50 0.50 C 966 4228 M
63 0 V
5918 0 R
-63 0 V
-6002 0 R
( 30.4056) Rshow
1.000 UL
LT0
0.50 0.50 0.50 C 1.000 UL
LTa
0.50 0.50 0.50 C 966 4320 M
5981 0 V
stroke
LT0
0.50 0.50 0.50 C 966 4320 M
63 0 V
5918 0 R
-63 0 V
-6002 0 R
( 31.1127) Rshow
1.000 UL
LT0
0.50 0.50 0.50 C 1.000 UL
LTa
0.50 0.50 0.50 C 966 4412 M
5981 0 V
stroke
LT0
0.50 0.50 0.50 C 966 4412 M
63 0 V
5918 0 R
-63 0 V
-6002 0 R
( 31.8198) Rshow
1.000 UL
LT0
0.50 0.50 0.50 C 1.000 UL
LTa
0.50 0.50 0.50 C 966 4504 M
5981 0 V
stroke
LT0
0.50 0.50 0.50 C 966 4504 M
63 0 V
5918 0 R
-63 0 V
-6002 0 R
( 32.5269) Rshow
1.000 UL
LT0
0.50 0.50 0.50 C 1.000 UL
LTa
0.50 0.50 0.50 C 966 4596 M
5981 0 V
stroke
LT0
0.50 0.50 0.50 C 966 4596 M
63 0 V
5918 0 R
-63 0 V
-6002 0 R
( 33.234) Rshow
1.000 UL
LT0
0.50 0.50 0.50 C 1.000 UL
LTa
0.50 0.50 0.50 C 966 4687 M
5981 0 V
stroke
LT0
0.50 0.50 0.50 C 966 4687 M
63 0 V
5918 0 R
-63 0 V
-6002 0 R
( 33.9411) Rshow
1.000 UL
LT0
0.50 0.50 0.50 C 1.000 UL
LTa
0.50 0.50 0.50 C 966 4779 M
5981 0 V
stroke
LT0
0.50 0.50 0.50 C 966 4779 M
63 0 V
5918 0 R
-63 0 V
-6002 0 R
( 34.6482) Rshow
1.000 UL
LT0
0.50 0.50 0.50 C 1.000 UL
LTa
0.50 0.50 0.50 C 966 4871 M
5981 0 V
stroke
LT0
0.50 0.50 0.50 C 966 4871 M
63 0 V
5918 0 R
-63 0 V
-6002 0 R
( 35.3553) Rshow
1.000 UL
LT0
0.50 0.50 0.50 C 1.000 UL
LTa
0.50 0.50 0.50 C 966 280 M
0 4591 V
stroke
LT0
0.50 0.50 0.50 C 966 280 M
0 63 V
0 4528 R
0 -63 V
966 140 M
( 0) Cshow
1.000 UL
LT0
0.50 0.50 0.50 C 1.000 UL
LTa
0.50 0.50 0.50 C 1086 280 M
0 4591 V
stroke
LT0
0.50 0.50 0.50 C 1086 280 M
0 63 V
0 4528 R
0 -63 V
0 -4668 R
( 0.707106) Cshow
1.000 UL
LT0
0.50 0.50 0.50 C 1.000 UL
LTa
0.50 0.50 0.50 C 1205 280 M
0 4591 V
stroke
LT0
0.50 0.50 0.50 C 1205 280 M
0 63 V
0 4528 R
0 -63 V
0 -4668 R
( 1.41421) Cshow
1.000 UL
LT0
0.50 0.50 0.50 C 1.000 UL
LTa
0.50 0.50 0.50 C 1325 280 M
0 4591 V
stroke
LT0
0.50 0.50 0.50 C 1325 280 M
0 63 V
0 4528 R
0 -63 V
0 -4668 R
( 2.12132) Cshow
1.000 UL
LT0
0.50 0.50 0.50 C 1.000 UL
LTa
0.50 0.50 0.50 C 1444 280 M
0 4591 V
stroke
LT0
0.50 0.50 0.50 C 1444 280 M
0 63 V
0 4528 R
0 -63 V
0 -4668 R
( 2.82842) Cshow
1.000 UL
LT0
0.50 0.50 0.50 C 1.000 UL
LTa
0.50 0.50 0.50 C 1564 280 M
0 4591 V
stroke
LT0
0.50 0.50 0.50 C 1564 280 M
0 63 V
0 4528 R
0 -63 V
0 -4668 R
( 3.53553) Cshow
1.000 UL
LT0
0.50 0.50 0.50 C 1.000 UL
LTa
0.50 0.50 0.50 C 1684 280 M
0 4591 V
stroke
LT0
0.50 0.50 0.50 C 1684 280 M
0 63 V
0 4528 R
0 -63 V
0 -4668 R
( 4.24264) Cshow
1.000 UL
LT0
0.50 0.50 0.50 C 1.000 UL
LTa
0.50 0.50 0.50 C 1803 280 M
0 4591 V
stroke
LT0
0.50 0.50 0.50 C 1803 280 M
0 63 V
0 4528 R
0 -63 V
0 -4668 R
( 4.94974) Cshow
1.000 UL
LT0
0.50 0.50 0.50 C 1.000 UL
LTa
0.50 0.50 0.50 C 1923 280 M
0 4591 V
stroke
LT0
0.50 0.50 0.50 C 1923 280 M
0 63 V
0 4528 R
0 -63 V
0 -4668 R
( 5.65685) Cshow
1.000 UL
LT0
0.50 0.50 0.50 C 1.000 UL
LTa
0.50 0.50 0.50 C 2043 280 M
0 4591 V
stroke
LT0
0.50 0.50 0.50 C 2043 280 M
0 63 V
0 4528 R
0 -63 V
0 -4668 R
( 6.36395) Cshow
1.000 UL
LT0
0.50 0.50 0.50 C 1.000 UL
LTa
0.50 0.50 0.50 C 2162 280 M
0 4591 V
stroke
LT0
0.50 0.50 0.50 C 2162 280 M
0 63 V
0 4528 R
0 -63 V
0 -4668 R
( 7.07106) Cshow
1.000 UL
LT0
0.50 0.50 0.50 C 1.000 UL
LTa
0.50 0.50 0.50 C 2282 280 M
0 4591 V
stroke
LT0
0.50 0.50 0.50 C 2282 280 M
0 63 V
0 4528 R
0 -63 V
0 -4668 R
( 7.77817) Cshow
1.000 UL
LT0
0.50 0.50 0.50 C 1.000 UL
LTa
0.50 0.50 0.50 C 2401 280 M
0 4591 V
stroke
LT0
0.50 0.50 0.50 C 2401 280 M
0 63 V
0 4528 R
0 -63 V
0 -4668 R
( 8.48527) Cshow
1.000 UL
LT0
0.50 0.50 0.50 C 1.000 UL
LTa
0.50 0.50 0.50 C 2521 280 M
0 4591 V
stroke
LT0
0.50 0.50 0.50 C 2521 280 M
0 63 V
0 4528 R
0 -63 V
0 -4668 R
( 9.19238) Cshow
1.000 UL
LT0
0.50 0.50 0.50 C 1.000 UL
LTa
0.50 0.50 0.50 C 2641 280 M
0 4591 V
stroke
LT0
0.50 0.50 0.50 C 2641 280 M
0 63 V
0 4528 R
0 -63 V
0 -4668 R
( 9.89948) Cshow
1.000 UL
LT0
0.50 0.50 0.50 C 1.000 UL
LTa
0.50 0.50 0.50 C 2760 280 M
0 4591 V
stroke
LT0
0.50 0.50 0.50 C 2760 280 M
0 63 V
0 4528 R
0 -63 V
0 -4668 R
( 10.6066) Cshow
1.000 UL
LT0
0.50 0.50 0.50 C 1.000 UL
LTa
0.50 0.50 0.50 C 2880 280 M
0 4591 V
stroke
LT0
0.50 0.50 0.50 C 2880 280 M
0 63 V
0 4528 R
0 -63 V
0 -4668 R
( 11.3137) Cshow
1.000 UL
LT0
0.50 0.50 0.50 C 1.000 UL
LTa
0.50 0.50 0.50 C 3000 280 M
0 4591 V
stroke
LT0
0.50 0.50 0.50 C 3000 280 M
0 63 V
0 4528 R
0 -63 V
0 -4668 R
( 12.0208) Cshow
1.000 UL
LT0
0.50 0.50 0.50 C 1.000 UL
LTa
0.50 0.50 0.50 C 3119 280 M
0 4591 V
stroke
LT0
0.50 0.50 0.50 C 3119 280 M
0 63 V
0 4528 R
0 -63 V
0 -4668 R
( 12.7279) Cshow
1.000 UL
LT0
0.50 0.50 0.50 C 1.000 UL
LTa
0.50 0.50 0.50 C 3239 280 M
0 4591 V
stroke
LT0
0.50 0.50 0.50 C 3239 280 M
0 63 V
0 4528 R
0 -63 V
0 -4668 R
( 13.435) Cshow
1.000 UL
LT0
0.50 0.50 0.50 C 1.000 UL
LTa
0.50 0.50 0.50 C 3358 280 M
0 4591 V
stroke
LT0
0.50 0.50 0.50 C 3358 280 M
0 63 V
0 4528 R
0 -63 V
0 -4668 R
( 14.1421) Cshow
1.000 UL
LT0
0.50 0.50 0.50 C 1.000 UL
LTa
0.50 0.50 0.50 C 3478 280 M
0 4591 V
stroke
LT0
0.50 0.50 0.50 C 3478 280 M
0 63 V
0 4528 R
0 -63 V
0 -4668 R
( 14.8492) Cshow
1.000 UL
LT0
0.50 0.50 0.50 C 1.000 UL
LTa
0.50 0.50 0.50 C 3598 280 M
0 4591 V
stroke
LT0
0.50 0.50 0.50 C 3598 280 M
0 63 V
0 4528 R
0 -63 V
0 -4668 R
( 15.5563) Cshow
1.000 UL
LT0
0.50 0.50 0.50 C 1.000 UL
LTa
0.50 0.50 0.50 C 3717 280 M
0 4591 V
stroke
LT0
0.50 0.50 0.50 C 3717 280 M
0 63 V
0 4528 R
0 -63 V
0 -4668 R
( 16.2634) Cshow
1.000 UL
LT0
0.50 0.50 0.50 C 1.000 UL
LTa
0.50 0.50 0.50 C 3837 280 M
0 4591 V
stroke
LT0
0.50 0.50 0.50 C 3837 280 M
0 63 V
0 4528 R
0 -63 V
0 -4668 R
( 16.9705) Cshow
1.000 UL
LT0
0.50 0.50 0.50 C 1.000 UL
LTa
0.50 0.50 0.50 C 3956 280 M
0 4591 V
stroke
LT0
0.50 0.50 0.50 C 3956 280 M
0 63 V
0 4528 R
0 -63 V
0 -4668 R
( 17.6776) Cshow
1.000 UL
LT0
0.50 0.50 0.50 C 1.000 UL
LTa
0.50 0.50 0.50 C 4076 280 M
0 4591 V
stroke
LT0
0.50 0.50 0.50 C 4076 280 M
0 63 V
0 4528 R
0 -63 V
0 -4668 R
( 18.3848) Cshow
1.000 UL
LT0
0.50 0.50 0.50 C 1.000 UL
LTa
0.50 0.50 0.50 C 4196 280 M
0 4591 V
stroke
LT0
0.50 0.50 0.50 C 4196 280 M
0 63 V
0 4528 R
0 -63 V
0 -4668 R
( 19.0919) Cshow
1.000 UL
LT0
0.50 0.50 0.50 C 1.000 UL
LTa
0.50 0.50 0.50 C 4315 280 M
0 4591 V
stroke
LT0
0.50 0.50 0.50 C 4315 280 M
0 63 V
0 4528 R
0 -63 V
0 -4668 R
( 19.799) Cshow
1.000 UL
LT0
0.50 0.50 0.50 C 1.000 UL
LTa
0.50 0.50 0.50 C 4435 280 M
0 4591 V
stroke
LT0
0.50 0.50 0.50 C 4435 280 M
0 63 V
0 4528 R
0 -63 V
0 -4668 R
( 20.5061) Cshow
1.000 UL
LT0
0.50 0.50 0.50 C 1.000 UL
LTa
0.50 0.50 0.50 C 4555 280 M
0 4591 V
stroke
LT0
0.50 0.50 0.50 C 4555 280 M
0 63 V
0 4528 R
0 -63 V
0 -4668 R
( 21.2132) Cshow
1.000 UL
LT0
0.50 0.50 0.50 C 1.000 UL
LTa
0.50 0.50 0.50 C 4674 280 M
0 4591 V
stroke
LT0
0.50 0.50 0.50 C 4674 280 M
0 63 V
0 4528 R
0 -63 V
0 -4668 R
( 21.9203) Cshow
1.000 UL
LT0
0.50 0.50 0.50 C 1.000 UL
LTa
0.50 0.50 0.50 C 4794 280 M
0 4591 V
stroke
LT0
0.50 0.50 0.50 C 4794 280 M
0 63 V
0 4528 R
0 -63 V
0 -4668 R
( 22.6274) Cshow
1.000 UL
LT0
0.50 0.50 0.50 C 1.000 UL
LTa
0.50 0.50 0.50 C 4913 280 M
0 4591 V
stroke
LT0
0.50 0.50 0.50 C 4913 280 M
0 63 V
0 4528 R
0 -63 V
0 -4668 R
( 23.3345) Cshow
1.000 UL
LT0
0.50 0.50 0.50 C 1.000 UL
LTa
0.50 0.50 0.50 C 5033 280 M
0 4591 V
stroke
LT0
0.50 0.50 0.50 C 5033 280 M
0 63 V
0 4528 R
0 -63 V
0 -4668 R
( 24.0416) Cshow
1.000 UL
LT0
0.50 0.50 0.50 C 1.000 UL
LTa
0.50 0.50 0.50 C 5153 280 M
0 4591 V
stroke
LT0
0.50 0.50 0.50 C 5153 280 M
0 63 V
0 4528 R
0 -63 V
0 -4668 R
( 24.7487) Cshow
1.000 UL
LT0
0.50 0.50 0.50 C 1.000 UL
LTa
0.50 0.50 0.50 C 5272 280 M
0 4591 V
stroke
LT0
0.50 0.50 0.50 C 5272 280 M
0 63 V
0 4528 R
0 -63 V
0 -4668 R
( 25.4558) Cshow
1.000 UL
LT0
0.50 0.50 0.50 C 1.000 UL
LTa
0.50 0.50 0.50 C 5392 280 M
0 4591 V
stroke
LT0
0.50 0.50 0.50 C 5392 280 M
0 63 V
0 4528 R
0 -63 V
0 -4668 R
( 26.1629) Cshow
1.000 UL
LT0
0.50 0.50 0.50 C 1.000 UL
LTa
0.50 0.50 0.50 C 5512 280 M
0 4591 V
stroke
LT0
0.50 0.50 0.50 C 5512 280 M
0 63 V
0 4528 R
0 -63 V
0 -4668 R
( 26.87) Cshow
1.000 UL
LT0
0.50 0.50 0.50 C 1.000 UL
LTa
0.50 0.50 0.50 C 5631 280 M
0 4591 V
stroke
LT0
0.50 0.50 0.50 C 5631 280 M
0 63 V
0 4528 R
0 -63 V
0 -4668 R
( 27.5771) Cshow
1.000 UL
LT0
0.50 0.50 0.50 C 1.000 UL
LTa
0.50 0.50 0.50 C 5751 280 M
0 4591 V
stroke
LT0
0.50 0.50 0.50 C 5751 280 M
0 63 V
0 4528 R
0 -63 V
0 -4668 R
( 28.2842) Cshow
1.000 UL
LT0
0.50 0.50 0.50 C 1.000 UL
LTa
0.50 0.50 0.50 C 5870 280 M
0 4591 V
stroke
LT0
0.50 0.50 0.50 C 5870 280 M
0 63 V
0 4528 R
0 -63 V
0 -4668 R
( 28.9913) Cshow
1.000 UL
LT0
0.50 0.50 0.50 C 1.000 UL
LTa
0.50 0.50 0.50 C 5990 280 M
0 4591 V
stroke
LT0
0.50 0.50 0.50 C 5990 280 M
0 63 V
0 4528 R
0 -63 V
0 -4668 R
( 29.6985) Cshow
1.000 UL
LT0
0.50 0.50 0.50 C 1.000 UL
LTa
0.50 0.50 0.50 C 6110 280 M
0 4591 V
stroke
LT0
0.50 0.50 0.50 C 6110 280 M
0 63 V
0 4528 R
0 -63 V
0 -4668 R
( 30.4056) Cshow
1.000 UL
LT0
0.50 0.50 0.50 C 1.000 UL
LTa
0.50 0.50 0.50 C 6229 280 M
0 4591 V
stroke
LT0
0.50 0.50 0.50 C 6229 280 M
0 63 V
0 4528 R
0 -63 V
0 -4668 R
( 31.1127) Cshow
1.000 UL
LT0
0.50 0.50 0.50 C 1.000 UL
LTa
0.50 0.50 0.50 C 6349 280 M
0 4591 V
stroke
LT0
0.50 0.50 0.50 C 6349 280 M
0 63 V
0 4528 R
0 -63 V
0 -4668 R
( 31.8198) Cshow
1.000 UL
LT0
0.50 0.50 0.50 C 1.000 UL
LTa
0.50 0.50 0.50 C 6469 280 M
0 4591 V
stroke
LT0
0.50 0.50 0.50 C 6469 280 M
0 63 V
0 4528 R
0 -63 V
0 -4668 R
( 32.5269) Cshow
1.000 UL
LT0
0.50 0.50 0.50 C 1.000 UL
LTa
0.50 0.50 0.50 C 6588 280 M
0 4591 V
stroke
LT0
0.50 0.50 0.50 C 6588 280 M
0 63 V
0 4528 R
0 -63 V
0 -4668 R
( 33.234) Cshow
1.000 UL
LT0
0.50 0.50 0.50 C 1.000 UL
LTa
0.50 0.50 0.50 C 6708 280 M
0 4591 V
stroke
LT0
0.50 0.50 0.50 C 6708 280 M
0 63 V
0 4528 R
0 -63 V
0 -4668 R
( 33.9411) Cshow
1.000 UL
LT0
0.50 0.50 0.50 C 1.000 UL
LTa
0.50 0.50 0.50 C 6827 280 M
0 4591 V
stroke
LT0
0.50 0.50 0.50 C 6827 280 M
0 63 V
0 4528 R
0 -63 V
0 -4668 R
( 34.6482) Cshow
1.000 UL
LT0
0.50 0.50 0.50 C 1.000 UL
LTa
0.50 0.50 0.50 C 6947 280 M
0 4591 V
stroke
LT0
0.50 0.50 0.50 C 6947 280 M
0 63 V
0 4528 R
0 -63 V
0 -4668 R
( 35.3553) Cshow
1.000 UL
LT0
0.50 0.50 0.50 C 1.000 UL
LT0
0.50 0.50 0.50 C 966 4871 M
966 280 L
5981 0 V
0 4591 R
-5981 0 R
1.000 UP
stroke
LT0
0.50 0.50 0.50 C % Begin plot #1
1.500 UP
2.000 UL
LT0
0.00 0.00 1.00 C /Helvetica findfont 140 scalefont setfont
/vshift -46 def
1444 372 M
120 0 V
120 0 V
0 1010 R
119 0 V
120 0 V
0 92 R
120 0 V
119 0 V
120 0 V
119 0 V
120 0 V
0 183 R
120 0 V
119 0 V
0 184 R
120 0 V
120 0 V
119 0 V
0 275 R
120 0 V
119 0 V
120 0 V
0 184 R
120 0 V
119 0 V
120 0 V
120 0 V
0 276 R
119 0 V
120 0 V
119 0 V
120 0 V
0 275 R
120 0 V
119 0 V
120 0 V
0 1102 R
119 0 V
120 0 V
120 0 V
0 183 R
119 0 V
0 276 R
120 0 V
120 0 V
119 0 V
120 0 V
0 92 R
119 0 V
120 0 V
120 0 V
119 0 V
120 0 V
0 92 R
120 0 V
119 0 V
0 91 R
120 0 V
119 0 V
966 280 M
120 0 V
119 0 V
120 0 V
119 0 V
0 92 V
240 0 R
0 92 V
0 91 V
0 92 V
0 92 V
0 92 V
0 92 V
0 92 V
0 91 V
0 92 V
0 92 V
0 92 V
239 0 R
0 92 V
598 0 R
0 91 V
0 92 V
239 0 R
0 92 V
0 92 V
359 0 R
0 92 V
0 92 V
0 91 V
359 0 R
0 92 V
0 92 V
479 0 R
0 92 V
0 92 V
0 92 V
478 0 R
0 91 V
0 92 V
0 92 V
359 0 R
0 92 V
0 92 V
0 91 V
stroke 4794 3126 M
0 92 V
0 92 V
0 92 V
0 92 V
0 92 V
0 91 V
0 92 V
0 92 V
0 92 V
359 0 R
0 92 V
0 91 V
119 0 R
0 92 V
0 92 V
0 92 V
479 0 R
0 92 V
598 0 R
0 92 V
239 0 R
0 91 V
239 0 R
0 92 V
1444 372 CircleF
1564 372 CircleF
1564 372 CircleF
1684 372 CircleF
1684 1382 CircleF
1803 1382 CircleF
1803 1382 CircleF
1923 1382 CircleF
1923 1474 CircleF
2043 1474 CircleF
2043 1474 CircleF
2162 1474 CircleF
2162 1474 CircleF
2282 1474 CircleF
2282 1474 CircleF
2401 1474 CircleF
2401 1474 CircleF
2521 1474 CircleF
2521 1657 CircleF
2641 1657 CircleF
2641 1657 CircleF
2760 1657 CircleF
2760 1841 CircleF
2880 1841 CircleF
2880 1841 CircleF
3000 1841 CircleF
3000 1841 CircleF
3119 1841 CircleF
3119 2116 CircleF
3239 2116 CircleF
3239 2116 CircleF
3358 2116 CircleF
3358 2116 CircleF
3478 2116 CircleF
3478 2300 CircleF
3598 2300 CircleF
3598 2300 CircleF
3717 2300 CircleF
3717 2300 CircleF
3837 2300 CircleF
3837 2300 CircleF
3957 2300 CircleF
3957 2576 CircleF
4076 2576 CircleF
4076 2576 CircleF
4196 2576 CircleF
4196 2576 CircleF
4315 2576 CircleF
4315 2576 CircleF
4435 2576 CircleF
4435 2851 CircleF
4555 2851 CircleF
4555 2851 CircleF
4674 2851 CircleF
4674 2851 CircleF
4794 2851 CircleF
4794 3953 CircleF
4913 3953 CircleF
4913 3953 CircleF
5033 3953 CircleF
5033 3953 CircleF
5153 3953 CircleF
5153 4136 CircleF
5272 4136 CircleF
5272 4412 CircleF
5392 4412 CircleF
5392 4412 CircleF
5512 4412 CircleF
5512 4412 CircleF
5631 4412 CircleF
5631 4412 CircleF
5751 4412 CircleF
5751 4504 CircleF
5870 4504 CircleF
5870 4504 CircleF
5990 4504 CircleF
5990 4504 CircleF
6110 4504 CircleF
6110 4504 CircleF
6229 4504 CircleF
6229 4504 CircleF
6349 4504 CircleF
6349 4596 CircleF
6469 4596 CircleF
6469 4596 CircleF
6588 4596 CircleF
6588 4687 CircleF
6708 4687 CircleF
6708 4687 CircleF
6827 4687 CircleF
966 280 CircleF
1086 280 CircleF
1086 280 CircleF
1205 280 CircleF
1205 280 CircleF
1325 280 CircleF
1325 280 CircleF
1444 280 CircleF
1444 280 CircleF
1444 372 CircleF
1684 372 CircleF
1684 464 CircleF
1684 464 CircleF
1684 555 CircleF
1684 555 CircleF
1684 647 CircleF
1684 647 CircleF
1684 739 CircleF
1684 739 CircleF
1684 831 CircleF
1684 831 CircleF
1684 923 CircleF
1684 923 CircleF
1684 1015 CircleF
1684 1015 CircleF
1684 1106 CircleF
1684 1106 CircleF
1684 1198 CircleF
1684 1198 CircleF
1684 1290 CircleF
1684 1290 CircleF
1684 1382 CircleF
1923 1382 CircleF
1923 1474 CircleF
2521 1474 CircleF
2521 1565 CircleF
2521 1565 CircleF
2521 1657 CircleF
2760 1657 CircleF
2760 1749 CircleF
2760 1749 CircleF
2760 1841 CircleF
3119 1841 CircleF
3119 1933 CircleF
3119 1933 CircleF
3119 2025 CircleF
3119 2025 CircleF
3119 2116 CircleF
3478 2116 CircleF
3478 2208 CircleF
3478 2208 CircleF
3478 2300 CircleF
3957 2300 CircleF
3957 2392 CircleF
3957 2392 CircleF
3957 2484 CircleF
3957 2484 CircleF
3957 2576 CircleF
4435 2576 CircleF
4435 2667 CircleF
4435 2667 CircleF
4435 2759 CircleF
4435 2759 CircleF
4435 2851 CircleF
4794 2851 CircleF
4794 2943 CircleF
4794 2943 CircleF
4794 3035 CircleF
4794 3035 CircleF
4794 3126 CircleF
4794 3126 CircleF
4794 3218 CircleF
4794 3218 CircleF
4794 3310 CircleF
4794 3310 CircleF
4794 3402 CircleF
4794 3402 CircleF
4794 3494 CircleF
4794 3494 CircleF
4794 3586 CircleF
4794 3586 CircleF
4794 3677 CircleF
4794 3677 CircleF
4794 3769 CircleF
4794 3769 CircleF
4794 3861 CircleF
4794 3861 CircleF
4794 3953 CircleF
5153 3953 CircleF
5153 4045 CircleF
5153 4045 CircleF
5153 4136 CircleF
5272 4136 CircleF
5272 4228 CircleF
5272 4228 CircleF
5272 4320 CircleF
5272 4320 CircleF
5272 4412 CircleF
5751 4412 CircleF
5751 4504 CircleF
6349 4504 CircleF
6349 4596 CircleF
6588 4596 CircleF
6588 4687 CircleF
6827 4687 CircleF
6827 4779 CircleF
% End plot #1
% Begin plot #2
1.500 UP
2.000 UL
LT0
1.00 0.55 0.00 C /Helvetica findfont 140 scalefont setfont
1368 1300 M
120 92 V
4550 990 M
120 92 V
1811 3144 M
120 91 V
-534 739 R
119 92 V
3906 2739 M
120 92 V
-244 790 R
120 92 V
2742 3370 M
120 92 V
1648 3641 M
120 91 V
2138 422 M
120 92 V
519 2280 R
120 92 V
1655 3025 M
120 91 V
1217 992 M
120 91 V
4535 2814 M
119 92 V
5301 1149 M
119 92 V
2592 3358 M
120 92 V
1341 223 R
120 92 V
3436 1374 M
120 92 V
2269 1179 M
120 91 V
1357 602 R
120 92 V
5318 1026 M
120 92 V
5117 4014 M
120 92 V
4735 2631 M
120 92 V
3645 1925 M
119 92 V
1116 3329 M
119 92 V
5808 3275 M
119 92 V
2677 3500 M
119 91 V
3781 509 M
119 92 V
2687 3029 M
120 91 V
-53 524 R
119 91 V
6294 3215 M
120 91 V
5295 2873 M
120 92 V
3550 1159 M
120 92 V
1960 1710 M
120 91 V
1458 739 R
120 92 V
1623 859 M
120 92 V
4432 217 R
120 92 V
2488 3427 M
119 92 V
1772 349 M
120 92 V
1658 4128 M
120 92 V
2181 2849 M
120 91 V
6331 641 M
120 92 V
1153 1391 M
119 92 V
3617 252 R
120 92 V
-2532 65 R
119 92 V
6566 4345 M
120 92 V
3785 3846 M
120 92 V
6247 3267 M
120 92 V
4269 2985 M
120 92 V
3480 2362 M
119 91 V
5883 1839 M
120 92 V
3082 2071 M
119 92 V
5595 4470 M
120 92 V
5464 1194 M
119 92 V
stroke 5583 1286 M
4484 561 M
120 92 V
1700 2619 M
120 92 V
4695 2283 M
120 92 V
-1223 65 R
119 92 V
1006 1895 M
120 92 V
1209 364 R
120 92 V
3581 488 R
120 92 V
5725 911 M
120 92 V
1073 3569 M
119 92 V
2715 2 R
119 92 V
2765 1773 M
119 91 V
3712 802 R
120 92 V
3010 3555 M
119 92 V
1773 3313 M
119 92 V
3529 110 R
120 92 V
3937 2359 M
119 92 V
2897 4354 M
119 92 V
3463 580 M
120 92 V
4113 294 M
120 92 V
1456 1352 M
119 92 V
4952 522 M
119 92 V
1211 2801 M
120 92 V
5009 3971 M
120 92 V
6303 905 M
119 92 V
2518 3829 M
120 92 V
2350 1468 M
120 92 V
4034 3229 M
120 92 V
874 604 R
119 92 V
1246 2373 M
119 92 V
5338 3694 M
120 92 V
3018 2522 M
120 92 V
132 -107 R
120 92 V
2496 4368 M
119 92 V
2238 2273 M
120 91 V
3795 1453 M
120 92 V
421 2331 R
120 92 V
4852 2036 M
120 91 V
4948 361 M
120 92 V
5 580 R
120 92 V
4607 3762 M
120 92 V
3511 3391 M
120 92 V
3270 1098 M
119 92 V
5025 4599 M
120 92 V
2936 2822 M
120 92 V
3837 1901 M
119 92 V
1104 2305 M
120 92 V
243 -528 R
120 92 V
-2 465 R
119 92 V
6669 1173 M
120 92 V
-431 7 R
119 92 V
2899 1345 M
119 92 V
1706 2982 M
120 92 V
stroke 1826 3074 M
2920 704 R
119 92 V
3775 3298 M
119 92 V
1740 3754 M
120 91 V
6358 2783 M
119 92 V
5693 2530 M
120 92 V
3626 1827 M
120 92 V
2629 2020 M
119 92 V
760 577 R
119 92 V
890 -21 R
119 91 V
1472 431 R
120 92 V
1634 1089 M
119 92 V
4160 708 R
119 92 V
3710 1971 M
119 92 V
2111 4025 M
120 92 V
6421 1728 M
119 92 V
6389 3088 M
120 92 V
1676 1768 M
120 92 V
123 857 R
120 92 V
2844 1807 M
120 92 V
-644 820 R
120 92 V
6381 2268 M
120 92 V
6316 3978 M
120 91 V
4752 3657 M
119 92 V
3062 735 M
120 92 V
1036 2901 M
120 92 V
5407 454 R
119 91 V
4741 3292 M
120 92 V
1782 458 R
120 92 V
6222 298 M
119 92 V
3803 4075 M
120 92 V
2153 3630 M
119 92 V
1865 3217 M
120 92 V
4152 971 R
119 92 V
5369 2564 M
120 92 V
3967 757 M
120 92 V
3584 3684 M
120 92 V
6016 966 M
119 92 V
2965 3314 M
120 91 V
2021 1950 M
120 92 V
4279 4592 M
120 91 V
4643 2809 M
120 92 V
-79 179 R
120 92 V
4457 1346 M
120 92 V
1411 4308 M
120 92 V
2761 2044 M
119 91 V
4455 592 M
120 92 V
2526 4440 M
119 92 V
724 -330 R
120 92 V
6476 2090 M
119 92 V
2574 3509 M
120 92 V
-499 56 R
119 92 V
3527 3016 M
120 92 V
stroke 3647 3108 M
2569 1645 M
120 92 V
-1045 47 R
120 92 V
398 1047 R
119 92 V
-99 885 R
120 92 V
193 428 R
120 92 V
2307 537 M
120 91 V
2154 572 M
119 92 V
1451 3226 M
120 92 V
3266 3028 M
120 92 V
-187 680 R
119 92 V
3364 578 R
119 92 V
1414 2598 M
120 92 V
3506 2272 M
119 91 V
463 1781 R
119 92 V
2164 2321 M
120 92 V
5112 1251 M
119 92 V
4094 407 M
119 91 V
6137 1831 M
119 92 V
1470 2579 M
120 92 V
2695 429 M
120 92 V
2698 3914 M
120 92 V
5453 2782 M
120 92 V
3301 3743 M
120 92 V
1466 714 M
120 92 V
3709 1909 M
120 91 V
-404 142 R
120 92 V
5143 3919 M
120 92 V
-222 -16 R
120 92 V
6546 1341 M
120 92 V
5016 1240 M
120 91 V
1213 2755 M
119 91 V
5724 894 M
119 92 V
388 68 R
119 92 V
2560 3384 M
120 92 V
1958 1399 M
119 92 V
3083 660 M
119 92 V
1909 3587 M
119 92 V
1614 2204 M
120 92 V
3123 3942 M
120 92 V
551 80 R
119 92 V
1530 923 M
119 92 V
942 1880 R
120 91 V
3056 1744 M
119 92 V
-8 -739 R
119 92 V
379 1983 R
120 92 V
1999 3017 M
120 92 V
4525 4278 M
120 92 V
89 -2154 R
120 92 V
3116 433 M
119 92 V
1974 417 M
120 92 V
1299 3645 M
119 92 V
5273 3251 M
120 91 V
stroke 5393 3342 M
1161 760 R
120 92 V
-61 62 R
119 92 V
5062 3893 M
120 91 V
6297 2662 M
120 92 V
6246 2612 M
119 91 V
2145 3838 M
119 92 V
4706 2431 M
120 92 V
5751 1396 M
120 92 V
4835 3443 M
119 92 V
2085 2878 M
119 92 V
6093 2608 M
119 91 V
5342 2124 M
119 92 V
390 263 R
119 91 V
2498 4470 M
120 92 V
1856 1357 M
120 92 V
6151 585 M
120 92 V
-866 468 R
119 91 V
202 3164 R
119 92 V
1671 4221 M
120 92 V
5937 3420 M
120 92 V
4264 2942 M
120 92 V
6570 1856 M
120 91 V
3922 2504 M
120 92 V
5897 4473 M
119 92 V
33 -64 R
119 92 V
3072 1621 M
120 92 V
4263 4254 M
120 91 V
4942 1547 M
120 91 V
557 -563 R
119 92 V
315 802 R
119 91 V
1668 1557 M
119 92 V
2371 750 R
119 92 V
3551 3986 M
120 92 V
2435 3944 M
120 92 V
4738 3480 M
120 91 V
2730 1867 M
119 92 V
6691 4614 M
120 92 V
4265 4602 M
119 92 V
4009 294 M
120 92 V
6512 3809 M
119 92 V
2798 3814 M
119 92 V
1071 1074 M
120 92 V
5673 4009 M
120 92 V
4792 3913 M
119 92 V
1351 3666 M
120 92 V
5268 2172 M
120 91 V
4200 3278 M
120 91 V
5773 2862 M
119 92 V
1416 3198 M
119 92 V
3141 4492 M
120 92 V
4469 2228 M
119 91 V
-105 547 R
120 91 V
stroke 4603 2957 M
1254 4006 M
120 92 V
4566 430 M
120 92 V
6326 378 M
120 92 V
1566 3923 M
120 92 V
1612 982 M
119 92 V
2412 774 M
119 92 V
1733 2807 M
119 92 V
3106 4183 M
120 92 V
6120 3862 M
120 92 V
4078 2541 M
119 92 V
1283 3949 M
119 92 V
3593 3327 M
119 92 V
4972 919 M
120 92 V
4720 2262 M
120 92 V
1384 2674 M
120 92 V
6347 3928 M
120 92 V
1322 4256 M
119 92 V
3879 2523 M
120 92 V
4130 597 M
120 92 V
3428 3810 M
120 92 V
2064 2692 M
119 92 V
1092 2401 M
120 92 V
4062 1973 M
119 92 V
4063 1126 M
120 92 V
1975 4139 M
120 92 V
5741 3722 M
119 92 V
-622 849 R
120 91 V
3967 4537 M
119 92 V
3200 477 M
119 92 V
4742 2577 M
119 92 V
834 1162 R
120 91 V
4399 4421 M
120 91 V
519 -155 R
120 91 V
966 -548 R
120 92 V
4854 314 M
120 92 V
427 -33 R
120 92 V
1106 2188 M
120 92 V
2411 623 M
120 92 V
1837 3889 M
120 92 V
5792 3055 M
120 92 V
985 3685 M
119 92 V
2183 872 M
119 92 V
1647 488 R
120 92 V
27 2962 R
119 92 V
6272 646 M
120 92 V
5065 3437 M
120 92 V
42 -1495 R
120 92 V
4421 1255 M
120 92 V
298 964 R
119 92 V
3628 4079 M
120 92 V
5900 3488 M
119 91 V
5158 3162 M
120 92 V
stroke 5278 3254 M
3560 3933 M
120 92 V
1119 3776 M
120 92 V
1016 3325 M
120 92 V
4021 124 R
120 92 V
1065 1615 M
119 92 V
4385 713 M
120 91 V
817 3782 R
120 92 V
1209 2410 M
120 92 V
5584 1397 M
119 92 V
93 350 R
119 92 V
2020 4633 M
120 92 V
3204 2803 M
119 92 V
2232 1776 M
119 92 V
2283 951 R
120 92 V
4432 1773 M
119 91 V
1399 1627 M
120 92 V
1255 400 R
119 92 V
430 -391 R
120 92 V
1798 1558 M
120 91 V
811 1665 R
119 92 V
6222 1728 M
120 92 V
1303 1251 M
120 92 V
5083 669 M
119 92 V
1543 2819 M
119 92 V
599 -647 R
120 92 V
4656 299 M
120 92 V
3590 2262 M
119 91 V
2177 688 R
119 91 V
2417 4329 M
119 92 V
5658 2503 M
120 92 V
2482 2740 M
120 92 V
4913 1544 M
120 92 V
2720 4629 M
120 92 V
5970 2463 M
120 92 V
4955 4135 M
119 92 V
3841 4445 M
120 92 V
5566 2984 M
120 92 V
2303 3346 M
119 92 V
3447 2287 M
120 92 V
6263 4105 M
120 92 V
4753 2123 M
119 92 V
3669 4639 M
120 92 V
3515 4265 M
120 92 V
1947 4577 M
120 91 V
2816 -35 R
120 92 V
3351 373 M
119 92 V
2290 4403 M
120 92 V
3217 2704 M
120 92 V
2321 2102 M
120 92 V
2647 701 R
119 92 V
-451 378 R
120 92 V
3536 2967 M
119 92 V
stroke 3655 3059 M
4702 914 M
119 92 V
3148 2234 M
119 92 V
6338 1169 M
119 92 V
4330 2673 M
119 92 V
1186 3038 M
120 91 V
1640 1466 M
120 92 V
1660 3291 M
120 92 V
3070 3001 M
119 92 V
1414 1851 M
119 91 V
422 -422 R
119 92 V
6425 612 M
119 92 V
3894 375 M
119 92 V
5680 3836 M
120 92 V
1936 3415 M
120 92 V
2568 1288 M
120 91 V
4196 756 M
119 92 V
1502 -6 R
120 92 V
21 1209 R
119 92 V
-840 816 R
120 92 V
5095 4415 M
119 92 V
5539 1276 M
120 92 V
2042 4477 M
120 92 V
3669 3130 M
119 92 V
-510 -33 R
120 92 V
2748 1790 M
119 92 V
5444 3329 M
120 91 V
5136 2241 M
119 91 V
4107 4478 M
120 92 V
6059 960 M
119 91 V
4624 1867 M
119 91 V
2545 2331 M
119 92 V
3177 53 R
119 92 V
552 1076 R
120 92 V
6541 1328 M
119 92 V
6263 4465 M
119 92 V
5259 2721 M
119 92 V
2823 3538 M
120 91 V
4109 1464 M
120 92 V
-801 601 R
120 91 V
22 802 R
119 92 V
3622 2108 M
119 92 V
707 234 R
119 92 V
5988 3964 M
120 92 V
3323 1326 M
120 92 V
4902 3722 M
119 92 V
4803 2593 M
120 92 V
3623 742 M
119 92 V
3304 2700 M
120 92 V
5802 284 M
120 92 V
1660 2775 M
119 92 V
5825 1665 M
120 92 V
3756 4492 M
120 92 V
stroke 3876 4584 M
6183 2731 M
119 92 V
6195 2131 M
120 92 V
5893 1984 M
120 92 V
982 1567 M
120 92 V
4739 627 M
119 91 V
4645 2069 M
120 92 V
752 1684 R
120 91 V
3179 4409 M
120 92 V
1617 1151 M
119 92 V
2747 721 R
119 92 V
83 1298 R
119 92 V
2626 1257 M
119 92 V
4139 4466 M
120 92 V
2013 2344 M
120 92 V
5245 4496 M
119 92 V
1603 1194 M
120 91 V
4152 4399 M
120 92 V
4253 1768 M
119 92 V
1897 4294 M
120 92 V
4728 1411 M
120 91 V
1588 2506 M
119 92 V
73 -999 R
120 91 V
3336 4389 M
119 91 V
2296 122 R
120 92 V
2360 4634 M
119 92 V
2018 3969 M
120 92 V
3080 1921 M
120 91 V
6228 3359 M
119 92 V
3780 2045 M
120 92 V
4055 326 M
120 92 V
622 2317 R
120 91 V
1343 614 M
120 91 V
2844 563 M
120 92 V
6029 3249 M
119 91 V
2879 4080 M
120 92 V
5952 3679 M
120 92 V
1719 3950 M
120 91 V
1409 266 R
120 92 V
6029 3525 M
120 92 V
6299 1248 M
119 92 V
5325 2506 M
120 91 V
1347 3329 M
120 91 V
3434 463 R
120 92 V
2616 3801 M
119 92 V
5800 1105 M
120 92 V
1334 3304 M
120 92 V
2963 1904 M
119 92 V
6525 919 M
120 91 V
2843 1589 M
119 91 V
6140 1174 M
120 91 V
3967 3652 M
120 92 V
2792 3089 M
119 92 V
stroke 2911 3181 M
1234 3742 M
119 92 V
1479 2000 M
120 92 V
3479 4060 M
119 91 V
3244 1036 M
120 92 V
3033 33 R
120 92 V
5167 3872 M
120 91 V
5962 594 M
119 92 V
1328 4047 M
120 92 V
2758 1683 M
120 91 V
690 520 R
119 91 V
6247 1128 M
119 91 V
1655 419 M
119 92 V
6222 2839 M
119 92 V
295 -910 R
120 91 V
2690 1367 M
120 92 V
356 -315 R
120 92 V
5135 2671 M
119 92 V
4110 1392 M
120 92 V
2329 3016 M
120 92 V
6343 925 M
120 92 V
3078 2348 M
120 91 V
4392 518 M
120 92 V
-555 774 R
119 92 V
1604 1651 M
120 92 V
5467 1282 M
120 92 V
6257 986 M
119 92 V
2578 2794 M
119 92 V
1010 3870 M
120 92 V
4625 2534 M
120 92 V
1413 283 M
120 92 V
4060 2701 M
120 92 V
2583 2354 M
119 92 V
14 998 R
120 92 V
889 -228 R
119 92 V
6662 2765 M
120 92 V
3136 1411 M
120 92 V
5609 1233 M
120 92 V
4003 1494 M
119 92 V
2982 1367 M
119 92 V
6692 3016 M
120 92 V
3928 2304 M
120 92 V
6333 4539 M
119 92 V
6420 1753 M
120 91 V
3024 976 M
120 92 V
1623 685 R
119 92 V
4152 4347 M
120 92 V
940 -160 R
120 91 V
2989 3052 M
120 92 V
2922 2490 M
120 92 V
1516 3996 M
119 92 V
3054 2537 M
120 92 V
2174 987 M
120 91 V
stroke 2294 1078 M
5772 2811 M
119 92 V
4260 2833 M
119 92 V
62 -1852 R
119 92 V
5775 2366 M
119 92 V
1025 4148 M
119 92 V
474 -586 R
120 91 V
1179 3345 M
120 91 V
661 784 R
120 91 V
1614 170 R
119 92 V
6600 1757 M
120 91 V
3809 2953 M
120 91 V
4807 1927 M
120 92 V
2269 1386 M
120 92 V
2377 63 R
120 92 V
4652 423 M
119 92 V
987 3521 R
120 92 V
4464 1342 M
119 92 V
1883 1819 M
120 92 V
5006 4174 M
120 92 V
1981 1183 M
120 92 V
5717 2326 M
119 92 V
3350 2330 M
119 92 V
6645 1325 M
120 92 V
2453 3675 M
120 92 V
1918 3109 M
119 91 V
3844 1986 M
120 92 V
6480 4341 M
119 92 V
1313 1724 M
119 92 V
1827 993 R
119 92 V
2670 520 M
120 92 V
5031 3145 M
119 92 V
6197 3029 M
120 92 V
1370 4045 M
120 91 V
4171 997 M
120 92 V
2012 4466 M
119 92 V
3454 1283 M
119 92 V
2286 2806 M
119 92 V
2645 869 M
120 92 V
1199 3505 M
119 92 V
2181 1450 M
120 91 V
1863 4673 M
120 92 V
4176 3855 M
120 92 V
3008 1786 M
119 92 V
4106 904 M
119 92 V
390 291 R
120 92 V
-777 433 R
120 92 V
1359 290 R
120 91 V
3978 3842 M
120 92 V
2243 1531 M
120 91 V
3976 311 R
120 92 V
6292 1517 M
119 92 V
1502 4512 M
119 92 V
stroke 1621 4604 M
1729 1987 M
120 92 V
4534 1946 M
119 92 V
6368 3139 M
120 92 V
2020 934 M
120 92 V
1347 211 R
119 91 V
2019 909 R
120 92 V
3828 4540 M
119 92 V
5804 2243 M
120 92 V
4049 1185 M
119 92 V
1919 754 M
119 92 V
4358 2741 M
120 92 V
2380 459 M
120 92 V
3510 3862 M
120 92 V
6643 1714 M
120 92 V
5237 4593 M
119 91 V
5235 494 M
119 92 V
2524 3448 M
120 92 V
1132 4286 M
119 92 V
3836 3871 M
120 92 V
48 -338 R
120 92 V
5978 1252 M
119 91 V
5790 2837 M
120 92 V
974 2018 M
120 92 V
165 -812 R
120 92 V
939 -331 R
120 92 V
5221 2401 M
119 92 V
1281 148 R
120 92 V
2967 4171 M
120 92 V
2481 1517 M
120 92 V
473 2973 R
119 92 V
3085 3440 M
120 92 V
5692 2464 M
119 92 V
4285 3897 M
119 92 V
994 -174 R
120 92 V
3148 3182 M
120 92 V
1073 2512 M
120 92 V
3492 788 M
120 92 V
325 3635 R
119 92 V
3084 2688 M
119 92 V
-637 804 R
120 92 V
1138 3017 M
120 92 V
6031 384 M
120 92 V
4084 3009 M
120 92 V
2125 3466 M
120 92 V
5003 2766 M
120 92 V
1007 403 R
120 92 V
3612 4543 M
120 92 V
2969 568 M
119 92 V
4619 3948 M
120 92 V
3845 1077 M
119 92 V
5478 4354 M
119 92 V
2540 3129 M
119 92 V
stroke 2659 3221 M
4858 4392 M
120 91 V
1621 3165 M
120 92 V
1717 1152 M
120 92 V
38 2523 R
120 91 V
3510 457 M
119 92 V
5624 2376 M
120 92 V
663 1038 R
119 92 V
5024 2440 M
119 92 V
1493 3639 M
120 92 V
1096 597 M
119 92 V
962 3976 R
120 92 V
6597 3595 M
119 92 V
2739 2731 M
120 92 V
2164 1685 M
120 92 V
413 -445 R
120 92 V
5091 2970 M
120 92 V
2688 1260 M
119 91 V
6133 2596 M
119 92 V
6673 709 M
119 92 V
3148 832 M
120 91 V
1942 4423 M
120 92 V
4998 1008 M
119 92 V
4670 3427 M
120 92 V
4436 2566 M
120 92 V
627 972 R
120 92 V
1624 4440 M
120 92 V
1177 1835 M
120 92 V
5208 4134 M
120 92 V
1885 2839 M
119 92 V
3386 259 R
119 92 V
4421 4136 M
120 92 V
1852 2886 M
119 91 V
807 1359 R
120 92 V
4588 1593 M
120 92 V
756 1233 R
120 92 V
2520 762 M
120 92 V
1316 775 M
119 92 V
3402 346 R
120 92 V
-828 352 R
120 92 V
2442 2083 M
119 92 V
5697 639 M
119 92 V
5356 4361 M
120 92 V
2521 4272 M
120 92 V
58 -2200 R
120 92 V
1645 907 M
120 92 V
6604 3084 M
120 92 V
4948 680 M
120 92 V
2136 3254 M
120 92 V
724 592 R
120 92 V
1502 583 M
120 92 V
3028 850 M
120 92 V
5137 4047 M
120 92 V
stroke 5257 4139 M
-3634 18 R
120 92 V
3267 346 R
119 92 V
5249 1081 M
120 92 V
1911 2207 M
120 92 V
2471 875 M
120 92 V
3920 300 R
119 92 V
4751 4176 M
119 92 V
3665 1838 M
119 92 V
1561 709 R
120 92 V
5278 3744 M
120 91 V
527 470 R
120 92 V
3118 422 M
119 92 V
747 2939 R
120 92 V
1233 79 R
120 91 V
4614 1430 M
119 92 V
1979 3446 M
119 92 V
1983 358 M
119 92 V
5141 2246 M
120 91 V
3242 2978 M
120 92 V
3853 1293 M
119 92 V
5323 3526 M
120 92 V
4943 2384 M
120 92 V
4184 4092 M
120 91 V
1026 487 M
120 92 V
595 1019 R
119 92 V
3168 1432 M
120 92 V
5543 1248 M
120 92 V
2194 3183 M
119 92 V
6551 1429 M
119 92 V
-718 874 R
120 91 V
5079 876 M
119 92 V
6339 4352 M
120 92 V
4373 1034 M
120 92 V
3479 3171 M
119 91 V
2535 4492 M
120 92 V
1862 1117 M
119 92 V
1836 543 R
120 92 V
-159 926 R
119 92 V
2247 4052 M
120 91 V
861 -124 R
120 92 V
65 -1230 R
119 92 V
2927 212 R
119 92 V
5069 1426 M
120 92 V
2059 3430 M
120 92 V
5528 3365 M
119 92 V
1888 4632 M
119 92 V
5834 4621 M
120 91 V
2531 4648 M
120 92 V
5343 2720 M
120 92 V
1582 2130 M
120 92 V
4604 756 M
120 91 V
762 1528 R
120 92 V
stroke 5606 2467 M
4579 489 M
120 92 V
-16 1097 R
119 92 V
5804 1094 M
120 92 V
4090 3097 M
119 92 V
4343 450 M
120 92 V
5122 352 M
120 92 V
3128 4443 M
119 92 V
1291 1827 M
119 92 V
6156 3208 M
120 92 V
1820 2646 M
120 92 V
6628 2264 M
120 92 V
3150 694 M
120 91 V
61 792 R
119 92 V
709 2299 R
119 92 V
1637 4309 M
120 92 V
2974 2432 M
120 92 V
2431 187 R
120 91 V
5878 357 M
120 92 V
2001 2224 M
120 92 V
876 533 R
119 92 V
1656 2304 M
120 92 V
3654 4682 M
120 92 V
2784 1160 M
120 92 V
1560 284 M
120 92 V
1194 823 R
120 92 V
4963 4156 M
120 91 V
2004 2472 M
119 92 V
3883 3742 M
120 91 V
3794 601 M
120 92 V
6024 4486 M
120 92 V
6459 484 M
120 92 V
5970 3096 M
120 92 V
6359 1403 M
120 92 V
4212 1844 M
119 92 V
4285 591 M
120 92 V
1631 2492 M
120 92 V
5476 1393 M
120 92 V
2635 2068 M
120 92 V
-663 998 R
119 92 V
4343 1447 M
119 92 V
5195 787 M
119 92 V
6669 2539 M
120 91 V
5035 567 M
119 92 V
4679 2785 M
120 92 V
3730 4066 M
120 92 V
3382 3816 M
119 91 V
6066 2228 M
119 92 V
1544 3169 M
120 92 V
4032 311 R
119 91 V
5895 535 M
120 92 V
5609 3118 M
120 92 V
5594 2903 M
119 92 V
stroke 5713 2995 M
4775 4294 M
120 91 V
4864 2549 M
119 92 V
1626 3142 M
120 92 V
1150 2871 M
120 92 V
1057 4372 M
119 91 V
4728 3495 M
120 92 V
5089 1628 M
120 92 V
2375 3900 M
119 92 V
4033 3281 M
120 91 V
1584 388 M
119 92 V
5756 3937 M
120 91 V
4983 2663 M
119 91 V
5141 478 M
120 92 V
724 1354 R
119 92 V
3466 745 M
120 92 V
3345 4609 M
120 92 V
6416 2979 M
119 92 V
1872 3296 M
119 92 V
1184 539 M
119 92 V
3961 3414 M
120 92 V
-664 663 R
119 92 V
2753 2342 M
120 92 V
6422 313 M
119 92 V
120 3144 R
119 91 V
4300 2500 M
119 92 V
5433 2424 M
120 91 V
3909 2276 M
119 92 V
1431 955 R
120 92 V
3040 2548 M
120 92 V
976 1054 M
120 91 V
567 277 R
119 92 V
6694 2987 M
120 92 V
1396 1621 M
119 92 V
3356 4009 M
120 92 V
3421 2177 M
119 92 V
5047 724 M
119 92 V
1107 4289 M
119 92 V
2393 287 M
120 92 V
197 790 R
120 91 V
825 1335 R
120 92 V
4787 4205 M
120 92 V
2971 2593 M
119 92 V
5067 4458 M
120 92 V
6657 3313 M
120 92 V
4315 4385 M
120 92 V
2645 3801 M
119 91 V
2520 1356 M
120 92 V
804 2415 R
120 92 V
4796 2649 M
120 92 V
2009 3847 M
120 91 V
3735 555 M
119 92 V
1451 288 M
120 92 V
stroke 1571 380 M
3045 1808 M
120 92 V
1846 3895 M
119 92 V
3899 237 R
120 92 V
4302 2816 M
119 91 V
1749 1678 M
119 92 V
6659 2977 M
120 91 V
2255 3226 M
120 92 V
2196 1469 M
120 92 V
1408 1028 M
120 92 V
5248 368 M
119 91 V
583 3714 R
120 92 V
5768 3104 M
120 92 V
4587 3766 M
119 92 V
2695 4520 M
120 92 V
4107 1317 M
120 92 V
994 4478 M
120 92 V
6475 4265 M
120 92 V
1368 1300 CircleF
1488 1392 CircleF
4550 990 CircleF
4670 1082 CircleF
1811 3144 CircleF
1931 3235 CircleF
1397 3974 CircleF
1516 4066 CircleF
3906 2739 CircleF
4026 2831 CircleF
3782 3621 CircleF
3902 3713 CircleF
2742 3370 CircleF
2862 3462 CircleF
1648 3641 CircleF
1768 3732 CircleF
2138 422 CircleF
2258 514 CircleF
2777 2794 CircleF
2897 2886 CircleF
1655 3025 CircleF
1775 3116 CircleF
1217 992 CircleF
1337 1083 CircleF
4535 2814 CircleF
4654 2906 CircleF
5301 1149 CircleF
5420 1241 CircleF
2592 3358 CircleF
2712 3450 CircleF
4053 3673 CircleF
4173 3765 CircleF
3436 1374 CircleF
3556 1466 CircleF
2269 1179 CircleF
2389 1270 CircleF
3746 1872 CircleF
3866 1964 CircleF
5318 1026 CircleF
5438 1118 CircleF
5117 4014 CircleF
5237 4106 CircleF
4735 2631 CircleF
4855 2723 CircleF
3645 1925 CircleF
3764 2017 CircleF
1116 3329 CircleF
1235 3421 CircleF
5808 3275 CircleF
5927 3367 CircleF
2677 3500 CircleF
2796 3591 CircleF
3781 509 CircleF
3900 601 CircleF
2687 3029 CircleF
2807 3120 CircleF
2754 3644 CircleF
2873 3735 CircleF
6294 3215 CircleF
6414 3306 CircleF
5295 2873 CircleF
5415 2965 CircleF
3550 1159 CircleF
3670 1251 CircleF
1960 1710 CircleF
2080 1801 CircleF
3538 2540 CircleF
3658 2632 CircleF
1623 859 CircleF
1743 951 CircleF
6175 1168 CircleF
6295 1260 CircleF
2488 3427 CircleF
2607 3519 CircleF
1772 349 CircleF
1892 441 CircleF
1658 4128 CircleF
1778 4220 CircleF
2181 2849 CircleF
2301 2940 CircleF
6331 641 CircleF
6451 733 CircleF
1153 1391 CircleF
1272 1483 CircleF
4889 1735 CircleF
5009 1827 CircleF
2477 1892 CircleF
2596 1984 CircleF
6566 4345 CircleF
6686 4437 CircleF
3785 3846 CircleF
3905 3938 CircleF
6247 3267 CircleF
6367 3359 CircleF
4269 2985 CircleF
4389 3077 CircleF
3480 2362 CircleF
3599 2453 CircleF
5883 1839 CircleF
6003 1931 CircleF
3082 2071 CircleF
3201 2163 CircleF
5595 4470 CircleF
5715 4562 CircleF
5464 1194 CircleF
5583 1286 CircleF
4484 561 CircleF
4604 653 CircleF
1700 2619 CircleF
1820 2711 CircleF
4695 2283 CircleF
4815 2375 CircleF
3592 2440 CircleF
3711 2532 CircleF
1006 1895 CircleF
1126 1987 CircleF
2335 2351 CircleF
2455 2443 CircleF
6036 2931 CircleF
6156 3023 CircleF
5725 911 CircleF
5845 1003 CircleF
1073 3569 CircleF
1192 3661 CircleF
3907 3663 CircleF
4026 3755 CircleF
2765 1773 CircleF
2884 1864 CircleF
6596 2666 CircleF
6716 2758 CircleF
3010 3555 CircleF
3129 3647 CircleF
1773 3313 CircleF
1892 3405 CircleF
5421 3515 CircleF
5541 3607 CircleF
3937 2359 CircleF
4056 2451 CircleF
2897 4354 CircleF
3016 4446 CircleF
3463 580 CircleF
3583 672 CircleF
4113 294 CircleF
4233 386 CircleF
1456 1352 CircleF
1575 1444 CircleF
4952 522 CircleF
5071 614 CircleF
1211 2801 CircleF
1331 2893 CircleF
5009 3971 CircleF
5129 4063 CircleF
6303 905 CircleF
6422 997 CircleF
2518 3829 CircleF
2638 3921 CircleF
2350 1468 CircleF
2470 1560 CircleF
4034 3229 CircleF
4154 3321 CircleF
5028 3925 CircleF
5147 4017 CircleF
1246 2373 CircleF
1365 2465 CircleF
5338 3694 CircleF
5458 3786 CircleF
3018 2522 CircleF
3138 2614 CircleF
3270 2507 CircleF
3390 2599 CircleF
2496 4368 CircleF
2615 4460 CircleF
2238 2273 CircleF
2358 2364 CircleF
3795 1453 CircleF
3915 1545 CircleF
4336 3876 CircleF
4456 3968 CircleF
4852 2036 CircleF
4972 2127 CircleF
4948 361 CircleF
5068 453 CircleF
5073 1033 CircleF
5193 1125 CircleF
4607 3762 CircleF
4727 3854 CircleF
3511 3391 CircleF
3631 3483 CircleF
3270 1098 CircleF
3389 1190 CircleF
5025 4599 CircleF
5145 4691 CircleF
2936 2822 CircleF
3056 2914 CircleF
3837 1901 CircleF
3956 1993 CircleF
1104 2305 CircleF
1224 2397 CircleF
1467 1869 CircleF
1587 1961 CircleF
1585 2426 CircleF
1704 2518 CircleF
6669 1173 CircleF
6789 1265 CircleF
6358 1272 CircleF
6477 1364 CircleF
2899 1345 CircleF
3018 1437 CircleF
1706 2982 CircleF
1826 3074 CircleF
4746 3778 CircleF
4865 3870 CircleF
3775 3298 CircleF
3894 3390 CircleF
1740 3754 CircleF
1860 3845 CircleF
6358 2783 CircleF
6477 2875 CircleF
5693 2530 CircleF
5813 2622 CircleF
3626 1827 CircleF
3746 1919 CircleF
2629 2020 CircleF
2748 2112 CircleF
3508 2689 CircleF
3627 2781 CircleF
4517 2760 CircleF
4636 2851 CircleF
6108 3282 CircleF
6228 3374 CircleF
1634 1089 CircleF
1753 1181 CircleF
5913 1889 CircleF
6032 1981 CircleF
3710 1971 CircleF
3829 2063 CircleF
2111 4025 CircleF
2231 4117 CircleF
6421 1728 CircleF
6540 1820 CircleF
6389 3088 CircleF
6509 3180 CircleF
1676 1768 CircleF
1796 1860 CircleF
1919 2717 CircleF
2039 2809 CircleF
2844 1807 CircleF
2964 1899 CircleF
2320 2719 CircleF
2440 2811 CircleF
6381 2268 CircleF
6501 2360 CircleF
6316 3978 CircleF
6436 4069 CircleF
4752 3657 CircleF
4871 3749 CircleF
3062 735 CircleF
3182 827 CircleF
1036 2901 CircleF
1156 2993 CircleF
6563 3447 CircleF
6682 3538 CircleF
4741 3292 CircleF
4861 3384 CircleF
6643 3842 CircleF
6763 3934 CircleF
6222 298 CircleF
6341 390 CircleF
3803 4075 CircleF
3923 4167 CircleF
2153 3630 CircleF
2272 3722 CircleF
1865 3217 CircleF
1985 3309 CircleF
6137 4280 CircleF
6256 4372 CircleF
5369 2564 CircleF
5489 2656 CircleF
3967 757 CircleF
4087 849 CircleF
3584 3684 CircleF
3704 3776 CircleF
6016 966 CircleF
6135 1058 CircleF
2965 3314 CircleF
3085 3405 CircleF
2021 1950 CircleF
2141 2042 CircleF
4279 4592 CircleF
4399 4683 CircleF
4643 2809 CircleF
4763 2901 CircleF
4684 3080 CircleF
4804 3172 CircleF
4457 1346 CircleF
4577 1438 CircleF
1411 4308 CircleF
1531 4400 CircleF
2761 2044 CircleF
2880 2135 CircleF
4455 592 CircleF
4575 684 CircleF
2526 4440 CircleF
2645 4532 CircleF
3369 4202 CircleF
3489 4294 CircleF
6476 2090 CircleF
6595 2182 CircleF
2574 3509 CircleF
2694 3601 CircleF
2195 3657 CircleF
2314 3749 CircleF
3527 3016 CircleF
3647 3108 CircleF
2569 1645 CircleF
2689 1737 CircleF
1644 1784 CircleF
1764 1876 CircleF
2162 2923 CircleF
2281 3015 CircleF
2182 3900 CircleF
2302 3992 CircleF
2495 4420 CircleF
2615 4512 CircleF
2307 537 CircleF
2427 628 CircleF
2154 572 CircleF
2273 664 CircleF
1451 3226 CircleF
1571 3318 CircleF
3266 3028 CircleF
3386 3120 CircleF
3199 3800 CircleF
3318 3892 CircleF
6682 4470 CircleF
6801 4562 CircleF
1414 2598 CircleF
1534 2690 CircleF
3506 2272 CircleF
3625 2363 CircleF
4088 4144 CircleF
4207 4236 CircleF
2164 2321 CircleF
2284 2413 CircleF
5112 1251 CircleF
5231 1343 CircleF
4094 407 CircleF
4213 498 CircleF
6137 1831 CircleF
6256 1923 CircleF
1470 2579 CircleF
1590 2671 CircleF
2695 429 CircleF
2815 521 CircleF
2698 3914 CircleF
2818 4006 CircleF
5453 2782 CircleF
5573 2874 CircleF
3301 3743 CircleF
3421 3835 CircleF
1466 714 CircleF
1586 806 CircleF
3709 1909 CircleF
3829 2000 CircleF
3425 2142 CircleF
3545 2234 CircleF
5143 3919 CircleF
5263 4011 CircleF
5041 3995 CircleF
5161 4087 CircleF
6546 1341 CircleF
6666 1433 CircleF
5016 1240 CircleF
5136 1331 CircleF
1213 2755 CircleF
1332 2846 CircleF
5724 894 CircleF
5843 986 CircleF
6231 1054 CircleF
6350 1146 CircleF
2560 3384 CircleF
2680 3476 CircleF
1958 1399 CircleF
2077 1491 CircleF
3083 660 CircleF
3202 752 CircleF
1909 3587 CircleF
2028 3679 CircleF
1614 2204 CircleF
1734 2296 CircleF
3123 3942 CircleF
3243 4034 CircleF
3794 4114 CircleF
3913 4206 CircleF
1530 923 CircleF
1649 1015 CircleF
2591 2895 CircleF
2711 2986 CircleF
3056 1744 CircleF
3175 1836 CircleF
3167 1097 CircleF
3286 1189 CircleF
3665 3172 CircleF
3785 3264 CircleF
1999 3017 CircleF
2119 3109 CircleF
4525 4278 CircleF
4645 4370 CircleF
4734 2216 CircleF
4854 2308 CircleF
3116 433 CircleF
3235 525 CircleF
1974 417 CircleF
2094 509 CircleF
1299 3645 CircleF
1418 3737 CircleF
5273 3251 CircleF
5393 3342 CircleF
6554 4102 CircleF
6674 4194 CircleF
6613 4256 CircleF
6732 4348 CircleF
5062 3893 CircleF
5182 3984 CircleF
6297 2662 CircleF
6417 2754 CircleF
6246 2612 CircleF
6365 2703 CircleF
2145 3838 CircleF
2264 3930 CircleF
4706 2431 CircleF
4826 2523 CircleF
5751 1396 CircleF
5871 1488 CircleF
4835 3443 CircleF
4954 3535 CircleF
2085 2878 CircleF
2204 2970 CircleF
6093 2608 CircleF
6212 2699 CircleF
5342 2124 CircleF
5461 2216 CircleF
5851 2479 CircleF
5970 2570 CircleF
2498 4470 CircleF
2618 4562 CircleF
1856 1357 CircleF
1976 1449 CircleF
6151 585 CircleF
6271 677 CircleF
5405 1145 CircleF
5524 1236 CircleF
5726 4400 CircleF
5845 4492 CircleF
1671 4221 CircleF
1791 4313 CircleF
5937 3420 CircleF
6057 3512 CircleF
4264 2942 CircleF
4384 3034 CircleF
6570 1856 CircleF
6690 1947 CircleF
3922 2504 CircleF
4042 2596 CircleF
5897 4473 CircleF
6016 4565 CircleF
6049 4501 CircleF
6168 4593 CircleF
3072 1621 CircleF
3192 1713 CircleF
4263 4254 CircleF
4383 4345 CircleF
4942 1547 CircleF
5062 1638 CircleF
5619 1075 CircleF
5738 1167 CircleF
6053 1969 CircleF
6172 2060 CircleF
1668 1557 CircleF
1787 1649 CircleF
4158 2399 CircleF
4277 2491 CircleF
3551 3986 CircleF
3671 4078 CircleF
2435 3944 CircleF
2555 4036 CircleF
4738 3480 CircleF
4858 3571 CircleF
2730 1867 CircleF
2849 1959 CircleF
6691 4614 CircleF
6811 4706 CircleF
4265 4602 CircleF
4384 4694 CircleF
4009 294 CircleF
4129 386 CircleF
6512 3809 CircleF
6631 3901 CircleF
2798 3814 CircleF
2917 3906 CircleF
1071 1074 CircleF
1191 1166 CircleF
5673 4009 CircleF
5793 4101 CircleF
4792 3913 CircleF
4911 4005 CircleF
1351 3666 CircleF
1471 3758 CircleF
5268 2172 CircleF
5388 2263 CircleF
4200 3278 CircleF
4320 3369 CircleF
5773 2862 CircleF
5892 2954 CircleF
1416 3198 CircleF
1535 3290 CircleF
3141 4492 CircleF
3261 4584 CircleF
4469 2228 CircleF
4588 2319 CircleF
4483 2866 CircleF
4603 2957 CircleF
1254 4006 CircleF
1374 4098 CircleF
4566 430 CircleF
4686 522 CircleF
6326 378 CircleF
6446 470 CircleF
1566 3923 CircleF
1686 4015 CircleF
1612 982 CircleF
1731 1074 CircleF
2412 774 CircleF
2531 866 CircleF
1733 2807 CircleF
1852 2899 CircleF
3106 4183 CircleF
3226 4275 CircleF
6120 3862 CircleF
6240 3954 CircleF
4078 2541 CircleF
4197 2633 CircleF
1283 3949 CircleF
1402 4041 CircleF
3593 3327 CircleF
3712 3419 CircleF
4972 919 CircleF
5092 1011 CircleF
4720 2262 CircleF
4840 2354 CircleF
1384 2674 CircleF
1504 2766 CircleF
6347 3928 CircleF
6467 4020 CircleF
1322 4256 CircleF
1441 4348 CircleF
3879 2523 CircleF
3999 2615 CircleF
4130 597 CircleF
4250 689 CircleF
3428 3810 CircleF
3548 3902 CircleF
2064 2692 CircleF
2183 2784 CircleF
1092 2401 CircleF
1212 2493 CircleF
4062 1973 CircleF
4181 2065 CircleF
4063 1126 CircleF
4183 1218 CircleF
1975 4139 CircleF
2095 4231 CircleF
5741 3722 CircleF
5860 3814 CircleF
5238 4663 CircleF
5358 4754 CircleF
3967 4537 CircleF
4086 4629 CircleF
3200 477 CircleF
3319 569 CircleF
4742 2577 CircleF
4861 2669 CircleF
5695 3831 CircleF
5815 3922 CircleF
4399 4421 CircleF
4519 4512 CircleF
5038 4357 CircleF
5158 4448 CircleF
6124 3900 CircleF
6244 3992 CircleF
4854 314 CircleF
4974 406 CircleF
5401 373 CircleF
5521 465 CircleF
1106 2188 CircleF
1226 2280 CircleF
2411 623 CircleF
2531 715 CircleF
1837 3889 CircleF
1957 3981 CircleF
5792 3055 CircleF
5912 3147 CircleF
985 3685 CircleF
1104 3777 CircleF
2183 872 CircleF
2302 964 CircleF
3949 1452 CircleF
4069 1544 CircleF
4096 4506 CircleF
4215 4598 CircleF
6272 646 CircleF
6392 738 CircleF
5065 3437 CircleF
5185 3529 CircleF
5227 2034 CircleF
5347 2126 CircleF
4421 1255 CircleF
4541 1347 CircleF
4839 2311 CircleF
4958 2403 CircleF
3628 4079 CircleF
3748 4171 CircleF
5900 3488 CircleF
6019 3579 CircleF
5158 3162 CircleF
5278 3254 CircleF
3560 3933 CircleF
3680 4025 CircleF
1119 3776 CircleF
1239 3868 CircleF
1016 3325 CircleF
1136 3417 CircleF
5157 3541 CircleF
5277 3633 CircleF
1065 1615 CircleF
1184 1707 CircleF
4385 713 CircleF
4505 804 CircleF
5322 4586 CircleF
5442 4678 CircleF
1209 2410 CircleF
1329 2502 CircleF
5584 1397 CircleF
5703 1489 CircleF
5796 1839 CircleF
5915 1931 CircleF
2020 4633 CircleF
2140 4725 CircleF
3204 2803 CircleF
3323 2895 CircleF
2232 1776 CircleF
2351 1868 CircleF
4634 2819 CircleF
4754 2911 CircleF
4432 1773 CircleF
4551 1864 CircleF
1399 1627 CircleF
1519 1719 CircleF
2774 2119 CircleF
2893 2211 CircleF
3323 1820 CircleF
3443 1912 CircleF
1798 1558 CircleF
1918 1649 CircleF
2729 3314 CircleF
2848 3406 CircleF
6222 1728 CircleF
6342 1820 CircleF
1303 1251 CircleF
1423 1343 CircleF
5083 669 CircleF
5202 761 CircleF
1543 2819 CircleF
1662 2911 CircleF
2261 2264 CircleF
2381 2356 CircleF
4656 299 CircleF
4776 391 CircleF
3590 2262 CircleF
3709 2353 CircleF
5886 3041 CircleF
6005 3132 CircleF
2417 4329 CircleF
2536 4421 CircleF
5658 2503 CircleF
5778 2595 CircleF
2482 2740 CircleF
2602 2832 CircleF
4913 1544 CircleF
5033 1636 CircleF
2720 4629 CircleF
2840 4721 CircleF
5970 2463 CircleF
6090 2555 CircleF
4955 4135 CircleF
5074 4227 CircleF
3841 4445 CircleF
3961 4537 CircleF
5566 2984 CircleF
5686 3076 CircleF
2303 3346 CircleF
2422 3438 CircleF
3447 2287 CircleF
3567 2379 CircleF
6263 4105 CircleF
6383 4197 CircleF
4753 2123 CircleF
4872 2215 CircleF
3669 4639 CircleF
3789 4731 CircleF
3515 4265 CircleF
3635 4357 CircleF
1947 4577 CircleF
2067 4668 CircleF
4883 4633 CircleF
5003 4725 CircleF
3351 373 CircleF
3470 465 CircleF
2290 4403 CircleF
2410 4495 CircleF
3217 2704 CircleF
3337 2796 CircleF
2321 2102 CircleF
2441 2194 CircleF
5088 2895 CircleF
5207 2987 CircleF
4756 3365 CircleF
4876 3457 CircleF
3536 2967 CircleF
3655 3059 CircleF
4702 914 CircleF
4821 1006 CircleF
3148 2234 CircleF
3267 2326 CircleF
6338 1169 CircleF
6457 1261 CircleF
4330 2673 CircleF
4449 2765 CircleF
1186 3038 CircleF
1306 3129 CircleF
1640 1466 CircleF
1760 1558 CircleF
1660 3291 CircleF
1780 3383 CircleF
3070 3001 CircleF
3189 3093 CircleF
1414 1851 CircleF
1533 1942 CircleF
1955 1520 CircleF
2074 1612 CircleF
6425 612 CircleF
6544 704 CircleF
3894 375 CircleF
4013 467 CircleF
5680 3836 CircleF
5800 3928 CircleF
1936 3415 CircleF
2056 3507 CircleF
2568 1288 CircleF
2688 1379 CircleF
4196 756 CircleF
4315 848 CircleF
5817 842 CircleF
5937 934 CircleF
5958 2143 CircleF
6077 2235 CircleF
5237 3051 CircleF
5357 3143 CircleF
5095 4415 CircleF
5214 4507 CircleF
5539 1276 CircleF
5659 1368 CircleF
2042 4477 CircleF
2162 4569 CircleF
3669 3130 CircleF
3788 3222 CircleF
3278 3189 CircleF
3398 3281 CircleF
2748 1790 CircleF
2867 1882 CircleF
5444 3329 CircleF
5564 3420 CircleF
5136 2241 CircleF
5255 2332 CircleF
4107 4478 CircleF
4227 4570 CircleF
6059 960 CircleF
6178 1051 CircleF
4624 1867 CircleF
4743 1958 CircleF
2545 2331 CircleF
2664 2423 CircleF
5841 2476 CircleF
5960 2568 CircleF
6512 3644 CircleF
6632 3736 CircleF
6541 1328 CircleF
6660 1420 CircleF
6263 4465 CircleF
6382 4557 CircleF
5259 2721 CircleF
5378 2813 CircleF
2823 3538 CircleF
2943 3629 CircleF
4109 1464 CircleF
4229 1556 CircleF
3428 2157 CircleF
3548 2248 CircleF
3570 3050 CircleF
3689 3142 CircleF
3622 2108 CircleF
3741 2200 CircleF
4448 2434 CircleF
4567 2526 CircleF
5988 3964 CircleF
6108 4056 CircleF
3323 1326 CircleF
3443 1418 CircleF
4902 3722 CircleF
5021 3814 CircleF
4803 2593 CircleF
4923 2685 CircleF
3623 742 CircleF
3742 834 CircleF
3304 2700 CircleF
3424 2792 CircleF
5802 284 CircleF
5922 376 CircleF
1660 2775 CircleF
1779 2867 CircleF
5825 1665 CircleF
5945 1757 CircleF
3756 4492 CircleF
3876 4584 CircleF
6183 2731 CircleF
6302 2823 CircleF
6195 2131 CircleF
6315 2223 CircleF
5893 1984 CircleF
6013 2076 CircleF
982 1567 CircleF
1102 1659 CircleF
4739 627 CircleF
4858 718 CircleF
4645 2069 CircleF
4765 2161 CircleF
5517 3845 CircleF
5637 3936 CircleF
3179 4409 CircleF
3299 4501 CircleF
1617 1151 CircleF
1736 1243 CircleF
4483 1964 CircleF
4602 2056 CircleF
4685 3354 CircleF
4804 3446 CircleF
2626 1257 CircleF
2745 1349 CircleF
4139 4466 CircleF
4259 4558 CircleF
2013 2344 CircleF
2133 2436 CircleF
5245 4496 CircleF
5364 4588 CircleF
1603 1194 CircleF
1723 1285 CircleF
4152 4399 CircleF
4272 4491 CircleF
4253 1768 CircleF
4372 1860 CircleF
1897 4294 CircleF
2017 4386 CircleF
4728 1411 CircleF
4848 1502 CircleF
1588 2506 CircleF
1707 2598 CircleF
1780 1599 CircleF
1900 1690 CircleF
3336 4389 CircleF
3455 4480 CircleF
5751 4602 CircleF
5871 4694 CircleF
2360 4634 CircleF
2479 4726 CircleF
2018 3969 CircleF
2138 4061 CircleF
3080 1921 CircleF
3200 2012 CircleF
6228 3359 CircleF
6347 3451 CircleF
3780 2045 CircleF
3900 2137 CircleF
4055 326 CircleF
4175 418 CircleF
4797 2735 CircleF
4917 2826 CircleF
1343 614 CircleF
1463 705 CircleF
2844 563 CircleF
2964 655 CircleF
6029 3249 CircleF
6148 3340 CircleF
2879 4080 CircleF
2999 4172 CircleF
5952 3679 CircleF
6072 3771 CircleF
1719 3950 CircleF
1839 4041 CircleF
3248 4307 CircleF
3368 4399 CircleF
6029 3525 CircleF
6149 3617 CircleF
6299 1248 CircleF
6418 1340 CircleF
5325 2506 CircleF
5445 2597 CircleF
1347 3329 CircleF
1467 3420 CircleF
4901 3883 CircleF
5021 3975 CircleF
2616 3801 CircleF
2735 3893 CircleF
5800 1105 CircleF
5920 1197 CircleF
1334 3304 CircleF
1454 3396 CircleF
2963 1904 CircleF
3082 1996 CircleF
6525 919 CircleF
6645 1010 CircleF
2843 1589 CircleF
2962 1680 CircleF
6140 1174 CircleF
6260 1265 CircleF
3967 3652 CircleF
4087 3744 CircleF
2792 3089 CircleF
2911 3181 CircleF
1234 3742 CircleF
1353 3834 CircleF
1479 2000 CircleF
1599 2092 CircleF
3479 4060 CircleF
3598 4151 CircleF
3244 1036 CircleF
3364 1128 CircleF
6397 1161 CircleF
6517 1253 CircleF
5167 3872 CircleF
5287 3963 CircleF
5962 594 CircleF
6081 686 CircleF
1328 4047 CircleF
1448 4139 CircleF
2758 1683 CircleF
2878 1774 CircleF
3568 2294 CircleF
3687 2385 CircleF
6247 1128 CircleF
6366 1219 CircleF
1655 419 CircleF
1774 511 CircleF
6222 2839 CircleF
6341 2931 CircleF
6636 2021 CircleF
6756 2112 CircleF
2690 1367 CircleF
2810 1459 CircleF
3166 1144 CircleF
3286 1236 CircleF
5135 2671 CircleF
5254 2763 CircleF
4110 1392 CircleF
4230 1484 CircleF
2329 3016 CircleF
2449 3108 CircleF
6343 925 CircleF
6463 1017 CircleF
3078 2348 CircleF
3198 2439 CircleF
4392 518 CircleF
4512 610 CircleF
3957 1384 CircleF
4076 1476 CircleF
1604 1651 CircleF
1724 1743 CircleF
5467 1282 CircleF
5587 1374 CircleF
6257 986 CircleF
6376 1078 CircleF
2578 2794 CircleF
2697 2886 CircleF
1010 3870 CircleF
1130 3962 CircleF
4625 2534 CircleF
4745 2626 CircleF
1413 283 CircleF
1533 375 CircleF
4060 2701 CircleF
4180 2793 CircleF
2583 2354 CircleF
2702 2446 CircleF
2716 3444 CircleF
2836 3536 CircleF
3725 3308 CircleF
3844 3400 CircleF
6662 2765 CircleF
6782 2857 CircleF
3136 1411 CircleF
3256 1503 CircleF
5609 1233 CircleF
5729 1325 CircleF
4003 1494 CircleF
4122 1586 CircleF
2982 1367 CircleF
3101 1459 CircleF
6692 3016 CircleF
6812 3108 CircleF
3928 2304 CircleF
4048 2396 CircleF
6333 4539 CircleF
6452 4631 CircleF
6420 1753 CircleF
6540 1844 CircleF
3024 976 CircleF
3144 1068 CircleF
4767 1753 CircleF
4886 1845 CircleF
4152 4347 CircleF
4272 4439 CircleF
5212 4279 CircleF
5332 4370 CircleF
2989 3052 CircleF
3109 3144 CircleF
2922 2490 CircleF
3042 2582 CircleF
1516 3996 CircleF
1635 4088 CircleF
3054 2537 CircleF
3174 2629 CircleF
2174 987 CircleF
2294 1078 CircleF
5772 2811 CircleF
5891 2903 CircleF
4260 2833 CircleF
4379 2925 CircleF
4441 1073 CircleF
4560 1165 CircleF
5775 2366 CircleF
5894 2458 CircleF
1025 4148 CircleF
1144 4240 CircleF
1618 3654 CircleF
1738 3745 CircleF
1179 3345 CircleF
1299 3436 CircleF
1960 4220 CircleF
2080 4311 CircleF
3694 4481 CircleF
3813 4573 CircleF
6600 1757 CircleF
6720 1848 CircleF
3809 2953 CircleF
3929 3044 CircleF
4807 1927 CircleF
4927 2019 CircleF
2269 1386 CircleF
2389 1478 CircleF
4766 1541 CircleF
4886 1633 CircleF
4652 423 CircleF
4771 515 CircleF
5758 4036 CircleF
5878 4128 CircleF
4464 1342 CircleF
4583 1434 CircleF
1883 1819 CircleF
2003 1911 CircleF
5006 4174 CircleF
5126 4266 CircleF
1981 1183 CircleF
2101 1275 CircleF
5717 2326 CircleF
5836 2418 CircleF
3350 2330 CircleF
3469 2422 CircleF
6645 1325 CircleF
6765 1417 CircleF
2453 3675 CircleF
2573 3767 CircleF
1918 3109 CircleF
2037 3200 CircleF
3844 1986 CircleF
3964 2078 CircleF
6480 4341 CircleF
6599 4433 CircleF
1313 1724 CircleF
1432 1816 CircleF
3259 2809 CircleF
3378 2901 CircleF
2670 520 CircleF
2790 612 CircleF
5031 3145 CircleF
5150 3237 CircleF
6197 3029 CircleF
6317 3121 CircleF
1370 4045 CircleF
1490 4136 CircleF
4171 997 CircleF
4291 1089 CircleF
2012 4466 CircleF
2131 4558 CircleF
3454 1283 CircleF
3573 1375 CircleF
2286 2806 CircleF
2405 2898 CircleF
2645 869 CircleF
2765 961 CircleF
1199 3505 CircleF
1318 3597 CircleF
2181 1450 CircleF
2301 1541 CircleF
1863 4673 CircleF
1983 4765 CircleF
4176 3855 CircleF
4296 3947 CircleF
3008 1786 CircleF
3127 1878 CircleF
4106 904 CircleF
4225 996 CircleF
4615 1287 CircleF
4735 1379 CircleF
3958 1812 CircleF
4078 1904 CircleF
5437 2194 CircleF
5557 2285 CircleF
3978 3842 CircleF
4098 3934 CircleF
2243 1531 CircleF
2363 1622 CircleF
6339 1933 CircleF
6459 2025 CircleF
6292 1517 CircleF
6411 1609 CircleF
1502 4512 CircleF
1621 4604 CircleF
1729 1987 CircleF
1849 2079 CircleF
4534 1946 CircleF
4653 2038 CircleF
6368 3139 CircleF
6488 3231 CircleF
2020 934 CircleF
2140 1026 CircleF
3487 1237 CircleF
3606 1328 CircleF
5625 2237 CircleF
5745 2329 CircleF
3828 4540 CircleF
3947 4632 CircleF
5804 2243 CircleF
5924 2335 CircleF
4049 1185 CircleF
4168 1277 CircleF
1919 754 CircleF
2038 846 CircleF
4358 2741 CircleF
4478 2833 CircleF
2380 459 CircleF
2500 551 CircleF
3510 3862 CircleF
3630 3954 CircleF
6643 1714 CircleF
6763 1806 CircleF
5237 4593 CircleF
5356 4684 CircleF
5235 494 CircleF
5354 586 CircleF
2524 3448 CircleF
2644 3540 CircleF
1132 4286 CircleF
1251 4378 CircleF
3836 3871 CircleF
3956 3963 CircleF
4004 3625 CircleF
4124 3717 CircleF
5978 1252 CircleF
6097 1343 CircleF
5790 2837 CircleF
5910 2929 CircleF
974 2018 CircleF
1094 2110 CircleF
1259 1298 CircleF
1379 1390 CircleF
2318 1059 CircleF
2438 1151 CircleF
5221 2401 CircleF
5340 2493 CircleF
6621 2641 CircleF
6741 2733 CircleF
2967 4171 CircleF
3087 4263 CircleF
2481 1517 CircleF
2601 1609 CircleF
3074 4582 CircleF
3193 4674 CircleF
3085 3440 CircleF
3205 3532 CircleF
5692 2464 CircleF
5811 2556 CircleF
4285 3897 CircleF
4404 3989 CircleF
5398 3815 CircleF
5518 3907 CircleF
3148 3182 CircleF
3268 3274 CircleF
1073 2512 CircleF
1193 2604 CircleF
3492 788 CircleF
3612 880 CircleF
3937 4515 CircleF
4056 4607 CircleF
3084 2688 CircleF
3203 2780 CircleF
2566 3584 CircleF
2686 3676 CircleF
1138 3017 CircleF
1258 3109 CircleF
6031 384 CircleF
6151 476 CircleF
4084 3009 CircleF
4204 3101 CircleF
2125 3466 CircleF
2245 3558 CircleF
5003 2766 CircleF
5123 2858 CircleF
6130 3261 CircleF
6250 3353 CircleF
3612 4543 CircleF
3732 4635 CircleF
2969 568 CircleF
3088 660 CircleF
4619 3948 CircleF
4739 4040 CircleF
3845 1077 CircleF
3964 1169 CircleF
5478 4354 CircleF
5597 4446 CircleF
2540 3129 CircleF
2659 3221 CircleF
4858 4392 CircleF
4978 4483 CircleF
1621 3165 CircleF
1741 3257 CircleF
1717 1152 CircleF
1837 1244 CircleF
1875 3767 CircleF
1995 3858 CircleF
3510 457 CircleF
3629 549 CircleF
5624 2376 CircleF
5744 2468 CircleF
6407 3506 CircleF
6526 3598 CircleF
5024 2440 CircleF
5143 2532 CircleF
1493 3639 CircleF
1613 3731 CircleF
1096 597 CircleF
1215 689 CircleF
2177 4665 CircleF
2297 4757 CircleF
6597 3595 CircleF
6716 3687 CircleF
2739 2731 CircleF
2859 2823 CircleF
2164 1685 CircleF
2284 1777 CircleF
2697 1332 CircleF
2817 1424 CircleF
5091 2970 CircleF
5211 3062 CircleF
2688 1260 CircleF
2807 1351 CircleF
6133 2596 CircleF
6252 2688 CircleF
6673 709 CircleF
6792 801 CircleF
3148 832 CircleF
3268 923 CircleF
1942 4423 CircleF
2062 4515 CircleF
4998 1008 CircleF
5117 1100 CircleF
4670 3427 CircleF
4790 3519 CircleF
4436 2566 CircleF
4556 2658 CircleF
5183 3630 CircleF
5303 3722 CircleF
1624 4440 CircleF
1744 4532 CircleF
1177 1835 CircleF
1297 1927 CircleF
5208 4134 CircleF
5328 4226 CircleF
1885 2839 CircleF
2004 2931 CircleF
5390 3190 CircleF
5509 3282 CircleF
4421 4136 CircleF
4541 4228 CircleF
1852 2886 CircleF
1971 2977 CircleF
2778 4336 CircleF
2898 4428 CircleF
4588 1593 CircleF
4708 1685 CircleF
5464 2918 CircleF
5584 3010 CircleF
2520 762 CircleF
2640 854 CircleF
1316 775 CircleF
1435 867 CircleF
4837 1213 CircleF
4957 1305 CircleF
4129 1657 CircleF
4249 1749 CircleF
2442 2083 CircleF
2561 2175 CircleF
5697 639 CircleF
5816 731 CircleF
5356 4361 CircleF
5476 4453 CircleF
2521 4272 CircleF
2641 4364 CircleF
2699 2164 CircleF
2819 2256 CircleF
1645 907 CircleF
1765 999 CircleF
6604 3084 CircleF
6724 3176 CircleF
4948 680 CircleF
5068 772 CircleF
2136 3254 CircleF
2256 3346 CircleF
2980 3938 CircleF
3100 4030 CircleF
1502 583 CircleF
1622 675 CircleF
3028 850 CircleF
3148 942 CircleF
5137 4047 CircleF
5257 4139 CircleF
1623 4157 CircleF
1743 4249 CircleF
5010 4595 CircleF
5129 4687 CircleF
5249 1081 CircleF
5369 1173 CircleF
1911 2207 CircleF
2031 2299 CircleF
2471 875 CircleF
2591 967 CircleF
6511 1267 CircleF
6630 1359 CircleF
4751 4176 CircleF
4870 4268 CircleF
3665 1838 CircleF
3784 1930 CircleF
5345 2639 CircleF
5465 2731 CircleF
5278 3744 CircleF
5398 3835 CircleF
5925 4305 CircleF
6045 4397 CircleF
3118 422 CircleF
3237 514 CircleF
3984 3453 CircleF
4104 3545 CircleF
5337 3624 CircleF
5457 3715 CircleF
4614 1430 CircleF
4733 1522 CircleF
1979 3446 CircleF
2098 3538 CircleF
1983 358 CircleF
2102 450 CircleF
5141 2246 CircleF
5261 2337 CircleF
3242 2978 CircleF
3362 3070 CircleF
3853 1293 CircleF
3972 1385 CircleF
5323 3526 CircleF
5443 3618 CircleF
4943 2384 CircleF
5063 2476 CircleF
4184 4092 CircleF
4304 4183 CircleF
1026 487 CircleF
1146 579 CircleF
1741 1598 CircleF
1860 1690 CircleF
3168 1432 CircleF
3288 1524 CircleF
5543 1248 CircleF
5663 1340 CircleF
2194 3183 CircleF
2313 3275 CircleF
6551 1429 CircleF
6670 1521 CircleF
5952 2395 CircleF
6072 2486 CircleF
5079 876 CircleF
5198 968 CircleF
6339 4352 CircleF
6459 4444 CircleF
4373 1034 CircleF
4493 1126 CircleF
3479 3171 CircleF
3598 3262 CircleF
2535 4492 CircleF
2655 4584 CircleF
1862 1117 CircleF
1981 1209 CircleF
3817 1752 CircleF
3937 1844 CircleF
3778 2770 CircleF
3897 2862 CircleF
2247 4052 CircleF
2367 4143 CircleF
3228 4019 CircleF
3348 4111 CircleF
3413 2881 CircleF
3532 2973 CircleF
6459 3185 CircleF
6578 3277 CircleF
5069 1426 CircleF
5189 1518 CircleF
2059 3430 CircleF
2179 3522 CircleF
5528 3365 CircleF
5647 3457 CircleF
1888 4632 CircleF
2007 4724 CircleF
5834 4621 CircleF
5954 4712 CircleF
2531 4648 CircleF
2651 4740 CircleF
5343 2720 CircleF
5463 2812 CircleF
1582 2130 CircleF
1702 2222 CircleF
4604 756 CircleF
4724 847 CircleF
5486 2375 CircleF
5606 2467 CircleF
4579 489 CircleF
4699 581 CircleF
4683 1678 CircleF
4802 1770 CircleF
5804 1094 CircleF
5924 1186 CircleF
4090 3097 CircleF
4209 3189 CircleF
4343 450 CircleF
4463 542 CircleF
5122 352 CircleF
5242 444 CircleF
3128 4443 CircleF
3247 4535 CircleF
1291 1827 CircleF
1410 1919 CircleF
6156 3208 CircleF
6276 3300 CircleF
1820 2646 CircleF
1940 2738 CircleF
6628 2264 CircleF
6748 2356 CircleF
3150 694 CircleF
3270 785 CircleF
3331 1577 CircleF
3450 1669 CircleF
4159 3968 CircleF
4278 4060 CircleF
1637 4309 CircleF
1757 4401 CircleF
2974 2432 CircleF
3094 2524 CircleF
5525 2711 CircleF
5645 2802 CircleF
5878 357 CircleF
5998 449 CircleF
2001 2224 CircleF
2121 2316 CircleF
2997 2849 CircleF
3116 2941 CircleF
1656 2304 CircleF
1776 2396 CircleF
3654 4682 CircleF
3774 4774 CircleF
2784 1160 CircleF
2904 1252 CircleF
1560 284 CircleF
1680 376 CircleF
2874 1199 CircleF
2994 1291 CircleF
4963 4156 CircleF
5083 4247 CircleF
2004 2472 CircleF
2123 2564 CircleF
3883 3742 CircleF
4003 3833 CircleF
3794 601 CircleF
3914 693 CircleF
6024 4486 CircleF
6144 4578 CircleF
6459 484 CircleF
6579 576 CircleF
5970 3096 CircleF
6090 3188 CircleF
6359 1403 CircleF
6479 1495 CircleF
4212 1844 CircleF
4331 1936 CircleF
4285 591 CircleF
4405 683 CircleF
1631 2492 CircleF
1751 2584 CircleF
5476 1393 CircleF
5596 1485 CircleF
2635 2068 CircleF
2755 2160 CircleF
2092 3158 CircleF
2211 3250 CircleF
4343 1447 CircleF
4462 1539 CircleF
5195 787 CircleF
5314 879 CircleF
6669 2539 CircleF
6789 2630 CircleF
5035 567 CircleF
5154 659 CircleF
4679 2785 CircleF
4799 2877 CircleF
3730 4066 CircleF
3850 4158 CircleF
3382 3816 CircleF
3501 3907 CircleF
6066 2228 CircleF
6185 2320 CircleF
1544 3169 CircleF
1664 3261 CircleF
5696 3572 CircleF
5815 3663 CircleF
5895 535 CircleF
6015 627 CircleF
5609 3118 CircleF
5729 3210 CircleF
5594 2903 CircleF
5713 2995 CircleF
4775 4294 CircleF
4895 4385 CircleF
4864 2549 CircleF
4983 2641 CircleF
1626 3142 CircleF
1746 3234 CircleF
1150 2871 CircleF
1270 2963 CircleF
1057 4372 CircleF
1176 4463 CircleF
4728 3495 CircleF
4848 3587 CircleF
5089 1628 CircleF
5209 1720 CircleF
2375 3900 CircleF
2494 3992 CircleF
4033 3281 CircleF
4153 3372 CircleF
1584 388 CircleF
1703 480 CircleF
5756 3937 CircleF
5876 4028 CircleF
4983 2663 CircleF
5102 2754 CircleF
5141 478 CircleF
5261 570 CircleF
5985 1924 CircleF
6104 2016 CircleF
3466 745 CircleF
3586 837 CircleF
3345 4609 CircleF
3465 4701 CircleF
6416 2979 CircleF
6535 3071 CircleF
1872 3296 CircleF
1991 3388 CircleF
1184 539 CircleF
1303 631 CircleF
3961 3414 CircleF
4081 3506 CircleF
3417 4169 CircleF
3536 4261 CircleF
2753 2342 CircleF
2873 2434 CircleF
6422 313 CircleF
6541 405 CircleF
6661 3549 CircleF
6780 3640 CircleF
4300 2500 CircleF
4419 2592 CircleF
5433 2424 CircleF
5553 2515 CircleF
3909 2276 CircleF
4028 2368 CircleF
5459 3323 CircleF
5579 3415 CircleF
3040 2548 CircleF
3160 2640 CircleF
976 1054 CircleF
1096 1145 CircleF
1663 1422 CircleF
1782 1514 CircleF
6694 2987 CircleF
6814 3079 CircleF
1396 1621 CircleF
1515 1713 CircleF
3356 4009 CircleF
3476 4101 CircleF
3421 2177 CircleF
3540 2269 CircleF
5047 724 CircleF
5166 816 CircleF
1107 4289 CircleF
1226 4381 CircleF
2393 287 CircleF
2513 379 CircleF
2710 1169 CircleF
2830 1260 CircleF
3655 2595 CircleF
3775 2687 CircleF
4787 4205 CircleF
4907 4297 CircleF
2971 2593 CircleF
3090 2685 CircleF
5067 4458 CircleF
5187 4550 CircleF
6657 3313 CircleF
6777 3405 CircleF
4315 4385 CircleF
4435 4477 CircleF
2645 3801 CircleF
2764 3892 CircleF
2520 1356 CircleF
2640 1448 CircleF
3444 3863 CircleF
3564 3955 CircleF
4796 2649 CircleF
4916 2741 CircleF
2009 3847 CircleF
2129 3938 CircleF
3735 555 CircleF
3854 647 CircleF
1451 288 CircleF
1571 380 CircleF
3045 1808 CircleF
3165 1900 CircleF
1846 3895 CircleF
1965 3987 CircleF
5864 4224 CircleF
5984 4316 CircleF
4302 2816 CircleF
4421 2907 CircleF
1749 1678 CircleF
1868 1770 CircleF
6659 2977 CircleF
6779 3068 CircleF
2255 3226 CircleF
2375 3318 CircleF
2196 1469 CircleF
2316 1561 CircleF
1408 1028 CircleF
1528 1120 CircleF
5248 368 CircleF
5367 459 CircleF
5950 4173 CircleF
6070 4265 CircleF
5768 3104 CircleF
5888 3196 CircleF
4587 3766 CircleF
4706 3858 CircleF
2695 4520 CircleF
2815 4612 CircleF
4107 1317 CircleF
4227 1409 CircleF
994 4478 CircleF
1114 4570 CircleF
6475 4265 CircleF
6595 4357 CircleF
% End plot #2
1.000 UP
1.000 UL
LT0
0.50 0.50 0.50 C stroke
grestore
end
showpage
%%Trailer
%%DocumentFonts: Helvetica
%%Pages: 1
