%!PS-Adobe-2.0
%%Title: out.ps
%%Creator: gnuplot 4.6 patchlevel 6
%%CreationDate: Thu May 28 15:14:26 2015
%%DocumentFonts: (atend)
%%BoundingBox: 50 50 554 770
%%Orientation: Landscape
%%Pages: (atend)
%%EndComments
%%BeginProlog
/gnudict 256 dict def
gnudict begin
%
% The following true/false flags may be edited by hand if desired.
% The unit line width and grayscale image gamma correction may also be changed.
%
/Color false def
/Blacktext false def
/Solid false def
/Dashlength 1 def
/Landscape true def
/Level1 false def
/Rounded false def
/ClipToBoundingBox false def
/SuppressPDFMark false def
/TransparentPatterns false def
/gnulinewidth 5.000 def
/userlinewidth gnulinewidth def
/Gamma 1.0 def
/BackgroundColor {-1.000 -1.000 -1.000} def
%
/vshift -46 def
/dl1 {
  10.0 Dashlength mul mul
  Rounded { currentlinewidth 0.75 mul sub dup 0 le { pop 0.01 } if } if
} def
/dl2 {
  10.0 Dashlength mul mul
  Rounded { currentlinewidth 0.75 mul add } if
} def
/hpt_ 31.5 def
/vpt_ 31.5 def
/hpt hpt_ def
/vpt vpt_ def
/doclip {
  ClipToBoundingBox {
    newpath 50 50 moveto 554 50 lineto 554 770 lineto 50 770 lineto closepath
    clip
  } if
} def
%
% Gnuplot Prolog Version 4.6 (September 2012)
%
%/SuppressPDFMark true def
%
/M {moveto} bind def
/L {lineto} bind def
/R {rmoveto} bind def
/V {rlineto} bind def
/N {newpath moveto} bind def
/Z {closepath} bind def
/C {setrgbcolor} bind def
/f {rlineto fill} bind def
/g {setgray} bind def
/Gshow {show} def   % May be redefined later in the file to support UTF-8
/vpt2 vpt 2 mul def
/hpt2 hpt 2 mul def
/Lshow {currentpoint stroke M 0 vshift R 
	Blacktext {gsave 0 setgray show grestore} {show} ifelse} def
/Rshow {currentpoint stroke M dup stringwidth pop neg vshift R
	Blacktext {gsave 0 setgray show grestore} {show} ifelse} def
/Cshow {currentpoint stroke M dup stringwidth pop -2 div vshift R 
	Blacktext {gsave 0 setgray show grestore} {show} ifelse} def
/UP {dup vpt_ mul /vpt exch def hpt_ mul /hpt exch def
  /hpt2 hpt 2 mul def /vpt2 vpt 2 mul def} def
/DL {Color {setrgbcolor Solid {pop []} if 0 setdash}
 {pop pop pop 0 setgray Solid {pop []} if 0 setdash} ifelse} def
/BL {stroke userlinewidth 2 mul setlinewidth
	Rounded {1 setlinejoin 1 setlinecap} if} def
/AL {stroke userlinewidth 2 div setlinewidth
	Rounded {1 setlinejoin 1 setlinecap} if} def
/UL {dup gnulinewidth mul /userlinewidth exch def
	dup 1 lt {pop 1} if 10 mul /udl exch def} def
/PL {stroke userlinewidth setlinewidth
	Rounded {1 setlinejoin 1 setlinecap} if} def
3.8 setmiterlimit
% Default Line colors
/LCw {1 1 1} def
/LCb {0 0 0} def
/LCa {0 0 0} def
/LC0 {1 0 0} def
/LC1 {0 1 0} def
/LC2 {0 0 1} def
/LC3 {1 0 1} def
/LC4 {0 1 1} def
/LC5 {1 1 0} def
/LC6 {0 0 0} def
/LC7 {1 0.3 0} def
/LC8 {0.5 0.5 0.5} def
% Default Line Types
/LTw {PL [] 1 setgray} def
/LTb {BL [] LCb DL} def
/LTa {AL [1 udl mul 2 udl mul] 0 setdash LCa setrgbcolor} def
/LT0 {PL [] LC0 DL} def
/LT1 {PL [4 dl1 2 dl2] LC1 DL} def
/LT2 {PL [2 dl1 3 dl2] LC2 DL} def
/LT3 {PL [1 dl1 1.5 dl2] LC3 DL} def
/LT4 {PL [6 dl1 2 dl2 1 dl1 2 dl2] LC4 DL} def
/LT5 {PL [3 dl1 3 dl2 1 dl1 3 dl2] LC5 DL} def
/LT6 {PL [2 dl1 2 dl2 2 dl1 6 dl2] LC6 DL} def
/LT7 {PL [1 dl1 2 dl2 6 dl1 2 dl2 1 dl1 2 dl2] LC7 DL} def
/LT8 {PL [2 dl1 2 dl2 2 dl1 2 dl2 2 dl1 2 dl2 2 dl1 4 dl2] LC8 DL} def
/Pnt {stroke [] 0 setdash gsave 1 setlinecap M 0 0 V stroke grestore} def
/Dia {stroke [] 0 setdash 2 copy vpt add M
  hpt neg vpt neg V hpt vpt neg V
  hpt vpt V hpt neg vpt V closepath stroke
  Pnt} def
/Pls {stroke [] 0 setdash vpt sub M 0 vpt2 V
  currentpoint stroke M
  hpt neg vpt neg R hpt2 0 V stroke
 } def
/Box {stroke [] 0 setdash 2 copy exch hpt sub exch vpt add M
  0 vpt2 neg V hpt2 0 V 0 vpt2 V
  hpt2 neg 0 V closepath stroke
  Pnt} def
/Crs {stroke [] 0 setdash exch hpt sub exch vpt add M
  hpt2 vpt2 neg V currentpoint stroke M
  hpt2 neg 0 R hpt2 vpt2 V stroke} def
/TriU {stroke [] 0 setdash 2 copy vpt 1.12 mul add M
  hpt neg vpt -1.62 mul V
  hpt 2 mul 0 V
  hpt neg vpt 1.62 mul V closepath stroke
  Pnt} def
/Star {2 copy Pls Crs} def
/BoxF {stroke [] 0 setdash exch hpt sub exch vpt add M
  0 vpt2 neg V hpt2 0 V 0 vpt2 V
  hpt2 neg 0 V closepath fill} def
/TriUF {stroke [] 0 setdash vpt 1.12 mul add M
  hpt neg vpt -1.62 mul V
  hpt 2 mul 0 V
  hpt neg vpt 1.62 mul V closepath fill} def
/TriD {stroke [] 0 setdash 2 copy vpt 1.12 mul sub M
  hpt neg vpt 1.62 mul V
  hpt 2 mul 0 V
  hpt neg vpt -1.62 mul V closepath stroke
  Pnt} def
/TriDF {stroke [] 0 setdash vpt 1.12 mul sub M
  hpt neg vpt 1.62 mul V
  hpt 2 mul 0 V
  hpt neg vpt -1.62 mul V closepath fill} def
/DiaF {stroke [] 0 setdash vpt add M
  hpt neg vpt neg V hpt vpt neg V
  hpt vpt V hpt neg vpt V closepath fill} def
/Pent {stroke [] 0 setdash 2 copy gsave
  translate 0 hpt M 4 {72 rotate 0 hpt L} repeat
  closepath stroke grestore Pnt} def
/PentF {stroke [] 0 setdash gsave
  translate 0 hpt M 4 {72 rotate 0 hpt L} repeat
  closepath fill grestore} def
/Circle {stroke [] 0 setdash 2 copy
  hpt 0 360 arc stroke Pnt} def
/CircleF {stroke [] 0 setdash hpt 0 360 arc fill} def
/C0 {BL [] 0 setdash 2 copy moveto vpt 90 450 arc} bind def
/C1 {BL [] 0 setdash 2 copy moveto
	2 copy vpt 0 90 arc closepath fill
	vpt 0 360 arc closepath} bind def
/C2 {BL [] 0 setdash 2 copy moveto
	2 copy vpt 90 180 arc closepath fill
	vpt 0 360 arc closepath} bind def
/C3 {BL [] 0 setdash 2 copy moveto
	2 copy vpt 0 180 arc closepath fill
	vpt 0 360 arc closepath} bind def
/C4 {BL [] 0 setdash 2 copy moveto
	2 copy vpt 180 270 arc closepath fill
	vpt 0 360 arc closepath} bind def
/C5 {BL [] 0 setdash 2 copy moveto
	2 copy vpt 0 90 arc
	2 copy moveto
	2 copy vpt 180 270 arc closepath fill
	vpt 0 360 arc} bind def
/C6 {BL [] 0 setdash 2 copy moveto
	2 copy vpt 90 270 arc closepath fill
	vpt 0 360 arc closepath} bind def
/C7 {BL [] 0 setdash 2 copy moveto
	2 copy vpt 0 270 arc closepath fill
	vpt 0 360 arc closepath} bind def
/C8 {BL [] 0 setdash 2 copy moveto
	2 copy vpt 270 360 arc closepath fill
	vpt 0 360 arc closepath} bind def
/C9 {BL [] 0 setdash 2 copy moveto
	2 copy vpt 270 450 arc closepath fill
	vpt 0 360 arc closepath} bind def
/C10 {BL [] 0 setdash 2 copy 2 copy moveto vpt 270 360 arc closepath fill
	2 copy moveto
	2 copy vpt 90 180 arc closepath fill
	vpt 0 360 arc closepath} bind def
/C11 {BL [] 0 setdash 2 copy moveto
	2 copy vpt 0 180 arc closepath fill
	2 copy moveto
	2 copy vpt 270 360 arc closepath fill
	vpt 0 360 arc closepath} bind def
/C12 {BL [] 0 setdash 2 copy moveto
	2 copy vpt 180 360 arc closepath fill
	vpt 0 360 arc closepath} bind def
/C13 {BL [] 0 setdash 2 copy moveto
	2 copy vpt 0 90 arc closepath fill
	2 copy moveto
	2 copy vpt 180 360 arc closepath fill
	vpt 0 360 arc closepath} bind def
/C14 {BL [] 0 setdash 2 copy moveto
	2 copy vpt 90 360 arc closepath fill
	vpt 0 360 arc} bind def
/C15 {BL [] 0 setdash 2 copy vpt 0 360 arc closepath fill
	vpt 0 360 arc closepath} bind def
/Rec {newpath 4 2 roll moveto 1 index 0 rlineto 0 exch rlineto
	neg 0 rlineto closepath} bind def
/Square {dup Rec} bind def
/Bsquare {vpt sub exch vpt sub exch vpt2 Square} bind def
/S0 {BL [] 0 setdash 2 copy moveto 0 vpt rlineto BL Bsquare} bind def
/S1 {BL [] 0 setdash 2 copy vpt Square fill Bsquare} bind def
/S2 {BL [] 0 setdash 2 copy exch vpt sub exch vpt Square fill Bsquare} bind def
/S3 {BL [] 0 setdash 2 copy exch vpt sub exch vpt2 vpt Rec fill Bsquare} bind def
/S4 {BL [] 0 setdash 2 copy exch vpt sub exch vpt sub vpt Square fill Bsquare} bind def
/S5 {BL [] 0 setdash 2 copy 2 copy vpt Square fill
	exch vpt sub exch vpt sub vpt Square fill Bsquare} bind def
/S6 {BL [] 0 setdash 2 copy exch vpt sub exch vpt sub vpt vpt2 Rec fill Bsquare} bind def
/S7 {BL [] 0 setdash 2 copy exch vpt sub exch vpt sub vpt vpt2 Rec fill
	2 copy vpt Square fill Bsquare} bind def
/S8 {BL [] 0 setdash 2 copy vpt sub vpt Square fill Bsquare} bind def
/S9 {BL [] 0 setdash 2 copy vpt sub vpt vpt2 Rec fill Bsquare} bind def
/S10 {BL [] 0 setdash 2 copy vpt sub vpt Square fill 2 copy exch vpt sub exch vpt Square fill
	Bsquare} bind def
/S11 {BL [] 0 setdash 2 copy vpt sub vpt Square fill 2 copy exch vpt sub exch vpt2 vpt Rec fill
	Bsquare} bind def
/S12 {BL [] 0 setdash 2 copy exch vpt sub exch vpt sub vpt2 vpt Rec fill Bsquare} bind def
/S13 {BL [] 0 setdash 2 copy exch vpt sub exch vpt sub vpt2 vpt Rec fill
	2 copy vpt Square fill Bsquare} bind def
/S14 {BL [] 0 setdash 2 copy exch vpt sub exch vpt sub vpt2 vpt Rec fill
	2 copy exch vpt sub exch vpt Square fill Bsquare} bind def
/S15 {BL [] 0 setdash 2 copy Bsquare fill Bsquare} bind def
/D0 {gsave translate 45 rotate 0 0 S0 stroke grestore} bind def
/D1 {gsave translate 45 rotate 0 0 S1 stroke grestore} bind def
/D2 {gsave translate 45 rotate 0 0 S2 stroke grestore} bind def
/D3 {gsave translate 45 rotate 0 0 S3 stroke grestore} bind def
/D4 {gsave translate 45 rotate 0 0 S4 stroke grestore} bind def
/D5 {gsave translate 45 rotate 0 0 S5 stroke grestore} bind def
/D6 {gsave translate 45 rotate 0 0 S6 stroke grestore} bind def
/D7 {gsave translate 45 rotate 0 0 S7 stroke grestore} bind def
/D8 {gsave translate 45 rotate 0 0 S8 stroke grestore} bind def
/D9 {gsave translate 45 rotate 0 0 S9 stroke grestore} bind def
/D10 {gsave translate 45 rotate 0 0 S10 stroke grestore} bind def
/D11 {gsave translate 45 rotate 0 0 S11 stroke grestore} bind def
/D12 {gsave translate 45 rotate 0 0 S12 stroke grestore} bind def
/D13 {gsave translate 45 rotate 0 0 S13 stroke grestore} bind def
/D14 {gsave translate 45 rotate 0 0 S14 stroke grestore} bind def
/D15 {gsave translate 45 rotate 0 0 S15 stroke grestore} bind def
/DiaE {stroke [] 0 setdash vpt add M
  hpt neg vpt neg V hpt vpt neg V
  hpt vpt V hpt neg vpt V closepath stroke} def
/BoxE {stroke [] 0 setdash exch hpt sub exch vpt add M
  0 vpt2 neg V hpt2 0 V 0 vpt2 V
  hpt2 neg 0 V closepath stroke} def
/TriUE {stroke [] 0 setdash vpt 1.12 mul add M
  hpt neg vpt -1.62 mul V
  hpt 2 mul 0 V
  hpt neg vpt 1.62 mul V closepath stroke} def
/TriDE {stroke [] 0 setdash vpt 1.12 mul sub M
  hpt neg vpt 1.62 mul V
  hpt 2 mul 0 V
  hpt neg vpt -1.62 mul V closepath stroke} def
/PentE {stroke [] 0 setdash gsave
  translate 0 hpt M 4 {72 rotate 0 hpt L} repeat
  closepath stroke grestore} def
/CircE {stroke [] 0 setdash 
  hpt 0 360 arc stroke} def
/Opaque {gsave closepath 1 setgray fill grestore 0 setgray closepath} def
/DiaW {stroke [] 0 setdash vpt add M
  hpt neg vpt neg V hpt vpt neg V
  hpt vpt V hpt neg vpt V Opaque stroke} def
/BoxW {stroke [] 0 setdash exch hpt sub exch vpt add M
  0 vpt2 neg V hpt2 0 V 0 vpt2 V
  hpt2 neg 0 V Opaque stroke} def
/TriUW {stroke [] 0 setdash vpt 1.12 mul add M
  hpt neg vpt -1.62 mul V
  hpt 2 mul 0 V
  hpt neg vpt 1.62 mul V Opaque stroke} def
/TriDW {stroke [] 0 setdash vpt 1.12 mul sub M
  hpt neg vpt 1.62 mul V
  hpt 2 mul 0 V
  hpt neg vpt -1.62 mul V Opaque stroke} def
/PentW {stroke [] 0 setdash gsave
  translate 0 hpt M 4 {72 rotate 0 hpt L} repeat
  Opaque stroke grestore} def
/CircW {stroke [] 0 setdash 
  hpt 0 360 arc Opaque stroke} def
/BoxFill {gsave Rec 1 setgray fill grestore} def
/Density {
  /Fillden exch def
  currentrgbcolor
  /ColB exch def /ColG exch def /ColR exch def
  /ColR ColR Fillden mul Fillden sub 1 add def
  /ColG ColG Fillden mul Fillden sub 1 add def
  /ColB ColB Fillden mul Fillden sub 1 add def
  ColR ColG ColB setrgbcolor} def
/BoxColFill {gsave Rec PolyFill} def
/PolyFill {gsave Density fill grestore grestore} def
/h {rlineto rlineto rlineto gsave closepath fill grestore} bind def
%
% PostScript Level 1 Pattern Fill routine for rectangles
% Usage: x y w h s a XX PatternFill
%	x,y = lower left corner of box to be filled
%	w,h = width and height of box
%	  a = angle in degrees between lines and x-axis
%	 XX = 0/1 for no/yes cross-hatch
%
/PatternFill {gsave /PFa [ 9 2 roll ] def
  PFa 0 get PFa 2 get 2 div add PFa 1 get PFa 3 get 2 div add translate
  PFa 2 get -2 div PFa 3 get -2 div PFa 2 get PFa 3 get Rec
  TransparentPatterns {} {gsave 1 setgray fill grestore} ifelse
  clip
  currentlinewidth 0.5 mul setlinewidth
  /PFs PFa 2 get dup mul PFa 3 get dup mul add sqrt def
  0 0 M PFa 5 get rotate PFs -2 div dup translate
  0 1 PFs PFa 4 get div 1 add floor cvi
	{PFa 4 get mul 0 M 0 PFs V} for
  0 PFa 6 get ne {
	0 1 PFs PFa 4 get div 1 add floor cvi
	{PFa 4 get mul 0 2 1 roll M PFs 0 V} for
 } if
  stroke grestore} def
%
/languagelevel where
 {pop languagelevel} {1} ifelse
 2 lt
	{/InterpretLevel1 true def}
	{/InterpretLevel1 Level1 def}
 ifelse
%
% PostScript level 2 pattern fill definitions
%
/Level2PatternFill {
/Tile8x8 {/PaintType 2 /PatternType 1 /TilingType 1 /BBox [0 0 8 8] /XStep 8 /YStep 8}
	bind def
/KeepColor {currentrgbcolor [/Pattern /DeviceRGB] setcolorspace} bind def
<< Tile8x8
 /PaintProc {0.5 setlinewidth pop 0 0 M 8 8 L 0 8 M 8 0 L stroke} 
>> matrix makepattern
/Pat1 exch def
<< Tile8x8
 /PaintProc {0.5 setlinewidth pop 0 0 M 8 8 L 0 8 M 8 0 L stroke
	0 4 M 4 8 L 8 4 L 4 0 L 0 4 L stroke}
>> matrix makepattern
/Pat2 exch def
<< Tile8x8
 /PaintProc {0.5 setlinewidth pop 0 0 M 0 8 L
	8 8 L 8 0 L 0 0 L fill}
>> matrix makepattern
/Pat3 exch def
<< Tile8x8
 /PaintProc {0.5 setlinewidth pop -4 8 M 8 -4 L
	0 12 M 12 0 L stroke}
>> matrix makepattern
/Pat4 exch def
<< Tile8x8
 /PaintProc {0.5 setlinewidth pop -4 0 M 8 12 L
	0 -4 M 12 8 L stroke}
>> matrix makepattern
/Pat5 exch def
<< Tile8x8
 /PaintProc {0.5 setlinewidth pop -2 8 M 4 -4 L
	0 12 M 8 -4 L 4 12 M 10 0 L stroke}
>> matrix makepattern
/Pat6 exch def
<< Tile8x8
 /PaintProc {0.5 setlinewidth pop -2 0 M 4 12 L
	0 -4 M 8 12 L 4 -4 M 10 8 L stroke}
>> matrix makepattern
/Pat7 exch def
<< Tile8x8
 /PaintProc {0.5 setlinewidth pop 8 -2 M -4 4 L
	12 0 M -4 8 L 12 4 M 0 10 L stroke}
>> matrix makepattern
/Pat8 exch def
<< Tile8x8
 /PaintProc {0.5 setlinewidth pop 0 -2 M 12 4 L
	-4 0 M 12 8 L -4 4 M 8 10 L stroke}
>> matrix makepattern
/Pat9 exch def
/Pattern1 {PatternBgnd KeepColor Pat1 setpattern} bind def
/Pattern2 {PatternBgnd KeepColor Pat2 setpattern} bind def
/Pattern3 {PatternBgnd KeepColor Pat3 setpattern} bind def
/Pattern4 {PatternBgnd KeepColor Landscape {Pat5} {Pat4} ifelse setpattern} bind def
/Pattern5 {PatternBgnd KeepColor Landscape {Pat4} {Pat5} ifelse setpattern} bind def
/Pattern6 {PatternBgnd KeepColor Landscape {Pat9} {Pat6} ifelse setpattern} bind def
/Pattern7 {PatternBgnd KeepColor Landscape {Pat8} {Pat7} ifelse setpattern} bind def
} def
%
%
%End of PostScript Level 2 code
%
/PatternBgnd {
  TransparentPatterns {} {gsave 1 setgray fill grestore} ifelse
} def
%
% Substitute for Level 2 pattern fill codes with
% grayscale if Level 2 support is not selected.
%
/Level1PatternFill {
/Pattern1 {0.250 Density} bind def
/Pattern2 {0.500 Density} bind def
/Pattern3 {0.750 Density} bind def
/Pattern4 {0.125 Density} bind def
/Pattern5 {0.375 Density} bind def
/Pattern6 {0.625 Density} bind def
/Pattern7 {0.875 Density} bind def
} def
%
% Now test for support of Level 2 code
%
Level1 {Level1PatternFill} {Level2PatternFill} ifelse
%
/Symbol-Oblique /Symbol findfont [1 0 .167 1 0 0] makefont
dup length dict begin {1 index /FID eq {pop pop} {def} ifelse} forall
currentdict end definefont pop
Level1 SuppressPDFMark or 
{} {
/SDict 10 dict def
systemdict /pdfmark known not {
  userdict /pdfmark systemdict /cleartomark get put
} if
SDict begin [
  /Title (out.ps)
  /Subject (gnuplot plot)
  /Creator (gnuplot 4.6 patchlevel 6)
  /Author (yani)
%  /Producer (gnuplot)
%  /Keywords ()
  /CreationDate (Thu May 28 15:14:26 2015)
  /DOCINFO pdfmark
end
} ifelse
end
%%EndProlog
%%Page: 1 1
gnudict begin
gsave
doclip
50 50 translate
0.100 0.100 scale
90 rotate
0 -5040 translate
0 setgray
newpath
(Helvetica) findfont 140 scalefont setfont
BackgroundColor 0 lt 3 1 roll 0 lt exch 0 lt or or not {gsave BackgroundColor C clippath fill grestore} if
1.000 UL
LT0
0.50 0.50 0.50 C 1.000 UL
LTa
0.50 0.50 0.50 C 966 280 M
5981 0 V
stroke
LT0
0.50 0.50 0.50 C 966 280 M
63 0 V
5918 0 R
-63 0 V
882 280 M
( 0) Rshow
1.000 UL
LT0
0.50 0.50 0.50 C 1.000 UL
LTa
0.50 0.50 0.50 C 966 311 M
5981 0 V
stroke
LT0
0.50 0.50 0.50 C 966 311 M
63 0 V
5918 0 R
-63 0 V
882 311 M
( 0.707106) Rshow
1.000 UL
LT0
0.50 0.50 0.50 C 1.000 UL
LTa
0.50 0.50 0.50 C 966 341 M
5981 0 V
stroke
LT0
0.50 0.50 0.50 C 966 341 M
63 0 V
5918 0 R
-63 0 V
882 341 M
( 1.41421) Rshow
1.000 UL
LT0
0.50 0.50 0.50 C 1.000 UL
LTa
0.50 0.50 0.50 C 966 372 M
5981 0 V
stroke
LT0
0.50 0.50 0.50 C 966 372 M
63 0 V
5918 0 R
-63 0 V
882 372 M
( 2.12132) Rshow
1.000 UL
LT0
0.50 0.50 0.50 C 1.000 UL
LTa
0.50 0.50 0.50 C 966 402 M
5981 0 V
stroke
LT0
0.50 0.50 0.50 C 966 402 M
63 0 V
5918 0 R
-63 0 V
882 402 M
( 2.82842) Rshow
1.000 UL
LT0
0.50 0.50 0.50 C 1.000 UL
LTa
0.50 0.50 0.50 C 966 433 M
5981 0 V
stroke
LT0
0.50 0.50 0.50 C 966 433 M
63 0 V
5918 0 R
-63 0 V
882 433 M
( 3.53553) Rshow
1.000 UL
LT0
0.50 0.50 0.50 C 1.000 UL
LTa
0.50 0.50 0.50 C 966 464 M
5981 0 V
stroke
LT0
0.50 0.50 0.50 C 966 464 M
63 0 V
5918 0 R
-63 0 V
882 464 M
( 4.24264) Rshow
1.000 UL
LT0
0.50 0.50 0.50 C 1.000 UL
LTa
0.50 0.50 0.50 C 966 494 M
5981 0 V
stroke
LT0
0.50 0.50 0.50 C 966 494 M
63 0 V
5918 0 R
-63 0 V
882 494 M
( 4.94974) Rshow
1.000 UL
LT0
0.50 0.50 0.50 C 1.000 UL
LTa
0.50 0.50 0.50 C 966 525 M
5981 0 V
stroke
LT0
0.50 0.50 0.50 C 966 525 M
63 0 V
5918 0 R
-63 0 V
882 525 M
( 5.65685) Rshow
1.000 UL
LT0
0.50 0.50 0.50 C 1.000 UL
LTa
0.50 0.50 0.50 C 966 555 M
5981 0 V
stroke
LT0
0.50 0.50 0.50 C 966 555 M
63 0 V
5918 0 R
-63 0 V
882 555 M
( 6.36395) Rshow
1.000 UL
LT0
0.50 0.50 0.50 C 1.000 UL
LTa
0.50 0.50 0.50 C 966 586 M
5981 0 V
stroke
LT0
0.50 0.50 0.50 C 966 586 M
63 0 V
5918 0 R
-63 0 V
882 586 M
( 7.07106) Rshow
1.000 UL
LT0
0.50 0.50 0.50 C 1.000 UL
LTa
0.50 0.50 0.50 C 966 617 M
5981 0 V
stroke
LT0
0.50 0.50 0.50 C 966 617 M
63 0 V
5918 0 R
-63 0 V
882 617 M
( 7.77817) Rshow
1.000 UL
LT0
0.50 0.50 0.50 C 1.000 UL
LTa
0.50 0.50 0.50 C 966 647 M
5981 0 V
stroke
LT0
0.50 0.50 0.50 C 966 647 M
63 0 V
5918 0 R
-63 0 V
882 647 M
( 8.48527) Rshow
1.000 UL
LT0
0.50 0.50 0.50 C 1.000 UL
LTa
0.50 0.50 0.50 C 966 678 M
5981 0 V
stroke
LT0
0.50 0.50 0.50 C 966 678 M
63 0 V
5918 0 R
-63 0 V
882 678 M
( 9.19238) Rshow
1.000 UL
LT0
0.50 0.50 0.50 C 1.000 UL
LTa
0.50 0.50 0.50 C 966 708 M
5981 0 V
stroke
LT0
0.50 0.50 0.50 C 966 708 M
63 0 V
5918 0 R
-63 0 V
882 708 M
( 9.89948) Rshow
1.000 UL
LT0
0.50 0.50 0.50 C 1.000 UL
LTa
0.50 0.50 0.50 C 966 739 M
5981 0 V
stroke
LT0
0.50 0.50 0.50 C 966 739 M
63 0 V
5918 0 R
-63 0 V
882 739 M
( 10.6066) Rshow
1.000 UL
LT0
0.50 0.50 0.50 C 1.000 UL
LTa
0.50 0.50 0.50 C 966 770 M
5981 0 V
stroke
LT0
0.50 0.50 0.50 C 966 770 M
63 0 V
5918 0 R
-63 0 V
882 770 M
( 11.3137) Rshow
1.000 UL
LT0
0.50 0.50 0.50 C 1.000 UL
LTa
0.50 0.50 0.50 C 966 800 M
5981 0 V
stroke
LT0
0.50 0.50 0.50 C 966 800 M
63 0 V
5918 0 R
-63 0 V
882 800 M
( 12.0208) Rshow
1.000 UL
LT0
0.50 0.50 0.50 C 1.000 UL
LTa
0.50 0.50 0.50 C 966 831 M
5981 0 V
stroke
LT0
0.50 0.50 0.50 C 966 831 M
63 0 V
5918 0 R
-63 0 V
882 831 M
( 12.7279) Rshow
1.000 UL
LT0
0.50 0.50 0.50 C 1.000 UL
LTa
0.50 0.50 0.50 C 966 862 M
5981 0 V
stroke
LT0
0.50 0.50 0.50 C 966 862 M
63 0 V
5918 0 R
-63 0 V
882 862 M
( 13.435) Rshow
1.000 UL
LT0
0.50 0.50 0.50 C 1.000 UL
LTa
0.50 0.50 0.50 C 966 892 M
5981 0 V
stroke
LT0
0.50 0.50 0.50 C 966 892 M
63 0 V
5918 0 R
-63 0 V
882 892 M
( 14.1421) Rshow
1.000 UL
LT0
0.50 0.50 0.50 C 1.000 UL
LTa
0.50 0.50 0.50 C 966 923 M
5981 0 V
stroke
LT0
0.50 0.50 0.50 C 966 923 M
63 0 V
5918 0 R
-63 0 V
882 923 M
( 14.8492) Rshow
1.000 UL
LT0
0.50 0.50 0.50 C 1.000 UL
LTa
0.50 0.50 0.50 C 966 953 M
5981 0 V
stroke
LT0
0.50 0.50 0.50 C 966 953 M
63 0 V
5918 0 R
-63 0 V
882 953 M
( 15.5563) Rshow
1.000 UL
LT0
0.50 0.50 0.50 C 1.000 UL
LTa
0.50 0.50 0.50 C 966 984 M
5981 0 V
stroke
LT0
0.50 0.50 0.50 C 966 984 M
63 0 V
5918 0 R
-63 0 V
882 984 M
( 16.2634) Rshow
1.000 UL
LT0
0.50 0.50 0.50 C 1.000 UL
LTa
0.50 0.50 0.50 C 966 1015 M
5981 0 V
stroke
LT0
0.50 0.50 0.50 C 966 1015 M
63 0 V
5918 0 R
-63 0 V
-6002 0 R
( 16.9705) Rshow
1.000 UL
LT0
0.50 0.50 0.50 C 1.000 UL
LTa
0.50 0.50 0.50 C 966 1045 M
5981 0 V
stroke
LT0
0.50 0.50 0.50 C 966 1045 M
63 0 V
5918 0 R
-63 0 V
-6002 0 R
( 17.6776) Rshow
1.000 UL
LT0
0.50 0.50 0.50 C 1.000 UL
LTa
0.50 0.50 0.50 C 966 1076 M
5981 0 V
stroke
LT0
0.50 0.50 0.50 C 966 1076 M
63 0 V
5918 0 R
-63 0 V
-6002 0 R
( 18.3848) Rshow
1.000 UL
LT0
0.50 0.50 0.50 C 1.000 UL
LTa
0.50 0.50 0.50 C 966 1106 M
5981 0 V
stroke
LT0
0.50 0.50 0.50 C 966 1106 M
63 0 V
5918 0 R
-63 0 V
-6002 0 R
( 19.0919) Rshow
1.000 UL
LT0
0.50 0.50 0.50 C 1.000 UL
LTa
0.50 0.50 0.50 C 966 1137 M
5981 0 V
stroke
LT0
0.50 0.50 0.50 C 966 1137 M
63 0 V
5918 0 R
-63 0 V
-6002 0 R
( 19.799) Rshow
1.000 UL
LT0
0.50 0.50 0.50 C 1.000 UL
LTa
0.50 0.50 0.50 C 966 1168 M
5981 0 V
stroke
LT0
0.50 0.50 0.50 C 966 1168 M
63 0 V
5918 0 R
-63 0 V
-6002 0 R
( 20.5061) Rshow
1.000 UL
LT0
0.50 0.50 0.50 C 1.000 UL
LTa
0.50 0.50 0.50 C 966 1198 M
5981 0 V
stroke
LT0
0.50 0.50 0.50 C 966 1198 M
63 0 V
5918 0 R
-63 0 V
-6002 0 R
( 21.2132) Rshow
1.000 UL
LT0
0.50 0.50 0.50 C 1.000 UL
LTa
0.50 0.50 0.50 C 966 1229 M
5981 0 V
stroke
LT0
0.50 0.50 0.50 C 966 1229 M
63 0 V
5918 0 R
-63 0 V
-6002 0 R
( 21.9203) Rshow
1.000 UL
LT0
0.50 0.50 0.50 C 1.000 UL
LTa
0.50 0.50 0.50 C 966 1259 M
5981 0 V
stroke
LT0
0.50 0.50 0.50 C 966 1259 M
63 0 V
5918 0 R
-63 0 V
-6002 0 R
( 22.6274) Rshow
1.000 UL
LT0
0.50 0.50 0.50 C 1.000 UL
LTa
0.50 0.50 0.50 C 966 1290 M
5981 0 V
stroke
LT0
0.50 0.50 0.50 C 966 1290 M
63 0 V
5918 0 R
-63 0 V
-6002 0 R
( 23.3345) Rshow
1.000 UL
LT0
0.50 0.50 0.50 C 1.000 UL
LTa
0.50 0.50 0.50 C 966 1321 M
5981 0 V
stroke
LT0
0.50 0.50 0.50 C 966 1321 M
63 0 V
5918 0 R
-63 0 V
-6002 0 R
( 24.0416) Rshow
1.000 UL
LT0
0.50 0.50 0.50 C 1.000 UL
LTa
0.50 0.50 0.50 C 966 1351 M
5981 0 V
stroke
LT0
0.50 0.50 0.50 C 966 1351 M
63 0 V
5918 0 R
-63 0 V
-6002 0 R
( 24.7487) Rshow
1.000 UL
LT0
0.50 0.50 0.50 C 1.000 UL
LTa
0.50 0.50 0.50 C 966 1382 M
5981 0 V
stroke
LT0
0.50 0.50 0.50 C 966 1382 M
63 0 V
5918 0 R
-63 0 V
-6002 0 R
( 25.4558) Rshow
1.000 UL
LT0
0.50 0.50 0.50 C 1.000 UL
LTa
0.50 0.50 0.50 C 966 1412 M
5981 0 V
stroke
LT0
0.50 0.50 0.50 C 966 1412 M
63 0 V
5918 0 R
-63 0 V
-6002 0 R
( 26.1629) Rshow
1.000 UL
LT0
0.50 0.50 0.50 C 1.000 UL
LTa
0.50 0.50 0.50 C 966 1443 M
5981 0 V
stroke
LT0
0.50 0.50 0.50 C 966 1443 M
63 0 V
5918 0 R
-63 0 V
-6002 0 R
( 26.87) Rshow
1.000 UL
LT0
0.50 0.50 0.50 C 1.000 UL
LTa
0.50 0.50 0.50 C 966 1474 M
5981 0 V
stroke
LT0
0.50 0.50 0.50 C 966 1474 M
63 0 V
5918 0 R
-63 0 V
-6002 0 R
( 27.5771) Rshow
1.000 UL
LT0
0.50 0.50 0.50 C 1.000 UL
LTa
0.50 0.50 0.50 C 966 1504 M
5981 0 V
stroke
LT0
0.50 0.50 0.50 C 966 1504 M
63 0 V
5918 0 R
-63 0 V
-6002 0 R
( 28.2842) Rshow
1.000 UL
LT0
0.50 0.50 0.50 C 1.000 UL
LTa
0.50 0.50 0.50 C 966 1535 M
5981 0 V
stroke
LT0
0.50 0.50 0.50 C 966 1535 M
63 0 V
5918 0 R
-63 0 V
-6002 0 R
( 28.9913) Rshow
1.000 UL
LT0
0.50 0.50 0.50 C 1.000 UL
LTa
0.50 0.50 0.50 C 966 1565 M
5981 0 V
stroke
LT0
0.50 0.50 0.50 C 966 1565 M
63 0 V
5918 0 R
-63 0 V
-6002 0 R
( 29.6985) Rshow
1.000 UL
LT0
0.50 0.50 0.50 C 1.000 UL
LTa
0.50 0.50 0.50 C 966 1596 M
5981 0 V
stroke
LT0
0.50 0.50 0.50 C 966 1596 M
63 0 V
5918 0 R
-63 0 V
-6002 0 R
( 30.4056) Rshow
1.000 UL
LT0
0.50 0.50 0.50 C 1.000 UL
LTa
0.50 0.50 0.50 C 966 1627 M
5981 0 V
stroke
LT0
0.50 0.50 0.50 C 966 1627 M
63 0 V
5918 0 R
-63 0 V
-6002 0 R
( 31.1127) Rshow
1.000 UL
LT0
0.50 0.50 0.50 C 1.000 UL
LTa
0.50 0.50 0.50 C 966 1657 M
5981 0 V
stroke
LT0
0.50 0.50 0.50 C 966 1657 M
63 0 V
5918 0 R
-63 0 V
-6002 0 R
( 31.8198) Rshow
1.000 UL
LT0
0.50 0.50 0.50 C 1.000 UL
LTa
0.50 0.50 0.50 C 966 1688 M
5981 0 V
stroke
LT0
0.50 0.50 0.50 C 966 1688 M
63 0 V
5918 0 R
-63 0 V
-6002 0 R
( 32.5269) Rshow
1.000 UL
LT0
0.50 0.50 0.50 C 1.000 UL
LTa
0.50 0.50 0.50 C 966 1719 M
5981 0 V
stroke
LT0
0.50 0.50 0.50 C 966 1719 M
63 0 V
5918 0 R
-63 0 V
-6002 0 R
( 33.234) Rshow
1.000 UL
LT0
0.50 0.50 0.50 C 1.000 UL
LTa
0.50 0.50 0.50 C 966 1749 M
5981 0 V
stroke
LT0
0.50 0.50 0.50 C 966 1749 M
63 0 V
5918 0 R
-63 0 V
-6002 0 R
( 33.9411) Rshow
1.000 UL
LT0
0.50 0.50 0.50 C 1.000 UL
LTa
0.50 0.50 0.50 C 966 1780 M
5981 0 V
stroke
LT0
0.50 0.50 0.50 C 966 1780 M
63 0 V
5918 0 R
-63 0 V
-6002 0 R
( 34.6482) Rshow
1.000 UL
LT0
0.50 0.50 0.50 C 1.000 UL
LTa
0.50 0.50 0.50 C 966 1810 M
5981 0 V
stroke
LT0
0.50 0.50 0.50 C 966 1810 M
63 0 V
5918 0 R
-63 0 V
-6002 0 R
( 35.3553) Rshow
1.000 UL
LT0
0.50 0.50 0.50 C 1.000 UL
LTa
0.50 0.50 0.50 C 966 1841 M
5981 0 V
stroke
LT0
0.50 0.50 0.50 C 966 1841 M
63 0 V
5918 0 R
-63 0 V
-6002 0 R
( 36.0624) Rshow
1.000 UL
LT0
0.50 0.50 0.50 C 1.000 UL
LTa
0.50 0.50 0.50 C 966 1872 M
5981 0 V
stroke
LT0
0.50 0.50 0.50 C 966 1872 M
63 0 V
5918 0 R
-63 0 V
-6002 0 R
( 36.7695) Rshow
1.000 UL
LT0
0.50 0.50 0.50 C 1.000 UL
LTa
0.50 0.50 0.50 C 966 1902 M
5981 0 V
stroke
LT0
0.50 0.50 0.50 C 966 1902 M
63 0 V
5918 0 R
-63 0 V
-6002 0 R
( 37.4766) Rshow
1.000 UL
LT0
0.50 0.50 0.50 C 1.000 UL
LTa
0.50 0.50 0.50 C 966 1933 M
5981 0 V
stroke
LT0
0.50 0.50 0.50 C 966 1933 M
63 0 V
5918 0 R
-63 0 V
-6002 0 R
( 38.1837) Rshow
1.000 UL
LT0
0.50 0.50 0.50 C 1.000 UL
LTa
0.50 0.50 0.50 C 966 1963 M
5981 0 V
stroke
LT0
0.50 0.50 0.50 C 966 1963 M
63 0 V
5918 0 R
-63 0 V
-6002 0 R
( 38.8908) Rshow
1.000 UL
LT0
0.50 0.50 0.50 C 1.000 UL
LTa
0.50 0.50 0.50 C 966 1994 M
5981 0 V
stroke
LT0
0.50 0.50 0.50 C 966 1994 M
63 0 V
5918 0 R
-63 0 V
-6002 0 R
( 39.5979) Rshow
1.000 UL
LT0
0.50 0.50 0.50 C 1.000 UL
LTa
0.50 0.50 0.50 C 966 2025 M
5981 0 V
stroke
LT0
0.50 0.50 0.50 C 966 2025 M
63 0 V
5918 0 R
-63 0 V
-6002 0 R
( 40.305) Rshow
1.000 UL
LT0
0.50 0.50 0.50 C 1.000 UL
LTa
0.50 0.50 0.50 C 966 2055 M
5981 0 V
stroke
LT0
0.50 0.50 0.50 C 966 2055 M
63 0 V
5918 0 R
-63 0 V
-6002 0 R
( 41.0121) Rshow
1.000 UL
LT0
0.50 0.50 0.50 C 1.000 UL
LTa
0.50 0.50 0.50 C 966 2086 M
5981 0 V
stroke
LT0
0.50 0.50 0.50 C 966 2086 M
63 0 V
5918 0 R
-63 0 V
-6002 0 R
( 41.7193) Rshow
1.000 UL
LT0
0.50 0.50 0.50 C 1.000 UL
LTa
0.50 0.50 0.50 C 966 2116 M
5981 0 V
stroke
LT0
0.50 0.50 0.50 C 966 2116 M
63 0 V
5918 0 R
-63 0 V
-6002 0 R
( 42.4264) Rshow
1.000 UL
LT0
0.50 0.50 0.50 C 1.000 UL
LTa
0.50 0.50 0.50 C 966 2147 M
5981 0 V
stroke
LT0
0.50 0.50 0.50 C 966 2147 M
63 0 V
5918 0 R
-63 0 V
-6002 0 R
( 43.1335) Rshow
1.000 UL
LT0
0.50 0.50 0.50 C 1.000 UL
LTa
0.50 0.50 0.50 C 966 2178 M
5981 0 V
stroke
LT0
0.50 0.50 0.50 C 966 2178 M
63 0 V
5918 0 R
-63 0 V
-6002 0 R
( 43.8406) Rshow
1.000 UL
LT0
0.50 0.50 0.50 C 1.000 UL
LTa
0.50 0.50 0.50 C 966 2208 M
5981 0 V
stroke
LT0
0.50 0.50 0.50 C 966 2208 M
63 0 V
5918 0 R
-63 0 V
-6002 0 R
( 44.5477) Rshow
1.000 UL
LT0
0.50 0.50 0.50 C 1.000 UL
LTa
0.50 0.50 0.50 C 966 2239 M
5981 0 V
stroke
LT0
0.50 0.50 0.50 C 966 2239 M
63 0 V
5918 0 R
-63 0 V
-6002 0 R
( 45.2548) Rshow
1.000 UL
LT0
0.50 0.50 0.50 C 1.000 UL
LTa
0.50 0.50 0.50 C 966 2269 M
5981 0 V
stroke
LT0
0.50 0.50 0.50 C 966 2269 M
63 0 V
5918 0 R
-63 0 V
-6002 0 R
( 45.9619) Rshow
1.000 UL
LT0
0.50 0.50 0.50 C 1.000 UL
LTa
0.50 0.50 0.50 C 966 2300 M
5981 0 V
stroke
LT0
0.50 0.50 0.50 C 966 2300 M
63 0 V
5918 0 R
-63 0 V
-6002 0 R
( 46.669) Rshow
1.000 UL
LT0
0.50 0.50 0.50 C 1.000 UL
LTa
0.50 0.50 0.50 C 966 2331 M
5981 0 V
stroke
LT0
0.50 0.50 0.50 C 966 2331 M
63 0 V
5918 0 R
-63 0 V
-6002 0 R
( 47.3761) Rshow
1.000 UL
LT0
0.50 0.50 0.50 C 1.000 UL
LTa
0.50 0.50 0.50 C 966 2361 M
5981 0 V
stroke
LT0
0.50 0.50 0.50 C 966 2361 M
63 0 V
5918 0 R
-63 0 V
-6002 0 R
( 48.0832) Rshow
1.000 UL
LT0
0.50 0.50 0.50 C 1.000 UL
LTa
0.50 0.50 0.50 C 966 2392 M
5981 0 V
stroke
LT0
0.50 0.50 0.50 C 966 2392 M
63 0 V
5918 0 R
-63 0 V
-6002 0 R
( 48.7903) Rshow
1.000 UL
LT0
0.50 0.50 0.50 C 1.000 UL
LTa
0.50 0.50 0.50 C 966 2422 M
5981 0 V
stroke
LT0
0.50 0.50 0.50 C 966 2422 M
63 0 V
5918 0 R
-63 0 V
-6002 0 R
( 49.4974) Rshow
1.000 UL
LT0
0.50 0.50 0.50 C 1.000 UL
LTa
0.50 0.50 0.50 C 966 2453 M
5981 0 V
stroke
LT0
0.50 0.50 0.50 C 966 2453 M
63 0 V
5918 0 R
-63 0 V
-6002 0 R
( 50.2045) Rshow
1.000 UL
LT0
0.50 0.50 0.50 C 1.000 UL
LTa
0.50 0.50 0.50 C 966 2484 M
5981 0 V
stroke
LT0
0.50 0.50 0.50 C 966 2484 M
63 0 V
5918 0 R
-63 0 V
-6002 0 R
( 50.9116) Rshow
1.000 UL
LT0
0.50 0.50 0.50 C 1.000 UL
LTa
0.50 0.50 0.50 C 966 2514 M
5981 0 V
stroke
LT0
0.50 0.50 0.50 C 966 2514 M
63 0 V
5918 0 R
-63 0 V
-6002 0 R
( 51.6187) Rshow
1.000 UL
LT0
0.50 0.50 0.50 C 1.000 UL
LTa
0.50 0.50 0.50 C 966 2545 M
5981 0 V
stroke
LT0
0.50 0.50 0.50 C 966 2545 M
63 0 V
5918 0 R
-63 0 V
-6002 0 R
( 52.3258) Rshow
1.000 UL
LT0
0.50 0.50 0.50 C 1.000 UL
LTa
0.50 0.50 0.50 C 966 2576 M
5981 0 V
stroke
LT0
0.50 0.50 0.50 C 966 2576 M
63 0 V
5918 0 R
-63 0 V
-6002 0 R
( 53.033) Rshow
1.000 UL
LT0
0.50 0.50 0.50 C 1.000 UL
LTa
0.50 0.50 0.50 C 966 2606 M
5981 0 V
stroke
LT0
0.50 0.50 0.50 C 966 2606 M
63 0 V
5918 0 R
-63 0 V
-6002 0 R
( 53.7401) Rshow
1.000 UL
LT0
0.50 0.50 0.50 C 1.000 UL
LTa
0.50 0.50 0.50 C 966 2637 M
5981 0 V
stroke
LT0
0.50 0.50 0.50 C 966 2637 M
63 0 V
5918 0 R
-63 0 V
-6002 0 R
( 54.4472) Rshow
1.000 UL
LT0
0.50 0.50 0.50 C 1.000 UL
LTa
0.50 0.50 0.50 C 966 2667 M
5981 0 V
stroke
LT0
0.50 0.50 0.50 C 966 2667 M
63 0 V
5918 0 R
-63 0 V
-6002 0 R
( 55.1543) Rshow
1.000 UL
LT0
0.50 0.50 0.50 C 1.000 UL
LTa
0.50 0.50 0.50 C 966 2698 M
5981 0 V
stroke
LT0
0.50 0.50 0.50 C 966 2698 M
63 0 V
5918 0 R
-63 0 V
-6002 0 R
( 55.8614) Rshow
1.000 UL
LT0
0.50 0.50 0.50 C 1.000 UL
LTa
0.50 0.50 0.50 C 966 2729 M
5981 0 V
stroke
LT0
0.50 0.50 0.50 C 966 2729 M
63 0 V
5918 0 R
-63 0 V
-6002 0 R
( 56.5685) Rshow
1.000 UL
LT0
0.50 0.50 0.50 C 1.000 UL
LTa
0.50 0.50 0.50 C 966 2759 M
5981 0 V
stroke
LT0
0.50 0.50 0.50 C 966 2759 M
63 0 V
5918 0 R
-63 0 V
-6002 0 R
( 57.2756) Rshow
1.000 UL
LT0
0.50 0.50 0.50 C 1.000 UL
LTa
0.50 0.50 0.50 C 966 2790 M
5981 0 V
stroke
LT0
0.50 0.50 0.50 C 966 2790 M
63 0 V
5918 0 R
-63 0 V
-6002 0 R
( 57.9827) Rshow
1.000 UL
LT0
0.50 0.50 0.50 C 1.000 UL
LTa
0.50 0.50 0.50 C 966 2820 M
5981 0 V
stroke
LT0
0.50 0.50 0.50 C 966 2820 M
63 0 V
5918 0 R
-63 0 V
-6002 0 R
( 58.6898) Rshow
1.000 UL
LT0
0.50 0.50 0.50 C 1.000 UL
LTa
0.50 0.50 0.50 C 966 2851 M
5981 0 V
stroke
LT0
0.50 0.50 0.50 C 966 2851 M
63 0 V
5918 0 R
-63 0 V
-6002 0 R
( 59.3969) Rshow
1.000 UL
LT0
0.50 0.50 0.50 C 1.000 UL
LTa
0.50 0.50 0.50 C 966 2882 M
5981 0 V
stroke
LT0
0.50 0.50 0.50 C 966 2882 M
63 0 V
5918 0 R
-63 0 V
-6002 0 R
( 60.104) Rshow
1.000 UL
LT0
0.50 0.50 0.50 C 1.000 UL
LTa
0.50 0.50 0.50 C 966 2912 M
5981 0 V
stroke
LT0
0.50 0.50 0.50 C 966 2912 M
63 0 V
5918 0 R
-63 0 V
-6002 0 R
( 60.8111) Rshow
1.000 UL
LT0
0.50 0.50 0.50 C 1.000 UL
LTa
0.50 0.50 0.50 C 966 2943 M
5981 0 V
stroke
LT0
0.50 0.50 0.50 C 966 2943 M
63 0 V
5918 0 R
-63 0 V
-6002 0 R
( 61.5182) Rshow
1.000 UL
LT0
0.50 0.50 0.50 C 1.000 UL
LTa
0.50 0.50 0.50 C 966 2973 M
5981 0 V
stroke
LT0
0.50 0.50 0.50 C 966 2973 M
63 0 V
5918 0 R
-63 0 V
-6002 0 R
( 62.2253) Rshow
1.000 UL
LT0
0.50 0.50 0.50 C 1.000 UL
LTa
0.50 0.50 0.50 C 966 3004 M
5981 0 V
stroke
LT0
0.50 0.50 0.50 C 966 3004 M
63 0 V
5918 0 R
-63 0 V
-6002 0 R
( 62.9324) Rshow
1.000 UL
LT0
0.50 0.50 0.50 C 1.000 UL
LTa
0.50 0.50 0.50 C 966 3035 M
5981 0 V
stroke
LT0
0.50 0.50 0.50 C 966 3035 M
63 0 V
5918 0 R
-63 0 V
-6002 0 R
( 63.6395) Rshow
1.000 UL
LT0
0.50 0.50 0.50 C 1.000 UL
LTa
0.50 0.50 0.50 C 966 3065 M
5981 0 V
stroke
LT0
0.50 0.50 0.50 C 966 3065 M
63 0 V
5918 0 R
-63 0 V
-6002 0 R
( 64.3466) Rshow
1.000 UL
LT0
0.50 0.50 0.50 C 1.000 UL
LTa
0.50 0.50 0.50 C 966 3096 M
5981 0 V
stroke
LT0
0.50 0.50 0.50 C 966 3096 M
63 0 V
5918 0 R
-63 0 V
-6002 0 R
( 65.0538) Rshow
1.000 UL
LT0
0.50 0.50 0.50 C 1.000 UL
LTa
0.50 0.50 0.50 C 966 3126 M
5981 0 V
stroke
LT0
0.50 0.50 0.50 C 966 3126 M
63 0 V
5918 0 R
-63 0 V
-6002 0 R
( 65.7609) Rshow
1.000 UL
LT0
0.50 0.50 0.50 C 1.000 UL
LTa
0.50 0.50 0.50 C 966 3157 M
5981 0 V
stroke
LT0
0.50 0.50 0.50 C 966 3157 M
63 0 V
5918 0 R
-63 0 V
-6002 0 R
( 66.468) Rshow
1.000 UL
LT0
0.50 0.50 0.50 C 1.000 UL
LTa
0.50 0.50 0.50 C 966 3188 M
5981 0 V
stroke
LT0
0.50 0.50 0.50 C 966 3188 M
63 0 V
5918 0 R
-63 0 V
-6002 0 R
( 67.1751) Rshow
1.000 UL
LT0
0.50 0.50 0.50 C 1.000 UL
LTa
0.50 0.50 0.50 C 966 3218 M
5981 0 V
stroke
LT0
0.50 0.50 0.50 C 966 3218 M
63 0 V
5918 0 R
-63 0 V
-6002 0 R
( 67.8822) Rshow
1.000 UL
LT0
0.50 0.50 0.50 C 1.000 UL
LTa
0.50 0.50 0.50 C 966 3249 M
5981 0 V
stroke
LT0
0.50 0.50 0.50 C 966 3249 M
63 0 V
5918 0 R
-63 0 V
-6002 0 R
( 68.5893) Rshow
1.000 UL
LT0
0.50 0.50 0.50 C 1.000 UL
LTa
0.50 0.50 0.50 C 966 3279 M
5981 0 V
stroke
LT0
0.50 0.50 0.50 C 966 3279 M
63 0 V
5918 0 R
-63 0 V
-6002 0 R
( 69.2964) Rshow
1.000 UL
LT0
0.50 0.50 0.50 C 1.000 UL
LTa
0.50 0.50 0.50 C 966 3310 M
5981 0 V
stroke
LT0
0.50 0.50 0.50 C 966 3310 M
63 0 V
5918 0 R
-63 0 V
-6002 0 R
( 70.0035) Rshow
1.000 UL
LT0
0.50 0.50 0.50 C 1.000 UL
LTa
0.50 0.50 0.50 C 966 3341 M
5981 0 V
stroke
LT0
0.50 0.50 0.50 C 966 3341 M
63 0 V
5918 0 R
-63 0 V
-6002 0 R
( 70.7106) Rshow
1.000 UL
LT0
0.50 0.50 0.50 C 1.000 UL
LTa
0.50 0.50 0.50 C 966 3371 M
5981 0 V
stroke
LT0
0.50 0.50 0.50 C 966 3371 M
63 0 V
5918 0 R
-63 0 V
-6002 0 R
( 71.4177) Rshow
1.000 UL
LT0
0.50 0.50 0.50 C 1.000 UL
LTa
0.50 0.50 0.50 C 966 3402 M
5981 0 V
stroke
LT0
0.50 0.50 0.50 C 966 3402 M
63 0 V
5918 0 R
-63 0 V
-6002 0 R
( 72.1248) Rshow
1.000 UL
LT0
0.50 0.50 0.50 C 1.000 UL
LTa
0.50 0.50 0.50 C 966 3432 M
5981 0 V
stroke
LT0
0.50 0.50 0.50 C 966 3432 M
63 0 V
5918 0 R
-63 0 V
-6002 0 R
( 72.8319) Rshow
1.000 UL
LT0
0.50 0.50 0.50 C 1.000 UL
LTa
0.50 0.50 0.50 C 966 3463 M
5981 0 V
stroke
LT0
0.50 0.50 0.50 C 966 3463 M
63 0 V
5918 0 R
-63 0 V
-6002 0 R
( 73.539) Rshow
1.000 UL
LT0
0.50 0.50 0.50 C 1.000 UL
LTa
0.50 0.50 0.50 C 966 3494 M
5981 0 V
stroke
LT0
0.50 0.50 0.50 C 966 3494 M
63 0 V
5918 0 R
-63 0 V
-6002 0 R
( 74.2461) Rshow
1.000 UL
LT0
0.50 0.50 0.50 C 1.000 UL
LTa
0.50 0.50 0.50 C 966 3524 M
5981 0 V
stroke
LT0
0.50 0.50 0.50 C 966 3524 M
63 0 V
5918 0 R
-63 0 V
-6002 0 R
( 74.9532) Rshow
1.000 UL
LT0
0.50 0.50 0.50 C 1.000 UL
LTa
0.50 0.50 0.50 C 966 3555 M
5981 0 V
stroke
LT0
0.50 0.50 0.50 C 966 3555 M
63 0 V
5918 0 R
-63 0 V
-6002 0 R
( 75.6603) Rshow
1.000 UL
LT0
0.50 0.50 0.50 C 1.000 UL
LTa
0.50 0.50 0.50 C 966 3586 M
5981 0 V
stroke
LT0
0.50 0.50 0.50 C 966 3586 M
63 0 V
5918 0 R
-63 0 V
-6002 0 R
( 76.3674) Rshow
1.000 UL
LT0
0.50 0.50 0.50 C 1.000 UL
LTa
0.50 0.50 0.50 C 966 3616 M
5981 0 V
stroke
LT0
0.50 0.50 0.50 C 966 3616 M
63 0 V
5918 0 R
-63 0 V
-6002 0 R
( 77.0746) Rshow
1.000 UL
LT0
0.50 0.50 0.50 C 1.000 UL
LTa
0.50 0.50 0.50 C 966 3647 M
5981 0 V
stroke
LT0
0.50 0.50 0.50 C 966 3647 M
63 0 V
5918 0 R
-63 0 V
-6002 0 R
( 77.7817) Rshow
1.000 UL
LT0
0.50 0.50 0.50 C 1.000 UL
LTa
0.50 0.50 0.50 C 966 3677 M
5981 0 V
stroke
LT0
0.50 0.50 0.50 C 966 3677 M
63 0 V
5918 0 R
-63 0 V
-6002 0 R
( 78.4888) Rshow
1.000 UL
LT0
0.50 0.50 0.50 C 1.000 UL
LTa
0.50 0.50 0.50 C 966 3708 M
5981 0 V
stroke
LT0
0.50 0.50 0.50 C 966 3708 M
63 0 V
5918 0 R
-63 0 V
-6002 0 R
( 79.1959) Rshow
1.000 UL
LT0
0.50 0.50 0.50 C 1.000 UL
LTa
0.50 0.50 0.50 C 966 3739 M
5981 0 V
stroke
LT0
0.50 0.50 0.50 C 966 3739 M
63 0 V
5918 0 R
-63 0 V
-6002 0 R
( 79.903) Rshow
1.000 UL
LT0
0.50 0.50 0.50 C 1.000 UL
LTa
0.50 0.50 0.50 C 966 3769 M
5981 0 V
stroke
LT0
0.50 0.50 0.50 C 966 3769 M
63 0 V
5918 0 R
-63 0 V
-6002 0 R
( 80.6101) Rshow
1.000 UL
LT0
0.50 0.50 0.50 C 1.000 UL
LTa
0.50 0.50 0.50 C 966 3800 M
5981 0 V
stroke
LT0
0.50 0.50 0.50 C 966 3800 M
63 0 V
5918 0 R
-63 0 V
-6002 0 R
( 81.3172) Rshow
1.000 UL
LT0
0.50 0.50 0.50 C 1.000 UL
LTa
0.50 0.50 0.50 C 966 3830 M
5981 0 V
stroke
LT0
0.50 0.50 0.50 C 966 3830 M
63 0 V
5918 0 R
-63 0 V
-6002 0 R
( 82.0243) Rshow
1.000 UL
LT0
0.50 0.50 0.50 C 1.000 UL
LTa
0.50 0.50 0.50 C 966 3861 M
5981 0 V
stroke
LT0
0.50 0.50 0.50 C 966 3861 M
63 0 V
5918 0 R
-63 0 V
-6002 0 R
( 82.7314) Rshow
1.000 UL
LT0
0.50 0.50 0.50 C 1.000 UL
LTa
0.50 0.50 0.50 C 966 3892 M
5981 0 V
stroke
LT0
0.50 0.50 0.50 C 966 3892 M
63 0 V
5918 0 R
-63 0 V
-6002 0 R
( 83.4385) Rshow
1.000 UL
LT0
0.50 0.50 0.50 C 1.000 UL
LTa
0.50 0.50 0.50 C 966 3922 M
5981 0 V
stroke
LT0
0.50 0.50 0.50 C 966 3922 M
63 0 V
5918 0 R
-63 0 V
-6002 0 R
( 84.1456) Rshow
1.000 UL
LT0
0.50 0.50 0.50 C 1.000 UL
LTa
0.50 0.50 0.50 C 966 3953 M
5981 0 V
stroke
LT0
0.50 0.50 0.50 C 966 3953 M
63 0 V
5918 0 R
-63 0 V
-6002 0 R
( 84.8527) Rshow
1.000 UL
LT0
0.50 0.50 0.50 C 1.000 UL
LTa
0.50 0.50 0.50 C 966 3983 M
5981 0 V
stroke
LT0
0.50 0.50 0.50 C 966 3983 M
63 0 V
5918 0 R
-63 0 V
-6002 0 R
( 85.5598) Rshow
1.000 UL
LT0
0.50 0.50 0.50 C 1.000 UL
LTa
0.50 0.50 0.50 C 966 4014 M
5981 0 V
stroke
LT0
0.50 0.50 0.50 C 966 4014 M
63 0 V
5918 0 R
-63 0 V
-6002 0 R
( 86.2669) Rshow
1.000 UL
LT0
0.50 0.50 0.50 C 1.000 UL
LTa
0.50 0.50 0.50 C 966 4045 M
5981 0 V
stroke
LT0
0.50 0.50 0.50 C 966 4045 M
63 0 V
5918 0 R
-63 0 V
-6002 0 R
( 86.974) Rshow
1.000 UL
LT0
0.50 0.50 0.50 C 1.000 UL
LTa
0.50 0.50 0.50 C 966 4075 M
5981 0 V
stroke
LT0
0.50 0.50 0.50 C 966 4075 M
63 0 V
5918 0 R
-63 0 V
-6002 0 R
( 87.6811) Rshow
1.000 UL
LT0
0.50 0.50 0.50 C 1.000 UL
LTa
0.50 0.50 0.50 C 966 4106 M
5981 0 V
stroke
LT0
0.50 0.50 0.50 C 966 4106 M
63 0 V
5918 0 R
-63 0 V
-6002 0 R
( 88.3882) Rshow
1.000 UL
LT0
0.50 0.50 0.50 C 1.000 UL
LTa
0.50 0.50 0.50 C 966 4136 M
5981 0 V
stroke
LT0
0.50 0.50 0.50 C 966 4136 M
63 0 V
5918 0 R
-63 0 V
-6002 0 R
( 89.0954) Rshow
1.000 UL
LT0
0.50 0.50 0.50 C 1.000 UL
LTa
0.50 0.50 0.50 C 966 4167 M
5981 0 V
stroke
LT0
0.50 0.50 0.50 C 966 4167 M
63 0 V
5918 0 R
-63 0 V
-6002 0 R
( 89.8025) Rshow
1.000 UL
LT0
0.50 0.50 0.50 C 1.000 UL
LTa
0.50 0.50 0.50 C 966 4198 M
5981 0 V
stroke
LT0
0.50 0.50 0.50 C 966 4198 M
63 0 V
5918 0 R
-63 0 V
-6002 0 R
( 90.5096) Rshow
1.000 UL
LT0
0.50 0.50 0.50 C 1.000 UL
LTa
0.50 0.50 0.50 C 966 4228 M
5981 0 V
stroke
LT0
0.50 0.50 0.50 C 966 4228 M
63 0 V
5918 0 R
-63 0 V
-6002 0 R
( 91.2167) Rshow
1.000 UL
LT0
0.50 0.50 0.50 C 1.000 UL
LTa
0.50 0.50 0.50 C 966 4259 M
5981 0 V
stroke
LT0
0.50 0.50 0.50 C 966 4259 M
63 0 V
5918 0 R
-63 0 V
-6002 0 R
( 91.9238) Rshow
1.000 UL
LT0
0.50 0.50 0.50 C 1.000 UL
LTa
0.50 0.50 0.50 C 966 4289 M
5981 0 V
stroke
LT0
0.50 0.50 0.50 C 966 4289 M
63 0 V
5918 0 R
-63 0 V
-6002 0 R
( 92.6309) Rshow
1.000 UL
LT0
0.50 0.50 0.50 C 1.000 UL
LTa
0.50 0.50 0.50 C 966 4320 M
5981 0 V
stroke
LT0
0.50 0.50 0.50 C 966 4320 M
63 0 V
5918 0 R
-63 0 V
-6002 0 R
( 93.338) Rshow
1.000 UL
LT0
0.50 0.50 0.50 C 1.000 UL
LTa
0.50 0.50 0.50 C 966 4351 M
5981 0 V
stroke
LT0
0.50 0.50 0.50 C 966 4351 M
63 0 V
5918 0 R
-63 0 V
-6002 0 R
( 94.0451) Rshow
1.000 UL
LT0
0.50 0.50 0.50 C 1.000 UL
LTa
0.50 0.50 0.50 C 966 4381 M
5981 0 V
stroke
LT0
0.50 0.50 0.50 C 966 4381 M
63 0 V
5918 0 R
-63 0 V
-6002 0 R
( 94.7522) Rshow
1.000 UL
LT0
0.50 0.50 0.50 C 1.000 UL
LTa
0.50 0.50 0.50 C 966 4412 M
5981 0 V
stroke
LT0
0.50 0.50 0.50 C 966 4412 M
63 0 V
5918 0 R
-63 0 V
-6002 0 R
( 95.4593) Rshow
1.000 UL
LT0
0.50 0.50 0.50 C 1.000 UL
LTa
0.50 0.50 0.50 C 966 4443 M
5981 0 V
stroke
LT0
0.50 0.50 0.50 C 966 4443 M
63 0 V
5918 0 R
-63 0 V
-6002 0 R
( 96.1664) Rshow
1.000 UL
LT0
0.50 0.50 0.50 C 1.000 UL
LTa
0.50 0.50 0.50 C 966 4473 M
5981 0 V
stroke
LT0
0.50 0.50 0.50 C 966 4473 M
63 0 V
5918 0 R
-63 0 V
-6002 0 R
( 96.8735) Rshow
1.000 UL
LT0
0.50 0.50 0.50 C 1.000 UL
LTa
0.50 0.50 0.50 C 966 4504 M
5981 0 V
stroke
LT0
0.50 0.50 0.50 C 966 4504 M
63 0 V
5918 0 R
-63 0 V
-6002 0 R
( 97.5806) Rshow
1.000 UL
LT0
0.50 0.50 0.50 C 1.000 UL
LTa
0.50 0.50 0.50 C 966 4534 M
5981 0 V
stroke
LT0
0.50 0.50 0.50 C 966 4534 M
63 0 V
5918 0 R
-63 0 V
-6002 0 R
( 98.2877) Rshow
1.000 UL
LT0
0.50 0.50 0.50 C 1.000 UL
LTa
0.50 0.50 0.50 C 966 4565 M
5981 0 V
stroke
LT0
0.50 0.50 0.50 C 966 4565 M
63 0 V
5918 0 R
-63 0 V
-6002 0 R
( 98.9948) Rshow
1.000 UL
LT0
0.50 0.50 0.50 C 1.000 UL
LTa
0.50 0.50 0.50 C 966 4596 M
5981 0 V
stroke
LT0
0.50 0.50 0.50 C 966 4596 M
63 0 V
5918 0 R
-63 0 V
-6002 0 R
( 99.7019) Rshow
1.000 UL
LT0
0.50 0.50 0.50 C 1.000 UL
LTa
0.50 0.50 0.50 C 966 4626 M
5981 0 V
stroke
LT0
0.50 0.50 0.50 C 966 4626 M
63 0 V
5918 0 R
-63 0 V
-6002 0 R
( 100.409) Rshow
1.000 UL
LT0
0.50 0.50 0.50 C 1.000 UL
LTa
0.50 0.50 0.50 C 966 4657 M
5981 0 V
stroke
LT0
0.50 0.50 0.50 C 966 4657 M
63 0 V
5918 0 R
-63 0 V
-6002 0 R
( 101.116) Rshow
1.000 UL
LT0
0.50 0.50 0.50 C 1.000 UL
LTa
0.50 0.50 0.50 C 966 4687 M
5981 0 V
stroke
LT0
0.50 0.50 0.50 C 966 4687 M
63 0 V
5918 0 R
-63 0 V
-6002 0 R
( 101.823) Rshow
1.000 UL
LT0
0.50 0.50 0.50 C 1.000 UL
LTa
0.50 0.50 0.50 C 966 4718 M
5981 0 V
stroke
LT0
0.50 0.50 0.50 C 966 4718 M
63 0 V
5918 0 R
-63 0 V
-6002 0 R
( 102.53) Rshow
1.000 UL
LT0
0.50 0.50 0.50 C 1.000 UL
LTa
0.50 0.50 0.50 C 966 4749 M
5981 0 V
stroke
LT0
0.50 0.50 0.50 C 966 4749 M
63 0 V
5918 0 R
-63 0 V
-6002 0 R
( 103.237) Rshow
1.000 UL
LT0
0.50 0.50 0.50 C 1.000 UL
LTa
0.50 0.50 0.50 C 966 4779 M
5981 0 V
stroke
LT0
0.50 0.50 0.50 C 966 4779 M
63 0 V
5918 0 R
-63 0 V
-6002 0 R
( 103.945) Rshow
1.000 UL
LT0
0.50 0.50 0.50 C 1.000 UL
LTa
0.50 0.50 0.50 C 966 4810 M
5981 0 V
stroke
LT0
0.50 0.50 0.50 C 966 4810 M
63 0 V
5918 0 R
-63 0 V
-6002 0 R
( 104.652) Rshow
1.000 UL
LT0
0.50 0.50 0.50 C 1.000 UL
LTa
0.50 0.50 0.50 C 966 4840 M
5981 0 V
stroke
LT0
0.50 0.50 0.50 C 966 4840 M
63 0 V
5918 0 R
-63 0 V
-6002 0 R
( 105.359) Rshow
1.000 UL
LT0
0.50 0.50 0.50 C 1.000 UL
LTa
0.50 0.50 0.50 C 966 4871 M
5981 0 V
stroke
LT0
0.50 0.50 0.50 C 966 4871 M
63 0 V
5918 0 R
-63 0 V
-6002 0 R
( 106.066) Rshow
1.000 UL
LT0
0.50 0.50 0.50 C 1.000 UL
LTa
0.50 0.50 0.50 C 966 280 M
0 4591 V
stroke
LT0
0.50 0.50 0.50 C 966 280 M
0 63 V
0 4528 R
0 -63 V
966 140 M
( 0) Cshow
1.000 UL
LT0
0.50 0.50 0.50 C 1.000 UL
LTa
0.50 0.50 0.50 C 1006 280 M
0 4591 V
stroke
LT0
0.50 0.50 0.50 C 1006 280 M
0 63 V
0 4528 R
0 -63 V
0 -4668 R
( 0.707106) Cshow
1.000 UL
LT0
0.50 0.50 0.50 C 1.000 UL
LTa
0.50 0.50 0.50 C 1046 280 M
0 4591 V
stroke
LT0
0.50 0.50 0.50 C 1046 280 M
0 63 V
0 4528 R
0 -63 V
0 -4668 R
( 1.41421) Cshow
1.000 UL
LT0
0.50 0.50 0.50 C 1.000 UL
LTa
0.50 0.50 0.50 C 1086 280 M
0 4591 V
stroke
LT0
0.50 0.50 0.50 C 1086 280 M
0 63 V
0 4528 R
0 -63 V
0 -4668 R
( 2.12132) Cshow
1.000 UL
LT0
0.50 0.50 0.50 C 1.000 UL
LTa
0.50 0.50 0.50 C 1125 280 M
0 4591 V
stroke
LT0
0.50 0.50 0.50 C 1125 280 M
0 63 V
0 4528 R
0 -63 V
0 -4668 R
( 2.82842) Cshow
1.000 UL
LT0
0.50 0.50 0.50 C 1.000 UL
LTa
0.50 0.50 0.50 C 1165 280 M
0 4591 V
stroke
LT0
0.50 0.50 0.50 C 1165 280 M
0 63 V
0 4528 R
0 -63 V
0 -4668 R
( 3.53553) Cshow
1.000 UL
LT0
0.50 0.50 0.50 C 1.000 UL
LTa
0.50 0.50 0.50 C 1205 280 M
0 4591 V
stroke
LT0
0.50 0.50 0.50 C 1205 280 M
0 63 V
0 4528 R
0 -63 V
0 -4668 R
( 4.24264) Cshow
1.000 UL
LT0
0.50 0.50 0.50 C 1.000 UL
LTa
0.50 0.50 0.50 C 1245 280 M
0 4591 V
stroke
LT0
0.50 0.50 0.50 C 1245 280 M
0 63 V
0 4528 R
0 -63 V
0 -4668 R
( 4.94974) Cshow
1.000 UL
LT0
0.50 0.50 0.50 C 1.000 UL
LTa
0.50 0.50 0.50 C 1285 280 M
0 4591 V
stroke
LT0
0.50 0.50 0.50 C 1285 280 M
0 63 V
0 4528 R
0 -63 V
0 -4668 R
( 5.65685) Cshow
1.000 UL
LT0
0.50 0.50 0.50 C 1.000 UL
LTa
0.50 0.50 0.50 C 1325 280 M
0 4591 V
stroke
LT0
0.50 0.50 0.50 C 1325 280 M
0 63 V
0 4528 R
0 -63 V
0 -4668 R
( 6.36395) Cshow
1.000 UL
LT0
0.50 0.50 0.50 C 1.000 UL
LTa
0.50 0.50 0.50 C 1365 280 M
0 4591 V
stroke
LT0
0.50 0.50 0.50 C 1365 280 M
0 63 V
0 4528 R
0 -63 V
0 -4668 R
( 7.07106) Cshow
1.000 UL
LT0
0.50 0.50 0.50 C 1.000 UL
LTa
0.50 0.50 0.50 C 1405 280 M
0 4591 V
stroke
LT0
0.50 0.50 0.50 C 1405 280 M
0 63 V
0 4528 R
0 -63 V
0 -4668 R
( 7.77817) Cshow
1.000 UL
LT0
0.50 0.50 0.50 C 1.000 UL
LTa
0.50 0.50 0.50 C 1444 280 M
0 4591 V
stroke
LT0
0.50 0.50 0.50 C 1444 280 M
0 63 V
0 4528 R
0 -63 V
0 -4668 R
( 8.48527) Cshow
1.000 UL
LT0
0.50 0.50 0.50 C 1.000 UL
LTa
0.50 0.50 0.50 C 1484 280 M
0 4591 V
stroke
LT0
0.50 0.50 0.50 C 1484 280 M
0 63 V
0 4528 R
0 -63 V
0 -4668 R
( 9.19238) Cshow
1.000 UL
LT0
0.50 0.50 0.50 C 1.000 UL
LTa
0.50 0.50 0.50 C 1524 280 M
0 4591 V
stroke
LT0
0.50 0.50 0.50 C 1524 280 M
0 63 V
0 4528 R
0 -63 V
0 -4668 R
( 9.89948) Cshow
1.000 UL
LT0
0.50 0.50 0.50 C 1.000 UL
LTa
0.50 0.50 0.50 C 1564 280 M
0 4591 V
stroke
LT0
0.50 0.50 0.50 C 1564 280 M
0 63 V
0 4528 R
0 -63 V
0 -4668 R
( 10.6066) Cshow
1.000 UL
LT0
0.50 0.50 0.50 C 1.000 UL
LTa
0.50 0.50 0.50 C 1604 280 M
0 4591 V
stroke
LT0
0.50 0.50 0.50 C 1604 280 M
0 63 V
0 4528 R
0 -63 V
0 -4668 R
( 11.3137) Cshow
1.000 UL
LT0
0.50 0.50 0.50 C 1.000 UL
LTa
0.50 0.50 0.50 C 1644 280 M
0 4591 V
stroke
LT0
0.50 0.50 0.50 C 1644 280 M
0 63 V
0 4528 R
0 -63 V
0 -4668 R
( 12.0208) Cshow
1.000 UL
LT0
0.50 0.50 0.50 C 1.000 UL
LTa
0.50 0.50 0.50 C 1684 280 M
0 4591 V
stroke
LT0
0.50 0.50 0.50 C 1684 280 M
0 63 V
0 4528 R
0 -63 V
0 -4668 R
( 12.7279) Cshow
1.000 UL
LT0
0.50 0.50 0.50 C 1.000 UL
LTa
0.50 0.50 0.50 C 1724 280 M
0 4591 V
stroke
LT0
0.50 0.50 0.50 C 1724 280 M
0 63 V
0 4528 R
0 -63 V
0 -4668 R
( 13.435) Cshow
1.000 UL
LT0
0.50 0.50 0.50 C 1.000 UL
LTa
0.50 0.50 0.50 C 1763 280 M
0 4591 V
stroke
LT0
0.50 0.50 0.50 C 1763 280 M
0 63 V
0 4528 R
0 -63 V
0 -4668 R
( 14.1421) Cshow
1.000 UL
LT0
0.50 0.50 0.50 C 1.000 UL
LTa
0.50 0.50 0.50 C 1803 280 M
0 4591 V
stroke
LT0
0.50 0.50 0.50 C 1803 280 M
0 63 V
0 4528 R
0 -63 V
0 -4668 R
( 14.8492) Cshow
1.000 UL
LT0
0.50 0.50 0.50 C 1.000 UL
LTa
0.50 0.50 0.50 C 1843 280 M
0 4591 V
stroke
LT0
0.50 0.50 0.50 C 1843 280 M
0 63 V
0 4528 R
0 -63 V
0 -4668 R
( 15.5563) Cshow
1.000 UL
LT0
0.50 0.50 0.50 C 1.000 UL
LTa
0.50 0.50 0.50 C 1883 280 M
0 4591 V
stroke
LT0
0.50 0.50 0.50 C 1883 280 M
0 63 V
0 4528 R
0 -63 V
0 -4668 R
( 16.2634) Cshow
1.000 UL
LT0
0.50 0.50 0.50 C 1.000 UL
LTa
0.50 0.50 0.50 C 1923 280 M
0 4591 V
stroke
LT0
0.50 0.50 0.50 C 1923 280 M
0 63 V
0 4528 R
0 -63 V
0 -4668 R
( 16.9705) Cshow
1.000 UL
LT0
0.50 0.50 0.50 C 1.000 UL
LTa
0.50 0.50 0.50 C 1963 280 M
0 4591 V
stroke
LT0
0.50 0.50 0.50 C 1963 280 M
0 63 V
0 4528 R
0 -63 V
0 -4668 R
( 17.6776) Cshow
1.000 UL
LT0
0.50 0.50 0.50 C 1.000 UL
LTa
0.50 0.50 0.50 C 2003 280 M
0 4591 V
stroke
LT0
0.50 0.50 0.50 C 2003 280 M
0 63 V
0 4528 R
0 -63 V
0 -4668 R
( 18.3848) Cshow
1.000 UL
LT0
0.50 0.50 0.50 C 1.000 UL
LTa
0.50 0.50 0.50 C 2043 280 M
0 4591 V
stroke
LT0
0.50 0.50 0.50 C 2043 280 M
0 63 V
0 4528 R
0 -63 V
0 -4668 R
( 19.0919) Cshow
1.000 UL
LT0
0.50 0.50 0.50 C 1.000 UL
LTa
0.50 0.50 0.50 C 2082 280 M
0 4591 V
stroke
LT0
0.50 0.50 0.50 C 2082 280 M
0 63 V
0 4528 R
0 -63 V
0 -4668 R
( 19.799) Cshow
1.000 UL
LT0
0.50 0.50 0.50 C 1.000 UL
LTa
0.50 0.50 0.50 C 2122 280 M
0 4591 V
stroke
LT0
0.50 0.50 0.50 C 2122 280 M
0 63 V
0 4528 R
0 -63 V
0 -4668 R
( 20.5061) Cshow
1.000 UL
LT0
0.50 0.50 0.50 C 1.000 UL
LTa
0.50 0.50 0.50 C 2162 280 M
0 4591 V
stroke
LT0
0.50 0.50 0.50 C 2162 280 M
0 63 V
0 4528 R
0 -63 V
0 -4668 R
( 21.2132) Cshow
1.000 UL
LT0
0.50 0.50 0.50 C 1.000 UL
LTa
0.50 0.50 0.50 C 2202 280 M
0 4591 V
stroke
LT0
0.50 0.50 0.50 C 2202 280 M
0 63 V
0 4528 R
0 -63 V
0 -4668 R
( 21.9203) Cshow
1.000 UL
LT0
0.50 0.50 0.50 C 1.000 UL
LTa
0.50 0.50 0.50 C 2242 280 M
0 4591 V
stroke
LT0
0.50 0.50 0.50 C 2242 280 M
0 63 V
0 4528 R
0 -63 V
0 -4668 R
( 22.6274) Cshow
1.000 UL
LT0
0.50 0.50 0.50 C 1.000 UL
LTa
0.50 0.50 0.50 C 2282 280 M
0 4591 V
stroke
LT0
0.50 0.50 0.50 C 2282 280 M
0 63 V
0 4528 R
0 -63 V
0 -4668 R
( 23.3345) Cshow
1.000 UL
LT0
0.50 0.50 0.50 C 1.000 UL
LTa
0.50 0.50 0.50 C 2322 280 M
0 4591 V
stroke
LT0
0.50 0.50 0.50 C 2322 280 M
0 63 V
0 4528 R
0 -63 V
0 -4668 R
( 24.0416) Cshow
1.000 UL
LT0
0.50 0.50 0.50 C 1.000 UL
LTa
0.50 0.50 0.50 C 2362 280 M
0 4591 V
stroke
LT0
0.50 0.50 0.50 C 2362 280 M
0 63 V
0 4528 R
0 -63 V
0 -4668 R
( 24.7487) Cshow
1.000 UL
LT0
0.50 0.50 0.50 C 1.000 UL
LTa
0.50 0.50 0.50 C 2401 280 M
0 4591 V
stroke
LT0
0.50 0.50 0.50 C 2401 280 M
0 63 V
0 4528 R
0 -63 V
0 -4668 R
( 25.4558) Cshow
1.000 UL
LT0
0.50 0.50 0.50 C 1.000 UL
LTa
0.50 0.50 0.50 C 2441 280 M
0 4591 V
stroke
LT0
0.50 0.50 0.50 C 2441 280 M
0 63 V
0 4528 R
0 -63 V
0 -4668 R
( 26.1629) Cshow
1.000 UL
LT0
0.50 0.50 0.50 C 1.000 UL
LTa
0.50 0.50 0.50 C 2481 280 M
0 4591 V
stroke
LT0
0.50 0.50 0.50 C 2481 280 M
0 63 V
0 4528 R
0 -63 V
0 -4668 R
( 26.87) Cshow
1.000 UL
LT0
0.50 0.50 0.50 C 1.000 UL
LTa
0.50 0.50 0.50 C 2521 280 M
0 4591 V
stroke
LT0
0.50 0.50 0.50 C 2521 280 M
0 63 V
0 4528 R
0 -63 V
0 -4668 R
( 27.5771) Cshow
1.000 UL
LT0
0.50 0.50 0.50 C 1.000 UL
LTa
0.50 0.50 0.50 C 2561 280 M
0 4591 V
stroke
LT0
0.50 0.50 0.50 C 2561 280 M
0 63 V
0 4528 R
0 -63 V
0 -4668 R
( 28.2842) Cshow
1.000 UL
LT0
0.50 0.50 0.50 C 1.000 UL
LTa
0.50 0.50 0.50 C 2601 280 M
0 4591 V
stroke
LT0
0.50 0.50 0.50 C 2601 280 M
0 63 V
0 4528 R
0 -63 V
0 -4668 R
( 28.9913) Cshow
1.000 UL
LT0
0.50 0.50 0.50 C 1.000 UL
LTa
0.50 0.50 0.50 C 2641 280 M
0 4591 V
stroke
LT0
0.50 0.50 0.50 C 2641 280 M
0 63 V
0 4528 R
0 -63 V
0 -4668 R
( 29.6985) Cshow
1.000 UL
LT0
0.50 0.50 0.50 C 1.000 UL
LTa
0.50 0.50 0.50 C 2681 280 M
0 4591 V
stroke
LT0
0.50 0.50 0.50 C 2681 280 M
0 63 V
0 4528 R
0 -63 V
0 -4668 R
( 30.4056) Cshow
1.000 UL
LT0
0.50 0.50 0.50 C 1.000 UL
LTa
0.50 0.50 0.50 C 2720 280 M
0 4591 V
stroke
LT0
0.50 0.50 0.50 C 2720 280 M
0 63 V
0 4528 R
0 -63 V
0 -4668 R
( 31.1127) Cshow
1.000 UL
LT0
0.50 0.50 0.50 C 1.000 UL
LTa
0.50 0.50 0.50 C 2760 280 M
0 4591 V
stroke
LT0
0.50 0.50 0.50 C 2760 280 M
0 63 V
0 4528 R
0 -63 V
0 -4668 R
( 31.8198) Cshow
1.000 UL
LT0
0.50 0.50 0.50 C 1.000 UL
LTa
0.50 0.50 0.50 C 2800 280 M
0 4591 V
stroke
LT0
0.50 0.50 0.50 C 2800 280 M
0 63 V
0 4528 R
0 -63 V
0 -4668 R
( 32.5269) Cshow
1.000 UL
LT0
0.50 0.50 0.50 C 1.000 UL
LTa
0.50 0.50 0.50 C 2840 280 M
0 4591 V
stroke
LT0
0.50 0.50 0.50 C 2840 280 M
0 63 V
0 4528 R
0 -63 V
0 -4668 R
( 33.234) Cshow
1.000 UL
LT0
0.50 0.50 0.50 C 1.000 UL
LTa
0.50 0.50 0.50 C 2880 280 M
0 4591 V
stroke
LT0
0.50 0.50 0.50 C 2880 280 M
0 63 V
0 4528 R
0 -63 V
0 -4668 R
( 33.9411) Cshow
1.000 UL
LT0
0.50 0.50 0.50 C 1.000 UL
LTa
0.50 0.50 0.50 C 2920 280 M
0 4591 V
stroke
LT0
0.50 0.50 0.50 C 2920 280 M
0 63 V
0 4528 R
0 -63 V
0 -4668 R
( 34.6482) Cshow
1.000 UL
LT0
0.50 0.50 0.50 C 1.000 UL
LTa
0.50 0.50 0.50 C 2960 280 M
0 4591 V
stroke
LT0
0.50 0.50 0.50 C 2960 280 M
0 63 V
0 4528 R
0 -63 V
0 -4668 R
( 35.3553) Cshow
1.000 UL
LT0
0.50 0.50 0.50 C 1.000 UL
LTa
0.50 0.50 0.50 C 3000 280 M
0 4591 V
stroke
LT0
0.50 0.50 0.50 C 3000 280 M
0 63 V
0 4528 R
0 -63 V
0 -4668 R
( 36.0624) Cshow
1.000 UL
LT0
0.50 0.50 0.50 C 1.000 UL
LTa
0.50 0.50 0.50 C 3039 280 M
0 4591 V
stroke
LT0
0.50 0.50 0.50 C 3039 280 M
0 63 V
0 4528 R
0 -63 V
0 -4668 R
( 36.7695) Cshow
1.000 UL
LT0
0.50 0.50 0.50 C 1.000 UL
LTa
0.50 0.50 0.50 C 3079 280 M
0 4591 V
stroke
LT0
0.50 0.50 0.50 C 3079 280 M
0 63 V
0 4528 R
0 -63 V
0 -4668 R
( 37.4766) Cshow
1.000 UL
LT0
0.50 0.50 0.50 C 1.000 UL
LTa
0.50 0.50 0.50 C 3119 280 M
0 4591 V
stroke
LT0
0.50 0.50 0.50 C 3119 280 M
0 63 V
0 4528 R
0 -63 V
0 -4668 R
( 38.1837) Cshow
1.000 UL
LT0
0.50 0.50 0.50 C 1.000 UL
LTa
0.50 0.50 0.50 C 3159 280 M
0 4591 V
stroke
LT0
0.50 0.50 0.50 C 3159 280 M
0 63 V
0 4528 R
0 -63 V
0 -4668 R
( 38.8908) Cshow
1.000 UL
LT0
0.50 0.50 0.50 C 1.000 UL
LTa
0.50 0.50 0.50 C 3199 280 M
0 4591 V
stroke
LT0
0.50 0.50 0.50 C 3199 280 M
0 63 V
0 4528 R
0 -63 V
0 -4668 R
( 39.5979) Cshow
1.000 UL
LT0
0.50 0.50 0.50 C 1.000 UL
LTa
0.50 0.50 0.50 C 3239 280 M
0 4591 V
stroke
LT0
0.50 0.50 0.50 C 3239 280 M
0 63 V
0 4528 R
0 -63 V
0 -4668 R
( 40.305) Cshow
1.000 UL
LT0
0.50 0.50 0.50 C 1.000 UL
LTa
0.50 0.50 0.50 C 3279 280 M
0 4591 V
stroke
LT0
0.50 0.50 0.50 C 3279 280 M
0 63 V
0 4528 R
0 -63 V
0 -4668 R
( 41.0121) Cshow
1.000 UL
LT0
0.50 0.50 0.50 C 1.000 UL
LTa
0.50 0.50 0.50 C 3319 280 M
0 4591 V
stroke
LT0
0.50 0.50 0.50 C 3319 280 M
0 63 V
0 4528 R
0 -63 V
0 -4668 R
( 41.7193) Cshow
1.000 UL
LT0
0.50 0.50 0.50 C 1.000 UL
LTa
0.50 0.50 0.50 C 3358 280 M
0 4591 V
stroke
LT0
0.50 0.50 0.50 C 3358 280 M
0 63 V
0 4528 R
0 -63 V
0 -4668 R
( 42.4264) Cshow
1.000 UL
LT0
0.50 0.50 0.50 C 1.000 UL
LTa
0.50 0.50 0.50 C 3398 280 M
0 4591 V
stroke
LT0
0.50 0.50 0.50 C 3398 280 M
0 63 V
0 4528 R
0 -63 V
0 -4668 R
( 43.1335) Cshow
1.000 UL
LT0
0.50 0.50 0.50 C 1.000 UL
LTa
0.50 0.50 0.50 C 3438 280 M
0 4591 V
stroke
LT0
0.50 0.50 0.50 C 3438 280 M
0 63 V
0 4528 R
0 -63 V
0 -4668 R
( 43.8406) Cshow
1.000 UL
LT0
0.50 0.50 0.50 C 1.000 UL
LTa
0.50 0.50 0.50 C 3478 280 M
0 4591 V
stroke
LT0
0.50 0.50 0.50 C 3478 280 M
0 63 V
0 4528 R
0 -63 V
0 -4668 R
( 44.5477) Cshow
1.000 UL
LT0
0.50 0.50 0.50 C 1.000 UL
LTa
0.50 0.50 0.50 C 3518 280 M
0 4591 V
stroke
LT0
0.50 0.50 0.50 C 3518 280 M
0 63 V
0 4528 R
0 -63 V
0 -4668 R
( 45.2548) Cshow
1.000 UL
LT0
0.50 0.50 0.50 C 1.000 UL
LTa
0.50 0.50 0.50 C 3558 280 M
0 4591 V
stroke
LT0
0.50 0.50 0.50 C 3558 280 M
0 63 V
0 4528 R
0 -63 V
0 -4668 R
( 45.9619) Cshow
1.000 UL
LT0
0.50 0.50 0.50 C 1.000 UL
LTa
0.50 0.50 0.50 C 3598 280 M
0 4591 V
stroke
LT0
0.50 0.50 0.50 C 3598 280 M
0 63 V
0 4528 R
0 -63 V
0 -4668 R
( 46.669) Cshow
1.000 UL
LT0
0.50 0.50 0.50 C 1.000 UL
LTa
0.50 0.50 0.50 C 3638 280 M
0 4591 V
stroke
LT0
0.50 0.50 0.50 C 3638 280 M
0 63 V
0 4528 R
0 -63 V
0 -4668 R
( 47.3761) Cshow
1.000 UL
LT0
0.50 0.50 0.50 C 1.000 UL
LTa
0.50 0.50 0.50 C 3677 280 M
0 4591 V
stroke
LT0
0.50 0.50 0.50 C 3677 280 M
0 63 V
0 4528 R
0 -63 V
0 -4668 R
( 48.0832) Cshow
1.000 UL
LT0
0.50 0.50 0.50 C 1.000 UL
LTa
0.50 0.50 0.50 C 3717 280 M
0 4591 V
stroke
LT0
0.50 0.50 0.50 C 3717 280 M
0 63 V
0 4528 R
0 -63 V
0 -4668 R
( 48.7903) Cshow
1.000 UL
LT0
0.50 0.50 0.50 C 1.000 UL
LTa
0.50 0.50 0.50 C 3757 280 M
0 4591 V
stroke
LT0
0.50 0.50 0.50 C 3757 280 M
0 63 V
0 4528 R
0 -63 V
0 -4668 R
( 49.4974) Cshow
1.000 UL
LT0
0.50 0.50 0.50 C 1.000 UL
LTa
0.50 0.50 0.50 C 3797 280 M
0 4591 V
stroke
LT0
0.50 0.50 0.50 C 3797 280 M
0 63 V
0 4528 R
0 -63 V
0 -4668 R
( 50.2045) Cshow
1.000 UL
LT0
0.50 0.50 0.50 C 1.000 UL
LTa
0.50 0.50 0.50 C 3837 280 M
0 4591 V
stroke
LT0
0.50 0.50 0.50 C 3837 280 M
0 63 V
0 4528 R
0 -63 V
0 -4668 R
( 50.9116) Cshow
1.000 UL
LT0
0.50 0.50 0.50 C 1.000 UL
LTa
0.50 0.50 0.50 C 3877 280 M
0 4591 V
stroke
LT0
0.50 0.50 0.50 C 3877 280 M
0 63 V
0 4528 R
0 -63 V
0 -4668 R
( 51.6187) Cshow
1.000 UL
LT0
0.50 0.50 0.50 C 1.000 UL
LTa
0.50 0.50 0.50 C 3917 280 M
0 4591 V
stroke
LT0
0.50 0.50 0.50 C 3917 280 M
0 63 V
0 4528 R
0 -63 V
0 -4668 R
( 52.3258) Cshow
1.000 UL
LT0
0.50 0.50 0.50 C 1.000 UL
LTa
0.50 0.50 0.50 C 3957 280 M
0 4591 V
stroke
LT0
0.50 0.50 0.50 C 3957 280 M
0 63 V
0 4528 R
0 -63 V
0 -4668 R
( 53.033) Cshow
1.000 UL
LT0
0.50 0.50 0.50 C 1.000 UL
LTa
0.50 0.50 0.50 C 3996 280 M
0 4591 V
stroke
LT0
0.50 0.50 0.50 C 3996 280 M
0 63 V
0 4528 R
0 -63 V
0 -4668 R
( 53.7401) Cshow
1.000 UL
LT0
0.50 0.50 0.50 C 1.000 UL
LTa
0.50 0.50 0.50 C 4036 280 M
0 4591 V
stroke
LT0
0.50 0.50 0.50 C 4036 280 M
0 63 V
0 4528 R
0 -63 V
0 -4668 R
( 54.4472) Cshow
1.000 UL
LT0
0.50 0.50 0.50 C 1.000 UL
LTa
0.50 0.50 0.50 C 4076 280 M
0 4591 V
stroke
LT0
0.50 0.50 0.50 C 4076 280 M
0 63 V
0 4528 R
0 -63 V
0 -4668 R
( 55.1543) Cshow
1.000 UL
LT0
0.50 0.50 0.50 C 1.000 UL
LTa
0.50 0.50 0.50 C 4116 280 M
0 4591 V
stroke
LT0
0.50 0.50 0.50 C 4116 280 M
0 63 V
0 4528 R
0 -63 V
0 -4668 R
( 55.8614) Cshow
1.000 UL
LT0
0.50 0.50 0.50 C 1.000 UL
LTa
0.50 0.50 0.50 C 4156 280 M
0 4591 V
stroke
LT0
0.50 0.50 0.50 C 4156 280 M
0 63 V
0 4528 R
0 -63 V
0 -4668 R
( 56.5685) Cshow
1.000 UL
LT0
0.50 0.50 0.50 C 1.000 UL
LTa
0.50 0.50 0.50 C 4196 280 M
0 4591 V
stroke
LT0
0.50 0.50 0.50 C 4196 280 M
0 63 V
0 4528 R
0 -63 V
0 -4668 R
( 57.2756) Cshow
1.000 UL
LT0
0.50 0.50 0.50 C 1.000 UL
LTa
0.50 0.50 0.50 C 4236 280 M
0 4591 V
stroke
LT0
0.50 0.50 0.50 C 4236 280 M
0 63 V
0 4528 R
0 -63 V
0 -4668 R
( 57.9827) Cshow
1.000 UL
LT0
0.50 0.50 0.50 C 1.000 UL
LTa
0.50 0.50 0.50 C 4275 280 M
0 4591 V
stroke
LT0
0.50 0.50 0.50 C 4275 280 M
0 63 V
0 4528 R
0 -63 V
0 -4668 R
( 58.6898) Cshow
1.000 UL
LT0
0.50 0.50 0.50 C 1.000 UL
LTa
0.50 0.50 0.50 C 4315 280 M
0 4591 V
stroke
LT0
0.50 0.50 0.50 C 4315 280 M
0 63 V
0 4528 R
0 -63 V
0 -4668 R
( 59.3969) Cshow
1.000 UL
LT0
0.50 0.50 0.50 C 1.000 UL
LTa
0.50 0.50 0.50 C 4355 280 M
0 4591 V
stroke
LT0
0.50 0.50 0.50 C 4355 280 M
0 63 V
0 4528 R
0 -63 V
0 -4668 R
( 60.104) Cshow
1.000 UL
LT0
0.50 0.50 0.50 C 1.000 UL
LTa
0.50 0.50 0.50 C 4395 280 M
0 4591 V
stroke
LT0
0.50 0.50 0.50 C 4395 280 M
0 63 V
0 4528 R
0 -63 V
0 -4668 R
( 60.8111) Cshow
1.000 UL
LT0
0.50 0.50 0.50 C 1.000 UL
LTa
0.50 0.50 0.50 C 4435 280 M
0 4591 V
stroke
LT0
0.50 0.50 0.50 C 4435 280 M
0 63 V
0 4528 R
0 -63 V
0 -4668 R
( 61.5182) Cshow
1.000 UL
LT0
0.50 0.50 0.50 C 1.000 UL
LTa
0.50 0.50 0.50 C 4475 280 M
0 4591 V
stroke
LT0
0.50 0.50 0.50 C 4475 280 M
0 63 V
0 4528 R
0 -63 V
0 -4668 R
( 62.2253) Cshow
1.000 UL
LT0
0.50 0.50 0.50 C 1.000 UL
LTa
0.50 0.50 0.50 C 4515 280 M
0 4591 V
stroke
LT0
0.50 0.50 0.50 C 4515 280 M
0 63 V
0 4528 R
0 -63 V
0 -4668 R
( 62.9324) Cshow
1.000 UL
LT0
0.50 0.50 0.50 C 1.000 UL
LTa
0.50 0.50 0.50 C 4555 280 M
0 4591 V
stroke
LT0
0.50 0.50 0.50 C 4555 280 M
0 63 V
0 4528 R
0 -63 V
0 -4668 R
( 63.6395) Cshow
1.000 UL
LT0
0.50 0.50 0.50 C 1.000 UL
LTa
0.50 0.50 0.50 C 4594 280 M
0 4591 V
stroke
LT0
0.50 0.50 0.50 C 4594 280 M
0 63 V
0 4528 R
0 -63 V
0 -4668 R
( 64.3466) Cshow
1.000 UL
LT0
0.50 0.50 0.50 C 1.000 UL
LTa
0.50 0.50 0.50 C 4634 280 M
0 4591 V
stroke
LT0
0.50 0.50 0.50 C 4634 280 M
0 63 V
0 4528 R
0 -63 V
0 -4668 R
( 65.0538) Cshow
1.000 UL
LT0
0.50 0.50 0.50 C 1.000 UL
LTa
0.50 0.50 0.50 C 4674 280 M
0 4591 V
stroke
LT0
0.50 0.50 0.50 C 4674 280 M
0 63 V
0 4528 R
0 -63 V
0 -4668 R
( 65.7609) Cshow
1.000 UL
LT0
0.50 0.50 0.50 C 1.000 UL
LTa
0.50 0.50 0.50 C 4714 280 M
0 4591 V
stroke
LT0
0.50 0.50 0.50 C 4714 280 M
0 63 V
0 4528 R
0 -63 V
0 -4668 R
( 66.468) Cshow
1.000 UL
LT0
0.50 0.50 0.50 C 1.000 UL
LTa
0.50 0.50 0.50 C 4754 280 M
0 4591 V
stroke
LT0
0.50 0.50 0.50 C 4754 280 M
0 63 V
0 4528 R
0 -63 V
0 -4668 R
( 67.1751) Cshow
1.000 UL
LT0
0.50 0.50 0.50 C 1.000 UL
LTa
0.50 0.50 0.50 C 4794 280 M
0 4591 V
stroke
LT0
0.50 0.50 0.50 C 4794 280 M
0 63 V
0 4528 R
0 -63 V
0 -4668 R
( 67.8822) Cshow
1.000 UL
LT0
0.50 0.50 0.50 C 1.000 UL
LTa
0.50 0.50 0.50 C 4834 280 M
0 4591 V
stroke
LT0
0.50 0.50 0.50 C 4834 280 M
0 63 V
0 4528 R
0 -63 V
0 -4668 R
( 68.5893) Cshow
1.000 UL
LT0
0.50 0.50 0.50 C 1.000 UL
LTa
0.50 0.50 0.50 C 4874 280 M
0 4591 V
stroke
LT0
0.50 0.50 0.50 C 4874 280 M
0 63 V
0 4528 R
0 -63 V
0 -4668 R
( 69.2964) Cshow
1.000 UL
LT0
0.50 0.50 0.50 C 1.000 UL
LTa
0.50 0.50 0.50 C 4913 280 M
0 4591 V
stroke
LT0
0.50 0.50 0.50 C 4913 280 M
0 63 V
0 4528 R
0 -63 V
0 -4668 R
( 70.0035) Cshow
1.000 UL
LT0
0.50 0.50 0.50 C 1.000 UL
LTa
0.50 0.50 0.50 C 4953 280 M
0 4591 V
stroke
LT0
0.50 0.50 0.50 C 4953 280 M
0 63 V
0 4528 R
0 -63 V
0 -4668 R
( 70.7106) Cshow
1.000 UL
LT0
0.50 0.50 0.50 C 1.000 UL
LTa
0.50 0.50 0.50 C 4993 280 M
0 4591 V
stroke
LT0
0.50 0.50 0.50 C 4993 280 M
0 63 V
0 4528 R
0 -63 V
0 -4668 R
( 71.4177) Cshow
1.000 UL
LT0
0.50 0.50 0.50 C 1.000 UL
LTa
0.50 0.50 0.50 C 5033 280 M
0 4591 V
stroke
LT0
0.50 0.50 0.50 C 5033 280 M
0 63 V
0 4528 R
0 -63 V
0 -4668 R
( 72.1248) Cshow
1.000 UL
LT0
0.50 0.50 0.50 C 1.000 UL
LTa
0.50 0.50 0.50 C 5073 280 M
0 4591 V
stroke
LT0
0.50 0.50 0.50 C 5073 280 M
0 63 V
0 4528 R
0 -63 V
0 -4668 R
( 72.8319) Cshow
1.000 UL
LT0
0.50 0.50 0.50 C 1.000 UL
LTa
0.50 0.50 0.50 C 5113 280 M
0 4591 V
stroke
LT0
0.50 0.50 0.50 C 5113 280 M
0 63 V
0 4528 R
0 -63 V
0 -4668 R
( 73.539) Cshow
1.000 UL
LT0
0.50 0.50 0.50 C 1.000 UL
LTa
0.50 0.50 0.50 C 5153 280 M
0 4591 V
stroke
LT0
0.50 0.50 0.50 C 5153 280 M
0 63 V
0 4528 R
0 -63 V
0 -4668 R
( 74.2461) Cshow
1.000 UL
LT0
0.50 0.50 0.50 C 1.000 UL
LTa
0.50 0.50 0.50 C 5193 280 M
0 4591 V
stroke
LT0
0.50 0.50 0.50 C 5193 280 M
0 63 V
0 4528 R
0 -63 V
0 -4668 R
( 74.9532) Cshow
1.000 UL
LT0
0.50 0.50 0.50 C 1.000 UL
LTa
0.50 0.50 0.50 C 5232 280 M
0 4591 V
stroke
LT0
0.50 0.50 0.50 C 5232 280 M
0 63 V
0 4528 R
0 -63 V
0 -4668 R
( 75.6603) Cshow
1.000 UL
LT0
0.50 0.50 0.50 C 1.000 UL
LTa
0.50 0.50 0.50 C 5272 280 M
0 4591 V
stroke
LT0
0.50 0.50 0.50 C 5272 280 M
0 63 V
0 4528 R
0 -63 V
0 -4668 R
( 76.3674) Cshow
1.000 UL
LT0
0.50 0.50 0.50 C 1.000 UL
LTa
0.50 0.50 0.50 C 5312 280 M
0 4591 V
stroke
LT0
0.50 0.50 0.50 C 5312 280 M
0 63 V
0 4528 R
0 -63 V
0 -4668 R
( 77.0746) Cshow
1.000 UL
LT0
0.50 0.50 0.50 C 1.000 UL
LTa
0.50 0.50 0.50 C 5352 280 M
0 4591 V
stroke
LT0
0.50 0.50 0.50 C 5352 280 M
0 63 V
0 4528 R
0 -63 V
0 -4668 R
( 77.7817) Cshow
1.000 UL
LT0
0.50 0.50 0.50 C 1.000 UL
LTa
0.50 0.50 0.50 C 5392 280 M
0 4591 V
stroke
LT0
0.50 0.50 0.50 C 5392 280 M
0 63 V
0 4528 R
0 -63 V
0 -4668 R
( 78.4888) Cshow
1.000 UL
LT0
0.50 0.50 0.50 C 1.000 UL
LTa
0.50 0.50 0.50 C 5432 280 M
0 4591 V
stroke
LT0
0.50 0.50 0.50 C 5432 280 M
0 63 V
0 4528 R
0 -63 V
0 -4668 R
( 79.1959) Cshow
1.000 UL
LT0
0.50 0.50 0.50 C 1.000 UL
LTa
0.50 0.50 0.50 C 5472 280 M
0 4591 V
stroke
LT0
0.50 0.50 0.50 C 5472 280 M
0 63 V
0 4528 R
0 -63 V
0 -4668 R
( 79.903) Cshow
1.000 UL
LT0
0.50 0.50 0.50 C 1.000 UL
LTa
0.50 0.50 0.50 C 5512 280 M
0 4591 V
stroke
LT0
0.50 0.50 0.50 C 5512 280 M
0 63 V
0 4528 R
0 -63 V
0 -4668 R
( 80.6101) Cshow
1.000 UL
LT0
0.50 0.50 0.50 C 1.000 UL
LTa
0.50 0.50 0.50 C 5551 280 M
0 4591 V
stroke
LT0
0.50 0.50 0.50 C 5551 280 M
0 63 V
0 4528 R
0 -63 V
0 -4668 R
( 81.3172) Cshow
1.000 UL
LT0
0.50 0.50 0.50 C 1.000 UL
LTa
0.50 0.50 0.50 C 5591 280 M
0 4591 V
stroke
LT0
0.50 0.50 0.50 C 5591 280 M
0 63 V
0 4528 R
0 -63 V
0 -4668 R
( 82.0243) Cshow
1.000 UL
LT0
0.50 0.50 0.50 C 1.000 UL
LTa
0.50 0.50 0.50 C 5631 280 M
0 4591 V
stroke
LT0
0.50 0.50 0.50 C 5631 280 M
0 63 V
0 4528 R
0 -63 V
0 -4668 R
( 82.7314) Cshow
1.000 UL
LT0
0.50 0.50 0.50 C 1.000 UL
LTa
0.50 0.50 0.50 C 5671 280 M
0 4591 V
stroke
LT0
0.50 0.50 0.50 C 5671 280 M
0 63 V
0 4528 R
0 -63 V
0 -4668 R
( 83.4385) Cshow
1.000 UL
LT0
0.50 0.50 0.50 C 1.000 UL
LTa
0.50 0.50 0.50 C 5711 280 M
0 4591 V
stroke
LT0
0.50 0.50 0.50 C 5711 280 M
0 63 V
0 4528 R
0 -63 V
0 -4668 R
( 84.1456) Cshow
1.000 UL
LT0
0.50 0.50 0.50 C 1.000 UL
LTa
0.50 0.50 0.50 C 5751 280 M
0 4591 V
stroke
LT0
0.50 0.50 0.50 C 5751 280 M
0 63 V
0 4528 R
0 -63 V
0 -4668 R
( 84.8527) Cshow
1.000 UL
LT0
0.50 0.50 0.50 C 1.000 UL
LTa
0.50 0.50 0.50 C 5791 280 M
0 4591 V
stroke
LT0
0.50 0.50 0.50 C 5791 280 M
0 63 V
0 4528 R
0 -63 V
0 -4668 R
( 85.5598) Cshow
1.000 UL
LT0
0.50 0.50 0.50 C 1.000 UL
LTa
0.50 0.50 0.50 C 5831 280 M
0 4591 V
stroke
LT0
0.50 0.50 0.50 C 5831 280 M
0 63 V
0 4528 R
0 -63 V
0 -4668 R
( 86.2669) Cshow
1.000 UL
LT0
0.50 0.50 0.50 C 1.000 UL
LTa
0.50 0.50 0.50 C 5870 280 M
0 4591 V
stroke
LT0
0.50 0.50 0.50 C 5870 280 M
0 63 V
0 4528 R
0 -63 V
0 -4668 R
( 86.974) Cshow
1.000 UL
LT0
0.50 0.50 0.50 C 1.000 UL
LTa
0.50 0.50 0.50 C 5910 280 M
0 4591 V
stroke
LT0
0.50 0.50 0.50 C 5910 280 M
0 63 V
0 4528 R
0 -63 V
0 -4668 R
( 87.6811) Cshow
1.000 UL
LT0
0.50 0.50 0.50 C 1.000 UL
LTa
0.50 0.50 0.50 C 5950 280 M
0 4591 V
stroke
LT0
0.50 0.50 0.50 C 5950 280 M
0 63 V
0 4528 R
0 -63 V
0 -4668 R
( 88.3882) Cshow
1.000 UL
LT0
0.50 0.50 0.50 C 1.000 UL
LTa
0.50 0.50 0.50 C 5990 280 M
0 4591 V
stroke
LT0
0.50 0.50 0.50 C 5990 280 M
0 63 V
0 4528 R
0 -63 V
0 -4668 R
( 89.0954) Cshow
1.000 UL
LT0
0.50 0.50 0.50 C 1.000 UL
LTa
0.50 0.50 0.50 C 6030 280 M
0 4591 V
stroke
LT0
0.50 0.50 0.50 C 6030 280 M
0 63 V
0 4528 R
0 -63 V
0 -4668 R
( 89.8025) Cshow
1.000 UL
LT0
0.50 0.50 0.50 C 1.000 UL
LTa
0.50 0.50 0.50 C 6070 280 M
0 4591 V
stroke
LT0
0.50 0.50 0.50 C 6070 280 M
0 63 V
0 4528 R
0 -63 V
0 -4668 R
( 90.5096) Cshow
1.000 UL
LT0
0.50 0.50 0.50 C 1.000 UL
LTa
0.50 0.50 0.50 C 6110 280 M
0 4591 V
stroke
LT0
0.50 0.50 0.50 C 6110 280 M
0 63 V
0 4528 R
0 -63 V
0 -4668 R
( 91.2167) Cshow
1.000 UL
LT0
0.50 0.50 0.50 C 1.000 UL
LTa
0.50 0.50 0.50 C 6150 280 M
0 4591 V
stroke
LT0
0.50 0.50 0.50 C 6150 280 M
0 63 V
0 4528 R
0 -63 V
0 -4668 R
( 91.9238) Cshow
1.000 UL
LT0
0.50 0.50 0.50 C 1.000 UL
LTa
0.50 0.50 0.50 C 6189 280 M
0 4591 V
stroke
LT0
0.50 0.50 0.50 C 6189 280 M
0 63 V
0 4528 R
0 -63 V
0 -4668 R
( 92.6309) Cshow
1.000 UL
LT0
0.50 0.50 0.50 C 1.000 UL
LTa
0.50 0.50 0.50 C 6229 280 M
0 4591 V
stroke
LT0
0.50 0.50 0.50 C 6229 280 M
0 63 V
0 4528 R
0 -63 V
0 -4668 R
( 93.338) Cshow
1.000 UL
LT0
0.50 0.50 0.50 C 1.000 UL
LTa
0.50 0.50 0.50 C 6269 280 M
0 4591 V
stroke
LT0
0.50 0.50 0.50 C 6269 280 M
0 63 V
0 4528 R
0 -63 V
0 -4668 R
( 94.0451) Cshow
1.000 UL
LT0
0.50 0.50 0.50 C 1.000 UL
LTa
0.50 0.50 0.50 C 6309 280 M
0 4591 V
stroke
LT0
0.50 0.50 0.50 C 6309 280 M
0 63 V
0 4528 R
0 -63 V
0 -4668 R
( 94.7522) Cshow
1.000 UL
LT0
0.50 0.50 0.50 C 1.000 UL
LTa
0.50 0.50 0.50 C 6349 280 M
0 4591 V
stroke
LT0
0.50 0.50 0.50 C 6349 280 M
0 63 V
0 4528 R
0 -63 V
0 -4668 R
( 95.4593) Cshow
1.000 UL
LT0
0.50 0.50 0.50 C 1.000 UL
LTa
0.50 0.50 0.50 C 6389 280 M
0 4591 V
stroke
LT0
0.50 0.50 0.50 C 6389 280 M
0 63 V
0 4528 R
0 -63 V
0 -4668 R
( 96.1664) Cshow
1.000 UL
LT0
0.50 0.50 0.50 C 1.000 UL
LTa
0.50 0.50 0.50 C 6429 280 M
0 4591 V
stroke
LT0
0.50 0.50 0.50 C 6429 280 M
0 63 V
0 4528 R
0 -63 V
0 -4668 R
( 96.8735) Cshow
1.000 UL
LT0
0.50 0.50 0.50 C 1.000 UL
LTa
0.50 0.50 0.50 C 6469 280 M
0 4591 V
stroke
LT0
0.50 0.50 0.50 C 6469 280 M
0 63 V
0 4528 R
0 -63 V
0 -4668 R
( 97.5806) Cshow
1.000 UL
LT0
0.50 0.50 0.50 C 1.000 UL
LTa
0.50 0.50 0.50 C 6508 280 M
0 4591 V
stroke
LT0
0.50 0.50 0.50 C 6508 280 M
0 63 V
0 4528 R
0 -63 V
0 -4668 R
( 98.2877) Cshow
1.000 UL
LT0
0.50 0.50 0.50 C 1.000 UL
LTa
0.50 0.50 0.50 C 6548 280 M
0 4591 V
stroke
LT0
0.50 0.50 0.50 C 6548 280 M
0 63 V
0 4528 R
0 -63 V
0 -4668 R
( 98.9948) Cshow
1.000 UL
LT0
0.50 0.50 0.50 C 1.000 UL
LTa
0.50 0.50 0.50 C 6588 280 M
0 4591 V
stroke
LT0
0.50 0.50 0.50 C 6588 280 M
0 63 V
0 4528 R
0 -63 V
0 -4668 R
( 99.7019) Cshow
1.000 UL
LT0
0.50 0.50 0.50 C 1.000 UL
LTa
0.50 0.50 0.50 C 6628 280 M
0 4591 V
stroke
LT0
0.50 0.50 0.50 C 6628 280 M
0 63 V
0 4528 R
0 -63 V
0 -4668 R
( 100.409) Cshow
1.000 UL
LT0
0.50 0.50 0.50 C 1.000 UL
LTa
0.50 0.50 0.50 C 6668 280 M
0 4591 V
stroke
LT0
0.50 0.50 0.50 C 6668 280 M
0 63 V
0 4528 R
0 -63 V
0 -4668 R
( 101.116) Cshow
1.000 UL
LT0
0.50 0.50 0.50 C 1.000 UL
LTa
0.50 0.50 0.50 C 6708 280 M
0 4591 V
stroke
LT0
0.50 0.50 0.50 C 6708 280 M
0 63 V
0 4528 R
0 -63 V
0 -4668 R
( 101.823) Cshow
1.000 UL
LT0
0.50 0.50 0.50 C 1.000 UL
LTa
0.50 0.50 0.50 C 6748 280 M
0 4591 V
stroke
LT0
0.50 0.50 0.50 C 6748 280 M
0 63 V
0 4528 R
0 -63 V
0 -4668 R
( 102.53) Cshow
1.000 UL
LT0
0.50 0.50 0.50 C 1.000 UL
LTa
0.50 0.50 0.50 C 6788 280 M
0 4591 V
stroke
LT0
0.50 0.50 0.50 C 6788 280 M
0 63 V
0 4528 R
0 -63 V
0 -4668 R
( 103.237) Cshow
1.000 UL
LT0
0.50 0.50 0.50 C 1.000 UL
LTa
0.50 0.50 0.50 C 6827 280 M
0 4591 V
stroke
LT0
0.50 0.50 0.50 C 6827 280 M
0 63 V
0 4528 R
0 -63 V
0 -4668 R
( 103.945) Cshow
1.000 UL
LT0
0.50 0.50 0.50 C 1.000 UL
LTa
0.50 0.50 0.50 C 6867 280 M
0 4591 V
stroke
LT0
0.50 0.50 0.50 C 6867 280 M
0 63 V
0 4528 R
0 -63 V
0 -4668 R
( 104.652) Cshow
1.000 UL
LT0
0.50 0.50 0.50 C 1.000 UL
LTa
0.50 0.50 0.50 C 6907 280 M
0 4591 V
stroke
LT0
0.50 0.50 0.50 C 6907 280 M
0 63 V
0 4528 R
0 -63 V
0 -4668 R
( 105.359) Cshow
1.000 UL
LT0
0.50 0.50 0.50 C 1.000 UL
LTa
0.50 0.50 0.50 C 6947 280 M
0 4591 V
stroke
LT0
0.50 0.50 0.50 C 6947 280 M
0 63 V
0 4528 R
0 -63 V
0 -4668 R
( 106.066) Cshow
1.000 UL
LT0
0.50 0.50 0.50 C 1.000 UL
LT0
0.50 0.50 0.50 C 966 4871 M
966 280 L
5981 0 V
0 4591 R
-5981 0 R
1.000 UP
stroke
LT0
0.50 0.50 0.50 C % Begin plot #1
1.500 UP
2.000 UL
LT0
0.00 0.00 1.00 C /Helvetica findfont 140 scalefont setfont
/vshift -46 def
966 525 M
40 0 V
40 0 V
40 0 V
39 0 V
40 0 V
0 30 R
40 0 V
0 31 R
40 0 V
0 31 R
40 0 V
40 0 V
0 30 R
40 0 V
0 643 R
40 0 V
0 122 R
39 0 V
40 0 V
0 92 R
40 0 V
0 61 R
40 0 V
0 31 R
40 0 V
0 31 R
40 0 V
40 0 V
0 30 R
40 0 V
39 0 V
40 0 V
0 31 R
40 0 V
40 0 V
0 31 R
40 0 V
40 0 V
40 0 V
0 30 R
40 0 V
39 0 V
40 0 V
40 0 V
0 31 R
40 0 V
40 0 V
40 0 V
40 0 V
40 0 V
0 30 R
39 0 V
0 62 R
40 0 V
40 0 V
40 0 V
40 0 V
40 0 V
40 0 V
40 0 V
39 0 V
0 30 R
40 0 V
40 0 V
40 0 V
40 0 V
0 31 R
40 0 V
40 0 V
0 183 R
40 0 V
39 0 V
40 0 V
40 0 V
0 31 R
40 0 V
40 0 V
0 31 R
40 0 V
40 0 V
0 61 R
40 0 V
0 30 R
39 0 V
0 31 R
40 0 V
40 0 V
40 0 V
0 92 R
40 0 V
40 0 V
0 30 R
40 0 V
0 31 R
40 0 V
0 123 R
39 0 V
0 244 R
40 0 V
0 31 R
40 0 V
40 0 V
40 0 V
40 0 V
stroke 3877 2851 M
40 0 V
0 31 R
40 0 V
39 0 V
40 0 V
40 0 V
40 0 V
40 0 V
40 0 V
40 0 V
39 0 V
40 0 V
0 397 R
40 0 V
40 0 V
0 62 R
40 0 V
0 61 R
40 0 V
0 30 R
40 0 V
0 184 R
40 0 V
39 0 V
40 0 V
40 0 V
40 0 V
40 0 V
40 0 V
40 0 V
40 0 V
39 0 V
40 0 V
40 0 V
40 0 V
40 0 V
40 0 V
40 0 V
40 0 V
39 0 V
40 0 V
40 0 V
40 0 V
40 0 V
40 0 V
40 0 V
40 0 V
39 0 V
40 0 V
40 0 V
0 153 R
40 0 V
0 31 R
40 0 V
0 30 R
40 0 V
40 0 V
0 62 R
40 0 V
39 0 V
40 0 V
40 0 V
40 0 V
40 0 V
40 0 V
40 0 V
40 0 V
39 0 V
40 0 V
0 275 R
40 0 V
0 245 R
40 0 V
40 0 V
0 61 R
40 0 V
0 31 R
40 0 V
40 0 V
39 0 V
40 0 V
40 0 V
0 61 R
40 0 V
0 214 R
40 0 V
199 61 R
40 0 V
-239 0 R
40 0 V
40 0 V
39 0 V
40 0 V
40 0 V
1165 525 M
0 30 V
40 0 R
0 31 V
40 0 R
0 31 V
80 0 R
0 30 V
40 0 R
0 31 V
stroke 1365 678 M
0 30 V
0 31 V
0 31 V
0 30 V
0 31 V
0 31 V
0 30 V
0 31 V
0 30 V
0 31 V
0 31 V
0 30 V
0 31 V
0 30 V
0 31 V
0 31 V
0 30 V
0 31 V
0 30 V
0 31 V
40 0 R
0 31 V
0 30 V
0 31 V
0 30 V
79 0 R
0 31 V
0 31 V
0 30 V
40 0 R
0 31 V
0 30 V
40 0 R
0 31 V
40 0 R
0 31 V
80 0 R
0 30 V
119 0 R
0 31 V
80 0 R
0 31 V
120 0 R
0 30 V
159 0 R
0 31 V
200 0 R
0 30 V
39 0 R
0 31 V
0 31 V
319 0 R
0 30 V
160 0 R
0 31 V
80 0 R
0 30 V
0 31 V
0 31 V
0 30 V
0 31 V
0 30 V
159 0 R
0 31 V
80 0 R
0 31 V
80 0 R
0 30 V
0 31 V
40 0 R
0 30 V
39 0 R
0 31 V
120 0 R
0 31 V
0 30 V
0 31 V
80 0 R
0 30 V
40 0 R
0 31 V
40 0 R
0 31 V
0 30 V
0 31 V
0 31 V
39 0 R
0 30 V
0 31 V
0 30 V
0 31 V
0 31 V
0 30 V
0 31 V
0 30 V
40 0 R
0 31 V
200 0 R
0 31 V
398 0 R
0 30 V
0 31 V
0 30 V
0 31 V
stroke 4315 3004 M
0 31 V
0 30 V
0 31 V
0 30 V
0 31 V
0 31 V
0 30 V
0 31 V
0 30 V
80 0 R
0 31 V
0 31 V
40 0 R
0 30 V
0 31 V
40 0 R
0 30 V
40 0 R
0 31 V
0 31 V
0 30 V
0 31 V
0 31 V
0 30 V
1116 0 R
0 31 V
0 30 V
0 31 V
0 31 V
0 30 V
40 0 R
0 31 V
40 0 R
0 30 V
80 0 R
0 31 V
0 31 V
438 0 R
0 30 V
0 31 V
0 30 V
0 31 V
0 31 V
0 30 V
0 31 V
0 30 V
0 31 V
40 0 R
0 31 V
0 30 V
0 31 V
0 30 V
0 31 V
0 31 V
0 30 V
0 31 V
80 0 R
0 31 V
0 30 V
40 0 R
0 31 V
199 0 R
0 30 V
0 31 V
40 0 R
0 31 V
0 30 V
0 31 V
0 30 V
0 31 V
0 31 V
0 30 V
40 0 R
0 31 V
0 30 V
966 280 M
0 31 V
0 30 V
0 31 V
0 30 V
0 31 V
0 31 V
0 30 V
0 31 V
966 525 CircleF
1006 525 CircleF
1006 525 CircleF
1046 525 CircleF
1046 525 CircleF
1086 525 CircleF
1086 525 CircleF
1125 525 CircleF
1125 525 CircleF
1165 525 CircleF
1165 555 CircleF
1205 555 CircleF
1205 586 CircleF
1245 586 CircleF
1245 617 CircleF
1285 617 CircleF
1285 617 CircleF
1325 617 CircleF
1325 647 CircleF
1365 647 CircleF
1365 1290 CircleF
1405 1290 CircleF
1405 1412 CircleF
1444 1412 CircleF
1444 1412 CircleF
1484 1412 CircleF
1484 1504 CircleF
1524 1504 CircleF
1524 1565 CircleF
1564 1565 CircleF
1564 1596 CircleF
1604 1596 CircleF
1604 1627 CircleF
1644 1627 CircleF
1644 1627 CircleF
1684 1627 CircleF
1684 1657 CircleF
1724 1657 CircleF
1724 1657 CircleF
1763 1657 CircleF
1763 1657 CircleF
1803 1657 CircleF
1803 1688 CircleF
1843 1688 CircleF
1843 1688 CircleF
1883 1688 CircleF
1883 1719 CircleF
1923 1719 CircleF
1923 1719 CircleF
1963 1719 CircleF
1963 1719 CircleF
2003 1719 CircleF
2003 1749 CircleF
2043 1749 CircleF
2043 1749 CircleF
2082 1749 CircleF
2082 1749 CircleF
2122 1749 CircleF
2122 1749 CircleF
2162 1749 CircleF
2162 1780 CircleF
2202 1780 CircleF
2202 1780 CircleF
2242 1780 CircleF
2242 1780 CircleF
2282 1780 CircleF
2282 1780 CircleF
2322 1780 CircleF
2322 1780 CircleF
2362 1780 CircleF
2362 1810 CircleF
2401 1810 CircleF
2401 1872 CircleF
2441 1872 CircleF
2441 1872 CircleF
2481 1872 CircleF
2481 1872 CircleF
2521 1872 CircleF
2521 1872 CircleF
2561 1872 CircleF
2561 1872 CircleF
2601 1872 CircleF
2601 1872 CircleF
2641 1872 CircleF
2641 1872 CircleF
2681 1872 CircleF
2681 1872 CircleF
2720 1872 CircleF
2720 1902 CircleF
2760 1902 CircleF
2760 1902 CircleF
2800 1902 CircleF
2800 1902 CircleF
2840 1902 CircleF
2840 1902 CircleF
2880 1902 CircleF
2880 1933 CircleF
2920 1933 CircleF
2920 1933 CircleF
2960 1933 CircleF
2960 2116 CircleF
3000 2116 CircleF
3000 2116 CircleF
3039 2116 CircleF
3039 2116 CircleF
3079 2116 CircleF
3079 2116 CircleF
3119 2116 CircleF
3119 2147 CircleF
3159 2147 CircleF
3159 2147 CircleF
3199 2147 CircleF
3199 2178 CircleF
3239 2178 CircleF
3239 2178 CircleF
3279 2178 CircleF
3279 2239 CircleF
3319 2239 CircleF
3319 2269 CircleF
3358 2269 CircleF
3358 2300 CircleF
3398 2300 CircleF
3398 2300 CircleF
3438 2300 CircleF
3438 2300 CircleF
3478 2300 CircleF
3478 2392 CircleF
3518 2392 CircleF
3518 2392 CircleF
3558 2392 CircleF
3558 2422 CircleF
3598 2422 CircleF
3598 2453 CircleF
3638 2453 CircleF
3638 2576 CircleF
3677 2576 CircleF
3677 2820 CircleF
3717 2820 CircleF
3717 2851 CircleF
3757 2851 CircleF
3757 2851 CircleF
3797 2851 CircleF
3797 2851 CircleF
3837 2851 CircleF
3837 2851 CircleF
3877 2851 CircleF
3877 2851 CircleF
3917 2851 CircleF
3917 2882 CircleF
3957 2882 CircleF
3957 2882 CircleF
3996 2882 CircleF
3996 2882 CircleF
4036 2882 CircleF
4036 2882 CircleF
4076 2882 CircleF
4076 2882 CircleF
4116 2882 CircleF
4116 2882 CircleF
4156 2882 CircleF
4156 2882 CircleF
4196 2882 CircleF
4196 2882 CircleF
4236 2882 CircleF
4236 2882 CircleF
4275 2882 CircleF
4275 2882 CircleF
4315 2882 CircleF
4315 3279 CircleF
4355 3279 CircleF
4355 3279 CircleF
4395 3279 CircleF
4395 3341 CircleF
4435 3341 CircleF
4435 3402 CircleF
4475 3402 CircleF
4475 3432 CircleF
4515 3432 CircleF
4515 3616 CircleF
4555 3616 CircleF
4555 3616 CircleF
4594 3616 CircleF
4594 3616 CircleF
4634 3616 CircleF
4634 3616 CircleF
4674 3616 CircleF
4674 3616 CircleF
4714 3616 CircleF
4714 3616 CircleF
4754 3616 CircleF
4754 3616 CircleF
4794 3616 CircleF
4794 3616 CircleF
4834 3616 CircleF
4834 3616 CircleF
4874 3616 CircleF
4874 3616 CircleF
4913 3616 CircleF
4913 3616 CircleF
4953 3616 CircleF
4953 3616 CircleF
4993 3616 CircleF
4993 3616 CircleF
5033 3616 CircleF
5033 3616 CircleF
5073 3616 CircleF
5073 3616 CircleF
5113 3616 CircleF
5113 3616 CircleF
5153 3616 CircleF
5153 3616 CircleF
5193 3616 CircleF
5193 3616 CircleF
5232 3616 CircleF
5232 3616 CircleF
5272 3616 CircleF
5272 3616 CircleF
5312 3616 CircleF
5312 3616 CircleF
5352 3616 CircleF
5352 3616 CircleF
5392 3616 CircleF
5392 3616 CircleF
5432 3616 CircleF
5432 3616 CircleF
5472 3616 CircleF
5472 3616 CircleF
5512 3616 CircleF
5512 3616 CircleF
5551 3616 CircleF
5551 3616 CircleF
5591 3616 CircleF
5591 3616 CircleF
5631 3616 CircleF
5631 3769 CircleF
5671 3769 CircleF
5671 3800 CircleF
5711 3800 CircleF
5711 3830 CircleF
5751 3830 CircleF
5751 3830 CircleF
5791 3830 CircleF
5791 3892 CircleF
5831 3892 CircleF
5831 3892 CircleF
5870 3892 CircleF
5870 3892 CircleF
5910 3892 CircleF
5910 3892 CircleF
5950 3892 CircleF
5950 3892 CircleF
5990 3892 CircleF
5990 3892 CircleF
6030 3892 CircleF
6030 3892 CircleF
6070 3892 CircleF
6070 3892 CircleF
6110 3892 CircleF
6110 3892 CircleF
6150 3892 CircleF
6150 3892 CircleF
6189 3892 CircleF
6189 3892 CircleF
6229 3892 CircleF
6229 4167 CircleF
6269 4167 CircleF
6269 4412 CircleF
6309 4412 CircleF
6309 4412 CircleF
6349 4412 CircleF
6349 4473 CircleF
6389 4473 CircleF
6389 4504 CircleF
6429 4504 CircleF
6429 4504 CircleF
6469 4504 CircleF
6469 4504 CircleF
6508 4504 CircleF
6508 4504 CircleF
6548 4504 CircleF
6548 4504 CircleF
6588 4504 CircleF
6588 4565 CircleF
6628 4565 CircleF
6628 4779 CircleF
6668 4779 CircleF
6867 4840 CircleF
6907 4840 CircleF
6668 4840 CircleF
6708 4840 CircleF
6708 4840 CircleF
6748 4840 CircleF
6748 4840 CircleF
6787 4840 CircleF
6787 4840 CircleF
6827 4840 CircleF
6827 4840 CircleF
6867 4840 CircleF
1165 525 CircleF
1165 555 CircleF
1205 555 CircleF
1205 586 CircleF
1245 586 CircleF
1245 617 CircleF
1325 617 CircleF
1325 647 CircleF
1365 647 CircleF
1365 678 CircleF
1365 678 CircleF
1365 708 CircleF
1365 708 CircleF
1365 739 CircleF
1365 739 CircleF
1365 770 CircleF
1365 770 CircleF
1365 800 CircleF
1365 800 CircleF
1365 831 CircleF
1365 831 CircleF
1365 862 CircleF
1365 862 CircleF
1365 892 CircleF
1365 892 CircleF
1365 923 CircleF
1365 923 CircleF
1365 953 CircleF
1365 953 CircleF
1365 984 CircleF
1365 984 CircleF
1365 1015 CircleF
1365 1015 CircleF
1365 1045 CircleF
1365 1045 CircleF
1365 1076 CircleF
1365 1076 CircleF
1365 1106 CircleF
1365 1106 CircleF
1365 1137 CircleF
1365 1137 CircleF
1365 1168 CircleF
1365 1168 CircleF
1365 1198 CircleF
1365 1198 CircleF
1365 1229 CircleF
1365 1229 CircleF
1365 1259 CircleF
1365 1259 CircleF
1365 1290 CircleF
1405 1290 CircleF
1405 1321 CircleF
1405 1321 CircleF
1405 1351 CircleF
1405 1351 CircleF
1405 1382 CircleF
1405 1382 CircleF
1405 1412 CircleF
1484 1412 CircleF
1484 1443 CircleF
1484 1443 CircleF
1484 1474 CircleF
1484 1474 CircleF
1484 1504 CircleF
1524 1504 CircleF
1524 1535 CircleF
1524 1535 CircleF
1524 1565 CircleF
1564 1565 CircleF
1564 1596 CircleF
1604 1596 CircleF
1604 1627 CircleF
1684 1627 CircleF
1684 1657 CircleF
1803 1657 CircleF
1803 1688 CircleF
1883 1688 CircleF
1883 1719 CircleF
2003 1719 CircleF
2003 1749 CircleF
2162 1749 CircleF
2162 1780 CircleF
2362 1780 CircleF
2362 1810 CircleF
2401 1810 CircleF
2401 1841 CircleF
2401 1841 CircleF
2401 1872 CircleF
2720 1872 CircleF
2720 1902 CircleF
2880 1902 CircleF
2880 1933 CircleF
2960 1933 CircleF
2960 1963 CircleF
2960 1963 CircleF
2960 1994 CircleF
2960 1994 CircleF
2960 2025 CircleF
2960 2025 CircleF
2960 2055 CircleF
2960 2055 CircleF
2960 2086 CircleF
2960 2086 CircleF
2960 2116 CircleF
3119 2116 CircleF
3119 2147 CircleF
3199 2147 CircleF
3199 2178 CircleF
3279 2178 CircleF
3279 2208 CircleF
3279 2208 CircleF
3279 2239 CircleF
3319 2239 CircleF
3319 2269 CircleF
3358 2269 CircleF
3358 2300 CircleF
3478 2300 CircleF
3478 2331 CircleF
3478 2331 CircleF
3478 2361 CircleF
3478 2361 CircleF
3478 2392 CircleF
3558 2392 CircleF
3558 2422 CircleF
3598 2422 CircleF
3598 2453 CircleF
3638 2453 CircleF
3638 2484 CircleF
3638 2484 CircleF
3638 2514 CircleF
3638 2514 CircleF
3638 2545 CircleF
3638 2545 CircleF
3638 2576 CircleF
3677 2576 CircleF
3677 2606 CircleF
3677 2606 CircleF
3677 2637 CircleF
3677 2637 CircleF
3677 2667 CircleF
3677 2667 CircleF
3677 2698 CircleF
3677 2698 CircleF
3677 2729 CircleF
3677 2729 CircleF
3677 2759 CircleF
3677 2759 CircleF
3677 2790 CircleF
3677 2790 CircleF
3677 2820 CircleF
3717 2820 CircleF
3717 2851 CircleF
3917 2851 CircleF
3917 2882 CircleF
4315 2882 CircleF
4315 2912 CircleF
4315 2912 CircleF
4315 2943 CircleF
4315 2943 CircleF
4315 2973 CircleF
4315 2973 CircleF
4315 3004 CircleF
4315 3004 CircleF
4315 3035 CircleF
4315 3035 CircleF
4315 3065 CircleF
4315 3065 CircleF
4315 3096 CircleF
4315 3096 CircleF
4315 3126 CircleF
4315 3126 CircleF
4315 3157 CircleF
4315 3157 CircleF
4315 3188 CircleF
4315 3188 CircleF
4315 3218 CircleF
4315 3218 CircleF
4315 3249 CircleF
4315 3249 CircleF
4315 3279 CircleF
4395 3279 CircleF
4395 3310 CircleF
4395 3310 CircleF
4395 3341 CircleF
4435 3341 CircleF
4435 3371 CircleF
4435 3371 CircleF
4435 3402 CircleF
4475 3402 CircleF
4475 3432 CircleF
4515 3432 CircleF
4515 3463 CircleF
4515 3463 CircleF
4515 3494 CircleF
4515 3494 CircleF
4515 3524 CircleF
4515 3524 CircleF
4515 3555 CircleF
4515 3555 CircleF
4515 3586 CircleF
4515 3586 CircleF
4515 3616 CircleF
5631 3616 CircleF
5631 3647 CircleF
5631 3647 CircleF
5631 3677 CircleF
5631 3677 CircleF
5631 3708 CircleF
5631 3708 CircleF
5631 3739 CircleF
5631 3739 CircleF
5631 3769 CircleF
5671 3769 CircleF
5671 3800 CircleF
5711 3800 CircleF
5711 3830 CircleF
5791 3830 CircleF
5791 3861 CircleF
5791 3861 CircleF
5791 3892 CircleF
6229 3892 CircleF
6229 3922 CircleF
6229 3922 CircleF
6229 3953 CircleF
6229 3953 CircleF
6229 3983 CircleF
6229 3983 CircleF
6229 4014 CircleF
6229 4014 CircleF
6229 4045 CircleF
6229 4045 CircleF
6229 4075 CircleF
6229 4075 CircleF
6229 4106 CircleF
6229 4106 CircleF
6229 4136 CircleF
6229 4136 CircleF
6229 4167 CircleF
6269 4167 CircleF
6269 4198 CircleF
6269 4198 CircleF
6269 4228 CircleF
6269 4228 CircleF
6269 4259 CircleF
6269 4259 CircleF
6269 4289 CircleF
6269 4289 CircleF
6269 4320 CircleF
6269 4320 CircleF
6269 4351 CircleF
6269 4351 CircleF
6269 4381 CircleF
6269 4381 CircleF
6269 4412 CircleF
6349 4412 CircleF
6349 4443 CircleF
6349 4443 CircleF
6349 4473 CircleF
6389 4473 CircleF
6389 4504 CircleF
6588 4504 CircleF
6588 4534 CircleF
6588 4534 CircleF
6588 4565 CircleF
6628 4565 CircleF
6628 4596 CircleF
6628 4596 CircleF
6628 4626 CircleF
6628 4626 CircleF
6628 4657 CircleF
6628 4657 CircleF
6628 4687 CircleF
6628 4687 CircleF
6628 4718 CircleF
6628 4718 CircleF
6628 4749 CircleF
6628 4749 CircleF
6628 4779 CircleF
6668 4779 CircleF
6668 4810 CircleF
6668 4810 CircleF
6668 4840 CircleF
966 280 CircleF
966 311 CircleF
966 311 CircleF
966 341 CircleF
966 341 CircleF
966 372 CircleF
966 372 CircleF
966 402 CircleF
966 402 CircleF
966 433 CircleF
966 433 CircleF
966 464 CircleF
966 464 CircleF
966 494 CircleF
966 494 CircleF
966 525 CircleF
% End plot #1
% Begin plot #2
1.500 UP
2.000 UL
LT0
1.00 0.55 0.00 C /Helvetica findfont 140 scalefont setfont
6671 334 M
40 30 V
3000 3762 M
40 31 V
3180 363 R
40 31 V
5432 605 M
40 31 V
1228 592 M
40 31 V
4380 4022 M
40 31 V
5392 766 M
40 30 V
1267 335 M
40 30 V
2939 1921 M
40 31 V
4182 3836 M
40 31 V
3225 2162 M
39 31 V
235 2103 R
40 31 V
2709 2212 M
40 31 V
1996 4309 M
40 31 V
2027 616 M
40 31 V
6457 2184 M
39 31 V
2226 2021 M
40 31 V
5649 1251 M
39 31 V
2304 2309 M
39 31 V
1717 921 M
40 31 V
-316 712 R
40 31 V
3802 4642 M
39 31 V
6045 2141 M
40 30 V
1121 1932 M
40 31 V
765 2820 R
40 31 V
2155 1762 M
40 30 V
-29 107 R
39 30 V
1636 901 R
40 31 V
6137 2167 M
40 31 V
1064 3871 M
40 31 V
970 1886 M
40 30 V
5582 3593 M
40 31 V
4452 1975 M
40 31 V
3784 1201 M
40 31 V
6820 857 M
40 30 V
1371 4067 M
40 31 V
4545 381 R
40 31 V
5489 641 M
40 31 V
4497 2155 M
40 30 V
1698 321 R
40 30 V
305 -529 R
40 31 V
3726 4008 M
40 30 V
1587 547 R
40 30 V
6548 4128 M
40 31 V
1763 2767 M
40 31 V
5016 1262 M
39 30 V
1329 4230 M
40 30 V
5323 3611 M
39 31 V
1480 3185 M
39 30 V
6768 1354 M
40 30 V
2116 3096 M
40 30 V
2306 672 R
40 31 V
26 -1908 R
40 31 V
stroke 4568 1952 M
2384 2649 M
40 30 V
4795 750 M
40 31 V
2146 3693 M
40 31 V
1370 2636 M
39 31 V
3230 101 R
40 31 V
2080 3273 M
40 30 V
5147 500 M
40 31 V
1671 3258 M
40 31 V
3343 1074 M
40 30 V
870 -7 R
40 30 V
3938 4070 M
40 31 V
6208 3889 M
40 31 V
6101 299 M
40 30 V
4893 954 M
39 31 V
2861 486 M
40 31 V
3548 295 M
40 31 V
3106 2122 M
39 31 V
6103 4736 M
40 30 V
4070 1936 M
40 30 V
248 1310 R
40 31 V
4982 2264 M
39 31 V
2201 3724 M
40 31 V
218 -512 R
40 30 V
3566 4577 M
40 30 V
6513 495 M
40 31 V
5413 1011 M
40 31 V
4588 2473 M
40 31 V
-940 459 R
40 30 V
3188 949 M
39 31 V
1028 1968 M
40 31 V
4543 4071 M
40 31 V
6533 2550 M
40 30 V
4858 1048 M
40 30 V
1287 542 R
40 31 V
384 -312 R
40 30 V
3671 2212 M
40 31 V
4347 982 M
40 31 V
4083 2500 M
40 31 V
2651 227 R
40 31 V
3000 301 M
40 31 V
1361 2882 M
39 31 V
6823 3948 M
40 31 V
-1499 19 R
40 31 V
6531 471 M
40 31 V
1405 2538 M
40 30 V
2820 4264 M
40 31 V
5992 2917 M
40 30 V
5314 2290 M
40 31 V
112 -931 R
40 31 V
2267 1304 M
40 31 V
4240 747 M
40 31 V
1421 2722 M
39 30 V
stroke 1460 2752 M
6641 4765 M
40 31 V
6269 4389 M
40 31 V
5502 1638 M
40 31 V
297 214 R
39 31 V
879 -16 R
40 30 V
4804 4095 M
40 31 V
2065 1999 M
40 30 V
2583 617 M
40 30 V
4395 3632 M
39 30 V
3185 3438 M
40 31 V
124 13 R
40 30 V
6491 356 M
40 31 V
5329 4236 M
39 30 V
4912 1269 M
39 31 V
1391 1282 M
40 30 V
6393 1102 M
39 31 V
3512 4412 M
40 31 V
4055 380 M
40 31 V
6829 3415 M
39 31 V
3192 2156 M
40 30 V
1464 4095 M
40 31 V
1066 348 R
39 30 V
15 -196 R
40 30 V
2219 114 R
40 31 V
1665 4798 M
40 30 V
797 -142 R
40 30 V
6581 1072 M
40 31 V
5549 520 M
40 31 V
4328 3412 M
39 31 V
6420 3327 M
40 31 V
1166 2692 M
40 30 V
3092 947 M
40 31 V
341 2277 R
40 31 V
5097 328 M
39 31 V
1532 3340 M
39 31 V
5260 1724 M
39 31 V
3693 2819 M
40 30 V
-2037 -6 R
40 30 V
1104 712 M
40 30 V
38 3702 R
40 31 V
4269 2174 M
40 31 V
6652 1226 M
40 30 V
3701 4434 M
40 30 V
2861 1189 M
40 30 V
1816 4245 M
40 30 V
1051 475 R
40 31 V
6351 1345 M
40 30 V
-5386 4 R
40 31 V
5047 280 R
40 30 V
4310 3646 M
39 31 V
6528 1440 M
40 31 V
6507 512 M
40 30 V
stroke 6547 542 M
3180 4486 M
40 31 V
3171 -17 R
40 31 V
4027 2993 M
39 31 V
-671 387 R
39 31 V
2962 2230 M
39 31 V
3282 380 R
40 31 V
2611 3800 M
39 31 V
5419 2371 M
40 30 V
6067 485 M
40 30 V
5719 462 M
40 31 V
129 3700 R
40 31 V
3650 4374 M
39 30 V
2498 4358 M
40 31 V
142 -414 R
40 31 V
4807 3598 M
40 31 V
-686 591 R
40 31 V
1644 1614 M
40 30 V
-385 438 R
40 30 V
510 2696 R
40 31 V
2701 1866 M
40 31 V
1535 976 R
40 30 V
1323 861 R
40 31 V
1205 571 M
40 31 V
2922 3208 M
40 30 V
6807 2759 M
40 31 V
4520 2127 M
40 30 V
4302 4316 M
40 30 V
1586 2365 M
40 31 V
973 866 M
40 31 V
2430 2809 M
40 31 V
1155 4237 M
40 30 V
4310 2343 M
40 30 V
6166 1822 M
40 31 V
1561 4220 M
40 30 V
3267 508 R
39 31 V
4557 4378 M
40 30 V
4342 1585 M
40 30 V
2745 2716 M
39 31 V
544 -477 R
40 31 V
4616 802 M
40 30 V
5767 3004 M
40 30 V
3316 3384 M
39 31 V
2035 4446 M
40 30 V
6671 334 CircleF
6711 364 CircleF
3000 3762 CircleF
3040 3793 CircleF
6220 4156 CircleF
6260 4187 CircleF
5432 605 CircleF
5472 636 CircleF
1228 592 CircleF
1268 623 CircleF
4380 4022 CircleF
4420 4053 CircleF
5392 766 CircleF
5432 796 CircleF
1267 335 CircleF
1307 365 CircleF
2939 1921 CircleF
2979 1952 CircleF
4182 3836 CircleF
4222 3867 CircleF
3225 2162 CircleF
3264 2193 CircleF
3499 4296 CircleF
3539 4327 CircleF
2709 2212 CircleF
2749 2243 CircleF
1996 4309 CircleF
2036 4340 CircleF
2027 616 CircleF
2067 647 CircleF
6457 2184 CircleF
6496 2215 CircleF
2226 2021 CircleF
2266 2052 CircleF
5649 1251 CircleF
5688 1282 CircleF
2304 2309 CircleF
2343 2340 CircleF
1717 921 CircleF
1757 952 CircleF
1441 1664 CircleF
1481 1695 CircleF
3802 4642 CircleF
3841 4673 CircleF
6045 2141 CircleF
6085 2171 CircleF
1121 1932 CircleF
1161 1963 CircleF
1926 4783 CircleF
1966 4814 CircleF
2155 1762 CircleF
2195 1792 CircleF
2166 1899 CircleF
2205 1929 CircleF
3841 2830 CircleF
3881 2861 CircleF
6137 2167 CircleF
6177 2198 CircleF
1064 3871 CircleF
1104 3902 CircleF
970 1886 CircleF
1010 1916 CircleF
5582 3593 CircleF
5622 3624 CircleF
4452 1975 CircleF
4492 2006 CircleF
3784 1201 CircleF
3824 1232 CircleF
6820 857 CircleF
6860 887 CircleF
1371 4067 CircleF
1411 4098 CircleF
5956 4479 CircleF
5996 4510 CircleF
5489 641 CircleF
5529 672 CircleF
4497 2155 CircleF
4537 2185 CircleF
6235 2506 CircleF
6275 2536 CircleF
6580 2007 CircleF
6620 2038 CircleF
3726 4008 CircleF
3766 4038 CircleF
5353 4585 CircleF
5393 4615 CircleF
6548 4128 CircleF
6588 4159 CircleF
1763 2767 CircleF
1803 2798 CircleF
5016 1262 CircleF
5055 1292 CircleF
1329 4230 CircleF
1369 4260 CircleF
5323 3611 CircleF
5362 3642 CircleF
1480 3185 CircleF
1519 3215 CircleF
6768 1354 CircleF
6808 1384 CircleF
2116 3096 CircleF
2156 3126 CircleF
4462 3798 CircleF
4502 3829 CircleF
4528 1921 CircleF
4568 1952 CircleF
2384 2649 CircleF
2424 2679 CircleF
4795 750 CircleF
4835 781 CircleF
2146 3693 CircleF
2186 3724 CircleF
1370 2636 CircleF
1409 2667 CircleF
4639 2768 CircleF
4679 2799 CircleF
2080 3273 CircleF
2120 3303 CircleF
5147 500 CircleF
5187 531 CircleF
1671 3258 CircleF
1711 3289 CircleF
3343 1074 CircleF
3383 1104 CircleF
4253 1097 CircleF
4293 1127 CircleF
3938 4070 CircleF
3978 4101 CircleF
6208 3889 CircleF
6248 3920 CircleF
6101 299 CircleF
6141 329 CircleF
4893 954 CircleF
4932 985 CircleF
2861 486 CircleF
2901 517 CircleF
3548 295 CircleF
3588 326 CircleF
3106 2122 CircleF
3145 2153 CircleF
6103 4736 CircleF
6143 4766 CircleF
4070 1936 CircleF
4110 1966 CircleF
4358 3276 CircleF
4398 3307 CircleF
4982 2264 CircleF
5021 2295 CircleF
2201 3724 CircleF
2241 3755 CircleF
2459 3243 CircleF
2499 3273 CircleF
3566 4577 CircleF
3606 4607 CircleF
6513 495 CircleF
6553 526 CircleF
5413 1011 CircleF
5453 1042 CircleF
4588 2473 CircleF
4628 2504 CircleF
3688 2963 CircleF
3728 2993 CircleF
3188 949 CircleF
3227 980 CircleF
1028 1968 CircleF
1068 1999 CircleF
4543 4071 CircleF
4583 4102 CircleF
6533 2550 CircleF
6573 2580 CircleF
4858 1048 CircleF
4898 1078 CircleF
6185 1620 CircleF
6225 1651 CircleF
6609 1339 CircleF
6649 1369 CircleF
3671 2212 CircleF
3711 2243 CircleF
4347 982 CircleF
4387 1013 CircleF
4083 2500 CircleF
4123 2531 CircleF
6774 2758 CircleF
6814 2789 CircleF
3000 301 CircleF
3040 332 CircleF
1361 2882 CircleF
1400 2913 CircleF
6823 3948 CircleF
6863 3979 CircleF
5364 3998 CircleF
5404 4029 CircleF
6531 471 CircleF
6571 502 CircleF
1405 2538 CircleF
1445 2568 CircleF
2820 4264 CircleF
2860 4295 CircleF
5992 2917 CircleF
6032 2947 CircleF
5314 2290 CircleF
5354 2321 CircleF
5466 1390 CircleF
5506 1421 CircleF
2267 1304 CircleF
2307 1335 CircleF
4240 747 CircleF
4280 778 CircleF
1421 2722 CircleF
1460 2752 CircleF
6641 4765 CircleF
6681 4796 CircleF
6269 4389 CircleF
6309 4420 CircleF
5502 1638 CircleF
5542 1669 CircleF
5839 1883 CircleF
5878 1914 CircleF
6757 1898 CircleF
6797 1928 CircleF
4804 4095 CircleF
4844 4126 CircleF
2065 1999 CircleF
2105 2029 CircleF
2583 617 CircleF
2623 647 CircleF
4395 3632 CircleF
4434 3662 CircleF
3185 3438 CircleF
3225 3469 CircleF
3349 3482 CircleF
3389 3512 CircleF
6491 356 CircleF
6531 387 CircleF
5329 4236 CircleF
5368 4266 CircleF
4912 1269 CircleF
4951 1300 CircleF
1391 1282 CircleF
1431 1312 CircleF
6393 1102 CircleF
6432 1133 CircleF
3512 4412 CircleF
3552 4443 CircleF
4055 380 CircleF
4095 411 CircleF
6829 3415 CircleF
6868 3446 CircleF
3192 2156 CircleF
3232 2186 CircleF
1464 4095 CircleF
1504 4126 CircleF
2570 4474 CircleF
2609 4504 CircleF
2624 4308 CircleF
2664 4338 CircleF
4883 4452 CircleF
4923 4483 CircleF
1665 4798 CircleF
1705 4828 CircleF
2502 4686 CircleF
2542 4716 CircleF
6581 1072 CircleF
6621 1103 CircleF
5549 520 CircleF
5589 551 CircleF
4328 3412 CircleF
4367 3443 CircleF
6420 3327 CircleF
6460 3358 CircleF
1166 2692 CircleF
1206 2722 CircleF
3092 947 CircleF
3132 978 CircleF
3473 3255 CircleF
3513 3286 CircleF
5097 328 CircleF
5136 359 CircleF
1532 3340 CircleF
1571 3371 CircleF
5260 1724 CircleF
5299 1755 CircleF
3693 2819 CircleF
3733 2849 CircleF
1696 2843 CircleF
1736 2873 CircleF
1104 712 CircleF
1144 742 CircleF
1182 4444 CircleF
1222 4475 CircleF
4269 2174 CircleF
4309 2205 CircleF
6652 1226 CircleF
6692 1256 CircleF
3701 4434 CircleF
3741 4464 CircleF
2861 1189 CircleF
2901 1219 CircleF
1816 4245 CircleF
1856 4275 CircleF
2907 4750 CircleF
2947 4781 CircleF
6351 1345 CircleF
6391 1375 CircleF
1005 1379 CircleF
1045 1410 CircleF
6092 1690 CircleF
6132 1720 CircleF
4310 3646 CircleF
4349 3677 CircleF
6528 1440 CircleF
6568 1471 CircleF
6507 512 CircleF
6547 542 CircleF
3180 4486 CircleF
3220 4517 CircleF
6391 4500 CircleF
6431 4531 CircleF
4027 2993 CircleF
4066 3024 CircleF
3395 3411 CircleF
3434 3442 CircleF
2962 2230 CircleF
3001 2261 CircleF
6283 2641 CircleF
6323 2672 CircleF
2611 3800 CircleF
2650 3831 CircleF
5419 2371 CircleF
5459 2401 CircleF
6067 485 CircleF
6107 515 CircleF
5719 462 CircleF
5759 493 CircleF
5888 4193 CircleF
5928 4224 CircleF
3650 4374 CircleF
3689 4404 CircleF
2498 4358 CircleF
2538 4389 CircleF
2680 3975 CircleF
2720 4006 CircleF
4807 3598 CircleF
4847 3629 CircleF
4161 4220 CircleF
4201 4251 CircleF
1644 1614 CircleF
1684 1644 CircleF
1299 2082 CircleF
1339 2112 CircleF
1849 4808 CircleF
1889 4839 CircleF
2701 1866 CircleF
2741 1897 CircleF
4276 2873 CircleF
4316 2903 CircleF
5639 3764 CircleF
5679 3795 CircleF
1205 571 CircleF
1245 602 CircleF
2922 3208 CircleF
2962 3238 CircleF
6807 2759 CircleF
6847 2790 CircleF
4520 2127 CircleF
4560 2157 CircleF
4302 4316 CircleF
4342 4346 CircleF
1586 2365 CircleF
1626 2396 CircleF
973 866 CircleF
1013 897 CircleF
2430 2809 CircleF
2470 2840 CircleF
1155 4237 CircleF
1195 4267 CircleF
4310 2343 CircleF
4350 2373 CircleF
6166 1822 CircleF
6206 1853 CircleF
1561 4220 CircleF
1601 4250 CircleF
4868 4758 CircleF
4907 4789 CircleF
4557 4378 CircleF
4597 4408 CircleF
4342 1585 CircleF
4382 1615 CircleF
2745 2716 CircleF
2784 2747 CircleF
3328 2270 CircleF
3368 2301 CircleF
4616 802 CircleF
4656 832 CircleF
5767 3004 CircleF
5807 3034 CircleF
3316 3384 CircleF
3355 3415 CircleF
2035 4446 CircleF
2075 4476 CircleF
% End plot #2
1.000 UP
1.000 UL
LT0
0.50 0.50 0.50 C stroke
grestore
end
showpage
%%Trailer
%%DocumentFonts: Helvetica
%%Pages: 1
