%!PS-Adobe-2.0
%%Title: out.ps
%%Creator: gnuplot 4.6 patchlevel 6
%%CreationDate: Thu May 28 16:54:10 2015
%%DocumentFonts: (atend)
%%BoundingBox: 50 50 554 770
%%Orientation: Landscape
%%Pages: (atend)
%%EndComments
%%BeginProlog
/gnudict 256 dict def
gnudict begin
%
% The following true/false flags may be edited by hand if desired.
% The unit line width and grayscale image gamma correction may also be changed.
%
/Color false def
/Blacktext false def
/Solid false def
/Dashlength 1 def
/Landscape true def
/Level1 false def
/Rounded false def
/ClipToBoundingBox false def
/SuppressPDFMark false def
/TransparentPatterns false def
/gnulinewidth 5.000 def
/userlinewidth gnulinewidth def
/Gamma 1.0 def
/BackgroundColor {-1.000 -1.000 -1.000} def
%
/vshift -46 def
/dl1 {
  10.0 Dashlength mul mul
  Rounded { currentlinewidth 0.75 mul sub dup 0 le { pop 0.01 } if } if
} def
/dl2 {
  10.0 Dashlength mul mul
  Rounded { currentlinewidth 0.75 mul add } if
} def
/hpt_ 31.5 def
/vpt_ 31.5 def
/hpt hpt_ def
/vpt vpt_ def
/doclip {
  ClipToBoundingBox {
    newpath 50 50 moveto 554 50 lineto 554 770 lineto 50 770 lineto closepath
    clip
  } if
} def
%
% Gnuplot Prolog Version 4.6 (September 2012)
%
%/SuppressPDFMark true def
%
/M {moveto} bind def
/L {lineto} bind def
/R {rmoveto} bind def
/V {rlineto} bind def
/N {newpath moveto} bind def
/Z {closepath} bind def
/C {setrgbcolor} bind def
/f {rlineto fill} bind def
/g {setgray} bind def
/Gshow {show} def   % May be redefined later in the file to support UTF-8
/vpt2 vpt 2 mul def
/hpt2 hpt 2 mul def
/Lshow {currentpoint stroke M 0 vshift R 
	Blacktext {gsave 0 setgray show grestore} {show} ifelse} def
/Rshow {currentpoint stroke M dup stringwidth pop neg vshift R
	Blacktext {gsave 0 setgray show grestore} {show} ifelse} def
/Cshow {currentpoint stroke M dup stringwidth pop -2 div vshift R 
	Blacktext {gsave 0 setgray show grestore} {show} ifelse} def
/UP {dup vpt_ mul /vpt exch def hpt_ mul /hpt exch def
  /hpt2 hpt 2 mul def /vpt2 vpt 2 mul def} def
/DL {Color {setrgbcolor Solid {pop []} if 0 setdash}
 {pop pop pop 0 setgray Solid {pop []} if 0 setdash} ifelse} def
/BL {stroke userlinewidth 2 mul setlinewidth
	Rounded {1 setlinejoin 1 setlinecap} if} def
/AL {stroke userlinewidth 2 div setlinewidth
	Rounded {1 setlinejoin 1 setlinecap} if} def
/UL {dup gnulinewidth mul /userlinewidth exch def
	dup 1 lt {pop 1} if 10 mul /udl exch def} def
/PL {stroke userlinewidth setlinewidth
	Rounded {1 setlinejoin 1 setlinecap} if} def
3.8 setmiterlimit
% Default Line colors
/LCw {1 1 1} def
/LCb {0 0 0} def
/LCa {0 0 0} def
/LC0 {1 0 0} def
/LC1 {0 1 0} def
/LC2 {0 0 1} def
/LC3 {1 0 1} def
/LC4 {0 1 1} def
/LC5 {1 1 0} def
/LC6 {0 0 0} def
/LC7 {1 0.3 0} def
/LC8 {0.5 0.5 0.5} def
% Default Line Types
/LTw {PL [] 1 setgray} def
/LTb {BL [] LCb DL} def
/LTa {AL [1 udl mul 2 udl mul] 0 setdash LCa setrgbcolor} def
/LT0 {PL [] LC0 DL} def
/LT1 {PL [4 dl1 2 dl2] LC1 DL} def
/LT2 {PL [2 dl1 3 dl2] LC2 DL} def
/LT3 {PL [1 dl1 1.5 dl2] LC3 DL} def
/LT4 {PL [6 dl1 2 dl2 1 dl1 2 dl2] LC4 DL} def
/LT5 {PL [3 dl1 3 dl2 1 dl1 3 dl2] LC5 DL} def
/LT6 {PL [2 dl1 2 dl2 2 dl1 6 dl2] LC6 DL} def
/LT7 {PL [1 dl1 2 dl2 6 dl1 2 dl2 1 dl1 2 dl2] LC7 DL} def
/LT8 {PL [2 dl1 2 dl2 2 dl1 2 dl2 2 dl1 2 dl2 2 dl1 4 dl2] LC8 DL} def
/Pnt {stroke [] 0 setdash gsave 1 setlinecap M 0 0 V stroke grestore} def
/Dia {stroke [] 0 setdash 2 copy vpt add M
  hpt neg vpt neg V hpt vpt neg V
  hpt vpt V hpt neg vpt V closepath stroke
  Pnt} def
/Pls {stroke [] 0 setdash vpt sub M 0 vpt2 V
  currentpoint stroke M
  hpt neg vpt neg R hpt2 0 V stroke
 } def
/Box {stroke [] 0 setdash 2 copy exch hpt sub exch vpt add M
  0 vpt2 neg V hpt2 0 V 0 vpt2 V
  hpt2 neg 0 V closepath stroke
  Pnt} def
/Crs {stroke [] 0 setdash exch hpt sub exch vpt add M
  hpt2 vpt2 neg V currentpoint stroke M
  hpt2 neg 0 R hpt2 vpt2 V stroke} def
/TriU {stroke [] 0 setdash 2 copy vpt 1.12 mul add M
  hpt neg vpt -1.62 mul V
  hpt 2 mul 0 V
  hpt neg vpt 1.62 mul V closepath stroke
  Pnt} def
/Star {2 copy Pls Crs} def
/BoxF {stroke [] 0 setdash exch hpt sub exch vpt add M
  0 vpt2 neg V hpt2 0 V 0 vpt2 V
  hpt2 neg 0 V closepath fill} def
/TriUF {stroke [] 0 setdash vpt 1.12 mul add M
  hpt neg vpt -1.62 mul V
  hpt 2 mul 0 V
  hpt neg vpt 1.62 mul V closepath fill} def
/TriD {stroke [] 0 setdash 2 copy vpt 1.12 mul sub M
  hpt neg vpt 1.62 mul V
  hpt 2 mul 0 V
  hpt neg vpt -1.62 mul V closepath stroke
  Pnt} def
/TriDF {stroke [] 0 setdash vpt 1.12 mul sub M
  hpt neg vpt 1.62 mul V
  hpt 2 mul 0 V
  hpt neg vpt -1.62 mul V closepath fill} def
/DiaF {stroke [] 0 setdash vpt add M
  hpt neg vpt neg V hpt vpt neg V
  hpt vpt V hpt neg vpt V closepath fill} def
/Pent {stroke [] 0 setdash 2 copy gsave
  translate 0 hpt M 4 {72 rotate 0 hpt L} repeat
  closepath stroke grestore Pnt} def
/PentF {stroke [] 0 setdash gsave
  translate 0 hpt M 4 {72 rotate 0 hpt L} repeat
  closepath fill grestore} def
/Circle {stroke [] 0 setdash 2 copy
  hpt 0 360 arc stroke Pnt} def
/CircleF {stroke [] 0 setdash hpt 0 360 arc fill} def
/C0 {BL [] 0 setdash 2 copy moveto vpt 90 450 arc} bind def
/C1 {BL [] 0 setdash 2 copy moveto
	2 copy vpt 0 90 arc closepath fill
	vpt 0 360 arc closepath} bind def
/C2 {BL [] 0 setdash 2 copy moveto
	2 copy vpt 90 180 arc closepath fill
	vpt 0 360 arc closepath} bind def
/C3 {BL [] 0 setdash 2 copy moveto
	2 copy vpt 0 180 arc closepath fill
	vpt 0 360 arc closepath} bind def
/C4 {BL [] 0 setdash 2 copy moveto
	2 copy vpt 180 270 arc closepath fill
	vpt 0 360 arc closepath} bind def
/C5 {BL [] 0 setdash 2 copy moveto
	2 copy vpt 0 90 arc
	2 copy moveto
	2 copy vpt 180 270 arc closepath fill
	vpt 0 360 arc} bind def
/C6 {BL [] 0 setdash 2 copy moveto
	2 copy vpt 90 270 arc closepath fill
	vpt 0 360 arc closepath} bind def
/C7 {BL [] 0 setdash 2 copy moveto
	2 copy vpt 0 270 arc closepath fill
	vpt 0 360 arc closepath} bind def
/C8 {BL [] 0 setdash 2 copy moveto
	2 copy vpt 270 360 arc closepath fill
	vpt 0 360 arc closepath} bind def
/C9 {BL [] 0 setdash 2 copy moveto
	2 copy vpt 270 450 arc closepath fill
	vpt 0 360 arc closepath} bind def
/C10 {BL [] 0 setdash 2 copy 2 copy moveto vpt 270 360 arc closepath fill
	2 copy moveto
	2 copy vpt 90 180 arc closepath fill
	vpt 0 360 arc closepath} bind def
/C11 {BL [] 0 setdash 2 copy moveto
	2 copy vpt 0 180 arc closepath fill
	2 copy moveto
	2 copy vpt 270 360 arc closepath fill
	vpt 0 360 arc closepath} bind def
/C12 {BL [] 0 setdash 2 copy moveto
	2 copy vpt 180 360 arc closepath fill
	vpt 0 360 arc closepath} bind def
/C13 {BL [] 0 setdash 2 copy moveto
	2 copy vpt 0 90 arc closepath fill
	2 copy moveto
	2 copy vpt 180 360 arc closepath fill
	vpt 0 360 arc closepath} bind def
/C14 {BL [] 0 setdash 2 copy moveto
	2 copy vpt 90 360 arc closepath fill
	vpt 0 360 arc} bind def
/C15 {BL [] 0 setdash 2 copy vpt 0 360 arc closepath fill
	vpt 0 360 arc closepath} bind def
/Rec {newpath 4 2 roll moveto 1 index 0 rlineto 0 exch rlineto
	neg 0 rlineto closepath} bind def
/Square {dup Rec} bind def
/Bsquare {vpt sub exch vpt sub exch vpt2 Square} bind def
/S0 {BL [] 0 setdash 2 copy moveto 0 vpt rlineto BL Bsquare} bind def
/S1 {BL [] 0 setdash 2 copy vpt Square fill Bsquare} bind def
/S2 {BL [] 0 setdash 2 copy exch vpt sub exch vpt Square fill Bsquare} bind def
/S3 {BL [] 0 setdash 2 copy exch vpt sub exch vpt2 vpt Rec fill Bsquare} bind def
/S4 {BL [] 0 setdash 2 copy exch vpt sub exch vpt sub vpt Square fill Bsquare} bind def
/S5 {BL [] 0 setdash 2 copy 2 copy vpt Square fill
	exch vpt sub exch vpt sub vpt Square fill Bsquare} bind def
/S6 {BL [] 0 setdash 2 copy exch vpt sub exch vpt sub vpt vpt2 Rec fill Bsquare} bind def
/S7 {BL [] 0 setdash 2 copy exch vpt sub exch vpt sub vpt vpt2 Rec fill
	2 copy vpt Square fill Bsquare} bind def
/S8 {BL [] 0 setdash 2 copy vpt sub vpt Square fill Bsquare} bind def
/S9 {BL [] 0 setdash 2 copy vpt sub vpt vpt2 Rec fill Bsquare} bind def
/S10 {BL [] 0 setdash 2 copy vpt sub vpt Square fill 2 copy exch vpt sub exch vpt Square fill
	Bsquare} bind def
/S11 {BL [] 0 setdash 2 copy vpt sub vpt Square fill 2 copy exch vpt sub exch vpt2 vpt Rec fill
	Bsquare} bind def
/S12 {BL [] 0 setdash 2 copy exch vpt sub exch vpt sub vpt2 vpt Rec fill Bsquare} bind def
/S13 {BL [] 0 setdash 2 copy exch vpt sub exch vpt sub vpt2 vpt Rec fill
	2 copy vpt Square fill Bsquare} bind def
/S14 {BL [] 0 setdash 2 copy exch vpt sub exch vpt sub vpt2 vpt Rec fill
	2 copy exch vpt sub exch vpt Square fill Bsquare} bind def
/S15 {BL [] 0 setdash 2 copy Bsquare fill Bsquare} bind def
/D0 {gsave translate 45 rotate 0 0 S0 stroke grestore} bind def
/D1 {gsave translate 45 rotate 0 0 S1 stroke grestore} bind def
/D2 {gsave translate 45 rotate 0 0 S2 stroke grestore} bind def
/D3 {gsave translate 45 rotate 0 0 S3 stroke grestore} bind def
/D4 {gsave translate 45 rotate 0 0 S4 stroke grestore} bind def
/D5 {gsave translate 45 rotate 0 0 S5 stroke grestore} bind def
/D6 {gsave translate 45 rotate 0 0 S6 stroke grestore} bind def
/D7 {gsave translate 45 rotate 0 0 S7 stroke grestore} bind def
/D8 {gsave translate 45 rotate 0 0 S8 stroke grestore} bind def
/D9 {gsave translate 45 rotate 0 0 S9 stroke grestore} bind def
/D10 {gsave translate 45 rotate 0 0 S10 stroke grestore} bind def
/D11 {gsave translate 45 rotate 0 0 S11 stroke grestore} bind def
/D12 {gsave translate 45 rotate 0 0 S12 stroke grestore} bind def
/D13 {gsave translate 45 rotate 0 0 S13 stroke grestore} bind def
/D14 {gsave translate 45 rotate 0 0 S14 stroke grestore} bind def
/D15 {gsave translate 45 rotate 0 0 S15 stroke grestore} bind def
/DiaE {stroke [] 0 setdash vpt add M
  hpt neg vpt neg V hpt vpt neg V
  hpt vpt V hpt neg vpt V closepath stroke} def
/BoxE {stroke [] 0 setdash exch hpt sub exch vpt add M
  0 vpt2 neg V hpt2 0 V 0 vpt2 V
  hpt2 neg 0 V closepath stroke} def
/TriUE {stroke [] 0 setdash vpt 1.12 mul add M
  hpt neg vpt -1.62 mul V
  hpt 2 mul 0 V
  hpt neg vpt 1.62 mul V closepath stroke} def
/TriDE {stroke [] 0 setdash vpt 1.12 mul sub M
  hpt neg vpt 1.62 mul V
  hpt 2 mul 0 V
  hpt neg vpt -1.62 mul V closepath stroke} def
/PentE {stroke [] 0 setdash gsave
  translate 0 hpt M 4 {72 rotate 0 hpt L} repeat
  closepath stroke grestore} def
/CircE {stroke [] 0 setdash 
  hpt 0 360 arc stroke} def
/Opaque {gsave closepath 1 setgray fill grestore 0 setgray closepath} def
/DiaW {stroke [] 0 setdash vpt add M
  hpt neg vpt neg V hpt vpt neg V
  hpt vpt V hpt neg vpt V Opaque stroke} def
/BoxW {stroke [] 0 setdash exch hpt sub exch vpt add M
  0 vpt2 neg V hpt2 0 V 0 vpt2 V
  hpt2 neg 0 V Opaque stroke} def
/TriUW {stroke [] 0 setdash vpt 1.12 mul add M
  hpt neg vpt -1.62 mul V
  hpt 2 mul 0 V
  hpt neg vpt 1.62 mul V Opaque stroke} def
/TriDW {stroke [] 0 setdash vpt 1.12 mul sub M
  hpt neg vpt 1.62 mul V
  hpt 2 mul 0 V
  hpt neg vpt -1.62 mul V Opaque stroke} def
/PentW {stroke [] 0 setdash gsave
  translate 0 hpt M 4 {72 rotate 0 hpt L} repeat
  Opaque stroke grestore} def
/CircW {stroke [] 0 setdash 
  hpt 0 360 arc Opaque stroke} def
/BoxFill {gsave Rec 1 setgray fill grestore} def
/Density {
  /Fillden exch def
  currentrgbcolor
  /ColB exch def /ColG exch def /ColR exch def
  /ColR ColR Fillden mul Fillden sub 1 add def
  /ColG ColG Fillden mul Fillden sub 1 add def
  /ColB ColB Fillden mul Fillden sub 1 add def
  ColR ColG ColB setrgbcolor} def
/BoxColFill {gsave Rec PolyFill} def
/PolyFill {gsave Density fill grestore grestore} def
/h {rlineto rlineto rlineto gsave closepath fill grestore} bind def
%
% PostScript Level 1 Pattern Fill routine for rectangles
% Usage: x y w h s a XX PatternFill
%	x,y = lower left corner of box to be filled
%	w,h = width and height of box
%	  a = angle in degrees between lines and x-axis
%	 XX = 0/1 for no/yes cross-hatch
%
/PatternFill {gsave /PFa [ 9 2 roll ] def
  PFa 0 get PFa 2 get 2 div add PFa 1 get PFa 3 get 2 div add translate
  PFa 2 get -2 div PFa 3 get -2 div PFa 2 get PFa 3 get Rec
  TransparentPatterns {} {gsave 1 setgray fill grestore} ifelse
  clip
  currentlinewidth 0.5 mul setlinewidth
  /PFs PFa 2 get dup mul PFa 3 get dup mul add sqrt def
  0 0 M PFa 5 get rotate PFs -2 div dup translate
  0 1 PFs PFa 4 get div 1 add floor cvi
	{PFa 4 get mul 0 M 0 PFs V} for
  0 PFa 6 get ne {
	0 1 PFs PFa 4 get div 1 add floor cvi
	{PFa 4 get mul 0 2 1 roll M PFs 0 V} for
 } if
  stroke grestore} def
%
/languagelevel where
 {pop languagelevel} {1} ifelse
 2 lt
	{/InterpretLevel1 true def}
	{/InterpretLevel1 Level1 def}
 ifelse
%
% PostScript level 2 pattern fill definitions
%
/Level2PatternFill {
/Tile8x8 {/PaintType 2 /PatternType 1 /TilingType 1 /BBox [0 0 8 8] /XStep 8 /YStep 8}
	bind def
/KeepColor {currentrgbcolor [/Pattern /DeviceRGB] setcolorspace} bind def
<< Tile8x8
 /PaintProc {0.5 setlinewidth pop 0 0 M 8 8 L 0 8 M 8 0 L stroke} 
>> matrix makepattern
/Pat1 exch def
<< Tile8x8
 /PaintProc {0.5 setlinewidth pop 0 0 M 8 8 L 0 8 M 8 0 L stroke
	0 4 M 4 8 L 8 4 L 4 0 L 0 4 L stroke}
>> matrix makepattern
/Pat2 exch def
<< Tile8x8
 /PaintProc {0.5 setlinewidth pop 0 0 M 0 8 L
	8 8 L 8 0 L 0 0 L fill}
>> matrix makepattern
/Pat3 exch def
<< Tile8x8
 /PaintProc {0.5 setlinewidth pop -4 8 M 8 -4 L
	0 12 M 12 0 L stroke}
>> matrix makepattern
/Pat4 exch def
<< Tile8x8
 /PaintProc {0.5 setlinewidth pop -4 0 M 8 12 L
	0 -4 M 12 8 L stroke}
>> matrix makepattern
/Pat5 exch def
<< Tile8x8
 /PaintProc {0.5 setlinewidth pop -2 8 M 4 -4 L
	0 12 M 8 -4 L 4 12 M 10 0 L stroke}
>> matrix makepattern
/Pat6 exch def
<< Tile8x8
 /PaintProc {0.5 setlinewidth pop -2 0 M 4 12 L
	0 -4 M 8 12 L 4 -4 M 10 8 L stroke}
>> matrix makepattern
/Pat7 exch def
<< Tile8x8
 /PaintProc {0.5 setlinewidth pop 8 -2 M -4 4 L
	12 0 M -4 8 L 12 4 M 0 10 L stroke}
>> matrix makepattern
/Pat8 exch def
<< Tile8x8
 /PaintProc {0.5 setlinewidth pop 0 -2 M 12 4 L
	-4 0 M 12 8 L -4 4 M 8 10 L stroke}
>> matrix makepattern
/Pat9 exch def
/Pattern1 {PatternBgnd KeepColor Pat1 setpattern} bind def
/Pattern2 {PatternBgnd KeepColor Pat2 setpattern} bind def
/Pattern3 {PatternBgnd KeepColor Pat3 setpattern} bind def
/Pattern4 {PatternBgnd KeepColor Landscape {Pat5} {Pat4} ifelse setpattern} bind def
/Pattern5 {PatternBgnd KeepColor Landscape {Pat4} {Pat5} ifelse setpattern} bind def
/Pattern6 {PatternBgnd KeepColor Landscape {Pat9} {Pat6} ifelse setpattern} bind def
/Pattern7 {PatternBgnd KeepColor Landscape {Pat8} {Pat7} ifelse setpattern} bind def
} def
%
%
%End of PostScript Level 2 code
%
/PatternBgnd {
  TransparentPatterns {} {gsave 1 setgray fill grestore} ifelse
} def
%
% Substitute for Level 2 pattern fill codes with
% grayscale if Level 2 support is not selected.
%
/Level1PatternFill {
/Pattern1 {0.250 Density} bind def
/Pattern2 {0.500 Density} bind def
/Pattern3 {0.750 Density} bind def
/Pattern4 {0.125 Density} bind def
/Pattern5 {0.375 Density} bind def
/Pattern6 {0.625 Density} bind def
/Pattern7 {0.875 Density} bind def
} def
%
% Now test for support of Level 2 code
%
Level1 {Level1PatternFill} {Level2PatternFill} ifelse
%
/Symbol-Oblique /Symbol findfont [1 0 .167 1 0 0] makefont
dup length dict begin {1 index /FID eq {pop pop} {def} ifelse} forall
currentdict end definefont pop
Level1 SuppressPDFMark or 
{} {
/SDict 10 dict def
systemdict /pdfmark known not {
  userdict /pdfmark systemdict /cleartomark get put
} if
SDict begin [
  /Title (out.ps)
  /Subject (gnuplot plot)
  /Creator (gnuplot 4.6 patchlevel 6)
  /Author (yani)
%  /Producer (gnuplot)
%  /Keywords ()
  /CreationDate (Thu May 28 16:54:10 2015)
  /DOCINFO pdfmark
end
} ifelse
end
%%EndProlog
%%Page: 1 1
gnudict begin
gsave
doclip
50 50 translate
0.100 0.100 scale
90 rotate
0 -5040 translate
0 setgray
newpath
(Helvetica) findfont 140 scalefont setfont
BackgroundColor 0 lt 3 1 roll 0 lt exch 0 lt or or not {gsave BackgroundColor C clippath fill grestore} if
1.000 UL
LT0
0.50 0.50 0.50 C 1.000 UL
LTa
0.50 0.50 0.50 C 966 280 M
5981 0 V
stroke
LT0
0.50 0.50 0.50 C 966 280 M
63 0 V
5918 0 R
-63 0 V
882 280 M
( 0) Rshow
1.000 UL
LT0
0.50 0.50 0.50 C 1.000 UL
LTa
0.50 0.50 0.50 C 966 326 M
5981 0 V
stroke
LT0
0.50 0.50 0.50 C 966 326 M
63 0 V
5918 0 R
-63 0 V
882 326 M
( 0.707106) Rshow
1.000 UL
LT0
0.50 0.50 0.50 C 1.000 UL
LTa
0.50 0.50 0.50 C 966 372 M
5981 0 V
stroke
LT0
0.50 0.50 0.50 C 966 372 M
63 0 V
5918 0 R
-63 0 V
882 372 M
( 1.41421) Rshow
1.000 UL
LT0
0.50 0.50 0.50 C 1.000 UL
LTa
0.50 0.50 0.50 C 966 418 M
5981 0 V
stroke
LT0
0.50 0.50 0.50 C 966 418 M
63 0 V
5918 0 R
-63 0 V
882 418 M
( 2.12132) Rshow
1.000 UL
LT0
0.50 0.50 0.50 C 1.000 UL
LTa
0.50 0.50 0.50 C 966 464 M
5981 0 V
stroke
LT0
0.50 0.50 0.50 C 966 464 M
63 0 V
5918 0 R
-63 0 V
882 464 M
( 2.82842) Rshow
1.000 UL
LT0
0.50 0.50 0.50 C 1.000 UL
LTa
0.50 0.50 0.50 C 966 510 M
5981 0 V
stroke
LT0
0.50 0.50 0.50 C 966 510 M
63 0 V
5918 0 R
-63 0 V
882 510 M
( 3.53553) Rshow
1.000 UL
LT0
0.50 0.50 0.50 C 1.000 UL
LTa
0.50 0.50 0.50 C 966 555 M
5981 0 V
stroke
LT0
0.50 0.50 0.50 C 966 555 M
63 0 V
5918 0 R
-63 0 V
882 555 M
( 4.24264) Rshow
1.000 UL
LT0
0.50 0.50 0.50 C 1.000 UL
LTa
0.50 0.50 0.50 C 966 601 M
5981 0 V
stroke
LT0
0.50 0.50 0.50 C 966 601 M
63 0 V
5918 0 R
-63 0 V
882 601 M
( 4.94974) Rshow
1.000 UL
LT0
0.50 0.50 0.50 C 1.000 UL
LTa
0.50 0.50 0.50 C 966 647 M
5981 0 V
stroke
LT0
0.50 0.50 0.50 C 966 647 M
63 0 V
5918 0 R
-63 0 V
882 647 M
( 5.65685) Rshow
1.000 UL
LT0
0.50 0.50 0.50 C 1.000 UL
LTa
0.50 0.50 0.50 C 966 693 M
5981 0 V
stroke
LT0
0.50 0.50 0.50 C 966 693 M
63 0 V
5918 0 R
-63 0 V
882 693 M
( 6.36395) Rshow
1.000 UL
LT0
0.50 0.50 0.50 C 1.000 UL
LTa
0.50 0.50 0.50 C 966 739 M
5981 0 V
stroke
LT0
0.50 0.50 0.50 C 966 739 M
63 0 V
5918 0 R
-63 0 V
882 739 M
( 7.07106) Rshow
1.000 UL
LT0
0.50 0.50 0.50 C 1.000 UL
LTa
0.50 0.50 0.50 C 966 785 M
5981 0 V
stroke
LT0
0.50 0.50 0.50 C 966 785 M
63 0 V
5918 0 R
-63 0 V
882 785 M
( 7.77817) Rshow
1.000 UL
LT0
0.50 0.50 0.50 C 1.000 UL
LTa
0.50 0.50 0.50 C 966 831 M
5981 0 V
stroke
LT0
0.50 0.50 0.50 C 966 831 M
63 0 V
5918 0 R
-63 0 V
882 831 M
( 8.48527) Rshow
1.000 UL
LT0
0.50 0.50 0.50 C 1.000 UL
LTa
0.50 0.50 0.50 C 966 877 M
5981 0 V
stroke
LT0
0.50 0.50 0.50 C 966 877 M
63 0 V
5918 0 R
-63 0 V
882 877 M
( 9.19238) Rshow
1.000 UL
LT0
0.50 0.50 0.50 C 1.000 UL
LTa
0.50 0.50 0.50 C 966 923 M
5981 0 V
stroke
LT0
0.50 0.50 0.50 C 966 923 M
63 0 V
5918 0 R
-63 0 V
882 923 M
( 9.89948) Rshow
1.000 UL
LT0
0.50 0.50 0.50 C 1.000 UL
LTa
0.50 0.50 0.50 C 966 969 M
5981 0 V
stroke
LT0
0.50 0.50 0.50 C 966 969 M
63 0 V
5918 0 R
-63 0 V
882 969 M
( 10.6066) Rshow
1.000 UL
LT0
0.50 0.50 0.50 C 1.000 UL
LTa
0.50 0.50 0.50 C 966 1015 M
5981 0 V
stroke
LT0
0.50 0.50 0.50 C 966 1015 M
63 0 V
5918 0 R
-63 0 V
-6002 0 R
( 11.3137) Rshow
1.000 UL
LT0
0.50 0.50 0.50 C 1.000 UL
LTa
0.50 0.50 0.50 C 966 1060 M
5981 0 V
stroke
LT0
0.50 0.50 0.50 C 966 1060 M
63 0 V
5918 0 R
-63 0 V
-6002 0 R
( 12.0208) Rshow
1.000 UL
LT0
0.50 0.50 0.50 C 1.000 UL
LTa
0.50 0.50 0.50 C 966 1106 M
5981 0 V
stroke
LT0
0.50 0.50 0.50 C 966 1106 M
63 0 V
5918 0 R
-63 0 V
-6002 0 R
( 12.7279) Rshow
1.000 UL
LT0
0.50 0.50 0.50 C 1.000 UL
LTa
0.50 0.50 0.50 C 966 1152 M
5981 0 V
stroke
LT0
0.50 0.50 0.50 C 966 1152 M
63 0 V
5918 0 R
-63 0 V
-6002 0 R
( 13.435) Rshow
1.000 UL
LT0
0.50 0.50 0.50 C 1.000 UL
LTa
0.50 0.50 0.50 C 966 1198 M
5981 0 V
stroke
LT0
0.50 0.50 0.50 C 966 1198 M
63 0 V
5918 0 R
-63 0 V
-6002 0 R
( 14.1421) Rshow
1.000 UL
LT0
0.50 0.50 0.50 C 1.000 UL
LTa
0.50 0.50 0.50 C 966 1244 M
5981 0 V
stroke
LT0
0.50 0.50 0.50 C 966 1244 M
63 0 V
5918 0 R
-63 0 V
-6002 0 R
( 14.8492) Rshow
1.000 UL
LT0
0.50 0.50 0.50 C 1.000 UL
LTa
0.50 0.50 0.50 C 966 1290 M
5981 0 V
stroke
LT0
0.50 0.50 0.50 C 966 1290 M
63 0 V
5918 0 R
-63 0 V
-6002 0 R
( 15.5563) Rshow
1.000 UL
LT0
0.50 0.50 0.50 C 1.000 UL
LTa
0.50 0.50 0.50 C 966 1336 M
5981 0 V
stroke
LT0
0.50 0.50 0.50 C 966 1336 M
63 0 V
5918 0 R
-63 0 V
-6002 0 R
( 16.2634) Rshow
1.000 UL
LT0
0.50 0.50 0.50 C 1.000 UL
LTa
0.50 0.50 0.50 C 966 1382 M
5981 0 V
stroke
LT0
0.50 0.50 0.50 C 966 1382 M
63 0 V
5918 0 R
-63 0 V
-6002 0 R
( 16.9705) Rshow
1.000 UL
LT0
0.50 0.50 0.50 C 1.000 UL
LTa
0.50 0.50 0.50 C 966 1428 M
5981 0 V
stroke
LT0
0.50 0.50 0.50 C 966 1428 M
63 0 V
5918 0 R
-63 0 V
-6002 0 R
( 17.6776) Rshow
1.000 UL
LT0
0.50 0.50 0.50 C 1.000 UL
LTa
0.50 0.50 0.50 C 966 1474 M
5981 0 V
stroke
LT0
0.50 0.50 0.50 C 966 1474 M
63 0 V
5918 0 R
-63 0 V
-6002 0 R
( 18.3848) Rshow
1.000 UL
LT0
0.50 0.50 0.50 C 1.000 UL
LTa
0.50 0.50 0.50 C 966 1520 M
5981 0 V
stroke
LT0
0.50 0.50 0.50 C 966 1520 M
63 0 V
5918 0 R
-63 0 V
-6002 0 R
( 19.0919) Rshow
1.000 UL
LT0
0.50 0.50 0.50 C 1.000 UL
LTa
0.50 0.50 0.50 C 966 1565 M
5981 0 V
stroke
LT0
0.50 0.50 0.50 C 966 1565 M
63 0 V
5918 0 R
-63 0 V
-6002 0 R
( 19.799) Rshow
1.000 UL
LT0
0.50 0.50 0.50 C 1.000 UL
LTa
0.50 0.50 0.50 C 966 1611 M
5981 0 V
stroke
LT0
0.50 0.50 0.50 C 966 1611 M
63 0 V
5918 0 R
-63 0 V
-6002 0 R
( 20.5061) Rshow
1.000 UL
LT0
0.50 0.50 0.50 C 1.000 UL
LTa
0.50 0.50 0.50 C 966 1657 M
5981 0 V
stroke
LT0
0.50 0.50 0.50 C 966 1657 M
63 0 V
5918 0 R
-63 0 V
-6002 0 R
( 21.2132) Rshow
1.000 UL
LT0
0.50 0.50 0.50 C 1.000 UL
LTa
0.50 0.50 0.50 C 966 1703 M
5981 0 V
stroke
LT0
0.50 0.50 0.50 C 966 1703 M
63 0 V
5918 0 R
-63 0 V
-6002 0 R
( 21.9203) Rshow
1.000 UL
LT0
0.50 0.50 0.50 C 1.000 UL
LTa
0.50 0.50 0.50 C 966 1749 M
5981 0 V
stroke
LT0
0.50 0.50 0.50 C 966 1749 M
63 0 V
5918 0 R
-63 0 V
-6002 0 R
( 22.6274) Rshow
1.000 UL
LT0
0.50 0.50 0.50 C 1.000 UL
LTa
0.50 0.50 0.50 C 966 1795 M
5981 0 V
stroke
LT0
0.50 0.50 0.50 C 966 1795 M
63 0 V
5918 0 R
-63 0 V
-6002 0 R
( 23.3345) Rshow
1.000 UL
LT0
0.50 0.50 0.50 C 1.000 UL
LTa
0.50 0.50 0.50 C 966 1841 M
5981 0 V
stroke
LT0
0.50 0.50 0.50 C 966 1841 M
63 0 V
5918 0 R
-63 0 V
-6002 0 R
( 24.0416) Rshow
1.000 UL
LT0
0.50 0.50 0.50 C 1.000 UL
LTa
0.50 0.50 0.50 C 966 1887 M
5981 0 V
stroke
LT0
0.50 0.50 0.50 C 966 1887 M
63 0 V
5918 0 R
-63 0 V
-6002 0 R
( 24.7487) Rshow
1.000 UL
LT0
0.50 0.50 0.50 C 1.000 UL
LTa
0.50 0.50 0.50 C 966 1933 M
5981 0 V
stroke
LT0
0.50 0.50 0.50 C 966 1933 M
63 0 V
5918 0 R
-63 0 V
-6002 0 R
( 25.4558) Rshow
1.000 UL
LT0
0.50 0.50 0.50 C 1.000 UL
LTa
0.50 0.50 0.50 C 966 1979 M
5981 0 V
stroke
LT0
0.50 0.50 0.50 C 966 1979 M
63 0 V
5918 0 R
-63 0 V
-6002 0 R
( 26.1629) Rshow
1.000 UL
LT0
0.50 0.50 0.50 C 1.000 UL
LTa
0.50 0.50 0.50 C 966 2025 M
5981 0 V
stroke
LT0
0.50 0.50 0.50 C 966 2025 M
63 0 V
5918 0 R
-63 0 V
-6002 0 R
( 26.87) Rshow
1.000 UL
LT0
0.50 0.50 0.50 C 1.000 UL
LTa
0.50 0.50 0.50 C 966 2070 M
5981 0 V
stroke
LT0
0.50 0.50 0.50 C 966 2070 M
63 0 V
5918 0 R
-63 0 V
-6002 0 R
( 27.5771) Rshow
1.000 UL
LT0
0.50 0.50 0.50 C 1.000 UL
LTa
0.50 0.50 0.50 C 966 2116 M
5981 0 V
stroke
LT0
0.50 0.50 0.50 C 966 2116 M
63 0 V
5918 0 R
-63 0 V
-6002 0 R
( 28.2842) Rshow
1.000 UL
LT0
0.50 0.50 0.50 C 1.000 UL
LTa
0.50 0.50 0.50 C 966 2162 M
5981 0 V
stroke
LT0
0.50 0.50 0.50 C 966 2162 M
63 0 V
5918 0 R
-63 0 V
-6002 0 R
( 28.9913) Rshow
1.000 UL
LT0
0.50 0.50 0.50 C 1.000 UL
LTa
0.50 0.50 0.50 C 966 2208 M
5981 0 V
stroke
LT0
0.50 0.50 0.50 C 966 2208 M
63 0 V
5918 0 R
-63 0 V
-6002 0 R
( 29.6985) Rshow
1.000 UL
LT0
0.50 0.50 0.50 C 1.000 UL
LTa
0.50 0.50 0.50 C 966 2254 M
5981 0 V
stroke
LT0
0.50 0.50 0.50 C 966 2254 M
63 0 V
5918 0 R
-63 0 V
-6002 0 R
( 30.4056) Rshow
1.000 UL
LT0
0.50 0.50 0.50 C 1.000 UL
LTa
0.50 0.50 0.50 C 966 2300 M
5981 0 V
stroke
LT0
0.50 0.50 0.50 C 966 2300 M
63 0 V
5918 0 R
-63 0 V
-6002 0 R
( 31.1127) Rshow
1.000 UL
LT0
0.50 0.50 0.50 C 1.000 UL
LTa
0.50 0.50 0.50 C 966 2346 M
5981 0 V
stroke
LT0
0.50 0.50 0.50 C 966 2346 M
63 0 V
5918 0 R
-63 0 V
-6002 0 R
( 31.8198) Rshow
1.000 UL
LT0
0.50 0.50 0.50 C 1.000 UL
LTa
0.50 0.50 0.50 C 966 2392 M
5981 0 V
stroke
LT0
0.50 0.50 0.50 C 966 2392 M
63 0 V
5918 0 R
-63 0 V
-6002 0 R
( 32.5269) Rshow
1.000 UL
LT0
0.50 0.50 0.50 C 1.000 UL
LTa
0.50 0.50 0.50 C 966 2438 M
5981 0 V
stroke
LT0
0.50 0.50 0.50 C 966 2438 M
63 0 V
5918 0 R
-63 0 V
-6002 0 R
( 33.234) Rshow
1.000 UL
LT0
0.50 0.50 0.50 C 1.000 UL
LTa
0.50 0.50 0.50 C 966 2484 M
5981 0 V
stroke
LT0
0.50 0.50 0.50 C 966 2484 M
63 0 V
5918 0 R
-63 0 V
-6002 0 R
( 33.9411) Rshow
1.000 UL
LT0
0.50 0.50 0.50 C 1.000 UL
LTa
0.50 0.50 0.50 C 966 2530 M
5981 0 V
stroke
LT0
0.50 0.50 0.50 C 966 2530 M
63 0 V
5918 0 R
-63 0 V
-6002 0 R
( 34.6482) Rshow
1.000 UL
LT0
0.50 0.50 0.50 C 1.000 UL
LTa
0.50 0.50 0.50 C 966 2576 M
5981 0 V
stroke
LT0
0.50 0.50 0.50 C 966 2576 M
63 0 V
5918 0 R
-63 0 V
-6002 0 R
( 35.3553) Rshow
1.000 UL
LT0
0.50 0.50 0.50 C 1.000 UL
LTa
0.50 0.50 0.50 C 966 2621 M
5981 0 V
stroke
LT0
0.50 0.50 0.50 C 966 2621 M
63 0 V
5918 0 R
-63 0 V
-6002 0 R
( 36.0624) Rshow
1.000 UL
LT0
0.50 0.50 0.50 C 1.000 UL
LTa
0.50 0.50 0.50 C 966 2667 M
5981 0 V
stroke
LT0
0.50 0.50 0.50 C 966 2667 M
63 0 V
5918 0 R
-63 0 V
-6002 0 R
( 36.7695) Rshow
1.000 UL
LT0
0.50 0.50 0.50 C 1.000 UL
LTa
0.50 0.50 0.50 C 966 2713 M
5981 0 V
stroke
LT0
0.50 0.50 0.50 C 966 2713 M
63 0 V
5918 0 R
-63 0 V
-6002 0 R
( 37.4766) Rshow
1.000 UL
LT0
0.50 0.50 0.50 C 1.000 UL
LTa
0.50 0.50 0.50 C 966 2759 M
5981 0 V
stroke
LT0
0.50 0.50 0.50 C 966 2759 M
63 0 V
5918 0 R
-63 0 V
-6002 0 R
( 38.1837) Rshow
1.000 UL
LT0
0.50 0.50 0.50 C 1.000 UL
LTa
0.50 0.50 0.50 C 966 2805 M
5981 0 V
stroke
LT0
0.50 0.50 0.50 C 966 2805 M
63 0 V
5918 0 R
-63 0 V
-6002 0 R
( 38.8908) Rshow
1.000 UL
LT0
0.50 0.50 0.50 C 1.000 UL
LTa
0.50 0.50 0.50 C 966 2851 M
5981 0 V
stroke
LT0
0.50 0.50 0.50 C 966 2851 M
63 0 V
5918 0 R
-63 0 V
-6002 0 R
( 39.5979) Rshow
1.000 UL
LT0
0.50 0.50 0.50 C 1.000 UL
LTa
0.50 0.50 0.50 C 966 2897 M
5981 0 V
stroke
LT0
0.50 0.50 0.50 C 966 2897 M
63 0 V
5918 0 R
-63 0 V
-6002 0 R
( 40.305) Rshow
1.000 UL
LT0
0.50 0.50 0.50 C 1.000 UL
LTa
0.50 0.50 0.50 C 966 2943 M
5981 0 V
stroke
LT0
0.50 0.50 0.50 C 966 2943 M
63 0 V
5918 0 R
-63 0 V
-6002 0 R
( 41.0121) Rshow
1.000 UL
LT0
0.50 0.50 0.50 C 1.000 UL
LTa
0.50 0.50 0.50 C 966 2989 M
5981 0 V
stroke
LT0
0.50 0.50 0.50 C 966 2989 M
63 0 V
5918 0 R
-63 0 V
-6002 0 R
( 41.7193) Rshow
1.000 UL
LT0
0.50 0.50 0.50 C 1.000 UL
LTa
0.50 0.50 0.50 C 966 3035 M
5981 0 V
stroke
LT0
0.50 0.50 0.50 C 966 3035 M
63 0 V
5918 0 R
-63 0 V
-6002 0 R
( 42.4264) Rshow
1.000 UL
LT0
0.50 0.50 0.50 C 1.000 UL
LTa
0.50 0.50 0.50 C 966 3081 M
5981 0 V
stroke
LT0
0.50 0.50 0.50 C 966 3081 M
63 0 V
5918 0 R
-63 0 V
-6002 0 R
( 43.1335) Rshow
1.000 UL
LT0
0.50 0.50 0.50 C 1.000 UL
LTa
0.50 0.50 0.50 C 966 3126 M
5981 0 V
stroke
LT0
0.50 0.50 0.50 C 966 3126 M
63 0 V
5918 0 R
-63 0 V
-6002 0 R
( 43.8406) Rshow
1.000 UL
LT0
0.50 0.50 0.50 C 1.000 UL
LTa
0.50 0.50 0.50 C 966 3172 M
5981 0 V
stroke
LT0
0.50 0.50 0.50 C 966 3172 M
63 0 V
5918 0 R
-63 0 V
-6002 0 R
( 44.5477) Rshow
1.000 UL
LT0
0.50 0.50 0.50 C 1.000 UL
LTa
0.50 0.50 0.50 C 966 3218 M
5981 0 V
stroke
LT0
0.50 0.50 0.50 C 966 3218 M
63 0 V
5918 0 R
-63 0 V
-6002 0 R
( 45.2548) Rshow
1.000 UL
LT0
0.50 0.50 0.50 C 1.000 UL
LTa
0.50 0.50 0.50 C 966 3264 M
5981 0 V
stroke
LT0
0.50 0.50 0.50 C 966 3264 M
63 0 V
5918 0 R
-63 0 V
-6002 0 R
( 45.9619) Rshow
1.000 UL
LT0
0.50 0.50 0.50 C 1.000 UL
LTa
0.50 0.50 0.50 C 966 3310 M
5981 0 V
stroke
LT0
0.50 0.50 0.50 C 966 3310 M
63 0 V
5918 0 R
-63 0 V
-6002 0 R
( 46.669) Rshow
1.000 UL
LT0
0.50 0.50 0.50 C 1.000 UL
LTa
0.50 0.50 0.50 C 966 3356 M
5981 0 V
stroke
LT0
0.50 0.50 0.50 C 966 3356 M
63 0 V
5918 0 R
-63 0 V
-6002 0 R
( 47.3761) Rshow
1.000 UL
LT0
0.50 0.50 0.50 C 1.000 UL
LTa
0.50 0.50 0.50 C 966 3402 M
5981 0 V
stroke
LT0
0.50 0.50 0.50 C 966 3402 M
63 0 V
5918 0 R
-63 0 V
-6002 0 R
( 48.0832) Rshow
1.000 UL
LT0
0.50 0.50 0.50 C 1.000 UL
LTa
0.50 0.50 0.50 C 966 3448 M
5981 0 V
stroke
LT0
0.50 0.50 0.50 C 966 3448 M
63 0 V
5918 0 R
-63 0 V
-6002 0 R
( 48.7903) Rshow
1.000 UL
LT0
0.50 0.50 0.50 C 1.000 UL
LTa
0.50 0.50 0.50 C 966 3494 M
5981 0 V
stroke
LT0
0.50 0.50 0.50 C 966 3494 M
63 0 V
5918 0 R
-63 0 V
-6002 0 R
( 49.4974) Rshow
1.000 UL
LT0
0.50 0.50 0.50 C 1.000 UL
LTa
0.50 0.50 0.50 C 966 3540 M
5981 0 V
stroke
LT0
0.50 0.50 0.50 C 966 3540 M
63 0 V
5918 0 R
-63 0 V
-6002 0 R
( 50.2045) Rshow
1.000 UL
LT0
0.50 0.50 0.50 C 1.000 UL
LTa
0.50 0.50 0.50 C 966 3586 M
5981 0 V
stroke
LT0
0.50 0.50 0.50 C 966 3586 M
63 0 V
5918 0 R
-63 0 V
-6002 0 R
( 50.9116) Rshow
1.000 UL
LT0
0.50 0.50 0.50 C 1.000 UL
LTa
0.50 0.50 0.50 C 966 3631 M
5981 0 V
stroke
LT0
0.50 0.50 0.50 C 966 3631 M
63 0 V
5918 0 R
-63 0 V
-6002 0 R
( 51.6187) Rshow
1.000 UL
LT0
0.50 0.50 0.50 C 1.000 UL
LTa
0.50 0.50 0.50 C 966 3677 M
5981 0 V
stroke
LT0
0.50 0.50 0.50 C 966 3677 M
63 0 V
5918 0 R
-63 0 V
-6002 0 R
( 52.3258) Rshow
1.000 UL
LT0
0.50 0.50 0.50 C 1.000 UL
LTa
0.50 0.50 0.50 C 966 3723 M
5981 0 V
stroke
LT0
0.50 0.50 0.50 C 966 3723 M
63 0 V
5918 0 R
-63 0 V
-6002 0 R
( 53.033) Rshow
1.000 UL
LT0
0.50 0.50 0.50 C 1.000 UL
LTa
0.50 0.50 0.50 C 966 3769 M
5981 0 V
stroke
LT0
0.50 0.50 0.50 C 966 3769 M
63 0 V
5918 0 R
-63 0 V
-6002 0 R
( 53.7401) Rshow
1.000 UL
LT0
0.50 0.50 0.50 C 1.000 UL
LTa
0.50 0.50 0.50 C 966 3815 M
5981 0 V
stroke
LT0
0.50 0.50 0.50 C 966 3815 M
63 0 V
5918 0 R
-63 0 V
-6002 0 R
( 54.4472) Rshow
1.000 UL
LT0
0.50 0.50 0.50 C 1.000 UL
LTa
0.50 0.50 0.50 C 966 3861 M
5981 0 V
stroke
LT0
0.50 0.50 0.50 C 966 3861 M
63 0 V
5918 0 R
-63 0 V
-6002 0 R
( 55.1543) Rshow
1.000 UL
LT0
0.50 0.50 0.50 C 1.000 UL
LTa
0.50 0.50 0.50 C 966 3907 M
5981 0 V
stroke
LT0
0.50 0.50 0.50 C 966 3907 M
63 0 V
5918 0 R
-63 0 V
-6002 0 R
( 55.8614) Rshow
1.000 UL
LT0
0.50 0.50 0.50 C 1.000 UL
LTa
0.50 0.50 0.50 C 966 3953 M
5981 0 V
stroke
LT0
0.50 0.50 0.50 C 966 3953 M
63 0 V
5918 0 R
-63 0 V
-6002 0 R
( 56.5685) Rshow
1.000 UL
LT0
0.50 0.50 0.50 C 1.000 UL
LTa
0.50 0.50 0.50 C 966 3999 M
5981 0 V
stroke
LT0
0.50 0.50 0.50 C 966 3999 M
63 0 V
5918 0 R
-63 0 V
-6002 0 R
( 57.2756) Rshow
1.000 UL
LT0
0.50 0.50 0.50 C 1.000 UL
LTa
0.50 0.50 0.50 C 966 4045 M
5981 0 V
stroke
LT0
0.50 0.50 0.50 C 966 4045 M
63 0 V
5918 0 R
-63 0 V
-6002 0 R
( 57.9827) Rshow
1.000 UL
LT0
0.50 0.50 0.50 C 1.000 UL
LTa
0.50 0.50 0.50 C 966 4091 M
5981 0 V
stroke
LT0
0.50 0.50 0.50 C 966 4091 M
63 0 V
5918 0 R
-63 0 V
-6002 0 R
( 58.6898) Rshow
1.000 UL
LT0
0.50 0.50 0.50 C 1.000 UL
LTa
0.50 0.50 0.50 C 966 4136 M
5981 0 V
stroke
LT0
0.50 0.50 0.50 C 966 4136 M
63 0 V
5918 0 R
-63 0 V
-6002 0 R
( 59.3969) Rshow
1.000 UL
LT0
0.50 0.50 0.50 C 1.000 UL
LTa
0.50 0.50 0.50 C 966 4182 M
5981 0 V
stroke
LT0
0.50 0.50 0.50 C 966 4182 M
63 0 V
5918 0 R
-63 0 V
-6002 0 R
( 60.104) Rshow
1.000 UL
LT0
0.50 0.50 0.50 C 1.000 UL
LTa
0.50 0.50 0.50 C 966 4228 M
5981 0 V
stroke
LT0
0.50 0.50 0.50 C 966 4228 M
63 0 V
5918 0 R
-63 0 V
-6002 0 R
( 60.8111) Rshow
1.000 UL
LT0
0.50 0.50 0.50 C 1.000 UL
LTa
0.50 0.50 0.50 C 966 4274 M
5981 0 V
stroke
LT0
0.50 0.50 0.50 C 966 4274 M
63 0 V
5918 0 R
-63 0 V
-6002 0 R
( 61.5182) Rshow
1.000 UL
LT0
0.50 0.50 0.50 C 1.000 UL
LTa
0.50 0.50 0.50 C 966 4320 M
5981 0 V
stroke
LT0
0.50 0.50 0.50 C 966 4320 M
63 0 V
5918 0 R
-63 0 V
-6002 0 R
( 62.2253) Rshow
1.000 UL
LT0
0.50 0.50 0.50 C 1.000 UL
LTa
0.50 0.50 0.50 C 966 4366 M
5981 0 V
stroke
LT0
0.50 0.50 0.50 C 966 4366 M
63 0 V
5918 0 R
-63 0 V
-6002 0 R
( 62.9324) Rshow
1.000 UL
LT0
0.50 0.50 0.50 C 1.000 UL
LTa
0.50 0.50 0.50 C 966 4412 M
5981 0 V
stroke
LT0
0.50 0.50 0.50 C 966 4412 M
63 0 V
5918 0 R
-63 0 V
-6002 0 R
( 63.6395) Rshow
1.000 UL
LT0
0.50 0.50 0.50 C 1.000 UL
LTa
0.50 0.50 0.50 C 966 4458 M
5981 0 V
stroke
LT0
0.50 0.50 0.50 C 966 4458 M
63 0 V
5918 0 R
-63 0 V
-6002 0 R
( 64.3466) Rshow
1.000 UL
LT0
0.50 0.50 0.50 C 1.000 UL
LTa
0.50 0.50 0.50 C 966 4504 M
5981 0 V
stroke
LT0
0.50 0.50 0.50 C 966 4504 M
63 0 V
5918 0 R
-63 0 V
-6002 0 R
( 65.0538) Rshow
1.000 UL
LT0
0.50 0.50 0.50 C 1.000 UL
LTa
0.50 0.50 0.50 C 966 4550 M
5981 0 V
stroke
LT0
0.50 0.50 0.50 C 966 4550 M
63 0 V
5918 0 R
-63 0 V
-6002 0 R
( 65.7609) Rshow
1.000 UL
LT0
0.50 0.50 0.50 C 1.000 UL
LTa
0.50 0.50 0.50 C 966 4596 M
5981 0 V
stroke
LT0
0.50 0.50 0.50 C 966 4596 M
63 0 V
5918 0 R
-63 0 V
-6002 0 R
( 66.468) Rshow
1.000 UL
LT0
0.50 0.50 0.50 C 1.000 UL
LTa
0.50 0.50 0.50 C 966 4641 M
5981 0 V
stroke
LT0
0.50 0.50 0.50 C 966 4641 M
63 0 V
5918 0 R
-63 0 V
-6002 0 R
( 67.1751) Rshow
1.000 UL
LT0
0.50 0.50 0.50 C 1.000 UL
LTa
0.50 0.50 0.50 C 966 4687 M
5981 0 V
stroke
LT0
0.50 0.50 0.50 C 966 4687 M
63 0 V
5918 0 R
-63 0 V
-6002 0 R
( 67.8822) Rshow
1.000 UL
LT0
0.50 0.50 0.50 C 1.000 UL
LTa
0.50 0.50 0.50 C 966 4733 M
5981 0 V
stroke
LT0
0.50 0.50 0.50 C 966 4733 M
63 0 V
5918 0 R
-63 0 V
-6002 0 R
( 68.5893) Rshow
1.000 UL
LT0
0.50 0.50 0.50 C 1.000 UL
LTa
0.50 0.50 0.50 C 966 4779 M
5981 0 V
stroke
LT0
0.50 0.50 0.50 C 966 4779 M
63 0 V
5918 0 R
-63 0 V
-6002 0 R
( 69.2964) Rshow
1.000 UL
LT0
0.50 0.50 0.50 C 1.000 UL
LTa
0.50 0.50 0.50 C 966 4825 M
5981 0 V
stroke
LT0
0.50 0.50 0.50 C 966 4825 M
63 0 V
5918 0 R
-63 0 V
-6002 0 R
( 70.0035) Rshow
1.000 UL
LT0
0.50 0.50 0.50 C 1.000 UL
LTa
0.50 0.50 0.50 C 966 4871 M
5981 0 V
stroke
LT0
0.50 0.50 0.50 C 966 4871 M
63 0 V
5918 0 R
-63 0 V
-6002 0 R
( 70.7106) Rshow
1.000 UL
LT0
0.50 0.50 0.50 C 1.000 UL
LTa
0.50 0.50 0.50 C 966 280 M
0 4591 V
stroke
LT0
0.50 0.50 0.50 C 966 280 M
0 63 V
0 4528 R
0 -63 V
966 140 M
( 0) Cshow
1.000 UL
LT0
0.50 0.50 0.50 C 1.000 UL
LTa
0.50 0.50 0.50 C 1026 280 M
0 4591 V
stroke
LT0
0.50 0.50 0.50 C 1026 280 M
0 63 V
0 4528 R
0 -63 V
0 -4668 R
( 0.707106) Cshow
1.000 UL
LT0
0.50 0.50 0.50 C 1.000 UL
LTa
0.50 0.50 0.50 C 1086 280 M
0 4591 V
stroke
LT0
0.50 0.50 0.50 C 1086 280 M
0 63 V
0 4528 R
0 -63 V
0 -4668 R
( 1.41421) Cshow
1.000 UL
LT0
0.50 0.50 0.50 C 1.000 UL
LTa
0.50 0.50 0.50 C 1145 280 M
0 4591 V
stroke
LT0
0.50 0.50 0.50 C 1145 280 M
0 63 V
0 4528 R
0 -63 V
0 -4668 R
( 2.12132) Cshow
1.000 UL
LT0
0.50 0.50 0.50 C 1.000 UL
LTa
0.50 0.50 0.50 C 1205 280 M
0 4591 V
stroke
LT0
0.50 0.50 0.50 C 1205 280 M
0 63 V
0 4528 R
0 -63 V
0 -4668 R
( 2.82842) Cshow
1.000 UL
LT0
0.50 0.50 0.50 C 1.000 UL
LTa
0.50 0.50 0.50 C 1265 280 M
0 4591 V
stroke
LT0
0.50 0.50 0.50 C 1265 280 M
0 63 V
0 4528 R
0 -63 V
0 -4668 R
( 3.53553) Cshow
1.000 UL
LT0
0.50 0.50 0.50 C 1.000 UL
LTa
0.50 0.50 0.50 C 1325 280 M
0 4591 V
stroke
LT0
0.50 0.50 0.50 C 1325 280 M
0 63 V
0 4528 R
0 -63 V
0 -4668 R
( 4.24264) Cshow
1.000 UL
LT0
0.50 0.50 0.50 C 1.000 UL
LTa
0.50 0.50 0.50 C 1385 280 M
0 4591 V
stroke
LT0
0.50 0.50 0.50 C 1385 280 M
0 63 V
0 4528 R
0 -63 V
0 -4668 R
( 4.94974) Cshow
1.000 UL
LT0
0.50 0.50 0.50 C 1.000 UL
LTa
0.50 0.50 0.50 C 1444 280 M
0 4591 V
stroke
LT0
0.50 0.50 0.50 C 1444 280 M
0 63 V
0 4528 R
0 -63 V
0 -4668 R
( 5.65685) Cshow
1.000 UL
LT0
0.50 0.50 0.50 C 1.000 UL
LTa
0.50 0.50 0.50 C 1504 280 M
0 4591 V
stroke
LT0
0.50 0.50 0.50 C 1504 280 M
0 63 V
0 4528 R
0 -63 V
0 -4668 R
( 6.36395) Cshow
1.000 UL
LT0
0.50 0.50 0.50 C 1.000 UL
LTa
0.50 0.50 0.50 C 1564 280 M
0 4591 V
stroke
LT0
0.50 0.50 0.50 C 1564 280 M
0 63 V
0 4528 R
0 -63 V
0 -4668 R
( 7.07106) Cshow
1.000 UL
LT0
0.50 0.50 0.50 C 1.000 UL
LTa
0.50 0.50 0.50 C 1624 280 M
0 4591 V
stroke
LT0
0.50 0.50 0.50 C 1624 280 M
0 63 V
0 4528 R
0 -63 V
0 -4668 R
( 7.77817) Cshow
1.000 UL
LT0
0.50 0.50 0.50 C 1.000 UL
LTa
0.50 0.50 0.50 C 1684 280 M
0 4591 V
stroke
LT0
0.50 0.50 0.50 C 1684 280 M
0 63 V
0 4528 R
0 -63 V
0 -4668 R
( 8.48527) Cshow
1.000 UL
LT0
0.50 0.50 0.50 C 1.000 UL
LTa
0.50 0.50 0.50 C 1744 280 M
0 4591 V
stroke
LT0
0.50 0.50 0.50 C 1744 280 M
0 63 V
0 4528 R
0 -63 V
0 -4668 R
( 9.19238) Cshow
1.000 UL
LT0
0.50 0.50 0.50 C 1.000 UL
LTa
0.50 0.50 0.50 C 1803 280 M
0 4591 V
stroke
LT0
0.50 0.50 0.50 C 1803 280 M
0 63 V
0 4528 R
0 -63 V
0 -4668 R
( 9.89948) Cshow
1.000 UL
LT0
0.50 0.50 0.50 C 1.000 UL
LTa
0.50 0.50 0.50 C 1863 280 M
0 4591 V
stroke
LT0
0.50 0.50 0.50 C 1863 280 M
0 63 V
0 4528 R
0 -63 V
0 -4668 R
( 10.6066) Cshow
1.000 UL
LT0
0.50 0.50 0.50 C 1.000 UL
LTa
0.50 0.50 0.50 C 1923 280 M
0 4591 V
stroke
LT0
0.50 0.50 0.50 C 1923 280 M
0 63 V
0 4528 R
0 -63 V
0 -4668 R
( 11.3137) Cshow
1.000 UL
LT0
0.50 0.50 0.50 C 1.000 UL
LTa
0.50 0.50 0.50 C 1983 280 M
0 4591 V
stroke
LT0
0.50 0.50 0.50 C 1983 280 M
0 63 V
0 4528 R
0 -63 V
0 -4668 R
( 12.0208) Cshow
1.000 UL
LT0
0.50 0.50 0.50 C 1.000 UL
LTa
0.50 0.50 0.50 C 2043 280 M
0 4591 V
stroke
LT0
0.50 0.50 0.50 C 2043 280 M
0 63 V
0 4528 R
0 -63 V
0 -4668 R
( 12.7279) Cshow
1.000 UL
LT0
0.50 0.50 0.50 C 1.000 UL
LTa
0.50 0.50 0.50 C 2102 280 M
0 4591 V
stroke
LT0
0.50 0.50 0.50 C 2102 280 M
0 63 V
0 4528 R
0 -63 V
0 -4668 R
( 13.435) Cshow
1.000 UL
LT0
0.50 0.50 0.50 C 1.000 UL
LTa
0.50 0.50 0.50 C 2162 280 M
0 4591 V
stroke
LT0
0.50 0.50 0.50 C 2162 280 M
0 63 V
0 4528 R
0 -63 V
0 -4668 R
( 14.1421) Cshow
1.000 UL
LT0
0.50 0.50 0.50 C 1.000 UL
LTa
0.50 0.50 0.50 C 2222 280 M
0 4591 V
stroke
LT0
0.50 0.50 0.50 C 2222 280 M
0 63 V
0 4528 R
0 -63 V
0 -4668 R
( 14.8492) Cshow
1.000 UL
LT0
0.50 0.50 0.50 C 1.000 UL
LTa
0.50 0.50 0.50 C 2282 280 M
0 4591 V
stroke
LT0
0.50 0.50 0.50 C 2282 280 M
0 63 V
0 4528 R
0 -63 V
0 -4668 R
( 15.5563) Cshow
1.000 UL
LT0
0.50 0.50 0.50 C 1.000 UL
LTa
0.50 0.50 0.50 C 2342 280 M
0 4591 V
stroke
LT0
0.50 0.50 0.50 C 2342 280 M
0 63 V
0 4528 R
0 -63 V
0 -4668 R
( 16.2634) Cshow
1.000 UL
LT0
0.50 0.50 0.50 C 1.000 UL
LTa
0.50 0.50 0.50 C 2401 280 M
0 4591 V
stroke
LT0
0.50 0.50 0.50 C 2401 280 M
0 63 V
0 4528 R
0 -63 V
0 -4668 R
( 16.9705) Cshow
1.000 UL
LT0
0.50 0.50 0.50 C 1.000 UL
LTa
0.50 0.50 0.50 C 2461 280 M
0 4591 V
stroke
LT0
0.50 0.50 0.50 C 2461 280 M
0 63 V
0 4528 R
0 -63 V
0 -4668 R
( 17.6776) Cshow
1.000 UL
LT0
0.50 0.50 0.50 C 1.000 UL
LTa
0.50 0.50 0.50 C 2521 280 M
0 4591 V
stroke
LT0
0.50 0.50 0.50 C 2521 280 M
0 63 V
0 4528 R
0 -63 V
0 -4668 R
( 18.3848) Cshow
1.000 UL
LT0
0.50 0.50 0.50 C 1.000 UL
LTa
0.50 0.50 0.50 C 2581 280 M
0 4591 V
stroke
LT0
0.50 0.50 0.50 C 2581 280 M
0 63 V
0 4528 R
0 -63 V
0 -4668 R
( 19.0919) Cshow
1.000 UL
LT0
0.50 0.50 0.50 C 1.000 UL
LTa
0.50 0.50 0.50 C 2641 280 M
0 4591 V
stroke
LT0
0.50 0.50 0.50 C 2641 280 M
0 63 V
0 4528 R
0 -63 V
0 -4668 R
( 19.799) Cshow
1.000 UL
LT0
0.50 0.50 0.50 C 1.000 UL
LTa
0.50 0.50 0.50 C 2700 280 M
0 4591 V
stroke
LT0
0.50 0.50 0.50 C 2700 280 M
0 63 V
0 4528 R
0 -63 V
0 -4668 R
( 20.5061) Cshow
1.000 UL
LT0
0.50 0.50 0.50 C 1.000 UL
LTa
0.50 0.50 0.50 C 2760 280 M
0 4591 V
stroke
LT0
0.50 0.50 0.50 C 2760 280 M
0 63 V
0 4528 R
0 -63 V
0 -4668 R
( 21.2132) Cshow
1.000 UL
LT0
0.50 0.50 0.50 C 1.000 UL
LTa
0.50 0.50 0.50 C 2820 280 M
0 4591 V
stroke
LT0
0.50 0.50 0.50 C 2820 280 M
0 63 V
0 4528 R
0 -63 V
0 -4668 R
( 21.9203) Cshow
1.000 UL
LT0
0.50 0.50 0.50 C 1.000 UL
LTa
0.50 0.50 0.50 C 2880 280 M
0 4591 V
stroke
LT0
0.50 0.50 0.50 C 2880 280 M
0 63 V
0 4528 R
0 -63 V
0 -4668 R
( 22.6274) Cshow
1.000 UL
LT0
0.50 0.50 0.50 C 1.000 UL
LTa
0.50 0.50 0.50 C 2940 280 M
0 4591 V
stroke
LT0
0.50 0.50 0.50 C 2940 280 M
0 63 V
0 4528 R
0 -63 V
0 -4668 R
( 23.3345) Cshow
1.000 UL
LT0
0.50 0.50 0.50 C 1.000 UL
LTa
0.50 0.50 0.50 C 3000 280 M
0 4591 V
stroke
LT0
0.50 0.50 0.50 C 3000 280 M
0 63 V
0 4528 R
0 -63 V
0 -4668 R
( 24.0416) Cshow
1.000 UL
LT0
0.50 0.50 0.50 C 1.000 UL
LTa
0.50 0.50 0.50 C 3059 280 M
0 4591 V
stroke
LT0
0.50 0.50 0.50 C 3059 280 M
0 63 V
0 4528 R
0 -63 V
0 -4668 R
( 24.7487) Cshow
1.000 UL
LT0
0.50 0.50 0.50 C 1.000 UL
LTa
0.50 0.50 0.50 C 3119 280 M
0 4591 V
stroke
LT0
0.50 0.50 0.50 C 3119 280 M
0 63 V
0 4528 R
0 -63 V
0 -4668 R
( 25.4558) Cshow
1.000 UL
LT0
0.50 0.50 0.50 C 1.000 UL
LTa
0.50 0.50 0.50 C 3179 280 M
0 4591 V
stroke
LT0
0.50 0.50 0.50 C 3179 280 M
0 63 V
0 4528 R
0 -63 V
0 -4668 R
( 26.1629) Cshow
1.000 UL
LT0
0.50 0.50 0.50 C 1.000 UL
LTa
0.50 0.50 0.50 C 3239 280 M
0 4591 V
stroke
LT0
0.50 0.50 0.50 C 3239 280 M
0 63 V
0 4528 R
0 -63 V
0 -4668 R
( 26.87) Cshow
1.000 UL
LT0
0.50 0.50 0.50 C 1.000 UL
LTa
0.50 0.50 0.50 C 3299 280 M
0 4591 V
stroke
LT0
0.50 0.50 0.50 C 3299 280 M
0 63 V
0 4528 R
0 -63 V
0 -4668 R
( 27.5771) Cshow
1.000 UL
LT0
0.50 0.50 0.50 C 1.000 UL
LTa
0.50 0.50 0.50 C 3358 280 M
0 4591 V
stroke
LT0
0.50 0.50 0.50 C 3358 280 M
0 63 V
0 4528 R
0 -63 V
0 -4668 R
( 28.2842) Cshow
1.000 UL
LT0
0.50 0.50 0.50 C 1.000 UL
LTa
0.50 0.50 0.50 C 3418 280 M
0 4591 V
stroke
LT0
0.50 0.50 0.50 C 3418 280 M
0 63 V
0 4528 R
0 -63 V
0 -4668 R
( 28.9913) Cshow
1.000 UL
LT0
0.50 0.50 0.50 C 1.000 UL
LTa
0.50 0.50 0.50 C 3478 280 M
0 4591 V
stroke
LT0
0.50 0.50 0.50 C 3478 280 M
0 63 V
0 4528 R
0 -63 V
0 -4668 R
( 29.6985) Cshow
1.000 UL
LT0
0.50 0.50 0.50 C 1.000 UL
LTa
0.50 0.50 0.50 C 3538 280 M
0 4591 V
stroke
LT0
0.50 0.50 0.50 C 3538 280 M
0 63 V
0 4528 R
0 -63 V
0 -4668 R
( 30.4056) Cshow
1.000 UL
LT0
0.50 0.50 0.50 C 1.000 UL
LTa
0.50 0.50 0.50 C 3598 280 M
0 4591 V
stroke
LT0
0.50 0.50 0.50 C 3598 280 M
0 63 V
0 4528 R
0 -63 V
0 -4668 R
( 31.1127) Cshow
1.000 UL
LT0
0.50 0.50 0.50 C 1.000 UL
LTa
0.50 0.50 0.50 C 3657 280 M
0 4591 V
stroke
LT0
0.50 0.50 0.50 C 3657 280 M
0 63 V
0 4528 R
0 -63 V
0 -4668 R
( 31.8198) Cshow
1.000 UL
LT0
0.50 0.50 0.50 C 1.000 UL
LTa
0.50 0.50 0.50 C 3717 280 M
0 4591 V
stroke
LT0
0.50 0.50 0.50 C 3717 280 M
0 63 V
0 4528 R
0 -63 V
0 -4668 R
( 32.5269) Cshow
1.000 UL
LT0
0.50 0.50 0.50 C 1.000 UL
LTa
0.50 0.50 0.50 C 3777 280 M
0 4591 V
stroke
LT0
0.50 0.50 0.50 C 3777 280 M
0 63 V
0 4528 R
0 -63 V
0 -4668 R
( 33.234) Cshow
1.000 UL
LT0
0.50 0.50 0.50 C 1.000 UL
LTa
0.50 0.50 0.50 C 3837 280 M
0 4591 V
stroke
LT0
0.50 0.50 0.50 C 3837 280 M
0 63 V
0 4528 R
0 -63 V
0 -4668 R
( 33.9411) Cshow
1.000 UL
LT0
0.50 0.50 0.50 C 1.000 UL
LTa
0.50 0.50 0.50 C 3897 280 M
0 4591 V
stroke
LT0
0.50 0.50 0.50 C 3897 280 M
0 63 V
0 4528 R
0 -63 V
0 -4668 R
( 34.6482) Cshow
1.000 UL
LT0
0.50 0.50 0.50 C 1.000 UL
LTa
0.50 0.50 0.50 C 3957 280 M
0 4591 V
stroke
LT0
0.50 0.50 0.50 C 3957 280 M
0 63 V
0 4528 R
0 -63 V
0 -4668 R
( 35.3553) Cshow
1.000 UL
LT0
0.50 0.50 0.50 C 1.000 UL
LTa
0.50 0.50 0.50 C 4016 280 M
0 4591 V
stroke
LT0
0.50 0.50 0.50 C 4016 280 M
0 63 V
0 4528 R
0 -63 V
0 -4668 R
( 36.0624) Cshow
1.000 UL
LT0
0.50 0.50 0.50 C 1.000 UL
LTa
0.50 0.50 0.50 C 4076 280 M
0 4591 V
stroke
LT0
0.50 0.50 0.50 C 4076 280 M
0 63 V
0 4528 R
0 -63 V
0 -4668 R
( 36.7695) Cshow
1.000 UL
LT0
0.50 0.50 0.50 C 1.000 UL
LTa
0.50 0.50 0.50 C 4136 280 M
0 4591 V
stroke
LT0
0.50 0.50 0.50 C 4136 280 M
0 63 V
0 4528 R
0 -63 V
0 -4668 R
( 37.4766) Cshow
1.000 UL
LT0
0.50 0.50 0.50 C 1.000 UL
LTa
0.50 0.50 0.50 C 4196 280 M
0 4591 V
stroke
LT0
0.50 0.50 0.50 C 4196 280 M
0 63 V
0 4528 R
0 -63 V
0 -4668 R
( 38.1837) Cshow
1.000 UL
LT0
0.50 0.50 0.50 C 1.000 UL
LTa
0.50 0.50 0.50 C 4256 280 M
0 4591 V
stroke
LT0
0.50 0.50 0.50 C 4256 280 M
0 63 V
0 4528 R
0 -63 V
0 -4668 R
( 38.8908) Cshow
1.000 UL
LT0
0.50 0.50 0.50 C 1.000 UL
LTa
0.50 0.50 0.50 C 4315 280 M
0 4591 V
stroke
LT0
0.50 0.50 0.50 C 4315 280 M
0 63 V
0 4528 R
0 -63 V
0 -4668 R
( 39.5979) Cshow
1.000 UL
LT0
0.50 0.50 0.50 C 1.000 UL
LTa
0.50 0.50 0.50 C 4375 280 M
0 4591 V
stroke
LT0
0.50 0.50 0.50 C 4375 280 M
0 63 V
0 4528 R
0 -63 V
0 -4668 R
( 40.305) Cshow
1.000 UL
LT0
0.50 0.50 0.50 C 1.000 UL
LTa
0.50 0.50 0.50 C 4435 280 M
0 4591 V
stroke
LT0
0.50 0.50 0.50 C 4435 280 M
0 63 V
0 4528 R
0 -63 V
0 -4668 R
( 41.0121) Cshow
1.000 UL
LT0
0.50 0.50 0.50 C 1.000 UL
LTa
0.50 0.50 0.50 C 4495 280 M
0 4591 V
stroke
LT0
0.50 0.50 0.50 C 4495 280 M
0 63 V
0 4528 R
0 -63 V
0 -4668 R
( 41.7193) Cshow
1.000 UL
LT0
0.50 0.50 0.50 C 1.000 UL
LTa
0.50 0.50 0.50 C 4555 280 M
0 4591 V
stroke
LT0
0.50 0.50 0.50 C 4555 280 M
0 63 V
0 4528 R
0 -63 V
0 -4668 R
( 42.4264) Cshow
1.000 UL
LT0
0.50 0.50 0.50 C 1.000 UL
LTa
0.50 0.50 0.50 C 4614 280 M
0 4591 V
stroke
LT0
0.50 0.50 0.50 C 4614 280 M
0 63 V
0 4528 R
0 -63 V
0 -4668 R
( 43.1335) Cshow
1.000 UL
LT0
0.50 0.50 0.50 C 1.000 UL
LTa
0.50 0.50 0.50 C 4674 280 M
0 4591 V
stroke
LT0
0.50 0.50 0.50 C 4674 280 M
0 63 V
0 4528 R
0 -63 V
0 -4668 R
( 43.8406) Cshow
1.000 UL
LT0
0.50 0.50 0.50 C 1.000 UL
LTa
0.50 0.50 0.50 C 4734 280 M
0 4591 V
stroke
LT0
0.50 0.50 0.50 C 4734 280 M
0 63 V
0 4528 R
0 -63 V
0 -4668 R
( 44.5477) Cshow
1.000 UL
LT0
0.50 0.50 0.50 C 1.000 UL
LTa
0.50 0.50 0.50 C 4794 280 M
0 4591 V
stroke
LT0
0.50 0.50 0.50 C 4794 280 M
0 63 V
0 4528 R
0 -63 V
0 -4668 R
( 45.2548) Cshow
1.000 UL
LT0
0.50 0.50 0.50 C 1.000 UL
LTa
0.50 0.50 0.50 C 4854 280 M
0 4591 V
stroke
LT0
0.50 0.50 0.50 C 4854 280 M
0 63 V
0 4528 R
0 -63 V
0 -4668 R
( 45.9619) Cshow
1.000 UL
LT0
0.50 0.50 0.50 C 1.000 UL
LTa
0.50 0.50 0.50 C 4913 280 M
0 4591 V
stroke
LT0
0.50 0.50 0.50 C 4913 280 M
0 63 V
0 4528 R
0 -63 V
0 -4668 R
( 46.669) Cshow
1.000 UL
LT0
0.50 0.50 0.50 C 1.000 UL
LTa
0.50 0.50 0.50 C 4973 280 M
0 4591 V
stroke
LT0
0.50 0.50 0.50 C 4973 280 M
0 63 V
0 4528 R
0 -63 V
0 -4668 R
( 47.3761) Cshow
1.000 UL
LT0
0.50 0.50 0.50 C 1.000 UL
LTa
0.50 0.50 0.50 C 5033 280 M
0 4591 V
stroke
LT0
0.50 0.50 0.50 C 5033 280 M
0 63 V
0 4528 R
0 -63 V
0 -4668 R
( 48.0832) Cshow
1.000 UL
LT0
0.50 0.50 0.50 C 1.000 UL
LTa
0.50 0.50 0.50 C 5093 280 M
0 4591 V
stroke
LT0
0.50 0.50 0.50 C 5093 280 M
0 63 V
0 4528 R
0 -63 V
0 -4668 R
( 48.7903) Cshow
1.000 UL
LT0
0.50 0.50 0.50 C 1.000 UL
LTa
0.50 0.50 0.50 C 5153 280 M
0 4591 V
stroke
LT0
0.50 0.50 0.50 C 5153 280 M
0 63 V
0 4528 R
0 -63 V
0 -4668 R
( 49.4974) Cshow
1.000 UL
LT0
0.50 0.50 0.50 C 1.000 UL
LTa
0.50 0.50 0.50 C 5213 280 M
0 4591 V
stroke
LT0
0.50 0.50 0.50 C 5213 280 M
0 63 V
0 4528 R
0 -63 V
0 -4668 R
( 50.2045) Cshow
1.000 UL
LT0
0.50 0.50 0.50 C 1.000 UL
LTa
0.50 0.50 0.50 C 5272 280 M
0 4591 V
stroke
LT0
0.50 0.50 0.50 C 5272 280 M
0 63 V
0 4528 R
0 -63 V
0 -4668 R
( 50.9116) Cshow
1.000 UL
LT0
0.50 0.50 0.50 C 1.000 UL
LTa
0.50 0.50 0.50 C 5332 280 M
0 4591 V
stroke
LT0
0.50 0.50 0.50 C 5332 280 M
0 63 V
0 4528 R
0 -63 V
0 -4668 R
( 51.6187) Cshow
1.000 UL
LT0
0.50 0.50 0.50 C 1.000 UL
LTa
0.50 0.50 0.50 C 5392 280 M
0 4591 V
stroke
LT0
0.50 0.50 0.50 C 5392 280 M
0 63 V
0 4528 R
0 -63 V
0 -4668 R
( 52.3258) Cshow
1.000 UL
LT0
0.50 0.50 0.50 C 1.000 UL
LTa
0.50 0.50 0.50 C 5452 280 M
0 4591 V
stroke
LT0
0.50 0.50 0.50 C 5452 280 M
0 63 V
0 4528 R
0 -63 V
0 -4668 R
( 53.033) Cshow
1.000 UL
LT0
0.50 0.50 0.50 C 1.000 UL
LTa
0.50 0.50 0.50 C 5512 280 M
0 4591 V
stroke
LT0
0.50 0.50 0.50 C 5512 280 M
0 63 V
0 4528 R
0 -63 V
0 -4668 R
( 53.7401) Cshow
1.000 UL
LT0
0.50 0.50 0.50 C 1.000 UL
LTa
0.50 0.50 0.50 C 5571 280 M
0 4591 V
stroke
LT0
0.50 0.50 0.50 C 5571 280 M
0 63 V
0 4528 R
0 -63 V
0 -4668 R
( 54.4472) Cshow
1.000 UL
LT0
0.50 0.50 0.50 C 1.000 UL
LTa
0.50 0.50 0.50 C 5631 280 M
0 4591 V
stroke
LT0
0.50 0.50 0.50 C 5631 280 M
0 63 V
0 4528 R
0 -63 V
0 -4668 R
( 55.1543) Cshow
1.000 UL
LT0
0.50 0.50 0.50 C 1.000 UL
LTa
0.50 0.50 0.50 C 5691 280 M
0 4591 V
stroke
LT0
0.50 0.50 0.50 C 5691 280 M
0 63 V
0 4528 R
0 -63 V
0 -4668 R
( 55.8614) Cshow
1.000 UL
LT0
0.50 0.50 0.50 C 1.000 UL
LTa
0.50 0.50 0.50 C 5751 280 M
0 4591 V
stroke
LT0
0.50 0.50 0.50 C 5751 280 M
0 63 V
0 4528 R
0 -63 V
0 -4668 R
( 56.5685) Cshow
1.000 UL
LT0
0.50 0.50 0.50 C 1.000 UL
LTa
0.50 0.50 0.50 C 5811 280 M
0 4591 V
stroke
LT0
0.50 0.50 0.50 C 5811 280 M
0 63 V
0 4528 R
0 -63 V
0 -4668 R
( 57.2756) Cshow
1.000 UL
LT0
0.50 0.50 0.50 C 1.000 UL
LTa
0.50 0.50 0.50 C 5870 280 M
0 4591 V
stroke
LT0
0.50 0.50 0.50 C 5870 280 M
0 63 V
0 4528 R
0 -63 V
0 -4668 R
( 57.9827) Cshow
1.000 UL
LT0
0.50 0.50 0.50 C 1.000 UL
LTa
0.50 0.50 0.50 C 5930 280 M
0 4591 V
stroke
LT0
0.50 0.50 0.50 C 5930 280 M
0 63 V
0 4528 R
0 -63 V
0 -4668 R
( 58.6898) Cshow
1.000 UL
LT0
0.50 0.50 0.50 C 1.000 UL
LTa
0.50 0.50 0.50 C 5990 280 M
0 4591 V
stroke
LT0
0.50 0.50 0.50 C 5990 280 M
0 63 V
0 4528 R
0 -63 V
0 -4668 R
( 59.3969) Cshow
1.000 UL
LT0
0.50 0.50 0.50 C 1.000 UL
LTa
0.50 0.50 0.50 C 6050 280 M
0 4591 V
stroke
LT0
0.50 0.50 0.50 C 6050 280 M
0 63 V
0 4528 R
0 -63 V
0 -4668 R
( 60.104) Cshow
1.000 UL
LT0
0.50 0.50 0.50 C 1.000 UL
LTa
0.50 0.50 0.50 C 6110 280 M
0 4591 V
stroke
LT0
0.50 0.50 0.50 C 6110 280 M
0 63 V
0 4528 R
0 -63 V
0 -4668 R
( 60.8111) Cshow
1.000 UL
LT0
0.50 0.50 0.50 C 1.000 UL
LTa
0.50 0.50 0.50 C 6169 280 M
0 4591 V
stroke
LT0
0.50 0.50 0.50 C 6169 280 M
0 63 V
0 4528 R
0 -63 V
0 -4668 R
( 61.5182) Cshow
1.000 UL
LT0
0.50 0.50 0.50 C 1.000 UL
LTa
0.50 0.50 0.50 C 6229 280 M
0 4591 V
stroke
LT0
0.50 0.50 0.50 C 6229 280 M
0 63 V
0 4528 R
0 -63 V
0 -4668 R
( 62.2253) Cshow
1.000 UL
LT0
0.50 0.50 0.50 C 1.000 UL
LTa
0.50 0.50 0.50 C 6289 280 M
0 4591 V
stroke
LT0
0.50 0.50 0.50 C 6289 280 M
0 63 V
0 4528 R
0 -63 V
0 -4668 R
( 62.9324) Cshow
1.000 UL
LT0
0.50 0.50 0.50 C 1.000 UL
LTa
0.50 0.50 0.50 C 6349 280 M
0 4591 V
stroke
LT0
0.50 0.50 0.50 C 6349 280 M
0 63 V
0 4528 R
0 -63 V
0 -4668 R
( 63.6395) Cshow
1.000 UL
LT0
0.50 0.50 0.50 C 1.000 UL
LTa
0.50 0.50 0.50 C 6409 280 M
0 4591 V
stroke
LT0
0.50 0.50 0.50 C 6409 280 M
0 63 V
0 4528 R
0 -63 V
0 -4668 R
( 64.3466) Cshow
1.000 UL
LT0
0.50 0.50 0.50 C 1.000 UL
LTa
0.50 0.50 0.50 C 6469 280 M
0 4591 V
stroke
LT0
0.50 0.50 0.50 C 6469 280 M
0 63 V
0 4528 R
0 -63 V
0 -4668 R
( 65.0538) Cshow
1.000 UL
LT0
0.50 0.50 0.50 C 1.000 UL
LTa
0.50 0.50 0.50 C 6528 280 M
0 4591 V
stroke
LT0
0.50 0.50 0.50 C 6528 280 M
0 63 V
0 4528 R
0 -63 V
0 -4668 R
( 65.7609) Cshow
1.000 UL
LT0
0.50 0.50 0.50 C 1.000 UL
LTa
0.50 0.50 0.50 C 6588 280 M
0 4591 V
stroke
LT0
0.50 0.50 0.50 C 6588 280 M
0 63 V
0 4528 R
0 -63 V
0 -4668 R
( 66.468) Cshow
1.000 UL
LT0
0.50 0.50 0.50 C 1.000 UL
LTa
0.50 0.50 0.50 C 6648 280 M
0 4591 V
stroke
LT0
0.50 0.50 0.50 C 6648 280 M
0 63 V
0 4528 R
0 -63 V
0 -4668 R
( 67.1751) Cshow
1.000 UL
LT0
0.50 0.50 0.50 C 1.000 UL
LTa
0.50 0.50 0.50 C 6708 280 M
0 4591 V
stroke
LT0
0.50 0.50 0.50 C 6708 280 M
0 63 V
0 4528 R
0 -63 V
0 -4668 R
( 67.8822) Cshow
1.000 UL
LT0
0.50 0.50 0.50 C 1.000 UL
LTa
0.50 0.50 0.50 C 6768 280 M
0 4591 V
stroke
LT0
0.50 0.50 0.50 C 6768 280 M
0 63 V
0 4528 R
0 -63 V
0 -4668 R
( 68.5893) Cshow
1.000 UL
LT0
0.50 0.50 0.50 C 1.000 UL
LTa
0.50 0.50 0.50 C 6827 280 M
0 4591 V
stroke
LT0
0.50 0.50 0.50 C 6827 280 M
0 63 V
0 4528 R
0 -63 V
0 -4668 R
( 69.2964) Cshow
1.000 UL
LT0
0.50 0.50 0.50 C 1.000 UL
LTa
0.50 0.50 0.50 C 6887 280 M
0 4591 V
stroke
LT0
0.50 0.50 0.50 C 6887 280 M
0 63 V
0 4528 R
0 -63 V
0 -4668 R
( 70.0035) Cshow
1.000 UL
LT0
0.50 0.50 0.50 C 1.000 UL
LTa
0.50 0.50 0.50 C 6947 280 M
0 4591 V
stroke
LT0
0.50 0.50 0.50 C 6947 280 M
0 63 V
0 4528 R
0 -63 V
0 -4668 R
( 70.7106) Cshow
1.000 UL
LT0
0.50 0.50 0.50 C 1.000 UL
LT0
0.50 0.50 0.50 C 966 4871 M
966 280 L
5981 0 V
0 4591 R
-5981 0 R
1.000 UP
stroke
LT0
0.50 0.50 0.50 C % Begin plot #1
1.500 UP
2.000 UL
LT0
0.00 0.00 1.00 C /Helvetica findfont 140 scalefont setfont
/vshift -46 def
966 372 M
60 0 V
0 229 R
60 0 V
0 276 R
59 0 V
0 92 R
60 0 V
60 0 V
60 0 V
60 0 V
0 183 R
59 0 V
60 0 V
0 138 R
60 0 V
0 92 R
60 0 V
60 0 V
60 0 V
0 413 R
59 0 V
0 92 R
60 0 V
60 0 V
60 0 V
60 0 V
59 0 V
60 0 V
60 0 V
0 46 R
60 0 V
60 0 V
59 0 V
0 229 R
60 0 V
0 138 R
60 0 V
0 92 R
60 0 V
60 0 V
0 92 R
59 0 V
0 46 R
60 0 V
0 321 R
60 0 V
60 0 V
60 0 V
60 0 V
0 230 R
59 0 V
0 137 R
60 0 V
60 0 V
0 368 R
60 0 V
60 0 V
59 0 V
60 0 V
60 0 V
60 0 V
60 0 V
59 0 V
60 0 V
0 183 R
60 0 V
60 0 V
0 46 R
60 0 V
60 0 V
0 92 R
59 0 V
0 46 R
60 0 V
60 0 V
0 138 R
60 0 V
60 0 V
59 0 V
60 0 V
60 0 V
60 0 V
60 0 V
0 91 R
59 0 V
60 0 V
60 0 V
60 0 V
60 0 V
59 0 V
60 0 V
60 0 V
60 0 V
60 0 V
60 0 V
0 138 R
59 0 V
0 46 R
60 0 V
60 0 V
60 0 V
60 0 V
0 184 R
59 0 V
stroke 5571 4550 M
60 0 V
0 91 R
60 0 V
60 0 V
60 0 V
0 46 R
59 0 V
60 0 V
60 0 V
60 0 V
0 92 R
60 0 V
59 0 V
658 46 R
60 0 V
-718 0 R
60 0 V
60 0 V
60 0 V
60 0 V
60 0 V
59 0 V
60 0 V
60 0 V
60 0 V
60 0 V
59 0 V
1026 372 M
0 46 V
0 46 V
0 46 V
0 45 V
0 46 V
60 0 R
0 46 V
0 46 V
0 46 V
0 46 V
0 46 V
0 46 V
59 0 R
0 46 V
0 46 V
240 0 R
0 46 V
0 45 V
0 46 V
0 46 V
119 0 R
0 46 V
0 46 V
0 46 V
60 0 R
0 46 V
0 46 V
180 0 R
0 46 V
0 46 V
0 46 V
0 45 V
0 46 V
0 46 V
0 46 V
0 46 V
0 46 V
59 0 R
0 46 V
0 46 V
419 0 R
0 46 V
179 0 R
0 46 V
0 46 V
0 45 V
0 46 V
0 46 V
60 0 R
0 46 V
0 46 V
0 46 V
60 0 R
0 46 V
0 46 V
120 0 R
0 46 V
0 46 V
59 0 R
0 46 V
60 0 R
0 46 V
0 45 V
0 46 V
0 46 V
0 46 V
0 46 V
0 46 V
240 0 R
0 46 V
0 46 V
0 46 V
0 46 V
0 46 V
59 0 R
0 45 V
stroke 3059 3126 M
0 46 V
0 46 V
120 0 R
0 46 V
0 46 V
0 46 V
0 46 V
0 46 V
0 46 V
0 46 V
0 46 V
538 0 R
0 45 V
0 46 V
0 46 V
0 46 V
120 0 R
0 46 V
120 0 R
0 46 V
0 46 V
59 0 R
0 46 V
120 0 R
0 46 V
0 46 V
0 46 V
419 0 R
0 45 V
0 46 V
658 0 R
0 46 V
0 46 V
0 46 V
59 0 R
0 46 V
240 0 R
0 46 V
0 46 V
0 46 V
0 46 V
119 0 R
0 46 V
0 45 V
180 0 R
0 46 V
239 0 R
0 46 V
0 46 V
119 0 R
0 46 V
966 280 M
0 46 V
0 46 V
966 372 CircleF
1026 372 CircleF
1026 601 CircleF
1086 601 CircleF
1086 877 CircleF
1145 877 CircleF
1145 969 CircleF
1205 969 CircleF
1205 969 CircleF
1265 969 CircleF
1265 969 CircleF
1325 969 CircleF
1325 969 CircleF
1385 969 CircleF
1385 1152 CircleF
1444 1152 CircleF
1444 1152 CircleF
1504 1152 CircleF
1504 1290 CircleF
1564 1290 CircleF
1564 1382 CircleF
1624 1382 CircleF
1624 1382 CircleF
1684 1382 CircleF
1684 1382 CircleF
1744 1382 CircleF
1744 1795 CircleF
1803 1795 CircleF
1803 1887 CircleF
1863 1887 CircleF
1863 1887 CircleF
1923 1887 CircleF
1923 1887 CircleF
1983 1887 CircleF
1983 1887 CircleF
2043 1887 CircleF
2043 1887 CircleF
2102 1887 CircleF
2102 1887 CircleF
2162 1887 CircleF
2162 1887 CircleF
2222 1887 CircleF
2222 1933 CircleF
2282 1933 CircleF
2282 1933 CircleF
2342 1933 CircleF
2342 1933 CircleF
2401 1933 CircleF
2401 2162 CircleF
2461 2162 CircleF
2461 2300 CircleF
2521 2300 CircleF
2521 2392 CircleF
2581 2392 CircleF
2581 2392 CircleF
2641 2392 CircleF
2641 2484 CircleF
2700 2484 CircleF
2700 2530 CircleF
2760 2530 CircleF
2760 2851 CircleF
2820 2851 CircleF
2820 2851 CircleF
2880 2851 CircleF
2880 2851 CircleF
2940 2851 CircleF
2940 2851 CircleF
3000 2851 CircleF
3000 3081 CircleF
3059 3081 CircleF
3059 3218 CircleF
3119 3218 CircleF
3119 3218 CircleF
3179 3218 CircleF
3179 3586 CircleF
3239 3586 CircleF
3239 3586 CircleF
3299 3586 CircleF
3299 3586 CircleF
3358 3586 CircleF
3358 3586 CircleF
3418 3586 CircleF
3418 3586 CircleF
3478 3586 CircleF
3478 3586 CircleF
3538 3586 CircleF
3538 3586 CircleF
3598 3586 CircleF
3598 3586 CircleF
3657 3586 CircleF
3657 3586 CircleF
3717 3586 CircleF
3717 3769 CircleF
3777 3769 CircleF
3777 3769 CircleF
3837 3769 CircleF
3837 3815 CircleF
3897 3815 CircleF
3897 3815 CircleF
3957 3815 CircleF
3957 3907 CircleF
4016 3907 CircleF
4016 3953 CircleF
4076 3953 CircleF
4076 3953 CircleF
4136 3953 CircleF
4136 4091 CircleF
4196 4091 CircleF
4196 4091 CircleF
4256 4091 CircleF
4256 4091 CircleF
4315 4091 CircleF
4315 4091 CircleF
4375 4091 CircleF
4375 4091 CircleF
4435 4091 CircleF
4435 4091 CircleF
4495 4091 CircleF
4495 4091 CircleF
4555 4091 CircleF
4555 4182 CircleF
4614 4182 CircleF
4614 4182 CircleF
4674 4182 CircleF
4674 4182 CircleF
4734 4182 CircleF
4734 4182 CircleF
4794 4182 CircleF
4794 4182 CircleF
4854 4182 CircleF
4854 4182 CircleF
4913 4182 CircleF
4913 4182 CircleF
4973 4182 CircleF
4973 4182 CircleF
5033 4182 CircleF
5033 4182 CircleF
5093 4182 CircleF
5093 4182 CircleF
5153 4182 CircleF
5153 4182 CircleF
5213 4182 CircleF
5213 4320 CircleF
5272 4320 CircleF
5272 4366 CircleF
5332 4366 CircleF
5332 4366 CircleF
5392 4366 CircleF
5392 4366 CircleF
5452 4366 CircleF
5452 4366 CircleF
5512 4366 CircleF
5512 4550 CircleF
5571 4550 CircleF
5571 4550 CircleF
5631 4550 CircleF
5631 4641 CircleF
5691 4641 CircleF
5691 4641 CircleF
5751 4641 CircleF
5751 4641 CircleF
5811 4641 CircleF
5811 4687 CircleF
5870 4687 CircleF
5870 4687 CircleF
5930 4687 CircleF
5930 4687 CircleF
5990 4687 CircleF
5990 4687 CircleF
6050 4687 CircleF
6050 4779 CircleF
6110 4779 CircleF
6110 4779 CircleF
6169 4779 CircleF
6827 4825 CircleF
6887 4825 CircleF
6169 4825 CircleF
6229 4825 CircleF
6229 4825 CircleF
6289 4825 CircleF
6289 4825 CircleF
6349 4825 CircleF
6349 4825 CircleF
6409 4825 CircleF
6409 4825 CircleF
6469 4825 CircleF
6469 4825 CircleF
6528 4825 CircleF
6528 4825 CircleF
6588 4825 CircleF
6588 4825 CircleF
6648 4825 CircleF
6648 4825 CircleF
6708 4825 CircleF
6708 4825 CircleF
6768 4825 CircleF
6768 4825 CircleF
6827 4825 CircleF
1026 372 CircleF
1026 418 CircleF
1026 418 CircleF
1026 464 CircleF
1026 464 CircleF
1026 510 CircleF
1026 510 CircleF
1026 555 CircleF
1026 555 CircleF
1026 601 CircleF
1086 601 CircleF
1086 647 CircleF
1086 647 CircleF
1086 693 CircleF
1086 693 CircleF
1086 739 CircleF
1086 739 CircleF
1086 785 CircleF
1086 785 CircleF
1086 831 CircleF
1086 831 CircleF
1086 877 CircleF
1145 877 CircleF
1145 923 CircleF
1145 923 CircleF
1145 969 CircleF
1385 969 CircleF
1385 1015 CircleF
1385 1015 CircleF
1385 1060 CircleF
1385 1060 CircleF
1385 1106 CircleF
1385 1106 CircleF
1385 1152 CircleF
1504 1152 CircleF
1504 1198 CircleF
1504 1198 CircleF
1504 1244 CircleF
1504 1244 CircleF
1504 1290 CircleF
1564 1290 CircleF
1564 1336 CircleF
1564 1336 CircleF
1564 1382 CircleF
1744 1382 CircleF
1744 1428 CircleF
1744 1428 CircleF
1744 1474 CircleF
1744 1474 CircleF
1744 1520 CircleF
1744 1520 CircleF
1744 1565 CircleF
1744 1565 CircleF
1744 1611 CircleF
1744 1611 CircleF
1744 1657 CircleF
1744 1657 CircleF
1744 1703 CircleF
1744 1703 CircleF
1744 1749 CircleF
1744 1749 CircleF
1744 1795 CircleF
1803 1795 CircleF
1803 1841 CircleF
1803 1841 CircleF
1803 1887 CircleF
2222 1887 CircleF
2222 1933 CircleF
2401 1933 CircleF
2401 1979 CircleF
2401 1979 CircleF
2401 2025 CircleF
2401 2025 CircleF
2401 2070 CircleF
2401 2070 CircleF
2401 2116 CircleF
2401 2116 CircleF
2401 2162 CircleF
2461 2162 CircleF
2461 2208 CircleF
2461 2208 CircleF
2461 2254 CircleF
2461 2254 CircleF
2461 2300 CircleF
2521 2300 CircleF
2521 2346 CircleF
2521 2346 CircleF
2521 2392 CircleF
2641 2392 CircleF
2641 2438 CircleF
2641 2438 CircleF
2641 2484 CircleF
2700 2484 CircleF
2700 2530 CircleF
2760 2530 CircleF
2760 2576 CircleF
2760 2576 CircleF
2760 2621 CircleF
2760 2621 CircleF
2760 2667 CircleF
2760 2667 CircleF
2760 2713 CircleF
2760 2713 CircleF
2760 2759 CircleF
2760 2759 CircleF
2760 2805 CircleF
2760 2805 CircleF
2760 2851 CircleF
3000 2851 CircleF
3000 2897 CircleF
3000 2897 CircleF
3000 2943 CircleF
3000 2943 CircleF
3000 2989 CircleF
3000 2989 CircleF
3000 3035 CircleF
3000 3035 CircleF
3000 3081 CircleF
3059 3081 CircleF
3059 3126 CircleF
3059 3126 CircleF
3059 3172 CircleF
3059 3172 CircleF
3059 3218 CircleF
3179 3218 CircleF
3179 3264 CircleF
3179 3264 CircleF
3179 3310 CircleF
3179 3310 CircleF
3179 3356 CircleF
3179 3356 CircleF
3179 3402 CircleF
3179 3402 CircleF
3179 3448 CircleF
3179 3448 CircleF
3179 3494 CircleF
3179 3494 CircleF
3179 3540 CircleF
3179 3540 CircleF
3179 3586 CircleF
3717 3586 CircleF
3717 3631 CircleF
3717 3631 CircleF
3717 3677 CircleF
3717 3677 CircleF
3717 3723 CircleF
3717 3723 CircleF
3717 3769 CircleF
3837 3769 CircleF
3837 3815 CircleF
3957 3815 CircleF
3957 3861 CircleF
3957 3861 CircleF
3957 3907 CircleF
4016 3907 CircleF
4016 3953 CircleF
4136 3953 CircleF
4136 3999 CircleF
4136 3999 CircleF
4136 4045 CircleF
4136 4045 CircleF
4136 4091 CircleF
4555 4091 CircleF
4555 4136 CircleF
4555 4136 CircleF
4555 4182 CircleF
5213 4182 CircleF
5213 4228 CircleF
5213 4228 CircleF
5213 4274 CircleF
5213 4274 CircleF
5213 4320 CircleF
5272 4320 CircleF
5272 4366 CircleF
5512 4366 CircleF
5512 4412 CircleF
5512 4412 CircleF
5512 4458 CircleF
5512 4458 CircleF
5512 4504 CircleF
5512 4504 CircleF
5512 4550 CircleF
5631 4550 CircleF
5631 4596 CircleF
5631 4596 CircleF
5631 4641 CircleF
5811 4641 CircleF
5811 4687 CircleF
6050 4687 CircleF
6050 4733 CircleF
6050 4733 CircleF
6050 4779 CircleF
6169 4779 CircleF
6169 4825 CircleF
966 280 CircleF
966 326 CircleF
966 326 CircleF
966 372 CircleF
% End plot #1
% Begin plot #2
1.500 UP
2.000 UL
LT0
1.00 0.55 0.00 C /Helvetica findfont 140 scalefont setfont
1045 2658 M
60 46 V
762 757 R
60 46 V
2367 212 R
60 46 V
3386 2236 M
60 46 V
6781 619 M
59 46 V
4515 2853 M
60 46 V
5301 687 M
60 46 V
1704 1752 M
60 46 V
2166 513 R
60 46 V
1285 4642 M
60 46 V
6073 837 M
60 46 V
4673 2125 M
59 45 V
2704 951 M
60 46 V
5470 4340 M
60 46 V
5467 740 M
60 46 V
1090 3430 M
60 45 V
4012 2775 M
60 46 V
5161 1867 M
60 46 V
5853 629 M
60 46 V
3710 2188 M
60 46 V
1565 4033 M
60 46 V
1249 1649 M
60 46 V
3911 2895 M
60 46 V
4620 759 M
60 46 V
6108 3831 M
60 46 V
2171 2562 M
60 46 V
5414 1291 M
59 46 V
3349 2267 M
60 46 V
4810 3361 M
60 46 V
3577 2041 M
60 46 V
1896 4478 M
60 46 V
5785 3797 M
60 46 V
-1262 93 R
60 46 V
6151 2175 M
60 46 V
2470 3263 M
60 46 V
3137 98 R
60 46 V
5271 4564 M
59 45 V
3101 3505 M
59 46 V
2404 1480 M
59 46 V
1427 3456 M
60 46 V
27 1025 R
60 46 V
3707 3001 M
60 46 V
6470 400 M
60 46 V
5199 4290 M
60 46 V
6179 2219 M
60 46 V
5795 1025 M
60 46 V
4423 4067 M
60 45 V
5276 3101 M
59 46 V
2224 3724 M
60 46 V
3227 1200 M
59 46 V
1164 473 M
60 46 V
521 1672 R
60 46 V
6388 4148 M
60 46 V
stroke 6448 4194 M
2393 2151 M
59 45 V
858 353 R
60 46 V
6504 3797 M
60 45 V
3087 1924 M
60 46 V
4454 4061 M
60 46 V
5169 2098 M
59 45 V
4935 4404 M
60 46 V
6116 3055 M
60 46 V
3084 2750 M
60 46 V
550 1399 R
59 46 V
5038 1102 M
60 46 V
6312 4356 M
60 46 V
2627 4237 M
60 46 V
5194 1938 M
60 46 V
2102 1887 M
60 46 V
3235 1556 M
60 45 V
5942 4186 M
59 46 V
5952 353 M
60 46 V
1980 1850 M
60 46 V
4615 4544 M
59 46 V
5394 2469 M
60 46 V
-443 1 R
59 46 V
3332 3567 M
60 46 V
3359 693 R
60 46 V
2652 2448 M
60 46 V
3189 1259 M
60 46 V
2939 2449 M
60 46 V
2665 4732 M
60 46 V
2141 314 M
59 46 V
6198 3393 M
60 46 V
1236 806 M
60 46 V
4171 483 M
59 46 V
1466 2738 M
59 46 V
5233 1983 M
60 46 V
3392 2613 M
60 45 V
520 -910 R
59 46 V
2789 639 M
59 46 V
1723 2130 M
60 46 V
-23 271 R
60 46 V
3540 922 R
60 46 V
5575 1584 M
60 46 V
3864 3779 M
60 45 V
2097 4683 M
59 46 V
3899 3802 M
59 46 V
2781 4595 M
60 46 V
1851 667 M
60 46 V
1683 484 M
60 46 V
4867 2777 M
60 46 V
5671 1751 M
60 46 V
-240 113 R
60 45 V
1685 386 M
60 45 V
2935 1754 M
60 46 V
stroke 2995 1800 M
5445 4730 M
60 46 V
3370 4359 M
59 46 V
1263 4106 M
60 46 V
5293 1998 M
60 46 V
4685 3264 M
60 46 V
2834 4518 M
60 46 V
1549 3407 M
60 46 V
4093 1976 M
60 46 V
6684 1036 M
60 46 V
1612 2909 M
60 46 V
3565 1399 M
60 46 V
592 532 R
60 46 V
6648 1119 M
60 46 V
1309 2803 M
60 46 V
3088 2472 M
59 46 V
660 1445 R
60 45 V
4156 1744 M
60 46 V
998 227 R
60 46 V
5097 1729 M
60 46 V
1614 2546 M
60 46 V
4758 752 M
60 45 V
2902 2441 M
60 46 V
2122 3884 M
59 46 V
5402 2285 M
59 46 V
1091 3174 M
60 46 V
4295 2291 M
60 46 V
1055 2700 M
60 46 V
6087 1628 M
60 46 V
110 -512 R
59 46 V
2344 2788 M
60 46 V
4564 2461 M
60 46 V
3391 4491 M
60 46 V
97 -3472 R
60 46 V
5629 332 M
60 46 V
3092 4522 M
60 46 V
1029 591 M
60 46 V
5219 512 R
60 46 V
2587 1476 M
60 46 V
6705 3796 M
60 46 V
2631 4338 M
60 46 V
6355 3676 M
60 46 V
5318 4228 M
59 46 V
1094 2169 M
60 46 V
6433 1423 M
59 45 V
1786 1009 M
59 46 V
5272 4064 M
60 46 V
2916 2889 M
60 46 V
3364 790 R
60 46 V
215 263 R
60 46 V
3752 4051 M
60 46 V
3624 982 M
59 46 V
2174 1813 M
60 46 V
stroke 2234 1859 M
1481 3547 M
60 46 V
1367 988 R
60 46 V
1906 3745 M
60 46 V
3506 2382 M
60 46 V
5133 1929 M
59 46 V
1757 4508 M
60 46 V
4906 4088 M
60 45 V
-946 409 R
59 46 V
4225 2934 M
59 46 V
5666 2199 M
59 46 V
1111 3921 M
60 46 V
4379 2375 M
59 46 V
6271 878 M
60 46 V
2502 2288 M
60 46 V
4413 4378 M
59 46 V
5528 753 M
60 45 V
2783 509 M
59 46 V
2353 357 M
60 46 V
304 2284 R
59 46 V
1362 1698 M
60 46 V
5376 4692 M
60 46 V
4899 1202 M
60 46 V
2486 793 M
60 46 V
6732 979 M
59 46 V
4972 559 M
60 46 V
2854 2808 M
59 46 V
5534 3879 M
60 46 V
2704 1813 M
59 46 V
1675 3493 M
60 46 V
601 221 R
60 46 V
3520 2002 M
60 46 V
-723 975 R
60 46 V
2952 940 R
59 46 V
3364 4333 M
60 46 V
1540 1922 M
60 46 V
2043 -11 R
60 46 V
2576 3656 M
60 46 V
4879 2988 M
60 46 V
1982 3913 M
60 45 V
3891 653 M
60 46 V
6444 3572 M
60 46 V
-1859 33 R
60 46 V
3915 592 M
60 46 V
1716 1388 M
60 46 V
-194 496 R
60 46 V
1232 4487 M
60 46 V
4422 3516 M
60 46 V
981 368 M
59 46 V
6155 3062 M
60 46 V
5913 1068 M
59 46 V
5134 3207 M
60 46 V
264 -740 R
60 46 V
stroke 5518 2559 M
3306 1933 M
59 46 V
4675 977 M
59 46 V
993 2542 M
59 46 V
2570 1590 M
60 46 V
771 192 R
60 46 V
5088 1471 M
60 46 V
-407 585 R
59 46 V
6018 4590 M
60 46 V
4455 3660 M
60 45 V
3804 3173 M
59 46 V
6704 1372 M
60 46 V
5616 894 M
60 45 V
1390 3217 M
59 46 V
2863 2308 M
60 46 V
4057 4299 M
59 46 V
3203 654 M
60 46 V
5762 4605 M
60 46 V
1929 4100 M
60 46 V
1696 3881 M
60 46 V
5443 3115 M
60 46 V
4161 4325 M
60 46 V
5476 2155 M
60 46 V
4497 4095 M
59 46 V
6800 2915 M
60 45 V
4172 382 M
60 46 V
977 1041 R
60 46 V
597 2109 R
60 46 V
-274 -1 R
60 46 V
3522 3891 M
60 46 V
2072 1407 M
60 46 V
3214 4233 M
60 45 V
2932 147 R
60 46 V
3800 3391 M
60 46 V
5712 2500 M
60 46 V
803 456 R
60 45 V
4352 1884 M
60 46 V
-1572 90 R
59 46 V
596 -195 R
60 46 V
1217 293 R
60 46 V
2354 1911 M
60 46 V
499 2245 R
60 45 V
1500 1168 M
59 46 V
5392 2950 M
60 46 V
922 1007 R
59 46 V
4685 1709 M
60 46 V
901 2287 R
60 45 V
3668 3724 M
60 46 V
1284 3143 M
59 46 V
5760 742 M
60 45 V
6706 471 M
59 46 V
2654 3737 M
60 46 V
1114 929 M
59 45 V
stroke 1173 974 M
4562 4658 M
59 46 V
336 -856 R
59 46 V
5895 1347 M
60 46 V
3843 2029 M
60 46 V
276 1807 R
60 46 V
4829 1606 M
60 46 V
6285 3791 M
60 46 V
4205 3418 M
60 46 V
5294 335 M
60 46 V
5045 633 M
59 46 V
997 3262 R
60 46 V
6641 767 M
60 46 V
6192 3984 M
60 46 V
4774 4398 M
60 46 V
5869 511 M
60 46 V
443 1448 R
60 46 V
4550 3242 M
60 46 V
2628 4267 M
60 46 V
2921 693 M
60 46 V
4189 294 M
60 46 V
281 1890 R
59 46 V
1815 1060 M
59 46 V
4745 406 R
60 46 V
4814 3390 M
60 46 V
2715 1991 M
60 46 V
2052 3923 M
59 46 V
6149 2562 M
60 46 V
-3936 12 R
60 46 V
3861 911 R
60 46 V
2591 2385 M
60 46 V
6499 4468 M
60 46 V
2750 1076 M
59 46 V
4667 2454 M
60 46 V
-2837 -6 R
59 45 V
1054 810 M
60 46 V
752 723 R
59 46 V
1882 946 R
60 46 V
-952 193 R
59 46 V
1568 2476 M
60 45 V
2155 342 R
59 46 V
1366 2814 M
59 46 V
2538 863 R
60 46 V
1306 927 M
60 46 V
4487 2223 M
60 46 V
1876 2226 M
59 46 V
3772 3318 M
60 46 V
2124 2953 M
60 46 V
4340 855 R
60 46 V
1315 3347 M
60 46 V
5013 1186 M
59 46 V
3490 2496 M
60 46 V
1541 1278 M
60 46 V
stroke 1601 1324 M
4114 2809 M
60 46 V
5382 1332 M
60 46 V
3339 4585 M
60 46 V
4864 4260 M
60 46 V
4088 1248 M
60 46 V
5448 3184 M
60 46 V
6647 2972 M
60 46 V
3196 843 M
60 45 V
2752 4010 M
60 46 V
3679 806 M
60 46 V
-994 889 R
60 45 V
5945 4174 M
59 46 V
2087 1410 M
59 46 V
1429 3374 M
60 45 V
2509 1775 M
60 46 V
1517 894 R
60 46 V
-822 991 R
60 46 V
2924 1544 M
59 46 V
2333 518 R
60 46 V
-341 671 R
60 46 V
3078 886 M
60 46 V
424 655 R
60 46 V
2424 3558 M
59 46 V
4911 2719 M
60 46 V
2297 1529 M
60 46 V
5125 4246 M
60 46 V
4346 1036 M
60 46 V
3506 2504 M
60 46 V
5859 724 M
60 46 V
5167 4042 M
59 46 V
3189 3584 M
60 46 V
4414 3323 M
60 46 V
48 -666 R
60 46 V
2825 3043 M
59 46 V
5782 4643 M
60 46 V
463 -589 R
59 46 V
2948 3599 M
60 46 V
5109 4713 M
60 46 V
4642 3110 M
60 46 V
1851 2918 M
59 46 V
6086 4755 M
60 46 V
1107 2209 M
60 46 V
4320 751 R
60 46 V
1749 4083 M
59 46 V
5389 930 M
60 46 V
3209 3937 M
60 46 V
4917 3507 M
60 45 V
6102 2490 M
60 46 V
2747 2869 M
60 46 V
5629 1558 M
60 46 V
2358 3188 M
60 46 V
3400 1001 M
60 46 V
stroke 3460 1047 M
5282 3667 M
60 46 V
3278 705 M
59 46 V
4530 581 M
60 46 V
3262 4488 M
60 46 V
4541 4092 M
60 46 V
5893 492 M
60 46 V
5392 3802 M
59 46 V
3572 594 M
59 46 V
4942 3942 M
60 46 V
6268 1838 M
60 46 V
2033 3060 M
59 46 V
1575 466 R
60 46 V
6574 1430 M
60 46 V
6411 343 M
59 46 V
2880 2013 M
60 46 V
1529 1332 M
59 46 V
1334 720 M
60 46 V
6443 2892 M
60 46 V
-25 60 R
60 45 V
4950 4163 M
60 46 V
2840 4083 M
60 46 V
3441 426 M
60 46 V
6618 4127 M
60 46 V
6371 2844 M
60 46 V
5184 4219 M
60 45 V
4884 2645 M
59 45 V
6632 4103 M
60 46 V
-716 453 R
60 46 V
4127 4375 M
60 46 V
2178 338 M
60 46 V
-390 962 R
60 46 V
3525 758 R
60 46 V
2338 4643 M
60 46 V
2346 680 M
60 46 V
3787 518 R
60 46 V
1869 1018 M
59 46 V
1466 874 R
60 45 V
5656 844 M
60 46 V
4528 2715 M
60 46 V
1636 3683 M
60 46 V
3887 184 R
59 46 V
5533 1304 M
60 46 V
667 258 R
60 46 V
1205 3155 M
60 46 V
504 77 R
60 46 V
2936 161 R
60 46 V
5323 1924 M
59 46 V
137 -433 R
60 46 V
4648 3514 M
60 45 V
1348 1936 M
59 45 V
1327 703 R
60 46 V
2744 517 M
59 46 V
stroke 2803 563 M
2659 787 R
60 46 V
4137 4697 M
60 45 V
2986 614 M
60 46 V
1219 3155 M
60 46 V
1061 2585 M
60 45 V
4692 4358 M
59 45 V
1047 4551 M
59 46 V
5012 3345 M
60 46 V
3120 3288 M
60 46 V
-1663 76 R
60 46 V
459 1091 R
59 46 V
2000 3249 M
60 46 V
2417 2187 M
59 46 V
6264 1803 M
60 46 V
-281 339 R
60 46 V
5524 1549 M
60 46 V
2586 4300 M
60 46 V
2428 1724 M
60 46 V
3778 3761 M
59 46 V
1809 598 R
60 46 V
4881 735 M
60 46 V
3347 3558 M
60 46 V
1194 2570 M
59 46 V
3928 383 M
60 46 V
3600 3622 M
59 46 V
3095 481 M
60 46 V
2891 2936 M
60 45 V
1713 3485 M
60 46 V
2553 1719 M
60 46 V
1957 320 M
60 46 V
4888 4156 M
59 46 V
6258 481 M
60 46 V
5413 3313 M
60 46 V
5001 4684 M
60 46 V
4618 3441 M
59 46 V
1290 588 M
59 46 V
4571 3459 M
59 46 V
374 -197 R
60 46 V
4102 1841 M
60 46 V
2221 4160 M
60 46 V
5598 2356 M
60 46 V
1246 3664 M
60 46 V
3086 463 R
59 46 V
569 -755 R
60 46 V
2293 3811 M
60 46 V
5575 1898 M
60 46 V
1533 1762 M
60 46 V
1939 548 M
60 46 V
6722 2454 M
60 45 V
4244 4338 M
60 46 V
6626 2443 M
60 46 V
-51 2214 R
59 46 V
stroke 6694 4749 M
5278 2917 M
60 46 V
3340 2762 M
60 46 V
5860 409 M
59 46 V
64 1615 R
60 46 V
5141 4170 M
60 46 V
3641 1216 M
59 46 V
3298 3822 M
60 46 V
1717 4378 M
60 46 V
4102 4063 M
59 46 V
529 52 R
59 46 V
-3116 4 R
60 46 V
55 381 R
60 46 V
3257 2947 M
60 46 V
1606 1852 M
60 46 V
1120 3308 M
59 46 V
3012 3045 M
60 46 V
5449 4596 M
60 46 V
4732 1784 M
59 46 V
1708 4284 M
60 45 V
3685 3691 M
60 46 V
338 216 R
60 46 V
6809 1395 M
60 46 V
3178 703 M
60 46 V
4330 2068 M
60 46 V
1317 3374 M
60 45 V
1130 25 R
59 45 V
5112 4507 M
59 46 V
3908 605 M
60 46 V
546 3709 R
60 45 V
2976 1153 M
60 46 V
574 1059 R
60 46 V
1930 862 M
59 46 V
982 1928 R
60 45 V
2854 1550 M
59 45 V
602 1678 R
60 46 V
1041 2281 M
60 46 V
4184 4402 M
60 46 V
3891 3007 M
60 46 V
1549 2831 M
60 46 V
5109 2213 M
60 46 V
1178 850 R
60 46 V
1886 4696 M
60 46 V
6215 3154 M
60 46 V
46 80 R
60 46 V
5872 2190 M
59 46 V
3858 4697 M
60 46 V
6807 975 M
60 46 V
4190 2628 M
60 46 V
1388 3305 M
60 46 V
5714 1707 M
59 46 V
5035 4230 M
60 46 V
1450 505 M
60 46 V
stroke 1510 551 M
550 3199 R
60 46 V
4209 2718 M
60 46 V
3307 1776 M
60 46 V
2635 4249 M
60 46 V
3531 1669 M
60 46 V
6 -1136 R
59 46 V
-112 684 R
60 46 V
-683 266 R
60 46 V
5388 297 M
60 46 V
1944 3182 M
60 46 V
5010 1280 M
60 46 V
1901 4095 M
60 46 V
2294 2181 M
60 46 V
4451 3860 M
60 46 V
3729 302 M
60 46 V
2441 1782 M
60 46 V
1784 4659 M
60 46 V
5576 1385 M
60 46 V
718 213 R
60 46 V
2839 478 M
60 46 V
4600 1537 M
59 46 V
2615 3925 M
60 46 V
5892 3154 M
60 46 V
5615 803 M
60 46 V
2552 3299 M
60 46 V
3373 1312 M
60 45 V
795 348 R
59 46 V
1346 1117 M
59 46 V
2630 -75 R
59 46 V
5506 4515 M
60 46 V
3536 391 M
60 46 V
1278 2555 M
60 46 V
6646 2384 M
60 46 V
4992 4459 M
59 46 V
5351 2714 M
60 46 V
1909 3456 M
59 46 V
583 -474 R
59 46 V
3748 2226 M
60 46 V
3365 915 M
60 46 V
5772 2044 M
60 46 V
-4 552 R
60 46 V
1936 3339 M
60 46 V
5100 1954 M
60 46 V
1012 2782 M
59 46 V
6704 2512 M
60 46 V
-757 -2 R
60 46 V
341 -523 R
60 46 V
5602 436 M
59 45 V
501 1517 R
60 46 V
2713 4578 M
59 46 V
4470 1445 M
60 46 V
3535 437 M
60 46 V
stroke 3595 483 M
5212 3202 M
60 45 V
-1209 12 R
60 46 V
-458 802 R
60 46 V
3845 1942 M
60 46 V
2403 430 R
59 46 V
-776 368 R
60 46 V
1950 4382 M
60 46 V
2620 1680 M
59 46 V
6496 1082 M
60 46 V
4625 3420 M
60 46 V
6126 3181 M
60 46 V
3865 299 M
60 46 V
689 4185 R
59 45 V
4185 2934 M
60 45 V
395 1447 R
60 46 V
3949 2900 M
60 46 V
2739 2803 M
59 46 V
2085 2668 M
60 46 V
5956 4199 M
60 46 V
2069 4643 M
60 46 V
4558 4164 M
60 46 V
2265 1272 M
60 45 V
4045 330 R
60 46 V
6088 3176 M
60 46 V
5264 2536 M
60 45 V
724 -454 R
60 46 V
-3219 93 R
60 46 V
1045 2658 CircleF
1105 2704 CircleF
1867 3461 CircleF
1927 3507 CircleF
4294 3719 CircleF
4354 3765 CircleF
3386 2236 CircleF
3446 2282 CircleF
6781 619 CircleF
6840 665 CircleF
4515 2853 CircleF
4575 2899 CircleF
5301 687 CircleF
5361 733 CircleF
1704 1752 CircleF
1764 1798 CircleF
3930 2311 CircleF
3990 2357 CircleF
1285 4642 CircleF
1345 4688 CircleF
6073 837 CircleF
6133 883 CircleF
4673 2125 CircleF
4732 2170 CircleF
2704 951 CircleF
2764 997 CircleF
5470 4340 CircleF
5530 4386 CircleF
5467 740 CircleF
5527 786 CircleF
1090 3430 CircleF
1150 3475 CircleF
4012 2775 CircleF
4072 2821 CircleF
5161 1867 CircleF
5221 1913 CircleF
5853 629 CircleF
5913 675 CircleF
3710 2188 CircleF
3770 2234 CircleF
1565 4033 CircleF
1625 4079 CircleF
1249 1649 CircleF
1309 1695 CircleF
3911 2895 CircleF
3971 2941 CircleF
4620 759 CircleF
4680 805 CircleF
6108 3831 CircleF
6168 3877 CircleF
2171 2562 CircleF
2231 2608 CircleF
5414 1291 CircleF
5473 1337 CircleF
3349 2267 CircleF
3409 2313 CircleF
4810 3361 CircleF
4870 3407 CircleF
3577 2041 CircleF
3637 2087 CircleF
1896 4478 CircleF
1956 4524 CircleF
5785 3797 CircleF
5845 3843 CircleF
4583 3936 CircleF
4643 3982 CircleF
6151 2175 CircleF
6211 2221 CircleF
2470 3263 CircleF
2530 3309 CircleF
5667 3407 CircleF
5727 3453 CircleF
5271 4564 CircleF
5330 4609 CircleF
3101 3505 CircleF
3160 3551 CircleF
2404 1480 CircleF
2463 1526 CircleF
1427 3456 CircleF
1487 3502 CircleF
1514 4527 CircleF
1574 4573 CircleF
3707 3001 CircleF
3767 3047 CircleF
6470 400 CircleF
6530 446 CircleF
5199 4290 CircleF
5259 4336 CircleF
6179 2219 CircleF
6239 2265 CircleF
5795 1025 CircleF
5855 1071 CircleF
4423 4067 CircleF
4483 4112 CircleF
5276 3101 CircleF
5335 3147 CircleF
2224 3724 CircleF
2284 3770 CircleF
3227 1200 CircleF
3286 1246 CircleF
1164 473 CircleF
1224 519 CircleF
1745 2191 CircleF
1805 2237 CircleF
6388 4148 CircleF
6448 4194 CircleF
2393 2151 CircleF
2452 2196 CircleF
3310 2549 CircleF
3370 2595 CircleF
6504 3797 CircleF
6564 3842 CircleF
3087 1924 CircleF
3147 1970 CircleF
4454 4061 CircleF
4514 4107 CircleF
5169 2098 CircleF
5228 2143 CircleF
4935 4404 CircleF
4995 4450 CircleF
6116 3055 CircleF
6176 3101 CircleF
3084 2750 CircleF
3144 2796 CircleF
3694 4195 CircleF
3753 4241 CircleF
5038 1102 CircleF
5098 1148 CircleF
6312 4356 CircleF
6372 4402 CircleF
2627 4237 CircleF
2687 4283 CircleF
5194 1938 CircleF
5254 1984 CircleF
2102 1887 CircleF
2162 1933 CircleF
3235 1556 CircleF
3295 1601 CircleF
5942 4186 CircleF
6001 4232 CircleF
5952 353 CircleF
6012 399 CircleF
1980 1850 CircleF
2040 1896 CircleF
4615 4544 CircleF
4674 4590 CircleF
5394 2469 CircleF
5454 2515 CircleF
5011 2516 CircleF
5070 2562 CircleF
3332 3567 CircleF
3392 3613 CircleF
6751 4306 CircleF
6811 4352 CircleF
2652 2448 CircleF
2712 2494 CircleF
3189 1259 CircleF
3249 1305 CircleF
2939 2449 CircleF
2999 2495 CircleF
2665 4732 CircleF
2725 4778 CircleF
2141 314 CircleF
2200 360 CircleF
6198 3393 CircleF
6258 3439 CircleF
1236 806 CircleF
1296 852 CircleF
4171 483 CircleF
4230 529 CircleF
1466 2738 CircleF
1525 2784 CircleF
5233 1983 CircleF
5293 2029 CircleF
3392 2613 CircleF
3452 2658 CircleF
3972 1748 CircleF
4031 1794 CircleF
2789 639 CircleF
2848 685 CircleF
1723 2130 CircleF
1783 2176 CircleF
1760 2447 CircleF
1820 2493 CircleF
5360 3415 CircleF
5420 3461 CircleF
5575 1584 CircleF
5635 1630 CircleF
3864 3779 CircleF
3924 3824 CircleF
2097 4683 CircleF
2156 4729 CircleF
3899 3802 CircleF
3958 3848 CircleF
2781 4595 CircleF
2841 4641 CircleF
1851 667 CircleF
1911 713 CircleF
1683 484 CircleF
1743 530 CircleF
4867 2777 CircleF
4927 2823 CircleF
5671 1751 CircleF
5731 1797 CircleF
5491 1910 CircleF
5551 1955 CircleF
1685 386 CircleF
1745 431 CircleF
2935 1754 CircleF
2995 1800 CircleF
5445 4730 CircleF
5505 4776 CircleF
3370 4359 CircleF
3429 4405 CircleF
1263 4106 CircleF
1323 4152 CircleF
5293 1998 CircleF
5353 2044 CircleF
4685 3264 CircleF
4745 3310 CircleF
2834 4518 CircleF
2894 4564 CircleF
1549 3407 CircleF
1609 3453 CircleF
4093 1976 CircleF
4153 2022 CircleF
6684 1036 CircleF
6744 1082 CircleF
1612 2909 CircleF
1672 2955 CircleF
3565 1399 CircleF
3625 1445 CircleF
4217 1977 CircleF
4277 2023 CircleF
6648 1119 CircleF
6708 1165 CircleF
1309 2803 CircleF
1369 2849 CircleF
3088 2472 CircleF
3147 2518 CircleF
3807 3963 CircleF
3867 4008 CircleF
4156 1744 CircleF
4216 1790 CircleF
5214 2017 CircleF
5274 2063 CircleF
5097 1729 CircleF
5157 1775 CircleF
1614 2546 CircleF
1674 2592 CircleF
4758 752 CircleF
4818 797 CircleF
2902 2441 CircleF
2962 2487 CircleF
2122 3884 CircleF
2181 3930 CircleF
5402 2285 CircleF
5461 2331 CircleF
1091 3174 CircleF
1151 3220 CircleF
4295 2291 CircleF
4355 2337 CircleF
1055 2700 CircleF
1115 2746 CircleF
6087 1628 CircleF
6147 1674 CircleF
6257 1162 CircleF
6316 1208 CircleF
2344 2788 CircleF
2404 2834 CircleF
4564 2461 CircleF
4624 2507 CircleF
3391 4491 CircleF
3451 4537 CircleF
3548 1065 CircleF
3608 1111 CircleF
5629 332 CircleF
5689 378 CircleF
3092 4522 CircleF
3152 4568 CircleF
1029 591 CircleF
1089 637 CircleF
6308 1149 CircleF
6368 1195 CircleF
2587 1476 CircleF
2647 1522 CircleF
6705 3796 CircleF
6765 3842 CircleF
2631 4338 CircleF
2691 4384 CircleF
6355 3676 CircleF
6415 3722 CircleF
5318 4228 CircleF
5377 4274 CircleF
1094 2169 CircleF
1154 2215 CircleF
6433 1423 CircleF
6492 1468 CircleF
1786 1009 CircleF
1845 1055 CircleF
5272 4064 CircleF
5332 4110 CircleF
2916 2889 CircleF
2976 2935 CircleF
6340 3725 CircleF
6400 3771 CircleF
6615 4034 CircleF
6675 4080 CircleF
3752 4051 CircleF
3812 4097 CircleF
3624 982 CircleF
3683 1028 CircleF
2174 1813 CircleF
2234 1859 CircleF
1481 3547 CircleF
1541 3593 CircleF
2908 4581 CircleF
2968 4627 CircleF
1906 3745 CircleF
1966 3791 CircleF
3506 2382 CircleF
3566 2428 CircleF
5133 1929 CircleF
5192 1975 CircleF
1757 4508 CircleF
1817 4554 CircleF
4906 4088 CircleF
4966 4133 CircleF
4020 4542 CircleF
4079 4588 CircleF
4225 2934 CircleF
4284 2980 CircleF
5666 2199 CircleF
5725 2245 CircleF
1111 3921 CircleF
1171 3967 CircleF
4379 2375 CircleF
4438 2421 CircleF
6271 878 CircleF
6331 924 CircleF
2502 2288 CircleF
2562 2334 CircleF
4413 4378 CircleF
4472 4424 CircleF
5528 753 CircleF
5588 798 CircleF
2783 509 CircleF
2842 555 CircleF
2353 357 CircleF
2413 403 CircleF
2717 2687 CircleF
2776 2733 CircleF
1362 1698 CircleF
1422 1744 CircleF
5376 4692 CircleF
5436 4738 CircleF
4899 1202 CircleF
4959 1248 CircleF
2486 793 CircleF
2546 839 CircleF
6732 979 CircleF
6791 1025 CircleF
4972 559 CircleF
5032 605 CircleF
2854 2808 CircleF
2913 2854 CircleF
5534 3879 CircleF
5594 3925 CircleF
2704 1813 CircleF
2763 1859 CircleF
1675 3493 CircleF
1735 3539 CircleF
2336 3760 CircleF
2396 3806 CircleF
3520 2002 CircleF
3580 2048 CircleF
2857 3023 CircleF
2917 3069 CircleF
5869 4009 CircleF
5928 4055 CircleF
3364 4333 CircleF
3424 4379 CircleF
1540 1922 CircleF
1600 1968 CircleF
3643 1957 CircleF
3703 2003 CircleF
2576 3656 CircleF
2636 3702 CircleF
4879 2988 CircleF
4939 3034 CircleF
1982 3913 CircleF
2042 3958 CircleF
3891 653 CircleF
3951 699 CircleF
6444 3572 CircleF
6504 3618 CircleF
4645 3651 CircleF
4705 3697 CircleF
3915 592 CircleF
3975 638 CircleF
1716 1388 CircleF
1776 1434 CircleF
1582 1930 CircleF
1642 1976 CircleF
1232 4487 CircleF
1292 4533 CircleF
4422 3516 CircleF
4482 3562 CircleF
981 368 CircleF
1040 414 CircleF
6155 3062 CircleF
6215 3108 CircleF
5913 1068 CircleF
5972 1114 CircleF
5134 3207 CircleF
5194 3253 CircleF
5458 2513 CircleF
5518 2559 CircleF
3306 1933 CircleF
3365 1979 CircleF
4675 977 CircleF
4734 1023 CircleF
993 2542 CircleF
1052 2588 CircleF
2570 1590 CircleF
2630 1636 CircleF
3401 1828 CircleF
3461 1874 CircleF
5088 1471 CircleF
5148 1517 CircleF
4741 2102 CircleF
4800 2148 CircleF
6018 4590 CircleF
6078 4636 CircleF
4455 3660 CircleF
4515 3705 CircleF
3804 3173 CircleF
3863 3219 CircleF
6704 1372 CircleF
6764 1418 CircleF
5616 894 CircleF
5676 939 CircleF
1390 3217 CircleF
1449 3263 CircleF
2863 2308 CircleF
2923 2354 CircleF
4057 4299 CircleF
4116 4345 CircleF
3203 654 CircleF
3263 700 CircleF
5762 4605 CircleF
5822 4651 CircleF
1929 4100 CircleF
1989 4146 CircleF
1696 3881 CircleF
1756 3927 CircleF
5443 3115 CircleF
5503 3161 CircleF
4161 4325 CircleF
4221 4371 CircleF
5476 2155 CircleF
5536 2201 CircleF
4497 4095 CircleF
4556 4141 CircleF
6800 2915 CircleF
6860 2960 CircleF
4172 382 CircleF
4232 428 CircleF
5209 1469 CircleF
5269 1515 CircleF
5866 3624 CircleF
5926 3670 CircleF
5652 3669 CircleF
5712 3715 CircleF
3522 3891 CircleF
3582 3937 CircleF
2072 1407 CircleF
2132 1453 CircleF
3214 4233 CircleF
3274 4278 CircleF
6206 4425 CircleF
6266 4471 CircleF
3800 3391 CircleF
3860 3437 CircleF
5712 2500 CircleF
5772 2546 CircleF
6575 3002 CircleF
6635 3047 CircleF
4352 1884 CircleF
4412 1930 CircleF
2840 2020 CircleF
2899 2066 CircleF
3495 1871 CircleF
3555 1917 CircleF
4772 2210 CircleF
4832 2256 CircleF
2354 1911 CircleF
2414 1957 CircleF
2913 4202 CircleF
2973 4247 CircleF
1500 1168 CircleF
1559 1214 CircleF
5392 2950 CircleF
5452 2996 CircleF
6374 4003 CircleF
6433 4049 CircleF
4685 1709 CircleF
4745 1755 CircleF
5646 4042 CircleF
5706 4087 CircleF
3668 3724 CircleF
3728 3770 CircleF
1284 3143 CircleF
1343 3189 CircleF
5760 742 CircleF
5820 787 CircleF
6706 471 CircleF
6765 517 CircleF
2654 3737 CircleF
2714 3783 CircleF
1114 929 CircleF
1173 974 CircleF
4562 4658 CircleF
4621 4704 CircleF
4957 3848 CircleF
5016 3894 CircleF
5895 1347 CircleF
5955 1393 CircleF
3843 2029 CircleF
3903 2075 CircleF
4179 3882 CircleF
4239 3928 CircleF
4829 1606 CircleF
4889 1652 CircleF
6285 3791 CircleF
6345 3837 CircleF
4205 3418 CircleF
4265 3464 CircleF
5294 335 CircleF
5354 381 CircleF
5045 633 CircleF
5104 679 CircleF
6101 3941 CircleF
6161 3987 CircleF
6641 767 CircleF
6701 813 CircleF
6192 3984 CircleF
6252 4030 CircleF
4774 4398 CircleF
4834 4444 CircleF
5869 511 CircleF
5929 557 CircleF
6372 2005 CircleF
6432 2051 CircleF
4550 3242 CircleF
4610 3288 CircleF
2628 4267 CircleF
2688 4313 CircleF
2921 693 CircleF
2981 739 CircleF
4189 294 CircleF
4249 340 CircleF
4530 2230 CircleF
4589 2276 CircleF
1815 1060 CircleF
1874 1106 CircleF
6619 1512 CircleF
6679 1558 CircleF
4814 3390 CircleF
4874 3436 CircleF
2715 1991 CircleF
2775 2037 CircleF
2052 3923 CircleF
2111 3969 CircleF
6149 2562 CircleF
6209 2608 CircleF
2273 2620 CircleF
2333 2666 CircleF
6194 3577 CircleF
6254 3623 CircleF
2591 2385 CircleF
2651 2431 CircleF
6499 4468 CircleF
6559 4514 CircleF
2750 1076 CircleF
2809 1122 CircleF
4667 2454 CircleF
4727 2500 CircleF
1890 2494 CircleF
1949 2539 CircleF
1054 810 CircleF
1114 856 CircleF
1866 1579 CircleF
1925 1625 CircleF
3807 2571 CircleF
3867 2617 CircleF
2915 2810 CircleF
2974 2856 CircleF
1568 2476 CircleF
1628 2521 CircleF
3783 2863 CircleF
3842 2909 CircleF
1366 2814 CircleF
1425 2860 CircleF
3963 3723 CircleF
4023 3769 CircleF
1306 927 CircleF
1366 973 CircleF
4487 2223 CircleF
4547 2269 CircleF
1876 2226 CircleF
1935 2272 CircleF
3772 3318 CircleF
3832 3364 CircleF
2124 2953 CircleF
2184 2999 CircleF
6524 3854 CircleF
6584 3900 CircleF
1315 3347 CircleF
1375 3393 CircleF
5013 1186 CircleF
5072 1232 CircleF
3490 2496 CircleF
3550 2542 CircleF
1541 1278 CircleF
1601 1324 CircleF
4114 2809 CircleF
4174 2855 CircleF
5382 1332 CircleF
5442 1378 CircleF
3339 4585 CircleF
3399 4631 CircleF
4864 4260 CircleF
4924 4306 CircleF
4088 1248 CircleF
4148 1294 CircleF
5448 3184 CircleF
5508 3230 CircleF
6647 2972 CircleF
6707 3018 CircleF
3196 843 CircleF
3256 888 CircleF
2752 4010 CircleF
2812 4056 CircleF
3679 806 CircleF
3739 852 CircleF
2745 1741 CircleF
2805 1786 CircleF
5945 4174 CircleF
6004 4220 CircleF
2087 1410 CircleF
2146 1456 CircleF
1429 3374 CircleF
1489 3419 CircleF
2509 1775 CircleF
2569 1821 CircleF
4086 2715 CircleF
4146 2761 CircleF
3324 3752 CircleF
3384 3798 CircleF
2924 1544 CircleF
2983 1590 CircleF
5316 2108 CircleF
5376 2154 CircleF
5035 2825 CircleF
5095 2871 CircleF
3078 886 CircleF
3138 932 CircleF
3562 1587 CircleF
3622 1633 CircleF
2424 3558 CircleF
2483 3604 CircleF
4911 2719 CircleF
4971 2765 CircleF
2297 1529 CircleF
2357 1575 CircleF
5125 4246 CircleF
5185 4292 CircleF
4346 1036 CircleF
4406 1082 CircleF
3506 2504 CircleF
3566 2550 CircleF
5859 724 CircleF
5919 770 CircleF
5167 4042 CircleF
5226 4088 CircleF
3189 3584 CircleF
3249 3630 CircleF
4414 3323 CircleF
4474 3369 CircleF
4522 2703 CircleF
4582 2749 CircleF
2825 3043 CircleF
2884 3089 CircleF
5782 4643 CircleF
5842 4689 CircleF
6305 4100 CircleF
6364 4146 CircleF
2948 3599 CircleF
3008 3645 CircleF
5109 4713 CircleF
5169 4759 CircleF
4642 3110 CircleF
4702 3156 CircleF
1851 2918 CircleF
1910 2964 CircleF
6086 4755 CircleF
6146 4801 CircleF
1107 2209 CircleF
1167 2255 CircleF
5487 3006 CircleF
5547 3052 CircleF
1749 4083 CircleF
1808 4129 CircleF
5389 930 CircleF
5449 976 CircleF
3209 3937 CircleF
3269 3983 CircleF
4917 3507 CircleF
4977 3552 CircleF
6102 2490 CircleF
6162 2536 CircleF
2747 2869 CircleF
2807 2915 CircleF
5629 1558 CircleF
5689 1604 CircleF
2358 3188 CircleF
2418 3234 CircleF
3400 1001 CircleF
3460 1047 CircleF
5282 3667 CircleF
5342 3713 CircleF
3278 705 CircleF
3337 751 CircleF
4530 581 CircleF
4590 627 CircleF
3262 4488 CircleF
3322 4534 CircleF
4541 4092 CircleF
4601 4138 CircleF
5893 492 CircleF
5953 538 CircleF
5392 3802 CircleF
5451 3848 CircleF
3572 594 CircleF
3631 640 CircleF
4942 3942 CircleF
5002 3988 CircleF
6268 1838 CircleF
6328 1884 CircleF
2033 3060 CircleF
2092 3106 CircleF
3667 3572 CircleF
3727 3618 CircleF
6574 1430 CircleF
6634 1476 CircleF
6411 343 CircleF
6470 389 CircleF
2880 2013 CircleF
2940 2059 CircleF
1529 1332 CircleF
1588 1378 CircleF
1334 720 CircleF
1394 766 CircleF
6443 2892 CircleF
6503 2938 CircleF
6478 2998 CircleF
6538 3043 CircleF
4950 4163 CircleF
5010 4209 CircleF
2840 4083 CircleF
2900 4129 CircleF
3441 426 CircleF
3501 472 CircleF
6618 4127 CircleF
6678 4173 CircleF
6371 2844 CircleF
6431 2890 CircleF
5184 4219 CircleF
5244 4264 CircleF
4884 2645 CircleF
4943 2690 CircleF
6632 4103 CircleF
6692 4149 CircleF
5976 4602 CircleF
6036 4648 CircleF
4127 4375 CircleF
4187 4421 CircleF
2178 338 CircleF
2238 384 CircleF
1848 1346 CircleF
1908 1392 CircleF
5433 2150 CircleF
5493 2196 CircleF
2338 4643 CircleF
2398 4689 CircleF
2346 680 CircleF
2406 726 CircleF
6193 1244 CircleF
6253 1290 CircleF
1869 1018 CircleF
1928 1064 CircleF
3394 1938 CircleF
3454 1983 CircleF
5656 844 CircleF
5716 890 CircleF
4528 2715 CircleF
4588 2761 CircleF
1636 3683 CircleF
1696 3729 CircleF
5583 3913 CircleF
5642 3959 CircleF
5533 1304 CircleF
5593 1350 CircleF
6260 1608 CircleF
6320 1654 CircleF
1205 3155 CircleF
1265 3201 CircleF
1769 3278 CircleF
1829 3324 CircleF
4765 3485 CircleF
4825 3531 CircleF
5323 1924 CircleF
5382 1970 CircleF
5519 1537 CircleF
5579 1583 CircleF
4648 3514 CircleF
4708 3559 CircleF
1348 1936 CircleF
1407 1981 CircleF
2734 2684 CircleF
2794 2730 CircleF
2744 517 CircleF
2803 563 CircleF
5462 1350 CircleF
5522 1396 CircleF
4137 4697 CircleF
4197 4742 CircleF
2986 614 CircleF
3046 660 CircleF
1219 3155 CircleF
1279 3201 CircleF
1061 2585 CircleF
1121 2630 CircleF
4692 4358 CircleF
4751 4403 CircleF
1047 4551 CircleF
1106 4597 CircleF
5012 3345 CircleF
5072 3391 CircleF
3120 3288 CircleF
3180 3334 CircleF
1517 3410 CircleF
1577 3456 CircleF
2036 4547 CircleF
2095 4593 CircleF
2000 3249 CircleF
2060 3295 CircleF
2417 2187 CircleF
2476 2233 CircleF
6264 1803 CircleF
6324 1849 CircleF
6043 2188 CircleF
6103 2234 CircleF
5524 1549 CircleF
5584 1595 CircleF
2586 4300 CircleF
2646 4346 CircleF
2428 1724 CircleF
2488 1770 CircleF
3778 3761 CircleF
3837 3807 CircleF
5646 4405 CircleF
5706 4451 CircleF
4881 735 CircleF
4941 781 CircleF
3347 3558 CircleF
3407 3604 CircleF
1194 2570 CircleF
1253 2616 CircleF
3928 383 CircleF
3988 429 CircleF
3600 3622 CircleF
3659 3668 CircleF
3095 481 CircleF
3155 527 CircleF
2891 2936 CircleF
2951 2981 CircleF
1713 3485 CircleF
1773 3531 CircleF
2553 1719 CircleF
2613 1765 CircleF
1957 320 CircleF
2017 366 CircleF
4888 4156 CircleF
4947 4202 CircleF
6258 481 CircleF
6318 527 CircleF
5413 3313 CircleF
5473 3359 CircleF
5001 4684 CircleF
5061 4730 CircleF
4618 3441 CircleF
4677 3487 CircleF
1290 588 CircleF
1349 634 CircleF
4571 3459 CircleF
4630 3505 CircleF
5004 3308 CircleF
5064 3354 CircleF
4102 1841 CircleF
4162 1887 CircleF
2221 4160 CircleF
2281 4206 CircleF
5598 2356 CircleF
5658 2402 CircleF
1246 3664 CircleF
1306 3710 CircleF
4392 4173 CircleF
4451 4219 CircleF
5020 3464 CircleF
5080 3510 CircleF
2293 3811 CircleF
2353 3857 CircleF
5575 1898 CircleF
5635 1944 CircleF
1533 1762 CircleF
1593 1808 CircleF
1939 548 CircleF
1999 594 CircleF
6722 2454 CircleF
6782 2499 CircleF
4244 4338 CircleF
4304 4384 CircleF
6626 2443 CircleF
6686 2489 CircleF
6635 4703 CircleF
6694 4749 CircleF
5278 2917 CircleF
5338 2963 CircleF
3340 2762 CircleF
3400 2808 CircleF
5860 409 CircleF
5919 455 CircleF
5983 2070 CircleF
6043 2116 CircleF
5141 4170 CircleF
5201 4216 CircleF
3641 1216 CircleF
3700 1262 CircleF
3298 3822 CircleF
3358 3868 CircleF
1717 4378 CircleF
1777 4424 CircleF
4102 4063 CircleF
4161 4109 CircleF
4690 4161 CircleF
4749 4207 CircleF
1633 4211 CircleF
1693 4257 CircleF
1748 4638 CircleF
1808 4684 CircleF
3257 2947 CircleF
3317 2993 CircleF
1606 1852 CircleF
1666 1898 CircleF
1120 3308 CircleF
1179 3354 CircleF
3012 3045 CircleF
3072 3091 CircleF
5449 4596 CircleF
5509 4642 CircleF
4732 1784 CircleF
4791 1830 CircleF
1708 4284 CircleF
1768 4329 CircleF
3685 3691 CircleF
3745 3737 CircleF
4083 3953 CircleF
4143 3999 CircleF
6809 1395 CircleF
6869 1441 CircleF
3178 703 CircleF
3238 749 CircleF
4330 2068 CircleF
4390 2114 CircleF
1317 3374 CircleF
1377 3419 CircleF
2507 3444 CircleF
2566 3489 CircleF
5112 4507 CircleF
5171 4553 CircleF
3908 605 CircleF
3968 651 CircleF
4514 4360 CircleF
4574 4405 CircleF
2976 1153 CircleF
3036 1199 CircleF
3610 2258 CircleF
3670 2304 CircleF
1930 862 CircleF
1989 908 CircleF
2971 2836 CircleF
3031 2881 CircleF
2854 1550 CircleF
2913 1595 CircleF
3515 3273 CircleF
3575 3319 CircleF
1041 2281 CircleF
1101 2327 CircleF
4184 4402 CircleF
4244 4448 CircleF
3891 3007 CircleF
3951 3053 CircleF
1549 2831 CircleF
1609 2877 CircleF
5109 2213 CircleF
5169 2259 CircleF
6347 3109 CircleF
6407 3155 CircleF
1886 4696 CircleF
1946 4742 CircleF
6215 3154 CircleF
6275 3200 CircleF
6321 3280 CircleF
6381 3326 CircleF
5872 2190 CircleF
5931 2236 CircleF
3858 4697 CircleF
3918 4743 CircleF
6807 975 CircleF
6867 1021 CircleF
4190 2628 CircleF
4250 2674 CircleF
1388 3305 CircleF
1448 3351 CircleF
5714 1707 CircleF
5773 1753 CircleF
5035 4230 CircleF
5095 4276 CircleF
1450 505 CircleF
1510 551 CircleF
2060 3750 CircleF
2120 3796 CircleF
4209 2718 CircleF
4269 2764 CircleF
3307 1776 CircleF
3367 1822 CircleF
2635 4249 CircleF
2695 4295 CircleF
3531 1669 CircleF
3591 1715 CircleF
3597 579 CircleF
3656 625 CircleF
3544 1309 CircleF
3604 1355 CircleF
2921 1621 CircleF
2981 1667 CircleF
5388 297 CircleF
5448 343 CircleF
1944 3182 CircleF
2004 3228 CircleF
5010 1280 CircleF
5070 1326 CircleF
1901 4095 CircleF
1961 4141 CircleF
2294 2181 CircleF
2354 2227 CircleF
4451 3860 CircleF
4511 3906 CircleF
3729 302 CircleF
3789 348 CircleF
2441 1782 CircleF
2501 1828 CircleF
1784 4659 CircleF
1844 4705 CircleF
5576 1385 CircleF
5636 1431 CircleF
6354 1644 CircleF
6414 1690 CircleF
2839 478 CircleF
2899 524 CircleF
4600 1537 CircleF
4659 1583 CircleF
2615 3925 CircleF
2675 3971 CircleF
5892 3154 CircleF
5952 3200 CircleF
5615 803 CircleF
5675 849 CircleF
2552 3299 CircleF
2612 3345 CircleF
3373 1312 CircleF
3433 1357 CircleF
4228 1705 CircleF
4287 1751 CircleF
1346 1117 CircleF
1405 1163 CircleF
4035 1088 CircleF
4094 1134 CircleF
5506 4515 CircleF
5566 4561 CircleF
3536 391 CircleF
3596 437 CircleF
1278 2555 CircleF
1338 2601 CircleF
6646 2384 CircleF
6706 2430 CircleF
4992 4459 CircleF
5051 4505 CircleF
5351 2714 CircleF
5411 2760 CircleF
1909 3456 CircleF
1968 3502 CircleF
2551 3028 CircleF
2610 3074 CircleF
3748 2226 CircleF
3808 2272 CircleF
3365 915 CircleF
3425 961 CircleF
5772 2044 CircleF
5832 2090 CircleF
5828 2642 CircleF
5888 2688 CircleF
1936 3339 CircleF
1996 3385 CircleF
5100 1954 CircleF
5160 2000 CircleF
1012 2782 CircleF
1071 2828 CircleF
6704 2512 CircleF
6764 2558 CircleF
6007 2556 CircleF
6067 2602 CircleF
6408 2079 CircleF
6468 2125 CircleF
5602 436 CircleF
5661 481 CircleF
6162 1998 CircleF
6222 2044 CircleF
2713 4578 CircleF
2772 4624 CircleF
4470 1445 CircleF
4530 1491 CircleF
3535 437 CircleF
3595 483 CircleF
5212 3202 CircleF
5272 3247 CircleF
4063 3259 CircleF
4123 3305 CircleF
3665 4107 CircleF
3725 4153 CircleF
3845 1942 CircleF
3905 1988 CircleF
6308 2418 CircleF
6367 2464 CircleF
5591 2832 CircleF
5651 2878 CircleF
1950 4382 CircleF
2010 4428 CircleF
2620 1680 CircleF
2679 1726 CircleF
6496 1082 CircleF
6556 1128 CircleF
4625 3420 CircleF
4685 3466 CircleF
6126 3181 CircleF
6186 3227 CircleF
3865 299 CircleF
3925 345 CircleF
4614 4530 CircleF
4673 4575 CircleF
4185 2934 CircleF
4245 2979 CircleF
4640 4426 CircleF
4700 4472 CircleF
3949 2900 CircleF
4009 2946 CircleF
2739 2803 CircleF
2798 2849 CircleF
2085 2668 CircleF
2145 2714 CircleF
5956 4199 CircleF
6016 4245 CircleF
2069 4643 CircleF
2129 4689 CircleF
4558 4164 CircleF
4618 4210 CircleF
2265 1272 CircleF
2325 1317 CircleF
6370 1647 CircleF
6430 1693 CircleF
6088 3176 CircleF
6148 3222 CircleF
5264 2536 CircleF
5324 2581 CircleF
6048 2127 CircleF
6108 2173 CircleF
2889 2266 CircleF
2949 2312 CircleF
% End plot #2
1.000 UP
1.000 UL
LT0
0.50 0.50 0.50 C stroke
grestore
end
showpage
%%Trailer
%%DocumentFonts: Helvetica
%%Pages: 1
