%!PS-Adobe-2.0
%%Title: out.ps
%%Creator: gnuplot 4.6 patchlevel 6
%%CreationDate: Thu May 28 19:37:35 2015
%%DocumentFonts: (atend)
%%BoundingBox: 50 50 554 770
%%Orientation: Landscape
%%Pages: (atend)
%%EndComments
%%BeginProlog
/gnudict 256 dict def
gnudict begin
%
% The following true/false flags may be edited by hand if desired.
% The unit line width and grayscale image gamma correction may also be changed.
%
/Color false def
/Blacktext false def
/Solid false def
/Dashlength 1 def
/Landscape true def
/Level1 false def
/Rounded false def
/ClipToBoundingBox false def
/SuppressPDFMark false def
/TransparentPatterns false def
/gnulinewidth 5.000 def
/userlinewidth gnulinewidth def
/Gamma 1.0 def
/BackgroundColor {-1.000 -1.000 -1.000} def
%
/vshift -46 def
/dl1 {
  10.0 Dashlength mul mul
  Rounded { currentlinewidth 0.75 mul sub dup 0 le { pop 0.01 } if } if
} def
/dl2 {
  10.0 Dashlength mul mul
  Rounded { currentlinewidth 0.75 mul add } if
} def
/hpt_ 31.5 def
/vpt_ 31.5 def
/hpt hpt_ def
/vpt vpt_ def
/doclip {
  ClipToBoundingBox {
    newpath 50 50 moveto 554 50 lineto 554 770 lineto 50 770 lineto closepath
    clip
  } if
} def
%
% Gnuplot Prolog Version 4.6 (September 2012)
%
%/SuppressPDFMark true def
%
/M {moveto} bind def
/L {lineto} bind def
/R {rmoveto} bind def
/V {rlineto} bind def
/N {newpath moveto} bind def
/Z {closepath} bind def
/C {setrgbcolor} bind def
/f {rlineto fill} bind def
/g {setgray} bind def
/Gshow {show} def   % May be redefined later in the file to support UTF-8
/vpt2 vpt 2 mul def
/hpt2 hpt 2 mul def
/Lshow {currentpoint stroke M 0 vshift R 
	Blacktext {gsave 0 setgray show grestore} {show} ifelse} def
/Rshow {currentpoint stroke M dup stringwidth pop neg vshift R
	Blacktext {gsave 0 setgray show grestore} {show} ifelse} def
/Cshow {currentpoint stroke M dup stringwidth pop -2 div vshift R 
	Blacktext {gsave 0 setgray show grestore} {show} ifelse} def
/UP {dup vpt_ mul /vpt exch def hpt_ mul /hpt exch def
  /hpt2 hpt 2 mul def /vpt2 vpt 2 mul def} def
/DL {Color {setrgbcolor Solid {pop []} if 0 setdash}
 {pop pop pop 0 setgray Solid {pop []} if 0 setdash} ifelse} def
/BL {stroke userlinewidth 2 mul setlinewidth
	Rounded {1 setlinejoin 1 setlinecap} if} def
/AL {stroke userlinewidth 2 div setlinewidth
	Rounded {1 setlinejoin 1 setlinecap} if} def
/UL {dup gnulinewidth mul /userlinewidth exch def
	dup 1 lt {pop 1} if 10 mul /udl exch def} def
/PL {stroke userlinewidth setlinewidth
	Rounded {1 setlinejoin 1 setlinecap} if} def
3.8 setmiterlimit
% Default Line colors
/LCw {1 1 1} def
/LCb {0 0 0} def
/LCa {0 0 0} def
/LC0 {1 0 0} def
/LC1 {0 1 0} def
/LC2 {0 0 1} def
/LC3 {1 0 1} def
/LC4 {0 1 1} def
/LC5 {1 1 0} def
/LC6 {0 0 0} def
/LC7 {1 0.3 0} def
/LC8 {0.5 0.5 0.5} def
% Default Line Types
/LTw {PL [] 1 setgray} def
/LTb {BL [] LCb DL} def
/LTa {AL [1 udl mul 2 udl mul] 0 setdash LCa setrgbcolor} def
/LT0 {PL [] LC0 DL} def
/LT1 {PL [4 dl1 2 dl2] LC1 DL} def
/LT2 {PL [2 dl1 3 dl2] LC2 DL} def
/LT3 {PL [1 dl1 1.5 dl2] LC3 DL} def
/LT4 {PL [6 dl1 2 dl2 1 dl1 2 dl2] LC4 DL} def
/LT5 {PL [3 dl1 3 dl2 1 dl1 3 dl2] LC5 DL} def
/LT6 {PL [2 dl1 2 dl2 2 dl1 6 dl2] LC6 DL} def
/LT7 {PL [1 dl1 2 dl2 6 dl1 2 dl2 1 dl1 2 dl2] LC7 DL} def
/LT8 {PL [2 dl1 2 dl2 2 dl1 2 dl2 2 dl1 2 dl2 2 dl1 4 dl2] LC8 DL} def
/Pnt {stroke [] 0 setdash gsave 1 setlinecap M 0 0 V stroke grestore} def
/Dia {stroke [] 0 setdash 2 copy vpt add M
  hpt neg vpt neg V hpt vpt neg V
  hpt vpt V hpt neg vpt V closepath stroke
  Pnt} def
/Pls {stroke [] 0 setdash vpt sub M 0 vpt2 V
  currentpoint stroke M
  hpt neg vpt neg R hpt2 0 V stroke
 } def
/Box {stroke [] 0 setdash 2 copy exch hpt sub exch vpt add M
  0 vpt2 neg V hpt2 0 V 0 vpt2 V
  hpt2 neg 0 V closepath stroke
  Pnt} def
/Crs {stroke [] 0 setdash exch hpt sub exch vpt add M
  hpt2 vpt2 neg V currentpoint stroke M
  hpt2 neg 0 R hpt2 vpt2 V stroke} def
/TriU {stroke [] 0 setdash 2 copy vpt 1.12 mul add M
  hpt neg vpt -1.62 mul V
  hpt 2 mul 0 V
  hpt neg vpt 1.62 mul V closepath stroke
  Pnt} def
/Star {2 copy Pls Crs} def
/BoxF {stroke [] 0 setdash exch hpt sub exch vpt add M
  0 vpt2 neg V hpt2 0 V 0 vpt2 V
  hpt2 neg 0 V closepath fill} def
/TriUF {stroke [] 0 setdash vpt 1.12 mul add M
  hpt neg vpt -1.62 mul V
  hpt 2 mul 0 V
  hpt neg vpt 1.62 mul V closepath fill} def
/TriD {stroke [] 0 setdash 2 copy vpt 1.12 mul sub M
  hpt neg vpt 1.62 mul V
  hpt 2 mul 0 V
  hpt neg vpt -1.62 mul V closepath stroke
  Pnt} def
/TriDF {stroke [] 0 setdash vpt 1.12 mul sub M
  hpt neg vpt 1.62 mul V
  hpt 2 mul 0 V
  hpt neg vpt -1.62 mul V closepath fill} def
/DiaF {stroke [] 0 setdash vpt add M
  hpt neg vpt neg V hpt vpt neg V
  hpt vpt V hpt neg vpt V closepath fill} def
/Pent {stroke [] 0 setdash 2 copy gsave
  translate 0 hpt M 4 {72 rotate 0 hpt L} repeat
  closepath stroke grestore Pnt} def
/PentF {stroke [] 0 setdash gsave
  translate 0 hpt M 4 {72 rotate 0 hpt L} repeat
  closepath fill grestore} def
/Circle {stroke [] 0 setdash 2 copy
  hpt 0 360 arc stroke Pnt} def
/CircleF {stroke [] 0 setdash hpt 0 360 arc fill} def
/C0 {BL [] 0 setdash 2 copy moveto vpt 90 450 arc} bind def
/C1 {BL [] 0 setdash 2 copy moveto
	2 copy vpt 0 90 arc closepath fill
	vpt 0 360 arc closepath} bind def
/C2 {BL [] 0 setdash 2 copy moveto
	2 copy vpt 90 180 arc closepath fill
	vpt 0 360 arc closepath} bind def
/C3 {BL [] 0 setdash 2 copy moveto
	2 copy vpt 0 180 arc closepath fill
	vpt 0 360 arc closepath} bind def
/C4 {BL [] 0 setdash 2 copy moveto
	2 copy vpt 180 270 arc closepath fill
	vpt 0 360 arc closepath} bind def
/C5 {BL [] 0 setdash 2 copy moveto
	2 copy vpt 0 90 arc
	2 copy moveto
	2 copy vpt 180 270 arc closepath fill
	vpt 0 360 arc} bind def
/C6 {BL [] 0 setdash 2 copy moveto
	2 copy vpt 90 270 arc closepath fill
	vpt 0 360 arc closepath} bind def
/C7 {BL [] 0 setdash 2 copy moveto
	2 copy vpt 0 270 arc closepath fill
	vpt 0 360 arc closepath} bind def
/C8 {BL [] 0 setdash 2 copy moveto
	2 copy vpt 270 360 arc closepath fill
	vpt 0 360 arc closepath} bind def
/C9 {BL [] 0 setdash 2 copy moveto
	2 copy vpt 270 450 arc closepath fill
	vpt 0 360 arc closepath} bind def
/C10 {BL [] 0 setdash 2 copy 2 copy moveto vpt 270 360 arc closepath fill
	2 copy moveto
	2 copy vpt 90 180 arc closepath fill
	vpt 0 360 arc closepath} bind def
/C11 {BL [] 0 setdash 2 copy moveto
	2 copy vpt 0 180 arc closepath fill
	2 copy moveto
	2 copy vpt 270 360 arc closepath fill
	vpt 0 360 arc closepath} bind def
/C12 {BL [] 0 setdash 2 copy moveto
	2 copy vpt 180 360 arc closepath fill
	vpt 0 360 arc closepath} bind def
/C13 {BL [] 0 setdash 2 copy moveto
	2 copy vpt 0 90 arc closepath fill
	2 copy moveto
	2 copy vpt 180 360 arc closepath fill
	vpt 0 360 arc closepath} bind def
/C14 {BL [] 0 setdash 2 copy moveto
	2 copy vpt 90 360 arc closepath fill
	vpt 0 360 arc} bind def
/C15 {BL [] 0 setdash 2 copy vpt 0 360 arc closepath fill
	vpt 0 360 arc closepath} bind def
/Rec {newpath 4 2 roll moveto 1 index 0 rlineto 0 exch rlineto
	neg 0 rlineto closepath} bind def
/Square {dup Rec} bind def
/Bsquare {vpt sub exch vpt sub exch vpt2 Square} bind def
/S0 {BL [] 0 setdash 2 copy moveto 0 vpt rlineto BL Bsquare} bind def
/S1 {BL [] 0 setdash 2 copy vpt Square fill Bsquare} bind def
/S2 {BL [] 0 setdash 2 copy exch vpt sub exch vpt Square fill Bsquare} bind def
/S3 {BL [] 0 setdash 2 copy exch vpt sub exch vpt2 vpt Rec fill Bsquare} bind def
/S4 {BL [] 0 setdash 2 copy exch vpt sub exch vpt sub vpt Square fill Bsquare} bind def
/S5 {BL [] 0 setdash 2 copy 2 copy vpt Square fill
	exch vpt sub exch vpt sub vpt Square fill Bsquare} bind def
/S6 {BL [] 0 setdash 2 copy exch vpt sub exch vpt sub vpt vpt2 Rec fill Bsquare} bind def
/S7 {BL [] 0 setdash 2 copy exch vpt sub exch vpt sub vpt vpt2 Rec fill
	2 copy vpt Square fill Bsquare} bind def
/S8 {BL [] 0 setdash 2 copy vpt sub vpt Square fill Bsquare} bind def
/S9 {BL [] 0 setdash 2 copy vpt sub vpt vpt2 Rec fill Bsquare} bind def
/S10 {BL [] 0 setdash 2 copy vpt sub vpt Square fill 2 copy exch vpt sub exch vpt Square fill
	Bsquare} bind def
/S11 {BL [] 0 setdash 2 copy vpt sub vpt Square fill 2 copy exch vpt sub exch vpt2 vpt Rec fill
	Bsquare} bind def
/S12 {BL [] 0 setdash 2 copy exch vpt sub exch vpt sub vpt2 vpt Rec fill Bsquare} bind def
/S13 {BL [] 0 setdash 2 copy exch vpt sub exch vpt sub vpt2 vpt Rec fill
	2 copy vpt Square fill Bsquare} bind def
/S14 {BL [] 0 setdash 2 copy exch vpt sub exch vpt sub vpt2 vpt Rec fill
	2 copy exch vpt sub exch vpt Square fill Bsquare} bind def
/S15 {BL [] 0 setdash 2 copy Bsquare fill Bsquare} bind def
/D0 {gsave translate 45 rotate 0 0 S0 stroke grestore} bind def
/D1 {gsave translate 45 rotate 0 0 S1 stroke grestore} bind def
/D2 {gsave translate 45 rotate 0 0 S2 stroke grestore} bind def
/D3 {gsave translate 45 rotate 0 0 S3 stroke grestore} bind def
/D4 {gsave translate 45 rotate 0 0 S4 stroke grestore} bind def
/D5 {gsave translate 45 rotate 0 0 S5 stroke grestore} bind def
/D6 {gsave translate 45 rotate 0 0 S6 stroke grestore} bind def
/D7 {gsave translate 45 rotate 0 0 S7 stroke grestore} bind def
/D8 {gsave translate 45 rotate 0 0 S8 stroke grestore} bind def
/D9 {gsave translate 45 rotate 0 0 S9 stroke grestore} bind def
/D10 {gsave translate 45 rotate 0 0 S10 stroke grestore} bind def
/D11 {gsave translate 45 rotate 0 0 S11 stroke grestore} bind def
/D12 {gsave translate 45 rotate 0 0 S12 stroke grestore} bind def
/D13 {gsave translate 45 rotate 0 0 S13 stroke grestore} bind def
/D14 {gsave translate 45 rotate 0 0 S14 stroke grestore} bind def
/D15 {gsave translate 45 rotate 0 0 S15 stroke grestore} bind def
/DiaE {stroke [] 0 setdash vpt add M
  hpt neg vpt neg V hpt vpt neg V
  hpt vpt V hpt neg vpt V closepath stroke} def
/BoxE {stroke [] 0 setdash exch hpt sub exch vpt add M
  0 vpt2 neg V hpt2 0 V 0 vpt2 V
  hpt2 neg 0 V closepath stroke} def
/TriUE {stroke [] 0 setdash vpt 1.12 mul add M
  hpt neg vpt -1.62 mul V
  hpt 2 mul 0 V
  hpt neg vpt 1.62 mul V closepath stroke} def
/TriDE {stroke [] 0 setdash vpt 1.12 mul sub M
  hpt neg vpt 1.62 mul V
  hpt 2 mul 0 V
  hpt neg vpt -1.62 mul V closepath stroke} def
/PentE {stroke [] 0 setdash gsave
  translate 0 hpt M 4 {72 rotate 0 hpt L} repeat
  closepath stroke grestore} def
/CircE {stroke [] 0 setdash 
  hpt 0 360 arc stroke} def
/Opaque {gsave closepath 1 setgray fill grestore 0 setgray closepath} def
/DiaW {stroke [] 0 setdash vpt add M
  hpt neg vpt neg V hpt vpt neg V
  hpt vpt V hpt neg vpt V Opaque stroke} def
/BoxW {stroke [] 0 setdash exch hpt sub exch vpt add M
  0 vpt2 neg V hpt2 0 V 0 vpt2 V
  hpt2 neg 0 V Opaque stroke} def
/TriUW {stroke [] 0 setdash vpt 1.12 mul add M
  hpt neg vpt -1.62 mul V
  hpt 2 mul 0 V
  hpt neg vpt 1.62 mul V Opaque stroke} def
/TriDW {stroke [] 0 setdash vpt 1.12 mul sub M
  hpt neg vpt 1.62 mul V
  hpt 2 mul 0 V
  hpt neg vpt -1.62 mul V Opaque stroke} def
/PentW {stroke [] 0 setdash gsave
  translate 0 hpt M 4 {72 rotate 0 hpt L} repeat
  Opaque stroke grestore} def
/CircW {stroke [] 0 setdash 
  hpt 0 360 arc Opaque stroke} def
/BoxFill {gsave Rec 1 setgray fill grestore} def
/Density {
  /Fillden exch def
  currentrgbcolor
  /ColB exch def /ColG exch def /ColR exch def
  /ColR ColR Fillden mul Fillden sub 1 add def
  /ColG ColG Fillden mul Fillden sub 1 add def
  /ColB ColB Fillden mul Fillden sub 1 add def
  ColR ColG ColB setrgbcolor} def
/BoxColFill {gsave Rec PolyFill} def
/PolyFill {gsave Density fill grestore grestore} def
/h {rlineto rlineto rlineto gsave closepath fill grestore} bind def
%
% PostScript Level 1 Pattern Fill routine for rectangles
% Usage: x y w h s a XX PatternFill
%	x,y = lower left corner of box to be filled
%	w,h = width and height of box
%	  a = angle in degrees between lines and x-axis
%	 XX = 0/1 for no/yes cross-hatch
%
/PatternFill {gsave /PFa [ 9 2 roll ] def
  PFa 0 get PFa 2 get 2 div add PFa 1 get PFa 3 get 2 div add translate
  PFa 2 get -2 div PFa 3 get -2 div PFa 2 get PFa 3 get Rec
  TransparentPatterns {} {gsave 1 setgray fill grestore} ifelse
  clip
  currentlinewidth 0.5 mul setlinewidth
  /PFs PFa 2 get dup mul PFa 3 get dup mul add sqrt def
  0 0 M PFa 5 get rotate PFs -2 div dup translate
  0 1 PFs PFa 4 get div 1 add floor cvi
	{PFa 4 get mul 0 M 0 PFs V} for
  0 PFa 6 get ne {
	0 1 PFs PFa 4 get div 1 add floor cvi
	{PFa 4 get mul 0 2 1 roll M PFs 0 V} for
 } if
  stroke grestore} def
%
/languagelevel where
 {pop languagelevel} {1} ifelse
 2 lt
	{/InterpretLevel1 true def}
	{/InterpretLevel1 Level1 def}
 ifelse
%
% PostScript level 2 pattern fill definitions
%
/Level2PatternFill {
/Tile8x8 {/PaintType 2 /PatternType 1 /TilingType 1 /BBox [0 0 8 8] /XStep 8 /YStep 8}
	bind def
/KeepColor {currentrgbcolor [/Pattern /DeviceRGB] setcolorspace} bind def
<< Tile8x8
 /PaintProc {0.5 setlinewidth pop 0 0 M 8 8 L 0 8 M 8 0 L stroke} 
>> matrix makepattern
/Pat1 exch def
<< Tile8x8
 /PaintProc {0.5 setlinewidth pop 0 0 M 8 8 L 0 8 M 8 0 L stroke
	0 4 M 4 8 L 8 4 L 4 0 L 0 4 L stroke}
>> matrix makepattern
/Pat2 exch def
<< Tile8x8
 /PaintProc {0.5 setlinewidth pop 0 0 M 0 8 L
	8 8 L 8 0 L 0 0 L fill}
>> matrix makepattern
/Pat3 exch def
<< Tile8x8
 /PaintProc {0.5 setlinewidth pop -4 8 M 8 -4 L
	0 12 M 12 0 L stroke}
>> matrix makepattern
/Pat4 exch def
<< Tile8x8
 /PaintProc {0.5 setlinewidth pop -4 0 M 8 12 L
	0 -4 M 12 8 L stroke}
>> matrix makepattern
/Pat5 exch def
<< Tile8x8
 /PaintProc {0.5 setlinewidth pop -2 8 M 4 -4 L
	0 12 M 8 -4 L 4 12 M 10 0 L stroke}
>> matrix makepattern
/Pat6 exch def
<< Tile8x8
 /PaintProc {0.5 setlinewidth pop -2 0 M 4 12 L
	0 -4 M 8 12 L 4 -4 M 10 8 L stroke}
>> matrix makepattern
/Pat7 exch def
<< Tile8x8
 /PaintProc {0.5 setlinewidth pop 8 -2 M -4 4 L
	12 0 M -4 8 L 12 4 M 0 10 L stroke}
>> matrix makepattern
/Pat8 exch def
<< Tile8x8
 /PaintProc {0.5 setlinewidth pop 0 -2 M 12 4 L
	-4 0 M 12 8 L -4 4 M 8 10 L stroke}
>> matrix makepattern
/Pat9 exch def
/Pattern1 {PatternBgnd KeepColor Pat1 setpattern} bind def
/Pattern2 {PatternBgnd KeepColor Pat2 setpattern} bind def
/Pattern3 {PatternBgnd KeepColor Pat3 setpattern} bind def
/Pattern4 {PatternBgnd KeepColor Landscape {Pat5} {Pat4} ifelse setpattern} bind def
/Pattern5 {PatternBgnd KeepColor Landscape {Pat4} {Pat5} ifelse setpattern} bind def
/Pattern6 {PatternBgnd KeepColor Landscape {Pat9} {Pat6} ifelse setpattern} bind def
/Pattern7 {PatternBgnd KeepColor Landscape {Pat8} {Pat7} ifelse setpattern} bind def
} def
%
%
%End of PostScript Level 2 code
%
/PatternBgnd {
  TransparentPatterns {} {gsave 1 setgray fill grestore} ifelse
} def
%
% Substitute for Level 2 pattern fill codes with
% grayscale if Level 2 support is not selected.
%
/Level1PatternFill {
/Pattern1 {0.250 Density} bind def
/Pattern2 {0.500 Density} bind def
/Pattern3 {0.750 Density} bind def
/Pattern4 {0.125 Density} bind def
/Pattern5 {0.375 Density} bind def
/Pattern6 {0.625 Density} bind def
/Pattern7 {0.875 Density} bind def
} def
%
% Now test for support of Level 2 code
%
Level1 {Level1PatternFill} {Level2PatternFill} ifelse
%
/Symbol-Oblique /Symbol findfont [1 0 .167 1 0 0] makefont
dup length dict begin {1 index /FID eq {pop pop} {def} ifelse} forall
currentdict end definefont pop
Level1 SuppressPDFMark or 
{} {
/SDict 10 dict def
systemdict /pdfmark known not {
  userdict /pdfmark systemdict /cleartomark get put
} if
SDict begin [
  /Title (out.ps)
  /Subject (gnuplot plot)
  /Creator (gnuplot 4.6 patchlevel 6)
  /Author (yani)
%  /Producer (gnuplot)
%  /Keywords ()
  /CreationDate (Thu May 28 19:37:35 2015)
  /DOCINFO pdfmark
end
} ifelse
end
%%EndProlog
%%Page: 1 1
gnudict begin
gsave
doclip
50 50 translate
0.100 0.100 scale
90 rotate
0 -5040 translate
0 setgray
newpath
(Helvetica) findfont 140 scalefont setfont
BackgroundColor 0 lt 3 1 roll 0 lt exch 0 lt or or not {gsave BackgroundColor C clippath fill grestore} if
1.000 UL
LT0
0.50 0.50 0.50 C 1.000 UL
LTa
0.50 0.50 0.50 C 966 280 M
5981 0 V
stroke
LT0
0.50 0.50 0.50 C 966 280 M
63 0 V
5918 0 R
-63 0 V
882 280 M
( 0) Rshow
1.000 UL
LT0
0.50 0.50 0.50 C 1.000 UL
LTa
0.50 0.50 0.50 C 966 372 M
5981 0 V
stroke
LT0
0.50 0.50 0.50 C 966 372 M
63 0 V
5918 0 R
-63 0 V
882 372 M
( 0.707106) Rshow
1.000 UL
LT0
0.50 0.50 0.50 C 1.000 UL
LTa
0.50 0.50 0.50 C 966 464 M
5981 0 V
stroke
LT0
0.50 0.50 0.50 C 966 464 M
63 0 V
5918 0 R
-63 0 V
882 464 M
( 1.41421) Rshow
1.000 UL
LT0
0.50 0.50 0.50 C 1.000 UL
LTa
0.50 0.50 0.50 C 966 555 M
5981 0 V
stroke
LT0
0.50 0.50 0.50 C 966 555 M
63 0 V
5918 0 R
-63 0 V
882 555 M
( 2.12132) Rshow
1.000 UL
LT0
0.50 0.50 0.50 C 1.000 UL
LTa
0.50 0.50 0.50 C 966 647 M
5981 0 V
stroke
LT0
0.50 0.50 0.50 C 966 647 M
63 0 V
5918 0 R
-63 0 V
882 647 M
( 2.82842) Rshow
1.000 UL
LT0
0.50 0.50 0.50 C 1.000 UL
LTa
0.50 0.50 0.50 C 966 739 M
5981 0 V
stroke
LT0
0.50 0.50 0.50 C 966 739 M
63 0 V
5918 0 R
-63 0 V
882 739 M
( 3.53553) Rshow
1.000 UL
LT0
0.50 0.50 0.50 C 1.000 UL
LTa
0.50 0.50 0.50 C 966 831 M
5981 0 V
stroke
LT0
0.50 0.50 0.50 C 966 831 M
63 0 V
5918 0 R
-63 0 V
882 831 M
( 4.24264) Rshow
1.000 UL
LT0
0.50 0.50 0.50 C 1.000 UL
LTa
0.50 0.50 0.50 C 966 923 M
5981 0 V
stroke
LT0
0.50 0.50 0.50 C 966 923 M
63 0 V
5918 0 R
-63 0 V
882 923 M
( 4.94974) Rshow
1.000 UL
LT0
0.50 0.50 0.50 C 1.000 UL
LTa
0.50 0.50 0.50 C 966 1015 M
5981 0 V
stroke
LT0
0.50 0.50 0.50 C 966 1015 M
63 0 V
5918 0 R
-63 0 V
-6002 0 R
( 5.65685) Rshow
1.000 UL
LT0
0.50 0.50 0.50 C 1.000 UL
LTa
0.50 0.50 0.50 C 966 1106 M
5981 0 V
stroke
LT0
0.50 0.50 0.50 C 966 1106 M
63 0 V
5918 0 R
-63 0 V
-6002 0 R
( 6.36395) Rshow
1.000 UL
LT0
0.50 0.50 0.50 C 1.000 UL
LTa
0.50 0.50 0.50 C 966 1198 M
5981 0 V
stroke
LT0
0.50 0.50 0.50 C 966 1198 M
63 0 V
5918 0 R
-63 0 V
-6002 0 R
( 7.07106) Rshow
1.000 UL
LT0
0.50 0.50 0.50 C 1.000 UL
LTa
0.50 0.50 0.50 C 966 1290 M
5981 0 V
stroke
LT0
0.50 0.50 0.50 C 966 1290 M
63 0 V
5918 0 R
-63 0 V
-6002 0 R
( 7.77817) Rshow
1.000 UL
LT0
0.50 0.50 0.50 C 1.000 UL
LTa
0.50 0.50 0.50 C 966 1382 M
5981 0 V
stroke
LT0
0.50 0.50 0.50 C 966 1382 M
63 0 V
5918 0 R
-63 0 V
-6002 0 R
( 8.48527) Rshow
1.000 UL
LT0
0.50 0.50 0.50 C 1.000 UL
LTa
0.50 0.50 0.50 C 966 1474 M
5981 0 V
stroke
LT0
0.50 0.50 0.50 C 966 1474 M
63 0 V
5918 0 R
-63 0 V
-6002 0 R
( 9.19238) Rshow
1.000 UL
LT0
0.50 0.50 0.50 C 1.000 UL
LTa
0.50 0.50 0.50 C 966 1565 M
5981 0 V
stroke
LT0
0.50 0.50 0.50 C 966 1565 M
63 0 V
5918 0 R
-63 0 V
-6002 0 R
( 9.89948) Rshow
1.000 UL
LT0
0.50 0.50 0.50 C 1.000 UL
LTa
0.50 0.50 0.50 C 966 1657 M
5981 0 V
stroke
LT0
0.50 0.50 0.50 C 966 1657 M
63 0 V
5918 0 R
-63 0 V
-6002 0 R
( 10.6066) Rshow
1.000 UL
LT0
0.50 0.50 0.50 C 1.000 UL
LTa
0.50 0.50 0.50 C 966 1749 M
5981 0 V
stroke
LT0
0.50 0.50 0.50 C 966 1749 M
63 0 V
5918 0 R
-63 0 V
-6002 0 R
( 11.3137) Rshow
1.000 UL
LT0
0.50 0.50 0.50 C 1.000 UL
LTa
0.50 0.50 0.50 C 966 1841 M
5981 0 V
stroke
LT0
0.50 0.50 0.50 C 966 1841 M
63 0 V
5918 0 R
-63 0 V
-6002 0 R
( 12.0208) Rshow
1.000 UL
LT0
0.50 0.50 0.50 C 1.000 UL
LTa
0.50 0.50 0.50 C 966 1933 M
5981 0 V
stroke
LT0
0.50 0.50 0.50 C 966 1933 M
63 0 V
5918 0 R
-63 0 V
-6002 0 R
( 12.7279) Rshow
1.000 UL
LT0
0.50 0.50 0.50 C 1.000 UL
LTa
0.50 0.50 0.50 C 966 2025 M
5981 0 V
stroke
LT0
0.50 0.50 0.50 C 966 2025 M
63 0 V
5918 0 R
-63 0 V
-6002 0 R
( 13.435) Rshow
1.000 UL
LT0
0.50 0.50 0.50 C 1.000 UL
LTa
0.50 0.50 0.50 C 966 2116 M
5981 0 V
stroke
LT0
0.50 0.50 0.50 C 966 2116 M
63 0 V
5918 0 R
-63 0 V
-6002 0 R
( 14.1421) Rshow
1.000 UL
LT0
0.50 0.50 0.50 C 1.000 UL
LTa
0.50 0.50 0.50 C 966 2208 M
5981 0 V
stroke
LT0
0.50 0.50 0.50 C 966 2208 M
63 0 V
5918 0 R
-63 0 V
-6002 0 R
( 14.8492) Rshow
1.000 UL
LT0
0.50 0.50 0.50 C 1.000 UL
LTa
0.50 0.50 0.50 C 966 2300 M
5981 0 V
stroke
LT0
0.50 0.50 0.50 C 966 2300 M
63 0 V
5918 0 R
-63 0 V
-6002 0 R
( 15.5563) Rshow
1.000 UL
LT0
0.50 0.50 0.50 C 1.000 UL
LTa
0.50 0.50 0.50 C 966 2392 M
5981 0 V
stroke
LT0
0.50 0.50 0.50 C 966 2392 M
63 0 V
5918 0 R
-63 0 V
-6002 0 R
( 16.2634) Rshow
1.000 UL
LT0
0.50 0.50 0.50 C 1.000 UL
LTa
0.50 0.50 0.50 C 966 2484 M
5981 0 V
stroke
LT0
0.50 0.50 0.50 C 966 2484 M
63 0 V
5918 0 R
-63 0 V
-6002 0 R
( 16.9705) Rshow
1.000 UL
LT0
0.50 0.50 0.50 C 1.000 UL
LTa
0.50 0.50 0.50 C 966 2575 M
5981 0 V
stroke
LT0
0.50 0.50 0.50 C 966 2575 M
63 0 V
5918 0 R
-63 0 V
-6002 0 R
( 17.6776) Rshow
1.000 UL
LT0
0.50 0.50 0.50 C 1.000 UL
LTa
0.50 0.50 0.50 C 966 2667 M
5981 0 V
stroke
LT0
0.50 0.50 0.50 C 966 2667 M
63 0 V
5918 0 R
-63 0 V
-6002 0 R
( 18.3848) Rshow
1.000 UL
LT0
0.50 0.50 0.50 C 1.000 UL
LTa
0.50 0.50 0.50 C 966 2759 M
5981 0 V
stroke
LT0
0.50 0.50 0.50 C 966 2759 M
63 0 V
5918 0 R
-63 0 V
-6002 0 R
( 19.0919) Rshow
1.000 UL
LT0
0.50 0.50 0.50 C 1.000 UL
LTa
0.50 0.50 0.50 C 966 2851 M
5981 0 V
stroke
LT0
0.50 0.50 0.50 C 966 2851 M
63 0 V
5918 0 R
-63 0 V
-6002 0 R
( 19.799) Rshow
1.000 UL
LT0
0.50 0.50 0.50 C 1.000 UL
LTa
0.50 0.50 0.50 C 966 2943 M
5981 0 V
stroke
LT0
0.50 0.50 0.50 C 966 2943 M
63 0 V
5918 0 R
-63 0 V
-6002 0 R
( 20.5061) Rshow
1.000 UL
LT0
0.50 0.50 0.50 C 1.000 UL
LTa
0.50 0.50 0.50 C 966 3035 M
5981 0 V
stroke
LT0
0.50 0.50 0.50 C 966 3035 M
63 0 V
5918 0 R
-63 0 V
-6002 0 R
( 21.2132) Rshow
1.000 UL
LT0
0.50 0.50 0.50 C 1.000 UL
LTa
0.50 0.50 0.50 C 966 3126 M
5981 0 V
stroke
LT0
0.50 0.50 0.50 C 966 3126 M
63 0 V
5918 0 R
-63 0 V
-6002 0 R
( 21.9203) Rshow
1.000 UL
LT0
0.50 0.50 0.50 C 1.000 UL
LTa
0.50 0.50 0.50 C 966 3218 M
5981 0 V
stroke
LT0
0.50 0.50 0.50 C 966 3218 M
63 0 V
5918 0 R
-63 0 V
-6002 0 R
( 22.6274) Rshow
1.000 UL
LT0
0.50 0.50 0.50 C 1.000 UL
LTa
0.50 0.50 0.50 C 966 3310 M
5981 0 V
stroke
LT0
0.50 0.50 0.50 C 966 3310 M
63 0 V
5918 0 R
-63 0 V
-6002 0 R
( 23.3345) Rshow
1.000 UL
LT0
0.50 0.50 0.50 C 1.000 UL
LTa
0.50 0.50 0.50 C 966 3402 M
5981 0 V
stroke
LT0
0.50 0.50 0.50 C 966 3402 M
63 0 V
5918 0 R
-63 0 V
-6002 0 R
( 24.0416) Rshow
1.000 UL
LT0
0.50 0.50 0.50 C 1.000 UL
LTa
0.50 0.50 0.50 C 966 3494 M
5981 0 V
stroke
LT0
0.50 0.50 0.50 C 966 3494 M
63 0 V
5918 0 R
-63 0 V
-6002 0 R
( 24.7487) Rshow
1.000 UL
LT0
0.50 0.50 0.50 C 1.000 UL
LTa
0.50 0.50 0.50 C 966 3586 M
5981 0 V
stroke
LT0
0.50 0.50 0.50 C 966 3586 M
63 0 V
5918 0 R
-63 0 V
-6002 0 R
( 25.4558) Rshow
1.000 UL
LT0
0.50 0.50 0.50 C 1.000 UL
LTa
0.50 0.50 0.50 C 966 3677 M
5981 0 V
stroke
LT0
0.50 0.50 0.50 C 966 3677 M
63 0 V
5918 0 R
-63 0 V
-6002 0 R
( 26.1629) Rshow
1.000 UL
LT0
0.50 0.50 0.50 C 1.000 UL
LTa
0.50 0.50 0.50 C 966 3769 M
5981 0 V
stroke
LT0
0.50 0.50 0.50 C 966 3769 M
63 0 V
5918 0 R
-63 0 V
-6002 0 R
( 26.87) Rshow
1.000 UL
LT0
0.50 0.50 0.50 C 1.000 UL
LTa
0.50 0.50 0.50 C 966 3861 M
5981 0 V
stroke
LT0
0.50 0.50 0.50 C 966 3861 M
63 0 V
5918 0 R
-63 0 V
-6002 0 R
( 27.5771) Rshow
1.000 UL
LT0
0.50 0.50 0.50 C 1.000 UL
LTa
0.50 0.50 0.50 C 966 3953 M
5981 0 V
stroke
LT0
0.50 0.50 0.50 C 966 3953 M
63 0 V
5918 0 R
-63 0 V
-6002 0 R
( 28.2842) Rshow
1.000 UL
LT0
0.50 0.50 0.50 C 1.000 UL
LTa
0.50 0.50 0.50 C 966 4045 M
5981 0 V
stroke
LT0
0.50 0.50 0.50 C 966 4045 M
63 0 V
5918 0 R
-63 0 V
-6002 0 R
( 28.9913) Rshow
1.000 UL
LT0
0.50 0.50 0.50 C 1.000 UL
LTa
0.50 0.50 0.50 C 966 4136 M
5981 0 V
stroke
LT0
0.50 0.50 0.50 C 966 4136 M
63 0 V
5918 0 R
-63 0 V
-6002 0 R
( 29.6985) Rshow
1.000 UL
LT0
0.50 0.50 0.50 C 1.000 UL
LTa
0.50 0.50 0.50 C 966 4228 M
5981 0 V
stroke
LT0
0.50 0.50 0.50 C 966 4228 M
63 0 V
5918 0 R
-63 0 V
-6002 0 R
( 30.4056) Rshow
1.000 UL
LT0
0.50 0.50 0.50 C 1.000 UL
LTa
0.50 0.50 0.50 C 966 4320 M
5981 0 V
stroke
LT0
0.50 0.50 0.50 C 966 4320 M
63 0 V
5918 0 R
-63 0 V
-6002 0 R
( 31.1127) Rshow
1.000 UL
LT0
0.50 0.50 0.50 C 1.000 UL
LTa
0.50 0.50 0.50 C 966 4412 M
5981 0 V
stroke
LT0
0.50 0.50 0.50 C 966 4412 M
63 0 V
5918 0 R
-63 0 V
-6002 0 R
( 31.8198) Rshow
1.000 UL
LT0
0.50 0.50 0.50 C 1.000 UL
LTa
0.50 0.50 0.50 C 966 4504 M
5981 0 V
stroke
LT0
0.50 0.50 0.50 C 966 4504 M
63 0 V
5918 0 R
-63 0 V
-6002 0 R
( 32.5269) Rshow
1.000 UL
LT0
0.50 0.50 0.50 C 1.000 UL
LTa
0.50 0.50 0.50 C 966 4596 M
5981 0 V
stroke
LT0
0.50 0.50 0.50 C 966 4596 M
63 0 V
5918 0 R
-63 0 V
-6002 0 R
( 33.234) Rshow
1.000 UL
LT0
0.50 0.50 0.50 C 1.000 UL
LTa
0.50 0.50 0.50 C 966 4687 M
5981 0 V
stroke
LT0
0.50 0.50 0.50 C 966 4687 M
63 0 V
5918 0 R
-63 0 V
-6002 0 R
( 33.9411) Rshow
1.000 UL
LT0
0.50 0.50 0.50 C 1.000 UL
LTa
0.50 0.50 0.50 C 966 4779 M
5981 0 V
stroke
LT0
0.50 0.50 0.50 C 966 4779 M
63 0 V
5918 0 R
-63 0 V
-6002 0 R
( 34.6482) Rshow
1.000 UL
LT0
0.50 0.50 0.50 C 1.000 UL
LTa
0.50 0.50 0.50 C 966 4871 M
5981 0 V
stroke
LT0
0.50 0.50 0.50 C 966 4871 M
63 0 V
5918 0 R
-63 0 V
-6002 0 R
( 35.3553) Rshow
1.000 UL
LT0
0.50 0.50 0.50 C 1.000 UL
LTa
0.50 0.50 0.50 C 966 280 M
0 4591 V
stroke
LT0
0.50 0.50 0.50 C 966 280 M
0 63 V
0 4528 R
0 -63 V
966 140 M
( 0) Cshow
1.000 UL
LT0
0.50 0.50 0.50 C 1.000 UL
LTa
0.50 0.50 0.50 C 1086 280 M
0 4591 V
stroke
LT0
0.50 0.50 0.50 C 1086 280 M
0 63 V
0 4528 R
0 -63 V
0 -4668 R
( 0.707106) Cshow
1.000 UL
LT0
0.50 0.50 0.50 C 1.000 UL
LTa
0.50 0.50 0.50 C 1205 280 M
0 4591 V
stroke
LT0
0.50 0.50 0.50 C 1205 280 M
0 63 V
0 4528 R
0 -63 V
0 -4668 R
( 1.41421) Cshow
1.000 UL
LT0
0.50 0.50 0.50 C 1.000 UL
LTa
0.50 0.50 0.50 C 1325 280 M
0 4591 V
stroke
LT0
0.50 0.50 0.50 C 1325 280 M
0 63 V
0 4528 R
0 -63 V
0 -4668 R
( 2.12132) Cshow
1.000 UL
LT0
0.50 0.50 0.50 C 1.000 UL
LTa
0.50 0.50 0.50 C 1444 280 M
0 4591 V
stroke
LT0
0.50 0.50 0.50 C 1444 280 M
0 63 V
0 4528 R
0 -63 V
0 -4668 R
( 2.82842) Cshow
1.000 UL
LT0
0.50 0.50 0.50 C 1.000 UL
LTa
0.50 0.50 0.50 C 1564 280 M
0 4591 V
stroke
LT0
0.50 0.50 0.50 C 1564 280 M
0 63 V
0 4528 R
0 -63 V
0 -4668 R
( 3.53553) Cshow
1.000 UL
LT0
0.50 0.50 0.50 C 1.000 UL
LTa
0.50 0.50 0.50 C 1684 280 M
0 4591 V
stroke
LT0
0.50 0.50 0.50 C 1684 280 M
0 63 V
0 4528 R
0 -63 V
0 -4668 R
( 4.24264) Cshow
1.000 UL
LT0
0.50 0.50 0.50 C 1.000 UL
LTa
0.50 0.50 0.50 C 1803 280 M
0 4591 V
stroke
LT0
0.50 0.50 0.50 C 1803 280 M
0 63 V
0 4528 R
0 -63 V
0 -4668 R
( 4.94974) Cshow
1.000 UL
LT0
0.50 0.50 0.50 C 1.000 UL
LTa
0.50 0.50 0.50 C 1923 280 M
0 4591 V
stroke
LT0
0.50 0.50 0.50 C 1923 280 M
0 63 V
0 4528 R
0 -63 V
0 -4668 R
( 5.65685) Cshow
1.000 UL
LT0
0.50 0.50 0.50 C 1.000 UL
LTa
0.50 0.50 0.50 C 2043 280 M
0 4591 V
stroke
LT0
0.50 0.50 0.50 C 2043 280 M
0 63 V
0 4528 R
0 -63 V
0 -4668 R
( 6.36395) Cshow
1.000 UL
LT0
0.50 0.50 0.50 C 1.000 UL
LTa
0.50 0.50 0.50 C 2162 280 M
0 4591 V
stroke
LT0
0.50 0.50 0.50 C 2162 280 M
0 63 V
0 4528 R
0 -63 V
0 -4668 R
( 7.07106) Cshow
1.000 UL
LT0
0.50 0.50 0.50 C 1.000 UL
LTa
0.50 0.50 0.50 C 2282 280 M
0 4591 V
stroke
LT0
0.50 0.50 0.50 C 2282 280 M
0 63 V
0 4528 R
0 -63 V
0 -4668 R
( 7.77817) Cshow
1.000 UL
LT0
0.50 0.50 0.50 C 1.000 UL
LTa
0.50 0.50 0.50 C 2401 280 M
0 4591 V
stroke
LT0
0.50 0.50 0.50 C 2401 280 M
0 63 V
0 4528 R
0 -63 V
0 -4668 R
( 8.48527) Cshow
1.000 UL
LT0
0.50 0.50 0.50 C 1.000 UL
LTa
0.50 0.50 0.50 C 2521 280 M
0 4591 V
stroke
LT0
0.50 0.50 0.50 C 2521 280 M
0 63 V
0 4528 R
0 -63 V
0 -4668 R
( 9.19238) Cshow
1.000 UL
LT0
0.50 0.50 0.50 C 1.000 UL
LTa
0.50 0.50 0.50 C 2641 280 M
0 4591 V
stroke
LT0
0.50 0.50 0.50 C 2641 280 M
0 63 V
0 4528 R
0 -63 V
0 -4668 R
( 9.89948) Cshow
1.000 UL
LT0
0.50 0.50 0.50 C 1.000 UL
LTa
0.50 0.50 0.50 C 2760 280 M
0 4591 V
stroke
LT0
0.50 0.50 0.50 C 2760 280 M
0 63 V
0 4528 R
0 -63 V
0 -4668 R
( 10.6066) Cshow
1.000 UL
LT0
0.50 0.50 0.50 C 1.000 UL
LTa
0.50 0.50 0.50 C 2880 280 M
0 4591 V
stroke
LT0
0.50 0.50 0.50 C 2880 280 M
0 63 V
0 4528 R
0 -63 V
0 -4668 R
( 11.3137) Cshow
1.000 UL
LT0
0.50 0.50 0.50 C 1.000 UL
LTa
0.50 0.50 0.50 C 3000 280 M
0 4591 V
stroke
LT0
0.50 0.50 0.50 C 3000 280 M
0 63 V
0 4528 R
0 -63 V
0 -4668 R
( 12.0208) Cshow
1.000 UL
LT0
0.50 0.50 0.50 C 1.000 UL
LTa
0.50 0.50 0.50 C 3119 280 M
0 4591 V
stroke
LT0
0.50 0.50 0.50 C 3119 280 M
0 63 V
0 4528 R
0 -63 V
0 -4668 R
( 12.7279) Cshow
1.000 UL
LT0
0.50 0.50 0.50 C 1.000 UL
LTa
0.50 0.50 0.50 C 3239 280 M
0 4591 V
stroke
LT0
0.50 0.50 0.50 C 3239 280 M
0 63 V
0 4528 R
0 -63 V
0 -4668 R
( 13.435) Cshow
1.000 UL
LT0
0.50 0.50 0.50 C 1.000 UL
LTa
0.50 0.50 0.50 C 3358 280 M
0 4591 V
stroke
LT0
0.50 0.50 0.50 C 3358 280 M
0 63 V
0 4528 R
0 -63 V
0 -4668 R
( 14.1421) Cshow
1.000 UL
LT0
0.50 0.50 0.50 C 1.000 UL
LTa
0.50 0.50 0.50 C 3478 280 M
0 4591 V
stroke
LT0
0.50 0.50 0.50 C 3478 280 M
0 63 V
0 4528 R
0 -63 V
0 -4668 R
( 14.8492) Cshow
1.000 UL
LT0
0.50 0.50 0.50 C 1.000 UL
LTa
0.50 0.50 0.50 C 3598 280 M
0 4591 V
stroke
LT0
0.50 0.50 0.50 C 3598 280 M
0 63 V
0 4528 R
0 -63 V
0 -4668 R
( 15.5563) Cshow
1.000 UL
LT0
0.50 0.50 0.50 C 1.000 UL
LTa
0.50 0.50 0.50 C 3717 280 M
0 4591 V
stroke
LT0
0.50 0.50 0.50 C 3717 280 M
0 63 V
0 4528 R
0 -63 V
0 -4668 R
( 16.2634) Cshow
1.000 UL
LT0
0.50 0.50 0.50 C 1.000 UL
LTa
0.50 0.50 0.50 C 3837 280 M
0 4591 V
stroke
LT0
0.50 0.50 0.50 C 3837 280 M
0 63 V
0 4528 R
0 -63 V
0 -4668 R
( 16.9705) Cshow
1.000 UL
LT0
0.50 0.50 0.50 C 1.000 UL
LTa
0.50 0.50 0.50 C 3956 280 M
0 4591 V
stroke
LT0
0.50 0.50 0.50 C 3956 280 M
0 63 V
0 4528 R
0 -63 V
0 -4668 R
( 17.6776) Cshow
1.000 UL
LT0
0.50 0.50 0.50 C 1.000 UL
LTa
0.50 0.50 0.50 C 4076 280 M
0 4591 V
stroke
LT0
0.50 0.50 0.50 C 4076 280 M
0 63 V
0 4528 R
0 -63 V
0 -4668 R
( 18.3848) Cshow
1.000 UL
LT0
0.50 0.50 0.50 C 1.000 UL
LTa
0.50 0.50 0.50 C 4196 280 M
0 4591 V
stroke
LT0
0.50 0.50 0.50 C 4196 280 M
0 63 V
0 4528 R
0 -63 V
0 -4668 R
( 19.0919) Cshow
1.000 UL
LT0
0.50 0.50 0.50 C 1.000 UL
LTa
0.50 0.50 0.50 C 4315 280 M
0 4591 V
stroke
LT0
0.50 0.50 0.50 C 4315 280 M
0 63 V
0 4528 R
0 -63 V
0 -4668 R
( 19.799) Cshow
1.000 UL
LT0
0.50 0.50 0.50 C 1.000 UL
LTa
0.50 0.50 0.50 C 4435 280 M
0 4591 V
stroke
LT0
0.50 0.50 0.50 C 4435 280 M
0 63 V
0 4528 R
0 -63 V
0 -4668 R
( 20.5061) Cshow
1.000 UL
LT0
0.50 0.50 0.50 C 1.000 UL
LTa
0.50 0.50 0.50 C 4555 280 M
0 4591 V
stroke
LT0
0.50 0.50 0.50 C 4555 280 M
0 63 V
0 4528 R
0 -63 V
0 -4668 R
( 21.2132) Cshow
1.000 UL
LT0
0.50 0.50 0.50 C 1.000 UL
LTa
0.50 0.50 0.50 C 4674 280 M
0 4591 V
stroke
LT0
0.50 0.50 0.50 C 4674 280 M
0 63 V
0 4528 R
0 -63 V
0 -4668 R
( 21.9203) Cshow
1.000 UL
LT0
0.50 0.50 0.50 C 1.000 UL
LTa
0.50 0.50 0.50 C 4794 280 M
0 4591 V
stroke
LT0
0.50 0.50 0.50 C 4794 280 M
0 63 V
0 4528 R
0 -63 V
0 -4668 R
( 22.6274) Cshow
1.000 UL
LT0
0.50 0.50 0.50 C 1.000 UL
LTa
0.50 0.50 0.50 C 4913 280 M
0 4591 V
stroke
LT0
0.50 0.50 0.50 C 4913 280 M
0 63 V
0 4528 R
0 -63 V
0 -4668 R
( 23.3345) Cshow
1.000 UL
LT0
0.50 0.50 0.50 C 1.000 UL
LTa
0.50 0.50 0.50 C 5033 280 M
0 4591 V
stroke
LT0
0.50 0.50 0.50 C 5033 280 M
0 63 V
0 4528 R
0 -63 V
0 -4668 R
( 24.0416) Cshow
1.000 UL
LT0
0.50 0.50 0.50 C 1.000 UL
LTa
0.50 0.50 0.50 C 5153 280 M
0 4591 V
stroke
LT0
0.50 0.50 0.50 C 5153 280 M
0 63 V
0 4528 R
0 -63 V
0 -4668 R
( 24.7487) Cshow
1.000 UL
LT0
0.50 0.50 0.50 C 1.000 UL
LTa
0.50 0.50 0.50 C 5272 280 M
0 4591 V
stroke
LT0
0.50 0.50 0.50 C 5272 280 M
0 63 V
0 4528 R
0 -63 V
0 -4668 R
( 25.4558) Cshow
1.000 UL
LT0
0.50 0.50 0.50 C 1.000 UL
LTa
0.50 0.50 0.50 C 5392 280 M
0 4591 V
stroke
LT0
0.50 0.50 0.50 C 5392 280 M
0 63 V
0 4528 R
0 -63 V
0 -4668 R
( 26.1629) Cshow
1.000 UL
LT0
0.50 0.50 0.50 C 1.000 UL
LTa
0.50 0.50 0.50 C 5512 280 M
0 4591 V
stroke
LT0
0.50 0.50 0.50 C 5512 280 M
0 63 V
0 4528 R
0 -63 V
0 -4668 R
( 26.87) Cshow
1.000 UL
LT0
0.50 0.50 0.50 C 1.000 UL
LTa
0.50 0.50 0.50 C 5631 280 M
0 4591 V
stroke
LT0
0.50 0.50 0.50 C 5631 280 M
0 63 V
0 4528 R
0 -63 V
0 -4668 R
( 27.5771) Cshow
1.000 UL
LT0
0.50 0.50 0.50 C 1.000 UL
LTa
0.50 0.50 0.50 C 5751 280 M
0 4591 V
stroke
LT0
0.50 0.50 0.50 C 5751 280 M
0 63 V
0 4528 R
0 -63 V
0 -4668 R
( 28.2842) Cshow
1.000 UL
LT0
0.50 0.50 0.50 C 1.000 UL
LTa
0.50 0.50 0.50 C 5870 280 M
0 4591 V
stroke
LT0
0.50 0.50 0.50 C 5870 280 M
0 63 V
0 4528 R
0 -63 V
0 -4668 R
( 28.9913) Cshow
1.000 UL
LT0
0.50 0.50 0.50 C 1.000 UL
LTa
0.50 0.50 0.50 C 5990 280 M
0 4591 V
stroke
LT0
0.50 0.50 0.50 C 5990 280 M
0 63 V
0 4528 R
0 -63 V
0 -4668 R
( 29.6985) Cshow
1.000 UL
LT0
0.50 0.50 0.50 C 1.000 UL
LTa
0.50 0.50 0.50 C 6110 280 M
0 4591 V
stroke
LT0
0.50 0.50 0.50 C 6110 280 M
0 63 V
0 4528 R
0 -63 V
0 -4668 R
( 30.4056) Cshow
1.000 UL
LT0
0.50 0.50 0.50 C 1.000 UL
LTa
0.50 0.50 0.50 C 6229 280 M
0 4591 V
stroke
LT0
0.50 0.50 0.50 C 6229 280 M
0 63 V
0 4528 R
0 -63 V
0 -4668 R
( 31.1127) Cshow
1.000 UL
LT0
0.50 0.50 0.50 C 1.000 UL
LTa
0.50 0.50 0.50 C 6349 280 M
0 4591 V
stroke
LT0
0.50 0.50 0.50 C 6349 280 M
0 63 V
0 4528 R
0 -63 V
0 -4668 R
( 31.8198) Cshow
1.000 UL
LT0
0.50 0.50 0.50 C 1.000 UL
LTa
0.50 0.50 0.50 C 6469 280 M
0 4591 V
stroke
LT0
0.50 0.50 0.50 C 6469 280 M
0 63 V
0 4528 R
0 -63 V
0 -4668 R
( 32.5269) Cshow
1.000 UL
LT0
0.50 0.50 0.50 C 1.000 UL
LTa
0.50 0.50 0.50 C 6588 280 M
0 4591 V
stroke
LT0
0.50 0.50 0.50 C 6588 280 M
0 63 V
0 4528 R
0 -63 V
0 -4668 R
( 33.234) Cshow
1.000 UL
LT0
0.50 0.50 0.50 C 1.000 UL
LTa
0.50 0.50 0.50 C 6708 280 M
0 4591 V
stroke
LT0
0.50 0.50 0.50 C 6708 280 M
0 63 V
0 4528 R
0 -63 V
0 -4668 R
( 33.9411) Cshow
1.000 UL
LT0
0.50 0.50 0.50 C 1.000 UL
LTa
0.50 0.50 0.50 C 6827 280 M
0 4591 V
stroke
LT0
0.50 0.50 0.50 C 6827 280 M
0 63 V
0 4528 R
0 -63 V
0 -4668 R
( 34.6482) Cshow
1.000 UL
LT0
0.50 0.50 0.50 C 1.000 UL
LTa
0.50 0.50 0.50 C 6947 280 M
0 4591 V
stroke
LT0
0.50 0.50 0.50 C 6947 280 M
0 63 V
0 4528 R
0 -63 V
0 -4668 R
( 35.3553) Cshow
1.000 UL
LT0
0.50 0.50 0.50 C 1.000 UL
LT0
0.50 0.50 0.50 C 966 4871 M
966 280 L
5981 0 V
0 4591 R
-5981 0 R
1.000 UP
stroke
LT0
0.50 0.50 0.50 C % Begin plot #1
1.500 UP
2.000 UL
LT0
0.00 0.00 1.00 C /Helvetica findfont 140 scalefont setfont
/vshift -46 def
966 372 M
120 0 V
119 0 V
120 0 V
119 0 V
120 0 V
120 0 V
119 0 V
120 0 V
120 0 V
119 0 V
120 0 V
119 0 V
0 183 R
120 0 V
0 184 R
120 0 V
0 276 R
119 0 V
120 0 V
0 550 R
120 0 V
119 0 V
120 0 V
119 0 V
120 0 V
0 92 R
120 0 V
119 0 V
0 184 R
120 0 V
120 0 V
119 0 V
120 0 V
0 184 R
119 0 V
120 0 V
120 0 V
0 91 R
119 0 V
120 0 V
119 0 V
0 276 R
120 0 V
0 1102 R
120 0 V
119 0 V
0 183 R
120 0 V
120 0 V
119 0 V
120 0 V
119 0 V
120 0 V
0 184 R
120 0 V
119 0 V
0 275 R
120 0 V
120 0 V
0 460 R
119 0 V
120 0 V
119 0 V
2401 372 M
0 92 V
0 91 V
120 0 R
0 92 V
0 92 V
120 0 R
0 92 V
0 92 V
0 92 V
239 0 R
0 91 V
0 92 V
0 92 V
0 92 V
0 92 V
0 91 V
598 0 R
0 92 V
239 0 R
0 92 V
0 92 V
479 0 R
0 92 V
0 92 V
359 0 R
0 91 V
358 0 R
0 92 V
0 92 V
0 92 V
120 0 R
0 92 V
0 92 V
0 91 V
0 92 V
0 92 V
0 92 V
0 92 V
0 91 V
0 92 V
stroke 5033 3218 M
0 92 V
0 92 V
0 92 V
239 0 R
0 92 V
0 91 V
718 0 R
0 92 V
0 92 V
239 0 R
0 92 V
0 92 V
0 91 V
240 0 R
0 92 V
0 92 V
0 92 V
0 92 V
0 92 V
966 280 M
0 92 V
6827 4687 M
0 92 V
0 -183 R
0 91 V
966 372 CircleF
1086 372 CircleF
1086 372 CircleF
1205 372 CircleF
1205 372 CircleF
1325 372 CircleF
1325 372 CircleF
1444 372 CircleF
1444 372 CircleF
1564 372 CircleF
1564 372 CircleF
1684 372 CircleF
1684 372 CircleF
1803 372 CircleF
1803 372 CircleF
1923 372 CircleF
1923 372 CircleF
2043 372 CircleF
2043 372 CircleF
2162 372 CircleF
2162 372 CircleF
2282 372 CircleF
2282 372 CircleF
2401 372 CircleF
2401 555 CircleF
2521 555 CircleF
2521 739 CircleF
2641 739 CircleF
2641 1015 CircleF
2760 1015 CircleF
2760 1015 CircleF
2880 1015 CircleF
2880 1565 CircleF
3000 1565 CircleF
3000 1565 CircleF
3119 1565 CircleF
3119 1565 CircleF
3239 1565 CircleF
3239 1565 CircleF
3358 1565 CircleF
3358 1565 CircleF
3478 1565 CircleF
3478 1657 CircleF
3598 1657 CircleF
3598 1657 CircleF
3717 1657 CircleF
3717 1841 CircleF
3837 1841 CircleF
3837 1841 CircleF
3957 1841 CircleF
3957 1841 CircleF
4076 1841 CircleF
4076 1841 CircleF
4196 1841 CircleF
4196 2025 CircleF
4315 2025 CircleF
4315 2025 CircleF
4435 2025 CircleF
4435 2025 CircleF
4555 2025 CircleF
4555 2116 CircleF
4674 2116 CircleF
4674 2116 CircleF
4794 2116 CircleF
4794 2116 CircleF
4913 2116 CircleF
4913 2392 CircleF
5033 2392 CircleF
5033 3494 CircleF
5153 3494 CircleF
5153 3494 CircleF
5272 3494 CircleF
5272 3677 CircleF
5392 3677 CircleF
5392 3677 CircleF
5512 3677 CircleF
5512 3677 CircleF
5631 3677 CircleF
5631 3677 CircleF
5751 3677 CircleF
5751 3677 CircleF
5870 3677 CircleF
5870 3677 CircleF
5990 3677 CircleF
5990 3861 CircleF
6110 3861 CircleF
6110 3861 CircleF
6229 3861 CircleF
6229 4136 CircleF
6349 4136 CircleF
6349 4136 CircleF
6469 4136 CircleF
6469 4596 CircleF
6588 4596 CircleF
6588 4596 CircleF
6708 4596 CircleF
6708 4596 CircleF
6827 4596 CircleF
2401 372 CircleF
2401 464 CircleF
2401 464 CircleF
2401 555 CircleF
2521 555 CircleF
2521 647 CircleF
2521 647 CircleF
2521 739 CircleF
2641 739 CircleF
2641 831 CircleF
2641 831 CircleF
2641 923 CircleF
2641 923 CircleF
2641 1015 CircleF
2880 1015 CircleF
2880 1106 CircleF
2880 1106 CircleF
2880 1198 CircleF
2880 1198 CircleF
2880 1290 CircleF
2880 1290 CircleF
2880 1382 CircleF
2880 1382 CircleF
2880 1474 CircleF
2880 1474 CircleF
2880 1565 CircleF
3478 1565 CircleF
3478 1657 CircleF
3717 1657 CircleF
3717 1749 CircleF
3717 1749 CircleF
3717 1841 CircleF
4196 1841 CircleF
4196 1933 CircleF
4196 1933 CircleF
4196 2025 CircleF
4555 2025 CircleF
4555 2116 CircleF
4913 2116 CircleF
4913 2208 CircleF
4913 2208 CircleF
4913 2300 CircleF
4913 2300 CircleF
4913 2392 CircleF
5033 2392 CircleF
5033 2484 CircleF
5033 2484 CircleF
5033 2576 CircleF
5033 2576 CircleF
5033 2667 CircleF
5033 2667 CircleF
5033 2759 CircleF
5033 2759 CircleF
5033 2851 CircleF
5033 2851 CircleF
5033 2943 CircleF
5033 2943 CircleF
5033 3035 CircleF
5033 3035 CircleF
5033 3126 CircleF
5033 3126 CircleF
5033 3218 CircleF
5033 3218 CircleF
5033 3310 CircleF
5033 3310 CircleF
5033 3402 CircleF
5033 3402 CircleF
5033 3494 CircleF
5272 3494 CircleF
5272 3586 CircleF
5272 3586 CircleF
5272 3677 CircleF
5990 3677 CircleF
5990 3769 CircleF
5990 3769 CircleF
5990 3861 CircleF
6229 3861 CircleF
6229 3953 CircleF
6229 3953 CircleF
6229 4045 CircleF
6229 4045 CircleF
6229 4136 CircleF
6469 4136 CircleF
6469 4228 CircleF
6469 4228 CircleF
6469 4320 CircleF
6469 4320 CircleF
6469 4412 CircleF
6469 4412 CircleF
6469 4504 CircleF
6469 4504 CircleF
6469 4596 CircleF
966 280 CircleF
966 372 CircleF
6827 4687 CircleF
6827 4779 CircleF
6827 4596 CircleF
6827 4687 CircleF
% End plot #1
% Begin plot #2
1.500 UP
2.000 UL
LT0
1.00 0.55 0.00 C /Helvetica findfont 140 scalefont setfont
1484 3150 M
120 92 V
1717 931 M
120 91 V
4577 651 R
120 92 V
5711 3541 M
120 92 V
4016 2674 M
120 92 V
6672 314 M
120 92 V
-959 640 R
120 91 V
3708 3042 M
120 91 V
1763 4490 M
120 92 V
4383 2740 M
120 92 V
4260 4645 M
120 92 V
2776 858 M
120 92 V
949 505 R
120 92 V
5330 2658 M
120 92 V
624 -797 R
119 92 V
3538 1771 M
120 92 V
4748 661 M
119 92 V
2154 3251 M
119 92 V
5289 4474 M
119 92 V
4197 3214 M
120 92 V
-3008 3 R
119 92 V
6142 1243 M
120 91 V
4392 2415 M
119 91 V
455 -843 R
120 92 V
4507 775 M
119 92 V
6630 722 M
120 92 V
5849 2532 M
120 92 V
-4558 55 R
120 92 V
3368 4236 M
120 92 V
6470 2071 M
119 92 V
97 -589 R
120 92 V
4490 4056 M
119 92 V
4428 3524 M
120 92 V
2287 1732 M
119 92 V
6296 4661 M
120 92 V
5199 1872 M
120 92 V
2991 3249 M
120 91 V
1693 287 M
120 91 V
3129 2441 M
119 92 V
1027 4124 M
119 92 V
2835 2605 M
120 92 V
1529 4575 M
120 91 V
5025 2874 M
119 92 V
-663 541 R
120 91 V
4252 2692 M
120 92 V
2332 9 R
119 91 V
2960 413 M
120 91 V
52 -162 R
120 92 V
6150 1610 M
119 92 V
-425 319 R
119 92 V
234 -174 R
120 92 V
1608 2320 M
120 92 V
2744 733 R
120 92 V
stroke 4592 3237 M
2337 2955 M
119 92 V
141 -135 R
119 92 V
1673 438 M
120 92 V
5102 3447 M
119 92 V
1637 2770 M
120 92 V
5082 592 M
120 92 V
4138 929 M
120 92 V
2756 3706 M
120 92 V
2577 613 R
120 92 V
1356 3721 M
120 92 V
4362 1284 M
120 92 V
1765 1751 M
119 92 V
6063 1475 M
120 91 V
2158 334 M
120 92 V
206 591 R
120 92 V
3226 437 R
120 92 V
616 -149 R
119 92 V
4618 3216 M
119 91 V
5871 2128 M
120 92 V
6012 859 M
120 92 V
5122 336 M
119 92 V
4100 4016 M
120 92 V
4498 949 M
120 92 V
1524 780 M
120 92 V
2127 968 R
120 91 V
1954 3428 M
120 92 V
2822 377 M
119 92 V
1666 3950 M
119 91 V
4375 2426 M
120 91 V
2094 1627 M
120 92 V
1728 541 M
120 92 V
3820 2023 M
120 92 V
5458 4623 M
120 92 V
5370 1258 M
119 92 V
3293 3646 M
120 91 V
3833 2391 M
120 92 V
3706 3513 M
120 92 V
2470 2798 M
120 92 V
2482 1797 M
119 92 V
1506 4039 M
120 92 V
651 537 R
119 92 V
5136 681 M
120 91 V
2883 2016 M
119 92 V
-1105 49 R
119 92 V
2527 930 R
120 92 V
1902 4631 M
120 92 V
1392 3265 M
119 92 V
548 439 R
120 92 V
5133 1287 M
120 92 V
1109 4579 M
120 92 V
2082 2919 M
120 91 V
5651 804 M
119 92 V
stroke 5770 896 M
2120 1804 M
119 91 V
503 -417 R
119 92 V
5499 4117 M
119 91 V
2133 640 M
120 92 V
918 3610 R
119 92 V
3905 361 M
120 92 V
3084 794 M
119 92 V
5442 4386 M
120 92 V
4249 3390 M
120 92 V
2937 4377 M
119 92 V
1084 2712 M
120 92 V
3205 128 R
120 92 V
6576 4044 M
119 91 V
6686 978 M
120 92 V
1342 1458 M
120 92 V
2557 3131 M
120 92 V
1517 4457 M
119 92 V
450 -20 R
119 92 V
1201 4136 M
120 92 V
6360 3225 M
120 92 V
3740 3480 M
120 92 V
3072 1082 M
120 92 V
4933 3961 M
120 92 V
4757 2032 M
119 92 V
2286 1379 M
120 92 V
2357 637 R
120 91 V
2975 1251 M
119 92 V
2306 898 M
119 91 V
635 2214 R
120 91 V
2571 878 M
119 92 V
3239 309 M
120 92 V
1527 2017 M
120 92 V
662 2535 R
119 92 V
2663 992 M
120 91 V
3056 642 R
119 91 V
3514 539 M
120 91 V
2801 3673 M
119 92 V
6481 894 M
120 92 V
2856 3695 M
119 92 V
6657 3562 M
120 92 V
-3386 73 R
120 92 V
3426 1107 M
120 92 V
1900 1511 M
120 92 V
6204 2760 M
120 91 V
4293 1445 M
120 92 V
3746 3280 M
119 92 V
6657 1428 M
119 92 V
3762 608 M
120 92 V
3582 2077 M
119 92 V
3559 3187 M
119 92 V
5255 1925 M
120 92 V
6527 1761 M
120 92 V
stroke 6647 1853 M
3583 3128 M
120 92 V
-904 538 R
119 91 V
-633 238 R
120 92 V
3978 123 R
120 91 V
5500 3658 M
119 92 V
3684 4428 M
119 92 V
3257 803 M
120 92 V
6046 3376 M
120 92 V
2606 3670 M
120 92 V
3943 1548 M
119 92 V
435 1540 R
119 92 V
6067 593 M
120 92 V
2888 2936 M
119 92 V
1661 4590 M
120 92 V
2551 728 M
119 92 V
1363 1341 M
120 92 V
5728 1033 M
120 92 V
1529 4491 M
120 92 V
3607 764 M
119 91 V
2371 2172 M
120 92 V
3094 473 M
120 92 V
6686 1900 M
119 91 V
2991 3859 M
119 92 V
1867 3764 M
119 92 V
1727 2038 M
120 92 V
5731 3860 M
119 92 V
5116 2087 M
120 92 V
2431 506 M
120 92 V
1569 3479 M
120 92 V
3054 1912 M
120 92 V
1317 932 M
120 92 V
4888 984 M
120 91 V
2245 2930 M
120 92 V
3063 817 M
119 92 V
937 476 R
120 92 V
3146 700 M
120 92 V
1039 2815 M
120 92 V
1923 1073 M
120 92 V
3281 157 R
120 92 V
1046 110 R
120 91 V
3995 4546 M
119 92 V
2632 2589 M
120 92 V
6643 4201 M
120 92 V
5299 2495 M
119 92 V
1541 1937 M
120 91 V
2317 319 M
120 91 V
-22 1674 R
119 92 V
2616 970 M
119 92 V
4215 3198 M
119 92 V
3379 321 M
120 92 V
2063 3916 M
120 92 V
4143 2320 M
119 92 V
stroke 4262 2412 M
1390 2750 M
119 92 V
6380 2306 M
120 92 V
-663 305 R
120 92 V
3512 2690 M
120 92 V
6354 714 M
120 91 V
3922 684 M
120 92 V
3866 2787 M
120 92 V
4293 1630 M
119 92 V
3189 311 M
120 92 V
1088 2755 M
120 92 V
5461 724 R
120 92 V
-669 335 R
120 92 V
6492 1855 M
120 91 V
3078 4681 M
120 91 V
2111 2494 M
120 91 V
1632 2158 M
119 92 V
2525 766 M
120 92 V
4619 4513 M
119 92 V
5816 4252 M
120 92 V
2291 462 M
120 92 V
3997 3741 M
119 92 V
1795 983 M
119 92 V
3860 4609 M
120 92 V
1811 1789 M
120 92 V
1738 1517 M
119 92 V
1269 3151 M
119 92 V
5369 2362 M
120 92 V
3412 3404 M
119 92 V
6433 4507 M
120 91 V
3336 2095 M
120 92 V
-52 -177 R
120 91 V
482 386 R
119 92 V
1807 3782 M
119 92 V
3039 876 M
119 92 V
6293 843 M
120 92 V
1549 3926 M
120 92 V
6028 485 M
119 92 V
3611 860 M
120 92 V
1260 821 M
120 91 V
4904 2376 M
120 92 V
2879 3750 M
119 92 V
5595 2631 M
119 92 V
4441 3099 M
120 92 V
4757 1359 M
120 92 V
733 -196 R
119 92 V
1184 3226 M
119 92 V
6253 716 M
119 91 V
6112 4035 M
119 91 V
4268 731 M
119 92 V
3694 983 M
119 92 V
1541 981 R
120 92 V
4169 1211 M
119 92 V
stroke 4288 1303 M
5799 4632 M
119 91 V
4230 4584 M
120 91 V
3539 3010 M
120 92 V
1948 2129 M
120 92 V
4042 3317 M
120 92 V
2878 815 M
119 92 V
1934 2058 M
120 91 V
1210 -79 R
120 92 V
1310 756 M
120 91 V
3080 3503 M
120 92 V
1276 3238 M
119 92 V
3757 2731 M
119 92 V
3011 3986 M
120 92 V
1484 3760 M
120 92 V
441 -916 R
120 91 V
5703 1307 M
120 92 V
3041 4575 M
119 92 V
5246 1321 M
120 92 V
1715 1743 M
120 92 V
3576 4011 M
120 92 V
5046 2320 M
119 92 V
-282 22 R
119 92 V
1904 2028 M
120 91 V
3530 1600 M
119 92 V
975 2062 M
120 92 V
969 431 R
119 92 V
3184 4072 M
120 92 V
2013 1772 M
120 92 V
4488 182 R
120 92 V
3113 3524 M
120 91 V
2219 1638 M
120 91 V
1384 3950 M
119 92 V
3169 1551 M
120 92 V
5836 953 M
119 92 V
-390 628 R
119 92 V
4868 353 M
120 92 V
2627 3369 M
120 92 V
2611 3161 M
120 92 V
3667 651 R
120 91 V
2013 3919 M
119 92 V
3328 398 R
120 92 V
6551 682 M
120 91 V
1880 4511 M
120 92 V
6443 1478 M
120 92 V
5125 2064 M
120 92 V
422 -999 R
120 92 V
2623 2968 M
119 91 V
5960 1205 M
120 92 V
2640 2585 M
119 91 V
2211 4488 M
119 92 V
2545 1818 M
119 92 V
-255 728 R
120 92 V
stroke 2529 2730 M
4787 4067 M
120 91 V
4805 3557 M
120 91 V
4565 1277 M
120 91 V
1944 1196 M
120 92 V
129 1923 R
119 92 V
5380 1272 M
119 91 V
2074 331 M
119 91 V
5717 2790 M
120 92 V
2009 495 M
119 91 V
4185 3041 M
120 92 V
4843 2091 M
120 92 V
3498 4159 M
120 92 V
5744 2706 M
119 92 V
502 1218 R
120 91 V
2883 1072 M
120 92 V
1756 393 R
120 92 V
3462 336 M
120 92 V
1935 366 M
119 92 V
6441 4270 M
120 92 V
2759 2671 M
119 91 V
616 -522 R
119 91 V
901 -380 R
120 91 V
4233 3520 M
120 92 V
5772 1095 M
119 92 V
2293 3001 M
119 92 V
150 1376 R
119 91 V
3840 2770 M
119 92 V
2593 3930 M
120 92 V
36 282 R
120 92 V
2497 3783 M
119 92 V
2385 2909 M
120 91 V
6571 1735 M
120 92 V
4066 3542 M
119 92 V
1302 4422 M
120 92 V
5953 1199 M
120 92 V
3086 1464 M
120 92 V
6458 3555 M
120 92 V
5685 2000 M
120 92 V
5654 3415 M
120 92 V
732 1121 R
119 91 V
1017 1625 M
119 92 V
2346 4318 M
119 92 V
1127 299 M
120 92 V
6668 3404 M
120 92 V
1601 1915 M
120 92 V
4054 966 M
120 92 V
827 1380 R
120 91 V
570 239 R
120 91 V
2483 4442 M
120 92 V
2392 2124 M
120 91 V
565 1002 R
120 92 V
1687 1401 M
120 92 V
stroke 1807 1493 M
59 -745 R
120 92 V
1924 991 R
120 91 V
2434 759 M
120 92 V
5486 3653 M
120 91 V
1892 4221 M
120 92 V
3995 4169 M
119 91 V
1560 -57 R
119 92 V
2753 2729 M
120 92 V
6320 1677 M
120 92 V
-578 278 R
119 92 V
3340 1503 M
120 92 V
1676 2518 M
119 92 V
3122 747 R
120 92 V
631 821 R
120 91 V
1640 1270 M
120 92 V
364 3044 R
120 91 V
5016 2835 M
119 92 V
5925 1103 M
120 92 V
4101 1832 M
119 92 V
5455 4427 M
120 92 V
5016 3027 M
119 92 V
1584 4580 M
120 92 V
5163 1421 M
120 92 V
1035 2677 M
120 92 V
547 -480 R
119 92 V
2380 915 R
120 92 V
-2705 10 R
119 92 V
6671 4541 M
119 92 V
6217 3858 M
120 92 V
4036 4292 M
120 92 V
2267 783 M
119 92 V
4175 3076 M
119 92 V
4475 788 M
120 92 V
1258 539 R
120 92 V
3275 1261 M
120 92 V
4438 480 M
120 91 V
2118 844 M
119 92 V
5548 578 M
120 91 V
4443 2973 M
120 92 V
6065 350 M
120 92 V
3958 716 M
119 92 V
3227 4502 M
120 91 V
5777 1989 M
120 92 V
4530 3810 M
119 92 V
6456 1893 M
120 92 V
3505 2623 M
120 92 V
422 406 R
120 92 V
1831 1241 M
120 92 V
3259 748 M
120 91 V
1882 3503 M
120 92 V
4449 2123 M
120 92 V
3248 984 M
120 92 V
stroke 3368 1076 M
2351 2670 M
120 92 V
4052 1822 M
120 92 V
1412 3974 M
120 92 V
1338 751 M
120 92 V
2510 376 R
119 91 V
-443 733 R
120 91 V
729 -142 R
120 91 V
-9 2073 R
120 92 V
5586 673 M
119 92 V
2436 4570 M
119 92 V
4249 4440 M
120 92 V
5243 2416 M
120 92 V
1278 558 M
120 92 V
2494 3221 M
119 92 V
3609 1650 M
119 92 V
5782 636 M
120 91 V
2823 1593 M
119 92 V
4287 4671 M
120 92 V
2074 2668 M
120 91 V
5292 1603 M
120 92 V
-147 184 R
119 92 V
4156 390 M
120 92 V
704 3503 R
119 92 V
2514 826 M
119 92 V
5090 500 M
119 91 V
4711 4395 M
120 92 V
6502 3202 M
120 92 V
5838 3078 M
119 92 V
5348 4502 M
120 92 V
3281 3266 M
120 92 V
718 -52 R
120 91 V
1319 4589 M
120 92 V
6394 3448 M
119 92 V
-328 528 R
120 92 V
2922 4056 M
120 92 V
2895 2904 M
120 92 V
2276 1485 M
120 91 V
3482 2639 M
120 91 V
2942 3996 M
119 92 V
3424 294 M
120 92 V
2173 643 M
119 92 V
-328 308 R
120 92 V
2376 82 R
120 92 V
2782 1256 M
120 92 V
1214 2864 M
120 92 V
2221 1271 M
120 92 V
2051 2572 M
119 91 V
4495 1085 M
120 92 V
5540 452 M
120 92 V
4761 1939 M
119 92 V
291 2261 R
119 91 V
18 -175 R
119 92 V
stroke 5427 4300 M
-1257 -8 R
120 91 V
1128 3237 M
120 92 V
3386 2146 M
120 92 V
1819 2784 M
119 91 V
6022 2380 M
120 92 V
2165 1302 M
119 92 V
4118 945 R
120 92 V
6065 706 M
119 92 V
3763 4532 M
119 92 V
5130 3438 M
120 92 V
4117 3225 M
119 92 V
2158 3290 M
120 92 V
5173 1878 M
120 92 V
2995 3960 M
120 92 V
5561 1167 M
119 92 V
1856 390 M
120 91 V
101 918 R
120 92 V
1373 638 M
120 92 V
2942 4637 M
120 92 V
1644 4403 M
120 91 V
5375 3022 M
120 92 V
1988 1662 M
119 92 V
777 -220 R
120 91 V
4237 1010 M
119 91 V
-615 250 R
120 92 V
1304 2800 M
120 91 V
6179 765 M
119 92 V
1249 2189 M
120 91 V
1868 497 R
120 91 V
2916 2731 M
120 92 V
1575 389 M
119 92 V
4984 3762 M
119 92 V
3721 4184 M
120 92 V
2839 2024 M
119 91 V
5143 828 M
120 91 V
3277 1199 M
120 92 V
-657 937 R
120 91 V
5986 976 M
119 92 V
3535 2204 M
119 92 V
1548 1504 M
120 91 V
5153 3927 M
119 92 V
2930 2393 M
119 92 V
-51 -938 R
120 92 V
1456 4365 M
119 92 V
3624 2529 M
120 92 V
2338 1388 M
120 92 V
-58 926 R
119 92 V
3804 860 R
120 92 V
5113 1097 M
120 92 V
3888 4574 M
120 91 V
2504 4527 M
120 92 V
2943 3161 M
120 91 V
stroke 3063 3252 M
6242 1814 M
119 92 V
2491 3195 M
120 92 V
5281 2170 M
120 91 V
617 1652 R
120 92 V
6208 608 M
120 92 V
3451 2140 M
120 92 V
1963 3539 M
120 92 V
4359 2553 M
120 92 V
2982 4303 M
119 92 V
5439 1594 M
120 92 V
-980 374 R
119 92 V
1577 2336 M
120 92 V
3236 775 R
119 91 V
5397 2091 M
120 92 V
1163 3944 M
119 91 V
1080 3500 M
119 92 V
3817 3431 M
120 92 V
1064 2783 M
120 92 V
3564 1634 M
119 91 V
457 320 R
119 92 V
2785 3136 M
119 92 V
-955 427 R
119 92 V
1994 -4 R
120 92 V
1503 2420 M
120 92 V
1521 1590 M
119 92 V
3426 4004 M
120 91 V
3792 1206 M
120 92 V
3550 412 M
119 92 V
2910 833 R
119 92 V
3383 3388 M
119 92 V
1513 432 M
120 92 V
5879 2407 M
120 92 V
5854 1398 M
120 92 V
2609 2947 M
119 91 V
3777 4395 M
119 91 V
4469 1494 M
120 92 V
6382 2834 M
120 92 V
6113 1239 M
119 92 V
3722 4167 M
120 92 V
1452 343 R
119 92 V
4581 2972 M
120 92 V
4280 4138 M
120 92 V
6586 1916 M
119 92 V
6382 3836 M
120 92 V
6377 2137 M
119 92 V
1146 2546 M
119 92 V
200 1634 R
119 92 V
3087 467 M
119 92 V
6513 3302 M
120 92 V
1550 2723 M
120 92 V
1496 4535 M
119 92 V
4644 1791 M
119 92 V
stroke 4763 1883 M
1889 3683 M
120 92 V
3364 3052 M
119 92 V
1758 3377 M
120 92 V
6257 2825 M
120 91 V
2244 1571 M
120 92 V
1902 2821 M
120 92 V
2310 374 M
120 91 V
-610 867 R
120 92 V
92 712 R
119 92 V
4195 4065 M
119 91 V
3151 1059 M
120 91 V
6039 3451 M
120 92 V
122 201 R
120 92 V
5000 3340 M
119 92 V
463 1185 R
120 92 V
3586 1394 M
120 92 V
6281 2948 M
119 92 V
1342 4124 M
120 92 V
655 397 R
120 92 V
3379 797 M
120 92 V
291 3310 R
119 92 V
1160 50 R
119 92 V
1987 2249 M
120 92 V
3975 4665 M
119 92 V
1354 1135 M
119 92 V
5292 508 M
120 92 V
99 1860 R
119 92 V
4811 1404 M
119 92 V
4906 372 M
119 92 V
4034 3323 M
120 92 V
1214 3638 M
120 92 V
4020 3548 M
120 91 V
6260 1243 M
119 92 V
3274 3465 M
120 92 V
3747 2098 M
120 92 V
3064 336 M
120 91 V
6004 1513 M
120 91 V
3553 2087 M
120 91 V
-173 257 R
120 92 V
5286 1901 M
120 92 V
1889 2731 M
120 92 V
495 -617 R
119 92 V
1449 4348 M
120 92 V
6189 3136 M
120 92 V
6286 1359 M
120 92 V
3845 4534 M
120 92 V
6274 3024 M
120 91 V
4908 1098 M
119 92 V
1770 1072 M
120 92 V
5500 2875 M
120 92 V
5769 1047 M
120 92 V
5756 1014 M
119 92 V
stroke 5875 1106 M
-57 600 R
120 92 V
1013 338 M
120 91 V
1943 60 R
119 92 V
5753 4355 M
119 92 V
2182 4395 M
120 92 V
2131 3646 M
119 92 V
4927 2980 M
120 92 V
6088 1231 M
119 91 V
2205 4625 M
120 92 V
4123 1198 M
120 92 V
314 1335 R
120 92 V
3342 527 M
120 91 V
1419 88 R
119 92 V
315 3000 R
119 92 V
3222 2267 M
120 92 V
1423 118 R
119 92 V
6002 3770 M
119 92 V
3458 4183 M
120 92 V
4177 3024 M
120 92 V
1822 2128 M
120 91 V
4406 4622 M
119 92 V
3654 4149 M
120 92 V
3136 1507 M
120 91 V
2125 231 R
120 92 V
3207 1010 M
119 92 V
71 -412 R
120 92 V
1066 3293 M
120 92 V
2781 946 M
120 92 V
4198 3704 M
120 91 V
5257 769 M
119 92 V
4420 2595 M
120 92 V
3595 3932 M
120 92 V
2285 370 R
120 92 V
2869 843 M
120 92 V
1910 1969 M
120 91 V
6626 3443 M
120 92 V
1602 3222 M
119 92 V
5847 2929 M
120 92 V
2776 4239 M
120 92 V
-782 195 R
119 92 V
2398 2272 M
120 92 V
1552 2158 M
120 91 V
5512 3964 M
119 92 V
1353 3945 M
120 92 V
3346 3838 M
119 92 V
6455 457 M
120 92 V
5240 2935 M
120 92 V
6576 299 M
120 92 V
5618 3236 M
120 92 V
4493 3442 M
120 92 V
5373 631 M
119 91 V
2517 2136 M
119 92 V
stroke 2636 2228 M
4790 3768 M
119 92 V
5678 1089 M
120 92 V
4344 2343 M
119 92 V
2069 370 R
119 92 V
3059 1813 M
119 92 V
5175 294 M
119 91 V
642 1982 R
119 92 V
-85 1381 R
120 92 V
5944 2218 M
120 92 V
310 1531 R
120 92 V
4540 536 M
120 92 V
4538 1699 M
119 92 V
815 -145 R
119 92 V
-612 671 R
120 92 V
1479 667 M
119 92 V
4362 900 R
120 91 V
5702 1636 M
120 92 V
1624 3684 M
120 92 V
5731 1321 M
120 92 V
5640 3008 M
120 92 V
6535 287 M
119 92 V
5113 4636 M
120 92 V
1398 2986 M
120 91 V
3971 628 M
120 92 V
5965 3425 M
120 91 V
3905 1316 M
120 92 V
-964 87 R
120 91 V
3457 717 R
119 92 V
2033 1641 M
120 92 V
2866 404 M
120 92 V
-223 526 R
119 92 V
1462 512 R
120 92 V
4365 514 M
119 92 V
605 2816 R
119 92 V
5750 2253 M
120 92 V
4630 2192 M
120 92 V
3656 4007 M
120 92 V
1685 214 R
120 91 V
643 -471 R
119 91 V
5762 1797 M
120 92 V
2540 777 M
120 91 V
811 1117 R
120 91 V
658 1999 R
119 92 V
2581 377 M
119 92 V
4184 4301 M
120 92 V
4275 1721 M
120 91 V
15 1681 R
120 92 V
368 526 R
119 92 V
2027 1285 M
120 92 V
5183 4246 M
119 92 V
2972 506 M
120 92 V
5305 480 M
119 92 V
stroke 5424 572 M
3987 3291 M
120 92 V
715 -281 R
119 92 V
3220 3490 M
120 92 V
5759 1748 M
119 92 V
6440 433 M
119 92 V
1773 2522 M
120 92 V
3484 4097 M
120 92 V
3365 821 M
120 92 V
509 283 R
120 92 V
16 1643 R
119 92 V
1747 1774 M
120 92 V
1682 1369 M
119 92 V
4903 426 M
120 92 V
2420 4626 M
119 91 V
3365 585 M
119 92 V
-12 2432 R
120 92 V
6161 2955 M
120 92 V
5136 1959 M
120 91 V
1379 642 M
120 92 V
1349 2561 M
120 92 V
2361 954 R
120 92 V
3599 1504 M
119 92 V
2776 1145 M
120 92 V
4444 3479 M
120 92 V
4937 672 M
120 92 V
3702 2054 M
120 92 V
3421 4314 M
120 92 V
35 -559 R
119 91 V
3857 757 M
120 92 V
5802 2252 M
120 92 V
4150 1839 M
119 91 V
2164 3321 M
120 92 V
6122 849 M
119 91 V
3686 2160 M
119 92 V
1104 2143 M
119 91 V
2695 55 R
120 92 V
1501 3026 M
119 91 V
5971 1225 M
120 92 V
3687 2770 M
119 92 V
2558 362 R
120 92 V
1737 1089 M
120 92 V
55 1779 R
120 92 V
6598 2183 M
120 92 V
2083 3211 M
119 92 V
6387 2192 M
120 91 V
4525 2070 M
120 92 V
976 4041 M
119 92 V
5434 1 R
120 92 V
1342 1937 M
119 91 V
512 -666 R
119 92 V
3923 375 M
120 92 V
3810 4505 M
120 92 V
stroke 3930 4597 M
5448 2257 M
120 92 V
544 1675 R
119 92 V
1619 2135 M
119 92 V
6019 1732 M
119 92 V
1405 1556 M
120 92 V
4599 493 R
120 92 V
3457 4409 M
119 91 V
5235 3307 M
120 92 V
1406 2840 M
119 92 V
2464 610 M
120 92 V
2265 3208 M
120 92 V
190 839 R
120 92 V
1751 3411 M
120 91 V
641 -771 R
120 92 V
6601 2565 M
119 92 V
2071 4386 M
120 92 V
4967 2814 M
119 92 V
626 989 R
120 92 V
1637 352 M
119 92 V
4526 4679 M
119 92 V
2487 1564 M
119 92 V
2249 815 M
119 92 V
2022 150 R
119 92 V
698 2572 R
120 92 V
2830 3989 M
120 92 V
1210 428 M
120 91 V
5485 2547 M
120 92 V
3048 969 M
120 92 V
4936 2999 M
119 92 V
3804 1797 M
120 92 V
5012 3109 M
120 92 V
1092 840 M
119 92 V
-76 3636 R
120 91 V
3679 1804 M
120 92 V
1714 841 R
120 91 V
1851 2072 M
120 92 V
1503 703 M
120 91 V
5732 3401 M
120 92 V
2335 1885 M
120 92 V
3919 4065 M
120 92 V
1381 -78 R
120 91 V
4516 3239 M
119 92 V
234 1094 R
119 92 V
5272 1072 M
120 92 V
1443 4488 M
120 92 V
2611 56 R
120 92 V
2178 4592 M
120 92 V
1403 3747 M
120 91 V
460 -799 R
120 92 V
-222 3 R
120 92 V
522 -259 R
120 91 V
2116 315 M
120 91 V
stroke 2236 406 M
6210 2246 M
120 92 V
3099 693 M
120 92 V
5531 3811 M
120 92 V
2692 3012 M
120 92 V
2351 440 R
119 92 V
5350 985 M
120 92 V
3517 2062 M
119 92 V
1292 3864 M
119 92 V
4156 -92 R
120 92 V
1209 4294 M
119 92 V
5773 3653 M
120 92 V
3726 994 M
120 92 V
2384 3111 M
120 92 V
5871 1606 M
119 91 V
257 2777 R
119 91 V
15 -1967 R
120 92 V
2524 3218 M
120 92 V
1675 4502 M
119 92 V
4251 2019 M
120 92 V
2503 3872 M
119 92 V
5050 1760 M
119 92 V
2201 1595 M
120 92 V
3265 650 R
120 92 V
4980 1962 M
120 91 V
3258 3348 M
120 92 V
3236 71 R
120 92 V
3912 3232 M
119 91 V
5773 1890 M
120 92 V
2074 1360 M
119 92 V
6220 3948 M
120 92 V
2697 3908 M
120 91 V
2705 2210 M
119 91 V
3875 693 R
119 92 V
4854 2846 M
119 92 V
2210 2733 M
119 91 V
4251 909 M
119 92 V
-30 501 R
120 92 V
3116 2100 M
120 91 V
1007 3780 M
119 92 V
3644 644 M
120 91 V
1991 2595 M
120 92 V
5944 3695 M
119 91 V
3160 4094 M
119 92 V
1800 1834 M
120 92 V
4173 1746 M
120 91 V
1988 4107 M
120 92 V
5217 2714 M
120 92 V
4221 2510 M
119 92 V
2151 1185 M
120 92 V
4319 344 M
119 92 V
-896 846 R
120 92 V
2191 3695 M
120 92 V
stroke 2311 3787 M
6179 1434 M
120 92 V
3794 2635 M
120 91 V
1286 4376 M
120 91 V
2566 2072 M
120 92 V
826 2027 R
120 92 V
3451 449 M
120 92 V
2092 2887 M
119 91 V
5474 2671 M
119 92 V
5327 773 M
119 92 V
2282 3535 M
119 92 V
3713 2882 M
120 92 V
6207 350 M
119 92 V
5730 832 M
120 92 V
2721 1916 M
119 91 V
1965 1218 M
120 92 V
1218 3547 M
120 92 V
4448 2738 M
120 92 V
5133 530 M
120 91 V
137 1592 R
120 92 V
187 -448 R
120 92 V
4766 2438 M
119 92 V
1657 3760 M
120 92 V
5560 2048 M
120 92 V
4411 1078 M
120 92 V
2949 2920 M
120 91 V
3635 1129 M
119 92 V
4048 478 M
119 91 V
2009 1600 M
120 92 V
1647 4221 M
119 92 V
3784 1789 M
119 92 V
2439 1603 M
120 92 V
1274 198 R
120 92 V
3643 542 M
119 92 V
5158 327 M
119 92 V
1828 990 M
120 92 V
879 2947 R
120 92 V
1350 1938 M
120 92 V
4733 208 R
120 91 V
2208 2784 M
119 92 V
6021 466 M
120 92 V
3747 1541 M
120 92 V
1894 3551 M
120 92 V
1750 3019 M
119 92 V
1846 194 R
119 92 V
3579 2622 M
119 91 V
3245 1130 M
119 91 V
1574 1588 M
119 92 V
6494 655 M
120 92 V
6454 2623 M
119 92 V
4363 4109 M
120 92 V
3787 1442 M
119 92 V
5610 2842 M
120 92 V
stroke 5730 2934 M
2720 4129 M
120 92 V
2767 477 M
120 92 V
982 1189 M
119 92 V
2475 3884 M
120 92 V
1542 3897 M
120 92 V
2859 1074 M
120 92 V
2060 3997 M
120 92 V
5188 3587 M
119 92 V
3913 2997 M
119 92 V
546 196 R
120 92 V
2507 2749 M
120 92 V
627 -381 R
120 92 V
776 458 R
119 92 V
1484 3150 CircleF
1604 3242 CircleF
1717 931 CircleF
1837 1022 CircleF
6414 1673 CircleF
6534 1765 CircleF
5711 3541 CircleF
5831 3633 CircleF
4016 2674 CircleF
4136 2766 CircleF
6672 314 CircleF
6792 406 CircleF
5833 1046 CircleF
5953 1137 CircleF
3708 3042 CircleF
3828 3133 CircleF
1763 4490 CircleF
1883 4582 CircleF
4383 2740 CircleF
4503 2832 CircleF
4260 4645 CircleF
4380 4737 CircleF
2776 858 CircleF
2896 950 CircleF
3845 1455 CircleF
3965 1547 CircleF
5330 2658 CircleF
5450 2750 CircleF
6074 1953 CircleF
6193 2045 CircleF
3538 1771 CircleF
3658 1863 CircleF
4748 661 CircleF
4867 753 CircleF
2154 3251 CircleF
2273 3343 CircleF
5289 4474 CircleF
5408 4566 CircleF
4197 3214 CircleF
4317 3306 CircleF
1309 3309 CircleF
1428 3401 CircleF
6142 1243 CircleF
6262 1334 CircleF
4392 2415 CircleF
4511 2506 CircleF
4966 1663 CircleF
5086 1755 CircleF
4507 775 CircleF
4626 867 CircleF
6630 722 CircleF
6750 814 CircleF
5849 2532 CircleF
5969 2624 CircleF
1411 2679 CircleF
1531 2771 CircleF
3368 4236 CircleF
3488 4328 CircleF
6470 2071 CircleF
6589 2163 CircleF
6686 1574 CircleF
6806 1666 CircleF
4490 4056 CircleF
4609 4148 CircleF
4428 3524 CircleF
4548 3616 CircleF
2287 1732 CircleF
2406 1824 CircleF
6296 4661 CircleF
6416 4753 CircleF
5199 1872 CircleF
5319 1964 CircleF
2991 3249 CircleF
3111 3340 CircleF
1693 287 CircleF
1813 378 CircleF
3129 2441 CircleF
3248 2533 CircleF
1027 4124 CircleF
1146 4216 CircleF
2835 2605 CircleF
2955 2697 CircleF
1529 4575 CircleF
1649 4666 CircleF
5025 2874 CircleF
5144 2966 CircleF
4481 3507 CircleF
4601 3598 CircleF
4252 2692 CircleF
4372 2784 CircleF
6704 2793 CircleF
6823 2884 CircleF
2960 413 CircleF
3080 504 CircleF
3132 342 CircleF
3252 434 CircleF
6150 1610 CircleF
6269 1702 CircleF
5844 2021 CircleF
5963 2113 CircleF
6197 1939 CircleF
6317 2031 CircleF
1608 2320 CircleF
1728 2412 CircleF
4472 3145 CircleF
4592 3237 CircleF
2337 2955 CircleF
2456 3047 CircleF
2597 2912 CircleF
2716 3004 CircleF
1673 438 CircleF
1793 530 CircleF
5102 3447 CircleF
5221 3539 CircleF
1637 2770 CircleF
1757 2862 CircleF
5082 592 CircleF
5202 684 CircleF
4138 929 CircleF
4258 1021 CircleF
2756 3706 CircleF
2876 3798 CircleF
5453 4411 CircleF
5573 4503 CircleF
1356 3721 CircleF
1476 3813 CircleF
4362 1284 CircleF
4482 1376 CircleF
1765 1751 CircleF
1884 1843 CircleF
6063 1475 CircleF
6183 1566 CircleF
2158 334 CircleF
2278 426 CircleF
2484 1017 CircleF
2604 1109 CircleF
5830 1546 CircleF
5950 1638 CircleF
6566 1489 CircleF
6685 1581 CircleF
4618 3216 CircleF
4737 3307 CircleF
5871 2128 CircleF
5991 2220 CircleF
6012 859 CircleF
6132 951 CircleF
5122 336 CircleF
5241 428 CircleF
4100 4016 CircleF
4220 4108 CircleF
4498 949 CircleF
4618 1041 CircleF
1524 780 CircleF
1644 872 CircleF
3771 1840 CircleF
3891 1931 CircleF
1954 3428 CircleF
2074 3520 CircleF
2822 377 CircleF
2941 469 CircleF
1666 3950 CircleF
1785 4041 CircleF
4375 2426 CircleF
4495 2517 CircleF
2094 1627 CircleF
2214 1719 CircleF
1728 541 CircleF
1848 633 CircleF
3820 2023 CircleF
3940 2115 CircleF
5458 4623 CircleF
5578 4715 CircleF
5370 1258 CircleF
5489 1350 CircleF
3293 3646 CircleF
3413 3737 CircleF
3833 2391 CircleF
3953 2483 CircleF
3706 3513 CircleF
3826 3605 CircleF
2470 2798 CircleF
2590 2890 CircleF
2482 1797 CircleF
2601 1889 CircleF
1506 4039 CircleF
1626 4131 CircleF
2277 4668 CircleF
2396 4760 CircleF
5136 681 CircleF
5256 772 CircleF
2883 2016 CircleF
3002 2108 CircleF
1897 2157 CircleF
2016 2249 CircleF
4543 3179 CircleF
4663 3271 CircleF
1902 4631 CircleF
2022 4723 CircleF
1392 3265 CircleF
1511 3357 CircleF
2059 3796 CircleF
2179 3888 CircleF
5133 1287 CircleF
5253 1379 CircleF
1109 4579 CircleF
1229 4671 CircleF
2082 2919 CircleF
2202 3010 CircleF
5651 804 CircleF
5770 896 CircleF
2120 1804 CircleF
2239 1895 CircleF
2742 1478 CircleF
2861 1570 CircleF
5499 4117 CircleF
5618 4208 CircleF
2133 640 CircleF
2253 732 CircleF
3171 4342 CircleF
3290 4434 CircleF
3905 361 CircleF
4025 453 CircleF
3084 794 CircleF
3203 886 CircleF
5442 4386 CircleF
5562 4478 CircleF
4249 3390 CircleF
4369 3482 CircleF
2937 4377 CircleF
3056 4469 CircleF
1084 2712 CircleF
1204 2804 CircleF
4409 2932 CircleF
4529 3024 CircleF
6576 4044 CircleF
6695 4135 CircleF
6686 978 CircleF
6806 1070 CircleF
1342 1458 CircleF
1462 1550 CircleF
2557 3131 CircleF
2677 3223 CircleF
1517 4457 CircleF
1636 4549 CircleF
2086 4529 CircleF
2205 4621 CircleF
1201 4136 CircleF
1321 4228 CircleF
6360 3225 CircleF
6480 3317 CircleF
3740 3480 CircleF
3860 3572 CircleF
3072 1082 CircleF
3192 1174 CircleF
4933 3961 CircleF
5053 4053 CircleF
4757 2032 CircleF
4876 2124 CircleF
2286 1379 CircleF
2406 1471 CircleF
4763 2108 CircleF
4883 2199 CircleF
2975 1251 CircleF
3094 1343 CircleF
2306 898 CircleF
2425 989 CircleF
3060 3203 CircleF
3180 3294 CircleF
2571 878 CircleF
2690 970 CircleF
3239 309 CircleF
3359 401 CircleF
1527 2017 CircleF
1647 2109 CircleF
2309 4644 CircleF
2428 4736 CircleF
2663 992 CircleF
2783 1083 CircleF
5839 1725 CircleF
5958 1816 CircleF
3514 539 CircleF
3634 630 CircleF
2801 3673 CircleF
2920 3765 CircleF
6481 894 CircleF
6601 986 CircleF
2856 3695 CircleF
2975 3787 CircleF
6657 3562 CircleF
6777 3654 CircleF
3391 3727 CircleF
3511 3819 CircleF
3426 1107 CircleF
3546 1199 CircleF
1900 1511 CircleF
2020 1603 CircleF
6204 2760 CircleF
6324 2851 CircleF
4293 1445 CircleF
4413 1537 CircleF
3746 3280 CircleF
3865 3372 CircleF
6657 1428 CircleF
6776 1520 CircleF
3762 608 CircleF
3882 700 CircleF
3582 2077 CircleF
3701 2169 CircleF
3559 3187 CircleF
3678 3279 CircleF
5255 1925 CircleF
5375 2017 CircleF
6527 1761 CircleF
6647 1853 CircleF
3583 3128 CircleF
3703 3220 CircleF
2799 3758 CircleF
2918 3849 CircleF
2285 4087 CircleF
2405 4179 CircleF
6383 4302 CircleF
6503 4393 CircleF
5500 3658 CircleF
5619 3750 CircleF
3684 4428 CircleF
3803 4520 CircleF
3257 803 CircleF
3377 895 CircleF
6046 3376 CircleF
6166 3468 CircleF
2606 3670 CircleF
2726 3762 CircleF
3943 1548 CircleF
4062 1640 CircleF
4497 3180 CircleF
4616 3272 CircleF
6067 593 CircleF
6187 685 CircleF
2888 2936 CircleF
3007 3028 CircleF
1661 4590 CircleF
1781 4682 CircleF
2551 728 CircleF
2670 820 CircleF
1363 1341 CircleF
1483 1433 CircleF
5728 1033 CircleF
5848 1125 CircleF
1529 4491 CircleF
1649 4583 CircleF
3607 764 CircleF
3726 855 CircleF
2371 2172 CircleF
2491 2264 CircleF
3094 473 CircleF
3214 565 CircleF
6686 1900 CircleF
6805 1991 CircleF
2991 3859 CircleF
3110 3951 CircleF
1867 3764 CircleF
1986 3856 CircleF
1727 2038 CircleF
1847 2130 CircleF
5731 3860 CircleF
5850 3952 CircleF
5116 2087 CircleF
5236 2179 CircleF
2431 506 CircleF
2551 598 CircleF
1569 3479 CircleF
1689 3571 CircleF
3054 1912 CircleF
3174 2004 CircleF
1317 932 CircleF
1437 1024 CircleF
4888 984 CircleF
5008 1075 CircleF
2245 2930 CircleF
2365 3022 CircleF
3063 817 CircleF
3182 909 CircleF
4119 1385 CircleF
4239 1477 CircleF
3146 700 CircleF
3266 792 CircleF
1039 2815 CircleF
1159 2907 CircleF
1923 1073 CircleF
2043 1165 CircleF
5324 1322 CircleF
5444 1414 CircleF
6490 1524 CircleF
6610 1615 CircleF
3995 4546 CircleF
4114 4638 CircleF
2632 2589 CircleF
2752 2681 CircleF
6643 4201 CircleF
6763 4293 CircleF
5299 2495 CircleF
5418 2587 CircleF
1541 1937 CircleF
1661 2028 CircleF
2317 319 CircleF
2437 410 CircleF
2415 2084 CircleF
2534 2176 CircleF
2616 970 CircleF
2735 1062 CircleF
4215 3198 CircleF
4334 3290 CircleF
3379 321 CircleF
3499 413 CircleF
2063 3916 CircleF
2183 4008 CircleF
4143 2320 CircleF
4262 2412 CircleF
1390 2750 CircleF
1509 2842 CircleF
6380 2306 CircleF
6500 2398 CircleF
5837 2703 CircleF
5957 2795 CircleF
3512 2690 CircleF
3632 2782 CircleF
6354 714 CircleF
6474 805 CircleF
3922 684 CircleF
4042 776 CircleF
3866 2787 CircleF
3986 2879 CircleF
4293 1630 CircleF
4412 1722 CircleF
3189 311 CircleF
3309 403 CircleF
1088 2755 CircleF
1208 2847 CircleF
6669 3571 CircleF
6789 3663 CircleF
6120 3998 CircleF
6240 4090 CircleF
6492 1855 CircleF
6612 1946 CircleF
3078 4681 CircleF
3198 4772 CircleF
2111 2494 CircleF
2231 2585 CircleF
1632 2158 CircleF
1751 2250 CircleF
2525 766 CircleF
2645 858 CircleF
4619 4513 CircleF
4738 4605 CircleF
5816 4252 CircleF
5936 4344 CircleF
2291 462 CircleF
2411 554 CircleF
3997 3741 CircleF
4116 3833 CircleF
1795 983 CircleF
1914 1075 CircleF
3860 4609 CircleF
3980 4701 CircleF
1811 1789 CircleF
1931 1881 CircleF
1738 1517 CircleF
1857 1609 CircleF
1269 3151 CircleF
1388 3243 CircleF
5369 2362 CircleF
5489 2454 CircleF
3412 3404 CircleF
3531 3496 CircleF
6433 4507 CircleF
6553 4598 CircleF
3336 2095 CircleF
3456 2187 CircleF
3404 2010 CircleF
3524 2101 CircleF
4006 2487 CircleF
4125 2579 CircleF
1807 3782 CircleF
1926 3874 CircleF
3039 876 CircleF
3158 968 CircleF
6293 843 CircleF
6413 935 CircleF
1549 3926 CircleF
1669 4018 CircleF
6028 485 CircleF
6147 577 CircleF
3611 860 CircleF
3731 952 CircleF
1260 821 CircleF
1380 912 CircleF
4904 2376 CircleF
5024 2468 CircleF
2879 3750 CircleF
2998 3842 CircleF
5595 2631 CircleF
5714 2723 CircleF
4441 3099 CircleF
4561 3191 CircleF
4757 1359 CircleF
4877 1451 CircleF
5610 1255 CircleF
5729 1347 CircleF
1184 3226 CircleF
1303 3318 CircleF
6253 716 CircleF
6372 807 CircleF
6112 4035 CircleF
6231 4126 CircleF
4268 731 CircleF
4387 823 CircleF
3694 983 CircleF
3813 1075 CircleF
5354 2056 CircleF
5474 2148 CircleF
4169 1211 CircleF
4288 1303 CircleF
5799 4632 CircleF
5918 4723 CircleF
4230 4584 CircleF
4350 4675 CircleF
3539 3010 CircleF
3659 3102 CircleF
1948 2129 CircleF
2068 2221 CircleF
4042 3317 CircleF
4162 3409 CircleF
2878 815 CircleF
2997 907 CircleF
1934 2058 CircleF
2054 2149 CircleF
3264 2070 CircleF
3384 2162 CircleF
1310 756 CircleF
1430 847 CircleF
3080 3503 CircleF
3200 3595 CircleF
1276 3238 CircleF
1395 3330 CircleF
3757 2731 CircleF
3876 2823 CircleF
3011 3986 CircleF
3131 4078 CircleF
1484 3760 CircleF
1604 3852 CircleF
2045 2936 CircleF
2165 3027 CircleF
5703 1307 CircleF
5823 1399 CircleF
3041 4575 CircleF
3160 4667 CircleF
5246 1321 CircleF
5366 1413 CircleF
1715 1743 CircleF
1835 1835 CircleF
3576 4011 CircleF
3696 4103 CircleF
5046 2320 CircleF
5165 2412 CircleF
4883 2434 CircleF
5002 2526 CircleF
1904 2028 CircleF
2024 2119 CircleF
3530 1600 CircleF
3649 1692 CircleF
975 2062 CircleF
1095 2154 CircleF
2064 2585 CircleF
2183 2677 CircleF
3184 4072 CircleF
3304 4164 CircleF
2013 1772 CircleF
2133 1864 CircleF
6621 2046 CircleF
6741 2138 CircleF
3113 3524 CircleF
3233 3615 CircleF
2219 1638 CircleF
2339 1729 CircleF
1384 3950 CircleF
1503 4042 CircleF
3169 1551 CircleF
3289 1643 CircleF
5836 953 CircleF
5955 1045 CircleF
5565 1673 CircleF
5684 1765 CircleF
4868 353 CircleF
4988 445 CircleF
2627 3369 CircleF
2747 3461 CircleF
2611 3161 CircleF
2731 3253 CircleF
6398 3904 CircleF
6518 3995 CircleF
2013 3919 CircleF
2132 4011 CircleF
5460 4409 CircleF
5580 4501 CircleF
6551 682 CircleF
6671 773 CircleF
1880 4511 CircleF
2000 4603 CircleF
6443 1478 CircleF
6563 1570 CircleF
5125 2064 CircleF
5245 2156 CircleF
5667 1157 CircleF
5787 1249 CircleF
2623 2968 CircleF
2742 3059 CircleF
5960 1205 CircleF
6080 1297 CircleF
2640 2585 CircleF
2759 2676 CircleF
2211 4488 CircleF
2330 4580 CircleF
2545 1818 CircleF
2664 1910 CircleF
2409 2638 CircleF
2529 2730 CircleF
4787 4067 CircleF
4907 4158 CircleF
4805 3557 CircleF
4925 3648 CircleF
4565 1277 CircleF
4685 1368 CircleF
1944 1196 CircleF
2064 1288 CircleF
2193 3211 CircleF
2312 3303 CircleF
5380 1272 CircleF
5499 1363 CircleF
2074 331 CircleF
2193 422 CircleF
5717 2790 CircleF
5837 2882 CircleF
2009 495 CircleF
2128 586 CircleF
4185 3041 CircleF
4305 3133 CircleF
4843 2091 CircleF
4963 2183 CircleF
3498 4159 CircleF
3618 4251 CircleF
5744 2706 CircleF
5863 2798 CircleF
6365 4016 CircleF
6485 4107 CircleF
2883 1072 CircleF
3003 1164 CircleF
4759 1557 CircleF
4879 1649 CircleF
3462 336 CircleF
3582 428 CircleF
1935 366 CircleF
2054 458 CircleF
6441 4270 CircleF
6561 4362 CircleF
2759 2671 CircleF
2878 2762 CircleF
3494 2240 CircleF
3613 2331 CircleF
4514 1951 CircleF
4634 2042 CircleF
4233 3520 CircleF
4353 3612 CircleF
5772 1095 CircleF
5891 1187 CircleF
2293 3001 CircleF
2412 3093 CircleF
2562 4469 CircleF
2681 4560 CircleF
3840 2770 CircleF
3959 2862 CircleF
2593 3930 CircleF
2713 4022 CircleF
2749 4304 CircleF
2869 4396 CircleF
2497 3783 CircleF
2616 3875 CircleF
2385 2909 CircleF
2505 3000 CircleF
6571 1735 CircleF
6691 1827 CircleF
4066 3542 CircleF
4185 3634 CircleF
1302 4422 CircleF
1422 4514 CircleF
5953 1199 CircleF
6073 1291 CircleF
3086 1464 CircleF
3206 1556 CircleF
6458 3555 CircleF
6578 3647 CircleF
5685 2000 CircleF
5805 2092 CircleF
5654 3415 CircleF
5774 3507 CircleF
6506 4628 CircleF
6625 4719 CircleF
1017 1625 CircleF
1136 1717 CircleF
2346 4318 CircleF
2465 4410 CircleF
1127 299 CircleF
1247 391 CircleF
6668 3404 CircleF
6788 3496 CircleF
1601 1915 CircleF
1721 2007 CircleF
4054 966 CircleF
4174 1058 CircleF
5001 2438 CircleF
5121 2529 CircleF
5691 2768 CircleF
5811 2859 CircleF
2483 4442 CircleF
2603 4534 CircleF
2392 2124 CircleF
2512 2215 CircleF
3077 3217 CircleF
3197 3309 CircleF
1687 1401 CircleF
1807 1493 CircleF
1866 748 CircleF
1986 840 CircleF
3910 1831 CircleF
4030 1922 CircleF
2434 759 CircleF
2554 851 CircleF
5486 3653 CircleF
5606 3744 CircleF
1892 4221 CircleF
2012 4313 CircleF
3995 4169 CircleF
4114 4260 CircleF
5674 4203 CircleF
5793 4295 CircleF
2753 2729 CircleF
2873 2821 CircleF
6320 1677 CircleF
6440 1769 CircleF
5862 2047 CircleF
5981 2139 CircleF
3340 1503 CircleF
3460 1595 CircleF
1676 2518 CircleF
1795 2610 CircleF
4917 3357 CircleF
5037 3449 CircleF
5668 4270 CircleF
5788 4361 CircleF
1640 1270 CircleF
1760 1362 CircleF
2124 4406 CircleF
2244 4497 CircleF
5016 2835 CircleF
5135 2927 CircleF
5925 1103 CircleF
6045 1195 CircleF
4101 1832 CircleF
4220 1924 CircleF
5455 4427 CircleF
5575 4519 CircleF
5016 3027 CircleF
5135 3119 CircleF
1584 4580 CircleF
1704 4672 CircleF
5163 1421 CircleF
5283 1513 CircleF
1035 2677 CircleF
1155 2769 CircleF
1702 2289 CircleF
1821 2381 CircleF
4201 3296 CircleF
4321 3388 CircleF
1616 3398 CircleF
1735 3490 CircleF
6671 4541 CircleF
6790 4633 CircleF
6217 3858 CircleF
6337 3950 CircleF
4036 4292 CircleF
4156 4384 CircleF
2267 783 CircleF
2386 875 CircleF
4175 3076 CircleF
4294 3168 CircleF
4475 788 CircleF
4595 880 CircleF
5853 1419 CircleF
5973 1511 CircleF
3275 1261 CircleF
3395 1353 CircleF
4438 480 CircleF
4558 571 CircleF
2118 844 CircleF
2237 936 CircleF
5548 578 CircleF
5668 669 CircleF
4443 2973 CircleF
4563 3065 CircleF
6065 350 CircleF
6185 442 CircleF
3958 716 CircleF
4077 808 CircleF
3227 4502 CircleF
3347 4593 CircleF
5777 1989 CircleF
5897 2081 CircleF
4530 3810 CircleF
4649 3902 CircleF
6456 1893 CircleF
6576 1985 CircleF
3505 2623 CircleF
3625 2715 CircleF
4047 3121 CircleF
4167 3213 CircleF
1831 1241 CircleF
1951 1333 CircleF
3259 748 CircleF
3379 839 CircleF
1882 3503 CircleF
2002 3595 CircleF
4449 2123 CircleF
4569 2215 CircleF
3248 984 CircleF
3368 1076 CircleF
2351 2670 CircleF
2471 2762 CircleF
4052 1822 CircleF
4172 1914 CircleF
1412 3974 CircleF
1532 4066 CircleF
1338 751 CircleF
1458 843 CircleF
3968 1219 CircleF
4087 1310 CircleF
3644 2043 CircleF
3764 2134 CircleF
4493 1992 CircleF
4613 2083 CircleF
4604 4156 CircleF
4724 4248 CircleF
5586 673 CircleF
5705 765 CircleF
2436 4570 CircleF
2555 4662 CircleF
4249 4440 CircleF
4369 4532 CircleF
5243 2416 CircleF
5363 2508 CircleF
1278 558 CircleF
1398 650 CircleF
2494 3221 CircleF
2613 3313 CircleF
3609 1650 CircleF
3728 1742 CircleF
5782 636 CircleF
5902 727 CircleF
2823 1593 CircleF
2942 1685 CircleF
4287 4671 CircleF
4407 4763 CircleF
2074 2668 CircleF
2194 2759 CircleF
5292 1603 CircleF
5412 1695 CircleF
5265 1879 CircleF
5384 1971 CircleF
4156 390 CircleF
4276 482 CircleF
4980 3985 CircleF
5099 4077 CircleF
2514 826 CircleF
2633 918 CircleF
5090 500 CircleF
5209 591 CircleF
4711 4395 CircleF
4831 4487 CircleF
6502 3202 CircleF
6622 3294 CircleF
5838 3078 CircleF
5957 3170 CircleF
5348 4502 CircleF
5468 4594 CircleF
3281 3266 CircleF
3401 3358 CircleF
4119 3306 CircleF
4239 3397 CircleF
1319 4589 CircleF
1439 4681 CircleF
6394 3448 CircleF
6513 3540 CircleF
6185 4068 CircleF
6305 4160 CircleF
2922 4056 CircleF
3042 4148 CircleF
2895 2904 CircleF
3015 2996 CircleF
2276 1485 CircleF
2396 1576 CircleF
3482 2639 CircleF
3602 2730 CircleF
2942 3996 CircleF
3061 4088 CircleF
3424 294 CircleF
3544 386 CircleF
2173 643 CircleF
2292 735 CircleF
1964 1043 CircleF
2084 1135 CircleF
4460 1217 CircleF
4580 1309 CircleF
2782 1256 CircleF
2902 1348 CircleF
1214 2864 CircleF
1334 2956 CircleF
2221 1271 CircleF
2341 1363 CircleF
2051 2572 CircleF
2170 2663 CircleF
4495 1085 CircleF
4615 1177 CircleF
5540 452 CircleF
5660 544 CircleF
4761 1939 CircleF
4880 2031 CircleF
5171 4292 CircleF
5290 4383 CircleF
5308 4208 CircleF
5427 4300 CircleF
4170 4292 CircleF
4290 4383 CircleF
1128 3237 CircleF
1248 3329 CircleF
3386 2146 CircleF
3506 2238 CircleF
1819 2784 CircleF
1938 2875 CircleF
6022 2380 CircleF
6142 2472 CircleF
2165 1302 CircleF
2284 1394 CircleF
6402 2339 CircleF
6522 2431 CircleF
6065 706 CircleF
6184 798 CircleF
3763 4532 CircleF
3882 4624 CircleF
5130 3438 CircleF
5250 3530 CircleF
4117 3225 CircleF
4236 3317 CircleF
2158 3290 CircleF
2278 3382 CircleF
5173 1878 CircleF
5293 1970 CircleF
2995 3960 CircleF
3115 4052 CircleF
5561 1167 CircleF
5680 1259 CircleF
1856 390 CircleF
1976 481 CircleF
2077 1399 CircleF
2197 1491 CircleF
1373 638 CircleF
1493 730 CircleF
2942 4637 CircleF
3062 4729 CircleF
1644 4403 CircleF
1764 4494 CircleF
5375 3022 CircleF
5495 3114 CircleF
1988 1662 CircleF
2107 1754 CircleF
2884 1534 CircleF
3004 1625 CircleF
4237 1010 CircleF
4356 1101 CircleF
3741 1351 CircleF
3861 1443 CircleF
1304 2800 CircleF
1424 2891 CircleF
6179 765 CircleF
6298 857 CircleF
1249 2189 CircleF
1369 2280 CircleF
3237 2777 CircleF
3357 2868 CircleF
2916 2731 CircleF
3036 2823 CircleF
1575 389 CircleF
1694 481 CircleF
4984 3762 CircleF
5103 3854 CircleF
3721 4184 CircleF
3841 4276 CircleF
2839 2024 CircleF
2958 2115 CircleF
5143 828 CircleF
5263 919 CircleF
3277 1199 CircleF
3397 1291 CircleF
2740 2228 CircleF
2860 2319 CircleF
5986 976 CircleF
6105 1068 CircleF
3535 2204 CircleF
3654 2296 CircleF
1548 1504 CircleF
1668 1595 CircleF
5153 3927 CircleF
5272 4019 CircleF
2930 2393 CircleF
3049 2485 CircleF
2998 1547 CircleF
3118 1639 CircleF
1456 4365 CircleF
1575 4457 CircleF
3624 2529 CircleF
3744 2621 CircleF
2338 1388 CircleF
2458 1480 CircleF
2400 2406 CircleF
2519 2498 CircleF
6323 3358 CircleF
6443 3450 CircleF
5113 1097 CircleF
5233 1189 CircleF
3888 4574 CircleF
4008 4665 CircleF
2504 4527 CircleF
2624 4619 CircleF
2943 3161 CircleF
3063 3252 CircleF
6242 1814 CircleF
6361 1906 CircleF
2491 3195 CircleF
2611 3287 CircleF
5281 2170 CircleF
5401 2261 CircleF
6018 3913 CircleF
6138 4005 CircleF
6208 608 CircleF
6328 700 CircleF
3451 2140 CircleF
3571 2232 CircleF
1963 3539 CircleF
2083 3631 CircleF
4359 2553 CircleF
4479 2645 CircleF
2982 4303 CircleF
3101 4395 CircleF
5439 1594 CircleF
5559 1686 CircleF
4579 2060 CircleF
4698 2152 CircleF
1577 2336 CircleF
1697 2428 CircleF
4933 3203 CircleF
5052 3294 CircleF
5397 2091 CircleF
5517 2183 CircleF
1163 3944 CircleF
1282 4035 CircleF
1080 3500 CircleF
1199 3592 CircleF
3817 3431 CircleF
3937 3523 CircleF
1064 2783 CircleF
1184 2875 CircleF
3564 1634 CircleF
3683 1725 CircleF
4140 2045 CircleF
4259 2137 CircleF
2785 3136 CircleF
2904 3228 CircleF
1949 3655 CircleF
2068 3747 CircleF
4062 3743 CircleF
4182 3835 CircleF
1503 2420 CircleF
1623 2512 CircleF
1521 1590 CircleF
1640 1682 CircleF
3426 4004 CircleF
3546 4095 CircleF
3792 1206 CircleF
3912 1298 CircleF
3550 412 CircleF
3669 504 CircleF
6579 1337 CircleF
6698 1429 CircleF
3383 3388 CircleF
3502 3480 CircleF
1513 432 CircleF
1633 524 CircleF
5879 2407 CircleF
5999 2499 CircleF
5854 1398 CircleF
5974 1490 CircleF
2609 2947 CircleF
2728 3038 CircleF
3777 4395 CircleF
3896 4486 CircleF
4469 1494 CircleF
4589 1586 CircleF
6382 2834 CircleF
6502 2926 CircleF
6113 1239 CircleF
6232 1331 CircleF
3722 4167 CircleF
3842 4259 CircleF
5294 4602 CircleF
5413 4694 CircleF
4581 2972 CircleF
4701 3064 CircleF
4280 4138 CircleF
4400 4230 CircleF
6586 1916 CircleF
6705 2008 CircleF
6382 3836 CircleF
6502 3928 CircleF
6377 2137 CircleF
6496 2229 CircleF
1146 2546 CircleF
1265 2638 CircleF
1465 4272 CircleF
1584 4364 CircleF
3087 467 CircleF
3206 559 CircleF
6513 3302 CircleF
6633 3394 CircleF
1550 2723 CircleF
1670 2815 CircleF
1496 4535 CircleF
1615 4627 CircleF
4644 1791 CircleF
4763 1883 CircleF
1889 3683 CircleF
2009 3775 CircleF
3364 3052 CircleF
3483 3144 CircleF
1758 3377 CircleF
1878 3469 CircleF
6257 2825 CircleF
6377 2916 CircleF
2244 1571 CircleF
2364 1663 CircleF
1902 2821 CircleF
2022 2913 CircleF
2310 374 CircleF
2430 465 CircleF
1820 1332 CircleF
1940 1424 CircleF
2032 2136 CircleF
2151 2228 CircleF
4195 4065 CircleF
4314 4156 CircleF
3151 1059 CircleF
3271 1150 CircleF
6039 3451 CircleF
6159 3543 CircleF
6281 3744 CircleF
6401 3836 CircleF
5000 3340 CircleF
5119 3432 CircleF
5582 4617 CircleF
5702 4709 CircleF
3586 1394 CircleF
3706 1486 CircleF
6281 2948 CircleF
6400 3040 CircleF
1342 4124 CircleF
1462 4216 CircleF
2117 4613 CircleF
2237 4705 CircleF
3379 797 CircleF
3499 889 CircleF
3790 4199 CircleF
3909 4291 CircleF
5069 4341 CircleF
5188 4433 CircleF
1987 2249 CircleF
2107 2341 CircleF
3975 4665 CircleF
4094 4757 CircleF
1354 1135 CircleF
1473 1227 CircleF
5292 508 CircleF
5412 600 CircleF
5511 2460 CircleF
5630 2552 CircleF
4811 1404 CircleF
4930 1496 CircleF
4906 372 CircleF
5025 464 CircleF
4034 3323 CircleF
4154 3415 CircleF
1214 3638 CircleF
1334 3730 CircleF
4020 3548 CircleF
4140 3639 CircleF
6260 1243 CircleF
6379 1335 CircleF
3274 3465 CircleF
3394 3557 CircleF
3747 2098 CircleF
3867 2190 CircleF
3064 336 CircleF
3184 427 CircleF
6004 1513 CircleF
6124 1604 CircleF
3553 2087 CircleF
3673 2178 CircleF
3500 2435 CircleF
3620 2527 CircleF
5286 1901 CircleF
5406 1993 CircleF
1889 2731 CircleF
2009 2823 CircleF
2504 2206 CircleF
2623 2298 CircleF
1449 4348 CircleF
1569 4440 CircleF
6189 3136 CircleF
6309 3228 CircleF
6286 1359 CircleF
6406 1451 CircleF
3845 4534 CircleF
3965 4626 CircleF
6274 3024 CircleF
6394 3115 CircleF
4908 1098 CircleF
5027 1190 CircleF
1770 1072 CircleF
1890 1164 CircleF
5500 2875 CircleF
5620 2967 CircleF
5769 1047 CircleF
5889 1139 CircleF
5756 1014 CircleF
5875 1106 CircleF
5818 1706 CircleF
5938 1798 CircleF
1013 338 CircleF
1133 429 CircleF
3076 489 CircleF
3195 581 CircleF
5753 4355 CircleF
5872 4447 CircleF
2182 4395 CircleF
2302 4487 CircleF
2131 3646 CircleF
2250 3738 CircleF
4927 2980 CircleF
5047 3072 CircleF
6088 1231 CircleF
6207 1322 CircleF
2205 4625 CircleF
2325 4717 CircleF
4123 1198 CircleF
4243 1290 CircleF
4557 2625 CircleF
4677 2717 CircleF
3342 527 CircleF
3462 618 CircleF
4881 706 CircleF
5000 798 CircleF
5315 3798 CircleF
5434 3890 CircleF
3222 2267 CircleF
3342 2359 CircleF
4765 2477 CircleF
4884 2569 CircleF
6002 3770 CircleF
6121 3862 CircleF
3458 4183 CircleF
3578 4275 CircleF
4177 3024 CircleF
4297 3116 CircleF
1822 2128 CircleF
1942 2219 CircleF
4406 4622 CircleF
4525 4714 CircleF
3654 4149 CircleF
3774 4241 CircleF
3136 1507 CircleF
3256 1598 CircleF
5381 1829 CircleF
5501 1921 CircleF
3207 1010 CircleF
3326 1102 CircleF
3397 690 CircleF
3517 782 CircleF
1066 3293 CircleF
1186 3385 CircleF
2781 946 CircleF
2901 1038 CircleF
4198 3704 CircleF
4318 3795 CircleF
5257 769 CircleF
5376 861 CircleF
4420 2595 CircleF
4540 2687 CircleF
3595 3932 CircleF
3715 4024 CircleF
6000 4394 CircleF
6120 4486 CircleF
2869 843 CircleF
2989 935 CircleF
1910 1969 CircleF
2030 2060 CircleF
6626 3443 CircleF
6746 3535 CircleF
1602 3222 CircleF
1721 3314 CircleF
5847 2929 CircleF
5967 3021 CircleF
2776 4239 CircleF
2896 4331 CircleF
2114 4526 CircleF
2233 4618 CircleF
2398 2272 CircleF
2518 2364 CircleF
1552 2158 CircleF
1672 2249 CircleF
5512 3964 CircleF
5631 4056 CircleF
1353 3945 CircleF
1473 4037 CircleF
3346 3838 CircleF
3465 3930 CircleF
6455 457 CircleF
6575 549 CircleF
5240 2935 CircleF
5360 3027 CircleF
6576 299 CircleF
6696 391 CircleF
5618 3236 CircleF
5738 3328 CircleF
4493 3442 CircleF
4613 3534 CircleF
5373 631 CircleF
5492 722 CircleF
2517 2136 CircleF
2636 2228 CircleF
4790 3768 CircleF
4909 3860 CircleF
5678 1089 CircleF
5798 1181 CircleF
4344 2343 CircleF
4463 2435 CircleF
6532 2805 CircleF
6651 2897 CircleF
3059 1813 CircleF
3178 1905 CircleF
5175 294 CircleF
5294 385 CircleF
5936 2367 CircleF
6055 2459 CircleF
5970 3840 CircleF
6090 3932 CircleF
5944 2218 CircleF
6064 2310 CircleF
6374 3841 CircleF
6494 3933 CircleF
4540 536 CircleF
4660 628 CircleF
4538 1699 CircleF
4657 1791 CircleF
5472 1646 CircleF
5591 1738 CircleF
4979 2409 CircleF
5099 2501 CircleF
1479 667 CircleF
1598 759 CircleF
5960 1659 CircleF
6080 1750 CircleF
5702 1636 CircleF
5822 1728 CircleF
1624 3684 CircleF
1744 3776 CircleF
5731 1321 CircleF
5851 1413 CircleF
5640 3008 CircleF
5760 3100 CircleF
6535 287 CircleF
6654 379 CircleF
5113 4636 CircleF
5233 4728 CircleF
1398 2986 CircleF
1518 3077 CircleF
3971 628 CircleF
4091 720 CircleF
5965 3425 CircleF
6085 3516 CircleF
3905 1316 CircleF
4025 1408 CircleF
3061 1495 CircleF
3181 1586 CircleF
6638 2303 CircleF
6757 2395 CircleF
2033 1641 CircleF
2153 1733 CircleF
2866 404 CircleF
2986 496 CircleF
2763 1022 CircleF
2882 1114 CircleF
4344 1626 CircleF
4464 1718 CircleF
4365 514 CircleF
4484 606 CircleF
5089 3422 CircleF
5208 3514 CircleF
5750 2253 CircleF
5870 2345 CircleF
4630 2192 CircleF
4750 2284 CircleF
3656 4007 CircleF
3776 4099 CircleF
5461 4313 CircleF
5581 4404 CircleF
6224 3933 CircleF
6343 4024 CircleF
5762 1797 CircleF
5882 1889 CircleF
2540 777 CircleF
2660 868 CircleF
3471 1985 CircleF
3591 2076 CircleF
4249 4075 CircleF
4368 4167 CircleF
2581 377 CircleF
2700 469 CircleF
4184 4301 CircleF
4304 4393 CircleF
4275 1721 CircleF
4395 1812 CircleF
4410 3493 CircleF
4530 3585 CircleF
4898 4111 CircleF
5017 4203 CircleF
2027 1285 CircleF
2147 1377 CircleF
5183 4246 CircleF
5302 4338 CircleF
2972 506 CircleF
3092 598 CircleF
5305 480 CircleF
5424 572 CircleF
3987 3291 CircleF
4107 3383 CircleF
4822 3102 CircleF
4941 3194 CircleF
3220 3490 CircleF
3340 3582 CircleF
5759 1748 CircleF
5878 1840 CircleF
6440 433 CircleF
6559 525 CircleF
1773 2522 CircleF
1893 2614 CircleF
3484 4097 CircleF
3604 4189 CircleF
3365 821 CircleF
3485 913 CircleF
3994 1196 CircleF
4114 1288 CircleF
4130 2931 CircleF
4249 3023 CircleF
1747 1774 CircleF
1867 1866 CircleF
1682 1369 CircleF
1801 1461 CircleF
4903 426 CircleF
5023 518 CircleF
2420 4626 CircleF
2539 4717 CircleF
3365 585 CircleF
3484 677 CircleF
3472 3109 CircleF
3592 3201 CircleF
6161 2955 CircleF
6281 3047 CircleF
5136 1959 CircleF
5256 2050 CircleF
1379 642 CircleF
1499 734 CircleF
1349 2561 CircleF
1469 2653 CircleF
3830 3607 CircleF
3950 3699 CircleF
3599 1504 CircleF
3718 1596 CircleF
2776 1145 CircleF
2896 1237 CircleF
4444 3479 CircleF
4564 3571 CircleF
4937 672 CircleF
5057 764 CircleF
3702 2054 CircleF
3822 2146 CircleF
3421 4314 CircleF
3541 4406 CircleF
3576 3847 CircleF
3695 3938 CircleF
3857 757 CircleF
3977 849 CircleF
5802 2252 CircleF
5922 2344 CircleF
4150 1839 CircleF
4269 1930 CircleF
2164 3321 CircleF
2284 3413 CircleF
6122 849 CircleF
6241 940 CircleF
3686 2160 CircleF
3805 2252 CircleF
1104 2143 CircleF
1223 2234 CircleF
3918 2289 CircleF
4038 2381 CircleF
1501 3026 CircleF
1620 3117 CircleF
5971 1225 CircleF
6091 1317 CircleF
3687 2770 CircleF
3806 2862 CircleF
6364 3224 CircleF
6484 3316 CircleF
1737 1089 CircleF
1857 1181 CircleF
1912 2960 CircleF
2032 3052 CircleF
6598 2183 CircleF
6718 2275 CircleF
2083 3211 CircleF
2202 3303 CircleF
6387 2192 CircleF
6507 2283 CircleF
4525 2070 CircleF
4645 2162 CircleF
976 4041 CircleF
1095 4133 CircleF
6529 4134 CircleF
6649 4226 CircleF
1342 1937 CircleF
1461 2028 CircleF
1973 1362 CircleF
2092 1454 CircleF
3923 375 CircleF
4043 467 CircleF
3810 4505 CircleF
3930 4597 CircleF
5448 2257 CircleF
5568 2349 CircleF
6112 4024 CircleF
6231 4116 CircleF
1619 2135 CircleF
1738 2227 CircleF
6019 1732 CircleF
6138 1824 CircleF
1405 1556 CircleF
1525 1648 CircleF
6124 2141 CircleF
6244 2233 CircleF
3457 4409 CircleF
3576 4500 CircleF
5235 3307 CircleF
5355 3399 CircleF
1406 2840 CircleF
1525 2932 CircleF
2464 610 CircleF
2584 702 CircleF
2265 3208 CircleF
2385 3300 CircleF
2575 4139 CircleF
2695 4231 CircleF
1751 3411 CircleF
1871 3502 CircleF
2512 2731 CircleF
2632 2823 CircleF
6601 2565 CircleF
6720 2657 CircleF
2071 4386 CircleF
2191 4478 CircleF
4967 2814 CircleF
5086 2906 CircleF
5712 3895 CircleF
5832 3987 CircleF
1637 352 CircleF
1756 444 CircleF
4526 4679 CircleF
4645 4771 CircleF
2487 1564 CircleF
2606 1656 CircleF
2249 815 CircleF
2368 907 CircleF
4390 1057 CircleF
4509 1149 CircleF
5207 3721 CircleF
5327 3813 CircleF
2830 3989 CircleF
2950 4081 CircleF
1210 428 CircleF
1330 519 CircleF
5485 2547 CircleF
5605 2639 CircleF
3048 969 CircleF
3168 1061 CircleF
4936 2999 CircleF
5055 3091 CircleF
3804 1797 CircleF
3924 1889 CircleF
5012 3109 CircleF
5132 3201 CircleF
1092 840 CircleF
1211 932 CircleF
1135 4568 CircleF
1255 4659 CircleF
3679 1804 CircleF
3799 1896 CircleF
5513 2737 CircleF
5633 2828 CircleF
1851 2072 CircleF
1971 2164 CircleF
1503 703 CircleF
1623 794 CircleF
5732 3401 CircleF
5852 3493 CircleF
2335 1885 CircleF
2455 1977 CircleF
3919 4065 CircleF
4039 4157 CircleF
5420 4079 CircleF
5540 4170 CircleF
4516 3239 CircleF
4635 3331 CircleF
4869 4425 CircleF
4988 4517 CircleF
5272 1072 CircleF
5392 1164 CircleF
1443 4488 CircleF
1563 4580 CircleF
4174 4636 CircleF
4294 4728 CircleF
2178 4592 CircleF
2298 4684 CircleF
1403 3747 CircleF
1523 3838 CircleF
1983 3039 CircleF
2103 3131 CircleF
1881 3134 CircleF
2001 3226 CircleF
2523 2967 CircleF
2643 3058 CircleF
2116 315 CircleF
2236 406 CircleF
6210 2246 CircleF
6330 2338 CircleF
3099 693 CircleF
3219 785 CircleF
5531 3811 CircleF
5651 3903 CircleF
2692 3012 CircleF
2812 3104 CircleF
5163 3544 CircleF
5282 3636 CircleF
5350 985 CircleF
5470 1077 CircleF
3517 2062 CircleF
3636 2154 CircleF
1292 3864 CircleF
1411 3956 CircleF
5567 3864 CircleF
5687 3956 CircleF
1209 4294 CircleF
1328 4386 CircleF
5773 3653 CircleF
5893 3745 CircleF
3726 994 CircleF
3846 1086 CircleF
2384 3111 CircleF
2504 3203 CircleF
5871 1606 CircleF
5990 1697 CircleF
6247 4474 CircleF
6366 4565 CircleF
6381 2598 CircleF
6501 2690 CircleF
2524 3218 CircleF
2644 3310 CircleF
1675 4502 CircleF
1794 4594 CircleF
4251 2019 CircleF
4371 2111 CircleF
2503 3872 CircleF
2622 3964 CircleF
5050 1760 CircleF
5169 1852 CircleF
2201 1595 CircleF
2321 1687 CircleF
5586 2337 CircleF
5706 2429 CircleF
4980 1962 CircleF
5100 2053 CircleF
3258 3348 CircleF
3378 3440 CircleF
6614 3511 CircleF
6734 3603 CircleF
3912 3232 CircleF
4031 3323 CircleF
5773 1890 CircleF
5893 1982 CircleF
2074 1360 CircleF
2193 1452 CircleF
6220 3948 CircleF
6340 4040 CircleF
2697 3908 CircleF
2817 3999 CircleF
2705 2210 CircleF
2824 2301 CircleF
6699 2994 CircleF
6818 3086 CircleF
4854 2846 CircleF
4973 2938 CircleF
2210 2733 CircleF
2329 2824 CircleF
4251 909 CircleF
4370 1001 CircleF
4340 1502 CircleF
4460 1594 CircleF
3116 2100 CircleF
3236 2191 CircleF
1007 3780 CircleF
1126 3872 CircleF
3644 644 CircleF
3764 735 CircleF
1991 2595 CircleF
2111 2687 CircleF
5944 3695 CircleF
6063 3786 CircleF
3160 4094 CircleF
3279 4186 CircleF
1800 1834 CircleF
1920 1926 CircleF
4173 1746 CircleF
4293 1837 CircleF
1988 4107 CircleF
2108 4199 CircleF
5217 2714 CircleF
5337 2806 CircleF
4221 2510 CircleF
4340 2602 CircleF
2151 1185 CircleF
2271 1277 CircleF
4319 344 CircleF
4438 436 CircleF
3542 1282 CircleF
3662 1374 CircleF
2191 3695 CircleF
2311 3787 CircleF
6179 1434 CircleF
6299 1526 CircleF
3794 2635 CircleF
3914 2726 CircleF
1286 4376 CircleF
1406 4467 CircleF
2566 2072 CircleF
2686 2164 CircleF
3512 4191 CircleF
3632 4283 CircleF
3451 449 CircleF
3571 541 CircleF
2092 2887 CircleF
2211 2978 CircleF
5474 2671 CircleF
5593 2763 CircleF
5327 773 CircleF
5446 865 CircleF
2282 3535 CircleF
2401 3627 CircleF
3713 2882 CircleF
3833 2974 CircleF
6207 350 CircleF
6326 442 CircleF
5730 832 CircleF
5850 924 CircleF
2721 1916 CircleF
2840 2007 CircleF
1965 1218 CircleF
2085 1310 CircleF
1218 3547 CircleF
1338 3639 CircleF
4448 2738 CircleF
4568 2830 CircleF
5133 530 CircleF
5253 621 CircleF
5390 2213 CircleF
5510 2305 CircleF
5697 1857 CircleF
5817 1949 CircleF
4766 2438 CircleF
4885 2530 CircleF
1657 3760 CircleF
1777 3852 CircleF
5560 2048 CircleF
5680 2140 CircleF
4411 1078 CircleF
4531 1170 CircleF
2949 2920 CircleF
3069 3011 CircleF
3635 1129 CircleF
3754 1221 CircleF
4048 478 CircleF
4167 569 CircleF
2009 1600 CircleF
2129 1692 CircleF
1647 4221 CircleF
1766 4313 CircleF
3784 1789 CircleF
3903 1881 CircleF
2439 1603 CircleF
2559 1695 CircleF
3833 1893 CircleF
3953 1985 CircleF
3643 542 CircleF
3762 634 CircleF
5158 327 CircleF
5277 419 CircleF
1828 990 CircleF
1948 1082 CircleF
2827 4029 CircleF
2947 4121 CircleF
1350 1938 CircleF
1470 2030 CircleF
6203 2238 CircleF
6323 2329 CircleF
2208 2784 CircleF
2327 2876 CircleF
6021 466 CircleF
6141 558 CircleF
3747 1541 CircleF
3867 1633 CircleF
1894 3551 CircleF
2014 3643 CircleF
1750 3019 CircleF
1869 3111 CircleF
3715 3305 CircleF
3834 3397 CircleF
3579 2622 CircleF
3698 2713 CircleF
3245 1130 CircleF
3364 1221 CircleF
1574 1588 CircleF
1693 1680 CircleF
6494 655 CircleF
6614 747 CircleF
6454 2623 CircleF
6573 2715 CircleF
4363 4109 CircleF
4483 4201 CircleF
3787 1442 CircleF
3906 1534 CircleF
5610 2842 CircleF
5730 2934 CircleF
2720 4129 CircleF
2840 4221 CircleF
2767 477 CircleF
2887 569 CircleF
982 1189 CircleF
1101 1281 CircleF
2475 3884 CircleF
2595 3976 CircleF
1542 3897 CircleF
1662 3989 CircleF
2859 1074 CircleF
2979 1166 CircleF
2060 3997 CircleF
2180 4089 CircleF
5188 3587 CircleF
5307 3679 CircleF
3913 2997 CircleF
4032 3089 CircleF
4578 3285 CircleF
4698 3377 CircleF
2507 2749 CircleF
2627 2841 CircleF
3254 2460 CircleF
3374 2552 CircleF
4150 3010 CircleF
4269 3102 CircleF
% End plot #2
1.000 UP
1.000 UL
LT0
0.50 0.50 0.50 C stroke
grestore
end
showpage
%%Trailer
%%DocumentFonts: Helvetica
%%Pages: 1
