%!PS-Adobe-2.0
%%Title: out.ps
%%Creator: gnuplot 4.6 patchlevel 6
%%CreationDate: Thu May 28 16:40:03 2015
%%DocumentFonts: (atend)
%%BoundingBox: 50 50 554 770
%%Orientation: Landscape
%%Pages: (atend)
%%EndComments
%%BeginProlog
/gnudict 256 dict def
gnudict begin
%
% The following true/false flags may be edited by hand if desired.
% The unit line width and grayscale image gamma correction may also be changed.
%
/Color false def
/Blacktext false def
/Solid false def
/Dashlength 1 def
/Landscape true def
/Level1 false def
/Rounded false def
/ClipToBoundingBox false def
/SuppressPDFMark false def
/TransparentPatterns false def
/gnulinewidth 5.000 def
/userlinewidth gnulinewidth def
/Gamma 1.0 def
/BackgroundColor {-1.000 -1.000 -1.000} def
%
/vshift -46 def
/dl1 {
  10.0 Dashlength mul mul
  Rounded { currentlinewidth 0.75 mul sub dup 0 le { pop 0.01 } if } if
} def
/dl2 {
  10.0 Dashlength mul mul
  Rounded { currentlinewidth 0.75 mul add } if
} def
/hpt_ 31.5 def
/vpt_ 31.5 def
/hpt hpt_ def
/vpt vpt_ def
/doclip {
  ClipToBoundingBox {
    newpath 50 50 moveto 554 50 lineto 554 770 lineto 50 770 lineto closepath
    clip
  } if
} def
%
% Gnuplot Prolog Version 4.6 (September 2012)
%
%/SuppressPDFMark true def
%
/M {moveto} bind def
/L {lineto} bind def
/R {rmoveto} bind def
/V {rlineto} bind def
/N {newpath moveto} bind def
/Z {closepath} bind def
/C {setrgbcolor} bind def
/f {rlineto fill} bind def
/g {setgray} bind def
/Gshow {show} def   % May be redefined later in the file to support UTF-8
/vpt2 vpt 2 mul def
/hpt2 hpt 2 mul def
/Lshow {currentpoint stroke M 0 vshift R 
	Blacktext {gsave 0 setgray show grestore} {show} ifelse} def
/Rshow {currentpoint stroke M dup stringwidth pop neg vshift R
	Blacktext {gsave 0 setgray show grestore} {show} ifelse} def
/Cshow {currentpoint stroke M dup stringwidth pop -2 div vshift R 
	Blacktext {gsave 0 setgray show grestore} {show} ifelse} def
/UP {dup vpt_ mul /vpt exch def hpt_ mul /hpt exch def
  /hpt2 hpt 2 mul def /vpt2 vpt 2 mul def} def
/DL {Color {setrgbcolor Solid {pop []} if 0 setdash}
 {pop pop pop 0 setgray Solid {pop []} if 0 setdash} ifelse} def
/BL {stroke userlinewidth 2 mul setlinewidth
	Rounded {1 setlinejoin 1 setlinecap} if} def
/AL {stroke userlinewidth 2 div setlinewidth
	Rounded {1 setlinejoin 1 setlinecap} if} def
/UL {dup gnulinewidth mul /userlinewidth exch def
	dup 1 lt {pop 1} if 10 mul /udl exch def} def
/PL {stroke userlinewidth setlinewidth
	Rounded {1 setlinejoin 1 setlinecap} if} def
3.8 setmiterlimit
% Default Line colors
/LCw {1 1 1} def
/LCb {0 0 0} def
/LCa {0 0 0} def
/LC0 {1 0 0} def
/LC1 {0 1 0} def
/LC2 {0 0 1} def
/LC3 {1 0 1} def
/LC4 {0 1 1} def
/LC5 {1 1 0} def
/LC6 {0 0 0} def
/LC7 {1 0.3 0} def
/LC8 {0.5 0.5 0.5} def
% Default Line Types
/LTw {PL [] 1 setgray} def
/LTb {BL [] LCb DL} def
/LTa {AL [1 udl mul 2 udl mul] 0 setdash LCa setrgbcolor} def
/LT0 {PL [] LC0 DL} def
/LT1 {PL [4 dl1 2 dl2] LC1 DL} def
/LT2 {PL [2 dl1 3 dl2] LC2 DL} def
/LT3 {PL [1 dl1 1.5 dl2] LC3 DL} def
/LT4 {PL [6 dl1 2 dl2 1 dl1 2 dl2] LC4 DL} def
/LT5 {PL [3 dl1 3 dl2 1 dl1 3 dl2] LC5 DL} def
/LT6 {PL [2 dl1 2 dl2 2 dl1 6 dl2] LC6 DL} def
/LT7 {PL [1 dl1 2 dl2 6 dl1 2 dl2 1 dl1 2 dl2] LC7 DL} def
/LT8 {PL [2 dl1 2 dl2 2 dl1 2 dl2 2 dl1 2 dl2 2 dl1 4 dl2] LC8 DL} def
/Pnt {stroke [] 0 setdash gsave 1 setlinecap M 0 0 V stroke grestore} def
/Dia {stroke [] 0 setdash 2 copy vpt add M
  hpt neg vpt neg V hpt vpt neg V
  hpt vpt V hpt neg vpt V closepath stroke
  Pnt} def
/Pls {stroke [] 0 setdash vpt sub M 0 vpt2 V
  currentpoint stroke M
  hpt neg vpt neg R hpt2 0 V stroke
 } def
/Box {stroke [] 0 setdash 2 copy exch hpt sub exch vpt add M
  0 vpt2 neg V hpt2 0 V 0 vpt2 V
  hpt2 neg 0 V closepath stroke
  Pnt} def
/Crs {stroke [] 0 setdash exch hpt sub exch vpt add M
  hpt2 vpt2 neg V currentpoint stroke M
  hpt2 neg 0 R hpt2 vpt2 V stroke} def
/TriU {stroke [] 0 setdash 2 copy vpt 1.12 mul add M
  hpt neg vpt -1.62 mul V
  hpt 2 mul 0 V
  hpt neg vpt 1.62 mul V closepath stroke
  Pnt} def
/Star {2 copy Pls Crs} def
/BoxF {stroke [] 0 setdash exch hpt sub exch vpt add M
  0 vpt2 neg V hpt2 0 V 0 vpt2 V
  hpt2 neg 0 V closepath fill} def
/TriUF {stroke [] 0 setdash vpt 1.12 mul add M
  hpt neg vpt -1.62 mul V
  hpt 2 mul 0 V
  hpt neg vpt 1.62 mul V closepath fill} def
/TriD {stroke [] 0 setdash 2 copy vpt 1.12 mul sub M
  hpt neg vpt 1.62 mul V
  hpt 2 mul 0 V
  hpt neg vpt -1.62 mul V closepath stroke
  Pnt} def
/TriDF {stroke [] 0 setdash vpt 1.12 mul sub M
  hpt neg vpt 1.62 mul V
  hpt 2 mul 0 V
  hpt neg vpt -1.62 mul V closepath fill} def
/DiaF {stroke [] 0 setdash vpt add M
  hpt neg vpt neg V hpt vpt neg V
  hpt vpt V hpt neg vpt V closepath fill} def
/Pent {stroke [] 0 setdash 2 copy gsave
  translate 0 hpt M 4 {72 rotate 0 hpt L} repeat
  closepath stroke grestore Pnt} def
/PentF {stroke [] 0 setdash gsave
  translate 0 hpt M 4 {72 rotate 0 hpt L} repeat
  closepath fill grestore} def
/Circle {stroke [] 0 setdash 2 copy
  hpt 0 360 arc stroke Pnt} def
/CircleF {stroke [] 0 setdash hpt 0 360 arc fill} def
/C0 {BL [] 0 setdash 2 copy moveto vpt 90 450 arc} bind def
/C1 {BL [] 0 setdash 2 copy moveto
	2 copy vpt 0 90 arc closepath fill
	vpt 0 360 arc closepath} bind def
/C2 {BL [] 0 setdash 2 copy moveto
	2 copy vpt 90 180 arc closepath fill
	vpt 0 360 arc closepath} bind def
/C3 {BL [] 0 setdash 2 copy moveto
	2 copy vpt 0 180 arc closepath fill
	vpt 0 360 arc closepath} bind def
/C4 {BL [] 0 setdash 2 copy moveto
	2 copy vpt 180 270 arc closepath fill
	vpt 0 360 arc closepath} bind def
/C5 {BL [] 0 setdash 2 copy moveto
	2 copy vpt 0 90 arc
	2 copy moveto
	2 copy vpt 180 270 arc closepath fill
	vpt 0 360 arc} bind def
/C6 {BL [] 0 setdash 2 copy moveto
	2 copy vpt 90 270 arc closepath fill
	vpt 0 360 arc closepath} bind def
/C7 {BL [] 0 setdash 2 copy moveto
	2 copy vpt 0 270 arc closepath fill
	vpt 0 360 arc closepath} bind def
/C8 {BL [] 0 setdash 2 copy moveto
	2 copy vpt 270 360 arc closepath fill
	vpt 0 360 arc closepath} bind def
/C9 {BL [] 0 setdash 2 copy moveto
	2 copy vpt 270 450 arc closepath fill
	vpt 0 360 arc closepath} bind def
/C10 {BL [] 0 setdash 2 copy 2 copy moveto vpt 270 360 arc closepath fill
	2 copy moveto
	2 copy vpt 90 180 arc closepath fill
	vpt 0 360 arc closepath} bind def
/C11 {BL [] 0 setdash 2 copy moveto
	2 copy vpt 0 180 arc closepath fill
	2 copy moveto
	2 copy vpt 270 360 arc closepath fill
	vpt 0 360 arc closepath} bind def
/C12 {BL [] 0 setdash 2 copy moveto
	2 copy vpt 180 360 arc closepath fill
	vpt 0 360 arc closepath} bind def
/C13 {BL [] 0 setdash 2 copy moveto
	2 copy vpt 0 90 arc closepath fill
	2 copy moveto
	2 copy vpt 180 360 arc closepath fill
	vpt 0 360 arc closepath} bind def
/C14 {BL [] 0 setdash 2 copy moveto
	2 copy vpt 90 360 arc closepath fill
	vpt 0 360 arc} bind def
/C15 {BL [] 0 setdash 2 copy vpt 0 360 arc closepath fill
	vpt 0 360 arc closepath} bind def
/Rec {newpath 4 2 roll moveto 1 index 0 rlineto 0 exch rlineto
	neg 0 rlineto closepath} bind def
/Square {dup Rec} bind def
/Bsquare {vpt sub exch vpt sub exch vpt2 Square} bind def
/S0 {BL [] 0 setdash 2 copy moveto 0 vpt rlineto BL Bsquare} bind def
/S1 {BL [] 0 setdash 2 copy vpt Square fill Bsquare} bind def
/S2 {BL [] 0 setdash 2 copy exch vpt sub exch vpt Square fill Bsquare} bind def
/S3 {BL [] 0 setdash 2 copy exch vpt sub exch vpt2 vpt Rec fill Bsquare} bind def
/S4 {BL [] 0 setdash 2 copy exch vpt sub exch vpt sub vpt Square fill Bsquare} bind def
/S5 {BL [] 0 setdash 2 copy 2 copy vpt Square fill
	exch vpt sub exch vpt sub vpt Square fill Bsquare} bind def
/S6 {BL [] 0 setdash 2 copy exch vpt sub exch vpt sub vpt vpt2 Rec fill Bsquare} bind def
/S7 {BL [] 0 setdash 2 copy exch vpt sub exch vpt sub vpt vpt2 Rec fill
	2 copy vpt Square fill Bsquare} bind def
/S8 {BL [] 0 setdash 2 copy vpt sub vpt Square fill Bsquare} bind def
/S9 {BL [] 0 setdash 2 copy vpt sub vpt vpt2 Rec fill Bsquare} bind def
/S10 {BL [] 0 setdash 2 copy vpt sub vpt Square fill 2 copy exch vpt sub exch vpt Square fill
	Bsquare} bind def
/S11 {BL [] 0 setdash 2 copy vpt sub vpt Square fill 2 copy exch vpt sub exch vpt2 vpt Rec fill
	Bsquare} bind def
/S12 {BL [] 0 setdash 2 copy exch vpt sub exch vpt sub vpt2 vpt Rec fill Bsquare} bind def
/S13 {BL [] 0 setdash 2 copy exch vpt sub exch vpt sub vpt2 vpt Rec fill
	2 copy vpt Square fill Bsquare} bind def
/S14 {BL [] 0 setdash 2 copy exch vpt sub exch vpt sub vpt2 vpt Rec fill
	2 copy exch vpt sub exch vpt Square fill Bsquare} bind def
/S15 {BL [] 0 setdash 2 copy Bsquare fill Bsquare} bind def
/D0 {gsave translate 45 rotate 0 0 S0 stroke grestore} bind def
/D1 {gsave translate 45 rotate 0 0 S1 stroke grestore} bind def
/D2 {gsave translate 45 rotate 0 0 S2 stroke grestore} bind def
/D3 {gsave translate 45 rotate 0 0 S3 stroke grestore} bind def
/D4 {gsave translate 45 rotate 0 0 S4 stroke grestore} bind def
/D5 {gsave translate 45 rotate 0 0 S5 stroke grestore} bind def
/D6 {gsave translate 45 rotate 0 0 S6 stroke grestore} bind def
/D7 {gsave translate 45 rotate 0 0 S7 stroke grestore} bind def
/D8 {gsave translate 45 rotate 0 0 S8 stroke grestore} bind def
/D9 {gsave translate 45 rotate 0 0 S9 stroke grestore} bind def
/D10 {gsave translate 45 rotate 0 0 S10 stroke grestore} bind def
/D11 {gsave translate 45 rotate 0 0 S11 stroke grestore} bind def
/D12 {gsave translate 45 rotate 0 0 S12 stroke grestore} bind def
/D13 {gsave translate 45 rotate 0 0 S13 stroke grestore} bind def
/D14 {gsave translate 45 rotate 0 0 S14 stroke grestore} bind def
/D15 {gsave translate 45 rotate 0 0 S15 stroke grestore} bind def
/DiaE {stroke [] 0 setdash vpt add M
  hpt neg vpt neg V hpt vpt neg V
  hpt vpt V hpt neg vpt V closepath stroke} def
/BoxE {stroke [] 0 setdash exch hpt sub exch vpt add M
  0 vpt2 neg V hpt2 0 V 0 vpt2 V
  hpt2 neg 0 V closepath stroke} def
/TriUE {stroke [] 0 setdash vpt 1.12 mul add M
  hpt neg vpt -1.62 mul V
  hpt 2 mul 0 V
  hpt neg vpt 1.62 mul V closepath stroke} def
/TriDE {stroke [] 0 setdash vpt 1.12 mul sub M
  hpt neg vpt 1.62 mul V
  hpt 2 mul 0 V
  hpt neg vpt -1.62 mul V closepath stroke} def
/PentE {stroke [] 0 setdash gsave
  translate 0 hpt M 4 {72 rotate 0 hpt L} repeat
  closepath stroke grestore} def
/CircE {stroke [] 0 setdash 
  hpt 0 360 arc stroke} def
/Opaque {gsave closepath 1 setgray fill grestore 0 setgray closepath} def
/DiaW {stroke [] 0 setdash vpt add M
  hpt neg vpt neg V hpt vpt neg V
  hpt vpt V hpt neg vpt V Opaque stroke} def
/BoxW {stroke [] 0 setdash exch hpt sub exch vpt add M
  0 vpt2 neg V hpt2 0 V 0 vpt2 V
  hpt2 neg 0 V Opaque stroke} def
/TriUW {stroke [] 0 setdash vpt 1.12 mul add M
  hpt neg vpt -1.62 mul V
  hpt 2 mul 0 V
  hpt neg vpt 1.62 mul V Opaque stroke} def
/TriDW {stroke [] 0 setdash vpt 1.12 mul sub M
  hpt neg vpt 1.62 mul V
  hpt 2 mul 0 V
  hpt neg vpt -1.62 mul V Opaque stroke} def
/PentW {stroke [] 0 setdash gsave
  translate 0 hpt M 4 {72 rotate 0 hpt L} repeat
  Opaque stroke grestore} def
/CircW {stroke [] 0 setdash 
  hpt 0 360 arc Opaque stroke} def
/BoxFill {gsave Rec 1 setgray fill grestore} def
/Density {
  /Fillden exch def
  currentrgbcolor
  /ColB exch def /ColG exch def /ColR exch def
  /ColR ColR Fillden mul Fillden sub 1 add def
  /ColG ColG Fillden mul Fillden sub 1 add def
  /ColB ColB Fillden mul Fillden sub 1 add def
  ColR ColG ColB setrgbcolor} def
/BoxColFill {gsave Rec PolyFill} def
/PolyFill {gsave Density fill grestore grestore} def
/h {rlineto rlineto rlineto gsave closepath fill grestore} bind def
%
% PostScript Level 1 Pattern Fill routine for rectangles
% Usage: x y w h s a XX PatternFill
%	x,y = lower left corner of box to be filled
%	w,h = width and height of box
%	  a = angle in degrees between lines and x-axis
%	 XX = 0/1 for no/yes cross-hatch
%
/PatternFill {gsave /PFa [ 9 2 roll ] def
  PFa 0 get PFa 2 get 2 div add PFa 1 get PFa 3 get 2 div add translate
  PFa 2 get -2 div PFa 3 get -2 div PFa 2 get PFa 3 get Rec
  TransparentPatterns {} {gsave 1 setgray fill grestore} ifelse
  clip
  currentlinewidth 0.5 mul setlinewidth
  /PFs PFa 2 get dup mul PFa 3 get dup mul add sqrt def
  0 0 M PFa 5 get rotate PFs -2 div dup translate
  0 1 PFs PFa 4 get div 1 add floor cvi
	{PFa 4 get mul 0 M 0 PFs V} for
  0 PFa 6 get ne {
	0 1 PFs PFa 4 get div 1 add floor cvi
	{PFa 4 get mul 0 2 1 roll M PFs 0 V} for
 } if
  stroke grestore} def
%
/languagelevel where
 {pop languagelevel} {1} ifelse
 2 lt
	{/InterpretLevel1 true def}
	{/InterpretLevel1 Level1 def}
 ifelse
%
% PostScript level 2 pattern fill definitions
%
/Level2PatternFill {
/Tile8x8 {/PaintType 2 /PatternType 1 /TilingType 1 /BBox [0 0 8 8] /XStep 8 /YStep 8}
	bind def
/KeepColor {currentrgbcolor [/Pattern /DeviceRGB] setcolorspace} bind def
<< Tile8x8
 /PaintProc {0.5 setlinewidth pop 0 0 M 8 8 L 0 8 M 8 0 L stroke} 
>> matrix makepattern
/Pat1 exch def
<< Tile8x8
 /PaintProc {0.5 setlinewidth pop 0 0 M 8 8 L 0 8 M 8 0 L stroke
	0 4 M 4 8 L 8 4 L 4 0 L 0 4 L stroke}
>> matrix makepattern
/Pat2 exch def
<< Tile8x8
 /PaintProc {0.5 setlinewidth pop 0 0 M 0 8 L
	8 8 L 8 0 L 0 0 L fill}
>> matrix makepattern
/Pat3 exch def
<< Tile8x8
 /PaintProc {0.5 setlinewidth pop -4 8 M 8 -4 L
	0 12 M 12 0 L stroke}
>> matrix makepattern
/Pat4 exch def
<< Tile8x8
 /PaintProc {0.5 setlinewidth pop -4 0 M 8 12 L
	0 -4 M 12 8 L stroke}
>> matrix makepattern
/Pat5 exch def
<< Tile8x8
 /PaintProc {0.5 setlinewidth pop -2 8 M 4 -4 L
	0 12 M 8 -4 L 4 12 M 10 0 L stroke}
>> matrix makepattern
/Pat6 exch def
<< Tile8x8
 /PaintProc {0.5 setlinewidth pop -2 0 M 4 12 L
	0 -4 M 8 12 L 4 -4 M 10 8 L stroke}
>> matrix makepattern
/Pat7 exch def
<< Tile8x8
 /PaintProc {0.5 setlinewidth pop 8 -2 M -4 4 L
	12 0 M -4 8 L 12 4 M 0 10 L stroke}
>> matrix makepattern
/Pat8 exch def
<< Tile8x8
 /PaintProc {0.5 setlinewidth pop 0 -2 M 12 4 L
	-4 0 M 12 8 L -4 4 M 8 10 L stroke}
>> matrix makepattern
/Pat9 exch def
/Pattern1 {PatternBgnd KeepColor Pat1 setpattern} bind def
/Pattern2 {PatternBgnd KeepColor Pat2 setpattern} bind def
/Pattern3 {PatternBgnd KeepColor Pat3 setpattern} bind def
/Pattern4 {PatternBgnd KeepColor Landscape {Pat5} {Pat4} ifelse setpattern} bind def
/Pattern5 {PatternBgnd KeepColor Landscape {Pat4} {Pat5} ifelse setpattern} bind def
/Pattern6 {PatternBgnd KeepColor Landscape {Pat9} {Pat6} ifelse setpattern} bind def
/Pattern7 {PatternBgnd KeepColor Landscape {Pat8} {Pat7} ifelse setpattern} bind def
} def
%
%
%End of PostScript Level 2 code
%
/PatternBgnd {
  TransparentPatterns {} {gsave 1 setgray fill grestore} ifelse
} def
%
% Substitute for Level 2 pattern fill codes with
% grayscale if Level 2 support is not selected.
%
/Level1PatternFill {
/Pattern1 {0.250 Density} bind def
/Pattern2 {0.500 Density} bind def
/Pattern3 {0.750 Density} bind def
/Pattern4 {0.125 Density} bind def
/Pattern5 {0.375 Density} bind def
/Pattern6 {0.625 Density} bind def
/Pattern7 {0.875 Density} bind def
} def
%
% Now test for support of Level 2 code
%
Level1 {Level1PatternFill} {Level2PatternFill} ifelse
%
/Symbol-Oblique /Symbol findfont [1 0 .167 1 0 0] makefont
dup length dict begin {1 index /FID eq {pop pop} {def} ifelse} forall
currentdict end definefont pop
Level1 SuppressPDFMark or 
{} {
/SDict 10 dict def
systemdict /pdfmark known not {
  userdict /pdfmark systemdict /cleartomark get put
} if
SDict begin [
  /Title (out.ps)
  /Subject (gnuplot plot)
  /Creator (gnuplot 4.6 patchlevel 6)
  /Author (yani)
%  /Producer (gnuplot)
%  /Keywords ()
  /CreationDate (Thu May 28 16:40:03 2015)
  /DOCINFO pdfmark
end
} ifelse
end
%%EndProlog
%%Page: 1 1
gnudict begin
gsave
doclip
50 50 translate
0.100 0.100 scale
90 rotate
0 -5040 translate
0 setgray
newpath
(Helvetica) findfont 140 scalefont setfont
BackgroundColor 0 lt 3 1 roll 0 lt exch 0 lt or or not {gsave BackgroundColor C clippath fill grestore} if
1.000 UL
LT0
0.50 0.50 0.50 C 1.000 UL
LTa
0.50 0.50 0.50 C 966 280 M
5981 0 V
stroke
LT0
0.50 0.50 0.50 C 966 280 M
63 0 V
5918 0 R
-63 0 V
882 280 M
( 0) Rshow
1.000 UL
LT0
0.50 0.50 0.50 C 1.000 UL
LTa
0.50 0.50 0.50 C 966 372 M
5981 0 V
stroke
LT0
0.50 0.50 0.50 C 966 372 M
63 0 V
5918 0 R
-63 0 V
882 372 M
( 0.707106) Rshow
1.000 UL
LT0
0.50 0.50 0.50 C 1.000 UL
LTa
0.50 0.50 0.50 C 966 464 M
5981 0 V
stroke
LT0
0.50 0.50 0.50 C 966 464 M
63 0 V
5918 0 R
-63 0 V
882 464 M
( 1.41421) Rshow
1.000 UL
LT0
0.50 0.50 0.50 C 1.000 UL
LTa
0.50 0.50 0.50 C 966 555 M
5981 0 V
stroke
LT0
0.50 0.50 0.50 C 966 555 M
63 0 V
5918 0 R
-63 0 V
882 555 M
( 2.12132) Rshow
1.000 UL
LT0
0.50 0.50 0.50 C 1.000 UL
LTa
0.50 0.50 0.50 C 966 647 M
5981 0 V
stroke
LT0
0.50 0.50 0.50 C 966 647 M
63 0 V
5918 0 R
-63 0 V
882 647 M
( 2.82842) Rshow
1.000 UL
LT0
0.50 0.50 0.50 C 1.000 UL
LTa
0.50 0.50 0.50 C 966 739 M
5981 0 V
stroke
LT0
0.50 0.50 0.50 C 966 739 M
63 0 V
5918 0 R
-63 0 V
882 739 M
( 3.53553) Rshow
1.000 UL
LT0
0.50 0.50 0.50 C 1.000 UL
LTa
0.50 0.50 0.50 C 966 831 M
5981 0 V
stroke
LT0
0.50 0.50 0.50 C 966 831 M
63 0 V
5918 0 R
-63 0 V
882 831 M
( 4.24264) Rshow
1.000 UL
LT0
0.50 0.50 0.50 C 1.000 UL
LTa
0.50 0.50 0.50 C 966 923 M
5981 0 V
stroke
LT0
0.50 0.50 0.50 C 966 923 M
63 0 V
5918 0 R
-63 0 V
882 923 M
( 4.94974) Rshow
1.000 UL
LT0
0.50 0.50 0.50 C 1.000 UL
LTa
0.50 0.50 0.50 C 966 1015 M
5981 0 V
stroke
LT0
0.50 0.50 0.50 C 966 1015 M
63 0 V
5918 0 R
-63 0 V
-6002 0 R
( 5.65685) Rshow
1.000 UL
LT0
0.50 0.50 0.50 C 1.000 UL
LTa
0.50 0.50 0.50 C 966 1106 M
5981 0 V
stroke
LT0
0.50 0.50 0.50 C 966 1106 M
63 0 V
5918 0 R
-63 0 V
-6002 0 R
( 6.36395) Rshow
1.000 UL
LT0
0.50 0.50 0.50 C 1.000 UL
LTa
0.50 0.50 0.50 C 966 1198 M
5981 0 V
stroke
LT0
0.50 0.50 0.50 C 966 1198 M
63 0 V
5918 0 R
-63 0 V
-6002 0 R
( 7.07106) Rshow
1.000 UL
LT0
0.50 0.50 0.50 C 1.000 UL
LTa
0.50 0.50 0.50 C 966 1290 M
5981 0 V
stroke
LT0
0.50 0.50 0.50 C 966 1290 M
63 0 V
5918 0 R
-63 0 V
-6002 0 R
( 7.77817) Rshow
1.000 UL
LT0
0.50 0.50 0.50 C 1.000 UL
LTa
0.50 0.50 0.50 C 966 1382 M
5981 0 V
stroke
LT0
0.50 0.50 0.50 C 966 1382 M
63 0 V
5918 0 R
-63 0 V
-6002 0 R
( 8.48527) Rshow
1.000 UL
LT0
0.50 0.50 0.50 C 1.000 UL
LTa
0.50 0.50 0.50 C 966 1474 M
5981 0 V
stroke
LT0
0.50 0.50 0.50 C 966 1474 M
63 0 V
5918 0 R
-63 0 V
-6002 0 R
( 9.19238) Rshow
1.000 UL
LT0
0.50 0.50 0.50 C 1.000 UL
LTa
0.50 0.50 0.50 C 966 1565 M
5981 0 V
stroke
LT0
0.50 0.50 0.50 C 966 1565 M
63 0 V
5918 0 R
-63 0 V
-6002 0 R
( 9.89948) Rshow
1.000 UL
LT0
0.50 0.50 0.50 C 1.000 UL
LTa
0.50 0.50 0.50 C 966 1657 M
5981 0 V
stroke
LT0
0.50 0.50 0.50 C 966 1657 M
63 0 V
5918 0 R
-63 0 V
-6002 0 R
( 10.6066) Rshow
1.000 UL
LT0
0.50 0.50 0.50 C 1.000 UL
LTa
0.50 0.50 0.50 C 966 1749 M
5981 0 V
stroke
LT0
0.50 0.50 0.50 C 966 1749 M
63 0 V
5918 0 R
-63 0 V
-6002 0 R
( 11.3137) Rshow
1.000 UL
LT0
0.50 0.50 0.50 C 1.000 UL
LTa
0.50 0.50 0.50 C 966 1841 M
5981 0 V
stroke
LT0
0.50 0.50 0.50 C 966 1841 M
63 0 V
5918 0 R
-63 0 V
-6002 0 R
( 12.0208) Rshow
1.000 UL
LT0
0.50 0.50 0.50 C 1.000 UL
LTa
0.50 0.50 0.50 C 966 1933 M
5981 0 V
stroke
LT0
0.50 0.50 0.50 C 966 1933 M
63 0 V
5918 0 R
-63 0 V
-6002 0 R
( 12.7279) Rshow
1.000 UL
LT0
0.50 0.50 0.50 C 1.000 UL
LTa
0.50 0.50 0.50 C 966 2025 M
5981 0 V
stroke
LT0
0.50 0.50 0.50 C 966 2025 M
63 0 V
5918 0 R
-63 0 V
-6002 0 R
( 13.435) Rshow
1.000 UL
LT0
0.50 0.50 0.50 C 1.000 UL
LTa
0.50 0.50 0.50 C 966 2116 M
5981 0 V
stroke
LT0
0.50 0.50 0.50 C 966 2116 M
63 0 V
5918 0 R
-63 0 V
-6002 0 R
( 14.1421) Rshow
1.000 UL
LT0
0.50 0.50 0.50 C 1.000 UL
LTa
0.50 0.50 0.50 C 966 2208 M
5981 0 V
stroke
LT0
0.50 0.50 0.50 C 966 2208 M
63 0 V
5918 0 R
-63 0 V
-6002 0 R
( 14.8492) Rshow
1.000 UL
LT0
0.50 0.50 0.50 C 1.000 UL
LTa
0.50 0.50 0.50 C 966 2300 M
5981 0 V
stroke
LT0
0.50 0.50 0.50 C 966 2300 M
63 0 V
5918 0 R
-63 0 V
-6002 0 R
( 15.5563) Rshow
1.000 UL
LT0
0.50 0.50 0.50 C 1.000 UL
LTa
0.50 0.50 0.50 C 966 2392 M
5981 0 V
stroke
LT0
0.50 0.50 0.50 C 966 2392 M
63 0 V
5918 0 R
-63 0 V
-6002 0 R
( 16.2634) Rshow
1.000 UL
LT0
0.50 0.50 0.50 C 1.000 UL
LTa
0.50 0.50 0.50 C 966 2484 M
5981 0 V
stroke
LT0
0.50 0.50 0.50 C 966 2484 M
63 0 V
5918 0 R
-63 0 V
-6002 0 R
( 16.9705) Rshow
1.000 UL
LT0
0.50 0.50 0.50 C 1.000 UL
LTa
0.50 0.50 0.50 C 966 2575 M
5981 0 V
stroke
LT0
0.50 0.50 0.50 C 966 2575 M
63 0 V
5918 0 R
-63 0 V
-6002 0 R
( 17.6776) Rshow
1.000 UL
LT0
0.50 0.50 0.50 C 1.000 UL
LTa
0.50 0.50 0.50 C 966 2667 M
5981 0 V
stroke
LT0
0.50 0.50 0.50 C 966 2667 M
63 0 V
5918 0 R
-63 0 V
-6002 0 R
( 18.3848) Rshow
1.000 UL
LT0
0.50 0.50 0.50 C 1.000 UL
LTa
0.50 0.50 0.50 C 966 2759 M
5981 0 V
stroke
LT0
0.50 0.50 0.50 C 966 2759 M
63 0 V
5918 0 R
-63 0 V
-6002 0 R
( 19.0919) Rshow
1.000 UL
LT0
0.50 0.50 0.50 C 1.000 UL
LTa
0.50 0.50 0.50 C 966 2851 M
5981 0 V
stroke
LT0
0.50 0.50 0.50 C 966 2851 M
63 0 V
5918 0 R
-63 0 V
-6002 0 R
( 19.799) Rshow
1.000 UL
LT0
0.50 0.50 0.50 C 1.000 UL
LTa
0.50 0.50 0.50 C 966 2943 M
5981 0 V
stroke
LT0
0.50 0.50 0.50 C 966 2943 M
63 0 V
5918 0 R
-63 0 V
-6002 0 R
( 20.5061) Rshow
1.000 UL
LT0
0.50 0.50 0.50 C 1.000 UL
LTa
0.50 0.50 0.50 C 966 3035 M
5981 0 V
stroke
LT0
0.50 0.50 0.50 C 966 3035 M
63 0 V
5918 0 R
-63 0 V
-6002 0 R
( 21.2132) Rshow
1.000 UL
LT0
0.50 0.50 0.50 C 1.000 UL
LTa
0.50 0.50 0.50 C 966 3126 M
5981 0 V
stroke
LT0
0.50 0.50 0.50 C 966 3126 M
63 0 V
5918 0 R
-63 0 V
-6002 0 R
( 21.9203) Rshow
1.000 UL
LT0
0.50 0.50 0.50 C 1.000 UL
LTa
0.50 0.50 0.50 C 966 3218 M
5981 0 V
stroke
LT0
0.50 0.50 0.50 C 966 3218 M
63 0 V
5918 0 R
-63 0 V
-6002 0 R
( 22.6274) Rshow
1.000 UL
LT0
0.50 0.50 0.50 C 1.000 UL
LTa
0.50 0.50 0.50 C 966 3310 M
5981 0 V
stroke
LT0
0.50 0.50 0.50 C 966 3310 M
63 0 V
5918 0 R
-63 0 V
-6002 0 R
( 23.3345) Rshow
1.000 UL
LT0
0.50 0.50 0.50 C 1.000 UL
LTa
0.50 0.50 0.50 C 966 3402 M
5981 0 V
stroke
LT0
0.50 0.50 0.50 C 966 3402 M
63 0 V
5918 0 R
-63 0 V
-6002 0 R
( 24.0416) Rshow
1.000 UL
LT0
0.50 0.50 0.50 C 1.000 UL
LTa
0.50 0.50 0.50 C 966 3494 M
5981 0 V
stroke
LT0
0.50 0.50 0.50 C 966 3494 M
63 0 V
5918 0 R
-63 0 V
-6002 0 R
( 24.7487) Rshow
1.000 UL
LT0
0.50 0.50 0.50 C 1.000 UL
LTa
0.50 0.50 0.50 C 966 3586 M
5981 0 V
stroke
LT0
0.50 0.50 0.50 C 966 3586 M
63 0 V
5918 0 R
-63 0 V
-6002 0 R
( 25.4558) Rshow
1.000 UL
LT0
0.50 0.50 0.50 C 1.000 UL
LTa
0.50 0.50 0.50 C 966 3677 M
5981 0 V
stroke
LT0
0.50 0.50 0.50 C 966 3677 M
63 0 V
5918 0 R
-63 0 V
-6002 0 R
( 26.1629) Rshow
1.000 UL
LT0
0.50 0.50 0.50 C 1.000 UL
LTa
0.50 0.50 0.50 C 966 3769 M
5981 0 V
stroke
LT0
0.50 0.50 0.50 C 966 3769 M
63 0 V
5918 0 R
-63 0 V
-6002 0 R
( 26.87) Rshow
1.000 UL
LT0
0.50 0.50 0.50 C 1.000 UL
LTa
0.50 0.50 0.50 C 966 3861 M
5981 0 V
stroke
LT0
0.50 0.50 0.50 C 966 3861 M
63 0 V
5918 0 R
-63 0 V
-6002 0 R
( 27.5771) Rshow
1.000 UL
LT0
0.50 0.50 0.50 C 1.000 UL
LTa
0.50 0.50 0.50 C 966 3953 M
5981 0 V
stroke
LT0
0.50 0.50 0.50 C 966 3953 M
63 0 V
5918 0 R
-63 0 V
-6002 0 R
( 28.2842) Rshow
1.000 UL
LT0
0.50 0.50 0.50 C 1.000 UL
LTa
0.50 0.50 0.50 C 966 4045 M
5981 0 V
stroke
LT0
0.50 0.50 0.50 C 966 4045 M
63 0 V
5918 0 R
-63 0 V
-6002 0 R
( 28.9913) Rshow
1.000 UL
LT0
0.50 0.50 0.50 C 1.000 UL
LTa
0.50 0.50 0.50 C 966 4136 M
5981 0 V
stroke
LT0
0.50 0.50 0.50 C 966 4136 M
63 0 V
5918 0 R
-63 0 V
-6002 0 R
( 29.6985) Rshow
1.000 UL
LT0
0.50 0.50 0.50 C 1.000 UL
LTa
0.50 0.50 0.50 C 966 4228 M
5981 0 V
stroke
LT0
0.50 0.50 0.50 C 966 4228 M
63 0 V
5918 0 R
-63 0 V
-6002 0 R
( 30.4056) Rshow
1.000 UL
LT0
0.50 0.50 0.50 C 1.000 UL
LTa
0.50 0.50 0.50 C 966 4320 M
5981 0 V
stroke
LT0
0.50 0.50 0.50 C 966 4320 M
63 0 V
5918 0 R
-63 0 V
-6002 0 R
( 31.1127) Rshow
1.000 UL
LT0
0.50 0.50 0.50 C 1.000 UL
LTa
0.50 0.50 0.50 C 966 4412 M
5981 0 V
stroke
LT0
0.50 0.50 0.50 C 966 4412 M
63 0 V
5918 0 R
-63 0 V
-6002 0 R
( 31.8198) Rshow
1.000 UL
LT0
0.50 0.50 0.50 C 1.000 UL
LTa
0.50 0.50 0.50 C 966 4504 M
5981 0 V
stroke
LT0
0.50 0.50 0.50 C 966 4504 M
63 0 V
5918 0 R
-63 0 V
-6002 0 R
( 32.5269) Rshow
1.000 UL
LT0
0.50 0.50 0.50 C 1.000 UL
LTa
0.50 0.50 0.50 C 966 4596 M
5981 0 V
stroke
LT0
0.50 0.50 0.50 C 966 4596 M
63 0 V
5918 0 R
-63 0 V
-6002 0 R
( 33.234) Rshow
1.000 UL
LT0
0.50 0.50 0.50 C 1.000 UL
LTa
0.50 0.50 0.50 C 966 4687 M
5981 0 V
stroke
LT0
0.50 0.50 0.50 C 966 4687 M
63 0 V
5918 0 R
-63 0 V
-6002 0 R
( 33.9411) Rshow
1.000 UL
LT0
0.50 0.50 0.50 C 1.000 UL
LTa
0.50 0.50 0.50 C 966 4779 M
5981 0 V
stroke
LT0
0.50 0.50 0.50 C 966 4779 M
63 0 V
5918 0 R
-63 0 V
-6002 0 R
( 34.6482) Rshow
1.000 UL
LT0
0.50 0.50 0.50 C 1.000 UL
LTa
0.50 0.50 0.50 C 966 4871 M
5981 0 V
stroke
LT0
0.50 0.50 0.50 C 966 4871 M
63 0 V
5918 0 R
-63 0 V
-6002 0 R
( 35.3553) Rshow
1.000 UL
LT0
0.50 0.50 0.50 C 1.000 UL
LTa
0.50 0.50 0.50 C 966 280 M
0 4591 V
stroke
LT0
0.50 0.50 0.50 C 966 280 M
0 63 V
0 4528 R
0 -63 V
966 140 M
( 0) Cshow
1.000 UL
LT0
0.50 0.50 0.50 C 1.000 UL
LTa
0.50 0.50 0.50 C 1086 280 M
0 4591 V
stroke
LT0
0.50 0.50 0.50 C 1086 280 M
0 63 V
0 4528 R
0 -63 V
0 -4668 R
( 0.707106) Cshow
1.000 UL
LT0
0.50 0.50 0.50 C 1.000 UL
LTa
0.50 0.50 0.50 C 1205 280 M
0 4591 V
stroke
LT0
0.50 0.50 0.50 C 1205 280 M
0 63 V
0 4528 R
0 -63 V
0 -4668 R
( 1.41421) Cshow
1.000 UL
LT0
0.50 0.50 0.50 C 1.000 UL
LTa
0.50 0.50 0.50 C 1325 280 M
0 4591 V
stroke
LT0
0.50 0.50 0.50 C 1325 280 M
0 63 V
0 4528 R
0 -63 V
0 -4668 R
( 2.12132) Cshow
1.000 UL
LT0
0.50 0.50 0.50 C 1.000 UL
LTa
0.50 0.50 0.50 C 1444 280 M
0 4591 V
stroke
LT0
0.50 0.50 0.50 C 1444 280 M
0 63 V
0 4528 R
0 -63 V
0 -4668 R
( 2.82842) Cshow
1.000 UL
LT0
0.50 0.50 0.50 C 1.000 UL
LTa
0.50 0.50 0.50 C 1564 280 M
0 4591 V
stroke
LT0
0.50 0.50 0.50 C 1564 280 M
0 63 V
0 4528 R
0 -63 V
0 -4668 R
( 3.53553) Cshow
1.000 UL
LT0
0.50 0.50 0.50 C 1.000 UL
LTa
0.50 0.50 0.50 C 1684 280 M
0 4591 V
stroke
LT0
0.50 0.50 0.50 C 1684 280 M
0 63 V
0 4528 R
0 -63 V
0 -4668 R
( 4.24264) Cshow
1.000 UL
LT0
0.50 0.50 0.50 C 1.000 UL
LTa
0.50 0.50 0.50 C 1803 280 M
0 4591 V
stroke
LT0
0.50 0.50 0.50 C 1803 280 M
0 63 V
0 4528 R
0 -63 V
0 -4668 R
( 4.94974) Cshow
1.000 UL
LT0
0.50 0.50 0.50 C 1.000 UL
LTa
0.50 0.50 0.50 C 1923 280 M
0 4591 V
stroke
LT0
0.50 0.50 0.50 C 1923 280 M
0 63 V
0 4528 R
0 -63 V
0 -4668 R
( 5.65685) Cshow
1.000 UL
LT0
0.50 0.50 0.50 C 1.000 UL
LTa
0.50 0.50 0.50 C 2043 280 M
0 4591 V
stroke
LT0
0.50 0.50 0.50 C 2043 280 M
0 63 V
0 4528 R
0 -63 V
0 -4668 R
( 6.36395) Cshow
1.000 UL
LT0
0.50 0.50 0.50 C 1.000 UL
LTa
0.50 0.50 0.50 C 2162 280 M
0 4591 V
stroke
LT0
0.50 0.50 0.50 C 2162 280 M
0 63 V
0 4528 R
0 -63 V
0 -4668 R
( 7.07106) Cshow
1.000 UL
LT0
0.50 0.50 0.50 C 1.000 UL
LTa
0.50 0.50 0.50 C 2282 280 M
0 4591 V
stroke
LT0
0.50 0.50 0.50 C 2282 280 M
0 63 V
0 4528 R
0 -63 V
0 -4668 R
( 7.77817) Cshow
1.000 UL
LT0
0.50 0.50 0.50 C 1.000 UL
LTa
0.50 0.50 0.50 C 2401 280 M
0 4591 V
stroke
LT0
0.50 0.50 0.50 C 2401 280 M
0 63 V
0 4528 R
0 -63 V
0 -4668 R
( 8.48527) Cshow
1.000 UL
LT0
0.50 0.50 0.50 C 1.000 UL
LTa
0.50 0.50 0.50 C 2521 280 M
0 4591 V
stroke
LT0
0.50 0.50 0.50 C 2521 280 M
0 63 V
0 4528 R
0 -63 V
0 -4668 R
( 9.19238) Cshow
1.000 UL
LT0
0.50 0.50 0.50 C 1.000 UL
LTa
0.50 0.50 0.50 C 2641 280 M
0 4591 V
stroke
LT0
0.50 0.50 0.50 C 2641 280 M
0 63 V
0 4528 R
0 -63 V
0 -4668 R
( 9.89948) Cshow
1.000 UL
LT0
0.50 0.50 0.50 C 1.000 UL
LTa
0.50 0.50 0.50 C 2760 280 M
0 4591 V
stroke
LT0
0.50 0.50 0.50 C 2760 280 M
0 63 V
0 4528 R
0 -63 V
0 -4668 R
( 10.6066) Cshow
1.000 UL
LT0
0.50 0.50 0.50 C 1.000 UL
LTa
0.50 0.50 0.50 C 2880 280 M
0 4591 V
stroke
LT0
0.50 0.50 0.50 C 2880 280 M
0 63 V
0 4528 R
0 -63 V
0 -4668 R
( 11.3137) Cshow
1.000 UL
LT0
0.50 0.50 0.50 C 1.000 UL
LTa
0.50 0.50 0.50 C 3000 280 M
0 4591 V
stroke
LT0
0.50 0.50 0.50 C 3000 280 M
0 63 V
0 4528 R
0 -63 V
0 -4668 R
( 12.0208) Cshow
1.000 UL
LT0
0.50 0.50 0.50 C 1.000 UL
LTa
0.50 0.50 0.50 C 3119 280 M
0 4591 V
stroke
LT0
0.50 0.50 0.50 C 3119 280 M
0 63 V
0 4528 R
0 -63 V
0 -4668 R
( 12.7279) Cshow
1.000 UL
LT0
0.50 0.50 0.50 C 1.000 UL
LTa
0.50 0.50 0.50 C 3239 280 M
0 4591 V
stroke
LT0
0.50 0.50 0.50 C 3239 280 M
0 63 V
0 4528 R
0 -63 V
0 -4668 R
( 13.435) Cshow
1.000 UL
LT0
0.50 0.50 0.50 C 1.000 UL
LTa
0.50 0.50 0.50 C 3358 280 M
0 4591 V
stroke
LT0
0.50 0.50 0.50 C 3358 280 M
0 63 V
0 4528 R
0 -63 V
0 -4668 R
( 14.1421) Cshow
1.000 UL
LT0
0.50 0.50 0.50 C 1.000 UL
LTa
0.50 0.50 0.50 C 3478 280 M
0 4591 V
stroke
LT0
0.50 0.50 0.50 C 3478 280 M
0 63 V
0 4528 R
0 -63 V
0 -4668 R
( 14.8492) Cshow
1.000 UL
LT0
0.50 0.50 0.50 C 1.000 UL
LTa
0.50 0.50 0.50 C 3598 280 M
0 4591 V
stroke
LT0
0.50 0.50 0.50 C 3598 280 M
0 63 V
0 4528 R
0 -63 V
0 -4668 R
( 15.5563) Cshow
1.000 UL
LT0
0.50 0.50 0.50 C 1.000 UL
LTa
0.50 0.50 0.50 C 3717 280 M
0 4591 V
stroke
LT0
0.50 0.50 0.50 C 3717 280 M
0 63 V
0 4528 R
0 -63 V
0 -4668 R
( 16.2634) Cshow
1.000 UL
LT0
0.50 0.50 0.50 C 1.000 UL
LTa
0.50 0.50 0.50 C 3837 280 M
0 4591 V
stroke
LT0
0.50 0.50 0.50 C 3837 280 M
0 63 V
0 4528 R
0 -63 V
0 -4668 R
( 16.9705) Cshow
1.000 UL
LT0
0.50 0.50 0.50 C 1.000 UL
LTa
0.50 0.50 0.50 C 3956 280 M
0 4591 V
stroke
LT0
0.50 0.50 0.50 C 3956 280 M
0 63 V
0 4528 R
0 -63 V
0 -4668 R
( 17.6776) Cshow
1.000 UL
LT0
0.50 0.50 0.50 C 1.000 UL
LTa
0.50 0.50 0.50 C 4076 280 M
0 4591 V
stroke
LT0
0.50 0.50 0.50 C 4076 280 M
0 63 V
0 4528 R
0 -63 V
0 -4668 R
( 18.3848) Cshow
1.000 UL
LT0
0.50 0.50 0.50 C 1.000 UL
LTa
0.50 0.50 0.50 C 4196 280 M
0 4591 V
stroke
LT0
0.50 0.50 0.50 C 4196 280 M
0 63 V
0 4528 R
0 -63 V
0 -4668 R
( 19.0919) Cshow
1.000 UL
LT0
0.50 0.50 0.50 C 1.000 UL
LTa
0.50 0.50 0.50 C 4315 280 M
0 4591 V
stroke
LT0
0.50 0.50 0.50 C 4315 280 M
0 63 V
0 4528 R
0 -63 V
0 -4668 R
( 19.799) Cshow
1.000 UL
LT0
0.50 0.50 0.50 C 1.000 UL
LTa
0.50 0.50 0.50 C 4435 280 M
0 4591 V
stroke
LT0
0.50 0.50 0.50 C 4435 280 M
0 63 V
0 4528 R
0 -63 V
0 -4668 R
( 20.5061) Cshow
1.000 UL
LT0
0.50 0.50 0.50 C 1.000 UL
LTa
0.50 0.50 0.50 C 4555 280 M
0 4591 V
stroke
LT0
0.50 0.50 0.50 C 4555 280 M
0 63 V
0 4528 R
0 -63 V
0 -4668 R
( 21.2132) Cshow
1.000 UL
LT0
0.50 0.50 0.50 C 1.000 UL
LTa
0.50 0.50 0.50 C 4674 280 M
0 4591 V
stroke
LT0
0.50 0.50 0.50 C 4674 280 M
0 63 V
0 4528 R
0 -63 V
0 -4668 R
( 21.9203) Cshow
1.000 UL
LT0
0.50 0.50 0.50 C 1.000 UL
LTa
0.50 0.50 0.50 C 4794 280 M
0 4591 V
stroke
LT0
0.50 0.50 0.50 C 4794 280 M
0 63 V
0 4528 R
0 -63 V
0 -4668 R
( 22.6274) Cshow
1.000 UL
LT0
0.50 0.50 0.50 C 1.000 UL
LTa
0.50 0.50 0.50 C 4913 280 M
0 4591 V
stroke
LT0
0.50 0.50 0.50 C 4913 280 M
0 63 V
0 4528 R
0 -63 V
0 -4668 R
( 23.3345) Cshow
1.000 UL
LT0
0.50 0.50 0.50 C 1.000 UL
LTa
0.50 0.50 0.50 C 5033 280 M
0 4591 V
stroke
LT0
0.50 0.50 0.50 C 5033 280 M
0 63 V
0 4528 R
0 -63 V
0 -4668 R
( 24.0416) Cshow
1.000 UL
LT0
0.50 0.50 0.50 C 1.000 UL
LTa
0.50 0.50 0.50 C 5153 280 M
0 4591 V
stroke
LT0
0.50 0.50 0.50 C 5153 280 M
0 63 V
0 4528 R
0 -63 V
0 -4668 R
( 24.7487) Cshow
1.000 UL
LT0
0.50 0.50 0.50 C 1.000 UL
LTa
0.50 0.50 0.50 C 5272 280 M
0 4591 V
stroke
LT0
0.50 0.50 0.50 C 5272 280 M
0 63 V
0 4528 R
0 -63 V
0 -4668 R
( 25.4558) Cshow
1.000 UL
LT0
0.50 0.50 0.50 C 1.000 UL
LTa
0.50 0.50 0.50 C 5392 280 M
0 4591 V
stroke
LT0
0.50 0.50 0.50 C 5392 280 M
0 63 V
0 4528 R
0 -63 V
0 -4668 R
( 26.1629) Cshow
1.000 UL
LT0
0.50 0.50 0.50 C 1.000 UL
LTa
0.50 0.50 0.50 C 5512 280 M
0 4591 V
stroke
LT0
0.50 0.50 0.50 C 5512 280 M
0 63 V
0 4528 R
0 -63 V
0 -4668 R
( 26.87) Cshow
1.000 UL
LT0
0.50 0.50 0.50 C 1.000 UL
LTa
0.50 0.50 0.50 C 5631 280 M
0 4591 V
stroke
LT0
0.50 0.50 0.50 C 5631 280 M
0 63 V
0 4528 R
0 -63 V
0 -4668 R
( 27.5771) Cshow
1.000 UL
LT0
0.50 0.50 0.50 C 1.000 UL
LTa
0.50 0.50 0.50 C 5751 280 M
0 4591 V
stroke
LT0
0.50 0.50 0.50 C 5751 280 M
0 63 V
0 4528 R
0 -63 V
0 -4668 R
( 28.2842) Cshow
1.000 UL
LT0
0.50 0.50 0.50 C 1.000 UL
LTa
0.50 0.50 0.50 C 5870 280 M
0 4591 V
stroke
LT0
0.50 0.50 0.50 C 5870 280 M
0 63 V
0 4528 R
0 -63 V
0 -4668 R
( 28.9913) Cshow
1.000 UL
LT0
0.50 0.50 0.50 C 1.000 UL
LTa
0.50 0.50 0.50 C 5990 280 M
0 4591 V
stroke
LT0
0.50 0.50 0.50 C 5990 280 M
0 63 V
0 4528 R
0 -63 V
0 -4668 R
( 29.6985) Cshow
1.000 UL
LT0
0.50 0.50 0.50 C 1.000 UL
LTa
0.50 0.50 0.50 C 6110 280 M
0 4591 V
stroke
LT0
0.50 0.50 0.50 C 6110 280 M
0 63 V
0 4528 R
0 -63 V
0 -4668 R
( 30.4056) Cshow
1.000 UL
LT0
0.50 0.50 0.50 C 1.000 UL
LTa
0.50 0.50 0.50 C 6229 280 M
0 4591 V
stroke
LT0
0.50 0.50 0.50 C 6229 280 M
0 63 V
0 4528 R
0 -63 V
0 -4668 R
( 31.1127) Cshow
1.000 UL
LT0
0.50 0.50 0.50 C 1.000 UL
LTa
0.50 0.50 0.50 C 6349 280 M
0 4591 V
stroke
LT0
0.50 0.50 0.50 C 6349 280 M
0 63 V
0 4528 R
0 -63 V
0 -4668 R
( 31.8198) Cshow
1.000 UL
LT0
0.50 0.50 0.50 C 1.000 UL
LTa
0.50 0.50 0.50 C 6469 280 M
0 4591 V
stroke
LT0
0.50 0.50 0.50 C 6469 280 M
0 63 V
0 4528 R
0 -63 V
0 -4668 R
( 32.5269) Cshow
1.000 UL
LT0
0.50 0.50 0.50 C 1.000 UL
LTa
0.50 0.50 0.50 C 6588 280 M
0 4591 V
stroke
LT0
0.50 0.50 0.50 C 6588 280 M
0 63 V
0 4528 R
0 -63 V
0 -4668 R
( 33.234) Cshow
1.000 UL
LT0
0.50 0.50 0.50 C 1.000 UL
LTa
0.50 0.50 0.50 C 6708 280 M
0 4591 V
stroke
LT0
0.50 0.50 0.50 C 6708 280 M
0 63 V
0 4528 R
0 -63 V
0 -4668 R
( 33.9411) Cshow
1.000 UL
LT0
0.50 0.50 0.50 C 1.000 UL
LTa
0.50 0.50 0.50 C 6827 280 M
0 4591 V
stroke
LT0
0.50 0.50 0.50 C 6827 280 M
0 63 V
0 4528 R
0 -63 V
0 -4668 R
( 34.6482) Cshow
1.000 UL
LT0
0.50 0.50 0.50 C 1.000 UL
LTa
0.50 0.50 0.50 C 6947 280 M
0 4591 V
stroke
LT0
0.50 0.50 0.50 C 6947 280 M
0 63 V
0 4528 R
0 -63 V
0 -4668 R
( 35.3553) Cshow
1.000 UL
LT0
0.50 0.50 0.50 C 1.000 UL
LT0
0.50 0.50 0.50 C 966 4871 M
966 280 L
5981 0 V
0 4591 R
-5981 0 R
1.000 UP
stroke
LT0
0.50 0.50 0.50 C % Begin plot #1
1.500 UP
2.000 UL
LT0
0.00 0.00 1.00 C /Helvetica findfont 140 scalefont setfont
/vshift -46 def
966 372 M
120 0 V
119 0 V
120 0 V
119 0 V
0 459 R
120 0 V
0 367 R
120 0 V
119 0 V
120 0 V
0 92 R
120 0 V
119 0 V
120 0 V
119 0 V
120 0 V
120 0 V
119 0 V
120 0 V
0 551 R
120 0 V
119 0 V
0 92 R
120 0 V
119 0 V
0 92 R
120 0 V
120 0 V
119 0 V
120 0 V
120 0 V
0 367 R
119 0 V
120 0 V
0 92 R
119 0 V
120 0 V
120 0 V
119 0 V
120 0 V
119 0 V
120 0 V
120 0 V
119 0 V
0 275 R
120 0 V
0 276 R
120 0 V
0 275 R
119 0 V
120 0 V
0 184 R
119 0 V
0 92 R
120 0 V
120 0 V
0 367 R
119 0 V
120 0 V
0 734 R
120 0 V
239 92 R
119 0 V
-358 0 R
119 0 V
120 0 V
1444 372 M
0 92 V
0 91 V
0 92 V
0 92 V
0 92 V
120 0 R
0 92 V
0 92 V
0 91 V
0 92 V
359 0 R
0 92 V
957 0 R
0 92 V
0 92 V
0 91 V
0 92 V
0 92 V
0 92 V
239 0 R
0 92 V
239 0 R
0 92 V
599 0 R
0 91 V
0 92 V
0 92 V
0 92 V
239 0 R
0 92 V
1076 0 R
0 92 V
0 91 V
0 92 V
120 0 R
0 92 V
0 92 V
stroke 5392 2943 M
0 92 V
120 0 R
0 91 V
0 92 V
0 92 V
239 0 R
0 92 V
0 92 V
119 0 R
0 92 V
240 0 R
0 91 V
0 92 V
0 92 V
0 92 V
239 0 R
0 92 V
0 91 V
0 92 V
0 92 V
0 92 V
0 92 V
0 92 V
0 91 V
120 0 R
0 92 V
966 280 M
0 92 V
966 372 CircleF
1086 372 CircleF
1086 372 CircleF
1205 372 CircleF
1205 372 CircleF
1325 372 CircleF
1325 372 CircleF
1444 372 CircleF
1444 831 CircleF
1564 831 CircleF
1564 1198 CircleF
1684 1198 CircleF
1684 1198 CircleF
1803 1198 CircleF
1803 1198 CircleF
1923 1198 CircleF
1923 1290 CircleF
2043 1290 CircleF
2043 1290 CircleF
2162 1290 CircleF
2162 1290 CircleF
2282 1290 CircleF
2282 1290 CircleF
2401 1290 CircleF
2401 1290 CircleF
2521 1290 CircleF
2521 1290 CircleF
2641 1290 CircleF
2641 1290 CircleF
2760 1290 CircleF
2760 1290 CircleF
2880 1290 CircleF
2880 1841 CircleF
3000 1841 CircleF
3000 1841 CircleF
3119 1841 CircleF
3119 1933 CircleF
3239 1933 CircleF
3239 1933 CircleF
3358 1933 CircleF
3358 2025 CircleF
3478 2025 CircleF
3478 2025 CircleF
3598 2025 CircleF
3598 2025 CircleF
3717 2025 CircleF
3717 2025 CircleF
3837 2025 CircleF
3837 2025 CircleF
3957 2025 CircleF
3957 2392 CircleF
4076 2392 CircleF
4076 2392 CircleF
4196 2392 CircleF
4196 2484 CircleF
4315 2484 CircleF
4315 2484 CircleF
4435 2484 CircleF
4435 2484 CircleF
4555 2484 CircleF
4555 2484 CircleF
4674 2484 CircleF
4674 2484 CircleF
4794 2484 CircleF
4794 2484 CircleF
4913 2484 CircleF
4913 2484 CircleF
5033 2484 CircleF
5033 2484 CircleF
5153 2484 CircleF
5153 2484 CircleF
5272 2484 CircleF
5272 2759 CircleF
5392 2759 CircleF
5392 3035 CircleF
5512 3035 CircleF
5512 3310 CircleF
5631 3310 CircleF
5631 3310 CircleF
5751 3310 CircleF
5751 3494 CircleF
5870 3494 CircleF
5870 3586 CircleF
5990 3586 CircleF
5990 3586 CircleF
6110 3586 CircleF
6110 3953 CircleF
6229 3953 CircleF
6229 3953 CircleF
6349 3953 CircleF
6349 4687 CircleF
6469 4687 CircleF
6708 4779 CircleF
6827 4779 CircleF
6469 4779 CircleF
6588 4779 CircleF
6588 4779 CircleF
6708 4779 CircleF
1444 372 CircleF
1444 464 CircleF
1444 464 CircleF
1444 555 CircleF
1444 555 CircleF
1444 647 CircleF
1444 647 CircleF
1444 739 CircleF
1444 739 CircleF
1444 831 CircleF
1564 831 CircleF
1564 923 CircleF
1564 923 CircleF
1564 1015 CircleF
1564 1015 CircleF
1564 1106 CircleF
1564 1106 CircleF
1564 1198 CircleF
1923 1198 CircleF
1923 1290 CircleF
2880 1290 CircleF
2880 1382 CircleF
2880 1382 CircleF
2880 1474 CircleF
2880 1474 CircleF
2880 1565 CircleF
2880 1565 CircleF
2880 1657 CircleF
2880 1657 CircleF
2880 1749 CircleF
2880 1749 CircleF
2880 1841 CircleF
3119 1841 CircleF
3119 1933 CircleF
3358 1933 CircleF
3358 2025 CircleF
3957 2025 CircleF
3957 2116 CircleF
3957 2116 CircleF
3957 2208 CircleF
3957 2208 CircleF
3957 2300 CircleF
3957 2300 CircleF
3957 2392 CircleF
4196 2392 CircleF
4196 2484 CircleF
5272 2484 CircleF
5272 2576 CircleF
5272 2576 CircleF
5272 2667 CircleF
5272 2667 CircleF
5272 2759 CircleF
5392 2759 CircleF
5392 2851 CircleF
5392 2851 CircleF
5392 2943 CircleF
5392 2943 CircleF
5392 3035 CircleF
5512 3035 CircleF
5512 3126 CircleF
5512 3126 CircleF
5512 3218 CircleF
5512 3218 CircleF
5512 3310 CircleF
5751 3310 CircleF
5751 3402 CircleF
5751 3402 CircleF
5751 3494 CircleF
5870 3494 CircleF
5870 3586 CircleF
6110 3586 CircleF
6110 3677 CircleF
6110 3677 CircleF
6110 3769 CircleF
6110 3769 CircleF
6110 3861 CircleF
6110 3861 CircleF
6110 3953 CircleF
6349 3953 CircleF
6349 4045 CircleF
6349 4045 CircleF
6349 4136 CircleF
6349 4136 CircleF
6349 4228 CircleF
6349 4228 CircleF
6349 4320 CircleF
6349 4320 CircleF
6349 4412 CircleF
6349 4412 CircleF
6349 4504 CircleF
6349 4504 CircleF
6349 4596 CircleF
6349 4596 CircleF
6349 4687 CircleF
6469 4687 CircleF
6469 4779 CircleF
966 280 CircleF
966 372 CircleF
% End plot #1
% Begin plot #2
1.500 UP
2.000 UL
LT0
1.00 0.55 0.00 C /Helvetica findfont 140 scalefont setfont
1006 3690 M
120 92 V
6329 2588 M
120 92 V
131 -634 R
120 92 V
5567 3941 M
120 92 V
1106 562 M
120 91 V
3740 611 R
120 92 V
1349 4602 M
120 92 V
1604 1688 M
120 92 V
3250 4553 M
120 92 V
2220 3314 M
120 92 V
624 669 R
120 92 V
1982 443 R
120 92 V
5697 2374 M
120 92 V
2884 1614 M
119 91 V
813 1660 R
120 91 V
79 920 R
120 92 V
4033 2877 M
120 92 V
6333 4597 M
120 92 V
1839 1073 M
120 92 V
1050 3845 M
120 92 V
1514 2602 M
120 92 V
4229 4594 M
120 92 V
6270 1953 M
120 92 V
5484 1086 M
120 92 V
2433 1738 M
120 92 V
5657 1413 M
120 92 V
4140 3599 M
119 92 V
6165 1349 M
120 92 V
1013 4062 M
120 92 V
6089 2026 M
120 92 V
3497 830 M
119 92 V
1565 967 M
120 92 V
5929 4178 M
120 91 V
5508 386 M
119 92 V
2339 2776 M
119 92 V
2153 1370 M
119 92 V
3444 2562 M
119 92 V
-778 506 R
120 92 V
6364 703 M
120 92 V
-444 339 R
120 92 V
1375 1982 M
120 92 V
86 2285 R
120 92 V
4289 21 R
119 92 V
5681 696 M
119 92 V
2952 1396 M
120 91 V
615 -138 R
119 92 V
1166 3212 M
120 91 V
1067 1648 M
120 92 V
2359 1221 M
120 92 V
2050 916 R
120 92 V
4548 529 M
119 92 V
2689 1482 M
120 92 V
987 1026 R
120 92 V
stroke 3916 2692 M
597 164 R
120 92 V
3224 3735 M
119 92 V
672 -377 R
120 92 V
3276 1886 M
119 92 V
281 2018 R
120 91 V
2073 1458 M
119 91 V
6084 707 M
119 92 V
2486 2102 M
120 92 V
5765 3427 M
119 92 V
5763 1171 M
120 91 V
740 -199 R
120 92 V
4398 2650 M
119 92 V
3476 4009 M
120 92 V
1766 3255 M
119 92 V
1021 866 R
119 92 V
4441 548 M
119 91 V
3479 4218 M
120 92 V
6589 2757 M
119 92 V
-586 99 R
119 91 V
4868 3657 M
120 91 V
2936 3990 M
120 92 V
3260 1019 M
120 92 V
4928 2433 M
120 92 V
908 837 R
120 92 V
3719 3089 M
120 92 V
1075 898 R
120 92 V
6253 1579 M
120 92 V
4452 3955 M
120 92 V
-1322 71 R
120 92 V
971 2408 M
119 92 V
5246 139 R
120 92 V
-1110 24 R
120 92 V
4552 3939 M
119 92 V
1642 3838 M
120 92 V
2525 330 R
119 92 V
3484 2767 M
119 92 V
2507 555 R
120 91 V
5731 2812 M
120 92 V
990 332 M
119 92 V
222 1873 R
120 92 V
4236 4589 M
120 92 V
6069 4395 M
119 92 V
-2983 41 R
120 91 V
6529 2025 M
119 92 V
6073 3580 M
120 92 V
1538 1691 M
120 92 V
492 1363 R
120 91 V
4088 1589 M
119 92 V
355 1727 R
119 92 V
983 3620 M
120 92 V
3367 400 R
120 92 V
2370 3434 M
120 91 V
stroke 2490 3525 M
-555 813 R
119 92 V
6119 2303 M
120 92 V
1716 1512 M
120 92 V
2183 787 R
120 92 V
1596 2869 M
119 92 V
861 1297 R
120 91 V
6603 3814 M
119 92 V
5743 3307 M
119 92 V
-361 771 R
119 92 V
1455 3712 M
120 92 V
1517 235 R
119 92 V
4125 1051 M
120 92 V
5426 912 M
120 91 V
4300 319 M
120 92 V
3925 915 M
119 91 V
2449 2790 M
119 92 V
6033 836 M
119 92 V
2469 1545 M
119 92 V
954 2994 R
119 92 V
2341 2646 M
119 91 V
1804 1887 M
119 92 V
7 -1416 R
119 92 V
3548 622 M
119 92 V
1521 2098 M
119 92 V
422 -246 R
120 92 V
4737 3255 M
120 92 V
-1565 84 R
119 91 V
4305 1162 M
120 92 V
1359 744 R
119 91 V
6604 1021 M
120 92 V
6107 3153 M
120 91 V
1868 1413 M
119 92 V
4607 355 M
120 92 V
112 4227 R
120 92 V
4707 1900 M
120 92 V
102 672 R
120 92 V
3238 1640 M
120 92 V
5461 529 M
119 92 V
1449 2680 M
119 92 V
739 1778 R
120 91 V
3519 4446 M
120 91 V
6131 1785 M
119 92 V
2868 3988 M
120 92 V
2051 3902 M
119 92 V
-620 543 R
119 92 V
3826 4094 M
120 91 V
4390 1302 M
119 92 V
3228 577 M
119 91 V
5693 2146 M
120 92 V
2199 4494 M
120 92 V
3084 987 M
119 91 V
2430 322 R
119 92 V
stroke 5752 1492 M
3887 3846 M
120 92 V
2053 -66 R
120 92 V
3933 2308 M
119 92 V
724 575 R
120 91 V
3697 1551 M
120 91 V
2029 4256 M
120 92 V
1139 3145 M
120 92 V
2657 1045 M
120 91 V
4470 4067 M
120 92 V
6024 1009 M
120 92 V
2804 1406 M
120 92 V
439 1285 R
120 92 V
4309 1736 M
120 92 V
4525 521 M
120 92 V
5867 2142 M
120 92 V
100 792 R
120 92 V
3279 2191 M
119 92 V
342 -542 R
119 92 V
5917 3249 M
120 92 V
5125 1895 M
119 92 V
1639 1818 M
119 92 V
3539 3411 M
120 92 V
1766 4291 M
120 91 V
5356 2779 M
120 92 V
77 378 R
120 92 V
3693 3516 M
120 92 V
2636 4630 M
120 91 V
4108 3425 M
119 92 V
5290 4561 M
119 92 V
2312 1069 M
120 91 V
1455 857 M
120 92 V
2878 4512 M
119 92 V
483 -407 R
120 92 V
4057 893 M
120 91 V
5267 2979 M
120 92 V
2827 3766 M
120 92 V
6149 2309 M
120 92 V
2995 379 M
120 91 V
6100 736 M
119 92 V
1131 3555 M
119 92 V
4088 1042 M
120 91 V
2919 3286 M
120 92 V
2971 1796 M
120 91 V
-344 284 R
119 92 V
2012 807 M
120 92 V
3795 4386 M
119 92 V
4266 2798 M
120 91 V
2717 4059 M
119 92 V
1050 1254 M
120 92 V
919 2829 R
120 92 V
6101 747 M
119 91 V
2642 2685 M
120 92 V
stroke 2762 2777 M
6651 1492 M
119 91 V
1111 3998 M
120 92 V
161 -846 R
120 92 V
1346 157 R
119 92 V
4710 1971 M
119 92 V
6573 3706 M
120 91 V
1560 2729 M
120 92 V
3652 291 M
119 92 V
6135 1847 M
119 92 V
4238 4360 M
120 91 V
-2924 43 R
120 92 V
4731 4393 M
119 91 V
1394 792 M
120 92 V
1512 718 R
120 92 V
3343 195 R
119 92 V
4246 4640 M
120 92 V
2168 4360 M
120 92 V
4723 2735 M
120 92 V
4375 804 M
119 92 V
3512 2660 M
120 92 V
1691 209 R
120 91 V
2017 1924 M
119 91 V
2624 64 R
120 91 V
6285 839 M
119 92 V
4289 3228 M
120 92 V
-164 543 R
120 91 V
1661 1119 M
120 92 V
4874 2849 M
120 92 V
5419 878 M
120 92 V
5090 2252 M
119 92 V
3105 3773 M
119 92 V
5510 1883 M
119 92 V
4012 431 M
120 92 V
599 2521 R
120 92 V
3856 4573 M
119 92 V
5248 3641 M
120 91 V
3017 2558 M
120 91 V
4920 2004 M
120 92 V
3543 3839 M
120 92 V
1513 3448 M
120 91 V
4533 1884 M
120 92 V
1510 169 R
119 92 V
3679 3917 M
120 92 V
1464 794 M
120 92 V
-51 2927 R
120 92 V
4910 2208 M
119 92 V
2444 2815 M
120 92 V
551 528 R
119 92 V
2165 4658 M
120 92 V
2194 1279 M
119 92 V
1919 2738 M
120 92 V
-94 1853 R
120 91 V
stroke 2065 4774 M
4620 4437 M
120 91 V
5854 312 M
120 92 V
981 1038 M
120 91 V
-32 1584 R
120 92 V
4703 2480 M
120 92 V
6693 482 M
120 92 V
3853 748 M
119 92 V
2863 2117 M
119 92 V
4193 1259 M
119 92 V
5481 2540 M
120 92 V
2511 2415 M
120 92 V
1267 2848 M
120 92 V
70 -1876 R
119 92 V
3970 2361 M
120 92 V
3384 3926 M
119 92 V
-622 273 R
120 92 V
4952 3735 M
119 92 V
1084 3433 M
120 91 V
386 -419 R
120 91 V
4364 429 M
119 92 V
5927 2263 M
120 92 V
5334 4582 M
120 92 V
4783 1030 M
120 92 V
3893 2502 M
120 92 V
1315 1351 M
119 92 V
571 926 R
120 92 V
4857 1985 M
119 92 V
1822 3952 M
119 92 V
2006 343 M
119 92 V
18 3370 R
119 92 V
6323 3032 M
120 92 V
1298 1672 M
120 92 V
3957 4307 M
120 91 V
1224 1333 M
119 92 V
2645 2615 M
119 92 V
6107 969 M
120 92 V
1715 4671 M
119 92 V
4798 1067 M
119 92 V
342 1516 R
120 91 V
2710 3357 M
119 91 V
6575 3340 M
119 92 V
4029 2536 M
120 92 V
916 -278 R
120 92 V
-2159 42 R
120 92 V
1054 2890 M
120 92 V
6705 1416 M
119 92 V
1279 323 M
120 92 V
998 4417 M
120 92 V
5942 1884 M
119 92 V
4242 1896 M
120 92 V
1801 3188 M
120 92 V
1439 2845 M
119 92 V
stroke 1558 2937 M
3061 2240 M
119 92 V
6014 3491 M
119 91 V
6680 1162 M
119 91 V
1450 585 M
120 92 V
574 -56 R
120 92 V
2250 442 R
120 92 V
4398 3161 M
119 92 V
3277 3129 M
120 92 V
2033 971 M
119 92 V
5745 2679 M
120 92 V
2868 375 M
120 92 V
5499 4532 M
119 92 V
4573 2011 M
120 92 V
3803 1889 M
119 92 V
4566 488 M
119 91 V
445 2681 R
120 92 V
4601 1523 M
120 92 V
1525 1739 M
120 92 V
1201 1614 M
119 92 V
3820 4315 M
120 91 V
3182 4293 M
120 92 V
4563 3860 M
120 92 V
4800 694 M
120 92 V
-414 9 R
120 91 V
2974 719 M
119 92 V
5451 4634 M
120 92 V
4671 549 M
120 92 V
849 612 R
119 92 V
1134 3203 M
120 91 V
4929 4329 M
120 92 V
3162 966 M
119 91 V
1643 2021 M
120 91 V
1148 916 R
120 91 V
3422 292 M
120 92 V
5239 2519 M
120 91 V
5128 1133 M
119 92 V
2688 3373 M
120 91 V
832 -723 R
120 92 V
5167 1851 M
119 92 V
2730 283 M
119 92 V
4118 630 M
120 92 V
2204 3691 M
120 92 V
2746 406 M
120 91 V
1843 1713 M
119 92 V
984 2435 R
119 92 V
6266 1040 M
120 91 V
5893 994 M
120 92 V
3231 2227 M
119 92 V
2303 3762 M
120 92 V
3194 2103 M
119 92 V
1487 3449 M
120 92 V
1875 976 R
119 91 V
stroke 3601 4608 M
6370 3876 M
119 92 V
4016 1369 M
120 92 V
3096 2020 M
119 92 V
-56 1369 R
119 92 V
259 111 R
120 92 V
4139 1138 M
119 92 V
2102 599 R
120 92 V
3049 1086 M
120 91 V
1795 941 R
120 92 V
2155 3679 M
120 91 V
1697 2747 M
119 92 V
2673 309 R
120 92 V
1534 1641 M
120 91 V
383 709 R
119 92 V
4722 4266 M
120 92 V
4241 2562 M
120 92 V
6384 328 M
120 92 V
3200 2251 M
120 91 V
2311 966 R
119 92 V
4725 1886 M
120 92 V
3833 1273 M
120 92 V
5625 2672 M
119 92 V
4277 2281 M
119 92 V
6254 2219 M
119 92 V
3109 893 M
119 92 V
1499 982 M
119 92 V
1438 0 R
119 92 V
5062 2433 M
120 91 V
3607 3760 M
120 92 V
1506 3025 M
120 92 V
4059 2911 M
120 92 V
1100 2873 M
120 92 V
1091 916 M
120 91 V
4672 500 R
120 92 V
106 2085 R
119 92 V
5574 2304 M
119 92 V
605 2148 R
120 92 V
-1512 -4 R
120 92 V
6277 4358 M
120 92 V
3837 1975 M
119 92 V
1630 2763 M
119 92 V
4953 102 R
120 92 V
2320 3344 M
120 92 V
2853 1641 M
120 92 V
3062 -84 R
119 92 V
-982 937 R
120 91 V
1803 3405 M
120 92 V
2059 1765 M
119 91 V
3466 3045 M
119 92 V
-631 592 R
119 92 V
5928 3511 M
119 92 V
3609 1071 M
120 92 V
stroke 3729 1163 M
1789 3054 M
120 92 V
2893 896 M
120 91 V
1994 869 M
119 92 V
4058 4489 M
119 92 V
3009 1773 M
120 91 V
992 2457 M
120 92 V
5673 1416 M
120 92 V
2509 773 M
119 92 V
2401 2605 M
120 92 V
4621 4307 M
120 92 V
1375 510 M
119 92 V
1364 731 R
119 92 V
5151 3420 M
119 92 V
2028 4178 M
120 91 V
1906 1723 M
119 92 V
1782 3149 M
120 92 V
3558 1197 M
120 92 V
205 490 R
119 92 V
952 2774 R
119 92 V
5416 3039 M
120 92 V
1710 1952 M
120 92 V
3158 839 R
120 92 V
4159 2406 M
120 91 V
101 917 R
119 92 V
5750 2324 M
120 92 V
1297 4323 M
120 92 V
4161 2410 M
120 92 V
1168 3235 M
119 92 V
2361 1170 M
120 91 V
1421 436 M
120 92 V
4309 2539 M
120 92 V
6127 1414 M
119 92 V
1070 2547 M
120 92 V
5152 2451 M
119 91 V
-737 818 R
119 92 V
4359 2816 M
119 92 V
2341 3498 M
120 92 V
348 -758 R
120 92 V
5730 318 M
120 91 V
4457 4436 M
120 92 V
5322 549 M
120 92 V
1115 3896 M
120 91 V
5832 2553 M
120 92 V
4919 426 M
120 92 V
6403 2660 M
119 91 V
3009 2970 M
120 91 V
3194 456 M
119 91 V
5996 336 M
120 91 V
1427 2609 M
120 92 V
993 -776 R
120 92 V
6505 1271 M
120 92 V
3442 2988 M
119 92 V
stroke 3561 3080 M
4408 2062 M
119 91 V
6379 3920 M
119 92 V
4938 1335 M
119 92 V
6456 3168 M
119 92 V
1801 3929 M
120 92 V
4417 301 R
119 92 V
4789 4211 M
120 92 V
3808 3287 M
120 92 V
5920 1758 M
120 92 V
1376 685 M
120 92 V
-324 567 R
119 92 V
5629 4303 M
119 92 V
2122 4196 M
120 92 V
4797 3866 M
119 92 V
1856 3567 M
119 92 V
3658 3343 M
120 92 V
6375 2626 M
119 92 V
6113 1457 M
120 92 V
6481 575 M
120 92 V
4720 865 M
119 92 V
3805 1990 M
120 92 V
4948 4168 M
119 91 V
1916 3660 M
120 92 V
3051 590 R
119 92 V
1721 3513 M
120 92 V
6057 4638 M
119 92 V
3429 3415 M
120 92 V
-2313 63 R
120 92 V
4184 3063 M
119 92 V
3817 1279 M
120 92 V
2661 3106 M
120 92 V
948 117 R
120 91 V
2240 2996 M
119 91 V
4980 722 M
120 92 V
2254 3611 M
119 91 V
5489 3253 M
120 92 V
3157 1992 M
120 92 V
5614 4622 M
119 92 V
2072 1277 M
119 92 V
4830 1085 M
120 92 V
3882 4247 M
120 92 V
166 -486 R
120 92 V
1098 3186 M
119 92 V
3588 292 R
120 92 V
3738 4415 M
120 92 V
4704 3138 M
120 92 V
2731 2963 M
119 92 V
2423 464 M
120 92 V
3578 2000 M
119 92 V
1086 2716 M
120 92 V
3618 2456 M
120 92 V
6036 1156 M
119 92 V
stroke 6155 1248 M
3207 3418 M
120 92 V
6391 919 M
120 92 V
6274 3064 M
120 92 V
4629 1553 M
120 92 V
3435 3716 M
119 92 V
5121 313 M
120 91 V
4062 1978 M
119 91 V
6147 4387 M
120 92 V
5086 1165 M
120 92 V
-25 3390 R
120 92 V
3000 3195 M
120 92 V
6146 2872 M
119 92 V
167 543 R
120 91 V
2236 2828 M
119 92 V
5239 2031 M
119 92 V
-866 583 R
120 91 V
4023 426 M
120 92 V
-5 2258 R
119 92 V
-450 505 R
119 92 V
2844 987 M
119 92 V
-35 721 R
120 92 V
5611 1339 M
119 91 V
-389 889 R
119 92 V
1574 3773 M
119 91 V
2862 1518 M
119 92 V
1299 4473 M
120 92 V
5239 4136 M
120 92 V
2354 1823 M
119 92 V
3074 648 M
120 92 V
1006 3690 CircleF
1126 3782 CircleF
6329 2588 CircleF
6449 2680 CircleF
6580 2046 CircleF
6700 2138 CircleF
5567 3941 CircleF
5687 4033 CircleF
1106 562 CircleF
1226 653 CircleF
4966 1264 CircleF
5086 1356 CircleF
1349 4602 CircleF
1469 4694 CircleF
1604 1688 CircleF
1724 1780 CircleF
3250 4553 CircleF
3370 4645 CircleF
2220 3314 CircleF
2340 3406 CircleF
2964 4075 CircleF
3084 4167 CircleF
5066 4610 CircleF
5186 4702 CircleF
5697 2374 CircleF
5817 2466 CircleF
2884 1614 CircleF
3003 1705 CircleF
3816 3365 CircleF
3936 3456 CircleF
4015 4376 CircleF
4135 4468 CircleF
4033 2877 CircleF
4153 2969 CircleF
6333 4597 CircleF
6453 4689 CircleF
1839 1073 CircleF
1959 1165 CircleF
1050 3845 CircleF
1170 3937 CircleF
1514 2602 CircleF
1634 2694 CircleF
4229 4594 CircleF
4349 4686 CircleF
6270 1953 CircleF
6390 2045 CircleF
5484 1086 CircleF
5604 1178 CircleF
2433 1738 CircleF
2553 1830 CircleF
5657 1413 CircleF
5777 1505 CircleF
4140 3599 CircleF
4259 3691 CircleF
6165 1349 CircleF
6285 1441 CircleF
1013 4062 CircleF
1133 4154 CircleF
6089 2026 CircleF
6209 2118 CircleF
3497 830 CircleF
3616 922 CircleF
1565 967 CircleF
1685 1059 CircleF
5929 4178 CircleF
6049 4269 CircleF
5508 386 CircleF
5627 478 CircleF
2339 2776 CircleF
2458 2868 CircleF
2153 1370 CircleF
2272 1462 CircleF
3444 2562 CircleF
3563 2654 CircleF
2785 3160 CircleF
2905 3252 CircleF
6364 703 CircleF
6484 795 CircleF
6040 1134 CircleF
6160 1226 CircleF
1375 1982 CircleF
1495 2074 CircleF
1581 4359 CircleF
1701 4451 CircleF
5990 4472 CircleF
6109 4564 CircleF
5681 696 CircleF
5800 788 CircleF
2952 1396 CircleF
3072 1487 CircleF
3687 1349 CircleF
3806 1441 CircleF
1166 3212 CircleF
1286 3303 CircleF
1067 1648 CircleF
1187 1740 CircleF
2359 1221 CircleF
2479 1313 CircleF
4529 2229 CircleF
4649 2321 CircleF
4548 529 CircleF
4667 621 CircleF
2689 1482 CircleF
2809 1574 CircleF
3796 2600 CircleF
3916 2692 CircleF
4513 2856 CircleF
4633 2948 CircleF
3224 3735 CircleF
3343 3827 CircleF
4015 3450 CircleF
4135 3542 CircleF
3276 1886 CircleF
3395 1978 CircleF
3676 3996 CircleF
3796 4087 CircleF
2073 1458 CircleF
2192 1549 CircleF
6084 707 CircleF
6203 799 CircleF
2486 2102 CircleF
2606 2194 CircleF
5765 3427 CircleF
5884 3519 CircleF
5763 1171 CircleF
5883 1262 CircleF
6623 1063 CircleF
6743 1155 CircleF
4398 2650 CircleF
4517 2742 CircleF
3476 4009 CircleF
3596 4101 CircleF
1766 3255 CircleF
1885 3347 CircleF
2906 4213 CircleF
3025 4305 CircleF
4441 548 CircleF
4560 639 CircleF
3479 4218 CircleF
3599 4310 CircleF
6589 2757 CircleF
6708 2849 CircleF
6122 2948 CircleF
6241 3039 CircleF
4868 3657 CircleF
4988 3748 CircleF
2936 3990 CircleF
3056 4082 CircleF
3260 1019 CircleF
3380 1111 CircleF
4928 2433 CircleF
5048 2525 CircleF
5956 3362 CircleF
6076 3454 CircleF
3719 3089 CircleF
3839 3181 CircleF
4914 4079 CircleF
5034 4171 CircleF
6253 1579 CircleF
6373 1671 CircleF
4452 3955 CircleF
4572 4047 CircleF
3250 4118 CircleF
3370 4210 CircleF
971 2408 CircleF
1090 2500 CircleF
6336 2639 CircleF
6456 2731 CircleF
5346 2755 CircleF
5466 2847 CircleF
4552 3939 CircleF
4671 4031 CircleF
1642 3838 CircleF
1762 3930 CircleF
4287 4260 CircleF
4406 4352 CircleF
3484 2767 CircleF
3603 2859 CircleF
6110 3414 CircleF
6230 3505 CircleF
5731 2812 CircleF
5851 2904 CircleF
990 332 CircleF
1109 424 CircleF
1331 2297 CircleF
1451 2389 CircleF
4236 4589 CircleF
4356 4681 CircleF
6069 4395 CircleF
6188 4487 CircleF
3205 4528 CircleF
3325 4619 CircleF
6529 2025 CircleF
6648 2117 CircleF
6073 3580 CircleF
6193 3672 CircleF
1538 1691 CircleF
1658 1783 CircleF
2150 3146 CircleF
2270 3237 CircleF
4088 1589 CircleF
4207 1681 CircleF
4562 3408 CircleF
4681 3500 CircleF
983 3620 CircleF
1103 3712 CircleF
4470 4112 CircleF
4590 4204 CircleF
2370 3434 CircleF
2490 3525 CircleF
1935 4338 CircleF
2054 4430 CircleF
6119 2303 CircleF
6239 2395 CircleF
1716 1512 CircleF
1836 1604 CircleF
4019 2391 CircleF
4139 2483 CircleF
1596 2869 CircleF
1715 2961 CircleF
2576 4258 CircleF
2696 4349 CircleF
6603 3814 CircleF
6722 3906 CircleF
5743 3307 CircleF
5862 3399 CircleF
5501 4170 CircleF
5620 4262 CircleF
1455 3712 CircleF
1575 3804 CircleF
3092 4039 CircleF
3211 4131 CircleF
4125 1051 CircleF
4245 1143 CircleF
5426 912 CircleF
5546 1003 CircleF
4300 319 CircleF
4420 411 CircleF
3925 915 CircleF
4044 1006 CircleF
2449 2790 CircleF
2568 2882 CircleF
6033 836 CircleF
6152 928 CircleF
2469 1545 CircleF
2588 1637 CircleF
3542 4631 CircleF
3661 4723 CircleF
2341 2646 CircleF
2460 2737 CircleF
1804 1887 CircleF
1923 1979 CircleF
1930 563 CircleF
2049 655 CircleF
3548 622 CircleF
3667 714 CircleF
1521 2098 CircleF
1640 2190 CircleF
2062 1944 CircleF
2182 2036 CircleF
4737 3255 CircleF
4857 3347 CircleF
3292 3431 CircleF
3411 3522 CircleF
4305 1162 CircleF
4425 1254 CircleF
5784 1998 CircleF
5903 2089 CircleF
6604 1021 CircleF
6724 1113 CircleF
6107 3153 CircleF
6227 3244 CircleF
1868 1413 CircleF
1987 1505 CircleF
4607 355 CircleF
4727 447 CircleF
4839 4674 CircleF
4959 4766 CircleF
4707 1900 CircleF
4827 1992 CircleF
4929 2664 CircleF
5049 2756 CircleF
3238 1640 CircleF
3358 1732 CircleF
5461 529 CircleF
5580 621 CircleF
1449 2680 CircleF
1568 2772 CircleF
2307 4550 CircleF
2427 4641 CircleF
3519 4446 CircleF
3639 4537 CircleF
6131 1785 CircleF
6250 1877 CircleF
2868 3988 CircleF
2988 4080 CircleF
2051 3902 CircleF
2170 3994 CircleF
1550 4537 CircleF
1669 4629 CircleF
3826 4094 CircleF
3946 4185 CircleF
4390 1302 CircleF
4509 1394 CircleF
3228 577 CircleF
3347 668 CircleF
5693 2146 CircleF
5813 2238 CircleF
2199 4494 CircleF
2319 4586 CircleF
3084 987 CircleF
3203 1078 CircleF
5633 1400 CircleF
5752 1492 CircleF
3887 3846 CircleF
4007 3938 CircleF
6060 3872 CircleF
6180 3964 CircleF
3933 2308 CircleF
4052 2400 CircleF
4776 2975 CircleF
4896 3066 CircleF
3697 1551 CircleF
3817 1642 CircleF
2029 4256 CircleF
2149 4348 CircleF
1139 3145 CircleF
1259 3237 CircleF
2657 1045 CircleF
2777 1136 CircleF
4470 4067 CircleF
4590 4159 CircleF
6024 1009 CircleF
6144 1101 CircleF
2804 1406 CircleF
2924 1498 CircleF
3363 2783 CircleF
3483 2875 CircleF
4309 1736 CircleF
4429 1828 CircleF
4525 521 CircleF
4645 613 CircleF
5867 2142 CircleF
5987 2234 CircleF
6087 3026 CircleF
6207 3118 CircleF
3279 2191 CircleF
3398 2283 CircleF
3740 1741 CircleF
3859 1833 CircleF
5917 3249 CircleF
6037 3341 CircleF
5125 1895 CircleF
5244 1987 CircleF
1639 1818 CircleF
1758 1910 CircleF
3539 3411 CircleF
3659 3503 CircleF
1766 4291 CircleF
1886 4382 CircleF
5356 2779 CircleF
5476 2871 CircleF
5553 3249 CircleF
5673 3341 CircleF
3693 3516 CircleF
3813 3608 CircleF
2636 4630 CircleF
2756 4721 CircleF
4108 3425 CircleF
4227 3517 CircleF
5290 4561 CircleF
5409 4653 CircleF
2312 1069 CircleF
2432 1160 CircleF
1455 857 CircleF
1575 949 CircleF
2878 4512 CircleF
2997 4604 CircleF
3480 4197 CircleF
3600 4289 CircleF
4057 893 CircleF
4177 984 CircleF
5267 2979 CircleF
5387 3071 CircleF
2827 3766 CircleF
2947 3858 CircleF
6149 2309 CircleF
6269 2401 CircleF
2995 379 CircleF
3115 470 CircleF
6100 736 CircleF
6219 828 CircleF
1131 3555 CircleF
1250 3647 CircleF
4088 1042 CircleF
4208 1133 CircleF
2919 3286 CircleF
3039 3378 CircleF
2971 1796 CircleF
3091 1887 CircleF
2747 2171 CircleF
2866 2263 CircleF
2012 807 CircleF
2132 899 CircleF
3795 4386 CircleF
3914 4478 CircleF
4266 2798 CircleF
4386 2889 CircleF
2717 4059 CircleF
2836 4151 CircleF
1050 1254 CircleF
1170 1346 CircleF
2089 4175 CircleF
2209 4267 CircleF
6101 747 CircleF
6220 838 CircleF
2642 2685 CircleF
2762 2777 CircleF
6651 1492 CircleF
6770 1583 CircleF
1111 3998 CircleF
1231 4090 CircleF
1392 3244 CircleF
1512 3336 CircleF
2858 3493 CircleF
2977 3585 CircleF
4710 1971 CircleF
4829 2063 CircleF
6573 3706 CircleF
6693 3797 CircleF
1560 2729 CircleF
1680 2821 CircleF
3652 291 CircleF
3771 383 CircleF
6135 1847 CircleF
6254 1939 CircleF
4238 4360 CircleF
4358 4451 CircleF
1434 4494 CircleF
1554 4586 CircleF
4731 4393 CircleF
4850 4484 CircleF
1394 792 CircleF
1514 884 CircleF
3026 1602 CircleF
3146 1694 CircleF
6489 1889 CircleF
6608 1981 CircleF
4246 4640 CircleF
4366 4732 CircleF
2168 4360 CircleF
2288 4452 CircleF
4723 2735 CircleF
4843 2827 CircleF
4375 804 CircleF
4494 896 CircleF
3512 2660 CircleF
3632 2752 CircleF
5323 2961 CircleF
5443 3052 CircleF
2017 1924 CircleF
2136 2015 CircleF
4760 2079 CircleF
4880 2170 CircleF
6285 839 CircleF
6404 931 CircleF
4289 3228 CircleF
4409 3320 CircleF
4245 3863 CircleF
4365 3954 CircleF
1661 1119 CircleF
1781 1211 CircleF
4874 2849 CircleF
4994 2941 CircleF
5419 878 CircleF
5539 970 CircleF
5090 2252 CircleF
5209 2344 CircleF
3105 3773 CircleF
3224 3865 CircleF
5510 1883 CircleF
5629 1975 CircleF
4012 431 CircleF
4132 523 CircleF
4731 3044 CircleF
4851 3136 CircleF
3856 4573 CircleF
3975 4665 CircleF
5248 3641 CircleF
5368 3732 CircleF
3017 2558 CircleF
3137 2649 CircleF
4920 2004 CircleF
5040 2096 CircleF
3543 3839 CircleF
3663 3931 CircleF
1513 3448 CircleF
1633 3539 CircleF
4533 1884 CircleF
4653 1976 CircleF
6163 2145 CircleF
6282 2237 CircleF
3679 3917 CircleF
3799 4009 CircleF
1464 794 CircleF
1584 886 CircleF
1533 3813 CircleF
1653 3905 CircleF
4910 2208 CircleF
5029 2300 CircleF
2444 2815 CircleF
2564 2907 CircleF
3115 3435 CircleF
3234 3527 CircleF
2165 4658 CircleF
2285 4750 CircleF
2194 1279 CircleF
2313 1371 CircleF
1919 2738 CircleF
2039 2830 CircleF
1945 4683 CircleF
2065 4774 CircleF
4620 4437 CircleF
4740 4528 CircleF
5854 312 CircleF
5974 404 CircleF
981 1038 CircleF
1101 1129 CircleF
1069 2713 CircleF
1189 2805 CircleF
4703 2480 CircleF
4823 2572 CircleF
6693 482 CircleF
6813 574 CircleF
3853 748 CircleF
3972 840 CircleF
2863 2117 CircleF
2982 2209 CircleF
4193 1259 CircleF
4312 1351 CircleF
5481 2540 CircleF
5601 2632 CircleF
2511 2415 CircleF
2631 2507 CircleF
1267 2848 CircleF
1387 2940 CircleF
1457 1064 CircleF
1576 1156 CircleF
3970 2361 CircleF
4090 2453 CircleF
3384 3926 CircleF
3503 4018 CircleF
2881 4291 CircleF
3001 4383 CircleF
4952 3735 CircleF
5071 3827 CircleF
1084 3433 CircleF
1204 3524 CircleF
1590 3105 CircleF
1710 3196 CircleF
4364 429 CircleF
4483 521 CircleF
5927 2263 CircleF
6047 2355 CircleF
5334 4582 CircleF
5454 4674 CircleF
4783 1030 CircleF
4903 1122 CircleF
3893 2502 CircleF
4013 2594 CircleF
1315 1351 CircleF
1434 1443 CircleF
2005 2369 CircleF
2125 2461 CircleF
4857 1985 CircleF
4976 2077 CircleF
1822 3952 CircleF
1941 4044 CircleF
2006 343 CircleF
2125 435 CircleF
2143 3805 CircleF
2262 3897 CircleF
6323 3032 CircleF
6443 3124 CircleF
1298 1672 CircleF
1418 1764 CircleF
3957 4307 CircleF
4077 4398 CircleF
1224 1333 CircleF
1343 1425 CircleF
2645 2615 CircleF
2764 2707 CircleF
6107 969 CircleF
6227 1061 CircleF
1715 4671 CircleF
1834 4763 CircleF
4798 1067 CircleF
4917 1159 CircleF
5259 2675 CircleF
5379 2766 CircleF
2710 3357 CircleF
2829 3448 CircleF
6575 3340 CircleF
6694 3432 CircleF
4029 2536 CircleF
4149 2628 CircleF
5065 2350 CircleF
5185 2442 CircleF
3026 2484 CircleF
3146 2576 CircleF
1054 2890 CircleF
1174 2982 CircleF
6705 1416 CircleF
6824 1508 CircleF
1279 323 CircleF
1399 415 CircleF
998 4417 CircleF
1118 4509 CircleF
5942 1884 CircleF
6061 1976 CircleF
4242 1896 CircleF
4362 1988 CircleF
1801 3188 CircleF
1921 3280 CircleF
1439 2845 CircleF
1558 2937 CircleF
3061 2240 CircleF
3180 2332 CircleF
6014 3491 CircleF
6133 3582 CircleF
6680 1162 CircleF
6799 1253 CircleF
1450 585 CircleF
1570 677 CircleF
2144 621 CircleF
2264 713 CircleF
4514 1155 CircleF
4634 1247 CircleF
4398 3161 CircleF
4517 3253 CircleF
3277 3129 CircleF
3397 3221 CircleF
2033 971 CircleF
2152 1063 CircleF
5745 2679 CircleF
5865 2771 CircleF
2868 375 CircleF
2988 467 CircleF
5499 4532 CircleF
5618 4624 CircleF
4573 2011 CircleF
4693 2103 CircleF
3803 1889 CircleF
3922 1981 CircleF
4566 488 CircleF
4685 579 CircleF
5130 3260 CircleF
5250 3352 CircleF
4601 1523 CircleF
4721 1615 CircleF
1525 1739 CircleF
1645 1831 CircleF
1201 1614 CircleF
1320 1706 CircleF
3820 4315 CircleF
3940 4406 CircleF
3182 4293 CircleF
3302 4385 CircleF
4563 3860 CircleF
4683 3952 CircleF
4800 694 CircleF
4920 786 CircleF
4506 795 CircleF
4626 886 CircleF
2974 719 CircleF
3093 811 CircleF
5451 4634 CircleF
5571 4726 CircleF
4671 549 CircleF
4791 641 CircleF
5640 1253 CircleF
5759 1345 CircleF
1134 3203 CircleF
1254 3294 CircleF
4929 4329 CircleF
5049 4421 CircleF
3162 966 CircleF
3281 1057 CircleF
1643 2021 CircleF
1763 2112 CircleF
2911 3028 CircleF
3031 3119 CircleF
3422 292 CircleF
3542 384 CircleF
5239 2519 CircleF
5359 2610 CircleF
5128 1133 CircleF
5247 1225 CircleF
2688 3373 CircleF
2808 3464 CircleF
3640 2741 CircleF
3760 2833 CircleF
5167 1851 CircleF
5286 1943 CircleF
2730 283 CircleF
2849 375 CircleF
4118 630 CircleF
4238 722 CircleF
2204 3691 CircleF
2324 3783 CircleF
2746 406 CircleF
2866 497 CircleF
1843 1713 CircleF
1962 1805 CircleF
2946 4240 CircleF
3065 4332 CircleF
6266 1040 CircleF
6386 1131 CircleF
5893 994 CircleF
6013 1086 CircleF
3231 2227 CircleF
3350 2319 CircleF
2303 3762 CircleF
2423 3854 CircleF
3194 2103 CircleF
3313 2195 CircleF
1487 3449 CircleF
1607 3541 CircleF
3482 4517 CircleF
3601 4608 CircleF
6370 3876 CircleF
6489 3968 CircleF
4016 1369 CircleF
4136 1461 CircleF
3096 2020 CircleF
3215 2112 CircleF
3159 3481 CircleF
3278 3573 CircleF
3537 3684 CircleF
3657 3776 CircleF
4139 1138 CircleF
4258 1230 CircleF
6360 1829 CircleF
6480 1921 CircleF
3049 1086 CircleF
3169 1177 CircleF
4964 2118 CircleF
5084 2210 CircleF
2155 3679 CircleF
2275 3770 CircleF
1697 2747 CircleF
1816 2839 CircleF
4489 3148 CircleF
4609 3240 CircleF
1534 1641 CircleF
1654 1732 CircleF
2037 2441 CircleF
2156 2533 CircleF
4722 4266 CircleF
4842 4358 CircleF
4241 2562 CircleF
4361 2654 CircleF
6384 328 CircleF
6504 420 CircleF
3200 2251 CircleF
3320 2342 CircleF
5631 3308 CircleF
5750 3400 CircleF
4725 1886 CircleF
4845 1978 CircleF
3833 1273 CircleF
3953 1365 CircleF
5625 2672 CircleF
5744 2764 CircleF
4277 2281 CircleF
4396 2373 CircleF
6254 2219 CircleF
6373 2311 CircleF
3109 893 CircleF
3228 985 CircleF
1499 982 CircleF
1618 1074 CircleF
3056 1074 CircleF
3175 1166 CircleF
5062 2433 CircleF
5182 2524 CircleF
3607 3760 CircleF
3727 3852 CircleF
1506 3025 CircleF
1626 3117 CircleF
4059 2911 CircleF
4179 3003 CircleF
1100 2873 CircleF
1220 2965 CircleF
1091 916 CircleF
1211 1007 CircleF
5883 1507 CircleF
6003 1599 CircleF
6109 3684 CircleF
6228 3776 CircleF
5574 2304 CircleF
5693 2396 CircleF
6298 4544 CircleF
6418 4636 CircleF
4906 4632 CircleF
5026 4724 CircleF
6277 4358 CircleF
6397 4450 CircleF
3837 1975 CircleF
3956 2067 CircleF
1630 2763 CircleF
1749 2855 CircleF
6702 2957 CircleF
6822 3049 CircleF
2320 3344 CircleF
2440 3436 CircleF
2853 1641 CircleF
2973 1733 CircleF
6035 1649 CircleF
6154 1741 CircleF
5172 2678 CircleF
5292 2769 CircleF
1803 3405 CircleF
1923 3497 CircleF
2059 1765 CircleF
2178 1856 CircleF
3466 3045 CircleF
3585 3137 CircleF
2954 3729 CircleF
3073 3821 CircleF
5928 3511 CircleF
6047 3603 CircleF
3609 1071 CircleF
3729 1163 CircleF
1789 3054 CircleF
1909 3146 CircleF
2893 896 CircleF
3013 987 CircleF
1994 869 CircleF
2113 961 CircleF
4058 4489 CircleF
4177 4581 CircleF
3009 1773 CircleF
3129 1864 CircleF
992 2457 CircleF
1112 2549 CircleF
5673 1416 CircleF
5793 1508 CircleF
2509 773 CircleF
2628 865 CircleF
2401 2605 CircleF
2521 2697 CircleF
4621 4307 CircleF
4741 4399 CircleF
1375 510 CircleF
1494 602 CircleF
2858 1333 CircleF
2977 1425 CircleF
5151 3420 CircleF
5270 3512 CircleF
2028 4178 CircleF
2148 4269 CircleF
1906 1723 CircleF
2025 1815 CircleF
1782 3149 CircleF
1902 3241 CircleF
3558 1197 CircleF
3678 1289 CircleF
3883 1779 CircleF
4002 1871 CircleF
4954 4645 CircleF
5073 4737 CircleF
5416 3039 CircleF
5536 3131 CircleF
1710 1952 CircleF
1830 2044 CircleF
4988 2883 CircleF
5108 2975 CircleF
4159 2406 CircleF
4279 2497 CircleF
4380 3414 CircleF
4499 3506 CircleF
5750 2324 CircleF
5870 2416 CircleF
1297 4323 CircleF
1417 4415 CircleF
4161 2410 CircleF
4281 2502 CircleF
1168 3235 CircleF
1287 3327 CircleF
2361 1170 CircleF
2481 1261 CircleF
1421 436 CircleF
1541 528 CircleF
4309 2539 CircleF
4429 2631 CircleF
6127 1414 CircleF
6246 1506 CircleF
1070 2547 CircleF
1190 2639 CircleF
5152 2451 CircleF
5271 2542 CircleF
4534 3360 CircleF
4653 3452 CircleF
4359 2816 CircleF
4478 2908 CircleF
2341 3498 CircleF
2461 3590 CircleF
2809 2832 CircleF
2929 2924 CircleF
5730 318 CircleF
5850 409 CircleF
4457 4436 CircleF
4577 4528 CircleF
5322 549 CircleF
5442 641 CircleF
1115 3896 CircleF
1235 3987 CircleF
5832 2553 CircleF
5952 2645 CircleF
4919 426 CircleF
5039 518 CircleF
6403 2660 CircleF
6522 2751 CircleF
3009 2970 CircleF
3129 3061 CircleF
3194 456 CircleF
3313 547 CircleF
5996 336 CircleF
6116 427 CircleF
1427 2609 CircleF
1547 2701 CircleF
2540 1925 CircleF
2660 2017 CircleF
6505 1271 CircleF
6625 1363 CircleF
3442 2988 CircleF
3561 3080 CircleF
4408 2062 CircleF
4527 2153 CircleF
6379 3920 CircleF
6498 4012 CircleF
4938 1335 CircleF
5057 1427 CircleF
6456 3168 CircleF
6575 3260 CircleF
1801 3929 CircleF
1921 4021 CircleF
6338 4322 CircleF
6457 4414 CircleF
4789 4211 CircleF
4909 4303 CircleF
3808 3287 CircleF
3928 3379 CircleF
5920 1758 CircleF
6040 1850 CircleF
1376 685 CircleF
1496 777 CircleF
1172 1344 CircleF
1291 1436 CircleF
5629 4303 CircleF
5748 4395 CircleF
2122 4196 CircleF
2242 4288 CircleF
4797 3866 CircleF
4916 3958 CircleF
1856 3567 CircleF
1975 3659 CircleF
3658 3343 CircleF
3778 3435 CircleF
6375 2626 CircleF
6494 2718 CircleF
6113 1457 CircleF
6233 1549 CircleF
6481 575 CircleF
6601 667 CircleF
4720 865 CircleF
4839 957 CircleF
3805 1990 CircleF
3925 2082 CircleF
4948 4168 CircleF
5067 4259 CircleF
1916 3660 CircleF
2036 3752 CircleF
5087 4342 CircleF
5206 4434 CircleF
1721 3513 CircleF
1841 3605 CircleF
6057 4638 CircleF
6176 4730 CircleF
3429 3415 CircleF
3549 3507 CircleF
1236 3570 CircleF
1356 3662 CircleF
4184 3063 CircleF
4303 3155 CircleF
3817 1279 CircleF
3937 1371 CircleF
2661 3106 CircleF
2781 3198 CircleF
3729 3315 CircleF
3849 3406 CircleF
2240 2996 CircleF
2359 3087 CircleF
4980 722 CircleF
5100 814 CircleF
2254 3611 CircleF
2373 3702 CircleF
5489 3253 CircleF
5609 3345 CircleF
3157 1992 CircleF
3277 2084 CircleF
5614 4622 CircleF
5733 4714 CircleF
2072 1277 CircleF
2191 1369 CircleF
4830 1085 CircleF
4950 1177 CircleF
3882 4247 CircleF
4002 4339 CircleF
4168 3853 CircleF
4288 3945 CircleF
1098 3186 CircleF
1217 3278 CircleF
4805 3570 CircleF
4925 3662 CircleF
3738 4415 CircleF
3858 4507 CircleF
4704 3138 CircleF
4824 3230 CircleF
2731 2963 CircleF
2850 3055 CircleF
2423 464 CircleF
2543 556 CircleF
3578 2000 CircleF
3697 2092 CircleF
1086 2716 CircleF
1206 2808 CircleF
3618 2456 CircleF
3738 2548 CircleF
6036 1156 CircleF
6155 1248 CircleF
3207 3418 CircleF
3327 3510 CircleF
6391 919 CircleF
6511 1011 CircleF
6274 3064 CircleF
6394 3156 CircleF
4629 1553 CircleF
4749 1645 CircleF
3435 3716 CircleF
3554 3808 CircleF
5121 313 CircleF
5241 404 CircleF
4062 1978 CircleF
4181 2069 CircleF
6147 4387 CircleF
6267 4479 CircleF
5086 1165 CircleF
5206 1257 CircleF
5181 4647 CircleF
5301 4739 CircleF
3000 3195 CircleF
3120 3287 CircleF
6146 2872 CircleF
6265 2964 CircleF
6432 3507 CircleF
6552 3598 CircleF
2236 2828 CircleF
2355 2920 CircleF
5239 2031 CircleF
5358 2123 CircleF
4492 2706 CircleF
4612 2797 CircleF
4023 426 CircleF
4143 518 CircleF
4138 2776 CircleF
4257 2868 CircleF
3807 3373 CircleF
3926 3465 CircleF
2844 987 CircleF
2963 1079 CircleF
2928 1800 CircleF
3048 1892 CircleF
5611 1339 CircleF
5730 1430 CircleF
5341 2319 CircleF
5460 2411 CircleF
1574 3773 CircleF
1693 3864 CircleF
2862 1518 CircleF
2981 1610 CircleF
1299 4473 CircleF
1419 4565 CircleF
5239 4136 CircleF
5359 4228 CircleF
2354 1823 CircleF
2473 1915 CircleF
3074 648 CircleF
3194 740 CircleF
% End plot #2
1.000 UP
1.000 UL
LT0
0.50 0.50 0.50 C stroke
grestore
end
showpage
%%Trailer
%%DocumentFonts: Helvetica
%%Pages: 1
