%!PS-Adobe-2.0
%%Title: out.ps
%%Creator: gnuplot 4.6 patchlevel 6
%%CreationDate: Thu May 28 18:00:06 2015
%%DocumentFonts: (atend)
%%BoundingBox: 50 50 554 770
%%Orientation: Landscape
%%Pages: (atend)
%%EndComments
%%BeginProlog
/gnudict 256 dict def
gnudict begin
%
% The following true/false flags may be edited by hand if desired.
% The unit line width and grayscale image gamma correction may also be changed.
%
/Color false def
/Blacktext false def
/Solid false def
/Dashlength 1 def
/Landscape true def
/Level1 false def
/Rounded false def
/ClipToBoundingBox false def
/SuppressPDFMark false def
/TransparentPatterns false def
/gnulinewidth 5.000 def
/userlinewidth gnulinewidth def
/Gamma 1.0 def
/BackgroundColor {-1.000 -1.000 -1.000} def
%
/vshift -46 def
/dl1 {
  10.0 Dashlength mul mul
  Rounded { currentlinewidth 0.75 mul sub dup 0 le { pop 0.01 } if } if
} def
/dl2 {
  10.0 Dashlength mul mul
  Rounded { currentlinewidth 0.75 mul add } if
} def
/hpt_ 31.5 def
/vpt_ 31.5 def
/hpt hpt_ def
/vpt vpt_ def
/doclip {
  ClipToBoundingBox {
    newpath 50 50 moveto 554 50 lineto 554 770 lineto 50 770 lineto closepath
    clip
  } if
} def
%
% Gnuplot Prolog Version 4.6 (September 2012)
%
%/SuppressPDFMark true def
%
/M {moveto} bind def
/L {lineto} bind def
/R {rmoveto} bind def
/V {rlineto} bind def
/N {newpath moveto} bind def
/Z {closepath} bind def
/C {setrgbcolor} bind def
/f {rlineto fill} bind def
/g {setgray} bind def
/Gshow {show} def   % May be redefined later in the file to support UTF-8
/vpt2 vpt 2 mul def
/hpt2 hpt 2 mul def
/Lshow {currentpoint stroke M 0 vshift R 
	Blacktext {gsave 0 setgray show grestore} {show} ifelse} def
/Rshow {currentpoint stroke M dup stringwidth pop neg vshift R
	Blacktext {gsave 0 setgray show grestore} {show} ifelse} def
/Cshow {currentpoint stroke M dup stringwidth pop -2 div vshift R 
	Blacktext {gsave 0 setgray show grestore} {show} ifelse} def
/UP {dup vpt_ mul /vpt exch def hpt_ mul /hpt exch def
  /hpt2 hpt 2 mul def /vpt2 vpt 2 mul def} def
/DL {Color {setrgbcolor Solid {pop []} if 0 setdash}
 {pop pop pop 0 setgray Solid {pop []} if 0 setdash} ifelse} def
/BL {stroke userlinewidth 2 mul setlinewidth
	Rounded {1 setlinejoin 1 setlinecap} if} def
/AL {stroke userlinewidth 2 div setlinewidth
	Rounded {1 setlinejoin 1 setlinecap} if} def
/UL {dup gnulinewidth mul /userlinewidth exch def
	dup 1 lt {pop 1} if 10 mul /udl exch def} def
/PL {stroke userlinewidth setlinewidth
	Rounded {1 setlinejoin 1 setlinecap} if} def
3.8 setmiterlimit
% Default Line colors
/LCw {1 1 1} def
/LCb {0 0 0} def
/LCa {0 0 0} def
/LC0 {1 0 0} def
/LC1 {0 1 0} def
/LC2 {0 0 1} def
/LC3 {1 0 1} def
/LC4 {0 1 1} def
/LC5 {1 1 0} def
/LC6 {0 0 0} def
/LC7 {1 0.3 0} def
/LC8 {0.5 0.5 0.5} def
% Default Line Types
/LTw {PL [] 1 setgray} def
/LTb {BL [] LCb DL} def
/LTa {AL [1 udl mul 2 udl mul] 0 setdash LCa setrgbcolor} def
/LT0 {PL [] LC0 DL} def
/LT1 {PL [4 dl1 2 dl2] LC1 DL} def
/LT2 {PL [2 dl1 3 dl2] LC2 DL} def
/LT3 {PL [1 dl1 1.5 dl2] LC3 DL} def
/LT4 {PL [6 dl1 2 dl2 1 dl1 2 dl2] LC4 DL} def
/LT5 {PL [3 dl1 3 dl2 1 dl1 3 dl2] LC5 DL} def
/LT6 {PL [2 dl1 2 dl2 2 dl1 6 dl2] LC6 DL} def
/LT7 {PL [1 dl1 2 dl2 6 dl1 2 dl2 1 dl1 2 dl2] LC7 DL} def
/LT8 {PL [2 dl1 2 dl2 2 dl1 2 dl2 2 dl1 2 dl2 2 dl1 4 dl2] LC8 DL} def
/Pnt {stroke [] 0 setdash gsave 1 setlinecap M 0 0 V stroke grestore} def
/Dia {stroke [] 0 setdash 2 copy vpt add M
  hpt neg vpt neg V hpt vpt neg V
  hpt vpt V hpt neg vpt V closepath stroke
  Pnt} def
/Pls {stroke [] 0 setdash vpt sub M 0 vpt2 V
  currentpoint stroke M
  hpt neg vpt neg R hpt2 0 V stroke
 } def
/Box {stroke [] 0 setdash 2 copy exch hpt sub exch vpt add M
  0 vpt2 neg V hpt2 0 V 0 vpt2 V
  hpt2 neg 0 V closepath stroke
  Pnt} def
/Crs {stroke [] 0 setdash exch hpt sub exch vpt add M
  hpt2 vpt2 neg V currentpoint stroke M
  hpt2 neg 0 R hpt2 vpt2 V stroke} def
/TriU {stroke [] 0 setdash 2 copy vpt 1.12 mul add M
  hpt neg vpt -1.62 mul V
  hpt 2 mul 0 V
  hpt neg vpt 1.62 mul V closepath stroke
  Pnt} def
/Star {2 copy Pls Crs} def
/BoxF {stroke [] 0 setdash exch hpt sub exch vpt add M
  0 vpt2 neg V hpt2 0 V 0 vpt2 V
  hpt2 neg 0 V closepath fill} def
/TriUF {stroke [] 0 setdash vpt 1.12 mul add M
  hpt neg vpt -1.62 mul V
  hpt 2 mul 0 V
  hpt neg vpt 1.62 mul V closepath fill} def
/TriD {stroke [] 0 setdash 2 copy vpt 1.12 mul sub M
  hpt neg vpt 1.62 mul V
  hpt 2 mul 0 V
  hpt neg vpt -1.62 mul V closepath stroke
  Pnt} def
/TriDF {stroke [] 0 setdash vpt 1.12 mul sub M
  hpt neg vpt 1.62 mul V
  hpt 2 mul 0 V
  hpt neg vpt -1.62 mul V closepath fill} def
/DiaF {stroke [] 0 setdash vpt add M
  hpt neg vpt neg V hpt vpt neg V
  hpt vpt V hpt neg vpt V closepath fill} def
/Pent {stroke [] 0 setdash 2 copy gsave
  translate 0 hpt M 4 {72 rotate 0 hpt L} repeat
  closepath stroke grestore Pnt} def
/PentF {stroke [] 0 setdash gsave
  translate 0 hpt M 4 {72 rotate 0 hpt L} repeat
  closepath fill grestore} def
/Circle {stroke [] 0 setdash 2 copy
  hpt 0 360 arc stroke Pnt} def
/CircleF {stroke [] 0 setdash hpt 0 360 arc fill} def
/C0 {BL [] 0 setdash 2 copy moveto vpt 90 450 arc} bind def
/C1 {BL [] 0 setdash 2 copy moveto
	2 copy vpt 0 90 arc closepath fill
	vpt 0 360 arc closepath} bind def
/C2 {BL [] 0 setdash 2 copy moveto
	2 copy vpt 90 180 arc closepath fill
	vpt 0 360 arc closepath} bind def
/C3 {BL [] 0 setdash 2 copy moveto
	2 copy vpt 0 180 arc closepath fill
	vpt 0 360 arc closepath} bind def
/C4 {BL [] 0 setdash 2 copy moveto
	2 copy vpt 180 270 arc closepath fill
	vpt 0 360 arc closepath} bind def
/C5 {BL [] 0 setdash 2 copy moveto
	2 copy vpt 0 90 arc
	2 copy moveto
	2 copy vpt 180 270 arc closepath fill
	vpt 0 360 arc} bind def
/C6 {BL [] 0 setdash 2 copy moveto
	2 copy vpt 90 270 arc closepath fill
	vpt 0 360 arc closepath} bind def
/C7 {BL [] 0 setdash 2 copy moveto
	2 copy vpt 0 270 arc closepath fill
	vpt 0 360 arc closepath} bind def
/C8 {BL [] 0 setdash 2 copy moveto
	2 copy vpt 270 360 arc closepath fill
	vpt 0 360 arc closepath} bind def
/C9 {BL [] 0 setdash 2 copy moveto
	2 copy vpt 270 450 arc closepath fill
	vpt 0 360 arc closepath} bind def
/C10 {BL [] 0 setdash 2 copy 2 copy moveto vpt 270 360 arc closepath fill
	2 copy moveto
	2 copy vpt 90 180 arc closepath fill
	vpt 0 360 arc closepath} bind def
/C11 {BL [] 0 setdash 2 copy moveto
	2 copy vpt 0 180 arc closepath fill
	2 copy moveto
	2 copy vpt 270 360 arc closepath fill
	vpt 0 360 arc closepath} bind def
/C12 {BL [] 0 setdash 2 copy moveto
	2 copy vpt 180 360 arc closepath fill
	vpt 0 360 arc closepath} bind def
/C13 {BL [] 0 setdash 2 copy moveto
	2 copy vpt 0 90 arc closepath fill
	2 copy moveto
	2 copy vpt 180 360 arc closepath fill
	vpt 0 360 arc closepath} bind def
/C14 {BL [] 0 setdash 2 copy moveto
	2 copy vpt 90 360 arc closepath fill
	vpt 0 360 arc} bind def
/C15 {BL [] 0 setdash 2 copy vpt 0 360 arc closepath fill
	vpt 0 360 arc closepath} bind def
/Rec {newpath 4 2 roll moveto 1 index 0 rlineto 0 exch rlineto
	neg 0 rlineto closepath} bind def
/Square {dup Rec} bind def
/Bsquare {vpt sub exch vpt sub exch vpt2 Square} bind def
/S0 {BL [] 0 setdash 2 copy moveto 0 vpt rlineto BL Bsquare} bind def
/S1 {BL [] 0 setdash 2 copy vpt Square fill Bsquare} bind def
/S2 {BL [] 0 setdash 2 copy exch vpt sub exch vpt Square fill Bsquare} bind def
/S3 {BL [] 0 setdash 2 copy exch vpt sub exch vpt2 vpt Rec fill Bsquare} bind def
/S4 {BL [] 0 setdash 2 copy exch vpt sub exch vpt sub vpt Square fill Bsquare} bind def
/S5 {BL [] 0 setdash 2 copy 2 copy vpt Square fill
	exch vpt sub exch vpt sub vpt Square fill Bsquare} bind def
/S6 {BL [] 0 setdash 2 copy exch vpt sub exch vpt sub vpt vpt2 Rec fill Bsquare} bind def
/S7 {BL [] 0 setdash 2 copy exch vpt sub exch vpt sub vpt vpt2 Rec fill
	2 copy vpt Square fill Bsquare} bind def
/S8 {BL [] 0 setdash 2 copy vpt sub vpt Square fill Bsquare} bind def
/S9 {BL [] 0 setdash 2 copy vpt sub vpt vpt2 Rec fill Bsquare} bind def
/S10 {BL [] 0 setdash 2 copy vpt sub vpt Square fill 2 copy exch vpt sub exch vpt Square fill
	Bsquare} bind def
/S11 {BL [] 0 setdash 2 copy vpt sub vpt Square fill 2 copy exch vpt sub exch vpt2 vpt Rec fill
	Bsquare} bind def
/S12 {BL [] 0 setdash 2 copy exch vpt sub exch vpt sub vpt2 vpt Rec fill Bsquare} bind def
/S13 {BL [] 0 setdash 2 copy exch vpt sub exch vpt sub vpt2 vpt Rec fill
	2 copy vpt Square fill Bsquare} bind def
/S14 {BL [] 0 setdash 2 copy exch vpt sub exch vpt sub vpt2 vpt Rec fill
	2 copy exch vpt sub exch vpt Square fill Bsquare} bind def
/S15 {BL [] 0 setdash 2 copy Bsquare fill Bsquare} bind def
/D0 {gsave translate 45 rotate 0 0 S0 stroke grestore} bind def
/D1 {gsave translate 45 rotate 0 0 S1 stroke grestore} bind def
/D2 {gsave translate 45 rotate 0 0 S2 stroke grestore} bind def
/D3 {gsave translate 45 rotate 0 0 S3 stroke grestore} bind def
/D4 {gsave translate 45 rotate 0 0 S4 stroke grestore} bind def
/D5 {gsave translate 45 rotate 0 0 S5 stroke grestore} bind def
/D6 {gsave translate 45 rotate 0 0 S6 stroke grestore} bind def
/D7 {gsave translate 45 rotate 0 0 S7 stroke grestore} bind def
/D8 {gsave translate 45 rotate 0 0 S8 stroke grestore} bind def
/D9 {gsave translate 45 rotate 0 0 S9 stroke grestore} bind def
/D10 {gsave translate 45 rotate 0 0 S10 stroke grestore} bind def
/D11 {gsave translate 45 rotate 0 0 S11 stroke grestore} bind def
/D12 {gsave translate 45 rotate 0 0 S12 stroke grestore} bind def
/D13 {gsave translate 45 rotate 0 0 S13 stroke grestore} bind def
/D14 {gsave translate 45 rotate 0 0 S14 stroke grestore} bind def
/D15 {gsave translate 45 rotate 0 0 S15 stroke grestore} bind def
/DiaE {stroke [] 0 setdash vpt add M
  hpt neg vpt neg V hpt vpt neg V
  hpt vpt V hpt neg vpt V closepath stroke} def
/BoxE {stroke [] 0 setdash exch hpt sub exch vpt add M
  0 vpt2 neg V hpt2 0 V 0 vpt2 V
  hpt2 neg 0 V closepath stroke} def
/TriUE {stroke [] 0 setdash vpt 1.12 mul add M
  hpt neg vpt -1.62 mul V
  hpt 2 mul 0 V
  hpt neg vpt 1.62 mul V closepath stroke} def
/TriDE {stroke [] 0 setdash vpt 1.12 mul sub M
  hpt neg vpt 1.62 mul V
  hpt 2 mul 0 V
  hpt neg vpt -1.62 mul V closepath stroke} def
/PentE {stroke [] 0 setdash gsave
  translate 0 hpt M 4 {72 rotate 0 hpt L} repeat
  closepath stroke grestore} def
/CircE {stroke [] 0 setdash 
  hpt 0 360 arc stroke} def
/Opaque {gsave closepath 1 setgray fill grestore 0 setgray closepath} def
/DiaW {stroke [] 0 setdash vpt add M
  hpt neg vpt neg V hpt vpt neg V
  hpt vpt V hpt neg vpt V Opaque stroke} def
/BoxW {stroke [] 0 setdash exch hpt sub exch vpt add M
  0 vpt2 neg V hpt2 0 V 0 vpt2 V
  hpt2 neg 0 V Opaque stroke} def
/TriUW {stroke [] 0 setdash vpt 1.12 mul add M
  hpt neg vpt -1.62 mul V
  hpt 2 mul 0 V
  hpt neg vpt 1.62 mul V Opaque stroke} def
/TriDW {stroke [] 0 setdash vpt 1.12 mul sub M
  hpt neg vpt 1.62 mul V
  hpt 2 mul 0 V
  hpt neg vpt -1.62 mul V Opaque stroke} def
/PentW {stroke [] 0 setdash gsave
  translate 0 hpt M 4 {72 rotate 0 hpt L} repeat
  Opaque stroke grestore} def
/CircW {stroke [] 0 setdash 
  hpt 0 360 arc Opaque stroke} def
/BoxFill {gsave Rec 1 setgray fill grestore} def
/Density {
  /Fillden exch def
  currentrgbcolor
  /ColB exch def /ColG exch def /ColR exch def
  /ColR ColR Fillden mul Fillden sub 1 add def
  /ColG ColG Fillden mul Fillden sub 1 add def
  /ColB ColB Fillden mul Fillden sub 1 add def
  ColR ColG ColB setrgbcolor} def
/BoxColFill {gsave Rec PolyFill} def
/PolyFill {gsave Density fill grestore grestore} def
/h {rlineto rlineto rlineto gsave closepath fill grestore} bind def
%
% PostScript Level 1 Pattern Fill routine for rectangles
% Usage: x y w h s a XX PatternFill
%	x,y = lower left corner of box to be filled
%	w,h = width and height of box
%	  a = angle in degrees between lines and x-axis
%	 XX = 0/1 for no/yes cross-hatch
%
/PatternFill {gsave /PFa [ 9 2 roll ] def
  PFa 0 get PFa 2 get 2 div add PFa 1 get PFa 3 get 2 div add translate
  PFa 2 get -2 div PFa 3 get -2 div PFa 2 get PFa 3 get Rec
  TransparentPatterns {} {gsave 1 setgray fill grestore} ifelse
  clip
  currentlinewidth 0.5 mul setlinewidth
  /PFs PFa 2 get dup mul PFa 3 get dup mul add sqrt def
  0 0 M PFa 5 get rotate PFs -2 div dup translate
  0 1 PFs PFa 4 get div 1 add floor cvi
	{PFa 4 get mul 0 M 0 PFs V} for
  0 PFa 6 get ne {
	0 1 PFs PFa 4 get div 1 add floor cvi
	{PFa 4 get mul 0 2 1 roll M PFs 0 V} for
 } if
  stroke grestore} def
%
/languagelevel where
 {pop languagelevel} {1} ifelse
 2 lt
	{/InterpretLevel1 true def}
	{/InterpretLevel1 Level1 def}
 ifelse
%
% PostScript level 2 pattern fill definitions
%
/Level2PatternFill {
/Tile8x8 {/PaintType 2 /PatternType 1 /TilingType 1 /BBox [0 0 8 8] /XStep 8 /YStep 8}
	bind def
/KeepColor {currentrgbcolor [/Pattern /DeviceRGB] setcolorspace} bind def
<< Tile8x8
 /PaintProc {0.5 setlinewidth pop 0 0 M 8 8 L 0 8 M 8 0 L stroke} 
>> matrix makepattern
/Pat1 exch def
<< Tile8x8
 /PaintProc {0.5 setlinewidth pop 0 0 M 8 8 L 0 8 M 8 0 L stroke
	0 4 M 4 8 L 8 4 L 4 0 L 0 4 L stroke}
>> matrix makepattern
/Pat2 exch def
<< Tile8x8
 /PaintProc {0.5 setlinewidth pop 0 0 M 0 8 L
	8 8 L 8 0 L 0 0 L fill}
>> matrix makepattern
/Pat3 exch def
<< Tile8x8
 /PaintProc {0.5 setlinewidth pop -4 8 M 8 -4 L
	0 12 M 12 0 L stroke}
>> matrix makepattern
/Pat4 exch def
<< Tile8x8
 /PaintProc {0.5 setlinewidth pop -4 0 M 8 12 L
	0 -4 M 12 8 L stroke}
>> matrix makepattern
/Pat5 exch def
<< Tile8x8
 /PaintProc {0.5 setlinewidth pop -2 8 M 4 -4 L
	0 12 M 8 -4 L 4 12 M 10 0 L stroke}
>> matrix makepattern
/Pat6 exch def
<< Tile8x8
 /PaintProc {0.5 setlinewidth pop -2 0 M 4 12 L
	0 -4 M 8 12 L 4 -4 M 10 8 L stroke}
>> matrix makepattern
/Pat7 exch def
<< Tile8x8
 /PaintProc {0.5 setlinewidth pop 8 -2 M -4 4 L
	12 0 M -4 8 L 12 4 M 0 10 L stroke}
>> matrix makepattern
/Pat8 exch def
<< Tile8x8
 /PaintProc {0.5 setlinewidth pop 0 -2 M 12 4 L
	-4 0 M 12 8 L -4 4 M 8 10 L stroke}
>> matrix makepattern
/Pat9 exch def
/Pattern1 {PatternBgnd KeepColor Pat1 setpattern} bind def
/Pattern2 {PatternBgnd KeepColor Pat2 setpattern} bind def
/Pattern3 {PatternBgnd KeepColor Pat3 setpattern} bind def
/Pattern4 {PatternBgnd KeepColor Landscape {Pat5} {Pat4} ifelse setpattern} bind def
/Pattern5 {PatternBgnd KeepColor Landscape {Pat4} {Pat5} ifelse setpattern} bind def
/Pattern6 {PatternBgnd KeepColor Landscape {Pat9} {Pat6} ifelse setpattern} bind def
/Pattern7 {PatternBgnd KeepColor Landscape {Pat8} {Pat7} ifelse setpattern} bind def
} def
%
%
%End of PostScript Level 2 code
%
/PatternBgnd {
  TransparentPatterns {} {gsave 1 setgray fill grestore} ifelse
} def
%
% Substitute for Level 2 pattern fill codes with
% grayscale if Level 2 support is not selected.
%
/Level1PatternFill {
/Pattern1 {0.250 Density} bind def
/Pattern2 {0.500 Density} bind def
/Pattern3 {0.750 Density} bind def
/Pattern4 {0.125 Density} bind def
/Pattern5 {0.375 Density} bind def
/Pattern6 {0.625 Density} bind def
/Pattern7 {0.875 Density} bind def
} def
%
% Now test for support of Level 2 code
%
Level1 {Level1PatternFill} {Level2PatternFill} ifelse
%
/Symbol-Oblique /Symbol findfont [1 0 .167 1 0 0] makefont
dup length dict begin {1 index /FID eq {pop pop} {def} ifelse} forall
currentdict end definefont pop
Level1 SuppressPDFMark or 
{} {
/SDict 10 dict def
systemdict /pdfmark known not {
  userdict /pdfmark systemdict /cleartomark get put
} if
SDict begin [
  /Title (out.ps)
  /Subject (gnuplot plot)
  /Creator (gnuplot 4.6 patchlevel 6)
  /Author (yani)
%  /Producer (gnuplot)
%  /Keywords ()
  /CreationDate (Thu May 28 18:00:06 2015)
  /DOCINFO pdfmark
end
} ifelse
end
%%EndProlog
%%Page: 1 1
gnudict begin
gsave
doclip
50 50 translate
0.100 0.100 scale
90 rotate
0 -5040 translate
0 setgray
newpath
(Helvetica) findfont 140 scalefont setfont
BackgroundColor 0 lt 3 1 roll 0 lt exch 0 lt or or not {gsave BackgroundColor C clippath fill grestore} if
1.000 UL
LT0
0.50 0.50 0.50 C 1.000 UL
LTa
0.50 0.50 0.50 C 966 280 M
5981 0 V
stroke
LT0
0.50 0.50 0.50 C 966 280 M
63 0 V
5918 0 R
-63 0 V
882 280 M
( 0) Rshow
1.000 UL
LT0
0.50 0.50 0.50 C 1.000 UL
LTa
0.50 0.50 0.50 C 966 326 M
5981 0 V
stroke
LT0
0.50 0.50 0.50 C 966 326 M
63 0 V
5918 0 R
-63 0 V
882 326 M
( 0.707106) Rshow
1.000 UL
LT0
0.50 0.50 0.50 C 1.000 UL
LTa
0.50 0.50 0.50 C 966 372 M
5981 0 V
stroke
LT0
0.50 0.50 0.50 C 966 372 M
63 0 V
5918 0 R
-63 0 V
882 372 M
( 1.41421) Rshow
1.000 UL
LT0
0.50 0.50 0.50 C 1.000 UL
LTa
0.50 0.50 0.50 C 966 418 M
5981 0 V
stroke
LT0
0.50 0.50 0.50 C 966 418 M
63 0 V
5918 0 R
-63 0 V
882 418 M
( 2.12132) Rshow
1.000 UL
LT0
0.50 0.50 0.50 C 1.000 UL
LTa
0.50 0.50 0.50 C 966 464 M
5981 0 V
stroke
LT0
0.50 0.50 0.50 C 966 464 M
63 0 V
5918 0 R
-63 0 V
882 464 M
( 2.82842) Rshow
1.000 UL
LT0
0.50 0.50 0.50 C 1.000 UL
LTa
0.50 0.50 0.50 C 966 510 M
5981 0 V
stroke
LT0
0.50 0.50 0.50 C 966 510 M
63 0 V
5918 0 R
-63 0 V
882 510 M
( 3.53553) Rshow
1.000 UL
LT0
0.50 0.50 0.50 C 1.000 UL
LTa
0.50 0.50 0.50 C 966 555 M
5981 0 V
stroke
LT0
0.50 0.50 0.50 C 966 555 M
63 0 V
5918 0 R
-63 0 V
882 555 M
( 4.24264) Rshow
1.000 UL
LT0
0.50 0.50 0.50 C 1.000 UL
LTa
0.50 0.50 0.50 C 966 601 M
5981 0 V
stroke
LT0
0.50 0.50 0.50 C 966 601 M
63 0 V
5918 0 R
-63 0 V
882 601 M
( 4.94974) Rshow
1.000 UL
LT0
0.50 0.50 0.50 C 1.000 UL
LTa
0.50 0.50 0.50 C 966 647 M
5981 0 V
stroke
LT0
0.50 0.50 0.50 C 966 647 M
63 0 V
5918 0 R
-63 0 V
882 647 M
( 5.65685) Rshow
1.000 UL
LT0
0.50 0.50 0.50 C 1.000 UL
LTa
0.50 0.50 0.50 C 966 693 M
5981 0 V
stroke
LT0
0.50 0.50 0.50 C 966 693 M
63 0 V
5918 0 R
-63 0 V
882 693 M
( 6.36395) Rshow
1.000 UL
LT0
0.50 0.50 0.50 C 1.000 UL
LTa
0.50 0.50 0.50 C 966 739 M
5981 0 V
stroke
LT0
0.50 0.50 0.50 C 966 739 M
63 0 V
5918 0 R
-63 0 V
882 739 M
( 7.07106) Rshow
1.000 UL
LT0
0.50 0.50 0.50 C 1.000 UL
LTa
0.50 0.50 0.50 C 966 785 M
5981 0 V
stroke
LT0
0.50 0.50 0.50 C 966 785 M
63 0 V
5918 0 R
-63 0 V
882 785 M
( 7.77817) Rshow
1.000 UL
LT0
0.50 0.50 0.50 C 1.000 UL
LTa
0.50 0.50 0.50 C 966 831 M
5981 0 V
stroke
LT0
0.50 0.50 0.50 C 966 831 M
63 0 V
5918 0 R
-63 0 V
882 831 M
( 8.48527) Rshow
1.000 UL
LT0
0.50 0.50 0.50 C 1.000 UL
LTa
0.50 0.50 0.50 C 966 877 M
5981 0 V
stroke
LT0
0.50 0.50 0.50 C 966 877 M
63 0 V
5918 0 R
-63 0 V
882 877 M
( 9.19238) Rshow
1.000 UL
LT0
0.50 0.50 0.50 C 1.000 UL
LTa
0.50 0.50 0.50 C 966 923 M
5981 0 V
stroke
LT0
0.50 0.50 0.50 C 966 923 M
63 0 V
5918 0 R
-63 0 V
882 923 M
( 9.89948) Rshow
1.000 UL
LT0
0.50 0.50 0.50 C 1.000 UL
LTa
0.50 0.50 0.50 C 966 969 M
5981 0 V
stroke
LT0
0.50 0.50 0.50 C 966 969 M
63 0 V
5918 0 R
-63 0 V
882 969 M
( 10.6066) Rshow
1.000 UL
LT0
0.50 0.50 0.50 C 1.000 UL
LTa
0.50 0.50 0.50 C 966 1015 M
5981 0 V
stroke
LT0
0.50 0.50 0.50 C 966 1015 M
63 0 V
5918 0 R
-63 0 V
-6002 0 R
( 11.3137) Rshow
1.000 UL
LT0
0.50 0.50 0.50 C 1.000 UL
LTa
0.50 0.50 0.50 C 966 1060 M
5981 0 V
stroke
LT0
0.50 0.50 0.50 C 966 1060 M
63 0 V
5918 0 R
-63 0 V
-6002 0 R
( 12.0208) Rshow
1.000 UL
LT0
0.50 0.50 0.50 C 1.000 UL
LTa
0.50 0.50 0.50 C 966 1106 M
5981 0 V
stroke
LT0
0.50 0.50 0.50 C 966 1106 M
63 0 V
5918 0 R
-63 0 V
-6002 0 R
( 12.7279) Rshow
1.000 UL
LT0
0.50 0.50 0.50 C 1.000 UL
LTa
0.50 0.50 0.50 C 966 1152 M
5981 0 V
stroke
LT0
0.50 0.50 0.50 C 966 1152 M
63 0 V
5918 0 R
-63 0 V
-6002 0 R
( 13.435) Rshow
1.000 UL
LT0
0.50 0.50 0.50 C 1.000 UL
LTa
0.50 0.50 0.50 C 966 1198 M
5981 0 V
stroke
LT0
0.50 0.50 0.50 C 966 1198 M
63 0 V
5918 0 R
-63 0 V
-6002 0 R
( 14.1421) Rshow
1.000 UL
LT0
0.50 0.50 0.50 C 1.000 UL
LTa
0.50 0.50 0.50 C 966 1244 M
5981 0 V
stroke
LT0
0.50 0.50 0.50 C 966 1244 M
63 0 V
5918 0 R
-63 0 V
-6002 0 R
( 14.8492) Rshow
1.000 UL
LT0
0.50 0.50 0.50 C 1.000 UL
LTa
0.50 0.50 0.50 C 966 1290 M
5981 0 V
stroke
LT0
0.50 0.50 0.50 C 966 1290 M
63 0 V
5918 0 R
-63 0 V
-6002 0 R
( 15.5563) Rshow
1.000 UL
LT0
0.50 0.50 0.50 C 1.000 UL
LTa
0.50 0.50 0.50 C 966 1336 M
5981 0 V
stroke
LT0
0.50 0.50 0.50 C 966 1336 M
63 0 V
5918 0 R
-63 0 V
-6002 0 R
( 16.2634) Rshow
1.000 UL
LT0
0.50 0.50 0.50 C 1.000 UL
LTa
0.50 0.50 0.50 C 966 1382 M
5981 0 V
stroke
LT0
0.50 0.50 0.50 C 966 1382 M
63 0 V
5918 0 R
-63 0 V
-6002 0 R
( 16.9705) Rshow
1.000 UL
LT0
0.50 0.50 0.50 C 1.000 UL
LTa
0.50 0.50 0.50 C 966 1428 M
5981 0 V
stroke
LT0
0.50 0.50 0.50 C 966 1428 M
63 0 V
5918 0 R
-63 0 V
-6002 0 R
( 17.6776) Rshow
1.000 UL
LT0
0.50 0.50 0.50 C 1.000 UL
LTa
0.50 0.50 0.50 C 966 1474 M
5981 0 V
stroke
LT0
0.50 0.50 0.50 C 966 1474 M
63 0 V
5918 0 R
-63 0 V
-6002 0 R
( 18.3848) Rshow
1.000 UL
LT0
0.50 0.50 0.50 C 1.000 UL
LTa
0.50 0.50 0.50 C 966 1520 M
5981 0 V
stroke
LT0
0.50 0.50 0.50 C 966 1520 M
63 0 V
5918 0 R
-63 0 V
-6002 0 R
( 19.0919) Rshow
1.000 UL
LT0
0.50 0.50 0.50 C 1.000 UL
LTa
0.50 0.50 0.50 C 966 1565 M
5981 0 V
stroke
LT0
0.50 0.50 0.50 C 966 1565 M
63 0 V
5918 0 R
-63 0 V
-6002 0 R
( 19.799) Rshow
1.000 UL
LT0
0.50 0.50 0.50 C 1.000 UL
LTa
0.50 0.50 0.50 C 966 1611 M
5981 0 V
stroke
LT0
0.50 0.50 0.50 C 966 1611 M
63 0 V
5918 0 R
-63 0 V
-6002 0 R
( 20.5061) Rshow
1.000 UL
LT0
0.50 0.50 0.50 C 1.000 UL
LTa
0.50 0.50 0.50 C 966 1657 M
5981 0 V
stroke
LT0
0.50 0.50 0.50 C 966 1657 M
63 0 V
5918 0 R
-63 0 V
-6002 0 R
( 21.2132) Rshow
1.000 UL
LT0
0.50 0.50 0.50 C 1.000 UL
LTa
0.50 0.50 0.50 C 966 1703 M
5981 0 V
stroke
LT0
0.50 0.50 0.50 C 966 1703 M
63 0 V
5918 0 R
-63 0 V
-6002 0 R
( 21.9203) Rshow
1.000 UL
LT0
0.50 0.50 0.50 C 1.000 UL
LTa
0.50 0.50 0.50 C 966 1749 M
5981 0 V
stroke
LT0
0.50 0.50 0.50 C 966 1749 M
63 0 V
5918 0 R
-63 0 V
-6002 0 R
( 22.6274) Rshow
1.000 UL
LT0
0.50 0.50 0.50 C 1.000 UL
LTa
0.50 0.50 0.50 C 966 1795 M
5981 0 V
stroke
LT0
0.50 0.50 0.50 C 966 1795 M
63 0 V
5918 0 R
-63 0 V
-6002 0 R
( 23.3345) Rshow
1.000 UL
LT0
0.50 0.50 0.50 C 1.000 UL
LTa
0.50 0.50 0.50 C 966 1841 M
5981 0 V
stroke
LT0
0.50 0.50 0.50 C 966 1841 M
63 0 V
5918 0 R
-63 0 V
-6002 0 R
( 24.0416) Rshow
1.000 UL
LT0
0.50 0.50 0.50 C 1.000 UL
LTa
0.50 0.50 0.50 C 966 1887 M
5981 0 V
stroke
LT0
0.50 0.50 0.50 C 966 1887 M
63 0 V
5918 0 R
-63 0 V
-6002 0 R
( 24.7487) Rshow
1.000 UL
LT0
0.50 0.50 0.50 C 1.000 UL
LTa
0.50 0.50 0.50 C 966 1933 M
5981 0 V
stroke
LT0
0.50 0.50 0.50 C 966 1933 M
63 0 V
5918 0 R
-63 0 V
-6002 0 R
( 25.4558) Rshow
1.000 UL
LT0
0.50 0.50 0.50 C 1.000 UL
LTa
0.50 0.50 0.50 C 966 1979 M
5981 0 V
stroke
LT0
0.50 0.50 0.50 C 966 1979 M
63 0 V
5918 0 R
-63 0 V
-6002 0 R
( 26.1629) Rshow
1.000 UL
LT0
0.50 0.50 0.50 C 1.000 UL
LTa
0.50 0.50 0.50 C 966 2025 M
5981 0 V
stroke
LT0
0.50 0.50 0.50 C 966 2025 M
63 0 V
5918 0 R
-63 0 V
-6002 0 R
( 26.87) Rshow
1.000 UL
LT0
0.50 0.50 0.50 C 1.000 UL
LTa
0.50 0.50 0.50 C 966 2070 M
5981 0 V
stroke
LT0
0.50 0.50 0.50 C 966 2070 M
63 0 V
5918 0 R
-63 0 V
-6002 0 R
( 27.5771) Rshow
1.000 UL
LT0
0.50 0.50 0.50 C 1.000 UL
LTa
0.50 0.50 0.50 C 966 2116 M
5981 0 V
stroke
LT0
0.50 0.50 0.50 C 966 2116 M
63 0 V
5918 0 R
-63 0 V
-6002 0 R
( 28.2842) Rshow
1.000 UL
LT0
0.50 0.50 0.50 C 1.000 UL
LTa
0.50 0.50 0.50 C 966 2162 M
5981 0 V
stroke
LT0
0.50 0.50 0.50 C 966 2162 M
63 0 V
5918 0 R
-63 0 V
-6002 0 R
( 28.9913) Rshow
1.000 UL
LT0
0.50 0.50 0.50 C 1.000 UL
LTa
0.50 0.50 0.50 C 966 2208 M
5981 0 V
stroke
LT0
0.50 0.50 0.50 C 966 2208 M
63 0 V
5918 0 R
-63 0 V
-6002 0 R
( 29.6985) Rshow
1.000 UL
LT0
0.50 0.50 0.50 C 1.000 UL
LTa
0.50 0.50 0.50 C 966 2254 M
5981 0 V
stroke
LT0
0.50 0.50 0.50 C 966 2254 M
63 0 V
5918 0 R
-63 0 V
-6002 0 R
( 30.4056) Rshow
1.000 UL
LT0
0.50 0.50 0.50 C 1.000 UL
LTa
0.50 0.50 0.50 C 966 2300 M
5981 0 V
stroke
LT0
0.50 0.50 0.50 C 966 2300 M
63 0 V
5918 0 R
-63 0 V
-6002 0 R
( 31.1127) Rshow
1.000 UL
LT0
0.50 0.50 0.50 C 1.000 UL
LTa
0.50 0.50 0.50 C 966 2346 M
5981 0 V
stroke
LT0
0.50 0.50 0.50 C 966 2346 M
63 0 V
5918 0 R
-63 0 V
-6002 0 R
( 31.8198) Rshow
1.000 UL
LT0
0.50 0.50 0.50 C 1.000 UL
LTa
0.50 0.50 0.50 C 966 2392 M
5981 0 V
stroke
LT0
0.50 0.50 0.50 C 966 2392 M
63 0 V
5918 0 R
-63 0 V
-6002 0 R
( 32.5269) Rshow
1.000 UL
LT0
0.50 0.50 0.50 C 1.000 UL
LTa
0.50 0.50 0.50 C 966 2438 M
5981 0 V
stroke
LT0
0.50 0.50 0.50 C 966 2438 M
63 0 V
5918 0 R
-63 0 V
-6002 0 R
( 33.234) Rshow
1.000 UL
LT0
0.50 0.50 0.50 C 1.000 UL
LTa
0.50 0.50 0.50 C 966 2484 M
5981 0 V
stroke
LT0
0.50 0.50 0.50 C 966 2484 M
63 0 V
5918 0 R
-63 0 V
-6002 0 R
( 33.9411) Rshow
1.000 UL
LT0
0.50 0.50 0.50 C 1.000 UL
LTa
0.50 0.50 0.50 C 966 2530 M
5981 0 V
stroke
LT0
0.50 0.50 0.50 C 966 2530 M
63 0 V
5918 0 R
-63 0 V
-6002 0 R
( 34.6482) Rshow
1.000 UL
LT0
0.50 0.50 0.50 C 1.000 UL
LTa
0.50 0.50 0.50 C 966 2576 M
5981 0 V
stroke
LT0
0.50 0.50 0.50 C 966 2576 M
63 0 V
5918 0 R
-63 0 V
-6002 0 R
( 35.3553) Rshow
1.000 UL
LT0
0.50 0.50 0.50 C 1.000 UL
LTa
0.50 0.50 0.50 C 966 2621 M
5981 0 V
stroke
LT0
0.50 0.50 0.50 C 966 2621 M
63 0 V
5918 0 R
-63 0 V
-6002 0 R
( 36.0624) Rshow
1.000 UL
LT0
0.50 0.50 0.50 C 1.000 UL
LTa
0.50 0.50 0.50 C 966 2667 M
5981 0 V
stroke
LT0
0.50 0.50 0.50 C 966 2667 M
63 0 V
5918 0 R
-63 0 V
-6002 0 R
( 36.7695) Rshow
1.000 UL
LT0
0.50 0.50 0.50 C 1.000 UL
LTa
0.50 0.50 0.50 C 966 2713 M
5981 0 V
stroke
LT0
0.50 0.50 0.50 C 966 2713 M
63 0 V
5918 0 R
-63 0 V
-6002 0 R
( 37.4766) Rshow
1.000 UL
LT0
0.50 0.50 0.50 C 1.000 UL
LTa
0.50 0.50 0.50 C 966 2759 M
5981 0 V
stroke
LT0
0.50 0.50 0.50 C 966 2759 M
63 0 V
5918 0 R
-63 0 V
-6002 0 R
( 38.1837) Rshow
1.000 UL
LT0
0.50 0.50 0.50 C 1.000 UL
LTa
0.50 0.50 0.50 C 966 2805 M
5981 0 V
stroke
LT0
0.50 0.50 0.50 C 966 2805 M
63 0 V
5918 0 R
-63 0 V
-6002 0 R
( 38.8908) Rshow
1.000 UL
LT0
0.50 0.50 0.50 C 1.000 UL
LTa
0.50 0.50 0.50 C 966 2851 M
5981 0 V
stroke
LT0
0.50 0.50 0.50 C 966 2851 M
63 0 V
5918 0 R
-63 0 V
-6002 0 R
( 39.5979) Rshow
1.000 UL
LT0
0.50 0.50 0.50 C 1.000 UL
LTa
0.50 0.50 0.50 C 966 2897 M
5981 0 V
stroke
LT0
0.50 0.50 0.50 C 966 2897 M
63 0 V
5918 0 R
-63 0 V
-6002 0 R
( 40.305) Rshow
1.000 UL
LT0
0.50 0.50 0.50 C 1.000 UL
LTa
0.50 0.50 0.50 C 966 2943 M
5981 0 V
stroke
LT0
0.50 0.50 0.50 C 966 2943 M
63 0 V
5918 0 R
-63 0 V
-6002 0 R
( 41.0121) Rshow
1.000 UL
LT0
0.50 0.50 0.50 C 1.000 UL
LTa
0.50 0.50 0.50 C 966 2989 M
5981 0 V
stroke
LT0
0.50 0.50 0.50 C 966 2989 M
63 0 V
5918 0 R
-63 0 V
-6002 0 R
( 41.7193) Rshow
1.000 UL
LT0
0.50 0.50 0.50 C 1.000 UL
LTa
0.50 0.50 0.50 C 966 3035 M
5981 0 V
stroke
LT0
0.50 0.50 0.50 C 966 3035 M
63 0 V
5918 0 R
-63 0 V
-6002 0 R
( 42.4264) Rshow
1.000 UL
LT0
0.50 0.50 0.50 C 1.000 UL
LTa
0.50 0.50 0.50 C 966 3081 M
5981 0 V
stroke
LT0
0.50 0.50 0.50 C 966 3081 M
63 0 V
5918 0 R
-63 0 V
-6002 0 R
( 43.1335) Rshow
1.000 UL
LT0
0.50 0.50 0.50 C 1.000 UL
LTa
0.50 0.50 0.50 C 966 3126 M
5981 0 V
stroke
LT0
0.50 0.50 0.50 C 966 3126 M
63 0 V
5918 0 R
-63 0 V
-6002 0 R
( 43.8406) Rshow
1.000 UL
LT0
0.50 0.50 0.50 C 1.000 UL
LTa
0.50 0.50 0.50 C 966 3172 M
5981 0 V
stroke
LT0
0.50 0.50 0.50 C 966 3172 M
63 0 V
5918 0 R
-63 0 V
-6002 0 R
( 44.5477) Rshow
1.000 UL
LT0
0.50 0.50 0.50 C 1.000 UL
LTa
0.50 0.50 0.50 C 966 3218 M
5981 0 V
stroke
LT0
0.50 0.50 0.50 C 966 3218 M
63 0 V
5918 0 R
-63 0 V
-6002 0 R
( 45.2548) Rshow
1.000 UL
LT0
0.50 0.50 0.50 C 1.000 UL
LTa
0.50 0.50 0.50 C 966 3264 M
5981 0 V
stroke
LT0
0.50 0.50 0.50 C 966 3264 M
63 0 V
5918 0 R
-63 0 V
-6002 0 R
( 45.9619) Rshow
1.000 UL
LT0
0.50 0.50 0.50 C 1.000 UL
LTa
0.50 0.50 0.50 C 966 3310 M
5981 0 V
stroke
LT0
0.50 0.50 0.50 C 966 3310 M
63 0 V
5918 0 R
-63 0 V
-6002 0 R
( 46.669) Rshow
1.000 UL
LT0
0.50 0.50 0.50 C 1.000 UL
LTa
0.50 0.50 0.50 C 966 3356 M
5981 0 V
stroke
LT0
0.50 0.50 0.50 C 966 3356 M
63 0 V
5918 0 R
-63 0 V
-6002 0 R
( 47.3761) Rshow
1.000 UL
LT0
0.50 0.50 0.50 C 1.000 UL
LTa
0.50 0.50 0.50 C 966 3402 M
5981 0 V
stroke
LT0
0.50 0.50 0.50 C 966 3402 M
63 0 V
5918 0 R
-63 0 V
-6002 0 R
( 48.0832) Rshow
1.000 UL
LT0
0.50 0.50 0.50 C 1.000 UL
LTa
0.50 0.50 0.50 C 966 3448 M
5981 0 V
stroke
LT0
0.50 0.50 0.50 C 966 3448 M
63 0 V
5918 0 R
-63 0 V
-6002 0 R
( 48.7903) Rshow
1.000 UL
LT0
0.50 0.50 0.50 C 1.000 UL
LTa
0.50 0.50 0.50 C 966 3494 M
5981 0 V
stroke
LT0
0.50 0.50 0.50 C 966 3494 M
63 0 V
5918 0 R
-63 0 V
-6002 0 R
( 49.4974) Rshow
1.000 UL
LT0
0.50 0.50 0.50 C 1.000 UL
LTa
0.50 0.50 0.50 C 966 3540 M
5981 0 V
stroke
LT0
0.50 0.50 0.50 C 966 3540 M
63 0 V
5918 0 R
-63 0 V
-6002 0 R
( 50.2045) Rshow
1.000 UL
LT0
0.50 0.50 0.50 C 1.000 UL
LTa
0.50 0.50 0.50 C 966 3586 M
5981 0 V
stroke
LT0
0.50 0.50 0.50 C 966 3586 M
63 0 V
5918 0 R
-63 0 V
-6002 0 R
( 50.9116) Rshow
1.000 UL
LT0
0.50 0.50 0.50 C 1.000 UL
LTa
0.50 0.50 0.50 C 966 3631 M
5981 0 V
stroke
LT0
0.50 0.50 0.50 C 966 3631 M
63 0 V
5918 0 R
-63 0 V
-6002 0 R
( 51.6187) Rshow
1.000 UL
LT0
0.50 0.50 0.50 C 1.000 UL
LTa
0.50 0.50 0.50 C 966 3677 M
5981 0 V
stroke
LT0
0.50 0.50 0.50 C 966 3677 M
63 0 V
5918 0 R
-63 0 V
-6002 0 R
( 52.3258) Rshow
1.000 UL
LT0
0.50 0.50 0.50 C 1.000 UL
LTa
0.50 0.50 0.50 C 966 3723 M
5981 0 V
stroke
LT0
0.50 0.50 0.50 C 966 3723 M
63 0 V
5918 0 R
-63 0 V
-6002 0 R
( 53.033) Rshow
1.000 UL
LT0
0.50 0.50 0.50 C 1.000 UL
LTa
0.50 0.50 0.50 C 966 3769 M
5981 0 V
stroke
LT0
0.50 0.50 0.50 C 966 3769 M
63 0 V
5918 0 R
-63 0 V
-6002 0 R
( 53.7401) Rshow
1.000 UL
LT0
0.50 0.50 0.50 C 1.000 UL
LTa
0.50 0.50 0.50 C 966 3815 M
5981 0 V
stroke
LT0
0.50 0.50 0.50 C 966 3815 M
63 0 V
5918 0 R
-63 0 V
-6002 0 R
( 54.4472) Rshow
1.000 UL
LT0
0.50 0.50 0.50 C 1.000 UL
LTa
0.50 0.50 0.50 C 966 3861 M
5981 0 V
stroke
LT0
0.50 0.50 0.50 C 966 3861 M
63 0 V
5918 0 R
-63 0 V
-6002 0 R
( 55.1543) Rshow
1.000 UL
LT0
0.50 0.50 0.50 C 1.000 UL
LTa
0.50 0.50 0.50 C 966 3907 M
5981 0 V
stroke
LT0
0.50 0.50 0.50 C 966 3907 M
63 0 V
5918 0 R
-63 0 V
-6002 0 R
( 55.8614) Rshow
1.000 UL
LT0
0.50 0.50 0.50 C 1.000 UL
LTa
0.50 0.50 0.50 C 966 3953 M
5981 0 V
stroke
LT0
0.50 0.50 0.50 C 966 3953 M
63 0 V
5918 0 R
-63 0 V
-6002 0 R
( 56.5685) Rshow
1.000 UL
LT0
0.50 0.50 0.50 C 1.000 UL
LTa
0.50 0.50 0.50 C 966 3999 M
5981 0 V
stroke
LT0
0.50 0.50 0.50 C 966 3999 M
63 0 V
5918 0 R
-63 0 V
-6002 0 R
( 57.2756) Rshow
1.000 UL
LT0
0.50 0.50 0.50 C 1.000 UL
LTa
0.50 0.50 0.50 C 966 4045 M
5981 0 V
stroke
LT0
0.50 0.50 0.50 C 966 4045 M
63 0 V
5918 0 R
-63 0 V
-6002 0 R
( 57.9827) Rshow
1.000 UL
LT0
0.50 0.50 0.50 C 1.000 UL
LTa
0.50 0.50 0.50 C 966 4091 M
5981 0 V
stroke
LT0
0.50 0.50 0.50 C 966 4091 M
63 0 V
5918 0 R
-63 0 V
-6002 0 R
( 58.6898) Rshow
1.000 UL
LT0
0.50 0.50 0.50 C 1.000 UL
LTa
0.50 0.50 0.50 C 966 4136 M
5981 0 V
stroke
LT0
0.50 0.50 0.50 C 966 4136 M
63 0 V
5918 0 R
-63 0 V
-6002 0 R
( 59.3969) Rshow
1.000 UL
LT0
0.50 0.50 0.50 C 1.000 UL
LTa
0.50 0.50 0.50 C 966 4182 M
5981 0 V
stroke
LT0
0.50 0.50 0.50 C 966 4182 M
63 0 V
5918 0 R
-63 0 V
-6002 0 R
( 60.104) Rshow
1.000 UL
LT0
0.50 0.50 0.50 C 1.000 UL
LTa
0.50 0.50 0.50 C 966 4228 M
5981 0 V
stroke
LT0
0.50 0.50 0.50 C 966 4228 M
63 0 V
5918 0 R
-63 0 V
-6002 0 R
( 60.8111) Rshow
1.000 UL
LT0
0.50 0.50 0.50 C 1.000 UL
LTa
0.50 0.50 0.50 C 966 4274 M
5981 0 V
stroke
LT0
0.50 0.50 0.50 C 966 4274 M
63 0 V
5918 0 R
-63 0 V
-6002 0 R
( 61.5182) Rshow
1.000 UL
LT0
0.50 0.50 0.50 C 1.000 UL
LTa
0.50 0.50 0.50 C 966 4320 M
5981 0 V
stroke
LT0
0.50 0.50 0.50 C 966 4320 M
63 0 V
5918 0 R
-63 0 V
-6002 0 R
( 62.2253) Rshow
1.000 UL
LT0
0.50 0.50 0.50 C 1.000 UL
LTa
0.50 0.50 0.50 C 966 4366 M
5981 0 V
stroke
LT0
0.50 0.50 0.50 C 966 4366 M
63 0 V
5918 0 R
-63 0 V
-6002 0 R
( 62.9324) Rshow
1.000 UL
LT0
0.50 0.50 0.50 C 1.000 UL
LTa
0.50 0.50 0.50 C 966 4412 M
5981 0 V
stroke
LT0
0.50 0.50 0.50 C 966 4412 M
63 0 V
5918 0 R
-63 0 V
-6002 0 R
( 63.6395) Rshow
1.000 UL
LT0
0.50 0.50 0.50 C 1.000 UL
LTa
0.50 0.50 0.50 C 966 4458 M
5981 0 V
stroke
LT0
0.50 0.50 0.50 C 966 4458 M
63 0 V
5918 0 R
-63 0 V
-6002 0 R
( 64.3466) Rshow
1.000 UL
LT0
0.50 0.50 0.50 C 1.000 UL
LTa
0.50 0.50 0.50 C 966 4504 M
5981 0 V
stroke
LT0
0.50 0.50 0.50 C 966 4504 M
63 0 V
5918 0 R
-63 0 V
-6002 0 R
( 65.0538) Rshow
1.000 UL
LT0
0.50 0.50 0.50 C 1.000 UL
LTa
0.50 0.50 0.50 C 966 4550 M
5981 0 V
stroke
LT0
0.50 0.50 0.50 C 966 4550 M
63 0 V
5918 0 R
-63 0 V
-6002 0 R
( 65.7609) Rshow
1.000 UL
LT0
0.50 0.50 0.50 C 1.000 UL
LTa
0.50 0.50 0.50 C 966 4596 M
5981 0 V
stroke
LT0
0.50 0.50 0.50 C 966 4596 M
63 0 V
5918 0 R
-63 0 V
-6002 0 R
( 66.468) Rshow
1.000 UL
LT0
0.50 0.50 0.50 C 1.000 UL
LTa
0.50 0.50 0.50 C 966 4641 M
5981 0 V
stroke
LT0
0.50 0.50 0.50 C 966 4641 M
63 0 V
5918 0 R
-63 0 V
-6002 0 R
( 67.1751) Rshow
1.000 UL
LT0
0.50 0.50 0.50 C 1.000 UL
LTa
0.50 0.50 0.50 C 966 4687 M
5981 0 V
stroke
LT0
0.50 0.50 0.50 C 966 4687 M
63 0 V
5918 0 R
-63 0 V
-6002 0 R
( 67.8822) Rshow
1.000 UL
LT0
0.50 0.50 0.50 C 1.000 UL
LTa
0.50 0.50 0.50 C 966 4733 M
5981 0 V
stroke
LT0
0.50 0.50 0.50 C 966 4733 M
63 0 V
5918 0 R
-63 0 V
-6002 0 R
( 68.5893) Rshow
1.000 UL
LT0
0.50 0.50 0.50 C 1.000 UL
LTa
0.50 0.50 0.50 C 966 4779 M
5981 0 V
stroke
LT0
0.50 0.50 0.50 C 966 4779 M
63 0 V
5918 0 R
-63 0 V
-6002 0 R
( 69.2964) Rshow
1.000 UL
LT0
0.50 0.50 0.50 C 1.000 UL
LTa
0.50 0.50 0.50 C 966 4825 M
5981 0 V
stroke
LT0
0.50 0.50 0.50 C 966 4825 M
63 0 V
5918 0 R
-63 0 V
-6002 0 R
( 70.0035) Rshow
1.000 UL
LT0
0.50 0.50 0.50 C 1.000 UL
LTa
0.50 0.50 0.50 C 966 4871 M
5981 0 V
stroke
LT0
0.50 0.50 0.50 C 966 4871 M
63 0 V
5918 0 R
-63 0 V
-6002 0 R
( 70.7106) Rshow
1.000 UL
LT0
0.50 0.50 0.50 C 1.000 UL
LTa
0.50 0.50 0.50 C 966 280 M
0 4591 V
stroke
LT0
0.50 0.50 0.50 C 966 280 M
0 63 V
0 4528 R
0 -63 V
966 140 M
( 0) Cshow
1.000 UL
LT0
0.50 0.50 0.50 C 1.000 UL
LTa
0.50 0.50 0.50 C 1026 280 M
0 4591 V
stroke
LT0
0.50 0.50 0.50 C 1026 280 M
0 63 V
0 4528 R
0 -63 V
0 -4668 R
( 0.707106) Cshow
1.000 UL
LT0
0.50 0.50 0.50 C 1.000 UL
LTa
0.50 0.50 0.50 C 1086 280 M
0 4591 V
stroke
LT0
0.50 0.50 0.50 C 1086 280 M
0 63 V
0 4528 R
0 -63 V
0 -4668 R
( 1.41421) Cshow
1.000 UL
LT0
0.50 0.50 0.50 C 1.000 UL
LTa
0.50 0.50 0.50 C 1145 280 M
0 4591 V
stroke
LT0
0.50 0.50 0.50 C 1145 280 M
0 63 V
0 4528 R
0 -63 V
0 -4668 R
( 2.12132) Cshow
1.000 UL
LT0
0.50 0.50 0.50 C 1.000 UL
LTa
0.50 0.50 0.50 C 1205 280 M
0 4591 V
stroke
LT0
0.50 0.50 0.50 C 1205 280 M
0 63 V
0 4528 R
0 -63 V
0 -4668 R
( 2.82842) Cshow
1.000 UL
LT0
0.50 0.50 0.50 C 1.000 UL
LTa
0.50 0.50 0.50 C 1265 280 M
0 4591 V
stroke
LT0
0.50 0.50 0.50 C 1265 280 M
0 63 V
0 4528 R
0 -63 V
0 -4668 R
( 3.53553) Cshow
1.000 UL
LT0
0.50 0.50 0.50 C 1.000 UL
LTa
0.50 0.50 0.50 C 1325 280 M
0 4591 V
stroke
LT0
0.50 0.50 0.50 C 1325 280 M
0 63 V
0 4528 R
0 -63 V
0 -4668 R
( 4.24264) Cshow
1.000 UL
LT0
0.50 0.50 0.50 C 1.000 UL
LTa
0.50 0.50 0.50 C 1385 280 M
0 4591 V
stroke
LT0
0.50 0.50 0.50 C 1385 280 M
0 63 V
0 4528 R
0 -63 V
0 -4668 R
( 4.94974) Cshow
1.000 UL
LT0
0.50 0.50 0.50 C 1.000 UL
LTa
0.50 0.50 0.50 C 1444 280 M
0 4591 V
stroke
LT0
0.50 0.50 0.50 C 1444 280 M
0 63 V
0 4528 R
0 -63 V
0 -4668 R
( 5.65685) Cshow
1.000 UL
LT0
0.50 0.50 0.50 C 1.000 UL
LTa
0.50 0.50 0.50 C 1504 280 M
0 4591 V
stroke
LT0
0.50 0.50 0.50 C 1504 280 M
0 63 V
0 4528 R
0 -63 V
0 -4668 R
( 6.36395) Cshow
1.000 UL
LT0
0.50 0.50 0.50 C 1.000 UL
LTa
0.50 0.50 0.50 C 1564 280 M
0 4591 V
stroke
LT0
0.50 0.50 0.50 C 1564 280 M
0 63 V
0 4528 R
0 -63 V
0 -4668 R
( 7.07106) Cshow
1.000 UL
LT0
0.50 0.50 0.50 C 1.000 UL
LTa
0.50 0.50 0.50 C 1624 280 M
0 4591 V
stroke
LT0
0.50 0.50 0.50 C 1624 280 M
0 63 V
0 4528 R
0 -63 V
0 -4668 R
( 7.77817) Cshow
1.000 UL
LT0
0.50 0.50 0.50 C 1.000 UL
LTa
0.50 0.50 0.50 C 1684 280 M
0 4591 V
stroke
LT0
0.50 0.50 0.50 C 1684 280 M
0 63 V
0 4528 R
0 -63 V
0 -4668 R
( 8.48527) Cshow
1.000 UL
LT0
0.50 0.50 0.50 C 1.000 UL
LTa
0.50 0.50 0.50 C 1744 280 M
0 4591 V
stroke
LT0
0.50 0.50 0.50 C 1744 280 M
0 63 V
0 4528 R
0 -63 V
0 -4668 R
( 9.19238) Cshow
1.000 UL
LT0
0.50 0.50 0.50 C 1.000 UL
LTa
0.50 0.50 0.50 C 1803 280 M
0 4591 V
stroke
LT0
0.50 0.50 0.50 C 1803 280 M
0 63 V
0 4528 R
0 -63 V
0 -4668 R
( 9.89948) Cshow
1.000 UL
LT0
0.50 0.50 0.50 C 1.000 UL
LTa
0.50 0.50 0.50 C 1863 280 M
0 4591 V
stroke
LT0
0.50 0.50 0.50 C 1863 280 M
0 63 V
0 4528 R
0 -63 V
0 -4668 R
( 10.6066) Cshow
1.000 UL
LT0
0.50 0.50 0.50 C 1.000 UL
LTa
0.50 0.50 0.50 C 1923 280 M
0 4591 V
stroke
LT0
0.50 0.50 0.50 C 1923 280 M
0 63 V
0 4528 R
0 -63 V
0 -4668 R
( 11.3137) Cshow
1.000 UL
LT0
0.50 0.50 0.50 C 1.000 UL
LTa
0.50 0.50 0.50 C 1983 280 M
0 4591 V
stroke
LT0
0.50 0.50 0.50 C 1983 280 M
0 63 V
0 4528 R
0 -63 V
0 -4668 R
( 12.0208) Cshow
1.000 UL
LT0
0.50 0.50 0.50 C 1.000 UL
LTa
0.50 0.50 0.50 C 2043 280 M
0 4591 V
stroke
LT0
0.50 0.50 0.50 C 2043 280 M
0 63 V
0 4528 R
0 -63 V
0 -4668 R
( 12.7279) Cshow
1.000 UL
LT0
0.50 0.50 0.50 C 1.000 UL
LTa
0.50 0.50 0.50 C 2102 280 M
0 4591 V
stroke
LT0
0.50 0.50 0.50 C 2102 280 M
0 63 V
0 4528 R
0 -63 V
0 -4668 R
( 13.435) Cshow
1.000 UL
LT0
0.50 0.50 0.50 C 1.000 UL
LTa
0.50 0.50 0.50 C 2162 280 M
0 4591 V
stroke
LT0
0.50 0.50 0.50 C 2162 280 M
0 63 V
0 4528 R
0 -63 V
0 -4668 R
( 14.1421) Cshow
1.000 UL
LT0
0.50 0.50 0.50 C 1.000 UL
LTa
0.50 0.50 0.50 C 2222 280 M
0 4591 V
stroke
LT0
0.50 0.50 0.50 C 2222 280 M
0 63 V
0 4528 R
0 -63 V
0 -4668 R
( 14.8492) Cshow
1.000 UL
LT0
0.50 0.50 0.50 C 1.000 UL
LTa
0.50 0.50 0.50 C 2282 280 M
0 4591 V
stroke
LT0
0.50 0.50 0.50 C 2282 280 M
0 63 V
0 4528 R
0 -63 V
0 -4668 R
( 15.5563) Cshow
1.000 UL
LT0
0.50 0.50 0.50 C 1.000 UL
LTa
0.50 0.50 0.50 C 2342 280 M
0 4591 V
stroke
LT0
0.50 0.50 0.50 C 2342 280 M
0 63 V
0 4528 R
0 -63 V
0 -4668 R
( 16.2634) Cshow
1.000 UL
LT0
0.50 0.50 0.50 C 1.000 UL
LTa
0.50 0.50 0.50 C 2401 280 M
0 4591 V
stroke
LT0
0.50 0.50 0.50 C 2401 280 M
0 63 V
0 4528 R
0 -63 V
0 -4668 R
( 16.9705) Cshow
1.000 UL
LT0
0.50 0.50 0.50 C 1.000 UL
LTa
0.50 0.50 0.50 C 2461 280 M
0 4591 V
stroke
LT0
0.50 0.50 0.50 C 2461 280 M
0 63 V
0 4528 R
0 -63 V
0 -4668 R
( 17.6776) Cshow
1.000 UL
LT0
0.50 0.50 0.50 C 1.000 UL
LTa
0.50 0.50 0.50 C 2521 280 M
0 4591 V
stroke
LT0
0.50 0.50 0.50 C 2521 280 M
0 63 V
0 4528 R
0 -63 V
0 -4668 R
( 18.3848) Cshow
1.000 UL
LT0
0.50 0.50 0.50 C 1.000 UL
LTa
0.50 0.50 0.50 C 2581 280 M
0 4591 V
stroke
LT0
0.50 0.50 0.50 C 2581 280 M
0 63 V
0 4528 R
0 -63 V
0 -4668 R
( 19.0919) Cshow
1.000 UL
LT0
0.50 0.50 0.50 C 1.000 UL
LTa
0.50 0.50 0.50 C 2641 280 M
0 4591 V
stroke
LT0
0.50 0.50 0.50 C 2641 280 M
0 63 V
0 4528 R
0 -63 V
0 -4668 R
( 19.799) Cshow
1.000 UL
LT0
0.50 0.50 0.50 C 1.000 UL
LTa
0.50 0.50 0.50 C 2700 280 M
0 4591 V
stroke
LT0
0.50 0.50 0.50 C 2700 280 M
0 63 V
0 4528 R
0 -63 V
0 -4668 R
( 20.5061) Cshow
1.000 UL
LT0
0.50 0.50 0.50 C 1.000 UL
LTa
0.50 0.50 0.50 C 2760 280 M
0 4591 V
stroke
LT0
0.50 0.50 0.50 C 2760 280 M
0 63 V
0 4528 R
0 -63 V
0 -4668 R
( 21.2132) Cshow
1.000 UL
LT0
0.50 0.50 0.50 C 1.000 UL
LTa
0.50 0.50 0.50 C 2820 280 M
0 4591 V
stroke
LT0
0.50 0.50 0.50 C 2820 280 M
0 63 V
0 4528 R
0 -63 V
0 -4668 R
( 21.9203) Cshow
1.000 UL
LT0
0.50 0.50 0.50 C 1.000 UL
LTa
0.50 0.50 0.50 C 2880 280 M
0 4591 V
stroke
LT0
0.50 0.50 0.50 C 2880 280 M
0 63 V
0 4528 R
0 -63 V
0 -4668 R
( 22.6274) Cshow
1.000 UL
LT0
0.50 0.50 0.50 C 1.000 UL
LTa
0.50 0.50 0.50 C 2940 280 M
0 4591 V
stroke
LT0
0.50 0.50 0.50 C 2940 280 M
0 63 V
0 4528 R
0 -63 V
0 -4668 R
( 23.3345) Cshow
1.000 UL
LT0
0.50 0.50 0.50 C 1.000 UL
LTa
0.50 0.50 0.50 C 3000 280 M
0 4591 V
stroke
LT0
0.50 0.50 0.50 C 3000 280 M
0 63 V
0 4528 R
0 -63 V
0 -4668 R
( 24.0416) Cshow
1.000 UL
LT0
0.50 0.50 0.50 C 1.000 UL
LTa
0.50 0.50 0.50 C 3059 280 M
0 4591 V
stroke
LT0
0.50 0.50 0.50 C 3059 280 M
0 63 V
0 4528 R
0 -63 V
0 -4668 R
( 24.7487) Cshow
1.000 UL
LT0
0.50 0.50 0.50 C 1.000 UL
LTa
0.50 0.50 0.50 C 3119 280 M
0 4591 V
stroke
LT0
0.50 0.50 0.50 C 3119 280 M
0 63 V
0 4528 R
0 -63 V
0 -4668 R
( 25.4558) Cshow
1.000 UL
LT0
0.50 0.50 0.50 C 1.000 UL
LTa
0.50 0.50 0.50 C 3179 280 M
0 4591 V
stroke
LT0
0.50 0.50 0.50 C 3179 280 M
0 63 V
0 4528 R
0 -63 V
0 -4668 R
( 26.1629) Cshow
1.000 UL
LT0
0.50 0.50 0.50 C 1.000 UL
LTa
0.50 0.50 0.50 C 3239 280 M
0 4591 V
stroke
LT0
0.50 0.50 0.50 C 3239 280 M
0 63 V
0 4528 R
0 -63 V
0 -4668 R
( 26.87) Cshow
1.000 UL
LT0
0.50 0.50 0.50 C 1.000 UL
LTa
0.50 0.50 0.50 C 3299 280 M
0 4591 V
stroke
LT0
0.50 0.50 0.50 C 3299 280 M
0 63 V
0 4528 R
0 -63 V
0 -4668 R
( 27.5771) Cshow
1.000 UL
LT0
0.50 0.50 0.50 C 1.000 UL
LTa
0.50 0.50 0.50 C 3358 280 M
0 4591 V
stroke
LT0
0.50 0.50 0.50 C 3358 280 M
0 63 V
0 4528 R
0 -63 V
0 -4668 R
( 28.2842) Cshow
1.000 UL
LT0
0.50 0.50 0.50 C 1.000 UL
LTa
0.50 0.50 0.50 C 3418 280 M
0 4591 V
stroke
LT0
0.50 0.50 0.50 C 3418 280 M
0 63 V
0 4528 R
0 -63 V
0 -4668 R
( 28.9913) Cshow
1.000 UL
LT0
0.50 0.50 0.50 C 1.000 UL
LTa
0.50 0.50 0.50 C 3478 280 M
0 4591 V
stroke
LT0
0.50 0.50 0.50 C 3478 280 M
0 63 V
0 4528 R
0 -63 V
0 -4668 R
( 29.6985) Cshow
1.000 UL
LT0
0.50 0.50 0.50 C 1.000 UL
LTa
0.50 0.50 0.50 C 3538 280 M
0 4591 V
stroke
LT0
0.50 0.50 0.50 C 3538 280 M
0 63 V
0 4528 R
0 -63 V
0 -4668 R
( 30.4056) Cshow
1.000 UL
LT0
0.50 0.50 0.50 C 1.000 UL
LTa
0.50 0.50 0.50 C 3598 280 M
0 4591 V
stroke
LT0
0.50 0.50 0.50 C 3598 280 M
0 63 V
0 4528 R
0 -63 V
0 -4668 R
( 31.1127) Cshow
1.000 UL
LT0
0.50 0.50 0.50 C 1.000 UL
LTa
0.50 0.50 0.50 C 3657 280 M
0 4591 V
stroke
LT0
0.50 0.50 0.50 C 3657 280 M
0 63 V
0 4528 R
0 -63 V
0 -4668 R
( 31.8198) Cshow
1.000 UL
LT0
0.50 0.50 0.50 C 1.000 UL
LTa
0.50 0.50 0.50 C 3717 280 M
0 4591 V
stroke
LT0
0.50 0.50 0.50 C 3717 280 M
0 63 V
0 4528 R
0 -63 V
0 -4668 R
( 32.5269) Cshow
1.000 UL
LT0
0.50 0.50 0.50 C 1.000 UL
LTa
0.50 0.50 0.50 C 3777 280 M
0 4591 V
stroke
LT0
0.50 0.50 0.50 C 3777 280 M
0 63 V
0 4528 R
0 -63 V
0 -4668 R
( 33.234) Cshow
1.000 UL
LT0
0.50 0.50 0.50 C 1.000 UL
LTa
0.50 0.50 0.50 C 3837 280 M
0 4591 V
stroke
LT0
0.50 0.50 0.50 C 3837 280 M
0 63 V
0 4528 R
0 -63 V
0 -4668 R
( 33.9411) Cshow
1.000 UL
LT0
0.50 0.50 0.50 C 1.000 UL
LTa
0.50 0.50 0.50 C 3897 280 M
0 4591 V
stroke
LT0
0.50 0.50 0.50 C 3897 280 M
0 63 V
0 4528 R
0 -63 V
0 -4668 R
( 34.6482) Cshow
1.000 UL
LT0
0.50 0.50 0.50 C 1.000 UL
LTa
0.50 0.50 0.50 C 3957 280 M
0 4591 V
stroke
LT0
0.50 0.50 0.50 C 3957 280 M
0 63 V
0 4528 R
0 -63 V
0 -4668 R
( 35.3553) Cshow
1.000 UL
LT0
0.50 0.50 0.50 C 1.000 UL
LTa
0.50 0.50 0.50 C 4016 280 M
0 4591 V
stroke
LT0
0.50 0.50 0.50 C 4016 280 M
0 63 V
0 4528 R
0 -63 V
0 -4668 R
( 36.0624) Cshow
1.000 UL
LT0
0.50 0.50 0.50 C 1.000 UL
LTa
0.50 0.50 0.50 C 4076 280 M
0 4591 V
stroke
LT0
0.50 0.50 0.50 C 4076 280 M
0 63 V
0 4528 R
0 -63 V
0 -4668 R
( 36.7695) Cshow
1.000 UL
LT0
0.50 0.50 0.50 C 1.000 UL
LTa
0.50 0.50 0.50 C 4136 280 M
0 4591 V
stroke
LT0
0.50 0.50 0.50 C 4136 280 M
0 63 V
0 4528 R
0 -63 V
0 -4668 R
( 37.4766) Cshow
1.000 UL
LT0
0.50 0.50 0.50 C 1.000 UL
LTa
0.50 0.50 0.50 C 4196 280 M
0 4591 V
stroke
LT0
0.50 0.50 0.50 C 4196 280 M
0 63 V
0 4528 R
0 -63 V
0 -4668 R
( 38.1837) Cshow
1.000 UL
LT0
0.50 0.50 0.50 C 1.000 UL
LTa
0.50 0.50 0.50 C 4256 280 M
0 4591 V
stroke
LT0
0.50 0.50 0.50 C 4256 280 M
0 63 V
0 4528 R
0 -63 V
0 -4668 R
( 38.8908) Cshow
1.000 UL
LT0
0.50 0.50 0.50 C 1.000 UL
LTa
0.50 0.50 0.50 C 4315 280 M
0 4591 V
stroke
LT0
0.50 0.50 0.50 C 4315 280 M
0 63 V
0 4528 R
0 -63 V
0 -4668 R
( 39.5979) Cshow
1.000 UL
LT0
0.50 0.50 0.50 C 1.000 UL
LTa
0.50 0.50 0.50 C 4375 280 M
0 4591 V
stroke
LT0
0.50 0.50 0.50 C 4375 280 M
0 63 V
0 4528 R
0 -63 V
0 -4668 R
( 40.305) Cshow
1.000 UL
LT0
0.50 0.50 0.50 C 1.000 UL
LTa
0.50 0.50 0.50 C 4435 280 M
0 4591 V
stroke
LT0
0.50 0.50 0.50 C 4435 280 M
0 63 V
0 4528 R
0 -63 V
0 -4668 R
( 41.0121) Cshow
1.000 UL
LT0
0.50 0.50 0.50 C 1.000 UL
LTa
0.50 0.50 0.50 C 4495 280 M
0 4591 V
stroke
LT0
0.50 0.50 0.50 C 4495 280 M
0 63 V
0 4528 R
0 -63 V
0 -4668 R
( 41.7193) Cshow
1.000 UL
LT0
0.50 0.50 0.50 C 1.000 UL
LTa
0.50 0.50 0.50 C 4555 280 M
0 4591 V
stroke
LT0
0.50 0.50 0.50 C 4555 280 M
0 63 V
0 4528 R
0 -63 V
0 -4668 R
( 42.4264) Cshow
1.000 UL
LT0
0.50 0.50 0.50 C 1.000 UL
LTa
0.50 0.50 0.50 C 4614 280 M
0 4591 V
stroke
LT0
0.50 0.50 0.50 C 4614 280 M
0 63 V
0 4528 R
0 -63 V
0 -4668 R
( 43.1335) Cshow
1.000 UL
LT0
0.50 0.50 0.50 C 1.000 UL
LTa
0.50 0.50 0.50 C 4674 280 M
0 4591 V
stroke
LT0
0.50 0.50 0.50 C 4674 280 M
0 63 V
0 4528 R
0 -63 V
0 -4668 R
( 43.8406) Cshow
1.000 UL
LT0
0.50 0.50 0.50 C 1.000 UL
LTa
0.50 0.50 0.50 C 4734 280 M
0 4591 V
stroke
LT0
0.50 0.50 0.50 C 4734 280 M
0 63 V
0 4528 R
0 -63 V
0 -4668 R
( 44.5477) Cshow
1.000 UL
LT0
0.50 0.50 0.50 C 1.000 UL
LTa
0.50 0.50 0.50 C 4794 280 M
0 4591 V
stroke
LT0
0.50 0.50 0.50 C 4794 280 M
0 63 V
0 4528 R
0 -63 V
0 -4668 R
( 45.2548) Cshow
1.000 UL
LT0
0.50 0.50 0.50 C 1.000 UL
LTa
0.50 0.50 0.50 C 4854 280 M
0 4591 V
stroke
LT0
0.50 0.50 0.50 C 4854 280 M
0 63 V
0 4528 R
0 -63 V
0 -4668 R
( 45.9619) Cshow
1.000 UL
LT0
0.50 0.50 0.50 C 1.000 UL
LTa
0.50 0.50 0.50 C 4913 280 M
0 4591 V
stroke
LT0
0.50 0.50 0.50 C 4913 280 M
0 63 V
0 4528 R
0 -63 V
0 -4668 R
( 46.669) Cshow
1.000 UL
LT0
0.50 0.50 0.50 C 1.000 UL
LTa
0.50 0.50 0.50 C 4973 280 M
0 4591 V
stroke
LT0
0.50 0.50 0.50 C 4973 280 M
0 63 V
0 4528 R
0 -63 V
0 -4668 R
( 47.3761) Cshow
1.000 UL
LT0
0.50 0.50 0.50 C 1.000 UL
LTa
0.50 0.50 0.50 C 5033 280 M
0 4591 V
stroke
LT0
0.50 0.50 0.50 C 5033 280 M
0 63 V
0 4528 R
0 -63 V
0 -4668 R
( 48.0832) Cshow
1.000 UL
LT0
0.50 0.50 0.50 C 1.000 UL
LTa
0.50 0.50 0.50 C 5093 280 M
0 4591 V
stroke
LT0
0.50 0.50 0.50 C 5093 280 M
0 63 V
0 4528 R
0 -63 V
0 -4668 R
( 48.7903) Cshow
1.000 UL
LT0
0.50 0.50 0.50 C 1.000 UL
LTa
0.50 0.50 0.50 C 5153 280 M
0 4591 V
stroke
LT0
0.50 0.50 0.50 C 5153 280 M
0 63 V
0 4528 R
0 -63 V
0 -4668 R
( 49.4974) Cshow
1.000 UL
LT0
0.50 0.50 0.50 C 1.000 UL
LTa
0.50 0.50 0.50 C 5213 280 M
0 4591 V
stroke
LT0
0.50 0.50 0.50 C 5213 280 M
0 63 V
0 4528 R
0 -63 V
0 -4668 R
( 50.2045) Cshow
1.000 UL
LT0
0.50 0.50 0.50 C 1.000 UL
LTa
0.50 0.50 0.50 C 5272 280 M
0 4591 V
stroke
LT0
0.50 0.50 0.50 C 5272 280 M
0 63 V
0 4528 R
0 -63 V
0 -4668 R
( 50.9116) Cshow
1.000 UL
LT0
0.50 0.50 0.50 C 1.000 UL
LTa
0.50 0.50 0.50 C 5332 280 M
0 4591 V
stroke
LT0
0.50 0.50 0.50 C 5332 280 M
0 63 V
0 4528 R
0 -63 V
0 -4668 R
( 51.6187) Cshow
1.000 UL
LT0
0.50 0.50 0.50 C 1.000 UL
LTa
0.50 0.50 0.50 C 5392 280 M
0 4591 V
stroke
LT0
0.50 0.50 0.50 C 5392 280 M
0 63 V
0 4528 R
0 -63 V
0 -4668 R
( 52.3258) Cshow
1.000 UL
LT0
0.50 0.50 0.50 C 1.000 UL
LTa
0.50 0.50 0.50 C 5452 280 M
0 4591 V
stroke
LT0
0.50 0.50 0.50 C 5452 280 M
0 63 V
0 4528 R
0 -63 V
0 -4668 R
( 53.033) Cshow
1.000 UL
LT0
0.50 0.50 0.50 C 1.000 UL
LTa
0.50 0.50 0.50 C 5512 280 M
0 4591 V
stroke
LT0
0.50 0.50 0.50 C 5512 280 M
0 63 V
0 4528 R
0 -63 V
0 -4668 R
( 53.7401) Cshow
1.000 UL
LT0
0.50 0.50 0.50 C 1.000 UL
LTa
0.50 0.50 0.50 C 5571 280 M
0 4591 V
stroke
LT0
0.50 0.50 0.50 C 5571 280 M
0 63 V
0 4528 R
0 -63 V
0 -4668 R
( 54.4472) Cshow
1.000 UL
LT0
0.50 0.50 0.50 C 1.000 UL
LTa
0.50 0.50 0.50 C 5631 280 M
0 4591 V
stroke
LT0
0.50 0.50 0.50 C 5631 280 M
0 63 V
0 4528 R
0 -63 V
0 -4668 R
( 55.1543) Cshow
1.000 UL
LT0
0.50 0.50 0.50 C 1.000 UL
LTa
0.50 0.50 0.50 C 5691 280 M
0 4591 V
stroke
LT0
0.50 0.50 0.50 C 5691 280 M
0 63 V
0 4528 R
0 -63 V
0 -4668 R
( 55.8614) Cshow
1.000 UL
LT0
0.50 0.50 0.50 C 1.000 UL
LTa
0.50 0.50 0.50 C 5751 280 M
0 4591 V
stroke
LT0
0.50 0.50 0.50 C 5751 280 M
0 63 V
0 4528 R
0 -63 V
0 -4668 R
( 56.5685) Cshow
1.000 UL
LT0
0.50 0.50 0.50 C 1.000 UL
LTa
0.50 0.50 0.50 C 5811 280 M
0 4591 V
stroke
LT0
0.50 0.50 0.50 C 5811 280 M
0 63 V
0 4528 R
0 -63 V
0 -4668 R
( 57.2756) Cshow
1.000 UL
LT0
0.50 0.50 0.50 C 1.000 UL
LTa
0.50 0.50 0.50 C 5870 280 M
0 4591 V
stroke
LT0
0.50 0.50 0.50 C 5870 280 M
0 63 V
0 4528 R
0 -63 V
0 -4668 R
( 57.9827) Cshow
1.000 UL
LT0
0.50 0.50 0.50 C 1.000 UL
LTa
0.50 0.50 0.50 C 5930 280 M
0 4591 V
stroke
LT0
0.50 0.50 0.50 C 5930 280 M
0 63 V
0 4528 R
0 -63 V
0 -4668 R
( 58.6898) Cshow
1.000 UL
LT0
0.50 0.50 0.50 C 1.000 UL
LTa
0.50 0.50 0.50 C 5990 280 M
0 4591 V
stroke
LT0
0.50 0.50 0.50 C 5990 280 M
0 63 V
0 4528 R
0 -63 V
0 -4668 R
( 59.3969) Cshow
1.000 UL
LT0
0.50 0.50 0.50 C 1.000 UL
LTa
0.50 0.50 0.50 C 6050 280 M
0 4591 V
stroke
LT0
0.50 0.50 0.50 C 6050 280 M
0 63 V
0 4528 R
0 -63 V
0 -4668 R
( 60.104) Cshow
1.000 UL
LT0
0.50 0.50 0.50 C 1.000 UL
LTa
0.50 0.50 0.50 C 6110 280 M
0 4591 V
stroke
LT0
0.50 0.50 0.50 C 6110 280 M
0 63 V
0 4528 R
0 -63 V
0 -4668 R
( 60.8111) Cshow
1.000 UL
LT0
0.50 0.50 0.50 C 1.000 UL
LTa
0.50 0.50 0.50 C 6169 280 M
0 4591 V
stroke
LT0
0.50 0.50 0.50 C 6169 280 M
0 63 V
0 4528 R
0 -63 V
0 -4668 R
( 61.5182) Cshow
1.000 UL
LT0
0.50 0.50 0.50 C 1.000 UL
LTa
0.50 0.50 0.50 C 6229 280 M
0 4591 V
stroke
LT0
0.50 0.50 0.50 C 6229 280 M
0 63 V
0 4528 R
0 -63 V
0 -4668 R
( 62.2253) Cshow
1.000 UL
LT0
0.50 0.50 0.50 C 1.000 UL
LTa
0.50 0.50 0.50 C 6289 280 M
0 4591 V
stroke
LT0
0.50 0.50 0.50 C 6289 280 M
0 63 V
0 4528 R
0 -63 V
0 -4668 R
( 62.9324) Cshow
1.000 UL
LT0
0.50 0.50 0.50 C 1.000 UL
LTa
0.50 0.50 0.50 C 6349 280 M
0 4591 V
stroke
LT0
0.50 0.50 0.50 C 6349 280 M
0 63 V
0 4528 R
0 -63 V
0 -4668 R
( 63.6395) Cshow
1.000 UL
LT0
0.50 0.50 0.50 C 1.000 UL
LTa
0.50 0.50 0.50 C 6409 280 M
0 4591 V
stroke
LT0
0.50 0.50 0.50 C 6409 280 M
0 63 V
0 4528 R
0 -63 V
0 -4668 R
( 64.3466) Cshow
1.000 UL
LT0
0.50 0.50 0.50 C 1.000 UL
LTa
0.50 0.50 0.50 C 6469 280 M
0 4591 V
stroke
LT0
0.50 0.50 0.50 C 6469 280 M
0 63 V
0 4528 R
0 -63 V
0 -4668 R
( 65.0538) Cshow
1.000 UL
LT0
0.50 0.50 0.50 C 1.000 UL
LTa
0.50 0.50 0.50 C 6528 280 M
0 4591 V
stroke
LT0
0.50 0.50 0.50 C 6528 280 M
0 63 V
0 4528 R
0 -63 V
0 -4668 R
( 65.7609) Cshow
1.000 UL
LT0
0.50 0.50 0.50 C 1.000 UL
LTa
0.50 0.50 0.50 C 6588 280 M
0 4591 V
stroke
LT0
0.50 0.50 0.50 C 6588 280 M
0 63 V
0 4528 R
0 -63 V
0 -4668 R
( 66.468) Cshow
1.000 UL
LT0
0.50 0.50 0.50 C 1.000 UL
LTa
0.50 0.50 0.50 C 6648 280 M
0 4591 V
stroke
LT0
0.50 0.50 0.50 C 6648 280 M
0 63 V
0 4528 R
0 -63 V
0 -4668 R
( 67.1751) Cshow
1.000 UL
LT0
0.50 0.50 0.50 C 1.000 UL
LTa
0.50 0.50 0.50 C 6708 280 M
0 4591 V
stroke
LT0
0.50 0.50 0.50 C 6708 280 M
0 63 V
0 4528 R
0 -63 V
0 -4668 R
( 67.8822) Cshow
1.000 UL
LT0
0.50 0.50 0.50 C 1.000 UL
LTa
0.50 0.50 0.50 C 6768 280 M
0 4591 V
stroke
LT0
0.50 0.50 0.50 C 6768 280 M
0 63 V
0 4528 R
0 -63 V
0 -4668 R
( 68.5893) Cshow
1.000 UL
LT0
0.50 0.50 0.50 C 1.000 UL
LTa
0.50 0.50 0.50 C 6827 280 M
0 4591 V
stroke
LT0
0.50 0.50 0.50 C 6827 280 M
0 63 V
0 4528 R
0 -63 V
0 -4668 R
( 69.2964) Cshow
1.000 UL
LT0
0.50 0.50 0.50 C 1.000 UL
LTa
0.50 0.50 0.50 C 6887 280 M
0 4591 V
stroke
LT0
0.50 0.50 0.50 C 6887 280 M
0 63 V
0 4528 R
0 -63 V
0 -4668 R
( 70.0035) Cshow
1.000 UL
LT0
0.50 0.50 0.50 C 1.000 UL
LTa
0.50 0.50 0.50 C 6947 280 M
0 4591 V
stroke
LT0
0.50 0.50 0.50 C 6947 280 M
0 63 V
0 4528 R
0 -63 V
0 -4668 R
( 70.7106) Cshow
1.000 UL
LT0
0.50 0.50 0.50 C 1.000 UL
LT0
0.50 0.50 0.50 C 966 4871 M
966 280 L
5981 0 V
0 4591 R
-5981 0 R
1.000 UP
stroke
LT0
0.50 0.50 0.50 C % Begin plot #1
1.500 UP
2.000 UL
LT0
0.00 0.00 1.00 C /Helvetica findfont 140 scalefont setfont
/vshift -46 def
1026 464 M
60 0 V
59 0 V
60 0 V
60 0 V
60 0 V
60 0 V
0 46 R
59 0 V
0 45 R
60 0 V
60 0 V
60 0 V
60 0 V
60 0 V
59 0 V
60 0 V
0 46 R
60 0 V
0 46 R
60 0 V
60 0 V
59 0 V
60 0 V
60 0 V
60 0 V
60 0 V
0 46 R
59 0 V
60 0 V
60 0 V
60 0 V
60 0 V
0 46 R
59 0 V
60 0 V
0 46 R
60 0 V
60 0 V
60 0 V
60 0 V
0 138 R
59 0 V
60 0 V
60 0 V
60 0 V
60 0 V
59 0 V
0 46 R
60 0 V
60 0 V
60 0 V
0 46 R
60 0 V
0 91 R
59 0 V
60 0 V
0 92 R
60 0 V
60 0 V
60 0 V
60 0 V
0 92 R
59 0 V
0 275 R
60 0 V
0 1194 R
60 0 V
0 46 R
60 0 V
0 276 R
60 0 V
59 0 V
60 0 V
60 0 V
60 0 V
60 0 V
59 0 V
60 0 V
0 45 R
60 0 V
0 92 R
60 0 V
0 322 R
60 0 V
0 137 R
59 0 V
60 0 V
0 322 R
60 0 V
60 0 V
60 0 V
60 0 V
59 0 V
60 0 V
60 0 V
60 0 V
60 0 V
59 0 V
60 0 V
60 0 V
60 0 V
0 46 R
60 0 V
59 0 V
stroke 5870 4045 M
60 0 V
0 46 R
60 0 V
60 0 V
0 91 R
60 0 V
0 184 R
59 0 V
0 46 R
60 0 V
60 0 V
0 46 R
60 0 V
60 0 V
0 92 R
60 0 V
59 0 V
0 91 R
60 0 V
60 0 V
0 46 R
60 0 V
60 0 V
0 46 R
59 0 V
0 46 R
60 0 V
966 280 M
60 0 V
0 46 V
0 46 V
0 46 V
0 46 V
359 0 R
0 46 V
59 0 R
0 45 V
419 0 R
0 46 V
60 0 R
0 46 V
419 0 R
0 46 V
299 0 R
0 46 V
119 0 R
0 46 V
240 0 R
0 46 V
0 46 V
0 46 V
358 0 R
0 46 V
180 0 R
0 46 V
60 0 R
0 45 V
0 46 V
119 0 R
0 46 V
0 46 V
240 0 R
0 46 V
0 46 V
59 0 R
0 46 V
0 46 V
0 46 V
0 46 V
0 46 V
0 45 V
60 0 R
0 46 V
0 46 V
0 46 V
0 46 V
0 46 V
0 46 V
0 46 V
0 46 V
0 46 V
0 46 V
0 45 V
0 46 V
0 46 V
0 46 V
0 46 V
0 46 V
0 46 V
0 46 V
0 46 V
0 46 V
0 46 V
0 46 V
0 45 V
0 46 V
0 46 V
0 46 V
60 0 R
0 46 V
60 0 R
0 46 V
0 46 V
0 46 V
stroke 4196 2943 M
0 46 V
0 46 V
0 46 V
478 0 R
0 45 V
60 0 R
0 46 V
0 46 V
60 0 R
0 46 V
0 46 V
0 46 V
0 46 V
0 46 V
0 46 V
0 46 V
60 0 R
0 46 V
0 45 V
0 46 V
119 0 R
0 46 V
0 46 V
0 46 V
0 46 V
0 46 V
0 46 V
0 46 V
778 0 R
0 46 V
179 0 R
0 46 V
120 0 R
0 45 V
0 46 V
60 0 R
0 46 V
0 46 V
0 46 V
0 46 V
59 0 R
0 46 V
120 0 R
0 46 V
120 0 R
0 46 V
0 46 V
119 0 R
0 46 V
0 45 V
120 0 R
0 46 V
120 0 R
0 46 V
59 0 R
0 46 V
60 0 R
0 46 V
1026 464 CircleF
1086 464 CircleF
1086 464 CircleF
1145 464 CircleF
1145 464 CircleF
1205 464 CircleF
1205 464 CircleF
1265 464 CircleF
1265 464 CircleF
1325 464 CircleF
1325 464 CircleF
1385 464 CircleF
1385 510 CircleF
1444 510 CircleF
1444 555 CircleF
1504 555 CircleF
1504 555 CircleF
1564 555 CircleF
1564 555 CircleF
1624 555 CircleF
1624 555 CircleF
1684 555 CircleF
1684 555 CircleF
1744 555 CircleF
1744 555 CircleF
1803 555 CircleF
1803 555 CircleF
1863 555 CircleF
1863 601 CircleF
1923 601 CircleF
1923 647 CircleF
1983 647 CircleF
1983 647 CircleF
2043 647 CircleF
2043 647 CircleF
2102 647 CircleF
2102 647 CircleF
2162 647 CircleF
2162 647 CircleF
2222 647 CircleF
2222 647 CircleF
2282 647 CircleF
2282 647 CircleF
2342 647 CircleF
2342 693 CircleF
2401 693 CircleF
2401 693 CircleF
2461 693 CircleF
2461 693 CircleF
2521 693 CircleF
2521 693 CircleF
2581 693 CircleF
2581 693 CircleF
2641 693 CircleF
2641 739 CircleF
2700 739 CircleF
2700 739 CircleF
2760 739 CircleF
2760 785 CircleF
2820 785 CircleF
2820 785 CircleF
2880 785 CircleF
2880 785 CircleF
2940 785 CircleF
2940 785 CircleF
3000 785 CircleF
3000 923 CircleF
3059 923 CircleF
3059 923 CircleF
3119 923 CircleF
3119 923 CircleF
3179 923 CircleF
3179 923 CircleF
3239 923 CircleF
3239 923 CircleF
3299 923 CircleF
3299 923 CircleF
3358 923 CircleF
3358 969 CircleF
3418 969 CircleF
3418 969 CircleF
3478 969 CircleF
3478 969 CircleF
3538 969 CircleF
3538 1015 CircleF
3598 1015 CircleF
3598 1106 CircleF
3657 1106 CircleF
3657 1106 CircleF
3717 1106 CircleF
3717 1198 CircleF
3777 1198 CircleF
3777 1198 CircleF
3837 1198 CircleF
3837 1198 CircleF
3897 1198 CircleF
3897 1198 CircleF
3957 1198 CircleF
3957 1290 CircleF
4016 1290 CircleF
4016 1565 CircleF
4076 1565 CircleF
4076 2759 CircleF
4136 2759 CircleF
4136 2805 CircleF
4196 2805 CircleF
4196 3081 CircleF
4256 3081 CircleF
4256 3081 CircleF
4315 3081 CircleF
4315 3081 CircleF
4375 3081 CircleF
4375 3081 CircleF
4435 3081 CircleF
4435 3081 CircleF
4495 3081 CircleF
4495 3081 CircleF
4555 3081 CircleF
4555 3081 CircleF
4614 3081 CircleF
4614 3081 CircleF
4674 3081 CircleF
4674 3126 CircleF
4734 3126 CircleF
4734 3218 CircleF
4794 3218 CircleF
4794 3540 CircleF
4854 3540 CircleF
4854 3677 CircleF
4913 3677 CircleF
4913 3677 CircleF
4973 3677 CircleF
4973 3999 CircleF
5033 3999 CircleF
5033 3999 CircleF
5093 3999 CircleF
5093 3999 CircleF
5153 3999 CircleF
5153 3999 CircleF
5213 3999 CircleF
5213 3999 CircleF
5272 3999 CircleF
5272 3999 CircleF
5332 3999 CircleF
5332 3999 CircleF
5392 3999 CircleF
5392 3999 CircleF
5452 3999 CircleF
5452 3999 CircleF
5512 3999 CircleF
5512 3999 CircleF
5571 3999 CircleF
5571 3999 CircleF
5631 3999 CircleF
5631 3999 CircleF
5691 3999 CircleF
5691 3999 CircleF
5751 3999 CircleF
5751 4045 CircleF
5811 4045 CircleF
5811 4045 CircleF
5870 4045 CircleF
5870 4045 CircleF
5930 4045 CircleF
5930 4091 CircleF
5990 4091 CircleF
5990 4091 CircleF
6050 4091 CircleF
6050 4182 CircleF
6110 4182 CircleF
6110 4366 CircleF
6169 4366 CircleF
6169 4412 CircleF
6229 4412 CircleF
6229 4412 CircleF
6289 4412 CircleF
6289 4458 CircleF
6349 4458 CircleF
6349 4458 CircleF
6409 4458 CircleF
6409 4550 CircleF
6469 4550 CircleF
6469 4550 CircleF
6528 4550 CircleF
6528 4641 CircleF
6588 4641 CircleF
6588 4641 CircleF
6648 4641 CircleF
6648 4687 CircleF
6708 4687 CircleF
6708 4687 CircleF
6768 4687 CircleF
6768 4733 CircleF
6827 4733 CircleF
6827 4779 CircleF
6887 4779 CircleF
966 280 CircleF
1026 280 CircleF
1026 280 CircleF
1026 326 CircleF
1026 326 CircleF
1026 372 CircleF
1026 372 CircleF
1026 418 CircleF
1026 418 CircleF
1026 464 CircleF
1385 464 CircleF
1385 510 CircleF
1444 510 CircleF
1444 555 CircleF
1863 555 CircleF
1863 601 CircleF
1923 601 CircleF
1923 647 CircleF
2342 647 CircleF
2342 693 CircleF
2641 693 CircleF
2641 739 CircleF
2760 739 CircleF
2760 785 CircleF
3000 785 CircleF
3000 831 CircleF
3000 831 CircleF
3000 877 CircleF
3000 877 CircleF
3000 923 CircleF
3358 923 CircleF
3358 969 CircleF
3538 969 CircleF
3538 1015 CircleF
3598 1015 CircleF
3598 1060 CircleF
3598 1060 CircleF
3598 1106 CircleF
3717 1106 CircleF
3717 1152 CircleF
3717 1152 CircleF
3717 1198 CircleF
3957 1198 CircleF
3957 1244 CircleF
3957 1244 CircleF
3957 1290 CircleF
4016 1290 CircleF
4016 1336 CircleF
4016 1336 CircleF
4016 1382 CircleF
4016 1382 CircleF
4016 1428 CircleF
4016 1428 CircleF
4016 1474 CircleF
4016 1474 CircleF
4016 1520 CircleF
4016 1520 CircleF
4016 1565 CircleF
4076 1565 CircleF
4076 1611 CircleF
4076 1611 CircleF
4076 1657 CircleF
4076 1657 CircleF
4076 1703 CircleF
4076 1703 CircleF
4076 1749 CircleF
4076 1749 CircleF
4076 1795 CircleF
4076 1795 CircleF
4076 1841 CircleF
4076 1841 CircleF
4076 1887 CircleF
4076 1887 CircleF
4076 1933 CircleF
4076 1933 CircleF
4076 1979 CircleF
4076 1979 CircleF
4076 2025 CircleF
4076 2025 CircleF
4076 2070 CircleF
4076 2070 CircleF
4076 2116 CircleF
4076 2116 CircleF
4076 2162 CircleF
4076 2162 CircleF
4076 2208 CircleF
4076 2208 CircleF
4076 2254 CircleF
4076 2254 CircleF
4076 2300 CircleF
4076 2300 CircleF
4076 2346 CircleF
4076 2346 CircleF
4076 2392 CircleF
4076 2392 CircleF
4076 2438 CircleF
4076 2438 CircleF
4076 2484 CircleF
4076 2484 CircleF
4076 2530 CircleF
4076 2530 CircleF
4076 2576 CircleF
4076 2576 CircleF
4076 2621 CircleF
4076 2621 CircleF
4076 2667 CircleF
4076 2667 CircleF
4076 2713 CircleF
4076 2713 CircleF
4076 2759 CircleF
4136 2759 CircleF
4136 2805 CircleF
4196 2805 CircleF
4196 2851 CircleF
4196 2851 CircleF
4196 2897 CircleF
4196 2897 CircleF
4196 2943 CircleF
4196 2943 CircleF
4196 2989 CircleF
4196 2989 CircleF
4196 3035 CircleF
4196 3035 CircleF
4196 3081 CircleF
4674 3081 CircleF
4674 3126 CircleF
4734 3126 CircleF
4734 3172 CircleF
4734 3172 CircleF
4734 3218 CircleF
4794 3218 CircleF
4794 3264 CircleF
4794 3264 CircleF
4794 3310 CircleF
4794 3310 CircleF
4794 3356 CircleF
4794 3356 CircleF
4794 3402 CircleF
4794 3402 CircleF
4794 3448 CircleF
4794 3448 CircleF
4794 3494 CircleF
4794 3494 CircleF
4794 3540 CircleF
4854 3540 CircleF
4854 3586 CircleF
4854 3586 CircleF
4854 3631 CircleF
4854 3631 CircleF
4854 3677 CircleF
4973 3677 CircleF
4973 3723 CircleF
4973 3723 CircleF
4973 3769 CircleF
4973 3769 CircleF
4973 3815 CircleF
4973 3815 CircleF
4973 3861 CircleF
4973 3861 CircleF
4973 3907 CircleF
4973 3907 CircleF
4973 3953 CircleF
4973 3953 CircleF
4973 3999 CircleF
5751 3999 CircleF
5751 4045 CircleF
5930 4045 CircleF
5930 4091 CircleF
6050 4091 CircleF
6050 4136 CircleF
6050 4136 CircleF
6050 4182 CircleF
6110 4182 CircleF
6110 4228 CircleF
6110 4228 CircleF
6110 4274 CircleF
6110 4274 CircleF
6110 4320 CircleF
6110 4320 CircleF
6110 4366 CircleF
6169 4366 CircleF
6169 4412 CircleF
6289 4412 CircleF
6289 4458 CircleF
6409 4458 CircleF
6409 4504 CircleF
6409 4504 CircleF
6409 4550 CircleF
6528 4550 CircleF
6528 4596 CircleF
6528 4596 CircleF
6528 4641 CircleF
6648 4641 CircleF
6648 4687 CircleF
6768 4687 CircleF
6768 4733 CircleF
6827 4733 CircleF
6827 4779 CircleF
6887 4779 CircleF
6887 4825 CircleF
% End plot #1
% Begin plot #2
1.500 UP
2.000 UL
LT0
1.00 0.55 0.00 C /Helvetica findfont 140 scalefont setfont
1227 3702 M
60 46 V
4324 3287 M
59 46 V
464 312 R
60 46 V
3746 1831 M
60 46 V
731 1938 R
60 46 V
3054 4166 M
59 46 V
2182 3983 M
60 46 V
4287 1591 M
60 46 V
6250 4319 M
60 46 V
3682 1767 M
60 46 V
1132 1674 M
60 46 V
-21 -152 R
60 46 V
6163 966 M
60 46 V
3836 963 M
59 46 V
1232 1680 M
60 46 V
2959 1150 M
60 46 V
1002 329 R
60 45 V
6356 2616 M
60 46 V
-62 682 R
60 46 V
1089 1803 M
60 46 V
644 2123 R
60 45 V
111 -18 R
60 46 V
2481 522 M
59 46 V
5296 834 M
60 46 V
3576 3863 M
59 46 V
1390 584 R
60 45 V
1884 2445 M
60 46 V
778 2187 R
60 46 V
5843 4399 M
60 46 V
3097 4434 M
60 46 V
1327 1725 M
60 46 V
5402 2786 M
60 45 V
115 -344 R
60 46 V
3816 1494 M
60 46 V
983 273 R
60 46 V
1544 4677 M
60 46 V
4441 730 M
60 46 V
3985 2980 M
60 46 V
5778 1849 M
60 46 V
213 2277 R
60 45 V
1616 3717 M
60 46 V
2282 2284 M
59 46 V
5986 4199 M
60 46 V
-2207 65 R
59 46 V
5335 3583 M
59 46 V
1609 3287 M
60 46 V
4309 722 R
60 46 V
4421 2458 M
60 46 V
6792 4509 M
60 46 V
4105 686 M
60 46 V
1382 3232 M
60 46 V
-137 200 R
60 46 V
4804 151 R
59 46 V
stroke 6228 3721 M
5409 925 M
60 46 V
1840 4748 M
60 46 V
3291 1535 M
60 46 V
5309 1325 M
60 45 V
6089 762 M
60 46 V
4468 4042 M
60 46 V
3047 3684 M
60 46 V
5335 3037 M
60 46 V
2284 635 M
60 46 V
3083 529 R
60 46 V
1427 414 M
60 46 V
3049 3766 M
60 46 V
-201 -61 R
60 46 V
2704 698 M
60 46 V
1499 3928 M
60 46 V
6024 3774 M
60 46 V
1974 820 M
60 46 V
5246 3241 M
60 46 V
5250 1577 M
60 46 V
4448 3069 M
60 46 V
283 138 R
60 46 V
5948 2854 M
60 45 V
4744 4158 M
59 46 V
3538 4485 M
60 46 V
6359 1366 M
60 46 V
4048 4447 M
60 46 V
6237 3141 M
60 46 V
3920 1527 M
60 46 V
6464 4161 M
59 46 V
1649 3927 M
60 46 V
4200 -48 R
60 46 V
20 58 R
60 46 V
6452 1565 M
59 46 V
2576 4212 M
60 45 V
3722 2234 M
60 46 V
3045 3357 M
60 46 V
1857 567 R
60 45 V
3880 1443 M
60 46 V
23 -66 R
60 45 V
1023 298 M
60 46 V
4331 622 M
60 45 V
919 1765 R
60 46 V
1174 433 M
59 46 V
70 874 R
60 46 V
4898 901 M
60 46 V
752 1887 R
60 46 V
-855 655 R
60 46 V
-580 219 R
60 46 V
6612 451 M
59 46 V
4152 3014 M
60 46 V
514 -24 R
60 46 V
3411 3925 M
60 46 V
stroke 3471 3971 M
1472 -62 R
59 46 V
5438 544 M
60 46 V
1264 661 R
59 46 V
4408 3563 M
59 46 V
1674 1062 M
60 46 V
2583 374 R
60 45 V
4136 2695 M
60 46 V
1662 942 M
60 46 V
4754 3305 M
60 45 V
3013 4201 M
60 46 V
1021 1506 M
60 46 V
6067 4300 M
60 46 V
1514 798 M
60 46 V
3824 2905 M
60 45 V
1456 4624 M
60 46 V
5852 4478 M
59 46 V
4673 3095 M
60 46 V
6387 4525 M
60 46 V
2204 4005 M
60 46 V
5020 1042 M
60 46 V
968 2895 M
60 46 V
6461 686 M
60 46 V
4158 4322 M
60 46 V
1092 587 M
59 46 V
5843 3356 M
60 46 V
3011 4721 M
60 46 V
6567 3925 M
60 46 V
3972 1433 M
60 46 V
966 2282 R
60 46 V
5835 1869 M
59 46 V
3342 394 M
60 46 V
2635 3341 M
59 45 V
6644 2679 M
60 46 V
2724 1173 M
60 46 V
2088 4191 M
59 46 V
1858 3991 M
60 46 V
2416 251 R
60 45 V
3961 1551 M
60 46 V
804 662 R
60 46 V
-2283 62 R
60 46 V
1331 2897 M
60 46 V
1161 4687 M
60 46 V
6280 2061 M
60 46 V
5079 2806 M
60 46 V
802 -427 R
59 46 V
3164 3521 M
60 46 V
-577 291 R
60 46 V
1785 3486 M
60 46 V
5534 2984 M
60 45 V
2845 1635 M
60 46 V
526 2980 R
60 46 V
6391 4045 M
59 46 V
stroke 6450 4091 M
6349 502 M
60 46 V
1407 2219 M
60 45 V
4609 4612 M
60 46 V
6237 3666 M
60 46 V
3559 1070 M
60 45 V
-462 731 R
60 46 V
4744 4138 M
59 46 V
-663 372 R
60 46 V
2602 4036 M
59 46 V
2059 3796 M
59 46 V
-13 -494 R
60 45 V
2058 4764 M
59 46 V
2342 2060 M
59 46 V
1953 4614 M
60 46 V
2176 2785 M
59 46 V
1164 160 R
60 45 V
3122 2062 M
60 46 V
1006 434 M
60 46 V
3466 682 R
60 46 V
2823 3070 M
59 46 V
256 711 R
59 46 V
6301 295 M
60 46 V
5204 3963 M
60 46 V
4616 1562 M
60 45 V
2039 475 M
60 46 V
580 2682 R
60 46 V
2343 2497 M
60 45 V
1705 1465 M
60 46 V
6737 1233 M
60 46 V
6063 795 M
60 46 V
2125 1944 M
60 46 V
3328 606 R
60 46 V
2794 4069 M
60 46 V
6372 1683 M
60 46 V
4289 4293 M
60 46 V
3718 1167 M
59 46 V
5261 3977 M
60 46 V
4795 992 M
60 45 V
6281 4435 M
60 45 V
4264 1019 M
60 46 V
1143 627 R
60 46 V
1075 1896 M
59 45 V
6188 3252 M
59 46 V
5925 2453 M
60 46 V
4840 3550 M
60 46 V
3609 2429 M
59 46 V
823 603 R
59 46 V
-451 475 R
60 46 V
5976 895 M
60 46 V
2379 3797 M
60 46 V
4019 1532 M
60 46 V
1712 1988 M
60 46 V
stroke 1772 2034 M
6152 685 M
59 46 V
5456 4199 M
60 46 V
1434 538 M
60 45 V
293 3177 R
59 46 V
2828 2785 M
60 46 V
6529 1939 M
60 46 V
4773 1188 M
59 46 V
2001 641 M
60 46 V
3360 971 R
60 46 V
5221 3627 M
60 46 V
2084 3948 M
60 46 V
4233 3511 M
60 46 V
5837 2925 M
60 46 V
1394 4624 M
60 46 V
1838 2638 M
60 45 V
5932 4552 M
60 46 V
6368 395 M
60 46 V
5268 423 M
60 46 V
109 2026 R
60 46 V
6428 420 M
60 46 V
2940 943 M
60 46 V
160 2294 R
60 46 V
6481 682 M
60 45 V
1860 3237 M
60 46 V
1934 680 M
60 46 V
5435 655 M
59 46 V
3447 409 M
59 46 V
5909 3571 M
60 46 V
285 1161 R
60 46 V
3909 4666 M
60 46 V
5273 619 M
60 46 V
790 1889 R
60 46 V
5017 2476 M
59 45 V
-903 541 R
60 46 V
1244 4640 M
60 46 V
1109 1192 M
60 46 V
4735 3325 M
60 46 V
5712 1818 M
60 46 V
4925 1463 M
60 46 V
1837 536 M
60 46 V
3447 4740 M
60 46 V
5569 1830 M
60 46 V
283 2198 R
60 46 V
4386 599 M
60 46 V
4288 997 M
60 46 V
2192 372 M
60 46 V
4589 3349 M
60 46 V
2108 807 R
59 46 V
5577 609 M
60 46 V
3617 482 M
60 46 V
2548 863 M
59 46 V
4964 2443 M
60 46 V
stroke 5024 2489 M
4791 2337 M
60 46 V
1488 330 R
59 46 V
-989 464 R
60 45 V
1807 447 M
60 46 V
4911 3006 M
60 46 V
6679 4368 M
60 46 V
6207 897 M
60 46 V
5235 2617 M
60 45 V
3338 915 M
59 46 V
2302 660 M
60 46 V
417 1720 R
60 46 V
794 -872 R
60 46 V
6641 4652 M
60 46 V
6545 3777 M
60 46 V
4371 3543 M
60 46 V
4808 1468 M
60 46 V
609 1911 R
60 46 V
1110 3418 M
60 46 V
1119 432 M
60 46 V
689 1362 R
60 45 V
4141 464 R
60 45 V
2711 4692 M
60 46 V
6524 1610 M
60 46 V
-689 417 R
60 45 V
2906 3059 M
60 46 V
6664 4189 M
60 46 V
2496 4189 M
60 46 V
2208 908 M
60 46 V
1868 2542 M
59 46 V
5529 1685 M
60 46 V
4335 3982 M
60 46 V
5949 1637 M
60 46 V
2376 682 M
59 46 V
1415 1302 M
59 46 V
1592 945 R
60 46 V
6033 4720 M
59 46 V
4883 1710 M
59 46 V
3398 2417 M
60 45 V
2996 783 M
60 46 V
5673 2043 M
60 46 V
3483 1653 M
60 46 V
4828 3022 M
60 46 V
5922 1552 M
60 46 V
4759 2070 M
60 46 V
3504 2471 M
60 46 V
5327 322 M
60 46 V
3673 426 M
60 46 V
148 3216 R
60 46 V
5774 2746 M
59 46 V
4991 1085 M
60 46 V
3921 4437 M
59 46 V
4573 1869 M
60 46 V
stroke 4633 1915 M
2955 1600 M
60 46 V
2651 3512 M
60 46 V
-140 889 R
59 46 V
5426 495 M
60 46 V
3322 1823 M
60 46 V
4560 3268 M
60 46 V
3121 2450 M
60 46 V
6141 2258 M
60 46 V
4132 2763 M
60 46 V
3712 508 M
60 46 V
1394 3764 M
60 46 V
4185 1766 M
60 46 V
38 2576 R
60 46 V
4071 3333 M
60 46 V
3253 915 M
60 46 V
-702 8 R
60 46 V
1379 3505 M
60 46 V
5101 398 M
60 46 V
2542 3955 M
60 46 V
3443 155 R
60 46 V
1727 538 M
60 46 V
4606 3882 M
60 46 V
2539 1990 M
60 45 V
1120 1335 M
60 46 V
5350 929 R
60 46 V
1639 4561 M
60 46 V
684 108 R
60 46 V
1724 4144 M
60 46 V
5593 2586 M
60 46 V
157 -311 R
60 46 V
6582 1231 M
60 46 V
3085 3217 M
59 46 V
5584 4565 M
60 46 V
5973 1220 M
59 46 V
4072 3720 M
59 46 V
5118 411 M
60 46 V
4974 4733 M
60 46 V
1988 3828 M
60 46 V
5936 1352 M
60 46 V
2157 4690 M
59 46 V
6454 2490 M
60 46 V
4295 3116 M
59 46 V
6332 1931 M
59 46 V
2571 2555 M
60 46 V
2681 475 M
60 46 V
1101 1621 M
60 46 V
3753 3247 M
60 46 V
1818 906 R
60 46 V
0 -2168 R
60 46 V
1263 4339 M
60 46 V
1255 893 M
60 46 V
6572 4735 M
60 46 V
stroke 6632 4781 M
3850 4291 M
60 46 V
-1198 13 R
60 46 V
3511 969 M
60 46 V
2059 4568 M
60 46 V
6708 4175 M
60 46 V
4569 3183 M
60 46 V
1273 2706 M
60 46 V
3093 3820 M
60 46 V
6530 2169 M
60 46 V
2601 668 M
60 46 V
-360 666 R
60 46 V
3792 959 M
60 46 V
1665 820 M
60 45 V
1596 676 R
60 46 V
438 1661 R
60 45 V
3420 1813 M
60 46 V
2632 578 M
59 46 V
1777 1992 M
60 46 V
5827 4760 M
60 45 V
3810 335 M
60 46 V
2386 3806 M
60 46 V
2790 246 R
60 46 V
5135 2083 M
60 46 V
3619 3880 M
60 46 V
5457 1647 M
60 46 V
2047 3266 M
60 46 V
2495 906 M
60 46 V
-440 527 R
59 46 V
2258 367 R
59 46 V
270 2315 R
60 46 V
4399 731 M
60 46 V
5533 3198 M
60 46 V
5800 1570 M
60 46 V
5475 2926 M
60 46 V
704 -819 R
60 46 V
1424 2633 M
60 46 V
234 693 R
60 45 V
4772 1020 M
59 45 V
722 1858 R
60 46 V
1787 4546 M
60 46 V
1190 1017 M
60 46 V
4763 3558 M
60 46 V
1131 4599 M
60 45 V
385 -20 R
60 46 V
631 -505 R
60 46 V
1830 2054 M
60 46 V
1487 3584 M
60 46 V
4759 3470 M
60 46 V
984 860 M
60 46 V
2103 4636 M
60 46 V
4191 1871 M
59 45 V
4134 3902 M
60 46 V
stroke 4194 3948 M
6184 1312 M
60 46 V
5276 4478 M
60 46 V
4513 2281 M
60 46 V
-541 63 R
60 46 V
1422 460 R
59 46 V
1558 1507 M
60 46 V
2646 2790 M
60 46 V
970 1146 R
60 45 V
2365 4604 M
60 46 V
2618 572 M
59 46 V
495 2740 R
60 46 V
2492 1976 M
59 46 V
3711 817 R
60 45 V
4512 3584 M
59 46 V
5934 3105 M
60 46 V
251 1429 R
60 46 V
3428 1339 M
59 45 V
1919 3068 M
59 46 V
6062 1089 M
60 46 V
108 552 R
60 46 V
6149 4385 M
59 46 V
4873 602 M
59 46 V
1367 3657 M
60 46 V
4300 2743 M
59 46 V
1049 1167 M
60 46 V
6775 4122 M
60 46 V
2028 2199 M
60 46 V
1100 4520 M
60 46 V
1536 2422 M
60 46 V
356 212 R
60 46 V
-207 929 R
60 46 V
3745 1302 M
59 46 V
2335 1477 M
59 46 V
1920 1009 M
60 46 V
5457 3753 M
60 46 V
1189 2463 M
60 46 V
4653 1813 M
60 46 V
780 983 R
60 46 V
4696 1305 M
60 46 V
5924 3629 M
60 46 V
1622 771 M
60 46 V
6546 4017 M
60 46 V
4188 3813 M
60 46 V
2667 1536 M
59 46 V
4107 1460 M
60 46 V
-2056 50 R
60 46 V
5071 653 M
60 46 V
4381 3376 M
60 46 V
4030 2534 M
60 46 V
5443 1004 M
60 46 V
2427 3100 M
60 46 V
1376 3066 M
60 45 V
stroke 1436 3111 M
3375 158 R
60 46 V
1506 3897 M
60 46 V
3967 1287 M
60 46 V
2552 2011 M
60 46 V
356 2176 R
60 46 V
6018 1905 M
60 46 V
474 -841 R
59 46 V
2121 1264 M
60 46 V
3427 2510 M
59 46 V
1068 3675 M
60 46 V
4975 3305 M
60 45 V
2898 2890 M
60 46 V
2019 53 R
60 46 V
1504 671 M
60 46 V
6619 2466 M
60 46 V
5504 2842 M
60 46 V
1610 3479 M
60 45 V
2604 831 M
60 46 V
589 1871 R
60 46 V
1573 246 R
60 46 V
3630 4721 M
60 46 V
3219 3354 M
60 46 V
1435 1428 M
60 46 V
716 3180 R
60 45 V
4604 4364 M
60 46 V
3586 1984 M
60 46 V
1063 3900 M
60 46 V
1774 -50 R
60 46 V
4800 3043 M
59 46 V
6578 4372 M
60 46 V
2098 2117 M
60 46 V
3990 1043 M
60 46 V
1635 761 R
60 46 V
2851 1027 M
59 46 V
6441 431 M
59 46 V
4045 1942 M
59 46 V
-73 -426 R
60 46 V
1556 2681 M
59 46 V
3664 3840 M
60 45 V
6041 1484 M
60 46 V
4699 1912 M
60 46 V
282 1052 R
59 46 V
4794 2484 M
60 46 V
-518 468 R
60 46 V
191 -220 R
60 46 V
6040 1978 M
60 46 V
4326 4310 M
60 46 V
4615 842 M
60 46 V
1500 2852 M
60 46 V
2953 4561 M
60 46 V
4583 3057 M
60 46 V
258 -534 R
60 46 V
stroke 4961 2615 M
4347 1461 M
60 46 V
5403 520 M
60 46 V
2482 2708 M
60 46 V
3525 1297 M
60 46 V
1372 3829 M
59 46 V
2465 555 R
60 46 V
1882 4400 M
60 46 V
4712 1697 M
59 46 V
3245 3886 M
60 46 V
3142 324 M
60 46 V
1486 523 M
60 45 V
566 1315 R
60 45 V
866 1429 R
60 46 V
2037 1688 M
60 46 V
767 493 R
60 46 V
4532 1726 M
60 46 V
2196 1159 M
60 46 V
110 800 R
60 46 V
5252 4299 M
60 46 V
4073 2725 M
60 46 V
1414 4355 M
60 45 V
5833 1464 M
60 46 V
2785 1955 M
60 46 V
4955 3256 M
60 46 V
3835 2526 M
60 46 V
1736 2190 M
60 46 V
1528 137 R
60 46 V
3560 1154 M
60 46 V
2090 215 R
60 46 V
3096 1323 M
59 46 V
751 -175 R
60 46 V
5599 3435 M
60 46 V
1484 4371 M
59 46 V
4989 4126 M
60 46 V
1736 2675 M
59 46 V
1861 805 R
60 46 V
2707 295 R
60 46 V
2696 4325 M
60 45 V
5713 1654 M
59 46 V
2857 4050 M
60 46 V
35 -1288 R
60 46 V
2798 559 M
60 46 V
5848 3425 M
60 46 V
6119 564 M
60 46 V
3759 3869 M
60 45 V
3300 1191 M
59 46 V
2258 1902 M
60 46 V
1106 1261 M
59 46 V
409 527 R
60 46 V
6120 334 M
60 46 V
4453 3439 M
60 46 V
6580 1599 M
60 46 V
stroke 6640 1645 M
1344 4668 M
60 46 V
1329 3702 M
60 46 V
4160 3136 M
60 46 V
2005 4663 M
60 46 V
1885 1900 M
60 46 V
523 2683 R
60 45 V
1899 3617 M
60 46 V
6347 855 M
60 46 V
-7 2376 R
60 46 V
4708 3012 M
60 46 V
2631 2803 M
60 46 V
986 812 M
59 46 V
245 2836 R
60 46 V
4602 1727 M
60 46 V
1610 3024 M
60 46 V
3687 4127 M
60 46 V
5070 2903 M
60 46 V
1102 3457 M
60 46 V
4003 1736 M
60 46 V
2904 1609 M
60 46 V
2259 4181 M
60 46 V
5948 1915 M
59 46 V
1584 1677 M
60 46 V
4014 950 M
60 46 V
1660 3879 M
60 46 V
6544 3395 M
60 46 V
3082 3785 M
60 46 V
-385 644 R
60 46 V
3609 2668 M
60 46 V
2757 298 R
60 46 V
1671 1625 M
60 46 V
1263 44 R
60 46 V
2377 4186 M
60 46 V
6786 1033 M
60 45 V
2350 2906 M
60 46 V
3270 600 R
59 46 V
4687 3513 M
60 46 V
6386 1706 M
60 46 V
2320 2231 M
59 46 V
893 194 R
60 46 V
5025 491 M
60 46 V
4512 3527 M
60 46 V
4192 3455 M
60 46 V
6024 1838 M
60 46 V
5699 3120 M
60 46 V
326 648 R
60 46 V
5480 3276 M
60 46 V
1886 3004 M
59 45 V
4581 727 R
59 46 V
1949 2708 M
60 45 V
1836 1784 M
60 46 V
922 2491 R
60 46 V
stroke 2878 4367 M
2555 580 M
60 46 V
6665 3565 M
60 46 V
1464 1385 M
60 46 V
6690 3723 M
59 46 V
1456 4721 M
60 46 V
6111 2097 M
60 46 V
3936 565 M
60 46 V
2445 3819 M
59 46 V
6111 3366 M
60 46 V
3569 3138 M
59 46 V
4421 485 M
60 46 V
3056 3179 M
59 46 V
3997 1498 M
60 45 V
-1518 66 R
60 46 V
223 2877 R
60 46 V
5899 2811 M
60 46 V
6595 1318 M
60 46 V
5868 637 M
60 46 V
3922 4473 M
60 46 V
1650 4054 M
60 46 V
1388 2060 M
60 46 V
2647 1478 M
60 46 V
6213 3050 M
60 45 V
513 -738 R
59 46 V
4050 3414 M
59 46 V
6774 1934 M
60 45 V
5870 649 M
60 46 V
1693 2954 M
60 46 V
3604 817 M
60 46 V
5506 4732 M
60 46 V
4494 4055 M
60 46 V
5515 2759 M
60 46 V
3701 1107 M
59 46 V
2332 4670 M
60 46 V
1003 1716 M
60 46 V
5996 3368 M
60 45 V
5759 4453 M
60 46 V
3987 1501 M
60 46 V
2151 2216 M
60 46 V
6054 1417 M
60 46 V
4793 3517 M
60 46 V
1327 4508 M
60 46 V
5590 973 M
60 46 V
2766 1226 M
60 46 V
403 2331 R
60 46 V
6286 2743 M
60 46 V
4360 2699 M
60 46 V
6321 1755 M
60 46 V
-834 104 R
60 46 V
971 2836 M
60 46 V
4198 263 R
60 46 V
5783 1427 M
60 46 V
stroke 5843 1473 M
1572 391 M
60 46 V
5395 1685 M
60 46 V
-246 144 R
59 46 V
4602 3292 M
60 46 V
3257 3987 M
60 46 V
2035 1370 M
60 46 V
4461 2429 M
60 46 V
5725 4014 M
60 46 V
433 33 R
60 46 V
5375 1199 M
60 45 V
3309 3640 M
60 46 V
1578 2992 M
60 46 V
5082 4563 M
60 46 V
3815 2816 M
60 46 V
4673 1279 M
60 46 V
-1455 63 R
59 46 V
-92 2290 R
60 45 V
4103 1889 M
60 46 V
4873 894 M
60 46 V
3223 4613 M
60 46 V
2840 3228 M
60 46 V
6633 954 M
60 46 V
1557 2718 M
59 46 V
1227 3702 CircleF
1287 3748 CircleF
4324 3287 CircleF
4383 3333 CircleF
4847 3645 CircleF
4907 3691 CircleF
3746 1831 CircleF
3806 1877 CircleF
4537 3815 CircleF
4597 3861 CircleF
3054 4166 CircleF
3113 4212 CircleF
2182 3983 CircleF
2242 4029 CircleF
4287 1591 CircleF
4347 1637 CircleF
6250 4319 CircleF
6310 4365 CircleF
3682 1767 CircleF
3742 1813 CircleF
1132 1674 CircleF
1192 1720 CircleF
1171 1568 CircleF
1231 1614 CircleF
6163 966 CircleF
6223 1012 CircleF
3836 963 CircleF
3895 1009 CircleF
1232 1680 CircleF
1292 1726 CircleF
2959 1150 CircleF
3019 1196 CircleF
4021 1525 CircleF
4081 1570 CircleF
6356 2616 CircleF
6416 2662 CircleF
6354 3344 CircleF
6414 3390 CircleF
1089 1803 CircleF
1149 1849 CircleF
1793 3972 CircleF
1853 4017 CircleF
1964 3999 CircleF
2024 4045 CircleF
2481 522 CircleF
2540 568 CircleF
5296 834 CircleF
5356 880 CircleF
3576 3863 CircleF
3635 3909 CircleF
5025 4493 CircleF
5085 4538 CircleF
1884 2445 CircleF
1944 2491 CircleF
2722 4678 CircleF
2782 4724 CircleF
5843 4399 CircleF
5903 4445 CircleF
3097 4434 CircleF
3157 4480 CircleF
1327 1725 CircleF
1387 1771 CircleF
5402 2786 CircleF
5462 2831 CircleF
5577 2487 CircleF
5637 2533 CircleF
3816 1494 CircleF
3876 1540 CircleF
4859 1813 CircleF
4919 1859 CircleF
1544 4677 CircleF
1604 4723 CircleF
4441 730 CircleF
4501 776 CircleF
3985 2980 CircleF
4045 3026 CircleF
5778 1849 CircleF
5838 1895 CircleF
6051 4172 CircleF
6111 4217 CircleF
1616 3717 CircleF
1676 3763 CircleF
2282 2284 CircleF
2341 2330 CircleF
5986 4199 CircleF
6046 4245 CircleF
3839 4310 CircleF
3898 4356 CircleF
5335 3583 CircleF
5394 3629 CircleF
1609 3287 CircleF
1669 3333 CircleF
5978 4055 CircleF
6038 4101 CircleF
4421 2458 CircleF
4481 2504 CircleF
6792 4509 CircleF
6852 4555 CircleF
4105 686 CircleF
4165 732 CircleF
1382 3232 CircleF
1442 3278 CircleF
1305 3478 CircleF
1365 3524 CircleF
6169 3675 CircleF
6228 3721 CircleF
5409 925 CircleF
5469 971 CircleF
1840 4748 CircleF
1900 4794 CircleF
3291 1535 CircleF
3351 1581 CircleF
5309 1325 CircleF
5369 1370 CircleF
6089 762 CircleF
6149 808 CircleF
4468 4042 CircleF
4528 4088 CircleF
3047 3684 CircleF
3107 3730 CircleF
5335 3037 CircleF
5395 3083 CircleF
2284 635 CircleF
2344 681 CircleF
5427 1210 CircleF
5487 1256 CircleF
1427 414 CircleF
1487 460 CircleF
3049 3766 CircleF
3109 3812 CircleF
2908 3751 CircleF
2968 3797 CircleF
2704 698 CircleF
2764 744 CircleF
1499 3928 CircleF
1559 3974 CircleF
6024 3774 CircleF
6084 3820 CircleF
1974 820 CircleF
2034 866 CircleF
5246 3241 CircleF
5306 3287 CircleF
5250 1577 CircleF
5310 1623 CircleF
4448 3069 CircleF
4508 3115 CircleF
4791 3253 CircleF
4851 3299 CircleF
5948 2854 CircleF
6008 2899 CircleF
4744 4158 CircleF
4803 4204 CircleF
3538 4485 CircleF
3598 4531 CircleF
6359 1366 CircleF
6419 1412 CircleF
4048 4447 CircleF
4108 4493 CircleF
6237 3141 CircleF
6297 3187 CircleF
3920 1527 CircleF
3980 1573 CircleF
6464 4161 CircleF
6523 4207 CircleF
1649 3927 CircleF
1709 3973 CircleF
5909 3925 CircleF
5969 3971 CircleF
5989 4029 CircleF
6049 4075 CircleF
6452 1565 CircleF
6511 1611 CircleF
2576 4212 CircleF
2636 4257 CircleF
3722 2234 CircleF
3782 2280 CircleF
3045 3357 CircleF
3105 3403 CircleF
4962 3970 CircleF
5022 4015 CircleF
3880 1443 CircleF
3940 1489 CircleF
3963 1423 CircleF
4023 1468 CircleF
1023 298 CircleF
1083 344 CircleF
4331 622 CircleF
4391 667 CircleF
5310 2432 CircleF
5370 2478 CircleF
1174 433 CircleF
1233 479 CircleF
1303 1353 CircleF
1363 1399 CircleF
4898 901 CircleF
4958 947 CircleF
5710 2834 CircleF
5770 2880 CircleF
4915 3535 CircleF
4975 3581 CircleF
4395 3800 CircleF
4455 3846 CircleF
6612 451 CircleF
6671 497 CircleF
4152 3014 CircleF
4212 3060 CircleF
4726 3036 CircleF
4786 3082 CircleF
3411 3925 CircleF
3471 3971 CircleF
4943 3909 CircleF
5002 3955 CircleF
5438 544 CircleF
5498 590 CircleF
6762 1251 CircleF
6821 1297 CircleF
4408 3563 CircleF
4467 3609 CircleF
1674 1062 CircleF
1734 1108 CircleF
4317 1482 CircleF
4377 1527 CircleF
4136 2695 CircleF
4196 2741 CircleF
1662 942 CircleF
1722 988 CircleF
4754 3305 CircleF
4814 3350 CircleF
3013 4201 CircleF
3073 4247 CircleF
1021 1506 CircleF
1081 1552 CircleF
6067 4300 CircleF
6127 4346 CircleF
1514 798 CircleF
1574 844 CircleF
3824 2905 CircleF
3884 2950 CircleF
1456 4624 CircleF
1516 4670 CircleF
5852 4478 CircleF
5911 4524 CircleF
4673 3095 CircleF
4733 3141 CircleF
6387 4525 CircleF
6447 4571 CircleF
2204 4005 CircleF
2264 4051 CircleF
5020 1042 CircleF
5080 1088 CircleF
968 2895 CircleF
1028 2941 CircleF
6461 686 CircleF
6521 732 CircleF
4158 4322 CircleF
4218 4368 CircleF
1092 587 CircleF
1151 633 CircleF
5843 3356 CircleF
5903 3402 CircleF
3011 4721 CircleF
3071 4767 CircleF
6567 3925 CircleF
6627 3971 CircleF
3972 1433 CircleF
4032 1479 CircleF
4998 3761 CircleF
5058 3807 CircleF
5835 1869 CircleF
5894 1915 CircleF
3342 394 CircleF
3402 440 CircleF
2635 3341 CircleF
2694 3386 CircleF
6644 2679 CircleF
6704 2725 CircleF
2724 1173 CircleF
2784 1219 CircleF
2088 4191 CircleF
2147 4237 CircleF
1858 3991 CircleF
1918 4037 CircleF
4334 4288 CircleF
4394 4333 CircleF
3961 1551 CircleF
4021 1597 CircleF
4825 2259 CircleF
4885 2305 CircleF
2602 2367 CircleF
2662 2413 CircleF
1331 2897 CircleF
1391 2943 CircleF
1161 4687 CircleF
1221 4733 CircleF
6280 2061 CircleF
6340 2107 CircleF
5079 2806 CircleF
5139 2852 CircleF
5941 2425 CircleF
6000 2471 CircleF
3164 3521 CircleF
3224 3567 CircleF
2647 3858 CircleF
2707 3904 CircleF
1785 3486 CircleF
1845 3532 CircleF
5534 2984 CircleF
5594 3029 CircleF
2845 1635 CircleF
2905 1681 CircleF
3431 4661 CircleF
3491 4707 CircleF
6391 4045 CircleF
6450 4091 CircleF
6349 502 CircleF
6409 548 CircleF
1407 2219 CircleF
1467 2264 CircleF
4609 4612 CircleF
4669 4658 CircleF
6237 3666 CircleF
6297 3712 CircleF
3559 1070 CircleF
3619 1115 CircleF
3157 1846 CircleF
3217 1892 CircleF
4744 4138 CircleF
4803 4184 CircleF
4140 4556 CircleF
4200 4602 CircleF
2602 4036 CircleF
2661 4082 CircleF
2059 3796 CircleF
2118 3842 CircleF
2105 3348 CircleF
2165 3393 CircleF
2058 4764 CircleF
2117 4810 CircleF
2342 2060 CircleF
2401 2106 CircleF
1953 4614 CircleF
2013 4660 CircleF
2176 2785 CircleF
2235 2831 CircleF
3399 2991 CircleF
3459 3036 CircleF
3122 2062 CircleF
3182 2108 CircleF
1006 434 CircleF
1066 480 CircleF
4532 1162 CircleF
4592 1208 CircleF
2823 3070 CircleF
2882 3116 CircleF
3138 3827 CircleF
3197 3873 CircleF
6301 295 CircleF
6361 341 CircleF
5204 3963 CircleF
5264 4009 CircleF
4616 1562 CircleF
4676 1607 CircleF
2039 475 CircleF
2099 521 CircleF
2679 3203 CircleF
2739 3249 CircleF
2343 2497 CircleF
2403 2542 CircleF
1705 1465 CircleF
1765 1511 CircleF
6737 1233 CircleF
6797 1279 CircleF
6063 795 CircleF
6123 841 CircleF
2125 1944 CircleF
2185 1990 CircleF
5513 2596 CircleF
5573 2642 CircleF
2794 4069 CircleF
2854 4115 CircleF
6372 1683 CircleF
6432 1729 CircleF
4289 4293 CircleF
4349 4339 CircleF
3718 1167 CircleF
3777 1213 CircleF
5261 3977 CircleF
5321 4023 CircleF
4795 992 CircleF
4855 1037 CircleF
6281 4435 CircleF
6341 4480 CircleF
4264 1019 CircleF
4324 1065 CircleF
5467 1692 CircleF
5527 1738 CircleF
1075 1896 CircleF
1134 1941 CircleF
6188 3252 CircleF
6247 3298 CircleF
5925 2453 CircleF
5985 2499 CircleF
4840 3550 CircleF
4900 3596 CircleF
3609 2429 CircleF
3668 2475 CircleF
4491 3078 CircleF
4550 3124 CircleF
4099 3599 CircleF
4159 3645 CircleF
5976 895 CircleF
6036 941 CircleF
2379 3797 CircleF
2439 3843 CircleF
4019 1532 CircleF
4079 1578 CircleF
1712 1988 CircleF
1772 2034 CircleF
6152 685 CircleF
6211 731 CircleF
5456 4199 CircleF
5516 4245 CircleF
1434 538 CircleF
1494 583 CircleF
1787 3760 CircleF
1846 3806 CircleF
2828 2785 CircleF
2888 2831 CircleF
6529 1939 CircleF
6589 1985 CircleF
4773 1188 CircleF
4832 1234 CircleF
2001 641 CircleF
2061 687 CircleF
5421 1658 CircleF
5481 1704 CircleF
5221 3627 CircleF
5281 3673 CircleF
2084 3948 CircleF
2144 3994 CircleF
4233 3511 CircleF
4293 3557 CircleF
5837 2925 CircleF
5897 2971 CircleF
1394 4624 CircleF
1454 4670 CircleF
1838 2638 CircleF
1898 2683 CircleF
5932 4552 CircleF
5992 4598 CircleF
6368 395 CircleF
6428 441 CircleF
5268 423 CircleF
5328 469 CircleF
5437 2495 CircleF
5497 2541 CircleF
6428 420 CircleF
6488 466 CircleF
2940 943 CircleF
3000 989 CircleF
3160 3283 CircleF
3220 3329 CircleF
6481 682 CircleF
6541 727 CircleF
1860 3237 CircleF
1920 3283 CircleF
1934 680 CircleF
1994 726 CircleF
5435 655 CircleF
5494 701 CircleF
3447 409 CircleF
3506 455 CircleF
5909 3571 CircleF
5969 3617 CircleF
6254 4778 CircleF
6314 4824 CircleF
3909 4666 CircleF
3969 4712 CircleF
5273 619 CircleF
5333 665 CircleF
6123 2554 CircleF
6183 2600 CircleF
5017 2476 CircleF
5076 2521 CircleF
4173 3062 CircleF
4233 3108 CircleF
1244 4640 CircleF
1304 4686 CircleF
1109 1192 CircleF
1169 1238 CircleF
4735 3325 CircleF
4795 3371 CircleF
5712 1818 CircleF
5772 1864 CircleF
4925 1463 CircleF
4985 1509 CircleF
1837 536 CircleF
1897 582 CircleF
3447 4740 CircleF
3507 4786 CircleF
5569 1830 CircleF
5629 1876 CircleF
5912 4074 CircleF
5972 4120 CircleF
4386 599 CircleF
4446 645 CircleF
4288 997 CircleF
4348 1043 CircleF
2192 372 CircleF
2252 418 CircleF
4589 3349 CircleF
4649 3395 CircleF
6757 4202 CircleF
6816 4248 CircleF
5577 609 CircleF
5637 655 CircleF
3617 482 CircleF
3677 528 CircleF
2548 863 CircleF
2607 909 CircleF
4964 2443 CircleF
5024 2489 CircleF
4791 2337 CircleF
4851 2383 CircleF
6339 2713 CircleF
6398 2759 CircleF
5409 3223 CircleF
5469 3268 CircleF
1807 447 CircleF
1867 493 CircleF
4911 3006 CircleF
4971 3052 CircleF
6679 4368 CircleF
6739 4414 CircleF
6207 897 CircleF
6267 943 CircleF
5235 2617 CircleF
5295 2662 CircleF
3338 915 CircleF
3397 961 CircleF
2302 660 CircleF
2362 706 CircleF
2779 2426 CircleF
2839 2472 CircleF
3633 1600 CircleF
3693 1646 CircleF
6641 4652 CircleF
6701 4698 CircleF
6545 3777 CircleF
6605 3823 CircleF
4371 3543 CircleF
4431 3589 CircleF
4808 1468 CircleF
4868 1514 CircleF
5477 3425 CircleF
5537 3471 CircleF
1110 3418 CircleF
1170 3464 CircleF
1119 432 CircleF
1179 478 CircleF
1868 1840 CircleF
1928 1885 CircleF
6069 2349 CircleF
6129 2394 CircleF
2711 4692 CircleF
2771 4738 CircleF
6524 1610 CircleF
6584 1656 CircleF
5895 2073 CircleF
5955 2118 CircleF
2906 3059 CircleF
2966 3105 CircleF
6664 4189 CircleF
6724 4235 CircleF
2496 4189 CircleF
2556 4235 CircleF
2208 908 CircleF
2268 954 CircleF
1868 2542 CircleF
1927 2588 CircleF
5529 1685 CircleF
5589 1731 CircleF
4335 3982 CircleF
4395 4028 CircleF
5949 1637 CircleF
6009 1683 CircleF
2376 682 CircleF
2435 728 CircleF
1415 1302 CircleF
1474 1348 CircleF
3066 2293 CircleF
3126 2339 CircleF
6033 4720 CircleF
6092 4766 CircleF
4883 1710 CircleF
4942 1756 CircleF
3398 2417 CircleF
3458 2462 CircleF
2996 783 CircleF
3056 829 CircleF
5673 2043 CircleF
5733 2089 CircleF
3483 1653 CircleF
3543 1699 CircleF
4828 3022 CircleF
4888 3068 CircleF
5922 1552 CircleF
5982 1598 CircleF
4759 2070 CircleF
4819 2116 CircleF
3504 2471 CircleF
3564 2517 CircleF
5327 322 CircleF
5387 368 CircleF
3673 426 CircleF
3733 472 CircleF
3881 3688 CircleF
3941 3734 CircleF
5774 2746 CircleF
5833 2792 CircleF
4991 1085 CircleF
5051 1131 CircleF
3921 4437 CircleF
3980 4483 CircleF
4573 1869 CircleF
4633 1915 CircleF
2955 1600 CircleF
3015 1646 CircleF
2651 3512 CircleF
2711 3558 CircleF
2571 4447 CircleF
2630 4493 CircleF
5426 495 CircleF
5486 541 CircleF
3322 1823 CircleF
3382 1869 CircleF
4560 3268 CircleF
4620 3314 CircleF
3121 2450 CircleF
3181 2496 CircleF
6141 2258 CircleF
6201 2304 CircleF
4132 2763 CircleF
4192 2809 CircleF
3712 508 CircleF
3772 554 CircleF
1394 3764 CircleF
1454 3810 CircleF
4185 1766 CircleF
4245 1812 CircleF
4283 4388 CircleF
4343 4434 CircleF
4071 3333 CircleF
4131 3379 CircleF
3253 915 CircleF
3313 961 CircleF
2611 969 CircleF
2671 1015 CircleF
1379 3505 CircleF
1439 3551 CircleF
5101 398 CircleF
5161 444 CircleF
2542 3955 CircleF
2602 4001 CircleF
6045 4156 CircleF
6105 4202 CircleF
1727 538 CircleF
1787 584 CircleF
4606 3882 CircleF
4666 3928 CircleF
2539 1990 CircleF
2599 2035 CircleF
1120 1335 CircleF
1180 1381 CircleF
6530 2310 CircleF
6590 2356 CircleF
1639 4561 CircleF
1699 4607 CircleF
2383 4715 CircleF
2443 4761 CircleF
1724 4144 CircleF
1784 4190 CircleF
5593 2586 CircleF
5653 2632 CircleF
5810 2321 CircleF
5870 2367 CircleF
6582 1231 CircleF
6642 1277 CircleF
3085 3217 CircleF
3144 3263 CircleF
5584 4565 CircleF
5644 4611 CircleF
5973 1220 CircleF
6032 1266 CircleF
4072 3720 CircleF
4131 3766 CircleF
5118 411 CircleF
5178 457 CircleF
4974 4733 CircleF
5034 4779 CircleF
1988 3828 CircleF
2048 3874 CircleF
5936 1352 CircleF
5996 1398 CircleF
2157 4690 CircleF
2216 4736 CircleF
6454 2490 CircleF
6514 2536 CircleF
4295 3116 CircleF
4354 3162 CircleF
6332 1931 CircleF
6391 1977 CircleF
2571 2555 CircleF
2631 2601 CircleF
2681 475 CircleF
2741 521 CircleF
1101 1621 CircleF
1161 1667 CircleF
3753 3247 CircleF
3813 3293 CircleF
5631 4199 CircleF
5691 4245 CircleF
5691 2077 CircleF
5751 2123 CircleF
1263 4339 CircleF
1323 4385 CircleF
1255 893 CircleF
1315 939 CircleF
6572 4735 CircleF
6632 4781 CircleF
3850 4291 CircleF
3910 4337 CircleF
2712 4350 CircleF
2772 4396 CircleF
3511 969 CircleF
3571 1015 CircleF
2059 4568 CircleF
2119 4614 CircleF
6708 4175 CircleF
6768 4221 CircleF
4569 3183 CircleF
4629 3229 CircleF
1273 2706 CircleF
1333 2752 CircleF
3093 3820 CircleF
3153 3866 CircleF
6530 2169 CircleF
6590 2215 CircleF
2601 668 CircleF
2661 714 CircleF
2301 1380 CircleF
2361 1426 CircleF
3792 959 CircleF
3852 1005 CircleF
1665 820 CircleF
1725 865 CircleF
3321 1541 CircleF
3381 1587 CircleF
3819 3248 CircleF
3879 3293 CircleF
3420 1813 CircleF
3480 1859 CircleF
2632 578 CircleF
2691 624 CircleF
1777 1992 CircleF
1837 2038 CircleF
5827 4760 CircleF
5887 4805 CircleF
3810 335 CircleF
3870 381 CircleF
2386 3806 CircleF
2446 3852 CircleF
5236 4098 CircleF
5296 4144 CircleF
5135 2083 CircleF
5195 2129 CircleF
3619 3880 CircleF
3679 3926 CircleF
5457 1647 CircleF
5517 1693 CircleF
2047 3266 CircleF
2107 3312 CircleF
2495 906 CircleF
2555 952 CircleF
2115 1479 CircleF
2174 1525 CircleF
4432 1892 CircleF
4491 1938 CircleF
4761 4253 CircleF
4821 4299 CircleF
4399 731 CircleF
4459 777 CircleF
5533 3198 CircleF
5593 3244 CircleF
5800 1570 CircleF
5860 1616 CircleF
5475 2926 CircleF
5535 2972 CircleF
6239 2153 CircleF
6299 2199 CircleF
1424 2633 CircleF
1484 2679 CircleF
1718 3372 CircleF
1778 3417 CircleF
4772 1020 CircleF
4831 1065 CircleF
5553 2923 CircleF
5613 2969 CircleF
1787 4546 CircleF
1847 4592 CircleF
1190 1017 CircleF
1250 1063 CircleF
4763 3558 CircleF
4823 3604 CircleF
1131 4599 CircleF
1191 4644 CircleF
1576 4624 CircleF
1636 4670 CircleF
2267 4165 CircleF
2327 4211 CircleF
1830 2054 CircleF
1890 2100 CircleF
1487 3584 CircleF
1547 3630 CircleF
4759 3470 CircleF
4819 3516 CircleF
984 860 CircleF
1044 906 CircleF
2103 4636 CircleF
2163 4682 CircleF
4191 1871 CircleF
4250 1916 CircleF
4134 3902 CircleF
4194 3948 CircleF
6184 1312 CircleF
6244 1358 CircleF
5276 4478 CircleF
5336 4524 CircleF
4513 2281 CircleF
4573 2327 CircleF
4032 2390 CircleF
4092 2436 CircleF
5514 2896 CircleF
5573 2942 CircleF
1558 1507 CircleF
1618 1553 CircleF
2646 2790 CircleF
2706 2836 CircleF
3676 3982 CircleF
3736 4027 CircleF
2365 4604 CircleF
2425 4650 CircleF
2618 572 CircleF
2677 618 CircleF
3172 3358 CircleF
3232 3404 CircleF
2492 1976 CircleF
2551 2022 CircleF
6262 2839 CircleF
6322 2884 CircleF
4512 3584 CircleF
4571 3630 CircleF
5934 3105 CircleF
5994 3151 CircleF
6245 4580 CircleF
6305 4626 CircleF
3428 1339 CircleF
3487 1384 CircleF
1919 3068 CircleF
1978 3114 CircleF
6062 1089 CircleF
6122 1135 CircleF
6230 1687 CircleF
6290 1733 CircleF
6149 4385 CircleF
6208 4431 CircleF
4873 602 CircleF
4932 648 CircleF
1367 3657 CircleF
1427 3703 CircleF
4300 2743 CircleF
4359 2789 CircleF
1049 1167 CircleF
1109 1213 CircleF
6775 4122 CircleF
6835 4168 CircleF
2028 2199 CircleF
2088 2245 CircleF
1100 4520 CircleF
1160 4566 CircleF
1536 2422 CircleF
1596 2468 CircleF
1952 2680 CircleF
2012 2726 CircleF
1805 3655 CircleF
1865 3701 CircleF
3745 1302 CircleF
3804 1348 CircleF
2335 1477 CircleF
2394 1523 CircleF
1920 1009 CircleF
1980 1055 CircleF
5457 3753 CircleF
5517 3799 CircleF
1189 2463 CircleF
1249 2509 CircleF
4653 1813 CircleF
4713 1859 CircleF
5493 2842 CircleF
5553 2888 CircleF
4696 1305 CircleF
4756 1351 CircleF
5924 3629 CircleF
5984 3675 CircleF
1622 771 CircleF
1682 817 CircleF
6546 4017 CircleF
6606 4063 CircleF
4188 3813 CircleF
4248 3859 CircleF
2667 1536 CircleF
2726 1582 CircleF
4107 1460 CircleF
4167 1506 CircleF
2111 1556 CircleF
2171 1602 CircleF
5071 653 CircleF
5131 699 CircleF
4381 3376 CircleF
4441 3422 CircleF
4030 2534 CircleF
4090 2580 CircleF
5443 1004 CircleF
5503 1050 CircleF
2427 3100 CircleF
2487 3146 CircleF
1376 3066 CircleF
1436 3111 CircleF
4811 3269 CircleF
4871 3315 CircleF
1506 3897 CircleF
1566 3943 CircleF
3967 1287 CircleF
4027 1333 CircleF
2552 2011 CircleF
2612 2057 CircleF
2968 4233 CircleF
3028 4279 CircleF
6018 1905 CircleF
6078 1951 CircleF
6552 1110 CircleF
6611 1156 CircleF
2121 1264 CircleF
2181 1310 CircleF
3427 2510 CircleF
3486 2556 CircleF
1068 3675 CircleF
1128 3721 CircleF
4975 3305 CircleF
5035 3350 CircleF
2898 2890 CircleF
2958 2936 CircleF
4977 2989 CircleF
5037 3035 CircleF
1504 671 CircleF
1564 717 CircleF
6619 2466 CircleF
6679 2512 CircleF
5504 2842 CircleF
5564 2888 CircleF
1610 3479 CircleF
1670 3524 CircleF
2604 831 CircleF
2664 877 CircleF
3253 2748 CircleF
3313 2794 CircleF
4886 3040 CircleF
4946 3086 CircleF
3630 4721 CircleF
3690 4767 CircleF
3219 3354 CircleF
3279 3400 CircleF
1435 1428 CircleF
1495 1474 CircleF
2211 4654 CircleF
2271 4699 CircleF
4604 4364 CircleF
4664 4410 CircleF
3586 1984 CircleF
3646 2030 CircleF
1063 3900 CircleF
1123 3946 CircleF
2897 3896 CircleF
2957 3942 CircleF
4800 3043 CircleF
4859 3089 CircleF
6578 4372 CircleF
6638 4418 CircleF
2098 2117 CircleF
2158 2163 CircleF
3990 1043 CircleF
4050 1089 CircleF
5685 1850 CircleF
5745 1896 CircleF
2851 1027 CircleF
2910 1073 CircleF
6441 431 CircleF
6500 477 CircleF
4045 1942 CircleF
4104 1988 CircleF
4031 1562 CircleF
4091 1608 CircleF
1556 2681 CircleF
1615 2727 CircleF
3664 3840 CircleF
3724 3885 CircleF
6041 1484 CircleF
6101 1530 CircleF
4699 1912 CircleF
4759 1958 CircleF
5041 3010 CircleF
5100 3056 CircleF
4794 2484 CircleF
4854 2530 CircleF
4336 2998 CircleF
4396 3044 CircleF
4587 2824 CircleF
4647 2870 CircleF
6040 1978 CircleF
6100 2024 CircleF
4326 4310 CircleF
4386 4356 CircleF
4615 842 CircleF
4675 888 CircleF
1500 2852 CircleF
1560 2898 CircleF
2953 4561 CircleF
3013 4607 CircleF
4583 3057 CircleF
4643 3103 CircleF
4901 2569 CircleF
4961 2615 CircleF
4347 1461 CircleF
4407 1507 CircleF
5403 520 CircleF
5463 566 CircleF
2482 2708 CircleF
2542 2754 CircleF
3525 1297 CircleF
3585 1343 CircleF
1372 3829 CircleF
1431 3875 CircleF
3896 4430 CircleF
3956 4476 CircleF
1882 4400 CircleF
1942 4446 CircleF
4712 1697 CircleF
4771 1743 CircleF
3245 3886 CircleF
3305 3932 CircleF
3142 324 CircleF
3202 370 CircleF
1486 523 CircleF
1546 568 CircleF
2112 1883 CircleF
2172 1928 CircleF
3038 3357 CircleF
3098 3403 CircleF
2037 1688 CircleF
2097 1734 CircleF
2864 2227 CircleF
2924 2273 CircleF
4532 1726 CircleF
4592 1772 CircleF
2196 1159 CircleF
2256 1205 CircleF
2366 2005 CircleF
2426 2051 CircleF
5252 4299 CircleF
5312 4345 CircleF
4073 2725 CircleF
4133 2771 CircleF
1414 4355 CircleF
1474 4400 CircleF
5833 1464 CircleF
5893 1510 CircleF
2785 1955 CircleF
2845 2001 CircleF
4955 3256 CircleF
5015 3302 CircleF
3835 2526 CircleF
3895 2572 CircleF
1736 2190 CircleF
1796 2236 CircleF
3324 2373 CircleF
3384 2419 CircleF
3560 1154 CircleF
3620 1200 CircleF
5710 1415 CircleF
5770 1461 CircleF
3096 1323 CircleF
3155 1369 CircleF
3906 1194 CircleF
3966 1240 CircleF
5599 3435 CircleF
5659 3481 CircleF
1484 4371 CircleF
1543 4417 CircleF
4989 4126 CircleF
5049 4172 CircleF
1736 2675 CircleF
1795 2721 CircleF
3656 3526 CircleF
3716 3572 CircleF
6423 3867 CircleF
6483 3913 CircleF
2696 4325 CircleF
2756 4370 CircleF
5713 1654 CircleF
5772 1700 CircleF
2857 4050 CircleF
2917 4096 CircleF
2952 2808 CircleF
3012 2854 CircleF
2798 559 CircleF
2858 605 CircleF
5848 3425 CircleF
5908 3471 CircleF
6119 564 CircleF
6179 610 CircleF
3759 3869 CircleF
3819 3914 CircleF
3300 1191 CircleF
3359 1237 CircleF
2258 1902 CircleF
2318 1948 CircleF
1106 1261 CircleF
1165 1307 CircleF
1574 1834 CircleF
1634 1880 CircleF
6120 334 CircleF
6180 380 CircleF
4453 3439 CircleF
4513 3485 CircleF
6580 1599 CircleF
6640 1645 CircleF
1344 4668 CircleF
1404 4714 CircleF
1329 3702 CircleF
1389 3748 CircleF
4160 3136 CircleF
4220 3182 CircleF
2005 4663 CircleF
2065 4709 CircleF
1885 1900 CircleF
1945 1946 CircleF
2468 4629 CircleF
2528 4674 CircleF
1899 3617 CircleF
1959 3663 CircleF
6347 855 CircleF
6407 901 CircleF
6400 3277 CircleF
6460 3323 CircleF
4708 3012 CircleF
4768 3058 CircleF
2631 2803 CircleF
2691 2849 CircleF
986 812 CircleF
1045 858 CircleF
1290 3694 CircleF
1350 3740 CircleF
4602 1727 CircleF
4662 1773 CircleF
1610 3024 CircleF
1670 3070 CircleF
3687 4127 CircleF
3747 4173 CircleF
5070 2903 CircleF
5130 2949 CircleF
1102 3457 CircleF
1162 3503 CircleF
4003 1736 CircleF
4063 1782 CircleF
2904 1609 CircleF
2964 1655 CircleF
2259 4181 CircleF
2319 4227 CircleF
5948 1915 CircleF
6007 1961 CircleF
1584 1677 CircleF
1644 1723 CircleF
4014 950 CircleF
4074 996 CircleF
1660 3879 CircleF
1720 3925 CircleF
6544 3395 CircleF
6604 3441 CircleF
3082 3785 CircleF
3142 3831 CircleF
2757 4475 CircleF
2817 4521 CircleF
3609 2668 CircleF
3669 2714 CircleF
6426 3012 CircleF
6486 3058 CircleF
1671 1625 CircleF
1731 1671 CircleF
2994 1715 CircleF
3054 1761 CircleF
2377 4186 CircleF
2437 4232 CircleF
6786 1033 CircleF
6846 1078 CircleF
2350 2906 CircleF
2410 2952 CircleF
5680 3552 CircleF
5739 3598 CircleF
4687 3513 CircleF
4747 3559 CircleF
6386 1706 CircleF
6446 1752 CircleF
2320 2231 CircleF
2379 2277 CircleF
3272 2471 CircleF
3332 2517 CircleF
5025 491 CircleF
5085 537 CircleF
4512 3527 CircleF
4572 3573 CircleF
4192 3455 CircleF
4252 3501 CircleF
6024 1838 CircleF
6084 1884 CircleF
5699 3120 CircleF
5759 3166 CircleF
6085 3814 CircleF
6145 3860 CircleF
5480 3276 CircleF
5540 3322 CircleF
1886 3004 CircleF
1945 3049 CircleF
6526 3776 CircleF
6585 3822 CircleF
1949 2708 CircleF
2009 2753 CircleF
1836 1784 CircleF
1896 1830 CircleF
2818 4321 CircleF
2878 4367 CircleF
2555 580 CircleF
2615 626 CircleF
6665 3565 CircleF
6725 3611 CircleF
1464 1385 CircleF
1524 1431 CircleF
6690 3723 CircleF
6749 3769 CircleF
1456 4721 CircleF
1516 4767 CircleF
6111 2097 CircleF
6171 2143 CircleF
3936 565 CircleF
3996 611 CircleF
2445 3819 CircleF
2504 3865 CircleF
6111 3366 CircleF
6171 3412 CircleF
3569 3138 CircleF
3628 3184 CircleF
4421 485 CircleF
4481 531 CircleF
3056 3179 CircleF
3115 3225 CircleF
3997 1498 CircleF
4057 1543 CircleF
2539 1609 CircleF
2599 1655 CircleF
2822 4532 CircleF
2882 4578 CircleF
5899 2811 CircleF
5959 2857 CircleF
6595 1318 CircleF
6655 1364 CircleF
5868 637 CircleF
5928 683 CircleF
3922 4473 CircleF
3982 4519 CircleF
1650 4054 CircleF
1710 4100 CircleF
1388 2060 CircleF
1448 2106 CircleF
2647 1478 CircleF
2707 1524 CircleF
6213 3050 CircleF
6273 3095 CircleF
6786 2357 CircleF
6845 2403 CircleF
4050 3414 CircleF
4109 3460 CircleF
6774 1934 CircleF
6834 1979 CircleF
5870 649 CircleF
5930 695 CircleF
1693 2954 CircleF
1753 3000 CircleF
3604 817 CircleF
3664 863 CircleF
5506 4732 CircleF
5566 4778 CircleF
4494 4055 CircleF
4554 4101 CircleF
5515 2759 CircleF
5575 2805 CircleF
3701 1107 CircleF
3760 1153 CircleF
2332 4670 CircleF
2392 4716 CircleF
1003 1716 CircleF
1063 1762 CircleF
5996 3368 CircleF
6056 3413 CircleF
5759 4453 CircleF
5819 4499 CircleF
3987 1501 CircleF
4047 1547 CircleF
2151 2216 CircleF
2211 2262 CircleF
6054 1417 CircleF
6114 1463 CircleF
4793 3517 CircleF
4853 3563 CircleF
1327 4508 CircleF
1387 4554 CircleF
5590 973 CircleF
5650 1019 CircleF
2766 1226 CircleF
2826 1272 CircleF
3229 3603 CircleF
3289 3649 CircleF
6286 2743 CircleF
6346 2789 CircleF
4360 2699 CircleF
4420 2745 CircleF
6321 1755 CircleF
6381 1801 CircleF
5547 1905 CircleF
5607 1951 CircleF
971 2836 CircleF
1031 2882 CircleF
5229 3145 CircleF
5289 3191 CircleF
5783 1427 CircleF
5843 1473 CircleF
1572 391 CircleF
1632 437 CircleF
5395 1685 CircleF
5455 1731 CircleF
5209 1875 CircleF
5268 1921 CircleF
4602 3292 CircleF
4662 3338 CircleF
3257 3987 CircleF
3317 4033 CircleF
2035 1370 CircleF
2095 1416 CircleF
4461 2429 CircleF
4521 2475 CircleF
5725 4014 CircleF
5785 4060 CircleF
6218 4093 CircleF
6278 4139 CircleF
5375 1199 CircleF
5435 1244 CircleF
3309 3640 CircleF
3369 3686 CircleF
1578 2992 CircleF
1638 3038 CircleF
5082 4563 CircleF
5142 4609 CircleF
3815 2816 CircleF
3875 2862 CircleF
4673 1279 CircleF
4733 1325 CircleF
3278 1388 CircleF
3337 1434 CircleF
3245 3724 CircleF
3305 3769 CircleF
4103 1889 CircleF
4163 1935 CircleF
4873 894 CircleF
4933 940 CircleF
3223 4613 CircleF
3283 4659 CircleF
2840 3228 CircleF
2900 3274 CircleF
6633 954 CircleF
6693 1000 CircleF
1557 2718 CircleF
1616 2764 CircleF
% End plot #2
1.000 UP
1.000 UL
LT0
0.50 0.50 0.50 C stroke
grestore
end
showpage
%%Trailer
%%DocumentFonts: Helvetica
%%Pages: 1
