%!PS-Adobe-2.0
%%Title: out.ps
%%Creator: gnuplot 4.6 patchlevel 6
%%CreationDate: Thu May 28 15:58:13 2015
%%DocumentFonts: (atend)
%%BoundingBox: 50 50 554 770
%%Orientation: Landscape
%%Pages: (atend)
%%EndComments
%%BeginProlog
/gnudict 256 dict def
gnudict begin
%
% The following true/false flags may be edited by hand if desired.
% The unit line width and grayscale image gamma correction may also be changed.
%
/Color false def
/Blacktext false def
/Solid false def
/Dashlength 1 def
/Landscape true def
/Level1 false def
/Rounded false def
/ClipToBoundingBox false def
/SuppressPDFMark false def
/TransparentPatterns false def
/gnulinewidth 5.000 def
/userlinewidth gnulinewidth def
/Gamma 1.0 def
/BackgroundColor {-1.000 -1.000 -1.000} def
%
/vshift -46 def
/dl1 {
  10.0 Dashlength mul mul
  Rounded { currentlinewidth 0.75 mul sub dup 0 le { pop 0.01 } if } if
} def
/dl2 {
  10.0 Dashlength mul mul
  Rounded { currentlinewidth 0.75 mul add } if
} def
/hpt_ 31.5 def
/vpt_ 31.5 def
/hpt hpt_ def
/vpt vpt_ def
/doclip {
  ClipToBoundingBox {
    newpath 50 50 moveto 554 50 lineto 554 770 lineto 50 770 lineto closepath
    clip
  } if
} def
%
% Gnuplot Prolog Version 4.6 (September 2012)
%
%/SuppressPDFMark true def
%
/M {moveto} bind def
/L {lineto} bind def
/R {rmoveto} bind def
/V {rlineto} bind def
/N {newpath moveto} bind def
/Z {closepath} bind def
/C {setrgbcolor} bind def
/f {rlineto fill} bind def
/g {setgray} bind def
/Gshow {show} def   % May be redefined later in the file to support UTF-8
/vpt2 vpt 2 mul def
/hpt2 hpt 2 mul def
/Lshow {currentpoint stroke M 0 vshift R 
	Blacktext {gsave 0 setgray show grestore} {show} ifelse} def
/Rshow {currentpoint stroke M dup stringwidth pop neg vshift R
	Blacktext {gsave 0 setgray show grestore} {show} ifelse} def
/Cshow {currentpoint stroke M dup stringwidth pop -2 div vshift R 
	Blacktext {gsave 0 setgray show grestore} {show} ifelse} def
/UP {dup vpt_ mul /vpt exch def hpt_ mul /hpt exch def
  /hpt2 hpt 2 mul def /vpt2 vpt 2 mul def} def
/DL {Color {setrgbcolor Solid {pop []} if 0 setdash}
 {pop pop pop 0 setgray Solid {pop []} if 0 setdash} ifelse} def
/BL {stroke userlinewidth 2 mul setlinewidth
	Rounded {1 setlinejoin 1 setlinecap} if} def
/AL {stroke userlinewidth 2 div setlinewidth
	Rounded {1 setlinejoin 1 setlinecap} if} def
/UL {dup gnulinewidth mul /userlinewidth exch def
	dup 1 lt {pop 1} if 10 mul /udl exch def} def
/PL {stroke userlinewidth setlinewidth
	Rounded {1 setlinejoin 1 setlinecap} if} def
3.8 setmiterlimit
% Default Line colors
/LCw {1 1 1} def
/LCb {0 0 0} def
/LCa {0 0 0} def
/LC0 {1 0 0} def
/LC1 {0 1 0} def
/LC2 {0 0 1} def
/LC3 {1 0 1} def
/LC4 {0 1 1} def
/LC5 {1 1 0} def
/LC6 {0 0 0} def
/LC7 {1 0.3 0} def
/LC8 {0.5 0.5 0.5} def
% Default Line Types
/LTw {PL [] 1 setgray} def
/LTb {BL [] LCb DL} def
/LTa {AL [1 udl mul 2 udl mul] 0 setdash LCa setrgbcolor} def
/LT0 {PL [] LC0 DL} def
/LT1 {PL [4 dl1 2 dl2] LC1 DL} def
/LT2 {PL [2 dl1 3 dl2] LC2 DL} def
/LT3 {PL [1 dl1 1.5 dl2] LC3 DL} def
/LT4 {PL [6 dl1 2 dl2 1 dl1 2 dl2] LC4 DL} def
/LT5 {PL [3 dl1 3 dl2 1 dl1 3 dl2] LC5 DL} def
/LT6 {PL [2 dl1 2 dl2 2 dl1 6 dl2] LC6 DL} def
/LT7 {PL [1 dl1 2 dl2 6 dl1 2 dl2 1 dl1 2 dl2] LC7 DL} def
/LT8 {PL [2 dl1 2 dl2 2 dl1 2 dl2 2 dl1 2 dl2 2 dl1 4 dl2] LC8 DL} def
/Pnt {stroke [] 0 setdash gsave 1 setlinecap M 0 0 V stroke grestore} def
/Dia {stroke [] 0 setdash 2 copy vpt add M
  hpt neg vpt neg V hpt vpt neg V
  hpt vpt V hpt neg vpt V closepath stroke
  Pnt} def
/Pls {stroke [] 0 setdash vpt sub M 0 vpt2 V
  currentpoint stroke M
  hpt neg vpt neg R hpt2 0 V stroke
 } def
/Box {stroke [] 0 setdash 2 copy exch hpt sub exch vpt add M
  0 vpt2 neg V hpt2 0 V 0 vpt2 V
  hpt2 neg 0 V closepath stroke
  Pnt} def
/Crs {stroke [] 0 setdash exch hpt sub exch vpt add M
  hpt2 vpt2 neg V currentpoint stroke M
  hpt2 neg 0 R hpt2 vpt2 V stroke} def
/TriU {stroke [] 0 setdash 2 copy vpt 1.12 mul add M
  hpt neg vpt -1.62 mul V
  hpt 2 mul 0 V
  hpt neg vpt 1.62 mul V closepath stroke
  Pnt} def
/Star {2 copy Pls Crs} def
/BoxF {stroke [] 0 setdash exch hpt sub exch vpt add M
  0 vpt2 neg V hpt2 0 V 0 vpt2 V
  hpt2 neg 0 V closepath fill} def
/TriUF {stroke [] 0 setdash vpt 1.12 mul add M
  hpt neg vpt -1.62 mul V
  hpt 2 mul 0 V
  hpt neg vpt 1.62 mul V closepath fill} def
/TriD {stroke [] 0 setdash 2 copy vpt 1.12 mul sub M
  hpt neg vpt 1.62 mul V
  hpt 2 mul 0 V
  hpt neg vpt -1.62 mul V closepath stroke
  Pnt} def
/TriDF {stroke [] 0 setdash vpt 1.12 mul sub M
  hpt neg vpt 1.62 mul V
  hpt 2 mul 0 V
  hpt neg vpt -1.62 mul V closepath fill} def
/DiaF {stroke [] 0 setdash vpt add M
  hpt neg vpt neg V hpt vpt neg V
  hpt vpt V hpt neg vpt V closepath fill} def
/Pent {stroke [] 0 setdash 2 copy gsave
  translate 0 hpt M 4 {72 rotate 0 hpt L} repeat
  closepath stroke grestore Pnt} def
/PentF {stroke [] 0 setdash gsave
  translate 0 hpt M 4 {72 rotate 0 hpt L} repeat
  closepath fill grestore} def
/Circle {stroke [] 0 setdash 2 copy
  hpt 0 360 arc stroke Pnt} def
/CircleF {stroke [] 0 setdash hpt 0 360 arc fill} def
/C0 {BL [] 0 setdash 2 copy moveto vpt 90 450 arc} bind def
/C1 {BL [] 0 setdash 2 copy moveto
	2 copy vpt 0 90 arc closepath fill
	vpt 0 360 arc closepath} bind def
/C2 {BL [] 0 setdash 2 copy moveto
	2 copy vpt 90 180 arc closepath fill
	vpt 0 360 arc closepath} bind def
/C3 {BL [] 0 setdash 2 copy moveto
	2 copy vpt 0 180 arc closepath fill
	vpt 0 360 arc closepath} bind def
/C4 {BL [] 0 setdash 2 copy moveto
	2 copy vpt 180 270 arc closepath fill
	vpt 0 360 arc closepath} bind def
/C5 {BL [] 0 setdash 2 copy moveto
	2 copy vpt 0 90 arc
	2 copy moveto
	2 copy vpt 180 270 arc closepath fill
	vpt 0 360 arc} bind def
/C6 {BL [] 0 setdash 2 copy moveto
	2 copy vpt 90 270 arc closepath fill
	vpt 0 360 arc closepath} bind def
/C7 {BL [] 0 setdash 2 copy moveto
	2 copy vpt 0 270 arc closepath fill
	vpt 0 360 arc closepath} bind def
/C8 {BL [] 0 setdash 2 copy moveto
	2 copy vpt 270 360 arc closepath fill
	vpt 0 360 arc closepath} bind def
/C9 {BL [] 0 setdash 2 copy moveto
	2 copy vpt 270 450 arc closepath fill
	vpt 0 360 arc closepath} bind def
/C10 {BL [] 0 setdash 2 copy 2 copy moveto vpt 270 360 arc closepath fill
	2 copy moveto
	2 copy vpt 90 180 arc closepath fill
	vpt 0 360 arc closepath} bind def
/C11 {BL [] 0 setdash 2 copy moveto
	2 copy vpt 0 180 arc closepath fill
	2 copy moveto
	2 copy vpt 270 360 arc closepath fill
	vpt 0 360 arc closepath} bind def
/C12 {BL [] 0 setdash 2 copy moveto
	2 copy vpt 180 360 arc closepath fill
	vpt 0 360 arc closepath} bind def
/C13 {BL [] 0 setdash 2 copy moveto
	2 copy vpt 0 90 arc closepath fill
	2 copy moveto
	2 copy vpt 180 360 arc closepath fill
	vpt 0 360 arc closepath} bind def
/C14 {BL [] 0 setdash 2 copy moveto
	2 copy vpt 90 360 arc closepath fill
	vpt 0 360 arc} bind def
/C15 {BL [] 0 setdash 2 copy vpt 0 360 arc closepath fill
	vpt 0 360 arc closepath} bind def
/Rec {newpath 4 2 roll moveto 1 index 0 rlineto 0 exch rlineto
	neg 0 rlineto closepath} bind def
/Square {dup Rec} bind def
/Bsquare {vpt sub exch vpt sub exch vpt2 Square} bind def
/S0 {BL [] 0 setdash 2 copy moveto 0 vpt rlineto BL Bsquare} bind def
/S1 {BL [] 0 setdash 2 copy vpt Square fill Bsquare} bind def
/S2 {BL [] 0 setdash 2 copy exch vpt sub exch vpt Square fill Bsquare} bind def
/S3 {BL [] 0 setdash 2 copy exch vpt sub exch vpt2 vpt Rec fill Bsquare} bind def
/S4 {BL [] 0 setdash 2 copy exch vpt sub exch vpt sub vpt Square fill Bsquare} bind def
/S5 {BL [] 0 setdash 2 copy 2 copy vpt Square fill
	exch vpt sub exch vpt sub vpt Square fill Bsquare} bind def
/S6 {BL [] 0 setdash 2 copy exch vpt sub exch vpt sub vpt vpt2 Rec fill Bsquare} bind def
/S7 {BL [] 0 setdash 2 copy exch vpt sub exch vpt sub vpt vpt2 Rec fill
	2 copy vpt Square fill Bsquare} bind def
/S8 {BL [] 0 setdash 2 copy vpt sub vpt Square fill Bsquare} bind def
/S9 {BL [] 0 setdash 2 copy vpt sub vpt vpt2 Rec fill Bsquare} bind def
/S10 {BL [] 0 setdash 2 copy vpt sub vpt Square fill 2 copy exch vpt sub exch vpt Square fill
	Bsquare} bind def
/S11 {BL [] 0 setdash 2 copy vpt sub vpt Square fill 2 copy exch vpt sub exch vpt2 vpt Rec fill
	Bsquare} bind def
/S12 {BL [] 0 setdash 2 copy exch vpt sub exch vpt sub vpt2 vpt Rec fill Bsquare} bind def
/S13 {BL [] 0 setdash 2 copy exch vpt sub exch vpt sub vpt2 vpt Rec fill
	2 copy vpt Square fill Bsquare} bind def
/S14 {BL [] 0 setdash 2 copy exch vpt sub exch vpt sub vpt2 vpt Rec fill
	2 copy exch vpt sub exch vpt Square fill Bsquare} bind def
/S15 {BL [] 0 setdash 2 copy Bsquare fill Bsquare} bind def
/D0 {gsave translate 45 rotate 0 0 S0 stroke grestore} bind def
/D1 {gsave translate 45 rotate 0 0 S1 stroke grestore} bind def
/D2 {gsave translate 45 rotate 0 0 S2 stroke grestore} bind def
/D3 {gsave translate 45 rotate 0 0 S3 stroke grestore} bind def
/D4 {gsave translate 45 rotate 0 0 S4 stroke grestore} bind def
/D5 {gsave translate 45 rotate 0 0 S5 stroke grestore} bind def
/D6 {gsave translate 45 rotate 0 0 S6 stroke grestore} bind def
/D7 {gsave translate 45 rotate 0 0 S7 stroke grestore} bind def
/D8 {gsave translate 45 rotate 0 0 S8 stroke grestore} bind def
/D9 {gsave translate 45 rotate 0 0 S9 stroke grestore} bind def
/D10 {gsave translate 45 rotate 0 0 S10 stroke grestore} bind def
/D11 {gsave translate 45 rotate 0 0 S11 stroke grestore} bind def
/D12 {gsave translate 45 rotate 0 0 S12 stroke grestore} bind def
/D13 {gsave translate 45 rotate 0 0 S13 stroke grestore} bind def
/D14 {gsave translate 45 rotate 0 0 S14 stroke grestore} bind def
/D15 {gsave translate 45 rotate 0 0 S15 stroke grestore} bind def
/DiaE {stroke [] 0 setdash vpt add M
  hpt neg vpt neg V hpt vpt neg V
  hpt vpt V hpt neg vpt V closepath stroke} def
/BoxE {stroke [] 0 setdash exch hpt sub exch vpt add M
  0 vpt2 neg V hpt2 0 V 0 vpt2 V
  hpt2 neg 0 V closepath stroke} def
/TriUE {stroke [] 0 setdash vpt 1.12 mul add M
  hpt neg vpt -1.62 mul V
  hpt 2 mul 0 V
  hpt neg vpt 1.62 mul V closepath stroke} def
/TriDE {stroke [] 0 setdash vpt 1.12 mul sub M
  hpt neg vpt 1.62 mul V
  hpt 2 mul 0 V
  hpt neg vpt -1.62 mul V closepath stroke} def
/PentE {stroke [] 0 setdash gsave
  translate 0 hpt M 4 {72 rotate 0 hpt L} repeat
  closepath stroke grestore} def
/CircE {stroke [] 0 setdash 
  hpt 0 360 arc stroke} def
/Opaque {gsave closepath 1 setgray fill grestore 0 setgray closepath} def
/DiaW {stroke [] 0 setdash vpt add M
  hpt neg vpt neg V hpt vpt neg V
  hpt vpt V hpt neg vpt V Opaque stroke} def
/BoxW {stroke [] 0 setdash exch hpt sub exch vpt add M
  0 vpt2 neg V hpt2 0 V 0 vpt2 V
  hpt2 neg 0 V Opaque stroke} def
/TriUW {stroke [] 0 setdash vpt 1.12 mul add M
  hpt neg vpt -1.62 mul V
  hpt 2 mul 0 V
  hpt neg vpt 1.62 mul V Opaque stroke} def
/TriDW {stroke [] 0 setdash vpt 1.12 mul sub M
  hpt neg vpt 1.62 mul V
  hpt 2 mul 0 V
  hpt neg vpt -1.62 mul V Opaque stroke} def
/PentW {stroke [] 0 setdash gsave
  translate 0 hpt M 4 {72 rotate 0 hpt L} repeat
  Opaque stroke grestore} def
/CircW {stroke [] 0 setdash 
  hpt 0 360 arc Opaque stroke} def
/BoxFill {gsave Rec 1 setgray fill grestore} def
/Density {
  /Fillden exch def
  currentrgbcolor
  /ColB exch def /ColG exch def /ColR exch def
  /ColR ColR Fillden mul Fillden sub 1 add def
  /ColG ColG Fillden mul Fillden sub 1 add def
  /ColB ColB Fillden mul Fillden sub 1 add def
  ColR ColG ColB setrgbcolor} def
/BoxColFill {gsave Rec PolyFill} def
/PolyFill {gsave Density fill grestore grestore} def
/h {rlineto rlineto rlineto gsave closepath fill grestore} bind def
%
% PostScript Level 1 Pattern Fill routine for rectangles
% Usage: x y w h s a XX PatternFill
%	x,y = lower left corner of box to be filled
%	w,h = width and height of box
%	  a = angle in degrees between lines and x-axis
%	 XX = 0/1 for no/yes cross-hatch
%
/PatternFill {gsave /PFa [ 9 2 roll ] def
  PFa 0 get PFa 2 get 2 div add PFa 1 get PFa 3 get 2 div add translate
  PFa 2 get -2 div PFa 3 get -2 div PFa 2 get PFa 3 get Rec
  TransparentPatterns {} {gsave 1 setgray fill grestore} ifelse
  clip
  currentlinewidth 0.5 mul setlinewidth
  /PFs PFa 2 get dup mul PFa 3 get dup mul add sqrt def
  0 0 M PFa 5 get rotate PFs -2 div dup translate
  0 1 PFs PFa 4 get div 1 add floor cvi
	{PFa 4 get mul 0 M 0 PFs V} for
  0 PFa 6 get ne {
	0 1 PFs PFa 4 get div 1 add floor cvi
	{PFa 4 get mul 0 2 1 roll M PFs 0 V} for
 } if
  stroke grestore} def
%
/languagelevel where
 {pop languagelevel} {1} ifelse
 2 lt
	{/InterpretLevel1 true def}
	{/InterpretLevel1 Level1 def}
 ifelse
%
% PostScript level 2 pattern fill definitions
%
/Level2PatternFill {
/Tile8x8 {/PaintType 2 /PatternType 1 /TilingType 1 /BBox [0 0 8 8] /XStep 8 /YStep 8}
	bind def
/KeepColor {currentrgbcolor [/Pattern /DeviceRGB] setcolorspace} bind def
<< Tile8x8
 /PaintProc {0.5 setlinewidth pop 0 0 M 8 8 L 0 8 M 8 0 L stroke} 
>> matrix makepattern
/Pat1 exch def
<< Tile8x8
 /PaintProc {0.5 setlinewidth pop 0 0 M 8 8 L 0 8 M 8 0 L stroke
	0 4 M 4 8 L 8 4 L 4 0 L 0 4 L stroke}
>> matrix makepattern
/Pat2 exch def
<< Tile8x8
 /PaintProc {0.5 setlinewidth pop 0 0 M 0 8 L
	8 8 L 8 0 L 0 0 L fill}
>> matrix makepattern
/Pat3 exch def
<< Tile8x8
 /PaintProc {0.5 setlinewidth pop -4 8 M 8 -4 L
	0 12 M 12 0 L stroke}
>> matrix makepattern
/Pat4 exch def
<< Tile8x8
 /PaintProc {0.5 setlinewidth pop -4 0 M 8 12 L
	0 -4 M 12 8 L stroke}
>> matrix makepattern
/Pat5 exch def
<< Tile8x8
 /PaintProc {0.5 setlinewidth pop -2 8 M 4 -4 L
	0 12 M 8 -4 L 4 12 M 10 0 L stroke}
>> matrix makepattern
/Pat6 exch def
<< Tile8x8
 /PaintProc {0.5 setlinewidth pop -2 0 M 4 12 L
	0 -4 M 8 12 L 4 -4 M 10 8 L stroke}
>> matrix makepattern
/Pat7 exch def
<< Tile8x8
 /PaintProc {0.5 setlinewidth pop 8 -2 M -4 4 L
	12 0 M -4 8 L 12 4 M 0 10 L stroke}
>> matrix makepattern
/Pat8 exch def
<< Tile8x8
 /PaintProc {0.5 setlinewidth pop 0 -2 M 12 4 L
	-4 0 M 12 8 L -4 4 M 8 10 L stroke}
>> matrix makepattern
/Pat9 exch def
/Pattern1 {PatternBgnd KeepColor Pat1 setpattern} bind def
/Pattern2 {PatternBgnd KeepColor Pat2 setpattern} bind def
/Pattern3 {PatternBgnd KeepColor Pat3 setpattern} bind def
/Pattern4 {PatternBgnd KeepColor Landscape {Pat5} {Pat4} ifelse setpattern} bind def
/Pattern5 {PatternBgnd KeepColor Landscape {Pat4} {Pat5} ifelse setpattern} bind def
/Pattern6 {PatternBgnd KeepColor Landscape {Pat9} {Pat6} ifelse setpattern} bind def
/Pattern7 {PatternBgnd KeepColor Landscape {Pat8} {Pat7} ifelse setpattern} bind def
} def
%
%
%End of PostScript Level 2 code
%
/PatternBgnd {
  TransparentPatterns {} {gsave 1 setgray fill grestore} ifelse
} def
%
% Substitute for Level 2 pattern fill codes with
% grayscale if Level 2 support is not selected.
%
/Level1PatternFill {
/Pattern1 {0.250 Density} bind def
/Pattern2 {0.500 Density} bind def
/Pattern3 {0.750 Density} bind def
/Pattern4 {0.125 Density} bind def
/Pattern5 {0.375 Density} bind def
/Pattern6 {0.625 Density} bind def
/Pattern7 {0.875 Density} bind def
} def
%
% Now test for support of Level 2 code
%
Level1 {Level1PatternFill} {Level2PatternFill} ifelse
%
/Symbol-Oblique /Symbol findfont [1 0 .167 1 0 0] makefont
dup length dict begin {1 index /FID eq {pop pop} {def} ifelse} forall
currentdict end definefont pop
Level1 SuppressPDFMark or 
{} {
/SDict 10 dict def
systemdict /pdfmark known not {
  userdict /pdfmark systemdict /cleartomark get put
} if
SDict begin [
  /Title (out.ps)
  /Subject (gnuplot plot)
  /Creator (gnuplot 4.6 patchlevel 6)
  /Author (yani)
%  /Producer (gnuplot)
%  /Keywords ()
  /CreationDate (Thu May 28 15:58:13 2015)
  /DOCINFO pdfmark
end
} ifelse
end
%%EndProlog
%%Page: 1 1
gnudict begin
gsave
doclip
50 50 translate
0.100 0.100 scale
90 rotate
0 -5040 translate
0 setgray
newpath
(Helvetica) findfont 140 scalefont setfont
BackgroundColor 0 lt 3 1 roll 0 lt exch 0 lt or or not {gsave BackgroundColor C clippath fill grestore} if
1.000 UL
LT0
0.50 0.50 0.50 C 1.000 UL
LTa
0.50 0.50 0.50 C 966 280 M
5981 0 V
stroke
LT0
0.50 0.50 0.50 C 966 280 M
63 0 V
5918 0 R
-63 0 V
882 280 M
( 0) Rshow
1.000 UL
LT0
0.50 0.50 0.50 C 1.000 UL
LTa
0.50 0.50 0.50 C 966 326 M
5981 0 V
stroke
LT0
0.50 0.50 0.50 C 966 326 M
63 0 V
5918 0 R
-63 0 V
882 326 M
( 0.707106) Rshow
1.000 UL
LT0
0.50 0.50 0.50 C 1.000 UL
LTa
0.50 0.50 0.50 C 966 372 M
5981 0 V
stroke
LT0
0.50 0.50 0.50 C 966 372 M
63 0 V
5918 0 R
-63 0 V
882 372 M
( 1.41421) Rshow
1.000 UL
LT0
0.50 0.50 0.50 C 1.000 UL
LTa
0.50 0.50 0.50 C 966 418 M
5981 0 V
stroke
LT0
0.50 0.50 0.50 C 966 418 M
63 0 V
5918 0 R
-63 0 V
882 418 M
( 2.12132) Rshow
1.000 UL
LT0
0.50 0.50 0.50 C 1.000 UL
LTa
0.50 0.50 0.50 C 966 464 M
5981 0 V
stroke
LT0
0.50 0.50 0.50 C 966 464 M
63 0 V
5918 0 R
-63 0 V
882 464 M
( 2.82842) Rshow
1.000 UL
LT0
0.50 0.50 0.50 C 1.000 UL
LTa
0.50 0.50 0.50 C 966 510 M
5981 0 V
stroke
LT0
0.50 0.50 0.50 C 966 510 M
63 0 V
5918 0 R
-63 0 V
882 510 M
( 3.53553) Rshow
1.000 UL
LT0
0.50 0.50 0.50 C 1.000 UL
LTa
0.50 0.50 0.50 C 966 555 M
5981 0 V
stroke
LT0
0.50 0.50 0.50 C 966 555 M
63 0 V
5918 0 R
-63 0 V
882 555 M
( 4.24264) Rshow
1.000 UL
LT0
0.50 0.50 0.50 C 1.000 UL
LTa
0.50 0.50 0.50 C 966 601 M
5981 0 V
stroke
LT0
0.50 0.50 0.50 C 966 601 M
63 0 V
5918 0 R
-63 0 V
882 601 M
( 4.94974) Rshow
1.000 UL
LT0
0.50 0.50 0.50 C 1.000 UL
LTa
0.50 0.50 0.50 C 966 647 M
5981 0 V
stroke
LT0
0.50 0.50 0.50 C 966 647 M
63 0 V
5918 0 R
-63 0 V
882 647 M
( 5.65685) Rshow
1.000 UL
LT0
0.50 0.50 0.50 C 1.000 UL
LTa
0.50 0.50 0.50 C 966 693 M
5981 0 V
stroke
LT0
0.50 0.50 0.50 C 966 693 M
63 0 V
5918 0 R
-63 0 V
882 693 M
( 6.36395) Rshow
1.000 UL
LT0
0.50 0.50 0.50 C 1.000 UL
LTa
0.50 0.50 0.50 C 966 739 M
5981 0 V
stroke
LT0
0.50 0.50 0.50 C 966 739 M
63 0 V
5918 0 R
-63 0 V
882 739 M
( 7.07106) Rshow
1.000 UL
LT0
0.50 0.50 0.50 C 1.000 UL
LTa
0.50 0.50 0.50 C 966 785 M
5981 0 V
stroke
LT0
0.50 0.50 0.50 C 966 785 M
63 0 V
5918 0 R
-63 0 V
882 785 M
( 7.77817) Rshow
1.000 UL
LT0
0.50 0.50 0.50 C 1.000 UL
LTa
0.50 0.50 0.50 C 966 831 M
5981 0 V
stroke
LT0
0.50 0.50 0.50 C 966 831 M
63 0 V
5918 0 R
-63 0 V
882 831 M
( 8.48527) Rshow
1.000 UL
LT0
0.50 0.50 0.50 C 1.000 UL
LTa
0.50 0.50 0.50 C 966 877 M
5981 0 V
stroke
LT0
0.50 0.50 0.50 C 966 877 M
63 0 V
5918 0 R
-63 0 V
882 877 M
( 9.19238) Rshow
1.000 UL
LT0
0.50 0.50 0.50 C 1.000 UL
LTa
0.50 0.50 0.50 C 966 923 M
5981 0 V
stroke
LT0
0.50 0.50 0.50 C 966 923 M
63 0 V
5918 0 R
-63 0 V
882 923 M
( 9.89948) Rshow
1.000 UL
LT0
0.50 0.50 0.50 C 1.000 UL
LTa
0.50 0.50 0.50 C 966 969 M
5981 0 V
stroke
LT0
0.50 0.50 0.50 C 966 969 M
63 0 V
5918 0 R
-63 0 V
882 969 M
( 10.6066) Rshow
1.000 UL
LT0
0.50 0.50 0.50 C 1.000 UL
LTa
0.50 0.50 0.50 C 966 1015 M
5981 0 V
stroke
LT0
0.50 0.50 0.50 C 966 1015 M
63 0 V
5918 0 R
-63 0 V
-6002 0 R
( 11.3137) Rshow
1.000 UL
LT0
0.50 0.50 0.50 C 1.000 UL
LTa
0.50 0.50 0.50 C 966 1060 M
5981 0 V
stroke
LT0
0.50 0.50 0.50 C 966 1060 M
63 0 V
5918 0 R
-63 0 V
-6002 0 R
( 12.0208) Rshow
1.000 UL
LT0
0.50 0.50 0.50 C 1.000 UL
LTa
0.50 0.50 0.50 C 966 1106 M
5981 0 V
stroke
LT0
0.50 0.50 0.50 C 966 1106 M
63 0 V
5918 0 R
-63 0 V
-6002 0 R
( 12.7279) Rshow
1.000 UL
LT0
0.50 0.50 0.50 C 1.000 UL
LTa
0.50 0.50 0.50 C 966 1152 M
5981 0 V
stroke
LT0
0.50 0.50 0.50 C 966 1152 M
63 0 V
5918 0 R
-63 0 V
-6002 0 R
( 13.435) Rshow
1.000 UL
LT0
0.50 0.50 0.50 C 1.000 UL
LTa
0.50 0.50 0.50 C 966 1198 M
5981 0 V
stroke
LT0
0.50 0.50 0.50 C 966 1198 M
63 0 V
5918 0 R
-63 0 V
-6002 0 R
( 14.1421) Rshow
1.000 UL
LT0
0.50 0.50 0.50 C 1.000 UL
LTa
0.50 0.50 0.50 C 966 1244 M
5981 0 V
stroke
LT0
0.50 0.50 0.50 C 966 1244 M
63 0 V
5918 0 R
-63 0 V
-6002 0 R
( 14.8492) Rshow
1.000 UL
LT0
0.50 0.50 0.50 C 1.000 UL
LTa
0.50 0.50 0.50 C 966 1290 M
5981 0 V
stroke
LT0
0.50 0.50 0.50 C 966 1290 M
63 0 V
5918 0 R
-63 0 V
-6002 0 R
( 15.5563) Rshow
1.000 UL
LT0
0.50 0.50 0.50 C 1.000 UL
LTa
0.50 0.50 0.50 C 966 1336 M
5981 0 V
stroke
LT0
0.50 0.50 0.50 C 966 1336 M
63 0 V
5918 0 R
-63 0 V
-6002 0 R
( 16.2634) Rshow
1.000 UL
LT0
0.50 0.50 0.50 C 1.000 UL
LTa
0.50 0.50 0.50 C 966 1382 M
5981 0 V
stroke
LT0
0.50 0.50 0.50 C 966 1382 M
63 0 V
5918 0 R
-63 0 V
-6002 0 R
( 16.9705) Rshow
1.000 UL
LT0
0.50 0.50 0.50 C 1.000 UL
LTa
0.50 0.50 0.50 C 966 1428 M
5981 0 V
stroke
LT0
0.50 0.50 0.50 C 966 1428 M
63 0 V
5918 0 R
-63 0 V
-6002 0 R
( 17.6776) Rshow
1.000 UL
LT0
0.50 0.50 0.50 C 1.000 UL
LTa
0.50 0.50 0.50 C 966 1474 M
5981 0 V
stroke
LT0
0.50 0.50 0.50 C 966 1474 M
63 0 V
5918 0 R
-63 0 V
-6002 0 R
( 18.3848) Rshow
1.000 UL
LT0
0.50 0.50 0.50 C 1.000 UL
LTa
0.50 0.50 0.50 C 966 1520 M
5981 0 V
stroke
LT0
0.50 0.50 0.50 C 966 1520 M
63 0 V
5918 0 R
-63 0 V
-6002 0 R
( 19.0919) Rshow
1.000 UL
LT0
0.50 0.50 0.50 C 1.000 UL
LTa
0.50 0.50 0.50 C 966 1565 M
5981 0 V
stroke
LT0
0.50 0.50 0.50 C 966 1565 M
63 0 V
5918 0 R
-63 0 V
-6002 0 R
( 19.799) Rshow
1.000 UL
LT0
0.50 0.50 0.50 C 1.000 UL
LTa
0.50 0.50 0.50 C 966 1611 M
5981 0 V
stroke
LT0
0.50 0.50 0.50 C 966 1611 M
63 0 V
5918 0 R
-63 0 V
-6002 0 R
( 20.5061) Rshow
1.000 UL
LT0
0.50 0.50 0.50 C 1.000 UL
LTa
0.50 0.50 0.50 C 966 1657 M
5981 0 V
stroke
LT0
0.50 0.50 0.50 C 966 1657 M
63 0 V
5918 0 R
-63 0 V
-6002 0 R
( 21.2132) Rshow
1.000 UL
LT0
0.50 0.50 0.50 C 1.000 UL
LTa
0.50 0.50 0.50 C 966 1703 M
5981 0 V
stroke
LT0
0.50 0.50 0.50 C 966 1703 M
63 0 V
5918 0 R
-63 0 V
-6002 0 R
( 21.9203) Rshow
1.000 UL
LT0
0.50 0.50 0.50 C 1.000 UL
LTa
0.50 0.50 0.50 C 966 1749 M
5981 0 V
stroke
LT0
0.50 0.50 0.50 C 966 1749 M
63 0 V
5918 0 R
-63 0 V
-6002 0 R
( 22.6274) Rshow
1.000 UL
LT0
0.50 0.50 0.50 C 1.000 UL
LTa
0.50 0.50 0.50 C 966 1795 M
5981 0 V
stroke
LT0
0.50 0.50 0.50 C 966 1795 M
63 0 V
5918 0 R
-63 0 V
-6002 0 R
( 23.3345) Rshow
1.000 UL
LT0
0.50 0.50 0.50 C 1.000 UL
LTa
0.50 0.50 0.50 C 966 1841 M
5981 0 V
stroke
LT0
0.50 0.50 0.50 C 966 1841 M
63 0 V
5918 0 R
-63 0 V
-6002 0 R
( 24.0416) Rshow
1.000 UL
LT0
0.50 0.50 0.50 C 1.000 UL
LTa
0.50 0.50 0.50 C 966 1887 M
5981 0 V
stroke
LT0
0.50 0.50 0.50 C 966 1887 M
63 0 V
5918 0 R
-63 0 V
-6002 0 R
( 24.7487) Rshow
1.000 UL
LT0
0.50 0.50 0.50 C 1.000 UL
LTa
0.50 0.50 0.50 C 966 1933 M
5981 0 V
stroke
LT0
0.50 0.50 0.50 C 966 1933 M
63 0 V
5918 0 R
-63 0 V
-6002 0 R
( 25.4558) Rshow
1.000 UL
LT0
0.50 0.50 0.50 C 1.000 UL
LTa
0.50 0.50 0.50 C 966 1979 M
5981 0 V
stroke
LT0
0.50 0.50 0.50 C 966 1979 M
63 0 V
5918 0 R
-63 0 V
-6002 0 R
( 26.1629) Rshow
1.000 UL
LT0
0.50 0.50 0.50 C 1.000 UL
LTa
0.50 0.50 0.50 C 966 2025 M
5981 0 V
stroke
LT0
0.50 0.50 0.50 C 966 2025 M
63 0 V
5918 0 R
-63 0 V
-6002 0 R
( 26.87) Rshow
1.000 UL
LT0
0.50 0.50 0.50 C 1.000 UL
LTa
0.50 0.50 0.50 C 966 2070 M
5981 0 V
stroke
LT0
0.50 0.50 0.50 C 966 2070 M
63 0 V
5918 0 R
-63 0 V
-6002 0 R
( 27.5771) Rshow
1.000 UL
LT0
0.50 0.50 0.50 C 1.000 UL
LTa
0.50 0.50 0.50 C 966 2116 M
5981 0 V
stroke
LT0
0.50 0.50 0.50 C 966 2116 M
63 0 V
5918 0 R
-63 0 V
-6002 0 R
( 28.2842) Rshow
1.000 UL
LT0
0.50 0.50 0.50 C 1.000 UL
LTa
0.50 0.50 0.50 C 966 2162 M
5981 0 V
stroke
LT0
0.50 0.50 0.50 C 966 2162 M
63 0 V
5918 0 R
-63 0 V
-6002 0 R
( 28.9913) Rshow
1.000 UL
LT0
0.50 0.50 0.50 C 1.000 UL
LTa
0.50 0.50 0.50 C 966 2208 M
5981 0 V
stroke
LT0
0.50 0.50 0.50 C 966 2208 M
63 0 V
5918 0 R
-63 0 V
-6002 0 R
( 29.6985) Rshow
1.000 UL
LT0
0.50 0.50 0.50 C 1.000 UL
LTa
0.50 0.50 0.50 C 966 2254 M
5981 0 V
stroke
LT0
0.50 0.50 0.50 C 966 2254 M
63 0 V
5918 0 R
-63 0 V
-6002 0 R
( 30.4056) Rshow
1.000 UL
LT0
0.50 0.50 0.50 C 1.000 UL
LTa
0.50 0.50 0.50 C 966 2300 M
5981 0 V
stroke
LT0
0.50 0.50 0.50 C 966 2300 M
63 0 V
5918 0 R
-63 0 V
-6002 0 R
( 31.1127) Rshow
1.000 UL
LT0
0.50 0.50 0.50 C 1.000 UL
LTa
0.50 0.50 0.50 C 966 2346 M
5981 0 V
stroke
LT0
0.50 0.50 0.50 C 966 2346 M
63 0 V
5918 0 R
-63 0 V
-6002 0 R
( 31.8198) Rshow
1.000 UL
LT0
0.50 0.50 0.50 C 1.000 UL
LTa
0.50 0.50 0.50 C 966 2392 M
5981 0 V
stroke
LT0
0.50 0.50 0.50 C 966 2392 M
63 0 V
5918 0 R
-63 0 V
-6002 0 R
( 32.5269) Rshow
1.000 UL
LT0
0.50 0.50 0.50 C 1.000 UL
LTa
0.50 0.50 0.50 C 966 2438 M
5981 0 V
stroke
LT0
0.50 0.50 0.50 C 966 2438 M
63 0 V
5918 0 R
-63 0 V
-6002 0 R
( 33.234) Rshow
1.000 UL
LT0
0.50 0.50 0.50 C 1.000 UL
LTa
0.50 0.50 0.50 C 966 2484 M
5981 0 V
stroke
LT0
0.50 0.50 0.50 C 966 2484 M
63 0 V
5918 0 R
-63 0 V
-6002 0 R
( 33.9411) Rshow
1.000 UL
LT0
0.50 0.50 0.50 C 1.000 UL
LTa
0.50 0.50 0.50 C 966 2530 M
5981 0 V
stroke
LT0
0.50 0.50 0.50 C 966 2530 M
63 0 V
5918 0 R
-63 0 V
-6002 0 R
( 34.6482) Rshow
1.000 UL
LT0
0.50 0.50 0.50 C 1.000 UL
LTa
0.50 0.50 0.50 C 966 2576 M
5981 0 V
stroke
LT0
0.50 0.50 0.50 C 966 2576 M
63 0 V
5918 0 R
-63 0 V
-6002 0 R
( 35.3553) Rshow
1.000 UL
LT0
0.50 0.50 0.50 C 1.000 UL
LTa
0.50 0.50 0.50 C 966 2621 M
5981 0 V
stroke
LT0
0.50 0.50 0.50 C 966 2621 M
63 0 V
5918 0 R
-63 0 V
-6002 0 R
( 36.0624) Rshow
1.000 UL
LT0
0.50 0.50 0.50 C 1.000 UL
LTa
0.50 0.50 0.50 C 966 2667 M
5981 0 V
stroke
LT0
0.50 0.50 0.50 C 966 2667 M
63 0 V
5918 0 R
-63 0 V
-6002 0 R
( 36.7695) Rshow
1.000 UL
LT0
0.50 0.50 0.50 C 1.000 UL
LTa
0.50 0.50 0.50 C 966 2713 M
5981 0 V
stroke
LT0
0.50 0.50 0.50 C 966 2713 M
63 0 V
5918 0 R
-63 0 V
-6002 0 R
( 37.4766) Rshow
1.000 UL
LT0
0.50 0.50 0.50 C 1.000 UL
LTa
0.50 0.50 0.50 C 966 2759 M
5981 0 V
stroke
LT0
0.50 0.50 0.50 C 966 2759 M
63 0 V
5918 0 R
-63 0 V
-6002 0 R
( 38.1837) Rshow
1.000 UL
LT0
0.50 0.50 0.50 C 1.000 UL
LTa
0.50 0.50 0.50 C 966 2805 M
5981 0 V
stroke
LT0
0.50 0.50 0.50 C 966 2805 M
63 0 V
5918 0 R
-63 0 V
-6002 0 R
( 38.8908) Rshow
1.000 UL
LT0
0.50 0.50 0.50 C 1.000 UL
LTa
0.50 0.50 0.50 C 966 2851 M
5981 0 V
stroke
LT0
0.50 0.50 0.50 C 966 2851 M
63 0 V
5918 0 R
-63 0 V
-6002 0 R
( 39.5979) Rshow
1.000 UL
LT0
0.50 0.50 0.50 C 1.000 UL
LTa
0.50 0.50 0.50 C 966 2897 M
5981 0 V
stroke
LT0
0.50 0.50 0.50 C 966 2897 M
63 0 V
5918 0 R
-63 0 V
-6002 0 R
( 40.305) Rshow
1.000 UL
LT0
0.50 0.50 0.50 C 1.000 UL
LTa
0.50 0.50 0.50 C 966 2943 M
5981 0 V
stroke
LT0
0.50 0.50 0.50 C 966 2943 M
63 0 V
5918 0 R
-63 0 V
-6002 0 R
( 41.0121) Rshow
1.000 UL
LT0
0.50 0.50 0.50 C 1.000 UL
LTa
0.50 0.50 0.50 C 966 2989 M
5981 0 V
stroke
LT0
0.50 0.50 0.50 C 966 2989 M
63 0 V
5918 0 R
-63 0 V
-6002 0 R
( 41.7193) Rshow
1.000 UL
LT0
0.50 0.50 0.50 C 1.000 UL
LTa
0.50 0.50 0.50 C 966 3035 M
5981 0 V
stroke
LT0
0.50 0.50 0.50 C 966 3035 M
63 0 V
5918 0 R
-63 0 V
-6002 0 R
( 42.4264) Rshow
1.000 UL
LT0
0.50 0.50 0.50 C 1.000 UL
LTa
0.50 0.50 0.50 C 966 3081 M
5981 0 V
stroke
LT0
0.50 0.50 0.50 C 966 3081 M
63 0 V
5918 0 R
-63 0 V
-6002 0 R
( 43.1335) Rshow
1.000 UL
LT0
0.50 0.50 0.50 C 1.000 UL
LTa
0.50 0.50 0.50 C 966 3126 M
5981 0 V
stroke
LT0
0.50 0.50 0.50 C 966 3126 M
63 0 V
5918 0 R
-63 0 V
-6002 0 R
( 43.8406) Rshow
1.000 UL
LT0
0.50 0.50 0.50 C 1.000 UL
LTa
0.50 0.50 0.50 C 966 3172 M
5981 0 V
stroke
LT0
0.50 0.50 0.50 C 966 3172 M
63 0 V
5918 0 R
-63 0 V
-6002 0 R
( 44.5477) Rshow
1.000 UL
LT0
0.50 0.50 0.50 C 1.000 UL
LTa
0.50 0.50 0.50 C 966 3218 M
5981 0 V
stroke
LT0
0.50 0.50 0.50 C 966 3218 M
63 0 V
5918 0 R
-63 0 V
-6002 0 R
( 45.2548) Rshow
1.000 UL
LT0
0.50 0.50 0.50 C 1.000 UL
LTa
0.50 0.50 0.50 C 966 3264 M
5981 0 V
stroke
LT0
0.50 0.50 0.50 C 966 3264 M
63 0 V
5918 0 R
-63 0 V
-6002 0 R
( 45.9619) Rshow
1.000 UL
LT0
0.50 0.50 0.50 C 1.000 UL
LTa
0.50 0.50 0.50 C 966 3310 M
5981 0 V
stroke
LT0
0.50 0.50 0.50 C 966 3310 M
63 0 V
5918 0 R
-63 0 V
-6002 0 R
( 46.669) Rshow
1.000 UL
LT0
0.50 0.50 0.50 C 1.000 UL
LTa
0.50 0.50 0.50 C 966 3356 M
5981 0 V
stroke
LT0
0.50 0.50 0.50 C 966 3356 M
63 0 V
5918 0 R
-63 0 V
-6002 0 R
( 47.3761) Rshow
1.000 UL
LT0
0.50 0.50 0.50 C 1.000 UL
LTa
0.50 0.50 0.50 C 966 3402 M
5981 0 V
stroke
LT0
0.50 0.50 0.50 C 966 3402 M
63 0 V
5918 0 R
-63 0 V
-6002 0 R
( 48.0832) Rshow
1.000 UL
LT0
0.50 0.50 0.50 C 1.000 UL
LTa
0.50 0.50 0.50 C 966 3448 M
5981 0 V
stroke
LT0
0.50 0.50 0.50 C 966 3448 M
63 0 V
5918 0 R
-63 0 V
-6002 0 R
( 48.7903) Rshow
1.000 UL
LT0
0.50 0.50 0.50 C 1.000 UL
LTa
0.50 0.50 0.50 C 966 3494 M
5981 0 V
stroke
LT0
0.50 0.50 0.50 C 966 3494 M
63 0 V
5918 0 R
-63 0 V
-6002 0 R
( 49.4974) Rshow
1.000 UL
LT0
0.50 0.50 0.50 C 1.000 UL
LTa
0.50 0.50 0.50 C 966 3540 M
5981 0 V
stroke
LT0
0.50 0.50 0.50 C 966 3540 M
63 0 V
5918 0 R
-63 0 V
-6002 0 R
( 50.2045) Rshow
1.000 UL
LT0
0.50 0.50 0.50 C 1.000 UL
LTa
0.50 0.50 0.50 C 966 3586 M
5981 0 V
stroke
LT0
0.50 0.50 0.50 C 966 3586 M
63 0 V
5918 0 R
-63 0 V
-6002 0 R
( 50.9116) Rshow
1.000 UL
LT0
0.50 0.50 0.50 C 1.000 UL
LTa
0.50 0.50 0.50 C 966 3631 M
5981 0 V
stroke
LT0
0.50 0.50 0.50 C 966 3631 M
63 0 V
5918 0 R
-63 0 V
-6002 0 R
( 51.6187) Rshow
1.000 UL
LT0
0.50 0.50 0.50 C 1.000 UL
LTa
0.50 0.50 0.50 C 966 3677 M
5981 0 V
stroke
LT0
0.50 0.50 0.50 C 966 3677 M
63 0 V
5918 0 R
-63 0 V
-6002 0 R
( 52.3258) Rshow
1.000 UL
LT0
0.50 0.50 0.50 C 1.000 UL
LTa
0.50 0.50 0.50 C 966 3723 M
5981 0 V
stroke
LT0
0.50 0.50 0.50 C 966 3723 M
63 0 V
5918 0 R
-63 0 V
-6002 0 R
( 53.033) Rshow
1.000 UL
LT0
0.50 0.50 0.50 C 1.000 UL
LTa
0.50 0.50 0.50 C 966 3769 M
5981 0 V
stroke
LT0
0.50 0.50 0.50 C 966 3769 M
63 0 V
5918 0 R
-63 0 V
-6002 0 R
( 53.7401) Rshow
1.000 UL
LT0
0.50 0.50 0.50 C 1.000 UL
LTa
0.50 0.50 0.50 C 966 3815 M
5981 0 V
stroke
LT0
0.50 0.50 0.50 C 966 3815 M
63 0 V
5918 0 R
-63 0 V
-6002 0 R
( 54.4472) Rshow
1.000 UL
LT0
0.50 0.50 0.50 C 1.000 UL
LTa
0.50 0.50 0.50 C 966 3861 M
5981 0 V
stroke
LT0
0.50 0.50 0.50 C 966 3861 M
63 0 V
5918 0 R
-63 0 V
-6002 0 R
( 55.1543) Rshow
1.000 UL
LT0
0.50 0.50 0.50 C 1.000 UL
LTa
0.50 0.50 0.50 C 966 3907 M
5981 0 V
stroke
LT0
0.50 0.50 0.50 C 966 3907 M
63 0 V
5918 0 R
-63 0 V
-6002 0 R
( 55.8614) Rshow
1.000 UL
LT0
0.50 0.50 0.50 C 1.000 UL
LTa
0.50 0.50 0.50 C 966 3953 M
5981 0 V
stroke
LT0
0.50 0.50 0.50 C 966 3953 M
63 0 V
5918 0 R
-63 0 V
-6002 0 R
( 56.5685) Rshow
1.000 UL
LT0
0.50 0.50 0.50 C 1.000 UL
LTa
0.50 0.50 0.50 C 966 3999 M
5981 0 V
stroke
LT0
0.50 0.50 0.50 C 966 3999 M
63 0 V
5918 0 R
-63 0 V
-6002 0 R
( 57.2756) Rshow
1.000 UL
LT0
0.50 0.50 0.50 C 1.000 UL
LTa
0.50 0.50 0.50 C 966 4045 M
5981 0 V
stroke
LT0
0.50 0.50 0.50 C 966 4045 M
63 0 V
5918 0 R
-63 0 V
-6002 0 R
( 57.9827) Rshow
1.000 UL
LT0
0.50 0.50 0.50 C 1.000 UL
LTa
0.50 0.50 0.50 C 966 4091 M
5981 0 V
stroke
LT0
0.50 0.50 0.50 C 966 4091 M
63 0 V
5918 0 R
-63 0 V
-6002 0 R
( 58.6898) Rshow
1.000 UL
LT0
0.50 0.50 0.50 C 1.000 UL
LTa
0.50 0.50 0.50 C 966 4136 M
5981 0 V
stroke
LT0
0.50 0.50 0.50 C 966 4136 M
63 0 V
5918 0 R
-63 0 V
-6002 0 R
( 59.3969) Rshow
1.000 UL
LT0
0.50 0.50 0.50 C 1.000 UL
LTa
0.50 0.50 0.50 C 966 4182 M
5981 0 V
stroke
LT0
0.50 0.50 0.50 C 966 4182 M
63 0 V
5918 0 R
-63 0 V
-6002 0 R
( 60.104) Rshow
1.000 UL
LT0
0.50 0.50 0.50 C 1.000 UL
LTa
0.50 0.50 0.50 C 966 4228 M
5981 0 V
stroke
LT0
0.50 0.50 0.50 C 966 4228 M
63 0 V
5918 0 R
-63 0 V
-6002 0 R
( 60.8111) Rshow
1.000 UL
LT0
0.50 0.50 0.50 C 1.000 UL
LTa
0.50 0.50 0.50 C 966 4274 M
5981 0 V
stroke
LT0
0.50 0.50 0.50 C 966 4274 M
63 0 V
5918 0 R
-63 0 V
-6002 0 R
( 61.5182) Rshow
1.000 UL
LT0
0.50 0.50 0.50 C 1.000 UL
LTa
0.50 0.50 0.50 C 966 4320 M
5981 0 V
stroke
LT0
0.50 0.50 0.50 C 966 4320 M
63 0 V
5918 0 R
-63 0 V
-6002 0 R
( 62.2253) Rshow
1.000 UL
LT0
0.50 0.50 0.50 C 1.000 UL
LTa
0.50 0.50 0.50 C 966 4366 M
5981 0 V
stroke
LT0
0.50 0.50 0.50 C 966 4366 M
63 0 V
5918 0 R
-63 0 V
-6002 0 R
( 62.9324) Rshow
1.000 UL
LT0
0.50 0.50 0.50 C 1.000 UL
LTa
0.50 0.50 0.50 C 966 4412 M
5981 0 V
stroke
LT0
0.50 0.50 0.50 C 966 4412 M
63 0 V
5918 0 R
-63 0 V
-6002 0 R
( 63.6395) Rshow
1.000 UL
LT0
0.50 0.50 0.50 C 1.000 UL
LTa
0.50 0.50 0.50 C 966 4458 M
5981 0 V
stroke
LT0
0.50 0.50 0.50 C 966 4458 M
63 0 V
5918 0 R
-63 0 V
-6002 0 R
( 64.3466) Rshow
1.000 UL
LT0
0.50 0.50 0.50 C 1.000 UL
LTa
0.50 0.50 0.50 C 966 4504 M
5981 0 V
stroke
LT0
0.50 0.50 0.50 C 966 4504 M
63 0 V
5918 0 R
-63 0 V
-6002 0 R
( 65.0538) Rshow
1.000 UL
LT0
0.50 0.50 0.50 C 1.000 UL
LTa
0.50 0.50 0.50 C 966 4550 M
5981 0 V
stroke
LT0
0.50 0.50 0.50 C 966 4550 M
63 0 V
5918 0 R
-63 0 V
-6002 0 R
( 65.7609) Rshow
1.000 UL
LT0
0.50 0.50 0.50 C 1.000 UL
LTa
0.50 0.50 0.50 C 966 4596 M
5981 0 V
stroke
LT0
0.50 0.50 0.50 C 966 4596 M
63 0 V
5918 0 R
-63 0 V
-6002 0 R
( 66.468) Rshow
1.000 UL
LT0
0.50 0.50 0.50 C 1.000 UL
LTa
0.50 0.50 0.50 C 966 4641 M
5981 0 V
stroke
LT0
0.50 0.50 0.50 C 966 4641 M
63 0 V
5918 0 R
-63 0 V
-6002 0 R
( 67.1751) Rshow
1.000 UL
LT0
0.50 0.50 0.50 C 1.000 UL
LTa
0.50 0.50 0.50 C 966 4687 M
5981 0 V
stroke
LT0
0.50 0.50 0.50 C 966 4687 M
63 0 V
5918 0 R
-63 0 V
-6002 0 R
( 67.8822) Rshow
1.000 UL
LT0
0.50 0.50 0.50 C 1.000 UL
LTa
0.50 0.50 0.50 C 966 4733 M
5981 0 V
stroke
LT0
0.50 0.50 0.50 C 966 4733 M
63 0 V
5918 0 R
-63 0 V
-6002 0 R
( 68.5893) Rshow
1.000 UL
LT0
0.50 0.50 0.50 C 1.000 UL
LTa
0.50 0.50 0.50 C 966 4779 M
5981 0 V
stroke
LT0
0.50 0.50 0.50 C 966 4779 M
63 0 V
5918 0 R
-63 0 V
-6002 0 R
( 69.2964) Rshow
1.000 UL
LT0
0.50 0.50 0.50 C 1.000 UL
LTa
0.50 0.50 0.50 C 966 4825 M
5981 0 V
stroke
LT0
0.50 0.50 0.50 C 966 4825 M
63 0 V
5918 0 R
-63 0 V
-6002 0 R
( 70.0035) Rshow
1.000 UL
LT0
0.50 0.50 0.50 C 1.000 UL
LTa
0.50 0.50 0.50 C 966 4871 M
5981 0 V
stroke
LT0
0.50 0.50 0.50 C 966 4871 M
63 0 V
5918 0 R
-63 0 V
-6002 0 R
( 70.7106) Rshow
1.000 UL
LT0
0.50 0.50 0.50 C 1.000 UL
LTa
0.50 0.50 0.50 C 966 280 M
0 4591 V
stroke
LT0
0.50 0.50 0.50 C 966 280 M
0 63 V
0 4528 R
0 -63 V
966 140 M
( 0) Cshow
1.000 UL
LT0
0.50 0.50 0.50 C 1.000 UL
LTa
0.50 0.50 0.50 C 1026 280 M
0 4591 V
stroke
LT0
0.50 0.50 0.50 C 1026 280 M
0 63 V
0 4528 R
0 -63 V
0 -4668 R
( 0.707106) Cshow
1.000 UL
LT0
0.50 0.50 0.50 C 1.000 UL
LTa
0.50 0.50 0.50 C 1086 280 M
0 4591 V
stroke
LT0
0.50 0.50 0.50 C 1086 280 M
0 63 V
0 4528 R
0 -63 V
0 -4668 R
( 1.41421) Cshow
1.000 UL
LT0
0.50 0.50 0.50 C 1.000 UL
LTa
0.50 0.50 0.50 C 1145 280 M
0 4591 V
stroke
LT0
0.50 0.50 0.50 C 1145 280 M
0 63 V
0 4528 R
0 -63 V
0 -4668 R
( 2.12132) Cshow
1.000 UL
LT0
0.50 0.50 0.50 C 1.000 UL
LTa
0.50 0.50 0.50 C 1205 280 M
0 4591 V
stroke
LT0
0.50 0.50 0.50 C 1205 280 M
0 63 V
0 4528 R
0 -63 V
0 -4668 R
( 2.82842) Cshow
1.000 UL
LT0
0.50 0.50 0.50 C 1.000 UL
LTa
0.50 0.50 0.50 C 1265 280 M
0 4591 V
stroke
LT0
0.50 0.50 0.50 C 1265 280 M
0 63 V
0 4528 R
0 -63 V
0 -4668 R
( 3.53553) Cshow
1.000 UL
LT0
0.50 0.50 0.50 C 1.000 UL
LTa
0.50 0.50 0.50 C 1325 280 M
0 4591 V
stroke
LT0
0.50 0.50 0.50 C 1325 280 M
0 63 V
0 4528 R
0 -63 V
0 -4668 R
( 4.24264) Cshow
1.000 UL
LT0
0.50 0.50 0.50 C 1.000 UL
LTa
0.50 0.50 0.50 C 1385 280 M
0 4591 V
stroke
LT0
0.50 0.50 0.50 C 1385 280 M
0 63 V
0 4528 R
0 -63 V
0 -4668 R
( 4.94974) Cshow
1.000 UL
LT0
0.50 0.50 0.50 C 1.000 UL
LTa
0.50 0.50 0.50 C 1444 280 M
0 4591 V
stroke
LT0
0.50 0.50 0.50 C 1444 280 M
0 63 V
0 4528 R
0 -63 V
0 -4668 R
( 5.65685) Cshow
1.000 UL
LT0
0.50 0.50 0.50 C 1.000 UL
LTa
0.50 0.50 0.50 C 1504 280 M
0 4591 V
stroke
LT0
0.50 0.50 0.50 C 1504 280 M
0 63 V
0 4528 R
0 -63 V
0 -4668 R
( 6.36395) Cshow
1.000 UL
LT0
0.50 0.50 0.50 C 1.000 UL
LTa
0.50 0.50 0.50 C 1564 280 M
0 4591 V
stroke
LT0
0.50 0.50 0.50 C 1564 280 M
0 63 V
0 4528 R
0 -63 V
0 -4668 R
( 7.07106) Cshow
1.000 UL
LT0
0.50 0.50 0.50 C 1.000 UL
LTa
0.50 0.50 0.50 C 1624 280 M
0 4591 V
stroke
LT0
0.50 0.50 0.50 C 1624 280 M
0 63 V
0 4528 R
0 -63 V
0 -4668 R
( 7.77817) Cshow
1.000 UL
LT0
0.50 0.50 0.50 C 1.000 UL
LTa
0.50 0.50 0.50 C 1684 280 M
0 4591 V
stroke
LT0
0.50 0.50 0.50 C 1684 280 M
0 63 V
0 4528 R
0 -63 V
0 -4668 R
( 8.48527) Cshow
1.000 UL
LT0
0.50 0.50 0.50 C 1.000 UL
LTa
0.50 0.50 0.50 C 1744 280 M
0 4591 V
stroke
LT0
0.50 0.50 0.50 C 1744 280 M
0 63 V
0 4528 R
0 -63 V
0 -4668 R
( 9.19238) Cshow
1.000 UL
LT0
0.50 0.50 0.50 C 1.000 UL
LTa
0.50 0.50 0.50 C 1803 280 M
0 4591 V
stroke
LT0
0.50 0.50 0.50 C 1803 280 M
0 63 V
0 4528 R
0 -63 V
0 -4668 R
( 9.89948) Cshow
1.000 UL
LT0
0.50 0.50 0.50 C 1.000 UL
LTa
0.50 0.50 0.50 C 1863 280 M
0 4591 V
stroke
LT0
0.50 0.50 0.50 C 1863 280 M
0 63 V
0 4528 R
0 -63 V
0 -4668 R
( 10.6066) Cshow
1.000 UL
LT0
0.50 0.50 0.50 C 1.000 UL
LTa
0.50 0.50 0.50 C 1923 280 M
0 4591 V
stroke
LT0
0.50 0.50 0.50 C 1923 280 M
0 63 V
0 4528 R
0 -63 V
0 -4668 R
( 11.3137) Cshow
1.000 UL
LT0
0.50 0.50 0.50 C 1.000 UL
LTa
0.50 0.50 0.50 C 1983 280 M
0 4591 V
stroke
LT0
0.50 0.50 0.50 C 1983 280 M
0 63 V
0 4528 R
0 -63 V
0 -4668 R
( 12.0208) Cshow
1.000 UL
LT0
0.50 0.50 0.50 C 1.000 UL
LTa
0.50 0.50 0.50 C 2043 280 M
0 4591 V
stroke
LT0
0.50 0.50 0.50 C 2043 280 M
0 63 V
0 4528 R
0 -63 V
0 -4668 R
( 12.7279) Cshow
1.000 UL
LT0
0.50 0.50 0.50 C 1.000 UL
LTa
0.50 0.50 0.50 C 2102 280 M
0 4591 V
stroke
LT0
0.50 0.50 0.50 C 2102 280 M
0 63 V
0 4528 R
0 -63 V
0 -4668 R
( 13.435) Cshow
1.000 UL
LT0
0.50 0.50 0.50 C 1.000 UL
LTa
0.50 0.50 0.50 C 2162 280 M
0 4591 V
stroke
LT0
0.50 0.50 0.50 C 2162 280 M
0 63 V
0 4528 R
0 -63 V
0 -4668 R
( 14.1421) Cshow
1.000 UL
LT0
0.50 0.50 0.50 C 1.000 UL
LTa
0.50 0.50 0.50 C 2222 280 M
0 4591 V
stroke
LT0
0.50 0.50 0.50 C 2222 280 M
0 63 V
0 4528 R
0 -63 V
0 -4668 R
( 14.8492) Cshow
1.000 UL
LT0
0.50 0.50 0.50 C 1.000 UL
LTa
0.50 0.50 0.50 C 2282 280 M
0 4591 V
stroke
LT0
0.50 0.50 0.50 C 2282 280 M
0 63 V
0 4528 R
0 -63 V
0 -4668 R
( 15.5563) Cshow
1.000 UL
LT0
0.50 0.50 0.50 C 1.000 UL
LTa
0.50 0.50 0.50 C 2342 280 M
0 4591 V
stroke
LT0
0.50 0.50 0.50 C 2342 280 M
0 63 V
0 4528 R
0 -63 V
0 -4668 R
( 16.2634) Cshow
1.000 UL
LT0
0.50 0.50 0.50 C 1.000 UL
LTa
0.50 0.50 0.50 C 2401 280 M
0 4591 V
stroke
LT0
0.50 0.50 0.50 C 2401 280 M
0 63 V
0 4528 R
0 -63 V
0 -4668 R
( 16.9705) Cshow
1.000 UL
LT0
0.50 0.50 0.50 C 1.000 UL
LTa
0.50 0.50 0.50 C 2461 280 M
0 4591 V
stroke
LT0
0.50 0.50 0.50 C 2461 280 M
0 63 V
0 4528 R
0 -63 V
0 -4668 R
( 17.6776) Cshow
1.000 UL
LT0
0.50 0.50 0.50 C 1.000 UL
LTa
0.50 0.50 0.50 C 2521 280 M
0 4591 V
stroke
LT0
0.50 0.50 0.50 C 2521 280 M
0 63 V
0 4528 R
0 -63 V
0 -4668 R
( 18.3848) Cshow
1.000 UL
LT0
0.50 0.50 0.50 C 1.000 UL
LTa
0.50 0.50 0.50 C 2581 280 M
0 4591 V
stroke
LT0
0.50 0.50 0.50 C 2581 280 M
0 63 V
0 4528 R
0 -63 V
0 -4668 R
( 19.0919) Cshow
1.000 UL
LT0
0.50 0.50 0.50 C 1.000 UL
LTa
0.50 0.50 0.50 C 2641 280 M
0 4591 V
stroke
LT0
0.50 0.50 0.50 C 2641 280 M
0 63 V
0 4528 R
0 -63 V
0 -4668 R
( 19.799) Cshow
1.000 UL
LT0
0.50 0.50 0.50 C 1.000 UL
LTa
0.50 0.50 0.50 C 2700 280 M
0 4591 V
stroke
LT0
0.50 0.50 0.50 C 2700 280 M
0 63 V
0 4528 R
0 -63 V
0 -4668 R
( 20.5061) Cshow
1.000 UL
LT0
0.50 0.50 0.50 C 1.000 UL
LTa
0.50 0.50 0.50 C 2760 280 M
0 4591 V
stroke
LT0
0.50 0.50 0.50 C 2760 280 M
0 63 V
0 4528 R
0 -63 V
0 -4668 R
( 21.2132) Cshow
1.000 UL
LT0
0.50 0.50 0.50 C 1.000 UL
LTa
0.50 0.50 0.50 C 2820 280 M
0 4591 V
stroke
LT0
0.50 0.50 0.50 C 2820 280 M
0 63 V
0 4528 R
0 -63 V
0 -4668 R
( 21.9203) Cshow
1.000 UL
LT0
0.50 0.50 0.50 C 1.000 UL
LTa
0.50 0.50 0.50 C 2880 280 M
0 4591 V
stroke
LT0
0.50 0.50 0.50 C 2880 280 M
0 63 V
0 4528 R
0 -63 V
0 -4668 R
( 22.6274) Cshow
1.000 UL
LT0
0.50 0.50 0.50 C 1.000 UL
LTa
0.50 0.50 0.50 C 2940 280 M
0 4591 V
stroke
LT0
0.50 0.50 0.50 C 2940 280 M
0 63 V
0 4528 R
0 -63 V
0 -4668 R
( 23.3345) Cshow
1.000 UL
LT0
0.50 0.50 0.50 C 1.000 UL
LTa
0.50 0.50 0.50 C 3000 280 M
0 4591 V
stroke
LT0
0.50 0.50 0.50 C 3000 280 M
0 63 V
0 4528 R
0 -63 V
0 -4668 R
( 24.0416) Cshow
1.000 UL
LT0
0.50 0.50 0.50 C 1.000 UL
LTa
0.50 0.50 0.50 C 3059 280 M
0 4591 V
stroke
LT0
0.50 0.50 0.50 C 3059 280 M
0 63 V
0 4528 R
0 -63 V
0 -4668 R
( 24.7487) Cshow
1.000 UL
LT0
0.50 0.50 0.50 C 1.000 UL
LTa
0.50 0.50 0.50 C 3119 280 M
0 4591 V
stroke
LT0
0.50 0.50 0.50 C 3119 280 M
0 63 V
0 4528 R
0 -63 V
0 -4668 R
( 25.4558) Cshow
1.000 UL
LT0
0.50 0.50 0.50 C 1.000 UL
LTa
0.50 0.50 0.50 C 3179 280 M
0 4591 V
stroke
LT0
0.50 0.50 0.50 C 3179 280 M
0 63 V
0 4528 R
0 -63 V
0 -4668 R
( 26.1629) Cshow
1.000 UL
LT0
0.50 0.50 0.50 C 1.000 UL
LTa
0.50 0.50 0.50 C 3239 280 M
0 4591 V
stroke
LT0
0.50 0.50 0.50 C 3239 280 M
0 63 V
0 4528 R
0 -63 V
0 -4668 R
( 26.87) Cshow
1.000 UL
LT0
0.50 0.50 0.50 C 1.000 UL
LTa
0.50 0.50 0.50 C 3299 280 M
0 4591 V
stroke
LT0
0.50 0.50 0.50 C 3299 280 M
0 63 V
0 4528 R
0 -63 V
0 -4668 R
( 27.5771) Cshow
1.000 UL
LT0
0.50 0.50 0.50 C 1.000 UL
LTa
0.50 0.50 0.50 C 3358 280 M
0 4591 V
stroke
LT0
0.50 0.50 0.50 C 3358 280 M
0 63 V
0 4528 R
0 -63 V
0 -4668 R
( 28.2842) Cshow
1.000 UL
LT0
0.50 0.50 0.50 C 1.000 UL
LTa
0.50 0.50 0.50 C 3418 280 M
0 4591 V
stroke
LT0
0.50 0.50 0.50 C 3418 280 M
0 63 V
0 4528 R
0 -63 V
0 -4668 R
( 28.9913) Cshow
1.000 UL
LT0
0.50 0.50 0.50 C 1.000 UL
LTa
0.50 0.50 0.50 C 3478 280 M
0 4591 V
stroke
LT0
0.50 0.50 0.50 C 3478 280 M
0 63 V
0 4528 R
0 -63 V
0 -4668 R
( 29.6985) Cshow
1.000 UL
LT0
0.50 0.50 0.50 C 1.000 UL
LTa
0.50 0.50 0.50 C 3538 280 M
0 4591 V
stroke
LT0
0.50 0.50 0.50 C 3538 280 M
0 63 V
0 4528 R
0 -63 V
0 -4668 R
( 30.4056) Cshow
1.000 UL
LT0
0.50 0.50 0.50 C 1.000 UL
LTa
0.50 0.50 0.50 C 3598 280 M
0 4591 V
stroke
LT0
0.50 0.50 0.50 C 3598 280 M
0 63 V
0 4528 R
0 -63 V
0 -4668 R
( 31.1127) Cshow
1.000 UL
LT0
0.50 0.50 0.50 C 1.000 UL
LTa
0.50 0.50 0.50 C 3657 280 M
0 4591 V
stroke
LT0
0.50 0.50 0.50 C 3657 280 M
0 63 V
0 4528 R
0 -63 V
0 -4668 R
( 31.8198) Cshow
1.000 UL
LT0
0.50 0.50 0.50 C 1.000 UL
LTa
0.50 0.50 0.50 C 3717 280 M
0 4591 V
stroke
LT0
0.50 0.50 0.50 C 3717 280 M
0 63 V
0 4528 R
0 -63 V
0 -4668 R
( 32.5269) Cshow
1.000 UL
LT0
0.50 0.50 0.50 C 1.000 UL
LTa
0.50 0.50 0.50 C 3777 280 M
0 4591 V
stroke
LT0
0.50 0.50 0.50 C 3777 280 M
0 63 V
0 4528 R
0 -63 V
0 -4668 R
( 33.234) Cshow
1.000 UL
LT0
0.50 0.50 0.50 C 1.000 UL
LTa
0.50 0.50 0.50 C 3837 280 M
0 4591 V
stroke
LT0
0.50 0.50 0.50 C 3837 280 M
0 63 V
0 4528 R
0 -63 V
0 -4668 R
( 33.9411) Cshow
1.000 UL
LT0
0.50 0.50 0.50 C 1.000 UL
LTa
0.50 0.50 0.50 C 3897 280 M
0 4591 V
stroke
LT0
0.50 0.50 0.50 C 3897 280 M
0 63 V
0 4528 R
0 -63 V
0 -4668 R
( 34.6482) Cshow
1.000 UL
LT0
0.50 0.50 0.50 C 1.000 UL
LTa
0.50 0.50 0.50 C 3957 280 M
0 4591 V
stroke
LT0
0.50 0.50 0.50 C 3957 280 M
0 63 V
0 4528 R
0 -63 V
0 -4668 R
( 35.3553) Cshow
1.000 UL
LT0
0.50 0.50 0.50 C 1.000 UL
LTa
0.50 0.50 0.50 C 4016 280 M
0 4591 V
stroke
LT0
0.50 0.50 0.50 C 4016 280 M
0 63 V
0 4528 R
0 -63 V
0 -4668 R
( 36.0624) Cshow
1.000 UL
LT0
0.50 0.50 0.50 C 1.000 UL
LTa
0.50 0.50 0.50 C 4076 280 M
0 4591 V
stroke
LT0
0.50 0.50 0.50 C 4076 280 M
0 63 V
0 4528 R
0 -63 V
0 -4668 R
( 36.7695) Cshow
1.000 UL
LT0
0.50 0.50 0.50 C 1.000 UL
LTa
0.50 0.50 0.50 C 4136 280 M
0 4591 V
stroke
LT0
0.50 0.50 0.50 C 4136 280 M
0 63 V
0 4528 R
0 -63 V
0 -4668 R
( 37.4766) Cshow
1.000 UL
LT0
0.50 0.50 0.50 C 1.000 UL
LTa
0.50 0.50 0.50 C 4196 280 M
0 4591 V
stroke
LT0
0.50 0.50 0.50 C 4196 280 M
0 63 V
0 4528 R
0 -63 V
0 -4668 R
( 38.1837) Cshow
1.000 UL
LT0
0.50 0.50 0.50 C 1.000 UL
LTa
0.50 0.50 0.50 C 4256 280 M
0 4591 V
stroke
LT0
0.50 0.50 0.50 C 4256 280 M
0 63 V
0 4528 R
0 -63 V
0 -4668 R
( 38.8908) Cshow
1.000 UL
LT0
0.50 0.50 0.50 C 1.000 UL
LTa
0.50 0.50 0.50 C 4315 280 M
0 4591 V
stroke
LT0
0.50 0.50 0.50 C 4315 280 M
0 63 V
0 4528 R
0 -63 V
0 -4668 R
( 39.5979) Cshow
1.000 UL
LT0
0.50 0.50 0.50 C 1.000 UL
LTa
0.50 0.50 0.50 C 4375 280 M
0 4591 V
stroke
LT0
0.50 0.50 0.50 C 4375 280 M
0 63 V
0 4528 R
0 -63 V
0 -4668 R
( 40.305) Cshow
1.000 UL
LT0
0.50 0.50 0.50 C 1.000 UL
LTa
0.50 0.50 0.50 C 4435 280 M
0 4591 V
stroke
LT0
0.50 0.50 0.50 C 4435 280 M
0 63 V
0 4528 R
0 -63 V
0 -4668 R
( 41.0121) Cshow
1.000 UL
LT0
0.50 0.50 0.50 C 1.000 UL
LTa
0.50 0.50 0.50 C 4495 280 M
0 4591 V
stroke
LT0
0.50 0.50 0.50 C 4495 280 M
0 63 V
0 4528 R
0 -63 V
0 -4668 R
( 41.7193) Cshow
1.000 UL
LT0
0.50 0.50 0.50 C 1.000 UL
LTa
0.50 0.50 0.50 C 4555 280 M
0 4591 V
stroke
LT0
0.50 0.50 0.50 C 4555 280 M
0 63 V
0 4528 R
0 -63 V
0 -4668 R
( 42.4264) Cshow
1.000 UL
LT0
0.50 0.50 0.50 C 1.000 UL
LTa
0.50 0.50 0.50 C 4614 280 M
0 4591 V
stroke
LT0
0.50 0.50 0.50 C 4614 280 M
0 63 V
0 4528 R
0 -63 V
0 -4668 R
( 43.1335) Cshow
1.000 UL
LT0
0.50 0.50 0.50 C 1.000 UL
LTa
0.50 0.50 0.50 C 4674 280 M
0 4591 V
stroke
LT0
0.50 0.50 0.50 C 4674 280 M
0 63 V
0 4528 R
0 -63 V
0 -4668 R
( 43.8406) Cshow
1.000 UL
LT0
0.50 0.50 0.50 C 1.000 UL
LTa
0.50 0.50 0.50 C 4734 280 M
0 4591 V
stroke
LT0
0.50 0.50 0.50 C 4734 280 M
0 63 V
0 4528 R
0 -63 V
0 -4668 R
( 44.5477) Cshow
1.000 UL
LT0
0.50 0.50 0.50 C 1.000 UL
LTa
0.50 0.50 0.50 C 4794 280 M
0 4591 V
stroke
LT0
0.50 0.50 0.50 C 4794 280 M
0 63 V
0 4528 R
0 -63 V
0 -4668 R
( 45.2548) Cshow
1.000 UL
LT0
0.50 0.50 0.50 C 1.000 UL
LTa
0.50 0.50 0.50 C 4854 280 M
0 4591 V
stroke
LT0
0.50 0.50 0.50 C 4854 280 M
0 63 V
0 4528 R
0 -63 V
0 -4668 R
( 45.9619) Cshow
1.000 UL
LT0
0.50 0.50 0.50 C 1.000 UL
LTa
0.50 0.50 0.50 C 4913 280 M
0 4591 V
stroke
LT0
0.50 0.50 0.50 C 4913 280 M
0 63 V
0 4528 R
0 -63 V
0 -4668 R
( 46.669) Cshow
1.000 UL
LT0
0.50 0.50 0.50 C 1.000 UL
LTa
0.50 0.50 0.50 C 4973 280 M
0 4591 V
stroke
LT0
0.50 0.50 0.50 C 4973 280 M
0 63 V
0 4528 R
0 -63 V
0 -4668 R
( 47.3761) Cshow
1.000 UL
LT0
0.50 0.50 0.50 C 1.000 UL
LTa
0.50 0.50 0.50 C 5033 280 M
0 4591 V
stroke
LT0
0.50 0.50 0.50 C 5033 280 M
0 63 V
0 4528 R
0 -63 V
0 -4668 R
( 48.0832) Cshow
1.000 UL
LT0
0.50 0.50 0.50 C 1.000 UL
LTa
0.50 0.50 0.50 C 5093 280 M
0 4591 V
stroke
LT0
0.50 0.50 0.50 C 5093 280 M
0 63 V
0 4528 R
0 -63 V
0 -4668 R
( 48.7903) Cshow
1.000 UL
LT0
0.50 0.50 0.50 C 1.000 UL
LTa
0.50 0.50 0.50 C 5153 280 M
0 4591 V
stroke
LT0
0.50 0.50 0.50 C 5153 280 M
0 63 V
0 4528 R
0 -63 V
0 -4668 R
( 49.4974) Cshow
1.000 UL
LT0
0.50 0.50 0.50 C 1.000 UL
LTa
0.50 0.50 0.50 C 5213 280 M
0 4591 V
stroke
LT0
0.50 0.50 0.50 C 5213 280 M
0 63 V
0 4528 R
0 -63 V
0 -4668 R
( 50.2045) Cshow
1.000 UL
LT0
0.50 0.50 0.50 C 1.000 UL
LTa
0.50 0.50 0.50 C 5272 280 M
0 4591 V
stroke
LT0
0.50 0.50 0.50 C 5272 280 M
0 63 V
0 4528 R
0 -63 V
0 -4668 R
( 50.9116) Cshow
1.000 UL
LT0
0.50 0.50 0.50 C 1.000 UL
LTa
0.50 0.50 0.50 C 5332 280 M
0 4591 V
stroke
LT0
0.50 0.50 0.50 C 5332 280 M
0 63 V
0 4528 R
0 -63 V
0 -4668 R
( 51.6187) Cshow
1.000 UL
LT0
0.50 0.50 0.50 C 1.000 UL
LTa
0.50 0.50 0.50 C 5392 280 M
0 4591 V
stroke
LT0
0.50 0.50 0.50 C 5392 280 M
0 63 V
0 4528 R
0 -63 V
0 -4668 R
( 52.3258) Cshow
1.000 UL
LT0
0.50 0.50 0.50 C 1.000 UL
LTa
0.50 0.50 0.50 C 5452 280 M
0 4591 V
stroke
LT0
0.50 0.50 0.50 C 5452 280 M
0 63 V
0 4528 R
0 -63 V
0 -4668 R
( 53.033) Cshow
1.000 UL
LT0
0.50 0.50 0.50 C 1.000 UL
LTa
0.50 0.50 0.50 C 5512 280 M
0 4591 V
stroke
LT0
0.50 0.50 0.50 C 5512 280 M
0 63 V
0 4528 R
0 -63 V
0 -4668 R
( 53.7401) Cshow
1.000 UL
LT0
0.50 0.50 0.50 C 1.000 UL
LTa
0.50 0.50 0.50 C 5571 280 M
0 4591 V
stroke
LT0
0.50 0.50 0.50 C 5571 280 M
0 63 V
0 4528 R
0 -63 V
0 -4668 R
( 54.4472) Cshow
1.000 UL
LT0
0.50 0.50 0.50 C 1.000 UL
LTa
0.50 0.50 0.50 C 5631 280 M
0 4591 V
stroke
LT0
0.50 0.50 0.50 C 5631 280 M
0 63 V
0 4528 R
0 -63 V
0 -4668 R
( 55.1543) Cshow
1.000 UL
LT0
0.50 0.50 0.50 C 1.000 UL
LTa
0.50 0.50 0.50 C 5691 280 M
0 4591 V
stroke
LT0
0.50 0.50 0.50 C 5691 280 M
0 63 V
0 4528 R
0 -63 V
0 -4668 R
( 55.8614) Cshow
1.000 UL
LT0
0.50 0.50 0.50 C 1.000 UL
LTa
0.50 0.50 0.50 C 5751 280 M
0 4591 V
stroke
LT0
0.50 0.50 0.50 C 5751 280 M
0 63 V
0 4528 R
0 -63 V
0 -4668 R
( 56.5685) Cshow
1.000 UL
LT0
0.50 0.50 0.50 C 1.000 UL
LTa
0.50 0.50 0.50 C 5811 280 M
0 4591 V
stroke
LT0
0.50 0.50 0.50 C 5811 280 M
0 63 V
0 4528 R
0 -63 V
0 -4668 R
( 57.2756) Cshow
1.000 UL
LT0
0.50 0.50 0.50 C 1.000 UL
LTa
0.50 0.50 0.50 C 5870 280 M
0 4591 V
stroke
LT0
0.50 0.50 0.50 C 5870 280 M
0 63 V
0 4528 R
0 -63 V
0 -4668 R
( 57.9827) Cshow
1.000 UL
LT0
0.50 0.50 0.50 C 1.000 UL
LTa
0.50 0.50 0.50 C 5930 280 M
0 4591 V
stroke
LT0
0.50 0.50 0.50 C 5930 280 M
0 63 V
0 4528 R
0 -63 V
0 -4668 R
( 58.6898) Cshow
1.000 UL
LT0
0.50 0.50 0.50 C 1.000 UL
LTa
0.50 0.50 0.50 C 5990 280 M
0 4591 V
stroke
LT0
0.50 0.50 0.50 C 5990 280 M
0 63 V
0 4528 R
0 -63 V
0 -4668 R
( 59.3969) Cshow
1.000 UL
LT0
0.50 0.50 0.50 C 1.000 UL
LTa
0.50 0.50 0.50 C 6050 280 M
0 4591 V
stroke
LT0
0.50 0.50 0.50 C 6050 280 M
0 63 V
0 4528 R
0 -63 V
0 -4668 R
( 60.104) Cshow
1.000 UL
LT0
0.50 0.50 0.50 C 1.000 UL
LTa
0.50 0.50 0.50 C 6110 280 M
0 4591 V
stroke
LT0
0.50 0.50 0.50 C 6110 280 M
0 63 V
0 4528 R
0 -63 V
0 -4668 R
( 60.8111) Cshow
1.000 UL
LT0
0.50 0.50 0.50 C 1.000 UL
LTa
0.50 0.50 0.50 C 6169 280 M
0 4591 V
stroke
LT0
0.50 0.50 0.50 C 6169 280 M
0 63 V
0 4528 R
0 -63 V
0 -4668 R
( 61.5182) Cshow
1.000 UL
LT0
0.50 0.50 0.50 C 1.000 UL
LTa
0.50 0.50 0.50 C 6229 280 M
0 4591 V
stroke
LT0
0.50 0.50 0.50 C 6229 280 M
0 63 V
0 4528 R
0 -63 V
0 -4668 R
( 62.2253) Cshow
1.000 UL
LT0
0.50 0.50 0.50 C 1.000 UL
LTa
0.50 0.50 0.50 C 6289 280 M
0 4591 V
stroke
LT0
0.50 0.50 0.50 C 6289 280 M
0 63 V
0 4528 R
0 -63 V
0 -4668 R
( 62.9324) Cshow
1.000 UL
LT0
0.50 0.50 0.50 C 1.000 UL
LTa
0.50 0.50 0.50 C 6349 280 M
0 4591 V
stroke
LT0
0.50 0.50 0.50 C 6349 280 M
0 63 V
0 4528 R
0 -63 V
0 -4668 R
( 63.6395) Cshow
1.000 UL
LT0
0.50 0.50 0.50 C 1.000 UL
LTa
0.50 0.50 0.50 C 6409 280 M
0 4591 V
stroke
LT0
0.50 0.50 0.50 C 6409 280 M
0 63 V
0 4528 R
0 -63 V
0 -4668 R
( 64.3466) Cshow
1.000 UL
LT0
0.50 0.50 0.50 C 1.000 UL
LTa
0.50 0.50 0.50 C 6469 280 M
0 4591 V
stroke
LT0
0.50 0.50 0.50 C 6469 280 M
0 63 V
0 4528 R
0 -63 V
0 -4668 R
( 65.0538) Cshow
1.000 UL
LT0
0.50 0.50 0.50 C 1.000 UL
LTa
0.50 0.50 0.50 C 6528 280 M
0 4591 V
stroke
LT0
0.50 0.50 0.50 C 6528 280 M
0 63 V
0 4528 R
0 -63 V
0 -4668 R
( 65.7609) Cshow
1.000 UL
LT0
0.50 0.50 0.50 C 1.000 UL
LTa
0.50 0.50 0.50 C 6588 280 M
0 4591 V
stroke
LT0
0.50 0.50 0.50 C 6588 280 M
0 63 V
0 4528 R
0 -63 V
0 -4668 R
( 66.468) Cshow
1.000 UL
LT0
0.50 0.50 0.50 C 1.000 UL
LTa
0.50 0.50 0.50 C 6648 280 M
0 4591 V
stroke
LT0
0.50 0.50 0.50 C 6648 280 M
0 63 V
0 4528 R
0 -63 V
0 -4668 R
( 67.1751) Cshow
1.000 UL
LT0
0.50 0.50 0.50 C 1.000 UL
LTa
0.50 0.50 0.50 C 6708 280 M
0 4591 V
stroke
LT0
0.50 0.50 0.50 C 6708 280 M
0 63 V
0 4528 R
0 -63 V
0 -4668 R
( 67.8822) Cshow
1.000 UL
LT0
0.50 0.50 0.50 C 1.000 UL
LTa
0.50 0.50 0.50 C 6768 280 M
0 4591 V
stroke
LT0
0.50 0.50 0.50 C 6768 280 M
0 63 V
0 4528 R
0 -63 V
0 -4668 R
( 68.5893) Cshow
1.000 UL
LT0
0.50 0.50 0.50 C 1.000 UL
LTa
0.50 0.50 0.50 C 6827 280 M
0 4591 V
stroke
LT0
0.50 0.50 0.50 C 6827 280 M
0 63 V
0 4528 R
0 -63 V
0 -4668 R
( 69.2964) Cshow
1.000 UL
LT0
0.50 0.50 0.50 C 1.000 UL
LTa
0.50 0.50 0.50 C 6887 280 M
0 4591 V
stroke
LT0
0.50 0.50 0.50 C 6887 280 M
0 63 V
0 4528 R
0 -63 V
0 -4668 R
( 70.0035) Cshow
1.000 UL
LT0
0.50 0.50 0.50 C 1.000 UL
LTa
0.50 0.50 0.50 C 6947 280 M
0 4591 V
stroke
LT0
0.50 0.50 0.50 C 6947 280 M
0 63 V
0 4528 R
0 -63 V
0 -4668 R
( 70.7106) Cshow
1.000 UL
LT0
0.50 0.50 0.50 C 1.000 UL
LT0
0.50 0.50 0.50 C 966 4871 M
966 280 L
5981 0 V
0 4591 R
-5981 0 R
1.000 UP
stroke
LT0
0.50 0.50 0.50 C % Begin plot #1
1.500 UP
2.000 UL
LT0
0.00 0.00 1.00 C /Helvetica findfont 140 scalefont setfont
/vshift -46 def
1145 372 M
60 0 V
0 183 R
60 0 V
0 92 R
60 0 V
0 781 R
60 0 V
59 0 V
60 0 V
60 0 V
60 0 V
0 46 R
60 0 V
0 413 R
60 0 V
59 0 V
60 0 V
60 0 V
60 0 V
60 0 V
0 46 R
59 0 V
60 0 V
0 92 R
60 0 V
0 91 R
60 0 V
0 46 R
60 0 V
59 0 V
60 0 V
60 0 V
60 0 V
60 0 V
59 0 V
0 46 R
60 0 V
0 46 R
60 0 V
60 0 V
60 0 V
60 0 V
0 92 R
59 0 V
60 0 V
60 0 V
60 0 V
60 0 V
0 92 R
59 0 V
0 138 R
60 0 V
0 45 R
60 0 V
0 46 R
60 0 V
60 0 V
0 138 R
59 0 V
0 781 R
60 0 V
60 0 V
60 0 V
60 0 V
60 0 V
0 91 R
59 0 V
60 0 V
60 0 V
60 0 V
60 0 V
59 0 V
60 0 V
60 0 V
60 0 V
60 0 V
59 0 V
60 0 V
0 138 R
60 0 V
0 92 R
60 0 V
60 0 V
59 0 V
0 46 R
60 0 V
60 0 V
60 0 V
60 0 V
60 0 V
59 0 V
60 0 V
60 0 V
60 0 V
0 46 R
60 0 V
59 0 V
60 0 V
60 0 V
60 0 V
0 321 R
60 0 V
59 0 V
60 0 V
stroke 5930 4320 M
60 0 V
60 0 V
60 0 V
0 46 R
59 0 V
60 0 V
0 46 R
60 0 V
0 275 R
60 0 V
60 0 V
60 0 V
59 0 V
60 0 V
60 0 V
966 280 M
60 0 V
6827 4825 M
60 0 V
1026 280 M
60 0 V
59 0 V
6648 4825 M
60 0 V
60 0 V
59 0 V
1145 280 M
0 46 V
0 46 V
60 0 R
0 46 V
0 46 V
0 46 V
0 45 V
60 0 R
0 46 V
0 46 V
60 0 R
0 46 V
0 46 V
0 46 V
0 46 V
0 46 V
0 46 V
0 46 V
0 46 V
0 45 V
0 46 V
0 46 V
0 46 V
0 46 V
0 46 V
0 46 V
0 46 V
0 46 V
299 0 R
0 46 V
60 0 R
0 46 V
0 45 V
0 46 V
0 46 V
0 46 V
0 46 V
0 46 V
0 46 V
0 46 V
359 0 R
0 46 V
119 0 R
0 46 V
0 46 V
60 0 R
0 45 V
0 46 V
60 0 R
0 46 V
418 0 R
0 46 V
60 0 R
0 46 V
240 0 R
0 46 V
0 46 V
299 0 R
0 46 V
0 46 V
59 0 R
0 46 V
0 46 V
0 46 V
60 0 R
0 45 V
60 0 R
0 46 V
120 0 R
0 46 V
0 46 V
0 46 V
59 0 R
0 46 V
0 46 V
0 46 V
0 46 V
stroke 3657 2989 M
0 46 V
0 46 V
0 45 V
0 46 V
0 46 V
0 46 V
0 46 V
0 46 V
0 46 V
0 46 V
0 46 V
0 46 V
0 46 V
300 0 R
0 45 V
0 46 V
717 0 R
0 46 V
0 46 V
0 46 V
60 0 R
0 46 V
0 46 V
179 0 R
0 46 V
539 0 R
0 46 V
299 0 R
0 46 V
0 46 V
0 45 V
0 46 V
0 46 V
0 46 V
0 46 V
359 0 R
0 46 V
119 0 R
0 46 V
60 0 R
0 46 V
0 46 V
0 46 V
0 46 V
0 45 V
0 46 V
359 0 R
0 46 V
0 46 V
0 46 V
1145 372 CircleF
1205 372 CircleF
1205 555 CircleF
1265 555 CircleF
1265 647 CircleF
1325 647 CircleF
1325 1428 CircleF
1385 1428 CircleF
1385 1428 CircleF
1444 1428 CircleF
1444 1428 CircleF
1504 1428 CircleF
1504 1428 CircleF
1564 1428 CircleF
1564 1428 CircleF
1624 1428 CircleF
1624 1474 CircleF
1684 1474 CircleF
1684 1887 CircleF
1744 1887 CircleF
1744 1887 CircleF
1803 1887 CircleF
1803 1887 CircleF
1863 1887 CircleF
1863 1887 CircleF
1923 1887 CircleF
1923 1887 CircleF
1983 1887 CircleF
1983 1887 CircleF
2043 1887 CircleF
2043 1933 CircleF
2102 1933 CircleF
2102 1933 CircleF
2162 1933 CircleF
2162 2025 CircleF
2222 2025 CircleF
2222 2116 CircleF
2282 2116 CircleF
2282 2162 CircleF
2342 2162 CircleF
2342 2162 CircleF
2401 2162 CircleF
2401 2162 CircleF
2461 2162 CircleF
2461 2162 CircleF
2521 2162 CircleF
2521 2162 CircleF
2581 2162 CircleF
2581 2162 CircleF
2641 2162 CircleF
2641 2162 CircleF
2700 2162 CircleF
2700 2208 CircleF
2760 2208 CircleF
2760 2254 CircleF
2820 2254 CircleF
2820 2254 CircleF
2880 2254 CircleF
2880 2254 CircleF
2940 2254 CircleF
2940 2254 CircleF
3000 2254 CircleF
3000 2346 CircleF
3059 2346 CircleF
3059 2346 CircleF
3119 2346 CircleF
3119 2346 CircleF
3179 2346 CircleF
3179 2346 CircleF
3239 2346 CircleF
3239 2346 CircleF
3299 2346 CircleF
3299 2438 CircleF
3358 2438 CircleF
3358 2576 CircleF
3418 2576 CircleF
3418 2621 CircleF
3478 2621 CircleF
3478 2667 CircleF
3538 2667 CircleF
3538 2667 CircleF
3598 2667 CircleF
3598 2805 CircleF
3657 2805 CircleF
3657 3586 CircleF
3717 3586 CircleF
3717 3586 CircleF
3777 3586 CircleF
3777 3586 CircleF
3837 3586 CircleF
3837 3586 CircleF
3897 3586 CircleF
3897 3586 CircleF
3957 3586 CircleF
3957 3677 CircleF
4016 3677 CircleF
4016 3677 CircleF
4076 3677 CircleF
4076 3677 CircleF
4136 3677 CircleF
4136 3677 CircleF
4196 3677 CircleF
4196 3677 CircleF
4256 3677 CircleF
4256 3677 CircleF
4315 3677 CircleF
4315 3677 CircleF
4375 3677 CircleF
4375 3677 CircleF
4435 3677 CircleF
4435 3677 CircleF
4495 3677 CircleF
4495 3677 CircleF
4555 3677 CircleF
4555 3677 CircleF
4614 3677 CircleF
4614 3677 CircleF
4674 3677 CircleF
4674 3815 CircleF
4734 3815 CircleF
4734 3907 CircleF
4794 3907 CircleF
4794 3907 CircleF
4854 3907 CircleF
4854 3907 CircleF
4913 3907 CircleF
4913 3953 CircleF
4973 3953 CircleF
4973 3953 CircleF
5033 3953 CircleF
5033 3953 CircleF
5093 3953 CircleF
5093 3953 CircleF
5153 3953 CircleF
5153 3953 CircleF
5213 3953 CircleF
5213 3953 CircleF
5272 3953 CircleF
5272 3953 CircleF
5332 3953 CircleF
5332 3953 CircleF
5392 3953 CircleF
5392 3953 CircleF
5452 3953 CircleF
5452 3999 CircleF
5512 3999 CircleF
5512 3999 CircleF
5571 3999 CircleF
5571 3999 CircleF
5631 3999 CircleF
5631 3999 CircleF
5691 3999 CircleF
5691 3999 CircleF
5751 3999 CircleF
5751 4320 CircleF
5811 4320 CircleF
5811 4320 CircleF
5870 4320 CircleF
5870 4320 CircleF
5930 4320 CircleF
5930 4320 CircleF
5990 4320 CircleF
5990 4320 CircleF
6050 4320 CircleF
6050 4320 CircleF
6110 4320 CircleF
6110 4366 CircleF
6169 4366 CircleF
6169 4366 CircleF
6229 4366 CircleF
6229 4412 CircleF
6289 4412 CircleF
6289 4687 CircleF
6349 4687 CircleF
6349 4687 CircleF
6409 4687 CircleF
6409 4687 CircleF
6469 4687 CircleF
6469 4687 CircleF
6528 4687 CircleF
6528 4687 CircleF
6588 4687 CircleF
6588 4687 CircleF
6648 4687 CircleF
966 280 CircleF
1026 280 CircleF
6827 4825 CircleF
6887 4825 CircleF
1026 280 CircleF
1086 280 CircleF
1086 280 CircleF
1145 280 CircleF
6648 4825 CircleF
6708 4825 CircleF
6708 4825 CircleF
6768 4825 CircleF
6768 4825 CircleF
6827 4825 CircleF
1145 280 CircleF
1145 326 CircleF
1145 326 CircleF
1145 372 CircleF
1205 372 CircleF
1205 418 CircleF
1205 418 CircleF
1205 464 CircleF
1205 464 CircleF
1205 510 CircleF
1205 510 CircleF
1205 555 CircleF
1265 555 CircleF
1265 601 CircleF
1265 601 CircleF
1265 647 CircleF
1325 647 CircleF
1325 693 CircleF
1325 693 CircleF
1325 739 CircleF
1325 739 CircleF
1325 785 CircleF
1325 785 CircleF
1325 831 CircleF
1325 831 CircleF
1325 877 CircleF
1325 877 CircleF
1325 923 CircleF
1325 923 CircleF
1325 969 CircleF
1325 969 CircleF
1325 1015 CircleF
1325 1015 CircleF
1325 1060 CircleF
1325 1060 CircleF
1325 1106 CircleF
1325 1106 CircleF
1325 1152 CircleF
1325 1152 CircleF
1325 1198 CircleF
1325 1198 CircleF
1325 1244 CircleF
1325 1244 CircleF
1325 1290 CircleF
1325 1290 CircleF
1325 1336 CircleF
1325 1336 CircleF
1325 1382 CircleF
1325 1382 CircleF
1325 1428 CircleF
1624 1428 CircleF
1624 1474 CircleF
1684 1474 CircleF
1684 1520 CircleF
1684 1520 CircleF
1684 1565 CircleF
1684 1565 CircleF
1684 1611 CircleF
1684 1611 CircleF
1684 1657 CircleF
1684 1657 CircleF
1684 1703 CircleF
1684 1703 CircleF
1684 1749 CircleF
1684 1749 CircleF
1684 1795 CircleF
1684 1795 CircleF
1684 1841 CircleF
1684 1841 CircleF
1684 1887 CircleF
2043 1887 CircleF
2043 1933 CircleF
2162 1933 CircleF
2162 1979 CircleF
2162 1979 CircleF
2162 2025 CircleF
2222 2025 CircleF
2222 2070 CircleF
2222 2070 CircleF
2222 2116 CircleF
2282 2116 CircleF
2282 2162 CircleF
2700 2162 CircleF
2700 2208 CircleF
2760 2208 CircleF
2760 2254 CircleF
3000 2254 CircleF
3000 2300 CircleF
3000 2300 CircleF
3000 2346 CircleF
3299 2346 CircleF
3299 2392 CircleF
3299 2392 CircleF
3299 2438 CircleF
3358 2438 CircleF
3358 2484 CircleF
3358 2484 CircleF
3358 2530 CircleF
3358 2530 CircleF
3358 2576 CircleF
3418 2576 CircleF
3418 2621 CircleF
3478 2621 CircleF
3478 2667 CircleF
3598 2667 CircleF
3598 2713 CircleF
3598 2713 CircleF
3598 2759 CircleF
3598 2759 CircleF
3598 2805 CircleF
3657 2805 CircleF
3657 2851 CircleF
3657 2851 CircleF
3657 2897 CircleF
3657 2897 CircleF
3657 2943 CircleF
3657 2943 CircleF
3657 2989 CircleF
3657 2989 CircleF
3657 3035 CircleF
3657 3035 CircleF
3657 3081 CircleF
3657 3081 CircleF
3657 3126 CircleF
3657 3126 CircleF
3657 3172 CircleF
3657 3172 CircleF
3657 3218 CircleF
3657 3218 CircleF
3657 3264 CircleF
3657 3264 CircleF
3657 3310 CircleF
3657 3310 CircleF
3657 3356 CircleF
3657 3356 CircleF
3657 3402 CircleF
3657 3402 CircleF
3657 3448 CircleF
3657 3448 CircleF
3657 3494 CircleF
3657 3494 CircleF
3657 3540 CircleF
3657 3540 CircleF
3657 3586 CircleF
3957 3586 CircleF
3957 3631 CircleF
3957 3631 CircleF
3957 3677 CircleF
4674 3677 CircleF
4674 3723 CircleF
4674 3723 CircleF
4674 3769 CircleF
4674 3769 CircleF
4674 3815 CircleF
4734 3815 CircleF
4734 3861 CircleF
4734 3861 CircleF
4734 3907 CircleF
4913 3907 CircleF
4913 3953 CircleF
5452 3953 CircleF
5452 3999 CircleF
5751 3999 CircleF
5751 4045 CircleF
5751 4045 CircleF
5751 4091 CircleF
5751 4091 CircleF
5751 4136 CircleF
5751 4136 CircleF
5751 4182 CircleF
5751 4182 CircleF
5751 4228 CircleF
5751 4228 CircleF
5751 4274 CircleF
5751 4274 CircleF
5751 4320 CircleF
6110 4320 CircleF
6110 4366 CircleF
6229 4366 CircleF
6229 4412 CircleF
6289 4412 CircleF
6289 4458 CircleF
6289 4458 CircleF
6289 4504 CircleF
6289 4504 CircleF
6289 4550 CircleF
6289 4550 CircleF
6289 4596 CircleF
6289 4596 CircleF
6289 4641 CircleF
6289 4641 CircleF
6289 4687 CircleF
6648 4687 CircleF
6648 4733 CircleF
6648 4733 CircleF
6648 4779 CircleF
6648 4779 CircleF
6648 4825 CircleF
% End plot #1
% Begin plot #2
1.500 UP
2.000 UL
LT0
1.00 0.55 0.00 C /Helvetica findfont 140 scalefont setfont
6753 1267 M
60 46 V
1540 4491 M
60 46 V
1750 983 M
59 46 V
4355 4076 M
60 46 V
6549 1093 M
60 46 V
-40 3325 R
60 46 V
5953 734 M
60 46 V
-580 323 R
60 46 V
159 1938 R
60 46 V
-673 359 R
60 46 V
2172 286 M
60 46 V
4575 3859 M
60 46 V
3349 1644 M
60 46 V
2292 299 M
60 46 V
1494 3015 M
60 46 V
6211 2645 M
60 46 V
6768 1679 M
60 46 V
1910 851 M
60 46 V
938 824 R
60 46 V
4118 3487 M
59 46 V
2647 1980 M
60 46 V
4030 3859 M
59 46 V
732 -385 R
59 45 V
3832 4392 M
59 46 V
6449 3110 M
59 46 V
4575 3506 M
60 46 V
1116 4384 M
60 46 V
216 -506 R
60 46 V
3252 496 M
60 46 V
1273 1171 M
59 46 V
-87 227 R
60 46 V
3545 707 R
60 46 V
3503 2624 M
60 46 V
6651 336 M
59 45 V
3941 1337 M
60 46 V
6415 4321 M
60 46 V
1698 705 M
60 46 V
1327 2535 M
60 46 V
2475 1337 M
60 46 V
2129 3293 M
59 46 V
5458 1823 M
60 46 V
2323 4047 M
60 46 V
4268 275 R
60 46 V
5004 883 M
60 46 V
53 571 R
60 46 V
3634 2331 M
60 46 V
6438 3917 M
60 46 V
4185 1894 M
60 46 V
728 577 R
60 46 V
776 217 R
60 46 V
3187 1090 M
60 46 V
4104 889 M
60 45 V
2106 4589 M
60 46 V
stroke 2166 4635 M
1975 2621 M
60 46 V
2846 745 M
60 46 V
2219 658 R
59 46 V
79 3019 R
60 46 V
2289 3868 M
60 46 V
5051 3081 M
60 46 V
5803 1779 M
59 46 V
4518 1960 M
60 46 V
2711 2957 M
60 46 V
-74 -809 R
60 46 V
1255 1548 M
60 46 V
1003 2803 M
60 46 V
3484 1281 M
60 46 V
-543 987 R
60 46 V
2509 343 R
60 46 V
5397 1676 M
60 46 V
419 2886 R
60 46 V
1179 3068 M
60 46 V
2740 1632 M
60 45 V
4681 2689 M
60 46 V
6535 1411 M
60 46 V
5690 2667 M
60 46 V
4373 1434 M
60 46 V
1867 3472 M
60 46 V
2168 1558 M
60 45 V
262 -147 R
60 46 V
5389 1055 M
59 46 V
94 1702 R
60 46 V
1267 742 M
60 46 V
5034 2877 M
59 46 V
1829 3143 M
60 46 V
5237 2282 M
59 46 V
6521 1162 M
60 46 V
3811 1191 M
60 46 V
6802 3906 M
59 46 V
3928 435 M
60 46 V
5843 2637 M
60 46 V
3754 4528 M
60 46 V
1707 3493 M
59 46 V
3762 2702 M
60 46 V
5385 4135 M
60 46 V
2860 2947 M
59 46 V
1598 2515 M
60 45 V
359 1607 R
60 46 V
3631 852 M
60 46 V
-889 497 R
60 46 V
1957 1115 M
60 46 V
1755 3212 M
60 46 V
6415 1473 M
59 45 V
5434 3458 M
60 46 V
1314 708 M
60 46 V
1439 705 R
60 46 V
stroke 2873 1505 M
6123 780 M
60 46 V
1437 2993 M
60 46 V
4898 4196 M
60 46 V
2851 4578 M
60 46 V
2007 3017 M
60 46 V
2910 -42 R
60 45 V
4786 4643 M
60 46 V
975 4657 M
60 45 V
6313 4299 M
60 45 V
4507 1529 M
60 46 V
3352 1342 M
60 46 V
1119 593 R
59 46 V
1281 4218 M
60 46 V
6527 964 M
60 46 V
1433 3901 M
60 46 V
1191 2706 M
60 46 V
6681 347 M
60 46 V
4597 3609 M
60 46 V
227 1030 R
60 46 V
5786 3197 M
60 46 V
4779 981 M
60 46 V
431 474 R
59 46 V
3055 1801 M
60 45 V
6760 1001 M
60 46 V
3122 2325 M
60 46 V
1782 873 M
60 46 V
3836 748 R
60 46 V
4702 667 M
60 46 V
3478 3639 M
60 46 V
2585 529 M
60 46 V
1659 2399 M
60 46 V
3633 3522 M
60 46 V
2218 1346 M
60 46 V
3374 927 M
60 46 V
1025 1674 M
60 46 V
2431 744 M
60 46 V
482 1456 R
60 46 V
3747 662 M
60 46 V
1979 323 M
60 45 V
6213 2387 M
60 46 V
-681 397 R
60 46 V
2219 625 M
60 46 V
425 1528 R
60 46 V
5713 3776 M
60 46 V
1173 3472 M
60 46 V
4657 28 R
59 46 V
1499 2181 M
59 46 V
4240 3649 M
59 46 V
3035 1785 M
59 46 V
983 2216 R
60 45 V
1134 336 M
60 46 V
5852 3150 M
60 46 V
stroke 5912 3196 M
1301 1165 M
60 46 V
3395 2501 M
60 46 V
2754 941 R
60 46 V
6399 1554 M
60 45 V
3177 1008 M
60 46 V
1525 3251 M
60 46 V
221 162 R
60 46 V
3021 2318 M
59 46 V
-1302 79 R
60 46 V
2301 1141 M
60 46 V
908 1953 R
60 46 V
884 1110 R
60 45 V
3431 1287 M
60 46 V
-26 1968 R
59 45 V
2909 2213 M
60 46 V
1528 88 R
59 45 V
339 1504 R
60 46 V
3326 1452 M
60 46 V
2584 3372 M
60 46 V
6348 2052 M
60 46 V
-5231 23 R
60 45 V
3843 3416 M
60 46 V
5782 704 M
60 46 V
328 4012 R
59 46 V
5127 4184 M
60 46 V
1164 1103 M
60 46 V
2675 996 M
60 46 V
3936 3895 M
60 46 V
906 -657 R
60 45 V
1038 22 R
60 46 V
1688 2825 M
60 46 V
2532 503 R
60 46 V
1395 645 R
60 46 V
-47 206 R
60 46 V
2936 979 M
60 46 V
1854 734 M
60 46 V
406 2331 R
60 46 V
4077 399 M
60 46 V
2344 3424 M
60 46 V
267 439 R
60 46 V
6672 1344 M
60 46 V
2998 2768 M
60 46 V
6559 4659 M
60 46 V
6074 849 M
60 45 V
583 2080 R
60 46 V
5871 2825 M
60 46 V
1770 4609 M
60 46 V
1737 2092 M
60 46 V
4040 1983 M
59 46 V
1100 715 M
60 45 V
1638 376 R
59 46 V
5576 3777 M
59 46 V
stroke 5635 3823 M
1973 4142 M
60 46 V
6013 826 M
60 46 V
2293 4516 M
60 45 V
378 201 R
60 45 V
1428 1812 M
60 46 V
5888 3997 M
60 46 V
2942 1688 M
60 46 V
1156 4624 M
60 46 V
6043 1137 M
60 46 V
6581 979 M
59 46 V
2709 2356 M
60 46 V
5263 4464 M
59 45 V
6316 2430 M
60 45 V
23 -214 R
60 46 V
6353 1305 M
60 46 V
5112 3393 M
60 46 V
2617 2334 M
60 46 V
2793 655 M
60 46 V
4724 4642 M
60 46 V
1829 3148 M
60 46 V
4893 1414 M
60 46 V
6788 4394 M
60 46 V
1057 4675 M
60 46 V
5374 3091 M
60 45 V
1559 1444 M
59 46 V
4647 1102 M
60 46 V
3628 3172 M
59 45 V
3329 1898 M
60 46 V
4399 3655 M
59 46 V
3189 4666 M
60 46 V
2246 2104 M
60 46 V
1497 1831 M
60 46 V
1300 761 M
60 46 V
4594 420 M
60 46 V
2635 1783 M
60 45 V
6391 4684 M
60 46 V
6649 3193 M
60 46 V
2111 1922 M
60 46 V
2812 182 R
60 46 V
4882 3289 M
60 46 V
5669 1743 M
60 45 V
3094 4463 M
60 46 V
4173 2793 M
60 46 V
1369 913 M
59 46 V
504 808 R
60 46 V
6657 4094 M
60 46 V
2554 1825 M
59 45 V
4651 407 M
60 46 V
2514 4323 M
60 46 V
4680 1014 M
59 46 V
2463 3086 M
60 46 V
3005 1686 M
59 46 V
stroke 3064 1732 M
5308 3442 M
60 46 V
1665 1870 M
60 46 V
4299 1422 M
60 46 V
3288 3450 M
60 46 V
1300 486 R
59 46 V
5979 2601 M
60 46 V
5840 2071 M
60 46 V
4353 1111 M
60 46 V
6095 4479 M
59 46 V
5586 1105 M
59 46 V
3243 1575 M
60 46 V
5747 1449 M
60 46 V
686 2116 R
60 45 V
3769 283 M
59 46 V
1263 1415 M
60 46 V
4631 3195 M
60 46 V
1052 943 R
60 46 V
2404 813 M
60 46 V
4813 2143 M
60 45 V
767 822 R
60 46 V
5498 1481 M
60 46 V
6671 1170 M
60 46 V
2091 3500 M
60 46 V
5445 1044 M
60 46 V
3991 647 M
60 46 V
409 1583 R
60 46 V
1615 294 M
60 46 V
6560 784 M
59 46 V
3521 4331 M
60 46 V
8 -2131 R
60 45 V
3474 883 M
59 45 V
5911 2420 M
60 45 V
-1865 81 R
59 46 V
6427 1889 M
60 46 V
70 -380 R
60 46 V
-239 413 R
60 45 V
5674 1647 M
60 46 V
1645 1676 M
60 46 V
-96 2707 R
60 46 V
3090 3018 M
60 46 V
5045 550 M
60 46 V
3325 2543 M
60 45 V
5424 1693 M
60 46 V
2679 4156 M
59 46 V
5022 1427 M
59 46 V
1699 644 R
60 46 V
6100 1070 M
60 46 V
-588 945 R
60 46 V
942 487 R
59 45 V
3349 2830 M
60 46 V
1369 3011 M
59 46 V
5913 612 M
59 45 V
stroke 5972 657 M
4712 3806 M
60 46 V
6558 2515 M
59 46 V
5555 4350 M
60 45 V
863 -201 R
59 46 V
1306 1330 M
60 46 V
2341 888 M
60 46 V
4095 3648 M
60 46 V
3529 2639 M
60 46 V
6323 1428 M
60 46 V
-20 728 R
59 46 V
3631 2794 M
60 46 V
1257 -81 R
60 45 V
4580 4049 M
60 46 V
-2073 75 R
60 46 V
1834 2289 M
60 45 V
1248 1955 M
59 46 V
4626 4565 M
60 46 V
1595 1407 M
60 46 V
4016 603 M
60 46 V
2149 2351 M
60 46 V
2054 3587 M
59 46 V
1195 1211 M
60 46 V
6238 601 M
60 45 V
3243 2346 M
60 45 V
6198 4365 M
60 46 V
6712 1260 M
60 46 V
1722 3632 M
59 46 V
4618 2222 M
60 46 V
384 2297 R
59 45 V
-3049 45 R
59 46 V
2971 1360 M
59 46 V
1651 1639 M
60 45 V
6333 4673 M
60 46 V
3600 3138 M
60 46 V
1342 420 M
60 46 V
2421 4324 M
59 46 V
3615 3553 M
60 46 V
4963 4605 M
60 46 V
3789 4641 M
60 46 V
-354 5 R
60 46 V
581 -575 R
60 46 V
2715 1274 M
60 46 V
4467 654 M
60 45 V
3185 1272 M
60 46 V
2737 2772 M
60 46 V
4033 2192 M
60 46 V
-2109 27 R
60 46 V
1596 1763 M
59 46 V
5015 3701 M
59 45 V
-492 418 R
60 46 V
6525 1478 M
60 46 V
5326 2981 M
60 46 V
stroke 5386 3027 M
3896 2989 M
60 46 V
5736 1839 M
60 46 V
5676 1515 M
59 46 V
4187 996 M
60 46 V
2940 1695 M
60 46 V
6052 2981 M
60 46 V
3031 3577 M
60 46 V
6674 2597 M
60 45 V
4589 4422 M
60 46 V
3213 2597 M
60 46 V
1116 2767 M
60 46 V
3608 40 R
60 46 V
1854 4103 M
59 46 V
4178 2609 M
60 46 V
1268 2952 M
59 45 V
3554 748 R
60 46 V
4169 499 M
59 46 V
3836 2648 M
60 46 V
2667 3812 M
60 46 V
6711 1039 M
59 46 V
5427 3954 M
60 46 V
2651 3454 M
60 46 V
3542 910 R
60 46 V
1888 2279 M
59 46 V
1611 2054 M
59 46 V
3748 889 M
59 46 V
2761 781 M
60 46 V
3161 369 M
60 46 V
5129 4519 M
60 46 V
1640 4417 M
60 46 V
5138 2345 M
60 45 V
3280 3774 M
60 46 V
2950 2006 M
60 45 V
5243 584 M
60 46 V
3012 4125 M
60 46 V
6753 1267 CircleF
6813 1313 CircleF
1540 4491 CircleF
1600 4537 CircleF
1750 983 CircleF
1809 1029 CircleF
4355 4076 CircleF
4415 4122 CircleF
6549 1093 CircleF
6609 1139 CircleF
6569 4464 CircleF
6629 4510 CircleF
5953 734 CircleF
6013 780 CircleF
5433 1103 CircleF
5493 1149 CircleF
5652 3087 CircleF
5712 3133 CircleF
5039 3492 CircleF
5099 3538 CircleF
2172 286 CircleF
2232 332 CircleF
4575 3859 CircleF
4635 3905 CircleF
3349 1644 CircleF
3409 1690 CircleF
2292 299 CircleF
2352 345 CircleF
1494 3015 CircleF
1554 3061 CircleF
6211 2645 CircleF
6271 2691 CircleF
6768 1679 CircleF
6828 1725 CircleF
1910 851 CircleF
1970 897 CircleF
2908 1721 CircleF
2968 1767 CircleF
4118 3487 CircleF
4177 3533 CircleF
2647 1980 CircleF
2707 2026 CircleF
4030 3859 CircleF
4089 3905 CircleF
4821 3520 CircleF
4880 3565 CircleF
3832 4392 CircleF
3891 4438 CircleF
6449 3110 CircleF
6508 3156 CircleF
4575 3506 CircleF
4635 3552 CircleF
1116 4384 CircleF
1176 4430 CircleF
1392 3924 CircleF
1452 3970 CircleF
3252 496 CircleF
3312 542 CircleF
1273 1171 CircleF
1332 1217 CircleF
1245 1444 CircleF
1305 1490 CircleF
4850 2197 CircleF
4910 2243 CircleF
3503 2624 CircleF
3563 2670 CircleF
6651 336 CircleF
6710 381 CircleF
3941 1337 CircleF
4001 1383 CircleF
6415 4321 CircleF
6475 4367 CircleF
1698 705 CircleF
1758 751 CircleF
1327 2535 CircleF
1387 2581 CircleF
2475 1337 CircleF
2535 1383 CircleF
2129 3293 CircleF
2188 3339 CircleF
5458 1823 CircleF
5518 1869 CircleF
2323 4047 CircleF
2383 4093 CircleF
6651 4368 CircleF
6711 4414 CircleF
5004 883 CircleF
5064 929 CircleF
5117 1500 CircleF
5177 1546 CircleF
3634 2331 CircleF
3694 2377 CircleF
6438 3917 CircleF
6498 3963 CircleF
4185 1894 CircleF
4245 1940 CircleF
4973 2517 CircleF
5033 2563 CircleF
5809 2780 CircleF
5869 2826 CircleF
3187 1090 CircleF
3247 1136 CircleF
4104 889 CircleF
4164 934 CircleF
2106 4589 CircleF
2166 4635 CircleF
1975 2621 CircleF
2035 2667 CircleF
2846 745 CircleF
2906 791 CircleF
5125 1449 CircleF
5184 1495 CircleF
5263 4514 CircleF
5323 4560 CircleF
2289 3868 CircleF
2349 3914 CircleF
5051 3081 CircleF
5111 3127 CircleF
5803 1779 CircleF
5862 1825 CircleF
4518 1960 CircleF
4578 2006 CircleF
2711 2957 CircleF
2771 3003 CircleF
2697 2194 CircleF
2757 2240 CircleF
1255 1548 CircleF
1315 1594 CircleF
1003 2803 CircleF
1063 2849 CircleF
3484 1281 CircleF
3544 1327 CircleF
3001 2314 CircleF
3061 2360 CircleF
5570 2703 CircleF
5630 2749 CircleF
5397 1676 CircleF
5457 1722 CircleF
5876 4608 CircleF
5936 4654 CircleF
1179 3068 CircleF
1239 3114 CircleF
2740 1632 CircleF
2800 1677 CircleF
4681 2689 CircleF
4741 2735 CircleF
6535 1411 CircleF
6595 1457 CircleF
5690 2667 CircleF
5750 2713 CircleF
4373 1434 CircleF
4433 1480 CircleF
1867 3472 CircleF
1927 3518 CircleF
2168 1558 CircleF
2228 1603 CircleF
2490 1456 CircleF
2550 1502 CircleF
5389 1055 CircleF
5448 1101 CircleF
5542 2803 CircleF
5602 2849 CircleF
1267 742 CircleF
1327 788 CircleF
5034 2877 CircleF
5093 2923 CircleF
1829 3143 CircleF
1889 3189 CircleF
5237 2282 CircleF
5296 2328 CircleF
6521 1162 CircleF
6581 1208 CircleF
3811 1191 CircleF
3871 1237 CircleF
6802 3906 CircleF
6861 3952 CircleF
3928 435 CircleF
3988 481 CircleF
5843 2637 CircleF
5903 2683 CircleF
3754 4528 CircleF
3814 4574 CircleF
1707 3493 CircleF
1766 3539 CircleF
3762 2702 CircleF
3822 2748 CircleF
5385 4135 CircleF
5445 4181 CircleF
2860 2947 CircleF
2919 2993 CircleF
1598 2515 CircleF
1658 2560 CircleF
2017 4167 CircleF
2077 4213 CircleF
3631 852 CircleF
3691 898 CircleF
2802 1395 CircleF
2862 1441 CircleF
1957 1115 CircleF
2017 1161 CircleF
1755 3212 CircleF
1815 3258 CircleF
6415 1473 CircleF
6474 1518 CircleF
5434 3458 CircleF
5494 3504 CircleF
1314 708 CircleF
1374 754 CircleF
2813 1459 CircleF
2873 1505 CircleF
6123 780 CircleF
6183 826 CircleF
1437 2993 CircleF
1497 3039 CircleF
4898 4196 CircleF
4958 4242 CircleF
2851 4578 CircleF
2911 4624 CircleF
2007 3017 CircleF
2067 3063 CircleF
4977 3021 CircleF
5037 3066 CircleF
4786 4643 CircleF
4846 4689 CircleF
975 4657 CircleF
1035 4702 CircleF
6313 4299 CircleF
6373 4344 CircleF
4507 1529 CircleF
4567 1575 CircleF
3352 1342 CircleF
3412 1388 CircleF
4531 1981 CircleF
4590 2027 CircleF
1281 4218 CircleF
1341 4264 CircleF
6527 964 CircleF
6587 1010 CircleF
1433 3901 CircleF
1493 3947 CircleF
1191 2706 CircleF
1251 2752 CircleF
6681 347 CircleF
6741 393 CircleF
4597 3609 CircleF
4657 3655 CircleF
4884 4685 CircleF
4944 4731 CircleF
5786 3197 CircleF
5846 3243 CircleF
4779 981 CircleF
4839 1027 CircleF
5270 1501 CircleF
5329 1547 CircleF
3055 1801 CircleF
3115 1846 CircleF
6760 1001 CircleF
6820 1047 CircleF
3122 2325 CircleF
3182 2371 CircleF
1782 873 CircleF
1842 919 CircleF
5678 1667 CircleF
5738 1713 CircleF
4702 667 CircleF
4762 713 CircleF
3478 3639 CircleF
3538 3685 CircleF
2585 529 CircleF
2645 575 CircleF
1659 2399 CircleF
1719 2445 CircleF
3633 3522 CircleF
3693 3568 CircleF
2218 1346 CircleF
2278 1392 CircleF
3374 927 CircleF
3434 973 CircleF
1025 1674 CircleF
1085 1720 CircleF
2431 744 CircleF
2491 790 CircleF
2973 2246 CircleF
3033 2292 CircleF
3747 662 CircleF
3807 708 CircleF
1979 323 CircleF
2039 368 CircleF
6213 2387 CircleF
6273 2433 CircleF
5592 2830 CircleF
5652 2876 CircleF
2219 625 CircleF
2279 671 CircleF
2704 2199 CircleF
2764 2245 CircleF
5713 3776 CircleF
5773 3822 CircleF
1173 3472 CircleF
1233 3518 CircleF
5890 3546 CircleF
5949 3592 CircleF
1499 2181 CircleF
1558 2227 CircleF
4240 3649 CircleF
4299 3695 CircleF
3035 1785 CircleF
3094 1831 CircleF
4077 4047 CircleF
4137 4092 CircleF
1134 336 CircleF
1194 382 CircleF
5852 3150 CircleF
5912 3196 CircleF
1301 1165 CircleF
1361 1211 CircleF
3395 2501 CircleF
3455 2547 CircleF
6209 3488 CircleF
6269 3534 CircleF
6399 1554 CircleF
6459 1599 CircleF
3177 1008 CircleF
3237 1054 CircleF
1525 3251 CircleF
1585 3297 CircleF
1806 3459 CircleF
1866 3505 CircleF
3021 2318 CircleF
3080 2364 CircleF
1778 2443 CircleF
1838 2489 CircleF
2301 1141 CircleF
2361 1187 CircleF
3269 3140 CircleF
3329 3186 CircleF
4213 4296 CircleF
4273 4341 CircleF
3431 1287 CircleF
3491 1333 CircleF
3465 3301 CircleF
3524 3346 CircleF
2909 2213 CircleF
2969 2259 CircleF
4497 2347 CircleF
4556 2392 CircleF
4895 3896 CircleF
4955 3942 CircleF
3326 1452 CircleF
3386 1498 CircleF
2584 3372 CircleF
2644 3418 CircleF
6348 2052 CircleF
6408 2098 CircleF
1177 2121 CircleF
1237 2166 CircleF
3843 3416 CircleF
3903 3462 CircleF
5782 704 CircleF
5842 750 CircleF
6170 4762 CircleF
6229 4808 CircleF
5127 4184 CircleF
5187 4230 CircleF
1164 1103 CircleF
1224 1149 CircleF
2675 996 CircleF
2735 1042 CircleF
3936 3895 CircleF
3996 3941 CircleF
4902 3284 CircleF
4962 3329 CircleF
6000 3351 CircleF
6060 3397 CircleF
1688 2825 CircleF
1748 2871 CircleF
4280 3374 CircleF
4340 3420 CircleF
5735 4065 CircleF
5795 4111 CircleF
5748 4317 CircleF
5808 4363 CircleF
2936 979 CircleF
2996 1025 CircleF
1854 734 CircleF
1914 780 CircleF
2320 3111 CircleF
2380 3157 CircleF
4077 399 CircleF
4137 445 CircleF
2344 3424 CircleF
2404 3470 CircleF
2671 3909 CircleF
2731 3955 CircleF
6672 1344 CircleF
6732 1390 CircleF
2998 2768 CircleF
3058 2814 CircleF
6559 4659 CircleF
6619 4705 CircleF
6074 849 CircleF
6134 894 CircleF
6717 2974 CircleF
6777 3020 CircleF
5871 2825 CircleF
5931 2871 CircleF
1770 4609 CircleF
1830 4655 CircleF
1737 2092 CircleF
1797 2138 CircleF
4040 1983 CircleF
4099 2029 CircleF
1100 715 CircleF
1160 760 CircleF
2798 1136 CircleF
2857 1182 CircleF
5576 3777 CircleF
5635 3823 CircleF
1973 4142 CircleF
2033 4188 CircleF
6013 826 CircleF
6073 872 CircleF
2293 4516 CircleF
2353 4561 CircleF
2731 4762 CircleF
2791 4807 CircleF
1428 1812 CircleF
1488 1858 CircleF
5888 3997 CircleF
5948 4043 CircleF
2942 1688 CircleF
3002 1734 CircleF
1156 4624 CircleF
1216 4670 CircleF
6043 1137 CircleF
6103 1183 CircleF
6581 979 CircleF
6640 1025 CircleF
2709 2356 CircleF
2769 2402 CircleF
5263 4464 CircleF
5322 4509 CircleF
6316 2430 CircleF
6376 2475 CircleF
6399 2261 CircleF
6459 2307 CircleF
6353 1305 CircleF
6413 1351 CircleF
5112 3393 CircleF
5172 3439 CircleF
2617 2334 CircleF
2677 2380 CircleF
2793 655 CircleF
2853 701 CircleF
4724 4642 CircleF
4784 4688 CircleF
1829 3148 CircleF
1889 3194 CircleF
4893 1414 CircleF
4953 1460 CircleF
6788 4394 CircleF
6848 4440 CircleF
1057 4675 CircleF
1117 4721 CircleF
5374 3091 CircleF
5434 3136 CircleF
1559 1444 CircleF
1618 1490 CircleF
4647 1102 CircleF
4707 1148 CircleF
3628 3172 CircleF
3687 3217 CircleF
3329 1898 CircleF
3389 1944 CircleF
4399 3655 CircleF
4458 3701 CircleF
3189 4666 CircleF
3249 4712 CircleF
2246 2104 CircleF
2306 2150 CircleF
1497 1831 CircleF
1557 1877 CircleF
1300 761 CircleF
1360 807 CircleF
4594 420 CircleF
4654 466 CircleF
2635 1783 CircleF
2695 1828 CircleF
6391 4684 CircleF
6451 4730 CircleF
6649 3193 CircleF
6709 3239 CircleF
2111 1922 CircleF
2171 1968 CircleF
4983 2150 CircleF
5043 2196 CircleF
4882 3289 CircleF
4942 3335 CircleF
5669 1743 CircleF
5729 1788 CircleF
3094 4463 CircleF
3154 4509 CircleF
4173 2793 CircleF
4233 2839 CircleF
1369 913 CircleF
1428 959 CircleF
1932 1767 CircleF
1992 1813 CircleF
6657 4094 CircleF
6717 4140 CircleF
2554 1825 CircleF
2613 1870 CircleF
4651 407 CircleF
4711 453 CircleF
2514 4323 CircleF
2574 4369 CircleF
4680 1014 CircleF
4739 1060 CircleF
2463 3086 CircleF
2523 3132 CircleF
3005 1686 CircleF
3064 1732 CircleF
5308 3442 CircleF
5368 3488 CircleF
1665 1870 CircleF
1725 1916 CircleF
4299 1422 CircleF
4359 1468 CircleF
3288 3450 CircleF
3348 3496 CircleF
4648 3982 CircleF
4707 4028 CircleF
5979 2601 CircleF
6039 2647 CircleF
5840 2071 CircleF
5900 2117 CircleF
4353 1111 CircleF
4413 1157 CircleF
6095 4479 CircleF
6154 4525 CircleF
5586 1105 CircleF
5645 1151 CircleF
3243 1575 CircleF
3303 1621 CircleF
5747 1449 CircleF
5807 1495 CircleF
6493 3611 CircleF
6553 3656 CircleF
3769 283 CircleF
3828 329 CircleF
1263 1415 CircleF
1323 1461 CircleF
4631 3195 CircleF
4691 3241 CircleF
5743 4184 CircleF
5803 4230 CircleF
2404 813 CircleF
2464 859 CircleF
4813 2143 CircleF
4873 2188 CircleF
5640 3010 CircleF
5700 3056 CircleF
5498 1481 CircleF
5558 1527 CircleF
6671 1170 CircleF
6731 1216 CircleF
2091 3500 CircleF
2151 3546 CircleF
5445 1044 CircleF
5505 1090 CircleF
3991 647 CircleF
4051 693 CircleF
4460 2276 CircleF
4520 2322 CircleF
1615 294 CircleF
1675 340 CircleF
6560 784 CircleF
6619 830 CircleF
3521 4331 CircleF
3581 4377 CircleF
3589 2246 CircleF
3649 2291 CircleF
3474 883 CircleF
3533 928 CircleF
5911 2420 CircleF
5971 2465 CircleF
4106 2546 CircleF
4165 2592 CircleF
6427 1889 CircleF
6487 1935 CircleF
6557 1555 CircleF
6617 1601 CircleF
6378 2014 CircleF
6438 2059 CircleF
5674 1647 CircleF
5734 1693 CircleF
1645 1676 CircleF
1705 1722 CircleF
1609 4429 CircleF
1669 4475 CircleF
3090 3018 CircleF
3150 3064 CircleF
5045 550 CircleF
5105 596 CircleF
3325 2543 CircleF
3385 2588 CircleF
5424 1693 CircleF
5484 1739 CircleF
2679 4156 CircleF
2738 4202 CircleF
5022 1427 CircleF
5081 1473 CircleF
6780 2117 CircleF
6840 2163 CircleF
6100 1070 CircleF
6160 1116 CircleF
5572 2061 CircleF
5632 2107 CircleF
6574 2594 CircleF
6633 2639 CircleF
3349 2830 CircleF
3409 2876 CircleF
1369 3011 CircleF
1428 3057 CircleF
5913 612 CircleF
5972 657 CircleF
4712 3806 CircleF
4772 3852 CircleF
6558 2515 CircleF
6617 2561 CircleF
5555 4350 CircleF
5615 4395 CircleF
6478 4194 CircleF
6537 4240 CircleF
1306 1330 CircleF
1366 1376 CircleF
2341 888 CircleF
2401 934 CircleF
4095 3648 CircleF
4155 3694 CircleF
3529 2639 CircleF
3589 2685 CircleF
6323 1428 CircleF
6383 1474 CircleF
6363 2202 CircleF
6422 2248 CircleF
3631 2794 CircleF
3691 2840 CircleF
4948 2759 CircleF
5008 2804 CircleF
4580 4049 CircleF
4640 4095 CircleF
2567 4170 CircleF
2627 4216 CircleF
1834 2289 CircleF
1894 2334 CircleF
1248 1955 CircleF
1307 2001 CircleF
4626 4565 CircleF
4686 4611 CircleF
1595 1407 CircleF
1655 1453 CircleF
4016 603 CircleF
4076 649 CircleF
2149 2351 CircleF
2209 2397 CircleF
2054 3587 CircleF
2113 3633 CircleF
1195 1211 CircleF
1255 1257 CircleF
6238 601 CircleF
6298 646 CircleF
3243 2346 CircleF
3303 2391 CircleF
6198 4365 CircleF
6258 4411 CircleF
6712 1260 CircleF
6772 1306 CircleF
1722 3632 CircleF
1781 3678 CircleF
4618 2222 CircleF
4678 2268 CircleF
5062 4565 CircleF
5121 4610 CircleF
2072 4655 CircleF
2131 4701 CircleF
2971 1360 CircleF
3030 1406 CircleF
1651 1639 CircleF
1711 1684 CircleF
6333 4673 CircleF
6393 4719 CircleF
3600 3138 CircleF
3660 3184 CircleF
1342 420 CircleF
1402 466 CircleF
2421 4324 CircleF
2480 4370 CircleF
3615 3553 CircleF
3675 3599 CircleF
4963 4605 CircleF
5023 4651 CircleF
3789 4641 CircleF
3849 4687 CircleF
3495 4692 CircleF
3555 4738 CircleF
4136 4163 CircleF
4196 4209 CircleF
2715 1274 CircleF
2775 1320 CircleF
4467 654 CircleF
4527 699 CircleF
3185 1272 CircleF
3245 1318 CircleF
2737 2772 CircleF
2797 2818 CircleF
4033 2192 CircleF
4093 2238 CircleF
1984 2265 CircleF
2044 2311 CircleF
1596 1763 CircleF
1655 1809 CircleF
5015 3701 CircleF
5074 3746 CircleF
4582 4164 CircleF
4642 4210 CircleF
6525 1478 CircleF
6585 1524 CircleF
5326 2981 CircleF
5386 3027 CircleF
3896 2989 CircleF
3956 3035 CircleF
5736 1839 CircleF
5796 1885 CircleF
5676 1515 CircleF
5735 1561 CircleF
4187 996 CircleF
4247 1042 CircleF
2940 1695 CircleF
3000 1741 CircleF
6052 2981 CircleF
6112 3027 CircleF
3031 3577 CircleF
3091 3623 CircleF
6674 2597 CircleF
6734 2642 CircleF
4589 4422 CircleF
4649 4468 CircleF
3213 2597 CircleF
3273 2643 CircleF
1116 2767 CircleF
1176 2813 CircleF
4784 2853 CircleF
4844 2899 CircleF
1854 4103 CircleF
1913 4149 CircleF
4178 2609 CircleF
4238 2655 CircleF
1268 2952 CircleF
1327 2997 CircleF
4881 3745 CircleF
4941 3791 CircleF
4169 499 CircleF
4228 545 CircleF
3836 2648 CircleF
3896 2694 CircleF
2667 3812 CircleF
2727 3858 CircleF
6711 1039 CircleF
6770 1085 CircleF
5427 3954 CircleF
5487 4000 CircleF
2651 3454 CircleF
2711 3500 CircleF
6253 4410 CircleF
6313 4456 CircleF
1888 2279 CircleF
1947 2325 CircleF
1611 2054 CircleF
1670 2100 CircleF
3748 889 CircleF
3807 935 CircleF
2761 781 CircleF
2821 827 CircleF
3161 369 CircleF
3221 415 CircleF
5129 4519 CircleF
5189 4565 CircleF
1640 4417 CircleF
1700 4463 CircleF
5138 2345 CircleF
5198 2390 CircleF
3280 3774 CircleF
3340 3820 CircleF
2950 2006 CircleF
3010 2051 CircleF
5243 584 CircleF
5303 630 CircleF
3012 4125 CircleF
3072 4171 CircleF
% End plot #2
1.000 UP
1.000 UL
LT0
0.50 0.50 0.50 C stroke
grestore
end
showpage
%%Trailer
%%DocumentFonts: Helvetica
%%Pages: 1
