%!PS-Adobe-2.0
%%Title: out.ps
%%Creator: gnuplot 4.6 patchlevel 6
%%CreationDate: Fri May 29 00:17:10 2015
%%DocumentFonts: (atend)
%%BoundingBox: 50 50 554 770
%%Orientation: Landscape
%%Pages: (atend)
%%EndComments
%%BeginProlog
/gnudict 256 dict def
gnudict begin
%
% The following true/false flags may be edited by hand if desired.
% The unit line width and grayscale image gamma correction may also be changed.
%
/Color false def
/Blacktext false def
/Solid false def
/Dashlength 1 def
/Landscape true def
/Level1 false def
/Rounded false def
/ClipToBoundingBox false def
/SuppressPDFMark false def
/TransparentPatterns false def
/gnulinewidth 5.000 def
/userlinewidth gnulinewidth def
/Gamma 1.0 def
/BackgroundColor {-1.000 -1.000 -1.000} def
%
/vshift -46 def
/dl1 {
  10.0 Dashlength mul mul
  Rounded { currentlinewidth 0.75 mul sub dup 0 le { pop 0.01 } if } if
} def
/dl2 {
  10.0 Dashlength mul mul
  Rounded { currentlinewidth 0.75 mul add } if
} def
/hpt_ 31.5 def
/vpt_ 31.5 def
/hpt hpt_ def
/vpt vpt_ def
/doclip {
  ClipToBoundingBox {
    newpath 50 50 moveto 554 50 lineto 554 770 lineto 50 770 lineto closepath
    clip
  } if
} def
%
% Gnuplot Prolog Version 4.6 (September 2012)
%
%/SuppressPDFMark true def
%
/M {moveto} bind def
/L {lineto} bind def
/R {rmoveto} bind def
/V {rlineto} bind def
/N {newpath moveto} bind def
/Z {closepath} bind def
/C {setrgbcolor} bind def
/f {rlineto fill} bind def
/g {setgray} bind def
/Gshow {show} def   % May be redefined later in the file to support UTF-8
/vpt2 vpt 2 mul def
/hpt2 hpt 2 mul def
/Lshow {currentpoint stroke M 0 vshift R 
	Blacktext {gsave 0 setgray show grestore} {show} ifelse} def
/Rshow {currentpoint stroke M dup stringwidth pop neg vshift R
	Blacktext {gsave 0 setgray show grestore} {show} ifelse} def
/Cshow {currentpoint stroke M dup stringwidth pop -2 div vshift R 
	Blacktext {gsave 0 setgray show grestore} {show} ifelse} def
/UP {dup vpt_ mul /vpt exch def hpt_ mul /hpt exch def
  /hpt2 hpt 2 mul def /vpt2 vpt 2 mul def} def
/DL {Color {setrgbcolor Solid {pop []} if 0 setdash}
 {pop pop pop 0 setgray Solid {pop []} if 0 setdash} ifelse} def
/BL {stroke userlinewidth 2 mul setlinewidth
	Rounded {1 setlinejoin 1 setlinecap} if} def
/AL {stroke userlinewidth 2 div setlinewidth
	Rounded {1 setlinejoin 1 setlinecap} if} def
/UL {dup gnulinewidth mul /userlinewidth exch def
	dup 1 lt {pop 1} if 10 mul /udl exch def} def
/PL {stroke userlinewidth setlinewidth
	Rounded {1 setlinejoin 1 setlinecap} if} def
3.8 setmiterlimit
% Default Line colors
/LCw {1 1 1} def
/LCb {0 0 0} def
/LCa {0 0 0} def
/LC0 {1 0 0} def
/LC1 {0 1 0} def
/LC2 {0 0 1} def
/LC3 {1 0 1} def
/LC4 {0 1 1} def
/LC5 {1 1 0} def
/LC6 {0 0 0} def
/LC7 {1 0.3 0} def
/LC8 {0.5 0.5 0.5} def
% Default Line Types
/LTw {PL [] 1 setgray} def
/LTb {BL [] LCb DL} def
/LTa {AL [1 udl mul 2 udl mul] 0 setdash LCa setrgbcolor} def
/LT0 {PL [] LC0 DL} def
/LT1 {PL [4 dl1 2 dl2] LC1 DL} def
/LT2 {PL [2 dl1 3 dl2] LC2 DL} def
/LT3 {PL [1 dl1 1.5 dl2] LC3 DL} def
/LT4 {PL [6 dl1 2 dl2 1 dl1 2 dl2] LC4 DL} def
/LT5 {PL [3 dl1 3 dl2 1 dl1 3 dl2] LC5 DL} def
/LT6 {PL [2 dl1 2 dl2 2 dl1 6 dl2] LC6 DL} def
/LT7 {PL [1 dl1 2 dl2 6 dl1 2 dl2 1 dl1 2 dl2] LC7 DL} def
/LT8 {PL [2 dl1 2 dl2 2 dl1 2 dl2 2 dl1 2 dl2 2 dl1 4 dl2] LC8 DL} def
/Pnt {stroke [] 0 setdash gsave 1 setlinecap M 0 0 V stroke grestore} def
/Dia {stroke [] 0 setdash 2 copy vpt add M
  hpt neg vpt neg V hpt vpt neg V
  hpt vpt V hpt neg vpt V closepath stroke
  Pnt} def
/Pls {stroke [] 0 setdash vpt sub M 0 vpt2 V
  currentpoint stroke M
  hpt neg vpt neg R hpt2 0 V stroke
 } def
/Box {stroke [] 0 setdash 2 copy exch hpt sub exch vpt add M
  0 vpt2 neg V hpt2 0 V 0 vpt2 V
  hpt2 neg 0 V closepath stroke
  Pnt} def
/Crs {stroke [] 0 setdash exch hpt sub exch vpt add M
  hpt2 vpt2 neg V currentpoint stroke M
  hpt2 neg 0 R hpt2 vpt2 V stroke} def
/TriU {stroke [] 0 setdash 2 copy vpt 1.12 mul add M
  hpt neg vpt -1.62 mul V
  hpt 2 mul 0 V
  hpt neg vpt 1.62 mul V closepath stroke
  Pnt} def
/Star {2 copy Pls Crs} def
/BoxF {stroke [] 0 setdash exch hpt sub exch vpt add M
  0 vpt2 neg V hpt2 0 V 0 vpt2 V
  hpt2 neg 0 V closepath fill} def
/TriUF {stroke [] 0 setdash vpt 1.12 mul add M
  hpt neg vpt -1.62 mul V
  hpt 2 mul 0 V
  hpt neg vpt 1.62 mul V closepath fill} def
/TriD {stroke [] 0 setdash 2 copy vpt 1.12 mul sub M
  hpt neg vpt 1.62 mul V
  hpt 2 mul 0 V
  hpt neg vpt -1.62 mul V closepath stroke
  Pnt} def
/TriDF {stroke [] 0 setdash vpt 1.12 mul sub M
  hpt neg vpt 1.62 mul V
  hpt 2 mul 0 V
  hpt neg vpt -1.62 mul V closepath fill} def
/DiaF {stroke [] 0 setdash vpt add M
  hpt neg vpt neg V hpt vpt neg V
  hpt vpt V hpt neg vpt V closepath fill} def
/Pent {stroke [] 0 setdash 2 copy gsave
  translate 0 hpt M 4 {72 rotate 0 hpt L} repeat
  closepath stroke grestore Pnt} def
/PentF {stroke [] 0 setdash gsave
  translate 0 hpt M 4 {72 rotate 0 hpt L} repeat
  closepath fill grestore} def
/Circle {stroke [] 0 setdash 2 copy
  hpt 0 360 arc stroke Pnt} def
/CircleF {stroke [] 0 setdash hpt 0 360 arc fill} def
/C0 {BL [] 0 setdash 2 copy moveto vpt 90 450 arc} bind def
/C1 {BL [] 0 setdash 2 copy moveto
	2 copy vpt 0 90 arc closepath fill
	vpt 0 360 arc closepath} bind def
/C2 {BL [] 0 setdash 2 copy moveto
	2 copy vpt 90 180 arc closepath fill
	vpt 0 360 arc closepath} bind def
/C3 {BL [] 0 setdash 2 copy moveto
	2 copy vpt 0 180 arc closepath fill
	vpt 0 360 arc closepath} bind def
/C4 {BL [] 0 setdash 2 copy moveto
	2 copy vpt 180 270 arc closepath fill
	vpt 0 360 arc closepath} bind def
/C5 {BL [] 0 setdash 2 copy moveto
	2 copy vpt 0 90 arc
	2 copy moveto
	2 copy vpt 180 270 arc closepath fill
	vpt 0 360 arc} bind def
/C6 {BL [] 0 setdash 2 copy moveto
	2 copy vpt 90 270 arc closepath fill
	vpt 0 360 arc closepath} bind def
/C7 {BL [] 0 setdash 2 copy moveto
	2 copy vpt 0 270 arc closepath fill
	vpt 0 360 arc closepath} bind def
/C8 {BL [] 0 setdash 2 copy moveto
	2 copy vpt 270 360 arc closepath fill
	vpt 0 360 arc closepath} bind def
/C9 {BL [] 0 setdash 2 copy moveto
	2 copy vpt 270 450 arc closepath fill
	vpt 0 360 arc closepath} bind def
/C10 {BL [] 0 setdash 2 copy 2 copy moveto vpt 270 360 arc closepath fill
	2 copy moveto
	2 copy vpt 90 180 arc closepath fill
	vpt 0 360 arc closepath} bind def
/C11 {BL [] 0 setdash 2 copy moveto
	2 copy vpt 0 180 arc closepath fill
	2 copy moveto
	2 copy vpt 270 360 arc closepath fill
	vpt 0 360 arc closepath} bind def
/C12 {BL [] 0 setdash 2 copy moveto
	2 copy vpt 180 360 arc closepath fill
	vpt 0 360 arc closepath} bind def
/C13 {BL [] 0 setdash 2 copy moveto
	2 copy vpt 0 90 arc closepath fill
	2 copy moveto
	2 copy vpt 180 360 arc closepath fill
	vpt 0 360 arc closepath} bind def
/C14 {BL [] 0 setdash 2 copy moveto
	2 copy vpt 90 360 arc closepath fill
	vpt 0 360 arc} bind def
/C15 {BL [] 0 setdash 2 copy vpt 0 360 arc closepath fill
	vpt 0 360 arc closepath} bind def
/Rec {newpath 4 2 roll moveto 1 index 0 rlineto 0 exch rlineto
	neg 0 rlineto closepath} bind def
/Square {dup Rec} bind def
/Bsquare {vpt sub exch vpt sub exch vpt2 Square} bind def
/S0 {BL [] 0 setdash 2 copy moveto 0 vpt rlineto BL Bsquare} bind def
/S1 {BL [] 0 setdash 2 copy vpt Square fill Bsquare} bind def
/S2 {BL [] 0 setdash 2 copy exch vpt sub exch vpt Square fill Bsquare} bind def
/S3 {BL [] 0 setdash 2 copy exch vpt sub exch vpt2 vpt Rec fill Bsquare} bind def
/S4 {BL [] 0 setdash 2 copy exch vpt sub exch vpt sub vpt Square fill Bsquare} bind def
/S5 {BL [] 0 setdash 2 copy 2 copy vpt Square fill
	exch vpt sub exch vpt sub vpt Square fill Bsquare} bind def
/S6 {BL [] 0 setdash 2 copy exch vpt sub exch vpt sub vpt vpt2 Rec fill Bsquare} bind def
/S7 {BL [] 0 setdash 2 copy exch vpt sub exch vpt sub vpt vpt2 Rec fill
	2 copy vpt Square fill Bsquare} bind def
/S8 {BL [] 0 setdash 2 copy vpt sub vpt Square fill Bsquare} bind def
/S9 {BL [] 0 setdash 2 copy vpt sub vpt vpt2 Rec fill Bsquare} bind def
/S10 {BL [] 0 setdash 2 copy vpt sub vpt Square fill 2 copy exch vpt sub exch vpt Square fill
	Bsquare} bind def
/S11 {BL [] 0 setdash 2 copy vpt sub vpt Square fill 2 copy exch vpt sub exch vpt2 vpt Rec fill
	Bsquare} bind def
/S12 {BL [] 0 setdash 2 copy exch vpt sub exch vpt sub vpt2 vpt Rec fill Bsquare} bind def
/S13 {BL [] 0 setdash 2 copy exch vpt sub exch vpt sub vpt2 vpt Rec fill
	2 copy vpt Square fill Bsquare} bind def
/S14 {BL [] 0 setdash 2 copy exch vpt sub exch vpt sub vpt2 vpt Rec fill
	2 copy exch vpt sub exch vpt Square fill Bsquare} bind def
/S15 {BL [] 0 setdash 2 copy Bsquare fill Bsquare} bind def
/D0 {gsave translate 45 rotate 0 0 S0 stroke grestore} bind def
/D1 {gsave translate 45 rotate 0 0 S1 stroke grestore} bind def
/D2 {gsave translate 45 rotate 0 0 S2 stroke grestore} bind def
/D3 {gsave translate 45 rotate 0 0 S3 stroke grestore} bind def
/D4 {gsave translate 45 rotate 0 0 S4 stroke grestore} bind def
/D5 {gsave translate 45 rotate 0 0 S5 stroke grestore} bind def
/D6 {gsave translate 45 rotate 0 0 S6 stroke grestore} bind def
/D7 {gsave translate 45 rotate 0 0 S7 stroke grestore} bind def
/D8 {gsave translate 45 rotate 0 0 S8 stroke grestore} bind def
/D9 {gsave translate 45 rotate 0 0 S9 stroke grestore} bind def
/D10 {gsave translate 45 rotate 0 0 S10 stroke grestore} bind def
/D11 {gsave translate 45 rotate 0 0 S11 stroke grestore} bind def
/D12 {gsave translate 45 rotate 0 0 S12 stroke grestore} bind def
/D13 {gsave translate 45 rotate 0 0 S13 stroke grestore} bind def
/D14 {gsave translate 45 rotate 0 0 S14 stroke grestore} bind def
/D15 {gsave translate 45 rotate 0 0 S15 stroke grestore} bind def
/DiaE {stroke [] 0 setdash vpt add M
  hpt neg vpt neg V hpt vpt neg V
  hpt vpt V hpt neg vpt V closepath stroke} def
/BoxE {stroke [] 0 setdash exch hpt sub exch vpt add M
  0 vpt2 neg V hpt2 0 V 0 vpt2 V
  hpt2 neg 0 V closepath stroke} def
/TriUE {stroke [] 0 setdash vpt 1.12 mul add M
  hpt neg vpt -1.62 mul V
  hpt 2 mul 0 V
  hpt neg vpt 1.62 mul V closepath stroke} def
/TriDE {stroke [] 0 setdash vpt 1.12 mul sub M
  hpt neg vpt 1.62 mul V
  hpt 2 mul 0 V
  hpt neg vpt -1.62 mul V closepath stroke} def
/PentE {stroke [] 0 setdash gsave
  translate 0 hpt M 4 {72 rotate 0 hpt L} repeat
  closepath stroke grestore} def
/CircE {stroke [] 0 setdash 
  hpt 0 360 arc stroke} def
/Opaque {gsave closepath 1 setgray fill grestore 0 setgray closepath} def
/DiaW {stroke [] 0 setdash vpt add M
  hpt neg vpt neg V hpt vpt neg V
  hpt vpt V hpt neg vpt V Opaque stroke} def
/BoxW {stroke [] 0 setdash exch hpt sub exch vpt add M
  0 vpt2 neg V hpt2 0 V 0 vpt2 V
  hpt2 neg 0 V Opaque stroke} def
/TriUW {stroke [] 0 setdash vpt 1.12 mul add M
  hpt neg vpt -1.62 mul V
  hpt 2 mul 0 V
  hpt neg vpt 1.62 mul V Opaque stroke} def
/TriDW {stroke [] 0 setdash vpt 1.12 mul sub M
  hpt neg vpt 1.62 mul V
  hpt 2 mul 0 V
  hpt neg vpt -1.62 mul V Opaque stroke} def
/PentW {stroke [] 0 setdash gsave
  translate 0 hpt M 4 {72 rotate 0 hpt L} repeat
  Opaque stroke grestore} def
/CircW {stroke [] 0 setdash 
  hpt 0 360 arc Opaque stroke} def
/BoxFill {gsave Rec 1 setgray fill grestore} def
/Density {
  /Fillden exch def
  currentrgbcolor
  /ColB exch def /ColG exch def /ColR exch def
  /ColR ColR Fillden mul Fillden sub 1 add def
  /ColG ColG Fillden mul Fillden sub 1 add def
  /ColB ColB Fillden mul Fillden sub 1 add def
  ColR ColG ColB setrgbcolor} def
/BoxColFill {gsave Rec PolyFill} def
/PolyFill {gsave Density fill grestore grestore} def
/h {rlineto rlineto rlineto gsave closepath fill grestore} bind def
%
% PostScript Level 1 Pattern Fill routine for rectangles
% Usage: x y w h s a XX PatternFill
%	x,y = lower left corner of box to be filled
%	w,h = width and height of box
%	  a = angle in degrees between lines and x-axis
%	 XX = 0/1 for no/yes cross-hatch
%
/PatternFill {gsave /PFa [ 9 2 roll ] def
  PFa 0 get PFa 2 get 2 div add PFa 1 get PFa 3 get 2 div add translate
  PFa 2 get -2 div PFa 3 get -2 div PFa 2 get PFa 3 get Rec
  TransparentPatterns {} {gsave 1 setgray fill grestore} ifelse
  clip
  currentlinewidth 0.5 mul setlinewidth
  /PFs PFa 2 get dup mul PFa 3 get dup mul add sqrt def
  0 0 M PFa 5 get rotate PFs -2 div dup translate
  0 1 PFs PFa 4 get div 1 add floor cvi
	{PFa 4 get mul 0 M 0 PFs V} for
  0 PFa 6 get ne {
	0 1 PFs PFa 4 get div 1 add floor cvi
	{PFa 4 get mul 0 2 1 roll M PFs 0 V} for
 } if
  stroke grestore} def
%
/languagelevel where
 {pop languagelevel} {1} ifelse
 2 lt
	{/InterpretLevel1 true def}
	{/InterpretLevel1 Level1 def}
 ifelse
%
% PostScript level 2 pattern fill definitions
%
/Level2PatternFill {
/Tile8x8 {/PaintType 2 /PatternType 1 /TilingType 1 /BBox [0 0 8 8] /XStep 8 /YStep 8}
	bind def
/KeepColor {currentrgbcolor [/Pattern /DeviceRGB] setcolorspace} bind def
<< Tile8x8
 /PaintProc {0.5 setlinewidth pop 0 0 M 8 8 L 0 8 M 8 0 L stroke} 
>> matrix makepattern
/Pat1 exch def
<< Tile8x8
 /PaintProc {0.5 setlinewidth pop 0 0 M 8 8 L 0 8 M 8 0 L stroke
	0 4 M 4 8 L 8 4 L 4 0 L 0 4 L stroke}
>> matrix makepattern
/Pat2 exch def
<< Tile8x8
 /PaintProc {0.5 setlinewidth pop 0 0 M 0 8 L
	8 8 L 8 0 L 0 0 L fill}
>> matrix makepattern
/Pat3 exch def
<< Tile8x8
 /PaintProc {0.5 setlinewidth pop -4 8 M 8 -4 L
	0 12 M 12 0 L stroke}
>> matrix makepattern
/Pat4 exch def
<< Tile8x8
 /PaintProc {0.5 setlinewidth pop -4 0 M 8 12 L
	0 -4 M 12 8 L stroke}
>> matrix makepattern
/Pat5 exch def
<< Tile8x8
 /PaintProc {0.5 setlinewidth pop -2 8 M 4 -4 L
	0 12 M 8 -4 L 4 12 M 10 0 L stroke}
>> matrix makepattern
/Pat6 exch def
<< Tile8x8
 /PaintProc {0.5 setlinewidth pop -2 0 M 4 12 L
	0 -4 M 8 12 L 4 -4 M 10 8 L stroke}
>> matrix makepattern
/Pat7 exch def
<< Tile8x8
 /PaintProc {0.5 setlinewidth pop 8 -2 M -4 4 L
	12 0 M -4 8 L 12 4 M 0 10 L stroke}
>> matrix makepattern
/Pat8 exch def
<< Tile8x8
 /PaintProc {0.5 setlinewidth pop 0 -2 M 12 4 L
	-4 0 M 12 8 L -4 4 M 8 10 L stroke}
>> matrix makepattern
/Pat9 exch def
/Pattern1 {PatternBgnd KeepColor Pat1 setpattern} bind def
/Pattern2 {PatternBgnd KeepColor Pat2 setpattern} bind def
/Pattern3 {PatternBgnd KeepColor Pat3 setpattern} bind def
/Pattern4 {PatternBgnd KeepColor Landscape {Pat5} {Pat4} ifelse setpattern} bind def
/Pattern5 {PatternBgnd KeepColor Landscape {Pat4} {Pat5} ifelse setpattern} bind def
/Pattern6 {PatternBgnd KeepColor Landscape {Pat9} {Pat6} ifelse setpattern} bind def
/Pattern7 {PatternBgnd KeepColor Landscape {Pat8} {Pat7} ifelse setpattern} bind def
} def
%
%
%End of PostScript Level 2 code
%
/PatternBgnd {
  TransparentPatterns {} {gsave 1 setgray fill grestore} ifelse
} def
%
% Substitute for Level 2 pattern fill codes with
% grayscale if Level 2 support is not selected.
%
/Level1PatternFill {
/Pattern1 {0.250 Density} bind def
/Pattern2 {0.500 Density} bind def
/Pattern3 {0.750 Density} bind def
/Pattern4 {0.125 Density} bind def
/Pattern5 {0.375 Density} bind def
/Pattern6 {0.625 Density} bind def
/Pattern7 {0.875 Density} bind def
} def
%
% Now test for support of Level 2 code
%
Level1 {Level1PatternFill} {Level2PatternFill} ifelse
%
/Symbol-Oblique /Symbol findfont [1 0 .167 1 0 0] makefont
dup length dict begin {1 index /FID eq {pop pop} {def} ifelse} forall
currentdict end definefont pop
Level1 SuppressPDFMark or 
{} {
/SDict 10 dict def
systemdict /pdfmark known not {
  userdict /pdfmark systemdict /cleartomark get put
} if
SDict begin [
  /Title (out.ps)
  /Subject (gnuplot plot)
  /Creator (gnuplot 4.6 patchlevel 6)
  /Author (yani)
%  /Producer (gnuplot)
%  /Keywords ()
  /CreationDate (Fri May 29 00:17:10 2015)
  /DOCINFO pdfmark
end
} ifelse
end
%%EndProlog
%%Page: 1 1
gnudict begin
gsave
doclip
50 50 translate
0.100 0.100 scale
90 rotate
0 -5040 translate
0 setgray
newpath
(Helvetica) findfont 140 scalefont setfont
BackgroundColor 0 lt 3 1 roll 0 lt exch 0 lt or or not {gsave BackgroundColor C clippath fill grestore} if
1.000 UL
LT0
0.50 0.50 0.50 C 1.000 UL
LTa
0.50 0.50 0.50 C 966 280 M
5981 0 V
stroke
LT0
0.50 0.50 0.50 C 966 280 M
63 0 V
5918 0 R
-63 0 V
882 280 M
( 0) Rshow
1.000 UL
LT0
0.50 0.50 0.50 C 1.000 UL
LTa
0.50 0.50 0.50 C 966 326 M
5981 0 V
stroke
LT0
0.50 0.50 0.50 C 966 326 M
63 0 V
5918 0 R
-63 0 V
882 326 M
( 0.707106) Rshow
1.000 UL
LT0
0.50 0.50 0.50 C 1.000 UL
LTa
0.50 0.50 0.50 C 966 372 M
5981 0 V
stroke
LT0
0.50 0.50 0.50 C 966 372 M
63 0 V
5918 0 R
-63 0 V
882 372 M
( 1.41421) Rshow
1.000 UL
LT0
0.50 0.50 0.50 C 1.000 UL
LTa
0.50 0.50 0.50 C 966 418 M
5981 0 V
stroke
LT0
0.50 0.50 0.50 C 966 418 M
63 0 V
5918 0 R
-63 0 V
882 418 M
( 2.12132) Rshow
1.000 UL
LT0
0.50 0.50 0.50 C 1.000 UL
LTa
0.50 0.50 0.50 C 966 464 M
5981 0 V
stroke
LT0
0.50 0.50 0.50 C 966 464 M
63 0 V
5918 0 R
-63 0 V
882 464 M
( 2.82842) Rshow
1.000 UL
LT0
0.50 0.50 0.50 C 1.000 UL
LTa
0.50 0.50 0.50 C 966 510 M
5981 0 V
stroke
LT0
0.50 0.50 0.50 C 966 510 M
63 0 V
5918 0 R
-63 0 V
882 510 M
( 3.53553) Rshow
1.000 UL
LT0
0.50 0.50 0.50 C 1.000 UL
LTa
0.50 0.50 0.50 C 966 555 M
5981 0 V
stroke
LT0
0.50 0.50 0.50 C 966 555 M
63 0 V
5918 0 R
-63 0 V
882 555 M
( 4.24264) Rshow
1.000 UL
LT0
0.50 0.50 0.50 C 1.000 UL
LTa
0.50 0.50 0.50 C 966 601 M
5981 0 V
stroke
LT0
0.50 0.50 0.50 C 966 601 M
63 0 V
5918 0 R
-63 0 V
882 601 M
( 4.94974) Rshow
1.000 UL
LT0
0.50 0.50 0.50 C 1.000 UL
LTa
0.50 0.50 0.50 C 966 647 M
5981 0 V
stroke
LT0
0.50 0.50 0.50 C 966 647 M
63 0 V
5918 0 R
-63 0 V
882 647 M
( 5.65685) Rshow
1.000 UL
LT0
0.50 0.50 0.50 C 1.000 UL
LTa
0.50 0.50 0.50 C 966 693 M
5981 0 V
stroke
LT0
0.50 0.50 0.50 C 966 693 M
63 0 V
5918 0 R
-63 0 V
882 693 M
( 6.36395) Rshow
1.000 UL
LT0
0.50 0.50 0.50 C 1.000 UL
LTa
0.50 0.50 0.50 C 966 739 M
5981 0 V
stroke
LT0
0.50 0.50 0.50 C 966 739 M
63 0 V
5918 0 R
-63 0 V
882 739 M
( 7.07106) Rshow
1.000 UL
LT0
0.50 0.50 0.50 C 1.000 UL
LTa
0.50 0.50 0.50 C 966 785 M
5981 0 V
stroke
LT0
0.50 0.50 0.50 C 966 785 M
63 0 V
5918 0 R
-63 0 V
882 785 M
( 7.77817) Rshow
1.000 UL
LT0
0.50 0.50 0.50 C 1.000 UL
LTa
0.50 0.50 0.50 C 966 831 M
5981 0 V
stroke
LT0
0.50 0.50 0.50 C 966 831 M
63 0 V
5918 0 R
-63 0 V
882 831 M
( 8.48527) Rshow
1.000 UL
LT0
0.50 0.50 0.50 C 1.000 UL
LTa
0.50 0.50 0.50 C 966 877 M
5981 0 V
stroke
LT0
0.50 0.50 0.50 C 966 877 M
63 0 V
5918 0 R
-63 0 V
882 877 M
( 9.19238) Rshow
1.000 UL
LT0
0.50 0.50 0.50 C 1.000 UL
LTa
0.50 0.50 0.50 C 966 923 M
5981 0 V
stroke
LT0
0.50 0.50 0.50 C 966 923 M
63 0 V
5918 0 R
-63 0 V
882 923 M
( 9.89948) Rshow
1.000 UL
LT0
0.50 0.50 0.50 C 1.000 UL
LTa
0.50 0.50 0.50 C 966 969 M
5981 0 V
stroke
LT0
0.50 0.50 0.50 C 966 969 M
63 0 V
5918 0 R
-63 0 V
882 969 M
( 10.6066) Rshow
1.000 UL
LT0
0.50 0.50 0.50 C 1.000 UL
LTa
0.50 0.50 0.50 C 966 1015 M
5981 0 V
stroke
LT0
0.50 0.50 0.50 C 966 1015 M
63 0 V
5918 0 R
-63 0 V
-6002 0 R
( 11.3137) Rshow
1.000 UL
LT0
0.50 0.50 0.50 C 1.000 UL
LTa
0.50 0.50 0.50 C 966 1060 M
5981 0 V
stroke
LT0
0.50 0.50 0.50 C 966 1060 M
63 0 V
5918 0 R
-63 0 V
-6002 0 R
( 12.0208) Rshow
1.000 UL
LT0
0.50 0.50 0.50 C 1.000 UL
LTa
0.50 0.50 0.50 C 966 1106 M
5981 0 V
stroke
LT0
0.50 0.50 0.50 C 966 1106 M
63 0 V
5918 0 R
-63 0 V
-6002 0 R
( 12.7279) Rshow
1.000 UL
LT0
0.50 0.50 0.50 C 1.000 UL
LTa
0.50 0.50 0.50 C 966 1152 M
5981 0 V
stroke
LT0
0.50 0.50 0.50 C 966 1152 M
63 0 V
5918 0 R
-63 0 V
-6002 0 R
( 13.435) Rshow
1.000 UL
LT0
0.50 0.50 0.50 C 1.000 UL
LTa
0.50 0.50 0.50 C 966 1198 M
5981 0 V
stroke
LT0
0.50 0.50 0.50 C 966 1198 M
63 0 V
5918 0 R
-63 0 V
-6002 0 R
( 14.1421) Rshow
1.000 UL
LT0
0.50 0.50 0.50 C 1.000 UL
LTa
0.50 0.50 0.50 C 966 1244 M
5981 0 V
stroke
LT0
0.50 0.50 0.50 C 966 1244 M
63 0 V
5918 0 R
-63 0 V
-6002 0 R
( 14.8492) Rshow
1.000 UL
LT0
0.50 0.50 0.50 C 1.000 UL
LTa
0.50 0.50 0.50 C 966 1290 M
5981 0 V
stroke
LT0
0.50 0.50 0.50 C 966 1290 M
63 0 V
5918 0 R
-63 0 V
-6002 0 R
( 15.5563) Rshow
1.000 UL
LT0
0.50 0.50 0.50 C 1.000 UL
LTa
0.50 0.50 0.50 C 966 1336 M
5981 0 V
stroke
LT0
0.50 0.50 0.50 C 966 1336 M
63 0 V
5918 0 R
-63 0 V
-6002 0 R
( 16.2634) Rshow
1.000 UL
LT0
0.50 0.50 0.50 C 1.000 UL
LTa
0.50 0.50 0.50 C 966 1382 M
5981 0 V
stroke
LT0
0.50 0.50 0.50 C 966 1382 M
63 0 V
5918 0 R
-63 0 V
-6002 0 R
( 16.9705) Rshow
1.000 UL
LT0
0.50 0.50 0.50 C 1.000 UL
LTa
0.50 0.50 0.50 C 966 1428 M
5981 0 V
stroke
LT0
0.50 0.50 0.50 C 966 1428 M
63 0 V
5918 0 R
-63 0 V
-6002 0 R
( 17.6776) Rshow
1.000 UL
LT0
0.50 0.50 0.50 C 1.000 UL
LTa
0.50 0.50 0.50 C 966 1474 M
5981 0 V
stroke
LT0
0.50 0.50 0.50 C 966 1474 M
63 0 V
5918 0 R
-63 0 V
-6002 0 R
( 18.3848) Rshow
1.000 UL
LT0
0.50 0.50 0.50 C 1.000 UL
LTa
0.50 0.50 0.50 C 966 1520 M
5981 0 V
stroke
LT0
0.50 0.50 0.50 C 966 1520 M
63 0 V
5918 0 R
-63 0 V
-6002 0 R
( 19.0919) Rshow
1.000 UL
LT0
0.50 0.50 0.50 C 1.000 UL
LTa
0.50 0.50 0.50 C 966 1565 M
5981 0 V
stroke
LT0
0.50 0.50 0.50 C 966 1565 M
63 0 V
5918 0 R
-63 0 V
-6002 0 R
( 19.799) Rshow
1.000 UL
LT0
0.50 0.50 0.50 C 1.000 UL
LTa
0.50 0.50 0.50 C 966 1611 M
5981 0 V
stroke
LT0
0.50 0.50 0.50 C 966 1611 M
63 0 V
5918 0 R
-63 0 V
-6002 0 R
( 20.5061) Rshow
1.000 UL
LT0
0.50 0.50 0.50 C 1.000 UL
LTa
0.50 0.50 0.50 C 966 1657 M
5981 0 V
stroke
LT0
0.50 0.50 0.50 C 966 1657 M
63 0 V
5918 0 R
-63 0 V
-6002 0 R
( 21.2132) Rshow
1.000 UL
LT0
0.50 0.50 0.50 C 1.000 UL
LTa
0.50 0.50 0.50 C 966 1703 M
5981 0 V
stroke
LT0
0.50 0.50 0.50 C 966 1703 M
63 0 V
5918 0 R
-63 0 V
-6002 0 R
( 21.9203) Rshow
1.000 UL
LT0
0.50 0.50 0.50 C 1.000 UL
LTa
0.50 0.50 0.50 C 966 1749 M
5981 0 V
stroke
LT0
0.50 0.50 0.50 C 966 1749 M
63 0 V
5918 0 R
-63 0 V
-6002 0 R
( 22.6274) Rshow
1.000 UL
LT0
0.50 0.50 0.50 C 1.000 UL
LTa
0.50 0.50 0.50 C 966 1795 M
5981 0 V
stroke
LT0
0.50 0.50 0.50 C 966 1795 M
63 0 V
5918 0 R
-63 0 V
-6002 0 R
( 23.3345) Rshow
1.000 UL
LT0
0.50 0.50 0.50 C 1.000 UL
LTa
0.50 0.50 0.50 C 966 1841 M
5981 0 V
stroke
LT0
0.50 0.50 0.50 C 966 1841 M
63 0 V
5918 0 R
-63 0 V
-6002 0 R
( 24.0416) Rshow
1.000 UL
LT0
0.50 0.50 0.50 C 1.000 UL
LTa
0.50 0.50 0.50 C 966 1887 M
5981 0 V
stroke
LT0
0.50 0.50 0.50 C 966 1887 M
63 0 V
5918 0 R
-63 0 V
-6002 0 R
( 24.7487) Rshow
1.000 UL
LT0
0.50 0.50 0.50 C 1.000 UL
LTa
0.50 0.50 0.50 C 966 1933 M
5981 0 V
stroke
LT0
0.50 0.50 0.50 C 966 1933 M
63 0 V
5918 0 R
-63 0 V
-6002 0 R
( 25.4558) Rshow
1.000 UL
LT0
0.50 0.50 0.50 C 1.000 UL
LTa
0.50 0.50 0.50 C 966 1979 M
5981 0 V
stroke
LT0
0.50 0.50 0.50 C 966 1979 M
63 0 V
5918 0 R
-63 0 V
-6002 0 R
( 26.1629) Rshow
1.000 UL
LT0
0.50 0.50 0.50 C 1.000 UL
LTa
0.50 0.50 0.50 C 966 2025 M
5981 0 V
stroke
LT0
0.50 0.50 0.50 C 966 2025 M
63 0 V
5918 0 R
-63 0 V
-6002 0 R
( 26.87) Rshow
1.000 UL
LT0
0.50 0.50 0.50 C 1.000 UL
LTa
0.50 0.50 0.50 C 966 2070 M
5981 0 V
stroke
LT0
0.50 0.50 0.50 C 966 2070 M
63 0 V
5918 0 R
-63 0 V
-6002 0 R
( 27.5771) Rshow
1.000 UL
LT0
0.50 0.50 0.50 C 1.000 UL
LTa
0.50 0.50 0.50 C 966 2116 M
5981 0 V
stroke
LT0
0.50 0.50 0.50 C 966 2116 M
63 0 V
5918 0 R
-63 0 V
-6002 0 R
( 28.2842) Rshow
1.000 UL
LT0
0.50 0.50 0.50 C 1.000 UL
LTa
0.50 0.50 0.50 C 966 2162 M
5981 0 V
stroke
LT0
0.50 0.50 0.50 C 966 2162 M
63 0 V
5918 0 R
-63 0 V
-6002 0 R
( 28.9913) Rshow
1.000 UL
LT0
0.50 0.50 0.50 C 1.000 UL
LTa
0.50 0.50 0.50 C 966 2208 M
5981 0 V
stroke
LT0
0.50 0.50 0.50 C 966 2208 M
63 0 V
5918 0 R
-63 0 V
-6002 0 R
( 29.6985) Rshow
1.000 UL
LT0
0.50 0.50 0.50 C 1.000 UL
LTa
0.50 0.50 0.50 C 966 2254 M
5981 0 V
stroke
LT0
0.50 0.50 0.50 C 966 2254 M
63 0 V
5918 0 R
-63 0 V
-6002 0 R
( 30.4056) Rshow
1.000 UL
LT0
0.50 0.50 0.50 C 1.000 UL
LTa
0.50 0.50 0.50 C 966 2300 M
5981 0 V
stroke
LT0
0.50 0.50 0.50 C 966 2300 M
63 0 V
5918 0 R
-63 0 V
-6002 0 R
( 31.1127) Rshow
1.000 UL
LT0
0.50 0.50 0.50 C 1.000 UL
LTa
0.50 0.50 0.50 C 966 2346 M
5981 0 V
stroke
LT0
0.50 0.50 0.50 C 966 2346 M
63 0 V
5918 0 R
-63 0 V
-6002 0 R
( 31.8198) Rshow
1.000 UL
LT0
0.50 0.50 0.50 C 1.000 UL
LTa
0.50 0.50 0.50 C 966 2392 M
5981 0 V
stroke
LT0
0.50 0.50 0.50 C 966 2392 M
63 0 V
5918 0 R
-63 0 V
-6002 0 R
( 32.5269) Rshow
1.000 UL
LT0
0.50 0.50 0.50 C 1.000 UL
LTa
0.50 0.50 0.50 C 966 2438 M
5981 0 V
stroke
LT0
0.50 0.50 0.50 C 966 2438 M
63 0 V
5918 0 R
-63 0 V
-6002 0 R
( 33.234) Rshow
1.000 UL
LT0
0.50 0.50 0.50 C 1.000 UL
LTa
0.50 0.50 0.50 C 966 2484 M
5981 0 V
stroke
LT0
0.50 0.50 0.50 C 966 2484 M
63 0 V
5918 0 R
-63 0 V
-6002 0 R
( 33.9411) Rshow
1.000 UL
LT0
0.50 0.50 0.50 C 1.000 UL
LTa
0.50 0.50 0.50 C 966 2530 M
5981 0 V
stroke
LT0
0.50 0.50 0.50 C 966 2530 M
63 0 V
5918 0 R
-63 0 V
-6002 0 R
( 34.6482) Rshow
1.000 UL
LT0
0.50 0.50 0.50 C 1.000 UL
LTa
0.50 0.50 0.50 C 966 2576 M
5981 0 V
stroke
LT0
0.50 0.50 0.50 C 966 2576 M
63 0 V
5918 0 R
-63 0 V
-6002 0 R
( 35.3553) Rshow
1.000 UL
LT0
0.50 0.50 0.50 C 1.000 UL
LTa
0.50 0.50 0.50 C 966 2621 M
5981 0 V
stroke
LT0
0.50 0.50 0.50 C 966 2621 M
63 0 V
5918 0 R
-63 0 V
-6002 0 R
( 36.0624) Rshow
1.000 UL
LT0
0.50 0.50 0.50 C 1.000 UL
LTa
0.50 0.50 0.50 C 966 2667 M
5981 0 V
stroke
LT0
0.50 0.50 0.50 C 966 2667 M
63 0 V
5918 0 R
-63 0 V
-6002 0 R
( 36.7695) Rshow
1.000 UL
LT0
0.50 0.50 0.50 C 1.000 UL
LTa
0.50 0.50 0.50 C 966 2713 M
5981 0 V
stroke
LT0
0.50 0.50 0.50 C 966 2713 M
63 0 V
5918 0 R
-63 0 V
-6002 0 R
( 37.4766) Rshow
1.000 UL
LT0
0.50 0.50 0.50 C 1.000 UL
LTa
0.50 0.50 0.50 C 966 2759 M
5981 0 V
stroke
LT0
0.50 0.50 0.50 C 966 2759 M
63 0 V
5918 0 R
-63 0 V
-6002 0 R
( 38.1837) Rshow
1.000 UL
LT0
0.50 0.50 0.50 C 1.000 UL
LTa
0.50 0.50 0.50 C 966 2805 M
5981 0 V
stroke
LT0
0.50 0.50 0.50 C 966 2805 M
63 0 V
5918 0 R
-63 0 V
-6002 0 R
( 38.8908) Rshow
1.000 UL
LT0
0.50 0.50 0.50 C 1.000 UL
LTa
0.50 0.50 0.50 C 966 2851 M
5981 0 V
stroke
LT0
0.50 0.50 0.50 C 966 2851 M
63 0 V
5918 0 R
-63 0 V
-6002 0 R
( 39.5979) Rshow
1.000 UL
LT0
0.50 0.50 0.50 C 1.000 UL
LTa
0.50 0.50 0.50 C 966 2897 M
5981 0 V
stroke
LT0
0.50 0.50 0.50 C 966 2897 M
63 0 V
5918 0 R
-63 0 V
-6002 0 R
( 40.305) Rshow
1.000 UL
LT0
0.50 0.50 0.50 C 1.000 UL
LTa
0.50 0.50 0.50 C 966 2943 M
5981 0 V
stroke
LT0
0.50 0.50 0.50 C 966 2943 M
63 0 V
5918 0 R
-63 0 V
-6002 0 R
( 41.0121) Rshow
1.000 UL
LT0
0.50 0.50 0.50 C 1.000 UL
LTa
0.50 0.50 0.50 C 966 2989 M
5981 0 V
stroke
LT0
0.50 0.50 0.50 C 966 2989 M
63 0 V
5918 0 R
-63 0 V
-6002 0 R
( 41.7193) Rshow
1.000 UL
LT0
0.50 0.50 0.50 C 1.000 UL
LTa
0.50 0.50 0.50 C 966 3035 M
5981 0 V
stroke
LT0
0.50 0.50 0.50 C 966 3035 M
63 0 V
5918 0 R
-63 0 V
-6002 0 R
( 42.4264) Rshow
1.000 UL
LT0
0.50 0.50 0.50 C 1.000 UL
LTa
0.50 0.50 0.50 C 966 3081 M
5981 0 V
stroke
LT0
0.50 0.50 0.50 C 966 3081 M
63 0 V
5918 0 R
-63 0 V
-6002 0 R
( 43.1335) Rshow
1.000 UL
LT0
0.50 0.50 0.50 C 1.000 UL
LTa
0.50 0.50 0.50 C 966 3126 M
5981 0 V
stroke
LT0
0.50 0.50 0.50 C 966 3126 M
63 0 V
5918 0 R
-63 0 V
-6002 0 R
( 43.8406) Rshow
1.000 UL
LT0
0.50 0.50 0.50 C 1.000 UL
LTa
0.50 0.50 0.50 C 966 3172 M
5981 0 V
stroke
LT0
0.50 0.50 0.50 C 966 3172 M
63 0 V
5918 0 R
-63 0 V
-6002 0 R
( 44.5477) Rshow
1.000 UL
LT0
0.50 0.50 0.50 C 1.000 UL
LTa
0.50 0.50 0.50 C 966 3218 M
5981 0 V
stroke
LT0
0.50 0.50 0.50 C 966 3218 M
63 0 V
5918 0 R
-63 0 V
-6002 0 R
( 45.2548) Rshow
1.000 UL
LT0
0.50 0.50 0.50 C 1.000 UL
LTa
0.50 0.50 0.50 C 966 3264 M
5981 0 V
stroke
LT0
0.50 0.50 0.50 C 966 3264 M
63 0 V
5918 0 R
-63 0 V
-6002 0 R
( 45.9619) Rshow
1.000 UL
LT0
0.50 0.50 0.50 C 1.000 UL
LTa
0.50 0.50 0.50 C 966 3310 M
5981 0 V
stroke
LT0
0.50 0.50 0.50 C 966 3310 M
63 0 V
5918 0 R
-63 0 V
-6002 0 R
( 46.669) Rshow
1.000 UL
LT0
0.50 0.50 0.50 C 1.000 UL
LTa
0.50 0.50 0.50 C 966 3356 M
5981 0 V
stroke
LT0
0.50 0.50 0.50 C 966 3356 M
63 0 V
5918 0 R
-63 0 V
-6002 0 R
( 47.3761) Rshow
1.000 UL
LT0
0.50 0.50 0.50 C 1.000 UL
LTa
0.50 0.50 0.50 C 966 3402 M
5981 0 V
stroke
LT0
0.50 0.50 0.50 C 966 3402 M
63 0 V
5918 0 R
-63 0 V
-6002 0 R
( 48.0832) Rshow
1.000 UL
LT0
0.50 0.50 0.50 C 1.000 UL
LTa
0.50 0.50 0.50 C 966 3448 M
5981 0 V
stroke
LT0
0.50 0.50 0.50 C 966 3448 M
63 0 V
5918 0 R
-63 0 V
-6002 0 R
( 48.7903) Rshow
1.000 UL
LT0
0.50 0.50 0.50 C 1.000 UL
LTa
0.50 0.50 0.50 C 966 3494 M
5981 0 V
stroke
LT0
0.50 0.50 0.50 C 966 3494 M
63 0 V
5918 0 R
-63 0 V
-6002 0 R
( 49.4974) Rshow
1.000 UL
LT0
0.50 0.50 0.50 C 1.000 UL
LTa
0.50 0.50 0.50 C 966 3540 M
5981 0 V
stroke
LT0
0.50 0.50 0.50 C 966 3540 M
63 0 V
5918 0 R
-63 0 V
-6002 0 R
( 50.2045) Rshow
1.000 UL
LT0
0.50 0.50 0.50 C 1.000 UL
LTa
0.50 0.50 0.50 C 966 3586 M
5981 0 V
stroke
LT0
0.50 0.50 0.50 C 966 3586 M
63 0 V
5918 0 R
-63 0 V
-6002 0 R
( 50.9116) Rshow
1.000 UL
LT0
0.50 0.50 0.50 C 1.000 UL
LTa
0.50 0.50 0.50 C 966 3631 M
5981 0 V
stroke
LT0
0.50 0.50 0.50 C 966 3631 M
63 0 V
5918 0 R
-63 0 V
-6002 0 R
( 51.6187) Rshow
1.000 UL
LT0
0.50 0.50 0.50 C 1.000 UL
LTa
0.50 0.50 0.50 C 966 3677 M
5981 0 V
stroke
LT0
0.50 0.50 0.50 C 966 3677 M
63 0 V
5918 0 R
-63 0 V
-6002 0 R
( 52.3258) Rshow
1.000 UL
LT0
0.50 0.50 0.50 C 1.000 UL
LTa
0.50 0.50 0.50 C 966 3723 M
5981 0 V
stroke
LT0
0.50 0.50 0.50 C 966 3723 M
63 0 V
5918 0 R
-63 0 V
-6002 0 R
( 53.033) Rshow
1.000 UL
LT0
0.50 0.50 0.50 C 1.000 UL
LTa
0.50 0.50 0.50 C 966 3769 M
5981 0 V
stroke
LT0
0.50 0.50 0.50 C 966 3769 M
63 0 V
5918 0 R
-63 0 V
-6002 0 R
( 53.7401) Rshow
1.000 UL
LT0
0.50 0.50 0.50 C 1.000 UL
LTa
0.50 0.50 0.50 C 966 3815 M
5981 0 V
stroke
LT0
0.50 0.50 0.50 C 966 3815 M
63 0 V
5918 0 R
-63 0 V
-6002 0 R
( 54.4472) Rshow
1.000 UL
LT0
0.50 0.50 0.50 C 1.000 UL
LTa
0.50 0.50 0.50 C 966 3861 M
5981 0 V
stroke
LT0
0.50 0.50 0.50 C 966 3861 M
63 0 V
5918 0 R
-63 0 V
-6002 0 R
( 55.1543) Rshow
1.000 UL
LT0
0.50 0.50 0.50 C 1.000 UL
LTa
0.50 0.50 0.50 C 966 3907 M
5981 0 V
stroke
LT0
0.50 0.50 0.50 C 966 3907 M
63 0 V
5918 0 R
-63 0 V
-6002 0 R
( 55.8614) Rshow
1.000 UL
LT0
0.50 0.50 0.50 C 1.000 UL
LTa
0.50 0.50 0.50 C 966 3953 M
5981 0 V
stroke
LT0
0.50 0.50 0.50 C 966 3953 M
63 0 V
5918 0 R
-63 0 V
-6002 0 R
( 56.5685) Rshow
1.000 UL
LT0
0.50 0.50 0.50 C 1.000 UL
LTa
0.50 0.50 0.50 C 966 3999 M
5981 0 V
stroke
LT0
0.50 0.50 0.50 C 966 3999 M
63 0 V
5918 0 R
-63 0 V
-6002 0 R
( 57.2756) Rshow
1.000 UL
LT0
0.50 0.50 0.50 C 1.000 UL
LTa
0.50 0.50 0.50 C 966 4045 M
5981 0 V
stroke
LT0
0.50 0.50 0.50 C 966 4045 M
63 0 V
5918 0 R
-63 0 V
-6002 0 R
( 57.9827) Rshow
1.000 UL
LT0
0.50 0.50 0.50 C 1.000 UL
LTa
0.50 0.50 0.50 C 966 4091 M
5981 0 V
stroke
LT0
0.50 0.50 0.50 C 966 4091 M
63 0 V
5918 0 R
-63 0 V
-6002 0 R
( 58.6898) Rshow
1.000 UL
LT0
0.50 0.50 0.50 C 1.000 UL
LTa
0.50 0.50 0.50 C 966 4136 M
5981 0 V
stroke
LT0
0.50 0.50 0.50 C 966 4136 M
63 0 V
5918 0 R
-63 0 V
-6002 0 R
( 59.3969) Rshow
1.000 UL
LT0
0.50 0.50 0.50 C 1.000 UL
LTa
0.50 0.50 0.50 C 966 4182 M
5981 0 V
stroke
LT0
0.50 0.50 0.50 C 966 4182 M
63 0 V
5918 0 R
-63 0 V
-6002 0 R
( 60.104) Rshow
1.000 UL
LT0
0.50 0.50 0.50 C 1.000 UL
LTa
0.50 0.50 0.50 C 966 4228 M
5981 0 V
stroke
LT0
0.50 0.50 0.50 C 966 4228 M
63 0 V
5918 0 R
-63 0 V
-6002 0 R
( 60.8111) Rshow
1.000 UL
LT0
0.50 0.50 0.50 C 1.000 UL
LTa
0.50 0.50 0.50 C 966 4274 M
5981 0 V
stroke
LT0
0.50 0.50 0.50 C 966 4274 M
63 0 V
5918 0 R
-63 0 V
-6002 0 R
( 61.5182) Rshow
1.000 UL
LT0
0.50 0.50 0.50 C 1.000 UL
LTa
0.50 0.50 0.50 C 966 4320 M
5981 0 V
stroke
LT0
0.50 0.50 0.50 C 966 4320 M
63 0 V
5918 0 R
-63 0 V
-6002 0 R
( 62.2253) Rshow
1.000 UL
LT0
0.50 0.50 0.50 C 1.000 UL
LTa
0.50 0.50 0.50 C 966 4366 M
5981 0 V
stroke
LT0
0.50 0.50 0.50 C 966 4366 M
63 0 V
5918 0 R
-63 0 V
-6002 0 R
( 62.9324) Rshow
1.000 UL
LT0
0.50 0.50 0.50 C 1.000 UL
LTa
0.50 0.50 0.50 C 966 4412 M
5981 0 V
stroke
LT0
0.50 0.50 0.50 C 966 4412 M
63 0 V
5918 0 R
-63 0 V
-6002 0 R
( 63.6395) Rshow
1.000 UL
LT0
0.50 0.50 0.50 C 1.000 UL
LTa
0.50 0.50 0.50 C 966 4458 M
5981 0 V
stroke
LT0
0.50 0.50 0.50 C 966 4458 M
63 0 V
5918 0 R
-63 0 V
-6002 0 R
( 64.3466) Rshow
1.000 UL
LT0
0.50 0.50 0.50 C 1.000 UL
LTa
0.50 0.50 0.50 C 966 4504 M
5981 0 V
stroke
LT0
0.50 0.50 0.50 C 966 4504 M
63 0 V
5918 0 R
-63 0 V
-6002 0 R
( 65.0538) Rshow
1.000 UL
LT0
0.50 0.50 0.50 C 1.000 UL
LTa
0.50 0.50 0.50 C 966 4550 M
5981 0 V
stroke
LT0
0.50 0.50 0.50 C 966 4550 M
63 0 V
5918 0 R
-63 0 V
-6002 0 R
( 65.7609) Rshow
1.000 UL
LT0
0.50 0.50 0.50 C 1.000 UL
LTa
0.50 0.50 0.50 C 966 4596 M
5981 0 V
stroke
LT0
0.50 0.50 0.50 C 966 4596 M
63 0 V
5918 0 R
-63 0 V
-6002 0 R
( 66.468) Rshow
1.000 UL
LT0
0.50 0.50 0.50 C 1.000 UL
LTa
0.50 0.50 0.50 C 966 4641 M
5981 0 V
stroke
LT0
0.50 0.50 0.50 C 966 4641 M
63 0 V
5918 0 R
-63 0 V
-6002 0 R
( 67.1751) Rshow
1.000 UL
LT0
0.50 0.50 0.50 C 1.000 UL
LTa
0.50 0.50 0.50 C 966 4687 M
5981 0 V
stroke
LT0
0.50 0.50 0.50 C 966 4687 M
63 0 V
5918 0 R
-63 0 V
-6002 0 R
( 67.8822) Rshow
1.000 UL
LT0
0.50 0.50 0.50 C 1.000 UL
LTa
0.50 0.50 0.50 C 966 4733 M
5981 0 V
stroke
LT0
0.50 0.50 0.50 C 966 4733 M
63 0 V
5918 0 R
-63 0 V
-6002 0 R
( 68.5893) Rshow
1.000 UL
LT0
0.50 0.50 0.50 C 1.000 UL
LTa
0.50 0.50 0.50 C 966 4779 M
5981 0 V
stroke
LT0
0.50 0.50 0.50 C 966 4779 M
63 0 V
5918 0 R
-63 0 V
-6002 0 R
( 69.2964) Rshow
1.000 UL
LT0
0.50 0.50 0.50 C 1.000 UL
LTa
0.50 0.50 0.50 C 966 4825 M
5981 0 V
stroke
LT0
0.50 0.50 0.50 C 966 4825 M
63 0 V
5918 0 R
-63 0 V
-6002 0 R
( 70.0035) Rshow
1.000 UL
LT0
0.50 0.50 0.50 C 1.000 UL
LTa
0.50 0.50 0.50 C 966 4871 M
5981 0 V
stroke
LT0
0.50 0.50 0.50 C 966 4871 M
63 0 V
5918 0 R
-63 0 V
-6002 0 R
( 70.7106) Rshow
1.000 UL
LT0
0.50 0.50 0.50 C 1.000 UL
LTa
0.50 0.50 0.50 C 966 280 M
0 4591 V
stroke
LT0
0.50 0.50 0.50 C 966 280 M
0 63 V
0 4528 R
0 -63 V
966 140 M
( 0) Cshow
1.000 UL
LT0
0.50 0.50 0.50 C 1.000 UL
LTa
0.50 0.50 0.50 C 1026 280 M
0 4591 V
stroke
LT0
0.50 0.50 0.50 C 1026 280 M
0 63 V
0 4528 R
0 -63 V
0 -4668 R
( 0.707106) Cshow
1.000 UL
LT0
0.50 0.50 0.50 C 1.000 UL
LTa
0.50 0.50 0.50 C 1086 280 M
0 4591 V
stroke
LT0
0.50 0.50 0.50 C 1086 280 M
0 63 V
0 4528 R
0 -63 V
0 -4668 R
( 1.41421) Cshow
1.000 UL
LT0
0.50 0.50 0.50 C 1.000 UL
LTa
0.50 0.50 0.50 C 1145 280 M
0 4591 V
stroke
LT0
0.50 0.50 0.50 C 1145 280 M
0 63 V
0 4528 R
0 -63 V
0 -4668 R
( 2.12132) Cshow
1.000 UL
LT0
0.50 0.50 0.50 C 1.000 UL
LTa
0.50 0.50 0.50 C 1205 280 M
0 4591 V
stroke
LT0
0.50 0.50 0.50 C 1205 280 M
0 63 V
0 4528 R
0 -63 V
0 -4668 R
( 2.82842) Cshow
1.000 UL
LT0
0.50 0.50 0.50 C 1.000 UL
LTa
0.50 0.50 0.50 C 1265 280 M
0 4591 V
stroke
LT0
0.50 0.50 0.50 C 1265 280 M
0 63 V
0 4528 R
0 -63 V
0 -4668 R
( 3.53553) Cshow
1.000 UL
LT0
0.50 0.50 0.50 C 1.000 UL
LTa
0.50 0.50 0.50 C 1325 280 M
0 4591 V
stroke
LT0
0.50 0.50 0.50 C 1325 280 M
0 63 V
0 4528 R
0 -63 V
0 -4668 R
( 4.24264) Cshow
1.000 UL
LT0
0.50 0.50 0.50 C 1.000 UL
LTa
0.50 0.50 0.50 C 1385 280 M
0 4591 V
stroke
LT0
0.50 0.50 0.50 C 1385 280 M
0 63 V
0 4528 R
0 -63 V
0 -4668 R
( 4.94974) Cshow
1.000 UL
LT0
0.50 0.50 0.50 C 1.000 UL
LTa
0.50 0.50 0.50 C 1444 280 M
0 4591 V
stroke
LT0
0.50 0.50 0.50 C 1444 280 M
0 63 V
0 4528 R
0 -63 V
0 -4668 R
( 5.65685) Cshow
1.000 UL
LT0
0.50 0.50 0.50 C 1.000 UL
LTa
0.50 0.50 0.50 C 1504 280 M
0 4591 V
stroke
LT0
0.50 0.50 0.50 C 1504 280 M
0 63 V
0 4528 R
0 -63 V
0 -4668 R
( 6.36395) Cshow
1.000 UL
LT0
0.50 0.50 0.50 C 1.000 UL
LTa
0.50 0.50 0.50 C 1564 280 M
0 4591 V
stroke
LT0
0.50 0.50 0.50 C 1564 280 M
0 63 V
0 4528 R
0 -63 V
0 -4668 R
( 7.07106) Cshow
1.000 UL
LT0
0.50 0.50 0.50 C 1.000 UL
LTa
0.50 0.50 0.50 C 1624 280 M
0 4591 V
stroke
LT0
0.50 0.50 0.50 C 1624 280 M
0 63 V
0 4528 R
0 -63 V
0 -4668 R
( 7.77817) Cshow
1.000 UL
LT0
0.50 0.50 0.50 C 1.000 UL
LTa
0.50 0.50 0.50 C 1684 280 M
0 4591 V
stroke
LT0
0.50 0.50 0.50 C 1684 280 M
0 63 V
0 4528 R
0 -63 V
0 -4668 R
( 8.48527) Cshow
1.000 UL
LT0
0.50 0.50 0.50 C 1.000 UL
LTa
0.50 0.50 0.50 C 1744 280 M
0 4591 V
stroke
LT0
0.50 0.50 0.50 C 1744 280 M
0 63 V
0 4528 R
0 -63 V
0 -4668 R
( 9.19238) Cshow
1.000 UL
LT0
0.50 0.50 0.50 C 1.000 UL
LTa
0.50 0.50 0.50 C 1803 280 M
0 4591 V
stroke
LT0
0.50 0.50 0.50 C 1803 280 M
0 63 V
0 4528 R
0 -63 V
0 -4668 R
( 9.89948) Cshow
1.000 UL
LT0
0.50 0.50 0.50 C 1.000 UL
LTa
0.50 0.50 0.50 C 1863 280 M
0 4591 V
stroke
LT0
0.50 0.50 0.50 C 1863 280 M
0 63 V
0 4528 R
0 -63 V
0 -4668 R
( 10.6066) Cshow
1.000 UL
LT0
0.50 0.50 0.50 C 1.000 UL
LTa
0.50 0.50 0.50 C 1923 280 M
0 4591 V
stroke
LT0
0.50 0.50 0.50 C 1923 280 M
0 63 V
0 4528 R
0 -63 V
0 -4668 R
( 11.3137) Cshow
1.000 UL
LT0
0.50 0.50 0.50 C 1.000 UL
LTa
0.50 0.50 0.50 C 1983 280 M
0 4591 V
stroke
LT0
0.50 0.50 0.50 C 1983 280 M
0 63 V
0 4528 R
0 -63 V
0 -4668 R
( 12.0208) Cshow
1.000 UL
LT0
0.50 0.50 0.50 C 1.000 UL
LTa
0.50 0.50 0.50 C 2043 280 M
0 4591 V
stroke
LT0
0.50 0.50 0.50 C 2043 280 M
0 63 V
0 4528 R
0 -63 V
0 -4668 R
( 12.7279) Cshow
1.000 UL
LT0
0.50 0.50 0.50 C 1.000 UL
LTa
0.50 0.50 0.50 C 2102 280 M
0 4591 V
stroke
LT0
0.50 0.50 0.50 C 2102 280 M
0 63 V
0 4528 R
0 -63 V
0 -4668 R
( 13.435) Cshow
1.000 UL
LT0
0.50 0.50 0.50 C 1.000 UL
LTa
0.50 0.50 0.50 C 2162 280 M
0 4591 V
stroke
LT0
0.50 0.50 0.50 C 2162 280 M
0 63 V
0 4528 R
0 -63 V
0 -4668 R
( 14.1421) Cshow
1.000 UL
LT0
0.50 0.50 0.50 C 1.000 UL
LTa
0.50 0.50 0.50 C 2222 280 M
0 4591 V
stroke
LT0
0.50 0.50 0.50 C 2222 280 M
0 63 V
0 4528 R
0 -63 V
0 -4668 R
( 14.8492) Cshow
1.000 UL
LT0
0.50 0.50 0.50 C 1.000 UL
LTa
0.50 0.50 0.50 C 2282 280 M
0 4591 V
stroke
LT0
0.50 0.50 0.50 C 2282 280 M
0 63 V
0 4528 R
0 -63 V
0 -4668 R
( 15.5563) Cshow
1.000 UL
LT0
0.50 0.50 0.50 C 1.000 UL
LTa
0.50 0.50 0.50 C 2342 280 M
0 4591 V
stroke
LT0
0.50 0.50 0.50 C 2342 280 M
0 63 V
0 4528 R
0 -63 V
0 -4668 R
( 16.2634) Cshow
1.000 UL
LT0
0.50 0.50 0.50 C 1.000 UL
LTa
0.50 0.50 0.50 C 2401 280 M
0 4591 V
stroke
LT0
0.50 0.50 0.50 C 2401 280 M
0 63 V
0 4528 R
0 -63 V
0 -4668 R
( 16.9705) Cshow
1.000 UL
LT0
0.50 0.50 0.50 C 1.000 UL
LTa
0.50 0.50 0.50 C 2461 280 M
0 4591 V
stroke
LT0
0.50 0.50 0.50 C 2461 280 M
0 63 V
0 4528 R
0 -63 V
0 -4668 R
( 17.6776) Cshow
1.000 UL
LT0
0.50 0.50 0.50 C 1.000 UL
LTa
0.50 0.50 0.50 C 2521 280 M
0 4591 V
stroke
LT0
0.50 0.50 0.50 C 2521 280 M
0 63 V
0 4528 R
0 -63 V
0 -4668 R
( 18.3848) Cshow
1.000 UL
LT0
0.50 0.50 0.50 C 1.000 UL
LTa
0.50 0.50 0.50 C 2581 280 M
0 4591 V
stroke
LT0
0.50 0.50 0.50 C 2581 280 M
0 63 V
0 4528 R
0 -63 V
0 -4668 R
( 19.0919) Cshow
1.000 UL
LT0
0.50 0.50 0.50 C 1.000 UL
LTa
0.50 0.50 0.50 C 2641 280 M
0 4591 V
stroke
LT0
0.50 0.50 0.50 C 2641 280 M
0 63 V
0 4528 R
0 -63 V
0 -4668 R
( 19.799) Cshow
1.000 UL
LT0
0.50 0.50 0.50 C 1.000 UL
LTa
0.50 0.50 0.50 C 2700 280 M
0 4591 V
stroke
LT0
0.50 0.50 0.50 C 2700 280 M
0 63 V
0 4528 R
0 -63 V
0 -4668 R
( 20.5061) Cshow
1.000 UL
LT0
0.50 0.50 0.50 C 1.000 UL
LTa
0.50 0.50 0.50 C 2760 280 M
0 4591 V
stroke
LT0
0.50 0.50 0.50 C 2760 280 M
0 63 V
0 4528 R
0 -63 V
0 -4668 R
( 21.2132) Cshow
1.000 UL
LT0
0.50 0.50 0.50 C 1.000 UL
LTa
0.50 0.50 0.50 C 2820 280 M
0 4591 V
stroke
LT0
0.50 0.50 0.50 C 2820 280 M
0 63 V
0 4528 R
0 -63 V
0 -4668 R
( 21.9203) Cshow
1.000 UL
LT0
0.50 0.50 0.50 C 1.000 UL
LTa
0.50 0.50 0.50 C 2880 280 M
0 4591 V
stroke
LT0
0.50 0.50 0.50 C 2880 280 M
0 63 V
0 4528 R
0 -63 V
0 -4668 R
( 22.6274) Cshow
1.000 UL
LT0
0.50 0.50 0.50 C 1.000 UL
LTa
0.50 0.50 0.50 C 2940 280 M
0 4591 V
stroke
LT0
0.50 0.50 0.50 C 2940 280 M
0 63 V
0 4528 R
0 -63 V
0 -4668 R
( 23.3345) Cshow
1.000 UL
LT0
0.50 0.50 0.50 C 1.000 UL
LTa
0.50 0.50 0.50 C 3000 280 M
0 4591 V
stroke
LT0
0.50 0.50 0.50 C 3000 280 M
0 63 V
0 4528 R
0 -63 V
0 -4668 R
( 24.0416) Cshow
1.000 UL
LT0
0.50 0.50 0.50 C 1.000 UL
LTa
0.50 0.50 0.50 C 3059 280 M
0 4591 V
stroke
LT0
0.50 0.50 0.50 C 3059 280 M
0 63 V
0 4528 R
0 -63 V
0 -4668 R
( 24.7487) Cshow
1.000 UL
LT0
0.50 0.50 0.50 C 1.000 UL
LTa
0.50 0.50 0.50 C 3119 280 M
0 4591 V
stroke
LT0
0.50 0.50 0.50 C 3119 280 M
0 63 V
0 4528 R
0 -63 V
0 -4668 R
( 25.4558) Cshow
1.000 UL
LT0
0.50 0.50 0.50 C 1.000 UL
LTa
0.50 0.50 0.50 C 3179 280 M
0 4591 V
stroke
LT0
0.50 0.50 0.50 C 3179 280 M
0 63 V
0 4528 R
0 -63 V
0 -4668 R
( 26.1629) Cshow
1.000 UL
LT0
0.50 0.50 0.50 C 1.000 UL
LTa
0.50 0.50 0.50 C 3239 280 M
0 4591 V
stroke
LT0
0.50 0.50 0.50 C 3239 280 M
0 63 V
0 4528 R
0 -63 V
0 -4668 R
( 26.87) Cshow
1.000 UL
LT0
0.50 0.50 0.50 C 1.000 UL
LTa
0.50 0.50 0.50 C 3299 280 M
0 4591 V
stroke
LT0
0.50 0.50 0.50 C 3299 280 M
0 63 V
0 4528 R
0 -63 V
0 -4668 R
( 27.5771) Cshow
1.000 UL
LT0
0.50 0.50 0.50 C 1.000 UL
LTa
0.50 0.50 0.50 C 3358 280 M
0 4591 V
stroke
LT0
0.50 0.50 0.50 C 3358 280 M
0 63 V
0 4528 R
0 -63 V
0 -4668 R
( 28.2842) Cshow
1.000 UL
LT0
0.50 0.50 0.50 C 1.000 UL
LTa
0.50 0.50 0.50 C 3418 280 M
0 4591 V
stroke
LT0
0.50 0.50 0.50 C 3418 280 M
0 63 V
0 4528 R
0 -63 V
0 -4668 R
( 28.9913) Cshow
1.000 UL
LT0
0.50 0.50 0.50 C 1.000 UL
LTa
0.50 0.50 0.50 C 3478 280 M
0 4591 V
stroke
LT0
0.50 0.50 0.50 C 3478 280 M
0 63 V
0 4528 R
0 -63 V
0 -4668 R
( 29.6985) Cshow
1.000 UL
LT0
0.50 0.50 0.50 C 1.000 UL
LTa
0.50 0.50 0.50 C 3538 280 M
0 4591 V
stroke
LT0
0.50 0.50 0.50 C 3538 280 M
0 63 V
0 4528 R
0 -63 V
0 -4668 R
( 30.4056) Cshow
1.000 UL
LT0
0.50 0.50 0.50 C 1.000 UL
LTa
0.50 0.50 0.50 C 3598 280 M
0 4591 V
stroke
LT0
0.50 0.50 0.50 C 3598 280 M
0 63 V
0 4528 R
0 -63 V
0 -4668 R
( 31.1127) Cshow
1.000 UL
LT0
0.50 0.50 0.50 C 1.000 UL
LTa
0.50 0.50 0.50 C 3657 280 M
0 4591 V
stroke
LT0
0.50 0.50 0.50 C 3657 280 M
0 63 V
0 4528 R
0 -63 V
0 -4668 R
( 31.8198) Cshow
1.000 UL
LT0
0.50 0.50 0.50 C 1.000 UL
LTa
0.50 0.50 0.50 C 3717 280 M
0 4591 V
stroke
LT0
0.50 0.50 0.50 C 3717 280 M
0 63 V
0 4528 R
0 -63 V
0 -4668 R
( 32.5269) Cshow
1.000 UL
LT0
0.50 0.50 0.50 C 1.000 UL
LTa
0.50 0.50 0.50 C 3777 280 M
0 4591 V
stroke
LT0
0.50 0.50 0.50 C 3777 280 M
0 63 V
0 4528 R
0 -63 V
0 -4668 R
( 33.234) Cshow
1.000 UL
LT0
0.50 0.50 0.50 C 1.000 UL
LTa
0.50 0.50 0.50 C 3837 280 M
0 4591 V
stroke
LT0
0.50 0.50 0.50 C 3837 280 M
0 63 V
0 4528 R
0 -63 V
0 -4668 R
( 33.9411) Cshow
1.000 UL
LT0
0.50 0.50 0.50 C 1.000 UL
LTa
0.50 0.50 0.50 C 3897 280 M
0 4591 V
stroke
LT0
0.50 0.50 0.50 C 3897 280 M
0 63 V
0 4528 R
0 -63 V
0 -4668 R
( 34.6482) Cshow
1.000 UL
LT0
0.50 0.50 0.50 C 1.000 UL
LTa
0.50 0.50 0.50 C 3957 280 M
0 4591 V
stroke
LT0
0.50 0.50 0.50 C 3957 280 M
0 63 V
0 4528 R
0 -63 V
0 -4668 R
( 35.3553) Cshow
1.000 UL
LT0
0.50 0.50 0.50 C 1.000 UL
LTa
0.50 0.50 0.50 C 4016 280 M
0 4591 V
stroke
LT0
0.50 0.50 0.50 C 4016 280 M
0 63 V
0 4528 R
0 -63 V
0 -4668 R
( 36.0624) Cshow
1.000 UL
LT0
0.50 0.50 0.50 C 1.000 UL
LTa
0.50 0.50 0.50 C 4076 280 M
0 4591 V
stroke
LT0
0.50 0.50 0.50 C 4076 280 M
0 63 V
0 4528 R
0 -63 V
0 -4668 R
( 36.7695) Cshow
1.000 UL
LT0
0.50 0.50 0.50 C 1.000 UL
LTa
0.50 0.50 0.50 C 4136 280 M
0 4591 V
stroke
LT0
0.50 0.50 0.50 C 4136 280 M
0 63 V
0 4528 R
0 -63 V
0 -4668 R
( 37.4766) Cshow
1.000 UL
LT0
0.50 0.50 0.50 C 1.000 UL
LTa
0.50 0.50 0.50 C 4196 280 M
0 4591 V
stroke
LT0
0.50 0.50 0.50 C 4196 280 M
0 63 V
0 4528 R
0 -63 V
0 -4668 R
( 38.1837) Cshow
1.000 UL
LT0
0.50 0.50 0.50 C 1.000 UL
LTa
0.50 0.50 0.50 C 4256 280 M
0 4591 V
stroke
LT0
0.50 0.50 0.50 C 4256 280 M
0 63 V
0 4528 R
0 -63 V
0 -4668 R
( 38.8908) Cshow
1.000 UL
LT0
0.50 0.50 0.50 C 1.000 UL
LTa
0.50 0.50 0.50 C 4315 280 M
0 4591 V
stroke
LT0
0.50 0.50 0.50 C 4315 280 M
0 63 V
0 4528 R
0 -63 V
0 -4668 R
( 39.5979) Cshow
1.000 UL
LT0
0.50 0.50 0.50 C 1.000 UL
LTa
0.50 0.50 0.50 C 4375 280 M
0 4591 V
stroke
LT0
0.50 0.50 0.50 C 4375 280 M
0 63 V
0 4528 R
0 -63 V
0 -4668 R
( 40.305) Cshow
1.000 UL
LT0
0.50 0.50 0.50 C 1.000 UL
LTa
0.50 0.50 0.50 C 4435 280 M
0 4591 V
stroke
LT0
0.50 0.50 0.50 C 4435 280 M
0 63 V
0 4528 R
0 -63 V
0 -4668 R
( 41.0121) Cshow
1.000 UL
LT0
0.50 0.50 0.50 C 1.000 UL
LTa
0.50 0.50 0.50 C 4495 280 M
0 4591 V
stroke
LT0
0.50 0.50 0.50 C 4495 280 M
0 63 V
0 4528 R
0 -63 V
0 -4668 R
( 41.7193) Cshow
1.000 UL
LT0
0.50 0.50 0.50 C 1.000 UL
LTa
0.50 0.50 0.50 C 4555 280 M
0 4591 V
stroke
LT0
0.50 0.50 0.50 C 4555 280 M
0 63 V
0 4528 R
0 -63 V
0 -4668 R
( 42.4264) Cshow
1.000 UL
LT0
0.50 0.50 0.50 C 1.000 UL
LTa
0.50 0.50 0.50 C 4614 280 M
0 4591 V
stroke
LT0
0.50 0.50 0.50 C 4614 280 M
0 63 V
0 4528 R
0 -63 V
0 -4668 R
( 43.1335) Cshow
1.000 UL
LT0
0.50 0.50 0.50 C 1.000 UL
LTa
0.50 0.50 0.50 C 4674 280 M
0 4591 V
stroke
LT0
0.50 0.50 0.50 C 4674 280 M
0 63 V
0 4528 R
0 -63 V
0 -4668 R
( 43.8406) Cshow
1.000 UL
LT0
0.50 0.50 0.50 C 1.000 UL
LTa
0.50 0.50 0.50 C 4734 280 M
0 4591 V
stroke
LT0
0.50 0.50 0.50 C 4734 280 M
0 63 V
0 4528 R
0 -63 V
0 -4668 R
( 44.5477) Cshow
1.000 UL
LT0
0.50 0.50 0.50 C 1.000 UL
LTa
0.50 0.50 0.50 C 4794 280 M
0 4591 V
stroke
LT0
0.50 0.50 0.50 C 4794 280 M
0 63 V
0 4528 R
0 -63 V
0 -4668 R
( 45.2548) Cshow
1.000 UL
LT0
0.50 0.50 0.50 C 1.000 UL
LTa
0.50 0.50 0.50 C 4854 280 M
0 4591 V
stroke
LT0
0.50 0.50 0.50 C 4854 280 M
0 63 V
0 4528 R
0 -63 V
0 -4668 R
( 45.9619) Cshow
1.000 UL
LT0
0.50 0.50 0.50 C 1.000 UL
LTa
0.50 0.50 0.50 C 4913 280 M
0 4591 V
stroke
LT0
0.50 0.50 0.50 C 4913 280 M
0 63 V
0 4528 R
0 -63 V
0 -4668 R
( 46.669) Cshow
1.000 UL
LT0
0.50 0.50 0.50 C 1.000 UL
LTa
0.50 0.50 0.50 C 4973 280 M
0 4591 V
stroke
LT0
0.50 0.50 0.50 C 4973 280 M
0 63 V
0 4528 R
0 -63 V
0 -4668 R
( 47.3761) Cshow
1.000 UL
LT0
0.50 0.50 0.50 C 1.000 UL
LTa
0.50 0.50 0.50 C 5033 280 M
0 4591 V
stroke
LT0
0.50 0.50 0.50 C 5033 280 M
0 63 V
0 4528 R
0 -63 V
0 -4668 R
( 48.0832) Cshow
1.000 UL
LT0
0.50 0.50 0.50 C 1.000 UL
LTa
0.50 0.50 0.50 C 5093 280 M
0 4591 V
stroke
LT0
0.50 0.50 0.50 C 5093 280 M
0 63 V
0 4528 R
0 -63 V
0 -4668 R
( 48.7903) Cshow
1.000 UL
LT0
0.50 0.50 0.50 C 1.000 UL
LTa
0.50 0.50 0.50 C 5153 280 M
0 4591 V
stroke
LT0
0.50 0.50 0.50 C 5153 280 M
0 63 V
0 4528 R
0 -63 V
0 -4668 R
( 49.4974) Cshow
1.000 UL
LT0
0.50 0.50 0.50 C 1.000 UL
LTa
0.50 0.50 0.50 C 5213 280 M
0 4591 V
stroke
LT0
0.50 0.50 0.50 C 5213 280 M
0 63 V
0 4528 R
0 -63 V
0 -4668 R
( 50.2045) Cshow
1.000 UL
LT0
0.50 0.50 0.50 C 1.000 UL
LTa
0.50 0.50 0.50 C 5272 280 M
0 4591 V
stroke
LT0
0.50 0.50 0.50 C 5272 280 M
0 63 V
0 4528 R
0 -63 V
0 -4668 R
( 50.9116) Cshow
1.000 UL
LT0
0.50 0.50 0.50 C 1.000 UL
LTa
0.50 0.50 0.50 C 5332 280 M
0 4591 V
stroke
LT0
0.50 0.50 0.50 C 5332 280 M
0 63 V
0 4528 R
0 -63 V
0 -4668 R
( 51.6187) Cshow
1.000 UL
LT0
0.50 0.50 0.50 C 1.000 UL
LTa
0.50 0.50 0.50 C 5392 280 M
0 4591 V
stroke
LT0
0.50 0.50 0.50 C 5392 280 M
0 63 V
0 4528 R
0 -63 V
0 -4668 R
( 52.3258) Cshow
1.000 UL
LT0
0.50 0.50 0.50 C 1.000 UL
LTa
0.50 0.50 0.50 C 5452 280 M
0 4591 V
stroke
LT0
0.50 0.50 0.50 C 5452 280 M
0 63 V
0 4528 R
0 -63 V
0 -4668 R
( 53.033) Cshow
1.000 UL
LT0
0.50 0.50 0.50 C 1.000 UL
LTa
0.50 0.50 0.50 C 5512 280 M
0 4591 V
stroke
LT0
0.50 0.50 0.50 C 5512 280 M
0 63 V
0 4528 R
0 -63 V
0 -4668 R
( 53.7401) Cshow
1.000 UL
LT0
0.50 0.50 0.50 C 1.000 UL
LTa
0.50 0.50 0.50 C 5571 280 M
0 4591 V
stroke
LT0
0.50 0.50 0.50 C 5571 280 M
0 63 V
0 4528 R
0 -63 V
0 -4668 R
( 54.4472) Cshow
1.000 UL
LT0
0.50 0.50 0.50 C 1.000 UL
LTa
0.50 0.50 0.50 C 5631 280 M
0 4591 V
stroke
LT0
0.50 0.50 0.50 C 5631 280 M
0 63 V
0 4528 R
0 -63 V
0 -4668 R
( 55.1543) Cshow
1.000 UL
LT0
0.50 0.50 0.50 C 1.000 UL
LTa
0.50 0.50 0.50 C 5691 280 M
0 4591 V
stroke
LT0
0.50 0.50 0.50 C 5691 280 M
0 63 V
0 4528 R
0 -63 V
0 -4668 R
( 55.8614) Cshow
1.000 UL
LT0
0.50 0.50 0.50 C 1.000 UL
LTa
0.50 0.50 0.50 C 5751 280 M
0 4591 V
stroke
LT0
0.50 0.50 0.50 C 5751 280 M
0 63 V
0 4528 R
0 -63 V
0 -4668 R
( 56.5685) Cshow
1.000 UL
LT0
0.50 0.50 0.50 C 1.000 UL
LTa
0.50 0.50 0.50 C 5811 280 M
0 4591 V
stroke
LT0
0.50 0.50 0.50 C 5811 280 M
0 63 V
0 4528 R
0 -63 V
0 -4668 R
( 57.2756) Cshow
1.000 UL
LT0
0.50 0.50 0.50 C 1.000 UL
LTa
0.50 0.50 0.50 C 5870 280 M
0 4591 V
stroke
LT0
0.50 0.50 0.50 C 5870 280 M
0 63 V
0 4528 R
0 -63 V
0 -4668 R
( 57.9827) Cshow
1.000 UL
LT0
0.50 0.50 0.50 C 1.000 UL
LTa
0.50 0.50 0.50 C 5930 280 M
0 4591 V
stroke
LT0
0.50 0.50 0.50 C 5930 280 M
0 63 V
0 4528 R
0 -63 V
0 -4668 R
( 58.6898) Cshow
1.000 UL
LT0
0.50 0.50 0.50 C 1.000 UL
LTa
0.50 0.50 0.50 C 5990 280 M
0 4591 V
stroke
LT0
0.50 0.50 0.50 C 5990 280 M
0 63 V
0 4528 R
0 -63 V
0 -4668 R
( 59.3969) Cshow
1.000 UL
LT0
0.50 0.50 0.50 C 1.000 UL
LTa
0.50 0.50 0.50 C 6050 280 M
0 4591 V
stroke
LT0
0.50 0.50 0.50 C 6050 280 M
0 63 V
0 4528 R
0 -63 V
0 -4668 R
( 60.104) Cshow
1.000 UL
LT0
0.50 0.50 0.50 C 1.000 UL
LTa
0.50 0.50 0.50 C 6110 280 M
0 4591 V
stroke
LT0
0.50 0.50 0.50 C 6110 280 M
0 63 V
0 4528 R
0 -63 V
0 -4668 R
( 60.8111) Cshow
1.000 UL
LT0
0.50 0.50 0.50 C 1.000 UL
LTa
0.50 0.50 0.50 C 6169 280 M
0 4591 V
stroke
LT0
0.50 0.50 0.50 C 6169 280 M
0 63 V
0 4528 R
0 -63 V
0 -4668 R
( 61.5182) Cshow
1.000 UL
LT0
0.50 0.50 0.50 C 1.000 UL
LTa
0.50 0.50 0.50 C 6229 280 M
0 4591 V
stroke
LT0
0.50 0.50 0.50 C 6229 280 M
0 63 V
0 4528 R
0 -63 V
0 -4668 R
( 62.2253) Cshow
1.000 UL
LT0
0.50 0.50 0.50 C 1.000 UL
LTa
0.50 0.50 0.50 C 6289 280 M
0 4591 V
stroke
LT0
0.50 0.50 0.50 C 6289 280 M
0 63 V
0 4528 R
0 -63 V
0 -4668 R
( 62.9324) Cshow
1.000 UL
LT0
0.50 0.50 0.50 C 1.000 UL
LTa
0.50 0.50 0.50 C 6349 280 M
0 4591 V
stroke
LT0
0.50 0.50 0.50 C 6349 280 M
0 63 V
0 4528 R
0 -63 V
0 -4668 R
( 63.6395) Cshow
1.000 UL
LT0
0.50 0.50 0.50 C 1.000 UL
LTa
0.50 0.50 0.50 C 6409 280 M
0 4591 V
stroke
LT0
0.50 0.50 0.50 C 6409 280 M
0 63 V
0 4528 R
0 -63 V
0 -4668 R
( 64.3466) Cshow
1.000 UL
LT0
0.50 0.50 0.50 C 1.000 UL
LTa
0.50 0.50 0.50 C 6469 280 M
0 4591 V
stroke
LT0
0.50 0.50 0.50 C 6469 280 M
0 63 V
0 4528 R
0 -63 V
0 -4668 R
( 65.0538) Cshow
1.000 UL
LT0
0.50 0.50 0.50 C 1.000 UL
LTa
0.50 0.50 0.50 C 6528 280 M
0 4591 V
stroke
LT0
0.50 0.50 0.50 C 6528 280 M
0 63 V
0 4528 R
0 -63 V
0 -4668 R
( 65.7609) Cshow
1.000 UL
LT0
0.50 0.50 0.50 C 1.000 UL
LTa
0.50 0.50 0.50 C 6588 280 M
0 4591 V
stroke
LT0
0.50 0.50 0.50 C 6588 280 M
0 63 V
0 4528 R
0 -63 V
0 -4668 R
( 66.468) Cshow
1.000 UL
LT0
0.50 0.50 0.50 C 1.000 UL
LTa
0.50 0.50 0.50 C 6648 280 M
0 4591 V
stroke
LT0
0.50 0.50 0.50 C 6648 280 M
0 63 V
0 4528 R
0 -63 V
0 -4668 R
( 67.1751) Cshow
1.000 UL
LT0
0.50 0.50 0.50 C 1.000 UL
LTa
0.50 0.50 0.50 C 6708 280 M
0 4591 V
stroke
LT0
0.50 0.50 0.50 C 6708 280 M
0 63 V
0 4528 R
0 -63 V
0 -4668 R
( 67.8822) Cshow
1.000 UL
LT0
0.50 0.50 0.50 C 1.000 UL
LTa
0.50 0.50 0.50 C 6768 280 M
0 4591 V
stroke
LT0
0.50 0.50 0.50 C 6768 280 M
0 63 V
0 4528 R
0 -63 V
0 -4668 R
( 68.5893) Cshow
1.000 UL
LT0
0.50 0.50 0.50 C 1.000 UL
LTa
0.50 0.50 0.50 C 6827 280 M
0 4591 V
stroke
LT0
0.50 0.50 0.50 C 6827 280 M
0 63 V
0 4528 R
0 -63 V
0 -4668 R
( 69.2964) Cshow
1.000 UL
LT0
0.50 0.50 0.50 C 1.000 UL
LTa
0.50 0.50 0.50 C 6887 280 M
0 4591 V
stroke
LT0
0.50 0.50 0.50 C 6887 280 M
0 63 V
0 4528 R
0 -63 V
0 -4668 R
( 70.0035) Cshow
1.000 UL
LT0
0.50 0.50 0.50 C 1.000 UL
LTa
0.50 0.50 0.50 C 6947 280 M
0 4591 V
stroke
LT0
0.50 0.50 0.50 C 6947 280 M
0 63 V
0 4528 R
0 -63 V
0 -4668 R
( 70.7106) Cshow
1.000 UL
LT0
0.50 0.50 0.50 C 1.000 UL
LT0
0.50 0.50 0.50 C 966 4871 M
966 280 L
5981 0 V
0 4591 R
-5981 0 R
1.000 UP
stroke
LT0
0.50 0.50 0.50 C % Begin plot #1
1.500 UP
2.000 UL
LT0
0.00 0.00 1.00 C /Helvetica findfont 140 scalefont setfont
/vshift -46 def
1026 372 M
60 0 V
59 0 V
0 229 R
60 0 V
0 46 R
60 0 V
0 46 R
60 0 V
0 276 R
60 0 V
59 0 V
60 0 V
0 46 R
60 0 V
0 229 R
60 0 V
0 46 R
60 0 V
60 0 V
0 46 R
59 0 V
0 46 R
60 0 V
0 229 R
60 0 V
0 551 R
60 0 V
60 0 V
59 0 V
60 0 V
0 276 R
60 0 V
60 0 V
60 0 V
59 0 V
60 0 V
60 0 V
60 0 V
0 138 R
60 0 V
0 183 R
59 0 V
60 0 V
60 0 V
0 46 R
60 0 V
60 0 V
60 0 V
59 0 V
60 0 V
60 0 V
60 0 V
60 0 V
59 0 V
60 0 V
60 0 V
60 0 V
0 46 R
60 0 V
0 46 R
59 0 V
0 138 R
60 0 V
60 0 V
0 46 R
60 0 V
60 0 V
60 0 V
0 45 R
59 0 V
60 0 V
60 0 V
60 0 V
0 46 R
60 0 V
0 46 R
59 0 V
0 276 R
60 0 V
60 0 V
60 0 V
60 0 V
59 0 V
0 46 R
60 0 V
0 505 R
60 0 V
0 137 R
60 0 V
60 0 V
0 46 R
59 0 V
60 0 V
60 0 V
60 0 V
60 0 V
60 0 V
59 0 V
0 92 R
60 0 V
60 0 V
60 0 V
60 0 V
59 0 V
stroke 5571 4320 M
0 230 R
60 0 V
0 46 R
60 0 V
0 45 R
60 0 V
60 0 V
59 0 V
60 0 V
60 0 V
0 46 R
60 0 V
60 0 V
59 0 V
60 0 V
60 0 V
60 0 V
60 0 V
60 0 V
59 0 V
60 0 V
0 138 R
60 0 V
60 0 V
60 0 V
966 280 M
60 0 V
6887 4871 M
60 0 V
-179 0 R
59 0 V
60 0 V
1026 280 M
0 46 V
0 46 V
119 0 R
0 46 V
0 46 V
0 46 V
0 45 V
0 46 V
60 0 R
0 46 V
60 0 R
0 46 V
60 0 R
0 46 V
0 46 V
0 46 V
0 46 V
0 46 V
0 46 V
179 0 R
0 46 V
60 0 R
0 45 V
0 46 V
0 46 V
0 46 V
0 46 V
60 0 R
0 46 V
120 0 R
0 46 V
59 0 R
0 46 V
60 0 R
0 46 V
0 46 V
0 46 V
0 45 V
0 46 V
60 0 R
0 46 V
0 46 V
0 46 V
0 46 V
0 46 V
0 46 V
0 46 V
0 46 V
0 46 V
0 45 V
0 46 V
0 46 V
239 0 R
0 46 V
0 46 V
0 46 V
0 46 V
0 46 V
0 46 V
419 0 R
0 46 V
0 46 V
0 46 V
60 0 R
0 45 V
0 46 V
0 46 V
0 46 V
179 0 R
0 46 V
718 0 R
0 46 V
stroke 3538 2851 M
60 0 R
0 46 V
59 0 R
0 46 V
0 46 V
0 46 V
120 0 R
0 46 V
180 0 R
0 45 V
239 0 R
0 46 V
60 0 R
0 46 V
59 0 R
0 46 V
0 46 V
0 46 V
0 46 V
0 46 V
0 46 V
299 0 R
0 46 V
60 0 R
0 46 V
0 45 V
0 46 V
0 46 V
0 46 V
0 46 V
0 46 V
0 46 V
0 46 V
0 46 V
0 46 V
60 0 R
0 46 V
0 45 V
0 46 V
120 0 R
0 46 V
418 0 R
0 46 V
0 46 V
299 0 R
0 46 V
0 46 V
0 46 V
0 46 V
0 46 V
60 0 R
0 46 V
60 0 R
0 45 V
299 0 R
0 46 V
598 0 R
0 46 V
0 46 V
0 46 V
180 0 R
0 46 V
1026 372 CircleF
1086 372 CircleF
1086 372 CircleF
1145 372 CircleF
1145 601 CircleF
1205 601 CircleF
1205 647 CircleF
1265 647 CircleF
1265 693 CircleF
1325 693 CircleF
1325 969 CircleF
1385 969 CircleF
1385 969 CircleF
1444 969 CircleF
1444 969 CircleF
1504 969 CircleF
1504 1015 CircleF
1564 1015 CircleF
1564 1244 CircleF
1624 1244 CircleF
1624 1290 CircleF
1684 1290 CircleF
1684 1290 CircleF
1744 1290 CircleF
1744 1336 CircleF
1803 1336 CircleF
1803 1382 CircleF
1863 1382 CircleF
1863 1611 CircleF
1923 1611 CircleF
1923 2162 CircleF
1983 2162 CircleF
1983 2162 CircleF
2043 2162 CircleF
2043 2162 CircleF
2102 2162 CircleF
2102 2162 CircleF
2162 2162 CircleF
2162 2438 CircleF
2222 2438 CircleF
2222 2438 CircleF
2282 2438 CircleF
2282 2438 CircleF
2342 2438 CircleF
2342 2438 CircleF
2401 2438 CircleF
2401 2438 CircleF
2461 2438 CircleF
2461 2438 CircleF
2521 2438 CircleF
2521 2438 CircleF
2581 2438 CircleF
2581 2576 CircleF
2641 2576 CircleF
2641 2759 CircleF
2700 2759 CircleF
2700 2759 CircleF
2760 2759 CircleF
2760 2759 CircleF
2820 2759 CircleF
2820 2805 CircleF
2880 2805 CircleF
2880 2805 CircleF
2940 2805 CircleF
2940 2805 CircleF
3000 2805 CircleF
3000 2805 CircleF
3059 2805 CircleF
3059 2805 CircleF
3119 2805 CircleF
3119 2805 CircleF
3179 2805 CircleF
3179 2805 CircleF
3239 2805 CircleF
3239 2805 CircleF
3299 2805 CircleF
3299 2805 CircleF
3358 2805 CircleF
3358 2805 CircleF
3418 2805 CircleF
3418 2805 CircleF
3478 2805 CircleF
3478 2805 CircleF
3538 2805 CircleF
3538 2851 CircleF
3598 2851 CircleF
3598 2897 CircleF
3657 2897 CircleF
3657 3035 CircleF
3717 3035 CircleF
3717 3035 CircleF
3777 3035 CircleF
3777 3081 CircleF
3837 3081 CircleF
3837 3081 CircleF
3897 3081 CircleF
3897 3081 CircleF
3957 3081 CircleF
3957 3126 CircleF
4016 3126 CircleF
4016 3126 CircleF
4076 3126 CircleF
4076 3126 CircleF
4136 3126 CircleF
4136 3126 CircleF
4196 3126 CircleF
4196 3172 CircleF
4256 3172 CircleF
4256 3218 CircleF
4315 3218 CircleF
4315 3494 CircleF
4375 3494 CircleF
4375 3494 CircleF
4435 3494 CircleF
4435 3494 CircleF
4495 3494 CircleF
4495 3494 CircleF
4555 3494 CircleF
4555 3494 CircleF
4614 3494 CircleF
4614 3540 CircleF
4674 3540 CircleF
4674 4045 CircleF
4734 4045 CircleF
4734 4182 CircleF
4794 4182 CircleF
4794 4182 CircleF
4854 4182 CircleF
4854 4228 CircleF
4913 4228 CircleF
4913 4228 CircleF
4973 4228 CircleF
4973 4228 CircleF
5033 4228 CircleF
5033 4228 CircleF
5093 4228 CircleF
5093 4228 CircleF
5153 4228 CircleF
5153 4228 CircleF
5213 4228 CircleF
5213 4228 CircleF
5272 4228 CircleF
5272 4320 CircleF
5332 4320 CircleF
5332 4320 CircleF
5392 4320 CircleF
5392 4320 CircleF
5452 4320 CircleF
5452 4320 CircleF
5512 4320 CircleF
5512 4320 CircleF
5571 4320 CircleF
5571 4550 CircleF
5631 4550 CircleF
5631 4596 CircleF
5691 4596 CircleF
5691 4641 CircleF
5751 4641 CircleF
5751 4641 CircleF
5811 4641 CircleF
5811 4641 CircleF
5870 4641 CircleF
5870 4641 CircleF
5930 4641 CircleF
5930 4641 CircleF
5990 4641 CircleF
5990 4687 CircleF
6050 4687 CircleF
6050 4687 CircleF
6110 4687 CircleF
6110 4687 CircleF
6169 4687 CircleF
6169 4687 CircleF
6229 4687 CircleF
6229 4687 CircleF
6289 4687 CircleF
6289 4687 CircleF
6349 4687 CircleF
6349 4687 CircleF
6409 4687 CircleF
6409 4687 CircleF
6469 4687 CircleF
6469 4687 CircleF
6528 4687 CircleF
6528 4687 CircleF
6588 4687 CircleF
6588 4825 CircleF
6648 4825 CircleF
6648 4825 CircleF
6708 4825 CircleF
6708 4825 CircleF
6768 4825 CircleF
966 280 CircleF
1026 280 CircleF
6887 4871 CircleF
6947 4871 CircleF
6768 4871 CircleF
6827 4871 CircleF
6827 4871 CircleF
6887 4871 CircleF
1026 280 CircleF
1026 326 CircleF
1026 326 CircleF
1026 372 CircleF
1145 372 CircleF
1145 418 CircleF
1145 418 CircleF
1145 464 CircleF
1145 464 CircleF
1145 510 CircleF
1145 510 CircleF
1145 555 CircleF
1145 555 CircleF
1145 601 CircleF
1205 601 CircleF
1205 647 CircleF
1265 647 CircleF
1265 693 CircleF
1325 693 CircleF
1325 739 CircleF
1325 739 CircleF
1325 785 CircleF
1325 785 CircleF
1325 831 CircleF
1325 831 CircleF
1325 877 CircleF
1325 877 CircleF
1325 923 CircleF
1325 923 CircleF
1325 969 CircleF
1504 969 CircleF
1504 1015 CircleF
1564 1015 CircleF
1564 1060 CircleF
1564 1060 CircleF
1564 1106 CircleF
1564 1106 CircleF
1564 1152 CircleF
1564 1152 CircleF
1564 1198 CircleF
1564 1198 CircleF
1564 1244 CircleF
1624 1244 CircleF
1624 1290 CircleF
1744 1290 CircleF
1744 1336 CircleF
1803 1336 CircleF
1803 1382 CircleF
1863 1382 CircleF
1863 1428 CircleF
1863 1428 CircleF
1863 1474 CircleF
1863 1474 CircleF
1863 1520 CircleF
1863 1520 CircleF
1863 1565 CircleF
1863 1565 CircleF
1863 1611 CircleF
1923 1611 CircleF
1923 1657 CircleF
1923 1657 CircleF
1923 1703 CircleF
1923 1703 CircleF
1923 1749 CircleF
1923 1749 CircleF
1923 1795 CircleF
1923 1795 CircleF
1923 1841 CircleF
1923 1841 CircleF
1923 1887 CircleF
1923 1887 CircleF
1923 1933 CircleF
1923 1933 CircleF
1923 1979 CircleF
1923 1979 CircleF
1923 2025 CircleF
1923 2025 CircleF
1923 2070 CircleF
1923 2070 CircleF
1923 2116 CircleF
1923 2116 CircleF
1923 2162 CircleF
2162 2162 CircleF
2162 2208 CircleF
2162 2208 CircleF
2162 2254 CircleF
2162 2254 CircleF
2162 2300 CircleF
2162 2300 CircleF
2162 2346 CircleF
2162 2346 CircleF
2162 2392 CircleF
2162 2392 CircleF
2162 2438 CircleF
2581 2438 CircleF
2581 2484 CircleF
2581 2484 CircleF
2581 2530 CircleF
2581 2530 CircleF
2581 2576 CircleF
2641 2576 CircleF
2641 2621 CircleF
2641 2621 CircleF
2641 2667 CircleF
2641 2667 CircleF
2641 2713 CircleF
2641 2713 CircleF
2641 2759 CircleF
2820 2759 CircleF
2820 2805 CircleF
3538 2805 CircleF
3538 2851 CircleF
3598 2851 CircleF
3598 2897 CircleF
3657 2897 CircleF
3657 2943 CircleF
3657 2943 CircleF
3657 2989 CircleF
3657 2989 CircleF
3657 3035 CircleF
3777 3035 CircleF
3777 3081 CircleF
3957 3081 CircleF
3957 3126 CircleF
4196 3126 CircleF
4196 3172 CircleF
4256 3172 CircleF
4256 3218 CircleF
4315 3218 CircleF
4315 3264 CircleF
4315 3264 CircleF
4315 3310 CircleF
4315 3310 CircleF
4315 3356 CircleF
4315 3356 CircleF
4315 3402 CircleF
4315 3402 CircleF
4315 3448 CircleF
4315 3448 CircleF
4315 3494 CircleF
4614 3494 CircleF
4614 3540 CircleF
4674 3540 CircleF
4674 3586 CircleF
4674 3586 CircleF
4674 3631 CircleF
4674 3631 CircleF
4674 3677 CircleF
4674 3677 CircleF
4674 3723 CircleF
4674 3723 CircleF
4674 3769 CircleF
4674 3769 CircleF
4674 3815 CircleF
4674 3815 CircleF
4674 3861 CircleF
4674 3861 CircleF
4674 3907 CircleF
4674 3907 CircleF
4674 3953 CircleF
4674 3953 CircleF
4674 3999 CircleF
4674 3999 CircleF
4674 4045 CircleF
4734 4045 CircleF
4734 4091 CircleF
4734 4091 CircleF
4734 4136 CircleF
4734 4136 CircleF
4734 4182 CircleF
4854 4182 CircleF
4854 4228 CircleF
5272 4228 CircleF
5272 4274 CircleF
5272 4274 CircleF
5272 4320 CircleF
5571 4320 CircleF
5571 4366 CircleF
5571 4366 CircleF
5571 4412 CircleF
5571 4412 CircleF
5571 4458 CircleF
5571 4458 CircleF
5571 4504 CircleF
5571 4504 CircleF
5571 4550 CircleF
5631 4550 CircleF
5631 4596 CircleF
5691 4596 CircleF
5691 4641 CircleF
5990 4641 CircleF
5990 4687 CircleF
6588 4687 CircleF
6588 4733 CircleF
6588 4733 CircleF
6588 4779 CircleF
6588 4779 CircleF
6588 4825 CircleF
6768 4825 CircleF
6768 4871 CircleF
% End plot #1
% Begin plot #2
1.500 UP
2.000 UL
LT0
1.00 0.55 0.00 C /Helvetica findfont 140 scalefont setfont
2264 4249 M
111 85 V
3411 3841 M
69 54 V
589 465 R
116 89 V
4891 2107 M
61 47 V
6720 3767 M
105 81 V
1261 4591 M
61 47 V
4240 1037 M
103 79 V
931 1453 R
113 87 V
3834 1304 M
93 71 V
3844 815 M
109 84 V
6691 2928 M
100 77 V
-966 63 R
91 70 V
6466 1060 M
78 60 V
4299 3279 M
68 52 V
2743 1310 M
78 60 V
1336 517 M
85 66 V
4478 2753 M
76 58 V
2568 905 M
79 60 V
1874 449 M
112 86 V
1583 4025 M
105 81 V
3928 3069 M
74 57 V
-434 114 R
75 58 V
1802 2379 M
72 54 V
3294 692 M
90 69 V
4653 3983 M
80 61 V
3520 4354 M
69 53 V
5639 1861 M
100 77 V
2595 820 M
115 89 V
6066 4257 M
84 65 V
2515 2456 M
87 67 V
3964 530 M
67 51 V
1339 2064 M
113 86 V
3527 1304 M
116 90 V
170 2541 R
60 46 V
2298 850 M
103 79 V
3563 2848 M
104 80 V
-734 126 R
104 79 V
1917 1713 M
115 88 V
3127 94 R
73 56 V
716 1321 R
105 81 V
5449 1394 M
64 49 V
4271 3200 M
113 87 V
3543 1776 M
111 85 V
6148 1568 M
62 47 V
4336 3796 M
86 67 V
3208 305 M
100 77 V
1898 1856 M
108 82 V
1523 3179 M
71 54 V
6762 753 M
79 61 V
4126 2282 M
107 82 V
1476 4382 M
60 47 V
1218 3471 M
63 48 V
3905 4704 M
61 47 V
stroke 3966 4751 M
4136 1130 M
73 56 V
3579 4683 M
114 87 V
6017 1908 M
63 48 V
1628 1601 M
69 53 V
6126 540 M
89 68 V
5573 3306 M
60 46 V
4410 460 M
117 90 V
1167 2006 M
73 56 V
6039 4510 M
89 69 V
4450 600 M
64 50 V
3346 490 M
104 80 V
5439 4078 M
80 61 V
2108 4052 M
111 84 V
3586 3560 M
116 89 V
2679 1270 M
119 91 V
1456 546 R
68 52 V
1528 4265 M
78 60 V
4374 319 R
93 71 V
-2225 46 R
96 74 V
2604 950 M
75 58 V
1000 3985 M
85 66 V
6678 693 M
78 60 V
1339 1231 M
75 58 V
4702 327 R
92 70 V
5157 4298 M
72 55 V
1270 2603 M
82 63 V
5310 1717 M
92 70 V
5032 3186 M
75 58 V
3507 595 M
65 49 V
2324 523 M
64 49 V
5550 2345 M
87 67 V
4561 4568 M
102 78 V
6671 3321 M
61 47 V
3576 4008 M
102 79 V
5089 2352 M
93 71 V
325 1960 R
95 73 V
5510 1467 M
105 80 V
3034 2978 M
118 91 V
5534 2290 M
109 84 V
3610 3257 M
83 63 V
4900 1668 M
106 81 V
2409 3510 M
91 70 V
5933 4762 M
98 76 V
6392 928 M
106 82 V
1818 1145 M
97 74 V
1707 96 R
80 61 V
4486 919 M
94 72 V
6797 3550 M
90 68 V
5144 3495 M
70 54 V
2373 3515 M
70 54 V
3837 1383 M
109 84 V
2679 4645 M
79 60 V
stroke 2758 4705 M
2512 2408 M
89 68 V
2505 268 R
80 61 V
2516 585 M
97 74 V
2829 518 M
116 88 V
6451 2782 M
111 85 V
-998 170 R
87 66 V
6800 348 M
98 75 V
2352 972 M
63 49 V
4540 2900 M
65 50 V
3423 1274 M
104 79 V
1094 2171 M
60 46 V
1276 885 M
84 64 V
5272 4660 M
118 90 V
1481 2068 M
72 55 V
3714 836 M
100 77 V
2981 2245 M
75 58 V
6475 3924 M
91 70 V
3868 4388 M
103 79 V
2714 2133 M
84 64 V
1362 2996 M
60 46 V
1927 2039 M
83 64 V
3972 375 M
84 64 V
2038 2815 M
105 81 V
-37 -761 R
76 59 V
3204 1272 M
61 47 V
1335 366 R
98 75 V
-212 702 R
76 57 V
1122 571 M
109 84 V
970 431 R
109 84 V
1724 834 M
112 86 V
-562 957 R
88 68 V
5545 905 M
76 58 V
172 738 R
98 75 V
805 1086 R
104 80 V
3634 4657 M
68 52 V
2698 4100 M
70 54 V
-883 -89 R
91 69 V
5435 3787 M
112 85 V
3933 1303 M
102 78 V
1859 2078 M
95 74 V
5618 688 M
102 78 V
4634 3688 M
86 66 V
-902 876 R
112 85 V
6802 3999 M
90 69 V
-381 597 R
74 57 V
6111 1963 M
82 62 V
2421 3393 M
100 77 V
4314 2144 M
83 63 V
5516 4303 M
100 77 V
6781 3570 M
84 65 V
4649 3555 M
86 66 V
3113 4615 M
92 70 V
stroke 3205 4685 M
3929 1839 M
115 88 V
2203 4335 M
97 75 V
6333 2520 M
84 64 V
2783 3204 M
118 90 V
6323 1954 M
105 81 V
99 2658 R
105 81 V
1109 3126 M
74 58 V
6373 1443 M
77 60 V
5806 1286 M
103 79 V
3055 4752 M
77 58 V
1884 2068 M
88 67 V
3309 370 M
102 78 V
831 2977 R
119 91 V
252 -4 R
71 54 V
4963 1197 M
116 89 V
2537 1799 M
117 89 V
1767 769 R
70 54 V
-680 652 R
116 89 V
3326 874 M
74 57 V
2052 2113 M
65 50 V
3911 937 R
97 74 V
115 550 R
94 72 V
5250 792 M
113 87 V
-120 99 R
64 50 V
4574 324 M
91 70 V
6616 2477 M
74 56 V
5538 3657 M
95 74 V
3426 2793 M
77 59 V
2763 2715 M
90 70 V
3896 1704 M
82 64 V
578 -767 R
84 64 V
-803 126 R
60 46 V
2420 31 R
76 59 V
3754 3800 M
89 68 V
4046 2277 M
106 82 V
2123 2192 M
80 62 V
4080 4157 M
74 57 V
19 -2022 R
103 79 V
6821 4346 M
103 79 V
2523 3719 M
87 68 V
1048 4354 M
86 66 V
3536 2013 M
66 50 V
996 2223 R
79 61 V
2838 1357 M
67 51 V
5548 4326 M
73 55 V
3049 4343 M
87 66 V
2337 477 M
73 57 V
350 3867 R
106 81 V
6353 3319 M
112 85 V
3574 3273 M
61 47 V
3049 3157 M
85 65 V
2634 4597 M
97 74 V
stroke 2731 4671 M
5862 2245 M
68 52 V
3405 831 M
89 68 V
2401 3488 M
113 87 V
6323 734 M
75 58 V
5518 2835 M
71 54 V
-1960 86 R
82 63 V
6364 2546 M
90 69 V
5064 285 M
89 68 V
1342 2794 M
91 70 V
4278 313 R
113 87 V
478 207 R
92 71 V
1746 2199 M
101 78 V
2593 462 R
69 53 V
0 1917 R
117 90 V
3254 747 M
107 82 V
291 2778 R
73 57 V
2151 338 M
98 76 V
4498 4361 M
86 66 V
6164 3401 M
80 61 V
-313 423 R
74 57 V
1268 705 M
60 46 V
148 3743 R
97 75 V
-80 -134 R
94 72 V
5051 1854 M
84 65 V
2765 4054 M
109 84 V
4441 1601 M
99 77 V
-43 -678 R
116 89 V
4217 3151 M
83 64 V
3301 2805 M
88 68 V
6369 1415 M
60 46 V
4343 1327 M
104 81 V
2809 3215 M
72 55 V
1867 3160 M
93 71 V
3332 192 R
100 77 V
6533 4766 M
65 50 V
3078 1589 M
74 57 V
5458 3052 M
77 59 V
3264 2904 M
93 71 V
6319 363 M
114 88 V
3253 406 M
107 82 V
5588 4529 M
62 48 V
1829 1376 M
84 65 V
5178 4444 M
72 55 V
4808 990 M
79 61 V
1888 4675 M
70 54 V
4634 3999 M
100 77 V
1034 4000 M
111 86 V
6213 751 M
116 89 V
1171 4456 M
95 72 V
6226 1184 M
71 54 V
2455 2541 M
108 82 V
6303 458 M
109 84 V
stroke 6412 542 M
6282 3492 M
111 85 V
2274 2127 M
111 85 V
6032 1796 M
84 64 V
2437 4115 M
113 86 V
1167 3339 M
99 76 V
1992 45 R
83 64 V
6674 1583 M
81 62 V
6043 3917 M
64 50 V
1184 3654 M
116 89 V
3658 2502 M
108 83 V
2742 4005 M
70 53 V
1718 2464 M
66 51 V
-726 -1 R
117 90 V
4087 423 M
108 83 V
5708 389 M
80 60 V
2976 2357 M
89 68 V
2240 624 R
83 63 V
5857 1286 M
70 54 V
187 2068 R
64 50 V
1133 386 M
118 91 V
6011 4526 M
106 82 V
1960 415 M
113 88 V
2008 289 M
103 79 V
6612 472 M
97 75 V
3047 1568 M
96 74 V
4618 3961 M
65 50 V
5584 286 M
77 59 V
2714 3338 M
113 86 V
442 -767 R
82 63 V
3224 1863 M
90 69 V
3278 646 M
96 74 V
4776 4147 M
112 87 V
524 -299 R
81 62 V
5826 2399 M
89 69 V
5802 496 M
95 74 V
6818 317 M
108 83 V
2426 2437 M
69 54 V
3048 1084 M
106 81 V
5629 2321 M
65 50 V
455 213 R
81 62 V
1333 3694 M
86 66 V
4832 1180 M
118 91 V
2409 416 M
93 71 V
6256 3219 M
60 46 V
2606 3814 M
76 59 V
1076 3013 M
103 79 V
3078 1957 M
107 82 V
1778 1474 M
90 69 V
3177 289 R
88 67 V
4857 676 M
105 80 V
1048 2972 M
98 75 V
4478 1451 M
92 70 V
stroke 4570 1521 M
1030 692 M
103 79 V
6359 2600 M
70 55 V
3553 3105 M
83 64 V
645 914 R
113 87 V
4756 2366 M
109 84 V
3865 1582 M
97 75 V
3521 4707 M
89 68 V
5709 4581 M
97 74 V
6487 2971 M
69 53 V
4329 1757 M
98 76 V
5749 605 M
94 72 V
1443 2261 M
82 63 V
4869 3524 M
116 89 V
272 1007 R
62 47 V
3972 3714 M
94 72 V
3933 2547 M
72 56 V
4335 1191 M
64 49 V
2560 4531 M
116 90 V
6688 4023 M
112 86 V
6294 1017 M
90 69 V
5365 3683 M
111 85 V
3506 2078 M
77 59 V
2836 3516 M
96 74 V
2282 608 R
105 81 V
4625 1631 M
73 56 V
4098 2895 M
106 81 V
-239 796 R
78 60 V
2441 2420 M
87 66 V
5332 1052 M
103 78 V
2800 3593 M
74 57 V
3691 391 R
70 53 V
6679 309 M
97 75 V
2511 3941 M
86 66 V
563 535 R
69 53 V
1512 1184 M
77 60 V
2759 1027 M
72 55 V
1678 1719 M
114 88 V
2320 953 R
98 76 V
2712 3258 M
115 88 V
686 690 R
118 91 V
6635 956 M
101 77 V
3877 4698 M
64 49 V
5540 3421 M
95 73 V
3969 2955 M
105 80 V
6716 2116 M
64 49 V
3393 1443 M
64 50 V
733 2611 R
100 77 V
5133 976 M
106 82 V
2531 931 M
73 56 V
1745 3592 M
90 69 V
170 1109 R
84 65 V
5096 518 M
82 63 V
stroke 5178 581 M
4226 2343 M
66 51 V
2801 3381 M
70 54 V
-200 70 R
86 66 V
3542 658 R
90 70 V
2013 682 M
73 56 V
4019 2284 M
91 70 V
1051 2113 M
83 63 V
3524 1594 M
77 59 V
2021 1632 M
116 89 V
1127 4369 M
66 50 V
1536 1027 M
68 52 V
3716 2471 M
67 51 V
3094 728 M
79 60 V
1467 1972 M
64 49 V
1105 3276 M
106 81 V
1950 2106 M
116 89 V
1664 4508 M
86 66 V
2889 974 M
109 83 V
2856 619 R
99 76 V
2043 2427 M
103 79 V
1483 1643 M
111 86 V
3419 3781 M
82 64 V
2581 1560 M
104 79 V
983 4443 M
115 88 V
4520 148 R
103 80 V
3146 3300 M
111 85 V
-317 647 R
68 52 V
6110 3194 M
89 69 V
5012 2552 M
92 70 V
2890 4296 M
98 75 V
1883 277 R
94 72 V
3855 1461 M
94 72 V
5669 4611 M
76 58 V
-207 -89 R
103 78 V
3552 4509 M
107 82 V
6607 850 M
76 58 V
6040 1929 M
70 54 V
4356 2492 M
114 88 V
1190 2905 M
118 91 V
4572 263 R
103 80 V
1326 2800 M
103 79 V
1622 706 R
80 61 V
2791 337 R
65 50 V
3752 1198 M
103 79 V
-745 417 R
67 52 V
3023 3236 M
96 73 V
1516 767 M
85 66 V
4743 4150 M
100 77 V
4127 1491 M
62 47 V
3484 2799 M
63 49 V
-292 921 R
112 86 V
3366 329 M
106 81 V
stroke 3472 410 M
2112 610 M
77 59 V
6419 2662 M
62 47 V
260 1404 R
76 58 V
3194 2798 M
85 64 V
2628 722 M
104 80 V
3808 510 M
114 89 V
2694 799 R
62 46 V
-1332 62 R
85 65 V
232 -435 R
68 52 V
1456 285 M
96 74 V
3836 1650 M
91 69 V
4219 545 M
109 83 V
2405 4322 M
98 76 V
6801 1181 M
115 88 V
3862 1886 M
72 55 V
3564 1218 M
87 67 V
4744 2658 M
101 78 V
4719 1539 M
109 83 V
2434 908 M
114 87 V
906 2480 R
95 74 V
2754 3249 M
115 88 V
4595 1073 M
98 75 V
4370 3857 M
89 68 V
2861 4273 M
79 61 V
1672 657 M
96 74 V
143 3351 R
74 56 V
2202 2424 M
106 81 V
5289 4732 M
102 79 V
2357 2964 M
62 47 V
1269 1261 M
93 71 V
5118 3559 M
105 80 V
5882 821 M
94 72 V
1800 4265 M
99 77 V
2264 4249 CircleF
2375 4334 CircleF
3411 3841 CircleF
3480 3895 CircleF
4069 4360 CircleF
4185 4449 CircleF
4891 2107 CircleF
4952 2154 CircleF
6720 3767 CircleF
6825 3848 CircleF
1261 4591 CircleF
1322 4638 CircleF
4240 1037 CircleF
4343 1116 CircleF
5274 2569 CircleF
5387 2656 CircleF
3834 1304 CircleF
3927 1375 CircleF
3844 815 CircleF
3953 899 CircleF
6691 2928 CircleF
6791 3005 CircleF
5825 3068 CircleF
5916 3138 CircleF
6466 1060 CircleF
6544 1120 CircleF
4299 3279 CircleF
4367 3331 CircleF
2743 1310 CircleF
2821 1370 CircleF
1336 517 CircleF
1421 583 CircleF
4478 2753 CircleF
4554 2811 CircleF
2568 905 CircleF
2647 965 CircleF
1874 449 CircleF
1986 535 CircleF
1583 4025 CircleF
1688 4106 CircleF
3928 3069 CircleF
4002 3126 CircleF
3568 3240 CircleF
3643 3298 CircleF
1802 2379 CircleF
1874 2433 CircleF
3294 692 CircleF
3384 761 CircleF
4653 3983 CircleF
4733 4044 CircleF
3520 4354 CircleF
3589 4407 CircleF
5639 1861 CircleF
5739 1938 CircleF
2595 820 CircleF
2710 909 CircleF
6066 4257 CircleF
6150 4322 CircleF
2515 2456 CircleF
2602 2523 CircleF
3964 530 CircleF
4031 581 CircleF
1339 2064 CircleF
1452 2150 CircleF
3527 1304 CircleF
3643 1394 CircleF
3813 3935 CircleF
3873 3981 CircleF
2298 850 CircleF
2401 929 CircleF
3563 2848 CircleF
3667 2928 CircleF
2933 3054 CircleF
3037 3133 CircleF
1917 1713 CircleF
2032 1801 CircleF
5159 1895 CircleF
5232 1951 CircleF
5948 3272 CircleF
6053 3353 CircleF
5449 1394 CircleF
5513 1443 CircleF
4271 3200 CircleF
4384 3287 CircleF
3543 1776 CircleF
3654 1861 CircleF
6148 1568 CircleF
6210 1615 CircleF
4336 3796 CircleF
4422 3863 CircleF
3208 305 CircleF
3308 382 CircleF
1898 1856 CircleF
2006 1938 CircleF
1523 3179 CircleF
1594 3233 CircleF
6762 753 CircleF
6841 814 CircleF
4126 2282 CircleF
4233 2364 CircleF
1476 4382 CircleF
1536 4429 CircleF
1218 3471 CircleF
1281 3519 CircleF
3905 4704 CircleF
3966 4751 CircleF
4136 1130 CircleF
4209 1186 CircleF
3579 4683 CircleF
3693 4770 CircleF
6017 1908 CircleF
6080 1956 CircleF
1628 1601 CircleF
1697 1654 CircleF
6126 540 CircleF
6215 608 CircleF
5573 3306 CircleF
5633 3352 CircleF
4410 460 CircleF
4527 550 CircleF
1167 2006 CircleF
1240 2062 CircleF
6039 4510 CircleF
6128 4579 CircleF
4450 600 CircleF
4514 650 CircleF
3346 490 CircleF
3450 570 CircleF
5439 4078 CircleF
5519 4139 CircleF
2108 4052 CircleF
2219 4136 CircleF
3586 3560 CircleF
3702 3649 CircleF
2679 1270 CircleF
2798 1361 CircleF
4254 1907 CircleF
4322 1959 CircleF
1528 4265 CircleF
1606 4325 CircleF
5980 4644 CircleF
6073 4715 CircleF
3848 4761 CircleF
3944 4835 CircleF
2604 950 CircleF
2679 1008 CircleF
1000 3985 CircleF
1085 4051 CircleF
6678 693 CircleF
6756 753 CircleF
1339 1231 CircleF
1414 1289 CircleF
6116 1616 CircleF
6208 1686 CircleF
5157 4298 CircleF
5229 4353 CircleF
1270 2603 CircleF
1352 2666 CircleF
5310 1717 CircleF
5402 1787 CircleF
5032 3186 CircleF
5107 3244 CircleF
3507 595 CircleF
3572 644 CircleF
2324 523 CircleF
2388 572 CircleF
5550 2345 CircleF
5637 2412 CircleF
4561 4568 CircleF
4663 4646 CircleF
6671 3321 CircleF
6732 3368 CircleF
3576 4008 CircleF
3678 4087 CircleF
5089 2352 CircleF
5182 2423 CircleF
5507 4383 CircleF
5602 4456 CircleF
5510 1467 CircleF
5615 1547 CircleF
3034 2978 CircleF
3152 3069 CircleF
5534 2290 CircleF
5643 2374 CircleF
3610 3257 CircleF
3693 3320 CircleF
4900 1668 CircleF
5006 1749 CircleF
2409 3510 CircleF
2500 3580 CircleF
5933 4762 CircleF
6031 4838 CircleF
6392 928 CircleF
6498 1010 CircleF
1818 1145 CircleF
1915 1219 CircleF
3622 1315 CircleF
3702 1376 CircleF
4486 919 CircleF
4580 991 CircleF
6797 3550 CircleF
6887 3618 CircleF
5144 3495 CircleF
5214 3549 CircleF
2373 3515 CircleF
2443 3569 CircleF
3837 1383 CircleF
3946 1467 CircleF
2679 4645 CircleF
2758 4705 CircleF
2512 2408 CircleF
2601 2476 CircleF
5106 2744 CircleF
5186 2805 CircleF
2516 585 CircleF
2613 659 CircleF
2829 518 CircleF
2945 606 CircleF
6451 2782 CircleF
6562 2867 CircleF
5564 3037 CircleF
5651 3103 CircleF
6800 348 CircleF
6898 423 CircleF
2352 972 CircleF
2415 1021 CircleF
4540 2900 CircleF
4605 2950 CircleF
3423 1274 CircleF
3527 1353 CircleF
1094 2171 CircleF
1154 2217 CircleF
1276 885 CircleF
1360 949 CircleF
5272 4660 CircleF
5390 4750 CircleF
1481 2068 CircleF
1553 2123 CircleF
3714 836 CircleF
3814 913 CircleF
2981 2245 CircleF
3056 2303 CircleF
6475 3924 CircleF
6566 3994 CircleF
3868 4388 CircleF
3971 4467 CircleF
2714 2133 CircleF
2798 2197 CircleF
1362 2996 CircleF
1422 3042 CircleF
1927 2039 CircleF
2010 2103 CircleF
3972 375 CircleF
4056 439 CircleF
2038 2815 CircleF
2143 2896 CircleF
2106 2135 CircleF
2182 2194 CircleF
3204 1272 CircleF
3265 1319 CircleF
4600 1685 CircleF
4698 1760 CircleF
4486 2462 CircleF
4562 2519 CircleF
1122 571 CircleF
1231 655 CircleF
2201 1086 CircleF
2310 1170 CircleF
1724 834 CircleF
1836 920 CircleF
1274 1877 CircleF
1362 1945 CircleF
5545 905 CircleF
5621 963 CircleF
5793 1701 CircleF
5891 1776 CircleF
6696 2862 CircleF
6800 2942 CircleF
3634 4657 CircleF
3702 4709 CircleF
2698 4100 CircleF
2768 4154 CircleF
1885 4065 CircleF
1976 4134 CircleF
5435 3787 CircleF
5547 3872 CircleF
3933 1303 CircleF
4035 1381 CircleF
1859 2078 CircleF
1954 2152 CircleF
5618 688 CircleF
5720 766 CircleF
4634 3688 CircleF
4720 3754 CircleF
3818 4630 CircleF
3930 4715 CircleF
6802 3999 CircleF
6892 4068 CircleF
6511 4665 CircleF
6585 4722 CircleF
6111 1963 CircleF
6193 2025 CircleF
2421 3393 CircleF
2521 3470 CircleF
4314 2144 CircleF
4397 2207 CircleF
5516 4303 CircleF
5616 4380 CircleF
6781 3570 CircleF
6865 3635 CircleF
4649 3555 CircleF
4735 3621 CircleF
3113 4615 CircleF
3205 4685 CircleF
3929 1839 CircleF
4044 1927 CircleF
2203 4335 CircleF
2300 4410 CircleF
6333 2520 CircleF
6417 2584 CircleF
2783 3204 CircleF
2901 3294 CircleF
6323 1954 CircleF
6428 2035 CircleF
6527 4693 CircleF
6632 4774 CircleF
1109 3126 CircleF
1183 3184 CircleF
6373 1443 CircleF
6450 1503 CircleF
5806 1286 CircleF
5909 1365 CircleF
3055 4752 CircleF
3132 4810 CircleF
1884 2068 CircleF
1972 2135 CircleF
3309 370 CircleF
3411 448 CircleF
4242 3425 CircleF
4361 3516 CircleF
4613 3512 CircleF
4684 3566 CircleF
4963 1197 CircleF
5079 1286 CircleF
2537 1799 CircleF
2654 1888 CircleF
4421 2657 CircleF
4491 2711 CircleF
3811 3363 CircleF
3927 3452 CircleF
3326 874 CircleF
3400 931 CircleF
2052 2113 CircleF
2117 2163 CircleF
6028 3100 CircleF
6125 3174 CircleF
6240 3724 CircleF
6334 3796 CircleF
5250 792 CircleF
5363 879 CircleF
5243 978 CircleF
5307 1028 CircleF
4574 324 CircleF
4665 394 CircleF
6616 2477 CircleF
6690 2533 CircleF
5538 3657 CircleF
5633 3731 CircleF
3426 2793 CircleF
3503 2852 CircleF
2763 2715 CircleF
2853 2785 CircleF
3896 1704 CircleF
3978 1768 CircleF
4556 1001 CircleF
4640 1065 CircleF
3837 1191 CircleF
3897 1237 CircleF
6317 1268 CircleF
6393 1327 CircleF
3754 3800 CircleF
3843 3868 CircleF
4046 2277 CircleF
4152 2359 CircleF
2123 2192 CircleF
2203 2254 CircleF
4080 4157 CircleF
4154 4214 CircleF
4173 2192 CircleF
4276 2271 CircleF
6821 4346 CircleF
6924 4425 CircleF
2523 3719 CircleF
2610 3787 CircleF
1048 4354 CircleF
1134 4420 CircleF
3536 2013 CircleF
3602 2063 CircleF
4598 4286 CircleF
4677 4347 CircleF
2838 1357 CircleF
2905 1408 CircleF
5548 4326 CircleF
5621 4381 CircleF
3049 4343 CircleF
3136 4409 CircleF
2337 477 CircleF
2410 534 CircleF
2760 4401 CircleF
2866 4482 CircleF
6353 3319 CircleF
6465 3404 CircleF
3574 3273 CircleF
3635 3320 CircleF
3049 3157 CircleF
3134 3222 CircleF
2634 4597 CircleF
2731 4671 CircleF
5862 2245 CircleF
5930 2297 CircleF
3405 831 CircleF
3494 899 CircleF
2401 3488 CircleF
2514 3575 CircleF
6323 734 CircleF
6398 792 CircleF
5518 2835 CircleF
5589 2889 CircleF
3629 2975 CircleF
3711 3038 CircleF
6364 2546 CircleF
6454 2615 CircleF
5064 285 CircleF
5153 353 CircleF
1342 2794 CircleF
1433 2864 CircleF
5711 3177 CircleF
5824 3264 CircleF
6302 3471 CircleF
6394 3542 CircleF
1746 2199 CircleF
1847 2277 CircleF
4440 2739 CircleF
4509 2792 CircleF
4509 4709 CircleF
4626 4799 CircleF
3254 747 CircleF
3361 829 CircleF
3652 3607 CircleF
3725 3664 CircleF
2151 338 CircleF
2249 414 CircleF
4498 4361 CircleF
4584 4427 CircleF
6164 3401 CircleF
6244 3462 CircleF
5931 3885 CircleF
6005 3942 CircleF
1268 705 CircleF
1328 751 CircleF
1476 4494 CircleF
1573 4569 CircleF
1493 4435 CircleF
1587 4507 CircleF
5051 1854 CircleF
5135 1919 CircleF
2765 4054 CircleF
2874 4138 CircleF
4441 1601 CircleF
4540 1678 CircleF
4497 1000 CircleF
4613 1089 CircleF
4217 3151 CircleF
4300 3215 CircleF
3301 2805 CircleF
3389 2873 CircleF
6369 1415 CircleF
6429 1461 CircleF
4343 1327 CircleF
4447 1408 CircleF
2809 3215 CircleF
2881 3270 CircleF
1867 3160 CircleF
1960 3231 CircleF
5292 3423 CircleF
5392 3500 CircleF
6533 4766 CircleF
6598 4816 CircleF
3078 1589 CircleF
3152 1646 CircleF
5458 3052 CircleF
5535 3111 CircleF
3264 2904 CircleF
3357 2975 CircleF
6319 363 CircleF
6433 451 CircleF
3253 406 CircleF
3360 488 CircleF
5588 4529 CircleF
5650 4577 CircleF
1829 1376 CircleF
1913 1441 CircleF
5178 4444 CircleF
5250 4499 CircleF
4808 990 CircleF
4887 1051 CircleF
1888 4675 CircleF
1958 4729 CircleF
4634 3999 CircleF
4734 4076 CircleF
1034 4000 CircleF
1145 4086 CircleF
6213 751 CircleF
6329 840 CircleF
1171 4456 CircleF
1266 4528 CircleF
6226 1184 CircleF
6297 1238 CircleF
2455 2541 CircleF
2563 2623 CircleF
6303 458 CircleF
6412 542 CircleF
6282 3492 CircleF
6393 3577 CircleF
2274 2127 CircleF
2385 2212 CircleF
6032 1796 CircleF
6116 1860 CircleF
2437 4115 CircleF
2550 4201 CircleF
1167 3339 CircleF
1266 3415 CircleF
3258 3460 CircleF
3341 3524 CircleF
6674 1583 CircleF
6755 1645 CircleF
6043 3917 CircleF
6107 3967 CircleF
1184 3654 CircleF
1300 3743 CircleF
3658 2502 CircleF
3766 2585 CircleF
2742 4005 CircleF
2812 4058 CircleF
1718 2464 CircleF
1784 2515 CircleF
1058 2514 CircleF
1175 2604 CircleF
4087 423 CircleF
4195 506 CircleF
5708 389 CircleF
5788 449 CircleF
2976 2357 CircleF
3065 2425 CircleF
5305 3049 CircleF
5388 3112 CircleF
5857 1286 CircleF
5927 1340 CircleF
6114 3408 CircleF
6178 3458 CircleF
1133 386 CircleF
1251 477 CircleF
6011 4526 CircleF
6117 4608 CircleF
1960 415 CircleF
2073 503 CircleF
2008 289 CircleF
2111 368 CircleF
6612 472 CircleF
6709 547 CircleF
3047 1568 CircleF
3143 1642 CircleF
4618 3961 CircleF
4683 4011 CircleF
5584 286 CircleF
5661 345 CircleF
2714 3338 CircleF
2827 3424 CircleF
3269 2657 CircleF
3351 2720 CircleF
3224 1863 CircleF
3314 1932 CircleF
3278 646 CircleF
3374 720 CircleF
4776 4147 CircleF
4888 4234 CircleF
5412 3935 CircleF
5493 3997 CircleF
5826 2399 CircleF
5915 2468 CircleF
5802 496 CircleF
5897 570 CircleF
6818 317 CircleF
6926 400 CircleF
2426 2437 CircleF
2495 2491 CircleF
3048 1084 CircleF
3154 1165 CircleF
5629 2321 CircleF
5694 2371 CircleF
6149 2584 CircleF
6230 2646 CircleF
1333 3694 CircleF
1419 3760 CircleF
4832 1180 CircleF
4950 1271 CircleF
2409 416 CircleF
2502 487 CircleF
6256 3219 CircleF
6316 3265 CircleF
2606 3814 CircleF
2682 3873 CircleF
1076 3013 CircleF
1179 3092 CircleF
3078 1957 CircleF
3185 2039 CircleF
1778 1474 CircleF
1868 1543 CircleF
5045 1832 CircleF
5133 1899 CircleF
4857 676 CircleF
4962 756 CircleF
1048 2972 CircleF
1146 3047 CircleF
4478 1451 CircleF
4570 1521 CircleF
1030 692 CircleF
1133 771 CircleF
6359 2600 CircleF
6429 2655 CircleF
3553 3105 CircleF
3636 3169 CircleF
4281 4083 CircleF
4394 4170 CircleF
4756 2366 CircleF
4865 2450 CircleF
3865 1582 CircleF
3962 1657 CircleF
3521 4707 CircleF
3610 4775 CircleF
5709 4581 CircleF
5806 4655 CircleF
6487 2971 CircleF
6556 3024 CircleF
4329 1757 CircleF
4427 1833 CircleF
5749 605 CircleF
5843 677 CircleF
1443 2261 CircleF
1525 2324 CircleF
4869 3524 CircleF
4985 3613 CircleF
5257 4620 CircleF
5319 4667 CircleF
3972 3714 CircleF
4066 3786 CircleF
3933 2547 CircleF
4005 2603 CircleF
4335 1191 CircleF
4399 1240 CircleF
2560 4531 CircleF
2676 4621 CircleF
6688 4023 CircleF
6800 4109 CircleF
6294 1017 CircleF
6384 1086 CircleF
5365 3683 CircleF
5476 3768 CircleF
3506 2078 CircleF
3583 2137 CircleF
2836 3516 CircleF
2932 3590 CircleF
5214 4198 CircleF
5319 4279 CircleF
4625 1631 CircleF
4698 1687 CircleF
4098 2895 CircleF
4204 2976 CircleF
3965 3772 CircleF
4043 3832 CircleF
2441 2420 CircleF
2528 2486 CircleF
5332 1052 CircleF
5435 1130 CircleF
2800 3593 CircleF
2874 3650 CircleF
6565 4041 CircleF
6635 4094 CircleF
6679 309 CircleF
6776 384 CircleF
2511 3941 CircleF
2597 4007 CircleF
3160 4542 CircleF
3229 4595 CircleF
1512 1184 CircleF
1589 1244 CircleF
2759 1027 CircleF
2831 1082 CircleF
1678 1719 CircleF
1792 1807 CircleF
4112 2760 CircleF
4210 2836 CircleF
2712 3258 CircleF
2827 3346 CircleF
3513 4036 CircleF
3631 4127 CircleF
6635 956 CircleF
6736 1033 CircleF
3877 4698 CircleF
3941 4747 CircleF
5540 3421 CircleF
5635 3494 CircleF
3969 2955 CircleF
4074 3035 CircleF
6716 2116 CircleF
6780 2165 CircleF
3393 1443 CircleF
3457 1493 CircleF
4190 4104 CircleF
4290 4181 CircleF
5133 976 CircleF
5239 1058 CircleF
2531 931 CircleF
2604 987 CircleF
1745 3592 CircleF
1835 3661 CircleF
2005 4770 CircleF
2089 4835 CircleF
5096 518 CircleF
5178 581 CircleF
4226 2343 CircleF
4292 2394 CircleF
2801 3381 CircleF
2871 3435 CircleF
2671 3505 CircleF
2757 3571 CircleF
6299 4229 CircleF
6389 4299 CircleF
2013 682 CircleF
2086 738 CircleF
4019 2284 CircleF
4110 2354 CircleF
1051 2113 CircleF
1134 2176 CircleF
3524 1594 CircleF
3601 1653 CircleF
2021 1632 CircleF
2137 1721 CircleF
1127 4369 CircleF
1193 4419 CircleF
1536 1027 CircleF
1604 1079 CircleF
3716 2471 CircleF
3783 2522 CircleF
3094 728 CircleF
3173 788 CircleF
1467 1972 CircleF
1531 2021 CircleF
1105 3276 CircleF
1211 3357 CircleF
1950 2106 CircleF
2066 2195 CircleF
1664 4508 CircleF
1750 4574 CircleF
2889 974 CircleF
2998 1057 CircleF
5854 1676 CircleF
5953 1752 CircleF
2043 2427 CircleF
2146 2506 CircleF
1483 1643 CircleF
1594 1729 CircleF
3419 3781 CircleF
3501 3845 CircleF
2581 1560 CircleF
2685 1639 CircleF
983 4443 CircleF
1098 4531 CircleF
5618 4679 CircleF
5721 4759 CircleF
3146 3300 CircleF
3257 3385 CircleF
2940 4032 CircleF
3008 4084 CircleF
6110 3194 CircleF
6199 3263 CircleF
5012 2552 CircleF
5104 2622 CircleF
2890 4296 CircleF
2988 4371 CircleF
4871 4648 CircleF
4965 4720 CircleF
3855 1461 CircleF
3949 1533 CircleF
5669 4611 CircleF
5745 4669 CircleF
5538 4580 CircleF
5641 4658 CircleF
3552 4509 CircleF
3659 4591 CircleF
6607 850 CircleF
6683 908 CircleF
6040 1929 CircleF
6110 1983 CircleF
4356 2492 CircleF
4470 2580 CircleF
1190 2905 CircleF
1308 2996 CircleF
5880 3259 CircleF
5983 3339 CircleF
1326 2800 CircleF
1429 2879 CircleF
3051 3585 CircleF
3131 3646 CircleF
5922 3983 CircleF
5987 4033 CircleF
3752 1198 CircleF
3855 1277 CircleF
3110 1694 CircleF
3177 1746 CircleF
3023 3236 CircleF
3119 3309 CircleF
1516 767 CircleF
1601 833 CircleF
4743 4150 CircleF
4843 4227 CircleF
4127 1491 CircleF
4189 1538 CircleF
3484 2799 CircleF
3547 2848 CircleF
3255 3769 CircleF
3367 3855 CircleF
3366 329 CircleF
3472 410 CircleF
2112 610 CircleF
2189 669 CircleF
6419 2662 CircleF
6481 2709 CircleF
6741 4113 CircleF
6817 4171 CircleF
3194 2798 CircleF
3279 2862 CircleF
2628 722 CircleF
2732 802 CircleF
3808 510 CircleF
3922 599 CircleF
6616 1398 CircleF
6678 1444 CircleF
5346 1506 CircleF
5431 1571 CircleF
5663 1136 CircleF
5731 1188 CircleF
1456 285 CircleF
1552 359 CircleF
3836 1650 CircleF
3927 1719 CircleF
4219 545 CircleF
4328 628 CircleF
2405 4322 CircleF
2503 4398 CircleF
6801 1181 CircleF
6916 1269 CircleF
3862 1886 CircleF
3934 1941 CircleF
3564 1218 CircleF
3651 1285 CircleF
4744 2658 CircleF
4845 2736 CircleF
4719 1539 CircleF
4828 1622 CircleF
2434 908 CircleF
2548 995 CircleF
3454 3475 CircleF
3549 3549 CircleF
2754 3249 CircleF
2869 3337 CircleF
4595 1073 CircleF
4693 1148 CircleF
4370 3857 CircleF
4459 3925 CircleF
2861 4273 CircleF
2940 4334 CircleF
1672 657 CircleF
1768 731 CircleF
1911 4082 CircleF
1985 4138 CircleF
2202 2424 CircleF
2308 2505 CircleF
5289 4732 CircleF
5391 4811 CircleF
2357 2964 CircleF
2419 3011 CircleF
1269 1261 CircleF
1362 1332 CircleF
5118 3559 CircleF
5223 3639 CircleF
5882 821 CircleF
5976 893 CircleF
1800 4265 CircleF
1899 4342 CircleF
% End plot #2
1.000 UP
1.000 UL
LT0
0.50 0.50 0.50 C stroke
grestore
end
showpage
%%Trailer
%%DocumentFonts: Helvetica
%%Pages: 1
