%!PS-Adobe-2.0
%%Title: out.ps
%%Creator: gnuplot 4.6 patchlevel 6
%%CreationDate: Thu May 28 23:57:34 2015
%%DocumentFonts: (atend)
%%BoundingBox: 50 50 554 770
%%Orientation: Landscape
%%Pages: (atend)
%%EndComments
%%BeginProlog
/gnudict 256 dict def
gnudict begin
%
% The following true/false flags may be edited by hand if desired.
% The unit line width and grayscale image gamma correction may also be changed.
%
/Color false def
/Blacktext false def
/Solid false def
/Dashlength 1 def
/Landscape true def
/Level1 false def
/Rounded false def
/ClipToBoundingBox false def
/SuppressPDFMark false def
/TransparentPatterns false def
/gnulinewidth 5.000 def
/userlinewidth gnulinewidth def
/Gamma 1.0 def
/BackgroundColor {-1.000 -1.000 -1.000} def
%
/vshift -46 def
/dl1 {
  10.0 Dashlength mul mul
  Rounded { currentlinewidth 0.75 mul sub dup 0 le { pop 0.01 } if } if
} def
/dl2 {
  10.0 Dashlength mul mul
  Rounded { currentlinewidth 0.75 mul add } if
} def
/hpt_ 31.5 def
/vpt_ 31.5 def
/hpt hpt_ def
/vpt vpt_ def
/doclip {
  ClipToBoundingBox {
    newpath 50 50 moveto 554 50 lineto 554 770 lineto 50 770 lineto closepath
    clip
  } if
} def
%
% Gnuplot Prolog Version 4.6 (September 2012)
%
%/SuppressPDFMark true def
%
/M {moveto} bind def
/L {lineto} bind def
/R {rmoveto} bind def
/V {rlineto} bind def
/N {newpath moveto} bind def
/Z {closepath} bind def
/C {setrgbcolor} bind def
/f {rlineto fill} bind def
/g {setgray} bind def
/Gshow {show} def   % May be redefined later in the file to support UTF-8
/vpt2 vpt 2 mul def
/hpt2 hpt 2 mul def
/Lshow {currentpoint stroke M 0 vshift R 
	Blacktext {gsave 0 setgray show grestore} {show} ifelse} def
/Rshow {currentpoint stroke M dup stringwidth pop neg vshift R
	Blacktext {gsave 0 setgray show grestore} {show} ifelse} def
/Cshow {currentpoint stroke M dup stringwidth pop -2 div vshift R 
	Blacktext {gsave 0 setgray show grestore} {show} ifelse} def
/UP {dup vpt_ mul /vpt exch def hpt_ mul /hpt exch def
  /hpt2 hpt 2 mul def /vpt2 vpt 2 mul def} def
/DL {Color {setrgbcolor Solid {pop []} if 0 setdash}
 {pop pop pop 0 setgray Solid {pop []} if 0 setdash} ifelse} def
/BL {stroke userlinewidth 2 mul setlinewidth
	Rounded {1 setlinejoin 1 setlinecap} if} def
/AL {stroke userlinewidth 2 div setlinewidth
	Rounded {1 setlinejoin 1 setlinecap} if} def
/UL {dup gnulinewidth mul /userlinewidth exch def
	dup 1 lt {pop 1} if 10 mul /udl exch def} def
/PL {stroke userlinewidth setlinewidth
	Rounded {1 setlinejoin 1 setlinecap} if} def
3.8 setmiterlimit
% Default Line colors
/LCw {1 1 1} def
/LCb {0 0 0} def
/LCa {0 0 0} def
/LC0 {1 0 0} def
/LC1 {0 1 0} def
/LC2 {0 0 1} def
/LC3 {1 0 1} def
/LC4 {0 1 1} def
/LC5 {1 1 0} def
/LC6 {0 0 0} def
/LC7 {1 0.3 0} def
/LC8 {0.5 0.5 0.5} def
% Default Line Types
/LTw {PL [] 1 setgray} def
/LTb {BL [] LCb DL} def
/LTa {AL [1 udl mul 2 udl mul] 0 setdash LCa setrgbcolor} def
/LT0 {PL [] LC0 DL} def
/LT1 {PL [4 dl1 2 dl2] LC1 DL} def
/LT2 {PL [2 dl1 3 dl2] LC2 DL} def
/LT3 {PL [1 dl1 1.5 dl2] LC3 DL} def
/LT4 {PL [6 dl1 2 dl2 1 dl1 2 dl2] LC4 DL} def
/LT5 {PL [3 dl1 3 dl2 1 dl1 3 dl2] LC5 DL} def
/LT6 {PL [2 dl1 2 dl2 2 dl1 6 dl2] LC6 DL} def
/LT7 {PL [1 dl1 2 dl2 6 dl1 2 dl2 1 dl1 2 dl2] LC7 DL} def
/LT8 {PL [2 dl1 2 dl2 2 dl1 2 dl2 2 dl1 2 dl2 2 dl1 4 dl2] LC8 DL} def
/Pnt {stroke [] 0 setdash gsave 1 setlinecap M 0 0 V stroke grestore} def
/Dia {stroke [] 0 setdash 2 copy vpt add M
  hpt neg vpt neg V hpt vpt neg V
  hpt vpt V hpt neg vpt V closepath stroke
  Pnt} def
/Pls {stroke [] 0 setdash vpt sub M 0 vpt2 V
  currentpoint stroke M
  hpt neg vpt neg R hpt2 0 V stroke
 } def
/Box {stroke [] 0 setdash 2 copy exch hpt sub exch vpt add M
  0 vpt2 neg V hpt2 0 V 0 vpt2 V
  hpt2 neg 0 V closepath stroke
  Pnt} def
/Crs {stroke [] 0 setdash exch hpt sub exch vpt add M
  hpt2 vpt2 neg V currentpoint stroke M
  hpt2 neg 0 R hpt2 vpt2 V stroke} def
/TriU {stroke [] 0 setdash 2 copy vpt 1.12 mul add M
  hpt neg vpt -1.62 mul V
  hpt 2 mul 0 V
  hpt neg vpt 1.62 mul V closepath stroke
  Pnt} def
/Star {2 copy Pls Crs} def
/BoxF {stroke [] 0 setdash exch hpt sub exch vpt add M
  0 vpt2 neg V hpt2 0 V 0 vpt2 V
  hpt2 neg 0 V closepath fill} def
/TriUF {stroke [] 0 setdash vpt 1.12 mul add M
  hpt neg vpt -1.62 mul V
  hpt 2 mul 0 V
  hpt neg vpt 1.62 mul V closepath fill} def
/TriD {stroke [] 0 setdash 2 copy vpt 1.12 mul sub M
  hpt neg vpt 1.62 mul V
  hpt 2 mul 0 V
  hpt neg vpt -1.62 mul V closepath stroke
  Pnt} def
/TriDF {stroke [] 0 setdash vpt 1.12 mul sub M
  hpt neg vpt 1.62 mul V
  hpt 2 mul 0 V
  hpt neg vpt -1.62 mul V closepath fill} def
/DiaF {stroke [] 0 setdash vpt add M
  hpt neg vpt neg V hpt vpt neg V
  hpt vpt V hpt neg vpt V closepath fill} def
/Pent {stroke [] 0 setdash 2 copy gsave
  translate 0 hpt M 4 {72 rotate 0 hpt L} repeat
  closepath stroke grestore Pnt} def
/PentF {stroke [] 0 setdash gsave
  translate 0 hpt M 4 {72 rotate 0 hpt L} repeat
  closepath fill grestore} def
/Circle {stroke [] 0 setdash 2 copy
  hpt 0 360 arc stroke Pnt} def
/CircleF {stroke [] 0 setdash hpt 0 360 arc fill} def
/C0 {BL [] 0 setdash 2 copy moveto vpt 90 450 arc} bind def
/C1 {BL [] 0 setdash 2 copy moveto
	2 copy vpt 0 90 arc closepath fill
	vpt 0 360 arc closepath} bind def
/C2 {BL [] 0 setdash 2 copy moveto
	2 copy vpt 90 180 arc closepath fill
	vpt 0 360 arc closepath} bind def
/C3 {BL [] 0 setdash 2 copy moveto
	2 copy vpt 0 180 arc closepath fill
	vpt 0 360 arc closepath} bind def
/C4 {BL [] 0 setdash 2 copy moveto
	2 copy vpt 180 270 arc closepath fill
	vpt 0 360 arc closepath} bind def
/C5 {BL [] 0 setdash 2 copy moveto
	2 copy vpt 0 90 arc
	2 copy moveto
	2 copy vpt 180 270 arc closepath fill
	vpt 0 360 arc} bind def
/C6 {BL [] 0 setdash 2 copy moveto
	2 copy vpt 90 270 arc closepath fill
	vpt 0 360 arc closepath} bind def
/C7 {BL [] 0 setdash 2 copy moveto
	2 copy vpt 0 270 arc closepath fill
	vpt 0 360 arc closepath} bind def
/C8 {BL [] 0 setdash 2 copy moveto
	2 copy vpt 270 360 arc closepath fill
	vpt 0 360 arc closepath} bind def
/C9 {BL [] 0 setdash 2 copy moveto
	2 copy vpt 270 450 arc closepath fill
	vpt 0 360 arc closepath} bind def
/C10 {BL [] 0 setdash 2 copy 2 copy moveto vpt 270 360 arc closepath fill
	2 copy moveto
	2 copy vpt 90 180 arc closepath fill
	vpt 0 360 arc closepath} bind def
/C11 {BL [] 0 setdash 2 copy moveto
	2 copy vpt 0 180 arc closepath fill
	2 copy moveto
	2 copy vpt 270 360 arc closepath fill
	vpt 0 360 arc closepath} bind def
/C12 {BL [] 0 setdash 2 copy moveto
	2 copy vpt 180 360 arc closepath fill
	vpt 0 360 arc closepath} bind def
/C13 {BL [] 0 setdash 2 copy moveto
	2 copy vpt 0 90 arc closepath fill
	2 copy moveto
	2 copy vpt 180 360 arc closepath fill
	vpt 0 360 arc closepath} bind def
/C14 {BL [] 0 setdash 2 copy moveto
	2 copy vpt 90 360 arc closepath fill
	vpt 0 360 arc} bind def
/C15 {BL [] 0 setdash 2 copy vpt 0 360 arc closepath fill
	vpt 0 360 arc closepath} bind def
/Rec {newpath 4 2 roll moveto 1 index 0 rlineto 0 exch rlineto
	neg 0 rlineto closepath} bind def
/Square {dup Rec} bind def
/Bsquare {vpt sub exch vpt sub exch vpt2 Square} bind def
/S0 {BL [] 0 setdash 2 copy moveto 0 vpt rlineto BL Bsquare} bind def
/S1 {BL [] 0 setdash 2 copy vpt Square fill Bsquare} bind def
/S2 {BL [] 0 setdash 2 copy exch vpt sub exch vpt Square fill Bsquare} bind def
/S3 {BL [] 0 setdash 2 copy exch vpt sub exch vpt2 vpt Rec fill Bsquare} bind def
/S4 {BL [] 0 setdash 2 copy exch vpt sub exch vpt sub vpt Square fill Bsquare} bind def
/S5 {BL [] 0 setdash 2 copy 2 copy vpt Square fill
	exch vpt sub exch vpt sub vpt Square fill Bsquare} bind def
/S6 {BL [] 0 setdash 2 copy exch vpt sub exch vpt sub vpt vpt2 Rec fill Bsquare} bind def
/S7 {BL [] 0 setdash 2 copy exch vpt sub exch vpt sub vpt vpt2 Rec fill
	2 copy vpt Square fill Bsquare} bind def
/S8 {BL [] 0 setdash 2 copy vpt sub vpt Square fill Bsquare} bind def
/S9 {BL [] 0 setdash 2 copy vpt sub vpt vpt2 Rec fill Bsquare} bind def
/S10 {BL [] 0 setdash 2 copy vpt sub vpt Square fill 2 copy exch vpt sub exch vpt Square fill
	Bsquare} bind def
/S11 {BL [] 0 setdash 2 copy vpt sub vpt Square fill 2 copy exch vpt sub exch vpt2 vpt Rec fill
	Bsquare} bind def
/S12 {BL [] 0 setdash 2 copy exch vpt sub exch vpt sub vpt2 vpt Rec fill Bsquare} bind def
/S13 {BL [] 0 setdash 2 copy exch vpt sub exch vpt sub vpt2 vpt Rec fill
	2 copy vpt Square fill Bsquare} bind def
/S14 {BL [] 0 setdash 2 copy exch vpt sub exch vpt sub vpt2 vpt Rec fill
	2 copy exch vpt sub exch vpt Square fill Bsquare} bind def
/S15 {BL [] 0 setdash 2 copy Bsquare fill Bsquare} bind def
/D0 {gsave translate 45 rotate 0 0 S0 stroke grestore} bind def
/D1 {gsave translate 45 rotate 0 0 S1 stroke grestore} bind def
/D2 {gsave translate 45 rotate 0 0 S2 stroke grestore} bind def
/D3 {gsave translate 45 rotate 0 0 S3 stroke grestore} bind def
/D4 {gsave translate 45 rotate 0 0 S4 stroke grestore} bind def
/D5 {gsave translate 45 rotate 0 0 S5 stroke grestore} bind def
/D6 {gsave translate 45 rotate 0 0 S6 stroke grestore} bind def
/D7 {gsave translate 45 rotate 0 0 S7 stroke grestore} bind def
/D8 {gsave translate 45 rotate 0 0 S8 stroke grestore} bind def
/D9 {gsave translate 45 rotate 0 0 S9 stroke grestore} bind def
/D10 {gsave translate 45 rotate 0 0 S10 stroke grestore} bind def
/D11 {gsave translate 45 rotate 0 0 S11 stroke grestore} bind def
/D12 {gsave translate 45 rotate 0 0 S12 stroke grestore} bind def
/D13 {gsave translate 45 rotate 0 0 S13 stroke grestore} bind def
/D14 {gsave translate 45 rotate 0 0 S14 stroke grestore} bind def
/D15 {gsave translate 45 rotate 0 0 S15 stroke grestore} bind def
/DiaE {stroke [] 0 setdash vpt add M
  hpt neg vpt neg V hpt vpt neg V
  hpt vpt V hpt neg vpt V closepath stroke} def
/BoxE {stroke [] 0 setdash exch hpt sub exch vpt add M
  0 vpt2 neg V hpt2 0 V 0 vpt2 V
  hpt2 neg 0 V closepath stroke} def
/TriUE {stroke [] 0 setdash vpt 1.12 mul add M
  hpt neg vpt -1.62 mul V
  hpt 2 mul 0 V
  hpt neg vpt 1.62 mul V closepath stroke} def
/TriDE {stroke [] 0 setdash vpt 1.12 mul sub M
  hpt neg vpt 1.62 mul V
  hpt 2 mul 0 V
  hpt neg vpt -1.62 mul V closepath stroke} def
/PentE {stroke [] 0 setdash gsave
  translate 0 hpt M 4 {72 rotate 0 hpt L} repeat
  closepath stroke grestore} def
/CircE {stroke [] 0 setdash 
  hpt 0 360 arc stroke} def
/Opaque {gsave closepath 1 setgray fill grestore 0 setgray closepath} def
/DiaW {stroke [] 0 setdash vpt add M
  hpt neg vpt neg V hpt vpt neg V
  hpt vpt V hpt neg vpt V Opaque stroke} def
/BoxW {stroke [] 0 setdash exch hpt sub exch vpt add M
  0 vpt2 neg V hpt2 0 V 0 vpt2 V
  hpt2 neg 0 V Opaque stroke} def
/TriUW {stroke [] 0 setdash vpt 1.12 mul add M
  hpt neg vpt -1.62 mul V
  hpt 2 mul 0 V
  hpt neg vpt 1.62 mul V Opaque stroke} def
/TriDW {stroke [] 0 setdash vpt 1.12 mul sub M
  hpt neg vpt 1.62 mul V
  hpt 2 mul 0 V
  hpt neg vpt -1.62 mul V Opaque stroke} def
/PentW {stroke [] 0 setdash gsave
  translate 0 hpt M 4 {72 rotate 0 hpt L} repeat
  Opaque stroke grestore} def
/CircW {stroke [] 0 setdash 
  hpt 0 360 arc Opaque stroke} def
/BoxFill {gsave Rec 1 setgray fill grestore} def
/Density {
  /Fillden exch def
  currentrgbcolor
  /ColB exch def /ColG exch def /ColR exch def
  /ColR ColR Fillden mul Fillden sub 1 add def
  /ColG ColG Fillden mul Fillden sub 1 add def
  /ColB ColB Fillden mul Fillden sub 1 add def
  ColR ColG ColB setrgbcolor} def
/BoxColFill {gsave Rec PolyFill} def
/PolyFill {gsave Density fill grestore grestore} def
/h {rlineto rlineto rlineto gsave closepath fill grestore} bind def
%
% PostScript Level 1 Pattern Fill routine for rectangles
% Usage: x y w h s a XX PatternFill
%	x,y = lower left corner of box to be filled
%	w,h = width and height of box
%	  a = angle in degrees between lines and x-axis
%	 XX = 0/1 for no/yes cross-hatch
%
/PatternFill {gsave /PFa [ 9 2 roll ] def
  PFa 0 get PFa 2 get 2 div add PFa 1 get PFa 3 get 2 div add translate
  PFa 2 get -2 div PFa 3 get -2 div PFa 2 get PFa 3 get Rec
  TransparentPatterns {} {gsave 1 setgray fill grestore} ifelse
  clip
  currentlinewidth 0.5 mul setlinewidth
  /PFs PFa 2 get dup mul PFa 3 get dup mul add sqrt def
  0 0 M PFa 5 get rotate PFs -2 div dup translate
  0 1 PFs PFa 4 get div 1 add floor cvi
	{PFa 4 get mul 0 M 0 PFs V} for
  0 PFa 6 get ne {
	0 1 PFs PFa 4 get div 1 add floor cvi
	{PFa 4 get mul 0 2 1 roll M PFs 0 V} for
 } if
  stroke grestore} def
%
/languagelevel where
 {pop languagelevel} {1} ifelse
 2 lt
	{/InterpretLevel1 true def}
	{/InterpretLevel1 Level1 def}
 ifelse
%
% PostScript level 2 pattern fill definitions
%
/Level2PatternFill {
/Tile8x8 {/PaintType 2 /PatternType 1 /TilingType 1 /BBox [0 0 8 8] /XStep 8 /YStep 8}
	bind def
/KeepColor {currentrgbcolor [/Pattern /DeviceRGB] setcolorspace} bind def
<< Tile8x8
 /PaintProc {0.5 setlinewidth pop 0 0 M 8 8 L 0 8 M 8 0 L stroke} 
>> matrix makepattern
/Pat1 exch def
<< Tile8x8
 /PaintProc {0.5 setlinewidth pop 0 0 M 8 8 L 0 8 M 8 0 L stroke
	0 4 M 4 8 L 8 4 L 4 0 L 0 4 L stroke}
>> matrix makepattern
/Pat2 exch def
<< Tile8x8
 /PaintProc {0.5 setlinewidth pop 0 0 M 0 8 L
	8 8 L 8 0 L 0 0 L fill}
>> matrix makepattern
/Pat3 exch def
<< Tile8x8
 /PaintProc {0.5 setlinewidth pop -4 8 M 8 -4 L
	0 12 M 12 0 L stroke}
>> matrix makepattern
/Pat4 exch def
<< Tile8x8
 /PaintProc {0.5 setlinewidth pop -4 0 M 8 12 L
	0 -4 M 12 8 L stroke}
>> matrix makepattern
/Pat5 exch def
<< Tile8x8
 /PaintProc {0.5 setlinewidth pop -2 8 M 4 -4 L
	0 12 M 8 -4 L 4 12 M 10 0 L stroke}
>> matrix makepattern
/Pat6 exch def
<< Tile8x8
 /PaintProc {0.5 setlinewidth pop -2 0 M 4 12 L
	0 -4 M 8 12 L 4 -4 M 10 8 L stroke}
>> matrix makepattern
/Pat7 exch def
<< Tile8x8
 /PaintProc {0.5 setlinewidth pop 8 -2 M -4 4 L
	12 0 M -4 8 L 12 4 M 0 10 L stroke}
>> matrix makepattern
/Pat8 exch def
<< Tile8x8
 /PaintProc {0.5 setlinewidth pop 0 -2 M 12 4 L
	-4 0 M 12 8 L -4 4 M 8 10 L stroke}
>> matrix makepattern
/Pat9 exch def
/Pattern1 {PatternBgnd KeepColor Pat1 setpattern} bind def
/Pattern2 {PatternBgnd KeepColor Pat2 setpattern} bind def
/Pattern3 {PatternBgnd KeepColor Pat3 setpattern} bind def
/Pattern4 {PatternBgnd KeepColor Landscape {Pat5} {Pat4} ifelse setpattern} bind def
/Pattern5 {PatternBgnd KeepColor Landscape {Pat4} {Pat5} ifelse setpattern} bind def
/Pattern6 {PatternBgnd KeepColor Landscape {Pat9} {Pat6} ifelse setpattern} bind def
/Pattern7 {PatternBgnd KeepColor Landscape {Pat8} {Pat7} ifelse setpattern} bind def
} def
%
%
%End of PostScript Level 2 code
%
/PatternBgnd {
  TransparentPatterns {} {gsave 1 setgray fill grestore} ifelse
} def
%
% Substitute for Level 2 pattern fill codes with
% grayscale if Level 2 support is not selected.
%
/Level1PatternFill {
/Pattern1 {0.250 Density} bind def
/Pattern2 {0.500 Density} bind def
/Pattern3 {0.750 Density} bind def
/Pattern4 {0.125 Density} bind def
/Pattern5 {0.375 Density} bind def
/Pattern6 {0.625 Density} bind def
/Pattern7 {0.875 Density} bind def
} def
%
% Now test for support of Level 2 code
%
Level1 {Level1PatternFill} {Level2PatternFill} ifelse
%
/Symbol-Oblique /Symbol findfont [1 0 .167 1 0 0] makefont
dup length dict begin {1 index /FID eq {pop pop} {def} ifelse} forall
currentdict end definefont pop
Level1 SuppressPDFMark or 
{} {
/SDict 10 dict def
systemdict /pdfmark known not {
  userdict /pdfmark systemdict /cleartomark get put
} if
SDict begin [
  /Title (out.ps)
  /Subject (gnuplot plot)
  /Creator (gnuplot 4.6 patchlevel 6)
  /Author (yani)
%  /Producer (gnuplot)
%  /Keywords ()
  /CreationDate (Thu May 28 23:57:34 2015)
  /DOCINFO pdfmark
end
} ifelse
end
%%EndProlog
%%Page: 1 1
gnudict begin
gsave
doclip
50 50 translate
0.100 0.100 scale
90 rotate
0 -5040 translate
0 setgray
newpath
(Helvetica) findfont 140 scalefont setfont
BackgroundColor 0 lt 3 1 roll 0 lt exch 0 lt or or not {gsave BackgroundColor C clippath fill grestore} if
1.000 UL
LT0
0.50 0.50 0.50 C 1.000 UL
LTa
0.50 0.50 0.50 C 966 280 M
5981 0 V
stroke
LT0
0.50 0.50 0.50 C 966 280 M
63 0 V
5918 0 R
-63 0 V
882 280 M
( 0) Rshow
1.000 UL
LT0
0.50 0.50 0.50 C 1.000 UL
LTa
0.50 0.50 0.50 C 966 372 M
5981 0 V
stroke
LT0
0.50 0.50 0.50 C 966 372 M
63 0 V
5918 0 R
-63 0 V
882 372 M
( 0.707106) Rshow
1.000 UL
LT0
0.50 0.50 0.50 C 1.000 UL
LTa
0.50 0.50 0.50 C 966 464 M
5981 0 V
stroke
LT0
0.50 0.50 0.50 C 966 464 M
63 0 V
5918 0 R
-63 0 V
882 464 M
( 1.41421) Rshow
1.000 UL
LT0
0.50 0.50 0.50 C 1.000 UL
LTa
0.50 0.50 0.50 C 966 555 M
5981 0 V
stroke
LT0
0.50 0.50 0.50 C 966 555 M
63 0 V
5918 0 R
-63 0 V
882 555 M
( 2.12132) Rshow
1.000 UL
LT0
0.50 0.50 0.50 C 1.000 UL
LTa
0.50 0.50 0.50 C 966 647 M
5981 0 V
stroke
LT0
0.50 0.50 0.50 C 966 647 M
63 0 V
5918 0 R
-63 0 V
882 647 M
( 2.82842) Rshow
1.000 UL
LT0
0.50 0.50 0.50 C 1.000 UL
LTa
0.50 0.50 0.50 C 966 739 M
5981 0 V
stroke
LT0
0.50 0.50 0.50 C 966 739 M
63 0 V
5918 0 R
-63 0 V
882 739 M
( 3.53553) Rshow
1.000 UL
LT0
0.50 0.50 0.50 C 1.000 UL
LTa
0.50 0.50 0.50 C 966 831 M
5981 0 V
stroke
LT0
0.50 0.50 0.50 C 966 831 M
63 0 V
5918 0 R
-63 0 V
882 831 M
( 4.24264) Rshow
1.000 UL
LT0
0.50 0.50 0.50 C 1.000 UL
LTa
0.50 0.50 0.50 C 966 923 M
5981 0 V
stroke
LT0
0.50 0.50 0.50 C 966 923 M
63 0 V
5918 0 R
-63 0 V
882 923 M
( 4.94974) Rshow
1.000 UL
LT0
0.50 0.50 0.50 C 1.000 UL
LTa
0.50 0.50 0.50 C 966 1015 M
5981 0 V
stroke
LT0
0.50 0.50 0.50 C 966 1015 M
63 0 V
5918 0 R
-63 0 V
-6002 0 R
( 5.65685) Rshow
1.000 UL
LT0
0.50 0.50 0.50 C 1.000 UL
LTa
0.50 0.50 0.50 C 966 1106 M
5981 0 V
stroke
LT0
0.50 0.50 0.50 C 966 1106 M
63 0 V
5918 0 R
-63 0 V
-6002 0 R
( 6.36395) Rshow
1.000 UL
LT0
0.50 0.50 0.50 C 1.000 UL
LTa
0.50 0.50 0.50 C 966 1198 M
5981 0 V
stroke
LT0
0.50 0.50 0.50 C 966 1198 M
63 0 V
5918 0 R
-63 0 V
-6002 0 R
( 7.07106) Rshow
1.000 UL
LT0
0.50 0.50 0.50 C 1.000 UL
LTa
0.50 0.50 0.50 C 966 1290 M
5981 0 V
stroke
LT0
0.50 0.50 0.50 C 966 1290 M
63 0 V
5918 0 R
-63 0 V
-6002 0 R
( 7.77817) Rshow
1.000 UL
LT0
0.50 0.50 0.50 C 1.000 UL
LTa
0.50 0.50 0.50 C 966 1382 M
5981 0 V
stroke
LT0
0.50 0.50 0.50 C 966 1382 M
63 0 V
5918 0 R
-63 0 V
-6002 0 R
( 8.48527) Rshow
1.000 UL
LT0
0.50 0.50 0.50 C 1.000 UL
LTa
0.50 0.50 0.50 C 966 1474 M
5981 0 V
stroke
LT0
0.50 0.50 0.50 C 966 1474 M
63 0 V
5918 0 R
-63 0 V
-6002 0 R
( 9.19238) Rshow
1.000 UL
LT0
0.50 0.50 0.50 C 1.000 UL
LTa
0.50 0.50 0.50 C 966 1565 M
5981 0 V
stroke
LT0
0.50 0.50 0.50 C 966 1565 M
63 0 V
5918 0 R
-63 0 V
-6002 0 R
( 9.89948) Rshow
1.000 UL
LT0
0.50 0.50 0.50 C 1.000 UL
LTa
0.50 0.50 0.50 C 966 1657 M
5981 0 V
stroke
LT0
0.50 0.50 0.50 C 966 1657 M
63 0 V
5918 0 R
-63 0 V
-6002 0 R
( 10.6066) Rshow
1.000 UL
LT0
0.50 0.50 0.50 C 1.000 UL
LTa
0.50 0.50 0.50 C 966 1749 M
5981 0 V
stroke
LT0
0.50 0.50 0.50 C 966 1749 M
63 0 V
5918 0 R
-63 0 V
-6002 0 R
( 11.3137) Rshow
1.000 UL
LT0
0.50 0.50 0.50 C 1.000 UL
LTa
0.50 0.50 0.50 C 966 1841 M
5981 0 V
stroke
LT0
0.50 0.50 0.50 C 966 1841 M
63 0 V
5918 0 R
-63 0 V
-6002 0 R
( 12.0208) Rshow
1.000 UL
LT0
0.50 0.50 0.50 C 1.000 UL
LTa
0.50 0.50 0.50 C 966 1933 M
5981 0 V
stroke
LT0
0.50 0.50 0.50 C 966 1933 M
63 0 V
5918 0 R
-63 0 V
-6002 0 R
( 12.7279) Rshow
1.000 UL
LT0
0.50 0.50 0.50 C 1.000 UL
LTa
0.50 0.50 0.50 C 966 2025 M
5981 0 V
stroke
LT0
0.50 0.50 0.50 C 966 2025 M
63 0 V
5918 0 R
-63 0 V
-6002 0 R
( 13.435) Rshow
1.000 UL
LT0
0.50 0.50 0.50 C 1.000 UL
LTa
0.50 0.50 0.50 C 966 2116 M
5981 0 V
stroke
LT0
0.50 0.50 0.50 C 966 2116 M
63 0 V
5918 0 R
-63 0 V
-6002 0 R
( 14.1421) Rshow
1.000 UL
LT0
0.50 0.50 0.50 C 1.000 UL
LTa
0.50 0.50 0.50 C 966 2208 M
5981 0 V
stroke
LT0
0.50 0.50 0.50 C 966 2208 M
63 0 V
5918 0 R
-63 0 V
-6002 0 R
( 14.8492) Rshow
1.000 UL
LT0
0.50 0.50 0.50 C 1.000 UL
LTa
0.50 0.50 0.50 C 966 2300 M
5981 0 V
stroke
LT0
0.50 0.50 0.50 C 966 2300 M
63 0 V
5918 0 R
-63 0 V
-6002 0 R
( 15.5563) Rshow
1.000 UL
LT0
0.50 0.50 0.50 C 1.000 UL
LTa
0.50 0.50 0.50 C 966 2392 M
5981 0 V
stroke
LT0
0.50 0.50 0.50 C 966 2392 M
63 0 V
5918 0 R
-63 0 V
-6002 0 R
( 16.2634) Rshow
1.000 UL
LT0
0.50 0.50 0.50 C 1.000 UL
LTa
0.50 0.50 0.50 C 966 2484 M
5981 0 V
stroke
LT0
0.50 0.50 0.50 C 966 2484 M
63 0 V
5918 0 R
-63 0 V
-6002 0 R
( 16.9705) Rshow
1.000 UL
LT0
0.50 0.50 0.50 C 1.000 UL
LTa
0.50 0.50 0.50 C 966 2575 M
5981 0 V
stroke
LT0
0.50 0.50 0.50 C 966 2575 M
63 0 V
5918 0 R
-63 0 V
-6002 0 R
( 17.6776) Rshow
1.000 UL
LT0
0.50 0.50 0.50 C 1.000 UL
LTa
0.50 0.50 0.50 C 966 2667 M
5981 0 V
stroke
LT0
0.50 0.50 0.50 C 966 2667 M
63 0 V
5918 0 R
-63 0 V
-6002 0 R
( 18.3848) Rshow
1.000 UL
LT0
0.50 0.50 0.50 C 1.000 UL
LTa
0.50 0.50 0.50 C 966 2759 M
5981 0 V
stroke
LT0
0.50 0.50 0.50 C 966 2759 M
63 0 V
5918 0 R
-63 0 V
-6002 0 R
( 19.0919) Rshow
1.000 UL
LT0
0.50 0.50 0.50 C 1.000 UL
LTa
0.50 0.50 0.50 C 966 2851 M
5981 0 V
stroke
LT0
0.50 0.50 0.50 C 966 2851 M
63 0 V
5918 0 R
-63 0 V
-6002 0 R
( 19.799) Rshow
1.000 UL
LT0
0.50 0.50 0.50 C 1.000 UL
LTa
0.50 0.50 0.50 C 966 2943 M
5981 0 V
stroke
LT0
0.50 0.50 0.50 C 966 2943 M
63 0 V
5918 0 R
-63 0 V
-6002 0 R
( 20.5061) Rshow
1.000 UL
LT0
0.50 0.50 0.50 C 1.000 UL
LTa
0.50 0.50 0.50 C 966 3035 M
5981 0 V
stroke
LT0
0.50 0.50 0.50 C 966 3035 M
63 0 V
5918 0 R
-63 0 V
-6002 0 R
( 21.2132) Rshow
1.000 UL
LT0
0.50 0.50 0.50 C 1.000 UL
LTa
0.50 0.50 0.50 C 966 3126 M
5981 0 V
stroke
LT0
0.50 0.50 0.50 C 966 3126 M
63 0 V
5918 0 R
-63 0 V
-6002 0 R
( 21.9203) Rshow
1.000 UL
LT0
0.50 0.50 0.50 C 1.000 UL
LTa
0.50 0.50 0.50 C 966 3218 M
5981 0 V
stroke
LT0
0.50 0.50 0.50 C 966 3218 M
63 0 V
5918 0 R
-63 0 V
-6002 0 R
( 22.6274) Rshow
1.000 UL
LT0
0.50 0.50 0.50 C 1.000 UL
LTa
0.50 0.50 0.50 C 966 3310 M
5981 0 V
stroke
LT0
0.50 0.50 0.50 C 966 3310 M
63 0 V
5918 0 R
-63 0 V
-6002 0 R
( 23.3345) Rshow
1.000 UL
LT0
0.50 0.50 0.50 C 1.000 UL
LTa
0.50 0.50 0.50 C 966 3402 M
5981 0 V
stroke
LT0
0.50 0.50 0.50 C 966 3402 M
63 0 V
5918 0 R
-63 0 V
-6002 0 R
( 24.0416) Rshow
1.000 UL
LT0
0.50 0.50 0.50 C 1.000 UL
LTa
0.50 0.50 0.50 C 966 3494 M
5981 0 V
stroke
LT0
0.50 0.50 0.50 C 966 3494 M
63 0 V
5918 0 R
-63 0 V
-6002 0 R
( 24.7487) Rshow
1.000 UL
LT0
0.50 0.50 0.50 C 1.000 UL
LTa
0.50 0.50 0.50 C 966 3586 M
5981 0 V
stroke
LT0
0.50 0.50 0.50 C 966 3586 M
63 0 V
5918 0 R
-63 0 V
-6002 0 R
( 25.4558) Rshow
1.000 UL
LT0
0.50 0.50 0.50 C 1.000 UL
LTa
0.50 0.50 0.50 C 966 3677 M
5981 0 V
stroke
LT0
0.50 0.50 0.50 C 966 3677 M
63 0 V
5918 0 R
-63 0 V
-6002 0 R
( 26.1629) Rshow
1.000 UL
LT0
0.50 0.50 0.50 C 1.000 UL
LTa
0.50 0.50 0.50 C 966 3769 M
5981 0 V
stroke
LT0
0.50 0.50 0.50 C 966 3769 M
63 0 V
5918 0 R
-63 0 V
-6002 0 R
( 26.87) Rshow
1.000 UL
LT0
0.50 0.50 0.50 C 1.000 UL
LTa
0.50 0.50 0.50 C 966 3861 M
5981 0 V
stroke
LT0
0.50 0.50 0.50 C 966 3861 M
63 0 V
5918 0 R
-63 0 V
-6002 0 R
( 27.5771) Rshow
1.000 UL
LT0
0.50 0.50 0.50 C 1.000 UL
LTa
0.50 0.50 0.50 C 966 3953 M
5981 0 V
stroke
LT0
0.50 0.50 0.50 C 966 3953 M
63 0 V
5918 0 R
-63 0 V
-6002 0 R
( 28.2842) Rshow
1.000 UL
LT0
0.50 0.50 0.50 C 1.000 UL
LTa
0.50 0.50 0.50 C 966 4045 M
5981 0 V
stroke
LT0
0.50 0.50 0.50 C 966 4045 M
63 0 V
5918 0 R
-63 0 V
-6002 0 R
( 28.9913) Rshow
1.000 UL
LT0
0.50 0.50 0.50 C 1.000 UL
LTa
0.50 0.50 0.50 C 966 4136 M
5981 0 V
stroke
LT0
0.50 0.50 0.50 C 966 4136 M
63 0 V
5918 0 R
-63 0 V
-6002 0 R
( 29.6985) Rshow
1.000 UL
LT0
0.50 0.50 0.50 C 1.000 UL
LTa
0.50 0.50 0.50 C 966 4228 M
5981 0 V
stroke
LT0
0.50 0.50 0.50 C 966 4228 M
63 0 V
5918 0 R
-63 0 V
-6002 0 R
( 30.4056) Rshow
1.000 UL
LT0
0.50 0.50 0.50 C 1.000 UL
LTa
0.50 0.50 0.50 C 966 4320 M
5981 0 V
stroke
LT0
0.50 0.50 0.50 C 966 4320 M
63 0 V
5918 0 R
-63 0 V
-6002 0 R
( 31.1127) Rshow
1.000 UL
LT0
0.50 0.50 0.50 C 1.000 UL
LTa
0.50 0.50 0.50 C 966 4412 M
5981 0 V
stroke
LT0
0.50 0.50 0.50 C 966 4412 M
63 0 V
5918 0 R
-63 0 V
-6002 0 R
( 31.8198) Rshow
1.000 UL
LT0
0.50 0.50 0.50 C 1.000 UL
LTa
0.50 0.50 0.50 C 966 4504 M
5981 0 V
stroke
LT0
0.50 0.50 0.50 C 966 4504 M
63 0 V
5918 0 R
-63 0 V
-6002 0 R
( 32.5269) Rshow
1.000 UL
LT0
0.50 0.50 0.50 C 1.000 UL
LTa
0.50 0.50 0.50 C 966 4596 M
5981 0 V
stroke
LT0
0.50 0.50 0.50 C 966 4596 M
63 0 V
5918 0 R
-63 0 V
-6002 0 R
( 33.234) Rshow
1.000 UL
LT0
0.50 0.50 0.50 C 1.000 UL
LTa
0.50 0.50 0.50 C 966 4687 M
5981 0 V
stroke
LT0
0.50 0.50 0.50 C 966 4687 M
63 0 V
5918 0 R
-63 0 V
-6002 0 R
( 33.9411) Rshow
1.000 UL
LT0
0.50 0.50 0.50 C 1.000 UL
LTa
0.50 0.50 0.50 C 966 4779 M
5981 0 V
stroke
LT0
0.50 0.50 0.50 C 966 4779 M
63 0 V
5918 0 R
-63 0 V
-6002 0 R
( 34.6482) Rshow
1.000 UL
LT0
0.50 0.50 0.50 C 1.000 UL
LTa
0.50 0.50 0.50 C 966 4871 M
5981 0 V
stroke
LT0
0.50 0.50 0.50 C 966 4871 M
63 0 V
5918 0 R
-63 0 V
-6002 0 R
( 35.3553) Rshow
1.000 UL
LT0
0.50 0.50 0.50 C 1.000 UL
LTa
0.50 0.50 0.50 C 966 280 M
0 4591 V
stroke
LT0
0.50 0.50 0.50 C 966 280 M
0 63 V
0 4528 R
0 -63 V
966 140 M
( 0) Cshow
1.000 UL
LT0
0.50 0.50 0.50 C 1.000 UL
LTa
0.50 0.50 0.50 C 1086 280 M
0 4591 V
stroke
LT0
0.50 0.50 0.50 C 1086 280 M
0 63 V
0 4528 R
0 -63 V
0 -4668 R
( 0.707106) Cshow
1.000 UL
LT0
0.50 0.50 0.50 C 1.000 UL
LTa
0.50 0.50 0.50 C 1205 280 M
0 4591 V
stroke
LT0
0.50 0.50 0.50 C 1205 280 M
0 63 V
0 4528 R
0 -63 V
0 -4668 R
( 1.41421) Cshow
1.000 UL
LT0
0.50 0.50 0.50 C 1.000 UL
LTa
0.50 0.50 0.50 C 1325 280 M
0 4591 V
stroke
LT0
0.50 0.50 0.50 C 1325 280 M
0 63 V
0 4528 R
0 -63 V
0 -4668 R
( 2.12132) Cshow
1.000 UL
LT0
0.50 0.50 0.50 C 1.000 UL
LTa
0.50 0.50 0.50 C 1444 280 M
0 4591 V
stroke
LT0
0.50 0.50 0.50 C 1444 280 M
0 63 V
0 4528 R
0 -63 V
0 -4668 R
( 2.82842) Cshow
1.000 UL
LT0
0.50 0.50 0.50 C 1.000 UL
LTa
0.50 0.50 0.50 C 1564 280 M
0 4591 V
stroke
LT0
0.50 0.50 0.50 C 1564 280 M
0 63 V
0 4528 R
0 -63 V
0 -4668 R
( 3.53553) Cshow
1.000 UL
LT0
0.50 0.50 0.50 C 1.000 UL
LTa
0.50 0.50 0.50 C 1684 280 M
0 4591 V
stroke
LT0
0.50 0.50 0.50 C 1684 280 M
0 63 V
0 4528 R
0 -63 V
0 -4668 R
( 4.24264) Cshow
1.000 UL
LT0
0.50 0.50 0.50 C 1.000 UL
LTa
0.50 0.50 0.50 C 1803 280 M
0 4591 V
stroke
LT0
0.50 0.50 0.50 C 1803 280 M
0 63 V
0 4528 R
0 -63 V
0 -4668 R
( 4.94974) Cshow
1.000 UL
LT0
0.50 0.50 0.50 C 1.000 UL
LTa
0.50 0.50 0.50 C 1923 280 M
0 4591 V
stroke
LT0
0.50 0.50 0.50 C 1923 280 M
0 63 V
0 4528 R
0 -63 V
0 -4668 R
( 5.65685) Cshow
1.000 UL
LT0
0.50 0.50 0.50 C 1.000 UL
LTa
0.50 0.50 0.50 C 2043 280 M
0 4591 V
stroke
LT0
0.50 0.50 0.50 C 2043 280 M
0 63 V
0 4528 R
0 -63 V
0 -4668 R
( 6.36395) Cshow
1.000 UL
LT0
0.50 0.50 0.50 C 1.000 UL
LTa
0.50 0.50 0.50 C 2162 280 M
0 4591 V
stroke
LT0
0.50 0.50 0.50 C 2162 280 M
0 63 V
0 4528 R
0 -63 V
0 -4668 R
( 7.07106) Cshow
1.000 UL
LT0
0.50 0.50 0.50 C 1.000 UL
LTa
0.50 0.50 0.50 C 2282 280 M
0 4591 V
stroke
LT0
0.50 0.50 0.50 C 2282 280 M
0 63 V
0 4528 R
0 -63 V
0 -4668 R
( 7.77817) Cshow
1.000 UL
LT0
0.50 0.50 0.50 C 1.000 UL
LTa
0.50 0.50 0.50 C 2401 280 M
0 4591 V
stroke
LT0
0.50 0.50 0.50 C 2401 280 M
0 63 V
0 4528 R
0 -63 V
0 -4668 R
( 8.48527) Cshow
1.000 UL
LT0
0.50 0.50 0.50 C 1.000 UL
LTa
0.50 0.50 0.50 C 2521 280 M
0 4591 V
stroke
LT0
0.50 0.50 0.50 C 2521 280 M
0 63 V
0 4528 R
0 -63 V
0 -4668 R
( 9.19238) Cshow
1.000 UL
LT0
0.50 0.50 0.50 C 1.000 UL
LTa
0.50 0.50 0.50 C 2641 280 M
0 4591 V
stroke
LT0
0.50 0.50 0.50 C 2641 280 M
0 63 V
0 4528 R
0 -63 V
0 -4668 R
( 9.89948) Cshow
1.000 UL
LT0
0.50 0.50 0.50 C 1.000 UL
LTa
0.50 0.50 0.50 C 2760 280 M
0 4591 V
stroke
LT0
0.50 0.50 0.50 C 2760 280 M
0 63 V
0 4528 R
0 -63 V
0 -4668 R
( 10.6066) Cshow
1.000 UL
LT0
0.50 0.50 0.50 C 1.000 UL
LTa
0.50 0.50 0.50 C 2880 280 M
0 4591 V
stroke
LT0
0.50 0.50 0.50 C 2880 280 M
0 63 V
0 4528 R
0 -63 V
0 -4668 R
( 11.3137) Cshow
1.000 UL
LT0
0.50 0.50 0.50 C 1.000 UL
LTa
0.50 0.50 0.50 C 3000 280 M
0 4591 V
stroke
LT0
0.50 0.50 0.50 C 3000 280 M
0 63 V
0 4528 R
0 -63 V
0 -4668 R
( 12.0208) Cshow
1.000 UL
LT0
0.50 0.50 0.50 C 1.000 UL
LTa
0.50 0.50 0.50 C 3119 280 M
0 4591 V
stroke
LT0
0.50 0.50 0.50 C 3119 280 M
0 63 V
0 4528 R
0 -63 V
0 -4668 R
( 12.7279) Cshow
1.000 UL
LT0
0.50 0.50 0.50 C 1.000 UL
LTa
0.50 0.50 0.50 C 3239 280 M
0 4591 V
stroke
LT0
0.50 0.50 0.50 C 3239 280 M
0 63 V
0 4528 R
0 -63 V
0 -4668 R
( 13.435) Cshow
1.000 UL
LT0
0.50 0.50 0.50 C 1.000 UL
LTa
0.50 0.50 0.50 C 3358 280 M
0 4591 V
stroke
LT0
0.50 0.50 0.50 C 3358 280 M
0 63 V
0 4528 R
0 -63 V
0 -4668 R
( 14.1421) Cshow
1.000 UL
LT0
0.50 0.50 0.50 C 1.000 UL
LTa
0.50 0.50 0.50 C 3478 280 M
0 4591 V
stroke
LT0
0.50 0.50 0.50 C 3478 280 M
0 63 V
0 4528 R
0 -63 V
0 -4668 R
( 14.8492) Cshow
1.000 UL
LT0
0.50 0.50 0.50 C 1.000 UL
LTa
0.50 0.50 0.50 C 3598 280 M
0 4591 V
stroke
LT0
0.50 0.50 0.50 C 3598 280 M
0 63 V
0 4528 R
0 -63 V
0 -4668 R
( 15.5563) Cshow
1.000 UL
LT0
0.50 0.50 0.50 C 1.000 UL
LTa
0.50 0.50 0.50 C 3717 280 M
0 4591 V
stroke
LT0
0.50 0.50 0.50 C 3717 280 M
0 63 V
0 4528 R
0 -63 V
0 -4668 R
( 16.2634) Cshow
1.000 UL
LT0
0.50 0.50 0.50 C 1.000 UL
LTa
0.50 0.50 0.50 C 3837 280 M
0 4591 V
stroke
LT0
0.50 0.50 0.50 C 3837 280 M
0 63 V
0 4528 R
0 -63 V
0 -4668 R
( 16.9705) Cshow
1.000 UL
LT0
0.50 0.50 0.50 C 1.000 UL
LTa
0.50 0.50 0.50 C 3956 280 M
0 4591 V
stroke
LT0
0.50 0.50 0.50 C 3956 280 M
0 63 V
0 4528 R
0 -63 V
0 -4668 R
( 17.6776) Cshow
1.000 UL
LT0
0.50 0.50 0.50 C 1.000 UL
LTa
0.50 0.50 0.50 C 4076 280 M
0 4591 V
stroke
LT0
0.50 0.50 0.50 C 4076 280 M
0 63 V
0 4528 R
0 -63 V
0 -4668 R
( 18.3848) Cshow
1.000 UL
LT0
0.50 0.50 0.50 C 1.000 UL
LTa
0.50 0.50 0.50 C 4196 280 M
0 4591 V
stroke
LT0
0.50 0.50 0.50 C 4196 280 M
0 63 V
0 4528 R
0 -63 V
0 -4668 R
( 19.0919) Cshow
1.000 UL
LT0
0.50 0.50 0.50 C 1.000 UL
LTa
0.50 0.50 0.50 C 4315 280 M
0 4591 V
stroke
LT0
0.50 0.50 0.50 C 4315 280 M
0 63 V
0 4528 R
0 -63 V
0 -4668 R
( 19.799) Cshow
1.000 UL
LT0
0.50 0.50 0.50 C 1.000 UL
LTa
0.50 0.50 0.50 C 4435 280 M
0 4591 V
stroke
LT0
0.50 0.50 0.50 C 4435 280 M
0 63 V
0 4528 R
0 -63 V
0 -4668 R
( 20.5061) Cshow
1.000 UL
LT0
0.50 0.50 0.50 C 1.000 UL
LTa
0.50 0.50 0.50 C 4555 280 M
0 4591 V
stroke
LT0
0.50 0.50 0.50 C 4555 280 M
0 63 V
0 4528 R
0 -63 V
0 -4668 R
( 21.2132) Cshow
1.000 UL
LT0
0.50 0.50 0.50 C 1.000 UL
LTa
0.50 0.50 0.50 C 4674 280 M
0 4591 V
stroke
LT0
0.50 0.50 0.50 C 4674 280 M
0 63 V
0 4528 R
0 -63 V
0 -4668 R
( 21.9203) Cshow
1.000 UL
LT0
0.50 0.50 0.50 C 1.000 UL
LTa
0.50 0.50 0.50 C 4794 280 M
0 4591 V
stroke
LT0
0.50 0.50 0.50 C 4794 280 M
0 63 V
0 4528 R
0 -63 V
0 -4668 R
( 22.6274) Cshow
1.000 UL
LT0
0.50 0.50 0.50 C 1.000 UL
LTa
0.50 0.50 0.50 C 4913 280 M
0 4591 V
stroke
LT0
0.50 0.50 0.50 C 4913 280 M
0 63 V
0 4528 R
0 -63 V
0 -4668 R
( 23.3345) Cshow
1.000 UL
LT0
0.50 0.50 0.50 C 1.000 UL
LTa
0.50 0.50 0.50 C 5033 280 M
0 4591 V
stroke
LT0
0.50 0.50 0.50 C 5033 280 M
0 63 V
0 4528 R
0 -63 V
0 -4668 R
( 24.0416) Cshow
1.000 UL
LT0
0.50 0.50 0.50 C 1.000 UL
LTa
0.50 0.50 0.50 C 5153 280 M
0 4591 V
stroke
LT0
0.50 0.50 0.50 C 5153 280 M
0 63 V
0 4528 R
0 -63 V
0 -4668 R
( 24.7487) Cshow
1.000 UL
LT0
0.50 0.50 0.50 C 1.000 UL
LTa
0.50 0.50 0.50 C 5272 280 M
0 4591 V
stroke
LT0
0.50 0.50 0.50 C 5272 280 M
0 63 V
0 4528 R
0 -63 V
0 -4668 R
( 25.4558) Cshow
1.000 UL
LT0
0.50 0.50 0.50 C 1.000 UL
LTa
0.50 0.50 0.50 C 5392 280 M
0 4591 V
stroke
LT0
0.50 0.50 0.50 C 5392 280 M
0 63 V
0 4528 R
0 -63 V
0 -4668 R
( 26.1629) Cshow
1.000 UL
LT0
0.50 0.50 0.50 C 1.000 UL
LTa
0.50 0.50 0.50 C 5512 280 M
0 4591 V
stroke
LT0
0.50 0.50 0.50 C 5512 280 M
0 63 V
0 4528 R
0 -63 V
0 -4668 R
( 26.87) Cshow
1.000 UL
LT0
0.50 0.50 0.50 C 1.000 UL
LTa
0.50 0.50 0.50 C 5631 280 M
0 4591 V
stroke
LT0
0.50 0.50 0.50 C 5631 280 M
0 63 V
0 4528 R
0 -63 V
0 -4668 R
( 27.5771) Cshow
1.000 UL
LT0
0.50 0.50 0.50 C 1.000 UL
LTa
0.50 0.50 0.50 C 5751 280 M
0 4591 V
stroke
LT0
0.50 0.50 0.50 C 5751 280 M
0 63 V
0 4528 R
0 -63 V
0 -4668 R
( 28.2842) Cshow
1.000 UL
LT0
0.50 0.50 0.50 C 1.000 UL
LTa
0.50 0.50 0.50 C 5870 280 M
0 4591 V
stroke
LT0
0.50 0.50 0.50 C 5870 280 M
0 63 V
0 4528 R
0 -63 V
0 -4668 R
( 28.9913) Cshow
1.000 UL
LT0
0.50 0.50 0.50 C 1.000 UL
LTa
0.50 0.50 0.50 C 5990 280 M
0 4591 V
stroke
LT0
0.50 0.50 0.50 C 5990 280 M
0 63 V
0 4528 R
0 -63 V
0 -4668 R
( 29.6985) Cshow
1.000 UL
LT0
0.50 0.50 0.50 C 1.000 UL
LTa
0.50 0.50 0.50 C 6110 280 M
0 4591 V
stroke
LT0
0.50 0.50 0.50 C 6110 280 M
0 63 V
0 4528 R
0 -63 V
0 -4668 R
( 30.4056) Cshow
1.000 UL
LT0
0.50 0.50 0.50 C 1.000 UL
LTa
0.50 0.50 0.50 C 6229 280 M
0 4591 V
stroke
LT0
0.50 0.50 0.50 C 6229 280 M
0 63 V
0 4528 R
0 -63 V
0 -4668 R
( 31.1127) Cshow
1.000 UL
LT0
0.50 0.50 0.50 C 1.000 UL
LTa
0.50 0.50 0.50 C 6349 280 M
0 4591 V
stroke
LT0
0.50 0.50 0.50 C 6349 280 M
0 63 V
0 4528 R
0 -63 V
0 -4668 R
( 31.8198) Cshow
1.000 UL
LT0
0.50 0.50 0.50 C 1.000 UL
LTa
0.50 0.50 0.50 C 6469 280 M
0 4591 V
stroke
LT0
0.50 0.50 0.50 C 6469 280 M
0 63 V
0 4528 R
0 -63 V
0 -4668 R
( 32.5269) Cshow
1.000 UL
LT0
0.50 0.50 0.50 C 1.000 UL
LTa
0.50 0.50 0.50 C 6588 280 M
0 4591 V
stroke
LT0
0.50 0.50 0.50 C 6588 280 M
0 63 V
0 4528 R
0 -63 V
0 -4668 R
( 33.234) Cshow
1.000 UL
LT0
0.50 0.50 0.50 C 1.000 UL
LTa
0.50 0.50 0.50 C 6708 280 M
0 4591 V
stroke
LT0
0.50 0.50 0.50 C 6708 280 M
0 63 V
0 4528 R
0 -63 V
0 -4668 R
( 33.9411) Cshow
1.000 UL
LT0
0.50 0.50 0.50 C 1.000 UL
LTa
0.50 0.50 0.50 C 6827 280 M
0 4591 V
stroke
LT0
0.50 0.50 0.50 C 6827 280 M
0 63 V
0 4528 R
0 -63 V
0 -4668 R
( 34.6482) Cshow
1.000 UL
LT0
0.50 0.50 0.50 C 1.000 UL
LTa
0.50 0.50 0.50 C 6947 280 M
0 4591 V
stroke
LT0
0.50 0.50 0.50 C 6947 280 M
0 63 V
0 4528 R
0 -63 V
0 -4668 R
( 35.3553) Cshow
1.000 UL
LT0
0.50 0.50 0.50 C 1.000 UL
LT0
0.50 0.50 0.50 C 966 4871 M
966 280 L
5981 0 V
0 4591 R
-5981 0 R
1.000 UP
stroke
LT0
0.50 0.50 0.50 C % Begin plot #1
1.500 UP
2.000 UL
LT0
0.00 0.00 1.00 C /Helvetica findfont 140 scalefont setfont
/vshift -46 def
966 372 M
120 0 V
0 92 R
119 0 V
0 1469 R
120 0 V
0 92 R
119 0 V
0 367 R
120 0 V
120 0 V
119 0 V
120 0 V
120 0 V
119 0 V
0 92 R
120 0 V
0 918 R
119 0 V
120 0 V
120 0 V
119 0 V
120 0 V
120 0 V
119 0 V
120 0 V
119 0 V
120 0 V
120 0 V
119 0 V
120 0 V
120 0 V
119 0 V
120 0 V
119 0 V
120 0 V
120 0 V
119 0 V
120 0 V
119 0 V
120 0 V
120 0 V
119 0 V
0 184 R
120 0 V
120 0 V
119 0 V
120 0 V
119 0 V
120 0 V
0 642 R
120 0 V
119 0 V
0 92 R
120 0 V
0 92 R
120 0 V
119 0 V
120 0 V
119 459 R
120 0 V
-239 0 R
119 0 V
1086 372 M
0 92 V
119 0 R
0 91 V
0 92 V
0 92 V
0 92 V
0 92 V
0 92 V
0 91 V
0 92 V
0 92 V
0 92 V
0 92 V
0 91 V
0 92 V
0 92 V
0 92 V
0 92 V
120 0 R
0 92 V
119 0 R
0 91 V
0 92 V
0 92 V
0 92 V
718 0 R
0 92 V
120 0 R
0 92 V
0 91 V
0 92 V
0 92 V
0 92 V
0 92 V
0 91 V
0 92 V
0 92 V
0 92 V
2990 0 R
0 92 V
0 92 V
stroke 5272 3586 M
718 0 R
0 91 V
0 92 V
0 92 V
0 92 V
0 92 V
0 91 V
0 92 V
239 0 R
0 92 V
120 0 R
0 92 V
359 0 R
0 92 V
0 92 V
0 91 V
0 92 V
0 92 V
966 280 M
0 92 V
966 372 CircleF
1086 372 CircleF
1086 464 CircleF
1205 464 CircleF
1205 1933 CircleF
1325 1933 CircleF
1325 2025 CircleF
1444 2025 CircleF
1444 2392 CircleF
1564 2392 CircleF
1564 2392 CircleF
1684 2392 CircleF
1684 2392 CircleF
1803 2392 CircleF
1803 2392 CircleF
1923 2392 CircleF
1923 2392 CircleF
2043 2392 CircleF
2043 2392 CircleF
2162 2392 CircleF
2162 2484 CircleF
2282 2484 CircleF
2282 3402 CircleF
2401 3402 CircleF
2401 3402 CircleF
2521 3402 CircleF
2521 3402 CircleF
2641 3402 CircleF
2641 3402 CircleF
2760 3402 CircleF
2760 3402 CircleF
2880 3402 CircleF
2880 3402 CircleF
3000 3402 CircleF
3000 3402 CircleF
3119 3402 CircleF
3119 3402 CircleF
3239 3402 CircleF
3239 3402 CircleF
3358 3402 CircleF
3358 3402 CircleF
3478 3402 CircleF
3478 3402 CircleF
3598 3402 CircleF
3598 3402 CircleF
3717 3402 CircleF
3717 3402 CircleF
3837 3402 CircleF
3837 3402 CircleF
3957 3402 CircleF
3957 3402 CircleF
4076 3402 CircleF
4076 3402 CircleF
4196 3402 CircleF
4196 3402 CircleF
4315 3402 CircleF
4315 3402 CircleF
4435 3402 CircleF
4435 3402 CircleF
4555 3402 CircleF
4555 3402 CircleF
4674 3402 CircleF
4674 3402 CircleF
4794 3402 CircleF
4794 3402 CircleF
4913 3402 CircleF
4913 3402 CircleF
5033 3402 CircleF
5033 3402 CircleF
5153 3402 CircleF
5153 3402 CircleF
5272 3402 CircleF
5272 3586 CircleF
5392 3586 CircleF
5392 3586 CircleF
5512 3586 CircleF
5512 3586 CircleF
5631 3586 CircleF
5631 3586 CircleF
5751 3586 CircleF
5751 3586 CircleF
5870 3586 CircleF
5870 3586 CircleF
5990 3586 CircleF
5990 4228 CircleF
6110 4228 CircleF
6110 4228 CircleF
6229 4228 CircleF
6229 4320 CircleF
6349 4320 CircleF
6349 4412 CircleF
6469 4412 CircleF
6469 4412 CircleF
6588 4412 CircleF
6588 4412 CircleF
6708 4412 CircleF
6827 4871 CircleF
6947 4871 CircleF
6708 4871 CircleF
6827 4871 CircleF
1086 372 CircleF
1086 464 CircleF
1205 464 CircleF
1205 555 CircleF
1205 555 CircleF
1205 647 CircleF
1205 647 CircleF
1205 739 CircleF
1205 739 CircleF
1205 831 CircleF
1205 831 CircleF
1205 923 CircleF
1205 923 CircleF
1205 1015 CircleF
1205 1015 CircleF
1205 1106 CircleF
1205 1106 CircleF
1205 1198 CircleF
1205 1198 CircleF
1205 1290 CircleF
1205 1290 CircleF
1205 1382 CircleF
1205 1382 CircleF
1205 1474 CircleF
1205 1474 CircleF
1205 1565 CircleF
1205 1565 CircleF
1205 1657 CircleF
1205 1657 CircleF
1205 1749 CircleF
1205 1749 CircleF
1205 1841 CircleF
1205 1841 CircleF
1205 1933 CircleF
1325 1933 CircleF
1325 2025 CircleF
1444 2025 CircleF
1444 2116 CircleF
1444 2116 CircleF
1444 2208 CircleF
1444 2208 CircleF
1444 2300 CircleF
1444 2300 CircleF
1444 2392 CircleF
2162 2392 CircleF
2162 2484 CircleF
2282 2484 CircleF
2282 2576 CircleF
2282 2576 CircleF
2282 2667 CircleF
2282 2667 CircleF
2282 2759 CircleF
2282 2759 CircleF
2282 2851 CircleF
2282 2851 CircleF
2282 2943 CircleF
2282 2943 CircleF
2282 3035 CircleF
2282 3035 CircleF
2282 3126 CircleF
2282 3126 CircleF
2282 3218 CircleF
2282 3218 CircleF
2282 3310 CircleF
2282 3310 CircleF
2282 3402 CircleF
5272 3402 CircleF
5272 3494 CircleF
5272 3494 CircleF
5272 3586 CircleF
5990 3586 CircleF
5990 3677 CircleF
5990 3677 CircleF
5990 3769 CircleF
5990 3769 CircleF
5990 3861 CircleF
5990 3861 CircleF
5990 3953 CircleF
5990 3953 CircleF
5990 4045 CircleF
5990 4045 CircleF
5990 4136 CircleF
5990 4136 CircleF
5990 4228 CircleF
6229 4228 CircleF
6229 4320 CircleF
6349 4320 CircleF
6349 4412 CircleF
6708 4412 CircleF
6708 4504 CircleF
6708 4504 CircleF
6708 4596 CircleF
6708 4596 CircleF
6708 4687 CircleF
6708 4687 CircleF
6708 4779 CircleF
6708 4779 CircleF
6708 4871 CircleF
966 280 CircleF
966 372 CircleF
% End plot #1
% Begin plot #2
1.500 UP
2.000 UL
LT0
1.00 0.55 0.00 C /Helvetica findfont 140 scalefont setfont
2185 2524 M
217 166 V
2187 168 R
222 170 V
33 -1202 R
224 171 V
593 -647 R
165 126 V
1403 2325 M
170 131 V
3377 2034 M
124 96 V
312 -835 R
231 177 V
6467 3638 M
121 93 V
-691 201 R
157 121 V
1089 560 M
149 115 V
4081 4095 M
198 152 V
3753 1815 M
214 164 V
2584 1156 M
209 161 V
4318 3009 M
177 136 V
382 732 R
195 149 V
2754 2777 M
221 171 V
1548 390 R
183 141 V
2333 4219 M
212 163 V
2413 4203 M
191 147 V
3481 3346 M
138 106 V
4869 1806 M
150 115 V
3559 1308 M
152 117 V
5664 3241 M
131 101 V
3296 1458 M
190 145 V
648 51 R
197 152 V
6087 3466 M
209 160 V
5970 1571 M
173 132 V
1551 3005 M
142 109 V
2109 852 R
235 181 V
3457 790 M
165 127 V
825 3261 R
218 167 V
4334 977 M
176 135 V
6425 396 M
230 176 V
1744 1672 M
170 130 V
990 -655 R
178 136 V
6096 4536 M
145 111 V
1925 1993 M
214 164 V
4715 3249 M
159 122 V
1776 2664 M
230 176 V
5454 1661 M
201 153 V
4813 623 M
188 144 V
3825 1652 M
150 115 V
5855 2909 M
230 177 V
4601 523 M
206 158 V
2598 1743 M
189 145 V
2659 1635 M
197 152 V
977 296 R
208 159 V
1473 1064 M
172 132 V
3579 2409 M
234 180 V
5945 2332 M
142 109 V
1123 1492 M
126 96 V
441 738 R
158 121 V
3453 572 R
143 109 V
stroke 5444 3128 M
1872 1185 M
201 155 V
3868 4638 M
217 166 V
3897 570 M
173 133 V
2937 4108 M
143 109 V
2197 2851 M
162 125 V
3923 333 R
231 177 V
1253 4174 M
128 98 V
3775 287 M
236 182 V
16 344 R
181 138 V
2055 1462 M
171 131 V
4661 2726 M
214 164 V
133 -109 R
123 94 V
2213 2677 M
129 99 V
2044 861 M
191 147 V
1713 191 R
137 105 V
6596 364 M
178 137 V
2488 1522 M
184 142 V
613 2558 R
175 135 V
4445 2195 M
140 108 V
54 -575 R
168 130 V
431 1557 R
155 119 V
5216 614 M
173 133 V
6455 3354 M
236 182 V
2101 2491 M
229 176 V
4109 475 R
227 174 V
6402 4333 M
129 99 V
4858 1053 M
172 132 V
873 3176 R
135 103 V
6017 1583 M
173 132 V
2468 4472 M
230 176 V
1641 3652 M
171 132 V
4235 376 R
184 142 V
-55 -110 R
177 136 V
1598 2762 M
133 102 V
3435 1235 M
149 114 V
6392 3943 M
149 115 V
5443 3572 M
165 127 V
1739 3639 M
169 130 V
5989 1945 M
197 151 V
4558 3254 M
214 164 V
4856 908 M
188 144 V
-750 396 R
234 180 V
1234 4201 M
170 130 V
411 -78 R
230 176 V
2292 1416 M
209 161 V
1406 3457 M
178 137 V
3951 2913 M
224 172 V
1975 3798 M
220 168 V
-462 302 R
197 151 V
4118 386 M
140 107 V
-86 174 R
163 125 V
3445 1933 M
228 176 V
stroke 3673 2109 M
613 1178 R
232 178 V
5658 2592 M
129 98 V
885 -657 R
140 107 V
3955 3654 M
192 148 V
2050 2354 M
179 137 V
6558 4374 M
143 110 V
6418 809 M
172 132 V
4300 4242 M
231 177 V
4046 1523 M
190 146 V
1939 3204 M
158 122 V
3492 1370 M
212 162 V
1620 1462 M
168 129 V
2589 612 R
215 164 V
5707 448 M
222 170 V
4282 2438 M
131 100 V
3558 300 M
183 140 V
2267 345 M
157 120 V
4549 3771 M
125 96 V
2246 1074 M
238 183 V
362 2787 R
188 145 V
5905 569 M
153 117 V
3319 2603 M
153 118 V
1087 3157 M
209 161 V
4410 2273 M
155 119 V
2107 580 M
211 162 V
4706 3297 M
210 161 V
2150 3026 M
204 156 V
-930 334 R
168 129 V
4168 1919 M
228 175 V
4831 527 M
215 166 V
2319 4591 M
218 167 V
5483 2404 M
165 126 V
5536 4143 M
234 179 V
4748 804 M
166 127 V
4272 563 M
215 165 V
2647 3494 M
134 102 V
5848 1313 M
150 115 V
2997 3392 M
210 161 V
5671 4641 M
186 144 V
1748 3339 M
140 108 V
4022 227 R
177 135 V
3275 3910 M
193 148 V
2440 36 R
189 145 V
3839 4615 M
188 144 V
3357 1765 M
140 108 V
-218 771 R
206 158 V
5852 2560 M
173 133 V
4371 2059 M
132 102 V
969 4159 M
206 158 V
5585 4033 M
145 111 V
5386 1808 M
175 134 V
3518 2985 M
237 183 V
stroke 3755 3168 M
5174 1417 M
206 159 V
-2358 10 R
171 131 V
15 2469 R
164 127 V
1820 3489 M
171 131 V
2242 645 M
190 146 V
3525 811 R
167 128 V
2329 3298 M
193 148 V
3739 2202 M
227 175 V
3384 1940 M
151 116 V
3047 442 M
157 120 V
1125 1510 M
237 182 V
6640 2697 M
131 100 V
2582 952 M
132 102 V
6343 285 M
194 149 V
4082 2267 M
122 93 V
2079 3080 M
231 177 V
6603 2857 M
217 167 V
3254 2395 M
197 151 V
1026 3566 M
187 144 V
2292 3586 M
198 151 V
1169 1465 M
226 173 V
4642 780 R
186 142 V
2822 2060 M
149 114 V
1443 2526 M
214 165 V
4316 910 R
236 181 V
319 762 R
192 148 V
4787 1503 M
195 151 V
5419 575 M
138 105 V
1638 2390 M
227 175 V
1694 4524 M
180 138 V
1264 1890 M
182 140 V
70 2200 R
221 169 V
6242 1933 M
151 116 V
2475 712 M
127 99 V
1860 4650 M
202 155 V
4838 473 M
173 133 V
356 2172 R
145 111 V
-101 -21 R
159 122 V
5039 4406 M
195 149 V
4977 1016 M
128 98 V
677 3079 R
140 108 V
3912 2688 M
129 99 V
-209 402 R
203 155 V
3562 4437 M
161 123 V
3171 4337 M
203 156 V
6517 3726 M
230 176 V
3656 1180 M
178 137 V
384 1970 R
130 99 V
890 84 R
198 152 V
6459 1293 M
224 172 V
-576 269 R
180 138 V
4220 582 M
170 131 V
stroke 4390 713 M
1216 4449 M
219 168 V
5634 2618 M
166 127 V
4808 2450 M
178 136 V
2087 2834 M
229 175 V
5292 1902 M
178 136 V
4866 4628 M
229 176 V
1865 607 M
193 148 V
1272 3979 M
216 166 V
5856 3214 M
223 171 V
3991 634 M
121 92 V
5479 365 M
170 130 V
3367 4382 M
137 105 V
-1459 34 R
155 119 V
80 -1284 R
201 153 V
2814 636 M
162 124 V
2370 2242 M
137 105 V
3780 983 M
209 160 V
3457 3572 M
205 157 V
5274 3216 M
172 131 V
610 -613 R
169 130 V
4078 726 M
174 133 V
5527 3460 M
177 136 V
3181 1658 M
231 178 V
1988 2794 M
216 165 V
1521 489 R
236 181 V
2555 3931 M
123 94 V
1146 3987 M
153 118 V
5470 3483 M
143 109 V
4827 3331 M
191 147 V
1459 1513 M
175 134 V
153 2751 R
144 110 V
5624 2329 M
222 171 V
-955 385 R
221 170 V
4118 421 M
150 115 V
-58 279 R
181 139 V
2704 3321 M
134 102 V
2204 2976 M
215 166 V
27 1219 R
189 144 V
6127 2042 M
172 131 V
3415 2631 M
151 116 V
2837 998 R
164 126 V
4022 4433 M
161 124 V
3249 3343 M
198 152 V
1558 304 R
205 157 V
1400 404 M
185 142 V
908 1423 R
139 107 V
-314 187 R
177 136 V
2074 2221 M
133 102 V
5006 653 M
178 137 V
3378 770 M
126 97 V
5374 809 M
153 118 V
-78 3626 R
183 141 V
stroke 5632 4694 M
386 -414 R
129 99 V
5694 4118 M
143 109 V
3578 3925 M
152 117 V
4649 1093 M
210 161 V
2195 3832 M
180 138 V
6270 677 M
212 163 V
1377 3095 M
137 105 V
1173 2605 M
155 118 V
3074 3887 M
128 98 V
4956 1930 M
156 119 V
2739 3018 M
138 106 V
4660 1274 M
120 92 V
1255 2502 M
237 181 V
3815 1440 M
124 95 V
5700 2873 M
196 150 V
2906 2259 M
181 139 V
4792 4537 M
124 95 V
-477 50 R
159 122 V
5165 2752 M
163 125 V
1427 2261 M
225 173 V
6314 3498 M
151 116 V
2703 955 M
210 161 V
6133 2346 M
140 107 V
1660 4311 M
187 143 V
4648 4172 M
169 130 V
1347 1240 M
163 124 V
1497 542 M
216 166 V
1062 386 M
236 181 V
3595 2668 M
159 122 V
395 -788 R
184 140 V
3836 3226 M
165 126 V
2674 4524 M
137 106 V
3459 416 M
190 146 V
1333 4621 M
125 96 V
2045 732 M
120 92 V
5214 2217 M
207 158 V
565 -875 R
207 159 V
2193 1890 M
217 166 V
-749 195 R
124 95 V
2185 2524 CircleF
2402 2690 CircleF
4589 2858 CircleF
4811 3028 CircleF
4844 1826 CircleF
5068 1997 CircleF
5661 1350 CircleF
5826 1476 CircleF
1403 2325 CircleF
1573 2456 CircleF
3377 2034 CircleF
3501 2130 CircleF
3813 1295 CircleF
4044 1472 CircleF
6467 3638 CircleF
6588 3731 CircleF
5897 3932 CircleF
6054 4053 CircleF
1089 560 CircleF
1238 675 CircleF
4081 4095 CircleF
4279 4247 CircleF
3753 1815 CircleF
3967 1979 CircleF
2584 1156 CircleF
2793 1317 CircleF
4318 3009 CircleF
4495 3145 CircleF
4877 3877 CircleF
5072 4026 CircleF
2754 2777 CircleF
2975 2948 CircleF
4523 3338 CircleF
4706 3479 CircleF
2333 4219 CircleF
2545 4382 CircleF
2413 4203 CircleF
2604 4350 CircleF
3481 3346 CircleF
3619 3452 CircleF
4869 1806 CircleF
5019 1921 CircleF
3559 1308 CircleF
3711 1425 CircleF
5664 3241 CircleF
5795 3342 CircleF
3296 1458 CircleF
3486 1603 CircleF
4134 1654 CircleF
4331 1806 CircleF
6087 3466 CircleF
6296 3626 CircleF
5970 1571 CircleF
6143 1703 CircleF
1551 3005 CircleF
1693 3114 CircleF
3802 3966 CircleF
4037 4147 CircleF
3457 790 CircleF
3622 917 CircleF
4447 4178 CircleF
4665 4345 CircleF
4334 977 CircleF
4510 1112 CircleF
6425 396 CircleF
6655 572 CircleF
1744 1672 CircleF
1914 1802 CircleF
2904 1147 CircleF
3082 1283 CircleF
6096 4536 CircleF
6241 4647 CircleF
1925 1993 CircleF
2139 2157 CircleF
4715 3249 CircleF
4874 3371 CircleF
1776 2664 CircleF
2006 2840 CircleF
5454 1661 CircleF
5655 1814 CircleF
4813 623 CircleF
5001 767 CircleF
3825 1652 CircleF
3975 1767 CircleF
5855 2909 CircleF
6085 3086 CircleF
4601 523 CircleF
4807 681 CircleF
2598 1743 CircleF
2787 1888 CircleF
2659 1635 CircleF
2856 1787 CircleF
3833 2083 CircleF
4041 2242 CircleF
1473 1064 CircleF
1645 1196 CircleF
3579 2409 CircleF
3813 2589 CircleF
5945 2332 CircleF
6087 2441 CircleF
1123 1492 CircleF
1249 1588 CircleF
1690 2326 CircleF
1848 2447 CircleF
5301 3019 CircleF
5444 3128 CircleF
1872 1185 CircleF
2073 1340 CircleF
3868 4638 CircleF
4085 4804 CircleF
3897 570 CircleF
4070 703 CircleF
2937 4108 CircleF
3080 4217 CircleF
2197 2851 CircleF
2359 2976 CircleF
6282 3309 CircleF
6513 3486 CircleF
1253 4174 CircleF
1381 4272 CircleF
3775 287 CircleF
4011 469 CircleF
4027 813 CircleF
4208 951 CircleF
2055 1462 CircleF
2226 1593 CircleF
4661 2726 CircleF
4875 2890 CircleF
5008 2781 CircleF
5131 2875 CircleF
2213 2677 CircleF
2342 2776 CircleF
2044 861 CircleF
2235 1008 CircleF
3948 1199 CircleF
4085 1304 CircleF
6596 364 CircleF
6774 501 CircleF
2488 1522 CircleF
2672 1664 CircleF
3285 4222 CircleF
3460 4357 CircleF
4445 2195 CircleF
4585 2303 CircleF
4639 1728 CircleF
4807 1858 CircleF
5238 3415 CircleF
5393 3534 CircleF
5216 614 CircleF
5389 747 CircleF
6455 3354 CircleF
6691 3536 CircleF
2101 2491 CircleF
2330 2667 CircleF
6439 3142 CircleF
6666 3316 CircleF
6402 4333 CircleF
6531 4432 CircleF
4858 1053 CircleF
5030 1185 CircleF
5903 4361 CircleF
6038 4464 CircleF
6017 1583 CircleF
6190 1715 CircleF
2468 4472 CircleF
2698 4648 CircleF
1641 3652 CircleF
1812 3784 CircleF
6047 4160 CircleF
6231 4302 CircleF
6176 4192 CircleF
6353 4328 CircleF
1598 2762 CircleF
1731 2864 CircleF
3435 1235 CircleF
3584 1349 CircleF
6392 3943 CircleF
6541 4058 CircleF
5443 3572 CircleF
5608 3699 CircleF
1739 3639 CircleF
1908 3769 CircleF
5989 1945 CircleF
6186 2096 CircleF
4558 3254 CircleF
4772 3418 CircleF
4856 908 CircleF
5044 1052 CircleF
4294 1448 CircleF
4528 1628 CircleF
1234 4201 CircleF
1404 4331 CircleF
1815 4253 CircleF
2045 4429 CircleF
2292 1416 CircleF
2501 1577 CircleF
1406 3457 CircleF
1584 3594 CircleF
3951 2913 CircleF
4175 3085 CircleF
1975 3798 CircleF
2195 3966 CircleF
1733 4268 CircleF
1930 4419 CircleF
4118 386 CircleF
4258 493 CircleF
4172 667 CircleF
4335 792 CircleF
3445 1933 CircleF
3673 2109 CircleF
4286 3287 CircleF
4518 3465 CircleF
5658 2592 CircleF
5787 2690 CircleF
6672 2033 CircleF
6812 2140 CircleF
3955 3654 CircleF
4147 3802 CircleF
2050 2354 CircleF
2229 2491 CircleF
6558 4374 CircleF
6701 4484 CircleF
6418 809 CircleF
6590 941 CircleF
4300 4242 CircleF
4531 4419 CircleF
4046 1523 CircleF
4236 1669 CircleF
1939 3204 CircleF
2097 3326 CircleF
3492 1370 CircleF
3704 1532 CircleF
1620 1462 CircleF
1788 1591 CircleF
4377 2203 CircleF
4592 2367 CircleF
5707 448 CircleF
5929 618 CircleF
4282 2438 CircleF
4413 2538 CircleF
3558 300 CircleF
3741 440 CircleF
2267 345 CircleF
2424 465 CircleF
4549 3771 CircleF
4674 3867 CircleF
2246 1074 CircleF
2484 1257 CircleF
2846 4044 CircleF
3034 4189 CircleF
5905 569 CircleF
6058 686 CircleF
3319 2603 CircleF
3472 2721 CircleF
1087 3157 CircleF
1296 3318 CircleF
4410 2273 CircleF
4565 2392 CircleF
2107 580 CircleF
2318 742 CircleF
4706 3297 CircleF
4916 3458 CircleF
2150 3026 CircleF
2354 3182 CircleF
1424 3516 CircleF
1592 3645 CircleF
4168 1919 CircleF
4396 2094 CircleF
4831 527 CircleF
5046 693 CircleF
2319 4591 CircleF
2537 4758 CircleF
5483 2404 CircleF
5648 2530 CircleF
5536 4143 CircleF
5770 4322 CircleF
4748 804 CircleF
4914 931 CircleF
4272 563 CircleF
4487 728 CircleF
2647 3494 CircleF
2781 3596 CircleF
5848 1313 CircleF
5998 1428 CircleF
2997 3392 CircleF
3207 3553 CircleF
5671 4641 CircleF
5857 4785 CircleF
1748 3339 CircleF
1888 3447 CircleF
5910 3674 CircleF
6087 3809 CircleF
3275 3910 CircleF
3468 4058 CircleF
5908 4094 CircleF
6097 4239 CircleF
3839 4615 CircleF
4027 4759 CircleF
3357 1765 CircleF
3497 1873 CircleF
3279 2644 CircleF
3485 2802 CircleF
5852 2560 CircleF
6025 2693 CircleF
4371 2059 CircleF
4503 2161 CircleF
969 4159 CircleF
1175 4317 CircleF
5585 4033 CircleF
5730 4144 CircleF
5386 1808 CircleF
5561 1942 CircleF
3518 2985 CircleF
3755 3168 CircleF
5174 1417 CircleF
5380 1576 CircleF
3022 1586 CircleF
3193 1717 CircleF
3208 4186 CircleF
3372 4313 CircleF
1820 3489 CircleF
1991 3620 CircleF
2242 645 CircleF
2432 791 CircleF
5957 1602 CircleF
6124 1730 CircleF
2329 3298 CircleF
2522 3446 CircleF
3739 2202 CircleF
3966 2377 CircleF
3384 1940 CircleF
3535 2056 CircleF
3047 442 CircleF
3204 562 CircleF
1125 1510 CircleF
1362 1692 CircleF
6640 2697 CircleF
6771 2797 CircleF
2582 952 CircleF
2714 1054 CircleF
6343 285 CircleF
6537 434 CircleF
4082 2267 CircleF
4204 2360 CircleF
2079 3080 CircleF
2310 3257 CircleF
6603 2857 CircleF
6820 3024 CircleF
3254 2395 CircleF
3451 2546 CircleF
1026 3566 CircleF
1213 3710 CircleF
2292 3586 CircleF
2490 3737 CircleF
1169 1465 CircleF
1395 1638 CircleF
6037 2418 CircleF
6223 2560 CircleF
2822 2060 CircleF
2971 2174 CircleF
1443 2526 CircleF
1657 2691 CircleF
5973 3601 CircleF
6209 3782 CircleF
6528 4544 CircleF
6720 4692 CircleF
4787 1503 CircleF
4982 1654 CircleF
5419 575 CircleF
5557 680 CircleF
1638 2390 CircleF
1865 2565 CircleF
1694 4524 CircleF
1874 4662 CircleF
1264 1890 CircleF
1446 2030 CircleF
1516 4230 CircleF
1737 4399 CircleF
6242 1933 CircleF
6393 2049 CircleF
2475 712 CircleF
2602 811 CircleF
1860 4650 CircleF
2062 4805 CircleF
4838 473 CircleF
5011 606 CircleF
5367 2778 CircleF
5512 2889 CircleF
5411 2868 CircleF
5570 2990 CircleF
5039 4406 CircleF
5234 4555 CircleF
4977 1016 CircleF
5105 1114 CircleF
5782 4193 CircleF
5922 4301 CircleF
3912 2688 CircleF
4041 2787 CircleF
3832 3189 CircleF
4035 3344 CircleF
3562 4437 CircleF
3723 4560 CircleF
3171 4337 CircleF
3374 4493 CircleF
6517 3726 CircleF
6747 3902 CircleF
3656 1180 CircleF
3834 1317 CircleF
4218 3287 CircleF
4348 3386 CircleF
5238 3470 CircleF
5436 3622 CircleF
6459 1293 CircleF
6683 1465 CircleF
6107 1734 CircleF
6287 1872 CircleF
4220 582 CircleF
4390 713 CircleF
1216 4449 CircleF
1435 4617 CircleF
5634 2618 CircleF
5800 2745 CircleF
4808 2450 CircleF
4986 2586 CircleF
2087 2834 CircleF
2316 3009 CircleF
5292 1902 CircleF
5470 2038 CircleF
4866 4628 CircleF
5095 4804 CircleF
1865 607 CircleF
2058 755 CircleF
1272 3979 CircleF
1488 4145 CircleF
5856 3214 CircleF
6079 3385 CircleF
3991 634 CircleF
4112 726 CircleF
5479 365 CircleF
5649 495 CircleF
3367 4382 CircleF
3504 4487 CircleF
2045 4521 CircleF
2200 4640 CircleF
2280 3356 CircleF
2481 3509 CircleF
2814 636 CircleF
2976 760 CircleF
2370 2242 CircleF
2507 2347 CircleF
3780 983 CircleF
3989 1143 CircleF
3457 3572 CircleF
3662 3729 CircleF
5274 3216 CircleF
5446 3347 CircleF
6056 2734 CircleF
6225 2864 CircleF
4078 726 CircleF
4252 859 CircleF
5527 3460 CircleF
5704 3596 CircleF
3181 1658 CircleF
3412 1836 CircleF
1988 2794 CircleF
2204 2959 CircleF
3725 3448 CircleF
3961 3629 CircleF
2555 3931 CircleF
2678 4025 CircleF
1146 3987 CircleF
1299 4105 CircleF
5470 3483 CircleF
5613 3592 CircleF
4827 3331 CircleF
5018 3478 CircleF
1459 1513 CircleF
1634 1647 CircleF
1787 4398 CircleF
1931 4508 CircleF
5624 2329 CircleF
5846 2500 CircleF
4891 2885 CircleF
5112 3055 CircleF
4118 421 CircleF
4268 536 CircleF
4210 815 CircleF
4391 954 CircleF
2704 3321 CircleF
2838 3423 CircleF
2204 2976 CircleF
2419 3142 CircleF
2446 4361 CircleF
2635 4505 CircleF
6127 2042 CircleF
6299 2173 CircleF
3415 2631 CircleF
3566 2747 CircleF
6403 3745 CircleF
6567 3871 CircleF
4022 4433 CircleF
4183 4557 CircleF
3249 3343 CircleF
3447 3495 CircleF
5005 3799 CircleF
5210 3956 CircleF
1400 404 CircleF
1585 546 CircleF
2493 1969 CircleF
2632 2076 CircleF
2318 2263 CircleF
2495 2399 CircleF
2074 2221 CircleF
2207 2323 CircleF
5006 653 CircleF
5184 790 CircleF
3378 770 CircleF
3504 867 CircleF
5374 809 CircleF
5527 927 CircleF
5449 4553 CircleF
5632 4694 CircleF
6018 4280 CircleF
6147 4379 CircleF
5694 4118 CircleF
5837 4227 CircleF
3578 3925 CircleF
3730 4042 CircleF
4649 1093 CircleF
4859 1254 CircleF
2195 3832 CircleF
2375 3970 CircleF
6270 677 CircleF
6482 840 CircleF
1377 3095 CircleF
1514 3200 CircleF
1173 2605 CircleF
1328 2723 CircleF
3074 3887 CircleF
3202 3985 CircleF
4956 1930 CircleF
5112 2049 CircleF
2739 3018 CircleF
2877 3124 CircleF
4660 1274 CircleF
4780 1366 CircleF
1255 2502 CircleF
1492 2683 CircleF
3815 1440 CircleF
3939 1535 CircleF
5700 2873 CircleF
5896 3023 CircleF
2906 2259 CircleF
3087 2398 CircleF
4792 4537 CircleF
4916 4632 CircleF
4439 4682 CircleF
4598 4804 CircleF
5165 2752 CircleF
5328 2877 CircleF
1427 2261 CircleF
1652 2434 CircleF
6314 3498 CircleF
6465 3614 CircleF
2703 955 CircleF
2913 1116 CircleF
6133 2346 CircleF
6273 2453 CircleF
1660 4311 CircleF
1847 4454 CircleF
4648 4172 CircleF
4817 4302 CircleF
1347 1240 CircleF
1510 1364 CircleF
1497 542 CircleF
1713 708 CircleF
1062 386 CircleF
1298 567 CircleF
3595 2668 CircleF
3754 2790 CircleF
4149 2002 CircleF
4333 2142 CircleF
3836 3226 CircleF
4001 3352 CircleF
2674 4524 CircleF
2811 4630 CircleF
3459 416 CircleF
3649 562 CircleF
1333 4621 CircleF
1458 4717 CircleF
2045 732 CircleF
2165 824 CircleF
5214 2217 CircleF
5421 2375 CircleF
5986 1500 CircleF
6193 1659 CircleF
2193 1890 CircleF
2410 2056 CircleF
1661 2251 CircleF
1785 2346 CircleF
% End plot #2
1.000 UP
1.000 UL
LT0
0.50 0.50 0.50 C stroke
grestore
end
showpage
%%Trailer
%%DocumentFonts: Helvetica
%%Pages: 1
