%!PS-Adobe-2.0
%%Title: out.ps
%%Creator: gnuplot 4.6 patchlevel 6
%%CreationDate: Thu May 28 23:54:09 2015
%%DocumentFonts: (atend)
%%BoundingBox: 50 50 554 770
%%Orientation: Landscape
%%Pages: (atend)
%%EndComments
%%BeginProlog
/gnudict 256 dict def
gnudict begin
%
% The following true/false flags may be edited by hand if desired.
% The unit line width and grayscale image gamma correction may also be changed.
%
/Color false def
/Blacktext false def
/Solid false def
/Dashlength 1 def
/Landscape true def
/Level1 false def
/Rounded false def
/ClipToBoundingBox false def
/SuppressPDFMark false def
/TransparentPatterns false def
/gnulinewidth 5.000 def
/userlinewidth gnulinewidth def
/Gamma 1.0 def
/BackgroundColor {-1.000 -1.000 -1.000} def
%
/vshift -46 def
/dl1 {
  10.0 Dashlength mul mul
  Rounded { currentlinewidth 0.75 mul sub dup 0 le { pop 0.01 } if } if
} def
/dl2 {
  10.0 Dashlength mul mul
  Rounded { currentlinewidth 0.75 mul add } if
} def
/hpt_ 31.5 def
/vpt_ 31.5 def
/hpt hpt_ def
/vpt vpt_ def
/doclip {
  ClipToBoundingBox {
    newpath 50 50 moveto 554 50 lineto 554 770 lineto 50 770 lineto closepath
    clip
  } if
} def
%
% Gnuplot Prolog Version 4.6 (September 2012)
%
%/SuppressPDFMark true def
%
/M {moveto} bind def
/L {lineto} bind def
/R {rmoveto} bind def
/V {rlineto} bind def
/N {newpath moveto} bind def
/Z {closepath} bind def
/C {setrgbcolor} bind def
/f {rlineto fill} bind def
/g {setgray} bind def
/Gshow {show} def   % May be redefined later in the file to support UTF-8
/vpt2 vpt 2 mul def
/hpt2 hpt 2 mul def
/Lshow {currentpoint stroke M 0 vshift R 
	Blacktext {gsave 0 setgray show grestore} {show} ifelse} def
/Rshow {currentpoint stroke M dup stringwidth pop neg vshift R
	Blacktext {gsave 0 setgray show grestore} {show} ifelse} def
/Cshow {currentpoint stroke M dup stringwidth pop -2 div vshift R 
	Blacktext {gsave 0 setgray show grestore} {show} ifelse} def
/UP {dup vpt_ mul /vpt exch def hpt_ mul /hpt exch def
  /hpt2 hpt 2 mul def /vpt2 vpt 2 mul def} def
/DL {Color {setrgbcolor Solid {pop []} if 0 setdash}
 {pop pop pop 0 setgray Solid {pop []} if 0 setdash} ifelse} def
/BL {stroke userlinewidth 2 mul setlinewidth
	Rounded {1 setlinejoin 1 setlinecap} if} def
/AL {stroke userlinewidth 2 div setlinewidth
	Rounded {1 setlinejoin 1 setlinecap} if} def
/UL {dup gnulinewidth mul /userlinewidth exch def
	dup 1 lt {pop 1} if 10 mul /udl exch def} def
/PL {stroke userlinewidth setlinewidth
	Rounded {1 setlinejoin 1 setlinecap} if} def
3.8 setmiterlimit
% Default Line colors
/LCw {1 1 1} def
/LCb {0 0 0} def
/LCa {0 0 0} def
/LC0 {1 0 0} def
/LC1 {0 1 0} def
/LC2 {0 0 1} def
/LC3 {1 0 1} def
/LC4 {0 1 1} def
/LC5 {1 1 0} def
/LC6 {0 0 0} def
/LC7 {1 0.3 0} def
/LC8 {0.5 0.5 0.5} def
% Default Line Types
/LTw {PL [] 1 setgray} def
/LTb {BL [] LCb DL} def
/LTa {AL [1 udl mul 2 udl mul] 0 setdash LCa setrgbcolor} def
/LT0 {PL [] LC0 DL} def
/LT1 {PL [4 dl1 2 dl2] LC1 DL} def
/LT2 {PL [2 dl1 3 dl2] LC2 DL} def
/LT3 {PL [1 dl1 1.5 dl2] LC3 DL} def
/LT4 {PL [6 dl1 2 dl2 1 dl1 2 dl2] LC4 DL} def
/LT5 {PL [3 dl1 3 dl2 1 dl1 3 dl2] LC5 DL} def
/LT6 {PL [2 dl1 2 dl2 2 dl1 6 dl2] LC6 DL} def
/LT7 {PL [1 dl1 2 dl2 6 dl1 2 dl2 1 dl1 2 dl2] LC7 DL} def
/LT8 {PL [2 dl1 2 dl2 2 dl1 2 dl2 2 dl1 2 dl2 2 dl1 4 dl2] LC8 DL} def
/Pnt {stroke [] 0 setdash gsave 1 setlinecap M 0 0 V stroke grestore} def
/Dia {stroke [] 0 setdash 2 copy vpt add M
  hpt neg vpt neg V hpt vpt neg V
  hpt vpt V hpt neg vpt V closepath stroke
  Pnt} def
/Pls {stroke [] 0 setdash vpt sub M 0 vpt2 V
  currentpoint stroke M
  hpt neg vpt neg R hpt2 0 V stroke
 } def
/Box {stroke [] 0 setdash 2 copy exch hpt sub exch vpt add M
  0 vpt2 neg V hpt2 0 V 0 vpt2 V
  hpt2 neg 0 V closepath stroke
  Pnt} def
/Crs {stroke [] 0 setdash exch hpt sub exch vpt add M
  hpt2 vpt2 neg V currentpoint stroke M
  hpt2 neg 0 R hpt2 vpt2 V stroke} def
/TriU {stroke [] 0 setdash 2 copy vpt 1.12 mul add M
  hpt neg vpt -1.62 mul V
  hpt 2 mul 0 V
  hpt neg vpt 1.62 mul V closepath stroke
  Pnt} def
/Star {2 copy Pls Crs} def
/BoxF {stroke [] 0 setdash exch hpt sub exch vpt add M
  0 vpt2 neg V hpt2 0 V 0 vpt2 V
  hpt2 neg 0 V closepath fill} def
/TriUF {stroke [] 0 setdash vpt 1.12 mul add M
  hpt neg vpt -1.62 mul V
  hpt 2 mul 0 V
  hpt neg vpt 1.62 mul V closepath fill} def
/TriD {stroke [] 0 setdash 2 copy vpt 1.12 mul sub M
  hpt neg vpt 1.62 mul V
  hpt 2 mul 0 V
  hpt neg vpt -1.62 mul V closepath stroke
  Pnt} def
/TriDF {stroke [] 0 setdash vpt 1.12 mul sub M
  hpt neg vpt 1.62 mul V
  hpt 2 mul 0 V
  hpt neg vpt -1.62 mul V closepath fill} def
/DiaF {stroke [] 0 setdash vpt add M
  hpt neg vpt neg V hpt vpt neg V
  hpt vpt V hpt neg vpt V closepath fill} def
/Pent {stroke [] 0 setdash 2 copy gsave
  translate 0 hpt M 4 {72 rotate 0 hpt L} repeat
  closepath stroke grestore Pnt} def
/PentF {stroke [] 0 setdash gsave
  translate 0 hpt M 4 {72 rotate 0 hpt L} repeat
  closepath fill grestore} def
/Circle {stroke [] 0 setdash 2 copy
  hpt 0 360 arc stroke Pnt} def
/CircleF {stroke [] 0 setdash hpt 0 360 arc fill} def
/C0 {BL [] 0 setdash 2 copy moveto vpt 90 450 arc} bind def
/C1 {BL [] 0 setdash 2 copy moveto
	2 copy vpt 0 90 arc closepath fill
	vpt 0 360 arc closepath} bind def
/C2 {BL [] 0 setdash 2 copy moveto
	2 copy vpt 90 180 arc closepath fill
	vpt 0 360 arc closepath} bind def
/C3 {BL [] 0 setdash 2 copy moveto
	2 copy vpt 0 180 arc closepath fill
	vpt 0 360 arc closepath} bind def
/C4 {BL [] 0 setdash 2 copy moveto
	2 copy vpt 180 270 arc closepath fill
	vpt 0 360 arc closepath} bind def
/C5 {BL [] 0 setdash 2 copy moveto
	2 copy vpt 0 90 arc
	2 copy moveto
	2 copy vpt 180 270 arc closepath fill
	vpt 0 360 arc} bind def
/C6 {BL [] 0 setdash 2 copy moveto
	2 copy vpt 90 270 arc closepath fill
	vpt 0 360 arc closepath} bind def
/C7 {BL [] 0 setdash 2 copy moveto
	2 copy vpt 0 270 arc closepath fill
	vpt 0 360 arc closepath} bind def
/C8 {BL [] 0 setdash 2 copy moveto
	2 copy vpt 270 360 arc closepath fill
	vpt 0 360 arc closepath} bind def
/C9 {BL [] 0 setdash 2 copy moveto
	2 copy vpt 270 450 arc closepath fill
	vpt 0 360 arc closepath} bind def
/C10 {BL [] 0 setdash 2 copy 2 copy moveto vpt 270 360 arc closepath fill
	2 copy moveto
	2 copy vpt 90 180 arc closepath fill
	vpt 0 360 arc closepath} bind def
/C11 {BL [] 0 setdash 2 copy moveto
	2 copy vpt 0 180 arc closepath fill
	2 copy moveto
	2 copy vpt 270 360 arc closepath fill
	vpt 0 360 arc closepath} bind def
/C12 {BL [] 0 setdash 2 copy moveto
	2 copy vpt 180 360 arc closepath fill
	vpt 0 360 arc closepath} bind def
/C13 {BL [] 0 setdash 2 copy moveto
	2 copy vpt 0 90 arc closepath fill
	2 copy moveto
	2 copy vpt 180 360 arc closepath fill
	vpt 0 360 arc closepath} bind def
/C14 {BL [] 0 setdash 2 copy moveto
	2 copy vpt 90 360 arc closepath fill
	vpt 0 360 arc} bind def
/C15 {BL [] 0 setdash 2 copy vpt 0 360 arc closepath fill
	vpt 0 360 arc closepath} bind def
/Rec {newpath 4 2 roll moveto 1 index 0 rlineto 0 exch rlineto
	neg 0 rlineto closepath} bind def
/Square {dup Rec} bind def
/Bsquare {vpt sub exch vpt sub exch vpt2 Square} bind def
/S0 {BL [] 0 setdash 2 copy moveto 0 vpt rlineto BL Bsquare} bind def
/S1 {BL [] 0 setdash 2 copy vpt Square fill Bsquare} bind def
/S2 {BL [] 0 setdash 2 copy exch vpt sub exch vpt Square fill Bsquare} bind def
/S3 {BL [] 0 setdash 2 copy exch vpt sub exch vpt2 vpt Rec fill Bsquare} bind def
/S4 {BL [] 0 setdash 2 copy exch vpt sub exch vpt sub vpt Square fill Bsquare} bind def
/S5 {BL [] 0 setdash 2 copy 2 copy vpt Square fill
	exch vpt sub exch vpt sub vpt Square fill Bsquare} bind def
/S6 {BL [] 0 setdash 2 copy exch vpt sub exch vpt sub vpt vpt2 Rec fill Bsquare} bind def
/S7 {BL [] 0 setdash 2 copy exch vpt sub exch vpt sub vpt vpt2 Rec fill
	2 copy vpt Square fill Bsquare} bind def
/S8 {BL [] 0 setdash 2 copy vpt sub vpt Square fill Bsquare} bind def
/S9 {BL [] 0 setdash 2 copy vpt sub vpt vpt2 Rec fill Bsquare} bind def
/S10 {BL [] 0 setdash 2 copy vpt sub vpt Square fill 2 copy exch vpt sub exch vpt Square fill
	Bsquare} bind def
/S11 {BL [] 0 setdash 2 copy vpt sub vpt Square fill 2 copy exch vpt sub exch vpt2 vpt Rec fill
	Bsquare} bind def
/S12 {BL [] 0 setdash 2 copy exch vpt sub exch vpt sub vpt2 vpt Rec fill Bsquare} bind def
/S13 {BL [] 0 setdash 2 copy exch vpt sub exch vpt sub vpt2 vpt Rec fill
	2 copy vpt Square fill Bsquare} bind def
/S14 {BL [] 0 setdash 2 copy exch vpt sub exch vpt sub vpt2 vpt Rec fill
	2 copy exch vpt sub exch vpt Square fill Bsquare} bind def
/S15 {BL [] 0 setdash 2 copy Bsquare fill Bsquare} bind def
/D0 {gsave translate 45 rotate 0 0 S0 stroke grestore} bind def
/D1 {gsave translate 45 rotate 0 0 S1 stroke grestore} bind def
/D2 {gsave translate 45 rotate 0 0 S2 stroke grestore} bind def
/D3 {gsave translate 45 rotate 0 0 S3 stroke grestore} bind def
/D4 {gsave translate 45 rotate 0 0 S4 stroke grestore} bind def
/D5 {gsave translate 45 rotate 0 0 S5 stroke grestore} bind def
/D6 {gsave translate 45 rotate 0 0 S6 stroke grestore} bind def
/D7 {gsave translate 45 rotate 0 0 S7 stroke grestore} bind def
/D8 {gsave translate 45 rotate 0 0 S8 stroke grestore} bind def
/D9 {gsave translate 45 rotate 0 0 S9 stroke grestore} bind def
/D10 {gsave translate 45 rotate 0 0 S10 stroke grestore} bind def
/D11 {gsave translate 45 rotate 0 0 S11 stroke grestore} bind def
/D12 {gsave translate 45 rotate 0 0 S12 stroke grestore} bind def
/D13 {gsave translate 45 rotate 0 0 S13 stroke grestore} bind def
/D14 {gsave translate 45 rotate 0 0 S14 stroke grestore} bind def
/D15 {gsave translate 45 rotate 0 0 S15 stroke grestore} bind def
/DiaE {stroke [] 0 setdash vpt add M
  hpt neg vpt neg V hpt vpt neg V
  hpt vpt V hpt neg vpt V closepath stroke} def
/BoxE {stroke [] 0 setdash exch hpt sub exch vpt add M
  0 vpt2 neg V hpt2 0 V 0 vpt2 V
  hpt2 neg 0 V closepath stroke} def
/TriUE {stroke [] 0 setdash vpt 1.12 mul add M
  hpt neg vpt -1.62 mul V
  hpt 2 mul 0 V
  hpt neg vpt 1.62 mul V closepath stroke} def
/TriDE {stroke [] 0 setdash vpt 1.12 mul sub M
  hpt neg vpt 1.62 mul V
  hpt 2 mul 0 V
  hpt neg vpt -1.62 mul V closepath stroke} def
/PentE {stroke [] 0 setdash gsave
  translate 0 hpt M 4 {72 rotate 0 hpt L} repeat
  closepath stroke grestore} def
/CircE {stroke [] 0 setdash 
  hpt 0 360 arc stroke} def
/Opaque {gsave closepath 1 setgray fill grestore 0 setgray closepath} def
/DiaW {stroke [] 0 setdash vpt add M
  hpt neg vpt neg V hpt vpt neg V
  hpt vpt V hpt neg vpt V Opaque stroke} def
/BoxW {stroke [] 0 setdash exch hpt sub exch vpt add M
  0 vpt2 neg V hpt2 0 V 0 vpt2 V
  hpt2 neg 0 V Opaque stroke} def
/TriUW {stroke [] 0 setdash vpt 1.12 mul add M
  hpt neg vpt -1.62 mul V
  hpt 2 mul 0 V
  hpt neg vpt 1.62 mul V Opaque stroke} def
/TriDW {stroke [] 0 setdash vpt 1.12 mul sub M
  hpt neg vpt 1.62 mul V
  hpt 2 mul 0 V
  hpt neg vpt -1.62 mul V Opaque stroke} def
/PentW {stroke [] 0 setdash gsave
  translate 0 hpt M 4 {72 rotate 0 hpt L} repeat
  Opaque stroke grestore} def
/CircW {stroke [] 0 setdash 
  hpt 0 360 arc Opaque stroke} def
/BoxFill {gsave Rec 1 setgray fill grestore} def
/Density {
  /Fillden exch def
  currentrgbcolor
  /ColB exch def /ColG exch def /ColR exch def
  /ColR ColR Fillden mul Fillden sub 1 add def
  /ColG ColG Fillden mul Fillden sub 1 add def
  /ColB ColB Fillden mul Fillden sub 1 add def
  ColR ColG ColB setrgbcolor} def
/BoxColFill {gsave Rec PolyFill} def
/PolyFill {gsave Density fill grestore grestore} def
/h {rlineto rlineto rlineto gsave closepath fill grestore} bind def
%
% PostScript Level 1 Pattern Fill routine for rectangles
% Usage: x y w h s a XX PatternFill
%	x,y = lower left corner of box to be filled
%	w,h = width and height of box
%	  a = angle in degrees between lines and x-axis
%	 XX = 0/1 for no/yes cross-hatch
%
/PatternFill {gsave /PFa [ 9 2 roll ] def
  PFa 0 get PFa 2 get 2 div add PFa 1 get PFa 3 get 2 div add translate
  PFa 2 get -2 div PFa 3 get -2 div PFa 2 get PFa 3 get Rec
  TransparentPatterns {} {gsave 1 setgray fill grestore} ifelse
  clip
  currentlinewidth 0.5 mul setlinewidth
  /PFs PFa 2 get dup mul PFa 3 get dup mul add sqrt def
  0 0 M PFa 5 get rotate PFs -2 div dup translate
  0 1 PFs PFa 4 get div 1 add floor cvi
	{PFa 4 get mul 0 M 0 PFs V} for
  0 PFa 6 get ne {
	0 1 PFs PFa 4 get div 1 add floor cvi
	{PFa 4 get mul 0 2 1 roll M PFs 0 V} for
 } if
  stroke grestore} def
%
/languagelevel where
 {pop languagelevel} {1} ifelse
 2 lt
	{/InterpretLevel1 true def}
	{/InterpretLevel1 Level1 def}
 ifelse
%
% PostScript level 2 pattern fill definitions
%
/Level2PatternFill {
/Tile8x8 {/PaintType 2 /PatternType 1 /TilingType 1 /BBox [0 0 8 8] /XStep 8 /YStep 8}
	bind def
/KeepColor {currentrgbcolor [/Pattern /DeviceRGB] setcolorspace} bind def
<< Tile8x8
 /PaintProc {0.5 setlinewidth pop 0 0 M 8 8 L 0 8 M 8 0 L stroke} 
>> matrix makepattern
/Pat1 exch def
<< Tile8x8
 /PaintProc {0.5 setlinewidth pop 0 0 M 8 8 L 0 8 M 8 0 L stroke
	0 4 M 4 8 L 8 4 L 4 0 L 0 4 L stroke}
>> matrix makepattern
/Pat2 exch def
<< Tile8x8
 /PaintProc {0.5 setlinewidth pop 0 0 M 0 8 L
	8 8 L 8 0 L 0 0 L fill}
>> matrix makepattern
/Pat3 exch def
<< Tile8x8
 /PaintProc {0.5 setlinewidth pop -4 8 M 8 -4 L
	0 12 M 12 0 L stroke}
>> matrix makepattern
/Pat4 exch def
<< Tile8x8
 /PaintProc {0.5 setlinewidth pop -4 0 M 8 12 L
	0 -4 M 12 8 L stroke}
>> matrix makepattern
/Pat5 exch def
<< Tile8x8
 /PaintProc {0.5 setlinewidth pop -2 8 M 4 -4 L
	0 12 M 8 -4 L 4 12 M 10 0 L stroke}
>> matrix makepattern
/Pat6 exch def
<< Tile8x8
 /PaintProc {0.5 setlinewidth pop -2 0 M 4 12 L
	0 -4 M 8 12 L 4 -4 M 10 8 L stroke}
>> matrix makepattern
/Pat7 exch def
<< Tile8x8
 /PaintProc {0.5 setlinewidth pop 8 -2 M -4 4 L
	12 0 M -4 8 L 12 4 M 0 10 L stroke}
>> matrix makepattern
/Pat8 exch def
<< Tile8x8
 /PaintProc {0.5 setlinewidth pop 0 -2 M 12 4 L
	-4 0 M 12 8 L -4 4 M 8 10 L stroke}
>> matrix makepattern
/Pat9 exch def
/Pattern1 {PatternBgnd KeepColor Pat1 setpattern} bind def
/Pattern2 {PatternBgnd KeepColor Pat2 setpattern} bind def
/Pattern3 {PatternBgnd KeepColor Pat3 setpattern} bind def
/Pattern4 {PatternBgnd KeepColor Landscape {Pat5} {Pat4} ifelse setpattern} bind def
/Pattern5 {PatternBgnd KeepColor Landscape {Pat4} {Pat5} ifelse setpattern} bind def
/Pattern6 {PatternBgnd KeepColor Landscape {Pat9} {Pat6} ifelse setpattern} bind def
/Pattern7 {PatternBgnd KeepColor Landscape {Pat8} {Pat7} ifelse setpattern} bind def
} def
%
%
%End of PostScript Level 2 code
%
/PatternBgnd {
  TransparentPatterns {} {gsave 1 setgray fill grestore} ifelse
} def
%
% Substitute for Level 2 pattern fill codes with
% grayscale if Level 2 support is not selected.
%
/Level1PatternFill {
/Pattern1 {0.250 Density} bind def
/Pattern2 {0.500 Density} bind def
/Pattern3 {0.750 Density} bind def
/Pattern4 {0.125 Density} bind def
/Pattern5 {0.375 Density} bind def
/Pattern6 {0.625 Density} bind def
/Pattern7 {0.875 Density} bind def
} def
%
% Now test for support of Level 2 code
%
Level1 {Level1PatternFill} {Level2PatternFill} ifelse
%
/Symbol-Oblique /Symbol findfont [1 0 .167 1 0 0] makefont
dup length dict begin {1 index /FID eq {pop pop} {def} ifelse} forall
currentdict end definefont pop
Level1 SuppressPDFMark or 
{} {
/SDict 10 dict def
systemdict /pdfmark known not {
  userdict /pdfmark systemdict /cleartomark get put
} if
SDict begin [
  /Title (out.ps)
  /Subject (gnuplot plot)
  /Creator (gnuplot 4.6 patchlevel 6)
  /Author (yani)
%  /Producer (gnuplot)
%  /Keywords ()
  /CreationDate (Thu May 28 23:54:09 2015)
  /DOCINFO pdfmark
end
} ifelse
end
%%EndProlog
%%Page: 1 1
gnudict begin
gsave
doclip
50 50 translate
0.100 0.100 scale
90 rotate
0 -5040 translate
0 setgray
newpath
(Helvetica) findfont 140 scalefont setfont
BackgroundColor 0 lt 3 1 roll 0 lt exch 0 lt or or not {gsave BackgroundColor C clippath fill grestore} if
1.000 UL
LT0
0.50 0.50 0.50 C 1.000 UL
LTa
0.50 0.50 0.50 C 966 280 M
5981 0 V
stroke
LT0
0.50 0.50 0.50 C 966 280 M
63 0 V
5918 0 R
-63 0 V
882 280 M
( 0) Rshow
1.000 UL
LT0
0.50 0.50 0.50 C 1.000 UL
LTa
0.50 0.50 0.50 C 966 311 M
5981 0 V
stroke
LT0
0.50 0.50 0.50 C 966 311 M
63 0 V
5918 0 R
-63 0 V
882 311 M
( 0.707106) Rshow
1.000 UL
LT0
0.50 0.50 0.50 C 1.000 UL
LTa
0.50 0.50 0.50 C 966 342 M
5981 0 V
stroke
LT0
0.50 0.50 0.50 C 966 342 M
63 0 V
5918 0 R
-63 0 V
882 342 M
( 1.41421) Rshow
1.000 UL
LT0
0.50 0.50 0.50 C 1.000 UL
LTa
0.50 0.50 0.50 C 966 373 M
5981 0 V
stroke
LT0
0.50 0.50 0.50 C 966 373 M
63 0 V
5918 0 R
-63 0 V
882 373 M
( 2.12132) Rshow
1.000 UL
LT0
0.50 0.50 0.50 C 1.000 UL
LTa
0.50 0.50 0.50 C 966 404 M
5981 0 V
stroke
LT0
0.50 0.50 0.50 C 966 404 M
63 0 V
5918 0 R
-63 0 V
882 404 M
( 2.82842) Rshow
1.000 UL
LT0
0.50 0.50 0.50 C 1.000 UL
LTa
0.50 0.50 0.50 C 966 435 M
5981 0 V
stroke
LT0
0.50 0.50 0.50 C 966 435 M
63 0 V
5918 0 R
-63 0 V
882 435 M
( 3.53553) Rshow
1.000 UL
LT0
0.50 0.50 0.50 C 1.000 UL
LTa
0.50 0.50 0.50 C 966 466 M
5981 0 V
stroke
LT0
0.50 0.50 0.50 C 966 466 M
63 0 V
5918 0 R
-63 0 V
882 466 M
( 4.24264) Rshow
1.000 UL
LT0
0.50 0.50 0.50 C 1.000 UL
LTa
0.50 0.50 0.50 C 966 497 M
5981 0 V
stroke
LT0
0.50 0.50 0.50 C 966 497 M
63 0 V
5918 0 R
-63 0 V
882 497 M
( 4.94974) Rshow
1.000 UL
LT0
0.50 0.50 0.50 C 1.000 UL
LTa
0.50 0.50 0.50 C 966 528 M
5981 0 V
stroke
LT0
0.50 0.50 0.50 C 966 528 M
63 0 V
5918 0 R
-63 0 V
882 528 M
( 5.65685) Rshow
1.000 UL
LT0
0.50 0.50 0.50 C 1.000 UL
LTa
0.50 0.50 0.50 C 966 559 M
5981 0 V
stroke
LT0
0.50 0.50 0.50 C 966 559 M
63 0 V
5918 0 R
-63 0 V
882 559 M
( 6.36395) Rshow
1.000 UL
LT0
0.50 0.50 0.50 C 1.000 UL
LTa
0.50 0.50 0.50 C 966 590 M
5981 0 V
stroke
LT0
0.50 0.50 0.50 C 966 590 M
63 0 V
5918 0 R
-63 0 V
882 590 M
( 7.07106) Rshow
1.000 UL
LT0
0.50 0.50 0.50 C 1.000 UL
LTa
0.50 0.50 0.50 C 966 621 M
5981 0 V
stroke
LT0
0.50 0.50 0.50 C 966 621 M
63 0 V
5918 0 R
-63 0 V
882 621 M
( 7.77817) Rshow
1.000 UL
LT0
0.50 0.50 0.50 C 1.000 UL
LTa
0.50 0.50 0.50 C 966 652 M
5981 0 V
stroke
LT0
0.50 0.50 0.50 C 966 652 M
63 0 V
5918 0 R
-63 0 V
882 652 M
( 8.48527) Rshow
1.000 UL
LT0
0.50 0.50 0.50 C 1.000 UL
LTa
0.50 0.50 0.50 C 966 683 M
5981 0 V
stroke
LT0
0.50 0.50 0.50 C 966 683 M
63 0 V
5918 0 R
-63 0 V
882 683 M
( 9.19238) Rshow
1.000 UL
LT0
0.50 0.50 0.50 C 1.000 UL
LTa
0.50 0.50 0.50 C 966 714 M
5981 0 V
stroke
LT0
0.50 0.50 0.50 C 966 714 M
63 0 V
5918 0 R
-63 0 V
882 714 M
( 9.89948) Rshow
1.000 UL
LT0
0.50 0.50 0.50 C 1.000 UL
LTa
0.50 0.50 0.50 C 966 745 M
5981 0 V
stroke
LT0
0.50 0.50 0.50 C 966 745 M
63 0 V
5918 0 R
-63 0 V
882 745 M
( 10.6066) Rshow
1.000 UL
LT0
0.50 0.50 0.50 C 1.000 UL
LTa
0.50 0.50 0.50 C 966 776 M
5981 0 V
stroke
LT0
0.50 0.50 0.50 C 966 776 M
63 0 V
5918 0 R
-63 0 V
882 776 M
( 11.3137) Rshow
1.000 UL
LT0
0.50 0.50 0.50 C 1.000 UL
LTa
0.50 0.50 0.50 C 966 807 M
5981 0 V
stroke
LT0
0.50 0.50 0.50 C 966 807 M
63 0 V
5918 0 R
-63 0 V
882 807 M
( 12.0208) Rshow
1.000 UL
LT0
0.50 0.50 0.50 C 1.000 UL
LTa
0.50 0.50 0.50 C 966 838 M
5981 0 V
stroke
LT0
0.50 0.50 0.50 C 966 838 M
63 0 V
5918 0 R
-63 0 V
882 838 M
( 12.7279) Rshow
1.000 UL
LT0
0.50 0.50 0.50 C 1.000 UL
LTa
0.50 0.50 0.50 C 966 869 M
5981 0 V
stroke
LT0
0.50 0.50 0.50 C 966 869 M
63 0 V
5918 0 R
-63 0 V
882 869 M
( 13.435) Rshow
1.000 UL
LT0
0.50 0.50 0.50 C 1.000 UL
LTa
0.50 0.50 0.50 C 966 900 M
5981 0 V
stroke
LT0
0.50 0.50 0.50 C 966 900 M
63 0 V
5918 0 R
-63 0 V
882 900 M
( 14.1421) Rshow
1.000 UL
LT0
0.50 0.50 0.50 C 1.000 UL
LTa
0.50 0.50 0.50 C 966 931 M
5981 0 V
stroke
LT0
0.50 0.50 0.50 C 966 931 M
63 0 V
5918 0 R
-63 0 V
882 931 M
( 14.8492) Rshow
1.000 UL
LT0
0.50 0.50 0.50 C 1.000 UL
LTa
0.50 0.50 0.50 C 966 962 M
5981 0 V
stroke
LT0
0.50 0.50 0.50 C 966 962 M
63 0 V
5918 0 R
-63 0 V
882 962 M
( 15.5563) Rshow
1.000 UL
LT0
0.50 0.50 0.50 C 1.000 UL
LTa
0.50 0.50 0.50 C 966 993 M
5981 0 V
stroke
LT0
0.50 0.50 0.50 C 966 993 M
63 0 V
5918 0 R
-63 0 V
882 993 M
( 16.2634) Rshow
1.000 UL
LT0
0.50 0.50 0.50 C 1.000 UL
LTa
0.50 0.50 0.50 C 966 1024 M
5981 0 V
stroke
LT0
0.50 0.50 0.50 C 966 1024 M
63 0 V
5918 0 R
-63 0 V
-6002 0 R
( 16.9705) Rshow
1.000 UL
LT0
0.50 0.50 0.50 C 1.000 UL
LTa
0.50 0.50 0.50 C 966 1056 M
5981 0 V
stroke
LT0
0.50 0.50 0.50 C 966 1056 M
63 0 V
5918 0 R
-63 0 V
-6002 0 R
( 17.6776) Rshow
1.000 UL
LT0
0.50 0.50 0.50 C 1.000 UL
LTa
0.50 0.50 0.50 C 966 1087 M
5981 0 V
stroke
LT0
0.50 0.50 0.50 C 966 1087 M
63 0 V
5918 0 R
-63 0 V
-6002 0 R
( 18.3848) Rshow
1.000 UL
LT0
0.50 0.50 0.50 C 1.000 UL
LTa
0.50 0.50 0.50 C 966 1118 M
5981 0 V
stroke
LT0
0.50 0.50 0.50 C 966 1118 M
63 0 V
5918 0 R
-63 0 V
-6002 0 R
( 19.0919) Rshow
1.000 UL
LT0
0.50 0.50 0.50 C 1.000 UL
LTa
0.50 0.50 0.50 C 966 1149 M
5981 0 V
stroke
LT0
0.50 0.50 0.50 C 966 1149 M
63 0 V
5918 0 R
-63 0 V
-6002 0 R
( 19.799) Rshow
1.000 UL
LT0
0.50 0.50 0.50 C 1.000 UL
LTa
0.50 0.50 0.50 C 966 1180 M
5981 0 V
stroke
LT0
0.50 0.50 0.50 C 966 1180 M
63 0 V
5918 0 R
-63 0 V
-6002 0 R
( 20.5061) Rshow
1.000 UL
LT0
0.50 0.50 0.50 C 1.000 UL
LTa
0.50 0.50 0.50 C 966 1211 M
5981 0 V
stroke
LT0
0.50 0.50 0.50 C 966 1211 M
63 0 V
5918 0 R
-63 0 V
-6002 0 R
( 21.2132) Rshow
1.000 UL
LT0
0.50 0.50 0.50 C 1.000 UL
LTa
0.50 0.50 0.50 C 966 1242 M
5981 0 V
stroke
LT0
0.50 0.50 0.50 C 966 1242 M
63 0 V
5918 0 R
-63 0 V
-6002 0 R
( 21.9203) Rshow
1.000 UL
LT0
0.50 0.50 0.50 C 1.000 UL
LTa
0.50 0.50 0.50 C 966 1273 M
5981 0 V
stroke
LT0
0.50 0.50 0.50 C 966 1273 M
63 0 V
5918 0 R
-63 0 V
-6002 0 R
( 22.6274) Rshow
1.000 UL
LT0
0.50 0.50 0.50 C 1.000 UL
LTa
0.50 0.50 0.50 C 966 1304 M
5981 0 V
stroke
LT0
0.50 0.50 0.50 C 966 1304 M
63 0 V
5918 0 R
-63 0 V
-6002 0 R
( 23.3345) Rshow
1.000 UL
LT0
0.50 0.50 0.50 C 1.000 UL
LTa
0.50 0.50 0.50 C 966 1335 M
5981 0 V
stroke
LT0
0.50 0.50 0.50 C 966 1335 M
63 0 V
5918 0 R
-63 0 V
-6002 0 R
( 24.0416) Rshow
1.000 UL
LT0
0.50 0.50 0.50 C 1.000 UL
LTa
0.50 0.50 0.50 C 966 1366 M
5981 0 V
stroke
LT0
0.50 0.50 0.50 C 966 1366 M
63 0 V
5918 0 R
-63 0 V
-6002 0 R
( 24.7487) Rshow
1.000 UL
LT0
0.50 0.50 0.50 C 1.000 UL
LTa
0.50 0.50 0.50 C 966 1397 M
5981 0 V
stroke
LT0
0.50 0.50 0.50 C 966 1397 M
63 0 V
5918 0 R
-63 0 V
-6002 0 R
( 25.4558) Rshow
1.000 UL
LT0
0.50 0.50 0.50 C 1.000 UL
LTa
0.50 0.50 0.50 C 966 1428 M
5981 0 V
stroke
LT0
0.50 0.50 0.50 C 966 1428 M
63 0 V
5918 0 R
-63 0 V
-6002 0 R
( 26.1629) Rshow
1.000 UL
LT0
0.50 0.50 0.50 C 1.000 UL
LTa
0.50 0.50 0.50 C 966 1459 M
5981 0 V
stroke
LT0
0.50 0.50 0.50 C 966 1459 M
63 0 V
5918 0 R
-63 0 V
-6002 0 R
( 26.87) Rshow
1.000 UL
LT0
0.50 0.50 0.50 C 1.000 UL
LTa
0.50 0.50 0.50 C 966 1490 M
5981 0 V
stroke
LT0
0.50 0.50 0.50 C 966 1490 M
63 0 V
5918 0 R
-63 0 V
-6002 0 R
( 27.5771) Rshow
1.000 UL
LT0
0.50 0.50 0.50 C 1.000 UL
LTa
0.50 0.50 0.50 C 966 1521 M
5981 0 V
stroke
LT0
0.50 0.50 0.50 C 966 1521 M
63 0 V
5918 0 R
-63 0 V
-6002 0 R
( 28.2842) Rshow
1.000 UL
LT0
0.50 0.50 0.50 C 1.000 UL
LTa
0.50 0.50 0.50 C 966 1552 M
5981 0 V
stroke
LT0
0.50 0.50 0.50 C 966 1552 M
63 0 V
5918 0 R
-63 0 V
-6002 0 R
( 28.9913) Rshow
1.000 UL
LT0
0.50 0.50 0.50 C 1.000 UL
LTa
0.50 0.50 0.50 C 966 1583 M
5981 0 V
stroke
LT0
0.50 0.50 0.50 C 966 1583 M
63 0 V
5918 0 R
-63 0 V
-6002 0 R
( 29.6985) Rshow
1.000 UL
LT0
0.50 0.50 0.50 C 1.000 UL
LTa
0.50 0.50 0.50 C 966 1614 M
5981 0 V
stroke
LT0
0.50 0.50 0.50 C 966 1614 M
63 0 V
5918 0 R
-63 0 V
-6002 0 R
( 30.4056) Rshow
1.000 UL
LT0
0.50 0.50 0.50 C 1.000 UL
LTa
0.50 0.50 0.50 C 966 1645 M
5981 0 V
stroke
LT0
0.50 0.50 0.50 C 966 1645 M
63 0 V
5918 0 R
-63 0 V
-6002 0 R
( 31.1127) Rshow
1.000 UL
LT0
0.50 0.50 0.50 C 1.000 UL
LTa
0.50 0.50 0.50 C 966 1676 M
5981 0 V
stroke
LT0
0.50 0.50 0.50 C 966 1676 M
63 0 V
5918 0 R
-63 0 V
-6002 0 R
( 31.8198) Rshow
1.000 UL
LT0
0.50 0.50 0.50 C 1.000 UL
LTa
0.50 0.50 0.50 C 966 1707 M
5981 0 V
stroke
LT0
0.50 0.50 0.50 C 966 1707 M
63 0 V
5918 0 R
-63 0 V
-6002 0 R
( 32.5269) Rshow
1.000 UL
LT0
0.50 0.50 0.50 C 1.000 UL
LTa
0.50 0.50 0.50 C 966 1738 M
5981 0 V
stroke
LT0
0.50 0.50 0.50 C 966 1738 M
63 0 V
5918 0 R
-63 0 V
-6002 0 R
( 33.234) Rshow
1.000 UL
LT0
0.50 0.50 0.50 C 1.000 UL
LTa
0.50 0.50 0.50 C 966 1769 M
5981 0 V
stroke
LT0
0.50 0.50 0.50 C 966 1769 M
63 0 V
5918 0 R
-63 0 V
-6002 0 R
( 33.9411) Rshow
1.000 UL
LT0
0.50 0.50 0.50 C 1.000 UL
LTa
0.50 0.50 0.50 C 966 1800 M
5981 0 V
stroke
LT0
0.50 0.50 0.50 C 966 1800 M
63 0 V
5918 0 R
-63 0 V
-6002 0 R
( 34.6482) Rshow
1.000 UL
LT0
0.50 0.50 0.50 C 1.000 UL
LTa
0.50 0.50 0.50 C 966 1831 M
5981 0 V
stroke
LT0
0.50 0.50 0.50 C 966 1831 M
63 0 V
5918 0 R
-63 0 V
-6002 0 R
( 35.3553) Rshow
1.000 UL
LT0
0.50 0.50 0.50 C 1.000 UL
LTa
0.50 0.50 0.50 C 966 1862 M
5981 0 V
stroke
LT0
0.50 0.50 0.50 C 966 1862 M
63 0 V
5918 0 R
-63 0 V
-6002 0 R
( 36.0624) Rshow
1.000 UL
LT0
0.50 0.50 0.50 C 1.000 UL
LTa
0.50 0.50 0.50 C 966 1893 M
5981 0 V
stroke
LT0
0.50 0.50 0.50 C 966 1893 M
63 0 V
5918 0 R
-63 0 V
-6002 0 R
( 36.7695) Rshow
1.000 UL
LT0
0.50 0.50 0.50 C 1.000 UL
LTa
0.50 0.50 0.50 C 966 1924 M
5981 0 V
stroke
LT0
0.50 0.50 0.50 C 966 1924 M
63 0 V
5918 0 R
-63 0 V
-6002 0 R
( 37.4766) Rshow
1.000 UL
LT0
0.50 0.50 0.50 C 1.000 UL
LTa
0.50 0.50 0.50 C 966 1955 M
5981 0 V
stroke
LT0
0.50 0.50 0.50 C 966 1955 M
63 0 V
5918 0 R
-63 0 V
-6002 0 R
( 38.1837) Rshow
1.000 UL
LT0
0.50 0.50 0.50 C 1.000 UL
LTa
0.50 0.50 0.50 C 966 1986 M
5981 0 V
stroke
LT0
0.50 0.50 0.50 C 966 1986 M
63 0 V
5918 0 R
-63 0 V
-6002 0 R
( 38.8908) Rshow
1.000 UL
LT0
0.50 0.50 0.50 C 1.000 UL
LTa
0.50 0.50 0.50 C 966 2017 M
5981 0 V
stroke
LT0
0.50 0.50 0.50 C 966 2017 M
63 0 V
5918 0 R
-63 0 V
-6002 0 R
( 39.5979) Rshow
1.000 UL
LT0
0.50 0.50 0.50 C 1.000 UL
LTa
0.50 0.50 0.50 C 966 2048 M
5981 0 V
stroke
LT0
0.50 0.50 0.50 C 966 2048 M
63 0 V
5918 0 R
-63 0 V
-6002 0 R
( 40.305) Rshow
1.000 UL
LT0
0.50 0.50 0.50 C 1.000 UL
LTa
0.50 0.50 0.50 C 966 2079 M
5981 0 V
stroke
LT0
0.50 0.50 0.50 C 966 2079 M
63 0 V
5918 0 R
-63 0 V
-6002 0 R
( 41.0121) Rshow
1.000 UL
LT0
0.50 0.50 0.50 C 1.000 UL
LTa
0.50 0.50 0.50 C 966 2110 M
5981 0 V
stroke
LT0
0.50 0.50 0.50 C 966 2110 M
63 0 V
5918 0 R
-63 0 V
-6002 0 R
( 41.7193) Rshow
1.000 UL
LT0
0.50 0.50 0.50 C 1.000 UL
LTa
0.50 0.50 0.50 C 966 2141 M
5981 0 V
stroke
LT0
0.50 0.50 0.50 C 966 2141 M
63 0 V
5918 0 R
-63 0 V
-6002 0 R
( 42.4264) Rshow
1.000 UL
LT0
0.50 0.50 0.50 C 1.000 UL
LTa
0.50 0.50 0.50 C 966 2172 M
5981 0 V
stroke
LT0
0.50 0.50 0.50 C 966 2172 M
63 0 V
5918 0 R
-63 0 V
-6002 0 R
( 43.1335) Rshow
1.000 UL
LT0
0.50 0.50 0.50 C 1.000 UL
LTa
0.50 0.50 0.50 C 966 2203 M
5981 0 V
stroke
LT0
0.50 0.50 0.50 C 966 2203 M
63 0 V
5918 0 R
-63 0 V
-6002 0 R
( 43.8406) Rshow
1.000 UL
LT0
0.50 0.50 0.50 C 1.000 UL
LTa
0.50 0.50 0.50 C 966 2234 M
5981 0 V
stroke
LT0
0.50 0.50 0.50 C 966 2234 M
63 0 V
5918 0 R
-63 0 V
-6002 0 R
( 44.5477) Rshow
1.000 UL
LT0
0.50 0.50 0.50 C 1.000 UL
LTa
0.50 0.50 0.50 C 966 2265 M
5981 0 V
stroke
LT0
0.50 0.50 0.50 C 966 2265 M
63 0 V
5918 0 R
-63 0 V
-6002 0 R
( 45.2548) Rshow
1.000 UL
LT0
0.50 0.50 0.50 C 1.000 UL
LTa
0.50 0.50 0.50 C 966 2296 M
5981 0 V
stroke
LT0
0.50 0.50 0.50 C 966 2296 M
63 0 V
5918 0 R
-63 0 V
-6002 0 R
( 45.9619) Rshow
1.000 UL
LT0
0.50 0.50 0.50 C 1.000 UL
LTa
0.50 0.50 0.50 C 966 2327 M
5981 0 V
stroke
LT0
0.50 0.50 0.50 C 966 2327 M
63 0 V
5918 0 R
-63 0 V
-6002 0 R
( 46.669) Rshow
1.000 UL
LT0
0.50 0.50 0.50 C 1.000 UL
LTa
0.50 0.50 0.50 C 966 2358 M
5981 0 V
stroke
LT0
0.50 0.50 0.50 C 966 2358 M
63 0 V
5918 0 R
-63 0 V
-6002 0 R
( 47.3761) Rshow
1.000 UL
LT0
0.50 0.50 0.50 C 1.000 UL
LTa
0.50 0.50 0.50 C 966 2389 M
5981 0 V
stroke
LT0
0.50 0.50 0.50 C 966 2389 M
63 0 V
5918 0 R
-63 0 V
-6002 0 R
( 48.0832) Rshow
1.000 UL
LT0
0.50 0.50 0.50 C 1.000 UL
LTa
0.50 0.50 0.50 C 966 2420 M
5981 0 V
stroke
LT0
0.50 0.50 0.50 C 966 2420 M
63 0 V
5918 0 R
-63 0 V
-6002 0 R
( 48.7903) Rshow
1.000 UL
LT0
0.50 0.50 0.50 C 1.000 UL
LTa
0.50 0.50 0.50 C 966 2451 M
5981 0 V
stroke
LT0
0.50 0.50 0.50 C 966 2451 M
63 0 V
5918 0 R
-63 0 V
-6002 0 R
( 49.4974) Rshow
1.000 UL
LT0
0.50 0.50 0.50 C 1.000 UL
LTa
0.50 0.50 0.50 C 966 2482 M
5981 0 V
stroke
LT0
0.50 0.50 0.50 C 966 2482 M
63 0 V
5918 0 R
-63 0 V
-6002 0 R
( 50.2045) Rshow
1.000 UL
LT0
0.50 0.50 0.50 C 1.000 UL
LTa
0.50 0.50 0.50 C 966 2513 M
5981 0 V
stroke
LT0
0.50 0.50 0.50 C 966 2513 M
63 0 V
5918 0 R
-63 0 V
-6002 0 R
( 50.9116) Rshow
1.000 UL
LT0
0.50 0.50 0.50 C 1.000 UL
LTa
0.50 0.50 0.50 C 966 2544 M
5981 0 V
stroke
LT0
0.50 0.50 0.50 C 966 2544 M
63 0 V
5918 0 R
-63 0 V
-6002 0 R
( 51.6187) Rshow
1.000 UL
LT0
0.50 0.50 0.50 C 1.000 UL
LTa
0.50 0.50 0.50 C 966 2576 M
5981 0 V
stroke
LT0
0.50 0.50 0.50 C 966 2576 M
63 0 V
5918 0 R
-63 0 V
-6002 0 R
( 52.3258) Rshow
1.000 UL
LT0
0.50 0.50 0.50 C 1.000 UL
LTa
0.50 0.50 0.50 C 966 2607 M
5981 0 V
stroke
LT0
0.50 0.50 0.50 C 966 2607 M
63 0 V
5918 0 R
-63 0 V
-6002 0 R
( 53.033) Rshow
1.000 UL
LT0
0.50 0.50 0.50 C 1.000 UL
LTa
0.50 0.50 0.50 C 966 2638 M
5981 0 V
stroke
LT0
0.50 0.50 0.50 C 966 2638 M
63 0 V
5918 0 R
-63 0 V
-6002 0 R
( 53.7401) Rshow
1.000 UL
LT0
0.50 0.50 0.50 C 1.000 UL
LTa
0.50 0.50 0.50 C 966 2669 M
5981 0 V
stroke
LT0
0.50 0.50 0.50 C 966 2669 M
63 0 V
5918 0 R
-63 0 V
-6002 0 R
( 54.4472) Rshow
1.000 UL
LT0
0.50 0.50 0.50 C 1.000 UL
LTa
0.50 0.50 0.50 C 966 2700 M
5981 0 V
stroke
LT0
0.50 0.50 0.50 C 966 2700 M
63 0 V
5918 0 R
-63 0 V
-6002 0 R
( 55.1543) Rshow
1.000 UL
LT0
0.50 0.50 0.50 C 1.000 UL
LTa
0.50 0.50 0.50 C 966 2731 M
5981 0 V
stroke
LT0
0.50 0.50 0.50 C 966 2731 M
63 0 V
5918 0 R
-63 0 V
-6002 0 R
( 55.8614) Rshow
1.000 UL
LT0
0.50 0.50 0.50 C 1.000 UL
LTa
0.50 0.50 0.50 C 966 2762 M
5981 0 V
stroke
LT0
0.50 0.50 0.50 C 966 2762 M
63 0 V
5918 0 R
-63 0 V
-6002 0 R
( 56.5685) Rshow
1.000 UL
LT0
0.50 0.50 0.50 C 1.000 UL
LTa
0.50 0.50 0.50 C 966 2793 M
5981 0 V
stroke
LT0
0.50 0.50 0.50 C 966 2793 M
63 0 V
5918 0 R
-63 0 V
-6002 0 R
( 57.2756) Rshow
1.000 UL
LT0
0.50 0.50 0.50 C 1.000 UL
LTa
0.50 0.50 0.50 C 966 2824 M
5981 0 V
stroke
LT0
0.50 0.50 0.50 C 966 2824 M
63 0 V
5918 0 R
-63 0 V
-6002 0 R
( 57.9827) Rshow
1.000 UL
LT0
0.50 0.50 0.50 C 1.000 UL
LTa
0.50 0.50 0.50 C 966 2855 M
5981 0 V
stroke
LT0
0.50 0.50 0.50 C 966 2855 M
63 0 V
5918 0 R
-63 0 V
-6002 0 R
( 58.6898) Rshow
1.000 UL
LT0
0.50 0.50 0.50 C 1.000 UL
LTa
0.50 0.50 0.50 C 966 2886 M
5981 0 V
stroke
LT0
0.50 0.50 0.50 C 966 2886 M
63 0 V
5918 0 R
-63 0 V
-6002 0 R
( 59.3969) Rshow
1.000 UL
LT0
0.50 0.50 0.50 C 1.000 UL
LTa
0.50 0.50 0.50 C 966 2917 M
5981 0 V
stroke
LT0
0.50 0.50 0.50 C 966 2917 M
63 0 V
5918 0 R
-63 0 V
-6002 0 R
( 60.104) Rshow
1.000 UL
LT0
0.50 0.50 0.50 C 1.000 UL
LTa
0.50 0.50 0.50 C 966 2948 M
5981 0 V
stroke
LT0
0.50 0.50 0.50 C 966 2948 M
63 0 V
5918 0 R
-63 0 V
-6002 0 R
( 60.8111) Rshow
1.000 UL
LT0
0.50 0.50 0.50 C 1.000 UL
LTa
0.50 0.50 0.50 C 966 2979 M
5981 0 V
stroke
LT0
0.50 0.50 0.50 C 966 2979 M
63 0 V
5918 0 R
-63 0 V
-6002 0 R
( 61.5182) Rshow
1.000 UL
LT0
0.50 0.50 0.50 C 1.000 UL
LTa
0.50 0.50 0.50 C 966 3010 M
5981 0 V
stroke
LT0
0.50 0.50 0.50 C 966 3010 M
63 0 V
5918 0 R
-63 0 V
-6002 0 R
( 62.2253) Rshow
1.000 UL
LT0
0.50 0.50 0.50 C 1.000 UL
LTa
0.50 0.50 0.50 C 966 3041 M
5981 0 V
stroke
LT0
0.50 0.50 0.50 C 966 3041 M
63 0 V
5918 0 R
-63 0 V
-6002 0 R
( 62.9324) Rshow
1.000 UL
LT0
0.50 0.50 0.50 C 1.000 UL
LTa
0.50 0.50 0.50 C 966 3072 M
5981 0 V
stroke
LT0
0.50 0.50 0.50 C 966 3072 M
63 0 V
5918 0 R
-63 0 V
-6002 0 R
( 63.6395) Rshow
1.000 UL
LT0
0.50 0.50 0.50 C 1.000 UL
LTa
0.50 0.50 0.50 C 966 3103 M
5981 0 V
stroke
LT0
0.50 0.50 0.50 C 966 3103 M
63 0 V
5918 0 R
-63 0 V
-6002 0 R
( 64.3466) Rshow
1.000 UL
LT0
0.50 0.50 0.50 C 1.000 UL
LTa
0.50 0.50 0.50 C 966 3134 M
5981 0 V
stroke
LT0
0.50 0.50 0.50 C 966 3134 M
63 0 V
5918 0 R
-63 0 V
-6002 0 R
( 65.0538) Rshow
1.000 UL
LT0
0.50 0.50 0.50 C 1.000 UL
LTa
0.50 0.50 0.50 C 966 3165 M
5981 0 V
stroke
LT0
0.50 0.50 0.50 C 966 3165 M
63 0 V
5918 0 R
-63 0 V
-6002 0 R
( 65.7609) Rshow
1.000 UL
LT0
0.50 0.50 0.50 C 1.000 UL
LTa
0.50 0.50 0.50 C 966 3196 M
5981 0 V
stroke
LT0
0.50 0.50 0.50 C 966 3196 M
63 0 V
5918 0 R
-63 0 V
-6002 0 R
( 66.468) Rshow
1.000 UL
LT0
0.50 0.50 0.50 C 1.000 UL
LTa
0.50 0.50 0.50 C 966 3227 M
5981 0 V
stroke
LT0
0.50 0.50 0.50 C 966 3227 M
63 0 V
5918 0 R
-63 0 V
-6002 0 R
( 67.1751) Rshow
1.000 UL
LT0
0.50 0.50 0.50 C 1.000 UL
LTa
0.50 0.50 0.50 C 966 3258 M
5981 0 V
stroke
LT0
0.50 0.50 0.50 C 966 3258 M
63 0 V
5918 0 R
-63 0 V
-6002 0 R
( 67.8822) Rshow
1.000 UL
LT0
0.50 0.50 0.50 C 1.000 UL
LTa
0.50 0.50 0.50 C 966 3289 M
5981 0 V
stroke
LT0
0.50 0.50 0.50 C 966 3289 M
63 0 V
5918 0 R
-63 0 V
-6002 0 R
( 68.5893) Rshow
1.000 UL
LT0
0.50 0.50 0.50 C 1.000 UL
LTa
0.50 0.50 0.50 C 966 3320 M
5981 0 V
stroke
LT0
0.50 0.50 0.50 C 966 3320 M
63 0 V
5918 0 R
-63 0 V
-6002 0 R
( 69.2964) Rshow
1.000 UL
LT0
0.50 0.50 0.50 C 1.000 UL
LTa
0.50 0.50 0.50 C 966 3351 M
5981 0 V
stroke
LT0
0.50 0.50 0.50 C 966 3351 M
63 0 V
5918 0 R
-63 0 V
-6002 0 R
( 70.0035) Rshow
1.000 UL
LT0
0.50 0.50 0.50 C 1.000 UL
LTa
0.50 0.50 0.50 C 966 3382 M
5981 0 V
stroke
LT0
0.50 0.50 0.50 C 966 3382 M
63 0 V
5918 0 R
-63 0 V
-6002 0 R
( 70.7106) Rshow
1.000 UL
LT0
0.50 0.50 0.50 C 1.000 UL
LTa
0.50 0.50 0.50 C 966 3413 M
5981 0 V
stroke
LT0
0.50 0.50 0.50 C 966 3413 M
63 0 V
5918 0 R
-63 0 V
-6002 0 R
( 71.4177) Rshow
1.000 UL
LT0
0.50 0.50 0.50 C 1.000 UL
LTa
0.50 0.50 0.50 C 966 3444 M
5981 0 V
stroke
LT0
0.50 0.50 0.50 C 966 3444 M
63 0 V
5918 0 R
-63 0 V
-6002 0 R
( 72.1248) Rshow
1.000 UL
LT0
0.50 0.50 0.50 C 1.000 UL
LTa
0.50 0.50 0.50 C 966 3475 M
5981 0 V
stroke
LT0
0.50 0.50 0.50 C 966 3475 M
63 0 V
5918 0 R
-63 0 V
-6002 0 R
( 72.8319) Rshow
1.000 UL
LT0
0.50 0.50 0.50 C 1.000 UL
LTa
0.50 0.50 0.50 C 966 3506 M
5981 0 V
stroke
LT0
0.50 0.50 0.50 C 966 3506 M
63 0 V
5918 0 R
-63 0 V
-6002 0 R
( 73.539) Rshow
1.000 UL
LT0
0.50 0.50 0.50 C 1.000 UL
LTa
0.50 0.50 0.50 C 966 3537 M
5981 0 V
stroke
LT0
0.50 0.50 0.50 C 966 3537 M
63 0 V
5918 0 R
-63 0 V
-6002 0 R
( 74.2461) Rshow
1.000 UL
LT0
0.50 0.50 0.50 C 1.000 UL
LTa
0.50 0.50 0.50 C 966 3568 M
5981 0 V
stroke
LT0
0.50 0.50 0.50 C 966 3568 M
63 0 V
5918 0 R
-63 0 V
-6002 0 R
( 74.9532) Rshow
1.000 UL
LT0
0.50 0.50 0.50 C 1.000 UL
LTa
0.50 0.50 0.50 C 966 3599 M
5981 0 V
stroke
LT0
0.50 0.50 0.50 C 966 3599 M
63 0 V
5918 0 R
-63 0 V
-6002 0 R
( 75.6603) Rshow
1.000 UL
LT0
0.50 0.50 0.50 C 1.000 UL
LTa
0.50 0.50 0.50 C 966 3630 M
5981 0 V
stroke
LT0
0.50 0.50 0.50 C 966 3630 M
63 0 V
5918 0 R
-63 0 V
-6002 0 R
( 76.3674) Rshow
1.000 UL
LT0
0.50 0.50 0.50 C 1.000 UL
LTa
0.50 0.50 0.50 C 966 3661 M
5981 0 V
stroke
LT0
0.50 0.50 0.50 C 966 3661 M
63 0 V
5918 0 R
-63 0 V
-6002 0 R
( 77.0746) Rshow
1.000 UL
LT0
0.50 0.50 0.50 C 1.000 UL
LTa
0.50 0.50 0.50 C 966 3692 M
5981 0 V
stroke
LT0
0.50 0.50 0.50 C 966 3692 M
63 0 V
5918 0 R
-63 0 V
-6002 0 R
( 77.7817) Rshow
1.000 UL
LT0
0.50 0.50 0.50 C 1.000 UL
LTa
0.50 0.50 0.50 C 966 3723 M
5981 0 V
stroke
LT0
0.50 0.50 0.50 C 966 3723 M
63 0 V
5918 0 R
-63 0 V
-6002 0 R
( 78.4888) Rshow
1.000 UL
LT0
0.50 0.50 0.50 C 1.000 UL
LTa
0.50 0.50 0.50 C 966 3754 M
5981 0 V
stroke
LT0
0.50 0.50 0.50 C 966 3754 M
63 0 V
5918 0 R
-63 0 V
-6002 0 R
( 79.1959) Rshow
1.000 UL
LT0
0.50 0.50 0.50 C 1.000 UL
LTa
0.50 0.50 0.50 C 966 3785 M
5981 0 V
stroke
LT0
0.50 0.50 0.50 C 966 3785 M
63 0 V
5918 0 R
-63 0 V
-6002 0 R
( 79.903) Rshow
1.000 UL
LT0
0.50 0.50 0.50 C 1.000 UL
LTa
0.50 0.50 0.50 C 966 3816 M
5981 0 V
stroke
LT0
0.50 0.50 0.50 C 966 3816 M
63 0 V
5918 0 R
-63 0 V
-6002 0 R
( 80.6101) Rshow
1.000 UL
LT0
0.50 0.50 0.50 C 1.000 UL
LTa
0.50 0.50 0.50 C 966 3847 M
5981 0 V
stroke
LT0
0.50 0.50 0.50 C 966 3847 M
63 0 V
5918 0 R
-63 0 V
-6002 0 R
( 81.3172) Rshow
1.000 UL
LT0
0.50 0.50 0.50 C 1.000 UL
LTa
0.50 0.50 0.50 C 966 3878 M
5981 0 V
stroke
LT0
0.50 0.50 0.50 C 966 3878 M
63 0 V
5918 0 R
-63 0 V
-6002 0 R
( 82.0243) Rshow
1.000 UL
LT0
0.50 0.50 0.50 C 1.000 UL
LTa
0.50 0.50 0.50 C 966 3909 M
5981 0 V
stroke
LT0
0.50 0.50 0.50 C 966 3909 M
63 0 V
5918 0 R
-63 0 V
-6002 0 R
( 82.7314) Rshow
1.000 UL
LT0
0.50 0.50 0.50 C 1.000 UL
LTa
0.50 0.50 0.50 C 966 3940 M
5981 0 V
stroke
LT0
0.50 0.50 0.50 C 966 3940 M
63 0 V
5918 0 R
-63 0 V
-6002 0 R
( 83.4385) Rshow
1.000 UL
LT0
0.50 0.50 0.50 C 1.000 UL
LTa
0.50 0.50 0.50 C 966 3971 M
5981 0 V
stroke
LT0
0.50 0.50 0.50 C 966 3971 M
63 0 V
5918 0 R
-63 0 V
-6002 0 R
( 84.1456) Rshow
1.000 UL
LT0
0.50 0.50 0.50 C 1.000 UL
LTa
0.50 0.50 0.50 C 966 4002 M
5981 0 V
stroke
LT0
0.50 0.50 0.50 C 966 4002 M
63 0 V
5918 0 R
-63 0 V
-6002 0 R
( 84.8527) Rshow
1.000 UL
LT0
0.50 0.50 0.50 C 1.000 UL
LTa
0.50 0.50 0.50 C 966 4033 M
5981 0 V
stroke
LT0
0.50 0.50 0.50 C 966 4033 M
63 0 V
5918 0 R
-63 0 V
-6002 0 R
( 85.5598) Rshow
1.000 UL
LT0
0.50 0.50 0.50 C 1.000 UL
LTa
0.50 0.50 0.50 C 966 4064 M
5981 0 V
stroke
LT0
0.50 0.50 0.50 C 966 4064 M
63 0 V
5918 0 R
-63 0 V
-6002 0 R
( 86.2669) Rshow
1.000 UL
LT0
0.50 0.50 0.50 C 1.000 UL
LTa
0.50 0.50 0.50 C 966 4095 M
5981 0 V
stroke
LT0
0.50 0.50 0.50 C 966 4095 M
63 0 V
5918 0 R
-63 0 V
-6002 0 R
( 86.974) Rshow
1.000 UL
LT0
0.50 0.50 0.50 C 1.000 UL
LTa
0.50 0.50 0.50 C 966 4127 M
5981 0 V
stroke
LT0
0.50 0.50 0.50 C 966 4127 M
63 0 V
5918 0 R
-63 0 V
-6002 0 R
( 87.6811) Rshow
1.000 UL
LT0
0.50 0.50 0.50 C 1.000 UL
LTa
0.50 0.50 0.50 C 966 4158 M
5981 0 V
stroke
LT0
0.50 0.50 0.50 C 966 4158 M
63 0 V
5918 0 R
-63 0 V
-6002 0 R
( 88.3882) Rshow
1.000 UL
LT0
0.50 0.50 0.50 C 1.000 UL
LTa
0.50 0.50 0.50 C 966 4189 M
5981 0 V
stroke
LT0
0.50 0.50 0.50 C 966 4189 M
63 0 V
5918 0 R
-63 0 V
-6002 0 R
( 89.0954) Rshow
1.000 UL
LT0
0.50 0.50 0.50 C 1.000 UL
LTa
0.50 0.50 0.50 C 966 4220 M
5981 0 V
stroke
LT0
0.50 0.50 0.50 C 966 4220 M
63 0 V
5918 0 R
-63 0 V
-6002 0 R
( 89.8025) Rshow
1.000 UL
LT0
0.50 0.50 0.50 C 1.000 UL
LTa
0.50 0.50 0.50 C 966 4251 M
5981 0 V
stroke
LT0
0.50 0.50 0.50 C 966 4251 M
63 0 V
5918 0 R
-63 0 V
-6002 0 R
( 90.5096) Rshow
1.000 UL
LT0
0.50 0.50 0.50 C 1.000 UL
LTa
0.50 0.50 0.50 C 966 4282 M
5981 0 V
stroke
LT0
0.50 0.50 0.50 C 966 4282 M
63 0 V
5918 0 R
-63 0 V
-6002 0 R
( 91.2167) Rshow
1.000 UL
LT0
0.50 0.50 0.50 C 1.000 UL
LTa
0.50 0.50 0.50 C 966 4313 M
5981 0 V
stroke
LT0
0.50 0.50 0.50 C 966 4313 M
63 0 V
5918 0 R
-63 0 V
-6002 0 R
( 91.9238) Rshow
1.000 UL
LT0
0.50 0.50 0.50 C 1.000 UL
LTa
0.50 0.50 0.50 C 966 4344 M
5981 0 V
stroke
LT0
0.50 0.50 0.50 C 966 4344 M
63 0 V
5918 0 R
-63 0 V
-6002 0 R
( 92.6309) Rshow
1.000 UL
LT0
0.50 0.50 0.50 C 1.000 UL
LTa
0.50 0.50 0.50 C 966 4375 M
5981 0 V
stroke
LT0
0.50 0.50 0.50 C 966 4375 M
63 0 V
5918 0 R
-63 0 V
-6002 0 R
( 93.338) Rshow
1.000 UL
LT0
0.50 0.50 0.50 C 1.000 UL
LTa
0.50 0.50 0.50 C 966 4406 M
5981 0 V
stroke
LT0
0.50 0.50 0.50 C 966 4406 M
63 0 V
5918 0 R
-63 0 V
-6002 0 R
( 94.0451) Rshow
1.000 UL
LT0
0.50 0.50 0.50 C 1.000 UL
LTa
0.50 0.50 0.50 C 966 4437 M
5981 0 V
stroke
LT0
0.50 0.50 0.50 C 966 4437 M
63 0 V
5918 0 R
-63 0 V
-6002 0 R
( 94.7522) Rshow
1.000 UL
LT0
0.50 0.50 0.50 C 1.000 UL
LTa
0.50 0.50 0.50 C 966 4468 M
5981 0 V
stroke
LT0
0.50 0.50 0.50 C 966 4468 M
63 0 V
5918 0 R
-63 0 V
-6002 0 R
( 95.4593) Rshow
1.000 UL
LT0
0.50 0.50 0.50 C 1.000 UL
LTa
0.50 0.50 0.50 C 966 4499 M
5981 0 V
stroke
LT0
0.50 0.50 0.50 C 966 4499 M
63 0 V
5918 0 R
-63 0 V
-6002 0 R
( 96.1664) Rshow
1.000 UL
LT0
0.50 0.50 0.50 C 1.000 UL
LTa
0.50 0.50 0.50 C 966 4530 M
5981 0 V
stroke
LT0
0.50 0.50 0.50 C 966 4530 M
63 0 V
5918 0 R
-63 0 V
-6002 0 R
( 96.8735) Rshow
1.000 UL
LT0
0.50 0.50 0.50 C 1.000 UL
LTa
0.50 0.50 0.50 C 966 4561 M
5981 0 V
stroke
LT0
0.50 0.50 0.50 C 966 4561 M
63 0 V
5918 0 R
-63 0 V
-6002 0 R
( 97.5806) Rshow
1.000 UL
LT0
0.50 0.50 0.50 C 1.000 UL
LTa
0.50 0.50 0.50 C 966 4592 M
5981 0 V
stroke
LT0
0.50 0.50 0.50 C 966 4592 M
63 0 V
5918 0 R
-63 0 V
-6002 0 R
( 98.2877) Rshow
1.000 UL
LT0
0.50 0.50 0.50 C 1.000 UL
LTa
0.50 0.50 0.50 C 966 4623 M
5981 0 V
stroke
LT0
0.50 0.50 0.50 C 966 4623 M
63 0 V
5918 0 R
-63 0 V
-6002 0 R
( 98.9948) Rshow
1.000 UL
LT0
0.50 0.50 0.50 C 1.000 UL
LTa
0.50 0.50 0.50 C 966 4654 M
5981 0 V
stroke
LT0
0.50 0.50 0.50 C 966 4654 M
63 0 V
5918 0 R
-63 0 V
-6002 0 R
( 99.7019) Rshow
1.000 UL
LT0
0.50 0.50 0.50 C 1.000 UL
LTa
0.50 0.50 0.50 C 966 4685 M
5981 0 V
stroke
LT0
0.50 0.50 0.50 C 966 4685 M
63 0 V
5918 0 R
-63 0 V
-6002 0 R
( 100.409) Rshow
1.000 UL
LT0
0.50 0.50 0.50 C 1.000 UL
LTa
0.50 0.50 0.50 C 966 4716 M
5981 0 V
stroke
LT0
0.50 0.50 0.50 C 966 4716 M
63 0 V
5918 0 R
-63 0 V
-6002 0 R
( 101.116) Rshow
1.000 UL
LT0
0.50 0.50 0.50 C 1.000 UL
LTa
0.50 0.50 0.50 C 966 4747 M
5981 0 V
stroke
LT0
0.50 0.50 0.50 C 966 4747 M
63 0 V
5918 0 R
-63 0 V
-6002 0 R
( 101.823) Rshow
1.000 UL
LT0
0.50 0.50 0.50 C 1.000 UL
LTa
0.50 0.50 0.50 C 966 4778 M
5981 0 V
stroke
LT0
0.50 0.50 0.50 C 966 4778 M
63 0 V
5918 0 R
-63 0 V
-6002 0 R
( 102.53) Rshow
1.000 UL
LT0
0.50 0.50 0.50 C 1.000 UL
LTa
0.50 0.50 0.50 C 966 4809 M
5981 0 V
stroke
LT0
0.50 0.50 0.50 C 966 4809 M
63 0 V
5918 0 R
-63 0 V
-6002 0 R
( 103.237) Rshow
1.000 UL
LT0
0.50 0.50 0.50 C 1.000 UL
LTa
0.50 0.50 0.50 C 966 4840 M
5981 0 V
stroke
LT0
0.50 0.50 0.50 C 966 4840 M
63 0 V
5918 0 R
-63 0 V
-6002 0 R
( 103.945) Rshow
1.000 UL
LT0
0.50 0.50 0.50 C 1.000 UL
LTa
0.50 0.50 0.50 C 966 4871 M
5981 0 V
stroke
LT0
0.50 0.50 0.50 C 966 4871 M
63 0 V
5918 0 R
-63 0 V
-6002 0 R
( 104.652) Rshow
1.000 UL
LT0
0.50 0.50 0.50 C 1.000 UL
LTa
0.50 0.50 0.50 C 966 280 M
0 4591 V
stroke
LT0
0.50 0.50 0.50 C 966 280 M
0 63 V
0 4528 R
0 -63 V
966 140 M
( 0) Cshow
1.000 UL
LT0
0.50 0.50 0.50 C 1.000 UL
LTa
0.50 0.50 0.50 C 1006 280 M
0 4591 V
stroke
LT0
0.50 0.50 0.50 C 1006 280 M
0 63 V
0 4528 R
0 -63 V
0 -4668 R
( 0.707106) Cshow
1.000 UL
LT0
0.50 0.50 0.50 C 1.000 UL
LTa
0.50 0.50 0.50 C 1047 280 M
0 4591 V
stroke
LT0
0.50 0.50 0.50 C 1047 280 M
0 63 V
0 4528 R
0 -63 V
0 -4668 R
( 1.41421) Cshow
1.000 UL
LT0
0.50 0.50 0.50 C 1.000 UL
LTa
0.50 0.50 0.50 C 1087 280 M
0 4591 V
stroke
LT0
0.50 0.50 0.50 C 1087 280 M
0 63 V
0 4528 R
0 -63 V
0 -4668 R
( 2.12132) Cshow
1.000 UL
LT0
0.50 0.50 0.50 C 1.000 UL
LTa
0.50 0.50 0.50 C 1128 280 M
0 4591 V
stroke
LT0
0.50 0.50 0.50 C 1128 280 M
0 63 V
0 4528 R
0 -63 V
0 -4668 R
( 2.82842) Cshow
1.000 UL
LT0
0.50 0.50 0.50 C 1.000 UL
LTa
0.50 0.50 0.50 C 1168 280 M
0 4591 V
stroke
LT0
0.50 0.50 0.50 C 1168 280 M
0 63 V
0 4528 R
0 -63 V
0 -4668 R
( 3.53553) Cshow
1.000 UL
LT0
0.50 0.50 0.50 C 1.000 UL
LTa
0.50 0.50 0.50 C 1208 280 M
0 4591 V
stroke
LT0
0.50 0.50 0.50 C 1208 280 M
0 63 V
0 4528 R
0 -63 V
0 -4668 R
( 4.24264) Cshow
1.000 UL
LT0
0.50 0.50 0.50 C 1.000 UL
LTa
0.50 0.50 0.50 C 1249 280 M
0 4591 V
stroke
LT0
0.50 0.50 0.50 C 1249 280 M
0 63 V
0 4528 R
0 -63 V
0 -4668 R
( 4.94974) Cshow
1.000 UL
LT0
0.50 0.50 0.50 C 1.000 UL
LTa
0.50 0.50 0.50 C 1289 280 M
0 4591 V
stroke
LT0
0.50 0.50 0.50 C 1289 280 M
0 63 V
0 4528 R
0 -63 V
0 -4668 R
( 5.65685) Cshow
1.000 UL
LT0
0.50 0.50 0.50 C 1.000 UL
LTa
0.50 0.50 0.50 C 1330 280 M
0 4591 V
stroke
LT0
0.50 0.50 0.50 C 1330 280 M
0 63 V
0 4528 R
0 -63 V
0 -4668 R
( 6.36395) Cshow
1.000 UL
LT0
0.50 0.50 0.50 C 1.000 UL
LTa
0.50 0.50 0.50 C 1370 280 M
0 4591 V
stroke
LT0
0.50 0.50 0.50 C 1370 280 M
0 63 V
0 4528 R
0 -63 V
0 -4668 R
( 7.07106) Cshow
1.000 UL
LT0
0.50 0.50 0.50 C 1.000 UL
LTa
0.50 0.50 0.50 C 1411 280 M
0 4591 V
stroke
LT0
0.50 0.50 0.50 C 1411 280 M
0 63 V
0 4528 R
0 -63 V
0 -4668 R
( 7.77817) Cshow
1.000 UL
LT0
0.50 0.50 0.50 C 1.000 UL
LTa
0.50 0.50 0.50 C 1451 280 M
0 4591 V
stroke
LT0
0.50 0.50 0.50 C 1451 280 M
0 63 V
0 4528 R
0 -63 V
0 -4668 R
( 8.48527) Cshow
1.000 UL
LT0
0.50 0.50 0.50 C 1.000 UL
LTa
0.50 0.50 0.50 C 1491 280 M
0 4591 V
stroke
LT0
0.50 0.50 0.50 C 1491 280 M
0 63 V
0 4528 R
0 -63 V
0 -4668 R
( 9.19238) Cshow
1.000 UL
LT0
0.50 0.50 0.50 C 1.000 UL
LTa
0.50 0.50 0.50 C 1532 280 M
0 4591 V
stroke
LT0
0.50 0.50 0.50 C 1532 280 M
0 63 V
0 4528 R
0 -63 V
0 -4668 R
( 9.89948) Cshow
1.000 UL
LT0
0.50 0.50 0.50 C 1.000 UL
LTa
0.50 0.50 0.50 C 1572 280 M
0 4591 V
stroke
LT0
0.50 0.50 0.50 C 1572 280 M
0 63 V
0 4528 R
0 -63 V
0 -4668 R
( 10.6066) Cshow
1.000 UL
LT0
0.50 0.50 0.50 C 1.000 UL
LTa
0.50 0.50 0.50 C 1613 280 M
0 4591 V
stroke
LT0
0.50 0.50 0.50 C 1613 280 M
0 63 V
0 4528 R
0 -63 V
0 -4668 R
( 11.3137) Cshow
1.000 UL
LT0
0.50 0.50 0.50 C 1.000 UL
LTa
0.50 0.50 0.50 C 1653 280 M
0 4591 V
stroke
LT0
0.50 0.50 0.50 C 1653 280 M
0 63 V
0 4528 R
0 -63 V
0 -4668 R
( 12.0208) Cshow
1.000 UL
LT0
0.50 0.50 0.50 C 1.000 UL
LTa
0.50 0.50 0.50 C 1693 280 M
0 4591 V
stroke
LT0
0.50 0.50 0.50 C 1693 280 M
0 63 V
0 4528 R
0 -63 V
0 -4668 R
( 12.7279) Cshow
1.000 UL
LT0
0.50 0.50 0.50 C 1.000 UL
LTa
0.50 0.50 0.50 C 1734 280 M
0 4591 V
stroke
LT0
0.50 0.50 0.50 C 1734 280 M
0 63 V
0 4528 R
0 -63 V
0 -4668 R
( 13.435) Cshow
1.000 UL
LT0
0.50 0.50 0.50 C 1.000 UL
LTa
0.50 0.50 0.50 C 1774 280 M
0 4591 V
stroke
LT0
0.50 0.50 0.50 C 1774 280 M
0 63 V
0 4528 R
0 -63 V
0 -4668 R
( 14.1421) Cshow
1.000 UL
LT0
0.50 0.50 0.50 C 1.000 UL
LTa
0.50 0.50 0.50 C 1815 280 M
0 4591 V
stroke
LT0
0.50 0.50 0.50 C 1815 280 M
0 63 V
0 4528 R
0 -63 V
0 -4668 R
( 14.8492) Cshow
1.000 UL
LT0
0.50 0.50 0.50 C 1.000 UL
LTa
0.50 0.50 0.50 C 1855 280 M
0 4591 V
stroke
LT0
0.50 0.50 0.50 C 1855 280 M
0 63 V
0 4528 R
0 -63 V
0 -4668 R
( 15.5563) Cshow
1.000 UL
LT0
0.50 0.50 0.50 C 1.000 UL
LTa
0.50 0.50 0.50 C 1895 280 M
0 4591 V
stroke
LT0
0.50 0.50 0.50 C 1895 280 M
0 63 V
0 4528 R
0 -63 V
0 -4668 R
( 16.2634) Cshow
1.000 UL
LT0
0.50 0.50 0.50 C 1.000 UL
LTa
0.50 0.50 0.50 C 1936 280 M
0 4591 V
stroke
LT0
0.50 0.50 0.50 C 1936 280 M
0 63 V
0 4528 R
0 -63 V
0 -4668 R
( 16.9705) Cshow
1.000 UL
LT0
0.50 0.50 0.50 C 1.000 UL
LTa
0.50 0.50 0.50 C 1976 280 M
0 4591 V
stroke
LT0
0.50 0.50 0.50 C 1976 280 M
0 63 V
0 4528 R
0 -63 V
0 -4668 R
( 17.6776) Cshow
1.000 UL
LT0
0.50 0.50 0.50 C 1.000 UL
LTa
0.50 0.50 0.50 C 2017 280 M
0 4591 V
stroke
LT0
0.50 0.50 0.50 C 2017 280 M
0 63 V
0 4528 R
0 -63 V
0 -4668 R
( 18.3848) Cshow
1.000 UL
LT0
0.50 0.50 0.50 C 1.000 UL
LTa
0.50 0.50 0.50 C 2057 280 M
0 4591 V
stroke
LT0
0.50 0.50 0.50 C 2057 280 M
0 63 V
0 4528 R
0 -63 V
0 -4668 R
( 19.0919) Cshow
1.000 UL
LT0
0.50 0.50 0.50 C 1.000 UL
LTa
0.50 0.50 0.50 C 2098 280 M
0 4591 V
stroke
LT0
0.50 0.50 0.50 C 2098 280 M
0 63 V
0 4528 R
0 -63 V
0 -4668 R
( 19.799) Cshow
1.000 UL
LT0
0.50 0.50 0.50 C 1.000 UL
LTa
0.50 0.50 0.50 C 2138 280 M
0 4591 V
stroke
LT0
0.50 0.50 0.50 C 2138 280 M
0 63 V
0 4528 R
0 -63 V
0 -4668 R
( 20.5061) Cshow
1.000 UL
LT0
0.50 0.50 0.50 C 1.000 UL
LTa
0.50 0.50 0.50 C 2178 280 M
0 4591 V
stroke
LT0
0.50 0.50 0.50 C 2178 280 M
0 63 V
0 4528 R
0 -63 V
0 -4668 R
( 21.2132) Cshow
1.000 UL
LT0
0.50 0.50 0.50 C 1.000 UL
LTa
0.50 0.50 0.50 C 2219 280 M
0 4591 V
stroke
LT0
0.50 0.50 0.50 C 2219 280 M
0 63 V
0 4528 R
0 -63 V
0 -4668 R
( 21.9203) Cshow
1.000 UL
LT0
0.50 0.50 0.50 C 1.000 UL
LTa
0.50 0.50 0.50 C 2259 280 M
0 4591 V
stroke
LT0
0.50 0.50 0.50 C 2259 280 M
0 63 V
0 4528 R
0 -63 V
0 -4668 R
( 22.6274) Cshow
1.000 UL
LT0
0.50 0.50 0.50 C 1.000 UL
LTa
0.50 0.50 0.50 C 2300 280 M
0 4591 V
stroke
LT0
0.50 0.50 0.50 C 2300 280 M
0 63 V
0 4528 R
0 -63 V
0 -4668 R
( 23.3345) Cshow
1.000 UL
LT0
0.50 0.50 0.50 C 1.000 UL
LTa
0.50 0.50 0.50 C 2340 280 M
0 4591 V
stroke
LT0
0.50 0.50 0.50 C 2340 280 M
0 63 V
0 4528 R
0 -63 V
0 -4668 R
( 24.0416) Cshow
1.000 UL
LT0
0.50 0.50 0.50 C 1.000 UL
LTa
0.50 0.50 0.50 C 2380 280 M
0 4591 V
stroke
LT0
0.50 0.50 0.50 C 2380 280 M
0 63 V
0 4528 R
0 -63 V
0 -4668 R
( 24.7487) Cshow
1.000 UL
LT0
0.50 0.50 0.50 C 1.000 UL
LTa
0.50 0.50 0.50 C 2421 280 M
0 4591 V
stroke
LT0
0.50 0.50 0.50 C 2421 280 M
0 63 V
0 4528 R
0 -63 V
0 -4668 R
( 25.4558) Cshow
1.000 UL
LT0
0.50 0.50 0.50 C 1.000 UL
LTa
0.50 0.50 0.50 C 2461 280 M
0 4591 V
stroke
LT0
0.50 0.50 0.50 C 2461 280 M
0 63 V
0 4528 R
0 -63 V
0 -4668 R
( 26.1629) Cshow
1.000 UL
LT0
0.50 0.50 0.50 C 1.000 UL
LTa
0.50 0.50 0.50 C 2502 280 M
0 4591 V
stroke
LT0
0.50 0.50 0.50 C 2502 280 M
0 63 V
0 4528 R
0 -63 V
0 -4668 R
( 26.87) Cshow
1.000 UL
LT0
0.50 0.50 0.50 C 1.000 UL
LTa
0.50 0.50 0.50 C 2542 280 M
0 4591 V
stroke
LT0
0.50 0.50 0.50 C 2542 280 M
0 63 V
0 4528 R
0 -63 V
0 -4668 R
( 27.5771) Cshow
1.000 UL
LT0
0.50 0.50 0.50 C 1.000 UL
LTa
0.50 0.50 0.50 C 2582 280 M
0 4591 V
stroke
LT0
0.50 0.50 0.50 C 2582 280 M
0 63 V
0 4528 R
0 -63 V
0 -4668 R
( 28.2842) Cshow
1.000 UL
LT0
0.50 0.50 0.50 C 1.000 UL
LTa
0.50 0.50 0.50 C 2623 280 M
0 4591 V
stroke
LT0
0.50 0.50 0.50 C 2623 280 M
0 63 V
0 4528 R
0 -63 V
0 -4668 R
( 28.9913) Cshow
1.000 UL
LT0
0.50 0.50 0.50 C 1.000 UL
LTa
0.50 0.50 0.50 C 2663 280 M
0 4591 V
stroke
LT0
0.50 0.50 0.50 C 2663 280 M
0 63 V
0 4528 R
0 -63 V
0 -4668 R
( 29.6985) Cshow
1.000 UL
LT0
0.50 0.50 0.50 C 1.000 UL
LTa
0.50 0.50 0.50 C 2704 280 M
0 4591 V
stroke
LT0
0.50 0.50 0.50 C 2704 280 M
0 63 V
0 4528 R
0 -63 V
0 -4668 R
( 30.4056) Cshow
1.000 UL
LT0
0.50 0.50 0.50 C 1.000 UL
LTa
0.50 0.50 0.50 C 2744 280 M
0 4591 V
stroke
LT0
0.50 0.50 0.50 C 2744 280 M
0 63 V
0 4528 R
0 -63 V
0 -4668 R
( 31.1127) Cshow
1.000 UL
LT0
0.50 0.50 0.50 C 1.000 UL
LTa
0.50 0.50 0.50 C 2785 280 M
0 4591 V
stroke
LT0
0.50 0.50 0.50 C 2785 280 M
0 63 V
0 4528 R
0 -63 V
0 -4668 R
( 31.8198) Cshow
1.000 UL
LT0
0.50 0.50 0.50 C 1.000 UL
LTa
0.50 0.50 0.50 C 2825 280 M
0 4591 V
stroke
LT0
0.50 0.50 0.50 C 2825 280 M
0 63 V
0 4528 R
0 -63 V
0 -4668 R
( 32.5269) Cshow
1.000 UL
LT0
0.50 0.50 0.50 C 1.000 UL
LTa
0.50 0.50 0.50 C 2865 280 M
0 4591 V
stroke
LT0
0.50 0.50 0.50 C 2865 280 M
0 63 V
0 4528 R
0 -63 V
0 -4668 R
( 33.234) Cshow
1.000 UL
LT0
0.50 0.50 0.50 C 1.000 UL
LTa
0.50 0.50 0.50 C 2906 280 M
0 4591 V
stroke
LT0
0.50 0.50 0.50 C 2906 280 M
0 63 V
0 4528 R
0 -63 V
0 -4668 R
( 33.9411) Cshow
1.000 UL
LT0
0.50 0.50 0.50 C 1.000 UL
LTa
0.50 0.50 0.50 C 2946 280 M
0 4591 V
stroke
LT0
0.50 0.50 0.50 C 2946 280 M
0 63 V
0 4528 R
0 -63 V
0 -4668 R
( 34.6482) Cshow
1.000 UL
LT0
0.50 0.50 0.50 C 1.000 UL
LTa
0.50 0.50 0.50 C 2987 280 M
0 4591 V
stroke
LT0
0.50 0.50 0.50 C 2987 280 M
0 63 V
0 4528 R
0 -63 V
0 -4668 R
( 35.3553) Cshow
1.000 UL
LT0
0.50 0.50 0.50 C 1.000 UL
LTa
0.50 0.50 0.50 C 3027 280 M
0 4591 V
stroke
LT0
0.50 0.50 0.50 C 3027 280 M
0 63 V
0 4528 R
0 -63 V
0 -4668 R
( 36.0624) Cshow
1.000 UL
LT0
0.50 0.50 0.50 C 1.000 UL
LTa
0.50 0.50 0.50 C 3067 280 M
0 4591 V
stroke
LT0
0.50 0.50 0.50 C 3067 280 M
0 63 V
0 4528 R
0 -63 V
0 -4668 R
( 36.7695) Cshow
1.000 UL
LT0
0.50 0.50 0.50 C 1.000 UL
LTa
0.50 0.50 0.50 C 3108 280 M
0 4591 V
stroke
LT0
0.50 0.50 0.50 C 3108 280 M
0 63 V
0 4528 R
0 -63 V
0 -4668 R
( 37.4766) Cshow
1.000 UL
LT0
0.50 0.50 0.50 C 1.000 UL
LTa
0.50 0.50 0.50 C 3148 280 M
0 4591 V
stroke
LT0
0.50 0.50 0.50 C 3148 280 M
0 63 V
0 4528 R
0 -63 V
0 -4668 R
( 38.1837) Cshow
1.000 UL
LT0
0.50 0.50 0.50 C 1.000 UL
LTa
0.50 0.50 0.50 C 3189 280 M
0 4591 V
stroke
LT0
0.50 0.50 0.50 C 3189 280 M
0 63 V
0 4528 R
0 -63 V
0 -4668 R
( 38.8908) Cshow
1.000 UL
LT0
0.50 0.50 0.50 C 1.000 UL
LTa
0.50 0.50 0.50 C 3229 280 M
0 4591 V
stroke
LT0
0.50 0.50 0.50 C 3229 280 M
0 63 V
0 4528 R
0 -63 V
0 -4668 R
( 39.5979) Cshow
1.000 UL
LT0
0.50 0.50 0.50 C 1.000 UL
LTa
0.50 0.50 0.50 C 3269 280 M
0 4591 V
stroke
LT0
0.50 0.50 0.50 C 3269 280 M
0 63 V
0 4528 R
0 -63 V
0 -4668 R
( 40.305) Cshow
1.000 UL
LT0
0.50 0.50 0.50 C 1.000 UL
LTa
0.50 0.50 0.50 C 3310 280 M
0 4591 V
stroke
LT0
0.50 0.50 0.50 C 3310 280 M
0 63 V
0 4528 R
0 -63 V
0 -4668 R
( 41.0121) Cshow
1.000 UL
LT0
0.50 0.50 0.50 C 1.000 UL
LTa
0.50 0.50 0.50 C 3350 280 M
0 4591 V
stroke
LT0
0.50 0.50 0.50 C 3350 280 M
0 63 V
0 4528 R
0 -63 V
0 -4668 R
( 41.7193) Cshow
1.000 UL
LT0
0.50 0.50 0.50 C 1.000 UL
LTa
0.50 0.50 0.50 C 3391 280 M
0 4591 V
stroke
LT0
0.50 0.50 0.50 C 3391 280 M
0 63 V
0 4528 R
0 -63 V
0 -4668 R
( 42.4264) Cshow
1.000 UL
LT0
0.50 0.50 0.50 C 1.000 UL
LTa
0.50 0.50 0.50 C 3431 280 M
0 4591 V
stroke
LT0
0.50 0.50 0.50 C 3431 280 M
0 63 V
0 4528 R
0 -63 V
0 -4668 R
( 43.1335) Cshow
1.000 UL
LT0
0.50 0.50 0.50 C 1.000 UL
LTa
0.50 0.50 0.50 C 3472 280 M
0 4591 V
stroke
LT0
0.50 0.50 0.50 C 3472 280 M
0 63 V
0 4528 R
0 -63 V
0 -4668 R
( 43.8406) Cshow
1.000 UL
LT0
0.50 0.50 0.50 C 1.000 UL
LTa
0.50 0.50 0.50 C 3512 280 M
0 4591 V
stroke
LT0
0.50 0.50 0.50 C 3512 280 M
0 63 V
0 4528 R
0 -63 V
0 -4668 R
( 44.5477) Cshow
1.000 UL
LT0
0.50 0.50 0.50 C 1.000 UL
LTa
0.50 0.50 0.50 C 3552 280 M
0 4591 V
stroke
LT0
0.50 0.50 0.50 C 3552 280 M
0 63 V
0 4528 R
0 -63 V
0 -4668 R
( 45.2548) Cshow
1.000 UL
LT0
0.50 0.50 0.50 C 1.000 UL
LTa
0.50 0.50 0.50 C 3593 280 M
0 4591 V
stroke
LT0
0.50 0.50 0.50 C 3593 280 M
0 63 V
0 4528 R
0 -63 V
0 -4668 R
( 45.9619) Cshow
1.000 UL
LT0
0.50 0.50 0.50 C 1.000 UL
LTa
0.50 0.50 0.50 C 3633 280 M
0 4591 V
stroke
LT0
0.50 0.50 0.50 C 3633 280 M
0 63 V
0 4528 R
0 -63 V
0 -4668 R
( 46.669) Cshow
1.000 UL
LT0
0.50 0.50 0.50 C 1.000 UL
LTa
0.50 0.50 0.50 C 3674 280 M
0 4591 V
stroke
LT0
0.50 0.50 0.50 C 3674 280 M
0 63 V
0 4528 R
0 -63 V
0 -4668 R
( 47.3761) Cshow
1.000 UL
LT0
0.50 0.50 0.50 C 1.000 UL
LTa
0.50 0.50 0.50 C 3714 280 M
0 4591 V
stroke
LT0
0.50 0.50 0.50 C 3714 280 M
0 63 V
0 4528 R
0 -63 V
0 -4668 R
( 48.0832) Cshow
1.000 UL
LT0
0.50 0.50 0.50 C 1.000 UL
LTa
0.50 0.50 0.50 C 3754 280 M
0 4591 V
stroke
LT0
0.50 0.50 0.50 C 3754 280 M
0 63 V
0 4528 R
0 -63 V
0 -4668 R
( 48.7903) Cshow
1.000 UL
LT0
0.50 0.50 0.50 C 1.000 UL
LTa
0.50 0.50 0.50 C 3795 280 M
0 4591 V
stroke
LT0
0.50 0.50 0.50 C 3795 280 M
0 63 V
0 4528 R
0 -63 V
0 -4668 R
( 49.4974) Cshow
1.000 UL
LT0
0.50 0.50 0.50 C 1.000 UL
LTa
0.50 0.50 0.50 C 3835 280 M
0 4591 V
stroke
LT0
0.50 0.50 0.50 C 3835 280 M
0 63 V
0 4528 R
0 -63 V
0 -4668 R
( 50.2045) Cshow
1.000 UL
LT0
0.50 0.50 0.50 C 1.000 UL
LTa
0.50 0.50 0.50 C 3876 280 M
0 4591 V
stroke
LT0
0.50 0.50 0.50 C 3876 280 M
0 63 V
0 4528 R
0 -63 V
0 -4668 R
( 50.9116) Cshow
1.000 UL
LT0
0.50 0.50 0.50 C 1.000 UL
LTa
0.50 0.50 0.50 C 3916 280 M
0 4591 V
stroke
LT0
0.50 0.50 0.50 C 3916 280 M
0 63 V
0 4528 R
0 -63 V
0 -4668 R
( 51.6187) Cshow
1.000 UL
LT0
0.50 0.50 0.50 C 1.000 UL
LTa
0.50 0.50 0.50 C 3957 280 M
0 4591 V
stroke
LT0
0.50 0.50 0.50 C 3957 280 M
0 63 V
0 4528 R
0 -63 V
0 -4668 R
( 52.3258) Cshow
1.000 UL
LT0
0.50 0.50 0.50 C 1.000 UL
LTa
0.50 0.50 0.50 C 3997 280 M
0 4591 V
stroke
LT0
0.50 0.50 0.50 C 3997 280 M
0 63 V
0 4528 R
0 -63 V
0 -4668 R
( 53.033) Cshow
1.000 UL
LT0
0.50 0.50 0.50 C 1.000 UL
LTa
0.50 0.50 0.50 C 4037 280 M
0 4591 V
stroke
LT0
0.50 0.50 0.50 C 4037 280 M
0 63 V
0 4528 R
0 -63 V
0 -4668 R
( 53.7401) Cshow
1.000 UL
LT0
0.50 0.50 0.50 C 1.000 UL
LTa
0.50 0.50 0.50 C 4078 280 M
0 4591 V
stroke
LT0
0.50 0.50 0.50 C 4078 280 M
0 63 V
0 4528 R
0 -63 V
0 -4668 R
( 54.4472) Cshow
1.000 UL
LT0
0.50 0.50 0.50 C 1.000 UL
LTa
0.50 0.50 0.50 C 4118 280 M
0 4591 V
stroke
LT0
0.50 0.50 0.50 C 4118 280 M
0 63 V
0 4528 R
0 -63 V
0 -4668 R
( 55.1543) Cshow
1.000 UL
LT0
0.50 0.50 0.50 C 1.000 UL
LTa
0.50 0.50 0.50 C 4159 280 M
0 4591 V
stroke
LT0
0.50 0.50 0.50 C 4159 280 M
0 63 V
0 4528 R
0 -63 V
0 -4668 R
( 55.8614) Cshow
1.000 UL
LT0
0.50 0.50 0.50 C 1.000 UL
LTa
0.50 0.50 0.50 C 4199 280 M
0 4591 V
stroke
LT0
0.50 0.50 0.50 C 4199 280 M
0 63 V
0 4528 R
0 -63 V
0 -4668 R
( 56.5685) Cshow
1.000 UL
LT0
0.50 0.50 0.50 C 1.000 UL
LTa
0.50 0.50 0.50 C 4239 280 M
0 4591 V
stroke
LT0
0.50 0.50 0.50 C 4239 280 M
0 63 V
0 4528 R
0 -63 V
0 -4668 R
( 57.2756) Cshow
1.000 UL
LT0
0.50 0.50 0.50 C 1.000 UL
LTa
0.50 0.50 0.50 C 4280 280 M
0 4591 V
stroke
LT0
0.50 0.50 0.50 C 4280 280 M
0 63 V
0 4528 R
0 -63 V
0 -4668 R
( 57.9827) Cshow
1.000 UL
LT0
0.50 0.50 0.50 C 1.000 UL
LTa
0.50 0.50 0.50 C 4320 280 M
0 4591 V
stroke
LT0
0.50 0.50 0.50 C 4320 280 M
0 63 V
0 4528 R
0 -63 V
0 -4668 R
( 58.6898) Cshow
1.000 UL
LT0
0.50 0.50 0.50 C 1.000 UL
LTa
0.50 0.50 0.50 C 4361 280 M
0 4591 V
stroke
LT0
0.50 0.50 0.50 C 4361 280 M
0 63 V
0 4528 R
0 -63 V
0 -4668 R
( 59.3969) Cshow
1.000 UL
LT0
0.50 0.50 0.50 C 1.000 UL
LTa
0.50 0.50 0.50 C 4401 280 M
0 4591 V
stroke
LT0
0.50 0.50 0.50 C 4401 280 M
0 63 V
0 4528 R
0 -63 V
0 -4668 R
( 60.104) Cshow
1.000 UL
LT0
0.50 0.50 0.50 C 1.000 UL
LTa
0.50 0.50 0.50 C 4441 280 M
0 4591 V
stroke
LT0
0.50 0.50 0.50 C 4441 280 M
0 63 V
0 4528 R
0 -63 V
0 -4668 R
( 60.8111) Cshow
1.000 UL
LT0
0.50 0.50 0.50 C 1.000 UL
LTa
0.50 0.50 0.50 C 4482 280 M
0 4591 V
stroke
LT0
0.50 0.50 0.50 C 4482 280 M
0 63 V
0 4528 R
0 -63 V
0 -4668 R
( 61.5182) Cshow
1.000 UL
LT0
0.50 0.50 0.50 C 1.000 UL
LTa
0.50 0.50 0.50 C 4522 280 M
0 4591 V
stroke
LT0
0.50 0.50 0.50 C 4522 280 M
0 63 V
0 4528 R
0 -63 V
0 -4668 R
( 62.2253) Cshow
1.000 UL
LT0
0.50 0.50 0.50 C 1.000 UL
LTa
0.50 0.50 0.50 C 4563 280 M
0 4591 V
stroke
LT0
0.50 0.50 0.50 C 4563 280 M
0 63 V
0 4528 R
0 -63 V
0 -4668 R
( 62.9324) Cshow
1.000 UL
LT0
0.50 0.50 0.50 C 1.000 UL
LTa
0.50 0.50 0.50 C 4603 280 M
0 4591 V
stroke
LT0
0.50 0.50 0.50 C 4603 280 M
0 63 V
0 4528 R
0 -63 V
0 -4668 R
( 63.6395) Cshow
1.000 UL
LT0
0.50 0.50 0.50 C 1.000 UL
LTa
0.50 0.50 0.50 C 4644 280 M
0 4591 V
stroke
LT0
0.50 0.50 0.50 C 4644 280 M
0 63 V
0 4528 R
0 -63 V
0 -4668 R
( 64.3466) Cshow
1.000 UL
LT0
0.50 0.50 0.50 C 1.000 UL
LTa
0.50 0.50 0.50 C 4684 280 M
0 4591 V
stroke
LT0
0.50 0.50 0.50 C 4684 280 M
0 63 V
0 4528 R
0 -63 V
0 -4668 R
( 65.0538) Cshow
1.000 UL
LT0
0.50 0.50 0.50 C 1.000 UL
LTa
0.50 0.50 0.50 C 4724 280 M
0 4591 V
stroke
LT0
0.50 0.50 0.50 C 4724 280 M
0 63 V
0 4528 R
0 -63 V
0 -4668 R
( 65.7609) Cshow
1.000 UL
LT0
0.50 0.50 0.50 C 1.000 UL
LTa
0.50 0.50 0.50 C 4765 280 M
0 4591 V
stroke
LT0
0.50 0.50 0.50 C 4765 280 M
0 63 V
0 4528 R
0 -63 V
0 -4668 R
( 66.468) Cshow
1.000 UL
LT0
0.50 0.50 0.50 C 1.000 UL
LTa
0.50 0.50 0.50 C 4805 280 M
0 4591 V
stroke
LT0
0.50 0.50 0.50 C 4805 280 M
0 63 V
0 4528 R
0 -63 V
0 -4668 R
( 67.1751) Cshow
1.000 UL
LT0
0.50 0.50 0.50 C 1.000 UL
LTa
0.50 0.50 0.50 C 4846 280 M
0 4591 V
stroke
LT0
0.50 0.50 0.50 C 4846 280 M
0 63 V
0 4528 R
0 -63 V
0 -4668 R
( 67.8822) Cshow
1.000 UL
LT0
0.50 0.50 0.50 C 1.000 UL
LTa
0.50 0.50 0.50 C 4886 280 M
0 4591 V
stroke
LT0
0.50 0.50 0.50 C 4886 280 M
0 63 V
0 4528 R
0 -63 V
0 -4668 R
( 68.5893) Cshow
1.000 UL
LT0
0.50 0.50 0.50 C 1.000 UL
LTa
0.50 0.50 0.50 C 4926 280 M
0 4591 V
stroke
LT0
0.50 0.50 0.50 C 4926 280 M
0 63 V
0 4528 R
0 -63 V
0 -4668 R
( 69.2964) Cshow
1.000 UL
LT0
0.50 0.50 0.50 C 1.000 UL
LTa
0.50 0.50 0.50 C 4967 280 M
0 4591 V
stroke
LT0
0.50 0.50 0.50 C 4967 280 M
0 63 V
0 4528 R
0 -63 V
0 -4668 R
( 70.0035) Cshow
1.000 UL
LT0
0.50 0.50 0.50 C 1.000 UL
LTa
0.50 0.50 0.50 C 5007 280 M
0 4591 V
stroke
LT0
0.50 0.50 0.50 C 5007 280 M
0 63 V
0 4528 R
0 -63 V
0 -4668 R
( 70.7106) Cshow
1.000 UL
LT0
0.50 0.50 0.50 C 1.000 UL
LTa
0.50 0.50 0.50 C 5048 280 M
0 4591 V
stroke
LT0
0.50 0.50 0.50 C 5048 280 M
0 63 V
0 4528 R
0 -63 V
0 -4668 R
( 71.4177) Cshow
1.000 UL
LT0
0.50 0.50 0.50 C 1.000 UL
LTa
0.50 0.50 0.50 C 5088 280 M
0 4591 V
stroke
LT0
0.50 0.50 0.50 C 5088 280 M
0 63 V
0 4528 R
0 -63 V
0 -4668 R
( 72.1248) Cshow
1.000 UL
LT0
0.50 0.50 0.50 C 1.000 UL
LTa
0.50 0.50 0.50 C 5128 280 M
0 4591 V
stroke
LT0
0.50 0.50 0.50 C 5128 280 M
0 63 V
0 4528 R
0 -63 V
0 -4668 R
( 72.8319) Cshow
1.000 UL
LT0
0.50 0.50 0.50 C 1.000 UL
LTa
0.50 0.50 0.50 C 5169 280 M
0 4591 V
stroke
LT0
0.50 0.50 0.50 C 5169 280 M
0 63 V
0 4528 R
0 -63 V
0 -4668 R
( 73.539) Cshow
1.000 UL
LT0
0.50 0.50 0.50 C 1.000 UL
LTa
0.50 0.50 0.50 C 5209 280 M
0 4591 V
stroke
LT0
0.50 0.50 0.50 C 5209 280 M
0 63 V
0 4528 R
0 -63 V
0 -4668 R
( 74.2461) Cshow
1.000 UL
LT0
0.50 0.50 0.50 C 1.000 UL
LTa
0.50 0.50 0.50 C 5250 280 M
0 4591 V
stroke
LT0
0.50 0.50 0.50 C 5250 280 M
0 63 V
0 4528 R
0 -63 V
0 -4668 R
( 74.9532) Cshow
1.000 UL
LT0
0.50 0.50 0.50 C 1.000 UL
LTa
0.50 0.50 0.50 C 5290 280 M
0 4591 V
stroke
LT0
0.50 0.50 0.50 C 5290 280 M
0 63 V
0 4528 R
0 -63 V
0 -4668 R
( 75.6603) Cshow
1.000 UL
LT0
0.50 0.50 0.50 C 1.000 UL
LTa
0.50 0.50 0.50 C 5331 280 M
0 4591 V
stroke
LT0
0.50 0.50 0.50 C 5331 280 M
0 63 V
0 4528 R
0 -63 V
0 -4668 R
( 76.3674) Cshow
1.000 UL
LT0
0.50 0.50 0.50 C 1.000 UL
LTa
0.50 0.50 0.50 C 5371 280 M
0 4591 V
stroke
LT0
0.50 0.50 0.50 C 5371 280 M
0 63 V
0 4528 R
0 -63 V
0 -4668 R
( 77.0746) Cshow
1.000 UL
LT0
0.50 0.50 0.50 C 1.000 UL
LTa
0.50 0.50 0.50 C 5411 280 M
0 4591 V
stroke
LT0
0.50 0.50 0.50 C 5411 280 M
0 63 V
0 4528 R
0 -63 V
0 -4668 R
( 77.7817) Cshow
1.000 UL
LT0
0.50 0.50 0.50 C 1.000 UL
LTa
0.50 0.50 0.50 C 5452 280 M
0 4591 V
stroke
LT0
0.50 0.50 0.50 C 5452 280 M
0 63 V
0 4528 R
0 -63 V
0 -4668 R
( 78.4888) Cshow
1.000 UL
LT0
0.50 0.50 0.50 C 1.000 UL
LTa
0.50 0.50 0.50 C 5492 280 M
0 4591 V
stroke
LT0
0.50 0.50 0.50 C 5492 280 M
0 63 V
0 4528 R
0 -63 V
0 -4668 R
( 79.1959) Cshow
1.000 UL
LT0
0.50 0.50 0.50 C 1.000 UL
LTa
0.50 0.50 0.50 C 5533 280 M
0 4591 V
stroke
LT0
0.50 0.50 0.50 C 5533 280 M
0 63 V
0 4528 R
0 -63 V
0 -4668 R
( 79.903) Cshow
1.000 UL
LT0
0.50 0.50 0.50 C 1.000 UL
LTa
0.50 0.50 0.50 C 5573 280 M
0 4591 V
stroke
LT0
0.50 0.50 0.50 C 5573 280 M
0 63 V
0 4528 R
0 -63 V
0 -4668 R
( 80.6101) Cshow
1.000 UL
LT0
0.50 0.50 0.50 C 1.000 UL
LTa
0.50 0.50 0.50 C 5613 280 M
0 4591 V
stroke
LT0
0.50 0.50 0.50 C 5613 280 M
0 63 V
0 4528 R
0 -63 V
0 -4668 R
( 81.3172) Cshow
1.000 UL
LT0
0.50 0.50 0.50 C 1.000 UL
LTa
0.50 0.50 0.50 C 5654 280 M
0 4591 V
stroke
LT0
0.50 0.50 0.50 C 5654 280 M
0 63 V
0 4528 R
0 -63 V
0 -4668 R
( 82.0243) Cshow
1.000 UL
LT0
0.50 0.50 0.50 C 1.000 UL
LTa
0.50 0.50 0.50 C 5694 280 M
0 4591 V
stroke
LT0
0.50 0.50 0.50 C 5694 280 M
0 63 V
0 4528 R
0 -63 V
0 -4668 R
( 82.7314) Cshow
1.000 UL
LT0
0.50 0.50 0.50 C 1.000 UL
LTa
0.50 0.50 0.50 C 5735 280 M
0 4591 V
stroke
LT0
0.50 0.50 0.50 C 5735 280 M
0 63 V
0 4528 R
0 -63 V
0 -4668 R
( 83.4385) Cshow
1.000 UL
LT0
0.50 0.50 0.50 C 1.000 UL
LTa
0.50 0.50 0.50 C 5775 280 M
0 4591 V
stroke
LT0
0.50 0.50 0.50 C 5775 280 M
0 63 V
0 4528 R
0 -63 V
0 -4668 R
( 84.1456) Cshow
1.000 UL
LT0
0.50 0.50 0.50 C 1.000 UL
LTa
0.50 0.50 0.50 C 5815 280 M
0 4591 V
stroke
LT0
0.50 0.50 0.50 C 5815 280 M
0 63 V
0 4528 R
0 -63 V
0 -4668 R
( 84.8527) Cshow
1.000 UL
LT0
0.50 0.50 0.50 C 1.000 UL
LTa
0.50 0.50 0.50 C 5856 280 M
0 4591 V
stroke
LT0
0.50 0.50 0.50 C 5856 280 M
0 63 V
0 4528 R
0 -63 V
0 -4668 R
( 85.5598) Cshow
1.000 UL
LT0
0.50 0.50 0.50 C 1.000 UL
LTa
0.50 0.50 0.50 C 5896 280 M
0 4591 V
stroke
LT0
0.50 0.50 0.50 C 5896 280 M
0 63 V
0 4528 R
0 -63 V
0 -4668 R
( 86.2669) Cshow
1.000 UL
LT0
0.50 0.50 0.50 C 1.000 UL
LTa
0.50 0.50 0.50 C 5937 280 M
0 4591 V
stroke
LT0
0.50 0.50 0.50 C 5937 280 M
0 63 V
0 4528 R
0 -63 V
0 -4668 R
( 86.974) Cshow
1.000 UL
LT0
0.50 0.50 0.50 C 1.000 UL
LTa
0.50 0.50 0.50 C 5977 280 M
0 4591 V
stroke
LT0
0.50 0.50 0.50 C 5977 280 M
0 63 V
0 4528 R
0 -63 V
0 -4668 R
( 87.6811) Cshow
1.000 UL
LT0
0.50 0.50 0.50 C 1.000 UL
LTa
0.50 0.50 0.50 C 6018 280 M
0 4591 V
stroke
LT0
0.50 0.50 0.50 C 6018 280 M
0 63 V
0 4528 R
0 -63 V
0 -4668 R
( 88.3882) Cshow
1.000 UL
LT0
0.50 0.50 0.50 C 1.000 UL
LTa
0.50 0.50 0.50 C 6058 280 M
0 4591 V
stroke
LT0
0.50 0.50 0.50 C 6058 280 M
0 63 V
0 4528 R
0 -63 V
0 -4668 R
( 89.0954) Cshow
1.000 UL
LT0
0.50 0.50 0.50 C 1.000 UL
LTa
0.50 0.50 0.50 C 6098 280 M
0 4591 V
stroke
LT0
0.50 0.50 0.50 C 6098 280 M
0 63 V
0 4528 R
0 -63 V
0 -4668 R
( 89.8025) Cshow
1.000 UL
LT0
0.50 0.50 0.50 C 1.000 UL
LTa
0.50 0.50 0.50 C 6139 280 M
0 4591 V
stroke
LT0
0.50 0.50 0.50 C 6139 280 M
0 63 V
0 4528 R
0 -63 V
0 -4668 R
( 90.5096) Cshow
1.000 UL
LT0
0.50 0.50 0.50 C 1.000 UL
LTa
0.50 0.50 0.50 C 6179 280 M
0 4591 V
stroke
LT0
0.50 0.50 0.50 C 6179 280 M
0 63 V
0 4528 R
0 -63 V
0 -4668 R
( 91.2167) Cshow
1.000 UL
LT0
0.50 0.50 0.50 C 1.000 UL
LTa
0.50 0.50 0.50 C 6220 280 M
0 4591 V
stroke
LT0
0.50 0.50 0.50 C 6220 280 M
0 63 V
0 4528 R
0 -63 V
0 -4668 R
( 91.9238) Cshow
1.000 UL
LT0
0.50 0.50 0.50 C 1.000 UL
LTa
0.50 0.50 0.50 C 6260 280 M
0 4591 V
stroke
LT0
0.50 0.50 0.50 C 6260 280 M
0 63 V
0 4528 R
0 -63 V
0 -4668 R
( 92.6309) Cshow
1.000 UL
LT0
0.50 0.50 0.50 C 1.000 UL
LTa
0.50 0.50 0.50 C 6300 280 M
0 4591 V
stroke
LT0
0.50 0.50 0.50 C 6300 280 M
0 63 V
0 4528 R
0 -63 V
0 -4668 R
( 93.338) Cshow
1.000 UL
LT0
0.50 0.50 0.50 C 1.000 UL
LTa
0.50 0.50 0.50 C 6341 280 M
0 4591 V
stroke
LT0
0.50 0.50 0.50 C 6341 280 M
0 63 V
0 4528 R
0 -63 V
0 -4668 R
( 94.0451) Cshow
1.000 UL
LT0
0.50 0.50 0.50 C 1.000 UL
LTa
0.50 0.50 0.50 C 6381 280 M
0 4591 V
stroke
LT0
0.50 0.50 0.50 C 6381 280 M
0 63 V
0 4528 R
0 -63 V
0 -4668 R
( 94.7522) Cshow
1.000 UL
LT0
0.50 0.50 0.50 C 1.000 UL
LTa
0.50 0.50 0.50 C 6422 280 M
0 4591 V
stroke
LT0
0.50 0.50 0.50 C 6422 280 M
0 63 V
0 4528 R
0 -63 V
0 -4668 R
( 95.4593) Cshow
1.000 UL
LT0
0.50 0.50 0.50 C 1.000 UL
LTa
0.50 0.50 0.50 C 6462 280 M
0 4591 V
stroke
LT0
0.50 0.50 0.50 C 6462 280 M
0 63 V
0 4528 R
0 -63 V
0 -4668 R
( 96.1664) Cshow
1.000 UL
LT0
0.50 0.50 0.50 C 1.000 UL
LTa
0.50 0.50 0.50 C 6502 280 M
0 4591 V
stroke
LT0
0.50 0.50 0.50 C 6502 280 M
0 63 V
0 4528 R
0 -63 V
0 -4668 R
( 96.8735) Cshow
1.000 UL
LT0
0.50 0.50 0.50 C 1.000 UL
LTa
0.50 0.50 0.50 C 6543 280 M
0 4591 V
stroke
LT0
0.50 0.50 0.50 C 6543 280 M
0 63 V
0 4528 R
0 -63 V
0 -4668 R
( 97.5806) Cshow
1.000 UL
LT0
0.50 0.50 0.50 C 1.000 UL
LTa
0.50 0.50 0.50 C 6583 280 M
0 4591 V
stroke
LT0
0.50 0.50 0.50 C 6583 280 M
0 63 V
0 4528 R
0 -63 V
0 -4668 R
( 98.2877) Cshow
1.000 UL
LT0
0.50 0.50 0.50 C 1.000 UL
LTa
0.50 0.50 0.50 C 6624 280 M
0 4591 V
stroke
LT0
0.50 0.50 0.50 C 6624 280 M
0 63 V
0 4528 R
0 -63 V
0 -4668 R
( 98.9948) Cshow
1.000 UL
LT0
0.50 0.50 0.50 C 1.000 UL
LTa
0.50 0.50 0.50 C 6664 280 M
0 4591 V
stroke
LT0
0.50 0.50 0.50 C 6664 280 M
0 63 V
0 4528 R
0 -63 V
0 -4668 R
( 99.7019) Cshow
1.000 UL
LT0
0.50 0.50 0.50 C 1.000 UL
LTa
0.50 0.50 0.50 C 6705 280 M
0 4591 V
stroke
LT0
0.50 0.50 0.50 C 6705 280 M
0 63 V
0 4528 R
0 -63 V
0 -4668 R
( 100.409) Cshow
1.000 UL
LT0
0.50 0.50 0.50 C 1.000 UL
LTa
0.50 0.50 0.50 C 6745 280 M
0 4591 V
stroke
LT0
0.50 0.50 0.50 C 6745 280 M
0 63 V
0 4528 R
0 -63 V
0 -4668 R
( 101.116) Cshow
1.000 UL
LT0
0.50 0.50 0.50 C 1.000 UL
LTa
0.50 0.50 0.50 C 6785 280 M
0 4591 V
stroke
LT0
0.50 0.50 0.50 C 6785 280 M
0 63 V
0 4528 R
0 -63 V
0 -4668 R
( 101.823) Cshow
1.000 UL
LT0
0.50 0.50 0.50 C 1.000 UL
LTa
0.50 0.50 0.50 C 6826 280 M
0 4591 V
stroke
LT0
0.50 0.50 0.50 C 6826 280 M
0 63 V
0 4528 R
0 -63 V
0 -4668 R
( 102.53) Cshow
1.000 UL
LT0
0.50 0.50 0.50 C 1.000 UL
LTa
0.50 0.50 0.50 C 6866 280 M
0 4591 V
stroke
LT0
0.50 0.50 0.50 C 6866 280 M
0 63 V
0 4528 R
0 -63 V
0 -4668 R
( 103.237) Cshow
1.000 UL
LT0
0.50 0.50 0.50 C 1.000 UL
LTa
0.50 0.50 0.50 C 6907 280 M
0 4591 V
stroke
LT0
0.50 0.50 0.50 C 6907 280 M
0 63 V
0 4528 R
0 -63 V
0 -4668 R
( 103.945) Cshow
1.000 UL
LT0
0.50 0.50 0.50 C 1.000 UL
LTa
0.50 0.50 0.50 C 6947 280 M
0 4591 V
stroke
LT0
0.50 0.50 0.50 C 6947 280 M
0 63 V
0 4528 R
0 -63 V
0 -4668 R
( 104.652) Cshow
1.000 UL
LT0
0.50 0.50 0.50 C 1.000 UL
LT0
0.50 0.50 0.50 C 966 4871 M
966 280 L
5981 0 V
0 4591 R
-5981 0 R
1.000 UP
stroke
LT0
0.50 0.50 0.50 C % Begin plot #1
1.500 UP
2.000 UL
LT0
0.00 0.00 1.00 C /Helvetica findfont 140 scalefont setfont
/vshift -46 def
1653 311 M
40 0 V
0 93 R
41 0 V
0 62 R
40 0 V
41 0 V
0 62 R
40 0 V
0 31 R
40 0 V
0 31 R
41 0 V
40 0 V
0 62 R
41 0 V
40 0 V
0 31 R
41 0 V
0 124 R
40 0 V
40 0 V
41 0 V
0 62 R
40 0 V
0 62 R
41 0 V
0 31 R
40 0 V
0 62 R
40 0 V
41 0 V
0 32 R
40 0 V
41 0 V
40 0 V
0 31 R
40 0 V
0 31 R
41 0 V
40 0 V
0 31 R
41 0 V
0 31 R
40 0 V
0 62 R
41 0 V
0 93 R
40 0 V
0 62 R
40 0 V
41 0 V
40 0 V
0 93 R
41 0 V
40 0 V
0 31 R
40 0 V
0 465 R
41 0 V
40 0 V
41 0 V
40 0 V
40 0 V
41 0 V
40 0 V
41 0 V
0 124 R
40 0 V
41 0 V
0 124 R
40 0 V
0 31 R
40 0 V
0 31 R
41 0 V
40 0 V
0 186 R
41 0 V
40 0 V
0 93 R
40 0 V
41 0 V
40 0 V
0 32 R
41 0 V
40 0 V
40 0 V
41 0 V
40 0 V
0 31 R
41 0 V
40 0 V
0 31 R
41 0 V
40 0 V
40 0 V
41 0 V
40 0 V
41 0 V
40 0 V
40 0 V
41 0 V
40 0 V
41 0 V
stroke 4563 2669 M
40 0 V
41 0 V
0 186 R
40 0 V
0 155 R
40 0 V
0 62 R
41 0 V
40 0 V
41 0 V
40 0 V
40 0 V
41 0 V
40 0 V
41 0 V
40 0 V
40 0 V
41 0 V
40 0 V
0 155 R
41 0 V
0 62 R
40 0 V
41 0 V
40 0 V
0 31 R
40 0 V
41 0 V
40 0 V
41 0 V
40 0 V
40 0 V
41 0 V
40 0 V
41 0 V
40 0 V
40 0 V
41 0 V
40 0 V
0 31 R
41 0 V
40 0 V
0 31 R
41 0 V
0 186 R
40 0 V
40 0 V
41 0 V
40 0 V
41 0 V
40 0 V
40 0 V
41 0 V
40 0 V
41 0 V
40 0 V
40 0 V
0 31 R
41 0 V
40 0 V
41 0 V
40 0 V
41 0 V
40 0 V
0 31 R
40 0 V
0 993 R
41 0 V
0 62 R
40 0 V
0 31 R
41 0 V
966 280 M
40 0 V
41 0 V
40 0 V
41 0 V
40 0 V
40 0 V
41 0 V
40 0 V
41 0 V
40 0 V
41 0 V
40 0 V
40 0 V
41 0 V
40 0 V
41 0 V
40 0 V
0 31 V
40 0 R
0 31 V
0 31 V
0 31 V
41 0 R
0 31 V
0 31 V
81 0 R
0 31 V
0 31 V
40 0 R
0 31 V
40 0 R
0 31 V
stroke 1895 590 M
81 0 R
0 31 V
0 31 V
81 0 R
0 31 V
41 0 R
0 31 V
0 31 V
0 31 V
0 31 V
121 0 R
0 31 V
0 31 V
40 0 R
0 31 V
0 31 V
41 0 R
0 31 V
40 0 R
0 31 V
0 31 V
81 0 R
0 32 V
121 0 R
0 31 V
40 0 R
0 31 V
81 0 R
0 31 V
41 0 R
0 31 V
40 0 R
0 31 V
0 31 V
41 0 R
0 31 V
0 31 V
0 31 V
40 0 R
0 31 V
0 31 V
121 0 R
0 31 V
0 31 V
0 31 V
81 0 R
0 31 V
40 0 R
0 31 V
0 31 V
0 31 V
0 31 V
0 31 V
0 31 V
0 31 V
0 31 V
0 31 V
0 31 V
0 31 V
0 31 V
0 31 V
0 31 V
0 31 V
324 0 R
0 31 V
0 31 V
0 31 V
0 31 V
81 0 R
0 31 V
0 31 V
0 31 V
0 31 V
40 0 R
0 31 V
40 0 R
0 31 V
81 0 R
0 31 V
0 31 V
0 31 V
0 31 V
0 31 V
0 31 V
81 0 R
0 31 V
0 31 V
0 31 V
121 0 R
0 32 V
202 0 R
0 31 V
81 0 R
0 31 V
526 0 R
0 31 V
0 31 V
0 31 V
0 31 V
0 31 V
0 31 V
40 0 R
0 31 V
0 31 V
stroke 4684 2917 M
0 31 V
0 31 V
0 31 V
40 0 R
0 31 V
0 31 V
485 0 R
0 31 V
0 31 V
0 31 V
0 31 V
0 31 V
41 0 R
0 31 V
0 31 V
121 0 R
0 31 V
525 0 R
0 31 V
81 0 R
0 31 V
41 0 R
0 31 V
0 31 V
0 31 V
0 31 V
0 31 V
0 31 V
484 0 R
0 31 V
243 0 R
0 31 V
40 0 R
0 31 V
0 31 V
0 31 V
0 31 V
0 31 V
0 31 V
0 31 V
0 31 V
0 31 V
0 31 V
0 31 V
0 31 V
0 31 V
0 31 V
0 31 V
0 32 V
0 31 V
0 31 V
0 31 V
0 31 V
0 31 V
0 31 V
0 31 V
0 31 V
0 31 V
0 31 V
0 31 V
0 31 V
0 31 V
0 31 V
0 31 V
0 31 V
41 0 R
0 31 V
0 31 V
40 0 R
0 31 V
41 93 R
0 31 V
0 -124 R
0 31 V
0 31 V
0 31 V
1653 311 CircleF
1693 311 CircleF
1693 404 CircleF
1734 404 CircleF
1734 466 CircleF
1774 466 CircleF
1774 466 CircleF
1815 466 CircleF
1815 528 CircleF
1855 528 CircleF
1855 559 CircleF
1895 559 CircleF
1895 590 CircleF
1936 590 CircleF
1936 590 CircleF
1976 590 CircleF
1976 652 CircleF
2017 652 CircleF
2017 652 CircleF
2057 652 CircleF
2057 683 CircleF
2098 683 CircleF
2098 807 CircleF
2138 807 CircleF
2138 807 CircleF
2178 807 CircleF
2178 807 CircleF
2219 807 CircleF
2219 869 CircleF
2259 869 CircleF
2259 931 CircleF
2300 931 CircleF
2300 962 CircleF
2340 962 CircleF
2340 1024 CircleF
2380 1024 CircleF
2380 1024 CircleF
2421 1024 CircleF
2421 1056 CircleF
2461 1056 CircleF
2461 1056 CircleF
2502 1056 CircleF
2502 1056 CircleF
2542 1056 CircleF
2542 1087 CircleF
2582 1087 CircleF
2582 1118 CircleF
2623 1118 CircleF
2623 1118 CircleF
2663 1118 CircleF
2663 1149 CircleF
2704 1149 CircleF
2704 1180 CircleF
2744 1180 CircleF
2744 1242 CircleF
2785 1242 CircleF
2785 1335 CircleF
2825 1335 CircleF
2825 1397 CircleF
2865 1397 CircleF
2865 1397 CircleF
2906 1397 CircleF
2906 1397 CircleF
2946 1397 CircleF
2946 1490 CircleF
2987 1490 CircleF
2987 1490 CircleF
3027 1490 CircleF
3027 1521 CircleF
3067 1521 CircleF
3067 1986 CircleF
3108 1986 CircleF
3108 1986 CircleF
3148 1986 CircleF
3148 1986 CircleF
3189 1986 CircleF
3189 1986 CircleF
3229 1986 CircleF
3229 1986 CircleF
3269 1986 CircleF
3269 1986 CircleF
3310 1986 CircleF
3310 1986 CircleF
3350 1986 CircleF
3350 1986 CircleF
3391 1986 CircleF
3391 2110 CircleF
3431 2110 CircleF
3431 2110 CircleF
3472 2110 CircleF
3472 2234 CircleF
3512 2234 CircleF
3512 2265 CircleF
3552 2265 CircleF
3552 2296 CircleF
3593 2296 CircleF
3593 2296 CircleF
3633 2296 CircleF
3633 2482 CircleF
3674 2482 CircleF
3674 2482 CircleF
3714 2482 CircleF
3714 2575 CircleF
3754 2575 CircleF
3754 2575 CircleF
3795 2575 CircleF
3795 2575 CircleF
3835 2575 CircleF
3835 2607 CircleF
3876 2607 CircleF
3876 2607 CircleF
3916 2607 CircleF
3916 2607 CircleF
3956 2607 CircleF
3956 2607 CircleF
3997 2607 CircleF
3997 2607 CircleF
4037 2607 CircleF
4037 2638 CircleF
4078 2638 CircleF
4078 2638 CircleF
4118 2638 CircleF
4118 2669 CircleF
4159 2669 CircleF
4159 2669 CircleF
4199 2669 CircleF
4199 2669 CircleF
4239 2669 CircleF
4239 2669 CircleF
4280 2669 CircleF
4280 2669 CircleF
4320 2669 CircleF
4320 2669 CircleF
4361 2669 CircleF
4361 2669 CircleF
4401 2669 CircleF
4401 2669 CircleF
4441 2669 CircleF
4441 2669 CircleF
4482 2669 CircleF
4482 2669 CircleF
4522 2669 CircleF
4522 2669 CircleF
4563 2669 CircleF
4563 2669 CircleF
4603 2669 CircleF
4603 2669 CircleF
4644 2669 CircleF
4644 2855 CircleF
4684 2855 CircleF
4684 3010 CircleF
4724 3010 CircleF
4724 3072 CircleF
4765 3072 CircleF
4765 3072 CircleF
4805 3072 CircleF
4805 3072 CircleF
4846 3072 CircleF
4846 3072 CircleF
4886 3072 CircleF
4886 3072 CircleF
4926 3072 CircleF
4926 3072 CircleF
4967 3072 CircleF
4967 3072 CircleF
5007 3072 CircleF
5007 3072 CircleF
5048 3072 CircleF
5048 3072 CircleF
5088 3072 CircleF
5088 3072 CircleF
5128 3072 CircleF
5128 3072 CircleF
5169 3072 CircleF
5169 3072 CircleF
5209 3072 CircleF
5209 3227 CircleF
5250 3227 CircleF
5250 3289 CircleF
5290 3289 CircleF
5290 3289 CircleF
5331 3289 CircleF
5331 3289 CircleF
5371 3289 CircleF
5371 3320 CircleF
5411 3320 CircleF
5411 3320 CircleF
5452 3320 CircleF
5452 3320 CircleF
5492 3320 CircleF
5492 3320 CircleF
5533 3320 CircleF
5533 3320 CircleF
5573 3320 CircleF
5573 3320 CircleF
5613 3320 CircleF
5613 3320 CircleF
5654 3320 CircleF
5654 3320 CircleF
5694 3320 CircleF
5694 3320 CircleF
5735 3320 CircleF
5735 3320 CircleF
5775 3320 CircleF
5775 3320 CircleF
5815 3320 CircleF
5815 3320 CircleF
5856 3320 CircleF
5856 3320 CircleF
5896 3320 CircleF
5896 3351 CircleF
5937 3351 CircleF
5937 3351 CircleF
5977 3351 CircleF
5977 3382 CircleF
6018 3382 CircleF
6018 3568 CircleF
6058 3568 CircleF
6058 3568 CircleF
6098 3568 CircleF
6098 3568 CircleF
6139 3568 CircleF
6139 3568 CircleF
6179 3568 CircleF
6179 3568 CircleF
6220 3568 CircleF
6220 3568 CircleF
6260 3568 CircleF
6260 3568 CircleF
6300 3568 CircleF
6300 3568 CircleF
6341 3568 CircleF
6341 3568 CircleF
6381 3568 CircleF
6381 3568 CircleF
6422 3568 CircleF
6422 3568 CircleF
6462 3568 CircleF
6462 3568 CircleF
6502 3568 CircleF
6502 3599 CircleF
6543 3599 CircleF
6543 3599 CircleF
6583 3599 CircleF
6583 3599 CircleF
6624 3599 CircleF
6624 3599 CircleF
6664 3599 CircleF
6664 3599 CircleF
6705 3599 CircleF
6705 3599 CircleF
6745 3599 CircleF
6745 3630 CircleF
6785 3630 CircleF
6785 4623 CircleF
6826 4623 CircleF
6826 4685 CircleF
6866 4685 CircleF
6866 4716 CircleF
6907 4716 CircleF
966 280 CircleF
1006 280 CircleF
1006 280 CircleF
1047 280 CircleF
1047 280 CircleF
1087 280 CircleF
1087 280 CircleF
1128 280 CircleF
1128 280 CircleF
1168 280 CircleF
1168 280 CircleF
1208 280 CircleF
1208 280 CircleF
1249 280 CircleF
1249 280 CircleF
1289 280 CircleF
1289 280 CircleF
1330 280 CircleF
1330 280 CircleF
1370 280 CircleF
1370 280 CircleF
1411 280 CircleF
1411 280 CircleF
1451 280 CircleF
1451 280 CircleF
1491 280 CircleF
1491 280 CircleF
1532 280 CircleF
1532 280 CircleF
1572 280 CircleF
1572 280 CircleF
1613 280 CircleF
1613 280 CircleF
1653 280 CircleF
1653 280 CircleF
1653 311 CircleF
1693 311 CircleF
1693 342 CircleF
1693 342 CircleF
1693 373 CircleF
1693 373 CircleF
1693 404 CircleF
1734 404 CircleF
1734 435 CircleF
1734 435 CircleF
1734 466 CircleF
1815 466 CircleF
1815 497 CircleF
1815 497 CircleF
1815 528 CircleF
1855 528 CircleF
1855 559 CircleF
1895 559 CircleF
1895 590 CircleF
1976 590 CircleF
1976 621 CircleF
1976 621 CircleF
1976 652 CircleF
2057 652 CircleF
2057 683 CircleF
2098 683 CircleF
2098 714 CircleF
2098 714 CircleF
2098 745 CircleF
2098 745 CircleF
2098 776 CircleF
2098 776 CircleF
2098 807 CircleF
2219 807 CircleF
2219 838 CircleF
2219 838 CircleF
2219 869 CircleF
2259 869 CircleF
2259 900 CircleF
2259 900 CircleF
2259 931 CircleF
2300 931 CircleF
2300 962 CircleF
2340 962 CircleF
2340 993 CircleF
2340 993 CircleF
2340 1024 CircleF
2421 1024 CircleF
2421 1056 CircleF
2542 1056 CircleF
2542 1087 CircleF
2582 1087 CircleF
2582 1118 CircleF
2663 1118 CircleF
2663 1149 CircleF
2704 1149 CircleF
2704 1180 CircleF
2744 1180 CircleF
2744 1211 CircleF
2744 1211 CircleF
2744 1242 CircleF
2785 1242 CircleF
2785 1273 CircleF
2785 1273 CircleF
2785 1304 CircleF
2785 1304 CircleF
2785 1335 CircleF
2825 1335 CircleF
2825 1366 CircleF
2825 1366 CircleF
2825 1397 CircleF
2946 1397 CircleF
2946 1428 CircleF
2946 1428 CircleF
2946 1459 CircleF
2946 1459 CircleF
2946 1490 CircleF
3027 1490 CircleF
3027 1521 CircleF
3067 1521 CircleF
3067 1552 CircleF
3067 1552 CircleF
3067 1583 CircleF
3067 1583 CircleF
3067 1614 CircleF
3067 1614 CircleF
3067 1645 CircleF
3067 1645 CircleF
3067 1676 CircleF
3067 1676 CircleF
3067 1707 CircleF
3067 1707 CircleF
3067 1738 CircleF
3067 1738 CircleF
3067 1769 CircleF
3067 1769 CircleF
3067 1800 CircleF
3067 1800 CircleF
3067 1831 CircleF
3067 1831 CircleF
3067 1862 CircleF
3067 1862 CircleF
3067 1893 CircleF
3067 1893 CircleF
3067 1924 CircleF
3067 1924 CircleF
3067 1955 CircleF
3067 1955 CircleF
3067 1986 CircleF
3391 1986 CircleF
3391 2017 CircleF
3391 2017 CircleF
3391 2048 CircleF
3391 2048 CircleF
3391 2079 CircleF
3391 2079 CircleF
3391 2110 CircleF
3472 2110 CircleF
3472 2141 CircleF
3472 2141 CircleF
3472 2172 CircleF
3472 2172 CircleF
3472 2203 CircleF
3472 2203 CircleF
3472 2234 CircleF
3512 2234 CircleF
3512 2265 CircleF
3552 2265 CircleF
3552 2296 CircleF
3633 2296 CircleF
3633 2327 CircleF
3633 2327 CircleF
3633 2358 CircleF
3633 2358 CircleF
3633 2389 CircleF
3633 2389 CircleF
3633 2420 CircleF
3633 2420 CircleF
3633 2451 CircleF
3633 2451 CircleF
3633 2482 CircleF
3714 2482 CircleF
3714 2513 CircleF
3714 2513 CircleF
3714 2544 CircleF
3714 2544 CircleF
3714 2575 CircleF
3835 2575 CircleF
3835 2607 CircleF
4037 2607 CircleF
4037 2638 CircleF
4118 2638 CircleF
4118 2669 CircleF
4644 2669 CircleF
4644 2700 CircleF
4644 2700 CircleF
4644 2731 CircleF
4644 2731 CircleF
4644 2762 CircleF
4644 2762 CircleF
4644 2793 CircleF
4644 2793 CircleF
4644 2824 CircleF
4644 2824 CircleF
4644 2855 CircleF
4684 2855 CircleF
4684 2886 CircleF
4684 2886 CircleF
4684 2917 CircleF
4684 2917 CircleF
4684 2948 CircleF
4684 2948 CircleF
4684 2979 CircleF
4684 2979 CircleF
4684 3010 CircleF
4724 3010 CircleF
4724 3041 CircleF
4724 3041 CircleF
4724 3072 CircleF
5209 3072 CircleF
5209 3103 CircleF
5209 3103 CircleF
5209 3134 CircleF
5209 3134 CircleF
5209 3165 CircleF
5209 3165 CircleF
5209 3196 CircleF
5209 3196 CircleF
5209 3227 CircleF
5250 3227 CircleF
5250 3258 CircleF
5250 3258 CircleF
5250 3289 CircleF
5371 3289 CircleF
5371 3320 CircleF
5896 3320 CircleF
5896 3351 CircleF
5977 3351 CircleF
5977 3382 CircleF
6018 3382 CircleF
6018 3413 CircleF
6018 3413 CircleF
6018 3444 CircleF
6018 3444 CircleF
6018 3475 CircleF
6018 3475 CircleF
6018 3506 CircleF
6018 3506 CircleF
6018 3537 CircleF
6018 3537 CircleF
6018 3568 CircleF
6502 3568 CircleF
6502 3599 CircleF
6745 3599 CircleF
6745 3630 CircleF
6785 3630 CircleF
6785 3661 CircleF
6785 3661 CircleF
6785 3692 CircleF
6785 3692 CircleF
6785 3723 CircleF
6785 3723 CircleF
6785 3754 CircleF
6785 3754 CircleF
6785 3785 CircleF
6785 3785 CircleF
6785 3816 CircleF
6785 3816 CircleF
6785 3847 CircleF
6785 3847 CircleF
6785 3878 CircleF
6785 3878 CircleF
6785 3909 CircleF
6785 3909 CircleF
6785 3940 CircleF
6785 3940 CircleF
6785 3971 CircleF
6785 3971 CircleF
6785 4002 CircleF
6785 4002 CircleF
6785 4033 CircleF
6785 4033 CircleF
6785 4064 CircleF
6785 4064 CircleF
6785 4095 CircleF
6785 4095 CircleF
6785 4127 CircleF
6785 4127 CircleF
6785 4158 CircleF
6785 4158 CircleF
6785 4189 CircleF
6785 4189 CircleF
6785 4220 CircleF
6785 4220 CircleF
6785 4251 CircleF
6785 4251 CircleF
6785 4282 CircleF
6785 4282 CircleF
6785 4313 CircleF
6785 4313 CircleF
6785 4344 CircleF
6785 4344 CircleF
6785 4375 CircleF
6785 4375 CircleF
6785 4406 CircleF
6785 4406 CircleF
6785 4437 CircleF
6785 4437 CircleF
6785 4468 CircleF
6785 4468 CircleF
6785 4499 CircleF
6785 4499 CircleF
6785 4530 CircleF
6785 4530 CircleF
6785 4561 CircleF
6785 4561 CircleF
6785 4592 CircleF
6785 4592 CircleF
6785 4623 CircleF
6826 4623 CircleF
6826 4654 CircleF
6826 4654 CircleF
6826 4685 CircleF
6866 4685 CircleF
6866 4716 CircleF
6907 4809 CircleF
6907 4840 CircleF
6907 4716 CircleF
6907 4747 CircleF
6907 4747 CircleF
6907 4778 CircleF
6907 4778 CircleF
6907 4809 CircleF
% End plot #1
% Begin plot #2
1.500 UP
2.000 UL
LT0
1.00 0.55 0.00 C /Helvetica findfont 140 scalefont setfont
2225 1453 M
42 32 V
1812 503 M
61 46 V
4208 703 R
66 51 V
5980 451 M
77 59 V
615 2123 R
46 35 V
4488 435 M
51 39 V
2822 4212 M
77 60 V
968 1645 M
41 31 V
2404 3195 M
47 37 V
4675 2042 M
79 61 V
1975 2851 M
53 41 V
4366 507 M
53 40 V
1182 763 R
73 56 V
4290 3954 M
61 47 V
3773 2779 M
71 55 V
4517 1614 M
55 43 V
1754 89 R
50 38 V
3118 1224 M
63 49 V
4680 3004 M
69 53 V
6810 2933 M
49 38 V
4612 1685 M
61 46 V
1408 1683 M
67 51 V
4584 3968 M
45 35 V
3619 760 M
50 38 V
2219 96 R
73 56 V
1381 1646 M
50 38 V
5292 950 M
42 32 V
2568 4728 M
75 57 V
5733 470 M
66 51 V
4489 1384 M
41 31 V
2246 841 R
44 34 V
4157 1207 M
77 59 V
1996 2478 M
80 62 V
4523 3659 M
73 55 V
2633 1112 M
46 35 V
756 1026 R
65 50 V
2423 3669 M
43 33 V
4230 828 M
59 46 V
3512 4282 M
48 37 V
2483 230 R
68 52 V
-705 -86 R
75 58 V
2225 875 M
80 62 V
1774 2194 M
54 41 V
4548 497 M
71 54 V
577 2586 R
74 57 V
1671 1965 M
70 54 V
3636 4534 M
41 31 V
3025 1493 M
55 43 V
-350 887 R
54 42 V
3807 3 R
74 56 V
2762 1304 M
43 33 V
2054 449 M
64 49 V
4622 4105 M
49 37 V
stroke 4671 4142 M
3663 1207 M
45 34 V
3019 146 R
52 41 V
1717 4740 M
72 55 V
3486 2560 M
42 31 V
520 -550 R
42 32 V
352 1233 R
70 54 V
2285 401 R
54 42 V
1556 4745 M
77 60 V
2450 1393 M
40 31 V
6250 1272 M
76 59 V
4828 1035 M
57 45 V
4635 2705 M
48 37 V
1671 887 R
63 47 V
1814 2353 M
46 35 V
1037 1037 M
65 51 V
991 1378 R
76 59 V
4449 14 R
54 41 V
5505 1585 M
51 39 V
-21 969 R
63 49 V
3801 4070 M
73 56 V
-798 397 R
62 47 V
2018 653 M
55 42 V
3950 883 M
45 35 V
2761 3383 M
71 55 V
2455 2765 M
76 58 V
629 -862 R
60 47 V
1519 2837 M
43 33 V
85 1032 R
64 49 V
3061 1700 M
72 55 V
613 1381 R
77 59 V
-722 -30 R
50 38 V
1049 3004 M
46 35 V
5936 4476 M
79 61 V
6347 1136 M
43 33 V
5913 2439 M
59 45 V
2305 416 M
43 33 V
4937 752 M
79 61 V
1790 4075 M
71 55 V
6681 1101 M
53 41 V
-107 909 R
65 51 V
5640 2713 M
80 61 V
3718 835 M
74 56 V
223 1708 R
74 57 V
6442 1286 M
57 43 V
6664 428 M
65 50 V
3052 1860 M
42 32 V
1071 756 R
44 33 V
1205 3135 M
74 57 V
3626 4520 M
43 33 V
2983 3517 M
49 37 V
1210 -77 R
55 43 V
1158 912 M
44 34 V
stroke 1202 946 M
6292 3869 M
72 55 V
2117 3368 M
41 32 V
6478 2247 M
60 46 V
3323 1196 M
47 35 V
3107 479 R
57 43 V
3598 3846 M
73 56 V
1985 3328 M
50 39 V
984 1037 R
77 59 V
1769 3823 M
43 33 V
6732 664 M
62 48 V
1844 1597 M
62 47 V
-12 327 R
59 45 V
3851 347 M
61 47 V
6529 2335 M
70 53 V
3954 4395 M
74 57 V
5312 2878 M
59 45 V
3008 2131 M
49 38 V
2778 3365 M
52 41 V
1616 2827 M
47 36 V
1660 974 R
65 49 V
2532 1499 M
74 57 V
3675 3189 M
50 39 V
1055 1956 M
55 43 V
1224 457 R
52 39 V
3472 353 R
41 32 V
4334 4633 M
56 43 V
5437 840 M
59 45 V
5178 3076 M
71 55 V
1206 110 R
70 54 V
1509 4470 M
77 59 V
5567 1720 M
52 40 V
6847 936 M
50 38 V
6484 535 M
61 47 V
6356 2138 M
46 35 V
5229 3028 M
60 46 V
4879 4110 M
79 61 V
2479 2767 M
67 52 V
4477 4683 M
71 55 V
6534 1757 M
56 43 V
6449 3544 M
58 44 V
3836 4163 M
70 53 V
4348 1215 M
45 34 V
6350 3122 M
51 38 V
2851 3985 M
69 52 V
1642 2730 M
77 60 V
3147 115 R
64 49 V
3505 2230 M
67 52 V
474 1810 R
51 39 V
-719 185 R
49 38 V
826 101 R
57 44 V
6014 3558 M
56 43 V
4753 2183 M
74 57 V
stroke 4827 2240 M
6521 4227 M
50 39 V
3989 4675 M
59 45 V
2671 2874 M
43 33 V
5226 4222 M
65 49 V
5398 2147 M
66 50 V
1218 3788 M
68 52 V
3006 3471 M
53 40 V
6619 3278 M
75 57 V
1305 1865 M
51 39 V
6732 4567 M
60 46 V
4498 2919 M
50 39 V
5724 2048 M
79 60 V
4179 1178 M
74 57 V
2157 3471 M
51 39 V
5166 1313 M
76 58 V
5023 3056 M
69 54 V
4746 322 M
57 44 V
6058 2336 M
73 56 V
2515 1038 M
76 58 V
4956 3939 M
58 44 V
4663 2985 M
71 55 V
6752 4158 M
56 43 V
5978 1870 M
58 44 V
1028 1736 M
50 38 V
503 -306 R
69 53 V
4418 178 R
43 34 V
2574 4229 M
68 52 V
68 412 R
76 58 V
5977 2083 M
50 39 V
5377 3318 M
57 43 V
1497 3576 M
76 58 V
6665 865 M
56 43 V
4602 2789 M
65 50 V
2163 2292 M
58 44 V
1604 1934 M
79 60 V
1654 798 M
58 44 V
1109 1930 M
54 41 V
6829 3115 M
70 53 V
6231 4363 M
43 32 V
2957 3892 M
56 43 V
6442 3128 M
79 60 V
-2141 70 R
80 61 V
5328 1109 M
56 43 V
1108 2192 M
44 33 V
6702 3596 M
51 39 V
2535 571 M
76 58 V
967 1544 M
41 31 V
4750 877 R
58 44 V
-545 427 R
47 35 V
4881 1406 M
73 56 V
1747 696 M
66 50 V
1560 3915 M
48 37 V
stroke 1608 3952 M
6817 3406 M
42 32 V
3568 873 M
54 41 V
6023 2151 M
45 34 V
4394 515 M
51 39 V
251 3951 R
57 43 V
1098 3246 M
42 33 V
4633 2673 M
75 58 V
3559 2262 M
77 59 V
1603 1283 M
74 57 V
620 2964 R
67 52 V
2387 -45 R
54 41 V
4132 3907 M
64 49 V
12 -378 R
46 36 V
6355 956 M
58 45 V
286 306 R
55 43 V
5860 3317 M
67 51 V
3550 1200 M
57 44 V
2664 4698 M
43 33 V
6257 4116 M
57 45 V
4038 1969 M
79 62 V
1955 3121 M
41 31 V
6387 3012 M
80 61 V
2658 2414 M
69 53 V
4014 965 M
57 43 V
2587 1424 M
55 41 V
703 488 R
64 49 V
4131 561 M
71 55 V
178 1710 R
53 41 V
108 2250 R
62 47 V
5171 3165 M
56 42 V
2295 2968 M
66 51 V
5173 4403 M
74 57 V
5433 563 M
62 48 V
347 -71 R
77 59 V
1932 1454 M
76 58 V
-869 -11 R
54 42 V
987 2471 R
67 52 V
1888 2605 M
60 46 V
459 645 R
63 48 V
1693 2903 M
49 38 V
1307 4683 M
62 48 V
2225 1453 CircleF
2267 1485 CircleF
1812 503 CircleF
1873 549 CircleF
6081 1252 CircleF
6147 1303 CircleF
5980 451 CircleF
6057 510 CircleF
6672 2633 CircleF
6718 2668 CircleF
4488 435 CircleF
4539 474 CircleF
2822 4212 CircleF
2899 4272 CircleF
968 1645 CircleF
1009 1676 CircleF
2404 3195 CircleF
2451 3232 CircleF
4675 2042 CircleF
4754 2103 CircleF
1975 2851 CircleF
2028 2892 CircleF
4366 507 CircleF
4419 547 CircleF
5601 1310 CircleF
5674 1366 CircleF
4290 3954 CircleF
4351 4001 CircleF
3773 2779 CircleF
3844 2834 CircleF
4517 1614 CircleF
4572 1657 CircleF
6326 1746 CircleF
6376 1784 CircleF
3118 1224 CircleF
3181 1273 CircleF
4680 3004 CircleF
4749 3057 CircleF
6810 2933 CircleF
6859 2971 CircleF
4612 1685 CircleF
4673 1731 CircleF
1408 1683 CircleF
1475 1734 CircleF
4584 3968 CircleF
4629 4003 CircleF
3619 760 CircleF
3669 798 CircleF
5888 894 CircleF
5961 950 CircleF
1381 1646 CircleF
1431 1684 CircleF
5292 950 CircleF
5334 982 CircleF
2568 4728 CircleF
2643 4785 CircleF
5733 470 CircleF
5799 521 CircleF
4489 1384 CircleF
4530 1415 CircleF
6776 2256 CircleF
6820 2290 CircleF
4157 1207 CircleF
4234 1266 CircleF
1996 2478 CircleF
2076 2540 CircleF
4523 3659 CircleF
4596 3714 CircleF
2633 1112 CircleF
2679 1147 CircleF
3435 2173 CircleF
3500 2223 CircleF
2423 3669 CircleF
2466 3702 CircleF
4230 828 CircleF
4289 874 CircleF
3512 4282 CircleF
3560 4319 CircleF
6043 4549 CircleF
6111 4601 CircleF
5406 4515 CircleF
5481 4573 CircleF
2225 875 CircleF
2305 937 CircleF
1774 2194 CircleF
1828 2235 CircleF
4548 497 CircleF
4619 551 CircleF
5196 3137 CircleF
5270 3194 CircleF
1671 1965 CircleF
1741 2019 CircleF
3636 4534 CircleF
3677 4565 CircleF
3025 1493 CircleF
3080 1536 CircleF
2730 2423 CircleF
2784 2465 CircleF
6591 2468 CircleF
6665 2524 CircleF
2762 1304 CircleF
2805 1337 CircleF
2054 449 CircleF
2118 498 CircleF
4622 4105 CircleF
4671 4142 CircleF
3663 1207 CircleF
3708 1241 CircleF
6727 1387 CircleF
6779 1428 CircleF
1717 4740 CircleF
1789 4795 CircleF
3486 2560 CircleF
3528 2591 CircleF
4048 2041 CircleF
4090 2073 CircleF
4442 3306 CircleF
4512 3360 CircleF
6797 3761 CircleF
6851 3803 CircleF
1556 4745 CircleF
1633 4805 CircleF
2450 1393 CircleF
2490 1424 CircleF
6250 1272 CircleF
6326 1331 CircleF
4828 1035 CircleF
4885 1080 CircleF
4635 2705 CircleF
4683 2742 CircleF
6354 3629 CircleF
6417 3676 CircleF
1814 2353 CircleF
1860 2388 CircleF
1037 1037 CircleF
1102 1088 CircleF
2093 2466 CircleF
2169 2525 CircleF
6618 2539 CircleF
6672 2580 CircleF
5505 1585 CircleF
5556 1624 CircleF
5535 2593 CircleF
5598 2642 CircleF
3801 4070 CircleF
3874 4126 CircleF
3076 4523 CircleF
3138 4570 CircleF
2018 653 CircleF
2073 695 CircleF
3950 883 CircleF
3995 918 CircleF
2761 3383 CircleF
2832 3438 CircleF
2455 2765 CircleF
2531 2823 CircleF
3160 1961 CircleF
3220 2008 CircleF
1519 2837 CircleF
1562 2870 CircleF
1647 3902 CircleF
1711 3951 CircleF
3061 1700 CircleF
3133 1755 CircleF
3746 3136 CircleF
3823 3195 CircleF
3101 3165 CircleF
3151 3203 CircleF
1049 3004 CircleF
1095 3039 CircleF
5936 4476 CircleF
6015 4537 CircleF
6347 1136 CircleF
6390 1169 CircleF
5913 2439 CircleF
5972 2484 CircleF
2305 416 CircleF
2348 449 CircleF
4937 752 CircleF
5016 813 CircleF
1790 4075 CircleF
1861 4130 CircleF
6681 1101 CircleF
6734 1142 CircleF
6627 2051 CircleF
6692 2102 CircleF
5640 2713 CircleF
5720 2774 CircleF
3718 835 CircleF
3792 891 CircleF
4015 2599 CircleF
4089 2656 CircleF
6442 1286 CircleF
6499 1329 CircleF
6664 428 CircleF
6729 478 CircleF
3052 1860 CircleF
3094 1892 CircleF
4165 2648 CircleF
4209 2681 CircleF
1205 3135 CircleF
1279 3192 CircleF
3626 4520 CircleF
3669 4553 CircleF
2983 3517 CircleF
3032 3554 CircleF
4242 3477 CircleF
4297 3520 CircleF
1158 912 CircleF
1202 946 CircleF
6292 3869 CircleF
6364 3924 CircleF
2117 3368 CircleF
2158 3400 CircleF
6478 2247 CircleF
6538 2293 CircleF
3323 1196 CircleF
3370 1231 CircleF
6477 1710 CircleF
6534 1753 CircleF
3598 3846 CircleF
3671 3902 CircleF
1985 3328 CircleF
2035 3367 CircleF
3019 4404 CircleF
3096 4463 CircleF
1769 3823 CircleF
1812 3856 CircleF
6732 664 CircleF
6794 712 CircleF
1844 1597 CircleF
1906 1644 CircleF
1894 1971 CircleF
1953 2016 CircleF
3851 347 CircleF
3912 394 CircleF
6529 2335 CircleF
6599 2388 CircleF
3954 4395 CircleF
4028 4452 CircleF
5312 2878 CircleF
5371 2923 CircleF
3008 2131 CircleF
3057 2169 CircleF
2778 3365 CircleF
2830 3406 CircleF
1616 2827 CircleF
1663 2863 CircleF
3323 3837 CircleF
3388 3886 CircleF
2532 1499 CircleF
2606 1556 CircleF
3675 3189 CircleF
3725 3228 CircleF
1055 1956 CircleF
1110 1999 CircleF
2334 2456 CircleF
2386 2495 CircleF
5858 2848 CircleF
5899 2880 CircleF
4334 4633 CircleF
4390 4676 CircleF
5437 840 CircleF
5496 885 CircleF
5178 3076 CircleF
5249 3131 CircleF
6455 3241 CircleF
6525 3295 CircleF
1509 4470 CircleF
1586 4529 CircleF
5567 1720 CircleF
5619 1760 CircleF
6847 936 CircleF
6897 974 CircleF
6484 535 CircleF
6545 582 CircleF
6356 2138 CircleF
6402 2173 CircleF
5229 3028 CircleF
5289 3074 CircleF
4879 4110 CircleF
4958 4171 CircleF
2479 2767 CircleF
2546 2819 CircleF
4477 4683 CircleF
4548 4738 CircleF
6534 1757 CircleF
6590 1800 CircleF
6449 3544 CircleF
6507 3588 CircleF
3836 4163 CircleF
3906 4216 CircleF
4348 1215 CircleF
4393 1249 CircleF
6350 3122 CircleF
6401 3160 CircleF
2851 3985 CircleF
2920 4037 CircleF
1642 2730 CircleF
1719 2790 CircleF
4866 2905 CircleF
4930 2954 CircleF
3505 2230 CircleF
3572 2282 CircleF
4046 4092 CircleF
4097 4131 CircleF
3378 4316 CircleF
3427 4354 CircleF
4253 4455 CircleF
4310 4499 CircleF
6014 3558 CircleF
6070 3601 CircleF
4753 2183 CircleF
4827 2240 CircleF
6521 4227 CircleF
6571 4266 CircleF
3989 4675 CircleF
4048 4720 CircleF
2671 2874 CircleF
2714 2907 CircleF
5226 4222 CircleF
5291 4271 CircleF
5398 2147 CircleF
5464 2197 CircleF
1218 3788 CircleF
1286 3840 CircleF
3006 3471 CircleF
3059 3511 CircleF
6619 3278 CircleF
6694 3335 CircleF
1305 1865 CircleF
1356 1904 CircleF
6732 4567 CircleF
6792 4613 CircleF
4498 2919 CircleF
4548 2958 CircleF
5724 2048 CircleF
5803 2108 CircleF
4179 1178 CircleF
4253 1235 CircleF
2157 3471 CircleF
2208 3510 CircleF
5166 1313 CircleF
5242 1371 CircleF
5023 3056 CircleF
5092 3110 CircleF
4746 322 CircleF
4803 366 CircleF
6058 2336 CircleF
6131 2392 CircleF
2515 1038 CircleF
2591 1096 CircleF
4956 3939 CircleF
5014 3983 CircleF
4663 2985 CircleF
4734 3040 CircleF
6752 4158 CircleF
6808 4201 CircleF
5978 1870 CircleF
6036 1914 CircleF
1028 1736 CircleF
1078 1774 CircleF
1581 1468 CircleF
1650 1521 CircleF
6068 1699 CircleF
6111 1733 CircleF
2574 4229 CircleF
2642 4281 CircleF
2710 4693 CircleF
2786 4751 CircleF
5977 2083 CircleF
6027 2122 CircleF
5377 3318 CircleF
5434 3361 CircleF
1497 3576 CircleF
1573 3634 CircleF
6665 865 CircleF
6721 908 CircleF
4602 2789 CircleF
4667 2839 CircleF
2163 2292 CircleF
2221 2336 CircleF
1604 1934 CircleF
1683 1994 CircleF
1654 798 CircleF
1712 842 CircleF
1109 1930 CircleF
1163 1971 CircleF
6829 3115 CircleF
6899 3168 CircleF
6231 4363 CircleF
6274 4395 CircleF
2957 3892 CircleF
3013 3935 CircleF
6442 3128 CircleF
6521 3188 CircleF
4380 3258 CircleF
4460 3319 CircleF
5328 1109 CircleF
5384 1152 CircleF
1108 2192 CircleF
1152 2225 CircleF
6702 3596 CircleF
6753 3635 CircleF
2535 571 CircleF
2611 629 CircleF
967 1544 CircleF
1008 1575 CircleF
5758 2452 CircleF
5816 2496 CircleF
5271 2923 CircleF
5318 2958 CircleF
4881 1406 CircleF
4954 1462 CircleF
1747 696 CircleF
1813 746 CircleF
1560 3915 CircleF
1608 3952 CircleF
6817 3406 CircleF
6859 3438 CircleF
3568 873 CircleF
3622 914 CircleF
6023 2151 CircleF
6068 2185 CircleF
4394 515 CircleF
4445 554 CircleF
4696 4505 CircleF
4753 4548 CircleF
1098 3246 CircleF
1140 3279 CircleF
4633 2673 CircleF
4708 2731 CircleF
3559 2262 CircleF
3636 2321 CircleF
1603 1283 CircleF
1677 1340 CircleF
2297 4304 CircleF
2364 4356 CircleF
4751 4311 CircleF
4805 4352 CircleF
4132 3907 CircleF
4196 3956 CircleF
4208 3578 CircleF
4254 3614 CircleF
6355 956 CircleF
6413 1001 CircleF
6699 1307 CircleF
6754 1350 CircleF
5860 3317 CircleF
5927 3368 CircleF
3550 1200 CircleF
3607 1244 CircleF
2664 4698 CircleF
2707 4731 CircleF
6257 4116 CircleF
6314 4161 CircleF
4038 1969 CircleF
4117 2031 CircleF
1955 3121 CircleF
1996 3152 CircleF
6387 3012 CircleF
6467 3073 CircleF
2658 2414 CircleF
2727 2467 CircleF
4014 965 CircleF
4071 1008 CircleF
2587 1424 CircleF
2642 1465 CircleF
3345 1953 CircleF
3409 2002 CircleF
4131 561 CircleF
4202 616 CircleF
4380 2326 CircleF
4433 2367 CircleF
4541 4617 CircleF
4603 4664 CircleF
5171 3165 CircleF
5227 3207 CircleF
2295 2968 CircleF
2361 3019 CircleF
5173 4403 CircleF
5247 4460 CircleF
5433 563 CircleF
5495 611 CircleF
5842 540 CircleF
5919 599 CircleF
1932 1454 CircleF
2008 1512 CircleF
1139 1501 CircleF
1193 1543 CircleF
2180 4014 CircleF
2247 4066 CircleF
1888 2605 CircleF
1948 2651 CircleF
2407 3296 CircleF
2470 3344 CircleF
1693 2903 CircleF
1742 2941 CircleF
1307 4683 CircleF
1369 4731 CircleF
% End plot #2
1.000 UP
1.000 UL
LT0
0.50 0.50 0.50 C stroke
grestore
end
showpage
%%Trailer
%%DocumentFonts: Helvetica
%%Pages: 1
