%!PS-Adobe-2.0
%%Title: out.ps
%%Creator: gnuplot 4.6 patchlevel 6
%%CreationDate: Fri May 29 01:38:47 2015
%%DocumentFonts: (atend)
%%BoundingBox: 50 50 554 770
%%Orientation: Landscape
%%Pages: (atend)
%%EndComments
%%BeginProlog
/gnudict 256 dict def
gnudict begin
%
% The following true/false flags may be edited by hand if desired.
% The unit line width and grayscale image gamma correction may also be changed.
%
/Color false def
/Blacktext false def
/Solid false def
/Dashlength 1 def
/Landscape true def
/Level1 false def
/Rounded false def
/ClipToBoundingBox false def
/SuppressPDFMark false def
/TransparentPatterns false def
/gnulinewidth 5.000 def
/userlinewidth gnulinewidth def
/Gamma 1.0 def
/BackgroundColor {-1.000 -1.000 -1.000} def
%
/vshift -46 def
/dl1 {
  10.0 Dashlength mul mul
  Rounded { currentlinewidth 0.75 mul sub dup 0 le { pop 0.01 } if } if
} def
/dl2 {
  10.0 Dashlength mul mul
  Rounded { currentlinewidth 0.75 mul add } if
} def
/hpt_ 31.5 def
/vpt_ 31.5 def
/hpt hpt_ def
/vpt vpt_ def
/doclip {
  ClipToBoundingBox {
    newpath 50 50 moveto 554 50 lineto 554 770 lineto 50 770 lineto closepath
    clip
  } if
} def
%
% Gnuplot Prolog Version 4.6 (September 2012)
%
%/SuppressPDFMark true def
%
/M {moveto} bind def
/L {lineto} bind def
/R {rmoveto} bind def
/V {rlineto} bind def
/N {newpath moveto} bind def
/Z {closepath} bind def
/C {setrgbcolor} bind def
/f {rlineto fill} bind def
/g {setgray} bind def
/Gshow {show} def   % May be redefined later in the file to support UTF-8
/vpt2 vpt 2 mul def
/hpt2 hpt 2 mul def
/Lshow {currentpoint stroke M 0 vshift R 
	Blacktext {gsave 0 setgray show grestore} {show} ifelse} def
/Rshow {currentpoint stroke M dup stringwidth pop neg vshift R
	Blacktext {gsave 0 setgray show grestore} {show} ifelse} def
/Cshow {currentpoint stroke M dup stringwidth pop -2 div vshift R 
	Blacktext {gsave 0 setgray show grestore} {show} ifelse} def
/UP {dup vpt_ mul /vpt exch def hpt_ mul /hpt exch def
  /hpt2 hpt 2 mul def /vpt2 vpt 2 mul def} def
/DL {Color {setrgbcolor Solid {pop []} if 0 setdash}
 {pop pop pop 0 setgray Solid {pop []} if 0 setdash} ifelse} def
/BL {stroke userlinewidth 2 mul setlinewidth
	Rounded {1 setlinejoin 1 setlinecap} if} def
/AL {stroke userlinewidth 2 div setlinewidth
	Rounded {1 setlinejoin 1 setlinecap} if} def
/UL {dup gnulinewidth mul /userlinewidth exch def
	dup 1 lt {pop 1} if 10 mul /udl exch def} def
/PL {stroke userlinewidth setlinewidth
	Rounded {1 setlinejoin 1 setlinecap} if} def
3.8 setmiterlimit
% Default Line colors
/LCw {1 1 1} def
/LCb {0 0 0} def
/LCa {0 0 0} def
/LC0 {1 0 0} def
/LC1 {0 1 0} def
/LC2 {0 0 1} def
/LC3 {1 0 1} def
/LC4 {0 1 1} def
/LC5 {1 1 0} def
/LC6 {0 0 0} def
/LC7 {1 0.3 0} def
/LC8 {0.5 0.5 0.5} def
% Default Line Types
/LTw {PL [] 1 setgray} def
/LTb {BL [] LCb DL} def
/LTa {AL [1 udl mul 2 udl mul] 0 setdash LCa setrgbcolor} def
/LT0 {PL [] LC0 DL} def
/LT1 {PL [4 dl1 2 dl2] LC1 DL} def
/LT2 {PL [2 dl1 3 dl2] LC2 DL} def
/LT3 {PL [1 dl1 1.5 dl2] LC3 DL} def
/LT4 {PL [6 dl1 2 dl2 1 dl1 2 dl2] LC4 DL} def
/LT5 {PL [3 dl1 3 dl2 1 dl1 3 dl2] LC5 DL} def
/LT6 {PL [2 dl1 2 dl2 2 dl1 6 dl2] LC6 DL} def
/LT7 {PL [1 dl1 2 dl2 6 dl1 2 dl2 1 dl1 2 dl2] LC7 DL} def
/LT8 {PL [2 dl1 2 dl2 2 dl1 2 dl2 2 dl1 2 dl2 2 dl1 4 dl2] LC8 DL} def
/Pnt {stroke [] 0 setdash gsave 1 setlinecap M 0 0 V stroke grestore} def
/Dia {stroke [] 0 setdash 2 copy vpt add M
  hpt neg vpt neg V hpt vpt neg V
  hpt vpt V hpt neg vpt V closepath stroke
  Pnt} def
/Pls {stroke [] 0 setdash vpt sub M 0 vpt2 V
  currentpoint stroke M
  hpt neg vpt neg R hpt2 0 V stroke
 } def
/Box {stroke [] 0 setdash 2 copy exch hpt sub exch vpt add M
  0 vpt2 neg V hpt2 0 V 0 vpt2 V
  hpt2 neg 0 V closepath stroke
  Pnt} def
/Crs {stroke [] 0 setdash exch hpt sub exch vpt add M
  hpt2 vpt2 neg V currentpoint stroke M
  hpt2 neg 0 R hpt2 vpt2 V stroke} def
/TriU {stroke [] 0 setdash 2 copy vpt 1.12 mul add M
  hpt neg vpt -1.62 mul V
  hpt 2 mul 0 V
  hpt neg vpt 1.62 mul V closepath stroke
  Pnt} def
/Star {2 copy Pls Crs} def
/BoxF {stroke [] 0 setdash exch hpt sub exch vpt add M
  0 vpt2 neg V hpt2 0 V 0 vpt2 V
  hpt2 neg 0 V closepath fill} def
/TriUF {stroke [] 0 setdash vpt 1.12 mul add M
  hpt neg vpt -1.62 mul V
  hpt 2 mul 0 V
  hpt neg vpt 1.62 mul V closepath fill} def
/TriD {stroke [] 0 setdash 2 copy vpt 1.12 mul sub M
  hpt neg vpt 1.62 mul V
  hpt 2 mul 0 V
  hpt neg vpt -1.62 mul V closepath stroke
  Pnt} def
/TriDF {stroke [] 0 setdash vpt 1.12 mul sub M
  hpt neg vpt 1.62 mul V
  hpt 2 mul 0 V
  hpt neg vpt -1.62 mul V closepath fill} def
/DiaF {stroke [] 0 setdash vpt add M
  hpt neg vpt neg V hpt vpt neg V
  hpt vpt V hpt neg vpt V closepath fill} def
/Pent {stroke [] 0 setdash 2 copy gsave
  translate 0 hpt M 4 {72 rotate 0 hpt L} repeat
  closepath stroke grestore Pnt} def
/PentF {stroke [] 0 setdash gsave
  translate 0 hpt M 4 {72 rotate 0 hpt L} repeat
  closepath fill grestore} def
/Circle {stroke [] 0 setdash 2 copy
  hpt 0 360 arc stroke Pnt} def
/CircleF {stroke [] 0 setdash hpt 0 360 arc fill} def
/C0 {BL [] 0 setdash 2 copy moveto vpt 90 450 arc} bind def
/C1 {BL [] 0 setdash 2 copy moveto
	2 copy vpt 0 90 arc closepath fill
	vpt 0 360 arc closepath} bind def
/C2 {BL [] 0 setdash 2 copy moveto
	2 copy vpt 90 180 arc closepath fill
	vpt 0 360 arc closepath} bind def
/C3 {BL [] 0 setdash 2 copy moveto
	2 copy vpt 0 180 arc closepath fill
	vpt 0 360 arc closepath} bind def
/C4 {BL [] 0 setdash 2 copy moveto
	2 copy vpt 180 270 arc closepath fill
	vpt 0 360 arc closepath} bind def
/C5 {BL [] 0 setdash 2 copy moveto
	2 copy vpt 0 90 arc
	2 copy moveto
	2 copy vpt 180 270 arc closepath fill
	vpt 0 360 arc} bind def
/C6 {BL [] 0 setdash 2 copy moveto
	2 copy vpt 90 270 arc closepath fill
	vpt 0 360 arc closepath} bind def
/C7 {BL [] 0 setdash 2 copy moveto
	2 copy vpt 0 270 arc closepath fill
	vpt 0 360 arc closepath} bind def
/C8 {BL [] 0 setdash 2 copy moveto
	2 copy vpt 270 360 arc closepath fill
	vpt 0 360 arc closepath} bind def
/C9 {BL [] 0 setdash 2 copy moveto
	2 copy vpt 270 450 arc closepath fill
	vpt 0 360 arc closepath} bind def
/C10 {BL [] 0 setdash 2 copy 2 copy moveto vpt 270 360 arc closepath fill
	2 copy moveto
	2 copy vpt 90 180 arc closepath fill
	vpt 0 360 arc closepath} bind def
/C11 {BL [] 0 setdash 2 copy moveto
	2 copy vpt 0 180 arc closepath fill
	2 copy moveto
	2 copy vpt 270 360 arc closepath fill
	vpt 0 360 arc closepath} bind def
/C12 {BL [] 0 setdash 2 copy moveto
	2 copy vpt 180 360 arc closepath fill
	vpt 0 360 arc closepath} bind def
/C13 {BL [] 0 setdash 2 copy moveto
	2 copy vpt 0 90 arc closepath fill
	2 copy moveto
	2 copy vpt 180 360 arc closepath fill
	vpt 0 360 arc closepath} bind def
/C14 {BL [] 0 setdash 2 copy moveto
	2 copy vpt 90 360 arc closepath fill
	vpt 0 360 arc} bind def
/C15 {BL [] 0 setdash 2 copy vpt 0 360 arc closepath fill
	vpt 0 360 arc closepath} bind def
/Rec {newpath 4 2 roll moveto 1 index 0 rlineto 0 exch rlineto
	neg 0 rlineto closepath} bind def
/Square {dup Rec} bind def
/Bsquare {vpt sub exch vpt sub exch vpt2 Square} bind def
/S0 {BL [] 0 setdash 2 copy moveto 0 vpt rlineto BL Bsquare} bind def
/S1 {BL [] 0 setdash 2 copy vpt Square fill Bsquare} bind def
/S2 {BL [] 0 setdash 2 copy exch vpt sub exch vpt Square fill Bsquare} bind def
/S3 {BL [] 0 setdash 2 copy exch vpt sub exch vpt2 vpt Rec fill Bsquare} bind def
/S4 {BL [] 0 setdash 2 copy exch vpt sub exch vpt sub vpt Square fill Bsquare} bind def
/S5 {BL [] 0 setdash 2 copy 2 copy vpt Square fill
	exch vpt sub exch vpt sub vpt Square fill Bsquare} bind def
/S6 {BL [] 0 setdash 2 copy exch vpt sub exch vpt sub vpt vpt2 Rec fill Bsquare} bind def
/S7 {BL [] 0 setdash 2 copy exch vpt sub exch vpt sub vpt vpt2 Rec fill
	2 copy vpt Square fill Bsquare} bind def
/S8 {BL [] 0 setdash 2 copy vpt sub vpt Square fill Bsquare} bind def
/S9 {BL [] 0 setdash 2 copy vpt sub vpt vpt2 Rec fill Bsquare} bind def
/S10 {BL [] 0 setdash 2 copy vpt sub vpt Square fill 2 copy exch vpt sub exch vpt Square fill
	Bsquare} bind def
/S11 {BL [] 0 setdash 2 copy vpt sub vpt Square fill 2 copy exch vpt sub exch vpt2 vpt Rec fill
	Bsquare} bind def
/S12 {BL [] 0 setdash 2 copy exch vpt sub exch vpt sub vpt2 vpt Rec fill Bsquare} bind def
/S13 {BL [] 0 setdash 2 copy exch vpt sub exch vpt sub vpt2 vpt Rec fill
	2 copy vpt Square fill Bsquare} bind def
/S14 {BL [] 0 setdash 2 copy exch vpt sub exch vpt sub vpt2 vpt Rec fill
	2 copy exch vpt sub exch vpt Square fill Bsquare} bind def
/S15 {BL [] 0 setdash 2 copy Bsquare fill Bsquare} bind def
/D0 {gsave translate 45 rotate 0 0 S0 stroke grestore} bind def
/D1 {gsave translate 45 rotate 0 0 S1 stroke grestore} bind def
/D2 {gsave translate 45 rotate 0 0 S2 stroke grestore} bind def
/D3 {gsave translate 45 rotate 0 0 S3 stroke grestore} bind def
/D4 {gsave translate 45 rotate 0 0 S4 stroke grestore} bind def
/D5 {gsave translate 45 rotate 0 0 S5 stroke grestore} bind def
/D6 {gsave translate 45 rotate 0 0 S6 stroke grestore} bind def
/D7 {gsave translate 45 rotate 0 0 S7 stroke grestore} bind def
/D8 {gsave translate 45 rotate 0 0 S8 stroke grestore} bind def
/D9 {gsave translate 45 rotate 0 0 S9 stroke grestore} bind def
/D10 {gsave translate 45 rotate 0 0 S10 stroke grestore} bind def
/D11 {gsave translate 45 rotate 0 0 S11 stroke grestore} bind def
/D12 {gsave translate 45 rotate 0 0 S12 stroke grestore} bind def
/D13 {gsave translate 45 rotate 0 0 S13 stroke grestore} bind def
/D14 {gsave translate 45 rotate 0 0 S14 stroke grestore} bind def
/D15 {gsave translate 45 rotate 0 0 S15 stroke grestore} bind def
/DiaE {stroke [] 0 setdash vpt add M
  hpt neg vpt neg V hpt vpt neg V
  hpt vpt V hpt neg vpt V closepath stroke} def
/BoxE {stroke [] 0 setdash exch hpt sub exch vpt add M
  0 vpt2 neg V hpt2 0 V 0 vpt2 V
  hpt2 neg 0 V closepath stroke} def
/TriUE {stroke [] 0 setdash vpt 1.12 mul add M
  hpt neg vpt -1.62 mul V
  hpt 2 mul 0 V
  hpt neg vpt 1.62 mul V closepath stroke} def
/TriDE {stroke [] 0 setdash vpt 1.12 mul sub M
  hpt neg vpt 1.62 mul V
  hpt 2 mul 0 V
  hpt neg vpt -1.62 mul V closepath stroke} def
/PentE {stroke [] 0 setdash gsave
  translate 0 hpt M 4 {72 rotate 0 hpt L} repeat
  closepath stroke grestore} def
/CircE {stroke [] 0 setdash 
  hpt 0 360 arc stroke} def
/Opaque {gsave closepath 1 setgray fill grestore 0 setgray closepath} def
/DiaW {stroke [] 0 setdash vpt add M
  hpt neg vpt neg V hpt vpt neg V
  hpt vpt V hpt neg vpt V Opaque stroke} def
/BoxW {stroke [] 0 setdash exch hpt sub exch vpt add M
  0 vpt2 neg V hpt2 0 V 0 vpt2 V
  hpt2 neg 0 V Opaque stroke} def
/TriUW {stroke [] 0 setdash vpt 1.12 mul add M
  hpt neg vpt -1.62 mul V
  hpt 2 mul 0 V
  hpt neg vpt 1.62 mul V Opaque stroke} def
/TriDW {stroke [] 0 setdash vpt 1.12 mul sub M
  hpt neg vpt 1.62 mul V
  hpt 2 mul 0 V
  hpt neg vpt -1.62 mul V Opaque stroke} def
/PentW {stroke [] 0 setdash gsave
  translate 0 hpt M 4 {72 rotate 0 hpt L} repeat
  Opaque stroke grestore} def
/CircW {stroke [] 0 setdash 
  hpt 0 360 arc Opaque stroke} def
/BoxFill {gsave Rec 1 setgray fill grestore} def
/Density {
  /Fillden exch def
  currentrgbcolor
  /ColB exch def /ColG exch def /ColR exch def
  /ColR ColR Fillden mul Fillden sub 1 add def
  /ColG ColG Fillden mul Fillden sub 1 add def
  /ColB ColB Fillden mul Fillden sub 1 add def
  ColR ColG ColB setrgbcolor} def
/BoxColFill {gsave Rec PolyFill} def
/PolyFill {gsave Density fill grestore grestore} def
/h {rlineto rlineto rlineto gsave closepath fill grestore} bind def
%
% PostScript Level 1 Pattern Fill routine for rectangles
% Usage: x y w h s a XX PatternFill
%	x,y = lower left corner of box to be filled
%	w,h = width and height of box
%	  a = angle in degrees between lines and x-axis
%	 XX = 0/1 for no/yes cross-hatch
%
/PatternFill {gsave /PFa [ 9 2 roll ] def
  PFa 0 get PFa 2 get 2 div add PFa 1 get PFa 3 get 2 div add translate
  PFa 2 get -2 div PFa 3 get -2 div PFa 2 get PFa 3 get Rec
  TransparentPatterns {} {gsave 1 setgray fill grestore} ifelse
  clip
  currentlinewidth 0.5 mul setlinewidth
  /PFs PFa 2 get dup mul PFa 3 get dup mul add sqrt def
  0 0 M PFa 5 get rotate PFs -2 div dup translate
  0 1 PFs PFa 4 get div 1 add floor cvi
	{PFa 4 get mul 0 M 0 PFs V} for
  0 PFa 6 get ne {
	0 1 PFs PFa 4 get div 1 add floor cvi
	{PFa 4 get mul 0 2 1 roll M PFs 0 V} for
 } if
  stroke grestore} def
%
/languagelevel where
 {pop languagelevel} {1} ifelse
 2 lt
	{/InterpretLevel1 true def}
	{/InterpretLevel1 Level1 def}
 ifelse
%
% PostScript level 2 pattern fill definitions
%
/Level2PatternFill {
/Tile8x8 {/PaintType 2 /PatternType 1 /TilingType 1 /BBox [0 0 8 8] /XStep 8 /YStep 8}
	bind def
/KeepColor {currentrgbcolor [/Pattern /DeviceRGB] setcolorspace} bind def
<< Tile8x8
 /PaintProc {0.5 setlinewidth pop 0 0 M 8 8 L 0 8 M 8 0 L stroke} 
>> matrix makepattern
/Pat1 exch def
<< Tile8x8
 /PaintProc {0.5 setlinewidth pop 0 0 M 8 8 L 0 8 M 8 0 L stroke
	0 4 M 4 8 L 8 4 L 4 0 L 0 4 L stroke}
>> matrix makepattern
/Pat2 exch def
<< Tile8x8
 /PaintProc {0.5 setlinewidth pop 0 0 M 0 8 L
	8 8 L 8 0 L 0 0 L fill}
>> matrix makepattern
/Pat3 exch def
<< Tile8x8
 /PaintProc {0.5 setlinewidth pop -4 8 M 8 -4 L
	0 12 M 12 0 L stroke}
>> matrix makepattern
/Pat4 exch def
<< Tile8x8
 /PaintProc {0.5 setlinewidth pop -4 0 M 8 12 L
	0 -4 M 12 8 L stroke}
>> matrix makepattern
/Pat5 exch def
<< Tile8x8
 /PaintProc {0.5 setlinewidth pop -2 8 M 4 -4 L
	0 12 M 8 -4 L 4 12 M 10 0 L stroke}
>> matrix makepattern
/Pat6 exch def
<< Tile8x8
 /PaintProc {0.5 setlinewidth pop -2 0 M 4 12 L
	0 -4 M 8 12 L 4 -4 M 10 8 L stroke}
>> matrix makepattern
/Pat7 exch def
<< Tile8x8
 /PaintProc {0.5 setlinewidth pop 8 -2 M -4 4 L
	12 0 M -4 8 L 12 4 M 0 10 L stroke}
>> matrix makepattern
/Pat8 exch def
<< Tile8x8
 /PaintProc {0.5 setlinewidth pop 0 -2 M 12 4 L
	-4 0 M 12 8 L -4 4 M 8 10 L stroke}
>> matrix makepattern
/Pat9 exch def
/Pattern1 {PatternBgnd KeepColor Pat1 setpattern} bind def
/Pattern2 {PatternBgnd KeepColor Pat2 setpattern} bind def
/Pattern3 {PatternBgnd KeepColor Pat3 setpattern} bind def
/Pattern4 {PatternBgnd KeepColor Landscape {Pat5} {Pat4} ifelse setpattern} bind def
/Pattern5 {PatternBgnd KeepColor Landscape {Pat4} {Pat5} ifelse setpattern} bind def
/Pattern6 {PatternBgnd KeepColor Landscape {Pat9} {Pat6} ifelse setpattern} bind def
/Pattern7 {PatternBgnd KeepColor Landscape {Pat8} {Pat7} ifelse setpattern} bind def
} def
%
%
%End of PostScript Level 2 code
%
/PatternBgnd {
  TransparentPatterns {} {gsave 1 setgray fill grestore} ifelse
} def
%
% Substitute for Level 2 pattern fill codes with
% grayscale if Level 2 support is not selected.
%
/Level1PatternFill {
/Pattern1 {0.250 Density} bind def
/Pattern2 {0.500 Density} bind def
/Pattern3 {0.750 Density} bind def
/Pattern4 {0.125 Density} bind def
/Pattern5 {0.375 Density} bind def
/Pattern6 {0.625 Density} bind def
/Pattern7 {0.875 Density} bind def
} def
%
% Now test for support of Level 2 code
%
Level1 {Level1PatternFill} {Level2PatternFill} ifelse
%
/Symbol-Oblique /Symbol findfont [1 0 .167 1 0 0] makefont
dup length dict begin {1 index /FID eq {pop pop} {def} ifelse} forall
currentdict end definefont pop
Level1 SuppressPDFMark or 
{} {
/SDict 10 dict def
systemdict /pdfmark known not {
  userdict /pdfmark systemdict /cleartomark get put
} if
SDict begin [
  /Title (out.ps)
  /Subject (gnuplot plot)
  /Creator (gnuplot 4.6 patchlevel 6)
  /Author (yani)
%  /Producer (gnuplot)
%  /Keywords ()
  /CreationDate (Fri May 29 01:38:47 2015)
  /DOCINFO pdfmark
end
} ifelse
end
%%EndProlog
%%Page: 1 1
gnudict begin
gsave
doclip
50 50 translate
0.100 0.100 scale
90 rotate
0 -5040 translate
0 setgray
newpath
(Helvetica) findfont 140 scalefont setfont
BackgroundColor 0 lt 3 1 roll 0 lt exch 0 lt or or not {gsave BackgroundColor C clippath fill grestore} if
1.000 UL
LT0
0.50 0.50 0.50 C 1.000 UL
LTa
0.50 0.50 0.50 C 966 280 M
5981 0 V
stroke
LT0
0.50 0.50 0.50 C 966 280 M
63 0 V
5918 0 R
-63 0 V
882 280 M
( 0) Rshow
1.000 UL
LT0
0.50 0.50 0.50 C 1.000 UL
LTa
0.50 0.50 0.50 C 966 372 M
5981 0 V
stroke
LT0
0.50 0.50 0.50 C 966 372 M
63 0 V
5918 0 R
-63 0 V
882 372 M
( 0.707106) Rshow
1.000 UL
LT0
0.50 0.50 0.50 C 1.000 UL
LTa
0.50 0.50 0.50 C 966 464 M
5981 0 V
stroke
LT0
0.50 0.50 0.50 C 966 464 M
63 0 V
5918 0 R
-63 0 V
882 464 M
( 1.41421) Rshow
1.000 UL
LT0
0.50 0.50 0.50 C 1.000 UL
LTa
0.50 0.50 0.50 C 966 555 M
5981 0 V
stroke
LT0
0.50 0.50 0.50 C 966 555 M
63 0 V
5918 0 R
-63 0 V
882 555 M
( 2.12132) Rshow
1.000 UL
LT0
0.50 0.50 0.50 C 1.000 UL
LTa
0.50 0.50 0.50 C 966 647 M
5981 0 V
stroke
LT0
0.50 0.50 0.50 C 966 647 M
63 0 V
5918 0 R
-63 0 V
882 647 M
( 2.82842) Rshow
1.000 UL
LT0
0.50 0.50 0.50 C 1.000 UL
LTa
0.50 0.50 0.50 C 966 739 M
5981 0 V
stroke
LT0
0.50 0.50 0.50 C 966 739 M
63 0 V
5918 0 R
-63 0 V
882 739 M
( 3.53553) Rshow
1.000 UL
LT0
0.50 0.50 0.50 C 1.000 UL
LTa
0.50 0.50 0.50 C 966 831 M
5981 0 V
stroke
LT0
0.50 0.50 0.50 C 966 831 M
63 0 V
5918 0 R
-63 0 V
882 831 M
( 4.24264) Rshow
1.000 UL
LT0
0.50 0.50 0.50 C 1.000 UL
LTa
0.50 0.50 0.50 C 966 923 M
5981 0 V
stroke
LT0
0.50 0.50 0.50 C 966 923 M
63 0 V
5918 0 R
-63 0 V
882 923 M
( 4.94974) Rshow
1.000 UL
LT0
0.50 0.50 0.50 C 1.000 UL
LTa
0.50 0.50 0.50 C 966 1015 M
5981 0 V
stroke
LT0
0.50 0.50 0.50 C 966 1015 M
63 0 V
5918 0 R
-63 0 V
-6002 0 R
( 5.65685) Rshow
1.000 UL
LT0
0.50 0.50 0.50 C 1.000 UL
LTa
0.50 0.50 0.50 C 966 1106 M
5981 0 V
stroke
LT0
0.50 0.50 0.50 C 966 1106 M
63 0 V
5918 0 R
-63 0 V
-6002 0 R
( 6.36395) Rshow
1.000 UL
LT0
0.50 0.50 0.50 C 1.000 UL
LTa
0.50 0.50 0.50 C 966 1198 M
5981 0 V
stroke
LT0
0.50 0.50 0.50 C 966 1198 M
63 0 V
5918 0 R
-63 0 V
-6002 0 R
( 7.07106) Rshow
1.000 UL
LT0
0.50 0.50 0.50 C 1.000 UL
LTa
0.50 0.50 0.50 C 966 1290 M
5981 0 V
stroke
LT0
0.50 0.50 0.50 C 966 1290 M
63 0 V
5918 0 R
-63 0 V
-6002 0 R
( 7.77817) Rshow
1.000 UL
LT0
0.50 0.50 0.50 C 1.000 UL
LTa
0.50 0.50 0.50 C 966 1382 M
5981 0 V
stroke
LT0
0.50 0.50 0.50 C 966 1382 M
63 0 V
5918 0 R
-63 0 V
-6002 0 R
( 8.48527) Rshow
1.000 UL
LT0
0.50 0.50 0.50 C 1.000 UL
LTa
0.50 0.50 0.50 C 966 1474 M
5981 0 V
stroke
LT0
0.50 0.50 0.50 C 966 1474 M
63 0 V
5918 0 R
-63 0 V
-6002 0 R
( 9.19238) Rshow
1.000 UL
LT0
0.50 0.50 0.50 C 1.000 UL
LTa
0.50 0.50 0.50 C 966 1565 M
5981 0 V
stroke
LT0
0.50 0.50 0.50 C 966 1565 M
63 0 V
5918 0 R
-63 0 V
-6002 0 R
( 9.89948) Rshow
1.000 UL
LT0
0.50 0.50 0.50 C 1.000 UL
LTa
0.50 0.50 0.50 C 966 1657 M
5981 0 V
stroke
LT0
0.50 0.50 0.50 C 966 1657 M
63 0 V
5918 0 R
-63 0 V
-6002 0 R
( 10.6066) Rshow
1.000 UL
LT0
0.50 0.50 0.50 C 1.000 UL
LTa
0.50 0.50 0.50 C 966 1749 M
5981 0 V
stroke
LT0
0.50 0.50 0.50 C 966 1749 M
63 0 V
5918 0 R
-63 0 V
-6002 0 R
( 11.3137) Rshow
1.000 UL
LT0
0.50 0.50 0.50 C 1.000 UL
LTa
0.50 0.50 0.50 C 966 1841 M
5981 0 V
stroke
LT0
0.50 0.50 0.50 C 966 1841 M
63 0 V
5918 0 R
-63 0 V
-6002 0 R
( 12.0208) Rshow
1.000 UL
LT0
0.50 0.50 0.50 C 1.000 UL
LTa
0.50 0.50 0.50 C 966 1933 M
5981 0 V
stroke
LT0
0.50 0.50 0.50 C 966 1933 M
63 0 V
5918 0 R
-63 0 V
-6002 0 R
( 12.7279) Rshow
1.000 UL
LT0
0.50 0.50 0.50 C 1.000 UL
LTa
0.50 0.50 0.50 C 966 2025 M
5981 0 V
stroke
LT0
0.50 0.50 0.50 C 966 2025 M
63 0 V
5918 0 R
-63 0 V
-6002 0 R
( 13.435) Rshow
1.000 UL
LT0
0.50 0.50 0.50 C 1.000 UL
LTa
0.50 0.50 0.50 C 966 2116 M
5981 0 V
stroke
LT0
0.50 0.50 0.50 C 966 2116 M
63 0 V
5918 0 R
-63 0 V
-6002 0 R
( 14.1421) Rshow
1.000 UL
LT0
0.50 0.50 0.50 C 1.000 UL
LTa
0.50 0.50 0.50 C 966 2208 M
5981 0 V
stroke
LT0
0.50 0.50 0.50 C 966 2208 M
63 0 V
5918 0 R
-63 0 V
-6002 0 R
( 14.8492) Rshow
1.000 UL
LT0
0.50 0.50 0.50 C 1.000 UL
LTa
0.50 0.50 0.50 C 966 2300 M
5981 0 V
stroke
LT0
0.50 0.50 0.50 C 966 2300 M
63 0 V
5918 0 R
-63 0 V
-6002 0 R
( 15.5563) Rshow
1.000 UL
LT0
0.50 0.50 0.50 C 1.000 UL
LTa
0.50 0.50 0.50 C 966 2392 M
5981 0 V
stroke
LT0
0.50 0.50 0.50 C 966 2392 M
63 0 V
5918 0 R
-63 0 V
-6002 0 R
( 16.2634) Rshow
1.000 UL
LT0
0.50 0.50 0.50 C 1.000 UL
LTa
0.50 0.50 0.50 C 966 2484 M
5981 0 V
stroke
LT0
0.50 0.50 0.50 C 966 2484 M
63 0 V
5918 0 R
-63 0 V
-6002 0 R
( 16.9705) Rshow
1.000 UL
LT0
0.50 0.50 0.50 C 1.000 UL
LTa
0.50 0.50 0.50 C 966 2575 M
5981 0 V
stroke
LT0
0.50 0.50 0.50 C 966 2575 M
63 0 V
5918 0 R
-63 0 V
-6002 0 R
( 17.6776) Rshow
1.000 UL
LT0
0.50 0.50 0.50 C 1.000 UL
LTa
0.50 0.50 0.50 C 966 2667 M
5981 0 V
stroke
LT0
0.50 0.50 0.50 C 966 2667 M
63 0 V
5918 0 R
-63 0 V
-6002 0 R
( 18.3848) Rshow
1.000 UL
LT0
0.50 0.50 0.50 C 1.000 UL
LTa
0.50 0.50 0.50 C 966 2759 M
5981 0 V
stroke
LT0
0.50 0.50 0.50 C 966 2759 M
63 0 V
5918 0 R
-63 0 V
-6002 0 R
( 19.0919) Rshow
1.000 UL
LT0
0.50 0.50 0.50 C 1.000 UL
LTa
0.50 0.50 0.50 C 966 2851 M
5981 0 V
stroke
LT0
0.50 0.50 0.50 C 966 2851 M
63 0 V
5918 0 R
-63 0 V
-6002 0 R
( 19.799) Rshow
1.000 UL
LT0
0.50 0.50 0.50 C 1.000 UL
LTa
0.50 0.50 0.50 C 966 2943 M
5981 0 V
stroke
LT0
0.50 0.50 0.50 C 966 2943 M
63 0 V
5918 0 R
-63 0 V
-6002 0 R
( 20.5061) Rshow
1.000 UL
LT0
0.50 0.50 0.50 C 1.000 UL
LTa
0.50 0.50 0.50 C 966 3035 M
5981 0 V
stroke
LT0
0.50 0.50 0.50 C 966 3035 M
63 0 V
5918 0 R
-63 0 V
-6002 0 R
( 21.2132) Rshow
1.000 UL
LT0
0.50 0.50 0.50 C 1.000 UL
LTa
0.50 0.50 0.50 C 966 3126 M
5981 0 V
stroke
LT0
0.50 0.50 0.50 C 966 3126 M
63 0 V
5918 0 R
-63 0 V
-6002 0 R
( 21.9203) Rshow
1.000 UL
LT0
0.50 0.50 0.50 C 1.000 UL
LTa
0.50 0.50 0.50 C 966 3218 M
5981 0 V
stroke
LT0
0.50 0.50 0.50 C 966 3218 M
63 0 V
5918 0 R
-63 0 V
-6002 0 R
( 22.6274) Rshow
1.000 UL
LT0
0.50 0.50 0.50 C 1.000 UL
LTa
0.50 0.50 0.50 C 966 3310 M
5981 0 V
stroke
LT0
0.50 0.50 0.50 C 966 3310 M
63 0 V
5918 0 R
-63 0 V
-6002 0 R
( 23.3345) Rshow
1.000 UL
LT0
0.50 0.50 0.50 C 1.000 UL
LTa
0.50 0.50 0.50 C 966 3402 M
5981 0 V
stroke
LT0
0.50 0.50 0.50 C 966 3402 M
63 0 V
5918 0 R
-63 0 V
-6002 0 R
( 24.0416) Rshow
1.000 UL
LT0
0.50 0.50 0.50 C 1.000 UL
LTa
0.50 0.50 0.50 C 966 3494 M
5981 0 V
stroke
LT0
0.50 0.50 0.50 C 966 3494 M
63 0 V
5918 0 R
-63 0 V
-6002 0 R
( 24.7487) Rshow
1.000 UL
LT0
0.50 0.50 0.50 C 1.000 UL
LTa
0.50 0.50 0.50 C 966 3586 M
5981 0 V
stroke
LT0
0.50 0.50 0.50 C 966 3586 M
63 0 V
5918 0 R
-63 0 V
-6002 0 R
( 25.4558) Rshow
1.000 UL
LT0
0.50 0.50 0.50 C 1.000 UL
LTa
0.50 0.50 0.50 C 966 3677 M
5981 0 V
stroke
LT0
0.50 0.50 0.50 C 966 3677 M
63 0 V
5918 0 R
-63 0 V
-6002 0 R
( 26.1629) Rshow
1.000 UL
LT0
0.50 0.50 0.50 C 1.000 UL
LTa
0.50 0.50 0.50 C 966 3769 M
5981 0 V
stroke
LT0
0.50 0.50 0.50 C 966 3769 M
63 0 V
5918 0 R
-63 0 V
-6002 0 R
( 26.87) Rshow
1.000 UL
LT0
0.50 0.50 0.50 C 1.000 UL
LTa
0.50 0.50 0.50 C 966 3861 M
5981 0 V
stroke
LT0
0.50 0.50 0.50 C 966 3861 M
63 0 V
5918 0 R
-63 0 V
-6002 0 R
( 27.5771) Rshow
1.000 UL
LT0
0.50 0.50 0.50 C 1.000 UL
LTa
0.50 0.50 0.50 C 966 3953 M
5981 0 V
stroke
LT0
0.50 0.50 0.50 C 966 3953 M
63 0 V
5918 0 R
-63 0 V
-6002 0 R
( 28.2842) Rshow
1.000 UL
LT0
0.50 0.50 0.50 C 1.000 UL
LTa
0.50 0.50 0.50 C 966 4045 M
5981 0 V
stroke
LT0
0.50 0.50 0.50 C 966 4045 M
63 0 V
5918 0 R
-63 0 V
-6002 0 R
( 28.9913) Rshow
1.000 UL
LT0
0.50 0.50 0.50 C 1.000 UL
LTa
0.50 0.50 0.50 C 966 4136 M
5981 0 V
stroke
LT0
0.50 0.50 0.50 C 966 4136 M
63 0 V
5918 0 R
-63 0 V
-6002 0 R
( 29.6985) Rshow
1.000 UL
LT0
0.50 0.50 0.50 C 1.000 UL
LTa
0.50 0.50 0.50 C 966 4228 M
5981 0 V
stroke
LT0
0.50 0.50 0.50 C 966 4228 M
63 0 V
5918 0 R
-63 0 V
-6002 0 R
( 30.4056) Rshow
1.000 UL
LT0
0.50 0.50 0.50 C 1.000 UL
LTa
0.50 0.50 0.50 C 966 4320 M
5981 0 V
stroke
LT0
0.50 0.50 0.50 C 966 4320 M
63 0 V
5918 0 R
-63 0 V
-6002 0 R
( 31.1127) Rshow
1.000 UL
LT0
0.50 0.50 0.50 C 1.000 UL
LTa
0.50 0.50 0.50 C 966 4412 M
5981 0 V
stroke
LT0
0.50 0.50 0.50 C 966 4412 M
63 0 V
5918 0 R
-63 0 V
-6002 0 R
( 31.8198) Rshow
1.000 UL
LT0
0.50 0.50 0.50 C 1.000 UL
LTa
0.50 0.50 0.50 C 966 4504 M
5981 0 V
stroke
LT0
0.50 0.50 0.50 C 966 4504 M
63 0 V
5918 0 R
-63 0 V
-6002 0 R
( 32.5269) Rshow
1.000 UL
LT0
0.50 0.50 0.50 C 1.000 UL
LTa
0.50 0.50 0.50 C 966 4596 M
5981 0 V
stroke
LT0
0.50 0.50 0.50 C 966 4596 M
63 0 V
5918 0 R
-63 0 V
-6002 0 R
( 33.234) Rshow
1.000 UL
LT0
0.50 0.50 0.50 C 1.000 UL
LTa
0.50 0.50 0.50 C 966 4687 M
5981 0 V
stroke
LT0
0.50 0.50 0.50 C 966 4687 M
63 0 V
5918 0 R
-63 0 V
-6002 0 R
( 33.9411) Rshow
1.000 UL
LT0
0.50 0.50 0.50 C 1.000 UL
LTa
0.50 0.50 0.50 C 966 4779 M
5981 0 V
stroke
LT0
0.50 0.50 0.50 C 966 4779 M
63 0 V
5918 0 R
-63 0 V
-6002 0 R
( 34.6482) Rshow
1.000 UL
LT0
0.50 0.50 0.50 C 1.000 UL
LTa
0.50 0.50 0.50 C 966 4871 M
5981 0 V
stroke
LT0
0.50 0.50 0.50 C 966 4871 M
63 0 V
5918 0 R
-63 0 V
-6002 0 R
( 35.3553) Rshow
1.000 UL
LT0
0.50 0.50 0.50 C 1.000 UL
LTa
0.50 0.50 0.50 C 966 280 M
0 4591 V
stroke
LT0
0.50 0.50 0.50 C 966 280 M
0 63 V
0 4528 R
0 -63 V
966 140 M
( 0) Cshow
1.000 UL
LT0
0.50 0.50 0.50 C 1.000 UL
LTa
0.50 0.50 0.50 C 1086 280 M
0 4591 V
stroke
LT0
0.50 0.50 0.50 C 1086 280 M
0 63 V
0 4528 R
0 -63 V
0 -4668 R
( 0.707106) Cshow
1.000 UL
LT0
0.50 0.50 0.50 C 1.000 UL
LTa
0.50 0.50 0.50 C 1205 280 M
0 4591 V
stroke
LT0
0.50 0.50 0.50 C 1205 280 M
0 63 V
0 4528 R
0 -63 V
0 -4668 R
( 1.41421) Cshow
1.000 UL
LT0
0.50 0.50 0.50 C 1.000 UL
LTa
0.50 0.50 0.50 C 1325 280 M
0 4591 V
stroke
LT0
0.50 0.50 0.50 C 1325 280 M
0 63 V
0 4528 R
0 -63 V
0 -4668 R
( 2.12132) Cshow
1.000 UL
LT0
0.50 0.50 0.50 C 1.000 UL
LTa
0.50 0.50 0.50 C 1444 280 M
0 4591 V
stroke
LT0
0.50 0.50 0.50 C 1444 280 M
0 63 V
0 4528 R
0 -63 V
0 -4668 R
( 2.82842) Cshow
1.000 UL
LT0
0.50 0.50 0.50 C 1.000 UL
LTa
0.50 0.50 0.50 C 1564 280 M
0 4591 V
stroke
LT0
0.50 0.50 0.50 C 1564 280 M
0 63 V
0 4528 R
0 -63 V
0 -4668 R
( 3.53553) Cshow
1.000 UL
LT0
0.50 0.50 0.50 C 1.000 UL
LTa
0.50 0.50 0.50 C 1684 280 M
0 4591 V
stroke
LT0
0.50 0.50 0.50 C 1684 280 M
0 63 V
0 4528 R
0 -63 V
0 -4668 R
( 4.24264) Cshow
1.000 UL
LT0
0.50 0.50 0.50 C 1.000 UL
LTa
0.50 0.50 0.50 C 1803 280 M
0 4591 V
stroke
LT0
0.50 0.50 0.50 C 1803 280 M
0 63 V
0 4528 R
0 -63 V
0 -4668 R
( 4.94974) Cshow
1.000 UL
LT0
0.50 0.50 0.50 C 1.000 UL
LTa
0.50 0.50 0.50 C 1923 280 M
0 4591 V
stroke
LT0
0.50 0.50 0.50 C 1923 280 M
0 63 V
0 4528 R
0 -63 V
0 -4668 R
( 5.65685) Cshow
1.000 UL
LT0
0.50 0.50 0.50 C 1.000 UL
LTa
0.50 0.50 0.50 C 2043 280 M
0 4591 V
stroke
LT0
0.50 0.50 0.50 C 2043 280 M
0 63 V
0 4528 R
0 -63 V
0 -4668 R
( 6.36395) Cshow
1.000 UL
LT0
0.50 0.50 0.50 C 1.000 UL
LTa
0.50 0.50 0.50 C 2162 280 M
0 4591 V
stroke
LT0
0.50 0.50 0.50 C 2162 280 M
0 63 V
0 4528 R
0 -63 V
0 -4668 R
( 7.07106) Cshow
1.000 UL
LT0
0.50 0.50 0.50 C 1.000 UL
LTa
0.50 0.50 0.50 C 2282 280 M
0 4591 V
stroke
LT0
0.50 0.50 0.50 C 2282 280 M
0 63 V
0 4528 R
0 -63 V
0 -4668 R
( 7.77817) Cshow
1.000 UL
LT0
0.50 0.50 0.50 C 1.000 UL
LTa
0.50 0.50 0.50 C 2401 280 M
0 4591 V
stroke
LT0
0.50 0.50 0.50 C 2401 280 M
0 63 V
0 4528 R
0 -63 V
0 -4668 R
( 8.48527) Cshow
1.000 UL
LT0
0.50 0.50 0.50 C 1.000 UL
LTa
0.50 0.50 0.50 C 2521 280 M
0 4591 V
stroke
LT0
0.50 0.50 0.50 C 2521 280 M
0 63 V
0 4528 R
0 -63 V
0 -4668 R
( 9.19238) Cshow
1.000 UL
LT0
0.50 0.50 0.50 C 1.000 UL
LTa
0.50 0.50 0.50 C 2641 280 M
0 4591 V
stroke
LT0
0.50 0.50 0.50 C 2641 280 M
0 63 V
0 4528 R
0 -63 V
0 -4668 R
( 9.89948) Cshow
1.000 UL
LT0
0.50 0.50 0.50 C 1.000 UL
LTa
0.50 0.50 0.50 C 2760 280 M
0 4591 V
stroke
LT0
0.50 0.50 0.50 C 2760 280 M
0 63 V
0 4528 R
0 -63 V
0 -4668 R
( 10.6066) Cshow
1.000 UL
LT0
0.50 0.50 0.50 C 1.000 UL
LTa
0.50 0.50 0.50 C 2880 280 M
0 4591 V
stroke
LT0
0.50 0.50 0.50 C 2880 280 M
0 63 V
0 4528 R
0 -63 V
0 -4668 R
( 11.3137) Cshow
1.000 UL
LT0
0.50 0.50 0.50 C 1.000 UL
LTa
0.50 0.50 0.50 C 3000 280 M
0 4591 V
stroke
LT0
0.50 0.50 0.50 C 3000 280 M
0 63 V
0 4528 R
0 -63 V
0 -4668 R
( 12.0208) Cshow
1.000 UL
LT0
0.50 0.50 0.50 C 1.000 UL
LTa
0.50 0.50 0.50 C 3119 280 M
0 4591 V
stroke
LT0
0.50 0.50 0.50 C 3119 280 M
0 63 V
0 4528 R
0 -63 V
0 -4668 R
( 12.7279) Cshow
1.000 UL
LT0
0.50 0.50 0.50 C 1.000 UL
LTa
0.50 0.50 0.50 C 3239 280 M
0 4591 V
stroke
LT0
0.50 0.50 0.50 C 3239 280 M
0 63 V
0 4528 R
0 -63 V
0 -4668 R
( 13.435) Cshow
1.000 UL
LT0
0.50 0.50 0.50 C 1.000 UL
LTa
0.50 0.50 0.50 C 3358 280 M
0 4591 V
stroke
LT0
0.50 0.50 0.50 C 3358 280 M
0 63 V
0 4528 R
0 -63 V
0 -4668 R
( 14.1421) Cshow
1.000 UL
LT0
0.50 0.50 0.50 C 1.000 UL
LTa
0.50 0.50 0.50 C 3478 280 M
0 4591 V
stroke
LT0
0.50 0.50 0.50 C 3478 280 M
0 63 V
0 4528 R
0 -63 V
0 -4668 R
( 14.8492) Cshow
1.000 UL
LT0
0.50 0.50 0.50 C 1.000 UL
LTa
0.50 0.50 0.50 C 3598 280 M
0 4591 V
stroke
LT0
0.50 0.50 0.50 C 3598 280 M
0 63 V
0 4528 R
0 -63 V
0 -4668 R
( 15.5563) Cshow
1.000 UL
LT0
0.50 0.50 0.50 C 1.000 UL
LTa
0.50 0.50 0.50 C 3717 280 M
0 4591 V
stroke
LT0
0.50 0.50 0.50 C 3717 280 M
0 63 V
0 4528 R
0 -63 V
0 -4668 R
( 16.2634) Cshow
1.000 UL
LT0
0.50 0.50 0.50 C 1.000 UL
LTa
0.50 0.50 0.50 C 3837 280 M
0 4591 V
stroke
LT0
0.50 0.50 0.50 C 3837 280 M
0 63 V
0 4528 R
0 -63 V
0 -4668 R
( 16.9705) Cshow
1.000 UL
LT0
0.50 0.50 0.50 C 1.000 UL
LTa
0.50 0.50 0.50 C 3956 280 M
0 4591 V
stroke
LT0
0.50 0.50 0.50 C 3956 280 M
0 63 V
0 4528 R
0 -63 V
0 -4668 R
( 17.6776) Cshow
1.000 UL
LT0
0.50 0.50 0.50 C 1.000 UL
LTa
0.50 0.50 0.50 C 4076 280 M
0 4591 V
stroke
LT0
0.50 0.50 0.50 C 4076 280 M
0 63 V
0 4528 R
0 -63 V
0 -4668 R
( 18.3848) Cshow
1.000 UL
LT0
0.50 0.50 0.50 C 1.000 UL
LTa
0.50 0.50 0.50 C 4196 280 M
0 4591 V
stroke
LT0
0.50 0.50 0.50 C 4196 280 M
0 63 V
0 4528 R
0 -63 V
0 -4668 R
( 19.0919) Cshow
1.000 UL
LT0
0.50 0.50 0.50 C 1.000 UL
LTa
0.50 0.50 0.50 C 4315 280 M
0 4591 V
stroke
LT0
0.50 0.50 0.50 C 4315 280 M
0 63 V
0 4528 R
0 -63 V
0 -4668 R
( 19.799) Cshow
1.000 UL
LT0
0.50 0.50 0.50 C 1.000 UL
LTa
0.50 0.50 0.50 C 4435 280 M
0 4591 V
stroke
LT0
0.50 0.50 0.50 C 4435 280 M
0 63 V
0 4528 R
0 -63 V
0 -4668 R
( 20.5061) Cshow
1.000 UL
LT0
0.50 0.50 0.50 C 1.000 UL
LTa
0.50 0.50 0.50 C 4555 280 M
0 4591 V
stroke
LT0
0.50 0.50 0.50 C 4555 280 M
0 63 V
0 4528 R
0 -63 V
0 -4668 R
( 21.2132) Cshow
1.000 UL
LT0
0.50 0.50 0.50 C 1.000 UL
LTa
0.50 0.50 0.50 C 4674 280 M
0 4591 V
stroke
LT0
0.50 0.50 0.50 C 4674 280 M
0 63 V
0 4528 R
0 -63 V
0 -4668 R
( 21.9203) Cshow
1.000 UL
LT0
0.50 0.50 0.50 C 1.000 UL
LTa
0.50 0.50 0.50 C 4794 280 M
0 4591 V
stroke
LT0
0.50 0.50 0.50 C 4794 280 M
0 63 V
0 4528 R
0 -63 V
0 -4668 R
( 22.6274) Cshow
1.000 UL
LT0
0.50 0.50 0.50 C 1.000 UL
LTa
0.50 0.50 0.50 C 4913 280 M
0 4591 V
stroke
LT0
0.50 0.50 0.50 C 4913 280 M
0 63 V
0 4528 R
0 -63 V
0 -4668 R
( 23.3345) Cshow
1.000 UL
LT0
0.50 0.50 0.50 C 1.000 UL
LTa
0.50 0.50 0.50 C 5033 280 M
0 4591 V
stroke
LT0
0.50 0.50 0.50 C 5033 280 M
0 63 V
0 4528 R
0 -63 V
0 -4668 R
( 24.0416) Cshow
1.000 UL
LT0
0.50 0.50 0.50 C 1.000 UL
LTa
0.50 0.50 0.50 C 5153 280 M
0 4591 V
stroke
LT0
0.50 0.50 0.50 C 5153 280 M
0 63 V
0 4528 R
0 -63 V
0 -4668 R
( 24.7487) Cshow
1.000 UL
LT0
0.50 0.50 0.50 C 1.000 UL
LTa
0.50 0.50 0.50 C 5272 280 M
0 4591 V
stroke
LT0
0.50 0.50 0.50 C 5272 280 M
0 63 V
0 4528 R
0 -63 V
0 -4668 R
( 25.4558) Cshow
1.000 UL
LT0
0.50 0.50 0.50 C 1.000 UL
LTa
0.50 0.50 0.50 C 5392 280 M
0 4591 V
stroke
LT0
0.50 0.50 0.50 C 5392 280 M
0 63 V
0 4528 R
0 -63 V
0 -4668 R
( 26.1629) Cshow
1.000 UL
LT0
0.50 0.50 0.50 C 1.000 UL
LTa
0.50 0.50 0.50 C 5512 280 M
0 4591 V
stroke
LT0
0.50 0.50 0.50 C 5512 280 M
0 63 V
0 4528 R
0 -63 V
0 -4668 R
( 26.87) Cshow
1.000 UL
LT0
0.50 0.50 0.50 C 1.000 UL
LTa
0.50 0.50 0.50 C 5631 280 M
0 4591 V
stroke
LT0
0.50 0.50 0.50 C 5631 280 M
0 63 V
0 4528 R
0 -63 V
0 -4668 R
( 27.5771) Cshow
1.000 UL
LT0
0.50 0.50 0.50 C 1.000 UL
LTa
0.50 0.50 0.50 C 5751 280 M
0 4591 V
stroke
LT0
0.50 0.50 0.50 C 5751 280 M
0 63 V
0 4528 R
0 -63 V
0 -4668 R
( 28.2842) Cshow
1.000 UL
LT0
0.50 0.50 0.50 C 1.000 UL
LTa
0.50 0.50 0.50 C 5870 280 M
0 4591 V
stroke
LT0
0.50 0.50 0.50 C 5870 280 M
0 63 V
0 4528 R
0 -63 V
0 -4668 R
( 28.9913) Cshow
1.000 UL
LT0
0.50 0.50 0.50 C 1.000 UL
LTa
0.50 0.50 0.50 C 5990 280 M
0 4591 V
stroke
LT0
0.50 0.50 0.50 C 5990 280 M
0 63 V
0 4528 R
0 -63 V
0 -4668 R
( 29.6985) Cshow
1.000 UL
LT0
0.50 0.50 0.50 C 1.000 UL
LTa
0.50 0.50 0.50 C 6110 280 M
0 4591 V
stroke
LT0
0.50 0.50 0.50 C 6110 280 M
0 63 V
0 4528 R
0 -63 V
0 -4668 R
( 30.4056) Cshow
1.000 UL
LT0
0.50 0.50 0.50 C 1.000 UL
LTa
0.50 0.50 0.50 C 6229 280 M
0 4591 V
stroke
LT0
0.50 0.50 0.50 C 6229 280 M
0 63 V
0 4528 R
0 -63 V
0 -4668 R
( 31.1127) Cshow
1.000 UL
LT0
0.50 0.50 0.50 C 1.000 UL
LTa
0.50 0.50 0.50 C 6349 280 M
0 4591 V
stroke
LT0
0.50 0.50 0.50 C 6349 280 M
0 63 V
0 4528 R
0 -63 V
0 -4668 R
( 31.8198) Cshow
1.000 UL
LT0
0.50 0.50 0.50 C 1.000 UL
LTa
0.50 0.50 0.50 C 6469 280 M
0 4591 V
stroke
LT0
0.50 0.50 0.50 C 6469 280 M
0 63 V
0 4528 R
0 -63 V
0 -4668 R
( 32.5269) Cshow
1.000 UL
LT0
0.50 0.50 0.50 C 1.000 UL
LTa
0.50 0.50 0.50 C 6588 280 M
0 4591 V
stroke
LT0
0.50 0.50 0.50 C 6588 280 M
0 63 V
0 4528 R
0 -63 V
0 -4668 R
( 33.234) Cshow
1.000 UL
LT0
0.50 0.50 0.50 C 1.000 UL
LTa
0.50 0.50 0.50 C 6708 280 M
0 4591 V
stroke
LT0
0.50 0.50 0.50 C 6708 280 M
0 63 V
0 4528 R
0 -63 V
0 -4668 R
( 33.9411) Cshow
1.000 UL
LT0
0.50 0.50 0.50 C 1.000 UL
LTa
0.50 0.50 0.50 C 6827 280 M
0 4591 V
stroke
LT0
0.50 0.50 0.50 C 6827 280 M
0 63 V
0 4528 R
0 -63 V
0 -4668 R
( 34.6482) Cshow
1.000 UL
LT0
0.50 0.50 0.50 C 1.000 UL
LTa
0.50 0.50 0.50 C 6947 280 M
0 4591 V
stroke
LT0
0.50 0.50 0.50 C 6947 280 M
0 63 V
0 4528 R
0 -63 V
0 -4668 R
( 35.3553) Cshow
1.000 UL
LT0
0.50 0.50 0.50 C 1.000 UL
LT0
0.50 0.50 0.50 C 966 4871 M
966 280 L
5981 0 V
0 4591 R
-5981 0 R
1.000 UP
stroke
LT0
0.50 0.50 0.50 C % Begin plot #1
1.500 UP
2.000 UL
LT0
0.00 0.00 1.00 C /Helvetica findfont 140 scalefont setfont
/vshift -46 def
966 372 M
120 0 V
119 0 V
0 367 R
120 0 V
0 92 R
119 0 V
120 0 V
120 0 V
0 551 R
119 0 V
0 367 R
120 0 V
120 0 V
119 0 V
0 367 R
120 0 V
0 643 R
119 0 V
0 643 R
120 0 V
120 0 V
119 0 V
120 0 V
120 0 V
119 0 V
120 0 V
119 0 V
120 0 V
120 0 V
119 0 V
120 0 V
0 184 R
120 0 V
119 0 V
120 0 V
119 0 V
120 0 V
120 0 V
0 642 R
119 0 V
120 0 V
119 0 V
120 0 V
120 0 V
119 0 V
120 0 V
120 0 V
119 0 V
120 0 V
119 0 V
0 92 R
120 0 V
120 0 V
119 0 V
120 0 V
120 0 V
0 367 R
119 0 V
120 0 V
119 0 V
0 184 R
120 0 V
1205 372 M
0 92 V
0 91 V
0 92 V
0 92 V
120 0 R
0 92 V
359 0 R
0 92 V
0 92 V
0 91 V
0 92 V
0 92 V
0 92 V
119 0 R
0 92 V
0 91 V
0 92 V
0 92 V
359 0 R
0 92 V
0 92 V
0 92 V
0 91 V
120 0 R
0 92 V
0 92 V
0 92 V
0 92 V
0 92 V
0 91 V
0 92 V
119 0 R
0 92 V
0 92 V
0 92 V
0 91 V
0 92 V
0 92 V
0 92 V
1436 0 R
0 92 V
stroke 3837 3494 M
0 92 V
718 0 R
0 91 V
0 92 V
0 92 V
0 92 V
0 92 V
0 91 V
0 92 V
1315 0 R
0 92 V
599 0 R
0 92 V
0 92 V
0 92 V
0 91 V
358 0 R
0 92 V
0 92 V
966 280 M
0 92 V
966 372 CircleF
1086 372 CircleF
1086 372 CircleF
1205 372 CircleF
1205 739 CircleF
1325 739 CircleF
1325 831 CircleF
1444 831 CircleF
1444 831 CircleF
1564 831 CircleF
1564 831 CircleF
1684 831 CircleF
1684 1382 CircleF
1803 1382 CircleF
1803 1749 CircleF
1923 1749 CircleF
1923 1749 CircleF
2043 1749 CircleF
2043 1749 CircleF
2162 1749 CircleF
2162 2116 CircleF
2282 2116 CircleF
2282 2759 CircleF
2401 2759 CircleF
2401 3402 CircleF
2521 3402 CircleF
2521 3402 CircleF
2641 3402 CircleF
2641 3402 CircleF
2760 3402 CircleF
2760 3402 CircleF
2880 3402 CircleF
2880 3402 CircleF
3000 3402 CircleF
3000 3402 CircleF
3119 3402 CircleF
3119 3402 CircleF
3239 3402 CircleF
3239 3402 CircleF
3358 3402 CircleF
3358 3402 CircleF
3478 3402 CircleF
3478 3402 CircleF
3598 3402 CircleF
3598 3402 CircleF
3717 3402 CircleF
3717 3402 CircleF
3837 3402 CircleF
3837 3586 CircleF
3957 3586 CircleF
3957 3586 CircleF
4076 3586 CircleF
4076 3586 CircleF
4196 3586 CircleF
4196 3586 CircleF
4315 3586 CircleF
4315 3586 CircleF
4435 3586 CircleF
4435 3586 CircleF
4555 3586 CircleF
4555 4228 CircleF
4674 4228 CircleF
4674 4228 CircleF
4794 4228 CircleF
4794 4228 CircleF
4913 4228 CircleF
4913 4228 CircleF
5033 4228 CircleF
5033 4228 CircleF
5153 4228 CircleF
5153 4228 CircleF
5272 4228 CircleF
5272 4228 CircleF
5392 4228 CircleF
5392 4228 CircleF
5512 4228 CircleF
5512 4228 CircleF
5631 4228 CircleF
5631 4228 CircleF
5751 4228 CircleF
5751 4228 CircleF
5870 4228 CircleF
5870 4320 CircleF
5990 4320 CircleF
5990 4320 CircleF
6110 4320 CircleF
6110 4320 CircleF
6229 4320 CircleF
6229 4320 CircleF
6349 4320 CircleF
6349 4320 CircleF
6469 4320 CircleF
6469 4687 CircleF
6588 4687 CircleF
6588 4687 CircleF
6708 4687 CircleF
6708 4687 CircleF
6827 4687 CircleF
6827 4871 CircleF
6947 4871 CircleF
1205 372 CircleF
1205 464 CircleF
1205 464 CircleF
1205 555 CircleF
1205 555 CircleF
1205 647 CircleF
1205 647 CircleF
1205 739 CircleF
1325 739 CircleF
1325 831 CircleF
1684 831 CircleF
1684 923 CircleF
1684 923 CircleF
1684 1015 CircleF
1684 1015 CircleF
1684 1106 CircleF
1684 1106 CircleF
1684 1198 CircleF
1684 1198 CircleF
1684 1290 CircleF
1684 1290 CircleF
1684 1382 CircleF
1803 1382 CircleF
1803 1474 CircleF
1803 1474 CircleF
1803 1565 CircleF
1803 1565 CircleF
1803 1657 CircleF
1803 1657 CircleF
1803 1749 CircleF
2162 1749 CircleF
2162 1841 CircleF
2162 1841 CircleF
2162 1933 CircleF
2162 1933 CircleF
2162 2025 CircleF
2162 2025 CircleF
2162 2116 CircleF
2282 2116 CircleF
2282 2208 CircleF
2282 2208 CircleF
2282 2300 CircleF
2282 2300 CircleF
2282 2392 CircleF
2282 2392 CircleF
2282 2484 CircleF
2282 2484 CircleF
2282 2576 CircleF
2282 2576 CircleF
2282 2667 CircleF
2282 2667 CircleF
2282 2759 CircleF
2401 2759 CircleF
2401 2851 CircleF
2401 2851 CircleF
2401 2943 CircleF
2401 2943 CircleF
2401 3035 CircleF
2401 3035 CircleF
2401 3126 CircleF
2401 3126 CircleF
2401 3218 CircleF
2401 3218 CircleF
2401 3310 CircleF
2401 3310 CircleF
2401 3402 CircleF
3837 3402 CircleF
3837 3494 CircleF
3837 3494 CircleF
3837 3586 CircleF
4555 3586 CircleF
4555 3677 CircleF
4555 3677 CircleF
4555 3769 CircleF
4555 3769 CircleF
4555 3861 CircleF
4555 3861 CircleF
4555 3953 CircleF
4555 3953 CircleF
4555 4045 CircleF
4555 4045 CircleF
4555 4136 CircleF
4555 4136 CircleF
4555 4228 CircleF
5870 4228 CircleF
5870 4320 CircleF
6469 4320 CircleF
6469 4412 CircleF
6469 4412 CircleF
6469 4504 CircleF
6469 4504 CircleF
6469 4596 CircleF
6469 4596 CircleF
6469 4687 CircleF
6827 4687 CircleF
6827 4779 CircleF
6827 4779 CircleF
6827 4871 CircleF
966 280 CircleF
966 372 CircleF
% End plot #1
% Begin plot #2
1.500 UP
2.000 UL
LT0
1.00 0.55 0.00 C /Helvetica findfont 140 scalefont setfont
2458 2699 M
129 99 V
2467 4175 M
153 118 V
1512 381 M
140 107 V
4408 4466 M
201 154 V
4083 1219 M
212 162 V
-2692 51 R
208 159 V
4863 3639 M
217 167 V
4457 647 M
235 180 V
4143 3390 M
151 116 V
2963 4386 M
164 126 V
3602 814 M
234 179 V
3564 972 M
143 110 V
130 702 R
165 126 V
1502 2061 M
194 149 V
-375 -53 R
167 128 V
2669 3341 M
165 126 V
1832 2051 M
222 170 V
2568 136 R
196 151 V
6206 673 M
156 120 V
3945 4076 M
189 146 V
2172 1543 M
191 146 V
1106 1122 M
148 113 V
3934 934 M
142 109 V
5797 532 M
142 108 V
4451 2229 M
195 150 V
252 758 R
192 148 V
6585 826 M
216 166 V
4949 4193 M
125 96 V
1823 1498 M
197 151 V
3886 3924 M
161 123 V
3260 1774 M
172 132 V
1083 332 R
126 96 V
-3418 23 R
224 172 V
2888 893 M
152 117 V
5876 769 M
132 101 V
1674 991 M
208 160 V
4838 3222 M
234 180 V
4092 1752 M
172 131 V
1550 1140 M
148 114 V
4096 2301 M
236 182 V
5034 298 M
211 162 V
1053 1909 M
206 159 V
1393 876 M
171 131 V
237 1157 R
211 162 V
3074 542 M
158 121 V
1319 659 R
207 159 V
6482 2556 M
229 177 V
4145 1675 M
152 117 V
1925 2354 M
166 127 V
1583 794 M
120 92 V
989 448 R
200 154 V
1270 1831 M
132 101 V
3939 3708 M
196 151 V
stroke 4135 3859 M
-863 217 R
144 111 V
3691 759 M
235 180 V
6499 3038 M
130 99 V
5247 1328 M
133 102 V
3510 3810 M
169 129 V
1359 1157 M
148 114 V
3815 216 R
169 130 V
1265 751 M
221 169 V
976 3178 M
170 130 V
1408 45 R
232 178 V
936 -151 R
171 131 V
2647 3422 M
206 158 V
4742 2441 M
226 174 V
-529 181 R
197 151 V
5600 1250 M
188 145 V
4604 1604 M
127 97 V
2919 3874 M
174 133 V
2939 362 M
142 109 V
3541 944 R
235 181 V
4468 4156 M
167 128 V
4283 1435 M
166 128 V
646 1393 R
213 163 V
3114 2512 M
236 181 V
2763 759 R
147 113 V
4966 3734 M
167 128 V
2141 1963 M
204 157 V
4997 3471 M
224 171 V
1173 -97 R
195 150 V
5702 3407 M
206 159 V
239 546 R
132 101 V
3924 1934 M
211 162 V
1491 925 R
237 182 V
2328 2837 M
174 133 V
3457 820 M
135 104 V
2121 4001 M
137 105 V
1899 2235 M
201 154 V
980 283 R
164 126 V
6061 2563 M
198 152 V
2119 3660 M
225 173 V
5964 1977 M
222 170 V
3935 4436 M
148 114 V
3118 2733 M
196 150 V
-482 755 R
233 178 V
3700 433 M
186 142 V
2034 595 M
120 93 V
666 1156 R
198 152 V
-39 -510 R
208 160 V
2579 4192 M
217 167 V
1843 1736 M
124 95 V
5587 498 M
128 97 V
1243 2943 M
162 125 V
-371 314 R
120 92 V
stroke 1154 3474 M
4497 2650 M
228 175 V
2603 2544 M
138 107 V
42 1552 R
165 127 V
4303 2342 M
222 171 V
2732 3294 M
173 132 V
3107 684 M
195 150 V
1456 1966 M
168 129 V
1262 3461 M
140 107 V
40 1104 R
158 122 V
2237 855 M
146 112 V
49 626 R
208 160 V
1075 3463 M
230 177 V
1184 1851 M
145 112 V
5020 423 R
161 124 V
3944 479 M
234 179 V
3508 3407 M
139 107 V
1996 2155 M
226 174 V
1925 1637 M
235 180 V
4535 3902 M
124 95 V
218 -33 R
220 168 V
6281 2253 M
163 125 V
6470 951 M
229 175 V
5022 2266 M
172 132 V
1784 1430 M
197 151 V
-702 818 R
132 101 V
-79 1248 R
187 143 V
4877 2602 M
158 121 V
4740 1691 M
227 174 V
6555 3961 M
129 99 V
1825 2482 M
223 171 V
5264 1332 M
144 110 V
-2344 58 R
130 100 V
839 1065 R
147 113 V
-24 -315 R
229 176 V
6465 892 M
219 168 V
2682 2783 M
204 158 V
4528 662 M
143 110 V
1920 3169 M
143 110 V
-27 -291 R
215 165 V
5781 779 M
223 171 V
225 611 R
188 144 V
968 2662 M
151 116 V
555 -850 R
133 102 V
3326 1306 M
229 176 V
4903 3752 M
128 98 V
5453 2795 M
232 178 V
689 1632 R
145 111 V
3159 3994 M
134 103 V
236 -985 R
163 125 V
5037 2557 M
227 174 V
1834 3501 M
129 98 V
4876 405 M
198 152 V
stroke 5074 557 M
2282 904 M
163 125 V
4819 3294 M
238 183 V
1273 736 R
195 151 V
2440 366 M
146 113 V
5126 3211 M
210 162 V
4595 4652 M
173 132 V
3563 4307 M
159 122 V
6256 732 M
147 113 V
1331 1410 M
133 102 V
3344 945 R
153 118 V
5044 932 M
215 165 V
356 200 R
187 144 V
4017 1055 M
170 130 V
6577 2649 M
137 106 V
3416 3984 M
225 172 V
2317 1296 M
204 156 V
5247 4554 M
197 151 V
22 -34 R
127 97 V
4198 2627 M
232 178 V
4914 1131 M
174 134 V
436 541 R
145 111 V
4616 1655 M
154 118 V
294 1573 R
175 134 V
1039 3216 M
196 150 V
6355 2471 M
151 116 V
1285 1455 M
159 123 V
6377 4320 M
153 117 V
2137 1063 M
160 123 V
6009 3161 M
219 168 V
2075 3433 M
190 145 V
5384 1578 M
184 141 V
816 1695 R
202 155 V
6087 757 M
236 181 V
1517 983 M
204 157 V
5179 2272 M
129 99 V
3713 2255 M
170 131 V
3007 772 M
225 172 V
80 -431 R
207 159 V
6276 2009 M
154 118 V
1525 3704 M
140 107 V
1372 1564 M
151 116 V
4400 706 R
167 129 V
1983 4272 M
191 147 V
4034 1342 M
179 138 V
1927 2240 M
157 121 V
-437 782 R
121 93 V
3188 1291 M
190 146 V
414 2776 R
142 110 V
2641 431 M
225 172 V
5287 3265 M
203 156 V
71 -2136 R
151 115 V
2630 373 M
230 177 V
stroke 2860 550 M
2167 2156 M
167 128 V
3402 850 R
232 178 V
2089 2887 M
207 158 V
762 709 R
170 131 V
1185 3800 M
176 135 V
2410 369 R
220 169 V
2284 2770 M
218 168 V
1066 3245 M
220 168 V
3973 685 R
188 144 V
1051 3709 M
167 128 V
5085 2664 M
131 100 V
3835 1480 M
189 145 V
1230 -79 R
127 97 V
1720 728 M
222 170 V
1037 2486 M
137 105 V
3262 3819 M
147 112 V
2648 1266 M
226 173 V
523 2691 R
131 101 V
5429 908 M
233 179 V
4435 3748 M
169 130 V
252 -879 R
153 117 V
4303 515 M
188 144 V
1136 840 M
133 102 V
2863 2742 M
230 176 V
4776 563 M
182 140 V
2126 3013 M
216 165 V
3714 1487 M
189 146 V
6528 3748 M
162 125 V
1146 408 M
157 120 V
3058 2678 M
231 177 V
1495 4492 M
215 165 V
6605 1923 M
136 104 V
3137 4318 M
182 140 V
1428 3577 M
132 101 V
5935 741 M
231 177 V
1557 629 M
174 134 V
4961 4683 M
120 92 V
6290 3868 M
126 97 V
1368 308 M
181 139 V
802 2389 R
237 182 V
2927 1004 M
133 102 V
2203 345 R
229 175 V
4012 4487 M
127 98 V
4297 3517 M
176 135 V
6533 1251 M
143 110 V
4690 1461 M
157 120 V
603 1953 R
235 180 V
6310 947 M
175 134 V
2140 1669 M
232 178 V
3976 548 R
195 150 V
5361 741 M
201 154 V
407 3 R
207 159 V
stroke 6176 1057 M
3194 4154 M
146 112 V
2457 672 M
155 119 V
5899 2263 M
139 106 V
5021 1465 M
157 121 V
975 1681 R
206 158 V
-60 -427 R
144 111 V
2964 712 M
226 174 V
2439 364 M
168 128 V
-858 51 R
152 117 V
1344 2043 M
164 126 V
1114 3722 M
137 105 V
800 463 R
223 171 V
1809 3644 M
149 114 V
5852 2051 M
121 93 V
3998 3015 M
120 92 V
4999 1180 M
180 138 V
3114 3616 M
149 114 V
6342 2116 M
158 121 V
6306 4308 M
226 174 V
4837 2603 M
156 120 V
441 789 R
158 122 V
2671 3903 M
178 136 V
5176 2459 M
220 169 V
6516 3800 M
184 141 V
4596 609 M
128 99 V
114 2387 R
184 142 V
4720 4238 M
212 163 V
3830 1769 M
237 183 V
5964 4589 M
218 167 V
2352 904 M
132 101 V
3820 740 M
123 94 V
-658 551 R
169 130 V
2802 2693 M
191 146 V
1850 430 R
135 104 V
2593 1478 M
170 130 V
-11 924 R
141 108 V
630 142 R
186 143 V
-572 227 R
169 130 V
5933 4312 M
123 95 V
-347 58 R
194 149 V
2143 2592 M
203 156 V
3805 -91 R
170 131 V
5965 2122 M
183 141 V
5925 1047 M
141 108 V
5547 4580 M
237 182 V
4742 4146 M
166 128 V
2362 944 M
206 158 V
1769 60 R
121 93 V
3300 1984 M
140 107 V
-611 -30 R
211 162 V
1336 65 R
138 106 V
4404 695 M
213 164 V
stroke 4617 859 M
1812 725 R
189 145 V
2222 2243 M
216 166 V
2245 817 R
194 149 V
4637 2876 M
188 144 V
1525 2308 M
190 146 V
705 910 R
220 169 V
1397 2292 M
215 165 V
4827 24 R
155 119 V
2842 2379 M
229 176 V
3921 438 M
213 163 V
6347 4174 M
137 104 V
3602 961 M
146 111 V
2138 2677 M
126 98 V
4748 2212 M
129 99 V
6369 3582 M
202 155 V
3242 2752 M
139 107 V
585 706 R
196 150 V
1679 373 M
160 123 V
4744 3138 M
190 146 V
3567 2726 M
161 124 V
1909 514 R
166 128 V
1679 3884 M
134 103 V
5486 1940 M
219 168 V
1611 1968 M
134 103 V
3103 1660 M
166 128 V
2150 1025 M
235 180 V
3791 377 R
125 96 V
1662 3047 M
193 149 V
2005 -74 R
163 125 V
3243 2922 M
225 172 V
5281 873 M
214 165 V
585 1018 R
177 136 V
2331 2767 M
202 155 V
2112 1523 M
132 101 V
4361 286 M
235 180 V
2211 2080 M
126 96 V
3473 1416 M
174 133 V
3223 2703 M
187 144 V
5694 314 M
219 168 V
3332 560 M
162 125 V
2123 478 M
137 105 V
6664 2779 M
187 144 V
1394 4031 M
221 170 V
1600 25 R
145 111 V
2310 799 M
152 117 V
591 506 R
180 138 V
5370 337 M
136 105 V
2458 2556 M
128 98 V
3081 1385 M
125 96 V
6612 574 M
190 147 V
3207 2636 M
146 112 V
1209 1808 M
136 103 V
stroke 1345 1911 M
2937 4305 M
180 137 V
2277 3015 M
237 182 V
5542 4678 M
191 147 V
1064 4054 M
162 125 V
4632 36 R
215 165 V
3980 932 M
235 181 V
3721 734 M
128 99 V
264 3399 R
120 93 V
2410 3899 M
162 125 V
1856 1647 M
173 133 V
4142 1066 M
220 170 V
1798 1438 M
163 125 V
3350 751 R
146 113 V
2817 3610 M
210 161 V
3681 2316 M
129 99 V
3176 3548 M
138 106 V
-481 574 R
132 101 V
3797 2362 M
168 129 V
1753 4507 M
130 100 V
2490 3331 M
222 171 V
1947 2058 M
157 121 V
2936 822 R
178 136 V
5024 4360 M
168 129 V
1217 3363 M
193 149 V
-375 415 R
160 123 V
605 12 R
234 180 V
4181 3218 M
217 167 V
2617 2656 M
176 136 V
5759 3900 M
215 165 V
5084 2794 M
198 152 V
1359 408 R
205 157 V
2974 2083 M
191 146 V
2520 447 R
225 172 V
3777 4430 M
147 112 V
6302 435 M
136 104 V
3441 486 M
213 163 V
5484 4322 M
218 167 V
5242 3836 M
130 99 V
1804 2646 M
123 95 V
3177 2594 M
177 136 V
1095 3815 M
147 113 V
141 290 R
238 182 V
1590 2640 M
218 167 V
5199 4087 M
216 166 V
1104 2694 M
190 146 V
352 352 R
211 161 V
1077 189 R
190 146 V
4356 1548 M
139 107 V
597 -30 R
141 108 V
5447 567 M
136 104 V
2888 3726 M
137 106 V
4063 1321 M
200 153 V
stroke 4263 1474 M
2481 893 M
205 157 V
6391 955 M
203 156 V
3378 3530 M
195 150 V
2227 3532 M
158 121 V
2202 876 M
172 131 V
3742 593 M
127 97 V
5298 303 M
209 160 V
6597 2844 M
126 96 V
2166 1185 M
189 145 V
4051 4131 M
122 94 V
644 -78 R
200 153 V
6687 1119 M
187 143 V
6270 2665 M
193 148 V
1898 1304 M
220 168 V
5810 1069 M
126 98 V
1035 2558 M
135 104 V
5873 1236 M
125 95 V
5774 2661 M
144 111 V
3072 1618 M
213 163 V
6374 647 M
191 146 V
-686 909 R
146 112 V
4875 2384 M
220 169 V
6499 1786 M
193 147 V
3590 3896 M
214 164 V
1114 1540 M
217 167 V
359 1578 R
201 154 V
675 -537 R
158 121 V
3620 1798 M
201 155 V
5682 966 M
181 139 V
4750 4369 M
177 136 V
352 -47 R
124 96 V
3855 3768 M
140 108 V
6674 2140 M
127 97 V
1892 800 M
222 171 V
5748 2896 M
218 167 V
4350 2213 M
130 100 V
3882 1980 M
235 180 V
1768 1716 M
175 134 V
1760 3123 M
207 159 V
5694 682 M
144 110 V
4569 3583 M
230 177 V
1936 4027 M
209 161 V
1209 3772 M
134 103 V
3223 1924 M
183 140 V
952 1305 R
179 137 V
-306 268 R
148 114 V
3744 3063 M
172 132 V
4019 384 M
185 142 V
713 3941 R
157 120 V
1067 733 M
129 99 V
4707 3324 M
183 141 V
2689 2383 M
136 104 V
stroke 2825 2487 M
5597 1708 M
144 111 V
1976 4107 M
143 110 V
5630 902 M
180 138 V
-796 552 R
125 96 V
324 1095 R
185 142 V
5781 1442 M
157 121 V
2133 1867 M
139 107 V
5340 3808 M
216 166 V
5670 2595 M
188 145 V
2369 780 M
130 100 V
601 732 R
136 104 V
1745 2124 M
138 106 V
3388 794 M
144 110 V
707 1935 R
176 135 V
4213 656 M
146 112 V
1022 746 R
184 142 V
4504 2088 M
197 152 V
-706 152 R
184 142 V
1713 1441 M
125 97 V
5875 1050 M
175 134 V
321 2477 R
127 98 V
3339 633 M
158 121 V
6420 2062 M
133 102 V
2227 2127 M
229 176 V
3859 2158 M
225 172 V
4428 741 M
211 162 V
1279 4297 M
135 104 V
1000 1344 M
137 105 V
6439 2978 M
184 141 V
5532 3472 M
212 163 V
6261 796 M
132 102 V
2750 2056 M
200 153 V
1143 1618 M
171 131 V
5122 880 M
137 104 V
521 2698 R
179 138 V
3155 2303 M
182 139 V
3875 980 M
236 181 V
-26 941 R
195 150 V
1739 4006 M
158 121 V
5201 817 M
194 150 V
2439 4662 M
182 140 V
6677 2930 M
135 104 V
4254 2843 M
195 150 V
27 -1606 R
130 101 V
1070 2603 M
214 164 V
2081 657 M
182 140 V
246 2593 R
165 127 V
4219 393 M
123 94 V
2905 545 M
217 167 V
2810 3321 M
225 172 V
2803 876 M
190 146 V
2349 2327 M
194 149 V
stroke 2543 2476 M
5869 4108 M
222 170 V
3712 3350 M
165 127 V
979 307 R
156 120 V
4789 611 M
226 173 V
1855 2698 M
169 130 V
2695 480 M
230 175 V
1399 4310 M
215 165 V
5069 436 M
164 126 V
1097 1804 M
224 172 V
-302 964 R
193 148 V
3958 2168 M
212 163 V
2709 3050 M
131 101 V
5313 4566 M
183 140 V
3441 3352 M
186 142 V
485 516 R
126 97 V
2834 1365 M
158 121 V
3360 421 M
151 116 V
2537 3279 M
216 166 V
4628 1474 M
181 139 V
3333 4255 M
146 112 V
4575 1856 M
131 101 V
120 1031 R
222 171 V
6343 2048 M
193 149 V
2589 3564 M
209 161 V
4371 3473 M
165 127 V
2840 3279 M
204 157 V
5245 1896 M
121 93 V
1580 3065 M
184 141 V
1030 1479 M
221 170 V
1930 416 R
126 97 V
2787 4112 M
230 177 V
3119 2207 M
188 144 V
5561 1213 M
128 98 V
4417 3142 M
188 144 V
2405 2786 M
193 148 V
3128 703 R
140 108 V
4670 3338 M
163 125 V
2045 3154 M
176 136 V
4590 1557 M
220 169 V
6118 3237 M
162 125 V
6641 502 M
208 159 V
4590 578 M
153 117 V
792 1108 R
155 119 V
1258 3523 M
220 169 V
3733 3561 M
233 179 V
4879 1272 M
120 92 V
4387 3478 M
231 178 V
1956 479 R
203 156 V
5327 4108 M
178 136 V
1461 829 M
191 146 V
4671 451 M
235 181 V
1918 1699 M
150 116 V
stroke 2068 1815 M
4529 4211 M
196 150 V
1224 1275 M
122 94 V
4185 2701 M
156 120 V
6209 4242 M
167 128 V
2928 763 M
203 156 V
1158 4465 M
144 111 V
3829 -62 R
168 129 V
3182 3508 M
186 143 V
1755 479 R
149 114 V
4799 1546 M
123 94 V
1527 -31 R
204 156 V
4927 3047 M
224 172 V
2844 4659 M
233 179 V
3631 2976 M
228 175 V
-942 644 R
132 101 V
5234 1041 M
176 135 V
-437 165 R
183 140 V
2255 2355 M
137 106 V
5253 626 M
222 170 V
3631 1326 M
225 173 V
1010 3410 M
236 181 V
3297 2827 M
170 130 V
1900 3262 M
126 97 V
4647 2370 M
159 121 V
2219 3487 M
231 178 V
4056 372 R
143 109 V
4878 4403 M
122 94 V
3984 304 M
177 136 V
1676 780 M
222 170 V
2708 502 R
132 101 V
3176 3389 M
194 149 V
1066 428 R
148 114 V
1451 1266 M
210 161 V
2982 2903 M
155 119 V
1502 81 R
190 145 V
3881 2565 M
232 178 V
5033 1474 M
197 151 V
3870 2521 M
138 106 V
1513 2194 M
190 146 V
5051 1287 M
229 176 V
2386 2925 M
188 144 V
3672 898 R
167 128 V
2408 3826 M
142 108 V
2155 1632 M
181 139 V
3943 3523 M
202 156 V
1691 1778 M
221 169 V
4134 560 M
151 115 V
555 2548 R
228 175 V
2953 2023 M
219 168 V
1597 1030 M
140 107 V
4362 375 M
191 146 V
638 3486 R
238 183 V
stroke 5429 4190 M
4095 2592 M
222 170 V
4066 2244 M
230 176 V
1683 -6 R
165 127 V
-69 263 R
196 151 V
3870 333 M
214 164 V
5332 483 M
172 131 V
4397 4067 M
212 163 V
5107 2426 M
162 124 V
5003 4193 M
150 115 V
5591 1220 M
176 136 V
121 1428 R
149 114 V
3611 4402 M
213 164 V
1117 504 M
129 99 V
4268 2070 M
180 138 V
2384 3123 M
162 125 V
1629 1995 M
121 93 V
4471 296 R
210 160 V
1844 422 M
142 109 V
4947 2210 M
163 125 V
1891 2705 M
221 169 V
3113 2675 M
155 119 V
1969 193 R
201 155 V
4552 4159 M
230 177 V
2703 2000 M
162 124 V
2357 658 R
121 94 V
4320 1895 M
140 107 V
2817 623 M
182 140 V
163 1578 R
226 174 V
6593 4578 M
196 150 V
2527 2565 M
155 119 V
-91 924 R
158 121 V
5446 1370 M
176 136 V
1173 2100 M
139 107 V
3104 3295 M
209 161 V
5329 1186 M
224 172 V
4187 4394 M
154 118 V
189 -422 R
153 117 V
1044 499 M
169 129 V
6059 3184 M
153 117 V
5787 2383 M
130 100 V
290 969 R
192 147 V
3285 2216 M
215 165 V
847 1538 R
226 173 V
4232 1381 M
234 179 V
347 -344 R
134 103 V
1176 2731 M
188 144 V
4164 618 M
199 153 V
-605 477 R
192 148 V
604 2027 R
208 159 V
3008 3025 M
149 115 V
5152 4201 M
202 155 V
2781 911 M
229 176 V
stroke 3010 1087 M
1436 3624 M
216 166 V
113 -301 R
206 158 V
4776 1288 M
154 119 V
4437 4101 M
124 95 V
1345 3852 M
218 167 V
2627 797 M
231 177 V
608 1749 R
178 137 V
5998 1417 M
225 172 V
1056 3455 M
211 162 V
1893 850 R
199 153 V
1996 1120 M
232 178 V
1437 214 R
147 113 V
5034 3775 M
121 93 V
4062 2254 M
144 110 V
5413 4329 M
160 122 V
3307 1813 M
151 116 V
1154 2242 M
191 147 V
2591 2285 M
214 164 V
2524 1803 M
189 146 V
2112 4139 M
152 116 V
6254 3515 M
164 127 V
6632 443 M
209 160 V
6016 3336 M
160 123 V
2882 3836 M
160 123 V
1463 3903 M
173 132 V
2137 1996 M
160 123 V
107 160 R
141 109 V
2119 683 R
145 111 V
2298 3786 M
140 107 V
2002 613 M
179 137 V
834 2127 R
125 95 V
1001 2064 M
226 173 V
239 119 R
160 122 V
6483 2342 M
215 165 V
2571 1975 M
127 98 V
5263 400 M
221 169 V
3962 1704 M
220 169 V
244 -684 R
144 111 V
3200 3267 M
155 119 V
1679 4633 M
177 136 V
5548 4075 M
192 147 V
-531 135 R
130 100 V
4146 3162 M
230 177 V
6390 3129 M
158 121 V
5981 1832 M
153 118 V
4795 1738 M
176 134 V
454 2394 R
200 154 V
1901 3944 M
223 172 V
1765 3794 M
207 159 V
1073 2908 M
153 118 V
6697 2805 M
158 121 V
2884 4250 M
205 157 V
stroke 3089 4407 M
1817 4302 M
182 140 V
6125 2447 M
196 150 V
4868 1771 M
184 141 V
1681 2379 M
196 150 V
4373 978 R
233 179 V
2932 890 M
231 177 V
1775 2107 M
161 124 V
4761 4112 M
224 172 V
2008 4050 M
187 143 V
2186 902 M
151 116 V
83 1194 R
153 117 V
1056 2561 M
221 169 V
5662 3884 M
201 154 V
3566 3968 M
204 156 V
5107 1380 M
137 106 V
263 1053 R
177 135 V
397 1083 R
205 157 V
5850 1004 M
149 114 V
3080 857 M
141 108 V
1632 977 M
127 97 V
4099 614 M
146 112 V
2458 2699 CircleF
2587 2798 CircleF
2467 4175 CircleF
2620 4293 CircleF
1512 381 CircleF
1652 488 CircleF
4408 4466 CircleF
4609 4620 CircleF
4083 1219 CircleF
4295 1381 CircleF
1603 1432 CircleF
1811 1591 CircleF
4863 3639 CircleF
5080 3806 CircleF
4457 647 CircleF
4692 827 CircleF
4143 3390 CircleF
4294 3506 CircleF
2963 4386 CircleF
3127 4512 CircleF
3602 814 CircleF
3836 993 CircleF
3564 972 CircleF
3707 1082 CircleF
3837 1784 CircleF
4002 1910 CircleF
1502 2061 CircleF
1696 2210 CircleF
1321 2157 CircleF
1488 2285 CircleF
2669 3341 CircleF
2834 3467 CircleF
1832 2051 CircleF
2054 2221 CircleF
4622 2357 CircleF
4818 2508 CircleF
6206 673 CircleF
6362 793 CircleF
3945 4076 CircleF
4134 4222 CircleF
2172 1543 CircleF
2363 1689 CircleF
1106 1122 CircleF
1254 1235 CircleF
3934 934 CircleF
4076 1043 CircleF
5797 532 CircleF
5939 640 CircleF
4451 2229 CircleF
4646 2379 CircleF
4898 3137 CircleF
5090 3285 CircleF
6585 826 CircleF
6801 992 CircleF
4949 4193 CircleF
5074 4289 CircleF
1823 1498 CircleF
2020 1649 CircleF
3886 3924 CircleF
4047 4047 CircleF
3260 1774 CircleF
3432 1906 CircleF
4515 2238 CircleF
4641 2334 CircleF
1223 2357 CircleF
1447 2529 CircleF
2888 893 CircleF
3040 1010 CircleF
5876 769 CircleF
6008 870 CircleF
1674 991 CircleF
1882 1151 CircleF
4838 3222 CircleF
5072 3402 CircleF
4092 1752 CircleF
4264 1883 CircleF
1550 1140 CircleF
1698 1254 CircleF
4096 2301 CircleF
4332 2483 CircleF
5034 298 CircleF
5245 460 CircleF
1053 1909 CircleF
1259 2068 CircleF
1393 876 CircleF
1564 1007 CircleF
1801 2164 CircleF
2012 2326 CircleF
3074 542 CircleF
3232 663 CircleF
4551 1322 CircleF
4758 1481 CircleF
6482 2556 CircleF
6711 2733 CircleF
4145 1675 CircleF
4297 1792 CircleF
1925 2354 CircleF
2091 2481 CircleF
1583 794 CircleF
1703 886 CircleF
2692 1334 CircleF
2892 1488 CircleF
1270 1831 CircleF
1402 1932 CircleF
3939 3708 CircleF
4135 3859 CircleF
3272 4076 CircleF
3416 4187 CircleF
3691 759 CircleF
3926 939 CircleF
6499 3038 CircleF
6629 3137 CircleF
5247 1328 CircleF
5380 1430 CircleF
3510 3810 CircleF
3679 3939 CircleF
1359 1157 CircleF
1507 1271 CircleF
5322 1487 CircleF
5491 1617 CircleF
1265 751 CircleF
1486 920 CircleF
976 3178 CircleF
1146 3308 CircleF
2554 3353 CircleF
2786 3531 CircleF
3722 3380 CircleF
3893 3511 CircleF
2647 3422 CircleF
2853 3580 CircleF
4742 2441 CircleF
4968 2615 CircleF
4439 2796 CircleF
4636 2947 CircleF
5600 1250 CircleF
5788 1395 CircleF
4604 1604 CircleF
4731 1701 CircleF
2919 3874 CircleF
3093 4007 CircleF
2939 362 CircleF
3081 471 CircleF
6622 1415 CircleF
6857 1596 CircleF
4468 4156 CircleF
4635 4284 CircleF
4283 1435 CircleF
4449 1563 CircleF
5095 2956 CircleF
5308 3119 CircleF
3114 2512 CircleF
3350 2693 CircleF
6113 3452 CircleF
6260 3565 CircleF
4966 3734 CircleF
5133 3862 CircleF
2141 1963 CircleF
2345 2120 CircleF
4997 3471 CircleF
5221 3642 CircleF
6394 3545 CircleF
6589 3695 CircleF
5702 3407 CircleF
5908 3566 CircleF
6147 4112 CircleF
6279 4213 CircleF
3924 1934 CircleF
4135 2096 CircleF
5626 3021 CircleF
5863 3203 CircleF
2328 2837 CircleF
2502 2970 CircleF
3457 820 CircleF
3592 924 CircleF
2121 4001 CircleF
2258 4106 CircleF
1899 2235 CircleF
2100 2389 CircleF
3080 2672 CircleF
3244 2798 CircleF
6061 2563 CircleF
6259 2715 CircleF
2119 3660 CircleF
2344 3833 CircleF
5964 1977 CircleF
6186 2147 CircleF
3935 4436 CircleF
4083 4550 CircleF
3118 2733 CircleF
3314 2883 CircleF
2832 3638 CircleF
3065 3816 CircleF
3700 433 CircleF
3886 575 CircleF
2034 595 CircleF
2154 688 CircleF
2820 1844 CircleF
3018 1996 CircleF
2979 1486 CircleF
3187 1646 CircleF
2579 4192 CircleF
2796 4359 CircleF
1843 1736 CircleF
1967 1831 CircleF
5587 498 CircleF
5715 595 CircleF
1243 2943 CircleF
1405 3068 CircleF
1034 3382 CircleF
1154 3474 CircleF
4497 2650 CircleF
4725 2825 CircleF
2603 2544 CircleF
2741 2651 CircleF
2783 4203 CircleF
2948 4330 CircleF
4303 2342 CircleF
4525 2513 CircleF
2732 3294 CircleF
2905 3426 CircleF
3107 684 CircleF
3302 834 CircleF
1456 1966 CircleF
1624 2095 CircleF
1262 3461 CircleF
1402 3568 CircleF
1442 4672 CircleF
1600 4794 CircleF
2237 855 CircleF
2383 967 CircleF
2432 1593 CircleF
2640 1753 CircleF
1075 3463 CircleF
1305 3640 CircleF
1184 1851 CircleF
1329 1963 CircleF
6349 2386 CircleF
6510 2510 CircleF
3944 479 CircleF
4178 658 CircleF
3508 3407 CircleF
3647 3514 CircleF
1996 2155 CircleF
2222 2329 CircleF
1925 1637 CircleF
2160 1817 CircleF
4535 3902 CircleF
4659 3997 CircleF
4877 3964 CircleF
5097 4132 CircleF
6281 2253 CircleF
6444 2378 CircleF
6470 951 CircleF
6699 1126 CircleF
5022 2266 CircleF
5194 2398 CircleF
1784 1430 CircleF
1981 1581 CircleF
1279 2399 CircleF
1411 2500 CircleF
1332 3748 CircleF
1519 3891 CircleF
4877 2602 CircleF
5035 2723 CircleF
4740 1691 CircleF
4967 1865 CircleF
6555 3961 CircleF
6684 4060 CircleF
1825 2482 CircleF
2048 2653 CircleF
5264 1332 CircleF
5408 1442 CircleF
3064 1500 CircleF
3194 1600 CircleF
4033 2665 CircleF
4180 2778 CircleF
4156 2463 CircleF
4385 2639 CircleF
6465 892 CircleF
6684 1060 CircleF
2682 2783 CircleF
2886 2941 CircleF
4528 662 CircleF
4671 772 CircleF
1920 3169 CircleF
2063 3279 CircleF
2036 2988 CircleF
2251 3153 CircleF
5781 779 CircleF
6004 950 CircleF
6229 1561 CircleF
6417 1705 CircleF
968 2662 CircleF
1119 2778 CircleF
1674 1928 CircleF
1807 2030 CircleF
3326 1306 CircleF
3555 1482 CircleF
4903 3752 CircleF
5031 3850 CircleF
5453 2795 CircleF
5685 2973 CircleF
6374 4605 CircleF
6519 4716 CircleF
3159 3994 CircleF
3293 4097 CircleF
3529 3112 CircleF
3692 3237 CircleF
5037 2557 CircleF
5264 2731 CircleF
1834 3501 CircleF
1963 3599 CircleF
4876 405 CircleF
5074 557 CircleF
2282 904 CircleF
2445 1029 CircleF
4819 3294 CircleF
5057 3477 CircleF
6330 4213 CircleF
6525 4364 CircleF
2440 366 CircleF
2586 479 CircleF
5126 3211 CircleF
5336 3373 CircleF
4595 4652 CircleF
4768 4784 CircleF
3563 4307 CircleF
3722 4429 CircleF
6256 732 CircleF
6403 845 CircleF
1331 1410 CircleF
1464 1512 CircleF
4808 2457 CircleF
4961 2575 CircleF
5044 932 CircleF
5259 1097 CircleF
5615 1297 CircleF
5802 1441 CircleF
4017 1055 CircleF
4187 1185 CircleF
6577 2649 CircleF
6714 2755 CircleF
3416 3984 CircleF
3641 4156 CircleF
2317 1296 CircleF
2521 1452 CircleF
5247 4554 CircleF
5444 4705 CircleF
5466 4671 CircleF
5593 4768 CircleF
4198 2627 CircleF
4430 2805 CircleF
4914 1131 CircleF
5088 1265 CircleF
5524 1806 CircleF
5669 1917 CircleF
4616 1655 CircleF
4770 1773 CircleF
5064 3346 CircleF
5239 3480 CircleF
1039 3216 CircleF
1235 3366 CircleF
6355 2471 CircleF
6506 2587 CircleF
1285 1455 CircleF
1444 1578 CircleF
6377 4320 CircleF
6530 4437 CircleF
2137 1063 CircleF
2297 1186 CircleF
6009 3161 CircleF
6228 3329 CircleF
2075 3433 CircleF
2265 3578 CircleF
5384 1578 CircleF
5568 1719 CircleF
6384 3414 CircleF
6586 3569 CircleF
6087 757 CircleF
6323 938 CircleF
1517 983 CircleF
1721 1140 CircleF
5179 2272 CircleF
5308 2371 CircleF
3713 2255 CircleF
3883 2386 CircleF
3007 772 CircleF
3232 944 CircleF
3312 513 CircleF
3519 672 CircleF
6276 2009 CircleF
6430 2127 CircleF
1525 3704 CircleF
1665 3811 CircleF
1372 1564 CircleF
1523 1680 CircleF
5923 2386 CircleF
6090 2515 CircleF
1983 4272 CircleF
2174 4419 CircleF
4034 1342 CircleF
4213 1480 CircleF
1927 2240 CircleF
2084 2361 CircleF
1647 3143 CircleF
1768 3236 CircleF
3188 1291 CircleF
3378 1437 CircleF
3792 4213 CircleF
3934 4323 CircleF
2641 431 CircleF
2866 603 CircleF
5287 3265 CircleF
5490 3421 CircleF
5561 1285 CircleF
5712 1400 CircleF
2630 373 CircleF
2860 550 CircleF
2167 2156 CircleF
2334 2284 CircleF
5736 3134 CircleF
5968 3312 CircleF
2089 2887 CircleF
2296 3045 CircleF
3058 3754 CircleF
3228 3885 CircleF
1185 3800 CircleF
1361 3935 CircleF
3771 4304 CircleF
3991 4473 CircleF
2284 2770 CircleF
2502 2938 CircleF
1066 3245 CircleF
1286 3413 CircleF
5259 4098 CircleF
5447 4242 CircleF
1051 3709 CircleF
1218 3837 CircleF
5085 2664 CircleF
5216 2764 CircleF
3835 1480 CircleF
4024 1625 CircleF
5254 1546 CircleF
5381 1643 CircleF
1720 728 CircleF
1942 898 CircleF
1037 2486 CircleF
1174 2591 CircleF
3262 3819 CircleF
3409 3931 CircleF
2648 1266 CircleF
2874 1439 CircleF
3397 4130 CircleF
3528 4231 CircleF
5429 908 CircleF
5662 1087 CircleF
4435 3748 CircleF
4604 3878 CircleF
4856 2999 CircleF
5009 3116 CircleF
4303 515 CircleF
4491 659 CircleF
1136 840 CircleF
1269 942 CircleF
2863 2742 CircleF
3093 2918 CircleF
4776 563 CircleF
4958 703 CircleF
2126 3013 CircleF
2342 3178 CircleF
3714 1487 CircleF
3903 1633 CircleF
6528 3748 CircleF
6690 3873 CircleF
1146 408 CircleF
1303 528 CircleF
3058 2678 CircleF
3289 2855 CircleF
1495 4492 CircleF
1710 4657 CircleF
6605 1923 CircleF
6741 2027 CircleF
3137 4318 CircleF
3319 4458 CircleF
1428 3577 CircleF
1560 3678 CircleF
5935 741 CircleF
6166 918 CircleF
1557 629 CircleF
1731 763 CircleF
4961 4683 CircleF
5081 4775 CircleF
6290 3868 CircleF
6416 3965 CircleF
1368 308 CircleF
1549 447 CircleF
2351 2836 CircleF
2588 3018 CircleF
2927 1004 CircleF
3060 1106 CircleF
5263 1451 CircleF
5492 1626 CircleF
4012 4487 CircleF
4139 4585 CircleF
4297 3517 CircleF
4473 3652 CircleF
6533 1251 CircleF
6676 1361 CircleF
4690 1461 CircleF
4847 1581 CircleF
5450 3534 CircleF
5685 3714 CircleF
6310 947 CircleF
6485 1081 CircleF
2140 1669 CircleF
2372 1847 CircleF
6348 2395 CircleF
6543 2545 CircleF
5361 741 CircleF
5562 895 CircleF
5969 898 CircleF
6176 1057 CircleF
3194 4154 CircleF
3340 4266 CircleF
2457 672 CircleF
2612 791 CircleF
5899 2263 CircleF
6038 2369 CircleF
5021 1465 CircleF
5178 1586 CircleF
6153 3267 CircleF
6359 3425 CircleF
6299 2998 CircleF
6443 3109 CircleF
2964 712 CircleF
3190 886 CircleF
2439 364 CircleF
2607 492 CircleF
1749 543 CircleF
1901 660 CircleF
1344 2043 CircleF
1508 2169 CircleF
1114 3722 CircleF
1251 3827 CircleF
2051 4290 CircleF
2274 4461 CircleF
1809 3644 CircleF
1958 3758 CircleF
5852 2051 CircleF
5973 2144 CircleF
3998 3015 CircleF
4118 3107 CircleF
4999 1180 CircleF
5179 1318 CircleF
3114 3616 CircleF
3263 3730 CircleF
6342 2116 CircleF
6500 2237 CircleF
6306 4308 CircleF
6532 4482 CircleF
4837 2603 CircleF
4993 2723 CircleF
5434 3512 CircleF
5592 3634 CircleF
2671 3903 CircleF
2849 4039 CircleF
5176 2459 CircleF
5396 2628 CircleF
6516 3800 CircleF
6700 3941 CircleF
4596 609 CircleF
4724 708 CircleF
4838 3095 CircleF
5022 3237 CircleF
4720 4238 CircleF
4932 4401 CircleF
3830 1769 CircleF
4067 1952 CircleF
5964 4589 CircleF
6182 4756 CircleF
2352 904 CircleF
2484 1005 CircleF
3820 740 CircleF
3943 834 CircleF
3285 1385 CircleF
3454 1515 CircleF
2802 2693 CircleF
2993 2839 CircleF
4843 3269 CircleF
4978 3373 CircleF
2593 1478 CircleF
2763 1608 CircleF
2752 2532 CircleF
2893 2640 CircleF
3523 2782 CircleF
3709 2925 CircleF
3137 3152 CircleF
3306 3282 CircleF
5933 4312 CircleF
6056 4407 CircleF
5709 4465 CircleF
5903 4614 CircleF
2143 2592 CircleF
2346 2748 CircleF
6151 2657 CircleF
6321 2788 CircleF
5965 2122 CircleF
6148 2263 CircleF
5925 1047 CircleF
6066 1155 CircleF
5547 4580 CircleF
5784 4762 CircleF
4742 4146 CircleF
4908 4274 CircleF
2362 944 CircleF
2568 1102 CircleF
4337 1162 CircleF
4458 1255 CircleF
3300 1984 CircleF
3440 2091 CircleF
2829 2061 CircleF
3040 2223 CircleF
4376 2288 CircleF
4514 2394 CircleF
4404 695 CircleF
4617 859 CircleF
6429 1584 CircleF
6618 1729 CircleF
2222 2243 CircleF
2438 2409 CircleF
4683 3226 CircleF
4877 3375 CircleF
4637 2876 CircleF
4825 3020 CircleF
1525 2308 CircleF
1715 2454 CircleF
2420 3364 CircleF
2640 3533 CircleF
1397 2292 CircleF
1612 2457 CircleF
6439 2481 CircleF
6594 2600 CircleF
2842 2379 CircleF
3071 2555 CircleF
3921 438 CircleF
4134 601 CircleF
6347 4174 CircleF
6484 4278 CircleF
3602 961 CircleF
3748 1072 CircleF
2138 2677 CircleF
2264 2775 CircleF
4748 2212 CircleF
4877 2311 CircleF
6369 3582 CircleF
6571 3737 CircleF
3242 2752 CircleF
3381 2859 CircleF
3966 3565 CircleF
4162 3715 CircleF
1679 373 CircleF
1839 496 CircleF
4744 3138 CircleF
4934 3284 CircleF
3567 2726 CircleF
3728 2850 CircleF
5637 3364 CircleF
5803 3492 CircleF
1679 3884 CircleF
1813 3987 CircleF
5486 1940 CircleF
5705 2108 CircleF
1611 1968 CircleF
1745 2071 CircleF
3103 1660 CircleF
3269 1788 CircleF
2150 1025 CircleF
2385 1205 CircleF
6176 1582 CircleF
6301 1678 CircleF
1662 3047 CircleF
1855 3196 CircleF
3860 3122 CircleF
4023 3247 CircleF
3243 2922 CircleF
3468 3094 CircleF
5281 873 CircleF
5495 1038 CircleF
6080 2056 CircleF
6257 2192 CircleF
2331 2767 CircleF
2533 2922 CircleF
2112 1523 CircleF
2244 1624 CircleF
4361 286 CircleF
4596 466 CircleF
2211 2080 CircleF
2337 2176 CircleF
3473 1416 CircleF
3647 1549 CircleF
3223 2703 CircleF
3410 2847 CircleF
5694 314 CircleF
5913 482 CircleF
3332 560 CircleF
3494 685 CircleF
2123 478 CircleF
2260 583 CircleF
6664 2779 CircleF
6851 2923 CircleF
1394 4031 CircleF
1615 4201 CircleF
3215 4226 CircleF
3360 4337 CircleF
2310 799 CircleF
2462 916 CircleF
3053 1422 CircleF
3233 1560 CircleF
5370 337 CircleF
5506 442 CircleF
2458 2556 CircleF
2586 2654 CircleF
3081 1385 CircleF
3206 1481 CircleF
6612 574 CircleF
6802 721 CircleF
3207 2636 CircleF
3353 2748 CircleF
1209 1808 CircleF
1345 1911 CircleF
2937 4305 CircleF
3117 4442 CircleF
2277 3015 CircleF
2514 3197 CircleF
5542 4678 CircleF
5733 4825 CircleF
1064 4054 CircleF
1226 4179 CircleF
5858 4215 CircleF
6073 4380 CircleF
3980 932 CircleF
4215 1113 CircleF
3721 734 CircleF
3849 833 CircleF
4113 4232 CircleF
4233 4325 CircleF
2410 3899 CircleF
2572 4024 CircleF
1856 1647 CircleF
2029 1780 CircleF
4142 1066 CircleF
4362 1236 CircleF
1798 1438 CircleF
1961 1563 CircleF
5311 2314 CircleF
5457 2427 CircleF
2817 3610 CircleF
3027 3771 CircleF
3681 2316 CircleF
3810 2415 CircleF
3176 3548 CircleF
3314 3654 CircleF
2833 4228 CircleF
2965 4329 CircleF
3797 2362 CircleF
3965 2491 CircleF
1753 4507 CircleF
1883 4607 CircleF
2490 3331 CircleF
2712 3502 CircleF
1947 2058 CircleF
2104 2179 CircleF
5040 3001 CircleF
5218 3137 CircleF
5024 4360 CircleF
5192 4489 CircleF
1217 3363 CircleF
1410 3512 CircleF
1035 3927 CircleF
1195 4050 CircleF
1800 4062 CircleF
2034 4242 CircleF
4181 3218 CircleF
4398 3385 CircleF
2617 2656 CircleF
2793 2792 CircleF
5759 3900 CircleF
5974 4065 CircleF
5084 2794 CircleF
5282 2946 CircleF
6641 3354 CircleF
6846 3511 CircleF
2974 2083 CircleF
3165 2229 CircleF
5685 2676 CircleF
5910 2848 CircleF
3777 4430 CircleF
3924 4542 CircleF
6302 435 CircleF
6438 539 CircleF
3441 486 CircleF
3654 649 CircleF
5484 4322 CircleF
5702 4489 CircleF
5242 3836 CircleF
5372 3935 CircleF
1804 2646 CircleF
1927 2741 CircleF
3177 2594 CircleF
3354 2730 CircleF
1095 3815 CircleF
1242 3928 CircleF
1383 4218 CircleF
1621 4400 CircleF
1590 2640 CircleF
1808 2807 CircleF
5199 4087 CircleF
5415 4253 CircleF
1104 2694 CircleF
1294 2840 CircleF
1646 3192 CircleF
1857 3353 CircleF
2934 3542 CircleF
3124 3688 CircleF
4356 1548 CircleF
4495 1655 CircleF
5092 1625 CircleF
5233 1733 CircleF
5447 567 CircleF
5583 671 CircleF
2888 3726 CircleF
3025 3832 CircleF
4063 1321 CircleF
4263 1474 CircleF
2481 893 CircleF
2686 1050 CircleF
6391 955 CircleF
6594 1111 CircleF
3378 3530 CircleF
3573 3680 CircleF
2227 3532 CircleF
2385 3653 CircleF
2202 876 CircleF
2374 1007 CircleF
3742 593 CircleF
3869 690 CircleF
5298 303 CircleF
5507 463 CircleF
6597 2844 CircleF
6723 2940 CircleF
2166 1185 CircleF
2355 1330 CircleF
4051 4131 CircleF
4173 4225 CircleF
4817 4147 CircleF
5017 4300 CircleF
6687 1119 CircleF
6874 1262 CircleF
6270 2665 CircleF
6463 2813 CircleF
1898 1304 CircleF
2118 1472 CircleF
5810 1069 CircleF
5936 1167 CircleF
1035 2558 CircleF
1170 2662 CircleF
5873 1236 CircleF
5998 1331 CircleF
5774 2661 CircleF
5918 2772 CircleF
3072 1618 CircleF
3285 1781 CircleF
6374 647 CircleF
6565 793 CircleF
5879 1702 CircleF
6025 1814 CircleF
4875 2384 CircleF
5095 2553 CircleF
6499 1786 CircleF
6692 1933 CircleF
3590 3896 CircleF
3804 4060 CircleF
1114 1540 CircleF
1331 1707 CircleF
1690 3285 CircleF
1891 3439 CircleF
2566 2902 CircleF
2724 3023 CircleF
3620 1798 CircleF
3821 1953 CircleF
5682 966 CircleF
5863 1105 CircleF
4750 4369 CircleF
4927 4505 CircleF
5279 4458 CircleF
5403 4554 CircleF
3855 3768 CircleF
3995 3876 CircleF
6674 2140 CircleF
6801 2237 CircleF
1892 800 CircleF
2114 971 CircleF
5748 2896 CircleF
5966 3063 CircleF
4350 2213 CircleF
4480 2313 CircleF
3882 1980 CircleF
4117 2160 CircleF
1768 1716 CircleF
1943 1850 CircleF
1760 3123 CircleF
1967 3282 CircleF
5694 682 CircleF
5838 792 CircleF
4569 3583 CircleF
4799 3760 CircleF
1936 4027 CircleF
2145 4188 CircleF
1209 3772 CircleF
1343 3875 CircleF
3223 1924 CircleF
3406 2064 CircleF
4358 3369 CircleF
4537 3506 CircleF
4231 3774 CircleF
4379 3888 CircleF
3744 3063 CircleF
3916 3195 CircleF
4019 384 CircleF
4204 526 CircleF
4917 4467 CircleF
5074 4587 CircleF
1067 733 CircleF
1196 832 CircleF
4707 3324 CircleF
4890 3465 CircleF
2689 2383 CircleF
2825 2487 CircleF
5597 1708 CircleF
5741 1819 CircleF
1976 4107 CircleF
2119 4217 CircleF
5630 902 CircleF
5810 1040 CircleF
5014 1592 CircleF
5139 1688 CircleF
5463 2783 CircleF
5648 2925 CircleF
5781 1442 CircleF
5938 1563 CircleF
2133 1867 CircleF
2272 1974 CircleF
5340 3808 CircleF
5556 3974 CircleF
5670 2595 CircleF
5858 2740 CircleF
2369 780 CircleF
2499 880 CircleF
3100 1612 CircleF
3236 1716 CircleF
1745 2124 CircleF
1883 2230 CircleF
3388 794 CircleF
3532 904 CircleF
4239 2839 CircleF
4415 2974 CircleF
4213 656 CircleF
4359 768 CircleF
5381 1514 CircleF
5565 1656 CircleF
4504 2088 CircleF
4701 2240 CircleF
3995 2392 CircleF
4179 2534 CircleF
1713 1441 CircleF
1838 1538 CircleF
5875 1050 CircleF
6050 1184 CircleF
6371 3661 CircleF
6498 3759 CircleF
3339 633 CircleF
3497 754 CircleF
6420 2062 CircleF
6553 2164 CircleF
2227 2127 CircleF
2456 2303 CircleF
3859 2158 CircleF
4084 2330 CircleF
4428 741 CircleF
4639 903 CircleF
1279 4297 CircleF
1414 4401 CircleF
1000 1344 CircleF
1137 1449 CircleF
6439 2978 CircleF
6623 3119 CircleF
5532 3472 CircleF
5744 3635 CircleF
6261 796 CircleF
6393 898 CircleF
2750 2056 CircleF
2950 2209 CircleF
1143 1618 CircleF
1314 1749 CircleF
5122 880 CircleF
5259 984 CircleF
5780 3682 CircleF
5959 3820 CircleF
3155 2303 CircleF
3337 2442 CircleF
3875 980 CircleF
4111 1161 CircleF
4085 2102 CircleF
4280 2252 CircleF
1739 4006 CircleF
1897 4127 CircleF
5201 817 CircleF
5395 967 CircleF
2439 4662 CircleF
2621 4802 CircleF
6677 2930 CircleF
6812 3034 CircleF
4254 2843 CircleF
4449 2993 CircleF
4476 1387 CircleF
4606 1488 CircleF
1070 2603 CircleF
1284 2767 CircleF
2081 657 CircleF
2263 797 CircleF
2509 3390 CircleF
2674 3517 CircleF
4219 393 CircleF
4342 487 CircleF
2905 545 CircleF
3122 712 CircleF
2810 3321 CircleF
3035 3493 CircleF
2803 876 CircleF
2993 1022 CircleF
2349 2327 CircleF
2543 2476 CircleF
5869 4108 CircleF
6091 4278 CircleF
3712 3350 CircleF
3877 3477 CircleF
4856 3784 CircleF
5012 3904 CircleF
4789 611 CircleF
5015 784 CircleF
1855 2698 CircleF
2024 2828 CircleF
2695 480 CircleF
2925 655 CircleF
1399 4310 CircleF
1614 4475 CircleF
5069 436 CircleF
5233 562 CircleF
1097 1804 CircleF
1321 1976 CircleF
1019 2940 CircleF
1212 3088 CircleF
3958 2168 CircleF
4170 2331 CircleF
2709 3050 CircleF
2840 3151 CircleF
5313 4566 CircleF
5496 4706 CircleF
3441 3352 CircleF
3627 3494 CircleF
4112 4010 CircleF
4238 4107 CircleF
2834 1365 CircleF
2992 1486 CircleF
3360 421 CircleF
3511 537 CircleF
2537 3279 CircleF
2753 3445 CircleF
4628 1474 CircleF
4809 1613 CircleF
3333 4255 CircleF
3479 4367 CircleF
4575 1856 CircleF
4706 1957 CircleF
4826 2988 CircleF
5048 3159 CircleF
6343 2048 CircleF
6536 2197 CircleF
2589 3564 CircleF
2798 3725 CircleF
4371 3473 CircleF
4536 3600 CircleF
2840 3279 CircleF
3044 3436 CircleF
5245 1896 CircleF
5366 1989 CircleF
1580 3065 CircleF
1764 3206 CircleF
1030 1479 CircleF
1251 1649 CircleF
3181 2065 CircleF
3307 2162 CircleF
2787 4112 CircleF
3017 4289 CircleF
3119 2207 CircleF
3307 2351 CircleF
5561 1213 CircleF
5689 1311 CircleF
4417 3142 CircleF
4605 3286 CircleF
2405 2786 CircleF
2598 2934 CircleF
5726 3637 CircleF
5866 3745 CircleF
4670 3338 CircleF
4833 3463 CircleF
2045 3154 CircleF
2221 3290 CircleF
4590 1557 CircleF
4810 1726 CircleF
6118 3237 CircleF
6280 3362 CircleF
6641 502 CircleF
6849 661 CircleF
4590 578 CircleF
4743 695 CircleF
5535 1803 CircleF
5690 1922 CircleF
1258 3523 CircleF
1478 3692 CircleF
3733 3561 CircleF
3966 3740 CircleF
4879 1272 CircleF
4999 1364 CircleF
4387 3478 CircleF
4618 3656 CircleF
6574 4135 CircleF
6777 4291 CircleF
5327 4108 CircleF
5505 4244 CircleF
1461 829 CircleF
1652 975 CircleF
4671 451 CircleF
4906 632 CircleF
1918 1699 CircleF
2068 1815 CircleF
4529 4211 CircleF
4725 4361 CircleF
1224 1275 CircleF
1346 1369 CircleF
4185 2701 CircleF
4341 2821 CircleF
6209 4242 CircleF
6376 4370 CircleF
2928 763 CircleF
3131 919 CircleF
1158 4465 CircleF
1302 4576 CircleF
5131 4514 CircleF
5299 4643 CircleF
3182 3508 CircleF
3368 3651 CircleF
5123 4130 CircleF
5272 4244 CircleF
4799 1546 CircleF
4922 1640 CircleF
6449 1609 CircleF
6653 1765 CircleF
4927 3047 CircleF
5151 3219 CircleF
2844 4659 CircleF
3077 4838 CircleF
3631 2976 CircleF
3859 3151 CircleF
2917 3795 CircleF
3049 3896 CircleF
5234 1041 CircleF
5410 1176 CircleF
4973 1341 CircleF
5156 1481 CircleF
2255 2355 CircleF
2392 2461 CircleF
5253 626 CircleF
5475 796 CircleF
3631 1326 CircleF
3856 1499 CircleF
1010 3410 CircleF
1246 3591 CircleF
3297 2827 CircleF
3467 2957 CircleF
1900 3262 CircleF
2026 3359 CircleF
4647 2370 CircleF
4806 2491 CircleF
2219 3487 CircleF
2450 3665 CircleF
6506 4037 CircleF
6649 4146 CircleF
4878 4403 CircleF
5000 4497 CircleF
3984 304 CircleF
4161 440 CircleF
1676 780 CircleF
1898 950 CircleF
4606 1452 CircleF
4738 1553 CircleF
3176 3389 CircleF
3370 3538 CircleF
4436 3966 CircleF
4584 4080 CircleF
1451 1266 CircleF
1661 1427 CircleF
2982 2903 CircleF
3137 3022 CircleF
4639 3103 CircleF
4829 3248 CircleF
3881 2565 CircleF
4113 2743 CircleF
5033 1474 CircleF
5230 1625 CircleF
3870 2521 CircleF
4008 2627 CircleF
1513 2194 CircleF
1703 2340 CircleF
5051 1287 CircleF
5280 1463 CircleF
2386 2925 CircleF
2574 3069 CircleF
6246 3967 CircleF
6413 4095 CircleF
2408 3826 CircleF
2550 3934 CircleF
2155 1632 CircleF
2336 1771 CircleF
3943 3523 CircleF
4145 3679 CircleF
1691 1778 CircleF
1912 1947 CircleF
4134 560 CircleF
4285 675 CircleF
4840 3223 CircleF
5068 3398 CircleF
2953 2023 CircleF
3172 2191 CircleF
1597 1030 CircleF
1737 1137 CircleF
4362 375 CircleF
4553 521 CircleF
5191 4007 CircleF
5429 4190 CircleF
4095 2592 CircleF
4317 2762 CircleF
4066 2244 CircleF
4296 2420 CircleF
5979 2414 CircleF
6144 2541 CircleF
6075 2804 CircleF
6271 2955 CircleF
3870 333 CircleF
4084 497 CircleF
5332 483 CircleF
5504 614 CircleF
4397 4067 CircleF
4609 4230 CircleF
5107 2426 CircleF
5269 2550 CircleF
5003 4193 CircleF
5153 4308 CircleF
5591 1220 CircleF
5767 1356 CircleF
5888 2784 CircleF
6037 2898 CircleF
3611 4402 CircleF
3824 4566 CircleF
1117 504 CircleF
1246 603 CircleF
4268 2070 CircleF
4448 2208 CircleF
2384 3123 CircleF
2546 3248 CircleF
1629 1995 CircleF
1750 2088 CircleF
6221 2384 CircleF
6431 2544 CircleF
1844 422 CircleF
1986 531 CircleF
4947 2210 CircleF
5110 2335 CircleF
1891 2705 CircleF
2112 2874 CircleF
3113 2675 CircleF
3268 2794 CircleF
5237 2987 CircleF
5438 3142 CircleF
4552 4159 CircleF
4782 4336 CircleF
2703 2000 CircleF
2865 2124 CircleF
5222 2782 CircleF
5343 2876 CircleF
4320 1895 CircleF
4460 2002 CircleF
2817 623 CircleF
2999 763 CircleF
3162 2341 CircleF
3388 2515 CircleF
6593 4578 CircleF
6789 4728 CircleF
2527 2565 CircleF
2682 2684 CircleF
2591 3608 CircleF
2749 3729 CircleF
5446 1370 CircleF
5622 1506 CircleF
1173 2100 CircleF
1312 2207 CircleF
3104 3295 CircleF
3313 3456 CircleF
5329 1186 CircleF
5553 1358 CircleF
4187 4394 CircleF
4341 4512 CircleF
4530 4090 CircleF
4683 4207 CircleF
1044 499 CircleF
1213 628 CircleF
6059 3184 CircleF
6212 3301 CircleF
5787 2383 CircleF
5917 2483 CircleF
6207 3452 CircleF
6399 3599 CircleF
3285 2216 CircleF
3500 2381 CircleF
4347 3919 CircleF
4573 4092 CircleF
4232 1381 CircleF
4466 1560 CircleF
4813 1216 CircleF
4947 1319 CircleF
1176 2731 CircleF
1364 2875 CircleF
4164 618 CircleF
4363 771 CircleF
3758 1248 CircleF
3950 1396 CircleF
4554 3423 CircleF
4762 3582 CircleF
3008 3025 CircleF
3157 3140 CircleF
5152 4201 CircleF
5354 4356 CircleF
2781 911 CircleF
3010 1087 CircleF
1436 3624 CircleF
1652 3790 CircleF
1765 3489 CircleF
1971 3647 CircleF
4776 1288 CircleF
4930 1407 CircleF
4437 4101 CircleF
4561 4196 CircleF
1345 3852 CircleF
1563 4019 CircleF
2627 797 CircleF
2858 974 CircleF
3466 2723 CircleF
3644 2860 CircleF
5998 1417 CircleF
6223 1589 CircleF
1056 3455 CircleF
1267 3617 CircleF
3160 4467 CircleF
3359 4620 CircleF
1996 1120 CircleF
2228 1298 CircleF
3665 1512 CircleF
3812 1625 CircleF
5034 3775 CircleF
5155 3868 CircleF
4062 2254 CircleF
4206 2364 CircleF
5413 4329 CircleF
5573 4451 CircleF
3307 1813 CircleF
3458 1929 CircleF
1154 2242 CircleF
1345 2389 CircleF
2591 2285 CircleF
2805 2449 CircleF
2524 1803 CircleF
2713 1949 CircleF
2112 4139 CircleF
2264 4255 CircleF
6254 3515 CircleF
6418 3642 CircleF
6632 443 CircleF
6841 603 CircleF
6016 3336 CircleF
6176 3459 CircleF
2882 3836 CircleF
3042 3959 CircleF
1463 3903 CircleF
1636 4035 CircleF
2137 1996 CircleF
2297 2119 CircleF
2404 2279 CircleF
2545 2388 CircleF
4664 3071 CircleF
4809 3182 CircleF
2298 3786 CircleF
2438 3893 CircleF
2002 613 CircleF
2181 750 CircleF
3015 2877 CircleF
3140 2972 CircleF
1001 2064 CircleF
1227 2237 CircleF
1466 2356 CircleF
1626 2478 CircleF
6483 2342 CircleF
6698 2507 CircleF
2571 1975 CircleF
2698 2073 CircleF
5263 400 CircleF
5484 569 CircleF
3962 1704 CircleF
4182 1873 CircleF
4426 1189 CircleF
4570 1300 CircleF
3200 3267 CircleF
3355 3386 CircleF
1679 4633 CircleF
1856 4769 CircleF
5548 4075 CircleF
5740 4222 CircleF
5209 4357 CircleF
5339 4457 CircleF
4146 3162 CircleF
4376 3339 CircleF
6390 3129 CircleF
6548 3250 CircleF
5981 1832 CircleF
6134 1950 CircleF
4795 1738 CircleF
4971 1872 CircleF
5425 4266 CircleF
5625 4420 CircleF
1901 3944 CircleF
2124 4116 CircleF
1765 3794 CircleF
1972 3953 CircleF
1073 2908 CircleF
1226 3026 CircleF
6697 2805 CircleF
6855 2926 CircleF
2884 4250 CircleF
3089 4407 CircleF
1817 4302 CircleF
1999 4442 CircleF
6125 2447 CircleF
6321 2597 CircleF
4868 1771 CircleF
5052 1912 CircleF
1681 2379 CircleF
1877 2529 CircleF
6250 3507 CircleF
6483 3686 CircleF
2932 890 CircleF
3163 1067 CircleF
1775 2107 CircleF
1936 2231 CircleF
4761 4112 CircleF
4985 4284 CircleF
2008 4050 CircleF
2195 4193 CircleF
2186 902 CircleF
2337 1018 CircleF
2420 2212 CircleF
2573 2329 CircleF
1056 2561 CircleF
1277 2730 CircleF
5662 3884 CircleF
5863 4038 CircleF
3566 3968 CircleF
3770 4124 CircleF
5107 1380 CircleF
5244 1486 CircleF
5507 2539 CircleF
5684 2674 CircleF
6081 3757 CircleF
6286 3914 CircleF
5850 1004 CircleF
5999 1118 CircleF
3080 857 CircleF
3221 965 CircleF
1632 977 CircleF
1759 1074 CircleF
4099 614 CircleF
4245 726 CircleF
% End plot #2
1.000 UP
1.000 UL
LT0
0.50 0.50 0.50 C stroke
grestore
end
showpage
%%Trailer
%%DocumentFonts: Helvetica
%%Pages: 1
