%!PS-Adobe-2.0
%%Title: out.ps
%%Creator: gnuplot 4.6 patchlevel 6
%%CreationDate: Fri May 29 01:02:08 2015
%%DocumentFonts: (atend)
%%BoundingBox: 50 50 554 770
%%Orientation: Landscape
%%Pages: (atend)
%%EndComments
%%BeginProlog
/gnudict 256 dict def
gnudict begin
%
% The following true/false flags may be edited by hand if desired.
% The unit line width and grayscale image gamma correction may also be changed.
%
/Color false def
/Blacktext false def
/Solid false def
/Dashlength 1 def
/Landscape true def
/Level1 false def
/Rounded false def
/ClipToBoundingBox false def
/SuppressPDFMark false def
/TransparentPatterns false def
/gnulinewidth 5.000 def
/userlinewidth gnulinewidth def
/Gamma 1.0 def
/BackgroundColor {-1.000 -1.000 -1.000} def
%
/vshift -46 def
/dl1 {
  10.0 Dashlength mul mul
  Rounded { currentlinewidth 0.75 mul sub dup 0 le { pop 0.01 } if } if
} def
/dl2 {
  10.0 Dashlength mul mul
  Rounded { currentlinewidth 0.75 mul add } if
} def
/hpt_ 31.5 def
/vpt_ 31.5 def
/hpt hpt_ def
/vpt vpt_ def
/doclip {
  ClipToBoundingBox {
    newpath 50 50 moveto 554 50 lineto 554 770 lineto 50 770 lineto closepath
    clip
  } if
} def
%
% Gnuplot Prolog Version 4.6 (September 2012)
%
%/SuppressPDFMark true def
%
/M {moveto} bind def
/L {lineto} bind def
/R {rmoveto} bind def
/V {rlineto} bind def
/N {newpath moveto} bind def
/Z {closepath} bind def
/C {setrgbcolor} bind def
/f {rlineto fill} bind def
/g {setgray} bind def
/Gshow {show} def   % May be redefined later in the file to support UTF-8
/vpt2 vpt 2 mul def
/hpt2 hpt 2 mul def
/Lshow {currentpoint stroke M 0 vshift R 
	Blacktext {gsave 0 setgray show grestore} {show} ifelse} def
/Rshow {currentpoint stroke M dup stringwidth pop neg vshift R
	Blacktext {gsave 0 setgray show grestore} {show} ifelse} def
/Cshow {currentpoint stroke M dup stringwidth pop -2 div vshift R 
	Blacktext {gsave 0 setgray show grestore} {show} ifelse} def
/UP {dup vpt_ mul /vpt exch def hpt_ mul /hpt exch def
  /hpt2 hpt 2 mul def /vpt2 vpt 2 mul def} def
/DL {Color {setrgbcolor Solid {pop []} if 0 setdash}
 {pop pop pop 0 setgray Solid {pop []} if 0 setdash} ifelse} def
/BL {stroke userlinewidth 2 mul setlinewidth
	Rounded {1 setlinejoin 1 setlinecap} if} def
/AL {stroke userlinewidth 2 div setlinewidth
	Rounded {1 setlinejoin 1 setlinecap} if} def
/UL {dup gnulinewidth mul /userlinewidth exch def
	dup 1 lt {pop 1} if 10 mul /udl exch def} def
/PL {stroke userlinewidth setlinewidth
	Rounded {1 setlinejoin 1 setlinecap} if} def
3.8 setmiterlimit
% Default Line colors
/LCw {1 1 1} def
/LCb {0 0 0} def
/LCa {0 0 0} def
/LC0 {1 0 0} def
/LC1 {0 1 0} def
/LC2 {0 0 1} def
/LC3 {1 0 1} def
/LC4 {0 1 1} def
/LC5 {1 1 0} def
/LC6 {0 0 0} def
/LC7 {1 0.3 0} def
/LC8 {0.5 0.5 0.5} def
% Default Line Types
/LTw {PL [] 1 setgray} def
/LTb {BL [] LCb DL} def
/LTa {AL [1 udl mul 2 udl mul] 0 setdash LCa setrgbcolor} def
/LT0 {PL [] LC0 DL} def
/LT1 {PL [4 dl1 2 dl2] LC1 DL} def
/LT2 {PL [2 dl1 3 dl2] LC2 DL} def
/LT3 {PL [1 dl1 1.5 dl2] LC3 DL} def
/LT4 {PL [6 dl1 2 dl2 1 dl1 2 dl2] LC4 DL} def
/LT5 {PL [3 dl1 3 dl2 1 dl1 3 dl2] LC5 DL} def
/LT6 {PL [2 dl1 2 dl2 2 dl1 6 dl2] LC6 DL} def
/LT7 {PL [1 dl1 2 dl2 6 dl1 2 dl2 1 dl1 2 dl2] LC7 DL} def
/LT8 {PL [2 dl1 2 dl2 2 dl1 2 dl2 2 dl1 2 dl2 2 dl1 4 dl2] LC8 DL} def
/Pnt {stroke [] 0 setdash gsave 1 setlinecap M 0 0 V stroke grestore} def
/Dia {stroke [] 0 setdash 2 copy vpt add M
  hpt neg vpt neg V hpt vpt neg V
  hpt vpt V hpt neg vpt V closepath stroke
  Pnt} def
/Pls {stroke [] 0 setdash vpt sub M 0 vpt2 V
  currentpoint stroke M
  hpt neg vpt neg R hpt2 0 V stroke
 } def
/Box {stroke [] 0 setdash 2 copy exch hpt sub exch vpt add M
  0 vpt2 neg V hpt2 0 V 0 vpt2 V
  hpt2 neg 0 V closepath stroke
  Pnt} def
/Crs {stroke [] 0 setdash exch hpt sub exch vpt add M
  hpt2 vpt2 neg V currentpoint stroke M
  hpt2 neg 0 R hpt2 vpt2 V stroke} def
/TriU {stroke [] 0 setdash 2 copy vpt 1.12 mul add M
  hpt neg vpt -1.62 mul V
  hpt 2 mul 0 V
  hpt neg vpt 1.62 mul V closepath stroke
  Pnt} def
/Star {2 copy Pls Crs} def
/BoxF {stroke [] 0 setdash exch hpt sub exch vpt add M
  0 vpt2 neg V hpt2 0 V 0 vpt2 V
  hpt2 neg 0 V closepath fill} def
/TriUF {stroke [] 0 setdash vpt 1.12 mul add M
  hpt neg vpt -1.62 mul V
  hpt 2 mul 0 V
  hpt neg vpt 1.62 mul V closepath fill} def
/TriD {stroke [] 0 setdash 2 copy vpt 1.12 mul sub M
  hpt neg vpt 1.62 mul V
  hpt 2 mul 0 V
  hpt neg vpt -1.62 mul V closepath stroke
  Pnt} def
/TriDF {stroke [] 0 setdash vpt 1.12 mul sub M
  hpt neg vpt 1.62 mul V
  hpt 2 mul 0 V
  hpt neg vpt -1.62 mul V closepath fill} def
/DiaF {stroke [] 0 setdash vpt add M
  hpt neg vpt neg V hpt vpt neg V
  hpt vpt V hpt neg vpt V closepath fill} def
/Pent {stroke [] 0 setdash 2 copy gsave
  translate 0 hpt M 4 {72 rotate 0 hpt L} repeat
  closepath stroke grestore Pnt} def
/PentF {stroke [] 0 setdash gsave
  translate 0 hpt M 4 {72 rotate 0 hpt L} repeat
  closepath fill grestore} def
/Circle {stroke [] 0 setdash 2 copy
  hpt 0 360 arc stroke Pnt} def
/CircleF {stroke [] 0 setdash hpt 0 360 arc fill} def
/C0 {BL [] 0 setdash 2 copy moveto vpt 90 450 arc} bind def
/C1 {BL [] 0 setdash 2 copy moveto
	2 copy vpt 0 90 arc closepath fill
	vpt 0 360 arc closepath} bind def
/C2 {BL [] 0 setdash 2 copy moveto
	2 copy vpt 90 180 arc closepath fill
	vpt 0 360 arc closepath} bind def
/C3 {BL [] 0 setdash 2 copy moveto
	2 copy vpt 0 180 arc closepath fill
	vpt 0 360 arc closepath} bind def
/C4 {BL [] 0 setdash 2 copy moveto
	2 copy vpt 180 270 arc closepath fill
	vpt 0 360 arc closepath} bind def
/C5 {BL [] 0 setdash 2 copy moveto
	2 copy vpt 0 90 arc
	2 copy moveto
	2 copy vpt 180 270 arc closepath fill
	vpt 0 360 arc} bind def
/C6 {BL [] 0 setdash 2 copy moveto
	2 copy vpt 90 270 arc closepath fill
	vpt 0 360 arc closepath} bind def
/C7 {BL [] 0 setdash 2 copy moveto
	2 copy vpt 0 270 arc closepath fill
	vpt 0 360 arc closepath} bind def
/C8 {BL [] 0 setdash 2 copy moveto
	2 copy vpt 270 360 arc closepath fill
	vpt 0 360 arc closepath} bind def
/C9 {BL [] 0 setdash 2 copy moveto
	2 copy vpt 270 450 arc closepath fill
	vpt 0 360 arc closepath} bind def
/C10 {BL [] 0 setdash 2 copy 2 copy moveto vpt 270 360 arc closepath fill
	2 copy moveto
	2 copy vpt 90 180 arc closepath fill
	vpt 0 360 arc closepath} bind def
/C11 {BL [] 0 setdash 2 copy moveto
	2 copy vpt 0 180 arc closepath fill
	2 copy moveto
	2 copy vpt 270 360 arc closepath fill
	vpt 0 360 arc closepath} bind def
/C12 {BL [] 0 setdash 2 copy moveto
	2 copy vpt 180 360 arc closepath fill
	vpt 0 360 arc closepath} bind def
/C13 {BL [] 0 setdash 2 copy moveto
	2 copy vpt 0 90 arc closepath fill
	2 copy moveto
	2 copy vpt 180 360 arc closepath fill
	vpt 0 360 arc closepath} bind def
/C14 {BL [] 0 setdash 2 copy moveto
	2 copy vpt 90 360 arc closepath fill
	vpt 0 360 arc} bind def
/C15 {BL [] 0 setdash 2 copy vpt 0 360 arc closepath fill
	vpt 0 360 arc closepath} bind def
/Rec {newpath 4 2 roll moveto 1 index 0 rlineto 0 exch rlineto
	neg 0 rlineto closepath} bind def
/Square {dup Rec} bind def
/Bsquare {vpt sub exch vpt sub exch vpt2 Square} bind def
/S0 {BL [] 0 setdash 2 copy moveto 0 vpt rlineto BL Bsquare} bind def
/S1 {BL [] 0 setdash 2 copy vpt Square fill Bsquare} bind def
/S2 {BL [] 0 setdash 2 copy exch vpt sub exch vpt Square fill Bsquare} bind def
/S3 {BL [] 0 setdash 2 copy exch vpt sub exch vpt2 vpt Rec fill Bsquare} bind def
/S4 {BL [] 0 setdash 2 copy exch vpt sub exch vpt sub vpt Square fill Bsquare} bind def
/S5 {BL [] 0 setdash 2 copy 2 copy vpt Square fill
	exch vpt sub exch vpt sub vpt Square fill Bsquare} bind def
/S6 {BL [] 0 setdash 2 copy exch vpt sub exch vpt sub vpt vpt2 Rec fill Bsquare} bind def
/S7 {BL [] 0 setdash 2 copy exch vpt sub exch vpt sub vpt vpt2 Rec fill
	2 copy vpt Square fill Bsquare} bind def
/S8 {BL [] 0 setdash 2 copy vpt sub vpt Square fill Bsquare} bind def
/S9 {BL [] 0 setdash 2 copy vpt sub vpt vpt2 Rec fill Bsquare} bind def
/S10 {BL [] 0 setdash 2 copy vpt sub vpt Square fill 2 copy exch vpt sub exch vpt Square fill
	Bsquare} bind def
/S11 {BL [] 0 setdash 2 copy vpt sub vpt Square fill 2 copy exch vpt sub exch vpt2 vpt Rec fill
	Bsquare} bind def
/S12 {BL [] 0 setdash 2 copy exch vpt sub exch vpt sub vpt2 vpt Rec fill Bsquare} bind def
/S13 {BL [] 0 setdash 2 copy exch vpt sub exch vpt sub vpt2 vpt Rec fill
	2 copy vpt Square fill Bsquare} bind def
/S14 {BL [] 0 setdash 2 copy exch vpt sub exch vpt sub vpt2 vpt Rec fill
	2 copy exch vpt sub exch vpt Square fill Bsquare} bind def
/S15 {BL [] 0 setdash 2 copy Bsquare fill Bsquare} bind def
/D0 {gsave translate 45 rotate 0 0 S0 stroke grestore} bind def
/D1 {gsave translate 45 rotate 0 0 S1 stroke grestore} bind def
/D2 {gsave translate 45 rotate 0 0 S2 stroke grestore} bind def
/D3 {gsave translate 45 rotate 0 0 S3 stroke grestore} bind def
/D4 {gsave translate 45 rotate 0 0 S4 stroke grestore} bind def
/D5 {gsave translate 45 rotate 0 0 S5 stroke grestore} bind def
/D6 {gsave translate 45 rotate 0 0 S6 stroke grestore} bind def
/D7 {gsave translate 45 rotate 0 0 S7 stroke grestore} bind def
/D8 {gsave translate 45 rotate 0 0 S8 stroke grestore} bind def
/D9 {gsave translate 45 rotate 0 0 S9 stroke grestore} bind def
/D10 {gsave translate 45 rotate 0 0 S10 stroke grestore} bind def
/D11 {gsave translate 45 rotate 0 0 S11 stroke grestore} bind def
/D12 {gsave translate 45 rotate 0 0 S12 stroke grestore} bind def
/D13 {gsave translate 45 rotate 0 0 S13 stroke grestore} bind def
/D14 {gsave translate 45 rotate 0 0 S14 stroke grestore} bind def
/D15 {gsave translate 45 rotate 0 0 S15 stroke grestore} bind def
/DiaE {stroke [] 0 setdash vpt add M
  hpt neg vpt neg V hpt vpt neg V
  hpt vpt V hpt neg vpt V closepath stroke} def
/BoxE {stroke [] 0 setdash exch hpt sub exch vpt add M
  0 vpt2 neg V hpt2 0 V 0 vpt2 V
  hpt2 neg 0 V closepath stroke} def
/TriUE {stroke [] 0 setdash vpt 1.12 mul add M
  hpt neg vpt -1.62 mul V
  hpt 2 mul 0 V
  hpt neg vpt 1.62 mul V closepath stroke} def
/TriDE {stroke [] 0 setdash vpt 1.12 mul sub M
  hpt neg vpt 1.62 mul V
  hpt 2 mul 0 V
  hpt neg vpt -1.62 mul V closepath stroke} def
/PentE {stroke [] 0 setdash gsave
  translate 0 hpt M 4 {72 rotate 0 hpt L} repeat
  closepath stroke grestore} def
/CircE {stroke [] 0 setdash 
  hpt 0 360 arc stroke} def
/Opaque {gsave closepath 1 setgray fill grestore 0 setgray closepath} def
/DiaW {stroke [] 0 setdash vpt add M
  hpt neg vpt neg V hpt vpt neg V
  hpt vpt V hpt neg vpt V Opaque stroke} def
/BoxW {stroke [] 0 setdash exch hpt sub exch vpt add M
  0 vpt2 neg V hpt2 0 V 0 vpt2 V
  hpt2 neg 0 V Opaque stroke} def
/TriUW {stroke [] 0 setdash vpt 1.12 mul add M
  hpt neg vpt -1.62 mul V
  hpt 2 mul 0 V
  hpt neg vpt 1.62 mul V Opaque stroke} def
/TriDW {stroke [] 0 setdash vpt 1.12 mul sub M
  hpt neg vpt 1.62 mul V
  hpt 2 mul 0 V
  hpt neg vpt -1.62 mul V Opaque stroke} def
/PentW {stroke [] 0 setdash gsave
  translate 0 hpt M 4 {72 rotate 0 hpt L} repeat
  Opaque stroke grestore} def
/CircW {stroke [] 0 setdash 
  hpt 0 360 arc Opaque stroke} def
/BoxFill {gsave Rec 1 setgray fill grestore} def
/Density {
  /Fillden exch def
  currentrgbcolor
  /ColB exch def /ColG exch def /ColR exch def
  /ColR ColR Fillden mul Fillden sub 1 add def
  /ColG ColG Fillden mul Fillden sub 1 add def
  /ColB ColB Fillden mul Fillden sub 1 add def
  ColR ColG ColB setrgbcolor} def
/BoxColFill {gsave Rec PolyFill} def
/PolyFill {gsave Density fill grestore grestore} def
/h {rlineto rlineto rlineto gsave closepath fill grestore} bind def
%
% PostScript Level 1 Pattern Fill routine for rectangles
% Usage: x y w h s a XX PatternFill
%	x,y = lower left corner of box to be filled
%	w,h = width and height of box
%	  a = angle in degrees between lines and x-axis
%	 XX = 0/1 for no/yes cross-hatch
%
/PatternFill {gsave /PFa [ 9 2 roll ] def
  PFa 0 get PFa 2 get 2 div add PFa 1 get PFa 3 get 2 div add translate
  PFa 2 get -2 div PFa 3 get -2 div PFa 2 get PFa 3 get Rec
  TransparentPatterns {} {gsave 1 setgray fill grestore} ifelse
  clip
  currentlinewidth 0.5 mul setlinewidth
  /PFs PFa 2 get dup mul PFa 3 get dup mul add sqrt def
  0 0 M PFa 5 get rotate PFs -2 div dup translate
  0 1 PFs PFa 4 get div 1 add floor cvi
	{PFa 4 get mul 0 M 0 PFs V} for
  0 PFa 6 get ne {
	0 1 PFs PFa 4 get div 1 add floor cvi
	{PFa 4 get mul 0 2 1 roll M PFs 0 V} for
 } if
  stroke grestore} def
%
/languagelevel where
 {pop languagelevel} {1} ifelse
 2 lt
	{/InterpretLevel1 true def}
	{/InterpretLevel1 Level1 def}
 ifelse
%
% PostScript level 2 pattern fill definitions
%
/Level2PatternFill {
/Tile8x8 {/PaintType 2 /PatternType 1 /TilingType 1 /BBox [0 0 8 8] /XStep 8 /YStep 8}
	bind def
/KeepColor {currentrgbcolor [/Pattern /DeviceRGB] setcolorspace} bind def
<< Tile8x8
 /PaintProc {0.5 setlinewidth pop 0 0 M 8 8 L 0 8 M 8 0 L stroke} 
>> matrix makepattern
/Pat1 exch def
<< Tile8x8
 /PaintProc {0.5 setlinewidth pop 0 0 M 8 8 L 0 8 M 8 0 L stroke
	0 4 M 4 8 L 8 4 L 4 0 L 0 4 L stroke}
>> matrix makepattern
/Pat2 exch def
<< Tile8x8
 /PaintProc {0.5 setlinewidth pop 0 0 M 0 8 L
	8 8 L 8 0 L 0 0 L fill}
>> matrix makepattern
/Pat3 exch def
<< Tile8x8
 /PaintProc {0.5 setlinewidth pop -4 8 M 8 -4 L
	0 12 M 12 0 L stroke}
>> matrix makepattern
/Pat4 exch def
<< Tile8x8
 /PaintProc {0.5 setlinewidth pop -4 0 M 8 12 L
	0 -4 M 12 8 L stroke}
>> matrix makepattern
/Pat5 exch def
<< Tile8x8
 /PaintProc {0.5 setlinewidth pop -2 8 M 4 -4 L
	0 12 M 8 -4 L 4 12 M 10 0 L stroke}
>> matrix makepattern
/Pat6 exch def
<< Tile8x8
 /PaintProc {0.5 setlinewidth pop -2 0 M 4 12 L
	0 -4 M 8 12 L 4 -4 M 10 8 L stroke}
>> matrix makepattern
/Pat7 exch def
<< Tile8x8
 /PaintProc {0.5 setlinewidth pop 8 -2 M -4 4 L
	12 0 M -4 8 L 12 4 M 0 10 L stroke}
>> matrix makepattern
/Pat8 exch def
<< Tile8x8
 /PaintProc {0.5 setlinewidth pop 0 -2 M 12 4 L
	-4 0 M 12 8 L -4 4 M 8 10 L stroke}
>> matrix makepattern
/Pat9 exch def
/Pattern1 {PatternBgnd KeepColor Pat1 setpattern} bind def
/Pattern2 {PatternBgnd KeepColor Pat2 setpattern} bind def
/Pattern3 {PatternBgnd KeepColor Pat3 setpattern} bind def
/Pattern4 {PatternBgnd KeepColor Landscape {Pat5} {Pat4} ifelse setpattern} bind def
/Pattern5 {PatternBgnd KeepColor Landscape {Pat4} {Pat5} ifelse setpattern} bind def
/Pattern6 {PatternBgnd KeepColor Landscape {Pat9} {Pat6} ifelse setpattern} bind def
/Pattern7 {PatternBgnd KeepColor Landscape {Pat8} {Pat7} ifelse setpattern} bind def
} def
%
%
%End of PostScript Level 2 code
%
/PatternBgnd {
  TransparentPatterns {} {gsave 1 setgray fill grestore} ifelse
} def
%
% Substitute for Level 2 pattern fill codes with
% grayscale if Level 2 support is not selected.
%
/Level1PatternFill {
/Pattern1 {0.250 Density} bind def
/Pattern2 {0.500 Density} bind def
/Pattern3 {0.750 Density} bind def
/Pattern4 {0.125 Density} bind def
/Pattern5 {0.375 Density} bind def
/Pattern6 {0.625 Density} bind def
/Pattern7 {0.875 Density} bind def
} def
%
% Now test for support of Level 2 code
%
Level1 {Level1PatternFill} {Level2PatternFill} ifelse
%
/Symbol-Oblique /Symbol findfont [1 0 .167 1 0 0] makefont
dup length dict begin {1 index /FID eq {pop pop} {def} ifelse} forall
currentdict end definefont pop
Level1 SuppressPDFMark or 
{} {
/SDict 10 dict def
systemdict /pdfmark known not {
  userdict /pdfmark systemdict /cleartomark get put
} if
SDict begin [
  /Title (out.ps)
  /Subject (gnuplot plot)
  /Creator (gnuplot 4.6 patchlevel 6)
  /Author (yani)
%  /Producer (gnuplot)
%  /Keywords ()
  /CreationDate (Fri May 29 01:02:08 2015)
  /DOCINFO pdfmark
end
} ifelse
end
%%EndProlog
%%Page: 1 1
gnudict begin
gsave
doclip
50 50 translate
0.100 0.100 scale
90 rotate
0 -5040 translate
0 setgray
newpath
(Helvetica) findfont 140 scalefont setfont
BackgroundColor 0 lt 3 1 roll 0 lt exch 0 lt or or not {gsave BackgroundColor C clippath fill grestore} if
1.000 UL
LT0
0.50 0.50 0.50 C 1.000 UL
LTa
0.50 0.50 0.50 C 966 280 M
5981 0 V
stroke
LT0
0.50 0.50 0.50 C 966 280 M
63 0 V
5918 0 R
-63 0 V
882 280 M
( 0) Rshow
1.000 UL
LT0
0.50 0.50 0.50 C 1.000 UL
LTa
0.50 0.50 0.50 C 966 326 M
5981 0 V
stroke
LT0
0.50 0.50 0.50 C 966 326 M
63 0 V
5918 0 R
-63 0 V
882 326 M
( 0.707106) Rshow
1.000 UL
LT0
0.50 0.50 0.50 C 1.000 UL
LTa
0.50 0.50 0.50 C 966 372 M
5981 0 V
stroke
LT0
0.50 0.50 0.50 C 966 372 M
63 0 V
5918 0 R
-63 0 V
882 372 M
( 1.41421) Rshow
1.000 UL
LT0
0.50 0.50 0.50 C 1.000 UL
LTa
0.50 0.50 0.50 C 966 418 M
5981 0 V
stroke
LT0
0.50 0.50 0.50 C 966 418 M
63 0 V
5918 0 R
-63 0 V
882 418 M
( 2.12132) Rshow
1.000 UL
LT0
0.50 0.50 0.50 C 1.000 UL
LTa
0.50 0.50 0.50 C 966 464 M
5981 0 V
stroke
LT0
0.50 0.50 0.50 C 966 464 M
63 0 V
5918 0 R
-63 0 V
882 464 M
( 2.82842) Rshow
1.000 UL
LT0
0.50 0.50 0.50 C 1.000 UL
LTa
0.50 0.50 0.50 C 966 510 M
5981 0 V
stroke
LT0
0.50 0.50 0.50 C 966 510 M
63 0 V
5918 0 R
-63 0 V
882 510 M
( 3.53553) Rshow
1.000 UL
LT0
0.50 0.50 0.50 C 1.000 UL
LTa
0.50 0.50 0.50 C 966 555 M
5981 0 V
stroke
LT0
0.50 0.50 0.50 C 966 555 M
63 0 V
5918 0 R
-63 0 V
882 555 M
( 4.24264) Rshow
1.000 UL
LT0
0.50 0.50 0.50 C 1.000 UL
LTa
0.50 0.50 0.50 C 966 601 M
5981 0 V
stroke
LT0
0.50 0.50 0.50 C 966 601 M
63 0 V
5918 0 R
-63 0 V
882 601 M
( 4.94974) Rshow
1.000 UL
LT0
0.50 0.50 0.50 C 1.000 UL
LTa
0.50 0.50 0.50 C 966 647 M
5981 0 V
stroke
LT0
0.50 0.50 0.50 C 966 647 M
63 0 V
5918 0 R
-63 0 V
882 647 M
( 5.65685) Rshow
1.000 UL
LT0
0.50 0.50 0.50 C 1.000 UL
LTa
0.50 0.50 0.50 C 966 693 M
5981 0 V
stroke
LT0
0.50 0.50 0.50 C 966 693 M
63 0 V
5918 0 R
-63 0 V
882 693 M
( 6.36395) Rshow
1.000 UL
LT0
0.50 0.50 0.50 C 1.000 UL
LTa
0.50 0.50 0.50 C 966 739 M
5981 0 V
stroke
LT0
0.50 0.50 0.50 C 966 739 M
63 0 V
5918 0 R
-63 0 V
882 739 M
( 7.07106) Rshow
1.000 UL
LT0
0.50 0.50 0.50 C 1.000 UL
LTa
0.50 0.50 0.50 C 966 785 M
5981 0 V
stroke
LT0
0.50 0.50 0.50 C 966 785 M
63 0 V
5918 0 R
-63 0 V
882 785 M
( 7.77817) Rshow
1.000 UL
LT0
0.50 0.50 0.50 C 1.000 UL
LTa
0.50 0.50 0.50 C 966 831 M
5981 0 V
stroke
LT0
0.50 0.50 0.50 C 966 831 M
63 0 V
5918 0 R
-63 0 V
882 831 M
( 8.48527) Rshow
1.000 UL
LT0
0.50 0.50 0.50 C 1.000 UL
LTa
0.50 0.50 0.50 C 966 877 M
5981 0 V
stroke
LT0
0.50 0.50 0.50 C 966 877 M
63 0 V
5918 0 R
-63 0 V
882 877 M
( 9.19238) Rshow
1.000 UL
LT0
0.50 0.50 0.50 C 1.000 UL
LTa
0.50 0.50 0.50 C 966 923 M
5981 0 V
stroke
LT0
0.50 0.50 0.50 C 966 923 M
63 0 V
5918 0 R
-63 0 V
882 923 M
( 9.89948) Rshow
1.000 UL
LT0
0.50 0.50 0.50 C 1.000 UL
LTa
0.50 0.50 0.50 C 966 969 M
5981 0 V
stroke
LT0
0.50 0.50 0.50 C 966 969 M
63 0 V
5918 0 R
-63 0 V
882 969 M
( 10.6066) Rshow
1.000 UL
LT0
0.50 0.50 0.50 C 1.000 UL
LTa
0.50 0.50 0.50 C 966 1015 M
5981 0 V
stroke
LT0
0.50 0.50 0.50 C 966 1015 M
63 0 V
5918 0 R
-63 0 V
-6002 0 R
( 11.3137) Rshow
1.000 UL
LT0
0.50 0.50 0.50 C 1.000 UL
LTa
0.50 0.50 0.50 C 966 1060 M
5981 0 V
stroke
LT0
0.50 0.50 0.50 C 966 1060 M
63 0 V
5918 0 R
-63 0 V
-6002 0 R
( 12.0208) Rshow
1.000 UL
LT0
0.50 0.50 0.50 C 1.000 UL
LTa
0.50 0.50 0.50 C 966 1106 M
5981 0 V
stroke
LT0
0.50 0.50 0.50 C 966 1106 M
63 0 V
5918 0 R
-63 0 V
-6002 0 R
( 12.7279) Rshow
1.000 UL
LT0
0.50 0.50 0.50 C 1.000 UL
LTa
0.50 0.50 0.50 C 966 1152 M
5981 0 V
stroke
LT0
0.50 0.50 0.50 C 966 1152 M
63 0 V
5918 0 R
-63 0 V
-6002 0 R
( 13.435) Rshow
1.000 UL
LT0
0.50 0.50 0.50 C 1.000 UL
LTa
0.50 0.50 0.50 C 966 1198 M
5981 0 V
stroke
LT0
0.50 0.50 0.50 C 966 1198 M
63 0 V
5918 0 R
-63 0 V
-6002 0 R
( 14.1421) Rshow
1.000 UL
LT0
0.50 0.50 0.50 C 1.000 UL
LTa
0.50 0.50 0.50 C 966 1244 M
5981 0 V
stroke
LT0
0.50 0.50 0.50 C 966 1244 M
63 0 V
5918 0 R
-63 0 V
-6002 0 R
( 14.8492) Rshow
1.000 UL
LT0
0.50 0.50 0.50 C 1.000 UL
LTa
0.50 0.50 0.50 C 966 1290 M
5981 0 V
stroke
LT0
0.50 0.50 0.50 C 966 1290 M
63 0 V
5918 0 R
-63 0 V
-6002 0 R
( 15.5563) Rshow
1.000 UL
LT0
0.50 0.50 0.50 C 1.000 UL
LTa
0.50 0.50 0.50 C 966 1336 M
5981 0 V
stroke
LT0
0.50 0.50 0.50 C 966 1336 M
63 0 V
5918 0 R
-63 0 V
-6002 0 R
( 16.2634) Rshow
1.000 UL
LT0
0.50 0.50 0.50 C 1.000 UL
LTa
0.50 0.50 0.50 C 966 1382 M
5981 0 V
stroke
LT0
0.50 0.50 0.50 C 966 1382 M
63 0 V
5918 0 R
-63 0 V
-6002 0 R
( 16.9705) Rshow
1.000 UL
LT0
0.50 0.50 0.50 C 1.000 UL
LTa
0.50 0.50 0.50 C 966 1428 M
5981 0 V
stroke
LT0
0.50 0.50 0.50 C 966 1428 M
63 0 V
5918 0 R
-63 0 V
-6002 0 R
( 17.6776) Rshow
1.000 UL
LT0
0.50 0.50 0.50 C 1.000 UL
LTa
0.50 0.50 0.50 C 966 1474 M
5981 0 V
stroke
LT0
0.50 0.50 0.50 C 966 1474 M
63 0 V
5918 0 R
-63 0 V
-6002 0 R
( 18.3848) Rshow
1.000 UL
LT0
0.50 0.50 0.50 C 1.000 UL
LTa
0.50 0.50 0.50 C 966 1520 M
5981 0 V
stroke
LT0
0.50 0.50 0.50 C 966 1520 M
63 0 V
5918 0 R
-63 0 V
-6002 0 R
( 19.0919) Rshow
1.000 UL
LT0
0.50 0.50 0.50 C 1.000 UL
LTa
0.50 0.50 0.50 C 966 1565 M
5981 0 V
stroke
LT0
0.50 0.50 0.50 C 966 1565 M
63 0 V
5918 0 R
-63 0 V
-6002 0 R
( 19.799) Rshow
1.000 UL
LT0
0.50 0.50 0.50 C 1.000 UL
LTa
0.50 0.50 0.50 C 966 1611 M
5981 0 V
stroke
LT0
0.50 0.50 0.50 C 966 1611 M
63 0 V
5918 0 R
-63 0 V
-6002 0 R
( 20.5061) Rshow
1.000 UL
LT0
0.50 0.50 0.50 C 1.000 UL
LTa
0.50 0.50 0.50 C 966 1657 M
5981 0 V
stroke
LT0
0.50 0.50 0.50 C 966 1657 M
63 0 V
5918 0 R
-63 0 V
-6002 0 R
( 21.2132) Rshow
1.000 UL
LT0
0.50 0.50 0.50 C 1.000 UL
LTa
0.50 0.50 0.50 C 966 1703 M
5981 0 V
stroke
LT0
0.50 0.50 0.50 C 966 1703 M
63 0 V
5918 0 R
-63 0 V
-6002 0 R
( 21.9203) Rshow
1.000 UL
LT0
0.50 0.50 0.50 C 1.000 UL
LTa
0.50 0.50 0.50 C 966 1749 M
5981 0 V
stroke
LT0
0.50 0.50 0.50 C 966 1749 M
63 0 V
5918 0 R
-63 0 V
-6002 0 R
( 22.6274) Rshow
1.000 UL
LT0
0.50 0.50 0.50 C 1.000 UL
LTa
0.50 0.50 0.50 C 966 1795 M
5981 0 V
stroke
LT0
0.50 0.50 0.50 C 966 1795 M
63 0 V
5918 0 R
-63 0 V
-6002 0 R
( 23.3345) Rshow
1.000 UL
LT0
0.50 0.50 0.50 C 1.000 UL
LTa
0.50 0.50 0.50 C 966 1841 M
5981 0 V
stroke
LT0
0.50 0.50 0.50 C 966 1841 M
63 0 V
5918 0 R
-63 0 V
-6002 0 R
( 24.0416) Rshow
1.000 UL
LT0
0.50 0.50 0.50 C 1.000 UL
LTa
0.50 0.50 0.50 C 966 1887 M
5981 0 V
stroke
LT0
0.50 0.50 0.50 C 966 1887 M
63 0 V
5918 0 R
-63 0 V
-6002 0 R
( 24.7487) Rshow
1.000 UL
LT0
0.50 0.50 0.50 C 1.000 UL
LTa
0.50 0.50 0.50 C 966 1933 M
5981 0 V
stroke
LT0
0.50 0.50 0.50 C 966 1933 M
63 0 V
5918 0 R
-63 0 V
-6002 0 R
( 25.4558) Rshow
1.000 UL
LT0
0.50 0.50 0.50 C 1.000 UL
LTa
0.50 0.50 0.50 C 966 1979 M
5981 0 V
stroke
LT0
0.50 0.50 0.50 C 966 1979 M
63 0 V
5918 0 R
-63 0 V
-6002 0 R
( 26.1629) Rshow
1.000 UL
LT0
0.50 0.50 0.50 C 1.000 UL
LTa
0.50 0.50 0.50 C 966 2025 M
5981 0 V
stroke
LT0
0.50 0.50 0.50 C 966 2025 M
63 0 V
5918 0 R
-63 0 V
-6002 0 R
( 26.87) Rshow
1.000 UL
LT0
0.50 0.50 0.50 C 1.000 UL
LTa
0.50 0.50 0.50 C 966 2070 M
5981 0 V
stroke
LT0
0.50 0.50 0.50 C 966 2070 M
63 0 V
5918 0 R
-63 0 V
-6002 0 R
( 27.5771) Rshow
1.000 UL
LT0
0.50 0.50 0.50 C 1.000 UL
LTa
0.50 0.50 0.50 C 966 2116 M
5981 0 V
stroke
LT0
0.50 0.50 0.50 C 966 2116 M
63 0 V
5918 0 R
-63 0 V
-6002 0 R
( 28.2842) Rshow
1.000 UL
LT0
0.50 0.50 0.50 C 1.000 UL
LTa
0.50 0.50 0.50 C 966 2162 M
5981 0 V
stroke
LT0
0.50 0.50 0.50 C 966 2162 M
63 0 V
5918 0 R
-63 0 V
-6002 0 R
( 28.9913) Rshow
1.000 UL
LT0
0.50 0.50 0.50 C 1.000 UL
LTa
0.50 0.50 0.50 C 966 2208 M
5981 0 V
stroke
LT0
0.50 0.50 0.50 C 966 2208 M
63 0 V
5918 0 R
-63 0 V
-6002 0 R
( 29.6985) Rshow
1.000 UL
LT0
0.50 0.50 0.50 C 1.000 UL
LTa
0.50 0.50 0.50 C 966 2254 M
5981 0 V
stroke
LT0
0.50 0.50 0.50 C 966 2254 M
63 0 V
5918 0 R
-63 0 V
-6002 0 R
( 30.4056) Rshow
1.000 UL
LT0
0.50 0.50 0.50 C 1.000 UL
LTa
0.50 0.50 0.50 C 966 2300 M
5981 0 V
stroke
LT0
0.50 0.50 0.50 C 966 2300 M
63 0 V
5918 0 R
-63 0 V
-6002 0 R
( 31.1127) Rshow
1.000 UL
LT0
0.50 0.50 0.50 C 1.000 UL
LTa
0.50 0.50 0.50 C 966 2346 M
5981 0 V
stroke
LT0
0.50 0.50 0.50 C 966 2346 M
63 0 V
5918 0 R
-63 0 V
-6002 0 R
( 31.8198) Rshow
1.000 UL
LT0
0.50 0.50 0.50 C 1.000 UL
LTa
0.50 0.50 0.50 C 966 2392 M
5981 0 V
stroke
LT0
0.50 0.50 0.50 C 966 2392 M
63 0 V
5918 0 R
-63 0 V
-6002 0 R
( 32.5269) Rshow
1.000 UL
LT0
0.50 0.50 0.50 C 1.000 UL
LTa
0.50 0.50 0.50 C 966 2438 M
5981 0 V
stroke
LT0
0.50 0.50 0.50 C 966 2438 M
63 0 V
5918 0 R
-63 0 V
-6002 0 R
( 33.234) Rshow
1.000 UL
LT0
0.50 0.50 0.50 C 1.000 UL
LTa
0.50 0.50 0.50 C 966 2484 M
5981 0 V
stroke
LT0
0.50 0.50 0.50 C 966 2484 M
63 0 V
5918 0 R
-63 0 V
-6002 0 R
( 33.9411) Rshow
1.000 UL
LT0
0.50 0.50 0.50 C 1.000 UL
LTa
0.50 0.50 0.50 C 966 2530 M
5981 0 V
stroke
LT0
0.50 0.50 0.50 C 966 2530 M
63 0 V
5918 0 R
-63 0 V
-6002 0 R
( 34.6482) Rshow
1.000 UL
LT0
0.50 0.50 0.50 C 1.000 UL
LTa
0.50 0.50 0.50 C 966 2576 M
5981 0 V
stroke
LT0
0.50 0.50 0.50 C 966 2576 M
63 0 V
5918 0 R
-63 0 V
-6002 0 R
( 35.3553) Rshow
1.000 UL
LT0
0.50 0.50 0.50 C 1.000 UL
LTa
0.50 0.50 0.50 C 966 2621 M
5981 0 V
stroke
LT0
0.50 0.50 0.50 C 966 2621 M
63 0 V
5918 0 R
-63 0 V
-6002 0 R
( 36.0624) Rshow
1.000 UL
LT0
0.50 0.50 0.50 C 1.000 UL
LTa
0.50 0.50 0.50 C 966 2667 M
5981 0 V
stroke
LT0
0.50 0.50 0.50 C 966 2667 M
63 0 V
5918 0 R
-63 0 V
-6002 0 R
( 36.7695) Rshow
1.000 UL
LT0
0.50 0.50 0.50 C 1.000 UL
LTa
0.50 0.50 0.50 C 966 2713 M
5981 0 V
stroke
LT0
0.50 0.50 0.50 C 966 2713 M
63 0 V
5918 0 R
-63 0 V
-6002 0 R
( 37.4766) Rshow
1.000 UL
LT0
0.50 0.50 0.50 C 1.000 UL
LTa
0.50 0.50 0.50 C 966 2759 M
5981 0 V
stroke
LT0
0.50 0.50 0.50 C 966 2759 M
63 0 V
5918 0 R
-63 0 V
-6002 0 R
( 38.1837) Rshow
1.000 UL
LT0
0.50 0.50 0.50 C 1.000 UL
LTa
0.50 0.50 0.50 C 966 2805 M
5981 0 V
stroke
LT0
0.50 0.50 0.50 C 966 2805 M
63 0 V
5918 0 R
-63 0 V
-6002 0 R
( 38.8908) Rshow
1.000 UL
LT0
0.50 0.50 0.50 C 1.000 UL
LTa
0.50 0.50 0.50 C 966 2851 M
5981 0 V
stroke
LT0
0.50 0.50 0.50 C 966 2851 M
63 0 V
5918 0 R
-63 0 V
-6002 0 R
( 39.5979) Rshow
1.000 UL
LT0
0.50 0.50 0.50 C 1.000 UL
LTa
0.50 0.50 0.50 C 966 2897 M
5981 0 V
stroke
LT0
0.50 0.50 0.50 C 966 2897 M
63 0 V
5918 0 R
-63 0 V
-6002 0 R
( 40.305) Rshow
1.000 UL
LT0
0.50 0.50 0.50 C 1.000 UL
LTa
0.50 0.50 0.50 C 966 2943 M
5981 0 V
stroke
LT0
0.50 0.50 0.50 C 966 2943 M
63 0 V
5918 0 R
-63 0 V
-6002 0 R
( 41.0121) Rshow
1.000 UL
LT0
0.50 0.50 0.50 C 1.000 UL
LTa
0.50 0.50 0.50 C 966 2989 M
5981 0 V
stroke
LT0
0.50 0.50 0.50 C 966 2989 M
63 0 V
5918 0 R
-63 0 V
-6002 0 R
( 41.7193) Rshow
1.000 UL
LT0
0.50 0.50 0.50 C 1.000 UL
LTa
0.50 0.50 0.50 C 966 3035 M
5981 0 V
stroke
LT0
0.50 0.50 0.50 C 966 3035 M
63 0 V
5918 0 R
-63 0 V
-6002 0 R
( 42.4264) Rshow
1.000 UL
LT0
0.50 0.50 0.50 C 1.000 UL
LTa
0.50 0.50 0.50 C 966 3081 M
5981 0 V
stroke
LT0
0.50 0.50 0.50 C 966 3081 M
63 0 V
5918 0 R
-63 0 V
-6002 0 R
( 43.1335) Rshow
1.000 UL
LT0
0.50 0.50 0.50 C 1.000 UL
LTa
0.50 0.50 0.50 C 966 3126 M
5981 0 V
stroke
LT0
0.50 0.50 0.50 C 966 3126 M
63 0 V
5918 0 R
-63 0 V
-6002 0 R
( 43.8406) Rshow
1.000 UL
LT0
0.50 0.50 0.50 C 1.000 UL
LTa
0.50 0.50 0.50 C 966 3172 M
5981 0 V
stroke
LT0
0.50 0.50 0.50 C 966 3172 M
63 0 V
5918 0 R
-63 0 V
-6002 0 R
( 44.5477) Rshow
1.000 UL
LT0
0.50 0.50 0.50 C 1.000 UL
LTa
0.50 0.50 0.50 C 966 3218 M
5981 0 V
stroke
LT0
0.50 0.50 0.50 C 966 3218 M
63 0 V
5918 0 R
-63 0 V
-6002 0 R
( 45.2548) Rshow
1.000 UL
LT0
0.50 0.50 0.50 C 1.000 UL
LTa
0.50 0.50 0.50 C 966 3264 M
5981 0 V
stroke
LT0
0.50 0.50 0.50 C 966 3264 M
63 0 V
5918 0 R
-63 0 V
-6002 0 R
( 45.9619) Rshow
1.000 UL
LT0
0.50 0.50 0.50 C 1.000 UL
LTa
0.50 0.50 0.50 C 966 3310 M
5981 0 V
stroke
LT0
0.50 0.50 0.50 C 966 3310 M
63 0 V
5918 0 R
-63 0 V
-6002 0 R
( 46.669) Rshow
1.000 UL
LT0
0.50 0.50 0.50 C 1.000 UL
LTa
0.50 0.50 0.50 C 966 3356 M
5981 0 V
stroke
LT0
0.50 0.50 0.50 C 966 3356 M
63 0 V
5918 0 R
-63 0 V
-6002 0 R
( 47.3761) Rshow
1.000 UL
LT0
0.50 0.50 0.50 C 1.000 UL
LTa
0.50 0.50 0.50 C 966 3402 M
5981 0 V
stroke
LT0
0.50 0.50 0.50 C 966 3402 M
63 0 V
5918 0 R
-63 0 V
-6002 0 R
( 48.0832) Rshow
1.000 UL
LT0
0.50 0.50 0.50 C 1.000 UL
LTa
0.50 0.50 0.50 C 966 3448 M
5981 0 V
stroke
LT0
0.50 0.50 0.50 C 966 3448 M
63 0 V
5918 0 R
-63 0 V
-6002 0 R
( 48.7903) Rshow
1.000 UL
LT0
0.50 0.50 0.50 C 1.000 UL
LTa
0.50 0.50 0.50 C 966 3494 M
5981 0 V
stroke
LT0
0.50 0.50 0.50 C 966 3494 M
63 0 V
5918 0 R
-63 0 V
-6002 0 R
( 49.4974) Rshow
1.000 UL
LT0
0.50 0.50 0.50 C 1.000 UL
LTa
0.50 0.50 0.50 C 966 3540 M
5981 0 V
stroke
LT0
0.50 0.50 0.50 C 966 3540 M
63 0 V
5918 0 R
-63 0 V
-6002 0 R
( 50.2045) Rshow
1.000 UL
LT0
0.50 0.50 0.50 C 1.000 UL
LTa
0.50 0.50 0.50 C 966 3586 M
5981 0 V
stroke
LT0
0.50 0.50 0.50 C 966 3586 M
63 0 V
5918 0 R
-63 0 V
-6002 0 R
( 50.9116) Rshow
1.000 UL
LT0
0.50 0.50 0.50 C 1.000 UL
LTa
0.50 0.50 0.50 C 966 3631 M
5981 0 V
stroke
LT0
0.50 0.50 0.50 C 966 3631 M
63 0 V
5918 0 R
-63 0 V
-6002 0 R
( 51.6187) Rshow
1.000 UL
LT0
0.50 0.50 0.50 C 1.000 UL
LTa
0.50 0.50 0.50 C 966 3677 M
5981 0 V
stroke
LT0
0.50 0.50 0.50 C 966 3677 M
63 0 V
5918 0 R
-63 0 V
-6002 0 R
( 52.3258) Rshow
1.000 UL
LT0
0.50 0.50 0.50 C 1.000 UL
LTa
0.50 0.50 0.50 C 966 3723 M
5981 0 V
stroke
LT0
0.50 0.50 0.50 C 966 3723 M
63 0 V
5918 0 R
-63 0 V
-6002 0 R
( 53.033) Rshow
1.000 UL
LT0
0.50 0.50 0.50 C 1.000 UL
LTa
0.50 0.50 0.50 C 966 3769 M
5981 0 V
stroke
LT0
0.50 0.50 0.50 C 966 3769 M
63 0 V
5918 0 R
-63 0 V
-6002 0 R
( 53.7401) Rshow
1.000 UL
LT0
0.50 0.50 0.50 C 1.000 UL
LTa
0.50 0.50 0.50 C 966 3815 M
5981 0 V
stroke
LT0
0.50 0.50 0.50 C 966 3815 M
63 0 V
5918 0 R
-63 0 V
-6002 0 R
( 54.4472) Rshow
1.000 UL
LT0
0.50 0.50 0.50 C 1.000 UL
LTa
0.50 0.50 0.50 C 966 3861 M
5981 0 V
stroke
LT0
0.50 0.50 0.50 C 966 3861 M
63 0 V
5918 0 R
-63 0 V
-6002 0 R
( 55.1543) Rshow
1.000 UL
LT0
0.50 0.50 0.50 C 1.000 UL
LTa
0.50 0.50 0.50 C 966 3907 M
5981 0 V
stroke
LT0
0.50 0.50 0.50 C 966 3907 M
63 0 V
5918 0 R
-63 0 V
-6002 0 R
( 55.8614) Rshow
1.000 UL
LT0
0.50 0.50 0.50 C 1.000 UL
LTa
0.50 0.50 0.50 C 966 3953 M
5981 0 V
stroke
LT0
0.50 0.50 0.50 C 966 3953 M
63 0 V
5918 0 R
-63 0 V
-6002 0 R
( 56.5685) Rshow
1.000 UL
LT0
0.50 0.50 0.50 C 1.000 UL
LTa
0.50 0.50 0.50 C 966 3999 M
5981 0 V
stroke
LT0
0.50 0.50 0.50 C 966 3999 M
63 0 V
5918 0 R
-63 0 V
-6002 0 R
( 57.2756) Rshow
1.000 UL
LT0
0.50 0.50 0.50 C 1.000 UL
LTa
0.50 0.50 0.50 C 966 4045 M
5981 0 V
stroke
LT0
0.50 0.50 0.50 C 966 4045 M
63 0 V
5918 0 R
-63 0 V
-6002 0 R
( 57.9827) Rshow
1.000 UL
LT0
0.50 0.50 0.50 C 1.000 UL
LTa
0.50 0.50 0.50 C 966 4091 M
5981 0 V
stroke
LT0
0.50 0.50 0.50 C 966 4091 M
63 0 V
5918 0 R
-63 0 V
-6002 0 R
( 58.6898) Rshow
1.000 UL
LT0
0.50 0.50 0.50 C 1.000 UL
LTa
0.50 0.50 0.50 C 966 4136 M
5981 0 V
stroke
LT0
0.50 0.50 0.50 C 966 4136 M
63 0 V
5918 0 R
-63 0 V
-6002 0 R
( 59.3969) Rshow
1.000 UL
LT0
0.50 0.50 0.50 C 1.000 UL
LTa
0.50 0.50 0.50 C 966 4182 M
5981 0 V
stroke
LT0
0.50 0.50 0.50 C 966 4182 M
63 0 V
5918 0 R
-63 0 V
-6002 0 R
( 60.104) Rshow
1.000 UL
LT0
0.50 0.50 0.50 C 1.000 UL
LTa
0.50 0.50 0.50 C 966 4228 M
5981 0 V
stroke
LT0
0.50 0.50 0.50 C 966 4228 M
63 0 V
5918 0 R
-63 0 V
-6002 0 R
( 60.8111) Rshow
1.000 UL
LT0
0.50 0.50 0.50 C 1.000 UL
LTa
0.50 0.50 0.50 C 966 4274 M
5981 0 V
stroke
LT0
0.50 0.50 0.50 C 966 4274 M
63 0 V
5918 0 R
-63 0 V
-6002 0 R
( 61.5182) Rshow
1.000 UL
LT0
0.50 0.50 0.50 C 1.000 UL
LTa
0.50 0.50 0.50 C 966 4320 M
5981 0 V
stroke
LT0
0.50 0.50 0.50 C 966 4320 M
63 0 V
5918 0 R
-63 0 V
-6002 0 R
( 62.2253) Rshow
1.000 UL
LT0
0.50 0.50 0.50 C 1.000 UL
LTa
0.50 0.50 0.50 C 966 4366 M
5981 0 V
stroke
LT0
0.50 0.50 0.50 C 966 4366 M
63 0 V
5918 0 R
-63 0 V
-6002 0 R
( 62.9324) Rshow
1.000 UL
LT0
0.50 0.50 0.50 C 1.000 UL
LTa
0.50 0.50 0.50 C 966 4412 M
5981 0 V
stroke
LT0
0.50 0.50 0.50 C 966 4412 M
63 0 V
5918 0 R
-63 0 V
-6002 0 R
( 63.6395) Rshow
1.000 UL
LT0
0.50 0.50 0.50 C 1.000 UL
LTa
0.50 0.50 0.50 C 966 4458 M
5981 0 V
stroke
LT0
0.50 0.50 0.50 C 966 4458 M
63 0 V
5918 0 R
-63 0 V
-6002 0 R
( 64.3466) Rshow
1.000 UL
LT0
0.50 0.50 0.50 C 1.000 UL
LTa
0.50 0.50 0.50 C 966 4504 M
5981 0 V
stroke
LT0
0.50 0.50 0.50 C 966 4504 M
63 0 V
5918 0 R
-63 0 V
-6002 0 R
( 65.0538) Rshow
1.000 UL
LT0
0.50 0.50 0.50 C 1.000 UL
LTa
0.50 0.50 0.50 C 966 4550 M
5981 0 V
stroke
LT0
0.50 0.50 0.50 C 966 4550 M
63 0 V
5918 0 R
-63 0 V
-6002 0 R
( 65.7609) Rshow
1.000 UL
LT0
0.50 0.50 0.50 C 1.000 UL
LTa
0.50 0.50 0.50 C 966 4596 M
5981 0 V
stroke
LT0
0.50 0.50 0.50 C 966 4596 M
63 0 V
5918 0 R
-63 0 V
-6002 0 R
( 66.468) Rshow
1.000 UL
LT0
0.50 0.50 0.50 C 1.000 UL
LTa
0.50 0.50 0.50 C 966 4641 M
5981 0 V
stroke
LT0
0.50 0.50 0.50 C 966 4641 M
63 0 V
5918 0 R
-63 0 V
-6002 0 R
( 67.1751) Rshow
1.000 UL
LT0
0.50 0.50 0.50 C 1.000 UL
LTa
0.50 0.50 0.50 C 966 4687 M
5981 0 V
stroke
LT0
0.50 0.50 0.50 C 966 4687 M
63 0 V
5918 0 R
-63 0 V
-6002 0 R
( 67.8822) Rshow
1.000 UL
LT0
0.50 0.50 0.50 C 1.000 UL
LTa
0.50 0.50 0.50 C 966 4733 M
5981 0 V
stroke
LT0
0.50 0.50 0.50 C 966 4733 M
63 0 V
5918 0 R
-63 0 V
-6002 0 R
( 68.5893) Rshow
1.000 UL
LT0
0.50 0.50 0.50 C 1.000 UL
LTa
0.50 0.50 0.50 C 966 4779 M
5981 0 V
stroke
LT0
0.50 0.50 0.50 C 966 4779 M
63 0 V
5918 0 R
-63 0 V
-6002 0 R
( 69.2964) Rshow
1.000 UL
LT0
0.50 0.50 0.50 C 1.000 UL
LTa
0.50 0.50 0.50 C 966 4825 M
5981 0 V
stroke
LT0
0.50 0.50 0.50 C 966 4825 M
63 0 V
5918 0 R
-63 0 V
-6002 0 R
( 70.0035) Rshow
1.000 UL
LT0
0.50 0.50 0.50 C 1.000 UL
LTa
0.50 0.50 0.50 C 966 4871 M
5981 0 V
stroke
LT0
0.50 0.50 0.50 C 966 4871 M
63 0 V
5918 0 R
-63 0 V
-6002 0 R
( 70.7106) Rshow
1.000 UL
LT0
0.50 0.50 0.50 C 1.000 UL
LTa
0.50 0.50 0.50 C 966 280 M
0 4591 V
stroke
LT0
0.50 0.50 0.50 C 966 280 M
0 63 V
0 4528 R
0 -63 V
966 140 M
( 0) Cshow
1.000 UL
LT0
0.50 0.50 0.50 C 1.000 UL
LTa
0.50 0.50 0.50 C 1026 280 M
0 4591 V
stroke
LT0
0.50 0.50 0.50 C 1026 280 M
0 63 V
0 4528 R
0 -63 V
0 -4668 R
( 0.707106) Cshow
1.000 UL
LT0
0.50 0.50 0.50 C 1.000 UL
LTa
0.50 0.50 0.50 C 1086 280 M
0 4591 V
stroke
LT0
0.50 0.50 0.50 C 1086 280 M
0 63 V
0 4528 R
0 -63 V
0 -4668 R
( 1.41421) Cshow
1.000 UL
LT0
0.50 0.50 0.50 C 1.000 UL
LTa
0.50 0.50 0.50 C 1145 280 M
0 4591 V
stroke
LT0
0.50 0.50 0.50 C 1145 280 M
0 63 V
0 4528 R
0 -63 V
0 -4668 R
( 2.12132) Cshow
1.000 UL
LT0
0.50 0.50 0.50 C 1.000 UL
LTa
0.50 0.50 0.50 C 1205 280 M
0 4591 V
stroke
LT0
0.50 0.50 0.50 C 1205 280 M
0 63 V
0 4528 R
0 -63 V
0 -4668 R
( 2.82842) Cshow
1.000 UL
LT0
0.50 0.50 0.50 C 1.000 UL
LTa
0.50 0.50 0.50 C 1265 280 M
0 4591 V
stroke
LT0
0.50 0.50 0.50 C 1265 280 M
0 63 V
0 4528 R
0 -63 V
0 -4668 R
( 3.53553) Cshow
1.000 UL
LT0
0.50 0.50 0.50 C 1.000 UL
LTa
0.50 0.50 0.50 C 1325 280 M
0 4591 V
stroke
LT0
0.50 0.50 0.50 C 1325 280 M
0 63 V
0 4528 R
0 -63 V
0 -4668 R
( 4.24264) Cshow
1.000 UL
LT0
0.50 0.50 0.50 C 1.000 UL
LTa
0.50 0.50 0.50 C 1385 280 M
0 4591 V
stroke
LT0
0.50 0.50 0.50 C 1385 280 M
0 63 V
0 4528 R
0 -63 V
0 -4668 R
( 4.94974) Cshow
1.000 UL
LT0
0.50 0.50 0.50 C 1.000 UL
LTa
0.50 0.50 0.50 C 1444 280 M
0 4591 V
stroke
LT0
0.50 0.50 0.50 C 1444 280 M
0 63 V
0 4528 R
0 -63 V
0 -4668 R
( 5.65685) Cshow
1.000 UL
LT0
0.50 0.50 0.50 C 1.000 UL
LTa
0.50 0.50 0.50 C 1504 280 M
0 4591 V
stroke
LT0
0.50 0.50 0.50 C 1504 280 M
0 63 V
0 4528 R
0 -63 V
0 -4668 R
( 6.36395) Cshow
1.000 UL
LT0
0.50 0.50 0.50 C 1.000 UL
LTa
0.50 0.50 0.50 C 1564 280 M
0 4591 V
stroke
LT0
0.50 0.50 0.50 C 1564 280 M
0 63 V
0 4528 R
0 -63 V
0 -4668 R
( 7.07106) Cshow
1.000 UL
LT0
0.50 0.50 0.50 C 1.000 UL
LTa
0.50 0.50 0.50 C 1624 280 M
0 4591 V
stroke
LT0
0.50 0.50 0.50 C 1624 280 M
0 63 V
0 4528 R
0 -63 V
0 -4668 R
( 7.77817) Cshow
1.000 UL
LT0
0.50 0.50 0.50 C 1.000 UL
LTa
0.50 0.50 0.50 C 1684 280 M
0 4591 V
stroke
LT0
0.50 0.50 0.50 C 1684 280 M
0 63 V
0 4528 R
0 -63 V
0 -4668 R
( 8.48527) Cshow
1.000 UL
LT0
0.50 0.50 0.50 C 1.000 UL
LTa
0.50 0.50 0.50 C 1744 280 M
0 4591 V
stroke
LT0
0.50 0.50 0.50 C 1744 280 M
0 63 V
0 4528 R
0 -63 V
0 -4668 R
( 9.19238) Cshow
1.000 UL
LT0
0.50 0.50 0.50 C 1.000 UL
LTa
0.50 0.50 0.50 C 1803 280 M
0 4591 V
stroke
LT0
0.50 0.50 0.50 C 1803 280 M
0 63 V
0 4528 R
0 -63 V
0 -4668 R
( 9.89948) Cshow
1.000 UL
LT0
0.50 0.50 0.50 C 1.000 UL
LTa
0.50 0.50 0.50 C 1863 280 M
0 4591 V
stroke
LT0
0.50 0.50 0.50 C 1863 280 M
0 63 V
0 4528 R
0 -63 V
0 -4668 R
( 10.6066) Cshow
1.000 UL
LT0
0.50 0.50 0.50 C 1.000 UL
LTa
0.50 0.50 0.50 C 1923 280 M
0 4591 V
stroke
LT0
0.50 0.50 0.50 C 1923 280 M
0 63 V
0 4528 R
0 -63 V
0 -4668 R
( 11.3137) Cshow
1.000 UL
LT0
0.50 0.50 0.50 C 1.000 UL
LTa
0.50 0.50 0.50 C 1983 280 M
0 4591 V
stroke
LT0
0.50 0.50 0.50 C 1983 280 M
0 63 V
0 4528 R
0 -63 V
0 -4668 R
( 12.0208) Cshow
1.000 UL
LT0
0.50 0.50 0.50 C 1.000 UL
LTa
0.50 0.50 0.50 C 2043 280 M
0 4591 V
stroke
LT0
0.50 0.50 0.50 C 2043 280 M
0 63 V
0 4528 R
0 -63 V
0 -4668 R
( 12.7279) Cshow
1.000 UL
LT0
0.50 0.50 0.50 C 1.000 UL
LTa
0.50 0.50 0.50 C 2102 280 M
0 4591 V
stroke
LT0
0.50 0.50 0.50 C 2102 280 M
0 63 V
0 4528 R
0 -63 V
0 -4668 R
( 13.435) Cshow
1.000 UL
LT0
0.50 0.50 0.50 C 1.000 UL
LTa
0.50 0.50 0.50 C 2162 280 M
0 4591 V
stroke
LT0
0.50 0.50 0.50 C 2162 280 M
0 63 V
0 4528 R
0 -63 V
0 -4668 R
( 14.1421) Cshow
1.000 UL
LT0
0.50 0.50 0.50 C 1.000 UL
LTa
0.50 0.50 0.50 C 2222 280 M
0 4591 V
stroke
LT0
0.50 0.50 0.50 C 2222 280 M
0 63 V
0 4528 R
0 -63 V
0 -4668 R
( 14.8492) Cshow
1.000 UL
LT0
0.50 0.50 0.50 C 1.000 UL
LTa
0.50 0.50 0.50 C 2282 280 M
0 4591 V
stroke
LT0
0.50 0.50 0.50 C 2282 280 M
0 63 V
0 4528 R
0 -63 V
0 -4668 R
( 15.5563) Cshow
1.000 UL
LT0
0.50 0.50 0.50 C 1.000 UL
LTa
0.50 0.50 0.50 C 2342 280 M
0 4591 V
stroke
LT0
0.50 0.50 0.50 C 2342 280 M
0 63 V
0 4528 R
0 -63 V
0 -4668 R
( 16.2634) Cshow
1.000 UL
LT0
0.50 0.50 0.50 C 1.000 UL
LTa
0.50 0.50 0.50 C 2401 280 M
0 4591 V
stroke
LT0
0.50 0.50 0.50 C 2401 280 M
0 63 V
0 4528 R
0 -63 V
0 -4668 R
( 16.9705) Cshow
1.000 UL
LT0
0.50 0.50 0.50 C 1.000 UL
LTa
0.50 0.50 0.50 C 2461 280 M
0 4591 V
stroke
LT0
0.50 0.50 0.50 C 2461 280 M
0 63 V
0 4528 R
0 -63 V
0 -4668 R
( 17.6776) Cshow
1.000 UL
LT0
0.50 0.50 0.50 C 1.000 UL
LTa
0.50 0.50 0.50 C 2521 280 M
0 4591 V
stroke
LT0
0.50 0.50 0.50 C 2521 280 M
0 63 V
0 4528 R
0 -63 V
0 -4668 R
( 18.3848) Cshow
1.000 UL
LT0
0.50 0.50 0.50 C 1.000 UL
LTa
0.50 0.50 0.50 C 2581 280 M
0 4591 V
stroke
LT0
0.50 0.50 0.50 C 2581 280 M
0 63 V
0 4528 R
0 -63 V
0 -4668 R
( 19.0919) Cshow
1.000 UL
LT0
0.50 0.50 0.50 C 1.000 UL
LTa
0.50 0.50 0.50 C 2641 280 M
0 4591 V
stroke
LT0
0.50 0.50 0.50 C 2641 280 M
0 63 V
0 4528 R
0 -63 V
0 -4668 R
( 19.799) Cshow
1.000 UL
LT0
0.50 0.50 0.50 C 1.000 UL
LTa
0.50 0.50 0.50 C 2700 280 M
0 4591 V
stroke
LT0
0.50 0.50 0.50 C 2700 280 M
0 63 V
0 4528 R
0 -63 V
0 -4668 R
( 20.5061) Cshow
1.000 UL
LT0
0.50 0.50 0.50 C 1.000 UL
LTa
0.50 0.50 0.50 C 2760 280 M
0 4591 V
stroke
LT0
0.50 0.50 0.50 C 2760 280 M
0 63 V
0 4528 R
0 -63 V
0 -4668 R
( 21.2132) Cshow
1.000 UL
LT0
0.50 0.50 0.50 C 1.000 UL
LTa
0.50 0.50 0.50 C 2820 280 M
0 4591 V
stroke
LT0
0.50 0.50 0.50 C 2820 280 M
0 63 V
0 4528 R
0 -63 V
0 -4668 R
( 21.9203) Cshow
1.000 UL
LT0
0.50 0.50 0.50 C 1.000 UL
LTa
0.50 0.50 0.50 C 2880 280 M
0 4591 V
stroke
LT0
0.50 0.50 0.50 C 2880 280 M
0 63 V
0 4528 R
0 -63 V
0 -4668 R
( 22.6274) Cshow
1.000 UL
LT0
0.50 0.50 0.50 C 1.000 UL
LTa
0.50 0.50 0.50 C 2940 280 M
0 4591 V
stroke
LT0
0.50 0.50 0.50 C 2940 280 M
0 63 V
0 4528 R
0 -63 V
0 -4668 R
( 23.3345) Cshow
1.000 UL
LT0
0.50 0.50 0.50 C 1.000 UL
LTa
0.50 0.50 0.50 C 3000 280 M
0 4591 V
stroke
LT0
0.50 0.50 0.50 C 3000 280 M
0 63 V
0 4528 R
0 -63 V
0 -4668 R
( 24.0416) Cshow
1.000 UL
LT0
0.50 0.50 0.50 C 1.000 UL
LTa
0.50 0.50 0.50 C 3059 280 M
0 4591 V
stroke
LT0
0.50 0.50 0.50 C 3059 280 M
0 63 V
0 4528 R
0 -63 V
0 -4668 R
( 24.7487) Cshow
1.000 UL
LT0
0.50 0.50 0.50 C 1.000 UL
LTa
0.50 0.50 0.50 C 3119 280 M
0 4591 V
stroke
LT0
0.50 0.50 0.50 C 3119 280 M
0 63 V
0 4528 R
0 -63 V
0 -4668 R
( 25.4558) Cshow
1.000 UL
LT0
0.50 0.50 0.50 C 1.000 UL
LTa
0.50 0.50 0.50 C 3179 280 M
0 4591 V
stroke
LT0
0.50 0.50 0.50 C 3179 280 M
0 63 V
0 4528 R
0 -63 V
0 -4668 R
( 26.1629) Cshow
1.000 UL
LT0
0.50 0.50 0.50 C 1.000 UL
LTa
0.50 0.50 0.50 C 3239 280 M
0 4591 V
stroke
LT0
0.50 0.50 0.50 C 3239 280 M
0 63 V
0 4528 R
0 -63 V
0 -4668 R
( 26.87) Cshow
1.000 UL
LT0
0.50 0.50 0.50 C 1.000 UL
LTa
0.50 0.50 0.50 C 3299 280 M
0 4591 V
stroke
LT0
0.50 0.50 0.50 C 3299 280 M
0 63 V
0 4528 R
0 -63 V
0 -4668 R
( 27.5771) Cshow
1.000 UL
LT0
0.50 0.50 0.50 C 1.000 UL
LTa
0.50 0.50 0.50 C 3358 280 M
0 4591 V
stroke
LT0
0.50 0.50 0.50 C 3358 280 M
0 63 V
0 4528 R
0 -63 V
0 -4668 R
( 28.2842) Cshow
1.000 UL
LT0
0.50 0.50 0.50 C 1.000 UL
LTa
0.50 0.50 0.50 C 3418 280 M
0 4591 V
stroke
LT0
0.50 0.50 0.50 C 3418 280 M
0 63 V
0 4528 R
0 -63 V
0 -4668 R
( 28.9913) Cshow
1.000 UL
LT0
0.50 0.50 0.50 C 1.000 UL
LTa
0.50 0.50 0.50 C 3478 280 M
0 4591 V
stroke
LT0
0.50 0.50 0.50 C 3478 280 M
0 63 V
0 4528 R
0 -63 V
0 -4668 R
( 29.6985) Cshow
1.000 UL
LT0
0.50 0.50 0.50 C 1.000 UL
LTa
0.50 0.50 0.50 C 3538 280 M
0 4591 V
stroke
LT0
0.50 0.50 0.50 C 3538 280 M
0 63 V
0 4528 R
0 -63 V
0 -4668 R
( 30.4056) Cshow
1.000 UL
LT0
0.50 0.50 0.50 C 1.000 UL
LTa
0.50 0.50 0.50 C 3598 280 M
0 4591 V
stroke
LT0
0.50 0.50 0.50 C 3598 280 M
0 63 V
0 4528 R
0 -63 V
0 -4668 R
( 31.1127) Cshow
1.000 UL
LT0
0.50 0.50 0.50 C 1.000 UL
LTa
0.50 0.50 0.50 C 3657 280 M
0 4591 V
stroke
LT0
0.50 0.50 0.50 C 3657 280 M
0 63 V
0 4528 R
0 -63 V
0 -4668 R
( 31.8198) Cshow
1.000 UL
LT0
0.50 0.50 0.50 C 1.000 UL
LTa
0.50 0.50 0.50 C 3717 280 M
0 4591 V
stroke
LT0
0.50 0.50 0.50 C 3717 280 M
0 63 V
0 4528 R
0 -63 V
0 -4668 R
( 32.5269) Cshow
1.000 UL
LT0
0.50 0.50 0.50 C 1.000 UL
LTa
0.50 0.50 0.50 C 3777 280 M
0 4591 V
stroke
LT0
0.50 0.50 0.50 C 3777 280 M
0 63 V
0 4528 R
0 -63 V
0 -4668 R
( 33.234) Cshow
1.000 UL
LT0
0.50 0.50 0.50 C 1.000 UL
LTa
0.50 0.50 0.50 C 3837 280 M
0 4591 V
stroke
LT0
0.50 0.50 0.50 C 3837 280 M
0 63 V
0 4528 R
0 -63 V
0 -4668 R
( 33.9411) Cshow
1.000 UL
LT0
0.50 0.50 0.50 C 1.000 UL
LTa
0.50 0.50 0.50 C 3897 280 M
0 4591 V
stroke
LT0
0.50 0.50 0.50 C 3897 280 M
0 63 V
0 4528 R
0 -63 V
0 -4668 R
( 34.6482) Cshow
1.000 UL
LT0
0.50 0.50 0.50 C 1.000 UL
LTa
0.50 0.50 0.50 C 3957 280 M
0 4591 V
stroke
LT0
0.50 0.50 0.50 C 3957 280 M
0 63 V
0 4528 R
0 -63 V
0 -4668 R
( 35.3553) Cshow
1.000 UL
LT0
0.50 0.50 0.50 C 1.000 UL
LTa
0.50 0.50 0.50 C 4016 280 M
0 4591 V
stroke
LT0
0.50 0.50 0.50 C 4016 280 M
0 63 V
0 4528 R
0 -63 V
0 -4668 R
( 36.0624) Cshow
1.000 UL
LT0
0.50 0.50 0.50 C 1.000 UL
LTa
0.50 0.50 0.50 C 4076 280 M
0 4591 V
stroke
LT0
0.50 0.50 0.50 C 4076 280 M
0 63 V
0 4528 R
0 -63 V
0 -4668 R
( 36.7695) Cshow
1.000 UL
LT0
0.50 0.50 0.50 C 1.000 UL
LTa
0.50 0.50 0.50 C 4136 280 M
0 4591 V
stroke
LT0
0.50 0.50 0.50 C 4136 280 M
0 63 V
0 4528 R
0 -63 V
0 -4668 R
( 37.4766) Cshow
1.000 UL
LT0
0.50 0.50 0.50 C 1.000 UL
LTa
0.50 0.50 0.50 C 4196 280 M
0 4591 V
stroke
LT0
0.50 0.50 0.50 C 4196 280 M
0 63 V
0 4528 R
0 -63 V
0 -4668 R
( 38.1837) Cshow
1.000 UL
LT0
0.50 0.50 0.50 C 1.000 UL
LTa
0.50 0.50 0.50 C 4256 280 M
0 4591 V
stroke
LT0
0.50 0.50 0.50 C 4256 280 M
0 63 V
0 4528 R
0 -63 V
0 -4668 R
( 38.8908) Cshow
1.000 UL
LT0
0.50 0.50 0.50 C 1.000 UL
LTa
0.50 0.50 0.50 C 4315 280 M
0 4591 V
stroke
LT0
0.50 0.50 0.50 C 4315 280 M
0 63 V
0 4528 R
0 -63 V
0 -4668 R
( 39.5979) Cshow
1.000 UL
LT0
0.50 0.50 0.50 C 1.000 UL
LTa
0.50 0.50 0.50 C 4375 280 M
0 4591 V
stroke
LT0
0.50 0.50 0.50 C 4375 280 M
0 63 V
0 4528 R
0 -63 V
0 -4668 R
( 40.305) Cshow
1.000 UL
LT0
0.50 0.50 0.50 C 1.000 UL
LTa
0.50 0.50 0.50 C 4435 280 M
0 4591 V
stroke
LT0
0.50 0.50 0.50 C 4435 280 M
0 63 V
0 4528 R
0 -63 V
0 -4668 R
( 41.0121) Cshow
1.000 UL
LT0
0.50 0.50 0.50 C 1.000 UL
LTa
0.50 0.50 0.50 C 4495 280 M
0 4591 V
stroke
LT0
0.50 0.50 0.50 C 4495 280 M
0 63 V
0 4528 R
0 -63 V
0 -4668 R
( 41.7193) Cshow
1.000 UL
LT0
0.50 0.50 0.50 C 1.000 UL
LTa
0.50 0.50 0.50 C 4555 280 M
0 4591 V
stroke
LT0
0.50 0.50 0.50 C 4555 280 M
0 63 V
0 4528 R
0 -63 V
0 -4668 R
( 42.4264) Cshow
1.000 UL
LT0
0.50 0.50 0.50 C 1.000 UL
LTa
0.50 0.50 0.50 C 4614 280 M
0 4591 V
stroke
LT0
0.50 0.50 0.50 C 4614 280 M
0 63 V
0 4528 R
0 -63 V
0 -4668 R
( 43.1335) Cshow
1.000 UL
LT0
0.50 0.50 0.50 C 1.000 UL
LTa
0.50 0.50 0.50 C 4674 280 M
0 4591 V
stroke
LT0
0.50 0.50 0.50 C 4674 280 M
0 63 V
0 4528 R
0 -63 V
0 -4668 R
( 43.8406) Cshow
1.000 UL
LT0
0.50 0.50 0.50 C 1.000 UL
LTa
0.50 0.50 0.50 C 4734 280 M
0 4591 V
stroke
LT0
0.50 0.50 0.50 C 4734 280 M
0 63 V
0 4528 R
0 -63 V
0 -4668 R
( 44.5477) Cshow
1.000 UL
LT0
0.50 0.50 0.50 C 1.000 UL
LTa
0.50 0.50 0.50 C 4794 280 M
0 4591 V
stroke
LT0
0.50 0.50 0.50 C 4794 280 M
0 63 V
0 4528 R
0 -63 V
0 -4668 R
( 45.2548) Cshow
1.000 UL
LT0
0.50 0.50 0.50 C 1.000 UL
LTa
0.50 0.50 0.50 C 4854 280 M
0 4591 V
stroke
LT0
0.50 0.50 0.50 C 4854 280 M
0 63 V
0 4528 R
0 -63 V
0 -4668 R
( 45.9619) Cshow
1.000 UL
LT0
0.50 0.50 0.50 C 1.000 UL
LTa
0.50 0.50 0.50 C 4913 280 M
0 4591 V
stroke
LT0
0.50 0.50 0.50 C 4913 280 M
0 63 V
0 4528 R
0 -63 V
0 -4668 R
( 46.669) Cshow
1.000 UL
LT0
0.50 0.50 0.50 C 1.000 UL
LTa
0.50 0.50 0.50 C 4973 280 M
0 4591 V
stroke
LT0
0.50 0.50 0.50 C 4973 280 M
0 63 V
0 4528 R
0 -63 V
0 -4668 R
( 47.3761) Cshow
1.000 UL
LT0
0.50 0.50 0.50 C 1.000 UL
LTa
0.50 0.50 0.50 C 5033 280 M
0 4591 V
stroke
LT0
0.50 0.50 0.50 C 5033 280 M
0 63 V
0 4528 R
0 -63 V
0 -4668 R
( 48.0832) Cshow
1.000 UL
LT0
0.50 0.50 0.50 C 1.000 UL
LTa
0.50 0.50 0.50 C 5093 280 M
0 4591 V
stroke
LT0
0.50 0.50 0.50 C 5093 280 M
0 63 V
0 4528 R
0 -63 V
0 -4668 R
( 48.7903) Cshow
1.000 UL
LT0
0.50 0.50 0.50 C 1.000 UL
LTa
0.50 0.50 0.50 C 5153 280 M
0 4591 V
stroke
LT0
0.50 0.50 0.50 C 5153 280 M
0 63 V
0 4528 R
0 -63 V
0 -4668 R
( 49.4974) Cshow
1.000 UL
LT0
0.50 0.50 0.50 C 1.000 UL
LTa
0.50 0.50 0.50 C 5213 280 M
0 4591 V
stroke
LT0
0.50 0.50 0.50 C 5213 280 M
0 63 V
0 4528 R
0 -63 V
0 -4668 R
( 50.2045) Cshow
1.000 UL
LT0
0.50 0.50 0.50 C 1.000 UL
LTa
0.50 0.50 0.50 C 5272 280 M
0 4591 V
stroke
LT0
0.50 0.50 0.50 C 5272 280 M
0 63 V
0 4528 R
0 -63 V
0 -4668 R
( 50.9116) Cshow
1.000 UL
LT0
0.50 0.50 0.50 C 1.000 UL
LTa
0.50 0.50 0.50 C 5332 280 M
0 4591 V
stroke
LT0
0.50 0.50 0.50 C 5332 280 M
0 63 V
0 4528 R
0 -63 V
0 -4668 R
( 51.6187) Cshow
1.000 UL
LT0
0.50 0.50 0.50 C 1.000 UL
LTa
0.50 0.50 0.50 C 5392 280 M
0 4591 V
stroke
LT0
0.50 0.50 0.50 C 5392 280 M
0 63 V
0 4528 R
0 -63 V
0 -4668 R
( 52.3258) Cshow
1.000 UL
LT0
0.50 0.50 0.50 C 1.000 UL
LTa
0.50 0.50 0.50 C 5452 280 M
0 4591 V
stroke
LT0
0.50 0.50 0.50 C 5452 280 M
0 63 V
0 4528 R
0 -63 V
0 -4668 R
( 53.033) Cshow
1.000 UL
LT0
0.50 0.50 0.50 C 1.000 UL
LTa
0.50 0.50 0.50 C 5512 280 M
0 4591 V
stroke
LT0
0.50 0.50 0.50 C 5512 280 M
0 63 V
0 4528 R
0 -63 V
0 -4668 R
( 53.7401) Cshow
1.000 UL
LT0
0.50 0.50 0.50 C 1.000 UL
LTa
0.50 0.50 0.50 C 5571 280 M
0 4591 V
stroke
LT0
0.50 0.50 0.50 C 5571 280 M
0 63 V
0 4528 R
0 -63 V
0 -4668 R
( 54.4472) Cshow
1.000 UL
LT0
0.50 0.50 0.50 C 1.000 UL
LTa
0.50 0.50 0.50 C 5631 280 M
0 4591 V
stroke
LT0
0.50 0.50 0.50 C 5631 280 M
0 63 V
0 4528 R
0 -63 V
0 -4668 R
( 55.1543) Cshow
1.000 UL
LT0
0.50 0.50 0.50 C 1.000 UL
LTa
0.50 0.50 0.50 C 5691 280 M
0 4591 V
stroke
LT0
0.50 0.50 0.50 C 5691 280 M
0 63 V
0 4528 R
0 -63 V
0 -4668 R
( 55.8614) Cshow
1.000 UL
LT0
0.50 0.50 0.50 C 1.000 UL
LTa
0.50 0.50 0.50 C 5751 280 M
0 4591 V
stroke
LT0
0.50 0.50 0.50 C 5751 280 M
0 63 V
0 4528 R
0 -63 V
0 -4668 R
( 56.5685) Cshow
1.000 UL
LT0
0.50 0.50 0.50 C 1.000 UL
LTa
0.50 0.50 0.50 C 5811 280 M
0 4591 V
stroke
LT0
0.50 0.50 0.50 C 5811 280 M
0 63 V
0 4528 R
0 -63 V
0 -4668 R
( 57.2756) Cshow
1.000 UL
LT0
0.50 0.50 0.50 C 1.000 UL
LTa
0.50 0.50 0.50 C 5870 280 M
0 4591 V
stroke
LT0
0.50 0.50 0.50 C 5870 280 M
0 63 V
0 4528 R
0 -63 V
0 -4668 R
( 57.9827) Cshow
1.000 UL
LT0
0.50 0.50 0.50 C 1.000 UL
LTa
0.50 0.50 0.50 C 5930 280 M
0 4591 V
stroke
LT0
0.50 0.50 0.50 C 5930 280 M
0 63 V
0 4528 R
0 -63 V
0 -4668 R
( 58.6898) Cshow
1.000 UL
LT0
0.50 0.50 0.50 C 1.000 UL
LTa
0.50 0.50 0.50 C 5990 280 M
0 4591 V
stroke
LT0
0.50 0.50 0.50 C 5990 280 M
0 63 V
0 4528 R
0 -63 V
0 -4668 R
( 59.3969) Cshow
1.000 UL
LT0
0.50 0.50 0.50 C 1.000 UL
LTa
0.50 0.50 0.50 C 6050 280 M
0 4591 V
stroke
LT0
0.50 0.50 0.50 C 6050 280 M
0 63 V
0 4528 R
0 -63 V
0 -4668 R
( 60.104) Cshow
1.000 UL
LT0
0.50 0.50 0.50 C 1.000 UL
LTa
0.50 0.50 0.50 C 6110 280 M
0 4591 V
stroke
LT0
0.50 0.50 0.50 C 6110 280 M
0 63 V
0 4528 R
0 -63 V
0 -4668 R
( 60.8111) Cshow
1.000 UL
LT0
0.50 0.50 0.50 C 1.000 UL
LTa
0.50 0.50 0.50 C 6169 280 M
0 4591 V
stroke
LT0
0.50 0.50 0.50 C 6169 280 M
0 63 V
0 4528 R
0 -63 V
0 -4668 R
( 61.5182) Cshow
1.000 UL
LT0
0.50 0.50 0.50 C 1.000 UL
LTa
0.50 0.50 0.50 C 6229 280 M
0 4591 V
stroke
LT0
0.50 0.50 0.50 C 6229 280 M
0 63 V
0 4528 R
0 -63 V
0 -4668 R
( 62.2253) Cshow
1.000 UL
LT0
0.50 0.50 0.50 C 1.000 UL
LTa
0.50 0.50 0.50 C 6289 280 M
0 4591 V
stroke
LT0
0.50 0.50 0.50 C 6289 280 M
0 63 V
0 4528 R
0 -63 V
0 -4668 R
( 62.9324) Cshow
1.000 UL
LT0
0.50 0.50 0.50 C 1.000 UL
LTa
0.50 0.50 0.50 C 6349 280 M
0 4591 V
stroke
LT0
0.50 0.50 0.50 C 6349 280 M
0 63 V
0 4528 R
0 -63 V
0 -4668 R
( 63.6395) Cshow
1.000 UL
LT0
0.50 0.50 0.50 C 1.000 UL
LTa
0.50 0.50 0.50 C 6409 280 M
0 4591 V
stroke
LT0
0.50 0.50 0.50 C 6409 280 M
0 63 V
0 4528 R
0 -63 V
0 -4668 R
( 64.3466) Cshow
1.000 UL
LT0
0.50 0.50 0.50 C 1.000 UL
LTa
0.50 0.50 0.50 C 6469 280 M
0 4591 V
stroke
LT0
0.50 0.50 0.50 C 6469 280 M
0 63 V
0 4528 R
0 -63 V
0 -4668 R
( 65.0538) Cshow
1.000 UL
LT0
0.50 0.50 0.50 C 1.000 UL
LTa
0.50 0.50 0.50 C 6528 280 M
0 4591 V
stroke
LT0
0.50 0.50 0.50 C 6528 280 M
0 63 V
0 4528 R
0 -63 V
0 -4668 R
( 65.7609) Cshow
1.000 UL
LT0
0.50 0.50 0.50 C 1.000 UL
LTa
0.50 0.50 0.50 C 6588 280 M
0 4591 V
stroke
LT0
0.50 0.50 0.50 C 6588 280 M
0 63 V
0 4528 R
0 -63 V
0 -4668 R
( 66.468) Cshow
1.000 UL
LT0
0.50 0.50 0.50 C 1.000 UL
LTa
0.50 0.50 0.50 C 6648 280 M
0 4591 V
stroke
LT0
0.50 0.50 0.50 C 6648 280 M
0 63 V
0 4528 R
0 -63 V
0 -4668 R
( 67.1751) Cshow
1.000 UL
LT0
0.50 0.50 0.50 C 1.000 UL
LTa
0.50 0.50 0.50 C 6708 280 M
0 4591 V
stroke
LT0
0.50 0.50 0.50 C 6708 280 M
0 63 V
0 4528 R
0 -63 V
0 -4668 R
( 67.8822) Cshow
1.000 UL
LT0
0.50 0.50 0.50 C 1.000 UL
LTa
0.50 0.50 0.50 C 6768 280 M
0 4591 V
stroke
LT0
0.50 0.50 0.50 C 6768 280 M
0 63 V
0 4528 R
0 -63 V
0 -4668 R
( 68.5893) Cshow
1.000 UL
LT0
0.50 0.50 0.50 C 1.000 UL
LTa
0.50 0.50 0.50 C 6827 280 M
0 4591 V
stroke
LT0
0.50 0.50 0.50 C 6827 280 M
0 63 V
0 4528 R
0 -63 V
0 -4668 R
( 69.2964) Cshow
1.000 UL
LT0
0.50 0.50 0.50 C 1.000 UL
LTa
0.50 0.50 0.50 C 6887 280 M
0 4591 V
stroke
LT0
0.50 0.50 0.50 C 6887 280 M
0 63 V
0 4528 R
0 -63 V
0 -4668 R
( 70.0035) Cshow
1.000 UL
LT0
0.50 0.50 0.50 C 1.000 UL
LTa
0.50 0.50 0.50 C 6947 280 M
0 4591 V
stroke
LT0
0.50 0.50 0.50 C 6947 280 M
0 63 V
0 4528 R
0 -63 V
0 -4668 R
( 70.7106) Cshow
1.000 UL
LT0
0.50 0.50 0.50 C 1.000 UL
LT0
0.50 0.50 0.50 C 966 4871 M
966 280 L
5981 0 V
0 4591 R
-5981 0 R
1.000 UP
stroke
LT0
0.50 0.50 0.50 C % Begin plot #1
1.500 UP
2.000 UL
LT0
0.00 0.00 1.00 C /Helvetica findfont 140 scalefont setfont
/vshift -46 def
1504 326 M
60 0 V
60 0 V
60 0 V
60 0 V
0 46 R
59 0 V
60 0 V
60 0 V
60 0 V
0 92 R
60 0 V
0 137 R
59 0 V
0 46 R
60 0 V
0 46 R
60 0 V
0 46 R
60 0 V
60 0 V
59 0 V
0 92 R
60 0 V
60 0 V
0 321 R
60 0 V
0 46 R
60 0 V
59 0 V
0 92 R
60 0 V
0 321 R
60 0 V
0 92 R
60 0 V
60 0 V
60 0 V
59 0 V
60 0 V
0 46 R
60 0 V
0 46 R
60 0 V
0 46 R
60 0 V
59 0 V
0 92 R
60 0 V
0 92 R
60 0 V
60 0 V
60 0 V
59 0 V
60 0 V
0 45 R
60 0 V
60 0 V
60 0 V
60 0 V
59 0 V
60 0 V
60 0 V
60 0 V
60 0 V
59 0 V
60 0 V
0 138 R
60 0 V
60 0 V
0 46 R
60 0 V
59 0 V
60 0 V
0 643 R
60 0 V
0 229 R
60 0 V
0 138 R
60 0 V
0 138 R
59 0 V
0 184 R
60 0 V
60 0 V
60 0 V
60 0 V
60 0 V
59 0 V
60 0 V
60 0 V
60 0 V
60 0 V
59 0 V
60 0 V
0 45 R
60 0 V
60 0 V
0 230 R
60 0 V
59 0 V
60 0 V
60 0 V
60 0 V
0 46 R
60 0 V
stroke 6110 3907 M
59 0 V
60 0 V
60 0 V
60 0 V
60 0 V
60 0 V
0 46 R
59 0 V
0 183 R
60 0 V
60 0 V
60 0 V
60 0 V
0 368 R
59 0 V
0 275 R
60 0 V
60 0 V
966 280 M
60 0 V
60 0 V
59 0 V
60 0 V
60 0 V
60 0 V
60 0 V
59 0 V
60 0 V
0 46 V
240 0 R
0 46 V
239 0 R
0 46 V
0 46 V
60 0 R
0 46 V
0 45 V
0 46 V
59 0 R
0 46 V
60 0 R
0 46 V
60 0 R
0 46 V
179 0 R
0 46 V
0 46 V
120 0 R
0 46 V
0 46 V
0 46 V
0 46 V
0 45 V
0 46 V
0 46 V
60 0 R
0 46 V
119 0 R
0 46 V
0 46 V
60 0 R
0 46 V
0 46 V
0 46 V
0 46 V
0 46 V
0 45 V
0 46 V
60 0 R
0 46 V
0 46 V
299 0 R
0 46 V
60 0 R
0 46 V
60 0 R
0 46 V
119 0 R
0 46 V
0 46 V
60 0 R
0 46 V
0 46 V
299 0 R
0 45 V
658 0 R
0 46 V
0 46 V
0 46 V
120 0 R
0 46 V
179 0 R
0 46 V
0 46 V
0 46 V
0 46 V
0 46 V
0 46 V
0 46 V
0 45 V
0 46 V
0 46 V
0 46 V
0 46 V
stroke 4674 2805 M
0 46 V
0 46 V
60 0 R
0 46 V
0 46 V
0 46 V
0 46 V
0 45 V
60 0 R
0 46 V
0 46 V
0 46 V
60 0 R
0 46 V
0 46 V
0 46 V
59 0 R
0 46 V
0 46 V
0 46 V
0 46 V
718 0 R
0 45 V
120 0 R
0 46 V
0 46 V
0 46 V
0 46 V
0 46 V
299 0 R
0 46 V
419 0 R
0 46 V
59 0 R
0 46 V
0 46 V
0 46 V
0 45 V
240 0 R
0 46 V
0 46 V
0 46 V
0 46 V
0 46 V
0 46 V
0 46 V
0 46 V
59 0 R
0 46 V
0 46 V
0 45 V
0 46 V
0 46 V
0 46 V
120 46 R
0 46 V
0 -92 R
0 46 V
1504 326 CircleF
1564 326 CircleF
1564 326 CircleF
1624 326 CircleF
1624 326 CircleF
1684 326 CircleF
1684 326 CircleF
1744 326 CircleF
1744 372 CircleF
1803 372 CircleF
1803 372 CircleF
1863 372 CircleF
1863 372 CircleF
1923 372 CircleF
1923 372 CircleF
1983 372 CircleF
1983 464 CircleF
2043 464 CircleF
2043 601 CircleF
2102 601 CircleF
2102 647 CircleF
2162 647 CircleF
2162 693 CircleF
2222 693 CircleF
2222 739 CircleF
2282 739 CircleF
2282 739 CircleF
2342 739 CircleF
2342 739 CircleF
2401 739 CircleF
2401 831 CircleF
2461 831 CircleF
2461 831 CircleF
2521 831 CircleF
2521 1152 CircleF
2581 1152 CircleF
2581 1198 CircleF
2641 1198 CircleF
2641 1198 CircleF
2700 1198 CircleF
2700 1290 CircleF
2760 1290 CircleF
2760 1611 CircleF
2820 1611 CircleF
2820 1703 CircleF
2880 1703 CircleF
2880 1703 CircleF
2940 1703 CircleF
2940 1703 CircleF
3000 1703 CircleF
3000 1703 CircleF
3059 1703 CircleF
3059 1703 CircleF
3119 1703 CircleF
3119 1749 CircleF
3179 1749 CircleF
3179 1795 CircleF
3239 1795 CircleF
3239 1841 CircleF
3299 1841 CircleF
3299 1841 CircleF
3358 1841 CircleF
3358 1933 CircleF
3418 1933 CircleF
3418 2025 CircleF
3478 2025 CircleF
3478 2025 CircleF
3538 2025 CircleF
3538 2025 CircleF
3598 2025 CircleF
3598 2025 CircleF
3657 2025 CircleF
3657 2025 CircleF
3717 2025 CircleF
3717 2070 CircleF
3777 2070 CircleF
3777 2070 CircleF
3837 2070 CircleF
3837 2070 CircleF
3897 2070 CircleF
3897 2070 CircleF
3957 2070 CircleF
3957 2070 CircleF
4016 2070 CircleF
4016 2070 CircleF
4076 2070 CircleF
4076 2070 CircleF
4136 2070 CircleF
4136 2070 CircleF
4196 2070 CircleF
4196 2070 CircleF
4256 2070 CircleF
4256 2070 CircleF
4315 2070 CircleF
4315 2070 CircleF
4375 2070 CircleF
4375 2208 CircleF
4435 2208 CircleF
4435 2208 CircleF
4495 2208 CircleF
4495 2254 CircleF
4555 2254 CircleF
4555 2254 CircleF
4614 2254 CircleF
4614 2254 CircleF
4674 2254 CircleF
4674 2897 CircleF
4734 2897 CircleF
4734 3126 CircleF
4794 3126 CircleF
4794 3264 CircleF
4854 3264 CircleF
4854 3402 CircleF
4913 3402 CircleF
4913 3586 CircleF
4973 3586 CircleF
4973 3586 CircleF
5033 3586 CircleF
5033 3586 CircleF
5093 3586 CircleF
5093 3586 CircleF
5153 3586 CircleF
5153 3586 CircleF
5213 3586 CircleF
5213 3586 CircleF
5272 3586 CircleF
5272 3586 CircleF
5332 3586 CircleF
5332 3586 CircleF
5392 3586 CircleF
5392 3586 CircleF
5452 3586 CircleF
5452 3586 CircleF
5512 3586 CircleF
5512 3586 CircleF
5571 3586 CircleF
5571 3586 CircleF
5631 3586 CircleF
5631 3631 CircleF
5691 3631 CircleF
5691 3631 CircleF
5751 3631 CircleF
5751 3861 CircleF
5811 3861 CircleF
5811 3861 CircleF
5870 3861 CircleF
5870 3861 CircleF
5930 3861 CircleF
5930 3861 CircleF
5990 3861 CircleF
5990 3861 CircleF
6050 3861 CircleF
6050 3907 CircleF
6110 3907 CircleF
6110 3907 CircleF
6169 3907 CircleF
6169 3907 CircleF
6229 3907 CircleF
6229 3907 CircleF
6289 3907 CircleF
6289 3907 CircleF
6349 3907 CircleF
6349 3907 CircleF
6409 3907 CircleF
6409 3907 CircleF
6469 3907 CircleF
6469 3953 CircleF
6528 3953 CircleF
6528 4136 CircleF
6588 4136 CircleF
6588 4136 CircleF
6648 4136 CircleF
6648 4136 CircleF
6708 4136 CircleF
6708 4136 CircleF
6768 4136 CircleF
6768 4504 CircleF
6827 4504 CircleF
6827 4779 CircleF
6887 4779 CircleF
6887 4779 CircleF
6947 4779 CircleF
966 280 CircleF
1026 280 CircleF
1026 280 CircleF
1086 280 CircleF
1086 280 CircleF
1145 280 CircleF
1145 280 CircleF
1205 280 CircleF
1205 280 CircleF
1265 280 CircleF
1265 280 CircleF
1325 280 CircleF
1325 280 CircleF
1385 280 CircleF
1385 280 CircleF
1444 280 CircleF
1444 280 CircleF
1504 280 CircleF
1504 280 CircleF
1504 326 CircleF
1744 326 CircleF
1744 372 CircleF
1983 372 CircleF
1983 418 CircleF
1983 418 CircleF
1983 464 CircleF
2043 464 CircleF
2043 510 CircleF
2043 510 CircleF
2043 555 CircleF
2043 555 CircleF
2043 601 CircleF
2102 601 CircleF
2102 647 CircleF
2162 647 CircleF
2162 693 CircleF
2222 693 CircleF
2222 739 CircleF
2401 739 CircleF
2401 785 CircleF
2401 785 CircleF
2401 831 CircleF
2521 831 CircleF
2521 877 CircleF
2521 877 CircleF
2521 923 CircleF
2521 923 CircleF
2521 969 CircleF
2521 969 CircleF
2521 1015 CircleF
2521 1015 CircleF
2521 1060 CircleF
2521 1060 CircleF
2521 1106 CircleF
2521 1106 CircleF
2521 1152 CircleF
2581 1152 CircleF
2581 1198 CircleF
2700 1198 CircleF
2700 1244 CircleF
2700 1244 CircleF
2700 1290 CircleF
2760 1290 CircleF
2760 1336 CircleF
2760 1336 CircleF
2760 1382 CircleF
2760 1382 CircleF
2760 1428 CircleF
2760 1428 CircleF
2760 1474 CircleF
2760 1474 CircleF
2760 1520 CircleF
2760 1520 CircleF
2760 1565 CircleF
2760 1565 CircleF
2760 1611 CircleF
2820 1611 CircleF
2820 1657 CircleF
2820 1657 CircleF
2820 1703 CircleF
3119 1703 CircleF
3119 1749 CircleF
3179 1749 CircleF
3179 1795 CircleF
3239 1795 CircleF
3239 1841 CircleF
3358 1841 CircleF
3358 1887 CircleF
3358 1887 CircleF
3358 1933 CircleF
3418 1933 CircleF
3418 1979 CircleF
3418 1979 CircleF
3418 2025 CircleF
3717 2025 CircleF
3717 2070 CircleF
4375 2070 CircleF
4375 2116 CircleF
4375 2116 CircleF
4375 2162 CircleF
4375 2162 CircleF
4375 2208 CircleF
4495 2208 CircleF
4495 2254 CircleF
4674 2254 CircleF
4674 2300 CircleF
4674 2300 CircleF
4674 2346 CircleF
4674 2346 CircleF
4674 2392 CircleF
4674 2392 CircleF
4674 2438 CircleF
4674 2438 CircleF
4674 2484 CircleF
4674 2484 CircleF
4674 2530 CircleF
4674 2530 CircleF
4674 2576 CircleF
4674 2576 CircleF
4674 2621 CircleF
4674 2621 CircleF
4674 2667 CircleF
4674 2667 CircleF
4674 2713 CircleF
4674 2713 CircleF
4674 2759 CircleF
4674 2759 CircleF
4674 2805 CircleF
4674 2805 CircleF
4674 2851 CircleF
4674 2851 CircleF
4674 2897 CircleF
4734 2897 CircleF
4734 2943 CircleF
4734 2943 CircleF
4734 2989 CircleF
4734 2989 CircleF
4734 3035 CircleF
4734 3035 CircleF
4734 3081 CircleF
4734 3081 CircleF
4734 3126 CircleF
4794 3126 CircleF
4794 3172 CircleF
4794 3172 CircleF
4794 3218 CircleF
4794 3218 CircleF
4794 3264 CircleF
4854 3264 CircleF
4854 3310 CircleF
4854 3310 CircleF
4854 3356 CircleF
4854 3356 CircleF
4854 3402 CircleF
4913 3402 CircleF
4913 3448 CircleF
4913 3448 CircleF
4913 3494 CircleF
4913 3494 CircleF
4913 3540 CircleF
4913 3540 CircleF
4913 3586 CircleF
5631 3586 CircleF
5631 3631 CircleF
5751 3631 CircleF
5751 3677 CircleF
5751 3677 CircleF
5751 3723 CircleF
5751 3723 CircleF
5751 3769 CircleF
5751 3769 CircleF
5751 3815 CircleF
5751 3815 CircleF
5751 3861 CircleF
6050 3861 CircleF
6050 3907 CircleF
6469 3907 CircleF
6469 3953 CircleF
6528 3953 CircleF
6528 3999 CircleF
6528 3999 CircleF
6528 4045 CircleF
6528 4045 CircleF
6528 4091 CircleF
6528 4091 CircleF
6528 4136 CircleF
6768 4136 CircleF
6768 4182 CircleF
6768 4182 CircleF
6768 4228 CircleF
6768 4228 CircleF
6768 4274 CircleF
6768 4274 CircleF
6768 4320 CircleF
6768 4320 CircleF
6768 4366 CircleF
6768 4366 CircleF
6768 4412 CircleF
6768 4412 CircleF
6768 4458 CircleF
6768 4458 CircleF
6768 4504 CircleF
6827 4504 CircleF
6827 4550 CircleF
6827 4550 CircleF
6827 4596 CircleF
6827 4596 CircleF
6827 4641 CircleF
6827 4641 CircleF
6827 4687 CircleF
6827 4687 CircleF
6827 4733 CircleF
6827 4733 CircleF
6827 4779 CircleF
6947 4825 CircleF
6947 4871 CircleF
6947 4779 CircleF
6947 4825 CircleF
% End plot #1
% Begin plot #2
1.500 UP
2.000 UL
LT0
1.00 0.55 0.00 C /Helvetica findfont 140 scalefont setfont
2388 4698 M
116 89 V
1571 284 M
96 74 V
316 1770 R
96 73 V
6024 3851 M
77 59 V
377 164 R
100 77 V
985 3395 M
104 80 V
5148 764 M
95 73 V
4056 432 M
97 75 V
3138 3519 M
67 51 V
5894 4730 M
86 66 V
4250 2195 M
72 55 V
4503 964 M
67 52 V
975 2217 M
70 54 V
275 1137 R
69 54 V
5098 1463 M
71 54 V
96 623 R
64 49 V
-58 -249 R
100 77 V
2884 1304 M
82 63 V
-263 150 R
94 72 V
1663 583 R
107 83 V
5839 3859 M
66 51 V
2611 3423 M
62 48 V
1831 46 R
94 72 V
6416 4757 M
96 74 V
4092 3967 M
85 65 V
5209 386 M
118 90 V
290 3142 R
70 54 V
-257 369 R
74 57 V
2087 3046 M
80 61 V
1396 389 M
89 69 V
2561 3312 M
63 48 V
3011 -46 R
76 58 V
5411 2864 M
116 89 V
5233 1335 M
98 76 V
3328 1112 M
92 71 V
2946 3191 M
103 79 V
1403 2642 M
94 72 V
4284 1442 M
107 82 V
5711 863 M
79 61 V
4348 3269 M
112 85 V
5132 2255 M
69 52 V
696 2472 R
104 80 V
2486 1055 M
109 84 V
5072 573 M
82 63 V
2589 4624 M
63 49 V
1781 1668 M
110 84 V
6038 3159 M
83 63 V
1292 3833 M
60 46 V
1236 2552 M
67 51 V
2410 1042 M
112 86 V
-49 -38 R
77 58 V
5593 862 M
62 48 V
4545 992 M
87 67 V
stroke 4632 1059 M
3389 1985 M
105 81 V
3777 859 M
77 59 V
1944 2498 M
81 62 V
5347 4132 M
78 61 V
1235 1132 M
66 51 V
187 -160 R
74 57 V
1174 498 R
98 75 V
6554 4670 M
113 87 V
6435 1051 M
115 89 V
1300 4279 M
85 65 V
5894 3362 M
106 81 V
-4899 75 R
64 49 V
3074 850 R
71 54 V
1694 3944 M
101 78 V
4674 3050 M
76 59 V
2014 1184 M
113 86 V
4431 494 R
111 86 V
3173 3361 M
69 53 V
6666 523 M
67 51 V
5764 921 M
117 89 V
3325 367 M
101 78 V
2369 2952 M
109 84 V
238 -41 R
80 61 V
1435 4218 M
89 69 V
4749 1189 M
114 87 V
3235 4240 M
95 73 V
3523 1499 M
119 92 V
1443 431 R
111 85 V
6447 619 M
89 68 V
5970 2787 M
81 62 V
6811 554 M
109 83 V
3762 4504 M
115 88 V
-65 -36 R
65 50 V
1026 2399 M
68 52 V
4397 4716 M
94 72 V
3754 3517 M
77 58 V
4736 2437 M
88 67 V
4287 2039 M
88 68 V
3928 3725 M
87 67 V
1487 208 R
98 75 V
2342 2390 M
74 57 V
2278 482 R
90 70 V
4190 1778 M
87 66 V
5918 1657 M
103 78 V
5408 3514 M
114 87 V
2738 4049 M
118 91 V
2489 3851 M
66 50 V
55 -731 R
111 84 V
3556 -36 R
94 72 V
2987 4190 M
67 52 V
4659 665 M
68 53 V
3438 4043 M
105 81 V
stroke 3543 4124 M
5135 2758 M
104 80 V
2148 1518 M
99 76 V
280 695 R
79 61 V
4672 4351 M
86 66 V
1859 1347 M
102 78 V
2459 33 R
87 67 V
6584 855 M
100 77 V
1513 4052 M
84 64 V
1954 394 M
91 69 V
6452 3135 M
63 48 V
2703 3058 M
115 88 V
2208 -62 R
93 71 V
1573 3464 M
82 62 V
5380 1440 M
66 50 V
1117 2113 M
64 50 V
4802 3356 M
85 66 V
5884 323 M
82 63 V
2245 2018 M
115 89 V
247 1428 R
77 59 V
5094 518 M
105 80 V
2567 4147 M
109 83 V
3254 3090 M
97 74 V
6541 321 M
70 53 V
1014 4167 M
99 76 V
4003 1336 M
102 78 V
-592 542 R
89 69 V
4907 3573 M
60 47 V
6746 2862 M
119 91 V
2220 3296 M
81 62 V
428 -324 R
117 90 V
1580 955 R
99 76 V
5461 791 M
86 66 V
2407 3611 M
79 60 V
1330 2010 M
112 86 V
6315 1831 M
102 79 V
4000 722 M
110 85 V
6627 3840 M
69 53 V
4011 513 M
91 70 V
6119 4429 M
74 56 V
6099 679 M
103 79 V
2463 4604 M
103 79 V
6778 4329 M
89 68 V
5441 3560 M
90 69 V
111 -582 R
106 82 V
-184 412 R
87 67 V
4294 2013 M
100 76 V
-539 594 R
110 84 V
2481 3341 M
90 69 V
1484 3067 M
112 86 V
3417 1688 M
117 90 V
1035 2051 M
118 90 V
1995 753 M
92 72 V
stroke 2087 825 M
6604 3484 M
97 75 V
4989 2972 M
103 80 V
3519 4026 M
87 67 V
1797 4319 M
105 81 V
380 -167 R
64 50 V
3069 2075 M
117 90 V
590 420 R
74 57 V
4990 1642 M
91 70 V
149 2721 R
87 67 V
814 -386 R
71 55 V
1801 2809 M
94 72 V
870 534 R
110 85 V
4639 4519 M
65 50 V
6675 4102 M
95 73 V
4113 3696 M
74 57 V
1511 3051 M
104 81 V
1756 2095 M
107 82 V
2380 912 R
115 88 V
6662 1593 M
63 49 V
-2075 -8 R
110 85 V
2237 2305 M
81 62 V
2603 779 M
114 88 V
1738 349 M
110 84 V
3296 1687 M
95 73 V
5566 833 M
85 66 V
187 141 R
80 61 V
778 3102 R
86 66 V
5479 1310 M
93 72 V
1175 4275 M
94 72 V
5978 2900 M
63 48 V
3910 3911 M
86 67 V
1357 3492 M
62 48 V
5532 3358 M
71 55 V
4785 1692 M
76 58 V
1441 2578 M
87 67 V
-121 -51 R
63 48 V
2274 1425 M
94 72 V
-455 390 R
84 64 V
5845 1842 M
88 68 V
1057 820 M
73 56 V
2541 436 R
86 66 V
670 811 R
100 77 V
3643 736 M
62 48 V
3173 3624 M
110 84 V
5191 641 M
70 53 V
4639 2668 M
68 52 V
961 314 R
61 46 V
233 6 R
80 61 V
3784 3926 M
64 49 V
3405 2777 M
80 62 V
1440 1563 M
96 74 V
2596 870 M
70 53 V
stroke 2666 923 M
590 2324 R
82 62 V
1964 2334 M
102 79 V
2915 527 R
109 83 V
4144 2301 M
66 51 V
2394 745 M
106 81 V
1464 864 R
115 88 V
2724 -81 R
90 69 V
2777 3046 M
91 70 V
3536 874 M
91 70 V
6721 2642 M
86 65 V
2283 1285 M
75 58 V
2416 49 R
70 53 V
5936 4433 M
117 90 V
6313 599 M
85 66 V
2038 3664 M
90 68 V
5225 1603 M
98 75 V
1603 2644 M
111 85 V
6068 569 M
72 55 V
2965 2260 M
66 50 V
3312 411 R
108 83 V
4835 3259 M
63 49 V
3113 2429 M
80 62 V
-658 108 R
71 55 V
2229 490 M
101 78 V
3926 4530 M
119 91 V
-323 131 R
117 90 V
4586 1341 M
64 49 V
3229 4139 M
80 61 V
5615 3566 M
111 85 V
193 149 R
116 89 V
-4478 37 R
112 86 V
-636 578 R
95 72 V
2721 3807 M
111 85 V
5829 1618 M
75 58 V
3787 549 M
109 83 V
3715 1765 M
102 79 V
2098 217 R
119 91 V
4005 4731 M
84 64 V
2329 2946 M
92 70 V
2056 4393 M
95 73 V
570 -709 R
114 88 V
1615 3803 M
100 77 V
2278 5 R
69 53 V
1053 903 M
88 68 V
2198 330 M
72 56 V
1953 3271 M
93 72 V
4550 2636 M
83 63 V
1922 2557 M
97 75 V
1220 1712 M
100 76 V
15 -854 R
102 79 V
2662 2662 M
97 74 V
1508 371 R
73 57 V
stroke 4340 3164 M
680 909 R
88 67 V
1881 1080 M
98 75 V
-137 720 R
78 60 V
4835 1831 M
70 53 V
1628 3182 M
86 66 V
3338 1386 M
106 82 V
5513 3769 M
94 72 V
4156 3164 M
102 78 V
573 881 R
66 50 V
2149 2457 M
90 69 V
918 2037 R
85 65 V
4621 3954 M
107 83 V
2016 830 M
84 64 V
6721 4403 M
78 59 V
5801 3024 M
95 73 V
6202 1106 M
95 73 V
5993 2926 M
109 84 V
4026 3892 M
93 71 V
1356 3462 M
63 48 V
3952 494 R
104 80 V
4891 2361 M
92 71 V
4786 735 M
92 71 V
1744 360 R
78 60 V
-78 128 R
69 53 V
2411 2979 M
71 55 V
973 4310 M
72 55 V
-64 95 R
109 84 V
3709 4359 M
107 82 V
2177 1761 M
72 55 V
1536 2903 M
64 50 V
5972 4735 M
80 62 V
5958 2510 M
71 54 V
6594 323 M
113 87 V
6651 310 M
99 76 V
3565 1373 M
106 81 V
2463 1069 M
95 73 V
2677 685 R
104 80 V
-275 819 R
110 84 V
5639 1709 M
115 89 V
3425 2376 M
89 69 V
1708 2733 M
96 74 V
4544 1942 M
61 47 V
3906 611 M
85 65 V
1700 982 M
76 58 V
2883 986 M
87 67 V
6115 293 M
109 83 V
3427 3713 M
84 64 V
6253 574 M
92 70 V
3984 1749 M
91 70 V
3029 1061 M
62 48 V
3619 883 R
113 87 V
3300 1825 M
74 57 V
stroke 3374 1882 M
5749 663 M
112 87 V
3208 402 M
74 57 V
2809 2111 M
110 84 V
-839 613 R
82 63 V
-20 31 R
77 60 V
6073 1116 M
70 54 V
4904 2247 M
110 85 V
-981 124 R
98 75 V
3282 2158 M
65 50 V
2168 1406 M
75 57 V
6192 1103 M
100 77 V
4479 855 M
113 87 V
1495 3476 M
82 63 V
-33 1206 R
117 90 V
3308 3194 M
74 57 V
3077 1922 M
82 62 V
-60 -254 R
99 77 V
1926 2384 M
66 51 V
259 -746 R
100 76 V
104 440 R
60 47 V
4024 655 M
73 56 V
1065 707 R
80 61 V
3487 2090 M
67 52 V
3307 3160 M
88 67 V
5076 1932 M
103 79 V
1170 3853 M
112 86 V
3775 1988 M
116 89 V
3258 1831 M
83 64 V
1299 479 R
77 58 V
1333 947 M
81 62 V
1609 976 R
65 50 V
-1521 -3 R
74 56 V
5304 3246 M
85 66 V
6526 3025 M
87 67 V
5506 4314 M
72 55 V
1533 2899 M
111 85 V
5523 2537 M
112 85 V
-821 976 R
67 51 V
4279 2652 M
80 62 V
1513 1641 M
93 71 V
4251 1205 M
65 50 V
3263 4654 M
102 78 V
-59 -343 R
79 61 V
4132 1564 M
61 47 V
2619 58 R
82 63 V
4328 2847 M
100 77 V
1955 2643 M
82 63 V
3503 1760 M
108 83 V
6777 4713 M
79 60 V
6740 3455 M
110 84 V
2352 1657 M
99 76 V
3768 37 R
60 46 V
stroke 6279 1816 M
1212 738 M
81 63 V
1808 9 R
64 48 V
2770 2112 M
70 54 V
349 -29 R
106 81 V
2075 3365 M
100 77 V
4126 2744 M
114 87 V
3753 1773 M
91 70 V
3782 395 M
105 80 V
1107 4669 M
66 51 V
2627 3745 M
89 68 V
5343 2233 M
103 79 V
2891 1517 M
78 59 V
4569 396 M
63 49 V
2494 848 M
91 69 V
-705 256 R
65 49 V
3370 3278 M
65 50 V
901 786 R
76 59 V
2171 3129 M
78 60 V
989 2195 M
71 55 V
2212 2014 M
74 57 V
1783 1731 M
96 74 V
4144 1672 M
86 66 V
6041 1342 M
116 89 V
2394 4579 M
81 62 V
5211 4310 M
60 46 V
6677 644 M
117 89 V
3622 719 M
107 82 V
-13 2049 R
85 65 V
4909 2091 M
81 62 V
2505 1036 M
98 75 V
1429 4638 M
118 90 V
4158 325 M
77 59 V
6740 4300 M
112 85 V
3772 2400 M
111 86 V
2184 2443 M
61 47 V
4334 1096 M
61 47 V
2518 515 M
72 55 V
685 269 R
72 56 V
5443 4508 M
101 77 V
5101 4453 M
61 46 V
4528 3345 M
60 46 V
3046 1308 M
84 64 V
6720 547 M
96 73 V
4276 4126 M
71 54 V
751 -48 R
115 88 V
3632 1834 M
108 83 V
6332 1785 M
68 52 V
2108 4118 M
106 82 V
5658 2119 M
85 65 V
1754 2347 M
63 48 V
1675 3652 M
92 71 V
747 -126 R
86 66 V
stroke 2600 3663 M
2700 2312 M
106 81 V
5072 1770 M
107 83 V
1141 1188 M
68 52 V
405 1355 R
115 89 V
2916 832 M
69 53 V
5343 445 M
74 57 V
5011 375 M
83 64 V
955 292 R
78 60 V
4420 2174 M
76 59 V
2095 3781 M
90 69 V
4649 2487 M
67 52 V
4840 304 M
62 48 V
2536 1697 M
64 49 V
3538 599 M
104 80 V
2345 1992 M
107 82 V
4957 1318 M
72 55 V
2016 557 M
72 54 V
1738 4102 M
86 65 V
3106 540 M
103 79 V
2567 563 R
96 74 V
6013 692 M
93 71 V
1114 4264 M
108 83 V
6032 1864 M
75 57 V
154 2529 R
67 52 V
6299 1098 M
63 48 V
4615 3360 M
77 60 V
2365 2607 M
96 73 V
5943 619 M
87 67 V
1025 2499 M
117 90 V
3718 1481 M
82 62 V
978 3081 M
62 48 V
966 1890 M
73 56 V
5839 597 M
86 67 V
987 1856 M
88 68 V
1208 633 R
92 71 V
6304 484 M
118 90 V
-764 560 R
99 76 V
1189 2969 M
101 78 V
4680 803 M
113 86 V
1219 344 R
87 67 V
4216 3493 M
98 76 V
3579 4651 M
79 61 V
6683 2765 M
61 47 V
-4892 -5 R
98 76 V
1784 4498 M
66 50 V
1110 1450 M
117 90 V
6502 4444 M
98 75 V
4817 400 M
65 51 V
809 2860 R
85 65 V
3837 1124 M
82 63 V
3545 3978 M
65 50 V
912 -212 R
109 84 V
stroke 4631 3900 M
1151 1973 M
68 53 V
4212 3827 M
73 55 V
2485 2733 M
80 61 V
5775 4557 M
111 86 V
3008 764 M
60 47 V
2962 492 M
87 67 V
1465 4593 M
97 75 V
1323 4515 M
61 47 V
4172 688 M
73 55 V
3354 288 M
65 50 V
6401 309 M
97 74 V
5284 2321 M
77 59 V
756 2380 R
114 87 V
6014 1278 M
115 88 V
4568 3765 M
61 46 V
4179 2040 M
89 69 V
494 74 R
66 51 V
3457 1891 M
88 67 V
1955 850 M
101 78 V
3537 4726 M
114 87 V
1973 3119 M
63 48 V
1259 476 M
67 51 V
3134 653 M
65 50 V
4739 3980 M
117 89 V
2762 3338 M
69 53 V
4977 479 M
70 54 V
4874 4085 M
93 71 V
6657 2719 M
113 87 V
3417 3954 M
104 80 V
5481 802 M
112 86 V
3245 4315 M
77 59 V
3771 2741 M
109 84 V
2865 2656 M
107 82 V
2293 1796 M
97 75 V
2076 790 R
102 78 V
43 108 R
96 73 V
2440 3429 M
66 51 V
452 115 R
116 89 V
2802 2761 M
95 73 V
-746 772 R
100 77 V
1177 2396 M
105 81 V
2775 3695 M
119 91 V
2393 821 M
108 84 V
3089 305 M
65 50 V
5214 2363 M
62 47 V
1791 2870 M
84 64 V
1535 4374 M
70 54 V
3272 2808 M
86 66 V
3774 718 M
62 47 V
193 649 R
80 61 V
2530 431 R
86 66 V
2865 4512 M
111 85 V
stroke 2976 4597 M
4881 710 M
72 55 V
-36 2883 R
78 61 V
5671 1948 M
117 89 V
1589 3153 M
99 76 V
5740 2774 M
104 80 V
3236 2027 M
92 71 V
2593 3210 M
86 66 V
3176 1105 M
98 75 V
2305 733 M
99 77 V
5432 3000 M
79 61 V
2306 3439 M
72 56 V
2119 2024 M
61 48 V
4595 482 R
87 67 V
1549 3095 M
89 68 V
4835 782 R
102 79 V
-563 494 R
79 60 V
3663 2508 M
113 87 V
6163 1457 M
74 57 V
992 1136 M
113 86 V
6372 613 M
69 53 V
1479 4728 M
67 52 V
3844 748 M
82 63 V
4487 614 M
65 50 V
1616 1145 M
104 79 V
4842 491 M
81 62 V
2857 2490 M
112 85 V
1800 533 R
84 65 V
5793 1107 M
117 90 V
2015 3653 M
62 47 V
3585 564 M
102 78 V
3480 2039 M
81 63 V
4585 1926 M
103 79 V
52 1451 R
87 66 V
1877 899 R
67 51 V
4723 731 M
79 61 V
1057 3619 M
90 70 V
337 -316 R
117 90 V
3289 773 R
87 66 V
63 -3214 R
103 79 V
4023 600 M
118 90 V
2736 4176 M
101 77 V
2809 1676 M
75 58 V
5142 2739 M
100 77 V
4831 4522 M
99 76 V
1291 3820 M
108 83 V
6263 3732 M
90 69 V
4482 3776 M
84 64 V
6808 667 M
101 78 V
4548 2190 M
109 83 V
1999 1302 M
63 49 V
1592 4750 M
101 78 V
4017 478 M
113 86 V
stroke 4130 564 M
1246 3975 M
113 87 V
3758 809 M
101 78 V
5688 2114 M
64 49 V
1806 336 M
92 70 V
6551 2976 M
101 77 V
6611 1290 M
98 75 V
5340 305 M
78 60 V
1073 459 M
69 53 V
3413 3511 M
73 56 V
3137 2569 M
72 55 V
3506 412 R
94 72 V
3486 2204 M
62 48 V
127 952 R
90 68 V
1010 4472 M
113 87 V
1743 1748 M
103 79 V
5779 535 M
118 91 V
1045 611 M
117 90 V
5341 934 M
77 59 V
3887 3413 M
98 75 V
4663 1828 M
69 54 V
-22 1969 R
100 77 V
3464 1990 M
105 81 V
-320 830 R
111 85 V
416 -791 R
74 57 V
360 1862 R
108 83 V
6593 606 M
114 87 V
3227 3533 M
71 54 V
-58 -790 R
102 78 V
3059 4237 M
100 77 V
1430 141 R
61 47 V
5562 985 M
81 62 V
3738 3852 M
77 59 V
3242 997 M
61 46 V
2741 3435 M
70 53 V
1107 2370 M
115 88 V
5221 4496 M
67 52 V
2267 2738 M
107 83 V
3143 1241 M
95 73 V
1860 2916 M
116 89 V
2586 936 M
94 72 V
1553 690 M
63 49 V
5927 3842 M
84 64 V
4453 859 M
69 53 V
619 360 R
111 85 V
909 2160 R
90 70 V
361 -19 R
117 90 V
4322 2156 M
81 63 V
97 1854 R
71 54 V
5039 2280 M
111 85 V
6045 307 M
104 80 V
5667 2309 M
108 82 V
5278 1957 M
114 88 V
stroke 5392 2045 M
2479 1077 M
79 61 V
4733 3194 M
72 55 V
3481 2999 M
85 66 V
934 594 R
66 50 V
2563 1840 M
90 69 V
1647 2455 M
117 90 V
760 340 R
97 74 V
966 579 R
95 73 V
2166 659 M
92 71 V
3665 2005 M
80 61 V
208 1776 R
115 88 V
1086 1355 M
80 61 V
2800 3833 M
69 53 V
342 -448 R
110 84 V
2758 2203 M
82 63 V
6543 312 M
88 67 V
1665 3214 M
97 75 V
495 1441 R
89 68 V
5293 3024 M
88 68 V
4590 4459 M
86 66 V
626 -673 R
93 72 V
4898 2547 M
77 60 V
2394 415 M
79 60 V
4099 2219 M
69 53 V
1552 4254 M
118 90 V
2388 4698 CircleF
2504 4787 CircleF
1571 284 CircleF
1667 358 CircleF
1983 2128 CircleF
2079 2201 CircleF
6024 3851 CircleF
6101 3910 CircleF
6478 4074 CircleF
6578 4151 CircleF
985 3395 CircleF
1089 3475 CircleF
5148 764 CircleF
5243 837 CircleF
4056 432 CircleF
4153 507 CircleF
3138 3519 CircleF
3205 3570 CircleF
5894 4730 CircleF
5980 4796 CircleF
4250 2195 CircleF
4322 2250 CircleF
4503 964 CircleF
4570 1016 CircleF
975 2217 CircleF
1045 2271 CircleF
1320 3408 CircleF
1389 3462 CircleF
5098 1463 CircleF
5169 1517 CircleF
5265 2140 CircleF
5329 2189 CircleF
5271 1940 CircleF
5371 2017 CircleF
2884 1304 CircleF
2966 1367 CircleF
2703 1517 CircleF
2797 1589 CircleF
4460 2172 CircleF
4567 2255 CircleF
5839 3859 CircleF
5905 3910 CircleF
2611 3423 CircleF
2673 3471 CircleF
4504 3517 CircleF
4598 3589 CircleF
6416 4757 CircleF
6512 4831 CircleF
4092 3967 CircleF
4177 4032 CircleF
5209 386 CircleF
5327 476 CircleF
5617 3618 CircleF
5687 3672 CircleF
5430 4041 CircleF
5504 4098 CircleF
2087 3046 CircleF
2167 3107 CircleF
1396 389 CircleF
1485 458 CircleF
2561 3312 CircleF
2624 3360 CircleF
5635 3314 CircleF
5711 3372 CircleF
5411 2864 CircleF
5527 2953 CircleF
5233 1335 CircleF
5331 1411 CircleF
3328 1112 CircleF
3420 1183 CircleF
2946 3191 CircleF
3049 3270 CircleF
1403 2642 CircleF
1497 2714 CircleF
4284 1442 CircleF
4391 1524 CircleF
5711 863 CircleF
5790 924 CircleF
4348 3269 CircleF
4460 3354 CircleF
5132 2255 CircleF
5201 2307 CircleF
5897 4779 CircleF
6001 4859 CircleF
2486 1055 CircleF
2595 1139 CircleF
5072 573 CircleF
5154 636 CircleF
2589 4624 CircleF
2652 4673 CircleF
1781 1668 CircleF
1891 1752 CircleF
6038 3159 CircleF
6121 3222 CircleF
1292 3833 CircleF
1352 3879 CircleF
1236 2552 CircleF
1303 2603 CircleF
2410 1042 CircleF
2522 1128 CircleF
2473 1090 CircleF
2550 1148 CircleF
5593 862 CircleF
5655 910 CircleF
4545 992 CircleF
4632 1059 CircleF
3389 1985 CircleF
3494 2066 CircleF
3777 859 CircleF
3854 918 CircleF
1944 2498 CircleF
2025 2560 CircleF
5347 4132 CircleF
5425 4193 CircleF
1235 1132 CircleF
1301 1183 CircleF
1488 1023 CircleF
1562 1080 CircleF
2736 1578 CircleF
2834 1653 CircleF
6554 4670 CircleF
6667 4757 CircleF
6435 1051 CircleF
6550 1140 CircleF
1300 4279 CircleF
1385 4344 CircleF
5894 3362 CircleF
6000 3443 CircleF
1101 3518 CircleF
1165 3567 CircleF
4239 4417 CircleF
4310 4471 CircleF
1694 3944 CircleF
1795 4022 CircleF
4674 3050 CircleF
4750 3109 CircleF
2014 1184 CircleF
2127 1270 CircleF
6558 1764 CircleF
6669 1850 CircleF
3173 3361 CircleF
3242 3414 CircleF
6666 523 CircleF
6733 574 CircleF
5764 921 CircleF
5881 1010 CircleF
3325 367 CircleF
3426 445 CircleF
2369 2952 CircleF
2478 3036 CircleF
2716 2995 CircleF
2796 3056 CircleF
1435 4218 CircleF
1524 4287 CircleF
4749 1189 CircleF
4863 1276 CircleF
3235 4240 CircleF
3330 4313 CircleF
3523 1499 CircleF
3642 1591 CircleF
5085 2022 CircleF
5196 2107 CircleF
6447 619 CircleF
6536 687 CircleF
5970 2787 CircleF
6051 2849 CircleF
6811 554 CircleF
6920 637 CircleF
3762 4504 CircleF
3877 4592 CircleF
3812 4556 CircleF
3877 4606 CircleF
1026 2399 CircleF
1094 2451 CircleF
4397 4716 CircleF
4491 4788 CircleF
3754 3517 CircleF
3831 3575 CircleF
4736 2437 CircleF
4824 2504 CircleF
4287 2039 CircleF
4375 2107 CircleF
3928 3725 CircleF
4015 3792 CircleF
5502 4000 CircleF
5600 4075 CircleF
2342 2390 CircleF
2416 2447 CircleF
4694 2929 CircleF
4784 2999 CircleF
4190 1778 CircleF
4277 1844 CircleF
5918 1657 CircleF
6021 1735 CircleF
5408 3514 CircleF
5522 3601 CircleF
2738 4049 CircleF
2856 4140 CircleF
2489 3851 CircleF
2555 3901 CircleF
2610 3170 CircleF
2721 3254 CircleF
6277 3218 CircleF
6371 3290 CircleF
2987 4190 CircleF
3054 4242 CircleF
4659 665 CircleF
4727 718 CircleF
3438 4043 CircleF
3543 4124 CircleF
5135 2758 CircleF
5239 2838 CircleF
2148 1518 CircleF
2247 1594 CircleF
2527 2289 CircleF
2606 2350 CircleF
4672 4351 CircleF
4758 4417 CircleF
1859 1347 CircleF
1961 1425 CircleF
4420 1458 CircleF
4507 1525 CircleF
6584 855 CircleF
6684 932 CircleF
1513 4052 CircleF
1597 4116 CircleF
1954 394 CircleF
2045 463 CircleF
6452 3135 CircleF
6515 3183 CircleF
2703 3058 CircleF
2818 3146 CircleF
5026 3084 CircleF
5119 3155 CircleF
1573 3464 CircleF
1655 3526 CircleF
5380 1440 CircleF
5446 1490 CircleF
1117 2113 CircleF
1181 2163 CircleF
4802 3356 CircleF
4887 3422 CircleF
5884 323 CircleF
5966 386 CircleF
2245 2018 CircleF
2360 2107 CircleF
2607 3535 CircleF
2684 3594 CircleF
5094 518 CircleF
5199 598 CircleF
2567 4147 CircleF
2676 4230 CircleF
3254 3090 CircleF
3351 3164 CircleF
6541 321 CircleF
6611 374 CircleF
1014 4167 CircleF
1113 4243 CircleF
4003 1336 CircleF
4105 1414 CircleF
3513 1956 CircleF
3602 2025 CircleF
4907 3573 CircleF
4967 3620 CircleF
6746 2862 CircleF
6865 2953 CircleF
2220 3296 CircleF
2301 3358 CircleF
2729 3034 CircleF
2846 3124 CircleF
4426 4079 CircleF
4525 4155 CircleF
5461 791 CircleF
5547 857 CircleF
2407 3611 CircleF
2486 3671 CircleF
1330 2010 CircleF
1442 2096 CircleF
6315 1831 CircleF
6417 1910 CircleF
4000 722 CircleF
4110 807 CircleF
6627 3840 CircleF
6696 3893 CircleF
4011 513 CircleF
4102 583 CircleF
6119 4429 CircleF
6193 4485 CircleF
6099 679 CircleF
6202 758 CircleF
2463 4604 CircleF
2566 4683 CircleF
6778 4329 CircleF
6867 4397 CircleF
5441 3560 CircleF
5531 3629 CircleF
5642 3047 CircleF
5748 3129 CircleF
5564 3541 CircleF
5651 3608 CircleF
4294 2013 CircleF
4394 2089 CircleF
3855 2683 CircleF
3965 2767 CircleF
2481 3341 CircleF
2571 3410 CircleF
1484 3067 CircleF
1596 3153 CircleF
3417 1688 CircleF
3534 1778 CircleF
1035 2051 CircleF
1153 2141 CircleF
1995 753 CircleF
2087 825 CircleF
6604 3484 CircleF
6701 3559 CircleF
4989 2972 CircleF
5092 3052 CircleF
3519 4026 CircleF
3606 4093 CircleF
1797 4319 CircleF
1902 4400 CircleF
2282 4233 CircleF
2346 4283 CircleF
3069 2075 CircleF
3186 2165 CircleF
3776 2585 CircleF
3850 2642 CircleF
4990 1642 CircleF
5081 1712 CircleF
5230 4433 CircleF
5317 4500 CircleF
6131 4114 CircleF
6202 4169 CircleF
1801 2809 CircleF
1895 2881 CircleF
2765 3415 CircleF
2875 3500 CircleF
4639 4519 CircleF
4704 4569 CircleF
6675 4102 CircleF
6770 4175 CircleF
4113 3696 CircleF
4187 3753 CircleF
1511 3051 CircleF
1615 3132 CircleF
1756 2095 CircleF
1863 2177 CircleF
4243 3089 CircleF
4358 3177 CircleF
6662 1593 CircleF
6725 1642 CircleF
4650 1634 CircleF
4760 1719 CircleF
2237 2305 CircleF
2318 2367 CircleF
2603 779 CircleF
2717 867 CircleF
1738 349 CircleF
1848 433 CircleF
3296 1687 CircleF
3391 1760 CircleF
5566 833 CircleF
5651 899 CircleF
5838 1040 CircleF
5918 1101 CircleF
6696 4203 CircleF
6782 4269 CircleF
5479 1310 CircleF
5572 1382 CircleF
1175 4275 CircleF
1269 4347 CircleF
5978 2900 CircleF
6041 2948 CircleF
3910 3911 CircleF
3996 3978 CircleF
1357 3492 CircleF
1419 3540 CircleF
5532 3358 CircleF
5603 3413 CircleF
4785 1692 CircleF
4861 1750 CircleF
1441 2578 CircleF
1528 2645 CircleF
1407 2594 CircleF
1470 2642 CircleF
2274 1425 CircleF
2368 1497 CircleF
1913 1887 CircleF
1997 1951 CircleF
5845 1842 CircleF
5933 1910 CircleF
1057 820 CircleF
1130 876 CircleF
3671 1312 CircleF
3757 1378 CircleF
4427 2189 CircleF
4527 2266 CircleF
3643 736 CircleF
3705 784 CircleF
3173 3624 CircleF
3283 3708 CircleF
5191 641 CircleF
5261 694 CircleF
4639 2668 CircleF
4707 2720 CircleF
5668 3034 CircleF
5729 3080 CircleF
5962 3086 CircleF
6042 3147 CircleF
3784 3926 CircleF
3848 3975 CircleF
3405 2777 CircleF
3485 2839 CircleF
1440 1563 CircleF
1536 1637 CircleF
2596 870 CircleF
2666 923 CircleF
3256 3247 CircleF
3338 3309 CircleF
1964 2334 CircleF
2066 2413 CircleF
4981 2940 CircleF
5090 3023 CircleF
4144 2301 CircleF
4210 2352 CircleF
2394 745 CircleF
2500 826 CircleF
3964 1690 CircleF
4079 1778 CircleF
6803 1697 CircleF
6893 1766 CircleF
2777 3046 CircleF
2868 3116 CircleF
3536 874 CircleF
3627 944 CircleF
6721 2642 CircleF
6807 2707 CircleF
2283 1285 CircleF
2358 1343 CircleF
4774 1392 CircleF
4844 1445 CircleF
5936 4433 CircleF
6053 4523 CircleF
6313 599 CircleF
6398 665 CircleF
2038 3664 CircleF
2128 3732 CircleF
5225 1603 CircleF
5323 1678 CircleF
1603 2644 CircleF
1714 2729 CircleF
6068 569 CircleF
6140 624 CircleF
2965 2260 CircleF
3031 2310 CircleF
6343 2721 CircleF
6451 2804 CircleF
4835 3259 CircleF
4898 3308 CircleF
3113 2429 CircleF
3193 2491 CircleF
2535 2599 CircleF
2606 2654 CircleF
2229 490 CircleF
2330 568 CircleF
3926 4530 CircleF
4045 4621 CircleF
3722 4752 CircleF
3839 4842 CircleF
4586 1341 CircleF
4650 1390 CircleF
3229 4139 CircleF
3309 4200 CircleF
5615 3566 CircleF
5726 3651 CircleF
5919 3800 CircleF
6035 3889 CircleF
1557 3926 CircleF
1669 4012 CircleF
1033 4590 CircleF
1128 4662 CircleF
2721 3807 CircleF
2832 3892 CircleF
5829 1618 CircleF
5904 1676 CircleF
3787 549 CircleF
3896 632 CircleF
3715 1765 CircleF
3817 1844 CircleF
5915 2061 CircleF
6034 2152 CircleF
4005 4731 CircleF
4089 4795 CircleF
2329 2946 CircleF
2421 3016 CircleF
2056 4393 CircleF
2151 4466 CircleF
2721 3757 CircleF
2835 3845 CircleF
1615 3803 CircleF
1715 3880 CircleF
3993 3885 CircleF
4062 3938 CircleF
1053 903 CircleF
1141 971 CircleF
2198 330 CircleF
2270 386 CircleF
1953 3271 CircleF
2046 3343 CircleF
4550 2636 CircleF
4633 2699 CircleF
1922 2557 CircleF
2019 2632 CircleF
1220 1712 CircleF
1320 1788 CircleF
1335 934 CircleF
1437 1013 CircleF
2662 2662 CircleF
2759 2736 CircleF
4267 3107 CircleF
4340 3164 CircleF
5020 4073 CircleF
5108 4140 CircleF
1881 1080 CircleF
1979 1155 CircleF
1842 1875 CircleF
1920 1935 CircleF
4835 1831 CircleF
4905 1884 CircleF
1628 3182 CircleF
1714 3248 CircleF
3338 1386 CircleF
3444 1468 CircleF
5513 3769 CircleF
5607 3841 CircleF
4156 3164 CircleF
4258 3242 CircleF
4831 4123 CircleF
4897 4173 CircleF
2149 2457 CircleF
2239 2526 CircleF
3157 4563 CircleF
3242 4628 CircleF
4621 3954 CircleF
4728 4037 CircleF
2016 830 CircleF
2100 894 CircleF
6721 4403 CircleF
6799 4462 CircleF
5801 3024 CircleF
5896 3097 CircleF
6202 1106 CircleF
6297 1179 CircleF
5993 2926 CircleF
6102 3010 CircleF
4026 3892 CircleF
4119 3963 CircleF
1356 3462 CircleF
1419 3510 CircleF
5371 4004 CircleF
5475 4084 CircleF
4891 2361 CircleF
4983 2432 CircleF
4786 735 CircleF
4878 806 CircleF
6622 1166 CircleF
6700 1226 CircleF
6622 1354 CircleF
6691 1407 CircleF
2411 2979 CircleF
2482 3034 CircleF
973 4310 CircleF
1045 4365 CircleF
981 4460 CircleF
1090 4544 CircleF
3709 4359 CircleF
3816 4441 CircleF
2177 1761 CircleF
2249 1816 CircleF
1536 2903 CircleF
1600 2953 CircleF
5972 4735 CircleF
6052 4797 CircleF
5958 2510 CircleF
6029 2564 CircleF
6594 323 CircleF
6707 410 CircleF
6651 310 CircleF
6750 386 CircleF
3565 1373 CircleF
3671 1454 CircleF
2463 1069 CircleF
2558 1142 CircleF
5235 1827 CircleF
5339 1907 CircleF
5064 2726 CircleF
5174 2810 CircleF
5639 1709 CircleF
5754 1798 CircleF
3425 2376 CircleF
3514 2445 CircleF
1708 2733 CircleF
1804 2807 CircleF
4544 1942 CircleF
4605 1989 CircleF
3906 611 CircleF
3991 676 CircleF
1700 982 CircleF
1776 1040 CircleF
2883 986 CircleF
2970 1053 CircleF
6115 293 CircleF
6224 376 CircleF
3427 3713 CircleF
3511 3777 CircleF
6253 574 CircleF
6345 644 CircleF
3984 1749 CircleF
4075 1819 CircleF
3029 1061 CircleF
3091 1109 CircleF
6710 1992 CircleF
6823 2079 CircleF
3300 1825 CircleF
3374 1882 CircleF
5749 663 CircleF
5861 750 CircleF
3208 402 CircleF
3282 459 CircleF
2809 2111 CircleF
2919 2195 CircleF
2080 2808 CircleF
2162 2871 CircleF
2142 2902 CircleF
2219 2962 CircleF
6073 1116 CircleF
6143 1170 CircleF
4904 2247 CircleF
5014 2332 CircleF
4033 2456 CircleF
4131 2531 CircleF
3282 2158 CircleF
3347 2208 CircleF
2168 1406 CircleF
2243 1463 CircleF
6192 1103 CircleF
6292 1180 CircleF
4479 855 CircleF
4592 942 CircleF
1495 3476 CircleF
1577 3539 CircleF
1544 4745 CircleF
1661 4835 CircleF
3308 3194 CircleF
3382 3251 CircleF
3077 1922 CircleF
3159 1984 CircleF
3099 1730 CircleF
3198 1807 CircleF
1926 2384 CircleF
1992 2435 CircleF
2251 1689 CircleF
2351 1765 CircleF
2455 2205 CircleF
2515 2252 CircleF
4024 655 CircleF
4097 711 CircleF
5162 1418 CircleF
5242 1479 CircleF
3487 2090 CircleF
3554 2142 CircleF
3307 3160 CircleF
3395 3227 CircleF
5076 1932 CircleF
5179 2011 CircleF
1170 3853 CircleF
1282 3939 CircleF
3775 1988 CircleF
3891 2077 CircleF
3258 1831 CircleF
3341 1895 CircleF
4640 2374 CircleF
4717 2432 CircleF
1333 947 CircleF
1414 1009 CircleF
3023 1985 CircleF
3088 2035 CircleF
1567 2032 CircleF
1641 2088 CircleF
5304 3246 CircleF
5389 3312 CircleF
6526 3025 CircleF
6613 3092 CircleF
5506 4314 CircleF
5578 4369 CircleF
1533 2899 CircleF
1644 2984 CircleF
5523 2537 CircleF
5635 2622 CircleF
4814 3598 CircleF
4881 3649 CircleF
4279 2652 CircleF
4359 2714 CircleF
1513 1641 CircleF
1606 1712 CircleF
4251 1205 CircleF
4316 1255 CircleF
3263 4654 CircleF
3365 4732 CircleF
3306 4389 CircleF
3385 4450 CircleF
4132 1564 CircleF
4193 1611 CircleF
6812 1669 CircleF
6894 1732 CircleF
4328 2847 CircleF
4428 2924 CircleF
1955 2643 CircleF
2037 2706 CircleF
3503 1760 CircleF
3611 1843 CircleF
6777 4713 CircleF
6856 4773 CircleF
6740 3455 CircleF
6850 3539 CircleF
2352 1657 CircleF
2451 1733 CircleF
6219 1770 CircleF
6279 1816 CircleF
1212 738 CircleF
1293 801 CircleF
3101 810 CircleF
3165 858 CircleF
2770 2112 CircleF
2840 2166 CircleF
3189 2137 CircleF
3295 2218 CircleF
2075 3365 CircleF
2175 3442 CircleF
4126 2744 CircleF
4240 2831 CircleF
3753 1773 CircleF
3844 1843 CircleF
3782 395 CircleF
3887 475 CircleF
1107 4669 CircleF
1173 4720 CircleF
2627 3745 CircleF
2716 3813 CircleF
5343 2233 CircleF
5446 2312 CircleF
2891 1517 CircleF
2969 1576 CircleF
4569 396 CircleF
4632 445 CircleF
2494 848 CircleF
2585 917 CircleF
1880 1173 CircleF
1945 1222 CircleF
3370 3278 CircleF
3435 3328 CircleF
4336 4114 CircleF
4412 4173 CircleF
2171 3129 CircleF
2249 3189 CircleF
989 2195 CircleF
1060 2250 CircleF
2212 2014 CircleF
2286 2071 CircleF
1783 1731 CircleF
1879 1805 CircleF
4144 1672 CircleF
4230 1738 CircleF
6041 1342 CircleF
6157 1431 CircleF
2394 4579 CircleF
2475 4641 CircleF
5211 4310 CircleF
5271 4356 CircleF
6677 644 CircleF
6794 733 CircleF
3622 719 CircleF
3729 801 CircleF
3716 2850 CircleF
3801 2915 CircleF
4909 2091 CircleF
4990 2153 CircleF
2505 1036 CircleF
2603 1111 CircleF
1429 4638 CircleF
1547 4728 CircleF
4158 325 CircleF
4235 384 CircleF
6740 4300 CircleF
6852 4385 CircleF
3772 2400 CircleF
3883 2486 CircleF
2184 2443 CircleF
2245 2490 CircleF
4334 1096 CircleF
4395 1143 CircleF
2518 515 CircleF
2590 570 CircleF
3275 839 CircleF
3347 895 CircleF
5443 4508 CircleF
5544 4585 CircleF
5101 4453 CircleF
5162 4499 CircleF
4528 3345 CircleF
4588 3391 CircleF
3046 1308 CircleF
3130 1372 CircleF
6720 547 CircleF
6816 620 CircleF
4276 4126 CircleF
4347 4180 CircleF
5098 4132 CircleF
5213 4220 CircleF
3632 1834 CircleF
3740 1917 CircleF
6332 1785 CircleF
6400 1837 CircleF
2108 4118 CircleF
2214 4200 CircleF
5658 2119 CircleF
5743 2184 CircleF
1754 2347 CircleF
1817 2395 CircleF
1675 3652 CircleF
1767 3723 CircleF
2514 3597 CircleF
2600 3663 CircleF
2700 2312 CircleF
2806 2393 CircleF
5072 1770 CircleF
5179 1853 CircleF
1141 1188 CircleF
1209 1240 CircleF
1614 2595 CircleF
1729 2684 CircleF
2916 832 CircleF
2985 885 CircleF
5343 445 CircleF
5417 502 CircleF
5011 375 CircleF
5094 439 CircleF
6049 731 CircleF
6127 791 CircleF
4420 2174 CircleF
4496 2233 CircleF
2095 3781 CircleF
2185 3850 CircleF
4649 2487 CircleF
4716 2539 CircleF
4840 304 CircleF
4902 352 CircleF
2536 1697 CircleF
2600 1746 CircleF
3538 599 CircleF
3642 679 CircleF
2345 1992 CircleF
2452 2074 CircleF
4957 1318 CircleF
5029 1373 CircleF
2016 557 CircleF
2088 611 CircleF
1738 4102 CircleF
1824 4167 CircleF
3106 540 CircleF
3209 619 CircleF
5776 1182 CircleF
5872 1256 CircleF
6013 692 CircleF
6106 763 CircleF
1114 4264 CircleF
1222 4347 CircleF
6032 1864 CircleF
6107 1921 CircleF
6261 4450 CircleF
6328 4502 CircleF
6299 1098 CircleF
6362 1146 CircleF
4615 3360 CircleF
4692 3420 CircleF
2365 2607 CircleF
2461 2680 CircleF
5943 619 CircleF
6030 686 CircleF
1025 2499 CircleF
1142 2589 CircleF
3718 1481 CircleF
3800 1543 CircleF
978 3081 CircleF
1040 3129 CircleF
966 1890 CircleF
1039 1946 CircleF
5839 597 CircleF
5925 664 CircleF
987 1856 CircleF
1075 1924 CircleF
2283 2557 CircleF
2375 2628 CircleF
6304 484 CircleF
6422 574 CircleF
5658 1134 CircleF
5757 1210 CircleF
1189 2969 CircleF
1290 3047 CircleF
4680 803 CircleF
4793 889 CircleF
6012 1233 CircleF
6099 1300 CircleF
4216 3493 CircleF
4314 3569 CircleF
3579 4651 CircleF
3658 4712 CircleF
6683 2765 CircleF
6744 2812 CircleF
1852 2807 CircleF
1950 2883 CircleF
1784 4498 CircleF
1850 4548 CircleF
1110 1450 CircleF
1227 1540 CircleF
6502 4444 CircleF
6600 4519 CircleF
4817 400 CircleF
4882 451 CircleF
5691 3311 CircleF
5776 3376 CircleF
3837 1124 CircleF
3919 1187 CircleF
3545 3978 CircleF
3610 4028 CircleF
4522 3816 CircleF
4631 3900 CircleF
1151 1973 CircleF
1219 2026 CircleF
4212 3827 CircleF
4285 3882 CircleF
2485 2733 CircleF
2565 2794 CircleF
5775 4557 CircleF
5886 4643 CircleF
3008 764 CircleF
3068 811 CircleF
2962 492 CircleF
3049 559 CircleF
1465 4593 CircleF
1562 4668 CircleF
1323 4515 CircleF
1384 4562 CircleF
4172 688 CircleF
4245 743 CircleF
3354 288 CircleF
3419 338 CircleF
6401 309 CircleF
6498 383 CircleF
5284 2321 CircleF
5361 2380 CircleF
6117 4760 CircleF
6231 4847 CircleF
6014 1278 CircleF
6129 1366 CircleF
4568 3765 CircleF
4629 3811 CircleF
4179 2040 CircleF
4268 2109 CircleF
4762 2183 CircleF
4828 2234 CircleF
3457 1891 CircleF
3545 1958 CircleF
1955 850 CircleF
2056 928 CircleF
3537 4726 CircleF
3651 4813 CircleF
1973 3119 CircleF
2036 3167 CircleF
1259 476 CircleF
1326 527 CircleF
3134 653 CircleF
3199 703 CircleF
4739 3980 CircleF
4856 4069 CircleF
2762 3338 CircleF
2831 3391 CircleF
4977 479 CircleF
5047 533 CircleF
4874 4085 CircleF
4967 4156 CircleF
6657 2719 CircleF
6770 2806 CircleF
3417 3954 CircleF
3521 4034 CircleF
5481 802 CircleF
5593 888 CircleF
3245 4315 CircleF
3322 4374 CircleF
3771 2741 CircleF
3880 2825 CircleF
2865 2656 CircleF
2972 2738 CircleF
2293 1796 CircleF
2390 1871 CircleF
4466 2661 CircleF
4568 2739 CircleF
4611 2847 CircleF
4707 2920 CircleF
2440 3429 CircleF
2506 3480 CircleF
2958 3595 CircleF
3074 3684 CircleF
2802 2761 CircleF
2897 2834 CircleF
2151 3606 CircleF
2251 3683 CircleF
1177 2396 CircleF
1282 2477 CircleF
2775 3695 CircleF
2894 3786 CircleF
2393 821 CircleF
2501 905 CircleF
3089 305 CircleF
3154 355 CircleF
5214 2363 CircleF
5276 2410 CircleF
1791 2870 CircleF
1875 2934 CircleF
1535 4374 CircleF
1605 4428 CircleF
3272 2808 CircleF
3358 2874 CircleF
3774 718 CircleF
3836 765 CircleF
4029 1414 CircleF
4109 1475 CircleF
6639 1906 CircleF
6725 1972 CircleF
2865 4512 CircleF
2976 4597 CircleF
4881 710 CircleF
4953 765 CircleF
4917 3648 CircleF
4995 3709 CircleF
5671 1948 CircleF
5788 2037 CircleF
1589 3153 CircleF
1688 3229 CircleF
5740 2774 CircleF
5844 2854 CircleF
3236 2027 CircleF
3328 2098 CircleF
2593 3210 CircleF
2679 3276 CircleF
3176 1105 CircleF
3274 1180 CircleF
2305 733 CircleF
2404 810 CircleF
5432 3000 CircleF
5511 3061 CircleF
2306 3439 CircleF
2378 3495 CircleF
2119 2024 CircleF
2180 2072 CircleF
6775 2554 CircleF
6862 2621 CircleF
1549 3095 CircleF
1638 3163 CircleF
6473 3945 CircleF
6575 4024 CircleF
6012 4518 CircleF
6091 4578 CircleF
3663 2508 CircleF
3776 2595 CircleF
6163 1457 CircleF
6237 1514 CircleF
992 1136 CircleF
1105 1222 CircleF
6372 613 CircleF
6441 666 CircleF
1479 4728 CircleF
1546 4780 CircleF
3844 748 CircleF
3926 811 CircleF
4487 614 CircleF
4552 664 CircleF
1616 1145 CircleF
1720 1224 CircleF
4842 491 CircleF
4923 553 CircleF
2857 2490 CircleF
2969 2575 CircleF
4769 3108 CircleF
4853 3173 CircleF
5793 1107 CircleF
5910 1197 CircleF
2015 3653 CircleF
2077 3700 CircleF
3585 564 CircleF
3687 642 CircleF
3480 2039 CircleF
3561 2102 CircleF
4585 1926 CircleF
4688 2005 CircleF
4740 3456 CircleF
4827 3522 CircleF
6704 4421 CircleF
6771 4472 CircleF
4723 731 CircleF
4802 792 CircleF
1057 3619 CircleF
1147 3689 CircleF
1484 3373 CircleF
1601 3463 CircleF
4890 4236 CircleF
4977 4302 CircleF
5040 1088 CircleF
5143 1167 CircleF
4023 600 CircleF
4141 690 CircleF
2736 4176 CircleF
2837 4253 CircleF
2809 1676 CircleF
2884 1734 CircleF
5142 2739 CircleF
5242 2816 CircleF
4831 4522 CircleF
4930 4598 CircleF
1291 3820 CircleF
1399 3903 CircleF
6263 3732 CircleF
6353 3801 CircleF
4482 3776 CircleF
4566 3840 CircleF
6808 667 CircleF
6909 745 CircleF
4548 2190 CircleF
4657 2273 CircleF
1999 1302 CircleF
2062 1351 CircleF
1592 4750 CircleF
1693 4828 CircleF
4017 478 CircleF
4130 564 CircleF
1246 3975 CircleF
1359 4062 CircleF
3758 809 CircleF
3859 887 CircleF
5688 2114 CircleF
5752 2163 CircleF
1806 336 CircleF
1898 406 CircleF
6551 2976 CircleF
6652 3053 CircleF
6611 1290 CircleF
6709 1365 CircleF
5340 305 CircleF
5418 365 CircleF
1073 459 CircleF
1142 512 CircleF
3413 3511 CircleF
3486 3567 CircleF
3137 2569 CircleF
3209 2624 CircleF
6715 3036 CircleF
6809 3108 CircleF
3486 2204 CircleF
3548 2252 CircleF
3675 3204 CircleF
3765 3272 CircleF
1010 4472 CircleF
1123 4559 CircleF
1743 1748 CircleF
1846 1827 CircleF
5779 535 CircleF
5897 626 CircleF
1045 611 CircleF
1162 701 CircleF
5341 934 CircleF
5418 993 CircleF
3887 3413 CircleF
3985 3488 CircleF
4663 1828 CircleF
4732 1882 CircleF
4710 3851 CircleF
4810 3928 CircleF
3464 1990 CircleF
3569 2071 CircleF
3249 2901 CircleF
3360 2986 CircleF
3776 2195 CircleF
3850 2252 CircleF
4210 4114 CircleF
4318 4197 CircleF
6593 606 CircleF
6707 693 CircleF
3227 3533 CircleF
3298 3587 CircleF
3240 2797 CircleF
3342 2875 CircleF
3059 4237 CircleF
3159 4314 CircleF
4589 4455 CircleF
4650 4502 CircleF
5562 985 CircleF
5643 1047 CircleF
3738 3852 CircleF
3815 3911 CircleF
3242 997 CircleF
3303 1043 CircleF
2741 3435 CircleF
2811 3488 CircleF
1107 2370 CircleF
1222 2458 CircleF
5221 4496 CircleF
5288 4548 CircleF
2267 2738 CircleF
2374 2821 CircleF
3143 1241 CircleF
3238 1314 CircleF
1860 2916 CircleF
1976 3005 CircleF
2586 936 CircleF
2680 1008 CircleF
1553 690 CircleF
1616 739 CircleF
5927 3842 CircleF
6011 3906 CircleF
4453 859 CircleF
4522 912 CircleF
5141 1272 CircleF
5252 1357 CircleF
6161 3517 CircleF
6251 3587 CircleF
6612 3568 CircleF
6729 3658 CircleF
4322 2156 CircleF
4403 2219 CircleF
4500 4073 CircleF
4571 4127 CircleF
5039 2280 CircleF
5150 2365 CircleF
6045 307 CircleF
6149 387 CircleF
5667 2309 CircleF
5775 2391 CircleF
5278 1957 CircleF
5392 2045 CircleF
2479 1077 CircleF
2558 1138 CircleF
4733 3194 CircleF
4805 3249 CircleF
3481 2999 CircleF
3566 3065 CircleF
4500 3659 CircleF
4566 3709 CircleF
2563 1840 CircleF
2653 1909 CircleF
1647 2455 CircleF
1764 2545 CircleF
2524 2885 CircleF
2621 2959 CircleF
3587 3538 CircleF
3682 3611 CircleF
2166 659 CircleF
2258 730 CircleF
3665 2005 CircleF
3745 2066 CircleF
3953 3842 CircleF
4068 3930 CircleF
1086 1355 CircleF
1166 1416 CircleF
2800 3833 CircleF
2869 3886 CircleF
3211 3438 CircleF
3321 3522 CircleF
2758 2203 CircleF
2840 2266 CircleF
6543 312 CircleF
6631 379 CircleF
1665 3214 CircleF
1762 3289 CircleF
2257 4730 CircleF
2346 4798 CircleF
5293 3024 CircleF
5381 3092 CircleF
4590 4459 CircleF
4676 4525 CircleF
5302 3852 CircleF
5395 3924 CircleF
4898 2547 CircleF
4975 2607 CircleF
2394 415 CircleF
2473 475 CircleF
4099 2219 CircleF
4168 2272 CircleF
1552 4254 CircleF
1670 4344 CircleF
% End plot #2
1.000 UP
1.000 UL
LT0
0.50 0.50 0.50 C stroke
grestore
end
showpage
%%Trailer
%%DocumentFonts: Helvetica
%%Pages: 1
