%!PS-Adobe-2.0
%%Title: out.ps
%%Creator: gnuplot 4.6 patchlevel 6
%%CreationDate: Fri May 29 00:50:39 2015
%%DocumentFonts: (atend)
%%BoundingBox: 50 50 554 770
%%Orientation: Landscape
%%Pages: (atend)
%%EndComments
%%BeginProlog
/gnudict 256 dict def
gnudict begin
%
% The following true/false flags may be edited by hand if desired.
% The unit line width and grayscale image gamma correction may also be changed.
%
/Color false def
/Blacktext false def
/Solid false def
/Dashlength 1 def
/Landscape true def
/Level1 false def
/Rounded false def
/ClipToBoundingBox false def
/SuppressPDFMark false def
/TransparentPatterns false def
/gnulinewidth 5.000 def
/userlinewidth gnulinewidth def
/Gamma 1.0 def
/BackgroundColor {-1.000 -1.000 -1.000} def
%
/vshift -46 def
/dl1 {
  10.0 Dashlength mul mul
  Rounded { currentlinewidth 0.75 mul sub dup 0 le { pop 0.01 } if } if
} def
/dl2 {
  10.0 Dashlength mul mul
  Rounded { currentlinewidth 0.75 mul add } if
} def
/hpt_ 31.5 def
/vpt_ 31.5 def
/hpt hpt_ def
/vpt vpt_ def
/doclip {
  ClipToBoundingBox {
    newpath 50 50 moveto 554 50 lineto 554 770 lineto 50 770 lineto closepath
    clip
  } if
} def
%
% Gnuplot Prolog Version 4.6 (September 2012)
%
%/SuppressPDFMark true def
%
/M {moveto} bind def
/L {lineto} bind def
/R {rmoveto} bind def
/V {rlineto} bind def
/N {newpath moveto} bind def
/Z {closepath} bind def
/C {setrgbcolor} bind def
/f {rlineto fill} bind def
/g {setgray} bind def
/Gshow {show} def   % May be redefined later in the file to support UTF-8
/vpt2 vpt 2 mul def
/hpt2 hpt 2 mul def
/Lshow {currentpoint stroke M 0 vshift R 
	Blacktext {gsave 0 setgray show grestore} {show} ifelse} def
/Rshow {currentpoint stroke M dup stringwidth pop neg vshift R
	Blacktext {gsave 0 setgray show grestore} {show} ifelse} def
/Cshow {currentpoint stroke M dup stringwidth pop -2 div vshift R 
	Blacktext {gsave 0 setgray show grestore} {show} ifelse} def
/UP {dup vpt_ mul /vpt exch def hpt_ mul /hpt exch def
  /hpt2 hpt 2 mul def /vpt2 vpt 2 mul def} def
/DL {Color {setrgbcolor Solid {pop []} if 0 setdash}
 {pop pop pop 0 setgray Solid {pop []} if 0 setdash} ifelse} def
/BL {stroke userlinewidth 2 mul setlinewidth
	Rounded {1 setlinejoin 1 setlinecap} if} def
/AL {stroke userlinewidth 2 div setlinewidth
	Rounded {1 setlinejoin 1 setlinecap} if} def
/UL {dup gnulinewidth mul /userlinewidth exch def
	dup 1 lt {pop 1} if 10 mul /udl exch def} def
/PL {stroke userlinewidth setlinewidth
	Rounded {1 setlinejoin 1 setlinecap} if} def
3.8 setmiterlimit
% Default Line colors
/LCw {1 1 1} def
/LCb {0 0 0} def
/LCa {0 0 0} def
/LC0 {1 0 0} def
/LC1 {0 1 0} def
/LC2 {0 0 1} def
/LC3 {1 0 1} def
/LC4 {0 1 1} def
/LC5 {1 1 0} def
/LC6 {0 0 0} def
/LC7 {1 0.3 0} def
/LC8 {0.5 0.5 0.5} def
% Default Line Types
/LTw {PL [] 1 setgray} def
/LTb {BL [] LCb DL} def
/LTa {AL [1 udl mul 2 udl mul] 0 setdash LCa setrgbcolor} def
/LT0 {PL [] LC0 DL} def
/LT1 {PL [4 dl1 2 dl2] LC1 DL} def
/LT2 {PL [2 dl1 3 dl2] LC2 DL} def
/LT3 {PL [1 dl1 1.5 dl2] LC3 DL} def
/LT4 {PL [6 dl1 2 dl2 1 dl1 2 dl2] LC4 DL} def
/LT5 {PL [3 dl1 3 dl2 1 dl1 3 dl2] LC5 DL} def
/LT6 {PL [2 dl1 2 dl2 2 dl1 6 dl2] LC6 DL} def
/LT7 {PL [1 dl1 2 dl2 6 dl1 2 dl2 1 dl1 2 dl2] LC7 DL} def
/LT8 {PL [2 dl1 2 dl2 2 dl1 2 dl2 2 dl1 2 dl2 2 dl1 4 dl2] LC8 DL} def
/Pnt {stroke [] 0 setdash gsave 1 setlinecap M 0 0 V stroke grestore} def
/Dia {stroke [] 0 setdash 2 copy vpt add M
  hpt neg vpt neg V hpt vpt neg V
  hpt vpt V hpt neg vpt V closepath stroke
  Pnt} def
/Pls {stroke [] 0 setdash vpt sub M 0 vpt2 V
  currentpoint stroke M
  hpt neg vpt neg R hpt2 0 V stroke
 } def
/Box {stroke [] 0 setdash 2 copy exch hpt sub exch vpt add M
  0 vpt2 neg V hpt2 0 V 0 vpt2 V
  hpt2 neg 0 V closepath stroke
  Pnt} def
/Crs {stroke [] 0 setdash exch hpt sub exch vpt add M
  hpt2 vpt2 neg V currentpoint stroke M
  hpt2 neg 0 R hpt2 vpt2 V stroke} def
/TriU {stroke [] 0 setdash 2 copy vpt 1.12 mul add M
  hpt neg vpt -1.62 mul V
  hpt 2 mul 0 V
  hpt neg vpt 1.62 mul V closepath stroke
  Pnt} def
/Star {2 copy Pls Crs} def
/BoxF {stroke [] 0 setdash exch hpt sub exch vpt add M
  0 vpt2 neg V hpt2 0 V 0 vpt2 V
  hpt2 neg 0 V closepath fill} def
/TriUF {stroke [] 0 setdash vpt 1.12 mul add M
  hpt neg vpt -1.62 mul V
  hpt 2 mul 0 V
  hpt neg vpt 1.62 mul V closepath fill} def
/TriD {stroke [] 0 setdash 2 copy vpt 1.12 mul sub M
  hpt neg vpt 1.62 mul V
  hpt 2 mul 0 V
  hpt neg vpt -1.62 mul V closepath stroke
  Pnt} def
/TriDF {stroke [] 0 setdash vpt 1.12 mul sub M
  hpt neg vpt 1.62 mul V
  hpt 2 mul 0 V
  hpt neg vpt -1.62 mul V closepath fill} def
/DiaF {stroke [] 0 setdash vpt add M
  hpt neg vpt neg V hpt vpt neg V
  hpt vpt V hpt neg vpt V closepath fill} def
/Pent {stroke [] 0 setdash 2 copy gsave
  translate 0 hpt M 4 {72 rotate 0 hpt L} repeat
  closepath stroke grestore Pnt} def
/PentF {stroke [] 0 setdash gsave
  translate 0 hpt M 4 {72 rotate 0 hpt L} repeat
  closepath fill grestore} def
/Circle {stroke [] 0 setdash 2 copy
  hpt 0 360 arc stroke Pnt} def
/CircleF {stroke [] 0 setdash hpt 0 360 arc fill} def
/C0 {BL [] 0 setdash 2 copy moveto vpt 90 450 arc} bind def
/C1 {BL [] 0 setdash 2 copy moveto
	2 copy vpt 0 90 arc closepath fill
	vpt 0 360 arc closepath} bind def
/C2 {BL [] 0 setdash 2 copy moveto
	2 copy vpt 90 180 arc closepath fill
	vpt 0 360 arc closepath} bind def
/C3 {BL [] 0 setdash 2 copy moveto
	2 copy vpt 0 180 arc closepath fill
	vpt 0 360 arc closepath} bind def
/C4 {BL [] 0 setdash 2 copy moveto
	2 copy vpt 180 270 arc closepath fill
	vpt 0 360 arc closepath} bind def
/C5 {BL [] 0 setdash 2 copy moveto
	2 copy vpt 0 90 arc
	2 copy moveto
	2 copy vpt 180 270 arc closepath fill
	vpt 0 360 arc} bind def
/C6 {BL [] 0 setdash 2 copy moveto
	2 copy vpt 90 270 arc closepath fill
	vpt 0 360 arc closepath} bind def
/C7 {BL [] 0 setdash 2 copy moveto
	2 copy vpt 0 270 arc closepath fill
	vpt 0 360 arc closepath} bind def
/C8 {BL [] 0 setdash 2 copy moveto
	2 copy vpt 270 360 arc closepath fill
	vpt 0 360 arc closepath} bind def
/C9 {BL [] 0 setdash 2 copy moveto
	2 copy vpt 270 450 arc closepath fill
	vpt 0 360 arc closepath} bind def
/C10 {BL [] 0 setdash 2 copy 2 copy moveto vpt 270 360 arc closepath fill
	2 copy moveto
	2 copy vpt 90 180 arc closepath fill
	vpt 0 360 arc closepath} bind def
/C11 {BL [] 0 setdash 2 copy moveto
	2 copy vpt 0 180 arc closepath fill
	2 copy moveto
	2 copy vpt 270 360 arc closepath fill
	vpt 0 360 arc closepath} bind def
/C12 {BL [] 0 setdash 2 copy moveto
	2 copy vpt 180 360 arc closepath fill
	vpt 0 360 arc closepath} bind def
/C13 {BL [] 0 setdash 2 copy moveto
	2 copy vpt 0 90 arc closepath fill
	2 copy moveto
	2 copy vpt 180 360 arc closepath fill
	vpt 0 360 arc closepath} bind def
/C14 {BL [] 0 setdash 2 copy moveto
	2 copy vpt 90 360 arc closepath fill
	vpt 0 360 arc} bind def
/C15 {BL [] 0 setdash 2 copy vpt 0 360 arc closepath fill
	vpt 0 360 arc closepath} bind def
/Rec {newpath 4 2 roll moveto 1 index 0 rlineto 0 exch rlineto
	neg 0 rlineto closepath} bind def
/Square {dup Rec} bind def
/Bsquare {vpt sub exch vpt sub exch vpt2 Square} bind def
/S0 {BL [] 0 setdash 2 copy moveto 0 vpt rlineto BL Bsquare} bind def
/S1 {BL [] 0 setdash 2 copy vpt Square fill Bsquare} bind def
/S2 {BL [] 0 setdash 2 copy exch vpt sub exch vpt Square fill Bsquare} bind def
/S3 {BL [] 0 setdash 2 copy exch vpt sub exch vpt2 vpt Rec fill Bsquare} bind def
/S4 {BL [] 0 setdash 2 copy exch vpt sub exch vpt sub vpt Square fill Bsquare} bind def
/S5 {BL [] 0 setdash 2 copy 2 copy vpt Square fill
	exch vpt sub exch vpt sub vpt Square fill Bsquare} bind def
/S6 {BL [] 0 setdash 2 copy exch vpt sub exch vpt sub vpt vpt2 Rec fill Bsquare} bind def
/S7 {BL [] 0 setdash 2 copy exch vpt sub exch vpt sub vpt vpt2 Rec fill
	2 copy vpt Square fill Bsquare} bind def
/S8 {BL [] 0 setdash 2 copy vpt sub vpt Square fill Bsquare} bind def
/S9 {BL [] 0 setdash 2 copy vpt sub vpt vpt2 Rec fill Bsquare} bind def
/S10 {BL [] 0 setdash 2 copy vpt sub vpt Square fill 2 copy exch vpt sub exch vpt Square fill
	Bsquare} bind def
/S11 {BL [] 0 setdash 2 copy vpt sub vpt Square fill 2 copy exch vpt sub exch vpt2 vpt Rec fill
	Bsquare} bind def
/S12 {BL [] 0 setdash 2 copy exch vpt sub exch vpt sub vpt2 vpt Rec fill Bsquare} bind def
/S13 {BL [] 0 setdash 2 copy exch vpt sub exch vpt sub vpt2 vpt Rec fill
	2 copy vpt Square fill Bsquare} bind def
/S14 {BL [] 0 setdash 2 copy exch vpt sub exch vpt sub vpt2 vpt Rec fill
	2 copy exch vpt sub exch vpt Square fill Bsquare} bind def
/S15 {BL [] 0 setdash 2 copy Bsquare fill Bsquare} bind def
/D0 {gsave translate 45 rotate 0 0 S0 stroke grestore} bind def
/D1 {gsave translate 45 rotate 0 0 S1 stroke grestore} bind def
/D2 {gsave translate 45 rotate 0 0 S2 stroke grestore} bind def
/D3 {gsave translate 45 rotate 0 0 S3 stroke grestore} bind def
/D4 {gsave translate 45 rotate 0 0 S4 stroke grestore} bind def
/D5 {gsave translate 45 rotate 0 0 S5 stroke grestore} bind def
/D6 {gsave translate 45 rotate 0 0 S6 stroke grestore} bind def
/D7 {gsave translate 45 rotate 0 0 S7 stroke grestore} bind def
/D8 {gsave translate 45 rotate 0 0 S8 stroke grestore} bind def
/D9 {gsave translate 45 rotate 0 0 S9 stroke grestore} bind def
/D10 {gsave translate 45 rotate 0 0 S10 stroke grestore} bind def
/D11 {gsave translate 45 rotate 0 0 S11 stroke grestore} bind def
/D12 {gsave translate 45 rotate 0 0 S12 stroke grestore} bind def
/D13 {gsave translate 45 rotate 0 0 S13 stroke grestore} bind def
/D14 {gsave translate 45 rotate 0 0 S14 stroke grestore} bind def
/D15 {gsave translate 45 rotate 0 0 S15 stroke grestore} bind def
/DiaE {stroke [] 0 setdash vpt add M
  hpt neg vpt neg V hpt vpt neg V
  hpt vpt V hpt neg vpt V closepath stroke} def
/BoxE {stroke [] 0 setdash exch hpt sub exch vpt add M
  0 vpt2 neg V hpt2 0 V 0 vpt2 V
  hpt2 neg 0 V closepath stroke} def
/TriUE {stroke [] 0 setdash vpt 1.12 mul add M
  hpt neg vpt -1.62 mul V
  hpt 2 mul 0 V
  hpt neg vpt 1.62 mul V closepath stroke} def
/TriDE {stroke [] 0 setdash vpt 1.12 mul sub M
  hpt neg vpt 1.62 mul V
  hpt 2 mul 0 V
  hpt neg vpt -1.62 mul V closepath stroke} def
/PentE {stroke [] 0 setdash gsave
  translate 0 hpt M 4 {72 rotate 0 hpt L} repeat
  closepath stroke grestore} def
/CircE {stroke [] 0 setdash 
  hpt 0 360 arc stroke} def
/Opaque {gsave closepath 1 setgray fill grestore 0 setgray closepath} def
/DiaW {stroke [] 0 setdash vpt add M
  hpt neg vpt neg V hpt vpt neg V
  hpt vpt V hpt neg vpt V Opaque stroke} def
/BoxW {stroke [] 0 setdash exch hpt sub exch vpt add M
  0 vpt2 neg V hpt2 0 V 0 vpt2 V
  hpt2 neg 0 V Opaque stroke} def
/TriUW {stroke [] 0 setdash vpt 1.12 mul add M
  hpt neg vpt -1.62 mul V
  hpt 2 mul 0 V
  hpt neg vpt 1.62 mul V Opaque stroke} def
/TriDW {stroke [] 0 setdash vpt 1.12 mul sub M
  hpt neg vpt 1.62 mul V
  hpt 2 mul 0 V
  hpt neg vpt -1.62 mul V Opaque stroke} def
/PentW {stroke [] 0 setdash gsave
  translate 0 hpt M 4 {72 rotate 0 hpt L} repeat
  Opaque stroke grestore} def
/CircW {stroke [] 0 setdash 
  hpt 0 360 arc Opaque stroke} def
/BoxFill {gsave Rec 1 setgray fill grestore} def
/Density {
  /Fillden exch def
  currentrgbcolor
  /ColB exch def /ColG exch def /ColR exch def
  /ColR ColR Fillden mul Fillden sub 1 add def
  /ColG ColG Fillden mul Fillden sub 1 add def
  /ColB ColB Fillden mul Fillden sub 1 add def
  ColR ColG ColB setrgbcolor} def
/BoxColFill {gsave Rec PolyFill} def
/PolyFill {gsave Density fill grestore grestore} def
/h {rlineto rlineto rlineto gsave closepath fill grestore} bind def
%
% PostScript Level 1 Pattern Fill routine for rectangles
% Usage: x y w h s a XX PatternFill
%	x,y = lower left corner of box to be filled
%	w,h = width and height of box
%	  a = angle in degrees between lines and x-axis
%	 XX = 0/1 for no/yes cross-hatch
%
/PatternFill {gsave /PFa [ 9 2 roll ] def
  PFa 0 get PFa 2 get 2 div add PFa 1 get PFa 3 get 2 div add translate
  PFa 2 get -2 div PFa 3 get -2 div PFa 2 get PFa 3 get Rec
  TransparentPatterns {} {gsave 1 setgray fill grestore} ifelse
  clip
  currentlinewidth 0.5 mul setlinewidth
  /PFs PFa 2 get dup mul PFa 3 get dup mul add sqrt def
  0 0 M PFa 5 get rotate PFs -2 div dup translate
  0 1 PFs PFa 4 get div 1 add floor cvi
	{PFa 4 get mul 0 M 0 PFs V} for
  0 PFa 6 get ne {
	0 1 PFs PFa 4 get div 1 add floor cvi
	{PFa 4 get mul 0 2 1 roll M PFs 0 V} for
 } if
  stroke grestore} def
%
/languagelevel where
 {pop languagelevel} {1} ifelse
 2 lt
	{/InterpretLevel1 true def}
	{/InterpretLevel1 Level1 def}
 ifelse
%
% PostScript level 2 pattern fill definitions
%
/Level2PatternFill {
/Tile8x8 {/PaintType 2 /PatternType 1 /TilingType 1 /BBox [0 0 8 8] /XStep 8 /YStep 8}
	bind def
/KeepColor {currentrgbcolor [/Pattern /DeviceRGB] setcolorspace} bind def
<< Tile8x8
 /PaintProc {0.5 setlinewidth pop 0 0 M 8 8 L 0 8 M 8 0 L stroke} 
>> matrix makepattern
/Pat1 exch def
<< Tile8x8
 /PaintProc {0.5 setlinewidth pop 0 0 M 8 8 L 0 8 M 8 0 L stroke
	0 4 M 4 8 L 8 4 L 4 0 L 0 4 L stroke}
>> matrix makepattern
/Pat2 exch def
<< Tile8x8
 /PaintProc {0.5 setlinewidth pop 0 0 M 0 8 L
	8 8 L 8 0 L 0 0 L fill}
>> matrix makepattern
/Pat3 exch def
<< Tile8x8
 /PaintProc {0.5 setlinewidth pop -4 8 M 8 -4 L
	0 12 M 12 0 L stroke}
>> matrix makepattern
/Pat4 exch def
<< Tile8x8
 /PaintProc {0.5 setlinewidth pop -4 0 M 8 12 L
	0 -4 M 12 8 L stroke}
>> matrix makepattern
/Pat5 exch def
<< Tile8x8
 /PaintProc {0.5 setlinewidth pop -2 8 M 4 -4 L
	0 12 M 8 -4 L 4 12 M 10 0 L stroke}
>> matrix makepattern
/Pat6 exch def
<< Tile8x8
 /PaintProc {0.5 setlinewidth pop -2 0 M 4 12 L
	0 -4 M 8 12 L 4 -4 M 10 8 L stroke}
>> matrix makepattern
/Pat7 exch def
<< Tile8x8
 /PaintProc {0.5 setlinewidth pop 8 -2 M -4 4 L
	12 0 M -4 8 L 12 4 M 0 10 L stroke}
>> matrix makepattern
/Pat8 exch def
<< Tile8x8
 /PaintProc {0.5 setlinewidth pop 0 -2 M 12 4 L
	-4 0 M 12 8 L -4 4 M 8 10 L stroke}
>> matrix makepattern
/Pat9 exch def
/Pattern1 {PatternBgnd KeepColor Pat1 setpattern} bind def
/Pattern2 {PatternBgnd KeepColor Pat2 setpattern} bind def
/Pattern3 {PatternBgnd KeepColor Pat3 setpattern} bind def
/Pattern4 {PatternBgnd KeepColor Landscape {Pat5} {Pat4} ifelse setpattern} bind def
/Pattern5 {PatternBgnd KeepColor Landscape {Pat4} {Pat5} ifelse setpattern} bind def
/Pattern6 {PatternBgnd KeepColor Landscape {Pat9} {Pat6} ifelse setpattern} bind def
/Pattern7 {PatternBgnd KeepColor Landscape {Pat8} {Pat7} ifelse setpattern} bind def
} def
%
%
%End of PostScript Level 2 code
%
/PatternBgnd {
  TransparentPatterns {} {gsave 1 setgray fill grestore} ifelse
} def
%
% Substitute for Level 2 pattern fill codes with
% grayscale if Level 2 support is not selected.
%
/Level1PatternFill {
/Pattern1 {0.250 Density} bind def
/Pattern2 {0.500 Density} bind def
/Pattern3 {0.750 Density} bind def
/Pattern4 {0.125 Density} bind def
/Pattern5 {0.375 Density} bind def
/Pattern6 {0.625 Density} bind def
/Pattern7 {0.875 Density} bind def
} def
%
% Now test for support of Level 2 code
%
Level1 {Level1PatternFill} {Level2PatternFill} ifelse
%
/Symbol-Oblique /Symbol findfont [1 0 .167 1 0 0] makefont
dup length dict begin {1 index /FID eq {pop pop} {def} ifelse} forall
currentdict end definefont pop
Level1 SuppressPDFMark or 
{} {
/SDict 10 dict def
systemdict /pdfmark known not {
  userdict /pdfmark systemdict /cleartomark get put
} if
SDict begin [
  /Title (out.ps)
  /Subject (gnuplot plot)
  /Creator (gnuplot 4.6 patchlevel 6)
  /Author (yani)
%  /Producer (gnuplot)
%  /Keywords ()
  /CreationDate (Fri May 29 00:50:39 2015)
  /DOCINFO pdfmark
end
} ifelse
end
%%EndProlog
%%Page: 1 1
gnudict begin
gsave
doclip
50 50 translate
0.100 0.100 scale
90 rotate
0 -5040 translate
0 setgray
newpath
(Helvetica) findfont 140 scalefont setfont
BackgroundColor 0 lt 3 1 roll 0 lt exch 0 lt or or not {gsave BackgroundColor C clippath fill grestore} if
1.000 UL
LT0
0.50 0.50 0.50 C 1.000 UL
LTa
0.50 0.50 0.50 C 966 280 M
5981 0 V
stroke
LT0
0.50 0.50 0.50 C 966 280 M
63 0 V
5918 0 R
-63 0 V
882 280 M
( 0) Rshow
1.000 UL
LT0
0.50 0.50 0.50 C 1.000 UL
LTa
0.50 0.50 0.50 C 966 326 M
5981 0 V
stroke
LT0
0.50 0.50 0.50 C 966 326 M
63 0 V
5918 0 R
-63 0 V
882 326 M
( 0.707106) Rshow
1.000 UL
LT0
0.50 0.50 0.50 C 1.000 UL
LTa
0.50 0.50 0.50 C 966 372 M
5981 0 V
stroke
LT0
0.50 0.50 0.50 C 966 372 M
63 0 V
5918 0 R
-63 0 V
882 372 M
( 1.41421) Rshow
1.000 UL
LT0
0.50 0.50 0.50 C 1.000 UL
LTa
0.50 0.50 0.50 C 966 418 M
5981 0 V
stroke
LT0
0.50 0.50 0.50 C 966 418 M
63 0 V
5918 0 R
-63 0 V
882 418 M
( 2.12132) Rshow
1.000 UL
LT0
0.50 0.50 0.50 C 1.000 UL
LTa
0.50 0.50 0.50 C 966 464 M
5981 0 V
stroke
LT0
0.50 0.50 0.50 C 966 464 M
63 0 V
5918 0 R
-63 0 V
882 464 M
( 2.82842) Rshow
1.000 UL
LT0
0.50 0.50 0.50 C 1.000 UL
LTa
0.50 0.50 0.50 C 966 510 M
5981 0 V
stroke
LT0
0.50 0.50 0.50 C 966 510 M
63 0 V
5918 0 R
-63 0 V
882 510 M
( 3.53553) Rshow
1.000 UL
LT0
0.50 0.50 0.50 C 1.000 UL
LTa
0.50 0.50 0.50 C 966 555 M
5981 0 V
stroke
LT0
0.50 0.50 0.50 C 966 555 M
63 0 V
5918 0 R
-63 0 V
882 555 M
( 4.24264) Rshow
1.000 UL
LT0
0.50 0.50 0.50 C 1.000 UL
LTa
0.50 0.50 0.50 C 966 601 M
5981 0 V
stroke
LT0
0.50 0.50 0.50 C 966 601 M
63 0 V
5918 0 R
-63 0 V
882 601 M
( 4.94974) Rshow
1.000 UL
LT0
0.50 0.50 0.50 C 1.000 UL
LTa
0.50 0.50 0.50 C 966 647 M
5981 0 V
stroke
LT0
0.50 0.50 0.50 C 966 647 M
63 0 V
5918 0 R
-63 0 V
882 647 M
( 5.65685) Rshow
1.000 UL
LT0
0.50 0.50 0.50 C 1.000 UL
LTa
0.50 0.50 0.50 C 966 693 M
5981 0 V
stroke
LT0
0.50 0.50 0.50 C 966 693 M
63 0 V
5918 0 R
-63 0 V
882 693 M
( 6.36395) Rshow
1.000 UL
LT0
0.50 0.50 0.50 C 1.000 UL
LTa
0.50 0.50 0.50 C 966 739 M
5981 0 V
stroke
LT0
0.50 0.50 0.50 C 966 739 M
63 0 V
5918 0 R
-63 0 V
882 739 M
( 7.07106) Rshow
1.000 UL
LT0
0.50 0.50 0.50 C 1.000 UL
LTa
0.50 0.50 0.50 C 966 785 M
5981 0 V
stroke
LT0
0.50 0.50 0.50 C 966 785 M
63 0 V
5918 0 R
-63 0 V
882 785 M
( 7.77817) Rshow
1.000 UL
LT0
0.50 0.50 0.50 C 1.000 UL
LTa
0.50 0.50 0.50 C 966 831 M
5981 0 V
stroke
LT0
0.50 0.50 0.50 C 966 831 M
63 0 V
5918 0 R
-63 0 V
882 831 M
( 8.48527) Rshow
1.000 UL
LT0
0.50 0.50 0.50 C 1.000 UL
LTa
0.50 0.50 0.50 C 966 877 M
5981 0 V
stroke
LT0
0.50 0.50 0.50 C 966 877 M
63 0 V
5918 0 R
-63 0 V
882 877 M
( 9.19238) Rshow
1.000 UL
LT0
0.50 0.50 0.50 C 1.000 UL
LTa
0.50 0.50 0.50 C 966 923 M
5981 0 V
stroke
LT0
0.50 0.50 0.50 C 966 923 M
63 0 V
5918 0 R
-63 0 V
882 923 M
( 9.89948) Rshow
1.000 UL
LT0
0.50 0.50 0.50 C 1.000 UL
LTa
0.50 0.50 0.50 C 966 969 M
5981 0 V
stroke
LT0
0.50 0.50 0.50 C 966 969 M
63 0 V
5918 0 R
-63 0 V
882 969 M
( 10.6066) Rshow
1.000 UL
LT0
0.50 0.50 0.50 C 1.000 UL
LTa
0.50 0.50 0.50 C 966 1015 M
5981 0 V
stroke
LT0
0.50 0.50 0.50 C 966 1015 M
63 0 V
5918 0 R
-63 0 V
-6002 0 R
( 11.3137) Rshow
1.000 UL
LT0
0.50 0.50 0.50 C 1.000 UL
LTa
0.50 0.50 0.50 C 966 1060 M
5981 0 V
stroke
LT0
0.50 0.50 0.50 C 966 1060 M
63 0 V
5918 0 R
-63 0 V
-6002 0 R
( 12.0208) Rshow
1.000 UL
LT0
0.50 0.50 0.50 C 1.000 UL
LTa
0.50 0.50 0.50 C 966 1106 M
5981 0 V
stroke
LT0
0.50 0.50 0.50 C 966 1106 M
63 0 V
5918 0 R
-63 0 V
-6002 0 R
( 12.7279) Rshow
1.000 UL
LT0
0.50 0.50 0.50 C 1.000 UL
LTa
0.50 0.50 0.50 C 966 1152 M
5981 0 V
stroke
LT0
0.50 0.50 0.50 C 966 1152 M
63 0 V
5918 0 R
-63 0 V
-6002 0 R
( 13.435) Rshow
1.000 UL
LT0
0.50 0.50 0.50 C 1.000 UL
LTa
0.50 0.50 0.50 C 966 1198 M
5981 0 V
stroke
LT0
0.50 0.50 0.50 C 966 1198 M
63 0 V
5918 0 R
-63 0 V
-6002 0 R
( 14.1421) Rshow
1.000 UL
LT0
0.50 0.50 0.50 C 1.000 UL
LTa
0.50 0.50 0.50 C 966 1244 M
5981 0 V
stroke
LT0
0.50 0.50 0.50 C 966 1244 M
63 0 V
5918 0 R
-63 0 V
-6002 0 R
( 14.8492) Rshow
1.000 UL
LT0
0.50 0.50 0.50 C 1.000 UL
LTa
0.50 0.50 0.50 C 966 1290 M
5981 0 V
stroke
LT0
0.50 0.50 0.50 C 966 1290 M
63 0 V
5918 0 R
-63 0 V
-6002 0 R
( 15.5563) Rshow
1.000 UL
LT0
0.50 0.50 0.50 C 1.000 UL
LTa
0.50 0.50 0.50 C 966 1336 M
5981 0 V
stroke
LT0
0.50 0.50 0.50 C 966 1336 M
63 0 V
5918 0 R
-63 0 V
-6002 0 R
( 16.2634) Rshow
1.000 UL
LT0
0.50 0.50 0.50 C 1.000 UL
LTa
0.50 0.50 0.50 C 966 1382 M
5981 0 V
stroke
LT0
0.50 0.50 0.50 C 966 1382 M
63 0 V
5918 0 R
-63 0 V
-6002 0 R
( 16.9705) Rshow
1.000 UL
LT0
0.50 0.50 0.50 C 1.000 UL
LTa
0.50 0.50 0.50 C 966 1428 M
5981 0 V
stroke
LT0
0.50 0.50 0.50 C 966 1428 M
63 0 V
5918 0 R
-63 0 V
-6002 0 R
( 17.6776) Rshow
1.000 UL
LT0
0.50 0.50 0.50 C 1.000 UL
LTa
0.50 0.50 0.50 C 966 1474 M
5981 0 V
stroke
LT0
0.50 0.50 0.50 C 966 1474 M
63 0 V
5918 0 R
-63 0 V
-6002 0 R
( 18.3848) Rshow
1.000 UL
LT0
0.50 0.50 0.50 C 1.000 UL
LTa
0.50 0.50 0.50 C 966 1520 M
5981 0 V
stroke
LT0
0.50 0.50 0.50 C 966 1520 M
63 0 V
5918 0 R
-63 0 V
-6002 0 R
( 19.0919) Rshow
1.000 UL
LT0
0.50 0.50 0.50 C 1.000 UL
LTa
0.50 0.50 0.50 C 966 1565 M
5981 0 V
stroke
LT0
0.50 0.50 0.50 C 966 1565 M
63 0 V
5918 0 R
-63 0 V
-6002 0 R
( 19.799) Rshow
1.000 UL
LT0
0.50 0.50 0.50 C 1.000 UL
LTa
0.50 0.50 0.50 C 966 1611 M
5981 0 V
stroke
LT0
0.50 0.50 0.50 C 966 1611 M
63 0 V
5918 0 R
-63 0 V
-6002 0 R
( 20.5061) Rshow
1.000 UL
LT0
0.50 0.50 0.50 C 1.000 UL
LTa
0.50 0.50 0.50 C 966 1657 M
5981 0 V
stroke
LT0
0.50 0.50 0.50 C 966 1657 M
63 0 V
5918 0 R
-63 0 V
-6002 0 R
( 21.2132) Rshow
1.000 UL
LT0
0.50 0.50 0.50 C 1.000 UL
LTa
0.50 0.50 0.50 C 966 1703 M
5981 0 V
stroke
LT0
0.50 0.50 0.50 C 966 1703 M
63 0 V
5918 0 R
-63 0 V
-6002 0 R
( 21.9203) Rshow
1.000 UL
LT0
0.50 0.50 0.50 C 1.000 UL
LTa
0.50 0.50 0.50 C 966 1749 M
5981 0 V
stroke
LT0
0.50 0.50 0.50 C 966 1749 M
63 0 V
5918 0 R
-63 0 V
-6002 0 R
( 22.6274) Rshow
1.000 UL
LT0
0.50 0.50 0.50 C 1.000 UL
LTa
0.50 0.50 0.50 C 966 1795 M
5981 0 V
stroke
LT0
0.50 0.50 0.50 C 966 1795 M
63 0 V
5918 0 R
-63 0 V
-6002 0 R
( 23.3345) Rshow
1.000 UL
LT0
0.50 0.50 0.50 C 1.000 UL
LTa
0.50 0.50 0.50 C 966 1841 M
5981 0 V
stroke
LT0
0.50 0.50 0.50 C 966 1841 M
63 0 V
5918 0 R
-63 0 V
-6002 0 R
( 24.0416) Rshow
1.000 UL
LT0
0.50 0.50 0.50 C 1.000 UL
LTa
0.50 0.50 0.50 C 966 1887 M
5981 0 V
stroke
LT0
0.50 0.50 0.50 C 966 1887 M
63 0 V
5918 0 R
-63 0 V
-6002 0 R
( 24.7487) Rshow
1.000 UL
LT0
0.50 0.50 0.50 C 1.000 UL
LTa
0.50 0.50 0.50 C 966 1933 M
5981 0 V
stroke
LT0
0.50 0.50 0.50 C 966 1933 M
63 0 V
5918 0 R
-63 0 V
-6002 0 R
( 25.4558) Rshow
1.000 UL
LT0
0.50 0.50 0.50 C 1.000 UL
LTa
0.50 0.50 0.50 C 966 1979 M
5981 0 V
stroke
LT0
0.50 0.50 0.50 C 966 1979 M
63 0 V
5918 0 R
-63 0 V
-6002 0 R
( 26.1629) Rshow
1.000 UL
LT0
0.50 0.50 0.50 C 1.000 UL
LTa
0.50 0.50 0.50 C 966 2025 M
5981 0 V
stroke
LT0
0.50 0.50 0.50 C 966 2025 M
63 0 V
5918 0 R
-63 0 V
-6002 0 R
( 26.87) Rshow
1.000 UL
LT0
0.50 0.50 0.50 C 1.000 UL
LTa
0.50 0.50 0.50 C 966 2070 M
5981 0 V
stroke
LT0
0.50 0.50 0.50 C 966 2070 M
63 0 V
5918 0 R
-63 0 V
-6002 0 R
( 27.5771) Rshow
1.000 UL
LT0
0.50 0.50 0.50 C 1.000 UL
LTa
0.50 0.50 0.50 C 966 2116 M
5981 0 V
stroke
LT0
0.50 0.50 0.50 C 966 2116 M
63 0 V
5918 0 R
-63 0 V
-6002 0 R
( 28.2842) Rshow
1.000 UL
LT0
0.50 0.50 0.50 C 1.000 UL
LTa
0.50 0.50 0.50 C 966 2162 M
5981 0 V
stroke
LT0
0.50 0.50 0.50 C 966 2162 M
63 0 V
5918 0 R
-63 0 V
-6002 0 R
( 28.9913) Rshow
1.000 UL
LT0
0.50 0.50 0.50 C 1.000 UL
LTa
0.50 0.50 0.50 C 966 2208 M
5981 0 V
stroke
LT0
0.50 0.50 0.50 C 966 2208 M
63 0 V
5918 0 R
-63 0 V
-6002 0 R
( 29.6985) Rshow
1.000 UL
LT0
0.50 0.50 0.50 C 1.000 UL
LTa
0.50 0.50 0.50 C 966 2254 M
5981 0 V
stroke
LT0
0.50 0.50 0.50 C 966 2254 M
63 0 V
5918 0 R
-63 0 V
-6002 0 R
( 30.4056) Rshow
1.000 UL
LT0
0.50 0.50 0.50 C 1.000 UL
LTa
0.50 0.50 0.50 C 966 2300 M
5981 0 V
stroke
LT0
0.50 0.50 0.50 C 966 2300 M
63 0 V
5918 0 R
-63 0 V
-6002 0 R
( 31.1127) Rshow
1.000 UL
LT0
0.50 0.50 0.50 C 1.000 UL
LTa
0.50 0.50 0.50 C 966 2346 M
5981 0 V
stroke
LT0
0.50 0.50 0.50 C 966 2346 M
63 0 V
5918 0 R
-63 0 V
-6002 0 R
( 31.8198) Rshow
1.000 UL
LT0
0.50 0.50 0.50 C 1.000 UL
LTa
0.50 0.50 0.50 C 966 2392 M
5981 0 V
stroke
LT0
0.50 0.50 0.50 C 966 2392 M
63 0 V
5918 0 R
-63 0 V
-6002 0 R
( 32.5269) Rshow
1.000 UL
LT0
0.50 0.50 0.50 C 1.000 UL
LTa
0.50 0.50 0.50 C 966 2438 M
5981 0 V
stroke
LT0
0.50 0.50 0.50 C 966 2438 M
63 0 V
5918 0 R
-63 0 V
-6002 0 R
( 33.234) Rshow
1.000 UL
LT0
0.50 0.50 0.50 C 1.000 UL
LTa
0.50 0.50 0.50 C 966 2484 M
5981 0 V
stroke
LT0
0.50 0.50 0.50 C 966 2484 M
63 0 V
5918 0 R
-63 0 V
-6002 0 R
( 33.9411) Rshow
1.000 UL
LT0
0.50 0.50 0.50 C 1.000 UL
LTa
0.50 0.50 0.50 C 966 2530 M
5981 0 V
stroke
LT0
0.50 0.50 0.50 C 966 2530 M
63 0 V
5918 0 R
-63 0 V
-6002 0 R
( 34.6482) Rshow
1.000 UL
LT0
0.50 0.50 0.50 C 1.000 UL
LTa
0.50 0.50 0.50 C 966 2576 M
5981 0 V
stroke
LT0
0.50 0.50 0.50 C 966 2576 M
63 0 V
5918 0 R
-63 0 V
-6002 0 R
( 35.3553) Rshow
1.000 UL
LT0
0.50 0.50 0.50 C 1.000 UL
LTa
0.50 0.50 0.50 C 966 2621 M
5981 0 V
stroke
LT0
0.50 0.50 0.50 C 966 2621 M
63 0 V
5918 0 R
-63 0 V
-6002 0 R
( 36.0624) Rshow
1.000 UL
LT0
0.50 0.50 0.50 C 1.000 UL
LTa
0.50 0.50 0.50 C 966 2667 M
5981 0 V
stroke
LT0
0.50 0.50 0.50 C 966 2667 M
63 0 V
5918 0 R
-63 0 V
-6002 0 R
( 36.7695) Rshow
1.000 UL
LT0
0.50 0.50 0.50 C 1.000 UL
LTa
0.50 0.50 0.50 C 966 2713 M
5981 0 V
stroke
LT0
0.50 0.50 0.50 C 966 2713 M
63 0 V
5918 0 R
-63 0 V
-6002 0 R
( 37.4766) Rshow
1.000 UL
LT0
0.50 0.50 0.50 C 1.000 UL
LTa
0.50 0.50 0.50 C 966 2759 M
5981 0 V
stroke
LT0
0.50 0.50 0.50 C 966 2759 M
63 0 V
5918 0 R
-63 0 V
-6002 0 R
( 38.1837) Rshow
1.000 UL
LT0
0.50 0.50 0.50 C 1.000 UL
LTa
0.50 0.50 0.50 C 966 2805 M
5981 0 V
stroke
LT0
0.50 0.50 0.50 C 966 2805 M
63 0 V
5918 0 R
-63 0 V
-6002 0 R
( 38.8908) Rshow
1.000 UL
LT0
0.50 0.50 0.50 C 1.000 UL
LTa
0.50 0.50 0.50 C 966 2851 M
5981 0 V
stroke
LT0
0.50 0.50 0.50 C 966 2851 M
63 0 V
5918 0 R
-63 0 V
-6002 0 R
( 39.5979) Rshow
1.000 UL
LT0
0.50 0.50 0.50 C 1.000 UL
LTa
0.50 0.50 0.50 C 966 2897 M
5981 0 V
stroke
LT0
0.50 0.50 0.50 C 966 2897 M
63 0 V
5918 0 R
-63 0 V
-6002 0 R
( 40.305) Rshow
1.000 UL
LT0
0.50 0.50 0.50 C 1.000 UL
LTa
0.50 0.50 0.50 C 966 2943 M
5981 0 V
stroke
LT0
0.50 0.50 0.50 C 966 2943 M
63 0 V
5918 0 R
-63 0 V
-6002 0 R
( 41.0121) Rshow
1.000 UL
LT0
0.50 0.50 0.50 C 1.000 UL
LTa
0.50 0.50 0.50 C 966 2989 M
5981 0 V
stroke
LT0
0.50 0.50 0.50 C 966 2989 M
63 0 V
5918 0 R
-63 0 V
-6002 0 R
( 41.7193) Rshow
1.000 UL
LT0
0.50 0.50 0.50 C 1.000 UL
LTa
0.50 0.50 0.50 C 966 3035 M
5981 0 V
stroke
LT0
0.50 0.50 0.50 C 966 3035 M
63 0 V
5918 0 R
-63 0 V
-6002 0 R
( 42.4264) Rshow
1.000 UL
LT0
0.50 0.50 0.50 C 1.000 UL
LTa
0.50 0.50 0.50 C 966 3081 M
5981 0 V
stroke
LT0
0.50 0.50 0.50 C 966 3081 M
63 0 V
5918 0 R
-63 0 V
-6002 0 R
( 43.1335) Rshow
1.000 UL
LT0
0.50 0.50 0.50 C 1.000 UL
LTa
0.50 0.50 0.50 C 966 3126 M
5981 0 V
stroke
LT0
0.50 0.50 0.50 C 966 3126 M
63 0 V
5918 0 R
-63 0 V
-6002 0 R
( 43.8406) Rshow
1.000 UL
LT0
0.50 0.50 0.50 C 1.000 UL
LTa
0.50 0.50 0.50 C 966 3172 M
5981 0 V
stroke
LT0
0.50 0.50 0.50 C 966 3172 M
63 0 V
5918 0 R
-63 0 V
-6002 0 R
( 44.5477) Rshow
1.000 UL
LT0
0.50 0.50 0.50 C 1.000 UL
LTa
0.50 0.50 0.50 C 966 3218 M
5981 0 V
stroke
LT0
0.50 0.50 0.50 C 966 3218 M
63 0 V
5918 0 R
-63 0 V
-6002 0 R
( 45.2548) Rshow
1.000 UL
LT0
0.50 0.50 0.50 C 1.000 UL
LTa
0.50 0.50 0.50 C 966 3264 M
5981 0 V
stroke
LT0
0.50 0.50 0.50 C 966 3264 M
63 0 V
5918 0 R
-63 0 V
-6002 0 R
( 45.9619) Rshow
1.000 UL
LT0
0.50 0.50 0.50 C 1.000 UL
LTa
0.50 0.50 0.50 C 966 3310 M
5981 0 V
stroke
LT0
0.50 0.50 0.50 C 966 3310 M
63 0 V
5918 0 R
-63 0 V
-6002 0 R
( 46.669) Rshow
1.000 UL
LT0
0.50 0.50 0.50 C 1.000 UL
LTa
0.50 0.50 0.50 C 966 3356 M
5981 0 V
stroke
LT0
0.50 0.50 0.50 C 966 3356 M
63 0 V
5918 0 R
-63 0 V
-6002 0 R
( 47.3761) Rshow
1.000 UL
LT0
0.50 0.50 0.50 C 1.000 UL
LTa
0.50 0.50 0.50 C 966 3402 M
5981 0 V
stroke
LT0
0.50 0.50 0.50 C 966 3402 M
63 0 V
5918 0 R
-63 0 V
-6002 0 R
( 48.0832) Rshow
1.000 UL
LT0
0.50 0.50 0.50 C 1.000 UL
LTa
0.50 0.50 0.50 C 966 3448 M
5981 0 V
stroke
LT0
0.50 0.50 0.50 C 966 3448 M
63 0 V
5918 0 R
-63 0 V
-6002 0 R
( 48.7903) Rshow
1.000 UL
LT0
0.50 0.50 0.50 C 1.000 UL
LTa
0.50 0.50 0.50 C 966 3494 M
5981 0 V
stroke
LT0
0.50 0.50 0.50 C 966 3494 M
63 0 V
5918 0 R
-63 0 V
-6002 0 R
( 49.4974) Rshow
1.000 UL
LT0
0.50 0.50 0.50 C 1.000 UL
LTa
0.50 0.50 0.50 C 966 3540 M
5981 0 V
stroke
LT0
0.50 0.50 0.50 C 966 3540 M
63 0 V
5918 0 R
-63 0 V
-6002 0 R
( 50.2045) Rshow
1.000 UL
LT0
0.50 0.50 0.50 C 1.000 UL
LTa
0.50 0.50 0.50 C 966 3586 M
5981 0 V
stroke
LT0
0.50 0.50 0.50 C 966 3586 M
63 0 V
5918 0 R
-63 0 V
-6002 0 R
( 50.9116) Rshow
1.000 UL
LT0
0.50 0.50 0.50 C 1.000 UL
LTa
0.50 0.50 0.50 C 966 3631 M
5981 0 V
stroke
LT0
0.50 0.50 0.50 C 966 3631 M
63 0 V
5918 0 R
-63 0 V
-6002 0 R
( 51.6187) Rshow
1.000 UL
LT0
0.50 0.50 0.50 C 1.000 UL
LTa
0.50 0.50 0.50 C 966 3677 M
5981 0 V
stroke
LT0
0.50 0.50 0.50 C 966 3677 M
63 0 V
5918 0 R
-63 0 V
-6002 0 R
( 52.3258) Rshow
1.000 UL
LT0
0.50 0.50 0.50 C 1.000 UL
LTa
0.50 0.50 0.50 C 966 3723 M
5981 0 V
stroke
LT0
0.50 0.50 0.50 C 966 3723 M
63 0 V
5918 0 R
-63 0 V
-6002 0 R
( 53.033) Rshow
1.000 UL
LT0
0.50 0.50 0.50 C 1.000 UL
LTa
0.50 0.50 0.50 C 966 3769 M
5981 0 V
stroke
LT0
0.50 0.50 0.50 C 966 3769 M
63 0 V
5918 0 R
-63 0 V
-6002 0 R
( 53.7401) Rshow
1.000 UL
LT0
0.50 0.50 0.50 C 1.000 UL
LTa
0.50 0.50 0.50 C 966 3815 M
5981 0 V
stroke
LT0
0.50 0.50 0.50 C 966 3815 M
63 0 V
5918 0 R
-63 0 V
-6002 0 R
( 54.4472) Rshow
1.000 UL
LT0
0.50 0.50 0.50 C 1.000 UL
LTa
0.50 0.50 0.50 C 966 3861 M
5981 0 V
stroke
LT0
0.50 0.50 0.50 C 966 3861 M
63 0 V
5918 0 R
-63 0 V
-6002 0 R
( 55.1543) Rshow
1.000 UL
LT0
0.50 0.50 0.50 C 1.000 UL
LTa
0.50 0.50 0.50 C 966 3907 M
5981 0 V
stroke
LT0
0.50 0.50 0.50 C 966 3907 M
63 0 V
5918 0 R
-63 0 V
-6002 0 R
( 55.8614) Rshow
1.000 UL
LT0
0.50 0.50 0.50 C 1.000 UL
LTa
0.50 0.50 0.50 C 966 3953 M
5981 0 V
stroke
LT0
0.50 0.50 0.50 C 966 3953 M
63 0 V
5918 0 R
-63 0 V
-6002 0 R
( 56.5685) Rshow
1.000 UL
LT0
0.50 0.50 0.50 C 1.000 UL
LTa
0.50 0.50 0.50 C 966 3999 M
5981 0 V
stroke
LT0
0.50 0.50 0.50 C 966 3999 M
63 0 V
5918 0 R
-63 0 V
-6002 0 R
( 57.2756) Rshow
1.000 UL
LT0
0.50 0.50 0.50 C 1.000 UL
LTa
0.50 0.50 0.50 C 966 4045 M
5981 0 V
stroke
LT0
0.50 0.50 0.50 C 966 4045 M
63 0 V
5918 0 R
-63 0 V
-6002 0 R
( 57.9827) Rshow
1.000 UL
LT0
0.50 0.50 0.50 C 1.000 UL
LTa
0.50 0.50 0.50 C 966 4091 M
5981 0 V
stroke
LT0
0.50 0.50 0.50 C 966 4091 M
63 0 V
5918 0 R
-63 0 V
-6002 0 R
( 58.6898) Rshow
1.000 UL
LT0
0.50 0.50 0.50 C 1.000 UL
LTa
0.50 0.50 0.50 C 966 4136 M
5981 0 V
stroke
LT0
0.50 0.50 0.50 C 966 4136 M
63 0 V
5918 0 R
-63 0 V
-6002 0 R
( 59.3969) Rshow
1.000 UL
LT0
0.50 0.50 0.50 C 1.000 UL
LTa
0.50 0.50 0.50 C 966 4182 M
5981 0 V
stroke
LT0
0.50 0.50 0.50 C 966 4182 M
63 0 V
5918 0 R
-63 0 V
-6002 0 R
( 60.104) Rshow
1.000 UL
LT0
0.50 0.50 0.50 C 1.000 UL
LTa
0.50 0.50 0.50 C 966 4228 M
5981 0 V
stroke
LT0
0.50 0.50 0.50 C 966 4228 M
63 0 V
5918 0 R
-63 0 V
-6002 0 R
( 60.8111) Rshow
1.000 UL
LT0
0.50 0.50 0.50 C 1.000 UL
LTa
0.50 0.50 0.50 C 966 4274 M
5981 0 V
stroke
LT0
0.50 0.50 0.50 C 966 4274 M
63 0 V
5918 0 R
-63 0 V
-6002 0 R
( 61.5182) Rshow
1.000 UL
LT0
0.50 0.50 0.50 C 1.000 UL
LTa
0.50 0.50 0.50 C 966 4320 M
5981 0 V
stroke
LT0
0.50 0.50 0.50 C 966 4320 M
63 0 V
5918 0 R
-63 0 V
-6002 0 R
( 62.2253) Rshow
1.000 UL
LT0
0.50 0.50 0.50 C 1.000 UL
LTa
0.50 0.50 0.50 C 966 4366 M
5981 0 V
stroke
LT0
0.50 0.50 0.50 C 966 4366 M
63 0 V
5918 0 R
-63 0 V
-6002 0 R
( 62.9324) Rshow
1.000 UL
LT0
0.50 0.50 0.50 C 1.000 UL
LTa
0.50 0.50 0.50 C 966 4412 M
5981 0 V
stroke
LT0
0.50 0.50 0.50 C 966 4412 M
63 0 V
5918 0 R
-63 0 V
-6002 0 R
( 63.6395) Rshow
1.000 UL
LT0
0.50 0.50 0.50 C 1.000 UL
LTa
0.50 0.50 0.50 C 966 4458 M
5981 0 V
stroke
LT0
0.50 0.50 0.50 C 966 4458 M
63 0 V
5918 0 R
-63 0 V
-6002 0 R
( 64.3466) Rshow
1.000 UL
LT0
0.50 0.50 0.50 C 1.000 UL
LTa
0.50 0.50 0.50 C 966 4504 M
5981 0 V
stroke
LT0
0.50 0.50 0.50 C 966 4504 M
63 0 V
5918 0 R
-63 0 V
-6002 0 R
( 65.0538) Rshow
1.000 UL
LT0
0.50 0.50 0.50 C 1.000 UL
LTa
0.50 0.50 0.50 C 966 4550 M
5981 0 V
stroke
LT0
0.50 0.50 0.50 C 966 4550 M
63 0 V
5918 0 R
-63 0 V
-6002 0 R
( 65.7609) Rshow
1.000 UL
LT0
0.50 0.50 0.50 C 1.000 UL
LTa
0.50 0.50 0.50 C 966 4596 M
5981 0 V
stroke
LT0
0.50 0.50 0.50 C 966 4596 M
63 0 V
5918 0 R
-63 0 V
-6002 0 R
( 66.468) Rshow
1.000 UL
LT0
0.50 0.50 0.50 C 1.000 UL
LTa
0.50 0.50 0.50 C 966 4641 M
5981 0 V
stroke
LT0
0.50 0.50 0.50 C 966 4641 M
63 0 V
5918 0 R
-63 0 V
-6002 0 R
( 67.1751) Rshow
1.000 UL
LT0
0.50 0.50 0.50 C 1.000 UL
LTa
0.50 0.50 0.50 C 966 4687 M
5981 0 V
stroke
LT0
0.50 0.50 0.50 C 966 4687 M
63 0 V
5918 0 R
-63 0 V
-6002 0 R
( 67.8822) Rshow
1.000 UL
LT0
0.50 0.50 0.50 C 1.000 UL
LTa
0.50 0.50 0.50 C 966 4733 M
5981 0 V
stroke
LT0
0.50 0.50 0.50 C 966 4733 M
63 0 V
5918 0 R
-63 0 V
-6002 0 R
( 68.5893) Rshow
1.000 UL
LT0
0.50 0.50 0.50 C 1.000 UL
LTa
0.50 0.50 0.50 C 966 4779 M
5981 0 V
stroke
LT0
0.50 0.50 0.50 C 966 4779 M
63 0 V
5918 0 R
-63 0 V
-6002 0 R
( 69.2964) Rshow
1.000 UL
LT0
0.50 0.50 0.50 C 1.000 UL
LTa
0.50 0.50 0.50 C 966 4825 M
5981 0 V
stroke
LT0
0.50 0.50 0.50 C 966 4825 M
63 0 V
5918 0 R
-63 0 V
-6002 0 R
( 70.0035) Rshow
1.000 UL
LT0
0.50 0.50 0.50 C 1.000 UL
LTa
0.50 0.50 0.50 C 966 4871 M
5981 0 V
stroke
LT0
0.50 0.50 0.50 C 966 4871 M
63 0 V
5918 0 R
-63 0 V
-6002 0 R
( 70.7106) Rshow
1.000 UL
LT0
0.50 0.50 0.50 C 1.000 UL
LTa
0.50 0.50 0.50 C 966 280 M
0 4591 V
stroke
LT0
0.50 0.50 0.50 C 966 280 M
0 63 V
0 4528 R
0 -63 V
966 140 M
( 0) Cshow
1.000 UL
LT0
0.50 0.50 0.50 C 1.000 UL
LTa
0.50 0.50 0.50 C 1026 280 M
0 4591 V
stroke
LT0
0.50 0.50 0.50 C 1026 280 M
0 63 V
0 4528 R
0 -63 V
0 -4668 R
( 0.707106) Cshow
1.000 UL
LT0
0.50 0.50 0.50 C 1.000 UL
LTa
0.50 0.50 0.50 C 1086 280 M
0 4591 V
stroke
LT0
0.50 0.50 0.50 C 1086 280 M
0 63 V
0 4528 R
0 -63 V
0 -4668 R
( 1.41421) Cshow
1.000 UL
LT0
0.50 0.50 0.50 C 1.000 UL
LTa
0.50 0.50 0.50 C 1145 280 M
0 4591 V
stroke
LT0
0.50 0.50 0.50 C 1145 280 M
0 63 V
0 4528 R
0 -63 V
0 -4668 R
( 2.12132) Cshow
1.000 UL
LT0
0.50 0.50 0.50 C 1.000 UL
LTa
0.50 0.50 0.50 C 1205 280 M
0 4591 V
stroke
LT0
0.50 0.50 0.50 C 1205 280 M
0 63 V
0 4528 R
0 -63 V
0 -4668 R
( 2.82842) Cshow
1.000 UL
LT0
0.50 0.50 0.50 C 1.000 UL
LTa
0.50 0.50 0.50 C 1265 280 M
0 4591 V
stroke
LT0
0.50 0.50 0.50 C 1265 280 M
0 63 V
0 4528 R
0 -63 V
0 -4668 R
( 3.53553) Cshow
1.000 UL
LT0
0.50 0.50 0.50 C 1.000 UL
LTa
0.50 0.50 0.50 C 1325 280 M
0 4591 V
stroke
LT0
0.50 0.50 0.50 C 1325 280 M
0 63 V
0 4528 R
0 -63 V
0 -4668 R
( 4.24264) Cshow
1.000 UL
LT0
0.50 0.50 0.50 C 1.000 UL
LTa
0.50 0.50 0.50 C 1385 280 M
0 4591 V
stroke
LT0
0.50 0.50 0.50 C 1385 280 M
0 63 V
0 4528 R
0 -63 V
0 -4668 R
( 4.94974) Cshow
1.000 UL
LT0
0.50 0.50 0.50 C 1.000 UL
LTa
0.50 0.50 0.50 C 1444 280 M
0 4591 V
stroke
LT0
0.50 0.50 0.50 C 1444 280 M
0 63 V
0 4528 R
0 -63 V
0 -4668 R
( 5.65685) Cshow
1.000 UL
LT0
0.50 0.50 0.50 C 1.000 UL
LTa
0.50 0.50 0.50 C 1504 280 M
0 4591 V
stroke
LT0
0.50 0.50 0.50 C 1504 280 M
0 63 V
0 4528 R
0 -63 V
0 -4668 R
( 6.36395) Cshow
1.000 UL
LT0
0.50 0.50 0.50 C 1.000 UL
LTa
0.50 0.50 0.50 C 1564 280 M
0 4591 V
stroke
LT0
0.50 0.50 0.50 C 1564 280 M
0 63 V
0 4528 R
0 -63 V
0 -4668 R
( 7.07106) Cshow
1.000 UL
LT0
0.50 0.50 0.50 C 1.000 UL
LTa
0.50 0.50 0.50 C 1624 280 M
0 4591 V
stroke
LT0
0.50 0.50 0.50 C 1624 280 M
0 63 V
0 4528 R
0 -63 V
0 -4668 R
( 7.77817) Cshow
1.000 UL
LT0
0.50 0.50 0.50 C 1.000 UL
LTa
0.50 0.50 0.50 C 1684 280 M
0 4591 V
stroke
LT0
0.50 0.50 0.50 C 1684 280 M
0 63 V
0 4528 R
0 -63 V
0 -4668 R
( 8.48527) Cshow
1.000 UL
LT0
0.50 0.50 0.50 C 1.000 UL
LTa
0.50 0.50 0.50 C 1744 280 M
0 4591 V
stroke
LT0
0.50 0.50 0.50 C 1744 280 M
0 63 V
0 4528 R
0 -63 V
0 -4668 R
( 9.19238) Cshow
1.000 UL
LT0
0.50 0.50 0.50 C 1.000 UL
LTa
0.50 0.50 0.50 C 1803 280 M
0 4591 V
stroke
LT0
0.50 0.50 0.50 C 1803 280 M
0 63 V
0 4528 R
0 -63 V
0 -4668 R
( 9.89948) Cshow
1.000 UL
LT0
0.50 0.50 0.50 C 1.000 UL
LTa
0.50 0.50 0.50 C 1863 280 M
0 4591 V
stroke
LT0
0.50 0.50 0.50 C 1863 280 M
0 63 V
0 4528 R
0 -63 V
0 -4668 R
( 10.6066) Cshow
1.000 UL
LT0
0.50 0.50 0.50 C 1.000 UL
LTa
0.50 0.50 0.50 C 1923 280 M
0 4591 V
stroke
LT0
0.50 0.50 0.50 C 1923 280 M
0 63 V
0 4528 R
0 -63 V
0 -4668 R
( 11.3137) Cshow
1.000 UL
LT0
0.50 0.50 0.50 C 1.000 UL
LTa
0.50 0.50 0.50 C 1983 280 M
0 4591 V
stroke
LT0
0.50 0.50 0.50 C 1983 280 M
0 63 V
0 4528 R
0 -63 V
0 -4668 R
( 12.0208) Cshow
1.000 UL
LT0
0.50 0.50 0.50 C 1.000 UL
LTa
0.50 0.50 0.50 C 2043 280 M
0 4591 V
stroke
LT0
0.50 0.50 0.50 C 2043 280 M
0 63 V
0 4528 R
0 -63 V
0 -4668 R
( 12.7279) Cshow
1.000 UL
LT0
0.50 0.50 0.50 C 1.000 UL
LTa
0.50 0.50 0.50 C 2102 280 M
0 4591 V
stroke
LT0
0.50 0.50 0.50 C 2102 280 M
0 63 V
0 4528 R
0 -63 V
0 -4668 R
( 13.435) Cshow
1.000 UL
LT0
0.50 0.50 0.50 C 1.000 UL
LTa
0.50 0.50 0.50 C 2162 280 M
0 4591 V
stroke
LT0
0.50 0.50 0.50 C 2162 280 M
0 63 V
0 4528 R
0 -63 V
0 -4668 R
( 14.1421) Cshow
1.000 UL
LT0
0.50 0.50 0.50 C 1.000 UL
LTa
0.50 0.50 0.50 C 2222 280 M
0 4591 V
stroke
LT0
0.50 0.50 0.50 C 2222 280 M
0 63 V
0 4528 R
0 -63 V
0 -4668 R
( 14.8492) Cshow
1.000 UL
LT0
0.50 0.50 0.50 C 1.000 UL
LTa
0.50 0.50 0.50 C 2282 280 M
0 4591 V
stroke
LT0
0.50 0.50 0.50 C 2282 280 M
0 63 V
0 4528 R
0 -63 V
0 -4668 R
( 15.5563) Cshow
1.000 UL
LT0
0.50 0.50 0.50 C 1.000 UL
LTa
0.50 0.50 0.50 C 2342 280 M
0 4591 V
stroke
LT0
0.50 0.50 0.50 C 2342 280 M
0 63 V
0 4528 R
0 -63 V
0 -4668 R
( 16.2634) Cshow
1.000 UL
LT0
0.50 0.50 0.50 C 1.000 UL
LTa
0.50 0.50 0.50 C 2401 280 M
0 4591 V
stroke
LT0
0.50 0.50 0.50 C 2401 280 M
0 63 V
0 4528 R
0 -63 V
0 -4668 R
( 16.9705) Cshow
1.000 UL
LT0
0.50 0.50 0.50 C 1.000 UL
LTa
0.50 0.50 0.50 C 2461 280 M
0 4591 V
stroke
LT0
0.50 0.50 0.50 C 2461 280 M
0 63 V
0 4528 R
0 -63 V
0 -4668 R
( 17.6776) Cshow
1.000 UL
LT0
0.50 0.50 0.50 C 1.000 UL
LTa
0.50 0.50 0.50 C 2521 280 M
0 4591 V
stroke
LT0
0.50 0.50 0.50 C 2521 280 M
0 63 V
0 4528 R
0 -63 V
0 -4668 R
( 18.3848) Cshow
1.000 UL
LT0
0.50 0.50 0.50 C 1.000 UL
LTa
0.50 0.50 0.50 C 2581 280 M
0 4591 V
stroke
LT0
0.50 0.50 0.50 C 2581 280 M
0 63 V
0 4528 R
0 -63 V
0 -4668 R
( 19.0919) Cshow
1.000 UL
LT0
0.50 0.50 0.50 C 1.000 UL
LTa
0.50 0.50 0.50 C 2641 280 M
0 4591 V
stroke
LT0
0.50 0.50 0.50 C 2641 280 M
0 63 V
0 4528 R
0 -63 V
0 -4668 R
( 19.799) Cshow
1.000 UL
LT0
0.50 0.50 0.50 C 1.000 UL
LTa
0.50 0.50 0.50 C 2700 280 M
0 4591 V
stroke
LT0
0.50 0.50 0.50 C 2700 280 M
0 63 V
0 4528 R
0 -63 V
0 -4668 R
( 20.5061) Cshow
1.000 UL
LT0
0.50 0.50 0.50 C 1.000 UL
LTa
0.50 0.50 0.50 C 2760 280 M
0 4591 V
stroke
LT0
0.50 0.50 0.50 C 2760 280 M
0 63 V
0 4528 R
0 -63 V
0 -4668 R
( 21.2132) Cshow
1.000 UL
LT0
0.50 0.50 0.50 C 1.000 UL
LTa
0.50 0.50 0.50 C 2820 280 M
0 4591 V
stroke
LT0
0.50 0.50 0.50 C 2820 280 M
0 63 V
0 4528 R
0 -63 V
0 -4668 R
( 21.9203) Cshow
1.000 UL
LT0
0.50 0.50 0.50 C 1.000 UL
LTa
0.50 0.50 0.50 C 2880 280 M
0 4591 V
stroke
LT0
0.50 0.50 0.50 C 2880 280 M
0 63 V
0 4528 R
0 -63 V
0 -4668 R
( 22.6274) Cshow
1.000 UL
LT0
0.50 0.50 0.50 C 1.000 UL
LTa
0.50 0.50 0.50 C 2940 280 M
0 4591 V
stroke
LT0
0.50 0.50 0.50 C 2940 280 M
0 63 V
0 4528 R
0 -63 V
0 -4668 R
( 23.3345) Cshow
1.000 UL
LT0
0.50 0.50 0.50 C 1.000 UL
LTa
0.50 0.50 0.50 C 3000 280 M
0 4591 V
stroke
LT0
0.50 0.50 0.50 C 3000 280 M
0 63 V
0 4528 R
0 -63 V
0 -4668 R
( 24.0416) Cshow
1.000 UL
LT0
0.50 0.50 0.50 C 1.000 UL
LTa
0.50 0.50 0.50 C 3059 280 M
0 4591 V
stroke
LT0
0.50 0.50 0.50 C 3059 280 M
0 63 V
0 4528 R
0 -63 V
0 -4668 R
( 24.7487) Cshow
1.000 UL
LT0
0.50 0.50 0.50 C 1.000 UL
LTa
0.50 0.50 0.50 C 3119 280 M
0 4591 V
stroke
LT0
0.50 0.50 0.50 C 3119 280 M
0 63 V
0 4528 R
0 -63 V
0 -4668 R
( 25.4558) Cshow
1.000 UL
LT0
0.50 0.50 0.50 C 1.000 UL
LTa
0.50 0.50 0.50 C 3179 280 M
0 4591 V
stroke
LT0
0.50 0.50 0.50 C 3179 280 M
0 63 V
0 4528 R
0 -63 V
0 -4668 R
( 26.1629) Cshow
1.000 UL
LT0
0.50 0.50 0.50 C 1.000 UL
LTa
0.50 0.50 0.50 C 3239 280 M
0 4591 V
stroke
LT0
0.50 0.50 0.50 C 3239 280 M
0 63 V
0 4528 R
0 -63 V
0 -4668 R
( 26.87) Cshow
1.000 UL
LT0
0.50 0.50 0.50 C 1.000 UL
LTa
0.50 0.50 0.50 C 3299 280 M
0 4591 V
stroke
LT0
0.50 0.50 0.50 C 3299 280 M
0 63 V
0 4528 R
0 -63 V
0 -4668 R
( 27.5771) Cshow
1.000 UL
LT0
0.50 0.50 0.50 C 1.000 UL
LTa
0.50 0.50 0.50 C 3358 280 M
0 4591 V
stroke
LT0
0.50 0.50 0.50 C 3358 280 M
0 63 V
0 4528 R
0 -63 V
0 -4668 R
( 28.2842) Cshow
1.000 UL
LT0
0.50 0.50 0.50 C 1.000 UL
LTa
0.50 0.50 0.50 C 3418 280 M
0 4591 V
stroke
LT0
0.50 0.50 0.50 C 3418 280 M
0 63 V
0 4528 R
0 -63 V
0 -4668 R
( 28.9913) Cshow
1.000 UL
LT0
0.50 0.50 0.50 C 1.000 UL
LTa
0.50 0.50 0.50 C 3478 280 M
0 4591 V
stroke
LT0
0.50 0.50 0.50 C 3478 280 M
0 63 V
0 4528 R
0 -63 V
0 -4668 R
( 29.6985) Cshow
1.000 UL
LT0
0.50 0.50 0.50 C 1.000 UL
LTa
0.50 0.50 0.50 C 3538 280 M
0 4591 V
stroke
LT0
0.50 0.50 0.50 C 3538 280 M
0 63 V
0 4528 R
0 -63 V
0 -4668 R
( 30.4056) Cshow
1.000 UL
LT0
0.50 0.50 0.50 C 1.000 UL
LTa
0.50 0.50 0.50 C 3598 280 M
0 4591 V
stroke
LT0
0.50 0.50 0.50 C 3598 280 M
0 63 V
0 4528 R
0 -63 V
0 -4668 R
( 31.1127) Cshow
1.000 UL
LT0
0.50 0.50 0.50 C 1.000 UL
LTa
0.50 0.50 0.50 C 3657 280 M
0 4591 V
stroke
LT0
0.50 0.50 0.50 C 3657 280 M
0 63 V
0 4528 R
0 -63 V
0 -4668 R
( 31.8198) Cshow
1.000 UL
LT0
0.50 0.50 0.50 C 1.000 UL
LTa
0.50 0.50 0.50 C 3717 280 M
0 4591 V
stroke
LT0
0.50 0.50 0.50 C 3717 280 M
0 63 V
0 4528 R
0 -63 V
0 -4668 R
( 32.5269) Cshow
1.000 UL
LT0
0.50 0.50 0.50 C 1.000 UL
LTa
0.50 0.50 0.50 C 3777 280 M
0 4591 V
stroke
LT0
0.50 0.50 0.50 C 3777 280 M
0 63 V
0 4528 R
0 -63 V
0 -4668 R
( 33.234) Cshow
1.000 UL
LT0
0.50 0.50 0.50 C 1.000 UL
LTa
0.50 0.50 0.50 C 3837 280 M
0 4591 V
stroke
LT0
0.50 0.50 0.50 C 3837 280 M
0 63 V
0 4528 R
0 -63 V
0 -4668 R
( 33.9411) Cshow
1.000 UL
LT0
0.50 0.50 0.50 C 1.000 UL
LTa
0.50 0.50 0.50 C 3897 280 M
0 4591 V
stroke
LT0
0.50 0.50 0.50 C 3897 280 M
0 63 V
0 4528 R
0 -63 V
0 -4668 R
( 34.6482) Cshow
1.000 UL
LT0
0.50 0.50 0.50 C 1.000 UL
LTa
0.50 0.50 0.50 C 3957 280 M
0 4591 V
stroke
LT0
0.50 0.50 0.50 C 3957 280 M
0 63 V
0 4528 R
0 -63 V
0 -4668 R
( 35.3553) Cshow
1.000 UL
LT0
0.50 0.50 0.50 C 1.000 UL
LTa
0.50 0.50 0.50 C 4016 280 M
0 4591 V
stroke
LT0
0.50 0.50 0.50 C 4016 280 M
0 63 V
0 4528 R
0 -63 V
0 -4668 R
( 36.0624) Cshow
1.000 UL
LT0
0.50 0.50 0.50 C 1.000 UL
LTa
0.50 0.50 0.50 C 4076 280 M
0 4591 V
stroke
LT0
0.50 0.50 0.50 C 4076 280 M
0 63 V
0 4528 R
0 -63 V
0 -4668 R
( 36.7695) Cshow
1.000 UL
LT0
0.50 0.50 0.50 C 1.000 UL
LTa
0.50 0.50 0.50 C 4136 280 M
0 4591 V
stroke
LT0
0.50 0.50 0.50 C 4136 280 M
0 63 V
0 4528 R
0 -63 V
0 -4668 R
( 37.4766) Cshow
1.000 UL
LT0
0.50 0.50 0.50 C 1.000 UL
LTa
0.50 0.50 0.50 C 4196 280 M
0 4591 V
stroke
LT0
0.50 0.50 0.50 C 4196 280 M
0 63 V
0 4528 R
0 -63 V
0 -4668 R
( 38.1837) Cshow
1.000 UL
LT0
0.50 0.50 0.50 C 1.000 UL
LTa
0.50 0.50 0.50 C 4256 280 M
0 4591 V
stroke
LT0
0.50 0.50 0.50 C 4256 280 M
0 63 V
0 4528 R
0 -63 V
0 -4668 R
( 38.8908) Cshow
1.000 UL
LT0
0.50 0.50 0.50 C 1.000 UL
LTa
0.50 0.50 0.50 C 4315 280 M
0 4591 V
stroke
LT0
0.50 0.50 0.50 C 4315 280 M
0 63 V
0 4528 R
0 -63 V
0 -4668 R
( 39.5979) Cshow
1.000 UL
LT0
0.50 0.50 0.50 C 1.000 UL
LTa
0.50 0.50 0.50 C 4375 280 M
0 4591 V
stroke
LT0
0.50 0.50 0.50 C 4375 280 M
0 63 V
0 4528 R
0 -63 V
0 -4668 R
( 40.305) Cshow
1.000 UL
LT0
0.50 0.50 0.50 C 1.000 UL
LTa
0.50 0.50 0.50 C 4435 280 M
0 4591 V
stroke
LT0
0.50 0.50 0.50 C 4435 280 M
0 63 V
0 4528 R
0 -63 V
0 -4668 R
( 41.0121) Cshow
1.000 UL
LT0
0.50 0.50 0.50 C 1.000 UL
LTa
0.50 0.50 0.50 C 4495 280 M
0 4591 V
stroke
LT0
0.50 0.50 0.50 C 4495 280 M
0 63 V
0 4528 R
0 -63 V
0 -4668 R
( 41.7193) Cshow
1.000 UL
LT0
0.50 0.50 0.50 C 1.000 UL
LTa
0.50 0.50 0.50 C 4555 280 M
0 4591 V
stroke
LT0
0.50 0.50 0.50 C 4555 280 M
0 63 V
0 4528 R
0 -63 V
0 -4668 R
( 42.4264) Cshow
1.000 UL
LT0
0.50 0.50 0.50 C 1.000 UL
LTa
0.50 0.50 0.50 C 4614 280 M
0 4591 V
stroke
LT0
0.50 0.50 0.50 C 4614 280 M
0 63 V
0 4528 R
0 -63 V
0 -4668 R
( 43.1335) Cshow
1.000 UL
LT0
0.50 0.50 0.50 C 1.000 UL
LTa
0.50 0.50 0.50 C 4674 280 M
0 4591 V
stroke
LT0
0.50 0.50 0.50 C 4674 280 M
0 63 V
0 4528 R
0 -63 V
0 -4668 R
( 43.8406) Cshow
1.000 UL
LT0
0.50 0.50 0.50 C 1.000 UL
LTa
0.50 0.50 0.50 C 4734 280 M
0 4591 V
stroke
LT0
0.50 0.50 0.50 C 4734 280 M
0 63 V
0 4528 R
0 -63 V
0 -4668 R
( 44.5477) Cshow
1.000 UL
LT0
0.50 0.50 0.50 C 1.000 UL
LTa
0.50 0.50 0.50 C 4794 280 M
0 4591 V
stroke
LT0
0.50 0.50 0.50 C 4794 280 M
0 63 V
0 4528 R
0 -63 V
0 -4668 R
( 45.2548) Cshow
1.000 UL
LT0
0.50 0.50 0.50 C 1.000 UL
LTa
0.50 0.50 0.50 C 4854 280 M
0 4591 V
stroke
LT0
0.50 0.50 0.50 C 4854 280 M
0 63 V
0 4528 R
0 -63 V
0 -4668 R
( 45.9619) Cshow
1.000 UL
LT0
0.50 0.50 0.50 C 1.000 UL
LTa
0.50 0.50 0.50 C 4913 280 M
0 4591 V
stroke
LT0
0.50 0.50 0.50 C 4913 280 M
0 63 V
0 4528 R
0 -63 V
0 -4668 R
( 46.669) Cshow
1.000 UL
LT0
0.50 0.50 0.50 C 1.000 UL
LTa
0.50 0.50 0.50 C 4973 280 M
0 4591 V
stroke
LT0
0.50 0.50 0.50 C 4973 280 M
0 63 V
0 4528 R
0 -63 V
0 -4668 R
( 47.3761) Cshow
1.000 UL
LT0
0.50 0.50 0.50 C 1.000 UL
LTa
0.50 0.50 0.50 C 5033 280 M
0 4591 V
stroke
LT0
0.50 0.50 0.50 C 5033 280 M
0 63 V
0 4528 R
0 -63 V
0 -4668 R
( 48.0832) Cshow
1.000 UL
LT0
0.50 0.50 0.50 C 1.000 UL
LTa
0.50 0.50 0.50 C 5093 280 M
0 4591 V
stroke
LT0
0.50 0.50 0.50 C 5093 280 M
0 63 V
0 4528 R
0 -63 V
0 -4668 R
( 48.7903) Cshow
1.000 UL
LT0
0.50 0.50 0.50 C 1.000 UL
LTa
0.50 0.50 0.50 C 5153 280 M
0 4591 V
stroke
LT0
0.50 0.50 0.50 C 5153 280 M
0 63 V
0 4528 R
0 -63 V
0 -4668 R
( 49.4974) Cshow
1.000 UL
LT0
0.50 0.50 0.50 C 1.000 UL
LTa
0.50 0.50 0.50 C 5213 280 M
0 4591 V
stroke
LT0
0.50 0.50 0.50 C 5213 280 M
0 63 V
0 4528 R
0 -63 V
0 -4668 R
( 50.2045) Cshow
1.000 UL
LT0
0.50 0.50 0.50 C 1.000 UL
LTa
0.50 0.50 0.50 C 5272 280 M
0 4591 V
stroke
LT0
0.50 0.50 0.50 C 5272 280 M
0 63 V
0 4528 R
0 -63 V
0 -4668 R
( 50.9116) Cshow
1.000 UL
LT0
0.50 0.50 0.50 C 1.000 UL
LTa
0.50 0.50 0.50 C 5332 280 M
0 4591 V
stroke
LT0
0.50 0.50 0.50 C 5332 280 M
0 63 V
0 4528 R
0 -63 V
0 -4668 R
( 51.6187) Cshow
1.000 UL
LT0
0.50 0.50 0.50 C 1.000 UL
LTa
0.50 0.50 0.50 C 5392 280 M
0 4591 V
stroke
LT0
0.50 0.50 0.50 C 5392 280 M
0 63 V
0 4528 R
0 -63 V
0 -4668 R
( 52.3258) Cshow
1.000 UL
LT0
0.50 0.50 0.50 C 1.000 UL
LTa
0.50 0.50 0.50 C 5452 280 M
0 4591 V
stroke
LT0
0.50 0.50 0.50 C 5452 280 M
0 63 V
0 4528 R
0 -63 V
0 -4668 R
( 53.033) Cshow
1.000 UL
LT0
0.50 0.50 0.50 C 1.000 UL
LTa
0.50 0.50 0.50 C 5512 280 M
0 4591 V
stroke
LT0
0.50 0.50 0.50 C 5512 280 M
0 63 V
0 4528 R
0 -63 V
0 -4668 R
( 53.7401) Cshow
1.000 UL
LT0
0.50 0.50 0.50 C 1.000 UL
LTa
0.50 0.50 0.50 C 5571 280 M
0 4591 V
stroke
LT0
0.50 0.50 0.50 C 5571 280 M
0 63 V
0 4528 R
0 -63 V
0 -4668 R
( 54.4472) Cshow
1.000 UL
LT0
0.50 0.50 0.50 C 1.000 UL
LTa
0.50 0.50 0.50 C 5631 280 M
0 4591 V
stroke
LT0
0.50 0.50 0.50 C 5631 280 M
0 63 V
0 4528 R
0 -63 V
0 -4668 R
( 55.1543) Cshow
1.000 UL
LT0
0.50 0.50 0.50 C 1.000 UL
LTa
0.50 0.50 0.50 C 5691 280 M
0 4591 V
stroke
LT0
0.50 0.50 0.50 C 5691 280 M
0 63 V
0 4528 R
0 -63 V
0 -4668 R
( 55.8614) Cshow
1.000 UL
LT0
0.50 0.50 0.50 C 1.000 UL
LTa
0.50 0.50 0.50 C 5751 280 M
0 4591 V
stroke
LT0
0.50 0.50 0.50 C 5751 280 M
0 63 V
0 4528 R
0 -63 V
0 -4668 R
( 56.5685) Cshow
1.000 UL
LT0
0.50 0.50 0.50 C 1.000 UL
LTa
0.50 0.50 0.50 C 5811 280 M
0 4591 V
stroke
LT0
0.50 0.50 0.50 C 5811 280 M
0 63 V
0 4528 R
0 -63 V
0 -4668 R
( 57.2756) Cshow
1.000 UL
LT0
0.50 0.50 0.50 C 1.000 UL
LTa
0.50 0.50 0.50 C 5870 280 M
0 4591 V
stroke
LT0
0.50 0.50 0.50 C 5870 280 M
0 63 V
0 4528 R
0 -63 V
0 -4668 R
( 57.9827) Cshow
1.000 UL
LT0
0.50 0.50 0.50 C 1.000 UL
LTa
0.50 0.50 0.50 C 5930 280 M
0 4591 V
stroke
LT0
0.50 0.50 0.50 C 5930 280 M
0 63 V
0 4528 R
0 -63 V
0 -4668 R
( 58.6898) Cshow
1.000 UL
LT0
0.50 0.50 0.50 C 1.000 UL
LTa
0.50 0.50 0.50 C 5990 280 M
0 4591 V
stroke
LT0
0.50 0.50 0.50 C 5990 280 M
0 63 V
0 4528 R
0 -63 V
0 -4668 R
( 59.3969) Cshow
1.000 UL
LT0
0.50 0.50 0.50 C 1.000 UL
LTa
0.50 0.50 0.50 C 6050 280 M
0 4591 V
stroke
LT0
0.50 0.50 0.50 C 6050 280 M
0 63 V
0 4528 R
0 -63 V
0 -4668 R
( 60.104) Cshow
1.000 UL
LT0
0.50 0.50 0.50 C 1.000 UL
LTa
0.50 0.50 0.50 C 6110 280 M
0 4591 V
stroke
LT0
0.50 0.50 0.50 C 6110 280 M
0 63 V
0 4528 R
0 -63 V
0 -4668 R
( 60.8111) Cshow
1.000 UL
LT0
0.50 0.50 0.50 C 1.000 UL
LTa
0.50 0.50 0.50 C 6169 280 M
0 4591 V
stroke
LT0
0.50 0.50 0.50 C 6169 280 M
0 63 V
0 4528 R
0 -63 V
0 -4668 R
( 61.5182) Cshow
1.000 UL
LT0
0.50 0.50 0.50 C 1.000 UL
LTa
0.50 0.50 0.50 C 6229 280 M
0 4591 V
stroke
LT0
0.50 0.50 0.50 C 6229 280 M
0 63 V
0 4528 R
0 -63 V
0 -4668 R
( 62.2253) Cshow
1.000 UL
LT0
0.50 0.50 0.50 C 1.000 UL
LTa
0.50 0.50 0.50 C 6289 280 M
0 4591 V
stroke
LT0
0.50 0.50 0.50 C 6289 280 M
0 63 V
0 4528 R
0 -63 V
0 -4668 R
( 62.9324) Cshow
1.000 UL
LT0
0.50 0.50 0.50 C 1.000 UL
LTa
0.50 0.50 0.50 C 6349 280 M
0 4591 V
stroke
LT0
0.50 0.50 0.50 C 6349 280 M
0 63 V
0 4528 R
0 -63 V
0 -4668 R
( 63.6395) Cshow
1.000 UL
LT0
0.50 0.50 0.50 C 1.000 UL
LTa
0.50 0.50 0.50 C 6409 280 M
0 4591 V
stroke
LT0
0.50 0.50 0.50 C 6409 280 M
0 63 V
0 4528 R
0 -63 V
0 -4668 R
( 64.3466) Cshow
1.000 UL
LT0
0.50 0.50 0.50 C 1.000 UL
LTa
0.50 0.50 0.50 C 6469 280 M
0 4591 V
stroke
LT0
0.50 0.50 0.50 C 6469 280 M
0 63 V
0 4528 R
0 -63 V
0 -4668 R
( 65.0538) Cshow
1.000 UL
LT0
0.50 0.50 0.50 C 1.000 UL
LTa
0.50 0.50 0.50 C 6528 280 M
0 4591 V
stroke
LT0
0.50 0.50 0.50 C 6528 280 M
0 63 V
0 4528 R
0 -63 V
0 -4668 R
( 65.7609) Cshow
1.000 UL
LT0
0.50 0.50 0.50 C 1.000 UL
LTa
0.50 0.50 0.50 C 6588 280 M
0 4591 V
stroke
LT0
0.50 0.50 0.50 C 6588 280 M
0 63 V
0 4528 R
0 -63 V
0 -4668 R
( 66.468) Cshow
1.000 UL
LT0
0.50 0.50 0.50 C 1.000 UL
LTa
0.50 0.50 0.50 C 6648 280 M
0 4591 V
stroke
LT0
0.50 0.50 0.50 C 6648 280 M
0 63 V
0 4528 R
0 -63 V
0 -4668 R
( 67.1751) Cshow
1.000 UL
LT0
0.50 0.50 0.50 C 1.000 UL
LTa
0.50 0.50 0.50 C 6708 280 M
0 4591 V
stroke
LT0
0.50 0.50 0.50 C 6708 280 M
0 63 V
0 4528 R
0 -63 V
0 -4668 R
( 67.8822) Cshow
1.000 UL
LT0
0.50 0.50 0.50 C 1.000 UL
LTa
0.50 0.50 0.50 C 6768 280 M
0 4591 V
stroke
LT0
0.50 0.50 0.50 C 6768 280 M
0 63 V
0 4528 R
0 -63 V
0 -4668 R
( 68.5893) Cshow
1.000 UL
LT0
0.50 0.50 0.50 C 1.000 UL
LTa
0.50 0.50 0.50 C 6827 280 M
0 4591 V
stroke
LT0
0.50 0.50 0.50 C 6827 280 M
0 63 V
0 4528 R
0 -63 V
0 -4668 R
( 69.2964) Cshow
1.000 UL
LT0
0.50 0.50 0.50 C 1.000 UL
LTa
0.50 0.50 0.50 C 6887 280 M
0 4591 V
stroke
LT0
0.50 0.50 0.50 C 6887 280 M
0 63 V
0 4528 R
0 -63 V
0 -4668 R
( 70.0035) Cshow
1.000 UL
LT0
0.50 0.50 0.50 C 1.000 UL
LTa
0.50 0.50 0.50 C 6947 280 M
0 4591 V
stroke
LT0
0.50 0.50 0.50 C 6947 280 M
0 63 V
0 4528 R
0 -63 V
0 -4668 R
( 70.7106) Cshow
1.000 UL
LT0
0.50 0.50 0.50 C 1.000 UL
LT0
0.50 0.50 0.50 C 966 4871 M
966 280 L
5981 0 V
0 4591 R
-5981 0 R
1.000 UP
stroke
LT0
0.50 0.50 0.50 C % Begin plot #1
1.500 UP
2.000 UL
LT0
0.00 0.00 1.00 C /Helvetica findfont 140 scalefont setfont
/vshift -46 def
1325 372 M
60 0 V
0 46 R
59 0 V
0 92 R
60 0 V
60 0 V
60 0 V
60 0 V
60 0 V
59 0 V
60 0 V
60 0 V
60 0 V
0 183 R
60 0 V
59 0 V
60 0 V
60 0 V
60 0 V
60 0 V
0 46 R
59 0 V
60 0 V
60 0 V
60 0 V
0 92 R
60 0 V
59 0 V
60 0 V
0 46 R
60 0 V
0 138 R
60 0 V
60 0 V
60 0 V
59 0 V
60 0 V
60 0 V
60 0 V
60 0 V
59 0 V
60 0 V
60 0 V
60 0 V
60 0 V
59 0 V
60 0 V
60 0 V
60 0 V
60 0 V
60 0 V
59 0 V
60 0 V
60 0 V
60 0 V
0 275 R
60 0 V
0 92 R
59 0 V
60 0 V
60 0 V
60 0 V
60 0 V
59 0 V
60 0 V
60 0 V
60 0 V
0 46 R
60 0 V
0 275 R
59 0 V
60 0 V
60 0 V
60 0 V
60 0 V
60 0 V
0 551 R
59 0 V
60 0 V
60 0 V
60 0 V
60 0 V
0 46 R
59 0 V
60 0 V
60 0 V
60 0 V
60 0 V
59 0 V
60 0 V
60 0 V
60 0 V
60 0 V
59 0 V
60 0 V
0 184 R
60 0 V
60 0 V
60 0 V
60 0 V
0 183 R
59 0 V
0 827 R
60 0 V
stroke 6588 3494 M
0 1102 R
60 0 V
0 137 R
60 0 V
0 46 R
60 0 V
966 280 M
60 0 V
6887 4871 M
60 0 V
1026 280 M
60 0 V
59 0 V
60 0 V
60 0 V
60 0 V
6768 4871 M
59 0 V
60 0 V
1325 280 M
0 46 V
0 46 V
60 0 R
0 46 V
59 0 R
0 46 V
0 46 V
539 0 R
0 45 V
0 46 V
0 46 V
0 46 V
359 0 R
0 46 V
239 0 R
0 46 V
0 46 V
179 0 R
0 46 V
60 0 R
0 46 V
0 46 V
0 46 V
1376 0 R
0 45 V
0 46 V
0 46 V
0 46 V
0 46 V
0 46 V
60 0 R
0 46 V
0 46 V
538 0 R
0 46 V
60 0 R
0 46 V
0 46 V
0 45 V
0 46 V
0 46 V
0 46 V
359 0 R
0 46 V
0 46 V
0 46 V
0 46 V
0 46 V
0 46 V
0 46 V
0 45 V
0 46 V
0 46 V
0 46 V
0 46 V
299 0 R
0 46 V
717 0 R
0 46 V
0 46 V
0 46 V
0 46 V
240 0 R
0 46 V
0 46 V
0 45 V
0 46 V
59 0 R
0 46 V
0 46 V
0 46 V
0 46 V
0 46 V
0 46 V
0 46 V
0 46 V
0 46 V
0 45 V
0 46 V
0 46 V
0 46 V
0 46 V
0 46 V
0 46 V
stroke 6528 3402 M
0 46 V
0 46 V
60 0 R
0 46 V
0 46 V
0 45 V
0 46 V
0 46 V
0 46 V
0 46 V
0 46 V
0 46 V
0 46 V
0 46 V
0 46 V
0 46 V
0 45 V
0 46 V
0 46 V
0 46 V
0 46 V
0 46 V
0 46 V
0 46 V
0 46 V
0 46 V
0 46 V
60 0 R
0 45 V
0 46 V
0 46 V
60 0 R
0 46 V
60 0 R
0 46 V
0 46 V
1325 372 CircleF
1385 372 CircleF
1385 418 CircleF
1444 418 CircleF
1444 510 CircleF
1504 510 CircleF
1504 510 CircleF
1564 510 CircleF
1564 510 CircleF
1624 510 CircleF
1624 510 CircleF
1684 510 CircleF
1684 510 CircleF
1744 510 CircleF
1744 510 CircleF
1803 510 CircleF
1803 510 CircleF
1863 510 CircleF
1863 510 CircleF
1923 510 CircleF
1923 510 CircleF
1983 510 CircleF
1983 693 CircleF
2043 693 CircleF
2043 693 CircleF
2102 693 CircleF
2102 693 CircleF
2162 693 CircleF
2162 693 CircleF
2222 693 CircleF
2222 693 CircleF
2282 693 CircleF
2282 693 CircleF
2342 693 CircleF
2342 739 CircleF
2401 739 CircleF
2401 739 CircleF
2461 739 CircleF
2461 739 CircleF
2521 739 CircleF
2521 739 CircleF
2581 739 CircleF
2581 831 CircleF
2641 831 CircleF
2641 831 CircleF
2700 831 CircleF
2700 831 CircleF
2760 831 CircleF
2760 877 CircleF
2820 877 CircleF
2820 1015 CircleF
2880 1015 CircleF
2880 1015 CircleF
2940 1015 CircleF
2940 1015 CircleF
3000 1015 CircleF
3000 1015 CircleF
3059 1015 CircleF
3059 1015 CircleF
3119 1015 CircleF
3119 1015 CircleF
3179 1015 CircleF
3179 1015 CircleF
3239 1015 CircleF
3239 1015 CircleF
3299 1015 CircleF
3299 1015 CircleF
3358 1015 CircleF
3358 1015 CircleF
3418 1015 CircleF
3418 1015 CircleF
3478 1015 CircleF
3478 1015 CircleF
3538 1015 CircleF
3538 1015 CircleF
3598 1015 CircleF
3598 1015 CircleF
3657 1015 CircleF
3657 1015 CircleF
3717 1015 CircleF
3717 1015 CircleF
3777 1015 CircleF
3777 1015 CircleF
3837 1015 CircleF
3837 1015 CircleF
3897 1015 CircleF
3897 1015 CircleF
3957 1015 CircleF
3957 1015 CircleF
4016 1015 CircleF
4016 1015 CircleF
4076 1015 CircleF
4076 1015 CircleF
4136 1015 CircleF
4136 1015 CircleF
4196 1015 CircleF
4196 1290 CircleF
4256 1290 CircleF
4256 1382 CircleF
4315 1382 CircleF
4315 1382 CircleF
4375 1382 CircleF
4375 1382 CircleF
4435 1382 CircleF
4435 1382 CircleF
4495 1382 CircleF
4495 1382 CircleF
4555 1382 CircleF
4555 1382 CircleF
4614 1382 CircleF
4614 1382 CircleF
4674 1382 CircleF
4674 1382 CircleF
4734 1382 CircleF
4734 1382 CircleF
4794 1382 CircleF
4794 1428 CircleF
4854 1428 CircleF
4854 1703 CircleF
4913 1703 CircleF
4913 1703 CircleF
4973 1703 CircleF
4973 1703 CircleF
5033 1703 CircleF
5033 1703 CircleF
5093 1703 CircleF
5093 1703 CircleF
5153 1703 CircleF
5153 1703 CircleF
5213 1703 CircleF
5213 2254 CircleF
5272 2254 CircleF
5272 2254 CircleF
5332 2254 CircleF
5332 2254 CircleF
5392 2254 CircleF
5392 2254 CircleF
5452 2254 CircleF
5452 2254 CircleF
5512 2254 CircleF
5512 2300 CircleF
5571 2300 CircleF
5571 2300 CircleF
5631 2300 CircleF
5631 2300 CircleF
5691 2300 CircleF
5691 2300 CircleF
5751 2300 CircleF
5751 2300 CircleF
5811 2300 CircleF
5811 2300 CircleF
5870 2300 CircleF
5870 2300 CircleF
5930 2300 CircleF
5930 2300 CircleF
5990 2300 CircleF
5990 2300 CircleF
6050 2300 CircleF
6050 2300 CircleF
6110 2300 CircleF
6110 2300 CircleF
6169 2300 CircleF
6169 2300 CircleF
6229 2300 CircleF
6229 2484 CircleF
6289 2484 CircleF
6289 2484 CircleF
6349 2484 CircleF
6349 2484 CircleF
6409 2484 CircleF
6409 2484 CircleF
6469 2484 CircleF
6469 2667 CircleF
6528 2667 CircleF
6528 3494 CircleF
6588 3494 CircleF
6588 4596 CircleF
6648 4596 CircleF
6648 4733 CircleF
6708 4733 CircleF
6708 4779 CircleF
6768 4779 CircleF
966 280 CircleF
1026 280 CircleF
6887 4871 CircleF
6947 4871 CircleF
1026 280 CircleF
1086 280 CircleF
1086 280 CircleF
1145 280 CircleF
1145 280 CircleF
1205 280 CircleF
1205 280 CircleF
1265 280 CircleF
1265 280 CircleF
1325 280 CircleF
6768 4871 CircleF
6827 4871 CircleF
6827 4871 CircleF
6887 4871 CircleF
1325 280 CircleF
1325 326 CircleF
1325 326 CircleF
1325 372 CircleF
1385 372 CircleF
1385 418 CircleF
1444 418 CircleF
1444 464 CircleF
1444 464 CircleF
1444 510 CircleF
1983 510 CircleF
1983 555 CircleF
1983 555 CircleF
1983 601 CircleF
1983 601 CircleF
1983 647 CircleF
1983 647 CircleF
1983 693 CircleF
2342 693 CircleF
2342 739 CircleF
2581 739 CircleF
2581 785 CircleF
2581 785 CircleF
2581 831 CircleF
2760 831 CircleF
2760 877 CircleF
2820 877 CircleF
2820 923 CircleF
2820 923 CircleF
2820 969 CircleF
2820 969 CircleF
2820 1015 CircleF
4196 1015 CircleF
4196 1060 CircleF
4196 1060 CircleF
4196 1106 CircleF
4196 1106 CircleF
4196 1152 CircleF
4196 1152 CircleF
4196 1198 CircleF
4196 1198 CircleF
4196 1244 CircleF
4196 1244 CircleF
4196 1290 CircleF
4256 1290 CircleF
4256 1336 CircleF
4256 1336 CircleF
4256 1382 CircleF
4794 1382 CircleF
4794 1428 CircleF
4854 1428 CircleF
4854 1474 CircleF
4854 1474 CircleF
4854 1520 CircleF
4854 1520 CircleF
4854 1565 CircleF
4854 1565 CircleF
4854 1611 CircleF
4854 1611 CircleF
4854 1657 CircleF
4854 1657 CircleF
4854 1703 CircleF
5213 1703 CircleF
5213 1749 CircleF
5213 1749 CircleF
5213 1795 CircleF
5213 1795 CircleF
5213 1841 CircleF
5213 1841 CircleF
5213 1887 CircleF
5213 1887 CircleF
5213 1933 CircleF
5213 1933 CircleF
5213 1979 CircleF
5213 1979 CircleF
5213 2025 CircleF
5213 2025 CircleF
5213 2070 CircleF
5213 2070 CircleF
5213 2116 CircleF
5213 2116 CircleF
5213 2162 CircleF
5213 2162 CircleF
5213 2208 CircleF
5213 2208 CircleF
5213 2254 CircleF
5512 2254 CircleF
5512 2300 CircleF
6229 2300 CircleF
6229 2346 CircleF
6229 2346 CircleF
6229 2392 CircleF
6229 2392 CircleF
6229 2438 CircleF
6229 2438 CircleF
6229 2484 CircleF
6469 2484 CircleF
6469 2530 CircleF
6469 2530 CircleF
6469 2576 CircleF
6469 2576 CircleF
6469 2621 CircleF
6469 2621 CircleF
6469 2667 CircleF
6528 2667 CircleF
6528 2713 CircleF
6528 2713 CircleF
6528 2759 CircleF
6528 2759 CircleF
6528 2805 CircleF
6528 2805 CircleF
6528 2851 CircleF
6528 2851 CircleF
6528 2897 CircleF
6528 2897 CircleF
6528 2943 CircleF
6528 2943 CircleF
6528 2989 CircleF
6528 2989 CircleF
6528 3035 CircleF
6528 3035 CircleF
6528 3081 CircleF
6528 3081 CircleF
6528 3126 CircleF
6528 3126 CircleF
6528 3172 CircleF
6528 3172 CircleF
6528 3218 CircleF
6528 3218 CircleF
6528 3264 CircleF
6528 3264 CircleF
6528 3310 CircleF
6528 3310 CircleF
6528 3356 CircleF
6528 3356 CircleF
6528 3402 CircleF
6528 3402 CircleF
6528 3448 CircleF
6528 3448 CircleF
6528 3494 CircleF
6588 3494 CircleF
6588 3540 CircleF
6588 3540 CircleF
6588 3586 CircleF
6588 3586 CircleF
6588 3631 CircleF
6588 3631 CircleF
6588 3677 CircleF
6588 3677 CircleF
6588 3723 CircleF
6588 3723 CircleF
6588 3769 CircleF
6588 3769 CircleF
6588 3815 CircleF
6588 3815 CircleF
6588 3861 CircleF
6588 3861 CircleF
6588 3907 CircleF
6588 3907 CircleF
6588 3953 CircleF
6588 3953 CircleF
6588 3999 CircleF
6588 3999 CircleF
6588 4045 CircleF
6588 4045 CircleF
6588 4091 CircleF
6588 4091 CircleF
6588 4136 CircleF
6588 4136 CircleF
6588 4182 CircleF
6588 4182 CircleF
6588 4228 CircleF
6588 4228 CircleF
6588 4274 CircleF
6588 4274 CircleF
6588 4320 CircleF
6588 4320 CircleF
6588 4366 CircleF
6588 4366 CircleF
6588 4412 CircleF
6588 4412 CircleF
6588 4458 CircleF
6588 4458 CircleF
6588 4504 CircleF
6588 4504 CircleF
6588 4550 CircleF
6588 4550 CircleF
6588 4596 CircleF
6648 4596 CircleF
6648 4641 CircleF
6648 4641 CircleF
6648 4687 CircleF
6648 4687 CircleF
6648 4733 CircleF
6708 4733 CircleF
6708 4779 CircleF
6768 4779 CircleF
6768 4825 CircleF
6768 4825 CircleF
6768 4871 CircleF
% End plot #1
% Begin plot #2
1.500 UP
2.000 UL
LT0
1.00 0.55 0.00 C /Helvetica findfont 140 scalefont setfont
2356 682 M
109 83 V
1998 4144 M
77 60 V
4868 1698 M
72 56 V
6769 3851 M
82 63 V
5323 4572 M
104 79 V
6713 4456 M
84 65 V
5498 4418 M
67 51 V
6635 509 M
102 78 V
4889 3034 M
94 72 V
6726 2680 M
115 88 V
4065 3640 M
110 85 V
5687 2617 M
79 61 V
172 980 R
81 63 V
4549 4740 M
73 57 V
2998 3402 M
118 92 V
825 1077 R
103 79 V
2677 3919 M
61 47 V
-514 478 R
84 65 V
1225 1263 M
84 64 V
2815 990 M
117 89 V
2232 -33 R
80 62 V
580 3351 R
102 78 V
5056 383 M
100 77 V
6646 309 M
70 54 V
1375 1952 M
81 63 V
5607 3908 M
82 63 V
4408 2668 M
68 52 V
1752 4201 M
91 69 V
2329 2981 M
96 73 V
5735 2075 M
89 68 V
1754 305 M
89 69 V
-148 872 R
101 78 V
1028 687 M
110 85 V
5012 4588 M
79 60 V
1380 -46 R
79 60 V
2867 1111 M
112 86 V
5478 618 M
85 65 V
3872 463 M
78 60 V
1193 1541 M
114 88 V
4282 3878 M
104 80 V
5869 3423 M
64 49 V
4276 2208 M
75 57 V
1975 2053 M
109 83 V
2611 975 M
108 83 V
564 -79 R
88 67 V
2261 4722 M
112 87 V
1666 1842 M
96 73 V
4292 582 R
98 75 V
4379 492 M
67 51 V
6249 4554 M
78 60 V
4554 564 M
71 55 V
779 2036 R
72 56 V
1274 919 M
113 87 V
stroke 1387 1006 M
3838 821 M
92 71 V
3683 3351 M
100 77 V
1614 3804 M
73 56 V
1165 1764 M
100 76 V
69 677 R
62 48 V
5339 936 R
81 63 V
6484 863 M
62 47 V
3499 2243 M
114 88 V
1822 4257 M
72 55 V
3654 3986 M
95 73 V
6749 472 M
69 53 V
1851 3810 M
106 82 V
1828 2640 M
117 90 V
4172 4548 M
95 73 V
3356 2522 M
106 81 V
6543 1555 M
91 70 V
3777 4136 M
106 81 V
2156 463 R
64 49 V
5167 2047 M
96 74 V
4019 4448 M
85 66 V
2195 3753 M
115 88 V
1454 2731 M
111 85 V
3538 1347 M
63 48 V
2066 2445 M
70 54 V
4732 1781 M
103 79 V
2121 1318 M
99 76 V
2338 730 M
82 62 V
4386 2695 M
107 82 V
-362 883 R
80 61 V
3686 2154 M
101 77 V
1547 3203 M
73 56 V
1498 1856 M
82 63 V
4301 -78 R
108 83 V
1988 2551 M
76 58 V
4459 607 R
66 51 V
-2409 96 R
91 69 V
1449 2378 M
107 82 V
3069 687 R
65 50 V
3768 2426 M
71 54 V
6591 1071 M
103 79 V
2520 2248 M
84 65 V
1468 1058 M
112 86 V
85 -673 R
80 62 V
4172 647 M
79 61 V
5453 524 M
73 56 V
629 2428 R
81 63 V
4894 4116 M
114 87 V
2002 1902 M
72 55 V
100 1258 R
72 56 V
3794 2950 M
92 71 V
3786 951 M
95 74 V
4887 2691 M
117 91 V
stroke 5004 2782 M
1505 677 R
61 47 V
-669 640 R
101 77 V
3854 3879 M
117 90 V
1656 3330 M
102 79 V
5433 1366 M
118 91 V
-313 782 R
113 86 V
1986 1555 M
101 78 V
1563 3693 M
114 87 V
3440 200 R
74 57 V
5690 1028 M
119 91 V
3734 1520 M
76 59 V
56 785 R
72 55 V
1593 465 M
111 85 V
1433 1790 M
64 49 V
3591 665 M
108 84 V
4779 1868 M
116 89 V
4135 3111 M
68 53 V
6759 534 M
86 66 V
1511 969 M
81 62 V
1478 3848 M
99 77 V
5484 3661 M
66 51 V
6461 1148 M
87 67 V
2355 4179 M
74 56 V
2778 204 R
69 53 V
2698 2735 M
91 70 V
445 -647 R
115 88 V
-681 932 R
103 79 V
2843 -33 R
100 77 V
1425 747 M
71 54 V
6212 2404 M
104 80 V
6304 439 M
99 76 V
4897 3820 M
118 91 V
4025 3686 M
71 54 V
4299 1120 M
65 50 V
1923 1288 M
88 67 V
4197 4489 M
116 89 V
4798 1481 M
77 59 V
6436 4677 M
110 85 V
4693 1348 M
84 64 V
1906 966 M
115 89 V
-409 719 R
86 66 V
-121 917 R
81 62 V
1804 1677 M
116 89 V
257 2846 R
71 55 V
2738 -52 R
66 51 V
66 -2741 R
98 75 V
2485 4324 M
103 79 V
1260 3437 M
101 77 V
4718 380 R
84 65 V
3364 3548 M
108 84 V
5553 1324 M
67 51 V
-991 244 R
60 46 V
stroke 4689 1665 M
979 2581 M
62 48 V
4067 954 M
103 79 V
3499 2499 M
98 76 V
5118 1700 M
76 59 V
-122 121 R
83 64 V
1342 773 R
86 66 V
1093 475 M
89 68 V
2136 959 R
95 74 V
4468 2970 M
76 59 V
1688 4286 M
67 51 V
3660 1290 M
66 50 V
1411 464 M
100 77 V
2338 388 M
98 75 V
4700 4698 M
61 47 V
3277 1035 M
110 85 V
6551 3891 M
97 75 V
1153 1338 M
63 48 V
604 977 R
117 91 V
5305 651 M
100 78 V
3843 3423 M
118 90 V
5618 455 M
61 46 V
4290 4488 M
78 60 V
4203 1701 M
74 57 V
568 1357 R
64 49 V
1601 1246 M
78 60 V
5483 3055 M
111 85 V
1140 3803 M
112 86 V
5161 787 R
65 50 V
5865 686 M
67 51 V
2642 2250 M
97 75 V
2088 2046 M
73 56 V
4090 1140 M
110 84 V
2833 2661 M
85 65 V
-662 356 R
65 50 V
4198 2691 M
105 81 V
1928 4444 M
91 70 V
6781 1927 M
77 59 V
3044 1455 M
98 76 V
-937 598 R
104 80 V
5346 1958 M
68 53 V
2987 883 M
75 58 V
6460 4313 M
103 78 V
5758 4154 M
89 68 V
1237 827 M
112 87 V
4945 2187 M
80 61 V
4390 975 M
106 82 V
2773 845 M
110 85 V
1332 3586 M
98 74 V
1141 1023 M
79 60 V
1397 872 M
75 58 V
5709 830 M
116 90 V
3028 1489 M
103 79 V
stroke 3131 1568 M
4502 468 M
97 74 V
5681 3500 M
69 53 V
5717 1853 M
101 78 V
-13 2834 R
106 82 V
5103 3711 M
111 85 V
1387 1902 M
96 73 V
4189 795 M
101 78 V
2670 2290 M
118 91 V
1244 3652 M
65 50 V
5275 254 R
117 89 V
5320 1352 M
69 52 V
3698 957 M
106 82 V
-1596 -1 R
78 60 V
2475 611 M
97 74 V
3974 764 R
80 62 V
1362 1887 M
61 47 V
6288 4586 M
65 50 V
5110 3128 M
98 76 V
5763 365 M
99 76 V
2679 930 M
98 75 V
6408 2490 M
71 55 V
2208 4495 M
109 85 V
3221 3425 M
118 90 V
3966 800 M
82 63 V
2890 4441 M
85 66 V
2951 417 M
62 48 V
4895 3632 M
118 91 V
1046 4703 M
100 76 V
98 -3750 R
97 75 V
3613 3522 M
79 61 V
5578 1031 M
94 73 V
5378 2462 M
60 46 V
982 2735 M
74 57 V
2262 4259 M
103 79 V
1885 120 R
99 76 V
1213 3782 M
101 77 V
2584 560 M
79 61 V
5620 879 M
81 62 V
2948 3349 M
66 51 V
2310 469 R
78 60 V
5247 460 M
102 79 V
208 -28 R
83 64 V
1606 557 M
61 47 V
4001 487 R
101 78 V
-99 892 R
105 80 V
5313 3239 M
98 75 V
3950 1415 M
112 85 V
2449 4564 M
72 55 V
4154 95 R
104 80 V
6599 4199 M
76 58 V
3471 3247 M
86 66 V
3781 1894 M
80 62 V
stroke 3861 1956 M
382 56 R
87 66 V
3991 737 M
106 82 V
1581 1631 M
104 80 V
6232 567 M
107 82 V
3143 2723 M
84 65 V
2705 -52 R
103 79 V
355 -759 R
62 48 V
5209 817 M
107 82 V
4716 3051 M
98 76 V
1752 747 R
111 85 V
5374 1789 M
86 67 V
1690 475 M
78 60 V
5811 2232 M
117 90 V
4780 4005 M
61 47 V
923 627 R
83 63 V
1721 1937 M
104 80 V
488 1238 R
79 61 V
4124 3211 M
84 65 V
2284 1707 M
114 87 V
4655 3627 M
103 79 V
-159 301 R
64 49 V
3860 3734 M
64 49 V
2470 1593 M
113 86 V
-159 368 R
107 83 V
3606 487 M
110 85 V
435 2554 R
81 61 V
3356 2732 M
108 83 V
112 -717 R
108 83 V
1880 2923 M
99 76 V
-36 475 R
96 73 V
132 -303 R
93 71 V
2374 539 R
64 50 V
-617 103 R
72 56 V
2163 1156 M
93 71 V
4610 4235 M
88 68 V
3335 4249 M
82 63 V
1682 3451 M
71 56 V
-142 442 R
73 56 V
4859 2796 M
106 81 V
2576 2349 M
73 57 V
980 735 M
109 83 V
2397 4386 M
84 65 V
3002 1235 M
67 51 V
-964 41 R
75 58 V
5718 622 M
85 65 V
582 1756 R
70 54 V
6301 2002 M
101 78 V
4517 4229 M
93 72 V
2445 3586 M
64 49 V
2137 3120 M
87 67 V
1222 2657 M
99 75 V
104 -868 R
99 77 V
stroke 1524 1941 M
5570 1147 M
98 76 V
5652 475 M
67 51 V
61 657 R
108 82 V
-702 244 R
81 62 V
2297 3664 M
100 77 V
3738 1644 M
106 81 V
2316 149 R
102 78 V
486 -685 R
113 87 V
4078 3652 M
60 46 V
4604 1087 M
90 69 V
3126 2468 M
73 56 V
6543 3653 M
113 86 V
4874 4503 M
82 63 V
3070 3254 M
86 66 V
2500 208 R
104 80 V
5370 3371 M
63 48 V
2060 3253 M
98 76 V
5085 2675 M
118 90 V
1938 3526 M
79 61 V
4469 624 R
117 90 V
3608 2781 M
113 86 V
918 86 R
97 74 V
1336 845 R
86 66 V
1772 4687 M
116 89 V
4438 3891 M
99 76 V
1689 407 R
111 85 V
2831 4379 M
111 85 V
4002 490 M
94 72 V
1353 694 R
74 56 V
5358 3501 M
115 88 V
2262 2646 M
71 54 V
4883 2049 M
87 67 V
1998 4122 M
119 91 V
2638 1163 M
90 69 V
4091 631 M
108 83 V
2303 1738 M
84 65 V
6629 3868 M
77 59 V
5884 2012 M
108 83 V
2929 3361 M
99 76 V
-471 913 R
82 63 V
2964 2413 M
115 88 V
4335 1141 M
89 68 V
3331 880 M
90 69 V
4062 606 M
72 55 V
5553 3819 M
65 50 V
4833 1497 M
84 65 V
3010 2460 M
114 88 V
5927 2013 M
114 88 V
4265 1365 M
81 62 V
-288 4 R
71 55 V
605 915 R
108 83 V
2852 2202 M
79 60 V
stroke 2931 2262 M
751 1449 R
68 52 V
2321 3281 M
94 72 V
-1169 82 R
70 54 V
3885 4643 M
67 51 V
4596 2797 M
78 60 V
1462 3921 M
70 54 V
563 -291 R
100 76 V
2429 409 R
88 68 V
-3630 2 R
78 59 V
1764 276 R
78 59 V
5263 3073 M
67 52 V
3079 1314 M
83 64 V
77 2065 R
78 60 V
70 -1207 R
65 50 V
705 -483 R
116 89 V
6770 1711 M
65 49 V
2886 1419 M
81 62 V
6336 3901 M
92 71 V
1724 312 M
95 73 V
4805 3993 M
115 89 V
1958 497 M
80 61 V
5711 877 M
116 89 V
4029 1939 M
71 55 V
1635 780 M
114 88 V
1894 980 R
113 86 V
2742 2871 M
66 51 V
6526 4763 M
111 85 V
6466 1078 M
119 91 V
-1747 21 R
74 57 V
2815 643 M
89 68 V
796 3807 R
111 86 V
6495 4100 M
107 82 V
3184 3415 M
95 73 V
1305 2211 M
106 81 V
5483 398 M
83 63 V
2353 3099 M
83 64 V
1377 1157 M
70 53 V
4754 4775 M
97 75 V
3667 983 M
102 77 V
1223 2848 M
110 84 V
6193 875 M
83 64 V
259 2671 R
98 75 V
4471 4653 M
69 53 V
3408 946 M
100 76 V
6107 3401 M
61 46 V
10 -2254 R
92 70 V
5233 2567 M
111 85 V
1804 4270 M
104 80 V
2406 2808 M
74 57 V
4913 559 M
103 79 V
6590 4606 M
96 74 V
1527 716 M
63 48 V
stroke 1590 764 M
5328 3846 M
60 46 V
1598 2290 M
102 78 V
4209 1294 M
108 82 V
1406 924 R
75 57 V
31 -129 R
97 74 V
584 508 R
69 53 V
5941 2601 M
103 79 V
3824 3459 M
65 50 V
6396 3027 M
65 50 V
3270 4630 M
73 56 V
1148 2410 M
60 45 V
5345 600 M
63 49 V
874 3363 R
117 90 V
5016 3476 M
114 88 V
1230 2864 M
84 64 V
4647 799 M
74 57 V
1327 1340 M
110 84 V
2867 2496 M
92 71 V
4342 1875 M
104 79 V
662 636 R
96 73 V
3829 3135 M
110 85 V
4396 1972 M
102 78 V
997 175 R
114 88 V
1828 4416 M
88 67 V
5468 1827 M
79 61 V
2556 1785 M
81 62 V
109 -111 R
95 74 V
5670 672 M
91 70 V
3096 4763 M
90 69 V
6815 781 M
60 46 V
4943 1938 M
73 56 V
4281 3598 M
70 53 V
181 721 R
62 47 V
1494 4776 M
106 81 V
5607 2514 M
99 76 V
1671 1890 M
94 71 V
25 -860 R
109 83 V
1584 3183 M
67 52 V
4457 47 R
71 55 V
-2879 77 R
63 48 V
6404 1411 M
92 71 V
-546 -47 R
90 69 V
1286 1801 M
60 47 V
4378 1358 M
116 89 V
6291 4277 M
90 69 V
1811 2302 M
89 68 V
6134 2264 M
70 55 V
3569 4411 M
114 88 V
1102 1881 M
74 57 V
4565 3579 M
105 81 V
3361 1876 M
64 49 V
4328 668 M
79 61 V
stroke 4407 729 M
5525 2544 M
91 70 V
769 1831 R
96 73 V
1283 2892 M
113 88 V
1818 -72 R
79 61 V
5126 1540 M
114 87 V
3816 1495 M
84 65 V
26 906 R
116 89 V
3143 1331 M
92 70 V
6643 4681 M
98 76 V
3886 1620 M
83 64 V
1102 1616 M
91 69 V
3521 627 M
101 78 V
1763 4702 M
76 59 V
3155 2367 M
94 73 V
1819 3596 M
105 81 V
789 387 R
103 80 V
3609 2647 M
109 83 V
3567 3890 M
109 84 V
6827 3289 M
107 83 V
2002 3722 M
96 74 V
6309 2646 M
104 80 V
1957 494 M
118 90 V
277 3371 R
91 70 V
2049 950 M
107 82 V
1299 3570 M
101 78 V
5157 1692 M
82 62 V
638 2849 R
97 74 V
-334 -44 R
90 69 V
6098 2030 M
89 69 V
1339 2337 M
79 61 V
5623 2257 M
81 62 V
4246 506 M
73 56 V
3806 4718 M
71 55 V
6446 938 M
86 66 V
4238 4657 M
100 77 V
5057 1203 M
101 77 V
4618 863 M
119 91 V
3105 2920 M
108 83 V
4554 2769 M
80 61 V
5990 2275 M
102 78 V
4333 2655 M
105 80 V
510 -344 R
112 86 V
2962 3881 M
113 87 V
1494 2479 M
84 65 V
2344 1042 M
102 79 V
1322 491 R
103 79 V
1823 1407 M
81 62 V
4028 652 R
88 68 V
2861 3607 M
90 69 V
86 480 R
111 85 V
1918 3349 M
110 84 V
3919 3145 M
79 61 V
stroke 3998 3206 M
3734 1896 M
72 55 V
5281 3683 M
86 66 V
5503 2271 M
72 55 V
1088 1596 M
85 65 V
2064 933 R
77 59 V
258 1665 R
63 49 V
4412 610 M
92 70 V
4212 3340 M
105 80 V
665 -441 R
82 63 V
2426 1456 M
83 64 V
1318 4558 M
97 74 V
1912 594 M
98 74 V
4233 2657 M
63 49 V
2138 3447 M
65 50 V
618 -246 R
107 82 V
2560 745 M
113 87 V
1217 289 R
61 46 V
1519 1717 M
112 86 V
1174 955 M
108 83 V
840 2359 R
65 50 V
1155 558 R
111 86 V
2785 460 M
96 74 V
-7 1209 R
72 55 V
5889 1200 M
97 74 V
3019 1908 M
116 89 V
4477 4775 M
114 88 V
3597 2466 M
68 52 V
5714 827 M
117 89 V
2095 349 M
64 49 V
5896 2951 M
70 53 V
3972 3533 M
73 56 V
2283 378 M
87 66 V
4568 1483 M
105 80 V
4425 1354 M
106 81 V
5357 608 M
103 79 V
1293 561 M
101 77 V
4167 574 M
91 69 V
2637 301 M
87 66 V
307 1924 R
112 86 V
2204 1324 M
72 55 V
6103 312 M
100 76 V
4452 4038 M
86 67 V
2487 3073 M
60 47 V
4000 2467 M
76 59 V
1397 3719 M
86 66 V
5195 3395 M
91 69 V
1595 2938 M
92 70 V
2849 1580 M
110 84 V
1089 770 M
68 53 V
6337 4608 M
105 80 V
2053 1338 M
98 75 V
922 2928 R
100 77 V
stroke 3173 4418 M
2199 3531 M
69 54 V
3612 1148 M
70 54 V
1226 1784 M
112 86 V
1316 361 M
97 75 V
1285 2449 M
117 89 V
1905 474 M
61 46 V
5327 3118 M
109 83 V
2320 2344 M
108 83 V
913 -748 R
78 59 V
2269 2459 M
73 56 V
6306 885 M
77 59 V
3344 4687 M
61 47 V
1142 1685 M
107 83 V
3558 1346 M
104 80 V
5874 2967 M
116 88 V
422 533 R
111 85 V
2043 3047 M
84 65 V
3603 865 R
89 68 V
4198 3592 M
93 71 V
2243 679 M
75 58 V
3940 2394 M
88 67 V
1282 869 R
69 54 V
4684 3083 M
75 57 V
1336 644 R
73 56 V
5836 2037 M
75 57 V
5313 3630 M
115 89 V
4086 1041 M
114 87 V
2356 682 CircleF
2465 765 CircleF
1998 4144 CircleF
2075 4204 CircleF
4868 1698 CircleF
4940 1754 CircleF
6769 3851 CircleF
6851 3914 CircleF
5323 4572 CircleF
5427 4651 CircleF
6713 4456 CircleF
6797 4521 CircleF
5498 4418 CircleF
5565 4469 CircleF
6635 509 CircleF
6737 587 CircleF
4889 3034 CircleF
4983 3106 CircleF
6726 2680 CircleF
6841 2768 CircleF
4065 3640 CircleF
4175 3725 CircleF
5687 2617 CircleF
5766 2678 CircleF
5938 3658 CircleF
6019 3721 CircleF
4549 4740 CircleF
4622 4797 CircleF
2998 3402 CircleF
3116 3494 CircleF
3941 4571 CircleF
4044 4650 CircleF
2677 3919 CircleF
2738 3966 CircleF
2224 4444 CircleF
2308 4509 CircleF
1225 1263 CircleF
1309 1327 CircleF
2815 990 CircleF
2932 1079 CircleF
5164 1046 CircleF
5244 1108 CircleF
5824 4459 CircleF
5926 4537 CircleF
5056 383 CircleF
5156 460 CircleF
6646 309 CircleF
6716 363 CircleF
1375 1952 CircleF
1456 2015 CircleF
5607 3908 CircleF
5689 3971 CircleF
4408 2668 CircleF
4476 2720 CircleF
1752 4201 CircleF
1843 4270 CircleF
2329 2981 CircleF
2425 3054 CircleF
5735 2075 CircleF
5824 2143 CircleF
1754 305 CircleF
1843 374 CircleF
1695 1246 CircleF
1796 1324 CircleF
1028 687 CircleF
1138 772 CircleF
5012 4588 CircleF
5091 4648 CircleF
6471 4602 CircleF
6550 4662 CircleF
2867 1111 CircleF
2979 1197 CircleF
5478 618 CircleF
5563 683 CircleF
3872 463 CircleF
3950 523 CircleF
1193 1541 CircleF
1307 1629 CircleF
4282 3878 CircleF
4386 3958 CircleF
5869 3423 CircleF
5933 3472 CircleF
4276 2208 CircleF
4351 2265 CircleF
1975 2053 CircleF
2084 2136 CircleF
2611 975 CircleF
2719 1058 CircleF
3283 979 CircleF
3371 1046 CircleF
2261 4722 CircleF
2373 4809 CircleF
1666 1842 CircleF
1762 1915 CircleF
6054 2497 CircleF
6152 2572 CircleF
4379 492 CircleF
4446 543 CircleF
6249 4554 CircleF
6327 4614 CircleF
4554 564 CircleF
4625 619 CircleF
5404 2655 CircleF
5476 2711 CircleF
1274 919 CircleF
1387 1006 CircleF
3838 821 CircleF
3930 892 CircleF
3683 3351 CircleF
3783 3428 CircleF
1614 3804 CircleF
1687 3860 CircleF
1165 1764 CircleF
1265 1840 CircleF
1334 2517 CircleF
1396 2565 CircleF
6735 3501 CircleF
6816 3564 CircleF
6484 863 CircleF
6546 910 CircleF
3499 2243 CircleF
3613 2331 CircleF
1822 4257 CircleF
1894 4312 CircleF
3654 3986 CircleF
3749 4059 CircleF
6749 472 CircleF
6818 525 CircleF
1851 3810 CircleF
1957 3892 CircleF
1828 2640 CircleF
1945 2730 CircleF
4172 4548 CircleF
4267 4621 CircleF
3356 2522 CircleF
3462 2603 CircleF
6543 1555 CircleF
6634 1625 CircleF
3777 4136 CircleF
3883 4217 CircleF
6039 4680 CircleF
6103 4729 CircleF
5167 2047 CircleF
5263 2121 CircleF
4019 4448 CircleF
4104 4514 CircleF
2195 3753 CircleF
2310 3841 CircleF
1454 2731 CircleF
1565 2816 CircleF
3538 1347 CircleF
3601 1395 CircleF
2066 2445 CircleF
2136 2499 CircleF
4732 1781 CircleF
4835 1860 CircleF
2121 1318 CircleF
2220 1394 CircleF
2338 730 CircleF
2420 792 CircleF
4386 2695 CircleF
4493 2777 CircleF
4131 3660 CircleF
4211 3721 CircleF
3686 2154 CircleF
3787 2231 CircleF
1547 3203 CircleF
1620 3259 CircleF
1498 1856 CircleF
1580 1919 CircleF
5881 1841 CircleF
5989 1924 CircleF
1988 2551 CircleF
2064 2609 CircleF
6523 3216 CircleF
6589 3267 CircleF
4180 3363 CircleF
4271 3432 CircleF
1449 2378 CircleF
1556 2460 CircleF
4625 3147 CircleF
4690 3197 CircleF
3768 2426 CircleF
3839 2480 CircleF
6591 1071 CircleF
6694 1150 CircleF
2520 2248 CircleF
2604 2313 CircleF
1468 1058 CircleF
1580 1144 CircleF
1665 471 CircleF
1745 533 CircleF
4172 647 CircleF
4251 708 CircleF
5453 524 CircleF
5526 580 CircleF
6155 3008 CircleF
6236 3071 CircleF
4894 4116 CircleF
5008 4203 CircleF
2002 1902 CircleF
2074 1957 CircleF
2174 3215 CircleF
2246 3271 CircleF
3794 2950 CircleF
3886 3021 CircleF
3786 951 CircleF
3881 1025 CircleF
4887 2691 CircleF
5004 2782 CircleF
6509 3459 CircleF
6570 3506 CircleF
5901 4146 CircleF
6002 4223 CircleF
3854 3879 CircleF
3971 3969 CircleF
1656 3330 CircleF
1758 3409 CircleF
5433 1366 CircleF
5551 1457 CircleF
5238 2239 CircleF
5351 2325 CircleF
1986 1555 CircleF
2087 1633 CircleF
1563 3693 CircleF
1677 3780 CircleF
5117 3980 CircleF
5191 4037 CircleF
5690 1028 CircleF
5809 1119 CircleF
3734 1520 CircleF
3810 1579 CircleF
3866 2364 CircleF
3938 2419 CircleF
1593 465 CircleF
1704 550 CircleF
1433 1790 CircleF
1497 1839 CircleF
3591 665 CircleF
3699 749 CircleF
4779 1868 CircleF
4895 1957 CircleF
4135 3111 CircleF
4203 3164 CircleF
6759 534 CircleF
6845 600 CircleF
1511 969 CircleF
1592 1031 CircleF
1478 3848 CircleF
1577 3925 CircleF
5484 3661 CircleF
5550 3712 CircleF
6461 1148 CircleF
6548 1215 CircleF
2355 4179 CircleF
2429 4235 CircleF
5207 4439 CircleF
5276 4492 CircleF
2698 2735 CircleF
2789 2805 CircleF
3234 2158 CircleF
3349 2246 CircleF
2668 3178 CircleF
2771 3257 CircleF
5614 3224 CircleF
5714 3301 CircleF
1425 747 CircleF
1496 801 CircleF
6212 2404 CircleF
6316 2484 CircleF
6304 439 CircleF
6403 515 CircleF
4897 3820 CircleF
5015 3911 CircleF
4025 3686 CircleF
4096 3740 CircleF
4299 1120 CircleF
4364 1170 CircleF
1923 1288 CircleF
2011 1355 CircleF
4197 4489 CircleF
4313 4578 CircleF
4798 1481 CircleF
4875 1540 CircleF
6436 4677 CircleF
6546 4762 CircleF
4693 1348 CircleF
4777 1412 CircleF
1906 966 CircleF
2021 1055 CircleF
1612 1774 CircleF
1698 1840 CircleF
1577 2757 CircleF
1658 2819 CircleF
1804 1677 CircleF
1920 1766 CircleF
2177 4612 CircleF
2248 4667 CircleF
4986 4615 CircleF
5052 4666 CircleF
5118 1925 CircleF
5216 2000 CircleF
2485 4324 CircleF
2588 4403 CircleF
1260 3437 CircleF
1361 3514 CircleF
6079 3894 CircleF
6163 3959 CircleF
3364 3548 CircleF
3472 3632 CircleF
5553 1324 CircleF
5620 1375 CircleF
4629 1619 CircleF
4689 1665 CircleF
979 2581 CircleF
1041 2629 CircleF
4067 954 CircleF
4170 1033 CircleF
3499 2499 CircleF
3597 2575 CircleF
5118 1700 CircleF
5194 1759 CircleF
5072 1880 CircleF
5155 1944 CircleF
6497 2717 CircleF
6583 2783 CircleF
1093 475 CircleF
1182 543 CircleF
3318 1502 CircleF
3413 1576 CircleF
4468 2970 CircleF
4544 3029 CircleF
1688 4286 CircleF
1755 4337 CircleF
3660 1290 CircleF
3726 1340 CircleF
1411 464 CircleF
1511 541 CircleF
2338 388 CircleF
2436 463 CircleF
4700 4698 CircleF
4761 4745 CircleF
3277 1035 CircleF
3387 1120 CircleF
6551 3891 CircleF
6648 3966 CircleF
1153 1338 CircleF
1216 1386 CircleF
1820 2363 CircleF
1937 2454 CircleF
5305 651 CircleF
5405 729 CircleF
3843 3423 CircleF
3961 3513 CircleF
5618 455 CircleF
5679 501 CircleF
4290 4488 CircleF
4368 4548 CircleF
4203 1701 CircleF
4277 1758 CircleF
4845 3115 CircleF
4909 3164 CircleF
1601 1246 CircleF
1679 1306 CircleF
5483 3055 CircleF
5594 3140 CircleF
1140 3803 CircleF
1252 3889 CircleF
6413 4676 CircleF
6478 4726 CircleF
5865 686 CircleF
5932 737 CircleF
2642 2250 CircleF
2739 2325 CircleF
2088 2046 CircleF
2161 2102 CircleF
4090 1140 CircleF
4200 1224 CircleF
2833 2661 CircleF
2918 2726 CircleF
2256 3082 CircleF
2321 3132 CircleF
4198 2691 CircleF
4303 2772 CircleF
1928 4444 CircleF
2019 4514 CircleF
6781 1927 CircleF
6858 1986 CircleF
3044 1455 CircleF
3142 1531 CircleF
2205 2129 CircleF
2309 2209 CircleF
5346 1958 CircleF
5414 2011 CircleF
2987 883 CircleF
3062 941 CircleF
6460 4313 CircleF
6563 4391 CircleF
5758 4154 CircleF
5847 4222 CircleF
1237 827 CircleF
1349 914 CircleF
4945 2187 CircleF
5025 2248 CircleF
4390 975 CircleF
4496 1057 CircleF
2773 845 CircleF
2883 930 CircleF
1332 3586 CircleF
1430 3660 CircleF
1141 1023 CircleF
1220 1083 CircleF
1397 872 CircleF
1472 930 CircleF
5709 830 CircleF
5825 920 CircleF
3028 1489 CircleF
3131 1568 CircleF
4502 468 CircleF
4599 542 CircleF
5681 3500 CircleF
5750 3553 CircleF
5717 1853 CircleF
5818 1931 CircleF
5805 4765 CircleF
5911 4847 CircleF
5103 3711 CircleF
5214 3796 CircleF
1387 1902 CircleF
1483 1975 CircleF
4189 795 CircleF
4290 873 CircleF
2670 2290 CircleF
2788 2381 CircleF
1244 3652 CircleF
1309 3702 CircleF
6584 3956 CircleF
6701 4045 CircleF
5320 1352 CircleF
5389 1404 CircleF
3698 957 CircleF
3804 1039 CircleF
2208 1038 CircleF
2286 1098 CircleF
2475 611 CircleF
2572 685 CircleF
6546 1449 CircleF
6626 1511 CircleF
1362 1887 CircleF
1423 1934 CircleF
6288 4586 CircleF
6353 4636 CircleF
5110 3128 CircleF
5208 3204 CircleF
5763 365 CircleF
5862 441 CircleF
2679 930 CircleF
2777 1005 CircleF
6408 2490 CircleF
6479 2545 CircleF
2208 4495 CircleF
2317 4580 CircleF
3221 3425 CircleF
3339 3515 CircleF
3966 800 CircleF
4048 863 CircleF
2890 4441 CircleF
2975 4507 CircleF
2951 417 CircleF
3013 465 CircleF
4895 3632 CircleF
5013 3723 CircleF
1046 4703 CircleF
1146 4779 CircleF
1244 1029 CircleF
1341 1104 CircleF
3613 3522 CircleF
3692 3583 CircleF
5578 1031 CircleF
5672 1104 CircleF
5378 2462 CircleF
5438 2508 CircleF
982 2735 CircleF
1056 2792 CircleF
2262 4259 CircleF
2365 4338 CircleF
4250 4458 CircleF
4349 4534 CircleF
1213 3782 CircleF
1314 3859 CircleF
2584 560 CircleF
2663 621 CircleF
5620 879 CircleF
5701 941 CircleF
2948 3349 CircleF
3014 3400 CircleF
5324 3869 CircleF
5402 3929 CircleF
5247 460 CircleF
5349 539 CircleF
5557 511 CircleF
5640 575 CircleF
1606 557 CircleF
1667 604 CircleF
5668 1091 CircleF
5769 1169 CircleF
5670 2061 CircleF
5775 2141 CircleF
5313 3239 CircleF
5411 3314 CircleF
3950 1415 CircleF
4062 1500 CircleF
2449 4564 CircleF
2521 4619 CircleF
6675 4714 CircleF
6779 4794 CircleF
6599 4199 CircleF
6675 4257 CircleF
3471 3247 CircleF
3557 3313 CircleF
3781 1894 CircleF
3861 1956 CircleF
4243 2012 CircleF
4330 2078 CircleF
3991 737 CircleF
4097 819 CircleF
1581 1631 CircleF
1685 1711 CircleF
6232 567 CircleF
6339 649 CircleF
3143 2723 CircleF
3227 2788 CircleF
5932 2736 CircleF
6035 2815 CircleF
6390 2056 CircleF
6452 2104 CircleF
5209 817 CircleF
5316 899 CircleF
4716 3051 CircleF
4814 3127 CircleF
6566 3874 CircleF
6677 3959 CircleF
5374 1789 CircleF
5460 1856 CircleF
1690 475 CircleF
1768 535 CircleF
5811 2232 CircleF
5928 2322 CircleF
4780 4005 CircleF
4841 4052 CircleF
5764 4679 CircleF
5847 4742 CircleF
1721 1937 CircleF
1825 2017 CircleF
2313 3255 CircleF
2392 3316 CircleF
4124 3211 CircleF
4208 3276 CircleF
2284 1707 CircleF
2398 1794 CircleF
4655 3627 CircleF
4758 3706 CircleF
4599 4007 CircleF
4663 4056 CircleF
3860 3734 CircleF
3924 3783 CircleF
2470 1593 CircleF
2583 1679 CircleF
2424 2047 CircleF
2531 2130 CircleF
3606 487 CircleF
3716 572 CircleF
4151 3126 CircleF
4232 3187 CircleF
3356 2732 CircleF
3464 2815 CircleF
3576 2098 CircleF
3684 2181 CircleF
1880 2923 CircleF
1979 2999 CircleF
1943 3474 CircleF
2039 3547 CircleF
2171 3244 CircleF
2264 3315 CircleF
4638 3854 CircleF
4702 3904 CircleF
4085 4007 CircleF
4157 4063 CircleF
2163 1156 CircleF
2256 1227 CircleF
4610 4235 CircleF
4698 4303 CircleF
3335 4249 CircleF
3417 4312 CircleF
1682 3451 CircleF
1753 3507 CircleF
1611 3949 CircleF
1684 4005 CircleF
4859 2796 CircleF
4965 2877 CircleF
2576 2349 CircleF
2649 2406 CircleF
980 735 CircleF
1089 818 CircleF
2397 4386 CircleF
2481 4451 CircleF
3002 1235 CircleF
3069 1286 CircleF
2105 1327 CircleF
2180 1385 CircleF
5718 622 CircleF
5803 687 CircleF
6385 2443 CircleF
6455 2497 CircleF
6301 2002 CircleF
6402 2080 CircleF
4517 4229 CircleF
4610 4301 CircleF
2445 3586 CircleF
2509 3635 CircleF
2137 3120 CircleF
2224 3187 CircleF
1222 2657 CircleF
1321 2732 CircleF
1425 1864 CircleF
1524 1941 CircleF
5570 1147 CircleF
5668 1223 CircleF
5652 475 CircleF
5719 526 CircleF
5780 1183 CircleF
5888 1265 CircleF
5186 1509 CircleF
5267 1571 CircleF
2297 3664 CircleF
2397 3741 CircleF
3738 1644 CircleF
3844 1725 CircleF
6160 1874 CircleF
6262 1952 CircleF
6748 1267 CircleF
6861 1354 CircleF
4078 3652 CircleF
4138 3698 CircleF
4604 1087 CircleF
4694 1156 CircleF
3126 2468 CircleF
3199 2524 CircleF
6543 3653 CircleF
6656 3739 CircleF
4874 4503 CircleF
4956 4566 CircleF
3070 3254 CircleF
3156 3320 CircleF
5656 3528 CircleF
5760 3608 CircleF
5370 3371 CircleF
5433 3419 CircleF
2060 3253 CircleF
2158 3329 CircleF
5085 2675 CircleF
5203 2765 CircleF
1938 3526 CircleF
2017 3587 CircleF
6486 4211 CircleF
6603 4301 CircleF
3608 2781 CircleF
3721 2867 CircleF
4639 2953 CircleF
4736 3027 CircleF
6072 3872 CircleF
6158 3938 CircleF
1772 4687 CircleF
1888 4776 CircleF
4438 3891 CircleF
4537 3967 CircleF
6226 4374 CircleF
6337 4459 CircleF
2831 4379 CircleF
2942 4464 CircleF
4002 490 CircleF
4096 562 CircleF
5449 1256 CircleF
5523 1312 CircleF
5358 3501 CircleF
5473 3589 CircleF
2262 2646 CircleF
2333 2700 CircleF
4883 2049 CircleF
4970 2116 CircleF
1998 4122 CircleF
2117 4213 CircleF
2638 1163 CircleF
2728 1232 CircleF
4091 631 CircleF
4199 714 CircleF
2303 1738 CircleF
2387 1803 CircleF
6629 3868 CircleF
6706 3927 CircleF
5884 2012 CircleF
5992 2095 CircleF
2929 3361 CircleF
3028 3437 CircleF
2557 4350 CircleF
2639 4413 CircleF
2964 2413 CircleF
3079 2501 CircleF
4335 1141 CircleF
4424 1209 CircleF
3331 880 CircleF
3421 949 CircleF
4062 606 CircleF
4134 661 CircleF
5553 3819 CircleF
5618 3869 CircleF
4833 1497 CircleF
4917 1562 CircleF
3010 2460 CircleF
3124 2548 CircleF
5927 2013 CircleF
6041 2101 CircleF
4265 1365 CircleF
4346 1427 CircleF
4058 1431 CircleF
4129 1486 CircleF
4734 2401 CircleF
4842 2484 CircleF
2852 2202 CircleF
2931 2262 CircleF
3682 3711 CircleF
3750 3763 CircleF
2321 3281 CircleF
2415 3353 CircleF
1246 3435 CircleF
1316 3489 CircleF
3885 4643 CircleF
3952 4694 CircleF
4596 2797 CircleF
4674 2857 CircleF
1462 3921 CircleF
1532 3975 CircleF
2095 3684 CircleF
2195 3760 CircleF
4624 4169 CircleF
4712 4237 CircleF
1082 4239 CircleF
1160 4298 CircleF
2924 4574 CircleF
3002 4633 CircleF
5263 3073 CircleF
5330 3125 CircleF
3079 1314 CircleF
3162 1378 CircleF
3239 3443 CircleF
3317 3503 CircleF
3387 2296 CircleF
3452 2346 CircleF
4157 1863 CircleF
4273 1952 CircleF
6770 1711 CircleF
6835 1760 CircleF
2886 1419 CircleF
2967 1481 CircleF
6336 3901 CircleF
6428 3972 CircleF
1724 312 CircleF
1819 385 CircleF
4805 3993 CircleF
4920 4082 CircleF
1958 497 CircleF
2038 558 CircleF
5711 877 CircleF
5827 966 CircleF
4029 1939 CircleF
4100 1994 CircleF
1635 780 CircleF
1749 868 CircleF
3643 1848 CircleF
3756 1934 CircleF
2742 2871 CircleF
2808 2922 CircleF
6526 4763 CircleF
6637 4848 CircleF
6466 1078 CircleF
6585 1169 CircleF
4838 1190 CircleF
4912 1247 CircleF
2815 643 CircleF
2904 711 CircleF
3700 4518 CircleF
3811 4604 CircleF
6495 4100 CircleF
6602 4182 CircleF
3184 3415 CircleF
3279 3488 CircleF
1305 2211 CircleF
1411 2292 CircleF
5483 398 CircleF
5566 461 CircleF
2353 3099 CircleF
2436 3163 CircleF
1377 1157 CircleF
1447 1210 CircleF
4754 4775 CircleF
4851 4850 CircleF
3667 983 CircleF
3769 1060 CircleF
1223 2848 CircleF
1333 2932 CircleF
6193 875 CircleF
6276 939 CircleF
6535 3610 CircleF
6633 3685 CircleF
4471 4653 CircleF
4540 4706 CircleF
3408 946 CircleF
3508 1022 CircleF
6107 3401 CircleF
6168 3447 CircleF
6178 1193 CircleF
6270 1263 CircleF
5233 2567 CircleF
5344 2652 CircleF
1804 4270 CircleF
1908 4350 CircleF
2406 2808 CircleF
2480 2865 CircleF
4913 559 CircleF
5016 638 CircleF
6590 4606 CircleF
6686 4680 CircleF
1527 716 CircleF
1590 764 CircleF
5328 3846 CircleF
5388 3892 CircleF
1598 2290 CircleF
1700 2368 CircleF
4209 1294 CircleF
4317 1376 CircleF
5723 2300 CircleF
5798 2357 CircleF
5829 2228 CircleF
5926 2302 CircleF
6510 2810 CircleF
6579 2863 CircleF
5941 2601 CircleF
6044 2680 CircleF
3824 3459 CircleF
3889 3509 CircleF
6396 3027 CircleF
6461 3077 CircleF
3270 4630 CircleF
3343 4686 CircleF
1148 2410 CircleF
1208 2455 CircleF
5345 600 CircleF
5408 649 CircleF
6282 4012 CircleF
6399 4102 CircleF
5016 3476 CircleF
5130 3564 CircleF
1230 2864 CircleF
1314 2928 CircleF
4647 799 CircleF
4721 856 CircleF
1327 1340 CircleF
1437 1424 CircleF
2867 2496 CircleF
2959 2567 CircleF
4342 1875 CircleF
4446 1954 CircleF
5108 2590 CircleF
5204 2663 CircleF
3829 3135 CircleF
3939 3220 CircleF
4396 1972 CircleF
4498 2050 CircleF
5495 2225 CircleF
5609 2313 CircleF
1828 4416 CircleF
1916 4483 CircleF
5468 1827 CircleF
5547 1888 CircleF
2556 1785 CircleF
2637 1847 CircleF
2746 1736 CircleF
2841 1810 CircleF
5670 672 CircleF
5761 742 CircleF
3096 4763 CircleF
3186 4832 CircleF
6815 781 CircleF
6875 827 CircleF
4943 1938 CircleF
5016 1994 CircleF
4281 3598 CircleF
4351 3651 CircleF
4532 4372 CircleF
4594 4419 CircleF
1494 4776 CircleF
1600 4857 CircleF
5607 2514 CircleF
5706 2590 CircleF
1671 1890 CircleF
1765 1961 CircleF
1790 1101 CircleF
1899 1184 CircleF
1584 3183 CircleF
1651 3235 CircleF
6108 3282 CircleF
6179 3337 CircleF
3300 3414 CircleF
3363 3462 CircleF
6404 1411 CircleF
6496 1482 CircleF
5950 1435 CircleF
6040 1504 CircleF
1286 1801 CircleF
1346 1848 CircleF
4378 1358 CircleF
4494 1447 CircleF
6291 4277 CircleF
6381 4346 CircleF
1811 2302 CircleF
1900 2370 CircleF
6134 2264 CircleF
6204 2319 CircleF
3569 4411 CircleF
3683 4499 CircleF
1102 1881 CircleF
1176 1938 CircleF
4565 3579 CircleF
4670 3660 CircleF
3361 1876 CircleF
3425 1925 CircleF
4328 668 CircleF
4407 729 CircleF
5525 2544 CircleF
5616 2614 CircleF
6385 4445 CircleF
6481 4518 CircleF
1283 2892 CircleF
1396 2980 CircleF
3214 2908 CircleF
3293 2969 CircleF
5126 1540 CircleF
5240 1627 CircleF
3816 1495 CircleF
3900 1560 CircleF
3926 2466 CircleF
4042 2555 CircleF
3143 1331 CircleF
3235 1401 CircleF
6643 4681 CircleF
6741 4757 CircleF
3886 1620 CircleF
3969 1684 CircleF
1102 1616 CircleF
1193 1685 CircleF
3521 627 CircleF
3622 705 CircleF
1763 4702 CircleF
1839 4761 CircleF
3155 2367 CircleF
3249 2440 CircleF
1819 3596 CircleF
1924 3677 CircleF
2713 4064 CircleF
2816 4144 CircleF
3609 2647 CircleF
3718 2730 CircleF
3567 3890 CircleF
3676 3974 CircleF
6827 3289 CircleF
6934 3372 CircleF
2002 3722 CircleF
2098 3796 CircleF
6309 2646 CircleF
6413 2726 CircleF
1957 494 CircleF
2075 584 CircleF
2352 3955 CircleF
2443 4025 CircleF
2049 950 CircleF
2156 1032 CircleF
1299 3570 CircleF
1400 3648 CircleF
5157 1692 CircleF
5239 1754 CircleF
5877 4603 CircleF
5974 4677 CircleF
5640 4633 CircleF
5730 4702 CircleF
6098 2030 CircleF
6187 2099 CircleF
1339 2337 CircleF
1418 2398 CircleF
5623 2257 CircleF
5704 2319 CircleF
4246 506 CircleF
4319 562 CircleF
3806 4718 CircleF
3877 4773 CircleF
6446 938 CircleF
6532 1004 CircleF
4238 4657 CircleF
4338 4734 CircleF
5057 1203 CircleF
5158 1280 CircleF
4618 863 CircleF
4737 954 CircleF
3105 2920 CircleF
3213 3003 CircleF
4554 2769 CircleF
4634 2830 CircleF
5990 2275 CircleF
6092 2353 CircleF
4333 2655 CircleF
4438 2735 CircleF
4948 2391 CircleF
5060 2477 CircleF
2962 3881 CircleF
3075 3968 CircleF
1494 2479 CircleF
1578 2544 CircleF
2344 1042 CircleF
2446 1121 CircleF
3768 1612 CircleF
3871 1691 CircleF
1823 1407 CircleF
1904 1469 CircleF
5932 2121 CircleF
6020 2189 CircleF
2861 3607 CircleF
2951 3676 CircleF
3037 4156 CircleF
3148 4241 CircleF
1918 3349 CircleF
2028 3433 CircleF
3919 3145 CircleF
3998 3206 CircleF
3734 1896 CircleF
3806 1951 CircleF
5281 3683 CircleF
5367 3749 CircleF
5503 2271 CircleF
5575 2326 CircleF
1088 1596 CircleF
1173 1661 CircleF
3237 2594 CircleF
3314 2653 CircleF
3572 4318 CircleF
3635 4367 CircleF
4412 610 CircleF
4504 680 CircleF
4212 3340 CircleF
4317 3420 CircleF
4982 2979 CircleF
5064 3042 CircleF
2426 1456 CircleF
2509 1520 CircleF
1318 4558 CircleF
1415 4632 CircleF
1912 594 CircleF
2010 668 CircleF
4233 2657 CircleF
4296 2706 CircleF
2138 3447 CircleF
2203 3497 CircleF
2821 3251 CircleF
2928 3333 CircleF
2560 745 CircleF
2673 832 CircleF
3890 1121 CircleF
3951 1167 CircleF
1519 1717 CircleF
1631 1803 CircleF
1174 955 CircleF
1282 1038 CircleF
2122 3397 CircleF
2187 3447 CircleF
3342 4005 CircleF
3453 4091 CircleF
2785 460 CircleF
2881 534 CircleF
2874 1743 CircleF
2946 1798 CircleF
5889 1200 CircleF
5986 1274 CircleF
3019 1908 CircleF
3135 1997 CircleF
4477 4775 CircleF
4591 4863 CircleF
3597 2466 CircleF
3665 2518 CircleF
5714 827 CircleF
5831 916 CircleF
2095 349 CircleF
2159 398 CircleF
5896 2951 CircleF
5966 3004 CircleF
3972 3533 CircleF
4045 3589 CircleF
2283 378 CircleF
2370 444 CircleF
4568 1483 CircleF
4673 1563 CircleF
4425 1354 CircleF
4531 1435 CircleF
5357 608 CircleF
5460 687 CircleF
1293 561 CircleF
1394 638 CircleF
4167 574 CircleF
4258 643 CircleF
2637 301 CircleF
2724 367 CircleF
3031 2291 CircleF
3143 2377 CircleF
2204 1324 CircleF
2276 1379 CircleF
6103 312 CircleF
6203 388 CircleF
4452 4038 CircleF
4538 4105 CircleF
2487 3073 CircleF
2547 3120 CircleF
4000 2467 CircleF
4076 2526 CircleF
1397 3719 CircleF
1483 3785 CircleF
5195 3395 CircleF
5286 3464 CircleF
1595 2938 CircleF
1687 3008 CircleF
2849 1580 CircleF
2959 1664 CircleF
1089 770 CircleF
1157 823 CircleF
6337 4608 CircleF
6442 4688 CircleF
2053 1338 CircleF
2151 1413 CircleF
3073 4341 CircleF
3173 4418 CircleF
2199 3531 CircleF
2268 3585 CircleF
3612 1148 CircleF
3682 1202 CircleF
1226 1784 CircleF
1338 1870 CircleF
1316 361 CircleF
1413 436 CircleF
1285 2449 CircleF
1402 2538 CircleF
1905 474 CircleF
1966 520 CircleF
5327 3118 CircleF
5436 3201 CircleF
2320 2344 CircleF
2428 2427 CircleF
3341 1679 CircleF
3419 1738 CircleF
2269 2459 CircleF
2342 2515 CircleF
6306 885 CircleF
6383 944 CircleF
3344 4687 CircleF
3405 4734 CircleF
1142 1685 CircleF
1249 1768 CircleF
3558 1346 CircleF
3662 1426 CircleF
5874 2967 CircleF
5990 3055 CircleF
6412 3588 CircleF
6523 3673 CircleF
2043 3047 CircleF
2127 3112 CircleF
5730 3977 CircleF
5819 4045 CircleF
4198 3592 CircleF
4291 3663 CircleF
2243 679 CircleF
2318 737 CircleF
3940 2394 CircleF
4028 2461 CircleF
5310 3330 CircleF
5379 3384 CircleF
4684 3083 CircleF
4759 3140 CircleF
6095 3784 CircleF
6168 3840 CircleF
5836 2037 CircleF
5911 2094 CircleF
5313 3630 CircleF
5428 3719 CircleF
4086 1041 CircleF
4200 1128 CircleF
% End plot #2
1.000 UP
1.000 UL
LT0
0.50 0.50 0.50 C stroke
grestore
end
showpage
%%Trailer
%%DocumentFonts: Helvetica
%%Pages: 1
