%!PS-Adobe-2.0
%%Title: out.ps
%%Creator: gnuplot 4.6 patchlevel 6
%%CreationDate: Fri May 29 00:03:53 2015
%%DocumentFonts: (atend)
%%BoundingBox: 50 50 554 770
%%Orientation: Landscape
%%Pages: (atend)
%%EndComments
%%BeginProlog
/gnudict 256 dict def
gnudict begin
%
% The following true/false flags may be edited by hand if desired.
% The unit line width and grayscale image gamma correction may also be changed.
%
/Color false def
/Blacktext false def
/Solid false def
/Dashlength 1 def
/Landscape true def
/Level1 false def
/Rounded false def
/ClipToBoundingBox false def
/SuppressPDFMark false def
/TransparentPatterns false def
/gnulinewidth 5.000 def
/userlinewidth gnulinewidth def
/Gamma 1.0 def
/BackgroundColor {-1.000 -1.000 -1.000} def
%
/vshift -46 def
/dl1 {
  10.0 Dashlength mul mul
  Rounded { currentlinewidth 0.75 mul sub dup 0 le { pop 0.01 } if } if
} def
/dl2 {
  10.0 Dashlength mul mul
  Rounded { currentlinewidth 0.75 mul add } if
} def
/hpt_ 31.5 def
/vpt_ 31.5 def
/hpt hpt_ def
/vpt vpt_ def
/doclip {
  ClipToBoundingBox {
    newpath 50 50 moveto 554 50 lineto 554 770 lineto 50 770 lineto closepath
    clip
  } if
} def
%
% Gnuplot Prolog Version 4.6 (September 2012)
%
%/SuppressPDFMark true def
%
/M {moveto} bind def
/L {lineto} bind def
/R {rmoveto} bind def
/V {rlineto} bind def
/N {newpath moveto} bind def
/Z {closepath} bind def
/C {setrgbcolor} bind def
/f {rlineto fill} bind def
/g {setgray} bind def
/Gshow {show} def   % May be redefined later in the file to support UTF-8
/vpt2 vpt 2 mul def
/hpt2 hpt 2 mul def
/Lshow {currentpoint stroke M 0 vshift R 
	Blacktext {gsave 0 setgray show grestore} {show} ifelse} def
/Rshow {currentpoint stroke M dup stringwidth pop neg vshift R
	Blacktext {gsave 0 setgray show grestore} {show} ifelse} def
/Cshow {currentpoint stroke M dup stringwidth pop -2 div vshift R 
	Blacktext {gsave 0 setgray show grestore} {show} ifelse} def
/UP {dup vpt_ mul /vpt exch def hpt_ mul /hpt exch def
  /hpt2 hpt 2 mul def /vpt2 vpt 2 mul def} def
/DL {Color {setrgbcolor Solid {pop []} if 0 setdash}
 {pop pop pop 0 setgray Solid {pop []} if 0 setdash} ifelse} def
/BL {stroke userlinewidth 2 mul setlinewidth
	Rounded {1 setlinejoin 1 setlinecap} if} def
/AL {stroke userlinewidth 2 div setlinewidth
	Rounded {1 setlinejoin 1 setlinecap} if} def
/UL {dup gnulinewidth mul /userlinewidth exch def
	dup 1 lt {pop 1} if 10 mul /udl exch def} def
/PL {stroke userlinewidth setlinewidth
	Rounded {1 setlinejoin 1 setlinecap} if} def
3.8 setmiterlimit
% Default Line colors
/LCw {1 1 1} def
/LCb {0 0 0} def
/LCa {0 0 0} def
/LC0 {1 0 0} def
/LC1 {0 1 0} def
/LC2 {0 0 1} def
/LC3 {1 0 1} def
/LC4 {0 1 1} def
/LC5 {1 1 0} def
/LC6 {0 0 0} def
/LC7 {1 0.3 0} def
/LC8 {0.5 0.5 0.5} def
% Default Line Types
/LTw {PL [] 1 setgray} def
/LTb {BL [] LCb DL} def
/LTa {AL [1 udl mul 2 udl mul] 0 setdash LCa setrgbcolor} def
/LT0 {PL [] LC0 DL} def
/LT1 {PL [4 dl1 2 dl2] LC1 DL} def
/LT2 {PL [2 dl1 3 dl2] LC2 DL} def
/LT3 {PL [1 dl1 1.5 dl2] LC3 DL} def
/LT4 {PL [6 dl1 2 dl2 1 dl1 2 dl2] LC4 DL} def
/LT5 {PL [3 dl1 3 dl2 1 dl1 3 dl2] LC5 DL} def
/LT6 {PL [2 dl1 2 dl2 2 dl1 6 dl2] LC6 DL} def
/LT7 {PL [1 dl1 2 dl2 6 dl1 2 dl2 1 dl1 2 dl2] LC7 DL} def
/LT8 {PL [2 dl1 2 dl2 2 dl1 2 dl2 2 dl1 2 dl2 2 dl1 4 dl2] LC8 DL} def
/Pnt {stroke [] 0 setdash gsave 1 setlinecap M 0 0 V stroke grestore} def
/Dia {stroke [] 0 setdash 2 copy vpt add M
  hpt neg vpt neg V hpt vpt neg V
  hpt vpt V hpt neg vpt V closepath stroke
  Pnt} def
/Pls {stroke [] 0 setdash vpt sub M 0 vpt2 V
  currentpoint stroke M
  hpt neg vpt neg R hpt2 0 V stroke
 } def
/Box {stroke [] 0 setdash 2 copy exch hpt sub exch vpt add M
  0 vpt2 neg V hpt2 0 V 0 vpt2 V
  hpt2 neg 0 V closepath stroke
  Pnt} def
/Crs {stroke [] 0 setdash exch hpt sub exch vpt add M
  hpt2 vpt2 neg V currentpoint stroke M
  hpt2 neg 0 R hpt2 vpt2 V stroke} def
/TriU {stroke [] 0 setdash 2 copy vpt 1.12 mul add M
  hpt neg vpt -1.62 mul V
  hpt 2 mul 0 V
  hpt neg vpt 1.62 mul V closepath stroke
  Pnt} def
/Star {2 copy Pls Crs} def
/BoxF {stroke [] 0 setdash exch hpt sub exch vpt add M
  0 vpt2 neg V hpt2 0 V 0 vpt2 V
  hpt2 neg 0 V closepath fill} def
/TriUF {stroke [] 0 setdash vpt 1.12 mul add M
  hpt neg vpt -1.62 mul V
  hpt 2 mul 0 V
  hpt neg vpt 1.62 mul V closepath fill} def
/TriD {stroke [] 0 setdash 2 copy vpt 1.12 mul sub M
  hpt neg vpt 1.62 mul V
  hpt 2 mul 0 V
  hpt neg vpt -1.62 mul V closepath stroke
  Pnt} def
/TriDF {stroke [] 0 setdash vpt 1.12 mul sub M
  hpt neg vpt 1.62 mul V
  hpt 2 mul 0 V
  hpt neg vpt -1.62 mul V closepath fill} def
/DiaF {stroke [] 0 setdash vpt add M
  hpt neg vpt neg V hpt vpt neg V
  hpt vpt V hpt neg vpt V closepath fill} def
/Pent {stroke [] 0 setdash 2 copy gsave
  translate 0 hpt M 4 {72 rotate 0 hpt L} repeat
  closepath stroke grestore Pnt} def
/PentF {stroke [] 0 setdash gsave
  translate 0 hpt M 4 {72 rotate 0 hpt L} repeat
  closepath fill grestore} def
/Circle {stroke [] 0 setdash 2 copy
  hpt 0 360 arc stroke Pnt} def
/CircleF {stroke [] 0 setdash hpt 0 360 arc fill} def
/C0 {BL [] 0 setdash 2 copy moveto vpt 90 450 arc} bind def
/C1 {BL [] 0 setdash 2 copy moveto
	2 copy vpt 0 90 arc closepath fill
	vpt 0 360 arc closepath} bind def
/C2 {BL [] 0 setdash 2 copy moveto
	2 copy vpt 90 180 arc closepath fill
	vpt 0 360 arc closepath} bind def
/C3 {BL [] 0 setdash 2 copy moveto
	2 copy vpt 0 180 arc closepath fill
	vpt 0 360 arc closepath} bind def
/C4 {BL [] 0 setdash 2 copy moveto
	2 copy vpt 180 270 arc closepath fill
	vpt 0 360 arc closepath} bind def
/C5 {BL [] 0 setdash 2 copy moveto
	2 copy vpt 0 90 arc
	2 copy moveto
	2 copy vpt 180 270 arc closepath fill
	vpt 0 360 arc} bind def
/C6 {BL [] 0 setdash 2 copy moveto
	2 copy vpt 90 270 arc closepath fill
	vpt 0 360 arc closepath} bind def
/C7 {BL [] 0 setdash 2 copy moveto
	2 copy vpt 0 270 arc closepath fill
	vpt 0 360 arc closepath} bind def
/C8 {BL [] 0 setdash 2 copy moveto
	2 copy vpt 270 360 arc closepath fill
	vpt 0 360 arc closepath} bind def
/C9 {BL [] 0 setdash 2 copy moveto
	2 copy vpt 270 450 arc closepath fill
	vpt 0 360 arc closepath} bind def
/C10 {BL [] 0 setdash 2 copy 2 copy moveto vpt 270 360 arc closepath fill
	2 copy moveto
	2 copy vpt 90 180 arc closepath fill
	vpt 0 360 arc closepath} bind def
/C11 {BL [] 0 setdash 2 copy moveto
	2 copy vpt 0 180 arc closepath fill
	2 copy moveto
	2 copy vpt 270 360 arc closepath fill
	vpt 0 360 arc closepath} bind def
/C12 {BL [] 0 setdash 2 copy moveto
	2 copy vpt 180 360 arc closepath fill
	vpt 0 360 arc closepath} bind def
/C13 {BL [] 0 setdash 2 copy moveto
	2 copy vpt 0 90 arc closepath fill
	2 copy moveto
	2 copy vpt 180 360 arc closepath fill
	vpt 0 360 arc closepath} bind def
/C14 {BL [] 0 setdash 2 copy moveto
	2 copy vpt 90 360 arc closepath fill
	vpt 0 360 arc} bind def
/C15 {BL [] 0 setdash 2 copy vpt 0 360 arc closepath fill
	vpt 0 360 arc closepath} bind def
/Rec {newpath 4 2 roll moveto 1 index 0 rlineto 0 exch rlineto
	neg 0 rlineto closepath} bind def
/Square {dup Rec} bind def
/Bsquare {vpt sub exch vpt sub exch vpt2 Square} bind def
/S0 {BL [] 0 setdash 2 copy moveto 0 vpt rlineto BL Bsquare} bind def
/S1 {BL [] 0 setdash 2 copy vpt Square fill Bsquare} bind def
/S2 {BL [] 0 setdash 2 copy exch vpt sub exch vpt Square fill Bsquare} bind def
/S3 {BL [] 0 setdash 2 copy exch vpt sub exch vpt2 vpt Rec fill Bsquare} bind def
/S4 {BL [] 0 setdash 2 copy exch vpt sub exch vpt sub vpt Square fill Bsquare} bind def
/S5 {BL [] 0 setdash 2 copy 2 copy vpt Square fill
	exch vpt sub exch vpt sub vpt Square fill Bsquare} bind def
/S6 {BL [] 0 setdash 2 copy exch vpt sub exch vpt sub vpt vpt2 Rec fill Bsquare} bind def
/S7 {BL [] 0 setdash 2 copy exch vpt sub exch vpt sub vpt vpt2 Rec fill
	2 copy vpt Square fill Bsquare} bind def
/S8 {BL [] 0 setdash 2 copy vpt sub vpt Square fill Bsquare} bind def
/S9 {BL [] 0 setdash 2 copy vpt sub vpt vpt2 Rec fill Bsquare} bind def
/S10 {BL [] 0 setdash 2 copy vpt sub vpt Square fill 2 copy exch vpt sub exch vpt Square fill
	Bsquare} bind def
/S11 {BL [] 0 setdash 2 copy vpt sub vpt Square fill 2 copy exch vpt sub exch vpt2 vpt Rec fill
	Bsquare} bind def
/S12 {BL [] 0 setdash 2 copy exch vpt sub exch vpt sub vpt2 vpt Rec fill Bsquare} bind def
/S13 {BL [] 0 setdash 2 copy exch vpt sub exch vpt sub vpt2 vpt Rec fill
	2 copy vpt Square fill Bsquare} bind def
/S14 {BL [] 0 setdash 2 copy exch vpt sub exch vpt sub vpt2 vpt Rec fill
	2 copy exch vpt sub exch vpt Square fill Bsquare} bind def
/S15 {BL [] 0 setdash 2 copy Bsquare fill Bsquare} bind def
/D0 {gsave translate 45 rotate 0 0 S0 stroke grestore} bind def
/D1 {gsave translate 45 rotate 0 0 S1 stroke grestore} bind def
/D2 {gsave translate 45 rotate 0 0 S2 stroke grestore} bind def
/D3 {gsave translate 45 rotate 0 0 S3 stroke grestore} bind def
/D4 {gsave translate 45 rotate 0 0 S4 stroke grestore} bind def
/D5 {gsave translate 45 rotate 0 0 S5 stroke grestore} bind def
/D6 {gsave translate 45 rotate 0 0 S6 stroke grestore} bind def
/D7 {gsave translate 45 rotate 0 0 S7 stroke grestore} bind def
/D8 {gsave translate 45 rotate 0 0 S8 stroke grestore} bind def
/D9 {gsave translate 45 rotate 0 0 S9 stroke grestore} bind def
/D10 {gsave translate 45 rotate 0 0 S10 stroke grestore} bind def
/D11 {gsave translate 45 rotate 0 0 S11 stroke grestore} bind def
/D12 {gsave translate 45 rotate 0 0 S12 stroke grestore} bind def
/D13 {gsave translate 45 rotate 0 0 S13 stroke grestore} bind def
/D14 {gsave translate 45 rotate 0 0 S14 stroke grestore} bind def
/D15 {gsave translate 45 rotate 0 0 S15 stroke grestore} bind def
/DiaE {stroke [] 0 setdash vpt add M
  hpt neg vpt neg V hpt vpt neg V
  hpt vpt V hpt neg vpt V closepath stroke} def
/BoxE {stroke [] 0 setdash exch hpt sub exch vpt add M
  0 vpt2 neg V hpt2 0 V 0 vpt2 V
  hpt2 neg 0 V closepath stroke} def
/TriUE {stroke [] 0 setdash vpt 1.12 mul add M
  hpt neg vpt -1.62 mul V
  hpt 2 mul 0 V
  hpt neg vpt 1.62 mul V closepath stroke} def
/TriDE {stroke [] 0 setdash vpt 1.12 mul sub M
  hpt neg vpt 1.62 mul V
  hpt 2 mul 0 V
  hpt neg vpt -1.62 mul V closepath stroke} def
/PentE {stroke [] 0 setdash gsave
  translate 0 hpt M 4 {72 rotate 0 hpt L} repeat
  closepath stroke grestore} def
/CircE {stroke [] 0 setdash 
  hpt 0 360 arc stroke} def
/Opaque {gsave closepath 1 setgray fill grestore 0 setgray closepath} def
/DiaW {stroke [] 0 setdash vpt add M
  hpt neg vpt neg V hpt vpt neg V
  hpt vpt V hpt neg vpt V Opaque stroke} def
/BoxW {stroke [] 0 setdash exch hpt sub exch vpt add M
  0 vpt2 neg V hpt2 0 V 0 vpt2 V
  hpt2 neg 0 V Opaque stroke} def
/TriUW {stroke [] 0 setdash vpt 1.12 mul add M
  hpt neg vpt -1.62 mul V
  hpt 2 mul 0 V
  hpt neg vpt 1.62 mul V Opaque stroke} def
/TriDW {stroke [] 0 setdash vpt 1.12 mul sub M
  hpt neg vpt 1.62 mul V
  hpt 2 mul 0 V
  hpt neg vpt -1.62 mul V Opaque stroke} def
/PentW {stroke [] 0 setdash gsave
  translate 0 hpt M 4 {72 rotate 0 hpt L} repeat
  Opaque stroke grestore} def
/CircW {stroke [] 0 setdash 
  hpt 0 360 arc Opaque stroke} def
/BoxFill {gsave Rec 1 setgray fill grestore} def
/Density {
  /Fillden exch def
  currentrgbcolor
  /ColB exch def /ColG exch def /ColR exch def
  /ColR ColR Fillden mul Fillden sub 1 add def
  /ColG ColG Fillden mul Fillden sub 1 add def
  /ColB ColB Fillden mul Fillden sub 1 add def
  ColR ColG ColB setrgbcolor} def
/BoxColFill {gsave Rec PolyFill} def
/PolyFill {gsave Density fill grestore grestore} def
/h {rlineto rlineto rlineto gsave closepath fill grestore} bind def
%
% PostScript Level 1 Pattern Fill routine for rectangles
% Usage: x y w h s a XX PatternFill
%	x,y = lower left corner of box to be filled
%	w,h = width and height of box
%	  a = angle in degrees between lines and x-axis
%	 XX = 0/1 for no/yes cross-hatch
%
/PatternFill {gsave /PFa [ 9 2 roll ] def
  PFa 0 get PFa 2 get 2 div add PFa 1 get PFa 3 get 2 div add translate
  PFa 2 get -2 div PFa 3 get -2 div PFa 2 get PFa 3 get Rec
  TransparentPatterns {} {gsave 1 setgray fill grestore} ifelse
  clip
  currentlinewidth 0.5 mul setlinewidth
  /PFs PFa 2 get dup mul PFa 3 get dup mul add sqrt def
  0 0 M PFa 5 get rotate PFs -2 div dup translate
  0 1 PFs PFa 4 get div 1 add floor cvi
	{PFa 4 get mul 0 M 0 PFs V} for
  0 PFa 6 get ne {
	0 1 PFs PFa 4 get div 1 add floor cvi
	{PFa 4 get mul 0 2 1 roll M PFs 0 V} for
 } if
  stroke grestore} def
%
/languagelevel where
 {pop languagelevel} {1} ifelse
 2 lt
	{/InterpretLevel1 true def}
	{/InterpretLevel1 Level1 def}
 ifelse
%
% PostScript level 2 pattern fill definitions
%
/Level2PatternFill {
/Tile8x8 {/PaintType 2 /PatternType 1 /TilingType 1 /BBox [0 0 8 8] /XStep 8 /YStep 8}
	bind def
/KeepColor {currentrgbcolor [/Pattern /DeviceRGB] setcolorspace} bind def
<< Tile8x8
 /PaintProc {0.5 setlinewidth pop 0 0 M 8 8 L 0 8 M 8 0 L stroke} 
>> matrix makepattern
/Pat1 exch def
<< Tile8x8
 /PaintProc {0.5 setlinewidth pop 0 0 M 8 8 L 0 8 M 8 0 L stroke
	0 4 M 4 8 L 8 4 L 4 0 L 0 4 L stroke}
>> matrix makepattern
/Pat2 exch def
<< Tile8x8
 /PaintProc {0.5 setlinewidth pop 0 0 M 0 8 L
	8 8 L 8 0 L 0 0 L fill}
>> matrix makepattern
/Pat3 exch def
<< Tile8x8
 /PaintProc {0.5 setlinewidth pop -4 8 M 8 -4 L
	0 12 M 12 0 L stroke}
>> matrix makepattern
/Pat4 exch def
<< Tile8x8
 /PaintProc {0.5 setlinewidth pop -4 0 M 8 12 L
	0 -4 M 12 8 L stroke}
>> matrix makepattern
/Pat5 exch def
<< Tile8x8
 /PaintProc {0.5 setlinewidth pop -2 8 M 4 -4 L
	0 12 M 8 -4 L 4 12 M 10 0 L stroke}
>> matrix makepattern
/Pat6 exch def
<< Tile8x8
 /PaintProc {0.5 setlinewidth pop -2 0 M 4 12 L
	0 -4 M 8 12 L 4 -4 M 10 8 L stroke}
>> matrix makepattern
/Pat7 exch def
<< Tile8x8
 /PaintProc {0.5 setlinewidth pop 8 -2 M -4 4 L
	12 0 M -4 8 L 12 4 M 0 10 L stroke}
>> matrix makepattern
/Pat8 exch def
<< Tile8x8
 /PaintProc {0.5 setlinewidth pop 0 -2 M 12 4 L
	-4 0 M 12 8 L -4 4 M 8 10 L stroke}
>> matrix makepattern
/Pat9 exch def
/Pattern1 {PatternBgnd KeepColor Pat1 setpattern} bind def
/Pattern2 {PatternBgnd KeepColor Pat2 setpattern} bind def
/Pattern3 {PatternBgnd KeepColor Pat3 setpattern} bind def
/Pattern4 {PatternBgnd KeepColor Landscape {Pat5} {Pat4} ifelse setpattern} bind def
/Pattern5 {PatternBgnd KeepColor Landscape {Pat4} {Pat5} ifelse setpattern} bind def
/Pattern6 {PatternBgnd KeepColor Landscape {Pat9} {Pat6} ifelse setpattern} bind def
/Pattern7 {PatternBgnd KeepColor Landscape {Pat8} {Pat7} ifelse setpattern} bind def
} def
%
%
%End of PostScript Level 2 code
%
/PatternBgnd {
  TransparentPatterns {} {gsave 1 setgray fill grestore} ifelse
} def
%
% Substitute for Level 2 pattern fill codes with
% grayscale if Level 2 support is not selected.
%
/Level1PatternFill {
/Pattern1 {0.250 Density} bind def
/Pattern2 {0.500 Density} bind def
/Pattern3 {0.750 Density} bind def
/Pattern4 {0.125 Density} bind def
/Pattern5 {0.375 Density} bind def
/Pattern6 {0.625 Density} bind def
/Pattern7 {0.875 Density} bind def
} def
%
% Now test for support of Level 2 code
%
Level1 {Level1PatternFill} {Level2PatternFill} ifelse
%
/Symbol-Oblique /Symbol findfont [1 0 .167 1 0 0] makefont
dup length dict begin {1 index /FID eq {pop pop} {def} ifelse} forall
currentdict end definefont pop
Level1 SuppressPDFMark or 
{} {
/SDict 10 dict def
systemdict /pdfmark known not {
  userdict /pdfmark systemdict /cleartomark get put
} if
SDict begin [
  /Title (out.ps)
  /Subject (gnuplot plot)
  /Creator (gnuplot 4.6 patchlevel 6)
  /Author (yani)
%  /Producer (gnuplot)
%  /Keywords ()
  /CreationDate (Fri May 29 00:03:53 2015)
  /DOCINFO pdfmark
end
} ifelse
end
%%EndProlog
%%Page: 1 1
gnudict begin
gsave
doclip
50 50 translate
0.100 0.100 scale
90 rotate
0 -5040 translate
0 setgray
newpath
(Helvetica) findfont 140 scalefont setfont
BackgroundColor 0 lt 3 1 roll 0 lt exch 0 lt or or not {gsave BackgroundColor C clippath fill grestore} if
1.000 UL
LT0
0.50 0.50 0.50 C 1.000 UL
LTa
0.50 0.50 0.50 C 966 280 M
5981 0 V
stroke
LT0
0.50 0.50 0.50 C 966 280 M
63 0 V
5918 0 R
-63 0 V
882 280 M
( 0) Rshow
1.000 UL
LT0
0.50 0.50 0.50 C 1.000 UL
LTa
0.50 0.50 0.50 C 966 326 M
5981 0 V
stroke
LT0
0.50 0.50 0.50 C 966 326 M
63 0 V
5918 0 R
-63 0 V
882 326 M
( 0.707106) Rshow
1.000 UL
LT0
0.50 0.50 0.50 C 1.000 UL
LTa
0.50 0.50 0.50 C 966 372 M
5981 0 V
stroke
LT0
0.50 0.50 0.50 C 966 372 M
63 0 V
5918 0 R
-63 0 V
882 372 M
( 1.41421) Rshow
1.000 UL
LT0
0.50 0.50 0.50 C 1.000 UL
LTa
0.50 0.50 0.50 C 966 418 M
5981 0 V
stroke
LT0
0.50 0.50 0.50 C 966 418 M
63 0 V
5918 0 R
-63 0 V
882 418 M
( 2.12132) Rshow
1.000 UL
LT0
0.50 0.50 0.50 C 1.000 UL
LTa
0.50 0.50 0.50 C 966 464 M
5981 0 V
stroke
LT0
0.50 0.50 0.50 C 966 464 M
63 0 V
5918 0 R
-63 0 V
882 464 M
( 2.82842) Rshow
1.000 UL
LT0
0.50 0.50 0.50 C 1.000 UL
LTa
0.50 0.50 0.50 C 966 510 M
5981 0 V
stroke
LT0
0.50 0.50 0.50 C 966 510 M
63 0 V
5918 0 R
-63 0 V
882 510 M
( 3.53553) Rshow
1.000 UL
LT0
0.50 0.50 0.50 C 1.000 UL
LTa
0.50 0.50 0.50 C 966 555 M
5981 0 V
stroke
LT0
0.50 0.50 0.50 C 966 555 M
63 0 V
5918 0 R
-63 0 V
882 555 M
( 4.24264) Rshow
1.000 UL
LT0
0.50 0.50 0.50 C 1.000 UL
LTa
0.50 0.50 0.50 C 966 601 M
5981 0 V
stroke
LT0
0.50 0.50 0.50 C 966 601 M
63 0 V
5918 0 R
-63 0 V
882 601 M
( 4.94974) Rshow
1.000 UL
LT0
0.50 0.50 0.50 C 1.000 UL
LTa
0.50 0.50 0.50 C 966 647 M
5981 0 V
stroke
LT0
0.50 0.50 0.50 C 966 647 M
63 0 V
5918 0 R
-63 0 V
882 647 M
( 5.65685) Rshow
1.000 UL
LT0
0.50 0.50 0.50 C 1.000 UL
LTa
0.50 0.50 0.50 C 966 693 M
5981 0 V
stroke
LT0
0.50 0.50 0.50 C 966 693 M
63 0 V
5918 0 R
-63 0 V
882 693 M
( 6.36395) Rshow
1.000 UL
LT0
0.50 0.50 0.50 C 1.000 UL
LTa
0.50 0.50 0.50 C 966 739 M
5981 0 V
stroke
LT0
0.50 0.50 0.50 C 966 739 M
63 0 V
5918 0 R
-63 0 V
882 739 M
( 7.07106) Rshow
1.000 UL
LT0
0.50 0.50 0.50 C 1.000 UL
LTa
0.50 0.50 0.50 C 966 785 M
5981 0 V
stroke
LT0
0.50 0.50 0.50 C 966 785 M
63 0 V
5918 0 R
-63 0 V
882 785 M
( 7.77817) Rshow
1.000 UL
LT0
0.50 0.50 0.50 C 1.000 UL
LTa
0.50 0.50 0.50 C 966 831 M
5981 0 V
stroke
LT0
0.50 0.50 0.50 C 966 831 M
63 0 V
5918 0 R
-63 0 V
882 831 M
( 8.48527) Rshow
1.000 UL
LT0
0.50 0.50 0.50 C 1.000 UL
LTa
0.50 0.50 0.50 C 966 877 M
5981 0 V
stroke
LT0
0.50 0.50 0.50 C 966 877 M
63 0 V
5918 0 R
-63 0 V
882 877 M
( 9.19238) Rshow
1.000 UL
LT0
0.50 0.50 0.50 C 1.000 UL
LTa
0.50 0.50 0.50 C 966 923 M
5981 0 V
stroke
LT0
0.50 0.50 0.50 C 966 923 M
63 0 V
5918 0 R
-63 0 V
882 923 M
( 9.89948) Rshow
1.000 UL
LT0
0.50 0.50 0.50 C 1.000 UL
LTa
0.50 0.50 0.50 C 966 969 M
5981 0 V
stroke
LT0
0.50 0.50 0.50 C 966 969 M
63 0 V
5918 0 R
-63 0 V
882 969 M
( 10.6066) Rshow
1.000 UL
LT0
0.50 0.50 0.50 C 1.000 UL
LTa
0.50 0.50 0.50 C 966 1015 M
5981 0 V
stroke
LT0
0.50 0.50 0.50 C 966 1015 M
63 0 V
5918 0 R
-63 0 V
-6002 0 R
( 11.3137) Rshow
1.000 UL
LT0
0.50 0.50 0.50 C 1.000 UL
LTa
0.50 0.50 0.50 C 966 1060 M
5981 0 V
stroke
LT0
0.50 0.50 0.50 C 966 1060 M
63 0 V
5918 0 R
-63 0 V
-6002 0 R
( 12.0208) Rshow
1.000 UL
LT0
0.50 0.50 0.50 C 1.000 UL
LTa
0.50 0.50 0.50 C 966 1106 M
5981 0 V
stroke
LT0
0.50 0.50 0.50 C 966 1106 M
63 0 V
5918 0 R
-63 0 V
-6002 0 R
( 12.7279) Rshow
1.000 UL
LT0
0.50 0.50 0.50 C 1.000 UL
LTa
0.50 0.50 0.50 C 966 1152 M
5981 0 V
stroke
LT0
0.50 0.50 0.50 C 966 1152 M
63 0 V
5918 0 R
-63 0 V
-6002 0 R
( 13.435) Rshow
1.000 UL
LT0
0.50 0.50 0.50 C 1.000 UL
LTa
0.50 0.50 0.50 C 966 1198 M
5981 0 V
stroke
LT0
0.50 0.50 0.50 C 966 1198 M
63 0 V
5918 0 R
-63 0 V
-6002 0 R
( 14.1421) Rshow
1.000 UL
LT0
0.50 0.50 0.50 C 1.000 UL
LTa
0.50 0.50 0.50 C 966 1244 M
5981 0 V
stroke
LT0
0.50 0.50 0.50 C 966 1244 M
63 0 V
5918 0 R
-63 0 V
-6002 0 R
( 14.8492) Rshow
1.000 UL
LT0
0.50 0.50 0.50 C 1.000 UL
LTa
0.50 0.50 0.50 C 966 1290 M
5981 0 V
stroke
LT0
0.50 0.50 0.50 C 966 1290 M
63 0 V
5918 0 R
-63 0 V
-6002 0 R
( 15.5563) Rshow
1.000 UL
LT0
0.50 0.50 0.50 C 1.000 UL
LTa
0.50 0.50 0.50 C 966 1336 M
5981 0 V
stroke
LT0
0.50 0.50 0.50 C 966 1336 M
63 0 V
5918 0 R
-63 0 V
-6002 0 R
( 16.2634) Rshow
1.000 UL
LT0
0.50 0.50 0.50 C 1.000 UL
LTa
0.50 0.50 0.50 C 966 1382 M
5981 0 V
stroke
LT0
0.50 0.50 0.50 C 966 1382 M
63 0 V
5918 0 R
-63 0 V
-6002 0 R
( 16.9705) Rshow
1.000 UL
LT0
0.50 0.50 0.50 C 1.000 UL
LTa
0.50 0.50 0.50 C 966 1428 M
5981 0 V
stroke
LT0
0.50 0.50 0.50 C 966 1428 M
63 0 V
5918 0 R
-63 0 V
-6002 0 R
( 17.6776) Rshow
1.000 UL
LT0
0.50 0.50 0.50 C 1.000 UL
LTa
0.50 0.50 0.50 C 966 1474 M
5981 0 V
stroke
LT0
0.50 0.50 0.50 C 966 1474 M
63 0 V
5918 0 R
-63 0 V
-6002 0 R
( 18.3848) Rshow
1.000 UL
LT0
0.50 0.50 0.50 C 1.000 UL
LTa
0.50 0.50 0.50 C 966 1520 M
5981 0 V
stroke
LT0
0.50 0.50 0.50 C 966 1520 M
63 0 V
5918 0 R
-63 0 V
-6002 0 R
( 19.0919) Rshow
1.000 UL
LT0
0.50 0.50 0.50 C 1.000 UL
LTa
0.50 0.50 0.50 C 966 1565 M
5981 0 V
stroke
LT0
0.50 0.50 0.50 C 966 1565 M
63 0 V
5918 0 R
-63 0 V
-6002 0 R
( 19.799) Rshow
1.000 UL
LT0
0.50 0.50 0.50 C 1.000 UL
LTa
0.50 0.50 0.50 C 966 1611 M
5981 0 V
stroke
LT0
0.50 0.50 0.50 C 966 1611 M
63 0 V
5918 0 R
-63 0 V
-6002 0 R
( 20.5061) Rshow
1.000 UL
LT0
0.50 0.50 0.50 C 1.000 UL
LTa
0.50 0.50 0.50 C 966 1657 M
5981 0 V
stroke
LT0
0.50 0.50 0.50 C 966 1657 M
63 0 V
5918 0 R
-63 0 V
-6002 0 R
( 21.2132) Rshow
1.000 UL
LT0
0.50 0.50 0.50 C 1.000 UL
LTa
0.50 0.50 0.50 C 966 1703 M
5981 0 V
stroke
LT0
0.50 0.50 0.50 C 966 1703 M
63 0 V
5918 0 R
-63 0 V
-6002 0 R
( 21.9203) Rshow
1.000 UL
LT0
0.50 0.50 0.50 C 1.000 UL
LTa
0.50 0.50 0.50 C 966 1749 M
5981 0 V
stroke
LT0
0.50 0.50 0.50 C 966 1749 M
63 0 V
5918 0 R
-63 0 V
-6002 0 R
( 22.6274) Rshow
1.000 UL
LT0
0.50 0.50 0.50 C 1.000 UL
LTa
0.50 0.50 0.50 C 966 1795 M
5981 0 V
stroke
LT0
0.50 0.50 0.50 C 966 1795 M
63 0 V
5918 0 R
-63 0 V
-6002 0 R
( 23.3345) Rshow
1.000 UL
LT0
0.50 0.50 0.50 C 1.000 UL
LTa
0.50 0.50 0.50 C 966 1841 M
5981 0 V
stroke
LT0
0.50 0.50 0.50 C 966 1841 M
63 0 V
5918 0 R
-63 0 V
-6002 0 R
( 24.0416) Rshow
1.000 UL
LT0
0.50 0.50 0.50 C 1.000 UL
LTa
0.50 0.50 0.50 C 966 1887 M
5981 0 V
stroke
LT0
0.50 0.50 0.50 C 966 1887 M
63 0 V
5918 0 R
-63 0 V
-6002 0 R
( 24.7487) Rshow
1.000 UL
LT0
0.50 0.50 0.50 C 1.000 UL
LTa
0.50 0.50 0.50 C 966 1933 M
5981 0 V
stroke
LT0
0.50 0.50 0.50 C 966 1933 M
63 0 V
5918 0 R
-63 0 V
-6002 0 R
( 25.4558) Rshow
1.000 UL
LT0
0.50 0.50 0.50 C 1.000 UL
LTa
0.50 0.50 0.50 C 966 1979 M
5981 0 V
stroke
LT0
0.50 0.50 0.50 C 966 1979 M
63 0 V
5918 0 R
-63 0 V
-6002 0 R
( 26.1629) Rshow
1.000 UL
LT0
0.50 0.50 0.50 C 1.000 UL
LTa
0.50 0.50 0.50 C 966 2025 M
5981 0 V
stroke
LT0
0.50 0.50 0.50 C 966 2025 M
63 0 V
5918 0 R
-63 0 V
-6002 0 R
( 26.87) Rshow
1.000 UL
LT0
0.50 0.50 0.50 C 1.000 UL
LTa
0.50 0.50 0.50 C 966 2070 M
5981 0 V
stroke
LT0
0.50 0.50 0.50 C 966 2070 M
63 0 V
5918 0 R
-63 0 V
-6002 0 R
( 27.5771) Rshow
1.000 UL
LT0
0.50 0.50 0.50 C 1.000 UL
LTa
0.50 0.50 0.50 C 966 2116 M
5981 0 V
stroke
LT0
0.50 0.50 0.50 C 966 2116 M
63 0 V
5918 0 R
-63 0 V
-6002 0 R
( 28.2842) Rshow
1.000 UL
LT0
0.50 0.50 0.50 C 1.000 UL
LTa
0.50 0.50 0.50 C 966 2162 M
5981 0 V
stroke
LT0
0.50 0.50 0.50 C 966 2162 M
63 0 V
5918 0 R
-63 0 V
-6002 0 R
( 28.9913) Rshow
1.000 UL
LT0
0.50 0.50 0.50 C 1.000 UL
LTa
0.50 0.50 0.50 C 966 2208 M
5981 0 V
stroke
LT0
0.50 0.50 0.50 C 966 2208 M
63 0 V
5918 0 R
-63 0 V
-6002 0 R
( 29.6985) Rshow
1.000 UL
LT0
0.50 0.50 0.50 C 1.000 UL
LTa
0.50 0.50 0.50 C 966 2254 M
5981 0 V
stroke
LT0
0.50 0.50 0.50 C 966 2254 M
63 0 V
5918 0 R
-63 0 V
-6002 0 R
( 30.4056) Rshow
1.000 UL
LT0
0.50 0.50 0.50 C 1.000 UL
LTa
0.50 0.50 0.50 C 966 2300 M
5981 0 V
stroke
LT0
0.50 0.50 0.50 C 966 2300 M
63 0 V
5918 0 R
-63 0 V
-6002 0 R
( 31.1127) Rshow
1.000 UL
LT0
0.50 0.50 0.50 C 1.000 UL
LTa
0.50 0.50 0.50 C 966 2346 M
5981 0 V
stroke
LT0
0.50 0.50 0.50 C 966 2346 M
63 0 V
5918 0 R
-63 0 V
-6002 0 R
( 31.8198) Rshow
1.000 UL
LT0
0.50 0.50 0.50 C 1.000 UL
LTa
0.50 0.50 0.50 C 966 2392 M
5981 0 V
stroke
LT0
0.50 0.50 0.50 C 966 2392 M
63 0 V
5918 0 R
-63 0 V
-6002 0 R
( 32.5269) Rshow
1.000 UL
LT0
0.50 0.50 0.50 C 1.000 UL
LTa
0.50 0.50 0.50 C 966 2438 M
5981 0 V
stroke
LT0
0.50 0.50 0.50 C 966 2438 M
63 0 V
5918 0 R
-63 0 V
-6002 0 R
( 33.234) Rshow
1.000 UL
LT0
0.50 0.50 0.50 C 1.000 UL
LTa
0.50 0.50 0.50 C 966 2484 M
5981 0 V
stroke
LT0
0.50 0.50 0.50 C 966 2484 M
63 0 V
5918 0 R
-63 0 V
-6002 0 R
( 33.9411) Rshow
1.000 UL
LT0
0.50 0.50 0.50 C 1.000 UL
LTa
0.50 0.50 0.50 C 966 2530 M
5981 0 V
stroke
LT0
0.50 0.50 0.50 C 966 2530 M
63 0 V
5918 0 R
-63 0 V
-6002 0 R
( 34.6482) Rshow
1.000 UL
LT0
0.50 0.50 0.50 C 1.000 UL
LTa
0.50 0.50 0.50 C 966 2576 M
5981 0 V
stroke
LT0
0.50 0.50 0.50 C 966 2576 M
63 0 V
5918 0 R
-63 0 V
-6002 0 R
( 35.3553) Rshow
1.000 UL
LT0
0.50 0.50 0.50 C 1.000 UL
LTa
0.50 0.50 0.50 C 966 2621 M
5981 0 V
stroke
LT0
0.50 0.50 0.50 C 966 2621 M
63 0 V
5918 0 R
-63 0 V
-6002 0 R
( 36.0624) Rshow
1.000 UL
LT0
0.50 0.50 0.50 C 1.000 UL
LTa
0.50 0.50 0.50 C 966 2667 M
5981 0 V
stroke
LT0
0.50 0.50 0.50 C 966 2667 M
63 0 V
5918 0 R
-63 0 V
-6002 0 R
( 36.7695) Rshow
1.000 UL
LT0
0.50 0.50 0.50 C 1.000 UL
LTa
0.50 0.50 0.50 C 966 2713 M
5981 0 V
stroke
LT0
0.50 0.50 0.50 C 966 2713 M
63 0 V
5918 0 R
-63 0 V
-6002 0 R
( 37.4766) Rshow
1.000 UL
LT0
0.50 0.50 0.50 C 1.000 UL
LTa
0.50 0.50 0.50 C 966 2759 M
5981 0 V
stroke
LT0
0.50 0.50 0.50 C 966 2759 M
63 0 V
5918 0 R
-63 0 V
-6002 0 R
( 38.1837) Rshow
1.000 UL
LT0
0.50 0.50 0.50 C 1.000 UL
LTa
0.50 0.50 0.50 C 966 2805 M
5981 0 V
stroke
LT0
0.50 0.50 0.50 C 966 2805 M
63 0 V
5918 0 R
-63 0 V
-6002 0 R
( 38.8908) Rshow
1.000 UL
LT0
0.50 0.50 0.50 C 1.000 UL
LTa
0.50 0.50 0.50 C 966 2851 M
5981 0 V
stroke
LT0
0.50 0.50 0.50 C 966 2851 M
63 0 V
5918 0 R
-63 0 V
-6002 0 R
( 39.5979) Rshow
1.000 UL
LT0
0.50 0.50 0.50 C 1.000 UL
LTa
0.50 0.50 0.50 C 966 2897 M
5981 0 V
stroke
LT0
0.50 0.50 0.50 C 966 2897 M
63 0 V
5918 0 R
-63 0 V
-6002 0 R
( 40.305) Rshow
1.000 UL
LT0
0.50 0.50 0.50 C 1.000 UL
LTa
0.50 0.50 0.50 C 966 2943 M
5981 0 V
stroke
LT0
0.50 0.50 0.50 C 966 2943 M
63 0 V
5918 0 R
-63 0 V
-6002 0 R
( 41.0121) Rshow
1.000 UL
LT0
0.50 0.50 0.50 C 1.000 UL
LTa
0.50 0.50 0.50 C 966 2989 M
5981 0 V
stroke
LT0
0.50 0.50 0.50 C 966 2989 M
63 0 V
5918 0 R
-63 0 V
-6002 0 R
( 41.7193) Rshow
1.000 UL
LT0
0.50 0.50 0.50 C 1.000 UL
LTa
0.50 0.50 0.50 C 966 3035 M
5981 0 V
stroke
LT0
0.50 0.50 0.50 C 966 3035 M
63 0 V
5918 0 R
-63 0 V
-6002 0 R
( 42.4264) Rshow
1.000 UL
LT0
0.50 0.50 0.50 C 1.000 UL
LTa
0.50 0.50 0.50 C 966 3081 M
5981 0 V
stroke
LT0
0.50 0.50 0.50 C 966 3081 M
63 0 V
5918 0 R
-63 0 V
-6002 0 R
( 43.1335) Rshow
1.000 UL
LT0
0.50 0.50 0.50 C 1.000 UL
LTa
0.50 0.50 0.50 C 966 3126 M
5981 0 V
stroke
LT0
0.50 0.50 0.50 C 966 3126 M
63 0 V
5918 0 R
-63 0 V
-6002 0 R
( 43.8406) Rshow
1.000 UL
LT0
0.50 0.50 0.50 C 1.000 UL
LTa
0.50 0.50 0.50 C 966 3172 M
5981 0 V
stroke
LT0
0.50 0.50 0.50 C 966 3172 M
63 0 V
5918 0 R
-63 0 V
-6002 0 R
( 44.5477) Rshow
1.000 UL
LT0
0.50 0.50 0.50 C 1.000 UL
LTa
0.50 0.50 0.50 C 966 3218 M
5981 0 V
stroke
LT0
0.50 0.50 0.50 C 966 3218 M
63 0 V
5918 0 R
-63 0 V
-6002 0 R
( 45.2548) Rshow
1.000 UL
LT0
0.50 0.50 0.50 C 1.000 UL
LTa
0.50 0.50 0.50 C 966 3264 M
5981 0 V
stroke
LT0
0.50 0.50 0.50 C 966 3264 M
63 0 V
5918 0 R
-63 0 V
-6002 0 R
( 45.9619) Rshow
1.000 UL
LT0
0.50 0.50 0.50 C 1.000 UL
LTa
0.50 0.50 0.50 C 966 3310 M
5981 0 V
stroke
LT0
0.50 0.50 0.50 C 966 3310 M
63 0 V
5918 0 R
-63 0 V
-6002 0 R
( 46.669) Rshow
1.000 UL
LT0
0.50 0.50 0.50 C 1.000 UL
LTa
0.50 0.50 0.50 C 966 3356 M
5981 0 V
stroke
LT0
0.50 0.50 0.50 C 966 3356 M
63 0 V
5918 0 R
-63 0 V
-6002 0 R
( 47.3761) Rshow
1.000 UL
LT0
0.50 0.50 0.50 C 1.000 UL
LTa
0.50 0.50 0.50 C 966 3402 M
5981 0 V
stroke
LT0
0.50 0.50 0.50 C 966 3402 M
63 0 V
5918 0 R
-63 0 V
-6002 0 R
( 48.0832) Rshow
1.000 UL
LT0
0.50 0.50 0.50 C 1.000 UL
LTa
0.50 0.50 0.50 C 966 3448 M
5981 0 V
stroke
LT0
0.50 0.50 0.50 C 966 3448 M
63 0 V
5918 0 R
-63 0 V
-6002 0 R
( 48.7903) Rshow
1.000 UL
LT0
0.50 0.50 0.50 C 1.000 UL
LTa
0.50 0.50 0.50 C 966 3494 M
5981 0 V
stroke
LT0
0.50 0.50 0.50 C 966 3494 M
63 0 V
5918 0 R
-63 0 V
-6002 0 R
( 49.4974) Rshow
1.000 UL
LT0
0.50 0.50 0.50 C 1.000 UL
LTa
0.50 0.50 0.50 C 966 3540 M
5981 0 V
stroke
LT0
0.50 0.50 0.50 C 966 3540 M
63 0 V
5918 0 R
-63 0 V
-6002 0 R
( 50.2045) Rshow
1.000 UL
LT0
0.50 0.50 0.50 C 1.000 UL
LTa
0.50 0.50 0.50 C 966 3586 M
5981 0 V
stroke
LT0
0.50 0.50 0.50 C 966 3586 M
63 0 V
5918 0 R
-63 0 V
-6002 0 R
( 50.9116) Rshow
1.000 UL
LT0
0.50 0.50 0.50 C 1.000 UL
LTa
0.50 0.50 0.50 C 966 3631 M
5981 0 V
stroke
LT0
0.50 0.50 0.50 C 966 3631 M
63 0 V
5918 0 R
-63 0 V
-6002 0 R
( 51.6187) Rshow
1.000 UL
LT0
0.50 0.50 0.50 C 1.000 UL
LTa
0.50 0.50 0.50 C 966 3677 M
5981 0 V
stroke
LT0
0.50 0.50 0.50 C 966 3677 M
63 0 V
5918 0 R
-63 0 V
-6002 0 R
( 52.3258) Rshow
1.000 UL
LT0
0.50 0.50 0.50 C 1.000 UL
LTa
0.50 0.50 0.50 C 966 3723 M
5981 0 V
stroke
LT0
0.50 0.50 0.50 C 966 3723 M
63 0 V
5918 0 R
-63 0 V
-6002 0 R
( 53.033) Rshow
1.000 UL
LT0
0.50 0.50 0.50 C 1.000 UL
LTa
0.50 0.50 0.50 C 966 3769 M
5981 0 V
stroke
LT0
0.50 0.50 0.50 C 966 3769 M
63 0 V
5918 0 R
-63 0 V
-6002 0 R
( 53.7401) Rshow
1.000 UL
LT0
0.50 0.50 0.50 C 1.000 UL
LTa
0.50 0.50 0.50 C 966 3815 M
5981 0 V
stroke
LT0
0.50 0.50 0.50 C 966 3815 M
63 0 V
5918 0 R
-63 0 V
-6002 0 R
( 54.4472) Rshow
1.000 UL
LT0
0.50 0.50 0.50 C 1.000 UL
LTa
0.50 0.50 0.50 C 966 3861 M
5981 0 V
stroke
LT0
0.50 0.50 0.50 C 966 3861 M
63 0 V
5918 0 R
-63 0 V
-6002 0 R
( 55.1543) Rshow
1.000 UL
LT0
0.50 0.50 0.50 C 1.000 UL
LTa
0.50 0.50 0.50 C 966 3907 M
5981 0 V
stroke
LT0
0.50 0.50 0.50 C 966 3907 M
63 0 V
5918 0 R
-63 0 V
-6002 0 R
( 55.8614) Rshow
1.000 UL
LT0
0.50 0.50 0.50 C 1.000 UL
LTa
0.50 0.50 0.50 C 966 3953 M
5981 0 V
stroke
LT0
0.50 0.50 0.50 C 966 3953 M
63 0 V
5918 0 R
-63 0 V
-6002 0 R
( 56.5685) Rshow
1.000 UL
LT0
0.50 0.50 0.50 C 1.000 UL
LTa
0.50 0.50 0.50 C 966 3999 M
5981 0 V
stroke
LT0
0.50 0.50 0.50 C 966 3999 M
63 0 V
5918 0 R
-63 0 V
-6002 0 R
( 57.2756) Rshow
1.000 UL
LT0
0.50 0.50 0.50 C 1.000 UL
LTa
0.50 0.50 0.50 C 966 4045 M
5981 0 V
stroke
LT0
0.50 0.50 0.50 C 966 4045 M
63 0 V
5918 0 R
-63 0 V
-6002 0 R
( 57.9827) Rshow
1.000 UL
LT0
0.50 0.50 0.50 C 1.000 UL
LTa
0.50 0.50 0.50 C 966 4091 M
5981 0 V
stroke
LT0
0.50 0.50 0.50 C 966 4091 M
63 0 V
5918 0 R
-63 0 V
-6002 0 R
( 58.6898) Rshow
1.000 UL
LT0
0.50 0.50 0.50 C 1.000 UL
LTa
0.50 0.50 0.50 C 966 4136 M
5981 0 V
stroke
LT0
0.50 0.50 0.50 C 966 4136 M
63 0 V
5918 0 R
-63 0 V
-6002 0 R
( 59.3969) Rshow
1.000 UL
LT0
0.50 0.50 0.50 C 1.000 UL
LTa
0.50 0.50 0.50 C 966 4182 M
5981 0 V
stroke
LT0
0.50 0.50 0.50 C 966 4182 M
63 0 V
5918 0 R
-63 0 V
-6002 0 R
( 60.104) Rshow
1.000 UL
LT0
0.50 0.50 0.50 C 1.000 UL
LTa
0.50 0.50 0.50 C 966 4228 M
5981 0 V
stroke
LT0
0.50 0.50 0.50 C 966 4228 M
63 0 V
5918 0 R
-63 0 V
-6002 0 R
( 60.8111) Rshow
1.000 UL
LT0
0.50 0.50 0.50 C 1.000 UL
LTa
0.50 0.50 0.50 C 966 4274 M
5981 0 V
stroke
LT0
0.50 0.50 0.50 C 966 4274 M
63 0 V
5918 0 R
-63 0 V
-6002 0 R
( 61.5182) Rshow
1.000 UL
LT0
0.50 0.50 0.50 C 1.000 UL
LTa
0.50 0.50 0.50 C 966 4320 M
5981 0 V
stroke
LT0
0.50 0.50 0.50 C 966 4320 M
63 0 V
5918 0 R
-63 0 V
-6002 0 R
( 62.2253) Rshow
1.000 UL
LT0
0.50 0.50 0.50 C 1.000 UL
LTa
0.50 0.50 0.50 C 966 4366 M
5981 0 V
stroke
LT0
0.50 0.50 0.50 C 966 4366 M
63 0 V
5918 0 R
-63 0 V
-6002 0 R
( 62.9324) Rshow
1.000 UL
LT0
0.50 0.50 0.50 C 1.000 UL
LTa
0.50 0.50 0.50 C 966 4412 M
5981 0 V
stroke
LT0
0.50 0.50 0.50 C 966 4412 M
63 0 V
5918 0 R
-63 0 V
-6002 0 R
( 63.6395) Rshow
1.000 UL
LT0
0.50 0.50 0.50 C 1.000 UL
LTa
0.50 0.50 0.50 C 966 4458 M
5981 0 V
stroke
LT0
0.50 0.50 0.50 C 966 4458 M
63 0 V
5918 0 R
-63 0 V
-6002 0 R
( 64.3466) Rshow
1.000 UL
LT0
0.50 0.50 0.50 C 1.000 UL
LTa
0.50 0.50 0.50 C 966 4504 M
5981 0 V
stroke
LT0
0.50 0.50 0.50 C 966 4504 M
63 0 V
5918 0 R
-63 0 V
-6002 0 R
( 65.0538) Rshow
1.000 UL
LT0
0.50 0.50 0.50 C 1.000 UL
LTa
0.50 0.50 0.50 C 966 4550 M
5981 0 V
stroke
LT0
0.50 0.50 0.50 C 966 4550 M
63 0 V
5918 0 R
-63 0 V
-6002 0 R
( 65.7609) Rshow
1.000 UL
LT0
0.50 0.50 0.50 C 1.000 UL
LTa
0.50 0.50 0.50 C 966 4596 M
5981 0 V
stroke
LT0
0.50 0.50 0.50 C 966 4596 M
63 0 V
5918 0 R
-63 0 V
-6002 0 R
( 66.468) Rshow
1.000 UL
LT0
0.50 0.50 0.50 C 1.000 UL
LTa
0.50 0.50 0.50 C 966 4641 M
5981 0 V
stroke
LT0
0.50 0.50 0.50 C 966 4641 M
63 0 V
5918 0 R
-63 0 V
-6002 0 R
( 67.1751) Rshow
1.000 UL
LT0
0.50 0.50 0.50 C 1.000 UL
LTa
0.50 0.50 0.50 C 966 4687 M
5981 0 V
stroke
LT0
0.50 0.50 0.50 C 966 4687 M
63 0 V
5918 0 R
-63 0 V
-6002 0 R
( 67.8822) Rshow
1.000 UL
LT0
0.50 0.50 0.50 C 1.000 UL
LTa
0.50 0.50 0.50 C 966 4733 M
5981 0 V
stroke
LT0
0.50 0.50 0.50 C 966 4733 M
63 0 V
5918 0 R
-63 0 V
-6002 0 R
( 68.5893) Rshow
1.000 UL
LT0
0.50 0.50 0.50 C 1.000 UL
LTa
0.50 0.50 0.50 C 966 4779 M
5981 0 V
stroke
LT0
0.50 0.50 0.50 C 966 4779 M
63 0 V
5918 0 R
-63 0 V
-6002 0 R
( 69.2964) Rshow
1.000 UL
LT0
0.50 0.50 0.50 C 1.000 UL
LTa
0.50 0.50 0.50 C 966 4825 M
5981 0 V
stroke
LT0
0.50 0.50 0.50 C 966 4825 M
63 0 V
5918 0 R
-63 0 V
-6002 0 R
( 70.0035) Rshow
1.000 UL
LT0
0.50 0.50 0.50 C 1.000 UL
LTa
0.50 0.50 0.50 C 966 4871 M
5981 0 V
stroke
LT0
0.50 0.50 0.50 C 966 4871 M
63 0 V
5918 0 R
-63 0 V
-6002 0 R
( 70.7106) Rshow
1.000 UL
LT0
0.50 0.50 0.50 C 1.000 UL
LTa
0.50 0.50 0.50 C 966 280 M
0 4591 V
stroke
LT0
0.50 0.50 0.50 C 966 280 M
0 63 V
0 4528 R
0 -63 V
966 140 M
( 0) Cshow
1.000 UL
LT0
0.50 0.50 0.50 C 1.000 UL
LTa
0.50 0.50 0.50 C 1026 280 M
0 4591 V
stroke
LT0
0.50 0.50 0.50 C 1026 280 M
0 63 V
0 4528 R
0 -63 V
0 -4668 R
( 0.707106) Cshow
1.000 UL
LT0
0.50 0.50 0.50 C 1.000 UL
LTa
0.50 0.50 0.50 C 1086 280 M
0 4591 V
stroke
LT0
0.50 0.50 0.50 C 1086 280 M
0 63 V
0 4528 R
0 -63 V
0 -4668 R
( 1.41421) Cshow
1.000 UL
LT0
0.50 0.50 0.50 C 1.000 UL
LTa
0.50 0.50 0.50 C 1145 280 M
0 4591 V
stroke
LT0
0.50 0.50 0.50 C 1145 280 M
0 63 V
0 4528 R
0 -63 V
0 -4668 R
( 2.12132) Cshow
1.000 UL
LT0
0.50 0.50 0.50 C 1.000 UL
LTa
0.50 0.50 0.50 C 1205 280 M
0 4591 V
stroke
LT0
0.50 0.50 0.50 C 1205 280 M
0 63 V
0 4528 R
0 -63 V
0 -4668 R
( 2.82842) Cshow
1.000 UL
LT0
0.50 0.50 0.50 C 1.000 UL
LTa
0.50 0.50 0.50 C 1265 280 M
0 4591 V
stroke
LT0
0.50 0.50 0.50 C 1265 280 M
0 63 V
0 4528 R
0 -63 V
0 -4668 R
( 3.53553) Cshow
1.000 UL
LT0
0.50 0.50 0.50 C 1.000 UL
LTa
0.50 0.50 0.50 C 1325 280 M
0 4591 V
stroke
LT0
0.50 0.50 0.50 C 1325 280 M
0 63 V
0 4528 R
0 -63 V
0 -4668 R
( 4.24264) Cshow
1.000 UL
LT0
0.50 0.50 0.50 C 1.000 UL
LTa
0.50 0.50 0.50 C 1385 280 M
0 4591 V
stroke
LT0
0.50 0.50 0.50 C 1385 280 M
0 63 V
0 4528 R
0 -63 V
0 -4668 R
( 4.94974) Cshow
1.000 UL
LT0
0.50 0.50 0.50 C 1.000 UL
LTa
0.50 0.50 0.50 C 1444 280 M
0 4591 V
stroke
LT0
0.50 0.50 0.50 C 1444 280 M
0 63 V
0 4528 R
0 -63 V
0 -4668 R
( 5.65685) Cshow
1.000 UL
LT0
0.50 0.50 0.50 C 1.000 UL
LTa
0.50 0.50 0.50 C 1504 280 M
0 4591 V
stroke
LT0
0.50 0.50 0.50 C 1504 280 M
0 63 V
0 4528 R
0 -63 V
0 -4668 R
( 6.36395) Cshow
1.000 UL
LT0
0.50 0.50 0.50 C 1.000 UL
LTa
0.50 0.50 0.50 C 1564 280 M
0 4591 V
stroke
LT0
0.50 0.50 0.50 C 1564 280 M
0 63 V
0 4528 R
0 -63 V
0 -4668 R
( 7.07106) Cshow
1.000 UL
LT0
0.50 0.50 0.50 C 1.000 UL
LTa
0.50 0.50 0.50 C 1624 280 M
0 4591 V
stroke
LT0
0.50 0.50 0.50 C 1624 280 M
0 63 V
0 4528 R
0 -63 V
0 -4668 R
( 7.77817) Cshow
1.000 UL
LT0
0.50 0.50 0.50 C 1.000 UL
LTa
0.50 0.50 0.50 C 1684 280 M
0 4591 V
stroke
LT0
0.50 0.50 0.50 C 1684 280 M
0 63 V
0 4528 R
0 -63 V
0 -4668 R
( 8.48527) Cshow
1.000 UL
LT0
0.50 0.50 0.50 C 1.000 UL
LTa
0.50 0.50 0.50 C 1744 280 M
0 4591 V
stroke
LT0
0.50 0.50 0.50 C 1744 280 M
0 63 V
0 4528 R
0 -63 V
0 -4668 R
( 9.19238) Cshow
1.000 UL
LT0
0.50 0.50 0.50 C 1.000 UL
LTa
0.50 0.50 0.50 C 1803 280 M
0 4591 V
stroke
LT0
0.50 0.50 0.50 C 1803 280 M
0 63 V
0 4528 R
0 -63 V
0 -4668 R
( 9.89948) Cshow
1.000 UL
LT0
0.50 0.50 0.50 C 1.000 UL
LTa
0.50 0.50 0.50 C 1863 280 M
0 4591 V
stroke
LT0
0.50 0.50 0.50 C 1863 280 M
0 63 V
0 4528 R
0 -63 V
0 -4668 R
( 10.6066) Cshow
1.000 UL
LT0
0.50 0.50 0.50 C 1.000 UL
LTa
0.50 0.50 0.50 C 1923 280 M
0 4591 V
stroke
LT0
0.50 0.50 0.50 C 1923 280 M
0 63 V
0 4528 R
0 -63 V
0 -4668 R
( 11.3137) Cshow
1.000 UL
LT0
0.50 0.50 0.50 C 1.000 UL
LTa
0.50 0.50 0.50 C 1983 280 M
0 4591 V
stroke
LT0
0.50 0.50 0.50 C 1983 280 M
0 63 V
0 4528 R
0 -63 V
0 -4668 R
( 12.0208) Cshow
1.000 UL
LT0
0.50 0.50 0.50 C 1.000 UL
LTa
0.50 0.50 0.50 C 2043 280 M
0 4591 V
stroke
LT0
0.50 0.50 0.50 C 2043 280 M
0 63 V
0 4528 R
0 -63 V
0 -4668 R
( 12.7279) Cshow
1.000 UL
LT0
0.50 0.50 0.50 C 1.000 UL
LTa
0.50 0.50 0.50 C 2102 280 M
0 4591 V
stroke
LT0
0.50 0.50 0.50 C 2102 280 M
0 63 V
0 4528 R
0 -63 V
0 -4668 R
( 13.435) Cshow
1.000 UL
LT0
0.50 0.50 0.50 C 1.000 UL
LTa
0.50 0.50 0.50 C 2162 280 M
0 4591 V
stroke
LT0
0.50 0.50 0.50 C 2162 280 M
0 63 V
0 4528 R
0 -63 V
0 -4668 R
( 14.1421) Cshow
1.000 UL
LT0
0.50 0.50 0.50 C 1.000 UL
LTa
0.50 0.50 0.50 C 2222 280 M
0 4591 V
stroke
LT0
0.50 0.50 0.50 C 2222 280 M
0 63 V
0 4528 R
0 -63 V
0 -4668 R
( 14.8492) Cshow
1.000 UL
LT0
0.50 0.50 0.50 C 1.000 UL
LTa
0.50 0.50 0.50 C 2282 280 M
0 4591 V
stroke
LT0
0.50 0.50 0.50 C 2282 280 M
0 63 V
0 4528 R
0 -63 V
0 -4668 R
( 15.5563) Cshow
1.000 UL
LT0
0.50 0.50 0.50 C 1.000 UL
LTa
0.50 0.50 0.50 C 2342 280 M
0 4591 V
stroke
LT0
0.50 0.50 0.50 C 2342 280 M
0 63 V
0 4528 R
0 -63 V
0 -4668 R
( 16.2634) Cshow
1.000 UL
LT0
0.50 0.50 0.50 C 1.000 UL
LTa
0.50 0.50 0.50 C 2401 280 M
0 4591 V
stroke
LT0
0.50 0.50 0.50 C 2401 280 M
0 63 V
0 4528 R
0 -63 V
0 -4668 R
( 16.9705) Cshow
1.000 UL
LT0
0.50 0.50 0.50 C 1.000 UL
LTa
0.50 0.50 0.50 C 2461 280 M
0 4591 V
stroke
LT0
0.50 0.50 0.50 C 2461 280 M
0 63 V
0 4528 R
0 -63 V
0 -4668 R
( 17.6776) Cshow
1.000 UL
LT0
0.50 0.50 0.50 C 1.000 UL
LTa
0.50 0.50 0.50 C 2521 280 M
0 4591 V
stroke
LT0
0.50 0.50 0.50 C 2521 280 M
0 63 V
0 4528 R
0 -63 V
0 -4668 R
( 18.3848) Cshow
1.000 UL
LT0
0.50 0.50 0.50 C 1.000 UL
LTa
0.50 0.50 0.50 C 2581 280 M
0 4591 V
stroke
LT0
0.50 0.50 0.50 C 2581 280 M
0 63 V
0 4528 R
0 -63 V
0 -4668 R
( 19.0919) Cshow
1.000 UL
LT0
0.50 0.50 0.50 C 1.000 UL
LTa
0.50 0.50 0.50 C 2641 280 M
0 4591 V
stroke
LT0
0.50 0.50 0.50 C 2641 280 M
0 63 V
0 4528 R
0 -63 V
0 -4668 R
( 19.799) Cshow
1.000 UL
LT0
0.50 0.50 0.50 C 1.000 UL
LTa
0.50 0.50 0.50 C 2700 280 M
0 4591 V
stroke
LT0
0.50 0.50 0.50 C 2700 280 M
0 63 V
0 4528 R
0 -63 V
0 -4668 R
( 20.5061) Cshow
1.000 UL
LT0
0.50 0.50 0.50 C 1.000 UL
LTa
0.50 0.50 0.50 C 2760 280 M
0 4591 V
stroke
LT0
0.50 0.50 0.50 C 2760 280 M
0 63 V
0 4528 R
0 -63 V
0 -4668 R
( 21.2132) Cshow
1.000 UL
LT0
0.50 0.50 0.50 C 1.000 UL
LTa
0.50 0.50 0.50 C 2820 280 M
0 4591 V
stroke
LT0
0.50 0.50 0.50 C 2820 280 M
0 63 V
0 4528 R
0 -63 V
0 -4668 R
( 21.9203) Cshow
1.000 UL
LT0
0.50 0.50 0.50 C 1.000 UL
LTa
0.50 0.50 0.50 C 2880 280 M
0 4591 V
stroke
LT0
0.50 0.50 0.50 C 2880 280 M
0 63 V
0 4528 R
0 -63 V
0 -4668 R
( 22.6274) Cshow
1.000 UL
LT0
0.50 0.50 0.50 C 1.000 UL
LTa
0.50 0.50 0.50 C 2940 280 M
0 4591 V
stroke
LT0
0.50 0.50 0.50 C 2940 280 M
0 63 V
0 4528 R
0 -63 V
0 -4668 R
( 23.3345) Cshow
1.000 UL
LT0
0.50 0.50 0.50 C 1.000 UL
LTa
0.50 0.50 0.50 C 3000 280 M
0 4591 V
stroke
LT0
0.50 0.50 0.50 C 3000 280 M
0 63 V
0 4528 R
0 -63 V
0 -4668 R
( 24.0416) Cshow
1.000 UL
LT0
0.50 0.50 0.50 C 1.000 UL
LTa
0.50 0.50 0.50 C 3059 280 M
0 4591 V
stroke
LT0
0.50 0.50 0.50 C 3059 280 M
0 63 V
0 4528 R
0 -63 V
0 -4668 R
( 24.7487) Cshow
1.000 UL
LT0
0.50 0.50 0.50 C 1.000 UL
LTa
0.50 0.50 0.50 C 3119 280 M
0 4591 V
stroke
LT0
0.50 0.50 0.50 C 3119 280 M
0 63 V
0 4528 R
0 -63 V
0 -4668 R
( 25.4558) Cshow
1.000 UL
LT0
0.50 0.50 0.50 C 1.000 UL
LTa
0.50 0.50 0.50 C 3179 280 M
0 4591 V
stroke
LT0
0.50 0.50 0.50 C 3179 280 M
0 63 V
0 4528 R
0 -63 V
0 -4668 R
( 26.1629) Cshow
1.000 UL
LT0
0.50 0.50 0.50 C 1.000 UL
LTa
0.50 0.50 0.50 C 3239 280 M
0 4591 V
stroke
LT0
0.50 0.50 0.50 C 3239 280 M
0 63 V
0 4528 R
0 -63 V
0 -4668 R
( 26.87) Cshow
1.000 UL
LT0
0.50 0.50 0.50 C 1.000 UL
LTa
0.50 0.50 0.50 C 3299 280 M
0 4591 V
stroke
LT0
0.50 0.50 0.50 C 3299 280 M
0 63 V
0 4528 R
0 -63 V
0 -4668 R
( 27.5771) Cshow
1.000 UL
LT0
0.50 0.50 0.50 C 1.000 UL
LTa
0.50 0.50 0.50 C 3358 280 M
0 4591 V
stroke
LT0
0.50 0.50 0.50 C 3358 280 M
0 63 V
0 4528 R
0 -63 V
0 -4668 R
( 28.2842) Cshow
1.000 UL
LT0
0.50 0.50 0.50 C 1.000 UL
LTa
0.50 0.50 0.50 C 3418 280 M
0 4591 V
stroke
LT0
0.50 0.50 0.50 C 3418 280 M
0 63 V
0 4528 R
0 -63 V
0 -4668 R
( 28.9913) Cshow
1.000 UL
LT0
0.50 0.50 0.50 C 1.000 UL
LTa
0.50 0.50 0.50 C 3478 280 M
0 4591 V
stroke
LT0
0.50 0.50 0.50 C 3478 280 M
0 63 V
0 4528 R
0 -63 V
0 -4668 R
( 29.6985) Cshow
1.000 UL
LT0
0.50 0.50 0.50 C 1.000 UL
LTa
0.50 0.50 0.50 C 3538 280 M
0 4591 V
stroke
LT0
0.50 0.50 0.50 C 3538 280 M
0 63 V
0 4528 R
0 -63 V
0 -4668 R
( 30.4056) Cshow
1.000 UL
LT0
0.50 0.50 0.50 C 1.000 UL
LTa
0.50 0.50 0.50 C 3598 280 M
0 4591 V
stroke
LT0
0.50 0.50 0.50 C 3598 280 M
0 63 V
0 4528 R
0 -63 V
0 -4668 R
( 31.1127) Cshow
1.000 UL
LT0
0.50 0.50 0.50 C 1.000 UL
LTa
0.50 0.50 0.50 C 3657 280 M
0 4591 V
stroke
LT0
0.50 0.50 0.50 C 3657 280 M
0 63 V
0 4528 R
0 -63 V
0 -4668 R
( 31.8198) Cshow
1.000 UL
LT0
0.50 0.50 0.50 C 1.000 UL
LTa
0.50 0.50 0.50 C 3717 280 M
0 4591 V
stroke
LT0
0.50 0.50 0.50 C 3717 280 M
0 63 V
0 4528 R
0 -63 V
0 -4668 R
( 32.5269) Cshow
1.000 UL
LT0
0.50 0.50 0.50 C 1.000 UL
LTa
0.50 0.50 0.50 C 3777 280 M
0 4591 V
stroke
LT0
0.50 0.50 0.50 C 3777 280 M
0 63 V
0 4528 R
0 -63 V
0 -4668 R
( 33.234) Cshow
1.000 UL
LT0
0.50 0.50 0.50 C 1.000 UL
LTa
0.50 0.50 0.50 C 3837 280 M
0 4591 V
stroke
LT0
0.50 0.50 0.50 C 3837 280 M
0 63 V
0 4528 R
0 -63 V
0 -4668 R
( 33.9411) Cshow
1.000 UL
LT0
0.50 0.50 0.50 C 1.000 UL
LTa
0.50 0.50 0.50 C 3897 280 M
0 4591 V
stroke
LT0
0.50 0.50 0.50 C 3897 280 M
0 63 V
0 4528 R
0 -63 V
0 -4668 R
( 34.6482) Cshow
1.000 UL
LT0
0.50 0.50 0.50 C 1.000 UL
LTa
0.50 0.50 0.50 C 3957 280 M
0 4591 V
stroke
LT0
0.50 0.50 0.50 C 3957 280 M
0 63 V
0 4528 R
0 -63 V
0 -4668 R
( 35.3553) Cshow
1.000 UL
LT0
0.50 0.50 0.50 C 1.000 UL
LTa
0.50 0.50 0.50 C 4016 280 M
0 4591 V
stroke
LT0
0.50 0.50 0.50 C 4016 280 M
0 63 V
0 4528 R
0 -63 V
0 -4668 R
( 36.0624) Cshow
1.000 UL
LT0
0.50 0.50 0.50 C 1.000 UL
LTa
0.50 0.50 0.50 C 4076 280 M
0 4591 V
stroke
LT0
0.50 0.50 0.50 C 4076 280 M
0 63 V
0 4528 R
0 -63 V
0 -4668 R
( 36.7695) Cshow
1.000 UL
LT0
0.50 0.50 0.50 C 1.000 UL
LTa
0.50 0.50 0.50 C 4136 280 M
0 4591 V
stroke
LT0
0.50 0.50 0.50 C 4136 280 M
0 63 V
0 4528 R
0 -63 V
0 -4668 R
( 37.4766) Cshow
1.000 UL
LT0
0.50 0.50 0.50 C 1.000 UL
LTa
0.50 0.50 0.50 C 4196 280 M
0 4591 V
stroke
LT0
0.50 0.50 0.50 C 4196 280 M
0 63 V
0 4528 R
0 -63 V
0 -4668 R
( 38.1837) Cshow
1.000 UL
LT0
0.50 0.50 0.50 C 1.000 UL
LTa
0.50 0.50 0.50 C 4256 280 M
0 4591 V
stroke
LT0
0.50 0.50 0.50 C 4256 280 M
0 63 V
0 4528 R
0 -63 V
0 -4668 R
( 38.8908) Cshow
1.000 UL
LT0
0.50 0.50 0.50 C 1.000 UL
LTa
0.50 0.50 0.50 C 4315 280 M
0 4591 V
stroke
LT0
0.50 0.50 0.50 C 4315 280 M
0 63 V
0 4528 R
0 -63 V
0 -4668 R
( 39.5979) Cshow
1.000 UL
LT0
0.50 0.50 0.50 C 1.000 UL
LTa
0.50 0.50 0.50 C 4375 280 M
0 4591 V
stroke
LT0
0.50 0.50 0.50 C 4375 280 M
0 63 V
0 4528 R
0 -63 V
0 -4668 R
( 40.305) Cshow
1.000 UL
LT0
0.50 0.50 0.50 C 1.000 UL
LTa
0.50 0.50 0.50 C 4435 280 M
0 4591 V
stroke
LT0
0.50 0.50 0.50 C 4435 280 M
0 63 V
0 4528 R
0 -63 V
0 -4668 R
( 41.0121) Cshow
1.000 UL
LT0
0.50 0.50 0.50 C 1.000 UL
LTa
0.50 0.50 0.50 C 4495 280 M
0 4591 V
stroke
LT0
0.50 0.50 0.50 C 4495 280 M
0 63 V
0 4528 R
0 -63 V
0 -4668 R
( 41.7193) Cshow
1.000 UL
LT0
0.50 0.50 0.50 C 1.000 UL
LTa
0.50 0.50 0.50 C 4555 280 M
0 4591 V
stroke
LT0
0.50 0.50 0.50 C 4555 280 M
0 63 V
0 4528 R
0 -63 V
0 -4668 R
( 42.4264) Cshow
1.000 UL
LT0
0.50 0.50 0.50 C 1.000 UL
LTa
0.50 0.50 0.50 C 4614 280 M
0 4591 V
stroke
LT0
0.50 0.50 0.50 C 4614 280 M
0 63 V
0 4528 R
0 -63 V
0 -4668 R
( 43.1335) Cshow
1.000 UL
LT0
0.50 0.50 0.50 C 1.000 UL
LTa
0.50 0.50 0.50 C 4674 280 M
0 4591 V
stroke
LT0
0.50 0.50 0.50 C 4674 280 M
0 63 V
0 4528 R
0 -63 V
0 -4668 R
( 43.8406) Cshow
1.000 UL
LT0
0.50 0.50 0.50 C 1.000 UL
LTa
0.50 0.50 0.50 C 4734 280 M
0 4591 V
stroke
LT0
0.50 0.50 0.50 C 4734 280 M
0 63 V
0 4528 R
0 -63 V
0 -4668 R
( 44.5477) Cshow
1.000 UL
LT0
0.50 0.50 0.50 C 1.000 UL
LTa
0.50 0.50 0.50 C 4794 280 M
0 4591 V
stroke
LT0
0.50 0.50 0.50 C 4794 280 M
0 63 V
0 4528 R
0 -63 V
0 -4668 R
( 45.2548) Cshow
1.000 UL
LT0
0.50 0.50 0.50 C 1.000 UL
LTa
0.50 0.50 0.50 C 4854 280 M
0 4591 V
stroke
LT0
0.50 0.50 0.50 C 4854 280 M
0 63 V
0 4528 R
0 -63 V
0 -4668 R
( 45.9619) Cshow
1.000 UL
LT0
0.50 0.50 0.50 C 1.000 UL
LTa
0.50 0.50 0.50 C 4913 280 M
0 4591 V
stroke
LT0
0.50 0.50 0.50 C 4913 280 M
0 63 V
0 4528 R
0 -63 V
0 -4668 R
( 46.669) Cshow
1.000 UL
LT0
0.50 0.50 0.50 C 1.000 UL
LTa
0.50 0.50 0.50 C 4973 280 M
0 4591 V
stroke
LT0
0.50 0.50 0.50 C 4973 280 M
0 63 V
0 4528 R
0 -63 V
0 -4668 R
( 47.3761) Cshow
1.000 UL
LT0
0.50 0.50 0.50 C 1.000 UL
LTa
0.50 0.50 0.50 C 5033 280 M
0 4591 V
stroke
LT0
0.50 0.50 0.50 C 5033 280 M
0 63 V
0 4528 R
0 -63 V
0 -4668 R
( 48.0832) Cshow
1.000 UL
LT0
0.50 0.50 0.50 C 1.000 UL
LTa
0.50 0.50 0.50 C 5093 280 M
0 4591 V
stroke
LT0
0.50 0.50 0.50 C 5093 280 M
0 63 V
0 4528 R
0 -63 V
0 -4668 R
( 48.7903) Cshow
1.000 UL
LT0
0.50 0.50 0.50 C 1.000 UL
LTa
0.50 0.50 0.50 C 5153 280 M
0 4591 V
stroke
LT0
0.50 0.50 0.50 C 5153 280 M
0 63 V
0 4528 R
0 -63 V
0 -4668 R
( 49.4974) Cshow
1.000 UL
LT0
0.50 0.50 0.50 C 1.000 UL
LTa
0.50 0.50 0.50 C 5213 280 M
0 4591 V
stroke
LT0
0.50 0.50 0.50 C 5213 280 M
0 63 V
0 4528 R
0 -63 V
0 -4668 R
( 50.2045) Cshow
1.000 UL
LT0
0.50 0.50 0.50 C 1.000 UL
LTa
0.50 0.50 0.50 C 5272 280 M
0 4591 V
stroke
LT0
0.50 0.50 0.50 C 5272 280 M
0 63 V
0 4528 R
0 -63 V
0 -4668 R
( 50.9116) Cshow
1.000 UL
LT0
0.50 0.50 0.50 C 1.000 UL
LTa
0.50 0.50 0.50 C 5332 280 M
0 4591 V
stroke
LT0
0.50 0.50 0.50 C 5332 280 M
0 63 V
0 4528 R
0 -63 V
0 -4668 R
( 51.6187) Cshow
1.000 UL
LT0
0.50 0.50 0.50 C 1.000 UL
LTa
0.50 0.50 0.50 C 5392 280 M
0 4591 V
stroke
LT0
0.50 0.50 0.50 C 5392 280 M
0 63 V
0 4528 R
0 -63 V
0 -4668 R
( 52.3258) Cshow
1.000 UL
LT0
0.50 0.50 0.50 C 1.000 UL
LTa
0.50 0.50 0.50 C 5452 280 M
0 4591 V
stroke
LT0
0.50 0.50 0.50 C 5452 280 M
0 63 V
0 4528 R
0 -63 V
0 -4668 R
( 53.033) Cshow
1.000 UL
LT0
0.50 0.50 0.50 C 1.000 UL
LTa
0.50 0.50 0.50 C 5512 280 M
0 4591 V
stroke
LT0
0.50 0.50 0.50 C 5512 280 M
0 63 V
0 4528 R
0 -63 V
0 -4668 R
( 53.7401) Cshow
1.000 UL
LT0
0.50 0.50 0.50 C 1.000 UL
LTa
0.50 0.50 0.50 C 5571 280 M
0 4591 V
stroke
LT0
0.50 0.50 0.50 C 5571 280 M
0 63 V
0 4528 R
0 -63 V
0 -4668 R
( 54.4472) Cshow
1.000 UL
LT0
0.50 0.50 0.50 C 1.000 UL
LTa
0.50 0.50 0.50 C 5631 280 M
0 4591 V
stroke
LT0
0.50 0.50 0.50 C 5631 280 M
0 63 V
0 4528 R
0 -63 V
0 -4668 R
( 55.1543) Cshow
1.000 UL
LT0
0.50 0.50 0.50 C 1.000 UL
LTa
0.50 0.50 0.50 C 5691 280 M
0 4591 V
stroke
LT0
0.50 0.50 0.50 C 5691 280 M
0 63 V
0 4528 R
0 -63 V
0 -4668 R
( 55.8614) Cshow
1.000 UL
LT0
0.50 0.50 0.50 C 1.000 UL
LTa
0.50 0.50 0.50 C 5751 280 M
0 4591 V
stroke
LT0
0.50 0.50 0.50 C 5751 280 M
0 63 V
0 4528 R
0 -63 V
0 -4668 R
( 56.5685) Cshow
1.000 UL
LT0
0.50 0.50 0.50 C 1.000 UL
LTa
0.50 0.50 0.50 C 5811 280 M
0 4591 V
stroke
LT0
0.50 0.50 0.50 C 5811 280 M
0 63 V
0 4528 R
0 -63 V
0 -4668 R
( 57.2756) Cshow
1.000 UL
LT0
0.50 0.50 0.50 C 1.000 UL
LTa
0.50 0.50 0.50 C 5870 280 M
0 4591 V
stroke
LT0
0.50 0.50 0.50 C 5870 280 M
0 63 V
0 4528 R
0 -63 V
0 -4668 R
( 57.9827) Cshow
1.000 UL
LT0
0.50 0.50 0.50 C 1.000 UL
LTa
0.50 0.50 0.50 C 5930 280 M
0 4591 V
stroke
LT0
0.50 0.50 0.50 C 5930 280 M
0 63 V
0 4528 R
0 -63 V
0 -4668 R
( 58.6898) Cshow
1.000 UL
LT0
0.50 0.50 0.50 C 1.000 UL
LTa
0.50 0.50 0.50 C 5990 280 M
0 4591 V
stroke
LT0
0.50 0.50 0.50 C 5990 280 M
0 63 V
0 4528 R
0 -63 V
0 -4668 R
( 59.3969) Cshow
1.000 UL
LT0
0.50 0.50 0.50 C 1.000 UL
LTa
0.50 0.50 0.50 C 6050 280 M
0 4591 V
stroke
LT0
0.50 0.50 0.50 C 6050 280 M
0 63 V
0 4528 R
0 -63 V
0 -4668 R
( 60.104) Cshow
1.000 UL
LT0
0.50 0.50 0.50 C 1.000 UL
LTa
0.50 0.50 0.50 C 6110 280 M
0 4591 V
stroke
LT0
0.50 0.50 0.50 C 6110 280 M
0 63 V
0 4528 R
0 -63 V
0 -4668 R
( 60.8111) Cshow
1.000 UL
LT0
0.50 0.50 0.50 C 1.000 UL
LTa
0.50 0.50 0.50 C 6169 280 M
0 4591 V
stroke
LT0
0.50 0.50 0.50 C 6169 280 M
0 63 V
0 4528 R
0 -63 V
0 -4668 R
( 61.5182) Cshow
1.000 UL
LT0
0.50 0.50 0.50 C 1.000 UL
LTa
0.50 0.50 0.50 C 6229 280 M
0 4591 V
stroke
LT0
0.50 0.50 0.50 C 6229 280 M
0 63 V
0 4528 R
0 -63 V
0 -4668 R
( 62.2253) Cshow
1.000 UL
LT0
0.50 0.50 0.50 C 1.000 UL
LTa
0.50 0.50 0.50 C 6289 280 M
0 4591 V
stroke
LT0
0.50 0.50 0.50 C 6289 280 M
0 63 V
0 4528 R
0 -63 V
0 -4668 R
( 62.9324) Cshow
1.000 UL
LT0
0.50 0.50 0.50 C 1.000 UL
LTa
0.50 0.50 0.50 C 6349 280 M
0 4591 V
stroke
LT0
0.50 0.50 0.50 C 6349 280 M
0 63 V
0 4528 R
0 -63 V
0 -4668 R
( 63.6395) Cshow
1.000 UL
LT0
0.50 0.50 0.50 C 1.000 UL
LTa
0.50 0.50 0.50 C 6409 280 M
0 4591 V
stroke
LT0
0.50 0.50 0.50 C 6409 280 M
0 63 V
0 4528 R
0 -63 V
0 -4668 R
( 64.3466) Cshow
1.000 UL
LT0
0.50 0.50 0.50 C 1.000 UL
LTa
0.50 0.50 0.50 C 6469 280 M
0 4591 V
stroke
LT0
0.50 0.50 0.50 C 6469 280 M
0 63 V
0 4528 R
0 -63 V
0 -4668 R
( 65.0538) Cshow
1.000 UL
LT0
0.50 0.50 0.50 C 1.000 UL
LTa
0.50 0.50 0.50 C 6528 280 M
0 4591 V
stroke
LT0
0.50 0.50 0.50 C 6528 280 M
0 63 V
0 4528 R
0 -63 V
0 -4668 R
( 65.7609) Cshow
1.000 UL
LT0
0.50 0.50 0.50 C 1.000 UL
LTa
0.50 0.50 0.50 C 6588 280 M
0 4591 V
stroke
LT0
0.50 0.50 0.50 C 6588 280 M
0 63 V
0 4528 R
0 -63 V
0 -4668 R
( 66.468) Cshow
1.000 UL
LT0
0.50 0.50 0.50 C 1.000 UL
LTa
0.50 0.50 0.50 C 6648 280 M
0 4591 V
stroke
LT0
0.50 0.50 0.50 C 6648 280 M
0 63 V
0 4528 R
0 -63 V
0 -4668 R
( 67.1751) Cshow
1.000 UL
LT0
0.50 0.50 0.50 C 1.000 UL
LTa
0.50 0.50 0.50 C 6708 280 M
0 4591 V
stroke
LT0
0.50 0.50 0.50 C 6708 280 M
0 63 V
0 4528 R
0 -63 V
0 -4668 R
( 67.8822) Cshow
1.000 UL
LT0
0.50 0.50 0.50 C 1.000 UL
LTa
0.50 0.50 0.50 C 6768 280 M
0 4591 V
stroke
LT0
0.50 0.50 0.50 C 6768 280 M
0 63 V
0 4528 R
0 -63 V
0 -4668 R
( 68.5893) Cshow
1.000 UL
LT0
0.50 0.50 0.50 C 1.000 UL
LTa
0.50 0.50 0.50 C 6827 280 M
0 4591 V
stroke
LT0
0.50 0.50 0.50 C 6827 280 M
0 63 V
0 4528 R
0 -63 V
0 -4668 R
( 69.2964) Cshow
1.000 UL
LT0
0.50 0.50 0.50 C 1.000 UL
LTa
0.50 0.50 0.50 C 6887 280 M
0 4591 V
stroke
LT0
0.50 0.50 0.50 C 6887 280 M
0 63 V
0 4528 R
0 -63 V
0 -4668 R
( 70.0035) Cshow
1.000 UL
LT0
0.50 0.50 0.50 C 1.000 UL
LTa
0.50 0.50 0.50 C 6947 280 M
0 4591 V
stroke
LT0
0.50 0.50 0.50 C 6947 280 M
0 63 V
0 4528 R
0 -63 V
0 -4668 R
( 70.7106) Cshow
1.000 UL
LT0
0.50 0.50 0.50 C 1.000 UL
LT0
0.50 0.50 0.50 C 966 4871 M
966 280 L
5981 0 V
0 4591 R
-5981 0 R
1.000 UP
stroke
LT0
0.50 0.50 0.50 C % Begin plot #1
1.500 UP
2.000 UL
LT0
0.00 0.00 1.00 C /Helvetica findfont 140 scalefont setfont
/vshift -46 def
1026 326 M
60 0 V
0 92 R
59 0 V
0 321 R
60 0 V
60 0 V
60 0 V
60 0 V
59 0 V
60 0 V
60 0 V
60 0 V
60 0 V
0 46 R
60 0 V
0 230 R
59 0 V
60 0 V
60 0 V
60 0 V
60 0 V
59 0 V
60 0 V
60 0 V
60 0 V
60 0 V
59 0 V
60 0 V
60 0 V
60 0 V
60 0 V
59 0 V
60 0 V
0 45 R
60 0 V
60 0 V
0 46 R
60 0 V
60 0 V
59 0 V
60 0 V
60 0 V
60 0 V
60 0 V
59 0 V
60 0 V
60 0 V
60 0 V
60 0 V
0 92 R
59 0 V
60 0 V
60 0 V
60 0 V
60 0 V
0 276 R
60 0 V
59 0 V
60 0 V
60 0 V
0 137 R
60 0 V
60 0 V
0 368 R
59 0 V
0 137 R
60 0 V
60 0 V
60 0 V
60 0 V
59 0 V
60 0 V
60 0 V
60 0 V
0 138 R
60 0 V
59 0 V
60 0 V
60 0 V
0 138 R
60 0 V
60 0 V
60 0 V
59 0 V
0 46 R
60 0 V
60 0 V
0 92 R
60 0 V
0 183 R
60 0 V
0 1010 R
59 0 V
60 0 V
60 0 V
0 597 R
60 0 V
0 46 R
60 0 V
59 0 V
60 0 V
60 0 V
60 0 V
60 0 V
stroke 6110 4366 M
0 184 R
59 0 V
60 0 V
60 0 V
60 0 V
60 0 V
0 46 R
60 0 V
0 45 R
59 0 V
60 0 V
60 0 V
60 0 V
60 0 V
59 0 V
60 0 V
60 0 V
966 280 M
60 0 V
0 46 V
60 0 R
0 46 V
0 46 V
59 0 R
0 46 V
0 46 V
0 45 V
0 46 V
0 46 V
0 46 V
0 46 V
539 0 R
0 46 V
60 0 R
0 46 V
0 46 V
0 46 V
0 46 V
0 46 V
1016 0 R
0 45 V
120 0 R
0 46 V
718 0 R
0 46 V
0 46 V
299 0 R
0 46 V
0 46 V
0 46 V
0 46 V
0 46 V
0 46 V
239 0 R
0 46 V
0 45 V
0 46 V
120 0 R
0 46 V
0 46 V
0 46 V
0 46 V
0 46 V
0 46 V
0 46 V
0 46 V
59 0 R
0 46 V
0 45 V
0 46 V
479 0 R
0 46 V
0 46 V
0 46 V
239 0 R
0 46 V
0 46 V
0 46 V
239 0 R
0 46 V
120 0 R
0 46 V
0 46 V
60 0 R
0 46 V
0 45 V
0 46 V
0 46 V
60 0 R
0 46 V
0 46 V
0 46 V
0 46 V
0 46 V
0 46 V
0 46 V
0 46 V
0 45 V
0 46 V
0 46 V
0 46 V
0 46 V
0 46 V
0 46 V
stroke 5512 3402 M
0 46 V
0 46 V
0 46 V
0 46 V
0 45 V
0 46 V
0 46 V
179 0 R
0 46 V
0 46 V
0 46 V
0 46 V
0 46 V
0 46 V
0 46 V
0 46 V
0 45 V
0 46 V
0 46 V
0 46 V
0 46 V
60 0 R
0 46 V
359 0 R
0 46 V
0 46 V
0 46 V
0 46 V
299 0 R
0 46 V
60 0 R
0 45 V
478 184 R
0 46 V
0 -230 R
0 46 V
0 46 V
0 46 V
0 46 V
1026 326 CircleF
1086 326 CircleF
1086 418 CircleF
1145 418 CircleF
1145 739 CircleF
1205 739 CircleF
1205 739 CircleF
1265 739 CircleF
1265 739 CircleF
1325 739 CircleF
1325 739 CircleF
1385 739 CircleF
1385 739 CircleF
1444 739 CircleF
1444 739 CircleF
1504 739 CircleF
1504 739 CircleF
1564 739 CircleF
1564 739 CircleF
1624 739 CircleF
1624 739 CircleF
1684 739 CircleF
1684 785 CircleF
1744 785 CircleF
1744 1015 CircleF
1803 1015 CircleF
1803 1015 CircleF
1863 1015 CircleF
1863 1015 CircleF
1923 1015 CircleF
1923 1015 CircleF
1983 1015 CircleF
1983 1015 CircleF
2043 1015 CircleF
2043 1015 CircleF
2102 1015 CircleF
2102 1015 CircleF
2162 1015 CircleF
2162 1015 CircleF
2222 1015 CircleF
2222 1015 CircleF
2282 1015 CircleF
2282 1015 CircleF
2342 1015 CircleF
2342 1015 CircleF
2401 1015 CircleF
2401 1015 CircleF
2461 1015 CircleF
2461 1015 CircleF
2521 1015 CircleF
2521 1015 CircleF
2581 1015 CircleF
2581 1015 CircleF
2641 1015 CircleF
2641 1015 CircleF
2700 1015 CircleF
2700 1015 CircleF
2760 1015 CircleF
2760 1060 CircleF
2820 1060 CircleF
2820 1060 CircleF
2880 1060 CircleF
2880 1106 CircleF
2940 1106 CircleF
2940 1106 CircleF
3000 1106 CircleF
3000 1106 CircleF
3059 1106 CircleF
3059 1106 CircleF
3119 1106 CircleF
3119 1106 CircleF
3179 1106 CircleF
3179 1106 CircleF
3239 1106 CircleF
3239 1106 CircleF
3299 1106 CircleF
3299 1106 CircleF
3358 1106 CircleF
3358 1106 CircleF
3418 1106 CircleF
3418 1106 CircleF
3478 1106 CircleF
3478 1106 CircleF
3538 1106 CircleF
3538 1106 CircleF
3598 1106 CircleF
3598 1198 CircleF
3657 1198 CircleF
3657 1198 CircleF
3717 1198 CircleF
3717 1198 CircleF
3777 1198 CircleF
3777 1198 CircleF
3837 1198 CircleF
3837 1198 CircleF
3897 1198 CircleF
3897 1474 CircleF
3957 1474 CircleF
3957 1474 CircleF
4016 1474 CircleF
4016 1474 CircleF
4076 1474 CircleF
4076 1474 CircleF
4136 1474 CircleF
4136 1611 CircleF
4196 1611 CircleF
4196 1611 CircleF
4256 1611 CircleF
4256 1979 CircleF
4315 1979 CircleF
4315 2116 CircleF
4375 2116 CircleF
4375 2116 CircleF
4435 2116 CircleF
4435 2116 CircleF
4495 2116 CircleF
4495 2116 CircleF
4555 2116 CircleF
4555 2116 CircleF
4614 2116 CircleF
4614 2116 CircleF
4674 2116 CircleF
4674 2116 CircleF
4734 2116 CircleF
4734 2116 CircleF
4794 2116 CircleF
4794 2254 CircleF
4854 2254 CircleF
4854 2254 CircleF
4913 2254 CircleF
4913 2254 CircleF
4973 2254 CircleF
4973 2254 CircleF
5033 2254 CircleF
5033 2392 CircleF
5093 2392 CircleF
5093 2392 CircleF
5153 2392 CircleF
5153 2392 CircleF
5213 2392 CircleF
5213 2392 CircleF
5272 2392 CircleF
5272 2438 CircleF
5332 2438 CircleF
5332 2438 CircleF
5392 2438 CircleF
5392 2530 CircleF
5452 2530 CircleF
5452 2713 CircleF
5512 2713 CircleF
5512 3723 CircleF
5571 3723 CircleF
5571 3723 CircleF
5631 3723 CircleF
5631 3723 CircleF
5691 3723 CircleF
5691 4320 CircleF
5751 4320 CircleF
5751 4366 CircleF
5811 4366 CircleF
5811 4366 CircleF
5870 4366 CircleF
5870 4366 CircleF
5930 4366 CircleF
5930 4366 CircleF
5990 4366 CircleF
5990 4366 CircleF
6050 4366 CircleF
6050 4366 CircleF
6110 4366 CircleF
6110 4550 CircleF
6169 4550 CircleF
6169 4550 CircleF
6229 4550 CircleF
6229 4550 CircleF
6289 4550 CircleF
6289 4550 CircleF
6349 4550 CircleF
6349 4550 CircleF
6409 4550 CircleF
6409 4596 CircleF
6469 4596 CircleF
6469 4641 CircleF
6528 4641 CircleF
6528 4641 CircleF
6588 4641 CircleF
6588 4641 CircleF
6648 4641 CircleF
6648 4641 CircleF
6708 4641 CircleF
6708 4641 CircleF
6768 4641 CircleF
6768 4641 CircleF
6827 4641 CircleF
6827 4641 CircleF
6887 4641 CircleF
6887 4641 CircleF
6947 4641 CircleF
966 280 CircleF
1026 280 CircleF
1026 280 CircleF
1026 326 CircleF
1086 326 CircleF
1086 372 CircleF
1086 372 CircleF
1086 418 CircleF
1145 418 CircleF
1145 464 CircleF
1145 464 CircleF
1145 510 CircleF
1145 510 CircleF
1145 555 CircleF
1145 555 CircleF
1145 601 CircleF
1145 601 CircleF
1145 647 CircleF
1145 647 CircleF
1145 693 CircleF
1145 693 CircleF
1145 739 CircleF
1684 739 CircleF
1684 785 CircleF
1744 785 CircleF
1744 831 CircleF
1744 831 CircleF
1744 877 CircleF
1744 877 CircleF
1744 923 CircleF
1744 923 CircleF
1744 969 CircleF
1744 969 CircleF
1744 1015 CircleF
2760 1015 CircleF
2760 1060 CircleF
2880 1060 CircleF
2880 1106 CircleF
3598 1106 CircleF
3598 1152 CircleF
3598 1152 CircleF
3598 1198 CircleF
3897 1198 CircleF
3897 1244 CircleF
3897 1244 CircleF
3897 1290 CircleF
3897 1290 CircleF
3897 1336 CircleF
3897 1336 CircleF
3897 1382 CircleF
3897 1382 CircleF
3897 1428 CircleF
3897 1428 CircleF
3897 1474 CircleF
4136 1474 CircleF
4136 1520 CircleF
4136 1520 CircleF
4136 1565 CircleF
4136 1565 CircleF
4136 1611 CircleF
4256 1611 CircleF
4256 1657 CircleF
4256 1657 CircleF
4256 1703 CircleF
4256 1703 CircleF
4256 1749 CircleF
4256 1749 CircleF
4256 1795 CircleF
4256 1795 CircleF
4256 1841 CircleF
4256 1841 CircleF
4256 1887 CircleF
4256 1887 CircleF
4256 1933 CircleF
4256 1933 CircleF
4256 1979 CircleF
4315 1979 CircleF
4315 2025 CircleF
4315 2025 CircleF
4315 2070 CircleF
4315 2070 CircleF
4315 2116 CircleF
4794 2116 CircleF
4794 2162 CircleF
4794 2162 CircleF
4794 2208 CircleF
4794 2208 CircleF
4794 2254 CircleF
5033 2254 CircleF
5033 2300 CircleF
5033 2300 CircleF
5033 2346 CircleF
5033 2346 CircleF
5033 2392 CircleF
5272 2392 CircleF
5272 2438 CircleF
5392 2438 CircleF
5392 2484 CircleF
5392 2484 CircleF
5392 2530 CircleF
5452 2530 CircleF
5452 2576 CircleF
5452 2576 CircleF
5452 2621 CircleF
5452 2621 CircleF
5452 2667 CircleF
5452 2667 CircleF
5452 2713 CircleF
5512 2713 CircleF
5512 2759 CircleF
5512 2759 CircleF
5512 2805 CircleF
5512 2805 CircleF
5512 2851 CircleF
5512 2851 CircleF
5512 2897 CircleF
5512 2897 CircleF
5512 2943 CircleF
5512 2943 CircleF
5512 2989 CircleF
5512 2989 CircleF
5512 3035 CircleF
5512 3035 CircleF
5512 3081 CircleF
5512 3081 CircleF
5512 3126 CircleF
5512 3126 CircleF
5512 3172 CircleF
5512 3172 CircleF
5512 3218 CircleF
5512 3218 CircleF
5512 3264 CircleF
5512 3264 CircleF
5512 3310 CircleF
5512 3310 CircleF
5512 3356 CircleF
5512 3356 CircleF
5512 3402 CircleF
5512 3402 CircleF
5512 3448 CircleF
5512 3448 CircleF
5512 3494 CircleF
5512 3494 CircleF
5512 3540 CircleF
5512 3540 CircleF
5512 3586 CircleF
5512 3586 CircleF
5512 3631 CircleF
5512 3631 CircleF
5512 3677 CircleF
5512 3677 CircleF
5512 3723 CircleF
5691 3723 CircleF
5691 3769 CircleF
5691 3769 CircleF
5691 3815 CircleF
5691 3815 CircleF
5691 3861 CircleF
5691 3861 CircleF
5691 3907 CircleF
5691 3907 CircleF
5691 3953 CircleF
5691 3953 CircleF
5691 3999 CircleF
5691 3999 CircleF
5691 4045 CircleF
5691 4045 CircleF
5691 4091 CircleF
5691 4091 CircleF
5691 4136 CircleF
5691 4136 CircleF
5691 4182 CircleF
5691 4182 CircleF
5691 4228 CircleF
5691 4228 CircleF
5691 4274 CircleF
5691 4274 CircleF
5691 4320 CircleF
5751 4320 CircleF
5751 4366 CircleF
6110 4366 CircleF
6110 4412 CircleF
6110 4412 CircleF
6110 4458 CircleF
6110 4458 CircleF
6110 4504 CircleF
6110 4504 CircleF
6110 4550 CircleF
6409 4550 CircleF
6409 4596 CircleF
6469 4596 CircleF
6469 4641 CircleF
6947 4825 CircleF
6947 4871 CircleF
6947 4641 CircleF
6947 4687 CircleF
6947 4687 CircleF
6947 4733 CircleF
6947 4733 CircleF
6947 4779 CircleF
6947 4779 CircleF
6947 4825 CircleF
% End plot #1
% Begin plot #2
1.500 UP
2.000 UL
LT0
1.00 0.55 0.00 C /Helvetica findfont 140 scalefont setfont
2228 2857 M
99 76 V
5113 1662 M
91 70 V
2274 2832 M
74 57 V
3651 1580 M
68 52 V
1120 1897 M
81 63 V
6816 3595 M
114 87 V
3955 1011 M
99 76 V
1694 2306 M
64 48 V
3774 1959 M
96 74 V
6436 1321 M
107 82 V
1507 1025 M
92 71 V
478 3263 R
74 57 V
2467 1809 M
84 65 V
5978 3721 M
118 90 V
2334 3959 M
99 76 V
3447 1029 M
110 85 V
2960 2418 M
86 66 V
452 422 R
79 61 V
2477 4767 M
64 49 V
-28 -800 R
103 79 V
1642 2679 M
109 84 V
3609 1408 M
91 70 V
1494 2598 M
96 74 V
6325 419 M
111 86 V
-176 521 R
75 57 V
1729 3468 M
86 65 V
6337 2886 M
73 56 V
6026 2696 M
118 91 V
3018 3232 M
95 73 V
1040 4390 M
108 83 V
4412 921 M
105 80 V
1187 3175 M
61 47 V
4816 4373 M
83 64 V
1422 3565 M
116 90 V
3708 3487 M
109 84 V
1674 1463 M
92 71 V
2230 193 R
68 53 V
1393 900 R
94 72 V
2196 3077 M
91 69 V
1775 4330 M
79 61 V
4538 2526 M
101 77 V
1138 1792 M
61 47 V
4994 654 M
84 65 V
1407 4341 M
116 89 V
3072 2413 M
89 68 V
3176 998 R
100 77 V
4014 3918 M
110 85 V
3638 3071 M
101 78 V
2302 4568 M
111 85 V
4333 2569 M
84 64 V
1615 3715 M
64 48 V
4691 2729 M
62 48 V
1076 2705 M
63 49 V
stroke 1139 2754 M
3953 452 R
84 64 V
8 615 R
84 64 V
5859 952 M
84 65 V
5397 4398 M
67 52 V
4256 4618 M
110 85 V
3501 4593 M
80 61 V
-2 124 R
113 86 V
6016 3473 M
103 79 V
1246 1112 M
107 82 V
3585 418 R
103 79 V
287 99 R
91 70 V
-638 750 R
117 89 V
4686 2097 M
65 50 V
1306 3627 M
95 73 V
3559 2141 M
68 53 V
294 2288 R
116 89 V
1840 4161 M
118 91 V
4009 4119 M
95 74 V
5665 3294 M
67 51 V
2773 4178 M
64 49 V
6039 1184 M
67 51 V
4246 2049 M
93 71 V
2910 3618 M
83 64 V
4668 2108 M
113 86 V
1637 525 R
109 83 V
6395 4562 M
88 68 V
1228 4525 M
84 65 V
3528 -65 R
90 69 V
5422 2528 M
80 61 V
6430 1385 M
66 50 V
1061 4721 M
105 81 V
2989 1074 M
96 73 V
5177 2341 M
79 61 V
-347 342 R
92 71 V
4120 2454 M
103 80 V
2129 722 R
60 47 V
3502 4701 M
84 65 V
2667 1164 M
109 84 V
-99 1537 R
96 73 V
3290 534 M
82 63 V
6368 2495 M
107 82 V
1727 334 M
119 91 V
5682 3823 M
115 88 V
2869 4230 M
113 87 V
1345 3692 M
100 77 V
746 -648 R
80 62 V
2546 1216 M
79 61 V
6091 3182 M
94 72 V
3328 4587 M
106 81 V
2272 4456 M
72 55 V
3089 2649 M
97 74 V
1204 3407 M
112 86 V
stroke 1316 3493 M
5615 451 M
76 58 V
219 1520 R
85 65 V
5031 475 M
62 48 V
6824 4392 M
91 70 V
4232 3501 M
72 55 V
4027 385 M
107 82 V
528 2645 R
66 50 V
5403 690 M
111 85 V
2428 4138 M
109 84 V
6052 2234 M
70 54 V
5847 673 M
87 66 V
1293 326 M
78 59 V
2606 1719 M
101 78 V
5604 888 M
108 82 V
69 1773 R
66 50 V
-441 101 R
108 83 V
1304 3536 M
100 76 V
-23 -478 R
64 49 V
1117 510 M
119 91 V
352 89 R
92 71 V
4205 661 M
68 53 V
519 3682 R
68 52 V
-908 -71 R
115 89 V
3601 455 M
71 55 V
1011 4317 M
102 78 V
5112 1161 M
93 71 V
4317 3648 M
66 51 V
1052 3226 M
106 81 V
1322 1468 M
103 79 V
3896 3126 M
104 79 V
5558 1724 M
92 71 V
5084 1067 M
111 85 V
-1226 3 R
82 63 V
6677 3600 M
103 79 V
3064 407 M
95 73 V
1948 4555 M
98 75 V
5690 3767 M
79 60 V
1026 3292 M
74 57 V
2899 568 M
66 50 V
4333 3886 M
89 68 V
3776 864 M
85 66 V
2305 2366 M
91 70 V
3852 1433 M
96 74 V
5506 3333 M
98 75 V
4736 1985 M
74 57 V
1211 2571 M
116 89 V
3763 546 R
64 49 V
6764 352 M
114 88 V
2595 942 M
98 75 V
1172 2807 M
83 64 V
1530 455 R
101 78 V
3504 388 R
84 64 V
stroke 6474 3856 M
5389 2645 M
81 63 V
883 -637 R
72 55 V
5632 4226 M
76 58 V
2522 3818 M
89 68 V
2103 2242 M
95 73 V
307 700 R
93 71 V
1651 1036 M
66 50 V
1570 3418 M
70 55 V
6747 1990 M
116 89 V
2215 2371 M
78 60 V
4391 865 M
69 53 V
4258 2257 M
97 75 V
6072 4427 M
61 47 V
4136 445 M
74 57 V
2096 1999 M
102 78 V
4403 4299 M
70 54 V
1023 1691 M
88 68 V
2922 4139 M
108 83 V
3889 1239 M
78 60 V
298 3441 R
75 57 V
6592 1264 M
84 65 V
5495 2908 M
107 82 V
4007 3555 M
116 90 V
2067 3626 M
102 78 V
824 466 R
61 48 V
1679 752 M
108 84 V
2057 922 R
100 77 V
6212 4383 M
62 48 V
1987 3493 M
98 75 V
6581 3192 M
89 69 V
2728 2813 M
97 74 V
-398 130 R
60 46 V
4798 4082 M
83 65 V
2031 2582 M
84 65 V
6523 1209 M
71 55 V
4095 3476 M
102 79 V
2459 456 R
69 52 V
3138 1508 M
101 78 V
5104 3835 M
90 70 V
4128 1204 M
112 86 V
3622 4682 M
76 59 V
4191 3675 M
62 48 V
3183 4048 M
80 61 V
3101 2048 M
91 70 V
700 2420 R
84 64 V
4129 434 M
74 56 V
647 640 R
60 46 V
1339 1745 M
90 69 V
6093 2819 M
84 65 V
4604 1867 M
66 51 V
3342 890 M
76 59 V
6438 4194 M
81 62 V
stroke 6519 4256 M
-1416 2 R
106 81 V
3183 3230 M
60 46 V
2167 3719 M
69 53 V
3564 1010 M
68 53 V
1570 2404 M
62 48 V
923 486 R
94 72 V
2744 580 M
76 58 V
730 1521 R
70 54 V
5778 4718 M
63 48 V
4273 681 M
90 69 V
1805 2317 M
62 47 V
417 294 R
67 51 V
5149 2379 M
114 87 V
3947 3465 M
84 65 V
5696 3239 M
61 47 V
1126 411 M
93 70 V
2811 4553 M
66 51 V
4730 2930 M
103 78 V
6610 2275 M
119 91 V
4560 3049 M
77 59 V
6551 694 M
70 54 V
6060 4469 M
94 72 V
4613 1339 M
69 53 V
623 597 R
69 53 V
1898 2637 M
68 52 V
6584 409 M
100 77 V
4724 1382 M
97 75 V
4384 2685 M
87 66 V
3323 1593 M
100 77 V
614 -228 R
78 60 V
6683 3331 M
68 53 V
4834 2225 M
76 58 V
2230 679 M
109 84 V
4252 3101 M
72 55 V
4265 1978 M
102 79 V
1954 1039 M
88 67 V
1483 2892 M
96 74 V
2266 844 R
98 75 V
1863 2961 M
103 80 V
1855 2188 M
110 85 V
1746 557 R
83 63 V
2891 489 M
63 48 V
5170 3588 M
115 88 V
61 -433 R
64 49 V
1537 4056 M
104 80 V
1254 3129 M
105 80 V
5435 1427 M
64 50 V
3645 3939 M
110 85 V
3902 713 M
61 47 V
1664 2723 M
92 71 V
2281 992 M
90 70 V
253 1435 R
63 49 V
stroke 2687 2546 M
1506 26 R
63 48 V
3576 606 M
117 90 V
3239 4029 M
102 78 V
3420 327 M
104 79 V
-399 23 R
73 56 V
374 3411 R
83 64 V
5993 386 M
92 70 V
3061 2201 M
87 67 V
2162 4299 M
98 75 V
3130 3263 M
103 79 V
2664 208 R
110 85 V
5827 2000 M
115 89 V
2317 1974 M
112 85 V
4158 3782 M
67 51 V
2663 2783 M
78 59 V
-650 657 R
65 50 V
2548 769 R
86 66 V
2449 2315 M
89 69 V
4090 1530 M
109 84 V
3833 748 M
80 61 V
1502 431 M
63 48 V
181 506 R
77 59 V
6752 2126 M
80 62 V
4526 1091 M
91 70 V
1322 4205 M
114 87 V
2082 2934 M
99 76 V
1218 302 M
81 61 V
-18 4345 R
102 79 V
5117 2390 M
94 73 V
3546 1515 M
110 84 V
5201 999 M
67 51 V
3999 2168 M
96 74 V
1407 895 R
86 66 V
2474 2451 M
62 47 V
1199 -52 R
73 56 V
4018 834 M
99 76 V
3717 4151 M
101 78 V
4379 2565 M
82 63 V
1910 1198 M
86 66 V
-969 847 R
80 61 V
791 714 R
97 74 V
-162 217 R
100 77 V
4849 2974 M
80 61 V
1038 477 M
110 85 V
5784 382 M
71 55 V
3175 1873 M
67 51 V
1728 2787 M
71 55 V
5333 949 M
81 62 V
3049 2709 M
94 72 V
1696 4073 M
101 78 V
3412 -13 R
104 80 V
5940 1118 M
110 84 V
stroke 6050 1202 M
3590 2751 M
103 80 V
330 -609 R
85 65 V
1306 4507 M
111 86 V
5750 2241 M
75 58 V
3551 2953 M
112 86 V
5104 1438 M
111 86 V
824 1335 R
73 56 V
6288 391 M
62 47 V
1396 3155 M
112 86 V
5784 1756 M
115 87 V
3520 3285 M
105 80 V
6806 3173 M
68 53 V
-867 701 R
99 76 V
3818 480 M
111 85 V
3053 705 M
65 50 V
2373 3449 M
75 57 V
2006 2359 M
65 51 V
3182 3426 M
99 76 V
6617 2844 M
111 85 V
1845 3703 M
109 84 V
6068 1195 M
98 75 V
3831 2753 M
66 50 V
5362 2500 M
99 77 V
1068 3157 M
101 77 V
-161 631 R
78 60 V
1799 427 R
104 80 V
3263 1066 M
110 85 V
5628 4266 M
107 82 V
4861 719 M
72 56 V
2161 1127 M
112 86 V
552 2825 R
75 58 V
2001 2491 M
98 75 V
-574 602 R
92 70 V
1056 2352 M
110 85 V
4086 936 M
71 55 V
2734 814 M
69 53 V
457 1136 R
101 78 V
2228 2857 CircleF
2327 2933 CircleF
5113 1662 CircleF
5204 1732 CircleF
2274 2832 CircleF
2348 2889 CircleF
3651 1580 CircleF
3719 1632 CircleF
1120 1897 CircleF
1201 1960 CircleF
6816 3595 CircleF
6930 3682 CircleF
3955 1011 CircleF
4054 1087 CircleF
1694 2306 CircleF
1758 2354 CircleF
3774 1959 CircleF
3870 2033 CircleF
6436 1321 CircleF
6543 1403 CircleF
1507 1025 CircleF
1599 1096 CircleF
2077 4359 CircleF
2151 4416 CircleF
2467 1809 CircleF
2551 1874 CircleF
5978 3721 CircleF
6096 3811 CircleF
2334 3959 CircleF
2433 4035 CircleF
3447 1029 CircleF
3557 1114 CircleF
2960 2418 CircleF
3046 2484 CircleF
3498 2906 CircleF
3577 2967 CircleF
2477 4767 CircleF
2541 4816 CircleF
2513 4016 CircleF
2616 4095 CircleF
1642 2679 CircleF
1751 2763 CircleF
3609 1408 CircleF
3700 1478 CircleF
1494 2598 CircleF
1590 2672 CircleF
6325 419 CircleF
6436 505 CircleF
6260 1026 CircleF
6335 1083 CircleF
1729 3468 CircleF
1815 3533 CircleF
6337 2886 CircleF
6410 2942 CircleF
6026 2696 CircleF
6144 2787 CircleF
3018 3232 CircleF
3113 3305 CircleF
1040 4390 CircleF
1148 4473 CircleF
4412 921 CircleF
4517 1001 CircleF
1187 3175 CircleF
1248 3222 CircleF
4816 4373 CircleF
4899 4437 CircleF
1422 3565 CircleF
1538 3655 CircleF
3708 3487 CircleF
3817 3571 CircleF
1674 1463 CircleF
1766 1534 CircleF
3996 1727 CircleF
4064 1780 CircleF
5457 2680 CircleF
5551 2752 CircleF
2196 3077 CircleF
2287 3146 CircleF
1775 4330 CircleF
1854 4391 CircleF
4538 2526 CircleF
4639 2603 CircleF
1138 1792 CircleF
1199 1839 CircleF
4994 654 CircleF
5078 719 CircleF
1407 4341 CircleF
1523 4430 CircleF
3072 2413 CircleF
3161 2481 CircleF
6337 3479 CircleF
6437 3556 CircleF
4014 3918 CircleF
4124 4003 CircleF
3638 3071 CircleF
3739 3149 CircleF
2302 4568 CircleF
2413 4653 CircleF
4333 2569 CircleF
4417 2633 CircleF
1615 3715 CircleF
1679 3763 CircleF
4691 2729 CircleF
4753 2777 CircleF
1076 2705 CircleF
1139 2754 CircleF
5092 3206 CircleF
5176 3270 CircleF
5184 3885 CircleF
5268 3949 CircleF
5859 952 CircleF
5943 1017 CircleF
5397 4398 CircleF
5464 4450 CircleF
4256 4618 CircleF
4366 4703 CircleF
3501 4593 CircleF
3581 4654 CircleF
3579 4778 CircleF
3692 4864 CircleF
6016 3473 CircleF
6119 3552 CircleF
1246 1112 CircleF
1353 1194 CircleF
4938 1612 CircleF
5041 1691 CircleF
5328 1790 CircleF
5419 1860 CircleF
4781 2610 CircleF
4898 2699 CircleF
4686 2097 CircleF
4751 2147 CircleF
1306 3627 CircleF
1401 3700 CircleF
3559 2141 CircleF
3627 2194 CircleF
3921 4482 CircleF
4037 4571 CircleF
1840 4161 CircleF
1958 4252 CircleF
4009 4119 CircleF
4104 4193 CircleF
5665 3294 CircleF
5732 3345 CircleF
2773 4178 CircleF
2837 4227 CircleF
6039 1184 CircleF
6106 1235 CircleF
4246 2049 CircleF
4339 2120 CircleF
2910 3618 CircleF
2993 3682 CircleF
4668 2108 CircleF
4781 2194 CircleF
6418 2719 CircleF
6527 2802 CircleF
6395 4562 CircleF
6483 4630 CircleF
1228 4525 CircleF
1312 4590 CircleF
4840 4525 CircleF
4930 4594 CircleF
5422 2528 CircleF
5502 2589 CircleF
6430 1385 CircleF
6496 1435 CircleF
1061 4721 CircleF
1166 4802 CircleF
2989 1074 CircleF
3085 1147 CircleF
5177 2341 CircleF
5256 2402 CircleF
4909 2744 CircleF
5001 2815 CircleF
4120 2454 CircleF
4223 2534 CircleF
6352 3256 CircleF
6412 3303 CircleF
3502 4701 CircleF
3586 4766 CircleF
2667 1164 CircleF
2776 1248 CircleF
2677 2785 CircleF
2773 2858 CircleF
3290 534 CircleF
3372 597 CircleF
6368 2495 CircleF
6475 2577 CircleF
1727 334 CircleF
1846 425 CircleF
5682 3823 CircleF
5797 3911 CircleF
2869 4230 CircleF
2982 4317 CircleF
1345 3692 CircleF
1445 3769 CircleF
2191 3121 CircleF
2271 3183 CircleF
2546 1216 CircleF
2625 1277 CircleF
6091 3182 CircleF
6185 3254 CircleF
3328 4587 CircleF
3434 4668 CircleF
2272 4456 CircleF
2344 4511 CircleF
3089 2649 CircleF
3186 2723 CircleF
1204 3407 CircleF
1316 3493 CircleF
5615 451 CircleF
5691 509 CircleF
5910 2029 CircleF
5995 2094 CircleF
5031 475 CircleF
5093 523 CircleF
6824 4392 CircleF
6915 4462 CircleF
4232 3501 CircleF
4304 3556 CircleF
4027 385 CircleF
4134 467 CircleF
4662 3112 CircleF
4728 3162 CircleF
5403 690 CircleF
5514 775 CircleF
2428 4138 CircleF
2537 4222 CircleF
6052 2234 CircleF
6122 2288 CircleF
5847 673 CircleF
5934 739 CircleF
1293 326 CircleF
1371 385 CircleF
2606 1719 CircleF
2707 1797 CircleF
5604 888 CircleF
5712 970 CircleF
5781 2743 CircleF
5847 2793 CircleF
5406 2894 CircleF
5514 2977 CircleF
1304 3536 CircleF
1404 3612 CircleF
1381 3134 CircleF
1445 3183 CircleF
1117 510 CircleF
1236 601 CircleF
1588 690 CircleF
1680 761 CircleF
4205 661 CircleF
4273 714 CircleF
4792 4396 CircleF
4860 4448 CircleF
3952 4377 CircleF
4067 4466 CircleF
3601 455 CircleF
3672 510 CircleF
1011 4317 CircleF
1113 4395 CircleF
5112 1161 CircleF
5205 1232 CircleF
4317 3648 CircleF
4383 3699 CircleF
1052 3226 CircleF
1158 3307 CircleF
1322 1468 CircleF
1425 1547 CircleF
3896 3126 CircleF
4000 3205 CircleF
5558 1724 CircleF
5650 1795 CircleF
5084 1067 CircleF
5195 1152 CircleF
3969 1155 CircleF
4051 1218 CircleF
6677 3600 CircleF
6780 3679 CircleF
3064 407 CircleF
3159 480 CircleF
1948 4555 CircleF
2046 4630 CircleF
5690 3767 CircleF
5769 3827 CircleF
1026 3292 CircleF
1100 3349 CircleF
2899 568 CircleF
2965 618 CircleF
4333 3886 CircleF
4422 3954 CircleF
3776 864 CircleF
3861 930 CircleF
2305 2366 CircleF
2396 2436 CircleF
3852 1433 CircleF
3948 1507 CircleF
5506 3333 CircleF
5604 3408 CircleF
4736 1985 CircleF
4810 2042 CircleF
1211 2571 CircleF
1327 2660 CircleF
5090 3206 CircleF
5154 3255 CircleF
6764 352 CircleF
6878 440 CircleF
2595 942 CircleF
2693 1017 CircleF
1172 2807 CircleF
1255 2871 CircleF
2785 3326 CircleF
2886 3404 CircleF
6390 3792 CircleF
6474 3856 CircleF
5389 2645 CircleF
5470 2708 CircleF
6353 2071 CircleF
6425 2126 CircleF
5632 4226 CircleF
5708 4284 CircleF
2522 3818 CircleF
2611 3886 CircleF
2103 2242 CircleF
2198 2315 CircleF
2505 3015 CircleF
2598 3086 CircleF
1651 1036 CircleF
1717 1086 CircleF
1570 3418 CircleF
1640 3473 CircleF
6747 1990 CircleF
6863 2079 CircleF
2215 2371 CircleF
2293 2431 CircleF
4391 865 CircleF
4460 918 CircleF
4258 2257 CircleF
4355 2332 CircleF
6072 4427 CircleF
6133 4474 CircleF
4136 445 CircleF
4210 502 CircleF
2096 1999 CircleF
2198 2077 CircleF
4403 4299 CircleF
4473 4353 CircleF
1023 1691 CircleF
1111 1759 CircleF
2922 4139 CircleF
3030 4222 CircleF
3889 1239 CircleF
3967 1299 CircleF
4265 4740 CircleF
4340 4797 CircleF
6592 1264 CircleF
6676 1329 CircleF
5495 2908 CircleF
5602 2990 CircleF
4007 3555 CircleF
4123 3645 CircleF
2067 3626 CircleF
2169 3704 CircleF
2993 4170 CircleF
3054 4218 CircleF
1679 752 CircleF
1787 836 CircleF
3844 1758 CircleF
3944 1835 CircleF
6212 4383 CircleF
6274 4431 CircleF
1987 3493 CircleF
2085 3568 CircleF
6581 3192 CircleF
6670 3261 CircleF
2728 2813 CircleF
2825 2887 CircleF
2427 3017 CircleF
2487 3063 CircleF
4798 4082 CircleF
4881 4147 CircleF
2031 2582 CircleF
2115 2647 CircleF
6523 1209 CircleF
6594 1264 CircleF
4095 3476 CircleF
4197 3555 CircleF
6656 4011 CircleF
6725 4063 CircleF
3138 1508 CircleF
3239 1586 CircleF
5104 3835 CircleF
5194 3905 CircleF
4128 1204 CircleF
4240 1290 CircleF
3622 4682 CircleF
3698 4741 CircleF
4191 3675 CircleF
4253 3723 CircleF
3183 4048 CircleF
3263 4109 CircleF
3101 2048 CircleF
3192 2118 CircleF
3892 4538 CircleF
3976 4602 CircleF
4129 434 CircleF
4203 490 CircleF
4850 1130 CircleF
4910 1176 CircleF
1339 1745 CircleF
1429 1814 CircleF
6093 2819 CircleF
6177 2884 CircleF
4604 1867 CircleF
4670 1918 CircleF
3342 890 CircleF
3418 949 CircleF
6438 4194 CircleF
6519 4256 CircleF
5103 4258 CircleF
5209 4339 CircleF
3183 3230 CircleF
3243 3276 CircleF
2167 3719 CircleF
2236 3772 CircleF
3564 1010 CircleF
3632 1063 CircleF
1570 2404 CircleF
1632 2452 CircleF
2555 2938 CircleF
2649 3010 CircleF
2744 580 CircleF
2820 638 CircleF
3550 2159 CircleF
3620 2213 CircleF
5778 4718 CircleF
5841 4766 CircleF
4273 681 CircleF
4363 750 CircleF
1805 2317 CircleF
1867 2364 CircleF
2284 2658 CircleF
2351 2709 CircleF
5149 2379 CircleF
5263 2466 CircleF
3947 3465 CircleF
4031 3530 CircleF
5696 3239 CircleF
5757 3286 CircleF
1126 411 CircleF
1219 481 CircleF
2811 4553 CircleF
2877 4604 CircleF
4730 2930 CircleF
4833 3008 CircleF
6610 2275 CircleF
6729 2366 CircleF
4560 3049 CircleF
4637 3108 CircleF
6551 694 CircleF
6621 748 CircleF
6060 4469 CircleF
6154 4541 CircleF
4613 1339 CircleF
4682 1392 CircleF
5305 1989 CircleF
5374 2042 CircleF
1898 2637 CircleF
1966 2689 CircleF
6584 409 CircleF
6684 486 CircleF
4724 1382 CircleF
4821 1457 CircleF
4384 2685 CircleF
4471 2751 CircleF
3323 1593 CircleF
3423 1670 CircleF
4037 1442 CircleF
4115 1502 CircleF
6683 3331 CircleF
6751 3384 CircleF
4834 2225 CircleF
4910 2283 CircleF
2230 679 CircleF
2339 763 CircleF
4252 3101 CircleF
4324 3156 CircleF
4265 1978 CircleF
4367 2057 CircleF
1954 1039 CircleF
2042 1106 CircleF
1483 2892 CircleF
1579 2966 CircleF
3845 3810 CircleF
3943 3885 CircleF
1863 2961 CircleF
1966 3041 CircleF
1855 2188 CircleF
1965 2273 CircleF
3711 2830 CircleF
3794 2893 CircleF
2891 489 CircleF
2954 537 CircleF
5170 3588 CircleF
5285 3676 CircleF
5346 3243 CircleF
5410 3292 CircleF
1537 4056 CircleF
1641 4136 CircleF
1254 3129 CircleF
1359 3209 CircleF
5435 1427 CircleF
5499 1477 CircleF
3645 3939 CircleF
3755 4024 CircleF
3902 713 CircleF
3963 760 CircleF
1664 2723 CircleF
1756 2794 CircleF
2281 992 CircleF
2371 1062 CircleF
2624 2497 CircleF
2687 2546 CircleF
4193 2572 CircleF
4256 2620 CircleF
3576 606 CircleF
3693 696 CircleF
3239 4029 CircleF
3341 4107 CircleF
3420 327 CircleF
3524 406 CircleF
3125 429 CircleF
3198 485 CircleF
3572 3896 CircleF
3655 3960 CircleF
5993 386 CircleF
6085 456 CircleF
3061 2201 CircleF
3148 2268 CircleF
2162 4299 CircleF
2260 4374 CircleF
3130 3263 CircleF
3233 3342 CircleF
5897 3550 CircleF
6007 3635 CircleF
5827 2000 CircleF
5942 2089 CircleF
2317 1974 CircleF
2429 2059 CircleF
4158 3782 CircleF
4225 3833 CircleF
2663 2783 CircleF
2741 2842 CircleF
2091 3499 CircleF
2156 3549 CircleF
4704 4318 CircleF
4790 4384 CircleF
2449 2315 CircleF
2538 2384 CircleF
4090 1530 CircleF
4199 1614 CircleF
3833 748 CircleF
3913 809 CircleF
1502 431 CircleF
1565 479 CircleF
1746 985 CircleF
1823 1044 CircleF
6752 2126 CircleF
6832 2188 CircleF
4526 1091 CircleF
4617 1161 CircleF
1322 4205 CircleF
1436 4292 CircleF
2082 2934 CircleF
2181 3010 CircleF
1218 302 CircleF
1299 363 CircleF
1281 4708 CircleF
1383 4787 CircleF
5117 2390 CircleF
5211 2463 CircleF
3546 1515 CircleF
3656 1599 CircleF
5201 999 CircleF
5268 1050 CircleF
3999 2168 CircleF
4095 2242 CircleF
5502 3137 CircleF
5588 3203 CircleF
2474 2451 CircleF
2536 2498 CircleF
3735 2446 CircleF
3808 2502 CircleF
4018 834 CircleF
4117 910 CircleF
3717 4151 CircleF
3818 4229 CircleF
4379 2565 CircleF
4461 2628 CircleF
1910 1198 CircleF
1996 1264 CircleF
1027 2111 CircleF
1107 2172 CircleF
1898 2886 CircleF
1995 2960 CircleF
1833 3177 CircleF
1933 3254 CircleF
4849 2974 CircleF
4929 3035 CircleF
1038 477 CircleF
1148 562 CircleF
5784 382 CircleF
5855 437 CircleF
3175 1873 CircleF
3242 1924 CircleF
1728 2787 CircleF
1799 2842 CircleF
5333 949 CircleF
5414 1011 CircleF
3049 2709 CircleF
3143 2781 CircleF
1696 4073 CircleF
1797 4151 CircleF
5209 4138 CircleF
5313 4218 CircleF
5940 1118 CircleF
6050 1202 CircleF
3590 2751 CircleF
3693 2831 CircleF
4023 2222 CircleF
4108 2287 CircleF
1306 4507 CircleF
1417 4593 CircleF
5750 2241 CircleF
5825 2299 CircleF
3551 2953 CircleF
3663 3039 CircleF
5104 1438 CircleF
5215 1524 CircleF
6039 2859 CircleF
6112 2915 CircleF
6288 391 CircleF
6350 438 CircleF
1396 3155 CircleF
1508 3241 CircleF
5784 1756 CircleF
5899 1843 CircleF
3520 3285 CircleF
3625 3365 CircleF
6806 3173 CircleF
6874 3226 CircleF
6007 3927 CircleF
6106 4003 CircleF
3818 480 CircleF
3929 565 CircleF
3053 705 CircleF
3118 755 CircleF
2373 3449 CircleF
2448 3506 CircleF
2006 2359 CircleF
2071 2410 CircleF
3182 3426 CircleF
3281 3502 CircleF
6617 2844 CircleF
6728 2929 CircleF
1845 3703 CircleF
1954 3787 CircleF
6068 1195 CircleF
6166 1270 CircleF
3831 2753 CircleF
3897 2803 CircleF
5362 2500 CircleF
5461 2577 CircleF
1068 3157 CircleF
1169 3234 CircleF
1008 3865 CircleF
1086 3925 CircleF
2885 4352 CircleF
2989 4432 CircleF
3263 1066 CircleF
3373 1151 CircleF
5628 4266 CircleF
5735 4348 CircleF
4861 719 CircleF
4933 775 CircleF
2161 1127 CircleF
2273 1213 CircleF
2825 4038 CircleF
2900 4096 CircleF
2001 2491 CircleF
2099 2566 CircleF
1525 3168 CircleF
1617 3238 CircleF
1056 2352 CircleF
1166 2437 CircleF
4086 936 CircleF
4157 991 CircleF
2734 814 CircleF
2803 867 CircleF
3260 2003 CircleF
3361 2081 CircleF
% End plot #2
1.000 UP
1.000 UL
LT0
0.50 0.50 0.50 C stroke
grestore
end
showpage
%%Trailer
%%DocumentFonts: Helvetica
%%Pages: 1
