%!PS-Adobe-2.0
%%Title: out.ps
%%Creator: gnuplot 4.6 patchlevel 6
%%CreationDate: Thu May 28 23:40:43 2015
%%DocumentFonts: (atend)
%%BoundingBox: 50 50 554 770
%%Orientation: Landscape
%%Pages: (atend)
%%EndComments
%%BeginProlog
/gnudict 256 dict def
gnudict begin
%
% The following true/false flags may be edited by hand if desired.
% The unit line width and grayscale image gamma correction may also be changed.
%
/Color false def
/Blacktext false def
/Solid false def
/Dashlength 1 def
/Landscape true def
/Level1 false def
/Rounded false def
/ClipToBoundingBox false def
/SuppressPDFMark false def
/TransparentPatterns false def
/gnulinewidth 5.000 def
/userlinewidth gnulinewidth def
/Gamma 1.0 def
/BackgroundColor {-1.000 -1.000 -1.000} def
%
/vshift -46 def
/dl1 {
  10.0 Dashlength mul mul
  Rounded { currentlinewidth 0.75 mul sub dup 0 le { pop 0.01 } if } if
} def
/dl2 {
  10.0 Dashlength mul mul
  Rounded { currentlinewidth 0.75 mul add } if
} def
/hpt_ 31.5 def
/vpt_ 31.5 def
/hpt hpt_ def
/vpt vpt_ def
/doclip {
  ClipToBoundingBox {
    newpath 50 50 moveto 554 50 lineto 554 770 lineto 50 770 lineto closepath
    clip
  } if
} def
%
% Gnuplot Prolog Version 4.6 (September 2012)
%
%/SuppressPDFMark true def
%
/M {moveto} bind def
/L {lineto} bind def
/R {rmoveto} bind def
/V {rlineto} bind def
/N {newpath moveto} bind def
/Z {closepath} bind def
/C {setrgbcolor} bind def
/f {rlineto fill} bind def
/g {setgray} bind def
/Gshow {show} def   % May be redefined later in the file to support UTF-8
/vpt2 vpt 2 mul def
/hpt2 hpt 2 mul def
/Lshow {currentpoint stroke M 0 vshift R 
	Blacktext {gsave 0 setgray show grestore} {show} ifelse} def
/Rshow {currentpoint stroke M dup stringwidth pop neg vshift R
	Blacktext {gsave 0 setgray show grestore} {show} ifelse} def
/Cshow {currentpoint stroke M dup stringwidth pop -2 div vshift R 
	Blacktext {gsave 0 setgray show grestore} {show} ifelse} def
/UP {dup vpt_ mul /vpt exch def hpt_ mul /hpt exch def
  /hpt2 hpt 2 mul def /vpt2 vpt 2 mul def} def
/DL {Color {setrgbcolor Solid {pop []} if 0 setdash}
 {pop pop pop 0 setgray Solid {pop []} if 0 setdash} ifelse} def
/BL {stroke userlinewidth 2 mul setlinewidth
	Rounded {1 setlinejoin 1 setlinecap} if} def
/AL {stroke userlinewidth 2 div setlinewidth
	Rounded {1 setlinejoin 1 setlinecap} if} def
/UL {dup gnulinewidth mul /userlinewidth exch def
	dup 1 lt {pop 1} if 10 mul /udl exch def} def
/PL {stroke userlinewidth setlinewidth
	Rounded {1 setlinejoin 1 setlinecap} if} def
3.8 setmiterlimit
% Default Line colors
/LCw {1 1 1} def
/LCb {0 0 0} def
/LCa {0 0 0} def
/LC0 {1 0 0} def
/LC1 {0 1 0} def
/LC2 {0 0 1} def
/LC3 {1 0 1} def
/LC4 {0 1 1} def
/LC5 {1 1 0} def
/LC6 {0 0 0} def
/LC7 {1 0.3 0} def
/LC8 {0.5 0.5 0.5} def
% Default Line Types
/LTw {PL [] 1 setgray} def
/LTb {BL [] LCb DL} def
/LTa {AL [1 udl mul 2 udl mul] 0 setdash LCa setrgbcolor} def
/LT0 {PL [] LC0 DL} def
/LT1 {PL [4 dl1 2 dl2] LC1 DL} def
/LT2 {PL [2 dl1 3 dl2] LC2 DL} def
/LT3 {PL [1 dl1 1.5 dl2] LC3 DL} def
/LT4 {PL [6 dl1 2 dl2 1 dl1 2 dl2] LC4 DL} def
/LT5 {PL [3 dl1 3 dl2 1 dl1 3 dl2] LC5 DL} def
/LT6 {PL [2 dl1 2 dl2 2 dl1 6 dl2] LC6 DL} def
/LT7 {PL [1 dl1 2 dl2 6 dl1 2 dl2 1 dl1 2 dl2] LC7 DL} def
/LT8 {PL [2 dl1 2 dl2 2 dl1 2 dl2 2 dl1 2 dl2 2 dl1 4 dl2] LC8 DL} def
/Pnt {stroke [] 0 setdash gsave 1 setlinecap M 0 0 V stroke grestore} def
/Dia {stroke [] 0 setdash 2 copy vpt add M
  hpt neg vpt neg V hpt vpt neg V
  hpt vpt V hpt neg vpt V closepath stroke
  Pnt} def
/Pls {stroke [] 0 setdash vpt sub M 0 vpt2 V
  currentpoint stroke M
  hpt neg vpt neg R hpt2 0 V stroke
 } def
/Box {stroke [] 0 setdash 2 copy exch hpt sub exch vpt add M
  0 vpt2 neg V hpt2 0 V 0 vpt2 V
  hpt2 neg 0 V closepath stroke
  Pnt} def
/Crs {stroke [] 0 setdash exch hpt sub exch vpt add M
  hpt2 vpt2 neg V currentpoint stroke M
  hpt2 neg 0 R hpt2 vpt2 V stroke} def
/TriU {stroke [] 0 setdash 2 copy vpt 1.12 mul add M
  hpt neg vpt -1.62 mul V
  hpt 2 mul 0 V
  hpt neg vpt 1.62 mul V closepath stroke
  Pnt} def
/Star {2 copy Pls Crs} def
/BoxF {stroke [] 0 setdash exch hpt sub exch vpt add M
  0 vpt2 neg V hpt2 0 V 0 vpt2 V
  hpt2 neg 0 V closepath fill} def
/TriUF {stroke [] 0 setdash vpt 1.12 mul add M
  hpt neg vpt -1.62 mul V
  hpt 2 mul 0 V
  hpt neg vpt 1.62 mul V closepath fill} def
/TriD {stroke [] 0 setdash 2 copy vpt 1.12 mul sub M
  hpt neg vpt 1.62 mul V
  hpt 2 mul 0 V
  hpt neg vpt -1.62 mul V closepath stroke
  Pnt} def
/TriDF {stroke [] 0 setdash vpt 1.12 mul sub M
  hpt neg vpt 1.62 mul V
  hpt 2 mul 0 V
  hpt neg vpt -1.62 mul V closepath fill} def
/DiaF {stroke [] 0 setdash vpt add M
  hpt neg vpt neg V hpt vpt neg V
  hpt vpt V hpt neg vpt V closepath fill} def
/Pent {stroke [] 0 setdash 2 copy gsave
  translate 0 hpt M 4 {72 rotate 0 hpt L} repeat
  closepath stroke grestore Pnt} def
/PentF {stroke [] 0 setdash gsave
  translate 0 hpt M 4 {72 rotate 0 hpt L} repeat
  closepath fill grestore} def
/Circle {stroke [] 0 setdash 2 copy
  hpt 0 360 arc stroke Pnt} def
/CircleF {stroke [] 0 setdash hpt 0 360 arc fill} def
/C0 {BL [] 0 setdash 2 copy moveto vpt 90 450 arc} bind def
/C1 {BL [] 0 setdash 2 copy moveto
	2 copy vpt 0 90 arc closepath fill
	vpt 0 360 arc closepath} bind def
/C2 {BL [] 0 setdash 2 copy moveto
	2 copy vpt 90 180 arc closepath fill
	vpt 0 360 arc closepath} bind def
/C3 {BL [] 0 setdash 2 copy moveto
	2 copy vpt 0 180 arc closepath fill
	vpt 0 360 arc closepath} bind def
/C4 {BL [] 0 setdash 2 copy moveto
	2 copy vpt 180 270 arc closepath fill
	vpt 0 360 arc closepath} bind def
/C5 {BL [] 0 setdash 2 copy moveto
	2 copy vpt 0 90 arc
	2 copy moveto
	2 copy vpt 180 270 arc closepath fill
	vpt 0 360 arc} bind def
/C6 {BL [] 0 setdash 2 copy moveto
	2 copy vpt 90 270 arc closepath fill
	vpt 0 360 arc closepath} bind def
/C7 {BL [] 0 setdash 2 copy moveto
	2 copy vpt 0 270 arc closepath fill
	vpt 0 360 arc closepath} bind def
/C8 {BL [] 0 setdash 2 copy moveto
	2 copy vpt 270 360 arc closepath fill
	vpt 0 360 arc closepath} bind def
/C9 {BL [] 0 setdash 2 copy moveto
	2 copy vpt 270 450 arc closepath fill
	vpt 0 360 arc closepath} bind def
/C10 {BL [] 0 setdash 2 copy 2 copy moveto vpt 270 360 arc closepath fill
	2 copy moveto
	2 copy vpt 90 180 arc closepath fill
	vpt 0 360 arc closepath} bind def
/C11 {BL [] 0 setdash 2 copy moveto
	2 copy vpt 0 180 arc closepath fill
	2 copy moveto
	2 copy vpt 270 360 arc closepath fill
	vpt 0 360 arc closepath} bind def
/C12 {BL [] 0 setdash 2 copy moveto
	2 copy vpt 180 360 arc closepath fill
	vpt 0 360 arc closepath} bind def
/C13 {BL [] 0 setdash 2 copy moveto
	2 copy vpt 0 90 arc closepath fill
	2 copy moveto
	2 copy vpt 180 360 arc closepath fill
	vpt 0 360 arc closepath} bind def
/C14 {BL [] 0 setdash 2 copy moveto
	2 copy vpt 90 360 arc closepath fill
	vpt 0 360 arc} bind def
/C15 {BL [] 0 setdash 2 copy vpt 0 360 arc closepath fill
	vpt 0 360 arc closepath} bind def
/Rec {newpath 4 2 roll moveto 1 index 0 rlineto 0 exch rlineto
	neg 0 rlineto closepath} bind def
/Square {dup Rec} bind def
/Bsquare {vpt sub exch vpt sub exch vpt2 Square} bind def
/S0 {BL [] 0 setdash 2 copy moveto 0 vpt rlineto BL Bsquare} bind def
/S1 {BL [] 0 setdash 2 copy vpt Square fill Bsquare} bind def
/S2 {BL [] 0 setdash 2 copy exch vpt sub exch vpt Square fill Bsquare} bind def
/S3 {BL [] 0 setdash 2 copy exch vpt sub exch vpt2 vpt Rec fill Bsquare} bind def
/S4 {BL [] 0 setdash 2 copy exch vpt sub exch vpt sub vpt Square fill Bsquare} bind def
/S5 {BL [] 0 setdash 2 copy 2 copy vpt Square fill
	exch vpt sub exch vpt sub vpt Square fill Bsquare} bind def
/S6 {BL [] 0 setdash 2 copy exch vpt sub exch vpt sub vpt vpt2 Rec fill Bsquare} bind def
/S7 {BL [] 0 setdash 2 copy exch vpt sub exch vpt sub vpt vpt2 Rec fill
	2 copy vpt Square fill Bsquare} bind def
/S8 {BL [] 0 setdash 2 copy vpt sub vpt Square fill Bsquare} bind def
/S9 {BL [] 0 setdash 2 copy vpt sub vpt vpt2 Rec fill Bsquare} bind def
/S10 {BL [] 0 setdash 2 copy vpt sub vpt Square fill 2 copy exch vpt sub exch vpt Square fill
	Bsquare} bind def
/S11 {BL [] 0 setdash 2 copy vpt sub vpt Square fill 2 copy exch vpt sub exch vpt2 vpt Rec fill
	Bsquare} bind def
/S12 {BL [] 0 setdash 2 copy exch vpt sub exch vpt sub vpt2 vpt Rec fill Bsquare} bind def
/S13 {BL [] 0 setdash 2 copy exch vpt sub exch vpt sub vpt2 vpt Rec fill
	2 copy vpt Square fill Bsquare} bind def
/S14 {BL [] 0 setdash 2 copy exch vpt sub exch vpt sub vpt2 vpt Rec fill
	2 copy exch vpt sub exch vpt Square fill Bsquare} bind def
/S15 {BL [] 0 setdash 2 copy Bsquare fill Bsquare} bind def
/D0 {gsave translate 45 rotate 0 0 S0 stroke grestore} bind def
/D1 {gsave translate 45 rotate 0 0 S1 stroke grestore} bind def
/D2 {gsave translate 45 rotate 0 0 S2 stroke grestore} bind def
/D3 {gsave translate 45 rotate 0 0 S3 stroke grestore} bind def
/D4 {gsave translate 45 rotate 0 0 S4 stroke grestore} bind def
/D5 {gsave translate 45 rotate 0 0 S5 stroke grestore} bind def
/D6 {gsave translate 45 rotate 0 0 S6 stroke grestore} bind def
/D7 {gsave translate 45 rotate 0 0 S7 stroke grestore} bind def
/D8 {gsave translate 45 rotate 0 0 S8 stroke grestore} bind def
/D9 {gsave translate 45 rotate 0 0 S9 stroke grestore} bind def
/D10 {gsave translate 45 rotate 0 0 S10 stroke grestore} bind def
/D11 {gsave translate 45 rotate 0 0 S11 stroke grestore} bind def
/D12 {gsave translate 45 rotate 0 0 S12 stroke grestore} bind def
/D13 {gsave translate 45 rotate 0 0 S13 stroke grestore} bind def
/D14 {gsave translate 45 rotate 0 0 S14 stroke grestore} bind def
/D15 {gsave translate 45 rotate 0 0 S15 stroke grestore} bind def
/DiaE {stroke [] 0 setdash vpt add M
  hpt neg vpt neg V hpt vpt neg V
  hpt vpt V hpt neg vpt V closepath stroke} def
/BoxE {stroke [] 0 setdash exch hpt sub exch vpt add M
  0 vpt2 neg V hpt2 0 V 0 vpt2 V
  hpt2 neg 0 V closepath stroke} def
/TriUE {stroke [] 0 setdash vpt 1.12 mul add M
  hpt neg vpt -1.62 mul V
  hpt 2 mul 0 V
  hpt neg vpt 1.62 mul V closepath stroke} def
/TriDE {stroke [] 0 setdash vpt 1.12 mul sub M
  hpt neg vpt 1.62 mul V
  hpt 2 mul 0 V
  hpt neg vpt -1.62 mul V closepath stroke} def
/PentE {stroke [] 0 setdash gsave
  translate 0 hpt M 4 {72 rotate 0 hpt L} repeat
  closepath stroke grestore} def
/CircE {stroke [] 0 setdash 
  hpt 0 360 arc stroke} def
/Opaque {gsave closepath 1 setgray fill grestore 0 setgray closepath} def
/DiaW {stroke [] 0 setdash vpt add M
  hpt neg vpt neg V hpt vpt neg V
  hpt vpt V hpt neg vpt V Opaque stroke} def
/BoxW {stroke [] 0 setdash exch hpt sub exch vpt add M
  0 vpt2 neg V hpt2 0 V 0 vpt2 V
  hpt2 neg 0 V Opaque stroke} def
/TriUW {stroke [] 0 setdash vpt 1.12 mul add M
  hpt neg vpt -1.62 mul V
  hpt 2 mul 0 V
  hpt neg vpt 1.62 mul V Opaque stroke} def
/TriDW {stroke [] 0 setdash vpt 1.12 mul sub M
  hpt neg vpt 1.62 mul V
  hpt 2 mul 0 V
  hpt neg vpt -1.62 mul V Opaque stroke} def
/PentW {stroke [] 0 setdash gsave
  translate 0 hpt M 4 {72 rotate 0 hpt L} repeat
  Opaque stroke grestore} def
/CircW {stroke [] 0 setdash 
  hpt 0 360 arc Opaque stroke} def
/BoxFill {gsave Rec 1 setgray fill grestore} def
/Density {
  /Fillden exch def
  currentrgbcolor
  /ColB exch def /ColG exch def /ColR exch def
  /ColR ColR Fillden mul Fillden sub 1 add def
  /ColG ColG Fillden mul Fillden sub 1 add def
  /ColB ColB Fillden mul Fillden sub 1 add def
  ColR ColG ColB setrgbcolor} def
/BoxColFill {gsave Rec PolyFill} def
/PolyFill {gsave Density fill grestore grestore} def
/h {rlineto rlineto rlineto gsave closepath fill grestore} bind def
%
% PostScript Level 1 Pattern Fill routine for rectangles
% Usage: x y w h s a XX PatternFill
%	x,y = lower left corner of box to be filled
%	w,h = width and height of box
%	  a = angle in degrees between lines and x-axis
%	 XX = 0/1 for no/yes cross-hatch
%
/PatternFill {gsave /PFa [ 9 2 roll ] def
  PFa 0 get PFa 2 get 2 div add PFa 1 get PFa 3 get 2 div add translate
  PFa 2 get -2 div PFa 3 get -2 div PFa 2 get PFa 3 get Rec
  TransparentPatterns {} {gsave 1 setgray fill grestore} ifelse
  clip
  currentlinewidth 0.5 mul setlinewidth
  /PFs PFa 2 get dup mul PFa 3 get dup mul add sqrt def
  0 0 M PFa 5 get rotate PFs -2 div dup translate
  0 1 PFs PFa 4 get div 1 add floor cvi
	{PFa 4 get mul 0 M 0 PFs V} for
  0 PFa 6 get ne {
	0 1 PFs PFa 4 get div 1 add floor cvi
	{PFa 4 get mul 0 2 1 roll M PFs 0 V} for
 } if
  stroke grestore} def
%
/languagelevel where
 {pop languagelevel} {1} ifelse
 2 lt
	{/InterpretLevel1 true def}
	{/InterpretLevel1 Level1 def}
 ifelse
%
% PostScript level 2 pattern fill definitions
%
/Level2PatternFill {
/Tile8x8 {/PaintType 2 /PatternType 1 /TilingType 1 /BBox [0 0 8 8] /XStep 8 /YStep 8}
	bind def
/KeepColor {currentrgbcolor [/Pattern /DeviceRGB] setcolorspace} bind def
<< Tile8x8
 /PaintProc {0.5 setlinewidth pop 0 0 M 8 8 L 0 8 M 8 0 L stroke} 
>> matrix makepattern
/Pat1 exch def
<< Tile8x8
 /PaintProc {0.5 setlinewidth pop 0 0 M 8 8 L 0 8 M 8 0 L stroke
	0 4 M 4 8 L 8 4 L 4 0 L 0 4 L stroke}
>> matrix makepattern
/Pat2 exch def
<< Tile8x8
 /PaintProc {0.5 setlinewidth pop 0 0 M 0 8 L
	8 8 L 8 0 L 0 0 L fill}
>> matrix makepattern
/Pat3 exch def
<< Tile8x8
 /PaintProc {0.5 setlinewidth pop -4 8 M 8 -4 L
	0 12 M 12 0 L stroke}
>> matrix makepattern
/Pat4 exch def
<< Tile8x8
 /PaintProc {0.5 setlinewidth pop -4 0 M 8 12 L
	0 -4 M 12 8 L stroke}
>> matrix makepattern
/Pat5 exch def
<< Tile8x8
 /PaintProc {0.5 setlinewidth pop -2 8 M 4 -4 L
	0 12 M 8 -4 L 4 12 M 10 0 L stroke}
>> matrix makepattern
/Pat6 exch def
<< Tile8x8
 /PaintProc {0.5 setlinewidth pop -2 0 M 4 12 L
	0 -4 M 8 12 L 4 -4 M 10 8 L stroke}
>> matrix makepattern
/Pat7 exch def
<< Tile8x8
 /PaintProc {0.5 setlinewidth pop 8 -2 M -4 4 L
	12 0 M -4 8 L 12 4 M 0 10 L stroke}
>> matrix makepattern
/Pat8 exch def
<< Tile8x8
 /PaintProc {0.5 setlinewidth pop 0 -2 M 12 4 L
	-4 0 M 12 8 L -4 4 M 8 10 L stroke}
>> matrix makepattern
/Pat9 exch def
/Pattern1 {PatternBgnd KeepColor Pat1 setpattern} bind def
/Pattern2 {PatternBgnd KeepColor Pat2 setpattern} bind def
/Pattern3 {PatternBgnd KeepColor Pat3 setpattern} bind def
/Pattern4 {PatternBgnd KeepColor Landscape {Pat5} {Pat4} ifelse setpattern} bind def
/Pattern5 {PatternBgnd KeepColor Landscape {Pat4} {Pat5} ifelse setpattern} bind def
/Pattern6 {PatternBgnd KeepColor Landscape {Pat9} {Pat6} ifelse setpattern} bind def
/Pattern7 {PatternBgnd KeepColor Landscape {Pat8} {Pat7} ifelse setpattern} bind def
} def
%
%
%End of PostScript Level 2 code
%
/PatternBgnd {
  TransparentPatterns {} {gsave 1 setgray fill grestore} ifelse
} def
%
% Substitute for Level 2 pattern fill codes with
% grayscale if Level 2 support is not selected.
%
/Level1PatternFill {
/Pattern1 {0.250 Density} bind def
/Pattern2 {0.500 Density} bind def
/Pattern3 {0.750 Density} bind def
/Pattern4 {0.125 Density} bind def
/Pattern5 {0.375 Density} bind def
/Pattern6 {0.625 Density} bind def
/Pattern7 {0.875 Density} bind def
} def
%
% Now test for support of Level 2 code
%
Level1 {Level1PatternFill} {Level2PatternFill} ifelse
%
/Symbol-Oblique /Symbol findfont [1 0 .167 1 0 0] makefont
dup length dict begin {1 index /FID eq {pop pop} {def} ifelse} forall
currentdict end definefont pop
Level1 SuppressPDFMark or 
{} {
/SDict 10 dict def
systemdict /pdfmark known not {
  userdict /pdfmark systemdict /cleartomark get put
} if
SDict begin [
  /Title (out.ps)
  /Subject (gnuplot plot)
  /Creator (gnuplot 4.6 patchlevel 6)
  /Author (yani)
%  /Producer (gnuplot)
%  /Keywords ()
  /CreationDate (Thu May 28 23:40:43 2015)
  /DOCINFO pdfmark
end
} ifelse
end
%%EndProlog
%%Page: 1 1
gnudict begin
gsave
doclip
50 50 translate
0.100 0.100 scale
90 rotate
0 -5040 translate
0 setgray
newpath
(Helvetica) findfont 140 scalefont setfont
BackgroundColor 0 lt 3 1 roll 0 lt exch 0 lt or or not {gsave BackgroundColor C clippath fill grestore} if
1.000 UL
LT0
0.50 0.50 0.50 C 1.000 UL
LTa
0.50 0.50 0.50 C 966 280 M
5981 0 V
stroke
LT0
0.50 0.50 0.50 C 966 280 M
63 0 V
5918 0 R
-63 0 V
882 280 M
( 0) Rshow
1.000 UL
LT0
0.50 0.50 0.50 C 1.000 UL
LTa
0.50 0.50 0.50 C 966 310 M
5981 0 V
stroke
LT0
0.50 0.50 0.50 C 966 310 M
63 0 V
5918 0 R
-63 0 V
882 310 M
( 0.707106) Rshow
1.000 UL
LT0
0.50 0.50 0.50 C 1.000 UL
LTa
0.50 0.50 0.50 C 966 341 M
5981 0 V
stroke
LT0
0.50 0.50 0.50 C 966 341 M
63 0 V
5918 0 R
-63 0 V
882 341 M
( 1.41421) Rshow
1.000 UL
LT0
0.50 0.50 0.50 C 1.000 UL
LTa
0.50 0.50 0.50 C 966 371 M
5981 0 V
stroke
LT0
0.50 0.50 0.50 C 966 371 M
63 0 V
5918 0 R
-63 0 V
882 371 M
( 2.12132) Rshow
1.000 UL
LT0
0.50 0.50 0.50 C 1.000 UL
LTa
0.50 0.50 0.50 C 966 402 M
5981 0 V
stroke
LT0
0.50 0.50 0.50 C 966 402 M
63 0 V
5918 0 R
-63 0 V
882 402 M
( 2.82842) Rshow
1.000 UL
LT0
0.50 0.50 0.50 C 1.000 UL
LTa
0.50 0.50 0.50 C 966 432 M
5981 0 V
stroke
LT0
0.50 0.50 0.50 C 966 432 M
63 0 V
5918 0 R
-63 0 V
882 432 M
( 3.53553) Rshow
1.000 UL
LT0
0.50 0.50 0.50 C 1.000 UL
LTa
0.50 0.50 0.50 C 966 462 M
5981 0 V
stroke
LT0
0.50 0.50 0.50 C 966 462 M
63 0 V
5918 0 R
-63 0 V
882 462 M
( 4.24264) Rshow
1.000 UL
LT0
0.50 0.50 0.50 C 1.000 UL
LTa
0.50 0.50 0.50 C 966 493 M
5981 0 V
stroke
LT0
0.50 0.50 0.50 C 966 493 M
63 0 V
5918 0 R
-63 0 V
882 493 M
( 4.94974) Rshow
1.000 UL
LT0
0.50 0.50 0.50 C 1.000 UL
LTa
0.50 0.50 0.50 C 966 523 M
5981 0 V
stroke
LT0
0.50 0.50 0.50 C 966 523 M
63 0 V
5918 0 R
-63 0 V
882 523 M
( 5.65685) Rshow
1.000 UL
LT0
0.50 0.50 0.50 C 1.000 UL
LTa
0.50 0.50 0.50 C 966 554 M
5981 0 V
stroke
LT0
0.50 0.50 0.50 C 966 554 M
63 0 V
5918 0 R
-63 0 V
882 554 M
( 6.36395) Rshow
1.000 UL
LT0
0.50 0.50 0.50 C 1.000 UL
LTa
0.50 0.50 0.50 C 966 584 M
5981 0 V
stroke
LT0
0.50 0.50 0.50 C 966 584 M
63 0 V
5918 0 R
-63 0 V
882 584 M
( 7.07106) Rshow
1.000 UL
LT0
0.50 0.50 0.50 C 1.000 UL
LTa
0.50 0.50 0.50 C 966 614 M
5981 0 V
stroke
LT0
0.50 0.50 0.50 C 966 614 M
63 0 V
5918 0 R
-63 0 V
882 614 M
( 7.77817) Rshow
1.000 UL
LT0
0.50 0.50 0.50 C 1.000 UL
LTa
0.50 0.50 0.50 C 966 645 M
5981 0 V
stroke
LT0
0.50 0.50 0.50 C 966 645 M
63 0 V
5918 0 R
-63 0 V
882 645 M
( 8.48527) Rshow
1.000 UL
LT0
0.50 0.50 0.50 C 1.000 UL
LTa
0.50 0.50 0.50 C 966 675 M
5981 0 V
stroke
LT0
0.50 0.50 0.50 C 966 675 M
63 0 V
5918 0 R
-63 0 V
882 675 M
( 9.19238) Rshow
1.000 UL
LT0
0.50 0.50 0.50 C 1.000 UL
LTa
0.50 0.50 0.50 C 966 706 M
5981 0 V
stroke
LT0
0.50 0.50 0.50 C 966 706 M
63 0 V
5918 0 R
-63 0 V
882 706 M
( 9.89948) Rshow
1.000 UL
LT0
0.50 0.50 0.50 C 1.000 UL
LTa
0.50 0.50 0.50 C 966 736 M
5981 0 V
stroke
LT0
0.50 0.50 0.50 C 966 736 M
63 0 V
5918 0 R
-63 0 V
882 736 M
( 10.6066) Rshow
1.000 UL
LT0
0.50 0.50 0.50 C 1.000 UL
LTa
0.50 0.50 0.50 C 966 766 M
5981 0 V
stroke
LT0
0.50 0.50 0.50 C 966 766 M
63 0 V
5918 0 R
-63 0 V
882 766 M
( 11.3137) Rshow
1.000 UL
LT0
0.50 0.50 0.50 C 1.000 UL
LTa
0.50 0.50 0.50 C 966 797 M
5981 0 V
stroke
LT0
0.50 0.50 0.50 C 966 797 M
63 0 V
5918 0 R
-63 0 V
882 797 M
( 12.0208) Rshow
1.000 UL
LT0
0.50 0.50 0.50 C 1.000 UL
LTa
0.50 0.50 0.50 C 966 827 M
5981 0 V
stroke
LT0
0.50 0.50 0.50 C 966 827 M
63 0 V
5918 0 R
-63 0 V
882 827 M
( 12.7279) Rshow
1.000 UL
LT0
0.50 0.50 0.50 C 1.000 UL
LTa
0.50 0.50 0.50 C 966 858 M
5981 0 V
stroke
LT0
0.50 0.50 0.50 C 966 858 M
63 0 V
5918 0 R
-63 0 V
882 858 M
( 13.435) Rshow
1.000 UL
LT0
0.50 0.50 0.50 C 1.000 UL
LTa
0.50 0.50 0.50 C 966 888 M
5981 0 V
stroke
LT0
0.50 0.50 0.50 C 966 888 M
63 0 V
5918 0 R
-63 0 V
882 888 M
( 14.1421) Rshow
1.000 UL
LT0
0.50 0.50 0.50 C 1.000 UL
LTa
0.50 0.50 0.50 C 966 918 M
5981 0 V
stroke
LT0
0.50 0.50 0.50 C 966 918 M
63 0 V
5918 0 R
-63 0 V
882 918 M
( 14.8492) Rshow
1.000 UL
LT0
0.50 0.50 0.50 C 1.000 UL
LTa
0.50 0.50 0.50 C 966 949 M
5981 0 V
stroke
LT0
0.50 0.50 0.50 C 966 949 M
63 0 V
5918 0 R
-63 0 V
882 949 M
( 15.5563) Rshow
1.000 UL
LT0
0.50 0.50 0.50 C 1.000 UL
LTa
0.50 0.50 0.50 C 966 979 M
5981 0 V
stroke
LT0
0.50 0.50 0.50 C 966 979 M
63 0 V
5918 0 R
-63 0 V
882 979 M
( 16.2634) Rshow
1.000 UL
LT0
0.50 0.50 0.50 C 1.000 UL
LTa
0.50 0.50 0.50 C 966 1010 M
5981 0 V
stroke
LT0
0.50 0.50 0.50 C 966 1010 M
63 0 V
5918 0 R
-63 0 V
-6002 0 R
( 16.9705) Rshow
1.000 UL
LT0
0.50 0.50 0.50 C 1.000 UL
LTa
0.50 0.50 0.50 C 966 1040 M
5981 0 V
stroke
LT0
0.50 0.50 0.50 C 966 1040 M
63 0 V
5918 0 R
-63 0 V
-6002 0 R
( 17.6776) Rshow
1.000 UL
LT0
0.50 0.50 0.50 C 1.000 UL
LTa
0.50 0.50 0.50 C 966 1071 M
5981 0 V
stroke
LT0
0.50 0.50 0.50 C 966 1071 M
63 0 V
5918 0 R
-63 0 V
-6002 0 R
( 18.3848) Rshow
1.000 UL
LT0
0.50 0.50 0.50 C 1.000 UL
LTa
0.50 0.50 0.50 C 966 1101 M
5981 0 V
stroke
LT0
0.50 0.50 0.50 C 966 1101 M
63 0 V
5918 0 R
-63 0 V
-6002 0 R
( 19.0919) Rshow
1.000 UL
LT0
0.50 0.50 0.50 C 1.000 UL
LTa
0.50 0.50 0.50 C 966 1131 M
5981 0 V
stroke
LT0
0.50 0.50 0.50 C 966 1131 M
63 0 V
5918 0 R
-63 0 V
-6002 0 R
( 19.799) Rshow
1.000 UL
LT0
0.50 0.50 0.50 C 1.000 UL
LTa
0.50 0.50 0.50 C 966 1162 M
5981 0 V
stroke
LT0
0.50 0.50 0.50 C 966 1162 M
63 0 V
5918 0 R
-63 0 V
-6002 0 R
( 20.5061) Rshow
1.000 UL
LT0
0.50 0.50 0.50 C 1.000 UL
LTa
0.50 0.50 0.50 C 966 1192 M
5981 0 V
stroke
LT0
0.50 0.50 0.50 C 966 1192 M
63 0 V
5918 0 R
-63 0 V
-6002 0 R
( 21.2132) Rshow
1.000 UL
LT0
0.50 0.50 0.50 C 1.000 UL
LTa
0.50 0.50 0.50 C 966 1223 M
5981 0 V
stroke
LT0
0.50 0.50 0.50 C 966 1223 M
63 0 V
5918 0 R
-63 0 V
-6002 0 R
( 21.9203) Rshow
1.000 UL
LT0
0.50 0.50 0.50 C 1.000 UL
LTa
0.50 0.50 0.50 C 966 1253 M
5981 0 V
stroke
LT0
0.50 0.50 0.50 C 966 1253 M
63 0 V
5918 0 R
-63 0 V
-6002 0 R
( 22.6274) Rshow
1.000 UL
LT0
0.50 0.50 0.50 C 1.000 UL
LTa
0.50 0.50 0.50 C 966 1283 M
5981 0 V
stroke
LT0
0.50 0.50 0.50 C 966 1283 M
63 0 V
5918 0 R
-63 0 V
-6002 0 R
( 23.3345) Rshow
1.000 UL
LT0
0.50 0.50 0.50 C 1.000 UL
LTa
0.50 0.50 0.50 C 966 1314 M
5981 0 V
stroke
LT0
0.50 0.50 0.50 C 966 1314 M
63 0 V
5918 0 R
-63 0 V
-6002 0 R
( 24.0416) Rshow
1.000 UL
LT0
0.50 0.50 0.50 C 1.000 UL
LTa
0.50 0.50 0.50 C 966 1344 M
5981 0 V
stroke
LT0
0.50 0.50 0.50 C 966 1344 M
63 0 V
5918 0 R
-63 0 V
-6002 0 R
( 24.7487) Rshow
1.000 UL
LT0
0.50 0.50 0.50 C 1.000 UL
LTa
0.50 0.50 0.50 C 966 1375 M
5981 0 V
stroke
LT0
0.50 0.50 0.50 C 966 1375 M
63 0 V
5918 0 R
-63 0 V
-6002 0 R
( 25.4558) Rshow
1.000 UL
LT0
0.50 0.50 0.50 C 1.000 UL
LTa
0.50 0.50 0.50 C 966 1405 M
5981 0 V
stroke
LT0
0.50 0.50 0.50 C 966 1405 M
63 0 V
5918 0 R
-63 0 V
-6002 0 R
( 26.1629) Rshow
1.000 UL
LT0
0.50 0.50 0.50 C 1.000 UL
LTa
0.50 0.50 0.50 C 966 1435 M
5981 0 V
stroke
LT0
0.50 0.50 0.50 C 966 1435 M
63 0 V
5918 0 R
-63 0 V
-6002 0 R
( 26.87) Rshow
1.000 UL
LT0
0.50 0.50 0.50 C 1.000 UL
LTa
0.50 0.50 0.50 C 966 1466 M
5981 0 V
stroke
LT0
0.50 0.50 0.50 C 966 1466 M
63 0 V
5918 0 R
-63 0 V
-6002 0 R
( 27.5771) Rshow
1.000 UL
LT0
0.50 0.50 0.50 C 1.000 UL
LTa
0.50 0.50 0.50 C 966 1496 M
5981 0 V
stroke
LT0
0.50 0.50 0.50 C 966 1496 M
63 0 V
5918 0 R
-63 0 V
-6002 0 R
( 28.2842) Rshow
1.000 UL
LT0
0.50 0.50 0.50 C 1.000 UL
LTa
0.50 0.50 0.50 C 966 1527 M
5981 0 V
stroke
LT0
0.50 0.50 0.50 C 966 1527 M
63 0 V
5918 0 R
-63 0 V
-6002 0 R
( 28.9913) Rshow
1.000 UL
LT0
0.50 0.50 0.50 C 1.000 UL
LTa
0.50 0.50 0.50 C 966 1557 M
5981 0 V
stroke
LT0
0.50 0.50 0.50 C 966 1557 M
63 0 V
5918 0 R
-63 0 V
-6002 0 R
( 29.6985) Rshow
1.000 UL
LT0
0.50 0.50 0.50 C 1.000 UL
LTa
0.50 0.50 0.50 C 966 1587 M
5981 0 V
stroke
LT0
0.50 0.50 0.50 C 966 1587 M
63 0 V
5918 0 R
-63 0 V
-6002 0 R
( 30.4056) Rshow
1.000 UL
LT0
0.50 0.50 0.50 C 1.000 UL
LTa
0.50 0.50 0.50 C 966 1618 M
5981 0 V
stroke
LT0
0.50 0.50 0.50 C 966 1618 M
63 0 V
5918 0 R
-63 0 V
-6002 0 R
( 31.1127) Rshow
1.000 UL
LT0
0.50 0.50 0.50 C 1.000 UL
LTa
0.50 0.50 0.50 C 966 1648 M
5981 0 V
stroke
LT0
0.50 0.50 0.50 C 966 1648 M
63 0 V
5918 0 R
-63 0 V
-6002 0 R
( 31.8198) Rshow
1.000 UL
LT0
0.50 0.50 0.50 C 1.000 UL
LTa
0.50 0.50 0.50 C 966 1679 M
5981 0 V
stroke
LT0
0.50 0.50 0.50 C 966 1679 M
63 0 V
5918 0 R
-63 0 V
-6002 0 R
( 32.5269) Rshow
1.000 UL
LT0
0.50 0.50 0.50 C 1.000 UL
LTa
0.50 0.50 0.50 C 966 1709 M
5981 0 V
stroke
LT0
0.50 0.50 0.50 C 966 1709 M
63 0 V
5918 0 R
-63 0 V
-6002 0 R
( 33.234) Rshow
1.000 UL
LT0
0.50 0.50 0.50 C 1.000 UL
LTa
0.50 0.50 0.50 C 966 1739 M
5981 0 V
stroke
LT0
0.50 0.50 0.50 C 966 1739 M
63 0 V
5918 0 R
-63 0 V
-6002 0 R
( 33.9411) Rshow
1.000 UL
LT0
0.50 0.50 0.50 C 1.000 UL
LTa
0.50 0.50 0.50 C 966 1770 M
5981 0 V
stroke
LT0
0.50 0.50 0.50 C 966 1770 M
63 0 V
5918 0 R
-63 0 V
-6002 0 R
( 34.6482) Rshow
1.000 UL
LT0
0.50 0.50 0.50 C 1.000 UL
LTa
0.50 0.50 0.50 C 966 1800 M
5981 0 V
stroke
LT0
0.50 0.50 0.50 C 966 1800 M
63 0 V
5918 0 R
-63 0 V
-6002 0 R
( 35.3553) Rshow
1.000 UL
LT0
0.50 0.50 0.50 C 1.000 UL
LTa
0.50 0.50 0.50 C 966 1831 M
5981 0 V
stroke
LT0
0.50 0.50 0.50 C 966 1831 M
63 0 V
5918 0 R
-63 0 V
-6002 0 R
( 36.0624) Rshow
1.000 UL
LT0
0.50 0.50 0.50 C 1.000 UL
LTa
0.50 0.50 0.50 C 966 1861 M
5981 0 V
stroke
LT0
0.50 0.50 0.50 C 966 1861 M
63 0 V
5918 0 R
-63 0 V
-6002 0 R
( 36.7695) Rshow
1.000 UL
LT0
0.50 0.50 0.50 C 1.000 UL
LTa
0.50 0.50 0.50 C 966 1891 M
5981 0 V
stroke
LT0
0.50 0.50 0.50 C 966 1891 M
63 0 V
5918 0 R
-63 0 V
-6002 0 R
( 37.4766) Rshow
1.000 UL
LT0
0.50 0.50 0.50 C 1.000 UL
LTa
0.50 0.50 0.50 C 966 1922 M
5981 0 V
stroke
LT0
0.50 0.50 0.50 C 966 1922 M
63 0 V
5918 0 R
-63 0 V
-6002 0 R
( 38.1837) Rshow
1.000 UL
LT0
0.50 0.50 0.50 C 1.000 UL
LTa
0.50 0.50 0.50 C 966 1952 M
5981 0 V
stroke
LT0
0.50 0.50 0.50 C 966 1952 M
63 0 V
5918 0 R
-63 0 V
-6002 0 R
( 38.8908) Rshow
1.000 UL
LT0
0.50 0.50 0.50 C 1.000 UL
LTa
0.50 0.50 0.50 C 966 1983 M
5981 0 V
stroke
LT0
0.50 0.50 0.50 C 966 1983 M
63 0 V
5918 0 R
-63 0 V
-6002 0 R
( 39.5979) Rshow
1.000 UL
LT0
0.50 0.50 0.50 C 1.000 UL
LTa
0.50 0.50 0.50 C 966 2013 M
5981 0 V
stroke
LT0
0.50 0.50 0.50 C 966 2013 M
63 0 V
5918 0 R
-63 0 V
-6002 0 R
( 40.305) Rshow
1.000 UL
LT0
0.50 0.50 0.50 C 1.000 UL
LTa
0.50 0.50 0.50 C 966 2043 M
5981 0 V
stroke
LT0
0.50 0.50 0.50 C 966 2043 M
63 0 V
5918 0 R
-63 0 V
-6002 0 R
( 41.0121) Rshow
1.000 UL
LT0
0.50 0.50 0.50 C 1.000 UL
LTa
0.50 0.50 0.50 C 966 2074 M
5981 0 V
stroke
LT0
0.50 0.50 0.50 C 966 2074 M
63 0 V
5918 0 R
-63 0 V
-6002 0 R
( 41.7193) Rshow
1.000 UL
LT0
0.50 0.50 0.50 C 1.000 UL
LTa
0.50 0.50 0.50 C 966 2104 M
5981 0 V
stroke
LT0
0.50 0.50 0.50 C 966 2104 M
63 0 V
5918 0 R
-63 0 V
-6002 0 R
( 42.4264) Rshow
1.000 UL
LT0
0.50 0.50 0.50 C 1.000 UL
LTa
0.50 0.50 0.50 C 966 2135 M
5981 0 V
stroke
LT0
0.50 0.50 0.50 C 966 2135 M
63 0 V
5918 0 R
-63 0 V
-6002 0 R
( 43.1335) Rshow
1.000 UL
LT0
0.50 0.50 0.50 C 1.000 UL
LTa
0.50 0.50 0.50 C 966 2165 M
5981 0 V
stroke
LT0
0.50 0.50 0.50 C 966 2165 M
63 0 V
5918 0 R
-63 0 V
-6002 0 R
( 43.8406) Rshow
1.000 UL
LT0
0.50 0.50 0.50 C 1.000 UL
LTa
0.50 0.50 0.50 C 966 2195 M
5981 0 V
stroke
LT0
0.50 0.50 0.50 C 966 2195 M
63 0 V
5918 0 R
-63 0 V
-6002 0 R
( 44.5477) Rshow
1.000 UL
LT0
0.50 0.50 0.50 C 1.000 UL
LTa
0.50 0.50 0.50 C 966 2226 M
5981 0 V
stroke
LT0
0.50 0.50 0.50 C 966 2226 M
63 0 V
5918 0 R
-63 0 V
-6002 0 R
( 45.2548) Rshow
1.000 UL
LT0
0.50 0.50 0.50 C 1.000 UL
LTa
0.50 0.50 0.50 C 966 2256 M
5981 0 V
stroke
LT0
0.50 0.50 0.50 C 966 2256 M
63 0 V
5918 0 R
-63 0 V
-6002 0 R
( 45.9619) Rshow
1.000 UL
LT0
0.50 0.50 0.50 C 1.000 UL
LTa
0.50 0.50 0.50 C 966 2287 M
5981 0 V
stroke
LT0
0.50 0.50 0.50 C 966 2287 M
63 0 V
5918 0 R
-63 0 V
-6002 0 R
( 46.669) Rshow
1.000 UL
LT0
0.50 0.50 0.50 C 1.000 UL
LTa
0.50 0.50 0.50 C 966 2317 M
5981 0 V
stroke
LT0
0.50 0.50 0.50 C 966 2317 M
63 0 V
5918 0 R
-63 0 V
-6002 0 R
( 47.3761) Rshow
1.000 UL
LT0
0.50 0.50 0.50 C 1.000 UL
LTa
0.50 0.50 0.50 C 966 2347 M
5981 0 V
stroke
LT0
0.50 0.50 0.50 C 966 2347 M
63 0 V
5918 0 R
-63 0 V
-6002 0 R
( 48.0832) Rshow
1.000 UL
LT0
0.50 0.50 0.50 C 1.000 UL
LTa
0.50 0.50 0.50 C 966 2378 M
5981 0 V
stroke
LT0
0.50 0.50 0.50 C 966 2378 M
63 0 V
5918 0 R
-63 0 V
-6002 0 R
( 48.7903) Rshow
1.000 UL
LT0
0.50 0.50 0.50 C 1.000 UL
LTa
0.50 0.50 0.50 C 966 2408 M
5981 0 V
stroke
LT0
0.50 0.50 0.50 C 966 2408 M
63 0 V
5918 0 R
-63 0 V
-6002 0 R
( 49.4974) Rshow
1.000 UL
LT0
0.50 0.50 0.50 C 1.000 UL
LTa
0.50 0.50 0.50 C 966 2439 M
5981 0 V
stroke
LT0
0.50 0.50 0.50 C 966 2439 M
63 0 V
5918 0 R
-63 0 V
-6002 0 R
( 50.2045) Rshow
1.000 UL
LT0
0.50 0.50 0.50 C 1.000 UL
LTa
0.50 0.50 0.50 C 966 2469 M
5981 0 V
stroke
LT0
0.50 0.50 0.50 C 966 2469 M
63 0 V
5918 0 R
-63 0 V
-6002 0 R
( 50.9116) Rshow
1.000 UL
LT0
0.50 0.50 0.50 C 1.000 UL
LTa
0.50 0.50 0.50 C 966 2499 M
5981 0 V
stroke
LT0
0.50 0.50 0.50 C 966 2499 M
63 0 V
5918 0 R
-63 0 V
-6002 0 R
( 51.6187) Rshow
1.000 UL
LT0
0.50 0.50 0.50 C 1.000 UL
LTa
0.50 0.50 0.50 C 966 2530 M
5981 0 V
stroke
LT0
0.50 0.50 0.50 C 966 2530 M
63 0 V
5918 0 R
-63 0 V
-6002 0 R
( 52.3258) Rshow
1.000 UL
LT0
0.50 0.50 0.50 C 1.000 UL
LTa
0.50 0.50 0.50 C 966 2560 M
5981 0 V
stroke
LT0
0.50 0.50 0.50 C 966 2560 M
63 0 V
5918 0 R
-63 0 V
-6002 0 R
( 53.033) Rshow
1.000 UL
LT0
0.50 0.50 0.50 C 1.000 UL
LTa
0.50 0.50 0.50 C 966 2591 M
5981 0 V
stroke
LT0
0.50 0.50 0.50 C 966 2591 M
63 0 V
5918 0 R
-63 0 V
-6002 0 R
( 53.7401) Rshow
1.000 UL
LT0
0.50 0.50 0.50 C 1.000 UL
LTa
0.50 0.50 0.50 C 966 2621 M
5981 0 V
stroke
LT0
0.50 0.50 0.50 C 966 2621 M
63 0 V
5918 0 R
-63 0 V
-6002 0 R
( 54.4472) Rshow
1.000 UL
LT0
0.50 0.50 0.50 C 1.000 UL
LTa
0.50 0.50 0.50 C 966 2652 M
5981 0 V
stroke
LT0
0.50 0.50 0.50 C 966 2652 M
63 0 V
5918 0 R
-63 0 V
-6002 0 R
( 55.1543) Rshow
1.000 UL
LT0
0.50 0.50 0.50 C 1.000 UL
LTa
0.50 0.50 0.50 C 966 2682 M
5981 0 V
stroke
LT0
0.50 0.50 0.50 C 966 2682 M
63 0 V
5918 0 R
-63 0 V
-6002 0 R
( 55.8614) Rshow
1.000 UL
LT0
0.50 0.50 0.50 C 1.000 UL
LTa
0.50 0.50 0.50 C 966 2712 M
5981 0 V
stroke
LT0
0.50 0.50 0.50 C 966 2712 M
63 0 V
5918 0 R
-63 0 V
-6002 0 R
( 56.5685) Rshow
1.000 UL
LT0
0.50 0.50 0.50 C 1.000 UL
LTa
0.50 0.50 0.50 C 966 2743 M
5981 0 V
stroke
LT0
0.50 0.50 0.50 C 966 2743 M
63 0 V
5918 0 R
-63 0 V
-6002 0 R
( 57.2756) Rshow
1.000 UL
LT0
0.50 0.50 0.50 C 1.000 UL
LTa
0.50 0.50 0.50 C 966 2773 M
5981 0 V
stroke
LT0
0.50 0.50 0.50 C 966 2773 M
63 0 V
5918 0 R
-63 0 V
-6002 0 R
( 57.9827) Rshow
1.000 UL
LT0
0.50 0.50 0.50 C 1.000 UL
LTa
0.50 0.50 0.50 C 966 2804 M
5981 0 V
stroke
LT0
0.50 0.50 0.50 C 966 2804 M
63 0 V
5918 0 R
-63 0 V
-6002 0 R
( 58.6898) Rshow
1.000 UL
LT0
0.50 0.50 0.50 C 1.000 UL
LTa
0.50 0.50 0.50 C 966 2834 M
5981 0 V
stroke
LT0
0.50 0.50 0.50 C 966 2834 M
63 0 V
5918 0 R
-63 0 V
-6002 0 R
( 59.3969) Rshow
1.000 UL
LT0
0.50 0.50 0.50 C 1.000 UL
LTa
0.50 0.50 0.50 C 966 2864 M
5981 0 V
stroke
LT0
0.50 0.50 0.50 C 966 2864 M
63 0 V
5918 0 R
-63 0 V
-6002 0 R
( 60.104) Rshow
1.000 UL
LT0
0.50 0.50 0.50 C 1.000 UL
LTa
0.50 0.50 0.50 C 966 2895 M
5981 0 V
stroke
LT0
0.50 0.50 0.50 C 966 2895 M
63 0 V
5918 0 R
-63 0 V
-6002 0 R
( 60.8111) Rshow
1.000 UL
LT0
0.50 0.50 0.50 C 1.000 UL
LTa
0.50 0.50 0.50 C 966 2925 M
5981 0 V
stroke
LT0
0.50 0.50 0.50 C 966 2925 M
63 0 V
5918 0 R
-63 0 V
-6002 0 R
( 61.5182) Rshow
1.000 UL
LT0
0.50 0.50 0.50 C 1.000 UL
LTa
0.50 0.50 0.50 C 966 2956 M
5981 0 V
stroke
LT0
0.50 0.50 0.50 C 966 2956 M
63 0 V
5918 0 R
-63 0 V
-6002 0 R
( 62.2253) Rshow
1.000 UL
LT0
0.50 0.50 0.50 C 1.000 UL
LTa
0.50 0.50 0.50 C 966 2986 M
5981 0 V
stroke
LT0
0.50 0.50 0.50 C 966 2986 M
63 0 V
5918 0 R
-63 0 V
-6002 0 R
( 62.9324) Rshow
1.000 UL
LT0
0.50 0.50 0.50 C 1.000 UL
LTa
0.50 0.50 0.50 C 966 3016 M
5981 0 V
stroke
LT0
0.50 0.50 0.50 C 966 3016 M
63 0 V
5918 0 R
-63 0 V
-6002 0 R
( 63.6395) Rshow
1.000 UL
LT0
0.50 0.50 0.50 C 1.000 UL
LTa
0.50 0.50 0.50 C 966 3047 M
5981 0 V
stroke
LT0
0.50 0.50 0.50 C 966 3047 M
63 0 V
5918 0 R
-63 0 V
-6002 0 R
( 64.3466) Rshow
1.000 UL
LT0
0.50 0.50 0.50 C 1.000 UL
LTa
0.50 0.50 0.50 C 966 3077 M
5981 0 V
stroke
LT0
0.50 0.50 0.50 C 966 3077 M
63 0 V
5918 0 R
-63 0 V
-6002 0 R
( 65.0538) Rshow
1.000 UL
LT0
0.50 0.50 0.50 C 1.000 UL
LTa
0.50 0.50 0.50 C 966 3108 M
5981 0 V
stroke
LT0
0.50 0.50 0.50 C 966 3108 M
63 0 V
5918 0 R
-63 0 V
-6002 0 R
( 65.7609) Rshow
1.000 UL
LT0
0.50 0.50 0.50 C 1.000 UL
LTa
0.50 0.50 0.50 C 966 3138 M
5981 0 V
stroke
LT0
0.50 0.50 0.50 C 966 3138 M
63 0 V
5918 0 R
-63 0 V
-6002 0 R
( 66.468) Rshow
1.000 UL
LT0
0.50 0.50 0.50 C 1.000 UL
LTa
0.50 0.50 0.50 C 966 3168 M
5981 0 V
stroke
LT0
0.50 0.50 0.50 C 966 3168 M
63 0 V
5918 0 R
-63 0 V
-6002 0 R
( 67.1751) Rshow
1.000 UL
LT0
0.50 0.50 0.50 C 1.000 UL
LTa
0.50 0.50 0.50 C 966 3199 M
5981 0 V
stroke
LT0
0.50 0.50 0.50 C 966 3199 M
63 0 V
5918 0 R
-63 0 V
-6002 0 R
( 67.8822) Rshow
1.000 UL
LT0
0.50 0.50 0.50 C 1.000 UL
LTa
0.50 0.50 0.50 C 966 3229 M
5981 0 V
stroke
LT0
0.50 0.50 0.50 C 966 3229 M
63 0 V
5918 0 R
-63 0 V
-6002 0 R
( 68.5893) Rshow
1.000 UL
LT0
0.50 0.50 0.50 C 1.000 UL
LTa
0.50 0.50 0.50 C 966 3260 M
5981 0 V
stroke
LT0
0.50 0.50 0.50 C 966 3260 M
63 0 V
5918 0 R
-63 0 V
-6002 0 R
( 69.2964) Rshow
1.000 UL
LT0
0.50 0.50 0.50 C 1.000 UL
LTa
0.50 0.50 0.50 C 966 3290 M
5981 0 V
stroke
LT0
0.50 0.50 0.50 C 966 3290 M
63 0 V
5918 0 R
-63 0 V
-6002 0 R
( 70.0035) Rshow
1.000 UL
LT0
0.50 0.50 0.50 C 1.000 UL
LTa
0.50 0.50 0.50 C 966 3320 M
5981 0 V
stroke
LT0
0.50 0.50 0.50 C 966 3320 M
63 0 V
5918 0 R
-63 0 V
-6002 0 R
( 70.7106) Rshow
1.000 UL
LT0
0.50 0.50 0.50 C 1.000 UL
LTa
0.50 0.50 0.50 C 966 3351 M
5981 0 V
stroke
LT0
0.50 0.50 0.50 C 966 3351 M
63 0 V
5918 0 R
-63 0 V
-6002 0 R
( 71.4177) Rshow
1.000 UL
LT0
0.50 0.50 0.50 C 1.000 UL
LTa
0.50 0.50 0.50 C 966 3381 M
5981 0 V
stroke
LT0
0.50 0.50 0.50 C 966 3381 M
63 0 V
5918 0 R
-63 0 V
-6002 0 R
( 72.1248) Rshow
1.000 UL
LT0
0.50 0.50 0.50 C 1.000 UL
LTa
0.50 0.50 0.50 C 966 3412 M
5981 0 V
stroke
LT0
0.50 0.50 0.50 C 966 3412 M
63 0 V
5918 0 R
-63 0 V
-6002 0 R
( 72.8319) Rshow
1.000 UL
LT0
0.50 0.50 0.50 C 1.000 UL
LTa
0.50 0.50 0.50 C 966 3442 M
5981 0 V
stroke
LT0
0.50 0.50 0.50 C 966 3442 M
63 0 V
5918 0 R
-63 0 V
-6002 0 R
( 73.539) Rshow
1.000 UL
LT0
0.50 0.50 0.50 C 1.000 UL
LTa
0.50 0.50 0.50 C 966 3472 M
5981 0 V
stroke
LT0
0.50 0.50 0.50 C 966 3472 M
63 0 V
5918 0 R
-63 0 V
-6002 0 R
( 74.2461) Rshow
1.000 UL
LT0
0.50 0.50 0.50 C 1.000 UL
LTa
0.50 0.50 0.50 C 966 3503 M
5981 0 V
stroke
LT0
0.50 0.50 0.50 C 966 3503 M
63 0 V
5918 0 R
-63 0 V
-6002 0 R
( 74.9532) Rshow
1.000 UL
LT0
0.50 0.50 0.50 C 1.000 UL
LTa
0.50 0.50 0.50 C 966 3533 M
5981 0 V
stroke
LT0
0.50 0.50 0.50 C 966 3533 M
63 0 V
5918 0 R
-63 0 V
-6002 0 R
( 75.6603) Rshow
1.000 UL
LT0
0.50 0.50 0.50 C 1.000 UL
LTa
0.50 0.50 0.50 C 966 3564 M
5981 0 V
stroke
LT0
0.50 0.50 0.50 C 966 3564 M
63 0 V
5918 0 R
-63 0 V
-6002 0 R
( 76.3674) Rshow
1.000 UL
LT0
0.50 0.50 0.50 C 1.000 UL
LTa
0.50 0.50 0.50 C 966 3594 M
5981 0 V
stroke
LT0
0.50 0.50 0.50 C 966 3594 M
63 0 V
5918 0 R
-63 0 V
-6002 0 R
( 77.0746) Rshow
1.000 UL
LT0
0.50 0.50 0.50 C 1.000 UL
LTa
0.50 0.50 0.50 C 966 3624 M
5981 0 V
stroke
LT0
0.50 0.50 0.50 C 966 3624 M
63 0 V
5918 0 R
-63 0 V
-6002 0 R
( 77.7817) Rshow
1.000 UL
LT0
0.50 0.50 0.50 C 1.000 UL
LTa
0.50 0.50 0.50 C 966 3655 M
5981 0 V
stroke
LT0
0.50 0.50 0.50 C 966 3655 M
63 0 V
5918 0 R
-63 0 V
-6002 0 R
( 78.4888) Rshow
1.000 UL
LT0
0.50 0.50 0.50 C 1.000 UL
LTa
0.50 0.50 0.50 C 966 3685 M
5981 0 V
stroke
LT0
0.50 0.50 0.50 C 966 3685 M
63 0 V
5918 0 R
-63 0 V
-6002 0 R
( 79.1959) Rshow
1.000 UL
LT0
0.50 0.50 0.50 C 1.000 UL
LTa
0.50 0.50 0.50 C 966 3716 M
5981 0 V
stroke
LT0
0.50 0.50 0.50 C 966 3716 M
63 0 V
5918 0 R
-63 0 V
-6002 0 R
( 79.903) Rshow
1.000 UL
LT0
0.50 0.50 0.50 C 1.000 UL
LTa
0.50 0.50 0.50 C 966 3746 M
5981 0 V
stroke
LT0
0.50 0.50 0.50 C 966 3746 M
63 0 V
5918 0 R
-63 0 V
-6002 0 R
( 80.6101) Rshow
1.000 UL
LT0
0.50 0.50 0.50 C 1.000 UL
LTa
0.50 0.50 0.50 C 966 3776 M
5981 0 V
stroke
LT0
0.50 0.50 0.50 C 966 3776 M
63 0 V
5918 0 R
-63 0 V
-6002 0 R
( 81.3172) Rshow
1.000 UL
LT0
0.50 0.50 0.50 C 1.000 UL
LTa
0.50 0.50 0.50 C 966 3807 M
5981 0 V
stroke
LT0
0.50 0.50 0.50 C 966 3807 M
63 0 V
5918 0 R
-63 0 V
-6002 0 R
( 82.0243) Rshow
1.000 UL
LT0
0.50 0.50 0.50 C 1.000 UL
LTa
0.50 0.50 0.50 C 966 3837 M
5981 0 V
stroke
LT0
0.50 0.50 0.50 C 966 3837 M
63 0 V
5918 0 R
-63 0 V
-6002 0 R
( 82.7314) Rshow
1.000 UL
LT0
0.50 0.50 0.50 C 1.000 UL
LTa
0.50 0.50 0.50 C 966 3868 M
5981 0 V
stroke
LT0
0.50 0.50 0.50 C 966 3868 M
63 0 V
5918 0 R
-63 0 V
-6002 0 R
( 83.4385) Rshow
1.000 UL
LT0
0.50 0.50 0.50 C 1.000 UL
LTa
0.50 0.50 0.50 C 966 3898 M
5981 0 V
stroke
LT0
0.50 0.50 0.50 C 966 3898 M
63 0 V
5918 0 R
-63 0 V
-6002 0 R
( 84.1456) Rshow
1.000 UL
LT0
0.50 0.50 0.50 C 1.000 UL
LTa
0.50 0.50 0.50 C 966 3928 M
5981 0 V
stroke
LT0
0.50 0.50 0.50 C 966 3928 M
63 0 V
5918 0 R
-63 0 V
-6002 0 R
( 84.8527) Rshow
1.000 UL
LT0
0.50 0.50 0.50 C 1.000 UL
LTa
0.50 0.50 0.50 C 966 3959 M
5981 0 V
stroke
LT0
0.50 0.50 0.50 C 966 3959 M
63 0 V
5918 0 R
-63 0 V
-6002 0 R
( 85.5598) Rshow
1.000 UL
LT0
0.50 0.50 0.50 C 1.000 UL
LTa
0.50 0.50 0.50 C 966 3989 M
5981 0 V
stroke
LT0
0.50 0.50 0.50 C 966 3989 M
63 0 V
5918 0 R
-63 0 V
-6002 0 R
( 86.2669) Rshow
1.000 UL
LT0
0.50 0.50 0.50 C 1.000 UL
LTa
0.50 0.50 0.50 C 966 4020 M
5981 0 V
stroke
LT0
0.50 0.50 0.50 C 966 4020 M
63 0 V
5918 0 R
-63 0 V
-6002 0 R
( 86.974) Rshow
1.000 UL
LT0
0.50 0.50 0.50 C 1.000 UL
LTa
0.50 0.50 0.50 C 966 4050 M
5981 0 V
stroke
LT0
0.50 0.50 0.50 C 966 4050 M
63 0 V
5918 0 R
-63 0 V
-6002 0 R
( 87.6811) Rshow
1.000 UL
LT0
0.50 0.50 0.50 C 1.000 UL
LTa
0.50 0.50 0.50 C 966 4080 M
5981 0 V
stroke
LT0
0.50 0.50 0.50 C 966 4080 M
63 0 V
5918 0 R
-63 0 V
-6002 0 R
( 88.3882) Rshow
1.000 UL
LT0
0.50 0.50 0.50 C 1.000 UL
LTa
0.50 0.50 0.50 C 966 4111 M
5981 0 V
stroke
LT0
0.50 0.50 0.50 C 966 4111 M
63 0 V
5918 0 R
-63 0 V
-6002 0 R
( 89.0954) Rshow
1.000 UL
LT0
0.50 0.50 0.50 C 1.000 UL
LTa
0.50 0.50 0.50 C 966 4141 M
5981 0 V
stroke
LT0
0.50 0.50 0.50 C 966 4141 M
63 0 V
5918 0 R
-63 0 V
-6002 0 R
( 89.8025) Rshow
1.000 UL
LT0
0.50 0.50 0.50 C 1.000 UL
LTa
0.50 0.50 0.50 C 966 4172 M
5981 0 V
stroke
LT0
0.50 0.50 0.50 C 966 4172 M
63 0 V
5918 0 R
-63 0 V
-6002 0 R
( 90.5096) Rshow
1.000 UL
LT0
0.50 0.50 0.50 C 1.000 UL
LTa
0.50 0.50 0.50 C 966 4202 M
5981 0 V
stroke
LT0
0.50 0.50 0.50 C 966 4202 M
63 0 V
5918 0 R
-63 0 V
-6002 0 R
( 91.2167) Rshow
1.000 UL
LT0
0.50 0.50 0.50 C 1.000 UL
LTa
0.50 0.50 0.50 C 966 4233 M
5981 0 V
stroke
LT0
0.50 0.50 0.50 C 966 4233 M
63 0 V
5918 0 R
-63 0 V
-6002 0 R
( 91.9238) Rshow
1.000 UL
LT0
0.50 0.50 0.50 C 1.000 UL
LTa
0.50 0.50 0.50 C 966 4263 M
5981 0 V
stroke
LT0
0.50 0.50 0.50 C 966 4263 M
63 0 V
5918 0 R
-63 0 V
-6002 0 R
( 92.6309) Rshow
1.000 UL
LT0
0.50 0.50 0.50 C 1.000 UL
LTa
0.50 0.50 0.50 C 966 4293 M
5981 0 V
stroke
LT0
0.50 0.50 0.50 C 966 4293 M
63 0 V
5918 0 R
-63 0 V
-6002 0 R
( 93.338) Rshow
1.000 UL
LT0
0.50 0.50 0.50 C 1.000 UL
LTa
0.50 0.50 0.50 C 966 4324 M
5981 0 V
stroke
LT0
0.50 0.50 0.50 C 966 4324 M
63 0 V
5918 0 R
-63 0 V
-6002 0 R
( 94.0451) Rshow
1.000 UL
LT0
0.50 0.50 0.50 C 1.000 UL
LTa
0.50 0.50 0.50 C 966 4354 M
5981 0 V
stroke
LT0
0.50 0.50 0.50 C 966 4354 M
63 0 V
5918 0 R
-63 0 V
-6002 0 R
( 94.7522) Rshow
1.000 UL
LT0
0.50 0.50 0.50 C 1.000 UL
LTa
0.50 0.50 0.50 C 966 4385 M
5981 0 V
stroke
LT0
0.50 0.50 0.50 C 966 4385 M
63 0 V
5918 0 R
-63 0 V
-6002 0 R
( 95.4593) Rshow
1.000 UL
LT0
0.50 0.50 0.50 C 1.000 UL
LTa
0.50 0.50 0.50 C 966 4415 M
5981 0 V
stroke
LT0
0.50 0.50 0.50 C 966 4415 M
63 0 V
5918 0 R
-63 0 V
-6002 0 R
( 96.1664) Rshow
1.000 UL
LT0
0.50 0.50 0.50 C 1.000 UL
LTa
0.50 0.50 0.50 C 966 4445 M
5981 0 V
stroke
LT0
0.50 0.50 0.50 C 966 4445 M
63 0 V
5918 0 R
-63 0 V
-6002 0 R
( 96.8735) Rshow
1.000 UL
LT0
0.50 0.50 0.50 C 1.000 UL
LTa
0.50 0.50 0.50 C 966 4476 M
5981 0 V
stroke
LT0
0.50 0.50 0.50 C 966 4476 M
63 0 V
5918 0 R
-63 0 V
-6002 0 R
( 97.5806) Rshow
1.000 UL
LT0
0.50 0.50 0.50 C 1.000 UL
LTa
0.50 0.50 0.50 C 966 4506 M
5981 0 V
stroke
LT0
0.50 0.50 0.50 C 966 4506 M
63 0 V
5918 0 R
-63 0 V
-6002 0 R
( 98.2877) Rshow
1.000 UL
LT0
0.50 0.50 0.50 C 1.000 UL
LTa
0.50 0.50 0.50 C 966 4537 M
5981 0 V
stroke
LT0
0.50 0.50 0.50 C 966 4537 M
63 0 V
5918 0 R
-63 0 V
-6002 0 R
( 98.9948) Rshow
1.000 UL
LT0
0.50 0.50 0.50 C 1.000 UL
LTa
0.50 0.50 0.50 C 966 4567 M
5981 0 V
stroke
LT0
0.50 0.50 0.50 C 966 4567 M
63 0 V
5918 0 R
-63 0 V
-6002 0 R
( 99.7019) Rshow
1.000 UL
LT0
0.50 0.50 0.50 C 1.000 UL
LTa
0.50 0.50 0.50 C 966 4597 M
5981 0 V
stroke
LT0
0.50 0.50 0.50 C 966 4597 M
63 0 V
5918 0 R
-63 0 V
-6002 0 R
( 100.409) Rshow
1.000 UL
LT0
0.50 0.50 0.50 C 1.000 UL
LTa
0.50 0.50 0.50 C 966 4628 M
5981 0 V
stroke
LT0
0.50 0.50 0.50 C 966 4628 M
63 0 V
5918 0 R
-63 0 V
-6002 0 R
( 101.116) Rshow
1.000 UL
LT0
0.50 0.50 0.50 C 1.000 UL
LTa
0.50 0.50 0.50 C 966 4658 M
5981 0 V
stroke
LT0
0.50 0.50 0.50 C 966 4658 M
63 0 V
5918 0 R
-63 0 V
-6002 0 R
( 101.823) Rshow
1.000 UL
LT0
0.50 0.50 0.50 C 1.000 UL
LTa
0.50 0.50 0.50 C 966 4689 M
5981 0 V
stroke
LT0
0.50 0.50 0.50 C 966 4689 M
63 0 V
5918 0 R
-63 0 V
-6002 0 R
( 102.53) Rshow
1.000 UL
LT0
0.50 0.50 0.50 C 1.000 UL
LTa
0.50 0.50 0.50 C 966 4719 M
5981 0 V
stroke
LT0
0.50 0.50 0.50 C 966 4719 M
63 0 V
5918 0 R
-63 0 V
-6002 0 R
( 103.237) Rshow
1.000 UL
LT0
0.50 0.50 0.50 C 1.000 UL
LTa
0.50 0.50 0.50 C 966 4749 M
5981 0 V
stroke
LT0
0.50 0.50 0.50 C 966 4749 M
63 0 V
5918 0 R
-63 0 V
-6002 0 R
( 103.945) Rshow
1.000 UL
LT0
0.50 0.50 0.50 C 1.000 UL
LTa
0.50 0.50 0.50 C 966 4780 M
5981 0 V
stroke
LT0
0.50 0.50 0.50 C 966 4780 M
63 0 V
5918 0 R
-63 0 V
-6002 0 R
( 104.652) Rshow
1.000 UL
LT0
0.50 0.50 0.50 C 1.000 UL
LTa
0.50 0.50 0.50 C 966 4810 M
5981 0 V
stroke
LT0
0.50 0.50 0.50 C 966 4810 M
63 0 V
5918 0 R
-63 0 V
-6002 0 R
( 105.359) Rshow
1.000 UL
LT0
0.50 0.50 0.50 C 1.000 UL
LTa
0.50 0.50 0.50 C 966 4841 M
5981 0 V
stroke
LT0
0.50 0.50 0.50 C 966 4841 M
63 0 V
5918 0 R
-63 0 V
-6002 0 R
( 106.066) Rshow
1.000 UL
LT0
0.50 0.50 0.50 C 1.000 UL
LTa
0.50 0.50 0.50 C 966 4871 M
5981 0 V
stroke
LT0
0.50 0.50 0.50 C 966 4871 M
63 0 V
5918 0 R
-63 0 V
-6002 0 R
( 106.773) Rshow
1.000 UL
LT0
0.50 0.50 0.50 C 1.000 UL
LTa
0.50 0.50 0.50 C 966 280 M
0 4591 V
stroke
LT0
0.50 0.50 0.50 C 966 280 M
0 63 V
0 4528 R
0 -63 V
966 140 M
( 0) Cshow
1.000 UL
LT0
0.50 0.50 0.50 C 1.000 UL
LTa
0.50 0.50 0.50 C 1006 280 M
0 4591 V
stroke
LT0
0.50 0.50 0.50 C 1006 280 M
0 63 V
0 4528 R
0 -63 V
0 -4668 R
( 0.707106) Cshow
1.000 UL
LT0
0.50 0.50 0.50 C 1.000 UL
LTa
0.50 0.50 0.50 C 1045 280 M
0 4591 V
stroke
LT0
0.50 0.50 0.50 C 1045 280 M
0 63 V
0 4528 R
0 -63 V
0 -4668 R
( 1.41421) Cshow
1.000 UL
LT0
0.50 0.50 0.50 C 1.000 UL
LTa
0.50 0.50 0.50 C 1085 280 M
0 4591 V
stroke
LT0
0.50 0.50 0.50 C 1085 280 M
0 63 V
0 4528 R
0 -63 V
0 -4668 R
( 2.12132) Cshow
1.000 UL
LT0
0.50 0.50 0.50 C 1.000 UL
LTa
0.50 0.50 0.50 C 1124 280 M
0 4591 V
stroke
LT0
0.50 0.50 0.50 C 1124 280 M
0 63 V
0 4528 R
0 -63 V
0 -4668 R
( 2.82842) Cshow
1.000 UL
LT0
0.50 0.50 0.50 C 1.000 UL
LTa
0.50 0.50 0.50 C 1164 280 M
0 4591 V
stroke
LT0
0.50 0.50 0.50 C 1164 280 M
0 63 V
0 4528 R
0 -63 V
0 -4668 R
( 3.53553) Cshow
1.000 UL
LT0
0.50 0.50 0.50 C 1.000 UL
LTa
0.50 0.50 0.50 C 1204 280 M
0 4591 V
stroke
LT0
0.50 0.50 0.50 C 1204 280 M
0 63 V
0 4528 R
0 -63 V
0 -4668 R
( 4.24264) Cshow
1.000 UL
LT0
0.50 0.50 0.50 C 1.000 UL
LTa
0.50 0.50 0.50 C 1243 280 M
0 4591 V
stroke
LT0
0.50 0.50 0.50 C 1243 280 M
0 63 V
0 4528 R
0 -63 V
0 -4668 R
( 4.94974) Cshow
1.000 UL
LT0
0.50 0.50 0.50 C 1.000 UL
LTa
0.50 0.50 0.50 C 1283 280 M
0 4591 V
stroke
LT0
0.50 0.50 0.50 C 1283 280 M
0 63 V
0 4528 R
0 -63 V
0 -4668 R
( 5.65685) Cshow
1.000 UL
LT0
0.50 0.50 0.50 C 1.000 UL
LTa
0.50 0.50 0.50 C 1322 280 M
0 4591 V
stroke
LT0
0.50 0.50 0.50 C 1322 280 M
0 63 V
0 4528 R
0 -63 V
0 -4668 R
( 6.36395) Cshow
1.000 UL
LT0
0.50 0.50 0.50 C 1.000 UL
LTa
0.50 0.50 0.50 C 1362 280 M
0 4591 V
stroke
LT0
0.50 0.50 0.50 C 1362 280 M
0 63 V
0 4528 R
0 -63 V
0 -4668 R
( 7.07106) Cshow
1.000 UL
LT0
0.50 0.50 0.50 C 1.000 UL
LTa
0.50 0.50 0.50 C 1402 280 M
0 4591 V
stroke
LT0
0.50 0.50 0.50 C 1402 280 M
0 63 V
0 4528 R
0 -63 V
0 -4668 R
( 7.77817) Cshow
1.000 UL
LT0
0.50 0.50 0.50 C 1.000 UL
LTa
0.50 0.50 0.50 C 1441 280 M
0 4591 V
stroke
LT0
0.50 0.50 0.50 C 1441 280 M
0 63 V
0 4528 R
0 -63 V
0 -4668 R
( 8.48527) Cshow
1.000 UL
LT0
0.50 0.50 0.50 C 1.000 UL
LTa
0.50 0.50 0.50 C 1481 280 M
0 4591 V
stroke
LT0
0.50 0.50 0.50 C 1481 280 M
0 63 V
0 4528 R
0 -63 V
0 -4668 R
( 9.19238) Cshow
1.000 UL
LT0
0.50 0.50 0.50 C 1.000 UL
LTa
0.50 0.50 0.50 C 1521 280 M
0 4591 V
stroke
LT0
0.50 0.50 0.50 C 1521 280 M
0 63 V
0 4528 R
0 -63 V
0 -4668 R
( 9.89948) Cshow
1.000 UL
LT0
0.50 0.50 0.50 C 1.000 UL
LTa
0.50 0.50 0.50 C 1560 280 M
0 4591 V
stroke
LT0
0.50 0.50 0.50 C 1560 280 M
0 63 V
0 4528 R
0 -63 V
0 -4668 R
( 10.6066) Cshow
1.000 UL
LT0
0.50 0.50 0.50 C 1.000 UL
LTa
0.50 0.50 0.50 C 1600 280 M
0 4591 V
stroke
LT0
0.50 0.50 0.50 C 1600 280 M
0 63 V
0 4528 R
0 -63 V
0 -4668 R
( 11.3137) Cshow
1.000 UL
LT0
0.50 0.50 0.50 C 1.000 UL
LTa
0.50 0.50 0.50 C 1639 280 M
0 4591 V
stroke
LT0
0.50 0.50 0.50 C 1639 280 M
0 63 V
0 4528 R
0 -63 V
0 -4668 R
( 12.0208) Cshow
1.000 UL
LT0
0.50 0.50 0.50 C 1.000 UL
LTa
0.50 0.50 0.50 C 1679 280 M
0 4591 V
stroke
LT0
0.50 0.50 0.50 C 1679 280 M
0 63 V
0 4528 R
0 -63 V
0 -4668 R
( 12.7279) Cshow
1.000 UL
LT0
0.50 0.50 0.50 C 1.000 UL
LTa
0.50 0.50 0.50 C 1719 280 M
0 4591 V
stroke
LT0
0.50 0.50 0.50 C 1719 280 M
0 63 V
0 4528 R
0 -63 V
0 -4668 R
( 13.435) Cshow
1.000 UL
LT0
0.50 0.50 0.50 C 1.000 UL
LTa
0.50 0.50 0.50 C 1758 280 M
0 4591 V
stroke
LT0
0.50 0.50 0.50 C 1758 280 M
0 63 V
0 4528 R
0 -63 V
0 -4668 R
( 14.1421) Cshow
1.000 UL
LT0
0.50 0.50 0.50 C 1.000 UL
LTa
0.50 0.50 0.50 C 1798 280 M
0 4591 V
stroke
LT0
0.50 0.50 0.50 C 1798 280 M
0 63 V
0 4528 R
0 -63 V
0 -4668 R
( 14.8492) Cshow
1.000 UL
LT0
0.50 0.50 0.50 C 1.000 UL
LTa
0.50 0.50 0.50 C 1837 280 M
0 4591 V
stroke
LT0
0.50 0.50 0.50 C 1837 280 M
0 63 V
0 4528 R
0 -63 V
0 -4668 R
( 15.5563) Cshow
1.000 UL
LT0
0.50 0.50 0.50 C 1.000 UL
LTa
0.50 0.50 0.50 C 1877 280 M
0 4591 V
stroke
LT0
0.50 0.50 0.50 C 1877 280 M
0 63 V
0 4528 R
0 -63 V
0 -4668 R
( 16.2634) Cshow
1.000 UL
LT0
0.50 0.50 0.50 C 1.000 UL
LTa
0.50 0.50 0.50 C 1917 280 M
0 4591 V
stroke
LT0
0.50 0.50 0.50 C 1917 280 M
0 63 V
0 4528 R
0 -63 V
0 -4668 R
( 16.9705) Cshow
1.000 UL
LT0
0.50 0.50 0.50 C 1.000 UL
LTa
0.50 0.50 0.50 C 1956 280 M
0 4591 V
stroke
LT0
0.50 0.50 0.50 C 1956 280 M
0 63 V
0 4528 R
0 -63 V
0 -4668 R
( 17.6776) Cshow
1.000 UL
LT0
0.50 0.50 0.50 C 1.000 UL
LTa
0.50 0.50 0.50 C 1996 280 M
0 4591 V
stroke
LT0
0.50 0.50 0.50 C 1996 280 M
0 63 V
0 4528 R
0 -63 V
0 -4668 R
( 18.3848) Cshow
1.000 UL
LT0
0.50 0.50 0.50 C 1.000 UL
LTa
0.50 0.50 0.50 C 2035 280 M
0 4591 V
stroke
LT0
0.50 0.50 0.50 C 2035 280 M
0 63 V
0 4528 R
0 -63 V
0 -4668 R
( 19.0919) Cshow
1.000 UL
LT0
0.50 0.50 0.50 C 1.000 UL
LTa
0.50 0.50 0.50 C 2075 280 M
0 4591 V
stroke
LT0
0.50 0.50 0.50 C 2075 280 M
0 63 V
0 4528 R
0 -63 V
0 -4668 R
( 19.799) Cshow
1.000 UL
LT0
0.50 0.50 0.50 C 1.000 UL
LTa
0.50 0.50 0.50 C 2115 280 M
0 4591 V
stroke
LT0
0.50 0.50 0.50 C 2115 280 M
0 63 V
0 4528 R
0 -63 V
0 -4668 R
( 20.5061) Cshow
1.000 UL
LT0
0.50 0.50 0.50 C 1.000 UL
LTa
0.50 0.50 0.50 C 2154 280 M
0 4591 V
stroke
LT0
0.50 0.50 0.50 C 2154 280 M
0 63 V
0 4528 R
0 -63 V
0 -4668 R
( 21.2132) Cshow
1.000 UL
LT0
0.50 0.50 0.50 C 1.000 UL
LTa
0.50 0.50 0.50 C 2194 280 M
0 4591 V
stroke
LT0
0.50 0.50 0.50 C 2194 280 M
0 63 V
0 4528 R
0 -63 V
0 -4668 R
( 21.9203) Cshow
1.000 UL
LT0
0.50 0.50 0.50 C 1.000 UL
LTa
0.50 0.50 0.50 C 2233 280 M
0 4591 V
stroke
LT0
0.50 0.50 0.50 C 2233 280 M
0 63 V
0 4528 R
0 -63 V
0 -4668 R
( 22.6274) Cshow
1.000 UL
LT0
0.50 0.50 0.50 C 1.000 UL
LTa
0.50 0.50 0.50 C 2273 280 M
0 4591 V
stroke
LT0
0.50 0.50 0.50 C 2273 280 M
0 63 V
0 4528 R
0 -63 V
0 -4668 R
( 23.3345) Cshow
1.000 UL
LT0
0.50 0.50 0.50 C 1.000 UL
LTa
0.50 0.50 0.50 C 2313 280 M
0 4591 V
stroke
LT0
0.50 0.50 0.50 C 2313 280 M
0 63 V
0 4528 R
0 -63 V
0 -4668 R
( 24.0416) Cshow
1.000 UL
LT0
0.50 0.50 0.50 C 1.000 UL
LTa
0.50 0.50 0.50 C 2352 280 M
0 4591 V
stroke
LT0
0.50 0.50 0.50 C 2352 280 M
0 63 V
0 4528 R
0 -63 V
0 -4668 R
( 24.7487) Cshow
1.000 UL
LT0
0.50 0.50 0.50 C 1.000 UL
LTa
0.50 0.50 0.50 C 2392 280 M
0 4591 V
stroke
LT0
0.50 0.50 0.50 C 2392 280 M
0 63 V
0 4528 R
0 -63 V
0 -4668 R
( 25.4558) Cshow
1.000 UL
LT0
0.50 0.50 0.50 C 1.000 UL
LTa
0.50 0.50 0.50 C 2432 280 M
0 4591 V
stroke
LT0
0.50 0.50 0.50 C 2432 280 M
0 63 V
0 4528 R
0 -63 V
0 -4668 R
( 26.1629) Cshow
1.000 UL
LT0
0.50 0.50 0.50 C 1.000 UL
LTa
0.50 0.50 0.50 C 2471 280 M
0 4591 V
stroke
LT0
0.50 0.50 0.50 C 2471 280 M
0 63 V
0 4528 R
0 -63 V
0 -4668 R
( 26.87) Cshow
1.000 UL
LT0
0.50 0.50 0.50 C 1.000 UL
LTa
0.50 0.50 0.50 C 2511 280 M
0 4591 V
stroke
LT0
0.50 0.50 0.50 C 2511 280 M
0 63 V
0 4528 R
0 -63 V
0 -4668 R
( 27.5771) Cshow
1.000 UL
LT0
0.50 0.50 0.50 C 1.000 UL
LTa
0.50 0.50 0.50 C 2550 280 M
0 4591 V
stroke
LT0
0.50 0.50 0.50 C 2550 280 M
0 63 V
0 4528 R
0 -63 V
0 -4668 R
( 28.2842) Cshow
1.000 UL
LT0
0.50 0.50 0.50 C 1.000 UL
LTa
0.50 0.50 0.50 C 2590 280 M
0 4591 V
stroke
LT0
0.50 0.50 0.50 C 2590 280 M
0 63 V
0 4528 R
0 -63 V
0 -4668 R
( 28.9913) Cshow
1.000 UL
LT0
0.50 0.50 0.50 C 1.000 UL
LTa
0.50 0.50 0.50 C 2630 280 M
0 4591 V
stroke
LT0
0.50 0.50 0.50 C 2630 280 M
0 63 V
0 4528 R
0 -63 V
0 -4668 R
( 29.6985) Cshow
1.000 UL
LT0
0.50 0.50 0.50 C 1.000 UL
LTa
0.50 0.50 0.50 C 2669 280 M
0 4591 V
stroke
LT0
0.50 0.50 0.50 C 2669 280 M
0 63 V
0 4528 R
0 -63 V
0 -4668 R
( 30.4056) Cshow
1.000 UL
LT0
0.50 0.50 0.50 C 1.000 UL
LTa
0.50 0.50 0.50 C 2709 280 M
0 4591 V
stroke
LT0
0.50 0.50 0.50 C 2709 280 M
0 63 V
0 4528 R
0 -63 V
0 -4668 R
( 31.1127) Cshow
1.000 UL
LT0
0.50 0.50 0.50 C 1.000 UL
LTa
0.50 0.50 0.50 C 2748 280 M
0 4591 V
stroke
LT0
0.50 0.50 0.50 C 2748 280 M
0 63 V
0 4528 R
0 -63 V
0 -4668 R
( 31.8198) Cshow
1.000 UL
LT0
0.50 0.50 0.50 C 1.000 UL
LTa
0.50 0.50 0.50 C 2788 280 M
0 4591 V
stroke
LT0
0.50 0.50 0.50 C 2788 280 M
0 63 V
0 4528 R
0 -63 V
0 -4668 R
( 32.5269) Cshow
1.000 UL
LT0
0.50 0.50 0.50 C 1.000 UL
LTa
0.50 0.50 0.50 C 2828 280 M
0 4591 V
stroke
LT0
0.50 0.50 0.50 C 2828 280 M
0 63 V
0 4528 R
0 -63 V
0 -4668 R
( 33.234) Cshow
1.000 UL
LT0
0.50 0.50 0.50 C 1.000 UL
LTa
0.50 0.50 0.50 C 2867 280 M
0 4591 V
stroke
LT0
0.50 0.50 0.50 C 2867 280 M
0 63 V
0 4528 R
0 -63 V
0 -4668 R
( 33.9411) Cshow
1.000 UL
LT0
0.50 0.50 0.50 C 1.000 UL
LTa
0.50 0.50 0.50 C 2907 280 M
0 4591 V
stroke
LT0
0.50 0.50 0.50 C 2907 280 M
0 63 V
0 4528 R
0 -63 V
0 -4668 R
( 34.6482) Cshow
1.000 UL
LT0
0.50 0.50 0.50 C 1.000 UL
LTa
0.50 0.50 0.50 C 2946 280 M
0 4591 V
stroke
LT0
0.50 0.50 0.50 C 2946 280 M
0 63 V
0 4528 R
0 -63 V
0 -4668 R
( 35.3553) Cshow
1.000 UL
LT0
0.50 0.50 0.50 C 1.000 UL
LTa
0.50 0.50 0.50 C 2986 280 M
0 4591 V
stroke
LT0
0.50 0.50 0.50 C 2986 280 M
0 63 V
0 4528 R
0 -63 V
0 -4668 R
( 36.0624) Cshow
1.000 UL
LT0
0.50 0.50 0.50 C 1.000 UL
LTa
0.50 0.50 0.50 C 3026 280 M
0 4591 V
stroke
LT0
0.50 0.50 0.50 C 3026 280 M
0 63 V
0 4528 R
0 -63 V
0 -4668 R
( 36.7695) Cshow
1.000 UL
LT0
0.50 0.50 0.50 C 1.000 UL
LTa
0.50 0.50 0.50 C 3065 280 M
0 4591 V
stroke
LT0
0.50 0.50 0.50 C 3065 280 M
0 63 V
0 4528 R
0 -63 V
0 -4668 R
( 37.4766) Cshow
1.000 UL
LT0
0.50 0.50 0.50 C 1.000 UL
LTa
0.50 0.50 0.50 C 3105 280 M
0 4591 V
stroke
LT0
0.50 0.50 0.50 C 3105 280 M
0 63 V
0 4528 R
0 -63 V
0 -4668 R
( 38.1837) Cshow
1.000 UL
LT0
0.50 0.50 0.50 C 1.000 UL
LTa
0.50 0.50 0.50 C 3145 280 M
0 4591 V
stroke
LT0
0.50 0.50 0.50 C 3145 280 M
0 63 V
0 4528 R
0 -63 V
0 -4668 R
( 38.8908) Cshow
1.000 UL
LT0
0.50 0.50 0.50 C 1.000 UL
LTa
0.50 0.50 0.50 C 3184 280 M
0 4591 V
stroke
LT0
0.50 0.50 0.50 C 3184 280 M
0 63 V
0 4528 R
0 -63 V
0 -4668 R
( 39.5979) Cshow
1.000 UL
LT0
0.50 0.50 0.50 C 1.000 UL
LTa
0.50 0.50 0.50 C 3224 280 M
0 4591 V
stroke
LT0
0.50 0.50 0.50 C 3224 280 M
0 63 V
0 4528 R
0 -63 V
0 -4668 R
( 40.305) Cshow
1.000 UL
LT0
0.50 0.50 0.50 C 1.000 UL
LTa
0.50 0.50 0.50 C 3263 280 M
0 4591 V
stroke
LT0
0.50 0.50 0.50 C 3263 280 M
0 63 V
0 4528 R
0 -63 V
0 -4668 R
( 41.0121) Cshow
1.000 UL
LT0
0.50 0.50 0.50 C 1.000 UL
LTa
0.50 0.50 0.50 C 3303 280 M
0 4591 V
stroke
LT0
0.50 0.50 0.50 C 3303 280 M
0 63 V
0 4528 R
0 -63 V
0 -4668 R
( 41.7193) Cshow
1.000 UL
LT0
0.50 0.50 0.50 C 1.000 UL
LTa
0.50 0.50 0.50 C 3343 280 M
0 4591 V
stroke
LT0
0.50 0.50 0.50 C 3343 280 M
0 63 V
0 4528 R
0 -63 V
0 -4668 R
( 42.4264) Cshow
1.000 UL
LT0
0.50 0.50 0.50 C 1.000 UL
LTa
0.50 0.50 0.50 C 3382 280 M
0 4591 V
stroke
LT0
0.50 0.50 0.50 C 3382 280 M
0 63 V
0 4528 R
0 -63 V
0 -4668 R
( 43.1335) Cshow
1.000 UL
LT0
0.50 0.50 0.50 C 1.000 UL
LTa
0.50 0.50 0.50 C 3422 280 M
0 4591 V
stroke
LT0
0.50 0.50 0.50 C 3422 280 M
0 63 V
0 4528 R
0 -63 V
0 -4668 R
( 43.8406) Cshow
1.000 UL
LT0
0.50 0.50 0.50 C 1.000 UL
LTa
0.50 0.50 0.50 C 3461 280 M
0 4591 V
stroke
LT0
0.50 0.50 0.50 C 3461 280 M
0 63 V
0 4528 R
0 -63 V
0 -4668 R
( 44.5477) Cshow
1.000 UL
LT0
0.50 0.50 0.50 C 1.000 UL
LTa
0.50 0.50 0.50 C 3501 280 M
0 4591 V
stroke
LT0
0.50 0.50 0.50 C 3501 280 M
0 63 V
0 4528 R
0 -63 V
0 -4668 R
( 45.2548) Cshow
1.000 UL
LT0
0.50 0.50 0.50 C 1.000 UL
LTa
0.50 0.50 0.50 C 3541 280 M
0 4591 V
stroke
LT0
0.50 0.50 0.50 C 3541 280 M
0 63 V
0 4528 R
0 -63 V
0 -4668 R
( 45.9619) Cshow
1.000 UL
LT0
0.50 0.50 0.50 C 1.000 UL
LTa
0.50 0.50 0.50 C 3580 280 M
0 4591 V
stroke
LT0
0.50 0.50 0.50 C 3580 280 M
0 63 V
0 4528 R
0 -63 V
0 -4668 R
( 46.669) Cshow
1.000 UL
LT0
0.50 0.50 0.50 C 1.000 UL
LTa
0.50 0.50 0.50 C 3620 280 M
0 4591 V
stroke
LT0
0.50 0.50 0.50 C 3620 280 M
0 63 V
0 4528 R
0 -63 V
0 -4668 R
( 47.3761) Cshow
1.000 UL
LT0
0.50 0.50 0.50 C 1.000 UL
LTa
0.50 0.50 0.50 C 3659 280 M
0 4591 V
stroke
LT0
0.50 0.50 0.50 C 3659 280 M
0 63 V
0 4528 R
0 -63 V
0 -4668 R
( 48.0832) Cshow
1.000 UL
LT0
0.50 0.50 0.50 C 1.000 UL
LTa
0.50 0.50 0.50 C 3699 280 M
0 4591 V
stroke
LT0
0.50 0.50 0.50 C 3699 280 M
0 63 V
0 4528 R
0 -63 V
0 -4668 R
( 48.7903) Cshow
1.000 UL
LT0
0.50 0.50 0.50 C 1.000 UL
LTa
0.50 0.50 0.50 C 3739 280 M
0 4591 V
stroke
LT0
0.50 0.50 0.50 C 3739 280 M
0 63 V
0 4528 R
0 -63 V
0 -4668 R
( 49.4974) Cshow
1.000 UL
LT0
0.50 0.50 0.50 C 1.000 UL
LTa
0.50 0.50 0.50 C 3778 280 M
0 4591 V
stroke
LT0
0.50 0.50 0.50 C 3778 280 M
0 63 V
0 4528 R
0 -63 V
0 -4668 R
( 50.2045) Cshow
1.000 UL
LT0
0.50 0.50 0.50 C 1.000 UL
LTa
0.50 0.50 0.50 C 3818 280 M
0 4591 V
stroke
LT0
0.50 0.50 0.50 C 3818 280 M
0 63 V
0 4528 R
0 -63 V
0 -4668 R
( 50.9116) Cshow
1.000 UL
LT0
0.50 0.50 0.50 C 1.000 UL
LTa
0.50 0.50 0.50 C 3857 280 M
0 4591 V
stroke
LT0
0.50 0.50 0.50 C 3857 280 M
0 63 V
0 4528 R
0 -63 V
0 -4668 R
( 51.6187) Cshow
1.000 UL
LT0
0.50 0.50 0.50 C 1.000 UL
LTa
0.50 0.50 0.50 C 3897 280 M
0 4591 V
stroke
LT0
0.50 0.50 0.50 C 3897 280 M
0 63 V
0 4528 R
0 -63 V
0 -4668 R
( 52.3258) Cshow
1.000 UL
LT0
0.50 0.50 0.50 C 1.000 UL
LTa
0.50 0.50 0.50 C 3937 280 M
0 4591 V
stroke
LT0
0.50 0.50 0.50 C 3937 280 M
0 63 V
0 4528 R
0 -63 V
0 -4668 R
( 53.033) Cshow
1.000 UL
LT0
0.50 0.50 0.50 C 1.000 UL
LTa
0.50 0.50 0.50 C 3976 280 M
0 4591 V
stroke
LT0
0.50 0.50 0.50 C 3976 280 M
0 63 V
0 4528 R
0 -63 V
0 -4668 R
( 53.7401) Cshow
1.000 UL
LT0
0.50 0.50 0.50 C 1.000 UL
LTa
0.50 0.50 0.50 C 4016 280 M
0 4591 V
stroke
LT0
0.50 0.50 0.50 C 4016 280 M
0 63 V
0 4528 R
0 -63 V
0 -4668 R
( 54.4472) Cshow
1.000 UL
LT0
0.50 0.50 0.50 C 1.000 UL
LTa
0.50 0.50 0.50 C 4056 280 M
0 4591 V
stroke
LT0
0.50 0.50 0.50 C 4056 280 M
0 63 V
0 4528 R
0 -63 V
0 -4668 R
( 55.1543) Cshow
1.000 UL
LT0
0.50 0.50 0.50 C 1.000 UL
LTa
0.50 0.50 0.50 C 4095 280 M
0 4591 V
stroke
LT0
0.50 0.50 0.50 C 4095 280 M
0 63 V
0 4528 R
0 -63 V
0 -4668 R
( 55.8614) Cshow
1.000 UL
LT0
0.50 0.50 0.50 C 1.000 UL
LTa
0.50 0.50 0.50 C 4135 280 M
0 4591 V
stroke
LT0
0.50 0.50 0.50 C 4135 280 M
0 63 V
0 4528 R
0 -63 V
0 -4668 R
( 56.5685) Cshow
1.000 UL
LT0
0.50 0.50 0.50 C 1.000 UL
LTa
0.50 0.50 0.50 C 4174 280 M
0 4591 V
stroke
LT0
0.50 0.50 0.50 C 4174 280 M
0 63 V
0 4528 R
0 -63 V
0 -4668 R
( 57.2756) Cshow
1.000 UL
LT0
0.50 0.50 0.50 C 1.000 UL
LTa
0.50 0.50 0.50 C 4214 280 M
0 4591 V
stroke
LT0
0.50 0.50 0.50 C 4214 280 M
0 63 V
0 4528 R
0 -63 V
0 -4668 R
( 57.9827) Cshow
1.000 UL
LT0
0.50 0.50 0.50 C 1.000 UL
LTa
0.50 0.50 0.50 C 4254 280 M
0 4591 V
stroke
LT0
0.50 0.50 0.50 C 4254 280 M
0 63 V
0 4528 R
0 -63 V
0 -4668 R
( 58.6898) Cshow
1.000 UL
LT0
0.50 0.50 0.50 C 1.000 UL
LTa
0.50 0.50 0.50 C 4293 280 M
0 4591 V
stroke
LT0
0.50 0.50 0.50 C 4293 280 M
0 63 V
0 4528 R
0 -63 V
0 -4668 R
( 59.3969) Cshow
1.000 UL
LT0
0.50 0.50 0.50 C 1.000 UL
LTa
0.50 0.50 0.50 C 4333 280 M
0 4591 V
stroke
LT0
0.50 0.50 0.50 C 4333 280 M
0 63 V
0 4528 R
0 -63 V
0 -4668 R
( 60.104) Cshow
1.000 UL
LT0
0.50 0.50 0.50 C 1.000 UL
LTa
0.50 0.50 0.50 C 4372 280 M
0 4591 V
stroke
LT0
0.50 0.50 0.50 C 4372 280 M
0 63 V
0 4528 R
0 -63 V
0 -4668 R
( 60.8111) Cshow
1.000 UL
LT0
0.50 0.50 0.50 C 1.000 UL
LTa
0.50 0.50 0.50 C 4412 280 M
0 4591 V
stroke
LT0
0.50 0.50 0.50 C 4412 280 M
0 63 V
0 4528 R
0 -63 V
0 -4668 R
( 61.5182) Cshow
1.000 UL
LT0
0.50 0.50 0.50 C 1.000 UL
LTa
0.50 0.50 0.50 C 4452 280 M
0 4591 V
stroke
LT0
0.50 0.50 0.50 C 4452 280 M
0 63 V
0 4528 R
0 -63 V
0 -4668 R
( 62.2253) Cshow
1.000 UL
LT0
0.50 0.50 0.50 C 1.000 UL
LTa
0.50 0.50 0.50 C 4491 280 M
0 4591 V
stroke
LT0
0.50 0.50 0.50 C 4491 280 M
0 63 V
0 4528 R
0 -63 V
0 -4668 R
( 62.9324) Cshow
1.000 UL
LT0
0.50 0.50 0.50 C 1.000 UL
LTa
0.50 0.50 0.50 C 4531 280 M
0 4591 V
stroke
LT0
0.50 0.50 0.50 C 4531 280 M
0 63 V
0 4528 R
0 -63 V
0 -4668 R
( 63.6395) Cshow
1.000 UL
LT0
0.50 0.50 0.50 C 1.000 UL
LTa
0.50 0.50 0.50 C 4570 280 M
0 4591 V
stroke
LT0
0.50 0.50 0.50 C 4570 280 M
0 63 V
0 4528 R
0 -63 V
0 -4668 R
( 64.3466) Cshow
1.000 UL
LT0
0.50 0.50 0.50 C 1.000 UL
LTa
0.50 0.50 0.50 C 4610 280 M
0 4591 V
stroke
LT0
0.50 0.50 0.50 C 4610 280 M
0 63 V
0 4528 R
0 -63 V
0 -4668 R
( 65.0538) Cshow
1.000 UL
LT0
0.50 0.50 0.50 C 1.000 UL
LTa
0.50 0.50 0.50 C 4650 280 M
0 4591 V
stroke
LT0
0.50 0.50 0.50 C 4650 280 M
0 63 V
0 4528 R
0 -63 V
0 -4668 R
( 65.7609) Cshow
1.000 UL
LT0
0.50 0.50 0.50 C 1.000 UL
LTa
0.50 0.50 0.50 C 4689 280 M
0 4591 V
stroke
LT0
0.50 0.50 0.50 C 4689 280 M
0 63 V
0 4528 R
0 -63 V
0 -4668 R
( 66.468) Cshow
1.000 UL
LT0
0.50 0.50 0.50 C 1.000 UL
LTa
0.50 0.50 0.50 C 4729 280 M
0 4591 V
stroke
LT0
0.50 0.50 0.50 C 4729 280 M
0 63 V
0 4528 R
0 -63 V
0 -4668 R
( 67.1751) Cshow
1.000 UL
LT0
0.50 0.50 0.50 C 1.000 UL
LTa
0.50 0.50 0.50 C 4768 280 M
0 4591 V
stroke
LT0
0.50 0.50 0.50 C 4768 280 M
0 63 V
0 4528 R
0 -63 V
0 -4668 R
( 67.8822) Cshow
1.000 UL
LT0
0.50 0.50 0.50 C 1.000 UL
LTa
0.50 0.50 0.50 C 4808 280 M
0 4591 V
stroke
LT0
0.50 0.50 0.50 C 4808 280 M
0 63 V
0 4528 R
0 -63 V
0 -4668 R
( 68.5893) Cshow
1.000 UL
LT0
0.50 0.50 0.50 C 1.000 UL
LTa
0.50 0.50 0.50 C 4848 280 M
0 4591 V
stroke
LT0
0.50 0.50 0.50 C 4848 280 M
0 63 V
0 4528 R
0 -63 V
0 -4668 R
( 69.2964) Cshow
1.000 UL
LT0
0.50 0.50 0.50 C 1.000 UL
LTa
0.50 0.50 0.50 C 4887 280 M
0 4591 V
stroke
LT0
0.50 0.50 0.50 C 4887 280 M
0 63 V
0 4528 R
0 -63 V
0 -4668 R
( 70.0035) Cshow
1.000 UL
LT0
0.50 0.50 0.50 C 1.000 UL
LTa
0.50 0.50 0.50 C 4927 280 M
0 4591 V
stroke
LT0
0.50 0.50 0.50 C 4927 280 M
0 63 V
0 4528 R
0 -63 V
0 -4668 R
( 70.7106) Cshow
1.000 UL
LT0
0.50 0.50 0.50 C 1.000 UL
LTa
0.50 0.50 0.50 C 4967 280 M
0 4591 V
stroke
LT0
0.50 0.50 0.50 C 4967 280 M
0 63 V
0 4528 R
0 -63 V
0 -4668 R
( 71.4177) Cshow
1.000 UL
LT0
0.50 0.50 0.50 C 1.000 UL
LTa
0.50 0.50 0.50 C 5006 280 M
0 4591 V
stroke
LT0
0.50 0.50 0.50 C 5006 280 M
0 63 V
0 4528 R
0 -63 V
0 -4668 R
( 72.1248) Cshow
1.000 UL
LT0
0.50 0.50 0.50 C 1.000 UL
LTa
0.50 0.50 0.50 C 5046 280 M
0 4591 V
stroke
LT0
0.50 0.50 0.50 C 5046 280 M
0 63 V
0 4528 R
0 -63 V
0 -4668 R
( 72.8319) Cshow
1.000 UL
LT0
0.50 0.50 0.50 C 1.000 UL
LTa
0.50 0.50 0.50 C 5085 280 M
0 4591 V
stroke
LT0
0.50 0.50 0.50 C 5085 280 M
0 63 V
0 4528 R
0 -63 V
0 -4668 R
( 73.539) Cshow
1.000 UL
LT0
0.50 0.50 0.50 C 1.000 UL
LTa
0.50 0.50 0.50 C 5125 280 M
0 4591 V
stroke
LT0
0.50 0.50 0.50 C 5125 280 M
0 63 V
0 4528 R
0 -63 V
0 -4668 R
( 74.2461) Cshow
1.000 UL
LT0
0.50 0.50 0.50 C 1.000 UL
LTa
0.50 0.50 0.50 C 5165 280 M
0 4591 V
stroke
LT0
0.50 0.50 0.50 C 5165 280 M
0 63 V
0 4528 R
0 -63 V
0 -4668 R
( 74.9532) Cshow
1.000 UL
LT0
0.50 0.50 0.50 C 1.000 UL
LTa
0.50 0.50 0.50 C 5204 280 M
0 4591 V
stroke
LT0
0.50 0.50 0.50 C 5204 280 M
0 63 V
0 4528 R
0 -63 V
0 -4668 R
( 75.6603) Cshow
1.000 UL
LT0
0.50 0.50 0.50 C 1.000 UL
LTa
0.50 0.50 0.50 C 5244 280 M
0 4591 V
stroke
LT0
0.50 0.50 0.50 C 5244 280 M
0 63 V
0 4528 R
0 -63 V
0 -4668 R
( 76.3674) Cshow
1.000 UL
LT0
0.50 0.50 0.50 C 1.000 UL
LTa
0.50 0.50 0.50 C 5283 280 M
0 4591 V
stroke
LT0
0.50 0.50 0.50 C 5283 280 M
0 63 V
0 4528 R
0 -63 V
0 -4668 R
( 77.0746) Cshow
1.000 UL
LT0
0.50 0.50 0.50 C 1.000 UL
LTa
0.50 0.50 0.50 C 5323 280 M
0 4591 V
stroke
LT0
0.50 0.50 0.50 C 5323 280 M
0 63 V
0 4528 R
0 -63 V
0 -4668 R
( 77.7817) Cshow
1.000 UL
LT0
0.50 0.50 0.50 C 1.000 UL
LTa
0.50 0.50 0.50 C 5363 280 M
0 4591 V
stroke
LT0
0.50 0.50 0.50 C 5363 280 M
0 63 V
0 4528 R
0 -63 V
0 -4668 R
( 78.4888) Cshow
1.000 UL
LT0
0.50 0.50 0.50 C 1.000 UL
LTa
0.50 0.50 0.50 C 5402 280 M
0 4591 V
stroke
LT0
0.50 0.50 0.50 C 5402 280 M
0 63 V
0 4528 R
0 -63 V
0 -4668 R
( 79.1959) Cshow
1.000 UL
LT0
0.50 0.50 0.50 C 1.000 UL
LTa
0.50 0.50 0.50 C 5442 280 M
0 4591 V
stroke
LT0
0.50 0.50 0.50 C 5442 280 M
0 63 V
0 4528 R
0 -63 V
0 -4668 R
( 79.903) Cshow
1.000 UL
LT0
0.50 0.50 0.50 C 1.000 UL
LTa
0.50 0.50 0.50 C 5481 280 M
0 4591 V
stroke
LT0
0.50 0.50 0.50 C 5481 280 M
0 63 V
0 4528 R
0 -63 V
0 -4668 R
( 80.6101) Cshow
1.000 UL
LT0
0.50 0.50 0.50 C 1.000 UL
LTa
0.50 0.50 0.50 C 5521 280 M
0 4591 V
stroke
LT0
0.50 0.50 0.50 C 5521 280 M
0 63 V
0 4528 R
0 -63 V
0 -4668 R
( 81.3172) Cshow
1.000 UL
LT0
0.50 0.50 0.50 C 1.000 UL
LTa
0.50 0.50 0.50 C 5561 280 M
0 4591 V
stroke
LT0
0.50 0.50 0.50 C 5561 280 M
0 63 V
0 4528 R
0 -63 V
0 -4668 R
( 82.0243) Cshow
1.000 UL
LT0
0.50 0.50 0.50 C 1.000 UL
LTa
0.50 0.50 0.50 C 5600 280 M
0 4591 V
stroke
LT0
0.50 0.50 0.50 C 5600 280 M
0 63 V
0 4528 R
0 -63 V
0 -4668 R
( 82.7314) Cshow
1.000 UL
LT0
0.50 0.50 0.50 C 1.000 UL
LTa
0.50 0.50 0.50 C 5640 280 M
0 4591 V
stroke
LT0
0.50 0.50 0.50 C 5640 280 M
0 63 V
0 4528 R
0 -63 V
0 -4668 R
( 83.4385) Cshow
1.000 UL
LT0
0.50 0.50 0.50 C 1.000 UL
LTa
0.50 0.50 0.50 C 5680 280 M
0 4591 V
stroke
LT0
0.50 0.50 0.50 C 5680 280 M
0 63 V
0 4528 R
0 -63 V
0 -4668 R
( 84.1456) Cshow
1.000 UL
LT0
0.50 0.50 0.50 C 1.000 UL
LTa
0.50 0.50 0.50 C 5719 280 M
0 4591 V
stroke
LT0
0.50 0.50 0.50 C 5719 280 M
0 63 V
0 4528 R
0 -63 V
0 -4668 R
( 84.8527) Cshow
1.000 UL
LT0
0.50 0.50 0.50 C 1.000 UL
LTa
0.50 0.50 0.50 C 5759 280 M
0 4591 V
stroke
LT0
0.50 0.50 0.50 C 5759 280 M
0 63 V
0 4528 R
0 -63 V
0 -4668 R
( 85.5598) Cshow
1.000 UL
LT0
0.50 0.50 0.50 C 1.000 UL
LTa
0.50 0.50 0.50 C 5798 280 M
0 4591 V
stroke
LT0
0.50 0.50 0.50 C 5798 280 M
0 63 V
0 4528 R
0 -63 V
0 -4668 R
( 86.2669) Cshow
1.000 UL
LT0
0.50 0.50 0.50 C 1.000 UL
LTa
0.50 0.50 0.50 C 5838 280 M
0 4591 V
stroke
LT0
0.50 0.50 0.50 C 5838 280 M
0 63 V
0 4528 R
0 -63 V
0 -4668 R
( 86.974) Cshow
1.000 UL
LT0
0.50 0.50 0.50 C 1.000 UL
LTa
0.50 0.50 0.50 C 5878 280 M
0 4591 V
stroke
LT0
0.50 0.50 0.50 C 5878 280 M
0 63 V
0 4528 R
0 -63 V
0 -4668 R
( 87.6811) Cshow
1.000 UL
LT0
0.50 0.50 0.50 C 1.000 UL
LTa
0.50 0.50 0.50 C 5917 280 M
0 4591 V
stroke
LT0
0.50 0.50 0.50 C 5917 280 M
0 63 V
0 4528 R
0 -63 V
0 -4668 R
( 88.3882) Cshow
1.000 UL
LT0
0.50 0.50 0.50 C 1.000 UL
LTa
0.50 0.50 0.50 C 5957 280 M
0 4591 V
stroke
LT0
0.50 0.50 0.50 C 5957 280 M
0 63 V
0 4528 R
0 -63 V
0 -4668 R
( 89.0954) Cshow
1.000 UL
LT0
0.50 0.50 0.50 C 1.000 UL
LTa
0.50 0.50 0.50 C 5996 280 M
0 4591 V
stroke
LT0
0.50 0.50 0.50 C 5996 280 M
0 63 V
0 4528 R
0 -63 V
0 -4668 R
( 89.8025) Cshow
1.000 UL
LT0
0.50 0.50 0.50 C 1.000 UL
LTa
0.50 0.50 0.50 C 6036 280 M
0 4591 V
stroke
LT0
0.50 0.50 0.50 C 6036 280 M
0 63 V
0 4528 R
0 -63 V
0 -4668 R
( 90.5096) Cshow
1.000 UL
LT0
0.50 0.50 0.50 C 1.000 UL
LTa
0.50 0.50 0.50 C 6076 280 M
0 4591 V
stroke
LT0
0.50 0.50 0.50 C 6076 280 M
0 63 V
0 4528 R
0 -63 V
0 -4668 R
( 91.2167) Cshow
1.000 UL
LT0
0.50 0.50 0.50 C 1.000 UL
LTa
0.50 0.50 0.50 C 6115 280 M
0 4591 V
stroke
LT0
0.50 0.50 0.50 C 6115 280 M
0 63 V
0 4528 R
0 -63 V
0 -4668 R
( 91.9238) Cshow
1.000 UL
LT0
0.50 0.50 0.50 C 1.000 UL
LTa
0.50 0.50 0.50 C 6155 280 M
0 4591 V
stroke
LT0
0.50 0.50 0.50 C 6155 280 M
0 63 V
0 4528 R
0 -63 V
0 -4668 R
( 92.6309) Cshow
1.000 UL
LT0
0.50 0.50 0.50 C 1.000 UL
LTa
0.50 0.50 0.50 C 6194 280 M
0 4591 V
stroke
LT0
0.50 0.50 0.50 C 6194 280 M
0 63 V
0 4528 R
0 -63 V
0 -4668 R
( 93.338) Cshow
1.000 UL
LT0
0.50 0.50 0.50 C 1.000 UL
LTa
0.50 0.50 0.50 C 6234 280 M
0 4591 V
stroke
LT0
0.50 0.50 0.50 C 6234 280 M
0 63 V
0 4528 R
0 -63 V
0 -4668 R
( 94.0451) Cshow
1.000 UL
LT0
0.50 0.50 0.50 C 1.000 UL
LTa
0.50 0.50 0.50 C 6274 280 M
0 4591 V
stroke
LT0
0.50 0.50 0.50 C 6274 280 M
0 63 V
0 4528 R
0 -63 V
0 -4668 R
( 94.7522) Cshow
1.000 UL
LT0
0.50 0.50 0.50 C 1.000 UL
LTa
0.50 0.50 0.50 C 6313 280 M
0 4591 V
stroke
LT0
0.50 0.50 0.50 C 6313 280 M
0 63 V
0 4528 R
0 -63 V
0 -4668 R
( 95.4593) Cshow
1.000 UL
LT0
0.50 0.50 0.50 C 1.000 UL
LTa
0.50 0.50 0.50 C 6353 280 M
0 4591 V
stroke
LT0
0.50 0.50 0.50 C 6353 280 M
0 63 V
0 4528 R
0 -63 V
0 -4668 R
( 96.1664) Cshow
1.000 UL
LT0
0.50 0.50 0.50 C 1.000 UL
LTa
0.50 0.50 0.50 C 6392 280 M
0 4591 V
stroke
LT0
0.50 0.50 0.50 C 6392 280 M
0 63 V
0 4528 R
0 -63 V
0 -4668 R
( 96.8735) Cshow
1.000 UL
LT0
0.50 0.50 0.50 C 1.000 UL
LTa
0.50 0.50 0.50 C 6432 280 M
0 4591 V
stroke
LT0
0.50 0.50 0.50 C 6432 280 M
0 63 V
0 4528 R
0 -63 V
0 -4668 R
( 97.5806) Cshow
1.000 UL
LT0
0.50 0.50 0.50 C 1.000 UL
LTa
0.50 0.50 0.50 C 6472 280 M
0 4591 V
stroke
LT0
0.50 0.50 0.50 C 6472 280 M
0 63 V
0 4528 R
0 -63 V
0 -4668 R
( 98.2877) Cshow
1.000 UL
LT0
0.50 0.50 0.50 C 1.000 UL
LTa
0.50 0.50 0.50 C 6511 280 M
0 4591 V
stroke
LT0
0.50 0.50 0.50 C 6511 280 M
0 63 V
0 4528 R
0 -63 V
0 -4668 R
( 98.9948) Cshow
1.000 UL
LT0
0.50 0.50 0.50 C 1.000 UL
LTa
0.50 0.50 0.50 C 6551 280 M
0 4591 V
stroke
LT0
0.50 0.50 0.50 C 6551 280 M
0 63 V
0 4528 R
0 -63 V
0 -4668 R
( 99.7019) Cshow
1.000 UL
LT0
0.50 0.50 0.50 C 1.000 UL
LTa
0.50 0.50 0.50 C 6591 280 M
0 4591 V
stroke
LT0
0.50 0.50 0.50 C 6591 280 M
0 63 V
0 4528 R
0 -63 V
0 -4668 R
( 100.409) Cshow
1.000 UL
LT0
0.50 0.50 0.50 C 1.000 UL
LTa
0.50 0.50 0.50 C 6630 280 M
0 4591 V
stroke
LT0
0.50 0.50 0.50 C 6630 280 M
0 63 V
0 4528 R
0 -63 V
0 -4668 R
( 101.116) Cshow
1.000 UL
LT0
0.50 0.50 0.50 C 1.000 UL
LTa
0.50 0.50 0.50 C 6670 280 M
0 4591 V
stroke
LT0
0.50 0.50 0.50 C 6670 280 M
0 63 V
0 4528 R
0 -63 V
0 -4668 R
( 101.823) Cshow
1.000 UL
LT0
0.50 0.50 0.50 C 1.000 UL
LTa
0.50 0.50 0.50 C 6709 280 M
0 4591 V
stroke
LT0
0.50 0.50 0.50 C 6709 280 M
0 63 V
0 4528 R
0 -63 V
0 -4668 R
( 102.53) Cshow
1.000 UL
LT0
0.50 0.50 0.50 C 1.000 UL
LTa
0.50 0.50 0.50 C 6749 280 M
0 4591 V
stroke
LT0
0.50 0.50 0.50 C 6749 280 M
0 63 V
0 4528 R
0 -63 V
0 -4668 R
( 103.237) Cshow
1.000 UL
LT0
0.50 0.50 0.50 C 1.000 UL
LTa
0.50 0.50 0.50 C 6789 280 M
0 4591 V
stroke
LT0
0.50 0.50 0.50 C 6789 280 M
0 63 V
0 4528 R
0 -63 V
0 -4668 R
( 103.945) Cshow
1.000 UL
LT0
0.50 0.50 0.50 C 1.000 UL
LTa
0.50 0.50 0.50 C 6828 280 M
0 4591 V
stroke
LT0
0.50 0.50 0.50 C 6828 280 M
0 63 V
0 4528 R
0 -63 V
0 -4668 R
( 104.652) Cshow
1.000 UL
LT0
0.50 0.50 0.50 C 1.000 UL
LTa
0.50 0.50 0.50 C 6868 280 M
0 4591 V
stroke
LT0
0.50 0.50 0.50 C 6868 280 M
0 63 V
0 4528 R
0 -63 V
0 -4668 R
( 105.359) Cshow
1.000 UL
LT0
0.50 0.50 0.50 C 1.000 UL
LTa
0.50 0.50 0.50 C 6907 280 M
0 4591 V
stroke
LT0
0.50 0.50 0.50 C 6907 280 M
0 63 V
0 4528 R
0 -63 V
0 -4668 R
( 106.066) Cshow
1.000 UL
LT0
0.50 0.50 0.50 C 1.000 UL
LTa
0.50 0.50 0.50 C 6947 280 M
0 4591 V
stroke
LT0
0.50 0.50 0.50 C 6947 280 M
0 63 V
0 4528 R
0 -63 V
0 -4668 R
( 106.773) Cshow
1.000 UL
LT0
0.50 0.50 0.50 C 1.000 UL
LT0
0.50 0.50 0.50 C 966 4871 M
966 280 L
5981 0 V
0 4591 R
-5981 0 R
1.000 UP
stroke
LT0
0.50 0.50 0.50 C % Begin plot #1
1.500 UP
2.000 UL
LT0
0.00 0.00 1.00 C /Helvetica findfont 140 scalefont setfont
/vshift -46 def
966 736 M
40 0 V
39 0 V
40 0 V
39 0 V
40 0 V
0 30 R
40 0 V
0 152 R
39 0 V
0 244 R
40 0 V
0 30 R
39 0 V
0 31 R
40 0 V
0 30 R
40 0 V
39 0 V
40 0 V
40 0 V
39 0 V
40 0 V
39 0 V
40 0 V
40 0 V
39 0 V
0 91 R
40 0 V
0 31 R
39 0 V
0 121 R
40 0 V
0 91 R
40 0 V
39 0 V
40 0 V
39 0 V
40 0 V
40 0 V
39 0 V
40 0 V
0 31 R
39 0 V
40 0 V
0 30 R
40 0 V
0 487 R
39 0 V
40 0 V
40 0 V
0 30 R
39 0 V
40 0 V
0 213 R
39 0 V
40 0 V
40 0 V
39 0 V
0 61 R
40 0 V
39 0 V
40 0 V
40 0 V
0 30 R
39 0 V
0 30 R
40 0 V
39 0 V
40 0 V
40 0 V
39 0 V
40 0 V
0 31 R
40 0 V
39 0 V
40 0 V
39 0 V
0 30 R
40 0 V
0 122 R
40 0 V
39 0 V
0 152 R
40 0 V
0 30 R
39 0 V
40 0 V
40 0 V
39 0 V
40 0 V
39 0 V
40 0 V
40 0 V
39 0 V
40 0 V
0 61 R
39 0 V
0 31 R
40 0 V
0 182 R
40 0 V
39 0 V
40 0 V
40 0 V
stroke 4056 3138 M
39 0 V
40 0 V
39 0 V
40 0 V
40 0 V
39 0 V
40 0 V
39 0 V
40 0 V
40 0 V
39 0 V
0 213 R
40 0 V
0 30 R
39 0 V
0 91 R
40 0 V
0 183 R
40 0 V
0 30 R
39 0 V
0 61 R
40 0 V
0 182 R
39 0 V
0 31 R
40 0 V
0 30 R
40 0 V
0 152 R
39 0 V
0 122 R
40 0 V
0 30 R
40 0 V
0 31 R
39 0 V
40 0 V
0 30 R
39 0 V
40 0 V
40 0 V
0 31 R
39 0 V
40 0 V
39 0 V
40 0 V
40 0 V
0 30 R
39 0 V
40 0 V
39 0 V
40 0 V
40 0 V
39 0 V
40 0 V
0 61 R
40 0 V
39 0 V
40 0 V
39 0 V
40 0 V
40 0 V
39 0 V
40 0 V
39 0 V
0 30 R
40 0 V
0 183 R
40 0 V
0 30 R
39 0 V
40 0 V
39 0 V
674 122 R
39 0 V
-713 0 R
40 0 V
40 0 V
39 0 V
40 0 V
39 0 V
40 0 V
40 0 V
39 0 V
40 0 V
40 0 V
39 0 V
40 0 V
39 0 V
40 0 V
40 0 V
39 0 V
40 0 V
1164 736 M
0 30 V
40 0 R
0 31 V
0 30 V
0 31 V
0 30 V
0 30 V
39 0 R
0 31 V
stroke 1243 949 M
0 30 V
0 31 V
0 30 V
0 31 V
0 30 V
0 30 V
0 31 V
40 0 R
0 30 V
39 0 R
0 31 V
40 0 R
0 30 V
396 0 R
0 30 V
0 31 V
0 30 V
40 0 R
0 31 V
39 0 R
0 30 V
0 30 V
0 31 V
0 30 V
40 0 R
0 31 V
0 30 V
0 30 V
317 0 R
0 31 V
79 0 R
0 30 V
40 0 R
0 31 V
0 30 V
0 30 V
0 31 V
0 30 V
0 31 V
0 30 V
0 30 V
0 31 V
0 30 V
0 31 V
0 30 V
0 30 V
0 31 V
0 30 V
0 31 V
119 0 R
0 30 V
79 0 R
0 30 V
0 31 V
0 30 V
0 31 V
0 30 V
0 30 V
0 31 V
158 0 R
0 30 V
0 31 V
159 0 R
0 30 V
39 0 R
0 30 V
238 0 R
0 31 V
158 0 R
0 30 V
40 0 R
0 31 V
0 30 V
0 31 V
0 30 V
79 0 R
0 30 V
0 31 V
0 30 V
0 31 V
0 30 V
40 0 R
0 30 V
396 0 R
0 31 V
0 30 V
39 0 R
0 31 V
40 0 R
0 30 V
0 30 V
0 31 V
0 30 V
0 31 V
0 30 V
594 0 R
0 30 V
0 31 V
0 30 V
0 31 V
0 30 V
0 30 V
0 31 V
40 0 R
0 30 V
stroke 4531 3381 M
39 0 R
0 31 V
0 30 V
0 30 V
40 0 R
0 31 V
0 30 V
0 31 V
0 30 V
0 30 V
0 31 V
40 0 R
0 30 V
39 0 R
0 31 V
0 30 V
40 0 R
0 30 V
0 31 V
0 30 V
0 31 V
0 30 V
0 30 V
39 0 R
0 31 V
40 0 R
0 30 V
40 0 R
0 31 V
0 30 V
0 30 V
0 31 V
0 30 V
39 0 R
0 31 V
0 30 V
0 31 V
0 30 V
40 0 R
0 30 V
40 0 R
0 31 V
79 0 R
0 30 V
119 0 R
0 31 V
198 0 R
0 30 V
277 0 R
0 30 V
0 31 V
356 0 R
0 30 V
40 0 R
0 31 V
0 30 V
0 30 V
0 31 V
0 30 V
0 31 V
40 0 R
0 30 V
118 0 R
0 30 V
0 31 V
0 30 V
0 31 V
966 280 M
0 30 V
0 31 V
0 30 V
0 31 V
0 30 V
0 30 V
0 31 V
0 30 V
0 31 V
0 30 V
0 30 V
0 31 V
0 30 V
0 31 V
0 30 V
966 736 CircleF
1006 736 CircleF
1006 736 CircleF
1045 736 CircleF
1045 736 CircleF
1085 736 CircleF
1085 736 CircleF
1124 736 CircleF
1124 736 CircleF
1164 736 CircleF
1164 766 CircleF
1204 766 CircleF
1204 918 CircleF
1243 918 CircleF
1243 1162 CircleF
1283 1162 CircleF
1283 1192 CircleF
1322 1192 CircleF
1322 1223 CircleF
1362 1223 CircleF
1362 1253 CircleF
1402 1253 CircleF
1402 1253 CircleF
1441 1253 CircleF
1441 1253 CircleF
1481 1253 CircleF
1481 1253 CircleF
1521 1253 CircleF
1521 1253 CircleF
1560 1253 CircleF
1560 1253 CircleF
1600 1253 CircleF
1600 1253 CircleF
1639 1253 CircleF
1639 1253 CircleF
1679 1253 CircleF
1679 1253 CircleF
1719 1253 CircleF
1719 1253 CircleF
1758 1253 CircleF
1758 1344 CircleF
1798 1344 CircleF
1798 1375 CircleF
1837 1375 CircleF
1837 1496 CircleF
1877 1496 CircleF
1877 1587 CircleF
1917 1587 CircleF
1917 1587 CircleF
1956 1587 CircleF
1956 1587 CircleF
1996 1587 CircleF
1996 1587 CircleF
2035 1587 CircleF
2035 1587 CircleF
2075 1587 CircleF
2075 1587 CircleF
2115 1587 CircleF
2115 1587 CircleF
2154 1587 CircleF
2154 1587 CircleF
2194 1587 CircleF
2194 1618 CircleF
2233 1618 CircleF
2233 1618 CircleF
2273 1618 CircleF
2273 1648 CircleF
2313 1648 CircleF
2313 2135 CircleF
2352 2135 CircleF
2352 2135 CircleF
2392 2135 CircleF
2392 2135 CircleF
2432 2135 CircleF
2432 2165 CircleF
2471 2165 CircleF
2471 2165 CircleF
2511 2165 CircleF
2511 2378 CircleF
2550 2378 CircleF
2550 2378 CircleF
2590 2378 CircleF
2590 2378 CircleF
2630 2378 CircleF
2630 2378 CircleF
2669 2378 CircleF
2669 2439 CircleF
2709 2439 CircleF
2709 2439 CircleF
2748 2439 CircleF
2748 2439 CircleF
2788 2439 CircleF
2788 2439 CircleF
2828 2439 CircleF
2828 2469 CircleF
2867 2469 CircleF
2867 2499 CircleF
2907 2499 CircleF
2907 2499 CircleF
2946 2499 CircleF
2946 2499 CircleF
2986 2499 CircleF
2986 2499 CircleF
3026 2499 CircleF
3026 2499 CircleF
3065 2499 CircleF
3065 2499 CircleF
3105 2499 CircleF
3105 2530 CircleF
3145 2530 CircleF
3145 2530 CircleF
3184 2530 CircleF
3184 2530 CircleF
3224 2530 CircleF
3224 2530 CircleF
3263 2530 CircleF
3263 2560 CircleF
3303 2560 CircleF
3303 2682 CircleF
3343 2682 CircleF
3343 2682 CircleF
3382 2682 CircleF
3382 2834 CircleF
3422 2834 CircleF
3422 2864 CircleF
3461 2864 CircleF
3461 2864 CircleF
3501 2864 CircleF
3501 2864 CircleF
3541 2864 CircleF
3541 2864 CircleF
3580 2864 CircleF
3580 2864 CircleF
3620 2864 CircleF
3620 2864 CircleF
3659 2864 CircleF
3659 2864 CircleF
3699 2864 CircleF
3699 2864 CircleF
3739 2864 CircleF
3739 2864 CircleF
3778 2864 CircleF
3778 2864 CircleF
3818 2864 CircleF
3818 2925 CircleF
3857 2925 CircleF
3857 2956 CircleF
3897 2956 CircleF
3897 3138 CircleF
3937 3138 CircleF
3937 3138 CircleF
3976 3138 CircleF
3976 3138 CircleF
4016 3138 CircleF
4016 3138 CircleF
4056 3138 CircleF
4056 3138 CircleF
4095 3138 CircleF
4095 3138 CircleF
4135 3138 CircleF
4135 3138 CircleF
4174 3138 CircleF
4174 3138 CircleF
4214 3138 CircleF
4214 3138 CircleF
4254 3138 CircleF
4254 3138 CircleF
4293 3138 CircleF
4293 3138 CircleF
4333 3138 CircleF
4333 3138 CircleF
4372 3138 CircleF
4372 3138 CircleF
4412 3138 CircleF
4412 3138 CircleF
4452 3138 CircleF
4452 3138 CircleF
4491 3138 CircleF
4491 3351 CircleF
4531 3351 CircleF
4531 3381 CircleF
4570 3381 CircleF
4570 3472 CircleF
4610 3472 CircleF
4610 3655 CircleF
4650 3655 CircleF
4650 3685 CircleF
4689 3685 CircleF
4689 3746 CircleF
4729 3746 CircleF
4729 3928 CircleF
4768 3928 CircleF
4768 3959 CircleF
4808 3959 CircleF
4808 3989 CircleF
4848 3989 CircleF
4848 4141 CircleF
4887 4141 CircleF
4887 4263 CircleF
4927 4263 CircleF
4927 4293 CircleF
4967 4293 CircleF
4967 4324 CircleF
5006 4324 CircleF
5006 4324 CircleF
5046 4324 CircleF
5046 4354 CircleF
5085 4354 CircleF
5085 4354 CircleF
5125 4354 CircleF
5125 4354 CircleF
5165 4354 CircleF
5165 4385 CircleF
5204 4385 CircleF
5204 4385 CircleF
5244 4385 CircleF
5244 4385 CircleF
5283 4385 CircleF
5283 4385 CircleF
5323 4385 CircleF
5323 4385 CircleF
5363 4385 CircleF
5363 4415 CircleF
5402 4415 CircleF
5402 4415 CircleF
5442 4415 CircleF
5442 4415 CircleF
5481 4415 CircleF
5481 4415 CircleF
5521 4415 CircleF
5521 4415 CircleF
5561 4415 CircleF
5561 4415 CircleF
5600 4415 CircleF
5600 4415 CircleF
5640 4415 CircleF
5640 4476 CircleF
5680 4476 CircleF
5680 4476 CircleF
5719 4476 CircleF
5719 4476 CircleF
5759 4476 CircleF
5759 4476 CircleF
5798 4476 CircleF
5798 4476 CircleF
5838 4476 CircleF
5838 4476 CircleF
5878 4476 CircleF
5878 4476 CircleF
5917 4476 CircleF
5917 4476 CircleF
5957 4476 CircleF
5957 4476 CircleF
5996 4476 CircleF
5996 4506 CircleF
6036 4506 CircleF
6036 4689 CircleF
6076 4689 CircleF
6076 4719 CircleF
6115 4719 CircleF
6115 4719 CircleF
6155 4719 CircleF
6155 4719 CircleF
6194 4719 CircleF
6868 4841 CircleF
6907 4841 CircleF
6194 4841 CircleF
6234 4841 CircleF
6234 4841 CircleF
6274 4841 CircleF
6274 4841 CircleF
6313 4841 CircleF
6313 4841 CircleF
6353 4841 CircleF
6353 4841 CircleF
6392 4841 CircleF
6392 4841 CircleF
6432 4841 CircleF
6432 4841 CircleF
6472 4841 CircleF
6472 4841 CircleF
6511 4841 CircleF
6511 4841 CircleF
6551 4841 CircleF
6551 4841 CircleF
6591 4841 CircleF
6591 4841 CircleF
6630 4841 CircleF
6630 4841 CircleF
6670 4841 CircleF
6670 4841 CircleF
6709 4841 CircleF
6709 4841 CircleF
6749 4841 CircleF
6749 4841 CircleF
6789 4841 CircleF
6789 4841 CircleF
6828 4841 CircleF
6828 4841 CircleF
6868 4841 CircleF
1164 736 CircleF
1164 766 CircleF
1204 766 CircleF
1204 797 CircleF
1204 797 CircleF
1204 827 CircleF
1204 827 CircleF
1204 858 CircleF
1204 858 CircleF
1204 888 CircleF
1204 888 CircleF
1204 918 CircleF
1243 918 CircleF
1243 949 CircleF
1243 949 CircleF
1243 979 CircleF
1243 979 CircleF
1243 1010 CircleF
1243 1010 CircleF
1243 1040 CircleF
1243 1040 CircleF
1243 1071 CircleF
1243 1071 CircleF
1243 1101 CircleF
1243 1101 CircleF
1243 1131 CircleF
1243 1131 CircleF
1243 1162 CircleF
1283 1162 CircleF
1283 1192 CircleF
1322 1192 CircleF
1322 1223 CircleF
1362 1223 CircleF
1362 1253 CircleF
1758 1253 CircleF
1758 1283 CircleF
1758 1283 CircleF
1758 1314 CircleF
1758 1314 CircleF
1758 1344 CircleF
1798 1344 CircleF
1798 1375 CircleF
1837 1375 CircleF
1837 1405 CircleF
1837 1405 CircleF
1837 1435 CircleF
1837 1435 CircleF
1837 1466 CircleF
1837 1466 CircleF
1837 1496 CircleF
1877 1496 CircleF
1877 1527 CircleF
1877 1527 CircleF
1877 1557 CircleF
1877 1557 CircleF
1877 1587 CircleF
2194 1587 CircleF
2194 1618 CircleF
2273 1618 CircleF
2273 1648 CircleF
2313 1648 CircleF
2313 1679 CircleF
2313 1679 CircleF
2313 1709 CircleF
2313 1709 CircleF
2313 1739 CircleF
2313 1739 CircleF
2313 1770 CircleF
2313 1770 CircleF
2313 1800 CircleF
2313 1800 CircleF
2313 1831 CircleF
2313 1831 CircleF
2313 1861 CircleF
2313 1861 CircleF
2313 1891 CircleF
2313 1891 CircleF
2313 1922 CircleF
2313 1922 CircleF
2313 1952 CircleF
2313 1952 CircleF
2313 1983 CircleF
2313 1983 CircleF
2313 2013 CircleF
2313 2013 CircleF
2313 2043 CircleF
2313 2043 CircleF
2313 2074 CircleF
2313 2074 CircleF
2313 2104 CircleF
2313 2104 CircleF
2313 2135 CircleF
2432 2135 CircleF
2432 2165 CircleF
2511 2165 CircleF
2511 2195 CircleF
2511 2195 CircleF
2511 2226 CircleF
2511 2226 CircleF
2511 2256 CircleF
2511 2256 CircleF
2511 2287 CircleF
2511 2287 CircleF
2511 2317 CircleF
2511 2317 CircleF
2511 2347 CircleF
2511 2347 CircleF
2511 2378 CircleF
2669 2378 CircleF
2669 2408 CircleF
2669 2408 CircleF
2669 2439 CircleF
2828 2439 CircleF
2828 2469 CircleF
2867 2469 CircleF
2867 2499 CircleF
3105 2499 CircleF
3105 2530 CircleF
3263 2530 CircleF
3263 2560 CircleF
3303 2560 CircleF
3303 2591 CircleF
3303 2591 CircleF
3303 2621 CircleF
3303 2621 CircleF
3303 2652 CircleF
3303 2652 CircleF
3303 2682 CircleF
3382 2682 CircleF
3382 2712 CircleF
3382 2712 CircleF
3382 2743 CircleF
3382 2743 CircleF
3382 2773 CircleF
3382 2773 CircleF
3382 2804 CircleF
3382 2804 CircleF
3382 2834 CircleF
3422 2834 CircleF
3422 2864 CircleF
3818 2864 CircleF
3818 2895 CircleF
3818 2895 CircleF
3818 2925 CircleF
3857 2925 CircleF
3857 2956 CircleF
3897 2956 CircleF
3897 2986 CircleF
3897 2986 CircleF
3897 3016 CircleF
3897 3016 CircleF
3897 3047 CircleF
3897 3047 CircleF
3897 3077 CircleF
3897 3077 CircleF
3897 3108 CircleF
3897 3108 CircleF
3897 3138 CircleF
4491 3138 CircleF
4491 3168 CircleF
4491 3168 CircleF
4491 3199 CircleF
4491 3199 CircleF
4491 3229 CircleF
4491 3229 CircleF
4491 3260 CircleF
4491 3260 CircleF
4491 3290 CircleF
4491 3290 CircleF
4491 3320 CircleF
4491 3320 CircleF
4491 3351 CircleF
4531 3351 CircleF
4531 3381 CircleF
4570 3381 CircleF
4570 3412 CircleF
4570 3412 CircleF
4570 3442 CircleF
4570 3442 CircleF
4570 3472 CircleF
4610 3472 CircleF
4610 3503 CircleF
4610 3503 CircleF
4610 3533 CircleF
4610 3533 CircleF
4610 3564 CircleF
4610 3564 CircleF
4610 3594 CircleF
4610 3594 CircleF
4610 3624 CircleF
4610 3624 CircleF
4610 3655 CircleF
4650 3655 CircleF
4650 3685 CircleF
4689 3685 CircleF
4689 3716 CircleF
4689 3716 CircleF
4689 3746 CircleF
4729 3746 CircleF
4729 3776 CircleF
4729 3776 CircleF
4729 3807 CircleF
4729 3807 CircleF
4729 3837 CircleF
4729 3837 CircleF
4729 3868 CircleF
4729 3868 CircleF
4729 3898 CircleF
4729 3898 CircleF
4729 3928 CircleF
4768 3928 CircleF
4768 3959 CircleF
4808 3959 CircleF
4808 3989 CircleF
4848 3989 CircleF
4848 4020 CircleF
4848 4020 CircleF
4848 4050 CircleF
4848 4050 CircleF
4848 4080 CircleF
4848 4080 CircleF
4848 4111 CircleF
4848 4111 CircleF
4848 4141 CircleF
4887 4141 CircleF
4887 4172 CircleF
4887 4172 CircleF
4887 4202 CircleF
4887 4202 CircleF
4887 4233 CircleF
4887 4233 CircleF
4887 4263 CircleF
4927 4263 CircleF
4927 4293 CircleF
4967 4293 CircleF
4967 4324 CircleF
5046 4324 CircleF
5046 4354 CircleF
5165 4354 CircleF
5165 4385 CircleF
5363 4385 CircleF
5363 4415 CircleF
5640 4415 CircleF
5640 4445 CircleF
5640 4445 CircleF
5640 4476 CircleF
5996 4476 CircleF
5996 4506 CircleF
6036 4506 CircleF
6036 4537 CircleF
6036 4537 CircleF
6036 4567 CircleF
6036 4567 CircleF
6036 4597 CircleF
6036 4597 CircleF
6036 4628 CircleF
6036 4628 CircleF
6036 4658 CircleF
6036 4658 CircleF
6036 4689 CircleF
6076 4689 CircleF
6076 4719 CircleF
6194 4719 CircleF
6194 4749 CircleF
6194 4749 CircleF
6194 4780 CircleF
6194 4780 CircleF
6194 4810 CircleF
6194 4810 CircleF
6194 4841 CircleF
966 280 CircleF
966 310 CircleF
966 310 CircleF
966 341 CircleF
966 341 CircleF
966 371 CircleF
966 371 CircleF
966 402 CircleF
966 402 CircleF
966 432 CircleF
966 432 CircleF
966 462 CircleF
966 462 CircleF
966 493 CircleF
966 493 CircleF
966 523 CircleF
966 523 CircleF
966 554 CircleF
966 554 CircleF
966 584 CircleF
966 584 CircleF
966 614 CircleF
966 614 CircleF
966 645 CircleF
966 645 CircleF
966 675 CircleF
966 675 CircleF
966 706 CircleF
966 706 CircleF
966 736 CircleF
% End plot #1
% Begin plot #2
1.500 UP
2.000 UL
LT0
1.00 0.55 0.00 C /Helvetica findfont 140 scalefont setfont
2164 1577 M
42 33 V
1779 4331 M
70 54 V
2804 2430 M
62 47 V
6555 292 M
56 43 V
5912 4437 M
58 45 V
6172 2334 M
45 34 V
2986 2604 M
70 53 V
6568 1603 M
60 46 V
6823 936 M
71 54 V
5613 2153 M
57 43 V
5262 1747 M
73 56 V
5022 3232 M
54 42 V
6414 3019 M
78 60 V
1057 3265 M
57 43 V
5575 1928 M
74 57 V
4426 1388 M
55 42 V
2570 563 M
62 48 V
1727 2358 M
47 35 V
6404 3523 M
57 44 V
4761 414 M
75 57 V
213 2944 R
59 46 V
3813 4623 M
58 45 V
2265 2073 M
71 54 V
2099 584 R
67 52 V
636 1600 R
42 33 V
3555 2060 M
50 38 V
1171 2632 M
57 44 V
2293 1659 M
57 44 V
6452 3276 M
45 34 V
-1367 -1 R
76 58 V
930 1347 R
78 61 V
6483 2500 M
72 55 V
2911 4570 M
42 32 V
-1343 31 R
56 42 V
1454 4221 M
58 44 V
2328 697 M
49 37 V
5378 4560 M
67 51 V
3359 2807 M
65 50 V
5632 4438 M
67 52 V
1395 2941 M
63 49 V
282 895 R
59 45 V
4509 3351 M
62 47 V
458 1239 R
78 59 V
2152 1309 M
56 43 V
5303 4366 M
78 59 V
5146 2862 M
79 60 V
6075 987 M
44 34 V
288 1328 R
45 34 V
4586 1499 M
46 36 V
-2779 4 R
79 60 V
989 1491 M
59 45 V
4465 -16 R
57 43 V
3868 877 M
45 35 V
stroke 3913 912 M
563 1276 R
75 58 V
2669 494 M
65 50 V
4426 3099 M
57 44 V
2883 580 M
52 41 V
5467 4010 M
64 49 V
6081 814 M
71 54 V
1890 3889 M
40 31 V
2011 447 M
55 42 V
3425 820 R
49 38 V
4300 4314 M
51 40 V
4950 717 M
66 51 V
3893 794 M
40 31 V
1138 2702 M
65 49 V
4227 1823 M
52 41 V
503 319 R
40 30 V
1275 775 R
41 32 V
3464 4562 M
76 59 V
586 -810 R
44 34 V
-711 176 R
59 45 V
3892 326 M
76 58 V
1652 4201 M
64 48 V
3571 534 M
42 32 V
2856 1736 M
72 55 V
1291 1189 M
71 55 V
1048 2397 M
72 55 V
6767 4127 M
59 46 V
1938 2991 M
54 41 V
4915 4276 M
59 45 V
-235 68 R
40 31 V
1961 486 M
70 54 V
3952 971 M
60 46 V
2107 73 R
57 44 V
3824 1556 M
73 57 V
1557 3535 M
53 41 V
4004 372 M
48 37 V
127 2712 R
55 43 V
2452 2154 M
67 50 V
290 1162 R
66 50 V
1682 4006 M
66 50 V
-738 100 R
60 46 V
4607 3627 M
77 59 V
3221 2524 M
43 33 V
-139 486 R
45 34 V
2780 588 M
55 42 V
1454 3243 M
55 43 V
6456 1349 M
77 59 V
1144 739 M
73 56 V
2164 1577 CircleF
2206 1610 CircleF
1779 4331 CircleF
1849 4385 CircleF
2804 2430 CircleF
2866 2477 CircleF
6555 292 CircleF
6611 335 CircleF
5912 4437 CircleF
5970 4482 CircleF
6172 2334 CircleF
6217 2368 CircleF
2986 2604 CircleF
3056 2657 CircleF
6568 1603 CircleF
6628 1649 CircleF
6823 936 CircleF
6894 990 CircleF
5613 2153 CircleF
5670 2196 CircleF
5262 1747 CircleF
5335 1803 CircleF
5022 3232 CircleF
5076 3274 CircleF
6414 3019 CircleF
6492 3079 CircleF
1057 3265 CircleF
1114 3308 CircleF
5575 1928 CircleF
5649 1985 CircleF
4426 1388 CircleF
4481 1430 CircleF
2570 563 CircleF
2632 611 CircleF
1727 2358 CircleF
1774 2393 CircleF
6404 3523 CircleF
6461 3567 CircleF
4761 414 CircleF
4836 471 CircleF
5049 3415 CircleF
5108 3461 CircleF
3813 4623 CircleF
3871 4668 CircleF
2265 2073 CircleF
2336 2127 CircleF
4435 2711 CircleF
4502 2763 CircleF
5138 4363 CircleF
5180 4396 CircleF
3555 2060 CircleF
3605 2098 CircleF
1171 2632 CircleF
1228 2676 CircleF
2293 1659 CircleF
2350 1703 CircleF
6452 3276 CircleF
6497 3310 CircleF
5130 3309 CircleF
5206 3367 CircleF
6136 4714 CircleF
6214 4775 CircleF
6483 2500 CircleF
6555 2555 CircleF
2911 4570 CircleF
2953 4602 CircleF
1610 4633 CircleF
1666 4675 CircleF
1454 4221 CircleF
1512 4265 CircleF
2328 697 CircleF
2377 734 CircleF
5378 4560 CircleF
5445 4611 CircleF
3359 2807 CircleF
3424 2857 CircleF
5632 4438 CircleF
5699 4490 CircleF
1395 2941 CircleF
1458 2990 CircleF
1740 3885 CircleF
1799 3930 CircleF
4509 3351 CircleF
4571 3398 CircleF
5029 4637 CircleF
5107 4696 CircleF
2152 1309 CircleF
2208 1352 CircleF
5303 4366 CircleF
5381 4425 CircleF
5146 2862 CircleF
5225 2922 CircleF
6075 987 CircleF
6119 1021 CircleF
6407 2349 CircleF
6452 2383 CircleF
4586 1499 CircleF
4632 1535 CircleF
1853 1539 CircleF
1932 1599 CircleF
989 1491 CircleF
1048 1536 CircleF
5513 1520 CircleF
5570 1563 CircleF
3868 877 CircleF
3913 912 CircleF
4476 2188 CircleF
4551 2246 CircleF
2669 494 CircleF
2734 544 CircleF
4426 3099 CircleF
4483 3143 CircleF
2883 580 CircleF
2935 621 CircleF
5467 4010 CircleF
5531 4059 CircleF
6081 814 CircleF
6152 868 CircleF
1890 3889 CircleF
1930 3920 CircleF
2011 447 CircleF
2066 489 CircleF
5491 1309 CircleF
5540 1347 CircleF
4300 4314 CircleF
4351 4354 CircleF
4950 717 CircleF
5016 768 CircleF
3893 794 CircleF
3933 825 CircleF
1138 2702 CircleF
1203 2751 CircleF
4227 1823 CircleF
4279 1864 CircleF
4782 2183 CircleF
4822 2213 CircleF
6097 2988 CircleF
6138 3020 CircleF
3464 4562 CircleF
3540 4621 CircleF
4126 3811 CircleF
4170 3845 CircleF
3459 4021 CircleF
3518 4066 CircleF
3892 326 CircleF
3968 384 CircleF
1652 4201 CircleF
1716 4249 CircleF
3571 534 CircleF
3613 566 CircleF
2856 1736 CircleF
2928 1791 CircleF
1291 1189 CircleF
1362 1244 CircleF
1048 2397 CircleF
1120 2452 CircleF
6767 4127 CircleF
6826 4173 CircleF
1938 2991 CircleF
1992 3032 CircleF
4915 4276 CircleF
4974 4321 CircleF
4739 4389 CircleF
4779 4420 CircleF
1961 486 CircleF
2031 540 CircleF
3952 971 CircleF
4012 1017 CircleF
6119 1090 CircleF
6176 1134 CircleF
3824 1556 CircleF
3897 1613 CircleF
1557 3535 CircleF
1610 3576 CircleF
4004 372 CircleF
4052 409 CircleF
4179 3121 CircleF
4234 3164 CircleF
2452 2154 CircleF
2519 2204 CircleF
2809 3366 CircleF
2875 3416 CircleF
1682 4006 CircleF
1748 4056 CircleF
1010 4156 CircleF
1070 4202 CircleF
4607 3627 CircleF
4684 3686 CircleF
3221 2524 CircleF
3264 2557 CircleF
3125 3043 CircleF
3170 3077 CircleF
2780 588 CircleF
2835 630 CircleF
1454 3243 CircleF
1509 3286 CircleF
6456 1349 CircleF
6533 1408 CircleF
1144 739 CircleF
1217 795 CircleF
% End plot #2
1.000 UP
1.000 UL
LT0
0.50 0.50 0.50 C stroke
grestore
end
showpage
%%Trailer
%%DocumentFonts: Helvetica
%%Pages: 1
