%!PS-Adobe-2.0
%%Title: out.ps
%%Creator: gnuplot 4.6 patchlevel 6
%%CreationDate: Fri May 29 02:27:04 2015
%%DocumentFonts: (atend)
%%BoundingBox: 50 50 554 770
%%Orientation: Landscape
%%Pages: (atend)
%%EndComments
%%BeginProlog
/gnudict 256 dict def
gnudict begin
%
% The following true/false flags may be edited by hand if desired.
% The unit line width and grayscale image gamma correction may also be changed.
%
/Color false def
/Blacktext false def
/Solid false def
/Dashlength 1 def
/Landscape true def
/Level1 false def
/Rounded false def
/ClipToBoundingBox false def
/SuppressPDFMark false def
/TransparentPatterns false def
/gnulinewidth 5.000 def
/userlinewidth gnulinewidth def
/Gamma 1.0 def
/BackgroundColor {-1.000 -1.000 -1.000} def
%
/vshift -46 def
/dl1 {
  10.0 Dashlength mul mul
  Rounded { currentlinewidth 0.75 mul sub dup 0 le { pop 0.01 } if } if
} def
/dl2 {
  10.0 Dashlength mul mul
  Rounded { currentlinewidth 0.75 mul add } if
} def
/hpt_ 31.5 def
/vpt_ 31.5 def
/hpt hpt_ def
/vpt vpt_ def
/doclip {
  ClipToBoundingBox {
    newpath 50 50 moveto 554 50 lineto 554 770 lineto 50 770 lineto closepath
    clip
  } if
} def
%
% Gnuplot Prolog Version 4.6 (September 2012)
%
%/SuppressPDFMark true def
%
/M {moveto} bind def
/L {lineto} bind def
/R {rmoveto} bind def
/V {rlineto} bind def
/N {newpath moveto} bind def
/Z {closepath} bind def
/C {setrgbcolor} bind def
/f {rlineto fill} bind def
/g {setgray} bind def
/Gshow {show} def   % May be redefined later in the file to support UTF-8
/vpt2 vpt 2 mul def
/hpt2 hpt 2 mul def
/Lshow {currentpoint stroke M 0 vshift R 
	Blacktext {gsave 0 setgray show grestore} {show} ifelse} def
/Rshow {currentpoint stroke M dup stringwidth pop neg vshift R
	Blacktext {gsave 0 setgray show grestore} {show} ifelse} def
/Cshow {currentpoint stroke M dup stringwidth pop -2 div vshift R 
	Blacktext {gsave 0 setgray show grestore} {show} ifelse} def
/UP {dup vpt_ mul /vpt exch def hpt_ mul /hpt exch def
  /hpt2 hpt 2 mul def /vpt2 vpt 2 mul def} def
/DL {Color {setrgbcolor Solid {pop []} if 0 setdash}
 {pop pop pop 0 setgray Solid {pop []} if 0 setdash} ifelse} def
/BL {stroke userlinewidth 2 mul setlinewidth
	Rounded {1 setlinejoin 1 setlinecap} if} def
/AL {stroke userlinewidth 2 div setlinewidth
	Rounded {1 setlinejoin 1 setlinecap} if} def
/UL {dup gnulinewidth mul /userlinewidth exch def
	dup 1 lt {pop 1} if 10 mul /udl exch def} def
/PL {stroke userlinewidth setlinewidth
	Rounded {1 setlinejoin 1 setlinecap} if} def
3.8 setmiterlimit
% Default Line colors
/LCw {1 1 1} def
/LCb {0 0 0} def
/LCa {0 0 0} def
/LC0 {1 0 0} def
/LC1 {0 1 0} def
/LC2 {0 0 1} def
/LC3 {1 0 1} def
/LC4 {0 1 1} def
/LC5 {1 1 0} def
/LC6 {0 0 0} def
/LC7 {1 0.3 0} def
/LC8 {0.5 0.5 0.5} def
% Default Line Types
/LTw {PL [] 1 setgray} def
/LTb {BL [] LCb DL} def
/LTa {AL [1 udl mul 2 udl mul] 0 setdash LCa setrgbcolor} def
/LT0 {PL [] LC0 DL} def
/LT1 {PL [4 dl1 2 dl2] LC1 DL} def
/LT2 {PL [2 dl1 3 dl2] LC2 DL} def
/LT3 {PL [1 dl1 1.5 dl2] LC3 DL} def
/LT4 {PL [6 dl1 2 dl2 1 dl1 2 dl2] LC4 DL} def
/LT5 {PL [3 dl1 3 dl2 1 dl1 3 dl2] LC5 DL} def
/LT6 {PL [2 dl1 2 dl2 2 dl1 6 dl2] LC6 DL} def
/LT7 {PL [1 dl1 2 dl2 6 dl1 2 dl2 1 dl1 2 dl2] LC7 DL} def
/LT8 {PL [2 dl1 2 dl2 2 dl1 2 dl2 2 dl1 2 dl2 2 dl1 4 dl2] LC8 DL} def
/Pnt {stroke [] 0 setdash gsave 1 setlinecap M 0 0 V stroke grestore} def
/Dia {stroke [] 0 setdash 2 copy vpt add M
  hpt neg vpt neg V hpt vpt neg V
  hpt vpt V hpt neg vpt V closepath stroke
  Pnt} def
/Pls {stroke [] 0 setdash vpt sub M 0 vpt2 V
  currentpoint stroke M
  hpt neg vpt neg R hpt2 0 V stroke
 } def
/Box {stroke [] 0 setdash 2 copy exch hpt sub exch vpt add M
  0 vpt2 neg V hpt2 0 V 0 vpt2 V
  hpt2 neg 0 V closepath stroke
  Pnt} def
/Crs {stroke [] 0 setdash exch hpt sub exch vpt add M
  hpt2 vpt2 neg V currentpoint stroke M
  hpt2 neg 0 R hpt2 vpt2 V stroke} def
/TriU {stroke [] 0 setdash 2 copy vpt 1.12 mul add M
  hpt neg vpt -1.62 mul V
  hpt 2 mul 0 V
  hpt neg vpt 1.62 mul V closepath stroke
  Pnt} def
/Star {2 copy Pls Crs} def
/BoxF {stroke [] 0 setdash exch hpt sub exch vpt add M
  0 vpt2 neg V hpt2 0 V 0 vpt2 V
  hpt2 neg 0 V closepath fill} def
/TriUF {stroke [] 0 setdash vpt 1.12 mul add M
  hpt neg vpt -1.62 mul V
  hpt 2 mul 0 V
  hpt neg vpt 1.62 mul V closepath fill} def
/TriD {stroke [] 0 setdash 2 copy vpt 1.12 mul sub M
  hpt neg vpt 1.62 mul V
  hpt 2 mul 0 V
  hpt neg vpt -1.62 mul V closepath stroke
  Pnt} def
/TriDF {stroke [] 0 setdash vpt 1.12 mul sub M
  hpt neg vpt 1.62 mul V
  hpt 2 mul 0 V
  hpt neg vpt -1.62 mul V closepath fill} def
/DiaF {stroke [] 0 setdash vpt add M
  hpt neg vpt neg V hpt vpt neg V
  hpt vpt V hpt neg vpt V closepath fill} def
/Pent {stroke [] 0 setdash 2 copy gsave
  translate 0 hpt M 4 {72 rotate 0 hpt L} repeat
  closepath stroke grestore Pnt} def
/PentF {stroke [] 0 setdash gsave
  translate 0 hpt M 4 {72 rotate 0 hpt L} repeat
  closepath fill grestore} def
/Circle {stroke [] 0 setdash 2 copy
  hpt 0 360 arc stroke Pnt} def
/CircleF {stroke [] 0 setdash hpt 0 360 arc fill} def
/C0 {BL [] 0 setdash 2 copy moveto vpt 90 450 arc} bind def
/C1 {BL [] 0 setdash 2 copy moveto
	2 copy vpt 0 90 arc closepath fill
	vpt 0 360 arc closepath} bind def
/C2 {BL [] 0 setdash 2 copy moveto
	2 copy vpt 90 180 arc closepath fill
	vpt 0 360 arc closepath} bind def
/C3 {BL [] 0 setdash 2 copy moveto
	2 copy vpt 0 180 arc closepath fill
	vpt 0 360 arc closepath} bind def
/C4 {BL [] 0 setdash 2 copy moveto
	2 copy vpt 180 270 arc closepath fill
	vpt 0 360 arc closepath} bind def
/C5 {BL [] 0 setdash 2 copy moveto
	2 copy vpt 0 90 arc
	2 copy moveto
	2 copy vpt 180 270 arc closepath fill
	vpt 0 360 arc} bind def
/C6 {BL [] 0 setdash 2 copy moveto
	2 copy vpt 90 270 arc closepath fill
	vpt 0 360 arc closepath} bind def
/C7 {BL [] 0 setdash 2 copy moveto
	2 copy vpt 0 270 arc closepath fill
	vpt 0 360 arc closepath} bind def
/C8 {BL [] 0 setdash 2 copy moveto
	2 copy vpt 270 360 arc closepath fill
	vpt 0 360 arc closepath} bind def
/C9 {BL [] 0 setdash 2 copy moveto
	2 copy vpt 270 450 arc closepath fill
	vpt 0 360 arc closepath} bind def
/C10 {BL [] 0 setdash 2 copy 2 copy moveto vpt 270 360 arc closepath fill
	2 copy moveto
	2 copy vpt 90 180 arc closepath fill
	vpt 0 360 arc closepath} bind def
/C11 {BL [] 0 setdash 2 copy moveto
	2 copy vpt 0 180 arc closepath fill
	2 copy moveto
	2 copy vpt 270 360 arc closepath fill
	vpt 0 360 arc closepath} bind def
/C12 {BL [] 0 setdash 2 copy moveto
	2 copy vpt 180 360 arc closepath fill
	vpt 0 360 arc closepath} bind def
/C13 {BL [] 0 setdash 2 copy moveto
	2 copy vpt 0 90 arc closepath fill
	2 copy moveto
	2 copy vpt 180 360 arc closepath fill
	vpt 0 360 arc closepath} bind def
/C14 {BL [] 0 setdash 2 copy moveto
	2 copy vpt 90 360 arc closepath fill
	vpt 0 360 arc} bind def
/C15 {BL [] 0 setdash 2 copy vpt 0 360 arc closepath fill
	vpt 0 360 arc closepath} bind def
/Rec {newpath 4 2 roll moveto 1 index 0 rlineto 0 exch rlineto
	neg 0 rlineto closepath} bind def
/Square {dup Rec} bind def
/Bsquare {vpt sub exch vpt sub exch vpt2 Square} bind def
/S0 {BL [] 0 setdash 2 copy moveto 0 vpt rlineto BL Bsquare} bind def
/S1 {BL [] 0 setdash 2 copy vpt Square fill Bsquare} bind def
/S2 {BL [] 0 setdash 2 copy exch vpt sub exch vpt Square fill Bsquare} bind def
/S3 {BL [] 0 setdash 2 copy exch vpt sub exch vpt2 vpt Rec fill Bsquare} bind def
/S4 {BL [] 0 setdash 2 copy exch vpt sub exch vpt sub vpt Square fill Bsquare} bind def
/S5 {BL [] 0 setdash 2 copy 2 copy vpt Square fill
	exch vpt sub exch vpt sub vpt Square fill Bsquare} bind def
/S6 {BL [] 0 setdash 2 copy exch vpt sub exch vpt sub vpt vpt2 Rec fill Bsquare} bind def
/S7 {BL [] 0 setdash 2 copy exch vpt sub exch vpt sub vpt vpt2 Rec fill
	2 copy vpt Square fill Bsquare} bind def
/S8 {BL [] 0 setdash 2 copy vpt sub vpt Square fill Bsquare} bind def
/S9 {BL [] 0 setdash 2 copy vpt sub vpt vpt2 Rec fill Bsquare} bind def
/S10 {BL [] 0 setdash 2 copy vpt sub vpt Square fill 2 copy exch vpt sub exch vpt Square fill
	Bsquare} bind def
/S11 {BL [] 0 setdash 2 copy vpt sub vpt Square fill 2 copy exch vpt sub exch vpt2 vpt Rec fill
	Bsquare} bind def
/S12 {BL [] 0 setdash 2 copy exch vpt sub exch vpt sub vpt2 vpt Rec fill Bsquare} bind def
/S13 {BL [] 0 setdash 2 copy exch vpt sub exch vpt sub vpt2 vpt Rec fill
	2 copy vpt Square fill Bsquare} bind def
/S14 {BL [] 0 setdash 2 copy exch vpt sub exch vpt sub vpt2 vpt Rec fill
	2 copy exch vpt sub exch vpt Square fill Bsquare} bind def
/S15 {BL [] 0 setdash 2 copy Bsquare fill Bsquare} bind def
/D0 {gsave translate 45 rotate 0 0 S0 stroke grestore} bind def
/D1 {gsave translate 45 rotate 0 0 S1 stroke grestore} bind def
/D2 {gsave translate 45 rotate 0 0 S2 stroke grestore} bind def
/D3 {gsave translate 45 rotate 0 0 S3 stroke grestore} bind def
/D4 {gsave translate 45 rotate 0 0 S4 stroke grestore} bind def
/D5 {gsave translate 45 rotate 0 0 S5 stroke grestore} bind def
/D6 {gsave translate 45 rotate 0 0 S6 stroke grestore} bind def
/D7 {gsave translate 45 rotate 0 0 S7 stroke grestore} bind def
/D8 {gsave translate 45 rotate 0 0 S8 stroke grestore} bind def
/D9 {gsave translate 45 rotate 0 0 S9 stroke grestore} bind def
/D10 {gsave translate 45 rotate 0 0 S10 stroke grestore} bind def
/D11 {gsave translate 45 rotate 0 0 S11 stroke grestore} bind def
/D12 {gsave translate 45 rotate 0 0 S12 stroke grestore} bind def
/D13 {gsave translate 45 rotate 0 0 S13 stroke grestore} bind def
/D14 {gsave translate 45 rotate 0 0 S14 stroke grestore} bind def
/D15 {gsave translate 45 rotate 0 0 S15 stroke grestore} bind def
/DiaE {stroke [] 0 setdash vpt add M
  hpt neg vpt neg V hpt vpt neg V
  hpt vpt V hpt neg vpt V closepath stroke} def
/BoxE {stroke [] 0 setdash exch hpt sub exch vpt add M
  0 vpt2 neg V hpt2 0 V 0 vpt2 V
  hpt2 neg 0 V closepath stroke} def
/TriUE {stroke [] 0 setdash vpt 1.12 mul add M
  hpt neg vpt -1.62 mul V
  hpt 2 mul 0 V
  hpt neg vpt 1.62 mul V closepath stroke} def
/TriDE {stroke [] 0 setdash vpt 1.12 mul sub M
  hpt neg vpt 1.62 mul V
  hpt 2 mul 0 V
  hpt neg vpt -1.62 mul V closepath stroke} def
/PentE {stroke [] 0 setdash gsave
  translate 0 hpt M 4 {72 rotate 0 hpt L} repeat
  closepath stroke grestore} def
/CircE {stroke [] 0 setdash 
  hpt 0 360 arc stroke} def
/Opaque {gsave closepath 1 setgray fill grestore 0 setgray closepath} def
/DiaW {stroke [] 0 setdash vpt add M
  hpt neg vpt neg V hpt vpt neg V
  hpt vpt V hpt neg vpt V Opaque stroke} def
/BoxW {stroke [] 0 setdash exch hpt sub exch vpt add M
  0 vpt2 neg V hpt2 0 V 0 vpt2 V
  hpt2 neg 0 V Opaque stroke} def
/TriUW {stroke [] 0 setdash vpt 1.12 mul add M
  hpt neg vpt -1.62 mul V
  hpt 2 mul 0 V
  hpt neg vpt 1.62 mul V Opaque stroke} def
/TriDW {stroke [] 0 setdash vpt 1.12 mul sub M
  hpt neg vpt 1.62 mul V
  hpt 2 mul 0 V
  hpt neg vpt -1.62 mul V Opaque stroke} def
/PentW {stroke [] 0 setdash gsave
  translate 0 hpt M 4 {72 rotate 0 hpt L} repeat
  Opaque stroke grestore} def
/CircW {stroke [] 0 setdash 
  hpt 0 360 arc Opaque stroke} def
/BoxFill {gsave Rec 1 setgray fill grestore} def
/Density {
  /Fillden exch def
  currentrgbcolor
  /ColB exch def /ColG exch def /ColR exch def
  /ColR ColR Fillden mul Fillden sub 1 add def
  /ColG ColG Fillden mul Fillden sub 1 add def
  /ColB ColB Fillden mul Fillden sub 1 add def
  ColR ColG ColB setrgbcolor} def
/BoxColFill {gsave Rec PolyFill} def
/PolyFill {gsave Density fill grestore grestore} def
/h {rlineto rlineto rlineto gsave closepath fill grestore} bind def
%
% PostScript Level 1 Pattern Fill routine for rectangles
% Usage: x y w h s a XX PatternFill
%	x,y = lower left corner of box to be filled
%	w,h = width and height of box
%	  a = angle in degrees between lines and x-axis
%	 XX = 0/1 for no/yes cross-hatch
%
/PatternFill {gsave /PFa [ 9 2 roll ] def
  PFa 0 get PFa 2 get 2 div add PFa 1 get PFa 3 get 2 div add translate
  PFa 2 get -2 div PFa 3 get -2 div PFa 2 get PFa 3 get Rec
  TransparentPatterns {} {gsave 1 setgray fill grestore} ifelse
  clip
  currentlinewidth 0.5 mul setlinewidth
  /PFs PFa 2 get dup mul PFa 3 get dup mul add sqrt def
  0 0 M PFa 5 get rotate PFs -2 div dup translate
  0 1 PFs PFa 4 get div 1 add floor cvi
	{PFa 4 get mul 0 M 0 PFs V} for
  0 PFa 6 get ne {
	0 1 PFs PFa 4 get div 1 add floor cvi
	{PFa 4 get mul 0 2 1 roll M PFs 0 V} for
 } if
  stroke grestore} def
%
/languagelevel where
 {pop languagelevel} {1} ifelse
 2 lt
	{/InterpretLevel1 true def}
	{/InterpretLevel1 Level1 def}
 ifelse
%
% PostScript level 2 pattern fill definitions
%
/Level2PatternFill {
/Tile8x8 {/PaintType 2 /PatternType 1 /TilingType 1 /BBox [0 0 8 8] /XStep 8 /YStep 8}
	bind def
/KeepColor {currentrgbcolor [/Pattern /DeviceRGB] setcolorspace} bind def
<< Tile8x8
 /PaintProc {0.5 setlinewidth pop 0 0 M 8 8 L 0 8 M 8 0 L stroke} 
>> matrix makepattern
/Pat1 exch def
<< Tile8x8
 /PaintProc {0.5 setlinewidth pop 0 0 M 8 8 L 0 8 M 8 0 L stroke
	0 4 M 4 8 L 8 4 L 4 0 L 0 4 L stroke}
>> matrix makepattern
/Pat2 exch def
<< Tile8x8
 /PaintProc {0.5 setlinewidth pop 0 0 M 0 8 L
	8 8 L 8 0 L 0 0 L fill}
>> matrix makepattern
/Pat3 exch def
<< Tile8x8
 /PaintProc {0.5 setlinewidth pop -4 8 M 8 -4 L
	0 12 M 12 0 L stroke}
>> matrix makepattern
/Pat4 exch def
<< Tile8x8
 /PaintProc {0.5 setlinewidth pop -4 0 M 8 12 L
	0 -4 M 12 8 L stroke}
>> matrix makepattern
/Pat5 exch def
<< Tile8x8
 /PaintProc {0.5 setlinewidth pop -2 8 M 4 -4 L
	0 12 M 8 -4 L 4 12 M 10 0 L stroke}
>> matrix makepattern
/Pat6 exch def
<< Tile8x8
 /PaintProc {0.5 setlinewidth pop -2 0 M 4 12 L
	0 -4 M 8 12 L 4 -4 M 10 8 L stroke}
>> matrix makepattern
/Pat7 exch def
<< Tile8x8
 /PaintProc {0.5 setlinewidth pop 8 -2 M -4 4 L
	12 0 M -4 8 L 12 4 M 0 10 L stroke}
>> matrix makepattern
/Pat8 exch def
<< Tile8x8
 /PaintProc {0.5 setlinewidth pop 0 -2 M 12 4 L
	-4 0 M 12 8 L -4 4 M 8 10 L stroke}
>> matrix makepattern
/Pat9 exch def
/Pattern1 {PatternBgnd KeepColor Pat1 setpattern} bind def
/Pattern2 {PatternBgnd KeepColor Pat2 setpattern} bind def
/Pattern3 {PatternBgnd KeepColor Pat3 setpattern} bind def
/Pattern4 {PatternBgnd KeepColor Landscape {Pat5} {Pat4} ifelse setpattern} bind def
/Pattern5 {PatternBgnd KeepColor Landscape {Pat4} {Pat5} ifelse setpattern} bind def
/Pattern6 {PatternBgnd KeepColor Landscape {Pat9} {Pat6} ifelse setpattern} bind def
/Pattern7 {PatternBgnd KeepColor Landscape {Pat8} {Pat7} ifelse setpattern} bind def
} def
%
%
%End of PostScript Level 2 code
%
/PatternBgnd {
  TransparentPatterns {} {gsave 1 setgray fill grestore} ifelse
} def
%
% Substitute for Level 2 pattern fill codes with
% grayscale if Level 2 support is not selected.
%
/Level1PatternFill {
/Pattern1 {0.250 Density} bind def
/Pattern2 {0.500 Density} bind def
/Pattern3 {0.750 Density} bind def
/Pattern4 {0.125 Density} bind def
/Pattern5 {0.375 Density} bind def
/Pattern6 {0.625 Density} bind def
/Pattern7 {0.875 Density} bind def
} def
%
% Now test for support of Level 2 code
%
Level1 {Level1PatternFill} {Level2PatternFill} ifelse
%
/Symbol-Oblique /Symbol findfont [1 0 .167 1 0 0] makefont
dup length dict begin {1 index /FID eq {pop pop} {def} ifelse} forall
currentdict end definefont pop
Level1 SuppressPDFMark or 
{} {
/SDict 10 dict def
systemdict /pdfmark known not {
  userdict /pdfmark systemdict /cleartomark get put
} if
SDict begin [
  /Title (out.ps)
  /Subject (gnuplot plot)
  /Creator (gnuplot 4.6 patchlevel 6)
  /Author (yani)
%  /Producer (gnuplot)
%  /Keywords ()
  /CreationDate (Fri May 29 02:27:04 2015)
  /DOCINFO pdfmark
end
} ifelse
end
%%EndProlog
%%Page: 1 1
gnudict begin
gsave
doclip
50 50 translate
0.100 0.100 scale
90 rotate
0 -5040 translate
0 setgray
newpath
(Helvetica) findfont 140 scalefont setfont
BackgroundColor 0 lt 3 1 roll 0 lt exch 0 lt or or not {gsave BackgroundColor C clippath fill grestore} if
1.000 UL
LT0
0.50 0.50 0.50 C 1.000 UL
LTa
0.50 0.50 0.50 C 966 280 M
5981 0 V
stroke
LT0
0.50 0.50 0.50 C 966 280 M
63 0 V
5918 0 R
-63 0 V
882 280 M
( 0) Rshow
1.000 UL
LT0
0.50 0.50 0.50 C 1.000 UL
LTa
0.50 0.50 0.50 C 966 372 M
5981 0 V
stroke
LT0
0.50 0.50 0.50 C 966 372 M
63 0 V
5918 0 R
-63 0 V
882 372 M
( 0.707106) Rshow
1.000 UL
LT0
0.50 0.50 0.50 C 1.000 UL
LTa
0.50 0.50 0.50 C 966 464 M
5981 0 V
stroke
LT0
0.50 0.50 0.50 C 966 464 M
63 0 V
5918 0 R
-63 0 V
882 464 M
( 1.41421) Rshow
1.000 UL
LT0
0.50 0.50 0.50 C 1.000 UL
LTa
0.50 0.50 0.50 C 966 555 M
5981 0 V
stroke
LT0
0.50 0.50 0.50 C 966 555 M
63 0 V
5918 0 R
-63 0 V
882 555 M
( 2.12132) Rshow
1.000 UL
LT0
0.50 0.50 0.50 C 1.000 UL
LTa
0.50 0.50 0.50 C 966 647 M
5981 0 V
stroke
LT0
0.50 0.50 0.50 C 966 647 M
63 0 V
5918 0 R
-63 0 V
882 647 M
( 2.82842) Rshow
1.000 UL
LT0
0.50 0.50 0.50 C 1.000 UL
LTa
0.50 0.50 0.50 C 966 739 M
5981 0 V
stroke
LT0
0.50 0.50 0.50 C 966 739 M
63 0 V
5918 0 R
-63 0 V
882 739 M
( 3.53553) Rshow
1.000 UL
LT0
0.50 0.50 0.50 C 1.000 UL
LTa
0.50 0.50 0.50 C 966 831 M
5981 0 V
stroke
LT0
0.50 0.50 0.50 C 966 831 M
63 0 V
5918 0 R
-63 0 V
882 831 M
( 4.24264) Rshow
1.000 UL
LT0
0.50 0.50 0.50 C 1.000 UL
LTa
0.50 0.50 0.50 C 966 923 M
5981 0 V
stroke
LT0
0.50 0.50 0.50 C 966 923 M
63 0 V
5918 0 R
-63 0 V
882 923 M
( 4.94974) Rshow
1.000 UL
LT0
0.50 0.50 0.50 C 1.000 UL
LTa
0.50 0.50 0.50 C 966 1015 M
5981 0 V
stroke
LT0
0.50 0.50 0.50 C 966 1015 M
63 0 V
5918 0 R
-63 0 V
-6002 0 R
( 5.65685) Rshow
1.000 UL
LT0
0.50 0.50 0.50 C 1.000 UL
LTa
0.50 0.50 0.50 C 966 1106 M
5981 0 V
stroke
LT0
0.50 0.50 0.50 C 966 1106 M
63 0 V
5918 0 R
-63 0 V
-6002 0 R
( 6.36395) Rshow
1.000 UL
LT0
0.50 0.50 0.50 C 1.000 UL
LTa
0.50 0.50 0.50 C 966 1198 M
5981 0 V
stroke
LT0
0.50 0.50 0.50 C 966 1198 M
63 0 V
5918 0 R
-63 0 V
-6002 0 R
( 7.07106) Rshow
1.000 UL
LT0
0.50 0.50 0.50 C 1.000 UL
LTa
0.50 0.50 0.50 C 966 1290 M
5981 0 V
stroke
LT0
0.50 0.50 0.50 C 966 1290 M
63 0 V
5918 0 R
-63 0 V
-6002 0 R
( 7.77817) Rshow
1.000 UL
LT0
0.50 0.50 0.50 C 1.000 UL
LTa
0.50 0.50 0.50 C 966 1382 M
5981 0 V
stroke
LT0
0.50 0.50 0.50 C 966 1382 M
63 0 V
5918 0 R
-63 0 V
-6002 0 R
( 8.48527) Rshow
1.000 UL
LT0
0.50 0.50 0.50 C 1.000 UL
LTa
0.50 0.50 0.50 C 966 1474 M
5981 0 V
stroke
LT0
0.50 0.50 0.50 C 966 1474 M
63 0 V
5918 0 R
-63 0 V
-6002 0 R
( 9.19238) Rshow
1.000 UL
LT0
0.50 0.50 0.50 C 1.000 UL
LTa
0.50 0.50 0.50 C 966 1565 M
5981 0 V
stroke
LT0
0.50 0.50 0.50 C 966 1565 M
63 0 V
5918 0 R
-63 0 V
-6002 0 R
( 9.89948) Rshow
1.000 UL
LT0
0.50 0.50 0.50 C 1.000 UL
LTa
0.50 0.50 0.50 C 966 1657 M
5981 0 V
stroke
LT0
0.50 0.50 0.50 C 966 1657 M
63 0 V
5918 0 R
-63 0 V
-6002 0 R
( 10.6066) Rshow
1.000 UL
LT0
0.50 0.50 0.50 C 1.000 UL
LTa
0.50 0.50 0.50 C 966 1749 M
5981 0 V
stroke
LT0
0.50 0.50 0.50 C 966 1749 M
63 0 V
5918 0 R
-63 0 V
-6002 0 R
( 11.3137) Rshow
1.000 UL
LT0
0.50 0.50 0.50 C 1.000 UL
LTa
0.50 0.50 0.50 C 966 1841 M
5981 0 V
stroke
LT0
0.50 0.50 0.50 C 966 1841 M
63 0 V
5918 0 R
-63 0 V
-6002 0 R
( 12.0208) Rshow
1.000 UL
LT0
0.50 0.50 0.50 C 1.000 UL
LTa
0.50 0.50 0.50 C 966 1933 M
5981 0 V
stroke
LT0
0.50 0.50 0.50 C 966 1933 M
63 0 V
5918 0 R
-63 0 V
-6002 0 R
( 12.7279) Rshow
1.000 UL
LT0
0.50 0.50 0.50 C 1.000 UL
LTa
0.50 0.50 0.50 C 966 2025 M
5981 0 V
stroke
LT0
0.50 0.50 0.50 C 966 2025 M
63 0 V
5918 0 R
-63 0 V
-6002 0 R
( 13.435) Rshow
1.000 UL
LT0
0.50 0.50 0.50 C 1.000 UL
LTa
0.50 0.50 0.50 C 966 2116 M
5981 0 V
stroke
LT0
0.50 0.50 0.50 C 966 2116 M
63 0 V
5918 0 R
-63 0 V
-6002 0 R
( 14.1421) Rshow
1.000 UL
LT0
0.50 0.50 0.50 C 1.000 UL
LTa
0.50 0.50 0.50 C 966 2208 M
5981 0 V
stroke
LT0
0.50 0.50 0.50 C 966 2208 M
63 0 V
5918 0 R
-63 0 V
-6002 0 R
( 14.8492) Rshow
1.000 UL
LT0
0.50 0.50 0.50 C 1.000 UL
LTa
0.50 0.50 0.50 C 966 2300 M
5981 0 V
stroke
LT0
0.50 0.50 0.50 C 966 2300 M
63 0 V
5918 0 R
-63 0 V
-6002 0 R
( 15.5563) Rshow
1.000 UL
LT0
0.50 0.50 0.50 C 1.000 UL
LTa
0.50 0.50 0.50 C 966 2392 M
5981 0 V
stroke
LT0
0.50 0.50 0.50 C 966 2392 M
63 0 V
5918 0 R
-63 0 V
-6002 0 R
( 16.2634) Rshow
1.000 UL
LT0
0.50 0.50 0.50 C 1.000 UL
LTa
0.50 0.50 0.50 C 966 2484 M
5981 0 V
stroke
LT0
0.50 0.50 0.50 C 966 2484 M
63 0 V
5918 0 R
-63 0 V
-6002 0 R
( 16.9705) Rshow
1.000 UL
LT0
0.50 0.50 0.50 C 1.000 UL
LTa
0.50 0.50 0.50 C 966 2575 M
5981 0 V
stroke
LT0
0.50 0.50 0.50 C 966 2575 M
63 0 V
5918 0 R
-63 0 V
-6002 0 R
( 17.6776) Rshow
1.000 UL
LT0
0.50 0.50 0.50 C 1.000 UL
LTa
0.50 0.50 0.50 C 966 2667 M
5981 0 V
stroke
LT0
0.50 0.50 0.50 C 966 2667 M
63 0 V
5918 0 R
-63 0 V
-6002 0 R
( 18.3848) Rshow
1.000 UL
LT0
0.50 0.50 0.50 C 1.000 UL
LTa
0.50 0.50 0.50 C 966 2759 M
5981 0 V
stroke
LT0
0.50 0.50 0.50 C 966 2759 M
63 0 V
5918 0 R
-63 0 V
-6002 0 R
( 19.0919) Rshow
1.000 UL
LT0
0.50 0.50 0.50 C 1.000 UL
LTa
0.50 0.50 0.50 C 966 2851 M
5981 0 V
stroke
LT0
0.50 0.50 0.50 C 966 2851 M
63 0 V
5918 0 R
-63 0 V
-6002 0 R
( 19.799) Rshow
1.000 UL
LT0
0.50 0.50 0.50 C 1.000 UL
LTa
0.50 0.50 0.50 C 966 2943 M
5981 0 V
stroke
LT0
0.50 0.50 0.50 C 966 2943 M
63 0 V
5918 0 R
-63 0 V
-6002 0 R
( 20.5061) Rshow
1.000 UL
LT0
0.50 0.50 0.50 C 1.000 UL
LTa
0.50 0.50 0.50 C 966 3035 M
5981 0 V
stroke
LT0
0.50 0.50 0.50 C 966 3035 M
63 0 V
5918 0 R
-63 0 V
-6002 0 R
( 21.2132) Rshow
1.000 UL
LT0
0.50 0.50 0.50 C 1.000 UL
LTa
0.50 0.50 0.50 C 966 3126 M
5981 0 V
stroke
LT0
0.50 0.50 0.50 C 966 3126 M
63 0 V
5918 0 R
-63 0 V
-6002 0 R
( 21.9203) Rshow
1.000 UL
LT0
0.50 0.50 0.50 C 1.000 UL
LTa
0.50 0.50 0.50 C 966 3218 M
5981 0 V
stroke
LT0
0.50 0.50 0.50 C 966 3218 M
63 0 V
5918 0 R
-63 0 V
-6002 0 R
( 22.6274) Rshow
1.000 UL
LT0
0.50 0.50 0.50 C 1.000 UL
LTa
0.50 0.50 0.50 C 966 3310 M
5981 0 V
stroke
LT0
0.50 0.50 0.50 C 966 3310 M
63 0 V
5918 0 R
-63 0 V
-6002 0 R
( 23.3345) Rshow
1.000 UL
LT0
0.50 0.50 0.50 C 1.000 UL
LTa
0.50 0.50 0.50 C 966 3402 M
5981 0 V
stroke
LT0
0.50 0.50 0.50 C 966 3402 M
63 0 V
5918 0 R
-63 0 V
-6002 0 R
( 24.0416) Rshow
1.000 UL
LT0
0.50 0.50 0.50 C 1.000 UL
LTa
0.50 0.50 0.50 C 966 3494 M
5981 0 V
stroke
LT0
0.50 0.50 0.50 C 966 3494 M
63 0 V
5918 0 R
-63 0 V
-6002 0 R
( 24.7487) Rshow
1.000 UL
LT0
0.50 0.50 0.50 C 1.000 UL
LTa
0.50 0.50 0.50 C 966 3586 M
5981 0 V
stroke
LT0
0.50 0.50 0.50 C 966 3586 M
63 0 V
5918 0 R
-63 0 V
-6002 0 R
( 25.4558) Rshow
1.000 UL
LT0
0.50 0.50 0.50 C 1.000 UL
LTa
0.50 0.50 0.50 C 966 3677 M
5981 0 V
stroke
LT0
0.50 0.50 0.50 C 966 3677 M
63 0 V
5918 0 R
-63 0 V
-6002 0 R
( 26.1629) Rshow
1.000 UL
LT0
0.50 0.50 0.50 C 1.000 UL
LTa
0.50 0.50 0.50 C 966 3769 M
5981 0 V
stroke
LT0
0.50 0.50 0.50 C 966 3769 M
63 0 V
5918 0 R
-63 0 V
-6002 0 R
( 26.87) Rshow
1.000 UL
LT0
0.50 0.50 0.50 C 1.000 UL
LTa
0.50 0.50 0.50 C 966 3861 M
5981 0 V
stroke
LT0
0.50 0.50 0.50 C 966 3861 M
63 0 V
5918 0 R
-63 0 V
-6002 0 R
( 27.5771) Rshow
1.000 UL
LT0
0.50 0.50 0.50 C 1.000 UL
LTa
0.50 0.50 0.50 C 966 3953 M
5981 0 V
stroke
LT0
0.50 0.50 0.50 C 966 3953 M
63 0 V
5918 0 R
-63 0 V
-6002 0 R
( 28.2842) Rshow
1.000 UL
LT0
0.50 0.50 0.50 C 1.000 UL
LTa
0.50 0.50 0.50 C 966 4045 M
5981 0 V
stroke
LT0
0.50 0.50 0.50 C 966 4045 M
63 0 V
5918 0 R
-63 0 V
-6002 0 R
( 28.9913) Rshow
1.000 UL
LT0
0.50 0.50 0.50 C 1.000 UL
LTa
0.50 0.50 0.50 C 966 4136 M
5981 0 V
stroke
LT0
0.50 0.50 0.50 C 966 4136 M
63 0 V
5918 0 R
-63 0 V
-6002 0 R
( 29.6985) Rshow
1.000 UL
LT0
0.50 0.50 0.50 C 1.000 UL
LTa
0.50 0.50 0.50 C 966 4228 M
5981 0 V
stroke
LT0
0.50 0.50 0.50 C 966 4228 M
63 0 V
5918 0 R
-63 0 V
-6002 0 R
( 30.4056) Rshow
1.000 UL
LT0
0.50 0.50 0.50 C 1.000 UL
LTa
0.50 0.50 0.50 C 966 4320 M
5981 0 V
stroke
LT0
0.50 0.50 0.50 C 966 4320 M
63 0 V
5918 0 R
-63 0 V
-6002 0 R
( 31.1127) Rshow
1.000 UL
LT0
0.50 0.50 0.50 C 1.000 UL
LTa
0.50 0.50 0.50 C 966 4412 M
5981 0 V
stroke
LT0
0.50 0.50 0.50 C 966 4412 M
63 0 V
5918 0 R
-63 0 V
-6002 0 R
( 31.8198) Rshow
1.000 UL
LT0
0.50 0.50 0.50 C 1.000 UL
LTa
0.50 0.50 0.50 C 966 4504 M
5981 0 V
stroke
LT0
0.50 0.50 0.50 C 966 4504 M
63 0 V
5918 0 R
-63 0 V
-6002 0 R
( 32.5269) Rshow
1.000 UL
LT0
0.50 0.50 0.50 C 1.000 UL
LTa
0.50 0.50 0.50 C 966 4596 M
5981 0 V
stroke
LT0
0.50 0.50 0.50 C 966 4596 M
63 0 V
5918 0 R
-63 0 V
-6002 0 R
( 33.234) Rshow
1.000 UL
LT0
0.50 0.50 0.50 C 1.000 UL
LTa
0.50 0.50 0.50 C 966 4687 M
5981 0 V
stroke
LT0
0.50 0.50 0.50 C 966 4687 M
63 0 V
5918 0 R
-63 0 V
-6002 0 R
( 33.9411) Rshow
1.000 UL
LT0
0.50 0.50 0.50 C 1.000 UL
LTa
0.50 0.50 0.50 C 966 4779 M
5981 0 V
stroke
LT0
0.50 0.50 0.50 C 966 4779 M
63 0 V
5918 0 R
-63 0 V
-6002 0 R
( 34.6482) Rshow
1.000 UL
LT0
0.50 0.50 0.50 C 1.000 UL
LTa
0.50 0.50 0.50 C 966 4871 M
5981 0 V
stroke
LT0
0.50 0.50 0.50 C 966 4871 M
63 0 V
5918 0 R
-63 0 V
-6002 0 R
( 35.3553) Rshow
1.000 UL
LT0
0.50 0.50 0.50 C 1.000 UL
LTa
0.50 0.50 0.50 C 966 280 M
0 4591 V
stroke
LT0
0.50 0.50 0.50 C 966 280 M
0 63 V
0 4528 R
0 -63 V
966 140 M
( 0) Cshow
1.000 UL
LT0
0.50 0.50 0.50 C 1.000 UL
LTa
0.50 0.50 0.50 C 1086 280 M
0 4591 V
stroke
LT0
0.50 0.50 0.50 C 1086 280 M
0 63 V
0 4528 R
0 -63 V
0 -4668 R
( 0.707106) Cshow
1.000 UL
LT0
0.50 0.50 0.50 C 1.000 UL
LTa
0.50 0.50 0.50 C 1205 280 M
0 4591 V
stroke
LT0
0.50 0.50 0.50 C 1205 280 M
0 63 V
0 4528 R
0 -63 V
0 -4668 R
( 1.41421) Cshow
1.000 UL
LT0
0.50 0.50 0.50 C 1.000 UL
LTa
0.50 0.50 0.50 C 1325 280 M
0 4591 V
stroke
LT0
0.50 0.50 0.50 C 1325 280 M
0 63 V
0 4528 R
0 -63 V
0 -4668 R
( 2.12132) Cshow
1.000 UL
LT0
0.50 0.50 0.50 C 1.000 UL
LTa
0.50 0.50 0.50 C 1444 280 M
0 4591 V
stroke
LT0
0.50 0.50 0.50 C 1444 280 M
0 63 V
0 4528 R
0 -63 V
0 -4668 R
( 2.82842) Cshow
1.000 UL
LT0
0.50 0.50 0.50 C 1.000 UL
LTa
0.50 0.50 0.50 C 1564 280 M
0 4591 V
stroke
LT0
0.50 0.50 0.50 C 1564 280 M
0 63 V
0 4528 R
0 -63 V
0 -4668 R
( 3.53553) Cshow
1.000 UL
LT0
0.50 0.50 0.50 C 1.000 UL
LTa
0.50 0.50 0.50 C 1684 280 M
0 4591 V
stroke
LT0
0.50 0.50 0.50 C 1684 280 M
0 63 V
0 4528 R
0 -63 V
0 -4668 R
( 4.24264) Cshow
1.000 UL
LT0
0.50 0.50 0.50 C 1.000 UL
LTa
0.50 0.50 0.50 C 1803 280 M
0 4591 V
stroke
LT0
0.50 0.50 0.50 C 1803 280 M
0 63 V
0 4528 R
0 -63 V
0 -4668 R
( 4.94974) Cshow
1.000 UL
LT0
0.50 0.50 0.50 C 1.000 UL
LTa
0.50 0.50 0.50 C 1923 280 M
0 4591 V
stroke
LT0
0.50 0.50 0.50 C 1923 280 M
0 63 V
0 4528 R
0 -63 V
0 -4668 R
( 5.65685) Cshow
1.000 UL
LT0
0.50 0.50 0.50 C 1.000 UL
LTa
0.50 0.50 0.50 C 2043 280 M
0 4591 V
stroke
LT0
0.50 0.50 0.50 C 2043 280 M
0 63 V
0 4528 R
0 -63 V
0 -4668 R
( 6.36395) Cshow
1.000 UL
LT0
0.50 0.50 0.50 C 1.000 UL
LTa
0.50 0.50 0.50 C 2162 280 M
0 4591 V
stroke
LT0
0.50 0.50 0.50 C 2162 280 M
0 63 V
0 4528 R
0 -63 V
0 -4668 R
( 7.07106) Cshow
1.000 UL
LT0
0.50 0.50 0.50 C 1.000 UL
LTa
0.50 0.50 0.50 C 2282 280 M
0 4591 V
stroke
LT0
0.50 0.50 0.50 C 2282 280 M
0 63 V
0 4528 R
0 -63 V
0 -4668 R
( 7.77817) Cshow
1.000 UL
LT0
0.50 0.50 0.50 C 1.000 UL
LTa
0.50 0.50 0.50 C 2401 280 M
0 4591 V
stroke
LT0
0.50 0.50 0.50 C 2401 280 M
0 63 V
0 4528 R
0 -63 V
0 -4668 R
( 8.48527) Cshow
1.000 UL
LT0
0.50 0.50 0.50 C 1.000 UL
LTa
0.50 0.50 0.50 C 2521 280 M
0 4591 V
stroke
LT0
0.50 0.50 0.50 C 2521 280 M
0 63 V
0 4528 R
0 -63 V
0 -4668 R
( 9.19238) Cshow
1.000 UL
LT0
0.50 0.50 0.50 C 1.000 UL
LTa
0.50 0.50 0.50 C 2641 280 M
0 4591 V
stroke
LT0
0.50 0.50 0.50 C 2641 280 M
0 63 V
0 4528 R
0 -63 V
0 -4668 R
( 9.89948) Cshow
1.000 UL
LT0
0.50 0.50 0.50 C 1.000 UL
LTa
0.50 0.50 0.50 C 2760 280 M
0 4591 V
stroke
LT0
0.50 0.50 0.50 C 2760 280 M
0 63 V
0 4528 R
0 -63 V
0 -4668 R
( 10.6066) Cshow
1.000 UL
LT0
0.50 0.50 0.50 C 1.000 UL
LTa
0.50 0.50 0.50 C 2880 280 M
0 4591 V
stroke
LT0
0.50 0.50 0.50 C 2880 280 M
0 63 V
0 4528 R
0 -63 V
0 -4668 R
( 11.3137) Cshow
1.000 UL
LT0
0.50 0.50 0.50 C 1.000 UL
LTa
0.50 0.50 0.50 C 3000 280 M
0 4591 V
stroke
LT0
0.50 0.50 0.50 C 3000 280 M
0 63 V
0 4528 R
0 -63 V
0 -4668 R
( 12.0208) Cshow
1.000 UL
LT0
0.50 0.50 0.50 C 1.000 UL
LTa
0.50 0.50 0.50 C 3119 280 M
0 4591 V
stroke
LT0
0.50 0.50 0.50 C 3119 280 M
0 63 V
0 4528 R
0 -63 V
0 -4668 R
( 12.7279) Cshow
1.000 UL
LT0
0.50 0.50 0.50 C 1.000 UL
LTa
0.50 0.50 0.50 C 3239 280 M
0 4591 V
stroke
LT0
0.50 0.50 0.50 C 3239 280 M
0 63 V
0 4528 R
0 -63 V
0 -4668 R
( 13.435) Cshow
1.000 UL
LT0
0.50 0.50 0.50 C 1.000 UL
LTa
0.50 0.50 0.50 C 3358 280 M
0 4591 V
stroke
LT0
0.50 0.50 0.50 C 3358 280 M
0 63 V
0 4528 R
0 -63 V
0 -4668 R
( 14.1421) Cshow
1.000 UL
LT0
0.50 0.50 0.50 C 1.000 UL
LTa
0.50 0.50 0.50 C 3478 280 M
0 4591 V
stroke
LT0
0.50 0.50 0.50 C 3478 280 M
0 63 V
0 4528 R
0 -63 V
0 -4668 R
( 14.8492) Cshow
1.000 UL
LT0
0.50 0.50 0.50 C 1.000 UL
LTa
0.50 0.50 0.50 C 3598 280 M
0 4591 V
stroke
LT0
0.50 0.50 0.50 C 3598 280 M
0 63 V
0 4528 R
0 -63 V
0 -4668 R
( 15.5563) Cshow
1.000 UL
LT0
0.50 0.50 0.50 C 1.000 UL
LTa
0.50 0.50 0.50 C 3717 280 M
0 4591 V
stroke
LT0
0.50 0.50 0.50 C 3717 280 M
0 63 V
0 4528 R
0 -63 V
0 -4668 R
( 16.2634) Cshow
1.000 UL
LT0
0.50 0.50 0.50 C 1.000 UL
LTa
0.50 0.50 0.50 C 3837 280 M
0 4591 V
stroke
LT0
0.50 0.50 0.50 C 3837 280 M
0 63 V
0 4528 R
0 -63 V
0 -4668 R
( 16.9705) Cshow
1.000 UL
LT0
0.50 0.50 0.50 C 1.000 UL
LTa
0.50 0.50 0.50 C 3956 280 M
0 4591 V
stroke
LT0
0.50 0.50 0.50 C 3956 280 M
0 63 V
0 4528 R
0 -63 V
0 -4668 R
( 17.6776) Cshow
1.000 UL
LT0
0.50 0.50 0.50 C 1.000 UL
LTa
0.50 0.50 0.50 C 4076 280 M
0 4591 V
stroke
LT0
0.50 0.50 0.50 C 4076 280 M
0 63 V
0 4528 R
0 -63 V
0 -4668 R
( 18.3848) Cshow
1.000 UL
LT0
0.50 0.50 0.50 C 1.000 UL
LTa
0.50 0.50 0.50 C 4196 280 M
0 4591 V
stroke
LT0
0.50 0.50 0.50 C 4196 280 M
0 63 V
0 4528 R
0 -63 V
0 -4668 R
( 19.0919) Cshow
1.000 UL
LT0
0.50 0.50 0.50 C 1.000 UL
LTa
0.50 0.50 0.50 C 4315 280 M
0 4591 V
stroke
LT0
0.50 0.50 0.50 C 4315 280 M
0 63 V
0 4528 R
0 -63 V
0 -4668 R
( 19.799) Cshow
1.000 UL
LT0
0.50 0.50 0.50 C 1.000 UL
LTa
0.50 0.50 0.50 C 4435 280 M
0 4591 V
stroke
LT0
0.50 0.50 0.50 C 4435 280 M
0 63 V
0 4528 R
0 -63 V
0 -4668 R
( 20.5061) Cshow
1.000 UL
LT0
0.50 0.50 0.50 C 1.000 UL
LTa
0.50 0.50 0.50 C 4555 280 M
0 4591 V
stroke
LT0
0.50 0.50 0.50 C 4555 280 M
0 63 V
0 4528 R
0 -63 V
0 -4668 R
( 21.2132) Cshow
1.000 UL
LT0
0.50 0.50 0.50 C 1.000 UL
LTa
0.50 0.50 0.50 C 4674 280 M
0 4591 V
stroke
LT0
0.50 0.50 0.50 C 4674 280 M
0 63 V
0 4528 R
0 -63 V
0 -4668 R
( 21.9203) Cshow
1.000 UL
LT0
0.50 0.50 0.50 C 1.000 UL
LTa
0.50 0.50 0.50 C 4794 280 M
0 4591 V
stroke
LT0
0.50 0.50 0.50 C 4794 280 M
0 63 V
0 4528 R
0 -63 V
0 -4668 R
( 22.6274) Cshow
1.000 UL
LT0
0.50 0.50 0.50 C 1.000 UL
LTa
0.50 0.50 0.50 C 4913 280 M
0 4591 V
stroke
LT0
0.50 0.50 0.50 C 4913 280 M
0 63 V
0 4528 R
0 -63 V
0 -4668 R
( 23.3345) Cshow
1.000 UL
LT0
0.50 0.50 0.50 C 1.000 UL
LTa
0.50 0.50 0.50 C 5033 280 M
0 4591 V
stroke
LT0
0.50 0.50 0.50 C 5033 280 M
0 63 V
0 4528 R
0 -63 V
0 -4668 R
( 24.0416) Cshow
1.000 UL
LT0
0.50 0.50 0.50 C 1.000 UL
LTa
0.50 0.50 0.50 C 5153 280 M
0 4591 V
stroke
LT0
0.50 0.50 0.50 C 5153 280 M
0 63 V
0 4528 R
0 -63 V
0 -4668 R
( 24.7487) Cshow
1.000 UL
LT0
0.50 0.50 0.50 C 1.000 UL
LTa
0.50 0.50 0.50 C 5272 280 M
0 4591 V
stroke
LT0
0.50 0.50 0.50 C 5272 280 M
0 63 V
0 4528 R
0 -63 V
0 -4668 R
( 25.4558) Cshow
1.000 UL
LT0
0.50 0.50 0.50 C 1.000 UL
LTa
0.50 0.50 0.50 C 5392 280 M
0 4591 V
stroke
LT0
0.50 0.50 0.50 C 5392 280 M
0 63 V
0 4528 R
0 -63 V
0 -4668 R
( 26.1629) Cshow
1.000 UL
LT0
0.50 0.50 0.50 C 1.000 UL
LTa
0.50 0.50 0.50 C 5512 280 M
0 4591 V
stroke
LT0
0.50 0.50 0.50 C 5512 280 M
0 63 V
0 4528 R
0 -63 V
0 -4668 R
( 26.87) Cshow
1.000 UL
LT0
0.50 0.50 0.50 C 1.000 UL
LTa
0.50 0.50 0.50 C 5631 280 M
0 4591 V
stroke
LT0
0.50 0.50 0.50 C 5631 280 M
0 63 V
0 4528 R
0 -63 V
0 -4668 R
( 27.5771) Cshow
1.000 UL
LT0
0.50 0.50 0.50 C 1.000 UL
LTa
0.50 0.50 0.50 C 5751 280 M
0 4591 V
stroke
LT0
0.50 0.50 0.50 C 5751 280 M
0 63 V
0 4528 R
0 -63 V
0 -4668 R
( 28.2842) Cshow
1.000 UL
LT0
0.50 0.50 0.50 C 1.000 UL
LTa
0.50 0.50 0.50 C 5870 280 M
0 4591 V
stroke
LT0
0.50 0.50 0.50 C 5870 280 M
0 63 V
0 4528 R
0 -63 V
0 -4668 R
( 28.9913) Cshow
1.000 UL
LT0
0.50 0.50 0.50 C 1.000 UL
LTa
0.50 0.50 0.50 C 5990 280 M
0 4591 V
stroke
LT0
0.50 0.50 0.50 C 5990 280 M
0 63 V
0 4528 R
0 -63 V
0 -4668 R
( 29.6985) Cshow
1.000 UL
LT0
0.50 0.50 0.50 C 1.000 UL
LTa
0.50 0.50 0.50 C 6110 280 M
0 4591 V
stroke
LT0
0.50 0.50 0.50 C 6110 280 M
0 63 V
0 4528 R
0 -63 V
0 -4668 R
( 30.4056) Cshow
1.000 UL
LT0
0.50 0.50 0.50 C 1.000 UL
LTa
0.50 0.50 0.50 C 6229 280 M
0 4591 V
stroke
LT0
0.50 0.50 0.50 C 6229 280 M
0 63 V
0 4528 R
0 -63 V
0 -4668 R
( 31.1127) Cshow
1.000 UL
LT0
0.50 0.50 0.50 C 1.000 UL
LTa
0.50 0.50 0.50 C 6349 280 M
0 4591 V
stroke
LT0
0.50 0.50 0.50 C 6349 280 M
0 63 V
0 4528 R
0 -63 V
0 -4668 R
( 31.8198) Cshow
1.000 UL
LT0
0.50 0.50 0.50 C 1.000 UL
LTa
0.50 0.50 0.50 C 6469 280 M
0 4591 V
stroke
LT0
0.50 0.50 0.50 C 6469 280 M
0 63 V
0 4528 R
0 -63 V
0 -4668 R
( 32.5269) Cshow
1.000 UL
LT0
0.50 0.50 0.50 C 1.000 UL
LTa
0.50 0.50 0.50 C 6588 280 M
0 4591 V
stroke
LT0
0.50 0.50 0.50 C 6588 280 M
0 63 V
0 4528 R
0 -63 V
0 -4668 R
( 33.234) Cshow
1.000 UL
LT0
0.50 0.50 0.50 C 1.000 UL
LTa
0.50 0.50 0.50 C 6708 280 M
0 4591 V
stroke
LT0
0.50 0.50 0.50 C 6708 280 M
0 63 V
0 4528 R
0 -63 V
0 -4668 R
( 33.9411) Cshow
1.000 UL
LT0
0.50 0.50 0.50 C 1.000 UL
LTa
0.50 0.50 0.50 C 6827 280 M
0 4591 V
stroke
LT0
0.50 0.50 0.50 C 6827 280 M
0 63 V
0 4528 R
0 -63 V
0 -4668 R
( 34.6482) Cshow
1.000 UL
LT0
0.50 0.50 0.50 C 1.000 UL
LTa
0.50 0.50 0.50 C 6947 280 M
0 4591 V
stroke
LT0
0.50 0.50 0.50 C 6947 280 M
0 63 V
0 4528 R
0 -63 V
0 -4668 R
( 35.3553) Cshow
1.000 UL
LT0
0.50 0.50 0.50 C 1.000 UL
LT0
0.50 0.50 0.50 C 966 4871 M
966 280 L
5981 0 V
0 4591 R
-5981 0 R
1.000 UP
stroke
LT0
0.50 0.50 0.50 C % Begin plot #1
1.500 UP
2.000 UL
LT0
0.00 0.00 1.00 C /Helvetica findfont 140 scalefont setfont
/vshift -46 def
1205 464 M
120 0 V
0 642 R
119 0 V
120 0 V
120 0 V
0 1010 R
119 0 V
120 0 V
120 0 V
119 0 V
120 0 V
119 0 V
120 0 V
120 0 V
0 735 R
119 0 V
120 0 V
0 92 R
120 0 V
119 0 V
120 0 V
119 0 V
0 275 R
120 0 V
120 0 V
119 0 V
120 0 V
120 0 V
119 0 V
120 0 V
0 551 R
119 0 V
120 0 V
120 0 V
119 0 V
120 0 V
119 0 V
120 0 V
0 459 R
120 0 V
119 0 V
120 0 V
120 0 V
119 0 V
120 0 V
119 0 V
120 0 V
0 368 R
120 0 V
119 0 V
120 0 V
120 0 V
119 0 V
120 0 V
966 280 M
120 0 V
6827 4871 M
120 0 V
1086 280 M
119 0 V
6708 4871 M
119 0 V
1205 280 M
0 92 V
0 92 V
120 0 R
0 91 V
0 92 V
0 92 V
0 92 V
0 92 V
0 92 V
0 91 V
359 0 R
0 92 V
0 92 V
0 92 V
0 92 V
0 91 V
0 92 V
0 92 V
0 92 V
0 92 V
0 92 V
0 91 V
957 0 R
0 92 V
0 92 V
0 92 V
0 92 V
0 92 V
0 91 V
0 92 V
0 92 V
239 0 R
0 92 V
478 0 R
0 92 V
0 91 V
0 92 V
838 0 R
0 92 V
0 92 V
0 92 V
stroke 4196 3494 M
0 92 V
0 91 V
0 92 V
837 0 R
0 92 V
0 92 V
0 92 V
0 91 V
0 92 V
957 0 R
0 92 V
0 92 V
0 92 V
0 92 V
718 0 R
0 91 V
0 92 V
0 92 V
1205 464 CircleF
1325 464 CircleF
1325 1106 CircleF
1444 1106 CircleF
1444 1106 CircleF
1564 1106 CircleF
1564 1106 CircleF
1684 1106 CircleF
1684 2116 CircleF
1803 2116 CircleF
1803 2116 CircleF
1923 2116 CircleF
1923 2116 CircleF
2043 2116 CircleF
2043 2116 CircleF
2162 2116 CircleF
2162 2116 CircleF
2282 2116 CircleF
2282 2116 CircleF
2401 2116 CircleF
2401 2116 CircleF
2521 2116 CircleF
2521 2116 CircleF
2641 2116 CircleF
2641 2851 CircleF
2760 2851 CircleF
2760 2851 CircleF
2880 2851 CircleF
2880 2943 CircleF
3000 2943 CircleF
3000 2943 CircleF
3119 2943 CircleF
3119 2943 CircleF
3239 2943 CircleF
3239 2943 CircleF
3358 2943 CircleF
3358 3218 CircleF
3478 3218 CircleF
3478 3218 CircleF
3598 3218 CircleF
3598 3218 CircleF
3717 3218 CircleF
3717 3218 CircleF
3837 3218 CircleF
3837 3218 CircleF
3957 3218 CircleF
3957 3218 CircleF
4076 3218 CircleF
4076 3218 CircleF
4196 3218 CircleF
4196 3769 CircleF
4315 3769 CircleF
4315 3769 CircleF
4435 3769 CircleF
4435 3769 CircleF
4555 3769 CircleF
4555 3769 CircleF
4674 3769 CircleF
4674 3769 CircleF
4794 3769 CircleF
4794 3769 CircleF
4913 3769 CircleF
4913 3769 CircleF
5033 3769 CircleF
5033 4228 CircleF
5153 4228 CircleF
5153 4228 CircleF
5272 4228 CircleF
5272 4228 CircleF
5392 4228 CircleF
5392 4228 CircleF
5512 4228 CircleF
5512 4228 CircleF
5631 4228 CircleF
5631 4228 CircleF
5751 4228 CircleF
5751 4228 CircleF
5870 4228 CircleF
5870 4228 CircleF
5990 4228 CircleF
5990 4596 CircleF
6110 4596 CircleF
6110 4596 CircleF
6229 4596 CircleF
6229 4596 CircleF
6349 4596 CircleF
6349 4596 CircleF
6469 4596 CircleF
6469 4596 CircleF
6588 4596 CircleF
6588 4596 CircleF
6708 4596 CircleF
966 280 CircleF
1086 280 CircleF
6827 4871 CircleF
6947 4871 CircleF
1086 280 CircleF
1205 280 CircleF
6708 4871 CircleF
6827 4871 CircleF
1205 280 CircleF
1205 372 CircleF
1205 372 CircleF
1205 464 CircleF
1325 464 CircleF
1325 555 CircleF
1325 555 CircleF
1325 647 CircleF
1325 647 CircleF
1325 739 CircleF
1325 739 CircleF
1325 831 CircleF
1325 831 CircleF
1325 923 CircleF
1325 923 CircleF
1325 1015 CircleF
1325 1015 CircleF
1325 1106 CircleF
1684 1106 CircleF
1684 1198 CircleF
1684 1198 CircleF
1684 1290 CircleF
1684 1290 CircleF
1684 1382 CircleF
1684 1382 CircleF
1684 1474 CircleF
1684 1474 CircleF
1684 1565 CircleF
1684 1565 CircleF
1684 1657 CircleF
1684 1657 CircleF
1684 1749 CircleF
1684 1749 CircleF
1684 1841 CircleF
1684 1841 CircleF
1684 1933 CircleF
1684 1933 CircleF
1684 2025 CircleF
1684 2025 CircleF
1684 2116 CircleF
2641 2116 CircleF
2641 2208 CircleF
2641 2208 CircleF
2641 2300 CircleF
2641 2300 CircleF
2641 2392 CircleF
2641 2392 CircleF
2641 2484 CircleF
2641 2484 CircleF
2641 2576 CircleF
2641 2576 CircleF
2641 2667 CircleF
2641 2667 CircleF
2641 2759 CircleF
2641 2759 CircleF
2641 2851 CircleF
2880 2851 CircleF
2880 2943 CircleF
3358 2943 CircleF
3358 3035 CircleF
3358 3035 CircleF
3358 3126 CircleF
3358 3126 CircleF
3358 3218 CircleF
4196 3218 CircleF
4196 3310 CircleF
4196 3310 CircleF
4196 3402 CircleF
4196 3402 CircleF
4196 3494 CircleF
4196 3494 CircleF
4196 3586 CircleF
4196 3586 CircleF
4196 3677 CircleF
4196 3677 CircleF
4196 3769 CircleF
5033 3769 CircleF
5033 3861 CircleF
5033 3861 CircleF
5033 3953 CircleF
5033 3953 CircleF
5033 4045 CircleF
5033 4045 CircleF
5033 4136 CircleF
5033 4136 CircleF
5033 4228 CircleF
5990 4228 CircleF
5990 4320 CircleF
5990 4320 CircleF
5990 4412 CircleF
5990 4412 CircleF
5990 4504 CircleF
5990 4504 CircleF
5990 4596 CircleF
6708 4596 CircleF
6708 4687 CircleF
6708 4687 CircleF
6708 4779 CircleF
6708 4779 CircleF
6708 4871 CircleF
% End plot #1
% Begin plot #2
1.500 UP
2.000 UL
LT0
1.00 0.55 0.00 C /Helvetica findfont 140 scalefont setfont
2588 897 M
130 100 V
5590 2226 M
178 136 V
4248 2085 M
215 165 V
1791 2437 M
179 138 V
-9 -62 R
223 171 V
5394 1451 M
129 99 V
998 1689 R
232 179 V
-414 -33 R
139 107 V
2593 1717 M
127 97 V
351 1753 R
183 140 V
2687 1416 M
160 122 V
1811 2618 M
167 129 V
3493 565 R
164 127 V
6369 562 M
119 92 V
3835 4296 M
173 133 V
1875 574 M
228 175 V
485 1432 R
174 134 V
4047 1404 M
137 105 V
1772 838 M
201 155 V
4524 2369 M
154 118 V
4461 4280 M
162 124 V
4061 2218 M
150 116 V
212 -448 R
197 151 V
868 924 R
188 145 V
3385 2160 M
171 131 V
1208 2180 M
226 174 V
287 74 R
157 120 V
3140 4334 M
150 116 V
6330 2844 M
171 132 V
6298 1400 M
132 100 V
6122 4593 M
207 159 V
4555 1446 M
149 114 V
3786 3337 M
139 107 V
-694 617 R
203 156 V
1300 2217 M
125 96 V
3801 4424 M
196 150 V
1616 3622 M
176 135 V
2927 1081 M
175 134 V
5499 4476 M
206 158 V
5199 3948 M
162 124 V
4821 2855 M
176 135 V
6018 1769 M
229 175 V
6217 794 M
144 111 V
2847 2869 M
166 128 V
761 124 R
188 144 V
3352 4622 M
206 158 V
3200 2622 M
218 168 V
2084 3350 M
127 97 V
5187 1614 M
216 166 V
608 859 R
141 109 V
3568 1938 M
155 118 V
393 407 R
192 147 V
1596 566 M
120 93 V
stroke 1716 659 M
-82 3369 R
159 122 V
5990 3532 M
154 118 V
5091 4223 M
130 100 V
3290 2730 M
202 154 V
5037 1146 M
232 179 V
2252 490 M
162 124 V
2634 552 R
151 117 V
-4109 9 R
192 147 V
5497 645 M
222 170 V
5410 2394 M
186 143 V
161 1425 R
145 111 V
1167 2302 M
171 131 V
4585 2075 M
176 135 V
1552 360 M
165 126 V
6183 4376 M
159 122 V
1924 2954 M
135 104 V
5072 4146 M
186 143 V
3255 4404 M
207 159 V
3148 88 R
127 97 V
3834 2655 M
134 102 V
2537 336 R
165 127 V
5665 3517 M
170 131 V
5549 2234 M
191 147 V
5586 4134 M
139 107 V
4645 3708 M
144 110 V
4770 2583 M
234 180 V
-501 442 R
227 174 V
2050 1976 M
232 178 V
6227 426 M
161 124 V
2917 2378 M
137 105 V
4110 727 M
158 121 V
2722 3015 M
229 176 V
1275 2466 M
210 161 V
4640 194 R
204 157 V
2590 854 M
152 116 V
4070 3944 M
128 99 V
5946 3366 M
162 124 V
1554 1806 M
195 149 V
323 1627 R
224 171 V
4171 1946 M
170 129 V
1261 3113 M
127 97 V
5880 4351 M
195 150 V
2978 3002 M
234 180 V
1004 1006 M
192 147 V
5353 619 M
126 96 V
1195 468 R
140 107 V
4790 2003 M
164 126 V
1433 1020 M
132 101 V
5175 565 M
174 134 V
3000 3912 M
153 117 V
5173 3903 M
196 150 V
6183 2306 M
164 125 V
stroke 6347 2431 M
287 106 R
235 180 V
2191 406 M
172 132 V
4969 3450 M
133 103 V
1999 3746 M
157 121 V
3499 3120 M
160 122 V
2549 800 M
212 163 V
751 3537 R
180 138 V
2578 3644 M
213 164 V
2260 184 R
130 101 V
1832 3909 M
140 107 V
6612 3722 M
138 106 V
5931 2227 M
140 108 V
4585 605 M
140 108 V
730 2963 R
155 119 V
6326 2688 M
194 149 V
1335 638 M
195 150 V
3614 3663 M
188 145 V
4481 2613 M
208 160 V
6674 1093 M
140 108 V
1495 4249 M
141 108 V
5487 4034 M
126 97 V
4195 4084 M
162 125 V
5971 1664 M
167 128 V
5172 2931 M
197 151 V
726 -250 R
189 144 V
3973 4260 M
194 149 V
1417 4664 M
170 130 V
4345 2616 M
181 139 V
1450 4477 M
191 147 V
1330 1323 M
182 139 V
4431 -46 R
133 103 V
5250 619 M
144 110 V
4698 4010 M
127 97 V
523 -41 R
219 168 V
637 -528 R
179 138 V
1522 3270 M
232 177 V
1580 1835 M
150 115 V
4899 1018 M
148 113 V
2772 3244 M
184 141 V
4264 548 M
162 124 V
702 73 R
207 158 V
2540 369 M
207 159 V
5804 794 M
217 167 V
4703 3036 M
194 149 V
5983 4527 M
196 150 V
3621 4255 M
215 164 V
4288 2134 M
184 141 V
444 -924 R
215 165 V
-1612 63 R
146 112 V
2423 577 M
200 154 V
6545 2453 M
203 156 V
5867 4549 M
171 132 V
stroke 6038 4681 M
985 3708 M
222 171 V
3334 3144 M
161 123 V
1675 3220 M
177 135 V
4447 -3 R
143 109 V
5724 2346 M
227 174 V
2427 3332 M
216 166 V
4711 1532 M
228 175 V
1617 2990 M
193 149 V
4216 921 M
140 108 V
5431 3586 M
128 99 V
2875 1586 M
207 159 V
2093 2865 M
145 112 V
6642 1935 M
222 170 V
3506 467 M
210 161 V
1426 2161 M
231 178 V
-52 -384 R
154 119 V
3912 923 M
212 163 V
2078 2901 M
190 147 V
780 -784 R
184 141 V
2861 2179 M
138 106 V
6508 395 M
162 124 V
4809 4439 M
158 122 V
6702 2932 M
223 171 V
-898 735 R
126 97 V
1755 1176 M
185 143 V
1277 2455 M
199 153 V
4488 4189 M
164 126 V
5948 1662 M
143 110 V
2591 3615 M
238 183 V
3849 1308 M
194 148 V
5382 3227 M
139 106 V
3602 2251 M
162 124 V
6666 1849 M
168 129 V
2204 2079 M
190 146 V
288 34 R
221 169 V
1112 3656 M
216 166 V
5113 824 M
137 105 V
6065 419 M
212 162 V
-876 447 R
210 161 V
4519 3747 M
150 116 V
1793 3546 M
213 163 V
2491 510 R
216 166 V
5938 3596 M
161 124 V
1355 2050 M
152 117 V
1888 438 R
216 166 V
697 -882 R
173 133 V
4151 425 M
124 96 V
3357 1655 M
174 133 V
6318 738 M
200 154 V
5949 3332 M
121 92 V
-690 286 R
190 146 V
-288 -27 R
225 173 V
stroke 5507 4002 M
3300 3068 M
180 138 V
1479 792 M
140 107 V
6618 3896 M
207 159 V
5293 2250 M
166 128 V
3944 3947 M
207 159 V
3110 2033 M
211 162 V
1805 540 R
184 141 V
843 1122 R
183 141 V
4430 386 M
167 128 V
2006 3962 M
163 125 V
5068 2066 M
225 173 V
1254 582 M
135 104 V
6594 2169 M
121 93 V
4849 2376 M
140 107 V
2192 3199 M
140 108 V
-721 652 R
191 147 V
5011 1080 M
173 133 V
683 -89 R
135 103 V
4765 1142 M
200 154 V
3389 1428 M
134 103 V
1129 2336 M
223 171 V
3500 1739 M
154 118 V
2394 3932 M
213 163 V
5833 3226 M
189 145 V
4109 3868 M
155 119 V
-79 -264 R
141 108 V
821 654 R
201 155 V
4728 3024 M
131 101 V
4052 1216 M
122 93 V
3965 2372 M
229 176 V
6416 1785 M
196 150 V
1808 424 M
213 163 V
324 3821 R
180 139 V
2961 714 M
232 178 V
6025 3871 M
178 137 V
5382 3189 M
230 177 V
-937 766 R
227 174 V
3688 689 M
184 141 V
5112 333 M
209 161 V
2495 2892 M
217 166 V
5860 2659 M
138 106 V
5092 2112 M
205 158 V
5619 836 M
128 99 V
184 1160 R
199 152 V
-347 154 R
209 161 V
2812 4591 M
171 130 V
3248 2579 M
218 167 V
2938 537 R
212 163 V
1013 852 M
161 124 V
1127 557 M
223 172 V
4385 4321 M
207 159 V
3404 638 M
143 109 V
stroke 3547 747 M
3069 3988 M
164 125 V
6058 2485 M
147 112 V
2487 4282 M
194 149 V
2851 1917 M
211 162 V
-163 768 R
145 111 V
1269 491 R
177 136 V
2646 3201 M
126 97 V
4749 2508 M
166 128 V
3520 408 M
219 168 V
651 2266 R
195 150 V
2002 2769 M
123 94 V
6693 2462 M
158 121 V
4067 3818 M
166 128 V
3324 570 M
138 105 V
4723 1865 M
153 118 V
905 2056 R
137 105 V
2618 2429 M
128 98 V
-561 697 R
160 123 V
1038 4217 M
187 143 V
5793 1986 M
122 94 V
3343 1810 M
217 166 V
226 2060 R
184 141 V
6082 2950 M
140 107 V
4088 4683 M
203 155 V
6062 2933 M
213 164 V
2436 918 M
177 136 V
5747 2709 M
226 174 V
4769 1832 M
137 105 V
6669 2951 M
233 179 V
1825 3680 M
205 158 V
4592 360 R
128 99 V
4535 1570 M
143 110 V
3698 3140 M
189 144 V
4271 1648 M
164 126 V
1932 104 R
211 162 V
1352 4508 M
212 163 V
1786 2220 M
167 128 V
2603 871 M
152 117 V
5932 3136 M
195 150 V
-758 403 R
207 158 V
4139 1337 M
150 115 V
-933 947 R
189 145 V
3140 510 R
222 170 V
6219 3065 M
173 132 V
1247 1011 M
168 129 V
3923 4282 M
199 153 V
1163 1583 M
228 175 V
2829 1110 M
174 134 V
4 1677 R
186 143 V
5930 2473 M
191 146 V
5922 1271 M
224 172 V
4320 1204 M
234 179 V
stroke 4554 1383 M
2064 2930 M
129 99 V
3663 1471 M
160 122 V
1543 86 R
216 165 V
3797 2458 M
139 107 V
3439 3788 M
173 133 V
3488 928 M
162 124 V
2253 580 R
211 162 V
1260 4177 M
162 124 V
6454 3737 M
179 137 V
3209 4296 M
236 180 V
4989 1374 M
187 145 V
-2800 -9 R
136 104 V
4288 4617 M
166 127 V
468 -679 R
127 97 V
4508 2221 M
234 179 V
6195 4146 M
142 109 V
1742 3725 M
209 160 V
6488 1806 M
197 152 V
3739 728 M
168 128 V
1551 157 R
167 128 V
3374 3741 M
177 136 V
5259 1551 M
180 139 V
6131 800 M
127 98 V
4926 2086 M
135 104 V
634 -961 R
237 181 V
2013 2677 M
131 100 V
1958 1639 M
201 154 V
522 -450 R
122 94 V
1530 2235 M
139 107 V
2858 330 R
189 146 V
4189 1100 M
190 145 V
2143 1646 M
178 137 V
6096 1636 M
130 100 V
4417 4410 M
191 146 V
1448 2982 M
160 123 V
3304 547 R
197 151 V
1836 3238 M
131 101 V
-575 -79 R
141 108 V
4006 1769 M
213 164 V
209 -848 R
237 181 V
-50 2333 R
178 137 V
2313 2241 M
155 119 V
2405 699 M
159 122 V
1875 1987 M
178 136 V
1381 3984 M
153 118 V
2748 1915 M
158 121 V
5751 3552 M
144 111 V
-932 -64 R
166 127 V
4038 455 M
173 134 V
1572 2302 M
161 124 V
926 1776 R
216 165 V
3756 44 R
162 124 V
stroke 6793 4535 M
1597 3115 M
144 110 V
4771 1485 M
149 115 V
2907 913 M
158 121 V
5564 4304 M
135 104 V
1873 1272 M
126 96 V
1467 3151 M
145 111 V
2455 -59 R
226 174 V
-427 686 R
196 150 V
5270 1358 M
144 111 V
2307 4157 M
224 172 V
2763 112 R
180 138 V
4947 4301 M
228 175 V
3734 844 M
159 123 V
2952 4044 M
135 104 V
3376 1690 M
158 122 V
4839 3892 M
189 145 V
-13 -437 R
142 109 V
1469 520 M
126 97 V
4057 3105 M
169 130 V
1068 81 R
136 105 V
1623 813 M
197 150 V
4929 3250 M
216 165 V
41 1166 R
172 132 V
4502 3467 M
201 155 V
6228 2873 M
203 156 V
4488 4181 M
237 182 V
6407 2875 M
167 129 V
3786 1230 M
188 145 V
1741 3868 M
177 136 V
3153 1101 M
123 95 V
2465 2588 M
122 94 V
5096 1178 M
191 146 V
6418 2359 M
122 94 V
1389 2810 M
179 137 V
1151 675 M
233 179 V
3579 2959 M
236 181 V
5163 450 M
130 100 V
3828 3225 M
182 140 V
4660 1740 M
166 127 V
930 413 R
238 183 V
5699 1630 M
155 119 V
348 1336 R
189 145 V
5830 723 M
231 176 V
3651 2539 M
236 181 V
1009 991 R
123 95 V
1779 3488 M
159 122 V
4306 3038 M
234 180 V
2670 3429 M
188 144 V
401 -249 R
200 154 V
2484 1113 M
238 182 V
5833 1109 M
147 113 V
3645 1434 M
165 127 V
stroke 3810 1561 M
1806 2864 M
206 159 V
2535 662 R
181 139 V
2443 557 M
150 116 V
3649 2375 M
125 96 V
2659 3159 M
204 156 V
2200 4605 M
223 172 V
1696 4127 M
155 119 V
4994 1850 M
238 182 V
4576 1420 M
209 160 V
6481 1118 M
187 143 V
2928 2860 M
184 141 V
1305 2855 M
213 164 V
2971 448 M
236 181 V
2177 1986 M
188 144 V
2289 -36 R
127 97 V
5948 2089 M
185 143 V
6513 527 M
166 127 V
5270 4576 M
205 157 V
2193 3407 M
191 146 V
3663 2990 M
190 147 V
2241 3596 M
230 177 V
1785 -65 R
188 144 V
4972 2495 M
179 138 V
2932 1317 M
223 172 V
6084 1239 M
135 103 V
4043 1054 M
134 103 V
5431 776 M
192 147 V
3585 1516 M
228 176 V
1678 1122 M
222 170 V
3638 2431 M
195 150 V
2267 776 M
168 129 V
6334 2307 M
132 102 V
6673 1121 M
134 103 V
5864 2838 M
236 181 V
1227 1608 M
167 128 V
4564 1381 M
237 181 V
2348 4533 M
145 112 V
5313 2150 M
228 176 V
5126 1638 M
221 169 V
1658 357 M
160 123 V
3191 3467 M
170 130 V
359 1061 R
202 155 V
1869 3460 M
154 118 V
4694 2150 M
185 142 V
1722 2530 M
123 94 V
1640 4611 M
141 108 V
5274 2388 M
200 153 V
1408 1550 M
158 122 V
3054 888 R
236 181 V
2537 2639 M
156 120 V
5811 2455 M
154 118 V
3762 1597 M
215 164 V
stroke 3977 1761 M
1161 2615 M
195 150 V
996 -353 R
181 139 V
2423 348 M
153 117 V
5070 4388 M
230 176 V
5907 422 M
163 125 V
3199 4358 M
226 174 V
3373 2739 M
218 167 V
91 -595 R
233 179 V
1627 1251 M
139 106 V
6321 3857 M
171 132 V
6272 2386 M
210 161 V
972 4109 M
235 180 V
2510 1224 M
166 127 V
5504 3486 M
151 115 V
5972 1808 M
147 113 V
3333 1188 M
140 108 V
5090 4148 M
123 95 V
-3770 45 R
189 145 V
3450 1916 M
199 152 V
-609 642 R
159 122 V
2530 2321 M
152 116 V
3842 1879 M
168 129 V
-158 99 R
168 129 V
4758 1231 M
188 144 V
1211 2593 M
219 168 V
5305 1176 M
163 125 V
1126 2408 M
153 118 V
2798 706 R
232 179 V
3757 1903 M
208 160 V
-399 -18 R
149 114 V
2212 1867 M
219 168 V
2127 673 M
170 131 V
6315 3733 M
237 182 V
6090 3661 M
172 132 V
1863 4273 M
167 129 V
4461 1179 M
195 150 V
2 1716 R
192 148 V
1236 1345 M
171 131 V
3910 813 R
153 117 V
6519 4537 M
183 141 V
1281 2495 M
151 115 V
81 1874 R
175 134 V
1308 3807 M
192 147 V
3349 2761 M
197 151 V
4715 2726 M
169 130 V
-81 849 R
141 109 V
1832 2020 M
170 130 V
4107 355 M
225 173 V
1527 1923 M
225 173 V
5086 986 M
164 126 V
4296 3674 M
144 111 V
3729 1264 M
218 167 V
stroke 3947 1431 M
3991 311 M
179 136 V
5354 2340 M
166 128 V
5391 821 M
141 108 V
2003 4202 M
224 172 V
2674 2715 M
208 159 V
302 888 R
201 154 V
-1773 68 R
218 168 V
4678 717 M
125 96 V
2366 999 M
167 128 V
1191 2243 M
182 140 V
5161 4029 M
193 148 V
3018 1861 M
164 125 V
2342 4239 M
229 175 V
3064 674 M
142 109 V
1675 566 R
222 170 V
177 1635 R
187 143 V
4244 2642 M
221 170 V
6565 2459 M
161 123 V
6176 2104 M
123 94 V
992 3158 M
158 121 V
3250 0 R
130 99 V
3764 2905 M
163 125 V
2399 3325 M
203 156 V
1727 2758 M
147 113 V
-121 827 R
213 164 V
5742 1444 M
184 141 V
-4869 23 R
155 119 V
4224 4415 M
135 104 V
3444 2265 M
210 160 V
41 -870 R
180 139 V
-10 778 R
123 94 V
6329 2094 M
196 150 V
4899 3565 M
167 129 V
6103 2252 M
135 103 V
2790 3006 M
213 163 V
5097 3024 M
121 93 V
4137 2873 M
167 128 V
3866 4458 M
124 95 V
6609 2936 M
143 109 V
4882 2937 M
198 152 V
2784 2624 M
139 107 V
4764 1127 M
173 133 V
457 2863 R
187 143 V
6049 2758 M
234 180 V
1159 1299 M
235 181 V
3097 3985 M
203 156 V
2443 1363 M
205 157 V
6113 3035 M
170 130 V
5236 2578 M
194 149 V
2231 2651 M
205 157 V
2289 -54 R
219 168 V
3598 691 M
203 156 V
stroke 3801 847 M
3509 638 M
127 98 V
763 3190 R
224 171 V
3707 1830 M
184 141 V
1970 3909 M
204 156 V
5324 1655 M
169 129 V
4342 558 M
235 181 V
4052 2851 M
154 119 V
3945 4648 M
226 173 V
3123 4500 M
152 117 V
6251 3681 M
172 132 V
2131 3228 M
154 119 V
143 -980 R
183 140 V
3814 2324 M
145 111 V
4675 1308 M
221 170 V
3029 1997 M
137 105 V
6076 1191 M
222 171 V
2107 3898 M
175 135 V
3339 3835 M
195 150 V
4238 1114 M
186 143 V
2664 3833 M
159 122 V
6626 3106 M
155 119 V
4537 3685 M
152 116 V
1916 3052 M
153 118 V
2727 -98 R
172 132 V
2480 971 M
142 109 V
5946 3046 M
144 111 V
3738 3295 M
167 128 V
2916 444 M
159 122 V
5873 3240 M
190 146 V
2966 886 M
180 138 V
5525 4632 M
162 124 V
3476 3089 M
156 120 V
2307 4479 M
213 164 V
2858 2233 M
225 173 V
4855 605 M
133 102 V
78 1716 R
158 122 V
1527 4315 M
222 170 V
3745 594 M
180 138 V
4050 300 M
186 143 V
6345 3703 M
153 117 V
5056 379 M
230 177 V
1141 4575 M
211 162 V
3079 2633 M
150 115 V
1616 1171 M
234 180 V
3461 493 R
226 173 V
-4175 81 R
185 141 V
5116 3621 M
151 116 V
5802 769 M
122 94 V
3002 3068 M
225 173 V
1978 1227 M
124 95 V
5252 4485 M
229 176 V
5414 2200 M
232 178 V
stroke 5646 2378 M
5266 822 M
209 160 V
351 2367 R
159 121 V
675 -269 R
190 146 V
2853 4332 M
135 103 V
1200 865 M
236 181 V
816 2281 R
121 93 V
6645 1794 M
219 168 V
3294 1709 M
145 112 V
2279 3609 M
157 120 V
2684 510 M
159 122 V
4732 1726 M
181 138 V
4133 3437 M
160 123 V
1826 2089 M
130 100 V
6271 3846 M
199 153 V
3701 3101 M
198 152 V
4758 1056 M
177 136 V
41 2689 R
196 151 V
814 381 R
121 92 V
2868 3289 M
121 93 V
2738 98 R
179 137 V
5576 2853 M
152 117 V
112 23 R
134 104 V
4598 2630 M
232 178 V
784 1077 R
213 164 V
4362 942 M
224 173 V
5774 2391 M
161 123 V
4916 4081 M
178 137 V
6471 2019 M
160 122 V
2170 873 M
204 156 V
1050 1170 M
227 174 V
6621 638 M
216 166 V
1691 4652 M
233 179 V
2046 492 M
122 93 V
494 893 R
137 105 V
4123 3947 M
136 104 V
2295 986 M
160 123 V
4122 -53 R
220 169 V
2616 4419 M
178 138 V
6657 3757 M
238 182 V
2439 1611 M
134 103 V
1214 3730 M
231 177 V
3606 296 R
204 156 V
5636 2967 M
165 127 V
1795 4154 M
140 107 V
4819 2278 M
180 138 V
3820 2746 M
181 139 V
6467 1972 M
171 131 V
3998 1675 M
136 104 V
6702 3709 M
225 173 V
4680 1867 M
140 107 V
3331 4380 M
198 152 V
6047 1980 M
172 131 V
stroke 6219 2111 M
412 -895 R
136 105 V
1795 1779 M
180 138 V
2966 909 R
201 155 V
367 -606 R
227 174 V
5454 2149 M
209 160 V
1312 3038 M
138 106 V
1035 1351 M
201 154 V
2297 2897 M
188 144 V
1558 1449 M
209 161 V
-34 367 R
192 147 V
4698 3680 M
148 114 V
6682 1839 M
235 181 V
4900 1313 M
163 125 V
4871 1040 M
163 125 V
-75 1512 R
183 140 V
6166 2480 M
195 150 V
1758 4546 M
147 113 V
1313 4413 M
164 126 V
5226 3359 M
198 152 V
822 -424 R
165 126 V
5219 2826 M
201 154 V
3872 2125 M
235 180 V
1678 4574 M
156 120 V
2576 3245 M
172 133 V
3459 926 R
202 155 V
6393 2202 M
199 153 V
3172 2838 M
204 157 V
1304 807 M
190 146 V
2716 878 R
191 147 V
3231 3039 M
203 156 V
5705 2827 M
208 160 V
1366 2457 M
210 161 V
1074 192 R
157 120 V
225 1246 R
131 100 V
3009 1952 M
141 108 V
1565 1497 M
229 175 V
5094 516 M
150 116 V
4521 2213 M
184 141 V
3127 2498 M
148 114 V
777 -696 R
182 139 V
3765 765 M
140 107 V
6560 3522 M
211 162 V
1155 930 M
225 173 V
4641 3500 M
224 172 V
6269 837 M
186 142 V
-5178 42 R
182 139 V
1270 81 R
179 138 V
3327 552 M
203 156 V
1918 927 M
229 176 V
5420 3325 M
175 134 V
4699 2506 M
205 157 V
311 1488 R
174 134 V
stroke 5389 4285 M
6099 462 M
167 129 V
5606 3532 M
166 128 V
2241 4645 M
196 150 V
6090 4460 M
148 113 V
2121 3464 M
138 106 V
1190 810 R
210 161 V
6278 2195 M
225 172 V
4851 3925 M
191 147 V
1214 1533 M
224 172 V
6137 1120 M
171 131 V
-1219 37 R
124 95 V
3596 4686 M
237 181 V
5974 3421 M
225 173 V
2795 3576 M
212 162 V
2447 3184 M
200 153 V
-1512 81 R
209 161 V
3088 951 M
178 137 V
5313 2428 M
168 128 V
5015 1555 M
157 120 V
805 2623 R
187 143 V
2320 3329 M
229 176 V
5675 1347 M
210 161 V
3921 3172 M
206 158 V
1549 1103 M
127 97 V
5642 3271 M
238 183 V
1228 3265 M
207 159 V
1209 4436 M
175 134 V
2491 2081 M
195 149 V
1340 2199 M
189 145 V
1670 350 M
195 149 V
4847 1653 M
167 129 V
135 -645 R
154 118 V
3917 3083 M
213 164 V
1964 827 R
163 125 V
1409 1945 M
148 114 V
3482 4302 M
172 131 V
2997 1356 M
164 126 V
-316 290 R
195 150 V
506 2001 R
210 161 V
6574 1231 M
231 177 V
2339 3424 M
201 155 V
476 692 R
168 129 V
2510 2673 M
185 142 V
4735 1660 M
191 147 V
1767 496 R
155 119 V
3622 408 M
168 129 V
5800 4348 M
192 148 V
6488 1323 M
145 111 V
2941 336 M
145 111 V
4462 2653 M
231 177 V
1338 443 M
147 113 V
6015 2164 M
135 103 V
stroke 6150 2267 M
2195 477 M
235 181 V
638 1048 R
178 137 V
2520 1594 M
199 152 V
2482 4131 M
211 161 V
2522 1356 M
123 95 V
3435 924 M
215 165 V
3198 2834 M
145 112 V
1020 915 R
124 96 V
1282 3917 M
180 138 V
2589 3159 M
175 135 V
5461 2040 M
140 108 V
657 2401 R
218 167 V
4591 629 M
169 130 V
4499 2553 M
120 93 V
6652 4561 M
170 131 V
2844 4114 M
139 107 V
2439 3162 M
157 121 V
6391 1983 M
232 178 V
5368 3736 M
171 130 V
-48 -163 R
232 178 V
4104 1479 M
207 159 V
2468 2026 M
123 94 V
1644 1502 M
149 114 V
3706 208 R
180 139 V
1587 645 M
183 140 V
4836 4262 M
215 166 V
5964 2205 M
145 111 V
2998 538 M
123 94 V
164 1599 R
200 154 V
1283 3064 M
157 121 V
6196 4465 M
198 152 V
4184 2384 M
221 170 V
4295 1077 M
213 164 V
1426 918 M
235 181 V
5981 4346 M
123 94 V
2796 4217 M
225 172 V
2238 18 R
131 101 V
2078 2986 M
206 159 V
3505 151 R
154 118 V
4188 3114 M
202 155 V
4194 672 M
185 142 V
721 3776 R
237 182 V
949 -801 R
181 139 V
5182 3772 M
208 159 V
4184 764 M
233 179 V
529 2670 R
133 102 V
5763 1754 M
138 106 V
1445 3318 M
217 166 V
1140 4676 M
199 152 V
2963 2770 M
128 98 V
5673 1968 M
138 106 V
5127 1349 M
158 121 V
stroke 5285 1470 M
4191 1883 M
153 118 V
5923 1491 M
164 126 V
3519 2105 M
139 106 V
2530 2951 M
189 145 V
2133 2411 M
214 165 V
-175 26 R
162 124 V
1950 2401 M
126 97 V
1001 314 R
175 134 V
2221 1833 M
122 94 V
800 411 R
209 161 V
2214 1075 M
215 165 V
2690 583 R
180 138 V
-40 731 R
199 153 V
-995 531 R
144 110 V
4230 2779 M
204 156 V
4008 2070 M
195 150 V
4230 770 M
157 121 V
2588 897 CircleF
2718 997 CircleF
5590 2226 CircleF
5768 2362 CircleF
4248 2085 CircleF
4463 2250 CircleF
1791 2437 CircleF
1970 2575 CircleF
1961 2513 CircleF
2184 2684 CircleF
5394 1451 CircleF
5523 1550 CircleF
6521 3239 CircleF
6753 3418 CircleF
6339 3385 CircleF
6478 3492 CircleF
2593 1717 CircleF
2720 1814 CircleF
3071 3567 CircleF
3254 3707 CircleF
2687 1416 CircleF
2847 1538 CircleF
1811 2618 CircleF
1978 2747 CircleF
5471 3312 CircleF
5635 3439 CircleF
6369 562 CircleF
6488 654 CircleF
3835 4296 CircleF
4008 4429 CircleF
1875 574 CircleF
2103 749 CircleF
2588 2181 CircleF
2762 2315 CircleF
4047 1404 CircleF
4184 1509 CircleF
1772 838 CircleF
1973 993 CircleF
4524 2369 CircleF
4678 2487 CircleF
4461 4280 CircleF
4623 4404 CircleF
4061 2218 CircleF
4211 2334 CircleF
4423 1886 CircleF
4620 2037 CircleF
5488 2961 CircleF
5676 3106 CircleF
3385 2160 CircleF
3556 2291 CircleF
1208 2180 CircleF
1434 2354 CircleF
1721 2428 CircleF
1878 2548 CircleF
3140 4334 CircleF
3290 4450 CircleF
6330 2844 CircleF
6501 2976 CircleF
6298 1400 CircleF
6430 1500 CircleF
6122 4593 CircleF
6329 4752 CircleF
4555 1446 CircleF
4704 1560 CircleF
3786 3337 CircleF
3925 3444 CircleF
3231 4061 CircleF
3434 4217 CircleF
1300 2217 CircleF
1425 2313 CircleF
3801 4424 CircleF
3997 4574 CircleF
1616 3622 CircleF
1792 3757 CircleF
2927 1081 CircleF
3102 1215 CircleF
5499 4476 CircleF
5705 4634 CircleF
5199 3948 CircleF
5361 4072 CircleF
4821 2855 CircleF
4997 2990 CircleF
6018 1769 CircleF
6247 1944 CircleF
6217 794 CircleF
6361 905 CircleF
2847 2869 CircleF
3013 2997 CircleF
3774 3121 CircleF
3962 3265 CircleF
3352 4622 CircleF
3558 4780 CircleF
3200 2622 CircleF
3418 2790 CircleF
2084 3350 CircleF
2211 3447 CircleF
5187 1614 CircleF
5403 1780 CircleF
6011 2639 CircleF
6152 2748 CircleF
3568 1938 CircleF
3723 2056 CircleF
4116 2463 CircleF
4308 2610 CircleF
1596 566 CircleF
1716 659 CircleF
1634 4028 CircleF
1793 4150 CircleF
5990 3532 CircleF
6144 3650 CircleF
5091 4223 CircleF
5221 4323 CircleF
3290 2730 CircleF
3492 2884 CircleF
5037 1146 CircleF
5269 1325 CircleF
2252 490 CircleF
2414 614 CircleF
5048 1166 CircleF
5199 1283 CircleF
1090 1292 CircleF
1282 1439 CircleF
5497 645 CircleF
5719 815 CircleF
5410 2394 CircleF
5596 2537 CircleF
5757 3962 CircleF
5902 4073 CircleF
1167 2302 CircleF
1338 2433 CircleF
4585 2075 CircleF
4761 2210 CircleF
1552 360 CircleF
1717 486 CircleF
6183 4376 CircleF
6342 4498 CircleF
1924 2954 CircleF
2059 3058 CircleF
5072 4146 CircleF
5258 4289 CircleF
3255 4404 CircleF
3462 4563 CircleF
6610 4651 CircleF
6737 4748 CircleF
3834 2655 CircleF
3968 2757 CircleF
6505 3093 CircleF
6670 3220 CircleF
5665 3517 CircleF
5835 3648 CircleF
5549 2234 CircleF
5740 2381 CircleF
5586 4134 CircleF
5725 4241 CircleF
4645 3708 CircleF
4789 3818 CircleF
4770 2583 CircleF
5004 2763 CircleF
4503 3205 CircleF
4730 3379 CircleF
2050 1976 CircleF
2282 2154 CircleF
6227 426 CircleF
6388 550 CircleF
2917 2378 CircleF
3054 2483 CircleF
4110 727 CircleF
4268 848 CircleF
2722 3015 CircleF
2951 3191 CircleF
1275 2466 CircleF
1485 2627 CircleF
6125 2821 CircleF
6329 2978 CircleF
2590 854 CircleF
2742 970 CircleF
4070 3944 CircleF
4198 4043 CircleF
5946 3366 CircleF
6108 3490 CircleF
1554 1806 CircleF
1749 1955 CircleF
2072 3582 CircleF
2296 3753 CircleF
4171 1946 CircleF
4341 2075 CircleF
1261 3113 CircleF
1388 3210 CircleF
5880 4351 CircleF
6075 4501 CircleF
2978 3002 CircleF
3212 3182 CircleF
1004 1006 CircleF
1196 1153 CircleF
5353 619 CircleF
5479 715 CircleF
6674 1183 CircleF
6814 1290 CircleF
4790 2003 CircleF
4954 2129 CircleF
1433 1020 CircleF
1565 1121 CircleF
5175 565 CircleF
5349 699 CircleF
3000 3912 CircleF
3153 4029 CircleF
5173 3903 CircleF
5369 4053 CircleF
6183 2306 CircleF
6347 2431 CircleF
6634 2537 CircleF
6869 2717 CircleF
2191 406 CircleF
2363 538 CircleF
4969 3450 CircleF
5102 3553 CircleF
1999 3746 CircleF
2156 3867 CircleF
3499 3120 CircleF
3659 3242 CircleF
2549 800 CircleF
2761 963 CircleF
3512 4500 CircleF
3692 4638 CircleF
2578 3644 CircleF
2791 3808 CircleF
5051 3992 CircleF
5181 4093 CircleF
1832 3909 CircleF
1972 4016 CircleF
6612 3722 CircleF
6750 3828 CircleF
5931 2227 CircleF
6071 2335 CircleF
4585 605 CircleF
4725 713 CircleF
5455 3676 CircleF
5610 3795 CircleF
6326 2688 CircleF
6520 2837 CircleF
1335 638 CircleF
1530 788 CircleF
3614 3663 CircleF
3802 3808 CircleF
4481 2613 CircleF
4689 2773 CircleF
6674 1093 CircleF
6814 1201 CircleF
1495 4249 CircleF
1636 4357 CircleF
5487 4034 CircleF
5613 4131 CircleF
4195 4084 CircleF
4357 4209 CircleF
5971 1664 CircleF
6138 1792 CircleF
5172 2931 CircleF
5369 3082 CircleF
6095 2832 CircleF
6284 2976 CircleF
3973 4260 CircleF
4167 4409 CircleF
1417 4664 CircleF
1587 4794 CircleF
4345 2616 CircleF
4526 2755 CircleF
1450 4477 CircleF
1641 4624 CircleF
1330 1323 CircleF
1512 1462 CircleF
5943 1416 CircleF
6076 1519 CircleF
5250 619 CircleF
5394 729 CircleF
4698 4010 CircleF
4825 4107 CircleF
5348 4066 CircleF
5567 4234 CircleF
6204 3706 CircleF
6383 3844 CircleF
1522 3270 CircleF
1754 3447 CircleF
1580 1835 CircleF
1730 1950 CircleF
4899 1018 CircleF
5047 1131 CircleF
2772 3244 CircleF
2956 3385 CircleF
4264 548 CircleF
4426 672 CircleF
5128 745 CircleF
5335 903 CircleF
2540 369 CircleF
2747 528 CircleF
5804 794 CircleF
6021 961 CircleF
4703 3036 CircleF
4897 3185 CircleF
5983 4527 CircleF
6179 4677 CircleF
3621 4255 CircleF
3836 4419 CircleF
4288 2134 CircleF
4472 2275 CircleF
4916 1351 CircleF
5131 1516 CircleF
3519 1579 CircleF
3665 1691 CircleF
2423 577 CircleF
2623 731 CircleF
6545 2453 CircleF
6748 2609 CircleF
5867 4549 CircleF
6038 4681 CircleF
985 3708 CircleF
1207 3879 CircleF
3334 3144 CircleF
3495 3267 CircleF
1675 3220 CircleF
1852 3355 CircleF
6299 3352 CircleF
6442 3461 CircleF
5724 2346 CircleF
5951 2520 CircleF
2427 3332 CircleF
2643 3498 CircleF
4711 1532 CircleF
4939 1707 CircleF
1617 2990 CircleF
1810 3139 CircleF
4216 921 CircleF
4356 1029 CircleF
5431 3586 CircleF
5559 3685 CircleF
2875 1586 CircleF
3082 1745 CircleF
2093 2865 CircleF
2238 2977 CircleF
6642 1935 CircleF
6864 2105 CircleF
3506 467 CircleF
3716 628 CircleF
1426 2161 CircleF
1657 2339 CircleF
1605 1955 CircleF
1759 2074 CircleF
3912 923 CircleF
4124 1086 CircleF
2078 2901 CircleF
2268 3048 CircleF
3048 2264 CircleF
3232 2405 CircleF
2861 2179 CircleF
2999 2285 CircleF
6508 395 CircleF
6670 519 CircleF
4809 4439 CircleF
4967 4561 CircleF
6702 2932 CircleF
6925 3103 CircleF
6027 3838 CircleF
6153 3935 CircleF
1755 1176 CircleF
1940 1319 CircleF
1277 2455 CircleF
1476 2608 CircleF
4488 4189 CircleF
4652 4315 CircleF
5948 1662 CircleF
6091 1772 CircleF
2591 3615 CircleF
2829 3798 CircleF
3849 1308 CircleF
4043 1456 CircleF
5382 3227 CircleF
5521 3333 CircleF
3602 2251 CircleF
3764 2375 CircleF
6666 1849 CircleF
6834 1978 CircleF
2204 2079 CircleF
2394 2225 CircleF
2682 2259 CircleF
2903 2428 CircleF
1112 3656 CircleF
1328 3822 CircleF
5113 824 CircleF
5250 929 CircleF
6065 419 CircleF
6277 581 CircleF
5401 1028 CircleF
5611 1189 CircleF
4519 3747 CircleF
4669 3863 CircleF
1793 3546 CircleF
2006 3709 CircleF
4497 4219 CircleF
4713 4385 CircleF
5938 3596 CircleF
6099 3720 CircleF
1355 2050 CircleF
1507 2167 CircleF
3395 2605 CircleF
3611 2771 CircleF
4308 1889 CircleF
4481 2022 CircleF
4151 425 CircleF
4275 521 CircleF
3357 1655 CircleF
3531 1788 CircleF
6318 738 CircleF
6518 892 CircleF
5949 3332 CircleF
6070 3424 CircleF
5380 3710 CircleF
5570 3856 CircleF
5282 3829 CircleF
5507 4002 CircleF
3300 3068 CircleF
3480 3206 CircleF
1479 792 CircleF
1619 899 CircleF
6618 3896 CircleF
6825 4055 CircleF
5293 2250 CircleF
5459 2378 CircleF
3944 3947 CircleF
4151 4106 CircleF
3110 2033 CircleF
3321 2195 CircleF
5126 2735 CircleF
5310 2876 CircleF
6153 3998 CircleF
6336 4139 CircleF
4430 386 CircleF
4597 514 CircleF
2006 3962 CircleF
2169 4087 CircleF
5068 2066 CircleF
5293 2239 CircleF
1254 582 CircleF
1389 686 CircleF
6594 2169 CircleF
6715 2262 CircleF
4849 2376 CircleF
4989 2483 CircleF
2192 3199 CircleF
2332 3307 CircleF
1611 3959 CircleF
1802 4106 CircleF
5011 1080 CircleF
5184 1213 CircleF
5867 1124 CircleF
6002 1227 CircleF
4765 1142 CircleF
4965 1296 CircleF
3389 1428 CircleF
3523 1531 CircleF
1129 2336 CircleF
1352 2507 CircleF
3500 1739 CircleF
3654 1857 CircleF
2394 3932 CircleF
2607 4095 CircleF
5833 3226 CircleF
6022 3371 CircleF
4109 3868 CircleF
4264 3987 CircleF
4185 3723 CircleF
4326 3831 CircleF
5147 4485 CircleF
5348 4640 CircleF
4728 3024 CircleF
4859 3125 CircleF
4052 1216 CircleF
4174 1309 CircleF
3965 2372 CircleF
4194 2548 CircleF
6416 1785 CircleF
6612 1935 CircleF
1808 424 CircleF
2021 587 CircleF
2345 4408 CircleF
2525 4547 CircleF
2961 714 CircleF
3193 892 CircleF
6025 3871 CircleF
6203 4008 CircleF
5382 3189 CircleF
5612 3366 CircleF
4675 4132 CircleF
4902 4306 CircleF
3688 689 CircleF
3872 830 CircleF
5112 333 CircleF
5321 494 CircleF
2495 2892 CircleF
2712 3058 CircleF
5860 2659 CircleF
5998 2765 CircleF
5092 2112 CircleF
5297 2270 CircleF
5619 836 CircleF
5747 935 CircleF
5931 2095 CircleF
6130 2247 CircleF
5783 2401 CircleF
5992 2562 CircleF
2812 4591 CircleF
2983 4721 CircleF
3248 2579 CircleF
3466 2746 CircleF
6404 3283 CircleF
6616 3446 CircleF
1013 852 CircleF
1174 976 CircleF
1127 557 CircleF
1350 729 CircleF
4385 4321 CircleF
4592 4480 CircleF
3404 638 CircleF
3547 747 CircleF
3069 3988 CircleF
3233 4113 CircleF
6058 2485 CircleF
6205 2597 CircleF
2487 4282 CircleF
2681 4431 CircleF
2851 1917 CircleF
3062 2079 CircleF
2899 2847 CircleF
3044 2958 CircleF
4313 3449 CircleF
4490 3585 CircleF
2646 3201 CircleF
2772 3298 CircleF
4749 2508 CircleF
4915 2636 CircleF
3520 408 CircleF
3739 576 CircleF
4390 2842 CircleF
4585 2992 CircleF
2002 2769 CircleF
2125 2863 CircleF
6693 2462 CircleF
6851 2583 CircleF
4067 3818 CircleF
4233 3946 CircleF
3324 570 CircleF
3462 675 CircleF
4723 1865 CircleF
4876 1983 CircleF
5781 4039 CircleF
5918 4144 CircleF
2618 2429 CircleF
2746 2527 CircleF
2185 3224 CircleF
2345 3347 CircleF
1038 4217 CircleF
1225 4360 CircleF
5793 1986 CircleF
5915 2080 CircleF
3343 1810 CircleF
3560 1976 CircleF
3786 4036 CircleF
3970 4177 CircleF
6082 2950 CircleF
6222 3057 CircleF
4088 4683 CircleF
4291 4838 CircleF
6062 2933 CircleF
6275 3097 CircleF
2436 918 CircleF
2613 1054 CircleF
5747 2709 CircleF
5973 2883 CircleF
4769 1832 CircleF
4906 1937 CircleF
6669 2951 CircleF
6902 3130 CircleF
1825 3680 CircleF
2030 3838 CircleF
6622 4198 CircleF
6750 4297 CircleF
4535 1570 CircleF
4678 1680 CircleF
3698 3140 CircleF
3887 3284 CircleF
4271 1648 CircleF
4435 1774 CircleF
6367 1878 CircleF
6578 2040 CircleF
1352 4508 CircleF
1564 4671 CircleF
1786 2220 CircleF
1953 2348 CircleF
2603 871 CircleF
2755 988 CircleF
5932 3136 CircleF
6127 3286 CircleF
5369 3689 CircleF
5576 3847 CircleF
4139 1337 CircleF
4289 1452 CircleF
3356 2399 CircleF
3545 2544 CircleF
6685 3054 CircleF
6907 3224 CircleF
6219 3065 CircleF
6392 3197 CircleF
1247 1011 CircleF
1415 1140 CircleF
3923 4282 CircleF
4122 4435 CircleF
1163 1583 CircleF
1391 1758 CircleF
2829 1110 CircleF
3003 1244 CircleF
3007 2921 CircleF
3193 3064 CircleF
5930 2473 CircleF
6121 2619 CircleF
5922 1271 CircleF
6146 1443 CircleF
4320 1204 CircleF
4554 1383 CircleF
2064 2930 CircleF
2193 3029 CircleF
3663 1471 CircleF
3823 1593 CircleF
5366 1679 CircleF
5582 1844 CircleF
3797 2458 CircleF
3936 2565 CircleF
3439 3788 CircleF
3612 3921 CircleF
3488 928 CircleF
3650 1052 CircleF
5903 1632 CircleF
6114 1794 CircleF
1260 4177 CircleF
1422 4301 CircleF
6454 3737 CircleF
6633 3874 CircleF
3209 4296 CircleF
3445 4476 CircleF
4989 1374 CircleF
5176 1519 CircleF
2376 1510 CircleF
2512 1614 CircleF
4288 4617 CircleF
4454 4744 CircleF
4922 4065 CircleF
5049 4162 CircleF
4508 2221 CircleF
4742 2400 CircleF
6195 4146 CircleF
6337 4255 CircleF
1742 3725 CircleF
1951 3885 CircleF
6488 1806 CircleF
6685 1958 CircleF
3739 728 CircleF
3907 856 CircleF
5458 1013 CircleF
5625 1141 CircleF
3374 3741 CircleF
3551 3877 CircleF
5259 1551 CircleF
5439 1690 CircleF
6131 800 CircleF
6258 898 CircleF
4926 2086 CircleF
5061 2190 CircleF
5695 1229 CircleF
5932 1410 CircleF
2013 2677 CircleF
2144 2777 CircleF
1958 1639 CircleF
2159 1793 CircleF
2681 1343 CircleF
2803 1437 CircleF
1530 2235 CircleF
1669 2342 CircleF
4527 2672 CircleF
4716 2818 CircleF
4189 1100 CircleF
4379 1245 CircleF
2143 1646 CircleF
2321 1783 CircleF
6096 1636 CircleF
6226 1736 CircleF
4417 4410 CircleF
4608 4556 CircleF
1448 2982 CircleF
1608 3105 CircleF
4912 3652 CircleF
5109 3803 CircleF
1836 3238 CircleF
1967 3339 CircleF
1392 3260 CircleF
1533 3368 CircleF
4006 1769 CircleF
4219 1933 CircleF
4428 1085 CircleF
4665 1266 CircleF
4615 3599 CircleF
4793 3736 CircleF
2313 2241 CircleF
2468 2360 CircleF
2405 699 CircleF
2564 821 CircleF
1875 1987 CircleF
2053 2123 CircleF
1381 3984 CircleF
1534 4102 CircleF
2748 1915 CircleF
2906 2036 CircleF
5751 3552 CircleF
5895 3663 CircleF
4963 3599 CircleF
5129 3726 CircleF
4038 455 CircleF
4211 589 CircleF
1572 2302 CircleF
1733 2426 CircleF
2659 4202 CircleF
2875 4367 CircleF
6631 4411 CircleF
6793 4535 CircleF
1597 3115 CircleF
1741 3225 CircleF
4771 1485 CircleF
4920 1600 CircleF
2907 913 CircleF
3065 1034 CircleF
5564 4304 CircleF
5699 4408 CircleF
1873 1272 CircleF
1999 1368 CircleF
1467 3151 CircleF
1612 3262 CircleF
4067 3203 CircleF
4293 3377 CircleF
3866 4063 CircleF
4062 4213 CircleF
5270 1358 CircleF
5414 1469 CircleF
2307 4157 CircleF
2531 4329 CircleF
5294 4441 CircleF
5474 4579 CircleF
4947 4301 CircleF
5175 4476 CircleF
3734 844 CircleF
3893 967 CircleF
2952 4044 CircleF
3087 4148 CircleF
3376 1690 CircleF
3534 1812 CircleF
4839 3892 CircleF
5028 4037 CircleF
5015 3600 CircleF
5157 3709 CircleF
1469 520 CircleF
1595 617 CircleF
4057 3105 CircleF
4226 3235 CircleF
5294 3316 CircleF
5430 3421 CircleF
1623 813 CircleF
1820 963 CircleF
4929 3250 CircleF
5145 3415 CircleF
5186 4581 CircleF
5358 4713 CircleF
4502 3467 CircleF
4703 3622 CircleF
6228 2873 CircleF
6431 3029 CircleF
4488 4181 CircleF
4725 4363 CircleF
6407 2875 CircleF
6574 3004 CircleF
3786 1230 CircleF
3974 1375 CircleF
1741 3868 CircleF
1918 4004 CircleF
3153 1101 CircleF
3276 1196 CircleF
2465 2588 CircleF
2587 2682 CircleF
5096 1178 CircleF
5287 1324 CircleF
6418 2359 CircleF
6540 2453 CircleF
1389 2810 CircleF
1568 2947 CircleF
1151 675 CircleF
1384 854 CircleF
3579 2959 CircleF
3815 3140 CircleF
5163 450 CircleF
5293 550 CircleF
3828 3225 CircleF
4010 3365 CircleF
4660 1740 CircleF
4826 1867 CircleF
5756 2280 CircleF
5994 2463 CircleF
5699 1630 CircleF
5854 1749 CircleF
6202 3085 CircleF
6391 3230 CircleF
5830 723 CircleF
6061 899 CircleF
3651 2539 CircleF
3887 2720 CircleF
4896 3711 CircleF
5019 3806 CircleF
1779 3488 CircleF
1938 3610 CircleF
4306 3038 CircleF
4540 3218 CircleF
2670 3429 CircleF
2858 3573 CircleF
3259 3324 CircleF
3459 3478 CircleF
2484 1113 CircleF
2722 1295 CircleF
5833 1109 CircleF
5980 1222 CircleF
3645 1434 CircleF
3810 1561 CircleF
1806 2864 CircleF
2012 3023 CircleF
4547 3685 CircleF
4728 3824 CircleF
2443 557 CircleF
2593 673 CircleF
3649 2375 CircleF
3774 2471 CircleF
2659 3159 CircleF
2863 3315 CircleF
2200 4605 CircleF
2423 4777 CircleF
1696 4127 CircleF
1851 4246 CircleF
4994 1850 CircleF
5232 2032 CircleF
4576 1420 CircleF
4785 1580 CircleF
6481 1118 CircleF
6668 1261 CircleF
2928 2860 CircleF
3112 3001 CircleF
1305 2855 CircleF
1518 3019 CircleF
2971 448 CircleF
3207 629 CircleF
2177 1986 CircleF
2365 2130 CircleF
4654 2094 CircleF
4781 2191 CircleF
5948 2089 CircleF
6133 2232 CircleF
6513 527 CircleF
6679 654 CircleF
5270 4576 CircleF
5475 4733 CircleF
2193 3407 CircleF
2384 3553 CircleF
3663 2990 CircleF
3853 3137 CircleF
2241 3596 CircleF
2471 3773 CircleF
4256 3708 CircleF
4444 3852 CircleF
4972 2495 CircleF
5151 2633 CircleF
2932 1317 CircleF
3155 1489 CircleF
6084 1239 CircleF
6219 1342 CircleF
4043 1054 CircleF
4177 1157 CircleF
5431 776 CircleF
5623 923 CircleF
3585 1516 CircleF
3813 1692 CircleF
1678 1122 CircleF
1900 1292 CircleF
3638 2431 CircleF
3833 2581 CircleF
2267 776 CircleF
2435 905 CircleF
6334 2307 CircleF
6466 2409 CircleF
6673 1121 CircleF
6807 1224 CircleF
5864 2838 CircleF
6100 3019 CircleF
1227 1608 CircleF
1394 1736 CircleF
4564 1381 CircleF
4801 1562 CircleF
2348 4533 CircleF
2493 4645 CircleF
5313 2150 CircleF
5541 2326 CircleF
5126 1638 CircleF
5347 1807 CircleF
1658 357 CircleF
1818 480 CircleF
3191 3467 CircleF
3361 3597 CircleF
3720 4658 CircleF
3922 4813 CircleF
1869 3460 CircleF
2023 3578 CircleF
4694 2150 CircleF
4879 2292 CircleF
1722 2530 CircleF
1845 2624 CircleF
1640 4611 CircleF
1781 4719 CircleF
5274 2388 CircleF
5474 2541 CircleF
1408 1550 CircleF
1566 1672 CircleF
4620 2560 CircleF
4856 2741 CircleF
2537 2639 CircleF
2693 2759 CircleF
5811 2455 CircleF
5965 2573 CircleF
3762 1597 CircleF
3977 1761 CircleF
1161 2615 CircleF
1356 2765 CircleF
2352 2412 CircleF
2533 2551 CircleF
2423 348 CircleF
2576 465 CircleF
5070 4388 CircleF
5300 4564 CircleF
5907 422 CircleF
6070 547 CircleF
3199 4358 CircleF
3425 4532 CircleF
3373 2739 CircleF
3591 2906 CircleF
3682 2311 CircleF
3915 2490 CircleF
1627 1251 CircleF
1766 1357 CircleF
6321 3857 CircleF
6492 3989 CircleF
6272 2386 CircleF
6482 2547 CircleF
972 4109 CircleF
1207 4289 CircleF
2510 1224 CircleF
2676 1351 CircleF
5504 3486 CircleF
5655 3601 CircleF
5972 1808 CircleF
6119 1921 CircleF
3333 1188 CircleF
3473 1296 CircleF
5090 4148 CircleF
5213 4243 CircleF
1443 4288 CircleF
1632 4433 CircleF
3450 1916 CircleF
3649 2068 CircleF
3040 2710 CircleF
3199 2832 CircleF
2530 2321 CircleF
2682 2437 CircleF
3842 1879 CircleF
4010 2008 CircleF
3852 2107 CircleF
4020 2236 CircleF
4758 1231 CircleF
4946 1375 CircleF
1211 2593 CircleF
1430 2761 CircleF
5305 1176 CircleF
5468 1301 CircleF
1126 2408 CircleF
1279 2526 CircleF
4077 3232 CircleF
4309 3411 CircleF
3757 1903 CircleF
3965 2063 CircleF
3566 2045 CircleF
3715 2159 CircleF
2212 1867 CircleF
2431 2035 CircleF
2127 673 CircleF
2297 804 CircleF
6315 3733 CircleF
6552 3915 CircleF
6090 3661 CircleF
6262 3793 CircleF
1863 4273 CircleF
2030 4402 CircleF
4461 1179 CircleF
4656 1329 CircleF
4658 3045 CircleF
4850 3193 CircleF
1236 1345 CircleF
1407 1476 CircleF
5317 2289 CircleF
5470 2406 CircleF
6519 4537 CircleF
6702 4678 CircleF
1281 2495 CircleF
1432 2610 CircleF
1513 4484 CircleF
1688 4618 CircleF
1308 3807 CircleF
1500 3954 CircleF
3349 2761 CircleF
3546 2912 CircleF
4715 2726 CircleF
4884 2856 CircleF
4803 3705 CircleF
4944 3814 CircleF
1832 2020 CircleF
2002 2150 CircleF
4107 355 CircleF
4332 528 CircleF
1527 1923 CircleF
1752 2096 CircleF
5086 986 CircleF
5250 1112 CircleF
4296 3674 CircleF
4440 3785 CircleF
3729 1264 CircleF
3947 1431 CircleF
3991 311 CircleF
4170 447 CircleF
5354 2340 CircleF
5520 2468 CircleF
5391 821 CircleF
5532 929 CircleF
2003 4202 CircleF
2227 4374 CircleF
2674 2715 CircleF
2882 2874 CircleF
3184 3762 CircleF
3385 3916 CircleF
1612 3984 CircleF
1830 4152 CircleF
4678 717 CircleF
4803 813 CircleF
2366 999 CircleF
2533 1127 CircleF
1191 2243 CircleF
1373 2383 CircleF
5161 4029 CircleF
5354 4177 CircleF
3018 1861 CircleF
3182 1986 CircleF
2342 4239 CircleF
2571 4414 CircleF
3064 674 CircleF
3206 783 CircleF
4881 1349 CircleF
5103 1519 CircleF
5280 3154 CircleF
5467 3297 CircleF
4244 2642 CircleF
4465 2812 CircleF
6565 2459 CircleF
6726 2582 CircleF
6176 2104 CircleF
6299 2198 CircleF
992 3158 CircleF
1150 3279 CircleF
4400 3279 CircleF
4530 3378 CircleF
3764 2905 CircleF
3927 3030 CircleF
2399 3325 CircleF
2602 3481 CircleF
1727 2758 CircleF
1874 2871 CircleF
1753 3698 CircleF
1966 3862 CircleF
5742 1444 CircleF
5926 1585 CircleF
1057 1608 CircleF
1212 1727 CircleF
4224 4415 CircleF
4359 4519 CircleF
3444 2265 CircleF
3654 2425 CircleF
3695 1555 CircleF
3875 1694 CircleF
3865 2472 CircleF
3988 2566 CircleF
6329 2094 CircleF
6525 2244 CircleF
4899 3565 CircleF
5066 3694 CircleF
6103 2252 CircleF
6238 2355 CircleF
2790 3006 CircleF
3003 3169 CircleF
5097 3024 CircleF
5218 3117 CircleF
4137 2873 CircleF
4304 3001 CircleF
3866 4458 CircleF
3990 4553 CircleF
6609 2936 CircleF
6752 3045 CircleF
4882 2937 CircleF
5080 3089 CircleF
2784 2624 CircleF
2923 2731 CircleF
4764 1127 CircleF
4937 1260 CircleF
5394 4123 CircleF
5581 4266 CircleF
6049 2758 CircleF
6283 2938 CircleF
1159 1299 CircleF
1394 1480 CircleF
3097 3985 CircleF
3300 4141 CircleF
2443 1363 CircleF
2648 1520 CircleF
6113 3035 CircleF
6283 3165 CircleF
5236 2578 CircleF
5430 2727 CircleF
2231 2651 CircleF
2436 2808 CircleF
4725 2754 CircleF
4944 2922 CircleF
3598 691 CircleF
3801 847 CircleF
3509 638 CircleF
3636 736 CircleF
4399 3926 CircleF
4623 4097 CircleF
3707 1830 CircleF
3891 1971 CircleF
1970 3909 CircleF
2174 4065 CircleF
5324 1655 CircleF
5493 1784 CircleF
4342 558 CircleF
4577 739 CircleF
4052 2851 CircleF
4206 2970 CircleF
3945 4648 CircleF
4171 4821 CircleF
3123 4500 CircleF
3275 4617 CircleF
6251 3681 CircleF
6423 3813 CircleF
2131 3228 CircleF
2285 3347 CircleF
2428 2367 CircleF
2611 2507 CircleF
3814 2324 CircleF
3959 2435 CircleF
4675 1308 CircleF
4896 1478 CircleF
3029 1997 CircleF
3166 2102 CircleF
6076 1191 CircleF
6298 1362 CircleF
2107 3898 CircleF
2282 4033 CircleF
3339 3835 CircleF
3534 3985 CircleF
4238 1114 CircleF
4424 1257 CircleF
2664 3833 CircleF
2823 3955 CircleF
6626 3106 CircleF
6781 3225 CircleF
4537 3685 CircleF
4689 3801 CircleF
1916 3052 CircleF
2069 3170 CircleF
4796 3072 CircleF
4968 3204 CircleF
2480 971 CircleF
2622 1080 CircleF
5946 3046 CircleF
6090 3157 CircleF
3738 3295 CircleF
3905 3423 CircleF
2916 444 CircleF
3075 566 CircleF
5873 3240 CircleF
6063 3386 CircleF
2966 886 CircleF
3146 1024 CircleF
5525 4632 CircleF
5687 4756 CircleF
3476 3089 CircleF
3632 3209 CircleF
2307 4479 CircleF
2520 4643 CircleF
2858 2233 CircleF
3083 2406 CircleF
4855 605 CircleF
4988 707 CircleF
5066 2423 CircleF
5224 2545 CircleF
1527 4315 CircleF
1749 4485 CircleF
3745 594 CircleF
3925 732 CircleF
4050 300 CircleF
4236 443 CircleF
6345 3703 CircleF
6498 3820 CircleF
5056 379 CircleF
5286 556 CircleF
1141 4575 CircleF
1352 4737 CircleF
3079 2633 CircleF
3229 2748 CircleF
1616 1171 CircleF
1850 1351 CircleF
5311 1844 CircleF
5537 2017 CircleF
1362 2098 CircleF
1547 2239 CircleF
5116 3621 CircleF
5267 3737 CircleF
5802 769 CircleF
5924 863 CircleF
3002 3068 CircleF
3227 3241 CircleF
1978 1227 CircleF
2102 1322 CircleF
5252 4485 CircleF
5481 4661 CircleF
5414 2200 CircleF
5646 2378 CircleF
5266 822 CircleF
5475 982 CircleF
5826 3349 CircleF
5985 3470 CircleF
6660 3201 CircleF
6850 3347 CircleF
2853 4332 CircleF
2988 4435 CircleF
1200 865 CircleF
1436 1046 CircleF
2252 3327 CircleF
2373 3420 CircleF
6645 1794 CircleF
6864 1962 CircleF
3294 1709 CircleF
3439 1821 CircleF
2279 3609 CircleF
2436 3729 CircleF
2684 510 CircleF
2843 632 CircleF
4732 1726 CircleF
4913 1864 CircleF
4133 3437 CircleF
4293 3560 CircleF
1826 2089 CircleF
1956 2189 CircleF
6271 3846 CircleF
6470 3999 CircleF
3701 3101 CircleF
3899 3253 CircleF
4758 1056 CircleF
4935 1192 CircleF
4976 3881 CircleF
5172 4032 CircleF
5986 4413 CircleF
6107 4505 CircleF
2868 3289 CircleF
2989 3382 CircleF
5727 3480 CircleF
5906 3617 CircleF
5576 2853 CircleF
5728 2970 CircleF
5840 2993 CircleF
5974 3097 CircleF
4598 2630 CircleF
4830 2808 CircleF
5614 3885 CircleF
5827 4049 CircleF
4362 942 CircleF
4586 1115 CircleF
5774 2391 CircleF
5935 2514 CircleF
4916 4081 CircleF
5094 4218 CircleF
6471 2019 CircleF
6631 2141 CircleF
2170 873 CircleF
2374 1029 CircleF
1050 1170 CircleF
1277 1344 CircleF
6621 638 CircleF
6837 804 CircleF
1691 4652 CircleF
1924 4831 CircleF
2046 492 CircleF
2168 585 CircleF
2662 1478 CircleF
2799 1583 CircleF
4123 3947 CircleF
4259 4051 CircleF
2295 986 CircleF
2455 1109 CircleF
6577 1056 CircleF
6797 1225 CircleF
2616 4419 CircleF
2794 4557 CircleF
6657 3757 CircleF
6895 3939 CircleF
2439 1611 CircleF
2573 1714 CircleF
1214 3730 CircleF
1445 3907 CircleF
5051 4203 CircleF
5255 4359 CircleF
5636 2967 CircleF
5801 3094 CircleF
1795 4154 CircleF
1935 4261 CircleF
4819 2278 CircleF
4999 2416 CircleF
3820 2746 CircleF
4001 2885 CircleF
6467 1972 CircleF
6638 2103 CircleF
3998 1675 CircleF
4134 1779 CircleF
6702 3709 CircleF
6927 3882 CircleF
4680 1867 CircleF
4820 1974 CircleF
3331 4380 CircleF
3529 4532 CircleF
6047 1980 CircleF
6219 2111 CircleF
6631 1216 CircleF
6767 1321 CircleF
1795 1779 CircleF
1975 1917 CircleF
4941 2826 CircleF
5142 2981 CircleF
5509 2375 CircleF
5736 2549 CircleF
5454 2149 CircleF
5663 2309 CircleF
1312 3038 CircleF
1450 3144 CircleF
1035 1351 CircleF
1236 1505 CircleF
2297 2897 CircleF
2485 3041 CircleF
1558 1449 CircleF
1767 1610 CircleF
1733 1977 CircleF
1925 2124 CircleF
4698 3680 CircleF
4846 3794 CircleF
6682 1839 CircleF
6917 2020 CircleF
4900 1313 CircleF
5063 1438 CircleF
4871 1040 CircleF
5034 1165 CircleF
4959 2677 CircleF
5142 2817 CircleF
6166 2480 CircleF
6361 2630 CircleF
1758 4546 CircleF
1905 4659 CircleF
1313 4413 CircleF
1477 4539 CircleF
5226 3359 CircleF
5424 3511 CircleF
6246 3087 CircleF
6411 3213 CircleF
5219 2826 CircleF
5420 2980 CircleF
3872 2125 CircleF
4107 2305 CircleF
1678 4574 CircleF
1834 4694 CircleF
2576 3245 CircleF
2748 3378 CircleF
6207 4304 CircleF
6409 4459 CircleF
6393 2202 CircleF
6592 2355 CircleF
3172 2838 CircleF
3376 2995 CircleF
1304 807 CircleF
1494 953 CircleF
4210 1831 CircleF
4401 1978 CircleF
3231 3039 CircleF
3434 3195 CircleF
5705 2827 CircleF
5913 2987 CircleF
1366 2457 CircleF
1576 2618 CircleF
2650 2810 CircleF
2807 2930 CircleF
3032 4176 CircleF
3163 4276 CircleF
3009 1952 CircleF
3150 2060 CircleF
1565 1497 CircleF
1794 1672 CircleF
5094 516 CircleF
5244 632 CircleF
4521 2213 CircleF
4705 2354 CircleF
3127 2498 CircleF
3275 2612 CircleF
4052 1916 CircleF
4234 2055 CircleF
3765 765 CircleF
3905 872 CircleF
6560 3522 CircleF
6771 3684 CircleF
1155 930 CircleF
1380 1103 CircleF
4641 3500 CircleF
4865 3672 CircleF
6269 837 CircleF
6455 979 CircleF
1277 1021 CircleF
1459 1160 CircleF
2729 1241 CircleF
2908 1379 CircleF
3327 552 CircleF
3530 708 CircleF
1918 927 CircleF
2147 1103 CircleF
5420 3325 CircleF
5595 3459 CircleF
4699 2506 CircleF
4904 2663 CircleF
5215 4151 CircleF
5389 4285 CircleF
6099 462 CircleF
6266 591 CircleF
5606 3532 CircleF
5772 3660 CircleF
2241 4645 CircleF
2437 4795 CircleF
6090 4460 CircleF
6238 4573 CircleF
2121 3464 CircleF
2259 3570 CircleF
3449 4380 CircleF
3659 4541 CircleF
6278 2195 CircleF
6503 2367 CircleF
4851 3925 CircleF
5042 4072 CircleF
1214 1533 CircleF
1438 1705 CircleF
6137 1120 CircleF
6308 1251 CircleF
5089 1288 CircleF
5213 1383 CircleF
3596 4686 CircleF
3833 4867 CircleF
5974 3421 CircleF
6199 3594 CircleF
2795 3576 CircleF
3007 3738 CircleF
2447 3184 CircleF
2647 3337 CircleF
1135 3418 CircleF
1344 3579 CircleF
3088 951 CircleF
3266 1088 CircleF
5313 2428 CircleF
5481 2556 CircleF
5015 1555 CircleF
5172 1675 CircleF
5977 4298 CircleF
6164 4441 CircleF
2320 3329 CircleF
2549 3505 CircleF
5675 1347 CircleF
5885 1508 CircleF
3921 3172 CircleF
4127 3330 CircleF
1549 1103 CircleF
1676 1200 CircleF
5642 3271 CircleF
5880 3454 CircleF
1228 3265 CircleF
1435 3424 CircleF
1209 4436 CircleF
1384 4570 CircleF
2491 2081 CircleF
2686 2230 CircleF
1340 2199 CircleF
1529 2344 CircleF
1670 350 CircleF
1865 499 CircleF
4847 1653 CircleF
5014 1782 CircleF
5149 1137 CircleF
5303 1255 CircleF
3917 3083 CircleF
4130 3247 CircleF
6094 4074 CircleF
6257 4199 CircleF
1409 1945 CircleF
1557 2059 CircleF
3482 4302 CircleF
3654 4433 CircleF
2997 1356 CircleF
3161 1482 CircleF
2845 1772 CircleF
3040 1922 CircleF
3546 3923 CircleF
3756 4084 CircleF
6574 1231 CircleF
6805 1408 CircleF
2339 3424 CircleF
2540 3579 CircleF
3016 4271 CircleF
3184 4400 CircleF
2510 2673 CircleF
2695 2815 CircleF
4735 1660 CircleF
4926 1807 CircleF
6693 2303 CircleF
6848 2422 CircleF
3622 408 CircleF
3790 537 CircleF
5800 4348 CircleF
5992 4496 CircleF
6488 1323 CircleF
6633 1434 CircleF
2941 336 CircleF
3086 447 CircleF
4462 2653 CircleF
4693 2830 CircleF
1338 443 CircleF
1485 556 CircleF
6015 2164 CircleF
6150 2267 CircleF
2195 477 CircleF
2430 658 CircleF
3068 1706 CircleF
3246 1843 CircleF
2520 1594 CircleF
2719 1746 CircleF
2482 4131 CircleF
2693 4292 CircleF
2522 1356 CircleF
2645 1451 CircleF
3435 924 CircleF
3650 1089 CircleF
3198 2834 CircleF
3343 2946 CircleF
4363 3861 CircleF
4487 3957 CircleF
1282 3917 CircleF
1462 4055 CircleF
2589 3159 CircleF
2764 3294 CircleF
5461 2040 CircleF
5601 2148 CircleF
6258 4549 CircleF
6476 4716 CircleF
4591 629 CircleF
4760 759 CircleF
4499 2553 CircleF
4619 2646 CircleF
6652 4561 CircleF
6822 4692 CircleF
2844 4114 CircleF
2983 4221 CircleF
2439 3162 CircleF
2596 3283 CircleF
6391 1983 CircleF
6623 2161 CircleF
5368 3736 CircleF
5539 3866 CircleF
5491 3703 CircleF
5723 3881 CircleF
4104 1479 CircleF
4311 1638 CircleF
2468 2026 CircleF
2591 2120 CircleF
1644 1502 CircleF
1793 1616 CircleF
5499 1824 CircleF
5679 1963 CircleF
1587 645 CircleF
1770 785 CircleF
4836 4262 CircleF
5051 4428 CircleF
5964 2205 CircleF
6109 2316 CircleF
2998 538 CircleF
3121 632 CircleF
3285 2231 CircleF
3485 2385 CircleF
1283 3064 CircleF
1440 3185 CircleF
6196 4465 CircleF
6394 4617 CircleF
4184 2384 CircleF
4405 2554 CircleF
4295 1077 CircleF
4508 1241 CircleF
1426 918 CircleF
1661 1099 CircleF
5981 4346 CircleF
6104 4440 CircleF
2796 4217 CircleF
3021 4389 CircleF
5259 4407 CircleF
5390 4508 CircleF
2078 2986 CircleF
2284 3145 CircleF
5789 3296 CircleF
5943 3414 CircleF
4188 3114 CircleF
4390 3269 CircleF
4194 672 CircleF
4379 814 CircleF
5100 4590 CircleF
5337 4772 CircleF
6286 3971 CircleF
6467 4110 CircleF
5182 3772 CircleF
5390 3931 CircleF
4184 764 CircleF
4417 943 CircleF
4946 3613 CircleF
5079 3715 CircleF
5763 1754 CircleF
5901 1860 CircleF
1445 3318 CircleF
1662 3484 CircleF
1140 4676 CircleF
1339 4828 CircleF
2963 2770 CircleF
3091 2868 CircleF
5673 1968 CircleF
5811 2074 CircleF
5127 1349 CircleF
5285 1470 CircleF
4191 1883 CircleF
4344 2001 CircleF
5923 1491 CircleF
6087 1617 CircleF
3519 2105 CircleF
3658 2211 CircleF
2530 2951 CircleF
2719 3096 CircleF
2133 2411 CircleF
2347 2576 CircleF
2172 2602 CircleF
2334 2726 CircleF
1950 2401 CircleF
2076 2498 CircleF
3077 2812 CircleF
3252 2946 CircleF
2221 1833 CircleF
2343 1927 CircleF
3143 2338 CircleF
3352 2499 CircleF
2214 1075 CircleF
2429 1240 CircleF
5119 1823 CircleF
5299 1961 CircleF
5259 2692 CircleF
5458 2845 CircleF
4463 3376 CircleF
4607 3486 CircleF
4230 2779 CircleF
4434 2935 CircleF
4008 2070 CircleF
4203 2220 CircleF
4230 770 CircleF
4387 891 CircleF
% End plot #2
1.000 UP
1.000 UL
LT0
0.50 0.50 0.50 C stroke
grestore
end
showpage
%%Trailer
%%DocumentFonts: Helvetica
%%Pages: 1
