%!PS-Adobe-2.0
%%Title: out.ps
%%Creator: gnuplot 4.6 patchlevel 6
%%CreationDate: Thu May 28 23:40:23 2015
%%DocumentFonts: (atend)
%%BoundingBox: 50 50 554 770
%%Orientation: Landscape
%%Pages: (atend)
%%EndComments
%%BeginProlog
/gnudict 256 dict def
gnudict begin
%
% The following true/false flags may be edited by hand if desired.
% The unit line width and grayscale image gamma correction may also be changed.
%
/Color false def
/Blacktext false def
/Solid false def
/Dashlength 1 def
/Landscape true def
/Level1 false def
/Rounded false def
/ClipToBoundingBox false def
/SuppressPDFMark false def
/TransparentPatterns false def
/gnulinewidth 5.000 def
/userlinewidth gnulinewidth def
/Gamma 1.0 def
/BackgroundColor {-1.000 -1.000 -1.000} def
%
/vshift -46 def
/dl1 {
  10.0 Dashlength mul mul
  Rounded { currentlinewidth 0.75 mul sub dup 0 le { pop 0.01 } if } if
} def
/dl2 {
  10.0 Dashlength mul mul
  Rounded { currentlinewidth 0.75 mul add } if
} def
/hpt_ 31.5 def
/vpt_ 31.5 def
/hpt hpt_ def
/vpt vpt_ def
/doclip {
  ClipToBoundingBox {
    newpath 50 50 moveto 554 50 lineto 554 770 lineto 50 770 lineto closepath
    clip
  } if
} def
%
% Gnuplot Prolog Version 4.6 (September 2012)
%
%/SuppressPDFMark true def
%
/M {moveto} bind def
/L {lineto} bind def
/R {rmoveto} bind def
/V {rlineto} bind def
/N {newpath moveto} bind def
/Z {closepath} bind def
/C {setrgbcolor} bind def
/f {rlineto fill} bind def
/g {setgray} bind def
/Gshow {show} def   % May be redefined later in the file to support UTF-8
/vpt2 vpt 2 mul def
/hpt2 hpt 2 mul def
/Lshow {currentpoint stroke M 0 vshift R 
	Blacktext {gsave 0 setgray show grestore} {show} ifelse} def
/Rshow {currentpoint stroke M dup stringwidth pop neg vshift R
	Blacktext {gsave 0 setgray show grestore} {show} ifelse} def
/Cshow {currentpoint stroke M dup stringwidth pop -2 div vshift R 
	Blacktext {gsave 0 setgray show grestore} {show} ifelse} def
/UP {dup vpt_ mul /vpt exch def hpt_ mul /hpt exch def
  /hpt2 hpt 2 mul def /vpt2 vpt 2 mul def} def
/DL {Color {setrgbcolor Solid {pop []} if 0 setdash}
 {pop pop pop 0 setgray Solid {pop []} if 0 setdash} ifelse} def
/BL {stroke userlinewidth 2 mul setlinewidth
	Rounded {1 setlinejoin 1 setlinecap} if} def
/AL {stroke userlinewidth 2 div setlinewidth
	Rounded {1 setlinejoin 1 setlinecap} if} def
/UL {dup gnulinewidth mul /userlinewidth exch def
	dup 1 lt {pop 1} if 10 mul /udl exch def} def
/PL {stroke userlinewidth setlinewidth
	Rounded {1 setlinejoin 1 setlinecap} if} def
3.8 setmiterlimit
% Default Line colors
/LCw {1 1 1} def
/LCb {0 0 0} def
/LCa {0 0 0} def
/LC0 {1 0 0} def
/LC1 {0 1 0} def
/LC2 {0 0 1} def
/LC3 {1 0 1} def
/LC4 {0 1 1} def
/LC5 {1 1 0} def
/LC6 {0 0 0} def
/LC7 {1 0.3 0} def
/LC8 {0.5 0.5 0.5} def
% Default Line Types
/LTw {PL [] 1 setgray} def
/LTb {BL [] LCb DL} def
/LTa {AL [1 udl mul 2 udl mul] 0 setdash LCa setrgbcolor} def
/LT0 {PL [] LC0 DL} def
/LT1 {PL [4 dl1 2 dl2] LC1 DL} def
/LT2 {PL [2 dl1 3 dl2] LC2 DL} def
/LT3 {PL [1 dl1 1.5 dl2] LC3 DL} def
/LT4 {PL [6 dl1 2 dl2 1 dl1 2 dl2] LC4 DL} def
/LT5 {PL [3 dl1 3 dl2 1 dl1 3 dl2] LC5 DL} def
/LT6 {PL [2 dl1 2 dl2 2 dl1 6 dl2] LC6 DL} def
/LT7 {PL [1 dl1 2 dl2 6 dl1 2 dl2 1 dl1 2 dl2] LC7 DL} def
/LT8 {PL [2 dl1 2 dl2 2 dl1 2 dl2 2 dl1 2 dl2 2 dl1 4 dl2] LC8 DL} def
/Pnt {stroke [] 0 setdash gsave 1 setlinecap M 0 0 V stroke grestore} def
/Dia {stroke [] 0 setdash 2 copy vpt add M
  hpt neg vpt neg V hpt vpt neg V
  hpt vpt V hpt neg vpt V closepath stroke
  Pnt} def
/Pls {stroke [] 0 setdash vpt sub M 0 vpt2 V
  currentpoint stroke M
  hpt neg vpt neg R hpt2 0 V stroke
 } def
/Box {stroke [] 0 setdash 2 copy exch hpt sub exch vpt add M
  0 vpt2 neg V hpt2 0 V 0 vpt2 V
  hpt2 neg 0 V closepath stroke
  Pnt} def
/Crs {stroke [] 0 setdash exch hpt sub exch vpt add M
  hpt2 vpt2 neg V currentpoint stroke M
  hpt2 neg 0 R hpt2 vpt2 V stroke} def
/TriU {stroke [] 0 setdash 2 copy vpt 1.12 mul add M
  hpt neg vpt -1.62 mul V
  hpt 2 mul 0 V
  hpt neg vpt 1.62 mul V closepath stroke
  Pnt} def
/Star {2 copy Pls Crs} def
/BoxF {stroke [] 0 setdash exch hpt sub exch vpt add M
  0 vpt2 neg V hpt2 0 V 0 vpt2 V
  hpt2 neg 0 V closepath fill} def
/TriUF {stroke [] 0 setdash vpt 1.12 mul add M
  hpt neg vpt -1.62 mul V
  hpt 2 mul 0 V
  hpt neg vpt 1.62 mul V closepath fill} def
/TriD {stroke [] 0 setdash 2 copy vpt 1.12 mul sub M
  hpt neg vpt 1.62 mul V
  hpt 2 mul 0 V
  hpt neg vpt -1.62 mul V closepath stroke
  Pnt} def
/TriDF {stroke [] 0 setdash vpt 1.12 mul sub M
  hpt neg vpt 1.62 mul V
  hpt 2 mul 0 V
  hpt neg vpt -1.62 mul V closepath fill} def
/DiaF {stroke [] 0 setdash vpt add M
  hpt neg vpt neg V hpt vpt neg V
  hpt vpt V hpt neg vpt V closepath fill} def
/Pent {stroke [] 0 setdash 2 copy gsave
  translate 0 hpt M 4 {72 rotate 0 hpt L} repeat
  closepath stroke grestore Pnt} def
/PentF {stroke [] 0 setdash gsave
  translate 0 hpt M 4 {72 rotate 0 hpt L} repeat
  closepath fill grestore} def
/Circle {stroke [] 0 setdash 2 copy
  hpt 0 360 arc stroke Pnt} def
/CircleF {stroke [] 0 setdash hpt 0 360 arc fill} def
/C0 {BL [] 0 setdash 2 copy moveto vpt 90 450 arc} bind def
/C1 {BL [] 0 setdash 2 copy moveto
	2 copy vpt 0 90 arc closepath fill
	vpt 0 360 arc closepath} bind def
/C2 {BL [] 0 setdash 2 copy moveto
	2 copy vpt 90 180 arc closepath fill
	vpt 0 360 arc closepath} bind def
/C3 {BL [] 0 setdash 2 copy moveto
	2 copy vpt 0 180 arc closepath fill
	vpt 0 360 arc closepath} bind def
/C4 {BL [] 0 setdash 2 copy moveto
	2 copy vpt 180 270 arc closepath fill
	vpt 0 360 arc closepath} bind def
/C5 {BL [] 0 setdash 2 copy moveto
	2 copy vpt 0 90 arc
	2 copy moveto
	2 copy vpt 180 270 arc closepath fill
	vpt 0 360 arc} bind def
/C6 {BL [] 0 setdash 2 copy moveto
	2 copy vpt 90 270 arc closepath fill
	vpt 0 360 arc closepath} bind def
/C7 {BL [] 0 setdash 2 copy moveto
	2 copy vpt 0 270 arc closepath fill
	vpt 0 360 arc closepath} bind def
/C8 {BL [] 0 setdash 2 copy moveto
	2 copy vpt 270 360 arc closepath fill
	vpt 0 360 arc closepath} bind def
/C9 {BL [] 0 setdash 2 copy moveto
	2 copy vpt 270 450 arc closepath fill
	vpt 0 360 arc closepath} bind def
/C10 {BL [] 0 setdash 2 copy 2 copy moveto vpt 270 360 arc closepath fill
	2 copy moveto
	2 copy vpt 90 180 arc closepath fill
	vpt 0 360 arc closepath} bind def
/C11 {BL [] 0 setdash 2 copy moveto
	2 copy vpt 0 180 arc closepath fill
	2 copy moveto
	2 copy vpt 270 360 arc closepath fill
	vpt 0 360 arc closepath} bind def
/C12 {BL [] 0 setdash 2 copy moveto
	2 copy vpt 180 360 arc closepath fill
	vpt 0 360 arc closepath} bind def
/C13 {BL [] 0 setdash 2 copy moveto
	2 copy vpt 0 90 arc closepath fill
	2 copy moveto
	2 copy vpt 180 360 arc closepath fill
	vpt 0 360 arc closepath} bind def
/C14 {BL [] 0 setdash 2 copy moveto
	2 copy vpt 90 360 arc closepath fill
	vpt 0 360 arc} bind def
/C15 {BL [] 0 setdash 2 copy vpt 0 360 arc closepath fill
	vpt 0 360 arc closepath} bind def
/Rec {newpath 4 2 roll moveto 1 index 0 rlineto 0 exch rlineto
	neg 0 rlineto closepath} bind def
/Square {dup Rec} bind def
/Bsquare {vpt sub exch vpt sub exch vpt2 Square} bind def
/S0 {BL [] 0 setdash 2 copy moveto 0 vpt rlineto BL Bsquare} bind def
/S1 {BL [] 0 setdash 2 copy vpt Square fill Bsquare} bind def
/S2 {BL [] 0 setdash 2 copy exch vpt sub exch vpt Square fill Bsquare} bind def
/S3 {BL [] 0 setdash 2 copy exch vpt sub exch vpt2 vpt Rec fill Bsquare} bind def
/S4 {BL [] 0 setdash 2 copy exch vpt sub exch vpt sub vpt Square fill Bsquare} bind def
/S5 {BL [] 0 setdash 2 copy 2 copy vpt Square fill
	exch vpt sub exch vpt sub vpt Square fill Bsquare} bind def
/S6 {BL [] 0 setdash 2 copy exch vpt sub exch vpt sub vpt vpt2 Rec fill Bsquare} bind def
/S7 {BL [] 0 setdash 2 copy exch vpt sub exch vpt sub vpt vpt2 Rec fill
	2 copy vpt Square fill Bsquare} bind def
/S8 {BL [] 0 setdash 2 copy vpt sub vpt Square fill Bsquare} bind def
/S9 {BL [] 0 setdash 2 copy vpt sub vpt vpt2 Rec fill Bsquare} bind def
/S10 {BL [] 0 setdash 2 copy vpt sub vpt Square fill 2 copy exch vpt sub exch vpt Square fill
	Bsquare} bind def
/S11 {BL [] 0 setdash 2 copy vpt sub vpt Square fill 2 copy exch vpt sub exch vpt2 vpt Rec fill
	Bsquare} bind def
/S12 {BL [] 0 setdash 2 copy exch vpt sub exch vpt sub vpt2 vpt Rec fill Bsquare} bind def
/S13 {BL [] 0 setdash 2 copy exch vpt sub exch vpt sub vpt2 vpt Rec fill
	2 copy vpt Square fill Bsquare} bind def
/S14 {BL [] 0 setdash 2 copy exch vpt sub exch vpt sub vpt2 vpt Rec fill
	2 copy exch vpt sub exch vpt Square fill Bsquare} bind def
/S15 {BL [] 0 setdash 2 copy Bsquare fill Bsquare} bind def
/D0 {gsave translate 45 rotate 0 0 S0 stroke grestore} bind def
/D1 {gsave translate 45 rotate 0 0 S1 stroke grestore} bind def
/D2 {gsave translate 45 rotate 0 0 S2 stroke grestore} bind def
/D3 {gsave translate 45 rotate 0 0 S3 stroke grestore} bind def
/D4 {gsave translate 45 rotate 0 0 S4 stroke grestore} bind def
/D5 {gsave translate 45 rotate 0 0 S5 stroke grestore} bind def
/D6 {gsave translate 45 rotate 0 0 S6 stroke grestore} bind def
/D7 {gsave translate 45 rotate 0 0 S7 stroke grestore} bind def
/D8 {gsave translate 45 rotate 0 0 S8 stroke grestore} bind def
/D9 {gsave translate 45 rotate 0 0 S9 stroke grestore} bind def
/D10 {gsave translate 45 rotate 0 0 S10 stroke grestore} bind def
/D11 {gsave translate 45 rotate 0 0 S11 stroke grestore} bind def
/D12 {gsave translate 45 rotate 0 0 S12 stroke grestore} bind def
/D13 {gsave translate 45 rotate 0 0 S13 stroke grestore} bind def
/D14 {gsave translate 45 rotate 0 0 S14 stroke grestore} bind def
/D15 {gsave translate 45 rotate 0 0 S15 stroke grestore} bind def
/DiaE {stroke [] 0 setdash vpt add M
  hpt neg vpt neg V hpt vpt neg V
  hpt vpt V hpt neg vpt V closepath stroke} def
/BoxE {stroke [] 0 setdash exch hpt sub exch vpt add M
  0 vpt2 neg V hpt2 0 V 0 vpt2 V
  hpt2 neg 0 V closepath stroke} def
/TriUE {stroke [] 0 setdash vpt 1.12 mul add M
  hpt neg vpt -1.62 mul V
  hpt 2 mul 0 V
  hpt neg vpt 1.62 mul V closepath stroke} def
/TriDE {stroke [] 0 setdash vpt 1.12 mul sub M
  hpt neg vpt 1.62 mul V
  hpt 2 mul 0 V
  hpt neg vpt -1.62 mul V closepath stroke} def
/PentE {stroke [] 0 setdash gsave
  translate 0 hpt M 4 {72 rotate 0 hpt L} repeat
  closepath stroke grestore} def
/CircE {stroke [] 0 setdash 
  hpt 0 360 arc stroke} def
/Opaque {gsave closepath 1 setgray fill grestore 0 setgray closepath} def
/DiaW {stroke [] 0 setdash vpt add M
  hpt neg vpt neg V hpt vpt neg V
  hpt vpt V hpt neg vpt V Opaque stroke} def
/BoxW {stroke [] 0 setdash exch hpt sub exch vpt add M
  0 vpt2 neg V hpt2 0 V 0 vpt2 V
  hpt2 neg 0 V Opaque stroke} def
/TriUW {stroke [] 0 setdash vpt 1.12 mul add M
  hpt neg vpt -1.62 mul V
  hpt 2 mul 0 V
  hpt neg vpt 1.62 mul V Opaque stroke} def
/TriDW {stroke [] 0 setdash vpt 1.12 mul sub M
  hpt neg vpt 1.62 mul V
  hpt 2 mul 0 V
  hpt neg vpt -1.62 mul V Opaque stroke} def
/PentW {stroke [] 0 setdash gsave
  translate 0 hpt M 4 {72 rotate 0 hpt L} repeat
  Opaque stroke grestore} def
/CircW {stroke [] 0 setdash 
  hpt 0 360 arc Opaque stroke} def
/BoxFill {gsave Rec 1 setgray fill grestore} def
/Density {
  /Fillden exch def
  currentrgbcolor
  /ColB exch def /ColG exch def /ColR exch def
  /ColR ColR Fillden mul Fillden sub 1 add def
  /ColG ColG Fillden mul Fillden sub 1 add def
  /ColB ColB Fillden mul Fillden sub 1 add def
  ColR ColG ColB setrgbcolor} def
/BoxColFill {gsave Rec PolyFill} def
/PolyFill {gsave Density fill grestore grestore} def
/h {rlineto rlineto rlineto gsave closepath fill grestore} bind def
%
% PostScript Level 1 Pattern Fill routine for rectangles
% Usage: x y w h s a XX PatternFill
%	x,y = lower left corner of box to be filled
%	w,h = width and height of box
%	  a = angle in degrees between lines and x-axis
%	 XX = 0/1 for no/yes cross-hatch
%
/PatternFill {gsave /PFa [ 9 2 roll ] def
  PFa 0 get PFa 2 get 2 div add PFa 1 get PFa 3 get 2 div add translate
  PFa 2 get -2 div PFa 3 get -2 div PFa 2 get PFa 3 get Rec
  TransparentPatterns {} {gsave 1 setgray fill grestore} ifelse
  clip
  currentlinewidth 0.5 mul setlinewidth
  /PFs PFa 2 get dup mul PFa 3 get dup mul add sqrt def
  0 0 M PFa 5 get rotate PFs -2 div dup translate
  0 1 PFs PFa 4 get div 1 add floor cvi
	{PFa 4 get mul 0 M 0 PFs V} for
  0 PFa 6 get ne {
	0 1 PFs PFa 4 get div 1 add floor cvi
	{PFa 4 get mul 0 2 1 roll M PFs 0 V} for
 } if
  stroke grestore} def
%
/languagelevel where
 {pop languagelevel} {1} ifelse
 2 lt
	{/InterpretLevel1 true def}
	{/InterpretLevel1 Level1 def}
 ifelse
%
% PostScript level 2 pattern fill definitions
%
/Level2PatternFill {
/Tile8x8 {/PaintType 2 /PatternType 1 /TilingType 1 /BBox [0 0 8 8] /XStep 8 /YStep 8}
	bind def
/KeepColor {currentrgbcolor [/Pattern /DeviceRGB] setcolorspace} bind def
<< Tile8x8
 /PaintProc {0.5 setlinewidth pop 0 0 M 8 8 L 0 8 M 8 0 L stroke} 
>> matrix makepattern
/Pat1 exch def
<< Tile8x8
 /PaintProc {0.5 setlinewidth pop 0 0 M 8 8 L 0 8 M 8 0 L stroke
	0 4 M 4 8 L 8 4 L 4 0 L 0 4 L stroke}
>> matrix makepattern
/Pat2 exch def
<< Tile8x8
 /PaintProc {0.5 setlinewidth pop 0 0 M 0 8 L
	8 8 L 8 0 L 0 0 L fill}
>> matrix makepattern
/Pat3 exch def
<< Tile8x8
 /PaintProc {0.5 setlinewidth pop -4 8 M 8 -4 L
	0 12 M 12 0 L stroke}
>> matrix makepattern
/Pat4 exch def
<< Tile8x8
 /PaintProc {0.5 setlinewidth pop -4 0 M 8 12 L
	0 -4 M 12 8 L stroke}
>> matrix makepattern
/Pat5 exch def
<< Tile8x8
 /PaintProc {0.5 setlinewidth pop -2 8 M 4 -4 L
	0 12 M 8 -4 L 4 12 M 10 0 L stroke}
>> matrix makepattern
/Pat6 exch def
<< Tile8x8
 /PaintProc {0.5 setlinewidth pop -2 0 M 4 12 L
	0 -4 M 8 12 L 4 -4 M 10 8 L stroke}
>> matrix makepattern
/Pat7 exch def
<< Tile8x8
 /PaintProc {0.5 setlinewidth pop 8 -2 M -4 4 L
	12 0 M -4 8 L 12 4 M 0 10 L stroke}
>> matrix makepattern
/Pat8 exch def
<< Tile8x8
 /PaintProc {0.5 setlinewidth pop 0 -2 M 12 4 L
	-4 0 M 12 8 L -4 4 M 8 10 L stroke}
>> matrix makepattern
/Pat9 exch def
/Pattern1 {PatternBgnd KeepColor Pat1 setpattern} bind def
/Pattern2 {PatternBgnd KeepColor Pat2 setpattern} bind def
/Pattern3 {PatternBgnd KeepColor Pat3 setpattern} bind def
/Pattern4 {PatternBgnd KeepColor Landscape {Pat5} {Pat4} ifelse setpattern} bind def
/Pattern5 {PatternBgnd KeepColor Landscape {Pat4} {Pat5} ifelse setpattern} bind def
/Pattern6 {PatternBgnd KeepColor Landscape {Pat9} {Pat6} ifelse setpattern} bind def
/Pattern7 {PatternBgnd KeepColor Landscape {Pat8} {Pat7} ifelse setpattern} bind def
} def
%
%
%End of PostScript Level 2 code
%
/PatternBgnd {
  TransparentPatterns {} {gsave 1 setgray fill grestore} ifelse
} def
%
% Substitute for Level 2 pattern fill codes with
% grayscale if Level 2 support is not selected.
%
/Level1PatternFill {
/Pattern1 {0.250 Density} bind def
/Pattern2 {0.500 Density} bind def
/Pattern3 {0.750 Density} bind def
/Pattern4 {0.125 Density} bind def
/Pattern5 {0.375 Density} bind def
/Pattern6 {0.625 Density} bind def
/Pattern7 {0.875 Density} bind def
} def
%
% Now test for support of Level 2 code
%
Level1 {Level1PatternFill} {Level2PatternFill} ifelse
%
/Symbol-Oblique /Symbol findfont [1 0 .167 1 0 0] makefont
dup length dict begin {1 index /FID eq {pop pop} {def} ifelse} forall
currentdict end definefont pop
Level1 SuppressPDFMark or 
{} {
/SDict 10 dict def
systemdict /pdfmark known not {
  userdict /pdfmark systemdict /cleartomark get put
} if
SDict begin [
  /Title (out.ps)
  /Subject (gnuplot plot)
  /Creator (gnuplot 4.6 patchlevel 6)
  /Author (yani)
%  /Producer (gnuplot)
%  /Keywords ()
  /CreationDate (Thu May 28 23:40:23 2015)
  /DOCINFO pdfmark
end
} ifelse
end
%%EndProlog
%%Page: 1 1
gnudict begin
gsave
doclip
50 50 translate
0.100 0.100 scale
90 rotate
0 -5040 translate
0 setgray
newpath
(Helvetica) findfont 140 scalefont setfont
BackgroundColor 0 lt 3 1 roll 0 lt exch 0 lt or or not {gsave BackgroundColor C clippath fill grestore} if
1.000 UL
LT0
0.50 0.50 0.50 C 1.000 UL
LTa
0.50 0.50 0.50 C 966 280 M
5981 0 V
stroke
LT0
0.50 0.50 0.50 C 966 280 M
63 0 V
5918 0 R
-63 0 V
882 280 M
( 0) Rshow
1.000 UL
LT0
0.50 0.50 0.50 C 1.000 UL
LTa
0.50 0.50 0.50 C 966 326 M
5981 0 V
stroke
LT0
0.50 0.50 0.50 C 966 326 M
63 0 V
5918 0 R
-63 0 V
882 326 M
( 0.707106) Rshow
1.000 UL
LT0
0.50 0.50 0.50 C 1.000 UL
LTa
0.50 0.50 0.50 C 966 372 M
5981 0 V
stroke
LT0
0.50 0.50 0.50 C 966 372 M
63 0 V
5918 0 R
-63 0 V
882 372 M
( 1.41421) Rshow
1.000 UL
LT0
0.50 0.50 0.50 C 1.000 UL
LTa
0.50 0.50 0.50 C 966 418 M
5981 0 V
stroke
LT0
0.50 0.50 0.50 C 966 418 M
63 0 V
5918 0 R
-63 0 V
882 418 M
( 2.12132) Rshow
1.000 UL
LT0
0.50 0.50 0.50 C 1.000 UL
LTa
0.50 0.50 0.50 C 966 464 M
5981 0 V
stroke
LT0
0.50 0.50 0.50 C 966 464 M
63 0 V
5918 0 R
-63 0 V
882 464 M
( 2.82842) Rshow
1.000 UL
LT0
0.50 0.50 0.50 C 1.000 UL
LTa
0.50 0.50 0.50 C 966 510 M
5981 0 V
stroke
LT0
0.50 0.50 0.50 C 966 510 M
63 0 V
5918 0 R
-63 0 V
882 510 M
( 3.53553) Rshow
1.000 UL
LT0
0.50 0.50 0.50 C 1.000 UL
LTa
0.50 0.50 0.50 C 966 555 M
5981 0 V
stroke
LT0
0.50 0.50 0.50 C 966 555 M
63 0 V
5918 0 R
-63 0 V
882 555 M
( 4.24264) Rshow
1.000 UL
LT0
0.50 0.50 0.50 C 1.000 UL
LTa
0.50 0.50 0.50 C 966 601 M
5981 0 V
stroke
LT0
0.50 0.50 0.50 C 966 601 M
63 0 V
5918 0 R
-63 0 V
882 601 M
( 4.94974) Rshow
1.000 UL
LT0
0.50 0.50 0.50 C 1.000 UL
LTa
0.50 0.50 0.50 C 966 647 M
5981 0 V
stroke
LT0
0.50 0.50 0.50 C 966 647 M
63 0 V
5918 0 R
-63 0 V
882 647 M
( 5.65685) Rshow
1.000 UL
LT0
0.50 0.50 0.50 C 1.000 UL
LTa
0.50 0.50 0.50 C 966 693 M
5981 0 V
stroke
LT0
0.50 0.50 0.50 C 966 693 M
63 0 V
5918 0 R
-63 0 V
882 693 M
( 6.36395) Rshow
1.000 UL
LT0
0.50 0.50 0.50 C 1.000 UL
LTa
0.50 0.50 0.50 C 966 739 M
5981 0 V
stroke
LT0
0.50 0.50 0.50 C 966 739 M
63 0 V
5918 0 R
-63 0 V
882 739 M
( 7.07106) Rshow
1.000 UL
LT0
0.50 0.50 0.50 C 1.000 UL
LTa
0.50 0.50 0.50 C 966 785 M
5981 0 V
stroke
LT0
0.50 0.50 0.50 C 966 785 M
63 0 V
5918 0 R
-63 0 V
882 785 M
( 7.77817) Rshow
1.000 UL
LT0
0.50 0.50 0.50 C 1.000 UL
LTa
0.50 0.50 0.50 C 966 831 M
5981 0 V
stroke
LT0
0.50 0.50 0.50 C 966 831 M
63 0 V
5918 0 R
-63 0 V
882 831 M
( 8.48527) Rshow
1.000 UL
LT0
0.50 0.50 0.50 C 1.000 UL
LTa
0.50 0.50 0.50 C 966 877 M
5981 0 V
stroke
LT0
0.50 0.50 0.50 C 966 877 M
63 0 V
5918 0 R
-63 0 V
882 877 M
( 9.19238) Rshow
1.000 UL
LT0
0.50 0.50 0.50 C 1.000 UL
LTa
0.50 0.50 0.50 C 966 923 M
5981 0 V
stroke
LT0
0.50 0.50 0.50 C 966 923 M
63 0 V
5918 0 R
-63 0 V
882 923 M
( 9.89948) Rshow
1.000 UL
LT0
0.50 0.50 0.50 C 1.000 UL
LTa
0.50 0.50 0.50 C 966 969 M
5981 0 V
stroke
LT0
0.50 0.50 0.50 C 966 969 M
63 0 V
5918 0 R
-63 0 V
882 969 M
( 10.6066) Rshow
1.000 UL
LT0
0.50 0.50 0.50 C 1.000 UL
LTa
0.50 0.50 0.50 C 966 1015 M
5981 0 V
stroke
LT0
0.50 0.50 0.50 C 966 1015 M
63 0 V
5918 0 R
-63 0 V
-6002 0 R
( 11.3137) Rshow
1.000 UL
LT0
0.50 0.50 0.50 C 1.000 UL
LTa
0.50 0.50 0.50 C 966 1060 M
5981 0 V
stroke
LT0
0.50 0.50 0.50 C 966 1060 M
63 0 V
5918 0 R
-63 0 V
-6002 0 R
( 12.0208) Rshow
1.000 UL
LT0
0.50 0.50 0.50 C 1.000 UL
LTa
0.50 0.50 0.50 C 966 1106 M
5981 0 V
stroke
LT0
0.50 0.50 0.50 C 966 1106 M
63 0 V
5918 0 R
-63 0 V
-6002 0 R
( 12.7279) Rshow
1.000 UL
LT0
0.50 0.50 0.50 C 1.000 UL
LTa
0.50 0.50 0.50 C 966 1152 M
5981 0 V
stroke
LT0
0.50 0.50 0.50 C 966 1152 M
63 0 V
5918 0 R
-63 0 V
-6002 0 R
( 13.435) Rshow
1.000 UL
LT0
0.50 0.50 0.50 C 1.000 UL
LTa
0.50 0.50 0.50 C 966 1198 M
5981 0 V
stroke
LT0
0.50 0.50 0.50 C 966 1198 M
63 0 V
5918 0 R
-63 0 V
-6002 0 R
( 14.1421) Rshow
1.000 UL
LT0
0.50 0.50 0.50 C 1.000 UL
LTa
0.50 0.50 0.50 C 966 1244 M
5981 0 V
stroke
LT0
0.50 0.50 0.50 C 966 1244 M
63 0 V
5918 0 R
-63 0 V
-6002 0 R
( 14.8492) Rshow
1.000 UL
LT0
0.50 0.50 0.50 C 1.000 UL
LTa
0.50 0.50 0.50 C 966 1290 M
5981 0 V
stroke
LT0
0.50 0.50 0.50 C 966 1290 M
63 0 V
5918 0 R
-63 0 V
-6002 0 R
( 15.5563) Rshow
1.000 UL
LT0
0.50 0.50 0.50 C 1.000 UL
LTa
0.50 0.50 0.50 C 966 1336 M
5981 0 V
stroke
LT0
0.50 0.50 0.50 C 966 1336 M
63 0 V
5918 0 R
-63 0 V
-6002 0 R
( 16.2634) Rshow
1.000 UL
LT0
0.50 0.50 0.50 C 1.000 UL
LTa
0.50 0.50 0.50 C 966 1382 M
5981 0 V
stroke
LT0
0.50 0.50 0.50 C 966 1382 M
63 0 V
5918 0 R
-63 0 V
-6002 0 R
( 16.9705) Rshow
1.000 UL
LT0
0.50 0.50 0.50 C 1.000 UL
LTa
0.50 0.50 0.50 C 966 1428 M
5981 0 V
stroke
LT0
0.50 0.50 0.50 C 966 1428 M
63 0 V
5918 0 R
-63 0 V
-6002 0 R
( 17.6776) Rshow
1.000 UL
LT0
0.50 0.50 0.50 C 1.000 UL
LTa
0.50 0.50 0.50 C 966 1474 M
5981 0 V
stroke
LT0
0.50 0.50 0.50 C 966 1474 M
63 0 V
5918 0 R
-63 0 V
-6002 0 R
( 18.3848) Rshow
1.000 UL
LT0
0.50 0.50 0.50 C 1.000 UL
LTa
0.50 0.50 0.50 C 966 1520 M
5981 0 V
stroke
LT0
0.50 0.50 0.50 C 966 1520 M
63 0 V
5918 0 R
-63 0 V
-6002 0 R
( 19.0919) Rshow
1.000 UL
LT0
0.50 0.50 0.50 C 1.000 UL
LTa
0.50 0.50 0.50 C 966 1565 M
5981 0 V
stroke
LT0
0.50 0.50 0.50 C 966 1565 M
63 0 V
5918 0 R
-63 0 V
-6002 0 R
( 19.799) Rshow
1.000 UL
LT0
0.50 0.50 0.50 C 1.000 UL
LTa
0.50 0.50 0.50 C 966 1611 M
5981 0 V
stroke
LT0
0.50 0.50 0.50 C 966 1611 M
63 0 V
5918 0 R
-63 0 V
-6002 0 R
( 20.5061) Rshow
1.000 UL
LT0
0.50 0.50 0.50 C 1.000 UL
LTa
0.50 0.50 0.50 C 966 1657 M
5981 0 V
stroke
LT0
0.50 0.50 0.50 C 966 1657 M
63 0 V
5918 0 R
-63 0 V
-6002 0 R
( 21.2132) Rshow
1.000 UL
LT0
0.50 0.50 0.50 C 1.000 UL
LTa
0.50 0.50 0.50 C 966 1703 M
5981 0 V
stroke
LT0
0.50 0.50 0.50 C 966 1703 M
63 0 V
5918 0 R
-63 0 V
-6002 0 R
( 21.9203) Rshow
1.000 UL
LT0
0.50 0.50 0.50 C 1.000 UL
LTa
0.50 0.50 0.50 C 966 1749 M
5981 0 V
stroke
LT0
0.50 0.50 0.50 C 966 1749 M
63 0 V
5918 0 R
-63 0 V
-6002 0 R
( 22.6274) Rshow
1.000 UL
LT0
0.50 0.50 0.50 C 1.000 UL
LTa
0.50 0.50 0.50 C 966 1795 M
5981 0 V
stroke
LT0
0.50 0.50 0.50 C 966 1795 M
63 0 V
5918 0 R
-63 0 V
-6002 0 R
( 23.3345) Rshow
1.000 UL
LT0
0.50 0.50 0.50 C 1.000 UL
LTa
0.50 0.50 0.50 C 966 1841 M
5981 0 V
stroke
LT0
0.50 0.50 0.50 C 966 1841 M
63 0 V
5918 0 R
-63 0 V
-6002 0 R
( 24.0416) Rshow
1.000 UL
LT0
0.50 0.50 0.50 C 1.000 UL
LTa
0.50 0.50 0.50 C 966 1887 M
5981 0 V
stroke
LT0
0.50 0.50 0.50 C 966 1887 M
63 0 V
5918 0 R
-63 0 V
-6002 0 R
( 24.7487) Rshow
1.000 UL
LT0
0.50 0.50 0.50 C 1.000 UL
LTa
0.50 0.50 0.50 C 966 1933 M
5981 0 V
stroke
LT0
0.50 0.50 0.50 C 966 1933 M
63 0 V
5918 0 R
-63 0 V
-6002 0 R
( 25.4558) Rshow
1.000 UL
LT0
0.50 0.50 0.50 C 1.000 UL
LTa
0.50 0.50 0.50 C 966 1979 M
5981 0 V
stroke
LT0
0.50 0.50 0.50 C 966 1979 M
63 0 V
5918 0 R
-63 0 V
-6002 0 R
( 26.1629) Rshow
1.000 UL
LT0
0.50 0.50 0.50 C 1.000 UL
LTa
0.50 0.50 0.50 C 966 2025 M
5981 0 V
stroke
LT0
0.50 0.50 0.50 C 966 2025 M
63 0 V
5918 0 R
-63 0 V
-6002 0 R
( 26.87) Rshow
1.000 UL
LT0
0.50 0.50 0.50 C 1.000 UL
LTa
0.50 0.50 0.50 C 966 2070 M
5981 0 V
stroke
LT0
0.50 0.50 0.50 C 966 2070 M
63 0 V
5918 0 R
-63 0 V
-6002 0 R
( 27.5771) Rshow
1.000 UL
LT0
0.50 0.50 0.50 C 1.000 UL
LTa
0.50 0.50 0.50 C 966 2116 M
5981 0 V
stroke
LT0
0.50 0.50 0.50 C 966 2116 M
63 0 V
5918 0 R
-63 0 V
-6002 0 R
( 28.2842) Rshow
1.000 UL
LT0
0.50 0.50 0.50 C 1.000 UL
LTa
0.50 0.50 0.50 C 966 2162 M
5981 0 V
stroke
LT0
0.50 0.50 0.50 C 966 2162 M
63 0 V
5918 0 R
-63 0 V
-6002 0 R
( 28.9913) Rshow
1.000 UL
LT0
0.50 0.50 0.50 C 1.000 UL
LTa
0.50 0.50 0.50 C 966 2208 M
5981 0 V
stroke
LT0
0.50 0.50 0.50 C 966 2208 M
63 0 V
5918 0 R
-63 0 V
-6002 0 R
( 29.6985) Rshow
1.000 UL
LT0
0.50 0.50 0.50 C 1.000 UL
LTa
0.50 0.50 0.50 C 966 2254 M
5981 0 V
stroke
LT0
0.50 0.50 0.50 C 966 2254 M
63 0 V
5918 0 R
-63 0 V
-6002 0 R
( 30.4056) Rshow
1.000 UL
LT0
0.50 0.50 0.50 C 1.000 UL
LTa
0.50 0.50 0.50 C 966 2300 M
5981 0 V
stroke
LT0
0.50 0.50 0.50 C 966 2300 M
63 0 V
5918 0 R
-63 0 V
-6002 0 R
( 31.1127) Rshow
1.000 UL
LT0
0.50 0.50 0.50 C 1.000 UL
LTa
0.50 0.50 0.50 C 966 2346 M
5981 0 V
stroke
LT0
0.50 0.50 0.50 C 966 2346 M
63 0 V
5918 0 R
-63 0 V
-6002 0 R
( 31.8198) Rshow
1.000 UL
LT0
0.50 0.50 0.50 C 1.000 UL
LTa
0.50 0.50 0.50 C 966 2392 M
5981 0 V
stroke
LT0
0.50 0.50 0.50 C 966 2392 M
63 0 V
5918 0 R
-63 0 V
-6002 0 R
( 32.5269) Rshow
1.000 UL
LT0
0.50 0.50 0.50 C 1.000 UL
LTa
0.50 0.50 0.50 C 966 2438 M
5981 0 V
stroke
LT0
0.50 0.50 0.50 C 966 2438 M
63 0 V
5918 0 R
-63 0 V
-6002 0 R
( 33.234) Rshow
1.000 UL
LT0
0.50 0.50 0.50 C 1.000 UL
LTa
0.50 0.50 0.50 C 966 2484 M
5981 0 V
stroke
LT0
0.50 0.50 0.50 C 966 2484 M
63 0 V
5918 0 R
-63 0 V
-6002 0 R
( 33.9411) Rshow
1.000 UL
LT0
0.50 0.50 0.50 C 1.000 UL
LTa
0.50 0.50 0.50 C 966 2530 M
5981 0 V
stroke
LT0
0.50 0.50 0.50 C 966 2530 M
63 0 V
5918 0 R
-63 0 V
-6002 0 R
( 34.6482) Rshow
1.000 UL
LT0
0.50 0.50 0.50 C 1.000 UL
LTa
0.50 0.50 0.50 C 966 2576 M
5981 0 V
stroke
LT0
0.50 0.50 0.50 C 966 2576 M
63 0 V
5918 0 R
-63 0 V
-6002 0 R
( 35.3553) Rshow
1.000 UL
LT0
0.50 0.50 0.50 C 1.000 UL
LTa
0.50 0.50 0.50 C 966 2621 M
5981 0 V
stroke
LT0
0.50 0.50 0.50 C 966 2621 M
63 0 V
5918 0 R
-63 0 V
-6002 0 R
( 36.0624) Rshow
1.000 UL
LT0
0.50 0.50 0.50 C 1.000 UL
LTa
0.50 0.50 0.50 C 966 2667 M
5981 0 V
stroke
LT0
0.50 0.50 0.50 C 966 2667 M
63 0 V
5918 0 R
-63 0 V
-6002 0 R
( 36.7695) Rshow
1.000 UL
LT0
0.50 0.50 0.50 C 1.000 UL
LTa
0.50 0.50 0.50 C 966 2713 M
5981 0 V
stroke
LT0
0.50 0.50 0.50 C 966 2713 M
63 0 V
5918 0 R
-63 0 V
-6002 0 R
( 37.4766) Rshow
1.000 UL
LT0
0.50 0.50 0.50 C 1.000 UL
LTa
0.50 0.50 0.50 C 966 2759 M
5981 0 V
stroke
LT0
0.50 0.50 0.50 C 966 2759 M
63 0 V
5918 0 R
-63 0 V
-6002 0 R
( 38.1837) Rshow
1.000 UL
LT0
0.50 0.50 0.50 C 1.000 UL
LTa
0.50 0.50 0.50 C 966 2805 M
5981 0 V
stroke
LT0
0.50 0.50 0.50 C 966 2805 M
63 0 V
5918 0 R
-63 0 V
-6002 0 R
( 38.8908) Rshow
1.000 UL
LT0
0.50 0.50 0.50 C 1.000 UL
LTa
0.50 0.50 0.50 C 966 2851 M
5981 0 V
stroke
LT0
0.50 0.50 0.50 C 966 2851 M
63 0 V
5918 0 R
-63 0 V
-6002 0 R
( 39.5979) Rshow
1.000 UL
LT0
0.50 0.50 0.50 C 1.000 UL
LTa
0.50 0.50 0.50 C 966 2897 M
5981 0 V
stroke
LT0
0.50 0.50 0.50 C 966 2897 M
63 0 V
5918 0 R
-63 0 V
-6002 0 R
( 40.305) Rshow
1.000 UL
LT0
0.50 0.50 0.50 C 1.000 UL
LTa
0.50 0.50 0.50 C 966 2943 M
5981 0 V
stroke
LT0
0.50 0.50 0.50 C 966 2943 M
63 0 V
5918 0 R
-63 0 V
-6002 0 R
( 41.0121) Rshow
1.000 UL
LT0
0.50 0.50 0.50 C 1.000 UL
LTa
0.50 0.50 0.50 C 966 2989 M
5981 0 V
stroke
LT0
0.50 0.50 0.50 C 966 2989 M
63 0 V
5918 0 R
-63 0 V
-6002 0 R
( 41.7193) Rshow
1.000 UL
LT0
0.50 0.50 0.50 C 1.000 UL
LTa
0.50 0.50 0.50 C 966 3035 M
5981 0 V
stroke
LT0
0.50 0.50 0.50 C 966 3035 M
63 0 V
5918 0 R
-63 0 V
-6002 0 R
( 42.4264) Rshow
1.000 UL
LT0
0.50 0.50 0.50 C 1.000 UL
LTa
0.50 0.50 0.50 C 966 3081 M
5981 0 V
stroke
LT0
0.50 0.50 0.50 C 966 3081 M
63 0 V
5918 0 R
-63 0 V
-6002 0 R
( 43.1335) Rshow
1.000 UL
LT0
0.50 0.50 0.50 C 1.000 UL
LTa
0.50 0.50 0.50 C 966 3126 M
5981 0 V
stroke
LT0
0.50 0.50 0.50 C 966 3126 M
63 0 V
5918 0 R
-63 0 V
-6002 0 R
( 43.8406) Rshow
1.000 UL
LT0
0.50 0.50 0.50 C 1.000 UL
LTa
0.50 0.50 0.50 C 966 3172 M
5981 0 V
stroke
LT0
0.50 0.50 0.50 C 966 3172 M
63 0 V
5918 0 R
-63 0 V
-6002 0 R
( 44.5477) Rshow
1.000 UL
LT0
0.50 0.50 0.50 C 1.000 UL
LTa
0.50 0.50 0.50 C 966 3218 M
5981 0 V
stroke
LT0
0.50 0.50 0.50 C 966 3218 M
63 0 V
5918 0 R
-63 0 V
-6002 0 R
( 45.2548) Rshow
1.000 UL
LT0
0.50 0.50 0.50 C 1.000 UL
LTa
0.50 0.50 0.50 C 966 3264 M
5981 0 V
stroke
LT0
0.50 0.50 0.50 C 966 3264 M
63 0 V
5918 0 R
-63 0 V
-6002 0 R
( 45.9619) Rshow
1.000 UL
LT0
0.50 0.50 0.50 C 1.000 UL
LTa
0.50 0.50 0.50 C 966 3310 M
5981 0 V
stroke
LT0
0.50 0.50 0.50 C 966 3310 M
63 0 V
5918 0 R
-63 0 V
-6002 0 R
( 46.669) Rshow
1.000 UL
LT0
0.50 0.50 0.50 C 1.000 UL
LTa
0.50 0.50 0.50 C 966 3356 M
5981 0 V
stroke
LT0
0.50 0.50 0.50 C 966 3356 M
63 0 V
5918 0 R
-63 0 V
-6002 0 R
( 47.3761) Rshow
1.000 UL
LT0
0.50 0.50 0.50 C 1.000 UL
LTa
0.50 0.50 0.50 C 966 3402 M
5981 0 V
stroke
LT0
0.50 0.50 0.50 C 966 3402 M
63 0 V
5918 0 R
-63 0 V
-6002 0 R
( 48.0832) Rshow
1.000 UL
LT0
0.50 0.50 0.50 C 1.000 UL
LTa
0.50 0.50 0.50 C 966 3448 M
5981 0 V
stroke
LT0
0.50 0.50 0.50 C 966 3448 M
63 0 V
5918 0 R
-63 0 V
-6002 0 R
( 48.7903) Rshow
1.000 UL
LT0
0.50 0.50 0.50 C 1.000 UL
LTa
0.50 0.50 0.50 C 966 3494 M
5981 0 V
stroke
LT0
0.50 0.50 0.50 C 966 3494 M
63 0 V
5918 0 R
-63 0 V
-6002 0 R
( 49.4974) Rshow
1.000 UL
LT0
0.50 0.50 0.50 C 1.000 UL
LTa
0.50 0.50 0.50 C 966 3540 M
5981 0 V
stroke
LT0
0.50 0.50 0.50 C 966 3540 M
63 0 V
5918 0 R
-63 0 V
-6002 0 R
( 50.2045) Rshow
1.000 UL
LT0
0.50 0.50 0.50 C 1.000 UL
LTa
0.50 0.50 0.50 C 966 3586 M
5981 0 V
stroke
LT0
0.50 0.50 0.50 C 966 3586 M
63 0 V
5918 0 R
-63 0 V
-6002 0 R
( 50.9116) Rshow
1.000 UL
LT0
0.50 0.50 0.50 C 1.000 UL
LTa
0.50 0.50 0.50 C 966 3631 M
5981 0 V
stroke
LT0
0.50 0.50 0.50 C 966 3631 M
63 0 V
5918 0 R
-63 0 V
-6002 0 R
( 51.6187) Rshow
1.000 UL
LT0
0.50 0.50 0.50 C 1.000 UL
LTa
0.50 0.50 0.50 C 966 3677 M
5981 0 V
stroke
LT0
0.50 0.50 0.50 C 966 3677 M
63 0 V
5918 0 R
-63 0 V
-6002 0 R
( 52.3258) Rshow
1.000 UL
LT0
0.50 0.50 0.50 C 1.000 UL
LTa
0.50 0.50 0.50 C 966 3723 M
5981 0 V
stroke
LT0
0.50 0.50 0.50 C 966 3723 M
63 0 V
5918 0 R
-63 0 V
-6002 0 R
( 53.033) Rshow
1.000 UL
LT0
0.50 0.50 0.50 C 1.000 UL
LTa
0.50 0.50 0.50 C 966 3769 M
5981 0 V
stroke
LT0
0.50 0.50 0.50 C 966 3769 M
63 0 V
5918 0 R
-63 0 V
-6002 0 R
( 53.7401) Rshow
1.000 UL
LT0
0.50 0.50 0.50 C 1.000 UL
LTa
0.50 0.50 0.50 C 966 3815 M
5981 0 V
stroke
LT0
0.50 0.50 0.50 C 966 3815 M
63 0 V
5918 0 R
-63 0 V
-6002 0 R
( 54.4472) Rshow
1.000 UL
LT0
0.50 0.50 0.50 C 1.000 UL
LTa
0.50 0.50 0.50 C 966 3861 M
5981 0 V
stroke
LT0
0.50 0.50 0.50 C 966 3861 M
63 0 V
5918 0 R
-63 0 V
-6002 0 R
( 55.1543) Rshow
1.000 UL
LT0
0.50 0.50 0.50 C 1.000 UL
LTa
0.50 0.50 0.50 C 966 3907 M
5981 0 V
stroke
LT0
0.50 0.50 0.50 C 966 3907 M
63 0 V
5918 0 R
-63 0 V
-6002 0 R
( 55.8614) Rshow
1.000 UL
LT0
0.50 0.50 0.50 C 1.000 UL
LTa
0.50 0.50 0.50 C 966 3953 M
5981 0 V
stroke
LT0
0.50 0.50 0.50 C 966 3953 M
63 0 V
5918 0 R
-63 0 V
-6002 0 R
( 56.5685) Rshow
1.000 UL
LT0
0.50 0.50 0.50 C 1.000 UL
LTa
0.50 0.50 0.50 C 966 3999 M
5981 0 V
stroke
LT0
0.50 0.50 0.50 C 966 3999 M
63 0 V
5918 0 R
-63 0 V
-6002 0 R
( 57.2756) Rshow
1.000 UL
LT0
0.50 0.50 0.50 C 1.000 UL
LTa
0.50 0.50 0.50 C 966 4045 M
5981 0 V
stroke
LT0
0.50 0.50 0.50 C 966 4045 M
63 0 V
5918 0 R
-63 0 V
-6002 0 R
( 57.9827) Rshow
1.000 UL
LT0
0.50 0.50 0.50 C 1.000 UL
LTa
0.50 0.50 0.50 C 966 4091 M
5981 0 V
stroke
LT0
0.50 0.50 0.50 C 966 4091 M
63 0 V
5918 0 R
-63 0 V
-6002 0 R
( 58.6898) Rshow
1.000 UL
LT0
0.50 0.50 0.50 C 1.000 UL
LTa
0.50 0.50 0.50 C 966 4136 M
5981 0 V
stroke
LT0
0.50 0.50 0.50 C 966 4136 M
63 0 V
5918 0 R
-63 0 V
-6002 0 R
( 59.3969) Rshow
1.000 UL
LT0
0.50 0.50 0.50 C 1.000 UL
LTa
0.50 0.50 0.50 C 966 4182 M
5981 0 V
stroke
LT0
0.50 0.50 0.50 C 966 4182 M
63 0 V
5918 0 R
-63 0 V
-6002 0 R
( 60.104) Rshow
1.000 UL
LT0
0.50 0.50 0.50 C 1.000 UL
LTa
0.50 0.50 0.50 C 966 4228 M
5981 0 V
stroke
LT0
0.50 0.50 0.50 C 966 4228 M
63 0 V
5918 0 R
-63 0 V
-6002 0 R
( 60.8111) Rshow
1.000 UL
LT0
0.50 0.50 0.50 C 1.000 UL
LTa
0.50 0.50 0.50 C 966 4274 M
5981 0 V
stroke
LT0
0.50 0.50 0.50 C 966 4274 M
63 0 V
5918 0 R
-63 0 V
-6002 0 R
( 61.5182) Rshow
1.000 UL
LT0
0.50 0.50 0.50 C 1.000 UL
LTa
0.50 0.50 0.50 C 966 4320 M
5981 0 V
stroke
LT0
0.50 0.50 0.50 C 966 4320 M
63 0 V
5918 0 R
-63 0 V
-6002 0 R
( 62.2253) Rshow
1.000 UL
LT0
0.50 0.50 0.50 C 1.000 UL
LTa
0.50 0.50 0.50 C 966 4366 M
5981 0 V
stroke
LT0
0.50 0.50 0.50 C 966 4366 M
63 0 V
5918 0 R
-63 0 V
-6002 0 R
( 62.9324) Rshow
1.000 UL
LT0
0.50 0.50 0.50 C 1.000 UL
LTa
0.50 0.50 0.50 C 966 4412 M
5981 0 V
stroke
LT0
0.50 0.50 0.50 C 966 4412 M
63 0 V
5918 0 R
-63 0 V
-6002 0 R
( 63.6395) Rshow
1.000 UL
LT0
0.50 0.50 0.50 C 1.000 UL
LTa
0.50 0.50 0.50 C 966 4458 M
5981 0 V
stroke
LT0
0.50 0.50 0.50 C 966 4458 M
63 0 V
5918 0 R
-63 0 V
-6002 0 R
( 64.3466) Rshow
1.000 UL
LT0
0.50 0.50 0.50 C 1.000 UL
LTa
0.50 0.50 0.50 C 966 4504 M
5981 0 V
stroke
LT0
0.50 0.50 0.50 C 966 4504 M
63 0 V
5918 0 R
-63 0 V
-6002 0 R
( 65.0538) Rshow
1.000 UL
LT0
0.50 0.50 0.50 C 1.000 UL
LTa
0.50 0.50 0.50 C 966 4550 M
5981 0 V
stroke
LT0
0.50 0.50 0.50 C 966 4550 M
63 0 V
5918 0 R
-63 0 V
-6002 0 R
( 65.7609) Rshow
1.000 UL
LT0
0.50 0.50 0.50 C 1.000 UL
LTa
0.50 0.50 0.50 C 966 4596 M
5981 0 V
stroke
LT0
0.50 0.50 0.50 C 966 4596 M
63 0 V
5918 0 R
-63 0 V
-6002 0 R
( 66.468) Rshow
1.000 UL
LT0
0.50 0.50 0.50 C 1.000 UL
LTa
0.50 0.50 0.50 C 966 4641 M
5981 0 V
stroke
LT0
0.50 0.50 0.50 C 966 4641 M
63 0 V
5918 0 R
-63 0 V
-6002 0 R
( 67.1751) Rshow
1.000 UL
LT0
0.50 0.50 0.50 C 1.000 UL
LTa
0.50 0.50 0.50 C 966 4687 M
5981 0 V
stroke
LT0
0.50 0.50 0.50 C 966 4687 M
63 0 V
5918 0 R
-63 0 V
-6002 0 R
( 67.8822) Rshow
1.000 UL
LT0
0.50 0.50 0.50 C 1.000 UL
LTa
0.50 0.50 0.50 C 966 4733 M
5981 0 V
stroke
LT0
0.50 0.50 0.50 C 966 4733 M
63 0 V
5918 0 R
-63 0 V
-6002 0 R
( 68.5893) Rshow
1.000 UL
LT0
0.50 0.50 0.50 C 1.000 UL
LTa
0.50 0.50 0.50 C 966 4779 M
5981 0 V
stroke
LT0
0.50 0.50 0.50 C 966 4779 M
63 0 V
5918 0 R
-63 0 V
-6002 0 R
( 69.2964) Rshow
1.000 UL
LT0
0.50 0.50 0.50 C 1.000 UL
LTa
0.50 0.50 0.50 C 966 4825 M
5981 0 V
stroke
LT0
0.50 0.50 0.50 C 966 4825 M
63 0 V
5918 0 R
-63 0 V
-6002 0 R
( 70.0035) Rshow
1.000 UL
LT0
0.50 0.50 0.50 C 1.000 UL
LTa
0.50 0.50 0.50 C 966 4871 M
5981 0 V
stroke
LT0
0.50 0.50 0.50 C 966 4871 M
63 0 V
5918 0 R
-63 0 V
-6002 0 R
( 70.7106) Rshow
1.000 UL
LT0
0.50 0.50 0.50 C 1.000 UL
LTa
0.50 0.50 0.50 C 966 280 M
0 4591 V
stroke
LT0
0.50 0.50 0.50 C 966 280 M
0 63 V
0 4528 R
0 -63 V
966 140 M
( 0) Cshow
1.000 UL
LT0
0.50 0.50 0.50 C 1.000 UL
LTa
0.50 0.50 0.50 C 1026 280 M
0 4591 V
stroke
LT0
0.50 0.50 0.50 C 1026 280 M
0 63 V
0 4528 R
0 -63 V
0 -4668 R
( 0.707106) Cshow
1.000 UL
LT0
0.50 0.50 0.50 C 1.000 UL
LTa
0.50 0.50 0.50 C 1086 280 M
0 4591 V
stroke
LT0
0.50 0.50 0.50 C 1086 280 M
0 63 V
0 4528 R
0 -63 V
0 -4668 R
( 1.41421) Cshow
1.000 UL
LT0
0.50 0.50 0.50 C 1.000 UL
LTa
0.50 0.50 0.50 C 1145 280 M
0 4591 V
stroke
LT0
0.50 0.50 0.50 C 1145 280 M
0 63 V
0 4528 R
0 -63 V
0 -4668 R
( 2.12132) Cshow
1.000 UL
LT0
0.50 0.50 0.50 C 1.000 UL
LTa
0.50 0.50 0.50 C 1205 280 M
0 4591 V
stroke
LT0
0.50 0.50 0.50 C 1205 280 M
0 63 V
0 4528 R
0 -63 V
0 -4668 R
( 2.82842) Cshow
1.000 UL
LT0
0.50 0.50 0.50 C 1.000 UL
LTa
0.50 0.50 0.50 C 1265 280 M
0 4591 V
stroke
LT0
0.50 0.50 0.50 C 1265 280 M
0 63 V
0 4528 R
0 -63 V
0 -4668 R
( 3.53553) Cshow
1.000 UL
LT0
0.50 0.50 0.50 C 1.000 UL
LTa
0.50 0.50 0.50 C 1325 280 M
0 4591 V
stroke
LT0
0.50 0.50 0.50 C 1325 280 M
0 63 V
0 4528 R
0 -63 V
0 -4668 R
( 4.24264) Cshow
1.000 UL
LT0
0.50 0.50 0.50 C 1.000 UL
LTa
0.50 0.50 0.50 C 1385 280 M
0 4591 V
stroke
LT0
0.50 0.50 0.50 C 1385 280 M
0 63 V
0 4528 R
0 -63 V
0 -4668 R
( 4.94974) Cshow
1.000 UL
LT0
0.50 0.50 0.50 C 1.000 UL
LTa
0.50 0.50 0.50 C 1444 280 M
0 4591 V
stroke
LT0
0.50 0.50 0.50 C 1444 280 M
0 63 V
0 4528 R
0 -63 V
0 -4668 R
( 5.65685) Cshow
1.000 UL
LT0
0.50 0.50 0.50 C 1.000 UL
LTa
0.50 0.50 0.50 C 1504 280 M
0 4591 V
stroke
LT0
0.50 0.50 0.50 C 1504 280 M
0 63 V
0 4528 R
0 -63 V
0 -4668 R
( 6.36395) Cshow
1.000 UL
LT0
0.50 0.50 0.50 C 1.000 UL
LTa
0.50 0.50 0.50 C 1564 280 M
0 4591 V
stroke
LT0
0.50 0.50 0.50 C 1564 280 M
0 63 V
0 4528 R
0 -63 V
0 -4668 R
( 7.07106) Cshow
1.000 UL
LT0
0.50 0.50 0.50 C 1.000 UL
LTa
0.50 0.50 0.50 C 1624 280 M
0 4591 V
stroke
LT0
0.50 0.50 0.50 C 1624 280 M
0 63 V
0 4528 R
0 -63 V
0 -4668 R
( 7.77817) Cshow
1.000 UL
LT0
0.50 0.50 0.50 C 1.000 UL
LTa
0.50 0.50 0.50 C 1684 280 M
0 4591 V
stroke
LT0
0.50 0.50 0.50 C 1684 280 M
0 63 V
0 4528 R
0 -63 V
0 -4668 R
( 8.48527) Cshow
1.000 UL
LT0
0.50 0.50 0.50 C 1.000 UL
LTa
0.50 0.50 0.50 C 1744 280 M
0 4591 V
stroke
LT0
0.50 0.50 0.50 C 1744 280 M
0 63 V
0 4528 R
0 -63 V
0 -4668 R
( 9.19238) Cshow
1.000 UL
LT0
0.50 0.50 0.50 C 1.000 UL
LTa
0.50 0.50 0.50 C 1803 280 M
0 4591 V
stroke
LT0
0.50 0.50 0.50 C 1803 280 M
0 63 V
0 4528 R
0 -63 V
0 -4668 R
( 9.89948) Cshow
1.000 UL
LT0
0.50 0.50 0.50 C 1.000 UL
LTa
0.50 0.50 0.50 C 1863 280 M
0 4591 V
stroke
LT0
0.50 0.50 0.50 C 1863 280 M
0 63 V
0 4528 R
0 -63 V
0 -4668 R
( 10.6066) Cshow
1.000 UL
LT0
0.50 0.50 0.50 C 1.000 UL
LTa
0.50 0.50 0.50 C 1923 280 M
0 4591 V
stroke
LT0
0.50 0.50 0.50 C 1923 280 M
0 63 V
0 4528 R
0 -63 V
0 -4668 R
( 11.3137) Cshow
1.000 UL
LT0
0.50 0.50 0.50 C 1.000 UL
LTa
0.50 0.50 0.50 C 1983 280 M
0 4591 V
stroke
LT0
0.50 0.50 0.50 C 1983 280 M
0 63 V
0 4528 R
0 -63 V
0 -4668 R
( 12.0208) Cshow
1.000 UL
LT0
0.50 0.50 0.50 C 1.000 UL
LTa
0.50 0.50 0.50 C 2043 280 M
0 4591 V
stroke
LT0
0.50 0.50 0.50 C 2043 280 M
0 63 V
0 4528 R
0 -63 V
0 -4668 R
( 12.7279) Cshow
1.000 UL
LT0
0.50 0.50 0.50 C 1.000 UL
LTa
0.50 0.50 0.50 C 2102 280 M
0 4591 V
stroke
LT0
0.50 0.50 0.50 C 2102 280 M
0 63 V
0 4528 R
0 -63 V
0 -4668 R
( 13.435) Cshow
1.000 UL
LT0
0.50 0.50 0.50 C 1.000 UL
LTa
0.50 0.50 0.50 C 2162 280 M
0 4591 V
stroke
LT0
0.50 0.50 0.50 C 2162 280 M
0 63 V
0 4528 R
0 -63 V
0 -4668 R
( 14.1421) Cshow
1.000 UL
LT0
0.50 0.50 0.50 C 1.000 UL
LTa
0.50 0.50 0.50 C 2222 280 M
0 4591 V
stroke
LT0
0.50 0.50 0.50 C 2222 280 M
0 63 V
0 4528 R
0 -63 V
0 -4668 R
( 14.8492) Cshow
1.000 UL
LT0
0.50 0.50 0.50 C 1.000 UL
LTa
0.50 0.50 0.50 C 2282 280 M
0 4591 V
stroke
LT0
0.50 0.50 0.50 C 2282 280 M
0 63 V
0 4528 R
0 -63 V
0 -4668 R
( 15.5563) Cshow
1.000 UL
LT0
0.50 0.50 0.50 C 1.000 UL
LTa
0.50 0.50 0.50 C 2342 280 M
0 4591 V
stroke
LT0
0.50 0.50 0.50 C 2342 280 M
0 63 V
0 4528 R
0 -63 V
0 -4668 R
( 16.2634) Cshow
1.000 UL
LT0
0.50 0.50 0.50 C 1.000 UL
LTa
0.50 0.50 0.50 C 2401 280 M
0 4591 V
stroke
LT0
0.50 0.50 0.50 C 2401 280 M
0 63 V
0 4528 R
0 -63 V
0 -4668 R
( 16.9705) Cshow
1.000 UL
LT0
0.50 0.50 0.50 C 1.000 UL
LTa
0.50 0.50 0.50 C 2461 280 M
0 4591 V
stroke
LT0
0.50 0.50 0.50 C 2461 280 M
0 63 V
0 4528 R
0 -63 V
0 -4668 R
( 17.6776) Cshow
1.000 UL
LT0
0.50 0.50 0.50 C 1.000 UL
LTa
0.50 0.50 0.50 C 2521 280 M
0 4591 V
stroke
LT0
0.50 0.50 0.50 C 2521 280 M
0 63 V
0 4528 R
0 -63 V
0 -4668 R
( 18.3848) Cshow
1.000 UL
LT0
0.50 0.50 0.50 C 1.000 UL
LTa
0.50 0.50 0.50 C 2581 280 M
0 4591 V
stroke
LT0
0.50 0.50 0.50 C 2581 280 M
0 63 V
0 4528 R
0 -63 V
0 -4668 R
( 19.0919) Cshow
1.000 UL
LT0
0.50 0.50 0.50 C 1.000 UL
LTa
0.50 0.50 0.50 C 2641 280 M
0 4591 V
stroke
LT0
0.50 0.50 0.50 C 2641 280 M
0 63 V
0 4528 R
0 -63 V
0 -4668 R
( 19.799) Cshow
1.000 UL
LT0
0.50 0.50 0.50 C 1.000 UL
LTa
0.50 0.50 0.50 C 2700 280 M
0 4591 V
stroke
LT0
0.50 0.50 0.50 C 2700 280 M
0 63 V
0 4528 R
0 -63 V
0 -4668 R
( 20.5061) Cshow
1.000 UL
LT0
0.50 0.50 0.50 C 1.000 UL
LTa
0.50 0.50 0.50 C 2760 280 M
0 4591 V
stroke
LT0
0.50 0.50 0.50 C 2760 280 M
0 63 V
0 4528 R
0 -63 V
0 -4668 R
( 21.2132) Cshow
1.000 UL
LT0
0.50 0.50 0.50 C 1.000 UL
LTa
0.50 0.50 0.50 C 2820 280 M
0 4591 V
stroke
LT0
0.50 0.50 0.50 C 2820 280 M
0 63 V
0 4528 R
0 -63 V
0 -4668 R
( 21.9203) Cshow
1.000 UL
LT0
0.50 0.50 0.50 C 1.000 UL
LTa
0.50 0.50 0.50 C 2880 280 M
0 4591 V
stroke
LT0
0.50 0.50 0.50 C 2880 280 M
0 63 V
0 4528 R
0 -63 V
0 -4668 R
( 22.6274) Cshow
1.000 UL
LT0
0.50 0.50 0.50 C 1.000 UL
LTa
0.50 0.50 0.50 C 2940 280 M
0 4591 V
stroke
LT0
0.50 0.50 0.50 C 2940 280 M
0 63 V
0 4528 R
0 -63 V
0 -4668 R
( 23.3345) Cshow
1.000 UL
LT0
0.50 0.50 0.50 C 1.000 UL
LTa
0.50 0.50 0.50 C 3000 280 M
0 4591 V
stroke
LT0
0.50 0.50 0.50 C 3000 280 M
0 63 V
0 4528 R
0 -63 V
0 -4668 R
( 24.0416) Cshow
1.000 UL
LT0
0.50 0.50 0.50 C 1.000 UL
LTa
0.50 0.50 0.50 C 3059 280 M
0 4591 V
stroke
LT0
0.50 0.50 0.50 C 3059 280 M
0 63 V
0 4528 R
0 -63 V
0 -4668 R
( 24.7487) Cshow
1.000 UL
LT0
0.50 0.50 0.50 C 1.000 UL
LTa
0.50 0.50 0.50 C 3119 280 M
0 4591 V
stroke
LT0
0.50 0.50 0.50 C 3119 280 M
0 63 V
0 4528 R
0 -63 V
0 -4668 R
( 25.4558) Cshow
1.000 UL
LT0
0.50 0.50 0.50 C 1.000 UL
LTa
0.50 0.50 0.50 C 3179 280 M
0 4591 V
stroke
LT0
0.50 0.50 0.50 C 3179 280 M
0 63 V
0 4528 R
0 -63 V
0 -4668 R
( 26.1629) Cshow
1.000 UL
LT0
0.50 0.50 0.50 C 1.000 UL
LTa
0.50 0.50 0.50 C 3239 280 M
0 4591 V
stroke
LT0
0.50 0.50 0.50 C 3239 280 M
0 63 V
0 4528 R
0 -63 V
0 -4668 R
( 26.87) Cshow
1.000 UL
LT0
0.50 0.50 0.50 C 1.000 UL
LTa
0.50 0.50 0.50 C 3299 280 M
0 4591 V
stroke
LT0
0.50 0.50 0.50 C 3299 280 M
0 63 V
0 4528 R
0 -63 V
0 -4668 R
( 27.5771) Cshow
1.000 UL
LT0
0.50 0.50 0.50 C 1.000 UL
LTa
0.50 0.50 0.50 C 3358 280 M
0 4591 V
stroke
LT0
0.50 0.50 0.50 C 3358 280 M
0 63 V
0 4528 R
0 -63 V
0 -4668 R
( 28.2842) Cshow
1.000 UL
LT0
0.50 0.50 0.50 C 1.000 UL
LTa
0.50 0.50 0.50 C 3418 280 M
0 4591 V
stroke
LT0
0.50 0.50 0.50 C 3418 280 M
0 63 V
0 4528 R
0 -63 V
0 -4668 R
( 28.9913) Cshow
1.000 UL
LT0
0.50 0.50 0.50 C 1.000 UL
LTa
0.50 0.50 0.50 C 3478 280 M
0 4591 V
stroke
LT0
0.50 0.50 0.50 C 3478 280 M
0 63 V
0 4528 R
0 -63 V
0 -4668 R
( 29.6985) Cshow
1.000 UL
LT0
0.50 0.50 0.50 C 1.000 UL
LTa
0.50 0.50 0.50 C 3538 280 M
0 4591 V
stroke
LT0
0.50 0.50 0.50 C 3538 280 M
0 63 V
0 4528 R
0 -63 V
0 -4668 R
( 30.4056) Cshow
1.000 UL
LT0
0.50 0.50 0.50 C 1.000 UL
LTa
0.50 0.50 0.50 C 3598 280 M
0 4591 V
stroke
LT0
0.50 0.50 0.50 C 3598 280 M
0 63 V
0 4528 R
0 -63 V
0 -4668 R
( 31.1127) Cshow
1.000 UL
LT0
0.50 0.50 0.50 C 1.000 UL
LTa
0.50 0.50 0.50 C 3657 280 M
0 4591 V
stroke
LT0
0.50 0.50 0.50 C 3657 280 M
0 63 V
0 4528 R
0 -63 V
0 -4668 R
( 31.8198) Cshow
1.000 UL
LT0
0.50 0.50 0.50 C 1.000 UL
LTa
0.50 0.50 0.50 C 3717 280 M
0 4591 V
stroke
LT0
0.50 0.50 0.50 C 3717 280 M
0 63 V
0 4528 R
0 -63 V
0 -4668 R
( 32.5269) Cshow
1.000 UL
LT0
0.50 0.50 0.50 C 1.000 UL
LTa
0.50 0.50 0.50 C 3777 280 M
0 4591 V
stroke
LT0
0.50 0.50 0.50 C 3777 280 M
0 63 V
0 4528 R
0 -63 V
0 -4668 R
( 33.234) Cshow
1.000 UL
LT0
0.50 0.50 0.50 C 1.000 UL
LTa
0.50 0.50 0.50 C 3837 280 M
0 4591 V
stroke
LT0
0.50 0.50 0.50 C 3837 280 M
0 63 V
0 4528 R
0 -63 V
0 -4668 R
( 33.9411) Cshow
1.000 UL
LT0
0.50 0.50 0.50 C 1.000 UL
LTa
0.50 0.50 0.50 C 3897 280 M
0 4591 V
stroke
LT0
0.50 0.50 0.50 C 3897 280 M
0 63 V
0 4528 R
0 -63 V
0 -4668 R
( 34.6482) Cshow
1.000 UL
LT0
0.50 0.50 0.50 C 1.000 UL
LTa
0.50 0.50 0.50 C 3957 280 M
0 4591 V
stroke
LT0
0.50 0.50 0.50 C 3957 280 M
0 63 V
0 4528 R
0 -63 V
0 -4668 R
( 35.3553) Cshow
1.000 UL
LT0
0.50 0.50 0.50 C 1.000 UL
LTa
0.50 0.50 0.50 C 4016 280 M
0 4591 V
stroke
LT0
0.50 0.50 0.50 C 4016 280 M
0 63 V
0 4528 R
0 -63 V
0 -4668 R
( 36.0624) Cshow
1.000 UL
LT0
0.50 0.50 0.50 C 1.000 UL
LTa
0.50 0.50 0.50 C 4076 280 M
0 4591 V
stroke
LT0
0.50 0.50 0.50 C 4076 280 M
0 63 V
0 4528 R
0 -63 V
0 -4668 R
( 36.7695) Cshow
1.000 UL
LT0
0.50 0.50 0.50 C 1.000 UL
LTa
0.50 0.50 0.50 C 4136 280 M
0 4591 V
stroke
LT0
0.50 0.50 0.50 C 4136 280 M
0 63 V
0 4528 R
0 -63 V
0 -4668 R
( 37.4766) Cshow
1.000 UL
LT0
0.50 0.50 0.50 C 1.000 UL
LTa
0.50 0.50 0.50 C 4196 280 M
0 4591 V
stroke
LT0
0.50 0.50 0.50 C 4196 280 M
0 63 V
0 4528 R
0 -63 V
0 -4668 R
( 38.1837) Cshow
1.000 UL
LT0
0.50 0.50 0.50 C 1.000 UL
LTa
0.50 0.50 0.50 C 4256 280 M
0 4591 V
stroke
LT0
0.50 0.50 0.50 C 4256 280 M
0 63 V
0 4528 R
0 -63 V
0 -4668 R
( 38.8908) Cshow
1.000 UL
LT0
0.50 0.50 0.50 C 1.000 UL
LTa
0.50 0.50 0.50 C 4315 280 M
0 4591 V
stroke
LT0
0.50 0.50 0.50 C 4315 280 M
0 63 V
0 4528 R
0 -63 V
0 -4668 R
( 39.5979) Cshow
1.000 UL
LT0
0.50 0.50 0.50 C 1.000 UL
LTa
0.50 0.50 0.50 C 4375 280 M
0 4591 V
stroke
LT0
0.50 0.50 0.50 C 4375 280 M
0 63 V
0 4528 R
0 -63 V
0 -4668 R
( 40.305) Cshow
1.000 UL
LT0
0.50 0.50 0.50 C 1.000 UL
LTa
0.50 0.50 0.50 C 4435 280 M
0 4591 V
stroke
LT0
0.50 0.50 0.50 C 4435 280 M
0 63 V
0 4528 R
0 -63 V
0 -4668 R
( 41.0121) Cshow
1.000 UL
LT0
0.50 0.50 0.50 C 1.000 UL
LTa
0.50 0.50 0.50 C 4495 280 M
0 4591 V
stroke
LT0
0.50 0.50 0.50 C 4495 280 M
0 63 V
0 4528 R
0 -63 V
0 -4668 R
( 41.7193) Cshow
1.000 UL
LT0
0.50 0.50 0.50 C 1.000 UL
LTa
0.50 0.50 0.50 C 4555 280 M
0 4591 V
stroke
LT0
0.50 0.50 0.50 C 4555 280 M
0 63 V
0 4528 R
0 -63 V
0 -4668 R
( 42.4264) Cshow
1.000 UL
LT0
0.50 0.50 0.50 C 1.000 UL
LTa
0.50 0.50 0.50 C 4614 280 M
0 4591 V
stroke
LT0
0.50 0.50 0.50 C 4614 280 M
0 63 V
0 4528 R
0 -63 V
0 -4668 R
( 43.1335) Cshow
1.000 UL
LT0
0.50 0.50 0.50 C 1.000 UL
LTa
0.50 0.50 0.50 C 4674 280 M
0 4591 V
stroke
LT0
0.50 0.50 0.50 C 4674 280 M
0 63 V
0 4528 R
0 -63 V
0 -4668 R
( 43.8406) Cshow
1.000 UL
LT0
0.50 0.50 0.50 C 1.000 UL
LTa
0.50 0.50 0.50 C 4734 280 M
0 4591 V
stroke
LT0
0.50 0.50 0.50 C 4734 280 M
0 63 V
0 4528 R
0 -63 V
0 -4668 R
( 44.5477) Cshow
1.000 UL
LT0
0.50 0.50 0.50 C 1.000 UL
LTa
0.50 0.50 0.50 C 4794 280 M
0 4591 V
stroke
LT0
0.50 0.50 0.50 C 4794 280 M
0 63 V
0 4528 R
0 -63 V
0 -4668 R
( 45.2548) Cshow
1.000 UL
LT0
0.50 0.50 0.50 C 1.000 UL
LTa
0.50 0.50 0.50 C 4854 280 M
0 4591 V
stroke
LT0
0.50 0.50 0.50 C 4854 280 M
0 63 V
0 4528 R
0 -63 V
0 -4668 R
( 45.9619) Cshow
1.000 UL
LT0
0.50 0.50 0.50 C 1.000 UL
LTa
0.50 0.50 0.50 C 4913 280 M
0 4591 V
stroke
LT0
0.50 0.50 0.50 C 4913 280 M
0 63 V
0 4528 R
0 -63 V
0 -4668 R
( 46.669) Cshow
1.000 UL
LT0
0.50 0.50 0.50 C 1.000 UL
LTa
0.50 0.50 0.50 C 4973 280 M
0 4591 V
stroke
LT0
0.50 0.50 0.50 C 4973 280 M
0 63 V
0 4528 R
0 -63 V
0 -4668 R
( 47.3761) Cshow
1.000 UL
LT0
0.50 0.50 0.50 C 1.000 UL
LTa
0.50 0.50 0.50 C 5033 280 M
0 4591 V
stroke
LT0
0.50 0.50 0.50 C 5033 280 M
0 63 V
0 4528 R
0 -63 V
0 -4668 R
( 48.0832) Cshow
1.000 UL
LT0
0.50 0.50 0.50 C 1.000 UL
LTa
0.50 0.50 0.50 C 5093 280 M
0 4591 V
stroke
LT0
0.50 0.50 0.50 C 5093 280 M
0 63 V
0 4528 R
0 -63 V
0 -4668 R
( 48.7903) Cshow
1.000 UL
LT0
0.50 0.50 0.50 C 1.000 UL
LTa
0.50 0.50 0.50 C 5153 280 M
0 4591 V
stroke
LT0
0.50 0.50 0.50 C 5153 280 M
0 63 V
0 4528 R
0 -63 V
0 -4668 R
( 49.4974) Cshow
1.000 UL
LT0
0.50 0.50 0.50 C 1.000 UL
LTa
0.50 0.50 0.50 C 5213 280 M
0 4591 V
stroke
LT0
0.50 0.50 0.50 C 5213 280 M
0 63 V
0 4528 R
0 -63 V
0 -4668 R
( 50.2045) Cshow
1.000 UL
LT0
0.50 0.50 0.50 C 1.000 UL
LTa
0.50 0.50 0.50 C 5272 280 M
0 4591 V
stroke
LT0
0.50 0.50 0.50 C 5272 280 M
0 63 V
0 4528 R
0 -63 V
0 -4668 R
( 50.9116) Cshow
1.000 UL
LT0
0.50 0.50 0.50 C 1.000 UL
LTa
0.50 0.50 0.50 C 5332 280 M
0 4591 V
stroke
LT0
0.50 0.50 0.50 C 5332 280 M
0 63 V
0 4528 R
0 -63 V
0 -4668 R
( 51.6187) Cshow
1.000 UL
LT0
0.50 0.50 0.50 C 1.000 UL
LTa
0.50 0.50 0.50 C 5392 280 M
0 4591 V
stroke
LT0
0.50 0.50 0.50 C 5392 280 M
0 63 V
0 4528 R
0 -63 V
0 -4668 R
( 52.3258) Cshow
1.000 UL
LT0
0.50 0.50 0.50 C 1.000 UL
LTa
0.50 0.50 0.50 C 5452 280 M
0 4591 V
stroke
LT0
0.50 0.50 0.50 C 5452 280 M
0 63 V
0 4528 R
0 -63 V
0 -4668 R
( 53.033) Cshow
1.000 UL
LT0
0.50 0.50 0.50 C 1.000 UL
LTa
0.50 0.50 0.50 C 5512 280 M
0 4591 V
stroke
LT0
0.50 0.50 0.50 C 5512 280 M
0 63 V
0 4528 R
0 -63 V
0 -4668 R
( 53.7401) Cshow
1.000 UL
LT0
0.50 0.50 0.50 C 1.000 UL
LTa
0.50 0.50 0.50 C 5571 280 M
0 4591 V
stroke
LT0
0.50 0.50 0.50 C 5571 280 M
0 63 V
0 4528 R
0 -63 V
0 -4668 R
( 54.4472) Cshow
1.000 UL
LT0
0.50 0.50 0.50 C 1.000 UL
LTa
0.50 0.50 0.50 C 5631 280 M
0 4591 V
stroke
LT0
0.50 0.50 0.50 C 5631 280 M
0 63 V
0 4528 R
0 -63 V
0 -4668 R
( 55.1543) Cshow
1.000 UL
LT0
0.50 0.50 0.50 C 1.000 UL
LTa
0.50 0.50 0.50 C 5691 280 M
0 4591 V
stroke
LT0
0.50 0.50 0.50 C 5691 280 M
0 63 V
0 4528 R
0 -63 V
0 -4668 R
( 55.8614) Cshow
1.000 UL
LT0
0.50 0.50 0.50 C 1.000 UL
LTa
0.50 0.50 0.50 C 5751 280 M
0 4591 V
stroke
LT0
0.50 0.50 0.50 C 5751 280 M
0 63 V
0 4528 R
0 -63 V
0 -4668 R
( 56.5685) Cshow
1.000 UL
LT0
0.50 0.50 0.50 C 1.000 UL
LTa
0.50 0.50 0.50 C 5811 280 M
0 4591 V
stroke
LT0
0.50 0.50 0.50 C 5811 280 M
0 63 V
0 4528 R
0 -63 V
0 -4668 R
( 57.2756) Cshow
1.000 UL
LT0
0.50 0.50 0.50 C 1.000 UL
LTa
0.50 0.50 0.50 C 5870 280 M
0 4591 V
stroke
LT0
0.50 0.50 0.50 C 5870 280 M
0 63 V
0 4528 R
0 -63 V
0 -4668 R
( 57.9827) Cshow
1.000 UL
LT0
0.50 0.50 0.50 C 1.000 UL
LTa
0.50 0.50 0.50 C 5930 280 M
0 4591 V
stroke
LT0
0.50 0.50 0.50 C 5930 280 M
0 63 V
0 4528 R
0 -63 V
0 -4668 R
( 58.6898) Cshow
1.000 UL
LT0
0.50 0.50 0.50 C 1.000 UL
LTa
0.50 0.50 0.50 C 5990 280 M
0 4591 V
stroke
LT0
0.50 0.50 0.50 C 5990 280 M
0 63 V
0 4528 R
0 -63 V
0 -4668 R
( 59.3969) Cshow
1.000 UL
LT0
0.50 0.50 0.50 C 1.000 UL
LTa
0.50 0.50 0.50 C 6050 280 M
0 4591 V
stroke
LT0
0.50 0.50 0.50 C 6050 280 M
0 63 V
0 4528 R
0 -63 V
0 -4668 R
( 60.104) Cshow
1.000 UL
LT0
0.50 0.50 0.50 C 1.000 UL
LTa
0.50 0.50 0.50 C 6110 280 M
0 4591 V
stroke
LT0
0.50 0.50 0.50 C 6110 280 M
0 63 V
0 4528 R
0 -63 V
0 -4668 R
( 60.8111) Cshow
1.000 UL
LT0
0.50 0.50 0.50 C 1.000 UL
LTa
0.50 0.50 0.50 C 6169 280 M
0 4591 V
stroke
LT0
0.50 0.50 0.50 C 6169 280 M
0 63 V
0 4528 R
0 -63 V
0 -4668 R
( 61.5182) Cshow
1.000 UL
LT0
0.50 0.50 0.50 C 1.000 UL
LTa
0.50 0.50 0.50 C 6229 280 M
0 4591 V
stroke
LT0
0.50 0.50 0.50 C 6229 280 M
0 63 V
0 4528 R
0 -63 V
0 -4668 R
( 62.2253) Cshow
1.000 UL
LT0
0.50 0.50 0.50 C 1.000 UL
LTa
0.50 0.50 0.50 C 6289 280 M
0 4591 V
stroke
LT0
0.50 0.50 0.50 C 6289 280 M
0 63 V
0 4528 R
0 -63 V
0 -4668 R
( 62.9324) Cshow
1.000 UL
LT0
0.50 0.50 0.50 C 1.000 UL
LTa
0.50 0.50 0.50 C 6349 280 M
0 4591 V
stroke
LT0
0.50 0.50 0.50 C 6349 280 M
0 63 V
0 4528 R
0 -63 V
0 -4668 R
( 63.6395) Cshow
1.000 UL
LT0
0.50 0.50 0.50 C 1.000 UL
LTa
0.50 0.50 0.50 C 6409 280 M
0 4591 V
stroke
LT0
0.50 0.50 0.50 C 6409 280 M
0 63 V
0 4528 R
0 -63 V
0 -4668 R
( 64.3466) Cshow
1.000 UL
LT0
0.50 0.50 0.50 C 1.000 UL
LTa
0.50 0.50 0.50 C 6469 280 M
0 4591 V
stroke
LT0
0.50 0.50 0.50 C 6469 280 M
0 63 V
0 4528 R
0 -63 V
0 -4668 R
( 65.0538) Cshow
1.000 UL
LT0
0.50 0.50 0.50 C 1.000 UL
LTa
0.50 0.50 0.50 C 6528 280 M
0 4591 V
stroke
LT0
0.50 0.50 0.50 C 6528 280 M
0 63 V
0 4528 R
0 -63 V
0 -4668 R
( 65.7609) Cshow
1.000 UL
LT0
0.50 0.50 0.50 C 1.000 UL
LTa
0.50 0.50 0.50 C 6588 280 M
0 4591 V
stroke
LT0
0.50 0.50 0.50 C 6588 280 M
0 63 V
0 4528 R
0 -63 V
0 -4668 R
( 66.468) Cshow
1.000 UL
LT0
0.50 0.50 0.50 C 1.000 UL
LTa
0.50 0.50 0.50 C 6648 280 M
0 4591 V
stroke
LT0
0.50 0.50 0.50 C 6648 280 M
0 63 V
0 4528 R
0 -63 V
0 -4668 R
( 67.1751) Cshow
1.000 UL
LT0
0.50 0.50 0.50 C 1.000 UL
LTa
0.50 0.50 0.50 C 6708 280 M
0 4591 V
stroke
LT0
0.50 0.50 0.50 C 6708 280 M
0 63 V
0 4528 R
0 -63 V
0 -4668 R
( 67.8822) Cshow
1.000 UL
LT0
0.50 0.50 0.50 C 1.000 UL
LTa
0.50 0.50 0.50 C 6768 280 M
0 4591 V
stroke
LT0
0.50 0.50 0.50 C 6768 280 M
0 63 V
0 4528 R
0 -63 V
0 -4668 R
( 68.5893) Cshow
1.000 UL
LT0
0.50 0.50 0.50 C 1.000 UL
LTa
0.50 0.50 0.50 C 6827 280 M
0 4591 V
stroke
LT0
0.50 0.50 0.50 C 6827 280 M
0 63 V
0 4528 R
0 -63 V
0 -4668 R
( 69.2964) Cshow
1.000 UL
LT0
0.50 0.50 0.50 C 1.000 UL
LTa
0.50 0.50 0.50 C 6887 280 M
0 4591 V
stroke
LT0
0.50 0.50 0.50 C 6887 280 M
0 63 V
0 4528 R
0 -63 V
0 -4668 R
( 70.0035) Cshow
1.000 UL
LT0
0.50 0.50 0.50 C 1.000 UL
LTa
0.50 0.50 0.50 C 6947 280 M
0 4591 V
stroke
LT0
0.50 0.50 0.50 C 6947 280 M
0 63 V
0 4528 R
0 -63 V
0 -4668 R
( 70.7106) Cshow
1.000 UL
LT0
0.50 0.50 0.50 C 1.000 UL
LT0
0.50 0.50 0.50 C 966 4871 M
966 280 L
5981 0 V
0 4591 R
-5981 0 R
1.000 UP
stroke
LT0
0.50 0.50 0.50 C % Begin plot #1
1.500 UP
2.000 UL
LT0
0.00 0.00 1.00 C /Helvetica findfont 140 scalefont setfont
/vshift -46 def
1026 372 M
60 0 V
59 0 V
60 0 V
60 0 V
60 0 V
60 0 V
59 0 V
60 0 V
60 0 V
60 0 V
60 0 V
60 0 V
59 0 V
60 0 V
60 0 V
60 0 V
60 0 V
59 0 V
60 0 V
60 0 V
60 0 V
0 92 R
60 0 V
0 275 R
59 0 V
60 0 V
60 0 V
60 0 V
60 0 V
59 0 V
60 0 V
60 0 V
60 0 V
60 0 V
60 0 V
0 92 R
59 0 V
0 46 R
60 0 V
60 0 V
60 0 V
60 0 V
59 0 V
60 0 V
0 46 R
60 0 V
0 183 R
60 0 V
0 92 R
60 0 V
0 92 R
59 0 V
0 138 R
60 0 V
60 0 V
60 0 V
60 0 V
0 137 R
60 0 V
59 0 V
0 46 R
60 0 V
0 322 R
60 0 V
60 0 V
0 92 R
60 0 V
59 0 V
60 0 V
60 0 V
0 45 R
60 0 V
60 0 V
59 0 V
60 0 V
60 0 V
60 0 V
0 46 R
60 0 V
0 46 R
59 0 V
0 46 R
60 0 V
0 46 R
60 0 V
0 184 R
60 0 V
60 0 V
60 0 V
0 46 R
59 0 V
0 92 R
60 0 V
60 0 V
60 0 V
60 0 V
0 45 R
59 0 V
0 1056 R
60 0 V
60 0 V
60 0 V
60 0 V
59 0 V
stroke 5870 3677 M
60 0 V
60 0 V
0 276 R
60 0 V
0 321 R
60 0 V
59 0 V
60 0 V
60 0 V
60 0 V
0 46 R
60 0 V
0 46 R
60 0 V
0 138 R
59 0 V
966 280 M
60 0 V
6827 4825 M
60 0 V
-359 0 R
60 0 V
60 0 V
60 0 V
60 0 V
59 0 V
1026 280 M
0 46 V
0 46 V
1256 0 R
0 46 V
0 46 V
60 0 R
0 46 V
0 45 V
0 46 V
0 46 V
0 46 V
0 46 V
658 0 R
0 46 V
0 46 V
59 0 R
0 46 V
359 0 R
0 46 V
60 0 R
0 46 V
0 46 V
0 45 V
0 46 V
60 0 R
0 46 V
0 46 V
60 0 R
0 46 V
0 46 V
59 0 R
0 46 V
0 46 V
0 46 V
240 0 R
0 46 V
0 46 V
0 45 V
119 0 R
0 46 V
60 0 R
0 46 V
0 46 V
0 46 V
0 46 V
0 46 V
0 46 V
0 46 V
120 0 R
0 46 V
0 46 V
239 0 R
0 45 V
359 0 R
0 46 V
60 0 R
0 46 V
59 0 R
0 46 V
60 0 R
0 46 V
60 0 R
0 46 V
0 46 V
0 46 V
0 46 V
180 0 R
0 46 V
59 0 R
0 46 V
0 46 V
240 0 R
0 45 V
59 0 R
0 46 V
0 46 V
0 46 V
stroke 5571 2759 M
0 46 V
0 46 V
0 46 V
0 46 V
0 46 V
0 46 V
0 46 V
0 45 V
0 46 V
0 46 V
0 46 V
0 46 V
0 46 V
0 46 V
0 46 V
0 46 V
0 46 V
0 46 V
0 45 V
0 46 V
419 0 R
0 46 V
0 46 V
0 46 V
0 46 V
0 46 V
0 46 V
60 0 R
0 46 V
0 46 V
0 46 V
0 45 V
0 46 V
0 46 V
0 46 V
299 0 R
0 46 V
60 0 R
0 46 V
60 0 R
0 46 V
0 46 V
0 46 V
59 0 R
0 46 V
0 46 V
0 45 V
0 46 V
0 46 V
0 46 V
0 46 V
1026 372 CircleF
1086 372 CircleF
1086 372 CircleF
1145 372 CircleF
1145 372 CircleF
1205 372 CircleF
1205 372 CircleF
1265 372 CircleF
1265 372 CircleF
1325 372 CircleF
1325 372 CircleF
1385 372 CircleF
1385 372 CircleF
1444 372 CircleF
1444 372 CircleF
1504 372 CircleF
1504 372 CircleF
1564 372 CircleF
1564 372 CircleF
1624 372 CircleF
1624 372 CircleF
1684 372 CircleF
1684 372 CircleF
1744 372 CircleF
1744 372 CircleF
1803 372 CircleF
1803 372 CircleF
1863 372 CircleF
1863 372 CircleF
1923 372 CircleF
1923 372 CircleF
1983 372 CircleF
1983 372 CircleF
2043 372 CircleF
2043 372 CircleF
2102 372 CircleF
2102 372 CircleF
2162 372 CircleF
2162 372 CircleF
2222 372 CircleF
2222 372 CircleF
2282 372 CircleF
2282 464 CircleF
2342 464 CircleF
2342 739 CircleF
2401 739 CircleF
2401 739 CircleF
2461 739 CircleF
2461 739 CircleF
2521 739 CircleF
2521 739 CircleF
2581 739 CircleF
2581 739 CircleF
2641 739 CircleF
2641 739 CircleF
2700 739 CircleF
2700 739 CircleF
2760 739 CircleF
2760 739 CircleF
2820 739 CircleF
2820 739 CircleF
2880 739 CircleF
2880 739 CircleF
2940 739 CircleF
2940 739 CircleF
3000 739 CircleF
3000 831 CircleF
3059 831 CircleF
3059 877 CircleF
3119 877 CircleF
3119 877 CircleF
3179 877 CircleF
3179 877 CircleF
3239 877 CircleF
3239 877 CircleF
3299 877 CircleF
3299 877 CircleF
3358 877 CircleF
3358 877 CircleF
3418 877 CircleF
3418 923 CircleF
3478 923 CircleF
3478 1106 CircleF
3538 1106 CircleF
3538 1198 CircleF
3598 1198 CircleF
3598 1290 CircleF
3657 1290 CircleF
3657 1428 CircleF
3717 1428 CircleF
3717 1428 CircleF
3777 1428 CircleF
3777 1428 CircleF
3837 1428 CircleF
3837 1428 CircleF
3897 1428 CircleF
3897 1565 CircleF
3957 1565 CircleF
3957 1565 CircleF
4016 1565 CircleF
4016 1611 CircleF
4076 1611 CircleF
4076 1933 CircleF
4136 1933 CircleF
4136 1933 CircleF
4196 1933 CircleF
4196 2025 CircleF
4256 2025 CircleF
4256 2025 CircleF
4315 2025 CircleF
4315 2025 CircleF
4375 2025 CircleF
4375 2025 CircleF
4435 2025 CircleF
4435 2070 CircleF
4495 2070 CircleF
4495 2070 CircleF
4555 2070 CircleF
4555 2070 CircleF
4614 2070 CircleF
4614 2070 CircleF
4674 2070 CircleF
4674 2070 CircleF
4734 2070 CircleF
4734 2070 CircleF
4794 2070 CircleF
4794 2116 CircleF
4854 2116 CircleF
4854 2162 CircleF
4913 2162 CircleF
4913 2208 CircleF
4973 2208 CircleF
4973 2254 CircleF
5033 2254 CircleF
5033 2438 CircleF
5093 2438 CircleF
5093 2438 CircleF
5153 2438 CircleF
5153 2438 CircleF
5213 2438 CircleF
5213 2484 CircleF
5272 2484 CircleF
5272 2576 CircleF
5332 2576 CircleF
5332 2576 CircleF
5392 2576 CircleF
5392 2576 CircleF
5452 2576 CircleF
5452 2576 CircleF
5512 2576 CircleF
5512 2621 CircleF
5571 2621 CircleF
5571 3677 CircleF
5631 3677 CircleF
5631 3677 CircleF
5691 3677 CircleF
5691 3677 CircleF
5751 3677 CircleF
5751 3677 CircleF
5811 3677 CircleF
5811 3677 CircleF
5870 3677 CircleF
5870 3677 CircleF
5930 3677 CircleF
5930 3677 CircleF
5990 3677 CircleF
5990 3953 CircleF
6050 3953 CircleF
6050 4274 CircleF
6110 4274 CircleF
6110 4274 CircleF
6169 4274 CircleF
6169 4274 CircleF
6229 4274 CircleF
6229 4274 CircleF
6289 4274 CircleF
6289 4274 CircleF
6349 4274 CircleF
6349 4320 CircleF
6409 4320 CircleF
6409 4366 CircleF
6469 4366 CircleF
6469 4504 CircleF
6528 4504 CircleF
966 280 CircleF
1026 280 CircleF
6827 4825 CircleF
6887 4825 CircleF
6528 4825 CircleF
6588 4825 CircleF
6588 4825 CircleF
6648 4825 CircleF
6648 4825 CircleF
6708 4825 CircleF
6708 4825 CircleF
6768 4825 CircleF
6768 4825 CircleF
6827 4825 CircleF
1026 280 CircleF
1026 326 CircleF
1026 326 CircleF
1026 372 CircleF
2282 372 CircleF
2282 418 CircleF
2282 418 CircleF
2282 464 CircleF
2342 464 CircleF
2342 510 CircleF
2342 510 CircleF
2342 555 CircleF
2342 555 CircleF
2342 601 CircleF
2342 601 CircleF
2342 647 CircleF
2342 647 CircleF
2342 693 CircleF
2342 693 CircleF
2342 739 CircleF
3000 739 CircleF
3000 785 CircleF
3000 785 CircleF
3000 831 CircleF
3059 831 CircleF
3059 877 CircleF
3418 877 CircleF
3418 923 CircleF
3478 923 CircleF
3478 969 CircleF
3478 969 CircleF
3478 1015 CircleF
3478 1015 CircleF
3478 1060 CircleF
3478 1060 CircleF
3478 1106 CircleF
3538 1106 CircleF
3538 1152 CircleF
3538 1152 CircleF
3538 1198 CircleF
3598 1198 CircleF
3598 1244 CircleF
3598 1244 CircleF
3598 1290 CircleF
3657 1290 CircleF
3657 1336 CircleF
3657 1336 CircleF
3657 1382 CircleF
3657 1382 CircleF
3657 1428 CircleF
3897 1428 CircleF
3897 1474 CircleF
3897 1474 CircleF
3897 1520 CircleF
3897 1520 CircleF
3897 1565 CircleF
4016 1565 CircleF
4016 1611 CircleF
4076 1611 CircleF
4076 1657 CircleF
4076 1657 CircleF
4076 1703 CircleF
4076 1703 CircleF
4076 1749 CircleF
4076 1749 CircleF
4076 1795 CircleF
4076 1795 CircleF
4076 1841 CircleF
4076 1841 CircleF
4076 1887 CircleF
4076 1887 CircleF
4076 1933 CircleF
4196 1933 CircleF
4196 1979 CircleF
4196 1979 CircleF
4196 2025 CircleF
4435 2025 CircleF
4435 2070 CircleF
4794 2070 CircleF
4794 2116 CircleF
4854 2116 CircleF
4854 2162 CircleF
4913 2162 CircleF
4913 2208 CircleF
4973 2208 CircleF
4973 2254 CircleF
5033 2254 CircleF
5033 2300 CircleF
5033 2300 CircleF
5033 2346 CircleF
5033 2346 CircleF
5033 2392 CircleF
5033 2392 CircleF
5033 2438 CircleF
5213 2438 CircleF
5213 2484 CircleF
5272 2484 CircleF
5272 2530 CircleF
5272 2530 CircleF
5272 2576 CircleF
5512 2576 CircleF
5512 2621 CircleF
5571 2621 CircleF
5571 2667 CircleF
5571 2667 CircleF
5571 2713 CircleF
5571 2713 CircleF
5571 2759 CircleF
5571 2759 CircleF
5571 2805 CircleF
5571 2805 CircleF
5571 2851 CircleF
5571 2851 CircleF
5571 2897 CircleF
5571 2897 CircleF
5571 2943 CircleF
5571 2943 CircleF
5571 2989 CircleF
5571 2989 CircleF
5571 3035 CircleF
5571 3035 CircleF
5571 3081 CircleF
5571 3081 CircleF
5571 3126 CircleF
5571 3126 CircleF
5571 3172 CircleF
5571 3172 CircleF
5571 3218 CircleF
5571 3218 CircleF
5571 3264 CircleF
5571 3264 CircleF
5571 3310 CircleF
5571 3310 CircleF
5571 3356 CircleF
5571 3356 CircleF
5571 3402 CircleF
5571 3402 CircleF
5571 3448 CircleF
5571 3448 CircleF
5571 3494 CircleF
5571 3494 CircleF
5571 3540 CircleF
5571 3540 CircleF
5571 3586 CircleF
5571 3586 CircleF
5571 3631 CircleF
5571 3631 CircleF
5571 3677 CircleF
5990 3677 CircleF
5990 3723 CircleF
5990 3723 CircleF
5990 3769 CircleF
5990 3769 CircleF
5990 3815 CircleF
5990 3815 CircleF
5990 3861 CircleF
5990 3861 CircleF
5990 3907 CircleF
5990 3907 CircleF
5990 3953 CircleF
6050 3953 CircleF
6050 3999 CircleF
6050 3999 CircleF
6050 4045 CircleF
6050 4045 CircleF
6050 4091 CircleF
6050 4091 CircleF
6050 4136 CircleF
6050 4136 CircleF
6050 4182 CircleF
6050 4182 CircleF
6050 4228 CircleF
6050 4228 CircleF
6050 4274 CircleF
6349 4274 CircleF
6349 4320 CircleF
6409 4320 CircleF
6409 4366 CircleF
6469 4366 CircleF
6469 4412 CircleF
6469 4412 CircleF
6469 4458 CircleF
6469 4458 CircleF
6469 4504 CircleF
6528 4504 CircleF
6528 4550 CircleF
6528 4550 CircleF
6528 4596 CircleF
6528 4596 CircleF
6528 4641 CircleF
6528 4641 CircleF
6528 4687 CircleF
6528 4687 CircleF
6528 4733 CircleF
6528 4733 CircleF
6528 4779 CircleF
6528 4779 CircleF
6528 4825 CircleF
% End plot #1
% Begin plot #2
1.500 UP
2.000 UL
LT0
1.00 0.55 0.00 C /Helvetica findfont 140 scalefont setfont
2163 3117 M
77 59 V
5921 1344 M
100 76 V
1425 655 M
70 54 V
2607 663 M
109 83 V
5004 3659 M
72 55 V
2370 733 M
65 50 V
1037 317 R
100 76 V
453 675 R
111 85 V
1334 644 R
78 61 V
4032 1793 M
115 88 V
2028 2597 M
92 71 V
3630 4669 M
103 80 V
5457 4000 M
61 46 V
2073 2206 M
90 69 V
-183 702 R
96 74 V
2296 676 M
116 89 V
6300 4243 M
104 80 V
5310 1508 M
108 82 V
1735 4276 M
62 47 V
1899 2457 M
94 72 V
1981 1063 M
114 88 V
6186 424 M
60 46 V
-58 4061 R
63 49 V
2273 445 M
106 82 V
499 1276 R
85 65 V
1666 3387 M
60 47 V
572 -132 R
79 60 V
4480 1302 M
61 46 V
-90 1263 R
87 66 V
1454 3320 M
89 69 V
5162 2322 M
74 57 V
3163 2699 M
94 73 V
-701 864 R
103 78 V
1159 1544 M
63 48 V
4760 4708 M
101 77 V
3159 642 M
63 49 V
1437 2344 M
114 87 V
4874 3828 M
71 55 V
-42 -391 R
113 86 V
1021 360 M
116 89 V
4935 2207 M
87 67 V
-932 472 R
60 46 V
987 3738 M
64 49 V
3518 64 R
69 53 V
6758 2535 M
62 48 V
5506 618 M
74 57 V
870 3786 R
69 53 V
1851 3335 M
84 64 V
5074 1302 M
88 67 V
2882 366 M
92 71 V
4974 2366 M
111 85 V
434 885 R
77 59 V
419 828 R
63 48 V
stroke 6078 4271 M
4385 1112 M
92 70 V
2982 420 M
90 69 V
1445 2503 M
104 79 V
4421 348 M
100 77 V
2957 1936 M
107 82 V
933 -425 R
92 71 V
3792 4268 M
103 79 V
3491 3770 M
80 61 V
1631 4647 M
70 53 V
1967 1863 M
63 49 V
3165 3613 M
69 53 V
3881 399 M
74 56 V
5176 3795 M
87 67 V
3074 1268 M
112 86 V
1786 2472 M
74 56 V
4594 979 M
80 61 V
5972 2235 M
110 85 V
4808 2089 M
114 87 V
595 286 R
114 88 V
3871 2428 M
72 56 V
1092 2265 M
119 90 V
504 1212 R
89 68 V
6110 4712 M
85 66 V
1304 3065 M
88 67 V
2880 526 R
66 51 V
952 657 R
86 65 V
6450 387 M
107 82 V
2526 3382 M
69 53 V
4544 673 M
116 89 V
1987 1530 M
97 74 V
3472 957 M
91 70 V
1038 2725 M
109 84 V
3304 4199 M
87 67 V
1402 2715 M
108 83 V
1652 -54 R
108 83 V
5233 2455 M
80 62 V
2055 330 M
103 79 V
4211 4545 M
102 78 V
5515 1932 M
74 57 V
1688 4518 M
83 64 V
428 -820 R
113 87 V
3460 2901 M
111 84 V
2547 4472 M
68 52 V
2751 1108 M
73 57 V
2693 3514 M
66 51 V
2712 -3 R
110 84 V
407 -568 R
112 86 V
2163 3117 CircleF
2240 3176 CircleF
5921 1344 CircleF
6021 1420 CircleF
1425 655 CircleF
1495 709 CircleF
2607 663 CircleF
2716 746 CircleF
5004 3659 CircleF
5076 3714 CircleF
2370 733 CircleF
2435 783 CircleF
3472 1100 CircleF
3572 1176 CircleF
4025 1851 CircleF
4136 1936 CircleF
5470 2580 CircleF
5548 2641 CircleF
4032 1793 CircleF
4147 1881 CircleF
2028 2597 CircleF
2120 2668 CircleF
3630 4669 CircleF
3733 4749 CircleF
5457 4000 CircleF
5518 4046 CircleF
2073 2206 CircleF
2163 2275 CircleF
1980 2977 CircleF
2076 3051 CircleF
2296 676 CircleF
2412 765 CircleF
6300 4243 CircleF
6404 4323 CircleF
5310 1508 CircleF
5418 1590 CircleF
1735 4276 CircleF
1797 4323 CircleF
1899 2457 CircleF
1993 2529 CircleF
1981 1063 CircleF
2095 1151 CircleF
6186 424 CircleF
6246 470 CircleF
6188 4531 CircleF
6251 4580 CircleF
2273 445 CircleF
2379 527 CircleF
2878 1803 CircleF
2963 1868 CircleF
1666 3387 CircleF
1726 3434 CircleF
2298 3302 CircleF
2377 3362 CircleF
4480 1302 CircleF
4541 1348 CircleF
4451 2611 CircleF
4538 2677 CircleF
1454 3320 CircleF
1543 3389 CircleF
5162 2322 CircleF
5236 2379 CircleF
3163 2699 CircleF
3257 2772 CircleF
2556 3636 CircleF
2659 3714 CircleF
1159 1544 CircleF
1222 1592 CircleF
4760 4708 CircleF
4861 4785 CircleF
3159 642 CircleF
3222 691 CircleF
1437 2344 CircleF
1551 2431 CircleF
4874 3828 CircleF
4945 3883 CircleF
4903 3492 CircleF
5016 3578 CircleF
1021 360 CircleF
1137 449 CircleF
4935 2207 CircleF
5022 2274 CircleF
4090 2746 CircleF
4150 2792 CircleF
987 3738 CircleF
1051 3787 CircleF
4569 3851 CircleF
4638 3904 CircleF
6758 2535 CircleF
6820 2583 CircleF
5506 618 CircleF
5580 675 CircleF
6450 4461 CircleF
6519 4514 CircleF
1851 3335 CircleF
1935 3399 CircleF
5074 1302 CircleF
5162 1369 CircleF
2882 366 CircleF
2974 437 CircleF
4974 2366 CircleF
5085 2451 CircleF
5519 3336 CircleF
5596 3395 CircleF
6015 4223 CircleF
6078 4271 CircleF
4385 1112 CircleF
4477 1182 CircleF
2982 420 CircleF
3072 489 CircleF
1445 2503 CircleF
1549 2582 CircleF
4421 348 CircleF
4521 425 CircleF
2957 1936 CircleF
3064 2018 CircleF
3997 1593 CircleF
4089 1664 CircleF
3792 4268 CircleF
3895 4347 CircleF
3491 3770 CircleF
3571 3831 CircleF
1631 4647 CircleF
1701 4700 CircleF
1967 1863 CircleF
2030 1912 CircleF
3165 3613 CircleF
3234 3666 CircleF
3881 399 CircleF
3955 455 CircleF
5176 3795 CircleF
5263 3862 CircleF
3074 1268 CircleF
3186 1354 CircleF
1786 2472 CircleF
1860 2528 CircleF
4594 979 CircleF
4674 1040 CircleF
5972 2235 CircleF
6082 2320 CircleF
4808 2089 CircleF
4922 2176 CircleF
5517 2462 CircleF
5631 2550 CircleF
3871 2428 CircleF
3943 2484 CircleF
1092 2265 CircleF
1211 2355 CircleF
1715 3567 CircleF
1804 3635 CircleF
6110 4712 CircleF
6195 4778 CircleF
1304 3065 CircleF
1392 3132 CircleF
4272 3658 CircleF
4338 3709 CircleF
5290 4366 CircleF
5376 4431 CircleF
6450 387 CircleF
6557 469 CircleF
2526 3382 CircleF
2595 3435 CircleF
4544 673 CircleF
4660 762 CircleF
1987 1530 CircleF
2084 1604 CircleF
3472 957 CircleF
3563 1027 CircleF
1038 2725 CircleF
1147 2809 CircleF
3304 4199 CircleF
3391 4266 CircleF
1402 2715 CircleF
1510 2798 CircleF
3162 2744 CircleF
3270 2827 CircleF
5233 2455 CircleF
5313 2517 CircleF
2055 330 CircleF
2158 409 CircleF
4211 4545 CircleF
4313 4623 CircleF
5515 1932 CircleF
5589 1989 CircleF
1688 4518 CircleF
1771 4582 CircleF
2199 3762 CircleF
2312 3849 CircleF
3460 2901 CircleF
3571 2985 CircleF
2547 4472 CircleF
2615 4524 CircleF
2751 1108 CircleF
2824 1165 CircleF
2693 3514 CircleF
2759 3565 CircleF
5471 3562 CircleF
5581 3646 CircleF
5988 3078 CircleF
6100 3164 CircleF
% End plot #2
1.000 UP
1.000 UL
LT0
0.50 0.50 0.50 C stroke
grestore
end
showpage
%%Trailer
%%DocumentFonts: Helvetica
%%Pages: 1
