%!PS-Adobe-2.0
%%Title: out.ps
%%Creator: gnuplot 4.6 patchlevel 6
%%CreationDate: Fri May 29 02:07:09 2015
%%DocumentFonts: (atend)
%%BoundingBox: 50 50 554 770
%%Orientation: Landscape
%%Pages: (atend)
%%EndComments
%%BeginProlog
/gnudict 256 dict def
gnudict begin
%
% The following true/false flags may be edited by hand if desired.
% The unit line width and grayscale image gamma correction may also be changed.
%
/Color false def
/Blacktext false def
/Solid false def
/Dashlength 1 def
/Landscape true def
/Level1 false def
/Rounded false def
/ClipToBoundingBox false def
/SuppressPDFMark false def
/TransparentPatterns false def
/gnulinewidth 5.000 def
/userlinewidth gnulinewidth def
/Gamma 1.0 def
/BackgroundColor {-1.000 -1.000 -1.000} def
%
/vshift -46 def
/dl1 {
  10.0 Dashlength mul mul
  Rounded { currentlinewidth 0.75 mul sub dup 0 le { pop 0.01 } if } if
} def
/dl2 {
  10.0 Dashlength mul mul
  Rounded { currentlinewidth 0.75 mul add } if
} def
/hpt_ 31.5 def
/vpt_ 31.5 def
/hpt hpt_ def
/vpt vpt_ def
/doclip {
  ClipToBoundingBox {
    newpath 50 50 moveto 554 50 lineto 554 770 lineto 50 770 lineto closepath
    clip
  } if
} def
%
% Gnuplot Prolog Version 4.6 (September 2012)
%
%/SuppressPDFMark true def
%
/M {moveto} bind def
/L {lineto} bind def
/R {rmoveto} bind def
/V {rlineto} bind def
/N {newpath moveto} bind def
/Z {closepath} bind def
/C {setrgbcolor} bind def
/f {rlineto fill} bind def
/g {setgray} bind def
/Gshow {show} def   % May be redefined later in the file to support UTF-8
/vpt2 vpt 2 mul def
/hpt2 hpt 2 mul def
/Lshow {currentpoint stroke M 0 vshift R 
	Blacktext {gsave 0 setgray show grestore} {show} ifelse} def
/Rshow {currentpoint stroke M dup stringwidth pop neg vshift R
	Blacktext {gsave 0 setgray show grestore} {show} ifelse} def
/Cshow {currentpoint stroke M dup stringwidth pop -2 div vshift R 
	Blacktext {gsave 0 setgray show grestore} {show} ifelse} def
/UP {dup vpt_ mul /vpt exch def hpt_ mul /hpt exch def
  /hpt2 hpt 2 mul def /vpt2 vpt 2 mul def} def
/DL {Color {setrgbcolor Solid {pop []} if 0 setdash}
 {pop pop pop 0 setgray Solid {pop []} if 0 setdash} ifelse} def
/BL {stroke userlinewidth 2 mul setlinewidth
	Rounded {1 setlinejoin 1 setlinecap} if} def
/AL {stroke userlinewidth 2 div setlinewidth
	Rounded {1 setlinejoin 1 setlinecap} if} def
/UL {dup gnulinewidth mul /userlinewidth exch def
	dup 1 lt {pop 1} if 10 mul /udl exch def} def
/PL {stroke userlinewidth setlinewidth
	Rounded {1 setlinejoin 1 setlinecap} if} def
3.8 setmiterlimit
% Default Line colors
/LCw {1 1 1} def
/LCb {0 0 0} def
/LCa {0 0 0} def
/LC0 {1 0 0} def
/LC1 {0 1 0} def
/LC2 {0 0 1} def
/LC3 {1 0 1} def
/LC4 {0 1 1} def
/LC5 {1 1 0} def
/LC6 {0 0 0} def
/LC7 {1 0.3 0} def
/LC8 {0.5 0.5 0.5} def
% Default Line Types
/LTw {PL [] 1 setgray} def
/LTb {BL [] LCb DL} def
/LTa {AL [1 udl mul 2 udl mul] 0 setdash LCa setrgbcolor} def
/LT0 {PL [] LC0 DL} def
/LT1 {PL [4 dl1 2 dl2] LC1 DL} def
/LT2 {PL [2 dl1 3 dl2] LC2 DL} def
/LT3 {PL [1 dl1 1.5 dl2] LC3 DL} def
/LT4 {PL [6 dl1 2 dl2 1 dl1 2 dl2] LC4 DL} def
/LT5 {PL [3 dl1 3 dl2 1 dl1 3 dl2] LC5 DL} def
/LT6 {PL [2 dl1 2 dl2 2 dl1 6 dl2] LC6 DL} def
/LT7 {PL [1 dl1 2 dl2 6 dl1 2 dl2 1 dl1 2 dl2] LC7 DL} def
/LT8 {PL [2 dl1 2 dl2 2 dl1 2 dl2 2 dl1 2 dl2 2 dl1 4 dl2] LC8 DL} def
/Pnt {stroke [] 0 setdash gsave 1 setlinecap M 0 0 V stroke grestore} def
/Dia {stroke [] 0 setdash 2 copy vpt add M
  hpt neg vpt neg V hpt vpt neg V
  hpt vpt V hpt neg vpt V closepath stroke
  Pnt} def
/Pls {stroke [] 0 setdash vpt sub M 0 vpt2 V
  currentpoint stroke M
  hpt neg vpt neg R hpt2 0 V stroke
 } def
/Box {stroke [] 0 setdash 2 copy exch hpt sub exch vpt add M
  0 vpt2 neg V hpt2 0 V 0 vpt2 V
  hpt2 neg 0 V closepath stroke
  Pnt} def
/Crs {stroke [] 0 setdash exch hpt sub exch vpt add M
  hpt2 vpt2 neg V currentpoint stroke M
  hpt2 neg 0 R hpt2 vpt2 V stroke} def
/TriU {stroke [] 0 setdash 2 copy vpt 1.12 mul add M
  hpt neg vpt -1.62 mul V
  hpt 2 mul 0 V
  hpt neg vpt 1.62 mul V closepath stroke
  Pnt} def
/Star {2 copy Pls Crs} def
/BoxF {stroke [] 0 setdash exch hpt sub exch vpt add M
  0 vpt2 neg V hpt2 0 V 0 vpt2 V
  hpt2 neg 0 V closepath fill} def
/TriUF {stroke [] 0 setdash vpt 1.12 mul add M
  hpt neg vpt -1.62 mul V
  hpt 2 mul 0 V
  hpt neg vpt 1.62 mul V closepath fill} def
/TriD {stroke [] 0 setdash 2 copy vpt 1.12 mul sub M
  hpt neg vpt 1.62 mul V
  hpt 2 mul 0 V
  hpt neg vpt -1.62 mul V closepath stroke
  Pnt} def
/TriDF {stroke [] 0 setdash vpt 1.12 mul sub M
  hpt neg vpt 1.62 mul V
  hpt 2 mul 0 V
  hpt neg vpt -1.62 mul V closepath fill} def
/DiaF {stroke [] 0 setdash vpt add M
  hpt neg vpt neg V hpt vpt neg V
  hpt vpt V hpt neg vpt V closepath fill} def
/Pent {stroke [] 0 setdash 2 copy gsave
  translate 0 hpt M 4 {72 rotate 0 hpt L} repeat
  closepath stroke grestore Pnt} def
/PentF {stroke [] 0 setdash gsave
  translate 0 hpt M 4 {72 rotate 0 hpt L} repeat
  closepath fill grestore} def
/Circle {stroke [] 0 setdash 2 copy
  hpt 0 360 arc stroke Pnt} def
/CircleF {stroke [] 0 setdash hpt 0 360 arc fill} def
/C0 {BL [] 0 setdash 2 copy moveto vpt 90 450 arc} bind def
/C1 {BL [] 0 setdash 2 copy moveto
	2 copy vpt 0 90 arc closepath fill
	vpt 0 360 arc closepath} bind def
/C2 {BL [] 0 setdash 2 copy moveto
	2 copy vpt 90 180 arc closepath fill
	vpt 0 360 arc closepath} bind def
/C3 {BL [] 0 setdash 2 copy moveto
	2 copy vpt 0 180 arc closepath fill
	vpt 0 360 arc closepath} bind def
/C4 {BL [] 0 setdash 2 copy moveto
	2 copy vpt 180 270 arc closepath fill
	vpt 0 360 arc closepath} bind def
/C5 {BL [] 0 setdash 2 copy moveto
	2 copy vpt 0 90 arc
	2 copy moveto
	2 copy vpt 180 270 arc closepath fill
	vpt 0 360 arc} bind def
/C6 {BL [] 0 setdash 2 copy moveto
	2 copy vpt 90 270 arc closepath fill
	vpt 0 360 arc closepath} bind def
/C7 {BL [] 0 setdash 2 copy moveto
	2 copy vpt 0 270 arc closepath fill
	vpt 0 360 arc closepath} bind def
/C8 {BL [] 0 setdash 2 copy moveto
	2 copy vpt 270 360 arc closepath fill
	vpt 0 360 arc closepath} bind def
/C9 {BL [] 0 setdash 2 copy moveto
	2 copy vpt 270 450 arc closepath fill
	vpt 0 360 arc closepath} bind def
/C10 {BL [] 0 setdash 2 copy 2 copy moveto vpt 270 360 arc closepath fill
	2 copy moveto
	2 copy vpt 90 180 arc closepath fill
	vpt 0 360 arc closepath} bind def
/C11 {BL [] 0 setdash 2 copy moveto
	2 copy vpt 0 180 arc closepath fill
	2 copy moveto
	2 copy vpt 270 360 arc closepath fill
	vpt 0 360 arc closepath} bind def
/C12 {BL [] 0 setdash 2 copy moveto
	2 copy vpt 180 360 arc closepath fill
	vpt 0 360 arc closepath} bind def
/C13 {BL [] 0 setdash 2 copy moveto
	2 copy vpt 0 90 arc closepath fill
	2 copy moveto
	2 copy vpt 180 360 arc closepath fill
	vpt 0 360 arc closepath} bind def
/C14 {BL [] 0 setdash 2 copy moveto
	2 copy vpt 90 360 arc closepath fill
	vpt 0 360 arc} bind def
/C15 {BL [] 0 setdash 2 copy vpt 0 360 arc closepath fill
	vpt 0 360 arc closepath} bind def
/Rec {newpath 4 2 roll moveto 1 index 0 rlineto 0 exch rlineto
	neg 0 rlineto closepath} bind def
/Square {dup Rec} bind def
/Bsquare {vpt sub exch vpt sub exch vpt2 Square} bind def
/S0 {BL [] 0 setdash 2 copy moveto 0 vpt rlineto BL Bsquare} bind def
/S1 {BL [] 0 setdash 2 copy vpt Square fill Bsquare} bind def
/S2 {BL [] 0 setdash 2 copy exch vpt sub exch vpt Square fill Bsquare} bind def
/S3 {BL [] 0 setdash 2 copy exch vpt sub exch vpt2 vpt Rec fill Bsquare} bind def
/S4 {BL [] 0 setdash 2 copy exch vpt sub exch vpt sub vpt Square fill Bsquare} bind def
/S5 {BL [] 0 setdash 2 copy 2 copy vpt Square fill
	exch vpt sub exch vpt sub vpt Square fill Bsquare} bind def
/S6 {BL [] 0 setdash 2 copy exch vpt sub exch vpt sub vpt vpt2 Rec fill Bsquare} bind def
/S7 {BL [] 0 setdash 2 copy exch vpt sub exch vpt sub vpt vpt2 Rec fill
	2 copy vpt Square fill Bsquare} bind def
/S8 {BL [] 0 setdash 2 copy vpt sub vpt Square fill Bsquare} bind def
/S9 {BL [] 0 setdash 2 copy vpt sub vpt vpt2 Rec fill Bsquare} bind def
/S10 {BL [] 0 setdash 2 copy vpt sub vpt Square fill 2 copy exch vpt sub exch vpt Square fill
	Bsquare} bind def
/S11 {BL [] 0 setdash 2 copy vpt sub vpt Square fill 2 copy exch vpt sub exch vpt2 vpt Rec fill
	Bsquare} bind def
/S12 {BL [] 0 setdash 2 copy exch vpt sub exch vpt sub vpt2 vpt Rec fill Bsquare} bind def
/S13 {BL [] 0 setdash 2 copy exch vpt sub exch vpt sub vpt2 vpt Rec fill
	2 copy vpt Square fill Bsquare} bind def
/S14 {BL [] 0 setdash 2 copy exch vpt sub exch vpt sub vpt2 vpt Rec fill
	2 copy exch vpt sub exch vpt Square fill Bsquare} bind def
/S15 {BL [] 0 setdash 2 copy Bsquare fill Bsquare} bind def
/D0 {gsave translate 45 rotate 0 0 S0 stroke grestore} bind def
/D1 {gsave translate 45 rotate 0 0 S1 stroke grestore} bind def
/D2 {gsave translate 45 rotate 0 0 S2 stroke grestore} bind def
/D3 {gsave translate 45 rotate 0 0 S3 stroke grestore} bind def
/D4 {gsave translate 45 rotate 0 0 S4 stroke grestore} bind def
/D5 {gsave translate 45 rotate 0 0 S5 stroke grestore} bind def
/D6 {gsave translate 45 rotate 0 0 S6 stroke grestore} bind def
/D7 {gsave translate 45 rotate 0 0 S7 stroke grestore} bind def
/D8 {gsave translate 45 rotate 0 0 S8 stroke grestore} bind def
/D9 {gsave translate 45 rotate 0 0 S9 stroke grestore} bind def
/D10 {gsave translate 45 rotate 0 0 S10 stroke grestore} bind def
/D11 {gsave translate 45 rotate 0 0 S11 stroke grestore} bind def
/D12 {gsave translate 45 rotate 0 0 S12 stroke grestore} bind def
/D13 {gsave translate 45 rotate 0 0 S13 stroke grestore} bind def
/D14 {gsave translate 45 rotate 0 0 S14 stroke grestore} bind def
/D15 {gsave translate 45 rotate 0 0 S15 stroke grestore} bind def
/DiaE {stroke [] 0 setdash vpt add M
  hpt neg vpt neg V hpt vpt neg V
  hpt vpt V hpt neg vpt V closepath stroke} def
/BoxE {stroke [] 0 setdash exch hpt sub exch vpt add M
  0 vpt2 neg V hpt2 0 V 0 vpt2 V
  hpt2 neg 0 V closepath stroke} def
/TriUE {stroke [] 0 setdash vpt 1.12 mul add M
  hpt neg vpt -1.62 mul V
  hpt 2 mul 0 V
  hpt neg vpt 1.62 mul V closepath stroke} def
/TriDE {stroke [] 0 setdash vpt 1.12 mul sub M
  hpt neg vpt 1.62 mul V
  hpt 2 mul 0 V
  hpt neg vpt -1.62 mul V closepath stroke} def
/PentE {stroke [] 0 setdash gsave
  translate 0 hpt M 4 {72 rotate 0 hpt L} repeat
  closepath stroke grestore} def
/CircE {stroke [] 0 setdash 
  hpt 0 360 arc stroke} def
/Opaque {gsave closepath 1 setgray fill grestore 0 setgray closepath} def
/DiaW {stroke [] 0 setdash vpt add M
  hpt neg vpt neg V hpt vpt neg V
  hpt vpt V hpt neg vpt V Opaque stroke} def
/BoxW {stroke [] 0 setdash exch hpt sub exch vpt add M
  0 vpt2 neg V hpt2 0 V 0 vpt2 V
  hpt2 neg 0 V Opaque stroke} def
/TriUW {stroke [] 0 setdash vpt 1.12 mul add M
  hpt neg vpt -1.62 mul V
  hpt 2 mul 0 V
  hpt neg vpt 1.62 mul V Opaque stroke} def
/TriDW {stroke [] 0 setdash vpt 1.12 mul sub M
  hpt neg vpt 1.62 mul V
  hpt 2 mul 0 V
  hpt neg vpt -1.62 mul V Opaque stroke} def
/PentW {stroke [] 0 setdash gsave
  translate 0 hpt M 4 {72 rotate 0 hpt L} repeat
  Opaque stroke grestore} def
/CircW {stroke [] 0 setdash 
  hpt 0 360 arc Opaque stroke} def
/BoxFill {gsave Rec 1 setgray fill grestore} def
/Density {
  /Fillden exch def
  currentrgbcolor
  /ColB exch def /ColG exch def /ColR exch def
  /ColR ColR Fillden mul Fillden sub 1 add def
  /ColG ColG Fillden mul Fillden sub 1 add def
  /ColB ColB Fillden mul Fillden sub 1 add def
  ColR ColG ColB setrgbcolor} def
/BoxColFill {gsave Rec PolyFill} def
/PolyFill {gsave Density fill grestore grestore} def
/h {rlineto rlineto rlineto gsave closepath fill grestore} bind def
%
% PostScript Level 1 Pattern Fill routine for rectangles
% Usage: x y w h s a XX PatternFill
%	x,y = lower left corner of box to be filled
%	w,h = width and height of box
%	  a = angle in degrees between lines and x-axis
%	 XX = 0/1 for no/yes cross-hatch
%
/PatternFill {gsave /PFa [ 9 2 roll ] def
  PFa 0 get PFa 2 get 2 div add PFa 1 get PFa 3 get 2 div add translate
  PFa 2 get -2 div PFa 3 get -2 div PFa 2 get PFa 3 get Rec
  TransparentPatterns {} {gsave 1 setgray fill grestore} ifelse
  clip
  currentlinewidth 0.5 mul setlinewidth
  /PFs PFa 2 get dup mul PFa 3 get dup mul add sqrt def
  0 0 M PFa 5 get rotate PFs -2 div dup translate
  0 1 PFs PFa 4 get div 1 add floor cvi
	{PFa 4 get mul 0 M 0 PFs V} for
  0 PFa 6 get ne {
	0 1 PFs PFa 4 get div 1 add floor cvi
	{PFa 4 get mul 0 2 1 roll M PFs 0 V} for
 } if
  stroke grestore} def
%
/languagelevel where
 {pop languagelevel} {1} ifelse
 2 lt
	{/InterpretLevel1 true def}
	{/InterpretLevel1 Level1 def}
 ifelse
%
% PostScript level 2 pattern fill definitions
%
/Level2PatternFill {
/Tile8x8 {/PaintType 2 /PatternType 1 /TilingType 1 /BBox [0 0 8 8] /XStep 8 /YStep 8}
	bind def
/KeepColor {currentrgbcolor [/Pattern /DeviceRGB] setcolorspace} bind def
<< Tile8x8
 /PaintProc {0.5 setlinewidth pop 0 0 M 8 8 L 0 8 M 8 0 L stroke} 
>> matrix makepattern
/Pat1 exch def
<< Tile8x8
 /PaintProc {0.5 setlinewidth pop 0 0 M 8 8 L 0 8 M 8 0 L stroke
	0 4 M 4 8 L 8 4 L 4 0 L 0 4 L stroke}
>> matrix makepattern
/Pat2 exch def
<< Tile8x8
 /PaintProc {0.5 setlinewidth pop 0 0 M 0 8 L
	8 8 L 8 0 L 0 0 L fill}
>> matrix makepattern
/Pat3 exch def
<< Tile8x8
 /PaintProc {0.5 setlinewidth pop -4 8 M 8 -4 L
	0 12 M 12 0 L stroke}
>> matrix makepattern
/Pat4 exch def
<< Tile8x8
 /PaintProc {0.5 setlinewidth pop -4 0 M 8 12 L
	0 -4 M 12 8 L stroke}
>> matrix makepattern
/Pat5 exch def
<< Tile8x8
 /PaintProc {0.5 setlinewidth pop -2 8 M 4 -4 L
	0 12 M 8 -4 L 4 12 M 10 0 L stroke}
>> matrix makepattern
/Pat6 exch def
<< Tile8x8
 /PaintProc {0.5 setlinewidth pop -2 0 M 4 12 L
	0 -4 M 8 12 L 4 -4 M 10 8 L stroke}
>> matrix makepattern
/Pat7 exch def
<< Tile8x8
 /PaintProc {0.5 setlinewidth pop 8 -2 M -4 4 L
	12 0 M -4 8 L 12 4 M 0 10 L stroke}
>> matrix makepattern
/Pat8 exch def
<< Tile8x8
 /PaintProc {0.5 setlinewidth pop 0 -2 M 12 4 L
	-4 0 M 12 8 L -4 4 M 8 10 L stroke}
>> matrix makepattern
/Pat9 exch def
/Pattern1 {PatternBgnd KeepColor Pat1 setpattern} bind def
/Pattern2 {PatternBgnd KeepColor Pat2 setpattern} bind def
/Pattern3 {PatternBgnd KeepColor Pat3 setpattern} bind def
/Pattern4 {PatternBgnd KeepColor Landscape {Pat5} {Pat4} ifelse setpattern} bind def
/Pattern5 {PatternBgnd KeepColor Landscape {Pat4} {Pat5} ifelse setpattern} bind def
/Pattern6 {PatternBgnd KeepColor Landscape {Pat9} {Pat6} ifelse setpattern} bind def
/Pattern7 {PatternBgnd KeepColor Landscape {Pat8} {Pat7} ifelse setpattern} bind def
} def
%
%
%End of PostScript Level 2 code
%
/PatternBgnd {
  TransparentPatterns {} {gsave 1 setgray fill grestore} ifelse
} def
%
% Substitute for Level 2 pattern fill codes with
% grayscale if Level 2 support is not selected.
%
/Level1PatternFill {
/Pattern1 {0.250 Density} bind def
/Pattern2 {0.500 Density} bind def
/Pattern3 {0.750 Density} bind def
/Pattern4 {0.125 Density} bind def
/Pattern5 {0.375 Density} bind def
/Pattern6 {0.625 Density} bind def
/Pattern7 {0.875 Density} bind def
} def
%
% Now test for support of Level 2 code
%
Level1 {Level1PatternFill} {Level2PatternFill} ifelse
%
/Symbol-Oblique /Symbol findfont [1 0 .167 1 0 0] makefont
dup length dict begin {1 index /FID eq {pop pop} {def} ifelse} forall
currentdict end definefont pop
Level1 SuppressPDFMark or 
{} {
/SDict 10 dict def
systemdict /pdfmark known not {
  userdict /pdfmark systemdict /cleartomark get put
} if
SDict begin [
  /Title (out.ps)
  /Subject (gnuplot plot)
  /Creator (gnuplot 4.6 patchlevel 6)
  /Author (yani)
%  /Producer (gnuplot)
%  /Keywords ()
  /CreationDate (Fri May 29 02:07:09 2015)
  /DOCINFO pdfmark
end
} ifelse
end
%%EndProlog
%%Page: 1 1
gnudict begin
gsave
doclip
50 50 translate
0.100 0.100 scale
90 rotate
0 -5040 translate
0 setgray
newpath
(Helvetica) findfont 140 scalefont setfont
BackgroundColor 0 lt 3 1 roll 0 lt exch 0 lt or or not {gsave BackgroundColor C clippath fill grestore} if
1.000 UL
LT0
0.50 0.50 0.50 C 1.000 UL
LTa
0.50 0.50 0.50 C 966 280 M
5981 0 V
stroke
LT0
0.50 0.50 0.50 C 966 280 M
63 0 V
5918 0 R
-63 0 V
882 280 M
( 0) Rshow
1.000 UL
LT0
0.50 0.50 0.50 C 1.000 UL
LTa
0.50 0.50 0.50 C 966 372 M
5981 0 V
stroke
LT0
0.50 0.50 0.50 C 966 372 M
63 0 V
5918 0 R
-63 0 V
882 372 M
( 0.707106) Rshow
1.000 UL
LT0
0.50 0.50 0.50 C 1.000 UL
LTa
0.50 0.50 0.50 C 966 464 M
5981 0 V
stroke
LT0
0.50 0.50 0.50 C 966 464 M
63 0 V
5918 0 R
-63 0 V
882 464 M
( 1.41421) Rshow
1.000 UL
LT0
0.50 0.50 0.50 C 1.000 UL
LTa
0.50 0.50 0.50 C 966 555 M
5981 0 V
stroke
LT0
0.50 0.50 0.50 C 966 555 M
63 0 V
5918 0 R
-63 0 V
882 555 M
( 2.12132) Rshow
1.000 UL
LT0
0.50 0.50 0.50 C 1.000 UL
LTa
0.50 0.50 0.50 C 966 647 M
5981 0 V
stroke
LT0
0.50 0.50 0.50 C 966 647 M
63 0 V
5918 0 R
-63 0 V
882 647 M
( 2.82842) Rshow
1.000 UL
LT0
0.50 0.50 0.50 C 1.000 UL
LTa
0.50 0.50 0.50 C 966 739 M
5981 0 V
stroke
LT0
0.50 0.50 0.50 C 966 739 M
63 0 V
5918 0 R
-63 0 V
882 739 M
( 3.53553) Rshow
1.000 UL
LT0
0.50 0.50 0.50 C 1.000 UL
LTa
0.50 0.50 0.50 C 966 831 M
5981 0 V
stroke
LT0
0.50 0.50 0.50 C 966 831 M
63 0 V
5918 0 R
-63 0 V
882 831 M
( 4.24264) Rshow
1.000 UL
LT0
0.50 0.50 0.50 C 1.000 UL
LTa
0.50 0.50 0.50 C 966 923 M
5981 0 V
stroke
LT0
0.50 0.50 0.50 C 966 923 M
63 0 V
5918 0 R
-63 0 V
882 923 M
( 4.94974) Rshow
1.000 UL
LT0
0.50 0.50 0.50 C 1.000 UL
LTa
0.50 0.50 0.50 C 966 1015 M
5981 0 V
stroke
LT0
0.50 0.50 0.50 C 966 1015 M
63 0 V
5918 0 R
-63 0 V
-6002 0 R
( 5.65685) Rshow
1.000 UL
LT0
0.50 0.50 0.50 C 1.000 UL
LTa
0.50 0.50 0.50 C 966 1106 M
5981 0 V
stroke
LT0
0.50 0.50 0.50 C 966 1106 M
63 0 V
5918 0 R
-63 0 V
-6002 0 R
( 6.36395) Rshow
1.000 UL
LT0
0.50 0.50 0.50 C 1.000 UL
LTa
0.50 0.50 0.50 C 966 1198 M
5981 0 V
stroke
LT0
0.50 0.50 0.50 C 966 1198 M
63 0 V
5918 0 R
-63 0 V
-6002 0 R
( 7.07106) Rshow
1.000 UL
LT0
0.50 0.50 0.50 C 1.000 UL
LTa
0.50 0.50 0.50 C 966 1290 M
5981 0 V
stroke
LT0
0.50 0.50 0.50 C 966 1290 M
63 0 V
5918 0 R
-63 0 V
-6002 0 R
( 7.77817) Rshow
1.000 UL
LT0
0.50 0.50 0.50 C 1.000 UL
LTa
0.50 0.50 0.50 C 966 1382 M
5981 0 V
stroke
LT0
0.50 0.50 0.50 C 966 1382 M
63 0 V
5918 0 R
-63 0 V
-6002 0 R
( 8.48527) Rshow
1.000 UL
LT0
0.50 0.50 0.50 C 1.000 UL
LTa
0.50 0.50 0.50 C 966 1474 M
5981 0 V
stroke
LT0
0.50 0.50 0.50 C 966 1474 M
63 0 V
5918 0 R
-63 0 V
-6002 0 R
( 9.19238) Rshow
1.000 UL
LT0
0.50 0.50 0.50 C 1.000 UL
LTa
0.50 0.50 0.50 C 966 1565 M
5981 0 V
stroke
LT0
0.50 0.50 0.50 C 966 1565 M
63 0 V
5918 0 R
-63 0 V
-6002 0 R
( 9.89948) Rshow
1.000 UL
LT0
0.50 0.50 0.50 C 1.000 UL
LTa
0.50 0.50 0.50 C 966 1657 M
5981 0 V
stroke
LT0
0.50 0.50 0.50 C 966 1657 M
63 0 V
5918 0 R
-63 0 V
-6002 0 R
( 10.6066) Rshow
1.000 UL
LT0
0.50 0.50 0.50 C 1.000 UL
LTa
0.50 0.50 0.50 C 966 1749 M
5981 0 V
stroke
LT0
0.50 0.50 0.50 C 966 1749 M
63 0 V
5918 0 R
-63 0 V
-6002 0 R
( 11.3137) Rshow
1.000 UL
LT0
0.50 0.50 0.50 C 1.000 UL
LTa
0.50 0.50 0.50 C 966 1841 M
5981 0 V
stroke
LT0
0.50 0.50 0.50 C 966 1841 M
63 0 V
5918 0 R
-63 0 V
-6002 0 R
( 12.0208) Rshow
1.000 UL
LT0
0.50 0.50 0.50 C 1.000 UL
LTa
0.50 0.50 0.50 C 966 1933 M
5981 0 V
stroke
LT0
0.50 0.50 0.50 C 966 1933 M
63 0 V
5918 0 R
-63 0 V
-6002 0 R
( 12.7279) Rshow
1.000 UL
LT0
0.50 0.50 0.50 C 1.000 UL
LTa
0.50 0.50 0.50 C 966 2025 M
5981 0 V
stroke
LT0
0.50 0.50 0.50 C 966 2025 M
63 0 V
5918 0 R
-63 0 V
-6002 0 R
( 13.435) Rshow
1.000 UL
LT0
0.50 0.50 0.50 C 1.000 UL
LTa
0.50 0.50 0.50 C 966 2116 M
5981 0 V
stroke
LT0
0.50 0.50 0.50 C 966 2116 M
63 0 V
5918 0 R
-63 0 V
-6002 0 R
( 14.1421) Rshow
1.000 UL
LT0
0.50 0.50 0.50 C 1.000 UL
LTa
0.50 0.50 0.50 C 966 2208 M
5981 0 V
stroke
LT0
0.50 0.50 0.50 C 966 2208 M
63 0 V
5918 0 R
-63 0 V
-6002 0 R
( 14.8492) Rshow
1.000 UL
LT0
0.50 0.50 0.50 C 1.000 UL
LTa
0.50 0.50 0.50 C 966 2300 M
5981 0 V
stroke
LT0
0.50 0.50 0.50 C 966 2300 M
63 0 V
5918 0 R
-63 0 V
-6002 0 R
( 15.5563) Rshow
1.000 UL
LT0
0.50 0.50 0.50 C 1.000 UL
LTa
0.50 0.50 0.50 C 966 2392 M
5981 0 V
stroke
LT0
0.50 0.50 0.50 C 966 2392 M
63 0 V
5918 0 R
-63 0 V
-6002 0 R
( 16.2634) Rshow
1.000 UL
LT0
0.50 0.50 0.50 C 1.000 UL
LTa
0.50 0.50 0.50 C 966 2484 M
5981 0 V
stroke
LT0
0.50 0.50 0.50 C 966 2484 M
63 0 V
5918 0 R
-63 0 V
-6002 0 R
( 16.9705) Rshow
1.000 UL
LT0
0.50 0.50 0.50 C 1.000 UL
LTa
0.50 0.50 0.50 C 966 2575 M
5981 0 V
stroke
LT0
0.50 0.50 0.50 C 966 2575 M
63 0 V
5918 0 R
-63 0 V
-6002 0 R
( 17.6776) Rshow
1.000 UL
LT0
0.50 0.50 0.50 C 1.000 UL
LTa
0.50 0.50 0.50 C 966 2667 M
5981 0 V
stroke
LT0
0.50 0.50 0.50 C 966 2667 M
63 0 V
5918 0 R
-63 0 V
-6002 0 R
( 18.3848) Rshow
1.000 UL
LT0
0.50 0.50 0.50 C 1.000 UL
LTa
0.50 0.50 0.50 C 966 2759 M
5981 0 V
stroke
LT0
0.50 0.50 0.50 C 966 2759 M
63 0 V
5918 0 R
-63 0 V
-6002 0 R
( 19.0919) Rshow
1.000 UL
LT0
0.50 0.50 0.50 C 1.000 UL
LTa
0.50 0.50 0.50 C 966 2851 M
5981 0 V
stroke
LT0
0.50 0.50 0.50 C 966 2851 M
63 0 V
5918 0 R
-63 0 V
-6002 0 R
( 19.799) Rshow
1.000 UL
LT0
0.50 0.50 0.50 C 1.000 UL
LTa
0.50 0.50 0.50 C 966 2943 M
5981 0 V
stroke
LT0
0.50 0.50 0.50 C 966 2943 M
63 0 V
5918 0 R
-63 0 V
-6002 0 R
( 20.5061) Rshow
1.000 UL
LT0
0.50 0.50 0.50 C 1.000 UL
LTa
0.50 0.50 0.50 C 966 3035 M
5981 0 V
stroke
LT0
0.50 0.50 0.50 C 966 3035 M
63 0 V
5918 0 R
-63 0 V
-6002 0 R
( 21.2132) Rshow
1.000 UL
LT0
0.50 0.50 0.50 C 1.000 UL
LTa
0.50 0.50 0.50 C 966 3126 M
5981 0 V
stroke
LT0
0.50 0.50 0.50 C 966 3126 M
63 0 V
5918 0 R
-63 0 V
-6002 0 R
( 21.9203) Rshow
1.000 UL
LT0
0.50 0.50 0.50 C 1.000 UL
LTa
0.50 0.50 0.50 C 966 3218 M
5981 0 V
stroke
LT0
0.50 0.50 0.50 C 966 3218 M
63 0 V
5918 0 R
-63 0 V
-6002 0 R
( 22.6274) Rshow
1.000 UL
LT0
0.50 0.50 0.50 C 1.000 UL
LTa
0.50 0.50 0.50 C 966 3310 M
5981 0 V
stroke
LT0
0.50 0.50 0.50 C 966 3310 M
63 0 V
5918 0 R
-63 0 V
-6002 0 R
( 23.3345) Rshow
1.000 UL
LT0
0.50 0.50 0.50 C 1.000 UL
LTa
0.50 0.50 0.50 C 966 3402 M
5981 0 V
stroke
LT0
0.50 0.50 0.50 C 966 3402 M
63 0 V
5918 0 R
-63 0 V
-6002 0 R
( 24.0416) Rshow
1.000 UL
LT0
0.50 0.50 0.50 C 1.000 UL
LTa
0.50 0.50 0.50 C 966 3494 M
5981 0 V
stroke
LT0
0.50 0.50 0.50 C 966 3494 M
63 0 V
5918 0 R
-63 0 V
-6002 0 R
( 24.7487) Rshow
1.000 UL
LT0
0.50 0.50 0.50 C 1.000 UL
LTa
0.50 0.50 0.50 C 966 3586 M
5981 0 V
stroke
LT0
0.50 0.50 0.50 C 966 3586 M
63 0 V
5918 0 R
-63 0 V
-6002 0 R
( 25.4558) Rshow
1.000 UL
LT0
0.50 0.50 0.50 C 1.000 UL
LTa
0.50 0.50 0.50 C 966 3677 M
5981 0 V
stroke
LT0
0.50 0.50 0.50 C 966 3677 M
63 0 V
5918 0 R
-63 0 V
-6002 0 R
( 26.1629) Rshow
1.000 UL
LT0
0.50 0.50 0.50 C 1.000 UL
LTa
0.50 0.50 0.50 C 966 3769 M
5981 0 V
stroke
LT0
0.50 0.50 0.50 C 966 3769 M
63 0 V
5918 0 R
-63 0 V
-6002 0 R
( 26.87) Rshow
1.000 UL
LT0
0.50 0.50 0.50 C 1.000 UL
LTa
0.50 0.50 0.50 C 966 3861 M
5981 0 V
stroke
LT0
0.50 0.50 0.50 C 966 3861 M
63 0 V
5918 0 R
-63 0 V
-6002 0 R
( 27.5771) Rshow
1.000 UL
LT0
0.50 0.50 0.50 C 1.000 UL
LTa
0.50 0.50 0.50 C 966 3953 M
5981 0 V
stroke
LT0
0.50 0.50 0.50 C 966 3953 M
63 0 V
5918 0 R
-63 0 V
-6002 0 R
( 28.2842) Rshow
1.000 UL
LT0
0.50 0.50 0.50 C 1.000 UL
LTa
0.50 0.50 0.50 C 966 4045 M
5981 0 V
stroke
LT0
0.50 0.50 0.50 C 966 4045 M
63 0 V
5918 0 R
-63 0 V
-6002 0 R
( 28.9913) Rshow
1.000 UL
LT0
0.50 0.50 0.50 C 1.000 UL
LTa
0.50 0.50 0.50 C 966 4136 M
5981 0 V
stroke
LT0
0.50 0.50 0.50 C 966 4136 M
63 0 V
5918 0 R
-63 0 V
-6002 0 R
( 29.6985) Rshow
1.000 UL
LT0
0.50 0.50 0.50 C 1.000 UL
LTa
0.50 0.50 0.50 C 966 4228 M
5981 0 V
stroke
LT0
0.50 0.50 0.50 C 966 4228 M
63 0 V
5918 0 R
-63 0 V
-6002 0 R
( 30.4056) Rshow
1.000 UL
LT0
0.50 0.50 0.50 C 1.000 UL
LTa
0.50 0.50 0.50 C 966 4320 M
5981 0 V
stroke
LT0
0.50 0.50 0.50 C 966 4320 M
63 0 V
5918 0 R
-63 0 V
-6002 0 R
( 31.1127) Rshow
1.000 UL
LT0
0.50 0.50 0.50 C 1.000 UL
LTa
0.50 0.50 0.50 C 966 4412 M
5981 0 V
stroke
LT0
0.50 0.50 0.50 C 966 4412 M
63 0 V
5918 0 R
-63 0 V
-6002 0 R
( 31.8198) Rshow
1.000 UL
LT0
0.50 0.50 0.50 C 1.000 UL
LTa
0.50 0.50 0.50 C 966 4504 M
5981 0 V
stroke
LT0
0.50 0.50 0.50 C 966 4504 M
63 0 V
5918 0 R
-63 0 V
-6002 0 R
( 32.5269) Rshow
1.000 UL
LT0
0.50 0.50 0.50 C 1.000 UL
LTa
0.50 0.50 0.50 C 966 4596 M
5981 0 V
stroke
LT0
0.50 0.50 0.50 C 966 4596 M
63 0 V
5918 0 R
-63 0 V
-6002 0 R
( 33.234) Rshow
1.000 UL
LT0
0.50 0.50 0.50 C 1.000 UL
LTa
0.50 0.50 0.50 C 966 4687 M
5981 0 V
stroke
LT0
0.50 0.50 0.50 C 966 4687 M
63 0 V
5918 0 R
-63 0 V
-6002 0 R
( 33.9411) Rshow
1.000 UL
LT0
0.50 0.50 0.50 C 1.000 UL
LTa
0.50 0.50 0.50 C 966 4779 M
5981 0 V
stroke
LT0
0.50 0.50 0.50 C 966 4779 M
63 0 V
5918 0 R
-63 0 V
-6002 0 R
( 34.6482) Rshow
1.000 UL
LT0
0.50 0.50 0.50 C 1.000 UL
LTa
0.50 0.50 0.50 C 966 4871 M
5981 0 V
stroke
LT0
0.50 0.50 0.50 C 966 4871 M
63 0 V
5918 0 R
-63 0 V
-6002 0 R
( 35.3553) Rshow
1.000 UL
LT0
0.50 0.50 0.50 C 1.000 UL
LTa
0.50 0.50 0.50 C 966 280 M
0 4591 V
stroke
LT0
0.50 0.50 0.50 C 966 280 M
0 63 V
0 4528 R
0 -63 V
966 140 M
( 0) Cshow
1.000 UL
LT0
0.50 0.50 0.50 C 1.000 UL
LTa
0.50 0.50 0.50 C 1086 280 M
0 4591 V
stroke
LT0
0.50 0.50 0.50 C 1086 280 M
0 63 V
0 4528 R
0 -63 V
0 -4668 R
( 0.707106) Cshow
1.000 UL
LT0
0.50 0.50 0.50 C 1.000 UL
LTa
0.50 0.50 0.50 C 1205 280 M
0 4591 V
stroke
LT0
0.50 0.50 0.50 C 1205 280 M
0 63 V
0 4528 R
0 -63 V
0 -4668 R
( 1.41421) Cshow
1.000 UL
LT0
0.50 0.50 0.50 C 1.000 UL
LTa
0.50 0.50 0.50 C 1325 280 M
0 4591 V
stroke
LT0
0.50 0.50 0.50 C 1325 280 M
0 63 V
0 4528 R
0 -63 V
0 -4668 R
( 2.12132) Cshow
1.000 UL
LT0
0.50 0.50 0.50 C 1.000 UL
LTa
0.50 0.50 0.50 C 1444 280 M
0 4591 V
stroke
LT0
0.50 0.50 0.50 C 1444 280 M
0 63 V
0 4528 R
0 -63 V
0 -4668 R
( 2.82842) Cshow
1.000 UL
LT0
0.50 0.50 0.50 C 1.000 UL
LTa
0.50 0.50 0.50 C 1564 280 M
0 4591 V
stroke
LT0
0.50 0.50 0.50 C 1564 280 M
0 63 V
0 4528 R
0 -63 V
0 -4668 R
( 3.53553) Cshow
1.000 UL
LT0
0.50 0.50 0.50 C 1.000 UL
LTa
0.50 0.50 0.50 C 1684 280 M
0 4591 V
stroke
LT0
0.50 0.50 0.50 C 1684 280 M
0 63 V
0 4528 R
0 -63 V
0 -4668 R
( 4.24264) Cshow
1.000 UL
LT0
0.50 0.50 0.50 C 1.000 UL
LTa
0.50 0.50 0.50 C 1803 280 M
0 4591 V
stroke
LT0
0.50 0.50 0.50 C 1803 280 M
0 63 V
0 4528 R
0 -63 V
0 -4668 R
( 4.94974) Cshow
1.000 UL
LT0
0.50 0.50 0.50 C 1.000 UL
LTa
0.50 0.50 0.50 C 1923 280 M
0 4591 V
stroke
LT0
0.50 0.50 0.50 C 1923 280 M
0 63 V
0 4528 R
0 -63 V
0 -4668 R
( 5.65685) Cshow
1.000 UL
LT0
0.50 0.50 0.50 C 1.000 UL
LTa
0.50 0.50 0.50 C 2043 280 M
0 4591 V
stroke
LT0
0.50 0.50 0.50 C 2043 280 M
0 63 V
0 4528 R
0 -63 V
0 -4668 R
( 6.36395) Cshow
1.000 UL
LT0
0.50 0.50 0.50 C 1.000 UL
LTa
0.50 0.50 0.50 C 2162 280 M
0 4591 V
stroke
LT0
0.50 0.50 0.50 C 2162 280 M
0 63 V
0 4528 R
0 -63 V
0 -4668 R
( 7.07106) Cshow
1.000 UL
LT0
0.50 0.50 0.50 C 1.000 UL
LTa
0.50 0.50 0.50 C 2282 280 M
0 4591 V
stroke
LT0
0.50 0.50 0.50 C 2282 280 M
0 63 V
0 4528 R
0 -63 V
0 -4668 R
( 7.77817) Cshow
1.000 UL
LT0
0.50 0.50 0.50 C 1.000 UL
LTa
0.50 0.50 0.50 C 2401 280 M
0 4591 V
stroke
LT0
0.50 0.50 0.50 C 2401 280 M
0 63 V
0 4528 R
0 -63 V
0 -4668 R
( 8.48527) Cshow
1.000 UL
LT0
0.50 0.50 0.50 C 1.000 UL
LTa
0.50 0.50 0.50 C 2521 280 M
0 4591 V
stroke
LT0
0.50 0.50 0.50 C 2521 280 M
0 63 V
0 4528 R
0 -63 V
0 -4668 R
( 9.19238) Cshow
1.000 UL
LT0
0.50 0.50 0.50 C 1.000 UL
LTa
0.50 0.50 0.50 C 2641 280 M
0 4591 V
stroke
LT0
0.50 0.50 0.50 C 2641 280 M
0 63 V
0 4528 R
0 -63 V
0 -4668 R
( 9.89948) Cshow
1.000 UL
LT0
0.50 0.50 0.50 C 1.000 UL
LTa
0.50 0.50 0.50 C 2760 280 M
0 4591 V
stroke
LT0
0.50 0.50 0.50 C 2760 280 M
0 63 V
0 4528 R
0 -63 V
0 -4668 R
( 10.6066) Cshow
1.000 UL
LT0
0.50 0.50 0.50 C 1.000 UL
LTa
0.50 0.50 0.50 C 2880 280 M
0 4591 V
stroke
LT0
0.50 0.50 0.50 C 2880 280 M
0 63 V
0 4528 R
0 -63 V
0 -4668 R
( 11.3137) Cshow
1.000 UL
LT0
0.50 0.50 0.50 C 1.000 UL
LTa
0.50 0.50 0.50 C 3000 280 M
0 4591 V
stroke
LT0
0.50 0.50 0.50 C 3000 280 M
0 63 V
0 4528 R
0 -63 V
0 -4668 R
( 12.0208) Cshow
1.000 UL
LT0
0.50 0.50 0.50 C 1.000 UL
LTa
0.50 0.50 0.50 C 3119 280 M
0 4591 V
stroke
LT0
0.50 0.50 0.50 C 3119 280 M
0 63 V
0 4528 R
0 -63 V
0 -4668 R
( 12.7279) Cshow
1.000 UL
LT0
0.50 0.50 0.50 C 1.000 UL
LTa
0.50 0.50 0.50 C 3239 280 M
0 4591 V
stroke
LT0
0.50 0.50 0.50 C 3239 280 M
0 63 V
0 4528 R
0 -63 V
0 -4668 R
( 13.435) Cshow
1.000 UL
LT0
0.50 0.50 0.50 C 1.000 UL
LTa
0.50 0.50 0.50 C 3358 280 M
0 4591 V
stroke
LT0
0.50 0.50 0.50 C 3358 280 M
0 63 V
0 4528 R
0 -63 V
0 -4668 R
( 14.1421) Cshow
1.000 UL
LT0
0.50 0.50 0.50 C 1.000 UL
LTa
0.50 0.50 0.50 C 3478 280 M
0 4591 V
stroke
LT0
0.50 0.50 0.50 C 3478 280 M
0 63 V
0 4528 R
0 -63 V
0 -4668 R
( 14.8492) Cshow
1.000 UL
LT0
0.50 0.50 0.50 C 1.000 UL
LTa
0.50 0.50 0.50 C 3598 280 M
0 4591 V
stroke
LT0
0.50 0.50 0.50 C 3598 280 M
0 63 V
0 4528 R
0 -63 V
0 -4668 R
( 15.5563) Cshow
1.000 UL
LT0
0.50 0.50 0.50 C 1.000 UL
LTa
0.50 0.50 0.50 C 3717 280 M
0 4591 V
stroke
LT0
0.50 0.50 0.50 C 3717 280 M
0 63 V
0 4528 R
0 -63 V
0 -4668 R
( 16.2634) Cshow
1.000 UL
LT0
0.50 0.50 0.50 C 1.000 UL
LTa
0.50 0.50 0.50 C 3837 280 M
0 4591 V
stroke
LT0
0.50 0.50 0.50 C 3837 280 M
0 63 V
0 4528 R
0 -63 V
0 -4668 R
( 16.9705) Cshow
1.000 UL
LT0
0.50 0.50 0.50 C 1.000 UL
LTa
0.50 0.50 0.50 C 3956 280 M
0 4591 V
stroke
LT0
0.50 0.50 0.50 C 3956 280 M
0 63 V
0 4528 R
0 -63 V
0 -4668 R
( 17.6776) Cshow
1.000 UL
LT0
0.50 0.50 0.50 C 1.000 UL
LTa
0.50 0.50 0.50 C 4076 280 M
0 4591 V
stroke
LT0
0.50 0.50 0.50 C 4076 280 M
0 63 V
0 4528 R
0 -63 V
0 -4668 R
( 18.3848) Cshow
1.000 UL
LT0
0.50 0.50 0.50 C 1.000 UL
LTa
0.50 0.50 0.50 C 4196 280 M
0 4591 V
stroke
LT0
0.50 0.50 0.50 C 4196 280 M
0 63 V
0 4528 R
0 -63 V
0 -4668 R
( 19.0919) Cshow
1.000 UL
LT0
0.50 0.50 0.50 C 1.000 UL
LTa
0.50 0.50 0.50 C 4315 280 M
0 4591 V
stroke
LT0
0.50 0.50 0.50 C 4315 280 M
0 63 V
0 4528 R
0 -63 V
0 -4668 R
( 19.799) Cshow
1.000 UL
LT0
0.50 0.50 0.50 C 1.000 UL
LTa
0.50 0.50 0.50 C 4435 280 M
0 4591 V
stroke
LT0
0.50 0.50 0.50 C 4435 280 M
0 63 V
0 4528 R
0 -63 V
0 -4668 R
( 20.5061) Cshow
1.000 UL
LT0
0.50 0.50 0.50 C 1.000 UL
LTa
0.50 0.50 0.50 C 4555 280 M
0 4591 V
stroke
LT0
0.50 0.50 0.50 C 4555 280 M
0 63 V
0 4528 R
0 -63 V
0 -4668 R
( 21.2132) Cshow
1.000 UL
LT0
0.50 0.50 0.50 C 1.000 UL
LTa
0.50 0.50 0.50 C 4674 280 M
0 4591 V
stroke
LT0
0.50 0.50 0.50 C 4674 280 M
0 63 V
0 4528 R
0 -63 V
0 -4668 R
( 21.9203) Cshow
1.000 UL
LT0
0.50 0.50 0.50 C 1.000 UL
LTa
0.50 0.50 0.50 C 4794 280 M
0 4591 V
stroke
LT0
0.50 0.50 0.50 C 4794 280 M
0 63 V
0 4528 R
0 -63 V
0 -4668 R
( 22.6274) Cshow
1.000 UL
LT0
0.50 0.50 0.50 C 1.000 UL
LTa
0.50 0.50 0.50 C 4913 280 M
0 4591 V
stroke
LT0
0.50 0.50 0.50 C 4913 280 M
0 63 V
0 4528 R
0 -63 V
0 -4668 R
( 23.3345) Cshow
1.000 UL
LT0
0.50 0.50 0.50 C 1.000 UL
LTa
0.50 0.50 0.50 C 5033 280 M
0 4591 V
stroke
LT0
0.50 0.50 0.50 C 5033 280 M
0 63 V
0 4528 R
0 -63 V
0 -4668 R
( 24.0416) Cshow
1.000 UL
LT0
0.50 0.50 0.50 C 1.000 UL
LTa
0.50 0.50 0.50 C 5153 280 M
0 4591 V
stroke
LT0
0.50 0.50 0.50 C 5153 280 M
0 63 V
0 4528 R
0 -63 V
0 -4668 R
( 24.7487) Cshow
1.000 UL
LT0
0.50 0.50 0.50 C 1.000 UL
LTa
0.50 0.50 0.50 C 5272 280 M
0 4591 V
stroke
LT0
0.50 0.50 0.50 C 5272 280 M
0 63 V
0 4528 R
0 -63 V
0 -4668 R
( 25.4558) Cshow
1.000 UL
LT0
0.50 0.50 0.50 C 1.000 UL
LTa
0.50 0.50 0.50 C 5392 280 M
0 4591 V
stroke
LT0
0.50 0.50 0.50 C 5392 280 M
0 63 V
0 4528 R
0 -63 V
0 -4668 R
( 26.1629) Cshow
1.000 UL
LT0
0.50 0.50 0.50 C 1.000 UL
LTa
0.50 0.50 0.50 C 5512 280 M
0 4591 V
stroke
LT0
0.50 0.50 0.50 C 5512 280 M
0 63 V
0 4528 R
0 -63 V
0 -4668 R
( 26.87) Cshow
1.000 UL
LT0
0.50 0.50 0.50 C 1.000 UL
LTa
0.50 0.50 0.50 C 5631 280 M
0 4591 V
stroke
LT0
0.50 0.50 0.50 C 5631 280 M
0 63 V
0 4528 R
0 -63 V
0 -4668 R
( 27.5771) Cshow
1.000 UL
LT0
0.50 0.50 0.50 C 1.000 UL
LTa
0.50 0.50 0.50 C 5751 280 M
0 4591 V
stroke
LT0
0.50 0.50 0.50 C 5751 280 M
0 63 V
0 4528 R
0 -63 V
0 -4668 R
( 28.2842) Cshow
1.000 UL
LT0
0.50 0.50 0.50 C 1.000 UL
LTa
0.50 0.50 0.50 C 5870 280 M
0 4591 V
stroke
LT0
0.50 0.50 0.50 C 5870 280 M
0 63 V
0 4528 R
0 -63 V
0 -4668 R
( 28.9913) Cshow
1.000 UL
LT0
0.50 0.50 0.50 C 1.000 UL
LTa
0.50 0.50 0.50 C 5990 280 M
0 4591 V
stroke
LT0
0.50 0.50 0.50 C 5990 280 M
0 63 V
0 4528 R
0 -63 V
0 -4668 R
( 29.6985) Cshow
1.000 UL
LT0
0.50 0.50 0.50 C 1.000 UL
LTa
0.50 0.50 0.50 C 6110 280 M
0 4591 V
stroke
LT0
0.50 0.50 0.50 C 6110 280 M
0 63 V
0 4528 R
0 -63 V
0 -4668 R
( 30.4056) Cshow
1.000 UL
LT0
0.50 0.50 0.50 C 1.000 UL
LTa
0.50 0.50 0.50 C 6229 280 M
0 4591 V
stroke
LT0
0.50 0.50 0.50 C 6229 280 M
0 63 V
0 4528 R
0 -63 V
0 -4668 R
( 31.1127) Cshow
1.000 UL
LT0
0.50 0.50 0.50 C 1.000 UL
LTa
0.50 0.50 0.50 C 6349 280 M
0 4591 V
stroke
LT0
0.50 0.50 0.50 C 6349 280 M
0 63 V
0 4528 R
0 -63 V
0 -4668 R
( 31.8198) Cshow
1.000 UL
LT0
0.50 0.50 0.50 C 1.000 UL
LTa
0.50 0.50 0.50 C 6469 280 M
0 4591 V
stroke
LT0
0.50 0.50 0.50 C 6469 280 M
0 63 V
0 4528 R
0 -63 V
0 -4668 R
( 32.5269) Cshow
1.000 UL
LT0
0.50 0.50 0.50 C 1.000 UL
LTa
0.50 0.50 0.50 C 6588 280 M
0 4591 V
stroke
LT0
0.50 0.50 0.50 C 6588 280 M
0 63 V
0 4528 R
0 -63 V
0 -4668 R
( 33.234) Cshow
1.000 UL
LT0
0.50 0.50 0.50 C 1.000 UL
LTa
0.50 0.50 0.50 C 6708 280 M
0 4591 V
stroke
LT0
0.50 0.50 0.50 C 6708 280 M
0 63 V
0 4528 R
0 -63 V
0 -4668 R
( 33.9411) Cshow
1.000 UL
LT0
0.50 0.50 0.50 C 1.000 UL
LTa
0.50 0.50 0.50 C 6827 280 M
0 4591 V
stroke
LT0
0.50 0.50 0.50 C 6827 280 M
0 63 V
0 4528 R
0 -63 V
0 -4668 R
( 34.6482) Cshow
1.000 UL
LT0
0.50 0.50 0.50 C 1.000 UL
LTa
0.50 0.50 0.50 C 6947 280 M
0 4591 V
stroke
LT0
0.50 0.50 0.50 C 6947 280 M
0 63 V
0 4528 R
0 -63 V
0 -4668 R
( 35.3553) Cshow
1.000 UL
LT0
0.50 0.50 0.50 C 1.000 UL
LT0
0.50 0.50 0.50 C 966 4871 M
966 280 L
5981 0 V
0 4591 R
-5981 0 R
1.000 UP
stroke
LT0
0.50 0.50 0.50 C % Begin plot #1
1.500 UP
2.000 UL
LT0
0.00 0.00 1.00 C /Helvetica findfont 140 scalefont setfont
/vshift -46 def
966 464 M
120 0 V
0 91 R
119 0 V
0 92 R
120 0 V
0 184 R
119 0 V
120 0 V
120 0 V
0 367 R
119 0 V
120 0 V
120 0 V
119 0 V
0 184 R
120 0 V
119 0 V
0 92 R
120 0 V
120 0 V
119 0 V
120 0 V
0 183 R
120 0 V
0 368 R
119 0 V
0 183 R
120 0 V
119 0 V
120 0 V
120 0 V
119 0 V
120 0 V
120 0 V
119 0 V
0 276 R
120 0 V
119 0 V
120 0 V
120 0 V
119 0 V
0 459 R
120 0 V
0 275 R
119 0 V
120 0 V
120 0 V
119 0 V
120 0 V
120 0 V
119 0 V
120 0 V
119 0 V
120 0 V
0 918 R
120 0 V
119 0 V
120 0 V
120 0 V
119 0 V
120 0 V
0 643 R
119 0 V
120 0 V
1086 464 M
0 91 V
119 0 R
0 92 V
120 0 R
0 92 V
0 92 V
359 0 R
0 92 V
0 92 V
0 91 V
0 92 V
478 0 R
0 92 V
0 92 V
239 0 R
0 92 V
479 0 R
0 91 V
0 92 V
120 0 R
0 92 V
0 92 V
0 92 V
0 92 V
119 0 R
0 91 V
0 92 V
957 0 R
0 92 V
0 92 V
0 92 V
598 0 R
0 92 V
0 91 V
0 92 V
0 92 V
0 92 V
120 0 R
0 92 V
stroke 4794 3035 M
0 91 V
0 92 V
1196 0 R
0 92 V
0 92 V
0 92 V
0 92 V
0 91 V
0 92 V
0 92 V
0 92 V
0 92 V
0 91 V
718 0 R
0 92 V
0 92 V
0 92 V
0 92 V
0 92 V
0 91 V
0 92 V
966 280 M
0 92 V
6947 4779 M
0 92 V
966 372 M
0 92 V
966 464 CircleF
1086 464 CircleF
1086 555 CircleF
1205 555 CircleF
1205 647 CircleF
1325 647 CircleF
1325 831 CircleF
1444 831 CircleF
1444 831 CircleF
1564 831 CircleF
1564 831 CircleF
1684 831 CircleF
1684 1198 CircleF
1803 1198 CircleF
1803 1198 CircleF
1923 1198 CircleF
1923 1198 CircleF
2043 1198 CircleF
2043 1198 CircleF
2162 1198 CircleF
2162 1382 CircleF
2282 1382 CircleF
2282 1382 CircleF
2401 1382 CircleF
2401 1474 CircleF
2521 1474 CircleF
2521 1474 CircleF
2641 1474 CircleF
2641 1474 CircleF
2760 1474 CircleF
2760 1474 CircleF
2880 1474 CircleF
2880 1657 CircleF
3000 1657 CircleF
3000 2025 CircleF
3119 2025 CircleF
3119 2208 CircleF
3239 2208 CircleF
3239 2208 CircleF
3358 2208 CircleF
3358 2208 CircleF
3478 2208 CircleF
3478 2208 CircleF
3598 2208 CircleF
3598 2208 CircleF
3717 2208 CircleF
3717 2208 CircleF
3837 2208 CircleF
3837 2208 CircleF
3957 2208 CircleF
3957 2208 CircleF
4076 2208 CircleF
4076 2484 CircleF
4196 2484 CircleF
4196 2484 CircleF
4315 2484 CircleF
4315 2484 CircleF
4435 2484 CircleF
4435 2484 CircleF
4555 2484 CircleF
4555 2484 CircleF
4674 2484 CircleF
4674 2943 CircleF
4794 2943 CircleF
4794 3218 CircleF
4913 3218 CircleF
4913 3218 CircleF
5033 3218 CircleF
5033 3218 CircleF
5153 3218 CircleF
5153 3218 CircleF
5272 3218 CircleF
5272 3218 CircleF
5392 3218 CircleF
5392 3218 CircleF
5512 3218 CircleF
5512 3218 CircleF
5631 3218 CircleF
5631 3218 CircleF
5751 3218 CircleF
5751 3218 CircleF
5870 3218 CircleF
5870 3218 CircleF
5990 3218 CircleF
5990 4136 CircleF
6110 4136 CircleF
6110 4136 CircleF
6229 4136 CircleF
6229 4136 CircleF
6349 4136 CircleF
6349 4136 CircleF
6469 4136 CircleF
6469 4136 CircleF
6588 4136 CircleF
6588 4136 CircleF
6708 4136 CircleF
6708 4779 CircleF
6827 4779 CircleF
6827 4779 CircleF
6947 4779 CircleF
1086 464 CircleF
1086 555 CircleF
1205 555 CircleF
1205 647 CircleF
1325 647 CircleF
1325 739 CircleF
1325 739 CircleF
1325 831 CircleF
1684 831 CircleF
1684 923 CircleF
1684 923 CircleF
1684 1015 CircleF
1684 1015 CircleF
1684 1106 CircleF
1684 1106 CircleF
1684 1198 CircleF
2162 1198 CircleF
2162 1290 CircleF
2162 1290 CircleF
2162 1382 CircleF
2401 1382 CircleF
2401 1474 CircleF
2880 1474 CircleF
2880 1565 CircleF
2880 1565 CircleF
2880 1657 CircleF
3000 1657 CircleF
3000 1749 CircleF
3000 1749 CircleF
3000 1841 CircleF
3000 1841 CircleF
3000 1933 CircleF
3000 1933 CircleF
3000 2025 CircleF
3119 2025 CircleF
3119 2116 CircleF
3119 2116 CircleF
3119 2208 CircleF
4076 2208 CircleF
4076 2300 CircleF
4076 2300 CircleF
4076 2392 CircleF
4076 2392 CircleF
4076 2484 CircleF
4674 2484 CircleF
4674 2576 CircleF
4674 2576 CircleF
4674 2667 CircleF
4674 2667 CircleF
4674 2759 CircleF
4674 2759 CircleF
4674 2851 CircleF
4674 2851 CircleF
4674 2943 CircleF
4794 2943 CircleF
4794 3035 CircleF
4794 3035 CircleF
4794 3126 CircleF
4794 3126 CircleF
4794 3218 CircleF
5990 3218 CircleF
5990 3310 CircleF
5990 3310 CircleF
5990 3402 CircleF
5990 3402 CircleF
5990 3494 CircleF
5990 3494 CircleF
5990 3586 CircleF
5990 3586 CircleF
5990 3677 CircleF
5990 3677 CircleF
5990 3769 CircleF
5990 3769 CircleF
5990 3861 CircleF
5990 3861 CircleF
5990 3953 CircleF
5990 3953 CircleF
5990 4045 CircleF
5990 4045 CircleF
5990 4136 CircleF
6708 4136 CircleF
6708 4228 CircleF
6708 4228 CircleF
6708 4320 CircleF
6708 4320 CircleF
6708 4412 CircleF
6708 4412 CircleF
6708 4504 CircleF
6708 4504 CircleF
6708 4596 CircleF
6708 4596 CircleF
6708 4687 CircleF
6708 4687 CircleF
6708 4779 CircleF
966 280 CircleF
966 372 CircleF
6947 4779 CircleF
6947 4871 CircleF
966 372 CircleF
966 464 CircleF
% End plot #1
% Begin plot #2
1.500 UP
2.000 UL
LT0
1.00 0.55 0.00 C /Helvetica findfont 140 scalefont setfont
2535 4478 M
136 104 V
5091 3739 M
218 167 V
2994 1012 M
125 96 V
-1087 73 R
215 165 V
1941 1131 M
236 181 V
3265 36 R
223 171 V
5477 3784 M
127 97 V
2357 4147 M
155 118 V
1620 3127 M
139 107 V
6326 3041 M
191 147 V
3644 2180 M
204 156 V
3418 4302 M
139 107 V
5453 3707 M
130 100 V
3040 4037 M
221 170 V
6251 3149 M
225 173 V
2681 1441 M
202 154 V
345 2738 R
179 138 V
4682 785 M
194 149 V
791 10 R
155 119 V
429 3493 R
228 176 V
4114 292 M
166 127 V
2658 2053 M
233 179 V
4178 4417 M
128 99 V
4740 1441 M
183 140 V
2737 2108 M
165 127 V
1134 4512 M
126 96 V
1666 689 M
128 98 V
4222 4502 M
185 142 V
3141 1502 M
197 151 V
1318 4255 M
150 115 V
819 -18 R
152 117 V
37 -293 R
155 118 V
1279 670 M
159 122 V
6696 3716 M
183 141 V
5785 1769 M
162 124 V
3069 568 M
137 105 V
319 -64 R
216 166 V
1723 2281 M
123 95 V
1509 3430 M
215 165 V
2109 7 R
178 137 V
6352 2270 M
224 172 V
5556 1253 M
201 154 V
1696 2145 M
124 95 V
4129 832 R
142 109 V
5781 2202 M
182 139 V
1447 3782 M
171 131 V
4991 582 M
197 152 V
3729 729 M
122 93 V
4903 3923 M
159 122 V
5701 1356 M
168 129 V
475 2618 R
201 154 V
-763 395 R
194 149 V
4920 3880 M
138 106 V
stroke 5058 3986 M
3516 3274 M
238 183 V
913 585 R
165 127 V
2221 1295 M
164 126 V
1874 1301 M
228 176 V
3028 496 M
135 103 V
2705 2340 M
233 179 V
2431 1748 M
140 108 V
349 1645 R
228 175 V
3483 1892 M
195 150 V
4762 1682 M
198 152 V
1580 3264 M
190 145 V
4208 2364 M
143 110 V
2387 2585 M
162 125 V
1554 2504 M
126 97 V
5396 1560 M
216 166 V
519 2405 R
228 175 V
6511 1486 M
213 164 V
2242 2218 M
225 173 V
6332 1256 M
222 171 V
4633 1289 M
211 161 V
1823 3943 M
123 94 V
1815 3928 M
224 173 V
3900 2779 M
186 142 V
2900 2471 M
170 130 V
1359 3628 M
222 170 V
3821 1313 M
169 129 V
524 440 R
225 172 V
771 2248 R
149 115 V
6533 3229 M
189 145 V
3236 4329 M
204 157 V
1017 2001 M
152 116 V
659 170 R
180 138 V
5984 4314 M
178 137 V
4472 521 M
185 143 V
6575 917 M
190 145 V
4151 2453 M
181 139 V
532 1357 R
204 156 V
2526 412 M
209 160 V
993 2384 R
174 134 V
-1767 94 R
188 145 V
3668 704 R
183 141 V
4562 4498 M
238 182 V
5431 2721 M
142 109 V
-17 943 R
206 158 V
2547 2449 M
206 158 V
3054 970 R
235 181 V
1991 3199 M
194 148 V
1374 2061 M
123 94 V
3972 849 R
190 146 V
1425 4178 M
236 181 V
3237 2704 M
230 176 V
3152 983 R
169 130 V
stroke 6788 3993 M
6219 2806 M
209 160 V
2400 539 M
190 146 V
-26 2320 R
178 137 V
3595 1035 M
236 181 V
803 1419 R
176 135 V
1660 585 R
135 103 V
3484 1432 M
126 97 V
374 -196 R
231 177 V
2541 546 M
236 181 V
6690 881 M
221 169 V
987 1371 M
198 152 V
4414 1263 M
141 108 V
2748 4173 M
172 132 V
6197 500 M
183 140 V
1376 1173 M
223 172 V
79 -117 R
233 180 V
1548 873 M
209 160 V
-738 462 R
227 174 V
3513 3921 M
185 142 V
4733 2530 M
129 100 V
6606 4685 M
152 116 V
4234 2790 M
175 135 V
4038 1592 M
183 140 V
1963 2563 M
156 120 V
1102 669 R
135 104 V
5836 3019 M
132 101 V
3838 1046 M
220 169 V
944 929 R
213 163 V
1956 4501 M
179 138 V
3806 2921 M
217 167 V
6257 1245 M
200 154 V
-583 754 R
124 95 V
4481 1598 M
225 172 V
1221 3810 M
171 131 V
1784 216 R
186 143 V
4565 3375 M
195 149 V
344 272 R
194 149 V
1317 378 R
233 178 V
5974 3281 M
213 164 V
-103 77 R
143 110 V
-988 858 R
198 152 V
1548 4186 M
145 111 V
5484 1667 M
237 181 V
1676 1292 M
175 134 V
6043 886 M
210 162 V
3072 2096 M
135 104 V
713 2026 R
121 93 V
3587 3458 M
146 112 V
3052 3376 M
145 111 V
6554 851 M
159 122 V
1020 2338 M
170 130 V
2941 199 R
190 146 V
stroke 4321 2813 M
3081 2541 M
188 144 V
1988 2569 M
209 160 V
4774 1036 M
145 111 V
2012 2696 M
212 163 V
5598 4010 M
170 131 V
1472 3616 M
122 94 V
2593 261 R
185 143 V
2049 387 M
154 118 V
1578 2977 M
154 118 V
3654 4101 M
147 112 V
3440 3184 M
176 135 V
5832 1616 M
121 93 V
1414 2252 M
212 162 V
105 1390 R
139 107 V
6309 1016 M
179 137 V
5698 3557 M
224 171 V
2966 2021 M
163 125 V
1973 311 R
175 134 V
4596 2480 M
158 121 V
3515 1243 M
211 162 V
1925 4092 M
165 127 V
4824 1468 M
153 117 V
6706 3048 M
188 144 V
2237 771 M
163 125 V
5017 3163 M
181 139 V
3067 1366 M
211 161 V
3893 952 M
134 103 V
6367 3364 M
179 138 V
4371 495 M
142 108 V
3722 4277 M
159 122 V
6608 1050 M
225 172 V
1086 4096 M
232 177 V
5002 790 M
162 124 V
6329 670 M
181 140 V
5716 3133 M
171 132 V
5269 1689 M
198 152 V
5926 769 M
219 169 V
5471 3700 M
170 130 V
4386 818 M
148 114 V
1473 2991 M
121 93 V
6084 1345 M
209 160 V
5217 4067 M
204 157 V
2068 1433 M
166 128 V
6050 4265 M
128 98 V
5447 3623 M
148 114 V
2391 4022 M
237 183 V
-465 51 R
216 167 V
2875 2425 M
135 103 V
5470 1751 M
205 157 V
5174 3108 M
225 173 V
6529 2826 M
200 154 V
5815 4674 M
219 168 V
stroke 6034 4842 M
3599 1505 M
198 151 V
5307 4532 M
189 145 V
5014 4544 M
152 117 V
3087 3663 M
124 94 V
2069 3373 M
180 138 V
1104 3628 M
155 119 V
2766 2144 M
124 96 V
4641 1468 M
125 96 V
6040 4422 M
212 163 V
5031 2361 M
170 131 V
6366 2185 M
228 175 V
2946 331 M
144 110 V
-286 647 R
189 145 V
5801 980 M
232 179 V
1336 4366 M
154 118 V
5992 2686 M
198 152 V
2278 1538 M
173 133 V
6637 3757 M
156 120 V
4902 1192 M
154 118 V
437 2979 R
194 149 V
1376 2404 M
151 116 V
6219 2196 M
218 168 V
6066 1574 M
206 158 V
1372 2680 M
137 106 V
5603 4611 M
129 99 V
6053 3541 M
173 134 V
3027 1382 M
175 134 V
4844 3775 M
169 130 V
4823 478 M
133 102 V
4280 2017 M
153 117 V
3912 3476 M
163 125 V
3958 2292 M
187 143 V
4733 430 M
192 147 V
2917 1661 M
192 147 V
2986 444 R
226 174 V
1833 4406 M
168 129 V
5048 3190 M
191 147 V
2967 759 M
221 170 V
1084 3058 M
173 132 V
1011 2132 M
134 103 V
6275 678 M
190 146 V
35 3741 R
200 154 V
4326 3835 M
227 175 V
2200 2426 M
236 181 V
744 1526 R
121 93 V
5230 3095 M
134 102 V
4574 2615 M
176 135 V
3424 2153 M
159 123 V
1279 1219 M
165 127 V
848 2095 R
199 152 V
3332 566 R
222 171 V
4360 1970 M
145 111 V
stroke 4505 2081 M
1029 2307 M
184 142 V
4690 743 R
190 146 V
6523 2293 M
210 161 V
1544 3239 M
235 181 V
3155 1941 M
132 102 V
635 -918 R
188 144 V
2379 389 M
215 165 V
1895 632 R
158 122 V
2286 4040 M
202 155 V
4703 3125 M
168 129 V
4661 2719 M
180 139 V
6489 1983 M
206 157 V
3616 1236 M
228 176 V
6434 3327 M
205 157 V
4311 842 M
123 95 V
-495 498 R
203 156 V
2006 528 R
204 157 V
3887 1759 M
146 112 V
6240 3202 M
228 174 V
3044 2858 M
211 163 V
4602 2856 M
166 127 V
2608 3253 M
140 107 V
3147 96 R
132 101 V
-559 411 R
143 110 V
1206 3535 M
186 143 V
4571 519 M
153 117 V
1452 4272 M
143 109 V
2059 1899 M
124 95 V
53 1396 R
236 181 V
1816 571 M
238 182 V
3249 3108 M
136 104 V
3844 2094 M
227 174 V
3685 3718 M
170 131 V
3008 2525 M
178 137 V
3474 1043 M
179 137 V
1998 3032 M
201 154 V
6219 4506 M
127 97 V
4474 2803 M
192 148 V
1071 3356 M
146 112 V
2768 1500 M
226 173 V
269 2428 R
163 125 V
3549 2112 M
160 122 V
2735 4473 M
175 135 V
3715 1940 M
217 167 V
-615 29 R
143 110 V
2491 405 R
175 135 V
4810 4686 M
196 151 V
1408 1824 M
200 154 V
3682 1631 M
192 148 V
2517 1897 M
199 153 V
964 2560 R
210 162 V
6138 479 M
139 107 V
stroke 6277 586 M
87 2666 R
177 137 V
5551 1690 M
129 99 V
4293 3755 M
187 143 V
2294 889 M
139 106 V
1399 2654 M
218 167 V
3978 3901 M
210 161 V
5139 611 M
130 100 V
3714 4299 M
157 120 V
1364 935 M
177 136 V
4374 560 R
217 166 V
1307 3890 M
179 138 V
1452 828 M
184 141 V
856 1636 R
217 168 V
5579 2228 M
163 125 V
3492 3737 M
174 134 V
2293 1358 M
145 112 V
1499 733 R
197 152 V
5748 4148 M
170 131 V
4604 1666 M
231 177 V
1794 4456 M
148 114 V
5337 3708 M
167 128 V
1756 963 M
223 171 V
1668 835 R
125 96 V
5649 3078 M
226 174 V
2137 1631 M
215 165 V
2643 220 R
125 96 V
2544 4459 M
179 138 V
6451 3274 M
132 101 V
2543 1572 M
210 161 V
5480 4206 M
233 179 V
4221 1385 M
211 162 V
3854 732 M
185 142 V
5980 4107 M
170 131 V
3165 2818 M
144 111 V
2555 626 R
187 143 V
1147 1143 M
219 168 V
822 1274 R
136 104 V
-184 940 R
224 172 V
2763 725 R
206 158 V
3165 4322 M
184 141 V
42 -100 R
153 118 V
5592 3496 M
180 138 V
-757 975 R
220 168 V
1000 484 M
211 163 V
6460 305 M
135 103 V
6270 4048 M
238 183 V
3168 1552 M
121 93 V
5222 2950 M
209 161 V
1993 1814 M
121 92 V
5562 1163 M
202 156 V
3811 3988 M
206 158 V
791 -903 R
197 152 V
stroke 5005 3395 M
5157 1625 M
203 155 V
1887 1182 M
153 118 V
6243 2517 M
128 98 V
4009 3849 M
186 143 V
810 -469 R
191 146 V
1158 4489 M
145 111 V
4199 2262 M
162 124 V
6580 1686 M
229 176 V
4048 1145 M
219 169 V
-477 70 R
159 122 V
6155 1324 M
229 175 V
4625 806 M
211 162 V
-65 414 R
220 168 V
1650 675 R
218 166 V
-2394 79 R
175 134 V
-2566 48 R
149 114 V
2887 906 R
154 118 V
5757 1975 M
169 130 V
3058 1650 M
204 156 V
5483 3831 M
208 160 V
2926 1611 M
231 177 V
2731 1442 M
121 94 V
3364 894 R
208 160 V
4115 2262 M
199 153 V
4835 908 M
162 125 V
3040 773 M
206 158 V
1703 2494 M
238 183 V
2346 1424 M
178 136 V
2220 -9 R
144 110 V
3578 2833 M
199 153 V
-607 548 R
193 149 V
1296 -27 R
187 144 V
4606 1543 M
144 111 V
588 2870 R
190 146 V
5111 3333 M
232 178 V
1004 729 R
188 145 V
-504 202 R
126 96 V
3991 2328 M
217 167 V
6356 737 M
160 123 V
5078 4537 M
213 163 V
6043 1318 M
194 149 V
1943 4402 M
197 151 V
4820 1249 M
214 165 V
512 1383 R
135 104 V
1271 4067 M
229 175 V
3633 2102 M
217 167 V
6108 1371 M
229 176 V
4691 3119 M
126 98 V
1764 774 M
131 100 V
5726 4527 M
156 120 V
2559 971 M
218 168 V
4199 3697 M
224 171 V
stroke 4423 3868 M
5833 806 M
140 108 V
5734 3519 M
137 105 V
5272 1132 M
215 165 V
711 105 R
208 159 V
1272 3897 M
143 110 V
5689 824 M
208 160 V
5632 3064 M
211 162 V
4026 3505 M
227 174 V
6253 1928 M
149 114 V
4051 732 M
161 123 V
6661 1982 M
159 122 V
2675 792 M
128 98 V
1199 4140 M
220 169 V
4556 392 M
149 115 V
2765 1148 M
128 98 V
3810 15 R
198 152 V
2687 3965 M
176 135 V
5413 2985 M
146 113 V
1728 3538 M
213 163 V
6353 808 M
191 146 V
2728 2574 M
232 178 V
4723 4565 M
202 155 V
1094 3496 M
188 144 V
3674 1573 M
164 126 V
2732 2940 M
236 181 V
4277 4261 M
149 114 V
5876 3733 M
181 139 V
16 -2610 R
123 94 V
5436 536 M
123 95 V
5054 1686 M
199 153 V
6134 301 M
196 150 V
3640 857 M
230 176 V
2988 3861 M
206 158 V
1538 768 M
131 101 V
619 1558 R
227 174 V
425 -318 R
130 99 V
2667 1664 M
205 158 V
6330 3437 M
180 138 V
1172 2643 M
226 173 V
917 -576 R
211 161 V
732 906 R
216 166 V
5709 1703 M
207 159 V
1591 788 M
163 126 V
5250 2227 M
160 122 V
2177 4177 M
191 147 V
4398 3030 M
216 166 V
5889 1305 M
203 156 V
2260 4110 M
120 92 V
1275 3920 M
170 130 V
6046 1983 M
143 109 V
2791 3919 M
122 94 V
3765 2323 M
211 161 V
stroke 3976 2484 M
839 1034 R
167 128 V
2362 2752 M
146 112 V
2091 950 R
232 177 V
3863 2104 M
220 168 V
2674 1806 M
176 136 V
5078 1771 M
230 177 V
1127 672 M
215 165 V
129 1896 R
213 163 V
405 157 R
234 180 V
2486 2057 M
194 148 V
2389 4306 M
185 143 V
2870 2547 M
161 123 V
5071 2159 M
122 93 V
2555 3935 M
153 118 V
4879 476 M
130 100 V
2021 1090 M
232 178 V
3669 794 M
130 100 V
2908 3241 M
175 135 V
2944 1953 M
126 97 V
5009 4428 M
193 148 V
1609 1412 M
140 107 V
3720 1106 M
165 126 V
2303 4582 M
212 162 V
4646 1545 M
182 140 V
4756 799 M
143 110 V
2878 1655 M
158 121 V
5900 3714 M
130 100 V
3277 1876 M
196 151 V
496 -787 R
196 150 V
1874 2821 M
236 181 V
2751 773 M
150 114 V
4369 2365 M
123 95 V
3904 969 M
122 93 V
2639 1704 M
201 154 V
1685 2298 M
231 177 V
3804 1660 M
195 150 V
667 1289 R
187 144 V
6596 1394 M
126 97 V
2220 4669 M
172 131 V
4357 1625 M
223 172 V
1592 467 R
228 175 V
4895 2869 M
146 111 V
845 1596 R
145 112 V
5076 1316 M
155 119 V
1086 368 R
129 99 V
1297 4209 M
166 128 V
2760 3914 M
175 134 V
-163 -48 R
236 181 V
2106 854 M
138 106 V
1760 953 R
135 103 V
1716 2145 M
177 136 V
6529 3400 M
200 154 V
stroke 6729 3554 M
4316 1088 M
225 173 V
18 2624 R
225 173 V
1956 3129 M
210 161 V
4853 1360 M
161 124 V
4700 3808 M
229 176 V
2365 2209 M
163 125 V
1227 312 R
160 123 V
-1835 -7 R
236 181 V
855 -205 R
212 162 V
3768 1234 M
142 108 V
2982 4674 M
168 130 V
5494 3551 M
125 97 V
2463 522 M
173 133 V
1320 4319 M
227 174 V
2126 1231 M
187 144 V
277 -281 R
186 142 V
5269 879 M
215 165 V
1132 1598 M
135 104 V
3820 357 R
129 98 V
1612 1190 M
182 140 V
5496 3381 M
171 131 V
349 -898 R
181 139 V
1112 1060 M
190 145 V
3733 275 R
140 107 V
6069 881 M
169 130 V
6160 328 M
198 152 V
-805 98 R
167 128 V
1680 3245 M
155 119 V
1161 1586 M
167 127 V
2010 317 M
176 136 V
875 659 R
222 170 V
958 217 R
126 97 V
2945 855 M
129 100 V
6671 2592 M
227 175 V
2792 1247 M
217 167 V
5039 2423 M
193 148 V
4537 439 M
161 124 V
2334 2058 M
130 100 V
6256 356 M
161 123 V
4110 1001 M
232 177 V
6152 3693 M
141 108 V
1332 606 M
152 117 V
6630 4357 M
223 171 V
6302 2396 M
170 130 V
5885 4291 M
199 153 V
3548 882 M
156 120 V
761 3285 R
125 96 V
6602 3924 M
226 174 V
3597 4466 M
144 110 V
998 4233 M
148 113 V
4568 2389 M
128 98 V
1592 2969 M
217 167 V
stroke 1809 3136 M
4046 227 R
216 166 V
6579 1655 M
168 129 V
5861 710 M
233 179 V
2951 4475 M
227 174 V
2635 2688 M
143 110 V
438 -542 R
139 106 V
2612 566 R
185 142 V
5717 321 M
163 125 V
4398 3266 M
216 166 V
4822 1129 M
202 155 V
2344 1109 M
166 127 V
5063 2497 M
218 167 V
4774 1908 M
211 162 V
3475 445 M
231 177 V
-94 525 R
226 173 V
2804 929 M
180 138 V
1296 1903 M
147 112 V
4416 565 R
181 138 V
1608 4504 M
186 143 V
6209 4004 M
170 130 V
1334 1021 M
122 93 V
2538 2461 M
217 167 V
237 980 R
160 123 V
1331 783 M
166 128 V
5998 2076 M
148 113 V
3329 3884 M
192 148 V
5484 1196 M
140 108 V
683 2701 R
189 146 V
1620 1082 M
129 99 V
4570 334 M
123 94 V
235 1782 R
225 173 V
1074 2832 M
194 149 V
3724 948 R
181 139 V
6373 748 M
170 131 V
4073 1327 M
145 111 V
1312 3056 M
214 164 V
1719 417 R
126 97 V
4414 1085 M
182 140 V
3466 3323 M
138 106 V
4739 651 M
124 95 V
3897 3179 M
161 124 V
550 -94 R
179 138 V
1243 3539 M
135 103 V
1139 957 M
203 155 V
2867 620 M
140 107 V
1844 766 M
218 167 V
4094 2165 M
221 170 V
5964 1614 M
127 97 V
-54 2198 R
181 139 V
2164 1836 M
139 107 V
479 1920 R
151 116 V
1008 3558 M
164 126 V
stroke 1172 3684 M
4247 2797 M
188 144 V
3569 2807 M
178 136 V
1011 538 R
185 142 V
1227 4266 M
172 132 V
-79 -100 R
234 179 V
5546 849 M
140 107 V
904 3685 R
217 167 V
6198 3963 M
228 175 V
5371 3167 M
211 162 V
4378 4539 M
138 106 V
1620 1712 M
127 97 V
5173 3143 M
163 125 V
2573 772 M
194 149 V
3702 338 M
177 135 V
2230 2498 M
141 108 V
5694 1783 M
137 106 V
3468 2728 M
197 151 V
6687 1525 M
128 98 V
6661 2765 M
217 166 V
4444 4590 M
152 118 V
1205 1836 M
146 112 V
5590 3676 M
161 124 V
2677 641 M
152 117 V
2228 3689 M
215 165 V
-668 712 R
190 146 V
5076 2905 M
128 98 V
2151 4165 M
166 128 V
2352 74 R
211 162 V
5259 3485 M
237 182 V
3761 4627 M
189 145 V
6008 1235 M
139 108 V
60 2750 R
134 103 V
308 -978 R
143 110 V
-850 236 R
230 176 V
2823 2802 M
154 119 V
968 -584 R
163 124 V
-486 835 R
208 160 V
-23 740 R
192 147 V
3475 2421 M
164 125 V
3773 311 M
184 141 V
171 1972 R
173 133 V
5108 720 M
138 106 V
696 1962 R
182 140 V
392 1530 R
194 149 V
5581 3920 M
191 148 V
2808 345 M
225 173 V
-731 489 R
130 100 V
3068 289 M
174 133 V
4705 319 M
238 183 V
1450 3785 M
133 102 V
1208 1575 M
209 161 V
3722 4177 M
189 145 V
stroke 3911 4322 M
4125 508 M
212 163 V
6052 491 M
127 98 V
4263 3177 M
142 109 V
3142 684 M
203 156 V
397 1216 R
218 167 V
19 -186 R
201 154 V
127 -156 R
175 134 V
12 2043 R
141 108 V
1500 1417 M
149 115 V
5278 2567 M
185 142 V
2055 1213 M
200 153 V
-553 817 R
233 179 V
-584 249 R
142 109 V
982 132 R
135 103 V
5825 4310 M
204 157 V
1532 2640 M
129 99 V
1246 585 R
162 125 V
4850 1552 M
170 130 V
2165 3806 M
218 168 V
3656 309 R
159 122 V
3458 2614 M
148 114 V
1573 363 R
226 173 V
2477 1885 M
134 103 V
5202 411 M
166 127 V
2828 775 M
199 153 V
2400 568 R
173 132 V
2594 3682 M
202 155 V
3571 854 M
215 165 V
5750 979 M
192 147 V
2873 439 M
202 154 V
777 210 R
148 113 V
3028 3784 M
237 182 V
3386 1108 M
205 158 V
59 2669 R
164 126 V
198 -186 R
125 96 V
3354 1171 M
219 168 V
6352 2951 M
144 111 V
2782 2951 M
202 155 V
6591 597 M
130 99 V
3516 720 M
187 144 V
1113 907 M
203 156 V
2746 99 R
121 93 V
5702 3565 M
182 139 V
3386 2120 M
213 163 V
1202 4381 M
235 181 V
1786 1764 M
235 181 V
1908 3442 M
177 135 V
-129 838 R
160 123 V
6278 1988 M
189 144 V
2883 883 M
207 159 V
2589 762 R
172 133 V
151 882 R
133 101 V
stroke 6135 2920 M
5879 1397 M
220 169 V
1325 2512 M
213 163 V
5198 4258 M
155 120 V
2833 4330 M
124 95 V
1839 2839 M
213 164 V
3988 696 R
200 153 V
1738 2923 M
194 149 V
5998 423 M
127 98 V
4397 4186 M
137 105 V
4329 2206 M
127 97 V
5628 3753 M
127 98 V
2512 3081 M
164 126 V
3635 1626 M
157 120 V
35 -848 R
129 99 V
2676 2941 M
133 102 V
2958 382 M
221 170 V
1427 1853 M
222 170 V
51 214 R
201 155 V
4772 2182 M
217 166 V
1951 446 M
226 173 V
3906 3631 M
226 173 V
6435 3676 M
238 183 V
3037 4163 M
233 179 V
5467 2687 M
152 116 V
1911 4567 M
165 127 V
2371 2565 M
201 154 V
-800 678 R
189 146 V
4945 1555 M
130 100 V
3733 1278 M
189 146 V
6468 3611 M
223 171 V
1025 2262 M
235 180 V
356 2150 R
190 146 V
1987 2859 M
138 106 V
-129 820 R
236 181 V
5604 3529 M
232 179 V
6569 321 M
137 105 V
2065 3004 M
120 92 V
6622 1942 M
137 105 V
3235 1136 M
170 131 V
430 1322 R
144 111 V
2557 628 M
229 176 V
4939 3760 M
140 108 V
1245 435 M
172 132 V
5819 2741 M
180 139 V
3253 1825 M
230 177 V
-575 199 R
211 162 V
4430 1643 M
142 109 V
1698 285 M
183 141 V
111 707 R
149 115 V
1763 4670 M
206 158 V
5555 3212 M
171 131 V
2288 4352 M
175 135 V
stroke 2463 4487 M
4702 770 M
140 107 V
194 627 R
171 132 V
4270 1140 M
231 178 V
1210 3829 M
187 144 V
2882 1484 M
214 164 V
-280 154 R
220 169 V
2533 4056 M
138 106 V
6376 1397 M
199 152 V
4257 3032 M
212 163 V
1068 2671 M
168 129 V
4086 1891 M
159 122 V
2108 596 M
127 97 V
508 2311 R
165 126 V
6690 1794 M
195 150 V
5763 3894 M
153 117 V
3965 2597 M
156 120 V
1115 3452 M
232 179 V
2404 3091 M
125 95 V
-676 398 R
234 180 V
2535 4478 CircleF
2671 4582 CircleF
5091 3739 CircleF
5309 3906 CircleF
2994 1012 CircleF
3119 1108 CircleF
2032 1181 CircleF
2247 1346 CircleF
1941 1131 CircleF
2177 1312 CircleF
5442 1348 CircleF
5665 1519 CircleF
5477 3784 CircleF
5604 3881 CircleF
2357 4147 CircleF
2512 4265 CircleF
1620 3127 CircleF
1759 3234 CircleF
6326 3041 CircleF
6517 3188 CircleF
3644 2180 CircleF
3848 2336 CircleF
3418 4302 CircleF
3557 4409 CircleF
5453 3707 CircleF
5583 3807 CircleF
3040 4037 CircleF
3261 4207 CircleF
6251 3149 CircleF
6476 3322 CircleF
2681 1441 CircleF
2883 1595 CircleF
3228 4333 CircleF
3407 4471 CircleF
4682 785 CircleF
4876 934 CircleF
5667 944 CircleF
5822 1063 CircleF
6251 4556 CircleF
6479 4732 CircleF
4114 292 CircleF
4280 419 CircleF
2658 2053 CircleF
2891 2232 CircleF
4178 4417 CircleF
4306 4516 CircleF
4740 1441 CircleF
4923 1581 CircleF
2737 2108 CircleF
2902 2235 CircleF
1134 4512 CircleF
1260 4608 CircleF
1666 689 CircleF
1794 787 CircleF
4222 4502 CircleF
4407 4644 CircleF
3141 1502 CircleF
3338 1653 CircleF
1318 4255 CircleF
1468 4370 CircleF
2287 4352 CircleF
2439 4469 CircleF
2476 4176 CircleF
2631 4294 CircleF
1279 670 CircleF
1438 792 CircleF
6696 3716 CircleF
6879 3857 CircleF
5785 1769 CircleF
5947 1893 CircleF
3069 568 CircleF
3206 673 CircleF
3525 609 CircleF
3741 775 CircleF
1723 2281 CircleF
1846 2376 CircleF
1509 3430 CircleF
1724 3595 CircleF
3833 3602 CircleF
4011 3739 CircleF
6352 2270 CircleF
6576 2442 CircleF
5556 1253 CircleF
5757 1407 CircleF
1696 2145 CircleF
1820 2240 CircleF
5949 3072 CircleF
6091 3181 CircleF
5781 2202 CircleF
5963 2341 CircleF
1447 3782 CircleF
1618 3913 CircleF
4991 582 CircleF
5188 734 CircleF
3729 729 CircleF
3851 822 CircleF
4903 3923 CircleF
5062 4045 CircleF
5701 1356 CircleF
5869 1485 CircleF
6344 4103 CircleF
6545 4257 CircleF
5782 4652 CircleF
5976 4801 CircleF
4920 3880 CircleF
5058 3986 CircleF
3516 3274 CircleF
3754 3457 CircleF
4667 4042 CircleF
4832 4169 CircleF
2221 1295 CircleF
2385 1421 CircleF
1874 1301 CircleF
2102 1477 CircleF
3028 496 CircleF
3163 599 CircleF
2705 2340 CircleF
2938 2519 CircleF
2431 1748 CircleF
2571 1856 CircleF
2920 3501 CircleF
3148 3676 CircleF
3483 1892 CircleF
3678 2042 CircleF
4762 1682 CircleF
4960 1834 CircleF
1580 3264 CircleF
1770 3409 CircleF
4208 2364 CircleF
4351 2474 CircleF
2387 2585 CircleF
2549 2710 CircleF
1554 2504 CircleF
1680 2601 CircleF
5396 1560 CircleF
5612 1726 CircleF
6131 4131 CircleF
6359 4306 CircleF
6511 1486 CircleF
6724 1650 CircleF
2242 2218 CircleF
2467 2391 CircleF
6332 1256 CircleF
6554 1427 CircleF
4633 1289 CircleF
4844 1450 CircleF
1823 3943 CircleF
1946 4037 CircleF
1815 3928 CircleF
2039 4101 CircleF
3900 2779 CircleF
4086 2921 CircleF
2900 2471 CircleF
3070 2601 CircleF
1359 3628 CircleF
1581 3798 CircleF
3821 1313 CircleF
3990 1442 CircleF
4514 1882 CircleF
4739 2054 CircleF
5510 4302 CircleF
5659 4417 CircleF
6533 3229 CircleF
6722 3374 CircleF
3236 4329 CircleF
3440 4486 CircleF
1017 2001 CircleF
1169 2117 CircleF
1828 2287 CircleF
2008 2425 CircleF
5984 4314 CircleF
6162 4451 CircleF
4472 521 CircleF
4657 664 CircleF
6575 917 CircleF
6765 1062 CircleF
4151 2453 CircleF
4332 2592 CircleF
4864 3949 CircleF
5068 4105 CircleF
2526 412 CircleF
2735 572 CircleF
3728 2956 CircleF
3902 3090 CircleF
2135 3184 CircleF
2323 3329 CircleF
5991 4033 CircleF
6174 4174 CircleF
4562 4498 CircleF
4800 4680 CircleF
5431 2721 CircleF
5573 2830 CircleF
5556 3773 CircleF
5762 3931 CircleF
2547 2449 CircleF
2753 2607 CircleF
5807 3577 CircleF
6042 3758 CircleF
1991 3199 CircleF
2185 3347 CircleF
1374 2061 CircleF
1497 2155 CircleF
5469 3004 CircleF
5659 3150 CircleF
1425 4178 CircleF
1661 4359 CircleF
3237 2704 CircleF
3467 2880 CircleF
6619 3863 CircleF
6788 3993 CircleF
6219 2806 CircleF
6428 2966 CircleF
2400 539 CircleF
2590 685 CircleF
2564 3005 CircleF
2742 3142 CircleF
3595 1035 CircleF
3831 1216 CircleF
4634 2635 CircleF
4810 2770 CircleF
6470 3355 CircleF
6605 3458 CircleF
3484 1432 CircleF
3610 1529 CircleF
3984 1333 CircleF
4215 1510 CircleF
2541 546 CircleF
2777 727 CircleF
6690 881 CircleF
6911 1050 CircleF
987 1371 CircleF
1185 1523 CircleF
4414 1263 CircleF
4555 1371 CircleF
2748 4173 CircleF
2920 4305 CircleF
6197 500 CircleF
6380 640 CircleF
1376 1173 CircleF
1599 1345 CircleF
1678 1228 CircleF
1911 1408 CircleF
1548 873 CircleF
1757 1033 CircleF
1019 1495 CircleF
1246 1669 CircleF
3513 3921 CircleF
3698 4063 CircleF
4733 2530 CircleF
4862 2630 CircleF
6606 4685 CircleF
6758 4801 CircleF
4234 2790 CircleF
4409 2925 CircleF
4038 1592 CircleF
4221 1732 CircleF
1963 2563 CircleF
2119 2683 CircleF
3221 3352 CircleF
3356 3456 CircleF
5836 3019 CircleF
5968 3120 CircleF
3838 1046 CircleF
4058 1215 CircleF
5002 2144 CircleF
5215 2307 CircleF
1956 4501 CircleF
2135 4639 CircleF
3806 2921 CircleF
4023 3088 CircleF
6257 1245 CircleF
6457 1399 CircleF
5874 2153 CircleF
5998 2248 CircleF
4481 1598 CircleF
4706 1770 CircleF
1221 3810 CircleF
1392 3941 CircleF
3176 4157 CircleF
3362 4300 CircleF
4565 3375 CircleF
4760 3524 CircleF
5104 3796 CircleF
5298 3945 CircleF
6615 4323 CircleF
6848 4501 CircleF
5974 3281 CircleF
6187 3445 CircleF
6084 3522 CircleF
6227 3632 CircleF
5239 4490 CircleF
5437 4642 CircleF
1548 4186 CircleF
1693 4297 CircleF
5484 1667 CircleF
5721 1848 CircleF
1676 1292 CircleF
1851 1426 CircleF
6043 886 CircleF
6253 1048 CircleF
3072 2096 CircleF
3207 2200 CircleF
3920 4226 CircleF
4041 4319 CircleF
3587 3458 CircleF
3733 3570 CircleF
3052 3376 CircleF
3197 3487 CircleF
6554 851 CircleF
6713 973 CircleF
1020 2338 CircleF
1190 2468 CircleF
4131 2667 CircleF
4321 2813 CircleF
3081 2541 CircleF
3269 2685 CircleF
1988 2569 CircleF
2197 2729 CircleF
4774 1036 CircleF
4919 1147 CircleF
2012 2696 CircleF
2224 2859 CircleF
5598 4010 CircleF
5768 4141 CircleF
1472 3616 CircleF
1594 3710 CircleF
4187 3971 CircleF
4372 4114 CircleF
2049 387 CircleF
2203 505 CircleF
1578 2977 CircleF
1732 3095 CircleF
3654 4101 CircleF
3801 4213 CircleF
3440 3184 CircleF
3616 3319 CircleF
5832 1616 CircleF
5953 1709 CircleF
1414 2252 CircleF
1626 2414 CircleF
1731 3804 CircleF
1870 3911 CircleF
6309 1016 CircleF
6488 1153 CircleF
5698 3557 CircleF
5922 3728 CircleF
2966 2021 CircleF
3129 2146 CircleF
5102 2457 CircleF
5277 2591 CircleF
4596 2480 CircleF
4754 2601 CircleF
3515 1243 CircleF
3726 1405 CircleF
1925 4092 CircleF
2090 4219 CircleF
4824 1468 CircleF
4977 1585 CircleF
6706 3048 CircleF
6894 3192 CircleF
2237 771 CircleF
2400 896 CircleF
5017 3163 CircleF
5198 3302 CircleF
3067 1366 CircleF
3278 1527 CircleF
3893 952 CircleF
4027 1055 CircleF
6367 3364 CircleF
6546 3502 CircleF
4371 495 CircleF
4513 603 CircleF
3722 4277 CircleF
3881 4399 CircleF
6608 1050 CircleF
6833 1222 CircleF
1086 4096 CircleF
1318 4273 CircleF
5002 790 CircleF
5164 914 CircleF
6329 670 CircleF
6510 810 CircleF
5716 3133 CircleF
5887 3265 CircleF
5269 1689 CircleF
5467 1841 CircleF
5926 769 CircleF
6145 938 CircleF
5471 3700 CircleF
5641 3830 CircleF
4386 818 CircleF
4534 932 CircleF
1473 2991 CircleF
1594 3084 CircleF
6084 1345 CircleF
6293 1505 CircleF
5217 4067 CircleF
5421 4224 CircleF
2068 1433 CircleF
2234 1561 CircleF
6050 4265 CircleF
6178 4363 CircleF
5447 3623 CircleF
5595 3737 CircleF
2391 4022 CircleF
2628 4205 CircleF
2163 4256 CircleF
2379 4423 CircleF
2875 2425 CircleF
3010 2528 CircleF
5470 1751 CircleF
5675 1908 CircleF
5174 3108 CircleF
5399 3281 CircleF
6529 2826 CircleF
6729 2980 CircleF
5815 4674 CircleF
6034 4842 CircleF
3599 1505 CircleF
3797 1656 CircleF
5307 4532 CircleF
5496 4677 CircleF
5014 4544 CircleF
5166 4661 CircleF
3087 3663 CircleF
3211 3757 CircleF
2069 3373 CircleF
2249 3511 CircleF
1104 3628 CircleF
1259 3747 CircleF
2766 2144 CircleF
2890 2240 CircleF
4641 1468 CircleF
4766 1564 CircleF
6040 4422 CircleF
6252 4585 CircleF
5031 2361 CircleF
5201 2492 CircleF
6366 2185 CircleF
6594 2360 CircleF
2946 331 CircleF
3090 441 CircleF
2804 1088 CircleF
2993 1233 CircleF
5801 980 CircleF
6033 1159 CircleF
1336 4366 CircleF
1490 4484 CircleF
5992 2686 CircleF
6190 2838 CircleF
2278 1538 CircleF
2451 1671 CircleF
6637 3757 CircleF
6793 3877 CircleF
4902 1192 CircleF
5056 1310 CircleF
5493 4289 CircleF
5687 4438 CircleF
1376 2404 CircleF
1527 2520 CircleF
6219 2196 CircleF
6437 2364 CircleF
6066 1574 CircleF
6272 1732 CircleF
1372 2680 CircleF
1509 2786 CircleF
5603 4611 CircleF
5732 4710 CircleF
6053 3541 CircleF
6226 3675 CircleF
3027 1382 CircleF
3202 1516 CircleF
4844 3775 CircleF
5013 3905 CircleF
4823 478 CircleF
4956 580 CircleF
4280 2017 CircleF
4433 2134 CircleF
3912 3476 CircleF
4075 3601 CircleF
3958 2292 CircleF
4145 2435 CircleF
4733 430 CircleF
4925 577 CircleF
2917 1661 CircleF
3109 1808 CircleF
6095 2252 CircleF
6321 2426 CircleF
1833 4406 CircleF
2001 4535 CircleF
5048 3190 CircleF
5239 3337 CircleF
2967 759 CircleF
3188 929 CircleF
1084 3058 CircleF
1257 3190 CircleF
1011 2132 CircleF
1145 2235 CircleF
6275 678 CircleF
6465 824 CircleF
6500 4565 CircleF
6700 4719 CircleF
4326 3835 CircleF
4553 4010 CircleF
2200 2426 CircleF
2436 2607 CircleF
3180 4133 CircleF
3301 4226 CircleF
5230 3095 CircleF
5364 3197 CircleF
4574 2615 CircleF
4750 2750 CircleF
3424 2153 CircleF
3583 2276 CircleF
1279 1219 CircleF
1444 1346 CircleF
2292 3441 CircleF
2491 3593 CircleF
5823 4159 CircleF
6045 4330 CircleF
4360 1970 CircleF
4505 2081 CircleF
1029 2307 CircleF
1213 2449 CircleF
5903 3192 CircleF
6093 3338 CircleF
6523 2293 CircleF
6733 2454 CircleF
1544 3239 CircleF
1779 3420 CircleF
3155 1941 CircleF
3287 2043 CircleF
3922 1125 CircleF
4110 1269 CircleF
2379 389 CircleF
2594 554 CircleF
4489 1186 CircleF
4647 1308 CircleF
2286 4040 CircleF
2488 4195 CircleF
4703 3125 CircleF
4871 3254 CircleF
4661 2719 CircleF
4841 2858 CircleF
6489 1983 CircleF
6695 2140 CircleF
3616 1236 CircleF
3844 1412 CircleF
6434 3327 CircleF
6639 3484 CircleF
4311 842 CircleF
4434 937 CircleF
3939 1435 CircleF
4142 1591 CircleF
6148 2119 CircleF
6352 2276 CircleF
3887 1759 CircleF
4033 1871 CircleF
6240 3202 CircleF
6468 3376 CircleF
3044 2858 CircleF
3255 3021 CircleF
4602 2856 CircleF
4768 2983 CircleF
2608 3253 CircleF
2748 3360 CircleF
5895 3456 CircleF
6027 3557 CircleF
5468 3968 CircleF
5611 4078 CircleF
1206 3535 CircleF
1392 3678 CircleF
4571 519 CircleF
4724 636 CircleF
1452 4272 CircleF
1595 4381 CircleF
2059 1899 CircleF
2183 1994 CircleF
2236 3390 CircleF
2472 3571 CircleF
1816 571 CircleF
2054 753 CircleF
3249 3108 CircleF
3385 3212 CircleF
3844 2094 CircleF
4071 2268 CircleF
3685 3718 CircleF
3855 3849 CircleF
3008 2525 CircleF
3186 2662 CircleF
3474 1043 CircleF
3653 1180 CircleF
1998 3032 CircleF
2199 3186 CircleF
6219 4506 CircleF
6346 4603 CircleF
4474 2803 CircleF
4666 2951 CircleF
1071 3356 CircleF
1217 3468 CircleF
2768 1500 CircleF
2994 1673 CircleF
3263 4101 CircleF
3426 4226 CircleF
3549 2112 CircleF
3709 2234 CircleF
2735 4473 CircleF
2910 4608 CircleF
3715 1940 CircleF
3932 2107 CircleF
3317 2136 CircleF
3460 2246 CircleF
5951 2651 CircleF
6126 2786 CircleF
4810 4686 CircleF
5006 4837 CircleF
1408 1824 CircleF
1608 1978 CircleF
3682 1631 CircleF
3874 1779 CircleF
2517 1897 CircleF
2716 2050 CircleF
3680 4610 CircleF
3890 4772 CircleF
6138 479 CircleF
6277 586 CircleF
6364 3252 CircleF
6541 3389 CircleF
5551 1690 CircleF
5680 1789 CircleF
4293 3755 CircleF
4480 3898 CircleF
2294 889 CircleF
2433 995 CircleF
1399 2654 CircleF
1617 2821 CircleF
3978 3901 CircleF
4188 4062 CircleF
5139 611 CircleF
5269 711 CircleF
3714 4299 CircleF
3871 4419 CircleF
1364 935 CircleF
1541 1071 CircleF
5915 1631 CircleF
6132 1797 CircleF
1307 3890 CircleF
1486 4028 CircleF
1452 828 CircleF
1636 969 CircleF
2492 2605 CircleF
2709 2773 CircleF
5579 2228 CircleF
5742 2353 CircleF
3492 3737 CircleF
3666 3871 CircleF
2293 1358 CircleF
2438 1470 CircleF
3937 2203 CircleF
4134 2355 CircleF
5748 4148 CircleF
5918 4279 CircleF
4604 1666 CircleF
4835 1843 CircleF
1794 4456 CircleF
1942 4570 CircleF
5337 3708 CircleF
5504 3836 CircleF
1756 963 CircleF
1979 1134 CircleF
3647 1969 CircleF
3772 2065 CircleF
5649 3078 CircleF
5875 3252 CircleF
2137 1631 CircleF
2352 1796 CircleF
4995 2016 CircleF
5120 2112 CircleF
2544 4459 CircleF
2723 4597 CircleF
6451 3274 CircleF
6583 3375 CircleF
2543 1572 CircleF
2753 1733 CircleF
5480 4206 CircleF
5713 4385 CircleF
4221 1385 CircleF
4432 1547 CircleF
3854 732 CircleF
4039 874 CircleF
5980 4107 CircleF
6150 4238 CircleF
3165 2818 CircleF
3309 2929 CircleF
5864 3555 CircleF
6051 3698 CircleF
1147 1143 CircleF
1366 1311 CircleF
2188 2585 CircleF
2324 2689 CircleF
2140 3629 CircleF
2364 3801 CircleF
5127 4526 CircleF
5333 4684 CircleF
3165 4322 CircleF
3349 4463 CircleF
3391 4363 CircleF
3544 4481 CircleF
5592 3496 CircleF
5772 3634 CircleF
5015 4609 CircleF
5235 4777 CircleF
1000 484 CircleF
1211 647 CircleF
6460 305 CircleF
6595 408 CircleF
6270 4048 CircleF
6508 4231 CircleF
3168 1552 CircleF
3289 1645 CircleF
5222 2950 CircleF
5431 3111 CircleF
1993 1814 CircleF
2114 1906 CircleF
5562 1163 CircleF
5764 1319 CircleF
3811 3988 CircleF
4017 4146 CircleF
4808 3243 CircleF
5005 3395 CircleF
5157 1625 CircleF
5360 1780 CircleF
1887 1182 CircleF
2040 1300 CircleF
6243 2517 CircleF
6371 2615 CircleF
4009 3849 CircleF
4195 3992 CircleF
5005 3523 CircleF
5196 3669 CircleF
1158 4489 CircleF
1303 4600 CircleF
4199 2262 CircleF
4361 2386 CircleF
6580 1686 CircleF
6809 1862 CircleF
4048 1145 CircleF
4267 1314 CircleF
3790 1384 CircleF
3949 1506 CircleF
6155 1324 CircleF
6384 1499 CircleF
4625 806 CircleF
4836 968 CircleF
4771 1382 CircleF
4991 1550 CircleF
6641 2225 CircleF
6859 2391 CircleF
4465 2470 CircleF
4640 2604 CircleF
2074 2652 CircleF
2223 2766 CircleF
5110 3672 CircleF
5264 3790 CircleF
5757 1975 CircleF
5926 2105 CircleF
3058 1650 CircleF
3262 1806 CircleF
5483 3831 CircleF
5691 3991 CircleF
2926 1611 CircleF
3157 1788 CircleF
2731 1442 CircleF
2852 1536 CircleF
6216 2430 CircleF
6424 2590 CircleF
4115 2262 CircleF
4314 2415 CircleF
4835 908 CircleF
4997 1033 CircleF
3040 773 CircleF
3246 931 CircleF
1703 2494 CircleF
1941 2677 CircleF
2346 1424 CircleF
2524 1560 CircleF
4744 1551 CircleF
4888 1661 CircleF
3578 2833 CircleF
3777 2986 CircleF
3170 3534 CircleF
3363 3683 CircleF
4659 3656 CircleF
4846 3800 CircleF
4606 1543 CircleF
4750 1654 CircleF
5338 4524 CircleF
5528 4670 CircleF
5111 3333 CircleF
5343 3511 CircleF
6347 4240 CircleF
6535 4385 CircleF
6031 4587 CircleF
6157 4683 CircleF
3991 2328 CircleF
4208 2495 CircleF
6356 737 CircleF
6516 860 CircleF
5078 4537 CircleF
5291 4700 CircleF
6043 1318 CircleF
6237 1467 CircleF
1943 4402 CircleF
2140 4553 CircleF
4820 1249 CircleF
5034 1414 CircleF
5546 2797 CircleF
5681 2901 CircleF
1271 4067 CircleF
1500 4242 CircleF
3633 2102 CircleF
3850 2269 CircleF
6108 1371 CircleF
6337 1547 CircleF
4691 3119 CircleF
4817 3217 CircleF
1764 774 CircleF
1895 874 CircleF
5726 4527 CircleF
5882 4647 CircleF
2559 971 CircleF
2777 1139 CircleF
4199 3697 CircleF
4423 3868 CircleF
5833 806 CircleF
5973 914 CircleF
5734 3519 CircleF
5871 3624 CircleF
5272 1132 CircleF
5487 1297 CircleF
6198 1402 CircleF
6406 1561 CircleF
1272 3897 CircleF
1415 4007 CircleF
5689 824 CircleF
5897 984 CircleF
5632 3064 CircleF
5843 3226 CircleF
4026 3505 CircleF
4253 3679 CircleF
6253 1928 CircleF
6402 2042 CircleF
4051 732 CircleF
4212 855 CircleF
6661 1982 CircleF
6820 2104 CircleF
2675 792 CircleF
2803 890 CircleF
1199 4140 CircleF
1419 4309 CircleF
4556 392 CircleF
4705 507 CircleF
2765 1148 CircleF
2893 1246 CircleF
6703 1261 CircleF
6901 1413 CircleF
2687 3965 CircleF
2863 4100 CircleF
5413 2985 CircleF
5559 3098 CircleF
1728 3538 CircleF
1941 3701 CircleF
6353 808 CircleF
6544 954 CircleF
2728 2574 CircleF
2960 2752 CircleF
4723 4565 CircleF
4925 4720 CircleF
1094 3496 CircleF
1282 3640 CircleF
3674 1573 CircleF
3838 1699 CircleF
2732 2940 CircleF
2968 3121 CircleF
4277 4261 CircleF
4426 4375 CircleF
5876 3733 CircleF
6057 3872 CircleF
6073 1262 CircleF
6196 1356 CircleF
5436 536 CircleF
5559 631 CircleF
5054 1686 CircleF
5253 1839 CircleF
6134 301 CircleF
6330 451 CircleF
3640 857 CircleF
3870 1033 CircleF
2988 3861 CircleF
3194 4019 CircleF
1538 768 CircleF
1669 869 CircleF
2288 2427 CircleF
2515 2601 CircleF
2940 2283 CircleF
3070 2382 CircleF
2667 1664 CircleF
2872 1822 CircleF
6330 3437 CircleF
6510 3575 CircleF
1172 2643 CircleF
1398 2816 CircleF
2315 2240 CircleF
2526 2401 CircleF
3258 3307 CircleF
3474 3473 CircleF
5709 1703 CircleF
5916 1862 CircleF
1591 788 CircleF
1754 914 CircleF
5250 2227 CircleF
5410 2349 CircleF
2177 4177 CircleF
2368 4324 CircleF
4398 3030 CircleF
4614 3196 CircleF
5889 1305 CircleF
6092 1461 CircleF
2260 4110 CircleF
2380 4202 CircleF
1275 3920 CircleF
1445 4050 CircleF
6046 1983 CircleF
6189 2092 CircleF
2791 3919 CircleF
2913 4013 CircleF
3765 2323 CircleF
3976 2484 CircleF
4815 3518 CircleF
4982 3646 CircleF
2362 2752 CircleF
2508 2864 CircleF
4599 3814 CircleF
4831 3991 CircleF
3863 2104 CircleF
4083 2272 CircleF
2674 1806 CircleF
2850 1942 CircleF
5078 1771 CircleF
5308 1948 CircleF
1127 672 CircleF
1342 837 CircleF
1471 2733 CircleF
1684 2896 CircleF
2089 3053 CircleF
2323 3233 CircleF
2486 2057 CircleF
2680 2205 CircleF
2389 4306 CircleF
2574 4449 CircleF
2870 2547 CircleF
3031 2670 CircleF
5071 2159 CircleF
5193 2252 CircleF
2555 3935 CircleF
2708 4053 CircleF
4879 476 CircleF
5009 576 CircleF
2021 1090 CircleF
2253 1268 CircleF
3669 794 CircleF
3799 894 CircleF
2908 3241 CircleF
3083 3376 CircleF
2944 1953 CircleF
3070 2050 CircleF
5009 4428 CircleF
5202 4576 CircleF
1609 1412 CircleF
1749 1519 CircleF
3720 1106 CircleF
3885 1232 CircleF
2303 4582 CircleF
2515 4744 CircleF
4646 1545 CircleF
4828 1685 CircleF
4756 799 CircleF
4899 909 CircleF
2878 1655 CircleF
3036 1776 CircleF
5900 3714 CircleF
6030 3814 CircleF
3277 1876 CircleF
3473 2027 CircleF
3969 1240 CircleF
4165 1390 CircleF
1874 2821 CircleF
2110 3002 CircleF
2751 773 CircleF
2901 887 CircleF
4369 2365 CircleF
4492 2460 CircleF
3904 969 CircleF
4026 1062 CircleF
2639 1704 CircleF
2840 1858 CircleF
1685 2298 CircleF
1916 2475 CircleF
3804 1660 CircleF
3999 1810 CircleF
4666 3099 CircleF
4853 3243 CircleF
6596 1394 CircleF
6722 1491 CircleF
2220 4669 CircleF
2392 4800 CircleF
4357 1625 CircleF
4580 1797 CircleF
6172 2264 CircleF
6400 2439 CircleF
4895 2869 CircleF
5041 2980 CircleF
5886 4576 CircleF
6031 4688 CircleF
5076 1316 CircleF
5231 1435 CircleF
6317 1803 CircleF
6446 1902 CircleF
1297 4209 CircleF
1463 4337 CircleF
2760 3914 CircleF
2935 4048 CircleF
2772 4000 CircleF
3008 4181 CircleF
2106 854 CircleF
2244 960 CircleF
4004 1913 CircleF
4139 2016 CircleF
1716 2145 CircleF
1893 2281 CircleF
6529 3400 CircleF
6729 3554 CircleF
4316 1088 CircleF
4541 1261 CircleF
4559 3885 CircleF
4784 4058 CircleF
1956 3129 CircleF
2166 3290 CircleF
4853 1360 CircleF
5014 1484 CircleF
4700 3808 CircleF
4929 3984 CircleF
2365 2209 CircleF
2528 2334 CircleF
3755 2646 CircleF
3915 2769 CircleF
2080 2762 CircleF
2316 2943 CircleF
3171 2738 CircleF
3383 2900 CircleF
3768 1234 CircleF
3910 1342 CircleF
2982 4674 CircleF
3150 4804 CircleF
5494 3551 CircleF
5619 3648 CircleF
2463 522 CircleF
2636 655 CircleF
1320 4319 CircleF
1547 4493 CircleF
2126 1231 CircleF
2313 1375 CircleF
2590 1094 CircleF
2776 1236 CircleF
5269 879 CircleF
5484 1044 CircleF
1132 1598 CircleF
1267 1702 CircleF
5087 2059 CircleF
5216 2157 CircleF
1612 1190 CircleF
1794 1330 CircleF
5496 3381 CircleF
5667 3512 CircleF
6016 2614 CircleF
6197 2753 CircleF
1112 1060 CircleF
1302 1205 CircleF
5035 1480 CircleF
5175 1587 CircleF
6069 881 CircleF
6238 1011 CircleF
6160 328 CircleF
6358 480 CircleF
5553 578 CircleF
5720 706 CircleF
1680 3245 CircleF
1835 3364 CircleF
1161 1586 CircleF
1328 1713 CircleF
2010 317 CircleF
2186 453 CircleF
3061 1112 CircleF
3283 1282 CircleF
4241 1499 CircleF
4367 1596 CircleF
2945 855 CircleF
3074 955 CircleF
6671 2592 CircleF
6898 2767 CircleF
2792 1247 CircleF
3009 1414 CircleF
5039 2423 CircleF
5232 2571 CircleF
4537 439 CircleF
4698 563 CircleF
2334 2058 CircleF
2464 2158 CircleF
6256 356 CircleF
6417 479 CircleF
4110 1001 CircleF
4342 1178 CircleF
6152 3693 CircleF
6293 3801 CircleF
1332 606 CircleF
1484 723 CircleF
6630 4357 CircleF
6853 4528 CircleF
6302 2396 CircleF
6472 2526 CircleF
5885 4291 CircleF
6084 4444 CircleF
3548 882 CircleF
3704 1002 CircleF
4465 4287 CircleF
4590 4383 CircleF
6602 3924 CircleF
6828 4098 CircleF
3597 4466 CircleF
3741 4576 CircleF
998 4233 CircleF
1146 4346 CircleF
4568 2389 CircleF
4696 2487 CircleF
1592 2969 CircleF
1809 3136 CircleF
5855 3363 CircleF
6071 3529 CircleF
6579 1655 CircleF
6747 1784 CircleF
5861 710 CircleF
6094 889 CircleF
2951 4475 CircleF
3178 4649 CircleF
2635 2688 CircleF
2778 2798 CircleF
3216 2256 CircleF
3355 2362 CircleF
5967 2928 CircleF
6152 3070 CircleF
5717 321 CircleF
5880 446 CircleF
4398 3266 CircleF
4614 3432 CircleF
4822 1129 CircleF
5024 1284 CircleF
2344 1109 CircleF
2510 1236 CircleF
5063 2497 CircleF
5281 2664 CircleF
4774 1908 CircleF
4985 2070 CircleF
3475 445 CircleF
3706 622 CircleF
3612 1147 CircleF
3838 1320 CircleF
2804 929 CircleF
2984 1067 CircleF
1296 1903 CircleF
1443 2015 CircleF
5859 2580 CircleF
6040 2718 CircleF
1608 4504 CircleF
1794 4647 CircleF
6209 4004 CircleF
6379 4134 CircleF
1334 1021 CircleF
1456 1114 CircleF
2538 2461 CircleF
2755 2628 CircleF
2992 3608 CircleF
3152 3731 CircleF
1331 783 CircleF
1497 911 CircleF
5998 2076 CircleF
6146 2189 CircleF
3329 3884 CircleF
3521 4032 CircleF
5484 1196 CircleF
5624 1304 CircleF
6307 4005 CircleF
6496 4151 CircleF
1620 1082 CircleF
1749 1181 CircleF
4570 334 CircleF
4693 428 CircleF
4928 2210 CircleF
5153 2383 CircleF
1074 2832 CircleF
1268 2981 CircleF
4992 3929 CircleF
5173 4068 CircleF
6373 748 CircleF
6543 879 CircleF
4073 1327 CircleF
4218 1438 CircleF
1312 3056 CircleF
1526 3220 CircleF
3245 3637 CircleF
3371 3734 CircleF
4414 1085 CircleF
4596 1225 CircleF
3466 3323 CircleF
3604 3429 CircleF
4739 651 CircleF
4863 746 CircleF
3897 3179 CircleF
4058 3303 CircleF
4608 3209 CircleF
4787 3347 CircleF
1243 3539 CircleF
1378 3642 CircleF
1139 957 CircleF
1342 1112 CircleF
2867 620 CircleF
3007 727 CircleF
1844 766 CircleF
2062 933 CircleF
4094 2165 CircleF
4315 2335 CircleF
5964 1614 CircleF
6091 1711 CircleF
6037 3909 CircleF
6218 4048 CircleF
2164 1836 CircleF
2303 1943 CircleF
2782 3863 CircleF
2933 3979 CircleF
1008 3558 CircleF
1172 3684 CircleF
4247 2797 CircleF
4435 2941 CircleF
3569 2807 CircleF
3747 2943 CircleF
4758 3481 CircleF
4943 3623 CircleF
1227 4266 CircleF
1399 4398 CircleF
1320 4298 CircleF
1554 4477 CircleF
5546 849 CircleF
5686 956 CircleF
6590 4641 CircleF
6807 4808 CircleF
6198 3963 CircleF
6426 4138 CircleF
5371 3167 CircleF
5582 3329 CircleF
4378 4539 CircleF
4516 4645 CircleF
1620 1712 CircleF
1747 1809 CircleF
5173 3143 CircleF
5336 3268 CircleF
2573 772 CircleF
2767 921 CircleF
3702 338 CircleF
3879 473 CircleF
2230 2498 CircleF
2371 2606 CircleF
5694 1783 CircleF
5831 1889 CircleF
3468 2728 CircleF
3665 2879 CircleF
6687 1525 CircleF
6815 1623 CircleF
6661 2765 CircleF
6878 2931 CircleF
4444 4590 CircleF
4596 4708 CircleF
1205 1836 CircleF
1351 1948 CircleF
5590 3676 CircleF
5751 3800 CircleF
2677 641 CircleF
2829 758 CircleF
2228 3689 CircleF
2443 3854 CircleF
1775 4566 CircleF
1965 4712 CircleF
5076 2905 CircleF
5204 3003 CircleF
2151 4165 CircleF
2317 4293 CircleF
4669 4367 CircleF
4880 4529 CircleF
5259 3485 CircleF
5496 3667 CircleF
3761 4627 CircleF
3950 4772 CircleF
6008 1235 CircleF
6147 1343 CircleF
6207 4093 CircleF
6341 4196 CircleF
6649 3218 CircleF
6792 3328 CircleF
5942 3564 CircleF
6172 3740 CircleF
2823 2802 CircleF
2977 2921 CircleF
3945 2337 CircleF
4108 2461 CircleF
3622 3296 CircleF
3830 3456 CircleF
3807 4196 CircleF
3999 4343 CircleF
3475 2421 CircleF
3639 2546 CircleF
3773 311 CircleF
3957 452 CircleF
4128 2424 CircleF
4301 2557 CircleF
5108 720 CircleF
5246 826 CircleF
5942 2788 CircleF
6124 2928 CircleF
6516 4458 CircleF
6710 4607 CircleF
5581 3920 CircleF
5772 4068 CircleF
2808 345 CircleF
3033 518 CircleF
2302 1007 CircleF
2432 1107 CircleF
3068 289 CircleF
3242 422 CircleF
4705 319 CircleF
4943 502 CircleF
1450 3785 CircleF
1583 3887 CircleF
1208 1575 CircleF
1417 1736 CircleF
3722 4177 CircleF
3911 4322 CircleF
4125 508 CircleF
4337 671 CircleF
6052 491 CircleF
6179 589 CircleF
4263 3177 CircleF
4405 3286 CircleF
3142 684 CircleF
3345 840 CircleF
3742 2056 CircleF
3960 2223 CircleF
3979 2037 CircleF
4180 2191 CircleF
4307 2035 CircleF
4482 2169 CircleF
4494 4212 CircleF
4635 4320 CircleF
1500 1417 CircleF
1649 1532 CircleF
5278 2567 CircleF
5463 2709 CircleF
2055 1213 CircleF
2255 1366 CircleF
1702 2183 CircleF
1935 2362 CircleF
1351 2611 CircleF
1493 2720 CircleF
2475 2852 CircleF
2610 2955 CircleF
5825 4310 CircleF
6029 4467 CircleF
1532 2640 CircleF
1661 2739 CircleF
2907 3324 CircleF
3069 3449 CircleF
4850 1552 CircleF
5020 1682 CircleF
2165 3806 CircleF
2383 3974 CircleF
6039 4283 CircleF
6198 4405 CircleF
3458 2614 CircleF
3606 2728 CircleF
5179 3091 CircleF
5405 3264 CircleF
2477 1885 CircleF
2611 1988 CircleF
5202 411 CircleF
5368 538 CircleF
2828 775 CircleF
3027 928 CircleF
5427 1496 CircleF
5600 1628 CircleF
2594 3682 CircleF
2796 3837 CircleF
3571 854 CircleF
3786 1019 CircleF
5750 979 CircleF
5942 1126 CircleF
2873 439 CircleF
3075 593 CircleF
3852 803 CircleF
4000 916 CircleF
3028 3784 CircleF
3265 3966 CircleF
3386 1108 CircleF
3591 1266 CircleF
3650 3935 CircleF
3814 4061 CircleF
4012 3875 CircleF
4137 3971 CircleF
3354 1171 CircleF
3573 1339 CircleF
6352 2951 CircleF
6496 3062 CircleF
2782 2951 CircleF
2984 3106 CircleF
6591 597 CircleF
6721 696 CircleF
3516 720 CircleF
3703 864 CircleF
1113 907 CircleF
1316 1063 CircleF
4062 1162 CircleF
4183 1255 CircleF
5702 3565 CircleF
5884 3704 CircleF
3386 2120 CircleF
3599 2283 CircleF
1202 4381 CircleF
1437 4562 CircleF
1786 1764 CircleF
2021 1945 CircleF
1908 3442 CircleF
2085 3577 CircleF
1956 4415 CircleF
2116 4538 CircleF
6278 1988 CircleF
6467 2132 CircleF
2883 883 CircleF
3090 1042 CircleF
5679 1804 CircleF
5851 1937 CircleF
6002 2819 CircleF
6135 2920 CircleF
5879 1397 CircleF
6099 1566 CircleF
1325 2512 CircleF
1538 2675 CircleF
5198 4258 CircleF
5353 4378 CircleF
2833 4330 CircleF
2957 4425 CircleF
1839 2839 CircleF
2052 3003 CircleF
6040 3699 CircleF
6240 3852 CircleF
1738 2923 CircleF
1932 3072 CircleF
5998 423 CircleF
6125 521 CircleF
4397 4186 CircleF
4534 4291 CircleF
4329 2206 CircleF
4456 2303 CircleF
5628 3753 CircleF
5755 3851 CircleF
2512 3081 CircleF
2676 3207 CircleF
3635 1626 CircleF
3792 1746 CircleF
3827 898 CircleF
3956 997 CircleF
2676 2941 CircleF
2809 3043 CircleF
2958 382 CircleF
3179 552 CircleF
1427 1853 CircleF
1649 2023 CircleF
1700 2237 CircleF
1901 2392 CircleF
4772 2182 CircleF
4989 2348 CircleF
1951 446 CircleF
2177 619 CircleF
3906 3631 CircleF
4132 3804 CircleF
6435 3676 CircleF
6673 3859 CircleF
3037 4163 CircleF
3270 4342 CircleF
5467 2687 CircleF
5619 2803 CircleF
1911 4567 CircleF
2076 4694 CircleF
2371 2565 CircleF
2572 2719 CircleF
1772 3397 CircleF
1961 3543 CircleF
4945 1555 CircleF
5075 1655 CircleF
3733 1278 CircleF
3922 1424 CircleF
6468 3611 CircleF
6691 3782 CircleF
1025 2262 CircleF
1260 2442 CircleF
1616 4592 CircleF
1806 4738 CircleF
1987 2859 CircleF
2125 2965 CircleF
1996 3785 CircleF
2232 3966 CircleF
5604 3529 CircleF
5836 3708 CircleF
6569 321 CircleF
6706 426 CircleF
2065 3004 CircleF
2185 3096 CircleF
6622 1942 CircleF
6759 2047 CircleF
3235 1136 CircleF
3405 1267 CircleF
3835 2589 CircleF
3979 2700 CircleF
2557 628 CircleF
2786 804 CircleF
4939 3760 CircleF
5079 3868 CircleF
1245 435 CircleF
1417 567 CircleF
5819 2741 CircleF
5999 2880 CircleF
3253 1825 CircleF
3483 2002 CircleF
2908 2201 CircleF
3119 2363 CircleF
4430 1643 CircleF
4572 1752 CircleF
1698 285 CircleF
1881 426 CircleF
1992 1133 CircleF
2141 1248 CircleF
1763 4670 CircleF
1969 4828 CircleF
5555 3212 CircleF
5726 3343 CircleF
2288 4352 CircleF
2463 4487 CircleF
4702 770 CircleF
4842 877 CircleF
5036 1504 CircleF
5207 1636 CircleF
4270 1140 CircleF
4501 1318 CircleF
1210 3829 CircleF
1397 3973 CircleF
2882 1484 CircleF
3096 1648 CircleF
2816 1802 CircleF
3036 1971 CircleF
2533 4056 CircleF
2671 4162 CircleF
6376 1397 CircleF
6575 1549 CircleF
4257 3032 CircleF
4469 3195 CircleF
1068 2671 CircleF
1236 2800 CircleF
4086 1891 CircleF
4245 2013 CircleF
2108 596 CircleF
2235 693 CircleF
2743 3004 CircleF
2908 3130 CircleF
6690 1794 CircleF
6885 1944 CircleF
5763 3894 CircleF
5916 4011 CircleF
3965 2597 CircleF
4121 2717 CircleF
1115 3452 CircleF
1347 3631 CircleF
2404 3091 CircleF
2529 3186 CircleF
1853 3584 CircleF
2087 3764 CircleF
% End plot #2
1.000 UP
1.000 UL
LT0
0.50 0.50 0.50 C stroke
grestore
end
showpage
%%Trailer
%%DocumentFonts: Helvetica
%%Pages: 1
