%!PS-Adobe-2.0
%%Title: out.ps
%%Creator: gnuplot 4.6 patchlevel 6
%%CreationDate: Fri May 29 02:37:48 2015
%%DocumentFonts: (atend)
%%BoundingBox: 50 50 554 770
%%Orientation: Landscape
%%Pages: (atend)
%%EndComments
%%BeginProlog
/gnudict 256 dict def
gnudict begin
%
% The following true/false flags may be edited by hand if desired.
% The unit line width and grayscale image gamma correction may also be changed.
%
/Color false def
/Blacktext false def
/Solid false def
/Dashlength 1 def
/Landscape true def
/Level1 false def
/Rounded false def
/ClipToBoundingBox false def
/SuppressPDFMark false def
/TransparentPatterns false def
/gnulinewidth 5.000 def
/userlinewidth gnulinewidth def
/Gamma 1.0 def
/BackgroundColor {-1.000 -1.000 -1.000} def
%
/vshift -46 def
/dl1 {
  10.0 Dashlength mul mul
  Rounded { currentlinewidth 0.75 mul sub dup 0 le { pop 0.01 } if } if
} def
/dl2 {
  10.0 Dashlength mul mul
  Rounded { currentlinewidth 0.75 mul add } if
} def
/hpt_ 31.5 def
/vpt_ 31.5 def
/hpt hpt_ def
/vpt vpt_ def
/doclip {
  ClipToBoundingBox {
    newpath 50 50 moveto 554 50 lineto 554 770 lineto 50 770 lineto closepath
    clip
  } if
} def
%
% Gnuplot Prolog Version 4.6 (September 2012)
%
%/SuppressPDFMark true def
%
/M {moveto} bind def
/L {lineto} bind def
/R {rmoveto} bind def
/V {rlineto} bind def
/N {newpath moveto} bind def
/Z {closepath} bind def
/C {setrgbcolor} bind def
/f {rlineto fill} bind def
/g {setgray} bind def
/Gshow {show} def   % May be redefined later in the file to support UTF-8
/vpt2 vpt 2 mul def
/hpt2 hpt 2 mul def
/Lshow {currentpoint stroke M 0 vshift R 
	Blacktext {gsave 0 setgray show grestore} {show} ifelse} def
/Rshow {currentpoint stroke M dup stringwidth pop neg vshift R
	Blacktext {gsave 0 setgray show grestore} {show} ifelse} def
/Cshow {currentpoint stroke M dup stringwidth pop -2 div vshift R 
	Blacktext {gsave 0 setgray show grestore} {show} ifelse} def
/UP {dup vpt_ mul /vpt exch def hpt_ mul /hpt exch def
  /hpt2 hpt 2 mul def /vpt2 vpt 2 mul def} def
/DL {Color {setrgbcolor Solid {pop []} if 0 setdash}
 {pop pop pop 0 setgray Solid {pop []} if 0 setdash} ifelse} def
/BL {stroke userlinewidth 2 mul setlinewidth
	Rounded {1 setlinejoin 1 setlinecap} if} def
/AL {stroke userlinewidth 2 div setlinewidth
	Rounded {1 setlinejoin 1 setlinecap} if} def
/UL {dup gnulinewidth mul /userlinewidth exch def
	dup 1 lt {pop 1} if 10 mul /udl exch def} def
/PL {stroke userlinewidth setlinewidth
	Rounded {1 setlinejoin 1 setlinecap} if} def
3.8 setmiterlimit
% Default Line colors
/LCw {1 1 1} def
/LCb {0 0 0} def
/LCa {0 0 0} def
/LC0 {1 0 0} def
/LC1 {0 1 0} def
/LC2 {0 0 1} def
/LC3 {1 0 1} def
/LC4 {0 1 1} def
/LC5 {1 1 0} def
/LC6 {0 0 0} def
/LC7 {1 0.3 0} def
/LC8 {0.5 0.5 0.5} def
% Default Line Types
/LTw {PL [] 1 setgray} def
/LTb {BL [] LCb DL} def
/LTa {AL [1 udl mul 2 udl mul] 0 setdash LCa setrgbcolor} def
/LT0 {PL [] LC0 DL} def
/LT1 {PL [4 dl1 2 dl2] LC1 DL} def
/LT2 {PL [2 dl1 3 dl2] LC2 DL} def
/LT3 {PL [1 dl1 1.5 dl2] LC3 DL} def
/LT4 {PL [6 dl1 2 dl2 1 dl1 2 dl2] LC4 DL} def
/LT5 {PL [3 dl1 3 dl2 1 dl1 3 dl2] LC5 DL} def
/LT6 {PL [2 dl1 2 dl2 2 dl1 6 dl2] LC6 DL} def
/LT7 {PL [1 dl1 2 dl2 6 dl1 2 dl2 1 dl1 2 dl2] LC7 DL} def
/LT8 {PL [2 dl1 2 dl2 2 dl1 2 dl2 2 dl1 2 dl2 2 dl1 4 dl2] LC8 DL} def
/Pnt {stroke [] 0 setdash gsave 1 setlinecap M 0 0 V stroke grestore} def
/Dia {stroke [] 0 setdash 2 copy vpt add M
  hpt neg vpt neg V hpt vpt neg V
  hpt vpt V hpt neg vpt V closepath stroke
  Pnt} def
/Pls {stroke [] 0 setdash vpt sub M 0 vpt2 V
  currentpoint stroke M
  hpt neg vpt neg R hpt2 0 V stroke
 } def
/Box {stroke [] 0 setdash 2 copy exch hpt sub exch vpt add M
  0 vpt2 neg V hpt2 0 V 0 vpt2 V
  hpt2 neg 0 V closepath stroke
  Pnt} def
/Crs {stroke [] 0 setdash exch hpt sub exch vpt add M
  hpt2 vpt2 neg V currentpoint stroke M
  hpt2 neg 0 R hpt2 vpt2 V stroke} def
/TriU {stroke [] 0 setdash 2 copy vpt 1.12 mul add M
  hpt neg vpt -1.62 mul V
  hpt 2 mul 0 V
  hpt neg vpt 1.62 mul V closepath stroke
  Pnt} def
/Star {2 copy Pls Crs} def
/BoxF {stroke [] 0 setdash exch hpt sub exch vpt add M
  0 vpt2 neg V hpt2 0 V 0 vpt2 V
  hpt2 neg 0 V closepath fill} def
/TriUF {stroke [] 0 setdash vpt 1.12 mul add M
  hpt neg vpt -1.62 mul V
  hpt 2 mul 0 V
  hpt neg vpt 1.62 mul V closepath fill} def
/TriD {stroke [] 0 setdash 2 copy vpt 1.12 mul sub M
  hpt neg vpt 1.62 mul V
  hpt 2 mul 0 V
  hpt neg vpt -1.62 mul V closepath stroke
  Pnt} def
/TriDF {stroke [] 0 setdash vpt 1.12 mul sub M
  hpt neg vpt 1.62 mul V
  hpt 2 mul 0 V
  hpt neg vpt -1.62 mul V closepath fill} def
/DiaF {stroke [] 0 setdash vpt add M
  hpt neg vpt neg V hpt vpt neg V
  hpt vpt V hpt neg vpt V closepath fill} def
/Pent {stroke [] 0 setdash 2 copy gsave
  translate 0 hpt M 4 {72 rotate 0 hpt L} repeat
  closepath stroke grestore Pnt} def
/PentF {stroke [] 0 setdash gsave
  translate 0 hpt M 4 {72 rotate 0 hpt L} repeat
  closepath fill grestore} def
/Circle {stroke [] 0 setdash 2 copy
  hpt 0 360 arc stroke Pnt} def
/CircleF {stroke [] 0 setdash hpt 0 360 arc fill} def
/C0 {BL [] 0 setdash 2 copy moveto vpt 90 450 arc} bind def
/C1 {BL [] 0 setdash 2 copy moveto
	2 copy vpt 0 90 arc closepath fill
	vpt 0 360 arc closepath} bind def
/C2 {BL [] 0 setdash 2 copy moveto
	2 copy vpt 90 180 arc closepath fill
	vpt 0 360 arc closepath} bind def
/C3 {BL [] 0 setdash 2 copy moveto
	2 copy vpt 0 180 arc closepath fill
	vpt 0 360 arc closepath} bind def
/C4 {BL [] 0 setdash 2 copy moveto
	2 copy vpt 180 270 arc closepath fill
	vpt 0 360 arc closepath} bind def
/C5 {BL [] 0 setdash 2 copy moveto
	2 copy vpt 0 90 arc
	2 copy moveto
	2 copy vpt 180 270 arc closepath fill
	vpt 0 360 arc} bind def
/C6 {BL [] 0 setdash 2 copy moveto
	2 copy vpt 90 270 arc closepath fill
	vpt 0 360 arc closepath} bind def
/C7 {BL [] 0 setdash 2 copy moveto
	2 copy vpt 0 270 arc closepath fill
	vpt 0 360 arc closepath} bind def
/C8 {BL [] 0 setdash 2 copy moveto
	2 copy vpt 270 360 arc closepath fill
	vpt 0 360 arc closepath} bind def
/C9 {BL [] 0 setdash 2 copy moveto
	2 copy vpt 270 450 arc closepath fill
	vpt 0 360 arc closepath} bind def
/C10 {BL [] 0 setdash 2 copy 2 copy moveto vpt 270 360 arc closepath fill
	2 copy moveto
	2 copy vpt 90 180 arc closepath fill
	vpt 0 360 arc closepath} bind def
/C11 {BL [] 0 setdash 2 copy moveto
	2 copy vpt 0 180 arc closepath fill
	2 copy moveto
	2 copy vpt 270 360 arc closepath fill
	vpt 0 360 arc closepath} bind def
/C12 {BL [] 0 setdash 2 copy moveto
	2 copy vpt 180 360 arc closepath fill
	vpt 0 360 arc closepath} bind def
/C13 {BL [] 0 setdash 2 copy moveto
	2 copy vpt 0 90 arc closepath fill
	2 copy moveto
	2 copy vpt 180 360 arc closepath fill
	vpt 0 360 arc closepath} bind def
/C14 {BL [] 0 setdash 2 copy moveto
	2 copy vpt 90 360 arc closepath fill
	vpt 0 360 arc} bind def
/C15 {BL [] 0 setdash 2 copy vpt 0 360 arc closepath fill
	vpt 0 360 arc closepath} bind def
/Rec {newpath 4 2 roll moveto 1 index 0 rlineto 0 exch rlineto
	neg 0 rlineto closepath} bind def
/Square {dup Rec} bind def
/Bsquare {vpt sub exch vpt sub exch vpt2 Square} bind def
/S0 {BL [] 0 setdash 2 copy moveto 0 vpt rlineto BL Bsquare} bind def
/S1 {BL [] 0 setdash 2 copy vpt Square fill Bsquare} bind def
/S2 {BL [] 0 setdash 2 copy exch vpt sub exch vpt Square fill Bsquare} bind def
/S3 {BL [] 0 setdash 2 copy exch vpt sub exch vpt2 vpt Rec fill Bsquare} bind def
/S4 {BL [] 0 setdash 2 copy exch vpt sub exch vpt sub vpt Square fill Bsquare} bind def
/S5 {BL [] 0 setdash 2 copy 2 copy vpt Square fill
	exch vpt sub exch vpt sub vpt Square fill Bsquare} bind def
/S6 {BL [] 0 setdash 2 copy exch vpt sub exch vpt sub vpt vpt2 Rec fill Bsquare} bind def
/S7 {BL [] 0 setdash 2 copy exch vpt sub exch vpt sub vpt vpt2 Rec fill
	2 copy vpt Square fill Bsquare} bind def
/S8 {BL [] 0 setdash 2 copy vpt sub vpt Square fill Bsquare} bind def
/S9 {BL [] 0 setdash 2 copy vpt sub vpt vpt2 Rec fill Bsquare} bind def
/S10 {BL [] 0 setdash 2 copy vpt sub vpt Square fill 2 copy exch vpt sub exch vpt Square fill
	Bsquare} bind def
/S11 {BL [] 0 setdash 2 copy vpt sub vpt Square fill 2 copy exch vpt sub exch vpt2 vpt Rec fill
	Bsquare} bind def
/S12 {BL [] 0 setdash 2 copy exch vpt sub exch vpt sub vpt2 vpt Rec fill Bsquare} bind def
/S13 {BL [] 0 setdash 2 copy exch vpt sub exch vpt sub vpt2 vpt Rec fill
	2 copy vpt Square fill Bsquare} bind def
/S14 {BL [] 0 setdash 2 copy exch vpt sub exch vpt sub vpt2 vpt Rec fill
	2 copy exch vpt sub exch vpt Square fill Bsquare} bind def
/S15 {BL [] 0 setdash 2 copy Bsquare fill Bsquare} bind def
/D0 {gsave translate 45 rotate 0 0 S0 stroke grestore} bind def
/D1 {gsave translate 45 rotate 0 0 S1 stroke grestore} bind def
/D2 {gsave translate 45 rotate 0 0 S2 stroke grestore} bind def
/D3 {gsave translate 45 rotate 0 0 S3 stroke grestore} bind def
/D4 {gsave translate 45 rotate 0 0 S4 stroke grestore} bind def
/D5 {gsave translate 45 rotate 0 0 S5 stroke grestore} bind def
/D6 {gsave translate 45 rotate 0 0 S6 stroke grestore} bind def
/D7 {gsave translate 45 rotate 0 0 S7 stroke grestore} bind def
/D8 {gsave translate 45 rotate 0 0 S8 stroke grestore} bind def
/D9 {gsave translate 45 rotate 0 0 S9 stroke grestore} bind def
/D10 {gsave translate 45 rotate 0 0 S10 stroke grestore} bind def
/D11 {gsave translate 45 rotate 0 0 S11 stroke grestore} bind def
/D12 {gsave translate 45 rotate 0 0 S12 stroke grestore} bind def
/D13 {gsave translate 45 rotate 0 0 S13 stroke grestore} bind def
/D14 {gsave translate 45 rotate 0 0 S14 stroke grestore} bind def
/D15 {gsave translate 45 rotate 0 0 S15 stroke grestore} bind def
/DiaE {stroke [] 0 setdash vpt add M
  hpt neg vpt neg V hpt vpt neg V
  hpt vpt V hpt neg vpt V closepath stroke} def
/BoxE {stroke [] 0 setdash exch hpt sub exch vpt add M
  0 vpt2 neg V hpt2 0 V 0 vpt2 V
  hpt2 neg 0 V closepath stroke} def
/TriUE {stroke [] 0 setdash vpt 1.12 mul add M
  hpt neg vpt -1.62 mul V
  hpt 2 mul 0 V
  hpt neg vpt 1.62 mul V closepath stroke} def
/TriDE {stroke [] 0 setdash vpt 1.12 mul sub M
  hpt neg vpt 1.62 mul V
  hpt 2 mul 0 V
  hpt neg vpt -1.62 mul V closepath stroke} def
/PentE {stroke [] 0 setdash gsave
  translate 0 hpt M 4 {72 rotate 0 hpt L} repeat
  closepath stroke grestore} def
/CircE {stroke [] 0 setdash 
  hpt 0 360 arc stroke} def
/Opaque {gsave closepath 1 setgray fill grestore 0 setgray closepath} def
/DiaW {stroke [] 0 setdash vpt add M
  hpt neg vpt neg V hpt vpt neg V
  hpt vpt V hpt neg vpt V Opaque stroke} def
/BoxW {stroke [] 0 setdash exch hpt sub exch vpt add M
  0 vpt2 neg V hpt2 0 V 0 vpt2 V
  hpt2 neg 0 V Opaque stroke} def
/TriUW {stroke [] 0 setdash vpt 1.12 mul add M
  hpt neg vpt -1.62 mul V
  hpt 2 mul 0 V
  hpt neg vpt 1.62 mul V Opaque stroke} def
/TriDW {stroke [] 0 setdash vpt 1.12 mul sub M
  hpt neg vpt 1.62 mul V
  hpt 2 mul 0 V
  hpt neg vpt -1.62 mul V Opaque stroke} def
/PentW {stroke [] 0 setdash gsave
  translate 0 hpt M 4 {72 rotate 0 hpt L} repeat
  Opaque stroke grestore} def
/CircW {stroke [] 0 setdash 
  hpt 0 360 arc Opaque stroke} def
/BoxFill {gsave Rec 1 setgray fill grestore} def
/Density {
  /Fillden exch def
  currentrgbcolor
  /ColB exch def /ColG exch def /ColR exch def
  /ColR ColR Fillden mul Fillden sub 1 add def
  /ColG ColG Fillden mul Fillden sub 1 add def
  /ColB ColB Fillden mul Fillden sub 1 add def
  ColR ColG ColB setrgbcolor} def
/BoxColFill {gsave Rec PolyFill} def
/PolyFill {gsave Density fill grestore grestore} def
/h {rlineto rlineto rlineto gsave closepath fill grestore} bind def
%
% PostScript Level 1 Pattern Fill routine for rectangles
% Usage: x y w h s a XX PatternFill
%	x,y = lower left corner of box to be filled
%	w,h = width and height of box
%	  a = angle in degrees between lines and x-axis
%	 XX = 0/1 for no/yes cross-hatch
%
/PatternFill {gsave /PFa [ 9 2 roll ] def
  PFa 0 get PFa 2 get 2 div add PFa 1 get PFa 3 get 2 div add translate
  PFa 2 get -2 div PFa 3 get -2 div PFa 2 get PFa 3 get Rec
  TransparentPatterns {} {gsave 1 setgray fill grestore} ifelse
  clip
  currentlinewidth 0.5 mul setlinewidth
  /PFs PFa 2 get dup mul PFa 3 get dup mul add sqrt def
  0 0 M PFa 5 get rotate PFs -2 div dup translate
  0 1 PFs PFa 4 get div 1 add floor cvi
	{PFa 4 get mul 0 M 0 PFs V} for
  0 PFa 6 get ne {
	0 1 PFs PFa 4 get div 1 add floor cvi
	{PFa 4 get mul 0 2 1 roll M PFs 0 V} for
 } if
  stroke grestore} def
%
/languagelevel where
 {pop languagelevel} {1} ifelse
 2 lt
	{/InterpretLevel1 true def}
	{/InterpretLevel1 Level1 def}
 ifelse
%
% PostScript level 2 pattern fill definitions
%
/Level2PatternFill {
/Tile8x8 {/PaintType 2 /PatternType 1 /TilingType 1 /BBox [0 0 8 8] /XStep 8 /YStep 8}
	bind def
/KeepColor {currentrgbcolor [/Pattern /DeviceRGB] setcolorspace} bind def
<< Tile8x8
 /PaintProc {0.5 setlinewidth pop 0 0 M 8 8 L 0 8 M 8 0 L stroke} 
>> matrix makepattern
/Pat1 exch def
<< Tile8x8
 /PaintProc {0.5 setlinewidth pop 0 0 M 8 8 L 0 8 M 8 0 L stroke
	0 4 M 4 8 L 8 4 L 4 0 L 0 4 L stroke}
>> matrix makepattern
/Pat2 exch def
<< Tile8x8
 /PaintProc {0.5 setlinewidth pop 0 0 M 0 8 L
	8 8 L 8 0 L 0 0 L fill}
>> matrix makepattern
/Pat3 exch def
<< Tile8x8
 /PaintProc {0.5 setlinewidth pop -4 8 M 8 -4 L
	0 12 M 12 0 L stroke}
>> matrix makepattern
/Pat4 exch def
<< Tile8x8
 /PaintProc {0.5 setlinewidth pop -4 0 M 8 12 L
	0 -4 M 12 8 L stroke}
>> matrix makepattern
/Pat5 exch def
<< Tile8x8
 /PaintProc {0.5 setlinewidth pop -2 8 M 4 -4 L
	0 12 M 8 -4 L 4 12 M 10 0 L stroke}
>> matrix makepattern
/Pat6 exch def
<< Tile8x8
 /PaintProc {0.5 setlinewidth pop -2 0 M 4 12 L
	0 -4 M 8 12 L 4 -4 M 10 8 L stroke}
>> matrix makepattern
/Pat7 exch def
<< Tile8x8
 /PaintProc {0.5 setlinewidth pop 8 -2 M -4 4 L
	12 0 M -4 8 L 12 4 M 0 10 L stroke}
>> matrix makepattern
/Pat8 exch def
<< Tile8x8
 /PaintProc {0.5 setlinewidth pop 0 -2 M 12 4 L
	-4 0 M 12 8 L -4 4 M 8 10 L stroke}
>> matrix makepattern
/Pat9 exch def
/Pattern1 {PatternBgnd KeepColor Pat1 setpattern} bind def
/Pattern2 {PatternBgnd KeepColor Pat2 setpattern} bind def
/Pattern3 {PatternBgnd KeepColor Pat3 setpattern} bind def
/Pattern4 {PatternBgnd KeepColor Landscape {Pat5} {Pat4} ifelse setpattern} bind def
/Pattern5 {PatternBgnd KeepColor Landscape {Pat4} {Pat5} ifelse setpattern} bind def
/Pattern6 {PatternBgnd KeepColor Landscape {Pat9} {Pat6} ifelse setpattern} bind def
/Pattern7 {PatternBgnd KeepColor Landscape {Pat8} {Pat7} ifelse setpattern} bind def
} def
%
%
%End of PostScript Level 2 code
%
/PatternBgnd {
  TransparentPatterns {} {gsave 1 setgray fill grestore} ifelse
} def
%
% Substitute for Level 2 pattern fill codes with
% grayscale if Level 2 support is not selected.
%
/Level1PatternFill {
/Pattern1 {0.250 Density} bind def
/Pattern2 {0.500 Density} bind def
/Pattern3 {0.750 Density} bind def
/Pattern4 {0.125 Density} bind def
/Pattern5 {0.375 Density} bind def
/Pattern6 {0.625 Density} bind def
/Pattern7 {0.875 Density} bind def
} def
%
% Now test for support of Level 2 code
%
Level1 {Level1PatternFill} {Level2PatternFill} ifelse
%
/Symbol-Oblique /Symbol findfont [1 0 .167 1 0 0] makefont
dup length dict begin {1 index /FID eq {pop pop} {def} ifelse} forall
currentdict end definefont pop
Level1 SuppressPDFMark or 
{} {
/SDict 10 dict def
systemdict /pdfmark known not {
  userdict /pdfmark systemdict /cleartomark get put
} if
SDict begin [
  /Title (out.ps)
  /Subject (gnuplot plot)
  /Creator (gnuplot 4.6 patchlevel 6)
  /Author (yani)
%  /Producer (gnuplot)
%  /Keywords ()
  /CreationDate (Fri May 29 02:37:48 2015)
  /DOCINFO pdfmark
end
} ifelse
end
%%EndProlog
%%Page: 1 1
gnudict begin
gsave
doclip
50 50 translate
0.100 0.100 scale
90 rotate
0 -5040 translate
0 setgray
newpath
(Helvetica) findfont 140 scalefont setfont
BackgroundColor 0 lt 3 1 roll 0 lt exch 0 lt or or not {gsave BackgroundColor C clippath fill grestore} if
1.000 UL
LT0
0.50 0.50 0.50 C 1.000 UL
LTa
0.50 0.50 0.50 C 966 280 M
5981 0 V
stroke
LT0
0.50 0.50 0.50 C 966 280 M
63 0 V
5918 0 R
-63 0 V
882 280 M
( 0) Rshow
1.000 UL
LT0
0.50 0.50 0.50 C 1.000 UL
LTa
0.50 0.50 0.50 C 966 372 M
5981 0 V
stroke
LT0
0.50 0.50 0.50 C 966 372 M
63 0 V
5918 0 R
-63 0 V
882 372 M
( 0.707106) Rshow
1.000 UL
LT0
0.50 0.50 0.50 C 1.000 UL
LTa
0.50 0.50 0.50 C 966 464 M
5981 0 V
stroke
LT0
0.50 0.50 0.50 C 966 464 M
63 0 V
5918 0 R
-63 0 V
882 464 M
( 1.41421) Rshow
1.000 UL
LT0
0.50 0.50 0.50 C 1.000 UL
LTa
0.50 0.50 0.50 C 966 555 M
5981 0 V
stroke
LT0
0.50 0.50 0.50 C 966 555 M
63 0 V
5918 0 R
-63 0 V
882 555 M
( 2.12132) Rshow
1.000 UL
LT0
0.50 0.50 0.50 C 1.000 UL
LTa
0.50 0.50 0.50 C 966 647 M
5981 0 V
stroke
LT0
0.50 0.50 0.50 C 966 647 M
63 0 V
5918 0 R
-63 0 V
882 647 M
( 2.82842) Rshow
1.000 UL
LT0
0.50 0.50 0.50 C 1.000 UL
LTa
0.50 0.50 0.50 C 966 739 M
5981 0 V
stroke
LT0
0.50 0.50 0.50 C 966 739 M
63 0 V
5918 0 R
-63 0 V
882 739 M
( 3.53553) Rshow
1.000 UL
LT0
0.50 0.50 0.50 C 1.000 UL
LTa
0.50 0.50 0.50 C 966 831 M
5981 0 V
stroke
LT0
0.50 0.50 0.50 C 966 831 M
63 0 V
5918 0 R
-63 0 V
882 831 M
( 4.24264) Rshow
1.000 UL
LT0
0.50 0.50 0.50 C 1.000 UL
LTa
0.50 0.50 0.50 C 966 923 M
5981 0 V
stroke
LT0
0.50 0.50 0.50 C 966 923 M
63 0 V
5918 0 R
-63 0 V
882 923 M
( 4.94974) Rshow
1.000 UL
LT0
0.50 0.50 0.50 C 1.000 UL
LTa
0.50 0.50 0.50 C 966 1015 M
5981 0 V
stroke
LT0
0.50 0.50 0.50 C 966 1015 M
63 0 V
5918 0 R
-63 0 V
-6002 0 R
( 5.65685) Rshow
1.000 UL
LT0
0.50 0.50 0.50 C 1.000 UL
LTa
0.50 0.50 0.50 C 966 1106 M
5981 0 V
stroke
LT0
0.50 0.50 0.50 C 966 1106 M
63 0 V
5918 0 R
-63 0 V
-6002 0 R
( 6.36395) Rshow
1.000 UL
LT0
0.50 0.50 0.50 C 1.000 UL
LTa
0.50 0.50 0.50 C 966 1198 M
5981 0 V
stroke
LT0
0.50 0.50 0.50 C 966 1198 M
63 0 V
5918 0 R
-63 0 V
-6002 0 R
( 7.07106) Rshow
1.000 UL
LT0
0.50 0.50 0.50 C 1.000 UL
LTa
0.50 0.50 0.50 C 966 1290 M
5981 0 V
stroke
LT0
0.50 0.50 0.50 C 966 1290 M
63 0 V
5918 0 R
-63 0 V
-6002 0 R
( 7.77817) Rshow
1.000 UL
LT0
0.50 0.50 0.50 C 1.000 UL
LTa
0.50 0.50 0.50 C 966 1382 M
5981 0 V
stroke
LT0
0.50 0.50 0.50 C 966 1382 M
63 0 V
5918 0 R
-63 0 V
-6002 0 R
( 8.48527) Rshow
1.000 UL
LT0
0.50 0.50 0.50 C 1.000 UL
LTa
0.50 0.50 0.50 C 966 1474 M
5981 0 V
stroke
LT0
0.50 0.50 0.50 C 966 1474 M
63 0 V
5918 0 R
-63 0 V
-6002 0 R
( 9.19238) Rshow
1.000 UL
LT0
0.50 0.50 0.50 C 1.000 UL
LTa
0.50 0.50 0.50 C 966 1565 M
5981 0 V
stroke
LT0
0.50 0.50 0.50 C 966 1565 M
63 0 V
5918 0 R
-63 0 V
-6002 0 R
( 9.89948) Rshow
1.000 UL
LT0
0.50 0.50 0.50 C 1.000 UL
LTa
0.50 0.50 0.50 C 966 1657 M
5981 0 V
stroke
LT0
0.50 0.50 0.50 C 966 1657 M
63 0 V
5918 0 R
-63 0 V
-6002 0 R
( 10.6066) Rshow
1.000 UL
LT0
0.50 0.50 0.50 C 1.000 UL
LTa
0.50 0.50 0.50 C 966 1749 M
5981 0 V
stroke
LT0
0.50 0.50 0.50 C 966 1749 M
63 0 V
5918 0 R
-63 0 V
-6002 0 R
( 11.3137) Rshow
1.000 UL
LT0
0.50 0.50 0.50 C 1.000 UL
LTa
0.50 0.50 0.50 C 966 1841 M
5981 0 V
stroke
LT0
0.50 0.50 0.50 C 966 1841 M
63 0 V
5918 0 R
-63 0 V
-6002 0 R
( 12.0208) Rshow
1.000 UL
LT0
0.50 0.50 0.50 C 1.000 UL
LTa
0.50 0.50 0.50 C 966 1933 M
5981 0 V
stroke
LT0
0.50 0.50 0.50 C 966 1933 M
63 0 V
5918 0 R
-63 0 V
-6002 0 R
( 12.7279) Rshow
1.000 UL
LT0
0.50 0.50 0.50 C 1.000 UL
LTa
0.50 0.50 0.50 C 966 2025 M
5981 0 V
stroke
LT0
0.50 0.50 0.50 C 966 2025 M
63 0 V
5918 0 R
-63 0 V
-6002 0 R
( 13.435) Rshow
1.000 UL
LT0
0.50 0.50 0.50 C 1.000 UL
LTa
0.50 0.50 0.50 C 966 2116 M
5981 0 V
stroke
LT0
0.50 0.50 0.50 C 966 2116 M
63 0 V
5918 0 R
-63 0 V
-6002 0 R
( 14.1421) Rshow
1.000 UL
LT0
0.50 0.50 0.50 C 1.000 UL
LTa
0.50 0.50 0.50 C 966 2208 M
5981 0 V
stroke
LT0
0.50 0.50 0.50 C 966 2208 M
63 0 V
5918 0 R
-63 0 V
-6002 0 R
( 14.8492) Rshow
1.000 UL
LT0
0.50 0.50 0.50 C 1.000 UL
LTa
0.50 0.50 0.50 C 966 2300 M
5981 0 V
stroke
LT0
0.50 0.50 0.50 C 966 2300 M
63 0 V
5918 0 R
-63 0 V
-6002 0 R
( 15.5563) Rshow
1.000 UL
LT0
0.50 0.50 0.50 C 1.000 UL
LTa
0.50 0.50 0.50 C 966 2392 M
5981 0 V
stroke
LT0
0.50 0.50 0.50 C 966 2392 M
63 0 V
5918 0 R
-63 0 V
-6002 0 R
( 16.2634) Rshow
1.000 UL
LT0
0.50 0.50 0.50 C 1.000 UL
LTa
0.50 0.50 0.50 C 966 2484 M
5981 0 V
stroke
LT0
0.50 0.50 0.50 C 966 2484 M
63 0 V
5918 0 R
-63 0 V
-6002 0 R
( 16.9705) Rshow
1.000 UL
LT0
0.50 0.50 0.50 C 1.000 UL
LTa
0.50 0.50 0.50 C 966 2575 M
5981 0 V
stroke
LT0
0.50 0.50 0.50 C 966 2575 M
63 0 V
5918 0 R
-63 0 V
-6002 0 R
( 17.6776) Rshow
1.000 UL
LT0
0.50 0.50 0.50 C 1.000 UL
LTa
0.50 0.50 0.50 C 966 2667 M
5981 0 V
stroke
LT0
0.50 0.50 0.50 C 966 2667 M
63 0 V
5918 0 R
-63 0 V
-6002 0 R
( 18.3848) Rshow
1.000 UL
LT0
0.50 0.50 0.50 C 1.000 UL
LTa
0.50 0.50 0.50 C 966 2759 M
5981 0 V
stroke
LT0
0.50 0.50 0.50 C 966 2759 M
63 0 V
5918 0 R
-63 0 V
-6002 0 R
( 19.0919) Rshow
1.000 UL
LT0
0.50 0.50 0.50 C 1.000 UL
LTa
0.50 0.50 0.50 C 966 2851 M
5981 0 V
stroke
LT0
0.50 0.50 0.50 C 966 2851 M
63 0 V
5918 0 R
-63 0 V
-6002 0 R
( 19.799) Rshow
1.000 UL
LT0
0.50 0.50 0.50 C 1.000 UL
LTa
0.50 0.50 0.50 C 966 2943 M
5981 0 V
stroke
LT0
0.50 0.50 0.50 C 966 2943 M
63 0 V
5918 0 R
-63 0 V
-6002 0 R
( 20.5061) Rshow
1.000 UL
LT0
0.50 0.50 0.50 C 1.000 UL
LTa
0.50 0.50 0.50 C 966 3035 M
5981 0 V
stroke
LT0
0.50 0.50 0.50 C 966 3035 M
63 0 V
5918 0 R
-63 0 V
-6002 0 R
( 21.2132) Rshow
1.000 UL
LT0
0.50 0.50 0.50 C 1.000 UL
LTa
0.50 0.50 0.50 C 966 3126 M
5981 0 V
stroke
LT0
0.50 0.50 0.50 C 966 3126 M
63 0 V
5918 0 R
-63 0 V
-6002 0 R
( 21.9203) Rshow
1.000 UL
LT0
0.50 0.50 0.50 C 1.000 UL
LTa
0.50 0.50 0.50 C 966 3218 M
5981 0 V
stroke
LT0
0.50 0.50 0.50 C 966 3218 M
63 0 V
5918 0 R
-63 0 V
-6002 0 R
( 22.6274) Rshow
1.000 UL
LT0
0.50 0.50 0.50 C 1.000 UL
LTa
0.50 0.50 0.50 C 966 3310 M
5981 0 V
stroke
LT0
0.50 0.50 0.50 C 966 3310 M
63 0 V
5918 0 R
-63 0 V
-6002 0 R
( 23.3345) Rshow
1.000 UL
LT0
0.50 0.50 0.50 C 1.000 UL
LTa
0.50 0.50 0.50 C 966 3402 M
5981 0 V
stroke
LT0
0.50 0.50 0.50 C 966 3402 M
63 0 V
5918 0 R
-63 0 V
-6002 0 R
( 24.0416) Rshow
1.000 UL
LT0
0.50 0.50 0.50 C 1.000 UL
LTa
0.50 0.50 0.50 C 966 3494 M
5981 0 V
stroke
LT0
0.50 0.50 0.50 C 966 3494 M
63 0 V
5918 0 R
-63 0 V
-6002 0 R
( 24.7487) Rshow
1.000 UL
LT0
0.50 0.50 0.50 C 1.000 UL
LTa
0.50 0.50 0.50 C 966 3586 M
5981 0 V
stroke
LT0
0.50 0.50 0.50 C 966 3586 M
63 0 V
5918 0 R
-63 0 V
-6002 0 R
( 25.4558) Rshow
1.000 UL
LT0
0.50 0.50 0.50 C 1.000 UL
LTa
0.50 0.50 0.50 C 966 3677 M
5981 0 V
stroke
LT0
0.50 0.50 0.50 C 966 3677 M
63 0 V
5918 0 R
-63 0 V
-6002 0 R
( 26.1629) Rshow
1.000 UL
LT0
0.50 0.50 0.50 C 1.000 UL
LTa
0.50 0.50 0.50 C 966 3769 M
5981 0 V
stroke
LT0
0.50 0.50 0.50 C 966 3769 M
63 0 V
5918 0 R
-63 0 V
-6002 0 R
( 26.87) Rshow
1.000 UL
LT0
0.50 0.50 0.50 C 1.000 UL
LTa
0.50 0.50 0.50 C 966 3861 M
5981 0 V
stroke
LT0
0.50 0.50 0.50 C 966 3861 M
63 0 V
5918 0 R
-63 0 V
-6002 0 R
( 27.5771) Rshow
1.000 UL
LT0
0.50 0.50 0.50 C 1.000 UL
LTa
0.50 0.50 0.50 C 966 3953 M
5981 0 V
stroke
LT0
0.50 0.50 0.50 C 966 3953 M
63 0 V
5918 0 R
-63 0 V
-6002 0 R
( 28.2842) Rshow
1.000 UL
LT0
0.50 0.50 0.50 C 1.000 UL
LTa
0.50 0.50 0.50 C 966 4045 M
5981 0 V
stroke
LT0
0.50 0.50 0.50 C 966 4045 M
63 0 V
5918 0 R
-63 0 V
-6002 0 R
( 28.9913) Rshow
1.000 UL
LT0
0.50 0.50 0.50 C 1.000 UL
LTa
0.50 0.50 0.50 C 966 4136 M
5981 0 V
stroke
LT0
0.50 0.50 0.50 C 966 4136 M
63 0 V
5918 0 R
-63 0 V
-6002 0 R
( 29.6985) Rshow
1.000 UL
LT0
0.50 0.50 0.50 C 1.000 UL
LTa
0.50 0.50 0.50 C 966 4228 M
5981 0 V
stroke
LT0
0.50 0.50 0.50 C 966 4228 M
63 0 V
5918 0 R
-63 0 V
-6002 0 R
( 30.4056) Rshow
1.000 UL
LT0
0.50 0.50 0.50 C 1.000 UL
LTa
0.50 0.50 0.50 C 966 4320 M
5981 0 V
stroke
LT0
0.50 0.50 0.50 C 966 4320 M
63 0 V
5918 0 R
-63 0 V
-6002 0 R
( 31.1127) Rshow
1.000 UL
LT0
0.50 0.50 0.50 C 1.000 UL
LTa
0.50 0.50 0.50 C 966 4412 M
5981 0 V
stroke
LT0
0.50 0.50 0.50 C 966 4412 M
63 0 V
5918 0 R
-63 0 V
-6002 0 R
( 31.8198) Rshow
1.000 UL
LT0
0.50 0.50 0.50 C 1.000 UL
LTa
0.50 0.50 0.50 C 966 4504 M
5981 0 V
stroke
LT0
0.50 0.50 0.50 C 966 4504 M
63 0 V
5918 0 R
-63 0 V
-6002 0 R
( 32.5269) Rshow
1.000 UL
LT0
0.50 0.50 0.50 C 1.000 UL
LTa
0.50 0.50 0.50 C 966 4596 M
5981 0 V
stroke
LT0
0.50 0.50 0.50 C 966 4596 M
63 0 V
5918 0 R
-63 0 V
-6002 0 R
( 33.234) Rshow
1.000 UL
LT0
0.50 0.50 0.50 C 1.000 UL
LTa
0.50 0.50 0.50 C 966 4687 M
5981 0 V
stroke
LT0
0.50 0.50 0.50 C 966 4687 M
63 0 V
5918 0 R
-63 0 V
-6002 0 R
( 33.9411) Rshow
1.000 UL
LT0
0.50 0.50 0.50 C 1.000 UL
LTa
0.50 0.50 0.50 C 966 4779 M
5981 0 V
stroke
LT0
0.50 0.50 0.50 C 966 4779 M
63 0 V
5918 0 R
-63 0 V
-6002 0 R
( 34.6482) Rshow
1.000 UL
LT0
0.50 0.50 0.50 C 1.000 UL
LTa
0.50 0.50 0.50 C 966 4871 M
5981 0 V
stroke
LT0
0.50 0.50 0.50 C 966 4871 M
63 0 V
5918 0 R
-63 0 V
-6002 0 R
( 35.3553) Rshow
1.000 UL
LT0
0.50 0.50 0.50 C 1.000 UL
LTa
0.50 0.50 0.50 C 966 280 M
0 4591 V
stroke
LT0
0.50 0.50 0.50 C 966 280 M
0 63 V
0 4528 R
0 -63 V
966 140 M
( 0) Cshow
1.000 UL
LT0
0.50 0.50 0.50 C 1.000 UL
LTa
0.50 0.50 0.50 C 1086 280 M
0 4591 V
stroke
LT0
0.50 0.50 0.50 C 1086 280 M
0 63 V
0 4528 R
0 -63 V
0 -4668 R
( 0.707106) Cshow
1.000 UL
LT0
0.50 0.50 0.50 C 1.000 UL
LTa
0.50 0.50 0.50 C 1205 280 M
0 4591 V
stroke
LT0
0.50 0.50 0.50 C 1205 280 M
0 63 V
0 4528 R
0 -63 V
0 -4668 R
( 1.41421) Cshow
1.000 UL
LT0
0.50 0.50 0.50 C 1.000 UL
LTa
0.50 0.50 0.50 C 1325 280 M
0 4591 V
stroke
LT0
0.50 0.50 0.50 C 1325 280 M
0 63 V
0 4528 R
0 -63 V
0 -4668 R
( 2.12132) Cshow
1.000 UL
LT0
0.50 0.50 0.50 C 1.000 UL
LTa
0.50 0.50 0.50 C 1444 280 M
0 4591 V
stroke
LT0
0.50 0.50 0.50 C 1444 280 M
0 63 V
0 4528 R
0 -63 V
0 -4668 R
( 2.82842) Cshow
1.000 UL
LT0
0.50 0.50 0.50 C 1.000 UL
LTa
0.50 0.50 0.50 C 1564 280 M
0 4591 V
stroke
LT0
0.50 0.50 0.50 C 1564 280 M
0 63 V
0 4528 R
0 -63 V
0 -4668 R
( 3.53553) Cshow
1.000 UL
LT0
0.50 0.50 0.50 C 1.000 UL
LTa
0.50 0.50 0.50 C 1684 280 M
0 4591 V
stroke
LT0
0.50 0.50 0.50 C 1684 280 M
0 63 V
0 4528 R
0 -63 V
0 -4668 R
( 4.24264) Cshow
1.000 UL
LT0
0.50 0.50 0.50 C 1.000 UL
LTa
0.50 0.50 0.50 C 1803 280 M
0 4591 V
stroke
LT0
0.50 0.50 0.50 C 1803 280 M
0 63 V
0 4528 R
0 -63 V
0 -4668 R
( 4.94974) Cshow
1.000 UL
LT0
0.50 0.50 0.50 C 1.000 UL
LTa
0.50 0.50 0.50 C 1923 280 M
0 4591 V
stroke
LT0
0.50 0.50 0.50 C 1923 280 M
0 63 V
0 4528 R
0 -63 V
0 -4668 R
( 5.65685) Cshow
1.000 UL
LT0
0.50 0.50 0.50 C 1.000 UL
LTa
0.50 0.50 0.50 C 2043 280 M
0 4591 V
stroke
LT0
0.50 0.50 0.50 C 2043 280 M
0 63 V
0 4528 R
0 -63 V
0 -4668 R
( 6.36395) Cshow
1.000 UL
LT0
0.50 0.50 0.50 C 1.000 UL
LTa
0.50 0.50 0.50 C 2162 280 M
0 4591 V
stroke
LT0
0.50 0.50 0.50 C 2162 280 M
0 63 V
0 4528 R
0 -63 V
0 -4668 R
( 7.07106) Cshow
1.000 UL
LT0
0.50 0.50 0.50 C 1.000 UL
LTa
0.50 0.50 0.50 C 2282 280 M
0 4591 V
stroke
LT0
0.50 0.50 0.50 C 2282 280 M
0 63 V
0 4528 R
0 -63 V
0 -4668 R
( 7.77817) Cshow
1.000 UL
LT0
0.50 0.50 0.50 C 1.000 UL
LTa
0.50 0.50 0.50 C 2401 280 M
0 4591 V
stroke
LT0
0.50 0.50 0.50 C 2401 280 M
0 63 V
0 4528 R
0 -63 V
0 -4668 R
( 8.48527) Cshow
1.000 UL
LT0
0.50 0.50 0.50 C 1.000 UL
LTa
0.50 0.50 0.50 C 2521 280 M
0 4591 V
stroke
LT0
0.50 0.50 0.50 C 2521 280 M
0 63 V
0 4528 R
0 -63 V
0 -4668 R
( 9.19238) Cshow
1.000 UL
LT0
0.50 0.50 0.50 C 1.000 UL
LTa
0.50 0.50 0.50 C 2641 280 M
0 4591 V
stroke
LT0
0.50 0.50 0.50 C 2641 280 M
0 63 V
0 4528 R
0 -63 V
0 -4668 R
( 9.89948) Cshow
1.000 UL
LT0
0.50 0.50 0.50 C 1.000 UL
LTa
0.50 0.50 0.50 C 2760 280 M
0 4591 V
stroke
LT0
0.50 0.50 0.50 C 2760 280 M
0 63 V
0 4528 R
0 -63 V
0 -4668 R
( 10.6066) Cshow
1.000 UL
LT0
0.50 0.50 0.50 C 1.000 UL
LTa
0.50 0.50 0.50 C 2880 280 M
0 4591 V
stroke
LT0
0.50 0.50 0.50 C 2880 280 M
0 63 V
0 4528 R
0 -63 V
0 -4668 R
( 11.3137) Cshow
1.000 UL
LT0
0.50 0.50 0.50 C 1.000 UL
LTa
0.50 0.50 0.50 C 3000 280 M
0 4591 V
stroke
LT0
0.50 0.50 0.50 C 3000 280 M
0 63 V
0 4528 R
0 -63 V
0 -4668 R
( 12.0208) Cshow
1.000 UL
LT0
0.50 0.50 0.50 C 1.000 UL
LTa
0.50 0.50 0.50 C 3119 280 M
0 4591 V
stroke
LT0
0.50 0.50 0.50 C 3119 280 M
0 63 V
0 4528 R
0 -63 V
0 -4668 R
( 12.7279) Cshow
1.000 UL
LT0
0.50 0.50 0.50 C 1.000 UL
LTa
0.50 0.50 0.50 C 3239 280 M
0 4591 V
stroke
LT0
0.50 0.50 0.50 C 3239 280 M
0 63 V
0 4528 R
0 -63 V
0 -4668 R
( 13.435) Cshow
1.000 UL
LT0
0.50 0.50 0.50 C 1.000 UL
LTa
0.50 0.50 0.50 C 3358 280 M
0 4591 V
stroke
LT0
0.50 0.50 0.50 C 3358 280 M
0 63 V
0 4528 R
0 -63 V
0 -4668 R
( 14.1421) Cshow
1.000 UL
LT0
0.50 0.50 0.50 C 1.000 UL
LTa
0.50 0.50 0.50 C 3478 280 M
0 4591 V
stroke
LT0
0.50 0.50 0.50 C 3478 280 M
0 63 V
0 4528 R
0 -63 V
0 -4668 R
( 14.8492) Cshow
1.000 UL
LT0
0.50 0.50 0.50 C 1.000 UL
LTa
0.50 0.50 0.50 C 3598 280 M
0 4591 V
stroke
LT0
0.50 0.50 0.50 C 3598 280 M
0 63 V
0 4528 R
0 -63 V
0 -4668 R
( 15.5563) Cshow
1.000 UL
LT0
0.50 0.50 0.50 C 1.000 UL
LTa
0.50 0.50 0.50 C 3717 280 M
0 4591 V
stroke
LT0
0.50 0.50 0.50 C 3717 280 M
0 63 V
0 4528 R
0 -63 V
0 -4668 R
( 16.2634) Cshow
1.000 UL
LT0
0.50 0.50 0.50 C 1.000 UL
LTa
0.50 0.50 0.50 C 3837 280 M
0 4591 V
stroke
LT0
0.50 0.50 0.50 C 3837 280 M
0 63 V
0 4528 R
0 -63 V
0 -4668 R
( 16.9705) Cshow
1.000 UL
LT0
0.50 0.50 0.50 C 1.000 UL
LTa
0.50 0.50 0.50 C 3956 280 M
0 4591 V
stroke
LT0
0.50 0.50 0.50 C 3956 280 M
0 63 V
0 4528 R
0 -63 V
0 -4668 R
( 17.6776) Cshow
1.000 UL
LT0
0.50 0.50 0.50 C 1.000 UL
LTa
0.50 0.50 0.50 C 4076 280 M
0 4591 V
stroke
LT0
0.50 0.50 0.50 C 4076 280 M
0 63 V
0 4528 R
0 -63 V
0 -4668 R
( 18.3848) Cshow
1.000 UL
LT0
0.50 0.50 0.50 C 1.000 UL
LTa
0.50 0.50 0.50 C 4196 280 M
0 4591 V
stroke
LT0
0.50 0.50 0.50 C 4196 280 M
0 63 V
0 4528 R
0 -63 V
0 -4668 R
( 19.0919) Cshow
1.000 UL
LT0
0.50 0.50 0.50 C 1.000 UL
LTa
0.50 0.50 0.50 C 4315 280 M
0 4591 V
stroke
LT0
0.50 0.50 0.50 C 4315 280 M
0 63 V
0 4528 R
0 -63 V
0 -4668 R
( 19.799) Cshow
1.000 UL
LT0
0.50 0.50 0.50 C 1.000 UL
LTa
0.50 0.50 0.50 C 4435 280 M
0 4591 V
stroke
LT0
0.50 0.50 0.50 C 4435 280 M
0 63 V
0 4528 R
0 -63 V
0 -4668 R
( 20.5061) Cshow
1.000 UL
LT0
0.50 0.50 0.50 C 1.000 UL
LTa
0.50 0.50 0.50 C 4555 280 M
0 4591 V
stroke
LT0
0.50 0.50 0.50 C 4555 280 M
0 63 V
0 4528 R
0 -63 V
0 -4668 R
( 21.2132) Cshow
1.000 UL
LT0
0.50 0.50 0.50 C 1.000 UL
LTa
0.50 0.50 0.50 C 4674 280 M
0 4591 V
stroke
LT0
0.50 0.50 0.50 C 4674 280 M
0 63 V
0 4528 R
0 -63 V
0 -4668 R
( 21.9203) Cshow
1.000 UL
LT0
0.50 0.50 0.50 C 1.000 UL
LTa
0.50 0.50 0.50 C 4794 280 M
0 4591 V
stroke
LT0
0.50 0.50 0.50 C 4794 280 M
0 63 V
0 4528 R
0 -63 V
0 -4668 R
( 22.6274) Cshow
1.000 UL
LT0
0.50 0.50 0.50 C 1.000 UL
LTa
0.50 0.50 0.50 C 4913 280 M
0 4591 V
stroke
LT0
0.50 0.50 0.50 C 4913 280 M
0 63 V
0 4528 R
0 -63 V
0 -4668 R
( 23.3345) Cshow
1.000 UL
LT0
0.50 0.50 0.50 C 1.000 UL
LTa
0.50 0.50 0.50 C 5033 280 M
0 4591 V
stroke
LT0
0.50 0.50 0.50 C 5033 280 M
0 63 V
0 4528 R
0 -63 V
0 -4668 R
( 24.0416) Cshow
1.000 UL
LT0
0.50 0.50 0.50 C 1.000 UL
LTa
0.50 0.50 0.50 C 5153 280 M
0 4591 V
stroke
LT0
0.50 0.50 0.50 C 5153 280 M
0 63 V
0 4528 R
0 -63 V
0 -4668 R
( 24.7487) Cshow
1.000 UL
LT0
0.50 0.50 0.50 C 1.000 UL
LTa
0.50 0.50 0.50 C 5272 280 M
0 4591 V
stroke
LT0
0.50 0.50 0.50 C 5272 280 M
0 63 V
0 4528 R
0 -63 V
0 -4668 R
( 25.4558) Cshow
1.000 UL
LT0
0.50 0.50 0.50 C 1.000 UL
LTa
0.50 0.50 0.50 C 5392 280 M
0 4591 V
stroke
LT0
0.50 0.50 0.50 C 5392 280 M
0 63 V
0 4528 R
0 -63 V
0 -4668 R
( 26.1629) Cshow
1.000 UL
LT0
0.50 0.50 0.50 C 1.000 UL
LTa
0.50 0.50 0.50 C 5512 280 M
0 4591 V
stroke
LT0
0.50 0.50 0.50 C 5512 280 M
0 63 V
0 4528 R
0 -63 V
0 -4668 R
( 26.87) Cshow
1.000 UL
LT0
0.50 0.50 0.50 C 1.000 UL
LTa
0.50 0.50 0.50 C 5631 280 M
0 4591 V
stroke
LT0
0.50 0.50 0.50 C 5631 280 M
0 63 V
0 4528 R
0 -63 V
0 -4668 R
( 27.5771) Cshow
1.000 UL
LT0
0.50 0.50 0.50 C 1.000 UL
LTa
0.50 0.50 0.50 C 5751 280 M
0 4591 V
stroke
LT0
0.50 0.50 0.50 C 5751 280 M
0 63 V
0 4528 R
0 -63 V
0 -4668 R
( 28.2842) Cshow
1.000 UL
LT0
0.50 0.50 0.50 C 1.000 UL
LTa
0.50 0.50 0.50 C 5870 280 M
0 4591 V
stroke
LT0
0.50 0.50 0.50 C 5870 280 M
0 63 V
0 4528 R
0 -63 V
0 -4668 R
( 28.9913) Cshow
1.000 UL
LT0
0.50 0.50 0.50 C 1.000 UL
LTa
0.50 0.50 0.50 C 5990 280 M
0 4591 V
stroke
LT0
0.50 0.50 0.50 C 5990 280 M
0 63 V
0 4528 R
0 -63 V
0 -4668 R
( 29.6985) Cshow
1.000 UL
LT0
0.50 0.50 0.50 C 1.000 UL
LTa
0.50 0.50 0.50 C 6110 280 M
0 4591 V
stroke
LT0
0.50 0.50 0.50 C 6110 280 M
0 63 V
0 4528 R
0 -63 V
0 -4668 R
( 30.4056) Cshow
1.000 UL
LT0
0.50 0.50 0.50 C 1.000 UL
LTa
0.50 0.50 0.50 C 6229 280 M
0 4591 V
stroke
LT0
0.50 0.50 0.50 C 6229 280 M
0 63 V
0 4528 R
0 -63 V
0 -4668 R
( 31.1127) Cshow
1.000 UL
LT0
0.50 0.50 0.50 C 1.000 UL
LTa
0.50 0.50 0.50 C 6349 280 M
0 4591 V
stroke
LT0
0.50 0.50 0.50 C 6349 280 M
0 63 V
0 4528 R
0 -63 V
0 -4668 R
( 31.8198) Cshow
1.000 UL
LT0
0.50 0.50 0.50 C 1.000 UL
LTa
0.50 0.50 0.50 C 6469 280 M
0 4591 V
stroke
LT0
0.50 0.50 0.50 C 6469 280 M
0 63 V
0 4528 R
0 -63 V
0 -4668 R
( 32.5269) Cshow
1.000 UL
LT0
0.50 0.50 0.50 C 1.000 UL
LTa
0.50 0.50 0.50 C 6588 280 M
0 4591 V
stroke
LT0
0.50 0.50 0.50 C 6588 280 M
0 63 V
0 4528 R
0 -63 V
0 -4668 R
( 33.234) Cshow
1.000 UL
LT0
0.50 0.50 0.50 C 1.000 UL
LTa
0.50 0.50 0.50 C 6708 280 M
0 4591 V
stroke
LT0
0.50 0.50 0.50 C 6708 280 M
0 63 V
0 4528 R
0 -63 V
0 -4668 R
( 33.9411) Cshow
1.000 UL
LT0
0.50 0.50 0.50 C 1.000 UL
LTa
0.50 0.50 0.50 C 6827 280 M
0 4591 V
stroke
LT0
0.50 0.50 0.50 C 6827 280 M
0 63 V
0 4528 R
0 -63 V
0 -4668 R
( 34.6482) Cshow
1.000 UL
LT0
0.50 0.50 0.50 C 1.000 UL
LTa
0.50 0.50 0.50 C 6947 280 M
0 4591 V
stroke
LT0
0.50 0.50 0.50 C 6947 280 M
0 63 V
0 4528 R
0 -63 V
0 -4668 R
( 35.3553) Cshow
1.000 UL
LT0
0.50 0.50 0.50 C 1.000 UL
LT0
0.50 0.50 0.50 C 966 4871 M
966 280 L
5981 0 V
0 4591 R
-5981 0 R
1.000 UP
stroke
LT0
0.50 0.50 0.50 C % Begin plot #1
1.500 UP
2.000 UL
LT0
0.00 0.00 1.00 C /Helvetica findfont 140 scalefont setfont
/vshift -46 def
1086 372 M
119 0 V
120 0 V
119 0 V
120 0 V
120 0 V
119 0 V
120 0 V
120 0 V
119 0 V
120 0 V
119 0 V
0 92 R
120 0 V
0 91 R
120 0 V
0 276 R
119 0 V
120 0 V
0 367 R
120 0 V
119 0 V
120 0 V
119 0 V
120 0 V
120 0 V
119 0 V
120 0 V
120 0 V
119 0 V
120 0 V
0 92 R
119 0 V
120 0 V
120 0 V
0 551 R
119 0 V
0 367 R
120 0 V
119 0 V
0 184 R
120 0 V
0 92 R
120 0 V
119 0 V
0 275 R
120 0 V
0 1377 R
120 0 V
0 92 R
119 0 V
120 0 V
119 0 V
120 0 V
0 368 R
120 0 V
119 0 V
120 0 V
120 0 V
119 0 V
120 0 V
119 0 V
0 91 R
120 0 V
966 280 M
120 0 V
0 92 V
1315 0 R
0 92 V
120 0 R
0 91 V
120 0 R
0 92 V
0 92 V
0 92 V
239 0 R
0 92 V
0 92 V
0 91 V
0 92 V
1316 0 R
0 92 V
359 0 R
0 92 V
0 92 V
0 91 V
0 92 V
0 92 V
0 92 V
119 0 R
0 92 V
0 92 V
0 91 V
0 92 V
239 0 R
0 92 V
0 92 V
120 0 R
0 92 V
239 0 R
0 92 V
0 91 V
0 92 V
120 0 R
0 92 V
stroke 5392 2851 M
0 92 V
0 92 V
0 91 V
0 92 V
0 92 V
0 92 V
0 92 V
0 92 V
0 91 V
0 92 V
0 92 V
0 92 V
0 92 V
0 91 V
120 0 R
0 92 V
478 0 R
0 92 V
0 92 V
0 92 V
0 92 V
837 0 R
0 91 V
120 92 R
0 92 V
0 -184 R
0 92 V
1086 372 CircleF
1205 372 CircleF
1205 372 CircleF
1325 372 CircleF
1325 372 CircleF
1444 372 CircleF
1444 372 CircleF
1564 372 CircleF
1564 372 CircleF
1684 372 CircleF
1684 372 CircleF
1803 372 CircleF
1803 372 CircleF
1923 372 CircleF
1923 372 CircleF
2043 372 CircleF
2043 372 CircleF
2162 372 CircleF
2162 372 CircleF
2282 372 CircleF
2282 372 CircleF
2401 372 CircleF
2401 464 CircleF
2521 464 CircleF
2521 555 CircleF
2641 555 CircleF
2641 831 CircleF
2760 831 CircleF
2760 831 CircleF
2880 831 CircleF
2880 1198 CircleF
3000 1198 CircleF
3000 1198 CircleF
3119 1198 CircleF
3119 1198 CircleF
3239 1198 CircleF
3239 1198 CircleF
3358 1198 CircleF
3358 1198 CircleF
3478 1198 CircleF
3478 1198 CircleF
3598 1198 CircleF
3598 1198 CircleF
3717 1198 CircleF
3717 1198 CircleF
3837 1198 CircleF
3837 1198 CircleF
3957 1198 CircleF
3957 1198 CircleF
4076 1198 CircleF
4076 1198 CircleF
4196 1198 CircleF
4196 1290 CircleF
4315 1290 CircleF
4315 1290 CircleF
4435 1290 CircleF
4435 1290 CircleF
4555 1290 CircleF
4555 1841 CircleF
4674 1841 CircleF
4674 2208 CircleF
4794 2208 CircleF
4794 2208 CircleF
4913 2208 CircleF
4913 2392 CircleF
5033 2392 CircleF
5033 2484 CircleF
5153 2484 CircleF
5153 2484 CircleF
5272 2484 CircleF
5272 2759 CircleF
5392 2759 CircleF
5392 4136 CircleF
5512 4136 CircleF
5512 4228 CircleF
5631 4228 CircleF
5631 4228 CircleF
5751 4228 CircleF
5751 4228 CircleF
5870 4228 CircleF
5870 4228 CircleF
5990 4228 CircleF
5990 4596 CircleF
6110 4596 CircleF
6110 4596 CircleF
6229 4596 CircleF
6229 4596 CircleF
6349 4596 CircleF
6349 4596 CircleF
6469 4596 CircleF
6469 4596 CircleF
6588 4596 CircleF
6588 4596 CircleF
6708 4596 CircleF
6708 4596 CircleF
6827 4596 CircleF
6827 4687 CircleF
6947 4687 CircleF
966 280 CircleF
1086 280 CircleF
1086 280 CircleF
1086 372 CircleF
2401 372 CircleF
2401 464 CircleF
2521 464 CircleF
2521 555 CircleF
2641 555 CircleF
2641 647 CircleF
2641 647 CircleF
2641 739 CircleF
2641 739 CircleF
2641 831 CircleF
2880 831 CircleF
2880 923 CircleF
2880 923 CircleF
2880 1015 CircleF
2880 1015 CircleF
2880 1106 CircleF
2880 1106 CircleF
2880 1198 CircleF
4196 1198 CircleF
4196 1290 CircleF
4555 1290 CircleF
4555 1382 CircleF
4555 1382 CircleF
4555 1474 CircleF
4555 1474 CircleF
4555 1565 CircleF
4555 1565 CircleF
4555 1657 CircleF
4555 1657 CircleF
4555 1749 CircleF
4555 1749 CircleF
4555 1841 CircleF
4674 1841 CircleF
4674 1933 CircleF
4674 1933 CircleF
4674 2025 CircleF
4674 2025 CircleF
4674 2116 CircleF
4674 2116 CircleF
4674 2208 CircleF
4913 2208 CircleF
4913 2300 CircleF
4913 2300 CircleF
4913 2392 CircleF
5033 2392 CircleF
5033 2484 CircleF
5272 2484 CircleF
5272 2576 CircleF
5272 2576 CircleF
5272 2667 CircleF
5272 2667 CircleF
5272 2759 CircleF
5392 2759 CircleF
5392 2851 CircleF
5392 2851 CircleF
5392 2943 CircleF
5392 2943 CircleF
5392 3035 CircleF
5392 3035 CircleF
5392 3126 CircleF
5392 3126 CircleF
5392 3218 CircleF
5392 3218 CircleF
5392 3310 CircleF
5392 3310 CircleF
5392 3402 CircleF
5392 3402 CircleF
5392 3494 CircleF
5392 3494 CircleF
5392 3586 CircleF
5392 3586 CircleF
5392 3677 CircleF
5392 3677 CircleF
5392 3769 CircleF
5392 3769 CircleF
5392 3861 CircleF
5392 3861 CircleF
5392 3953 CircleF
5392 3953 CircleF
5392 4045 CircleF
5392 4045 CircleF
5392 4136 CircleF
5512 4136 CircleF
5512 4228 CircleF
5990 4228 CircleF
5990 4320 CircleF
5990 4320 CircleF
5990 4412 CircleF
5990 4412 CircleF
5990 4504 CircleF
5990 4504 CircleF
5990 4596 CircleF
6827 4596 CircleF
6827 4687 CircleF
6947 4779 CircleF
6947 4871 CircleF
6947 4687 CircleF
6947 4779 CircleF
% End plot #1
% Begin plot #2
1.500 UP
2.000 UL
LT0
1.00 0.55 0.00 C /Helvetica findfont 140 scalefont setfont
2617 4028 M
202 155 V
1977 2676 M
178 137 V
3797 104 R
152 117 V
1459 2328 M
121 93 V
2775 3679 M
155 119 V
6123 2422 M
124 95 V
-187 927 R
215 165 V
2214 304 M
163 125 V
2200 3224 M
153 118 V
3782 3142 M
131 101 V
4103 779 M
163 125 V
801 1876 R
213 163 V
2136 3878 M
191 147 V
2224 972 M
210 161 V
6093 599 M
123 95 V
309 3286 R
198 153 V
6177 2397 M
130 99 V
2090 1962 M
142 109 V
3877 1855 M
120 92 V
5044 298 M
155 118 V
2145 3895 M
220 169 V
4321 -94 R
165 127 V
6703 3790 M
121 93 V
2585 561 M
234 180 V
5915 4357 M
189 145 V
1800 2141 M
138 106 V
2167 232 R
170 131 V
1620 891 M
193 149 V
1456 314 M
187 143 V
1506 4268 M
160 123 V
1399 1381 M
213 164 V
349 2886 R
127 97 V
5968 3041 M
191 148 V
24 977 R
124 95 V
1098 1525 M
125 96 V
4638 3319 M
229 176 V
2683 3716 M
205 157 V
2355 1751 M
132 101 V
2071 1274 M
192 148 V
5268 745 M
161 123 V
2512 2127 M
167 129 V
2219 872 R
124 96 V
6250 3009 M
203 156 V
-761 682 R
158 121 V
2716 2183 M
125 95 V
1602 3887 M
207 159 V
4051 642 M
222 171 V
3711 4047 M
175 134 V
6614 2698 M
136 104 V
4832 4267 M
213 164 V
2624 1696 M
174 134 V
2070 686 M
221 170 V
5056 2362 M
160 123 V
stroke 5216 2485 M
2662 2309 M
138 106 V
1573 646 R
186 143 V
3241 2744 M
185 142 V
906 909 R
141 107 V
1348 2732 M
168 129 V
6644 1716 M
158 122 V
5107 2712 M
178 136 V
1628 2532 M
186 143 V
3674 879 R
176 135 V
3443 3918 M
196 150 V
2276 1727 M
125 96 V
4920 4548 M
143 109 V
2780 667 M
234 179 V
1143 823 M
130 100 V
437 2226 R
236 181 V
3174 4363 M
147 113 V
1029 2434 M
143 109 V
5583 2237 M
135 103 V
648 1455 R
230 176 V
1904 2694 M
213 163 V
2460 1348 M
176 135 V
2105 3450 M
222 171 V
4856 2170 M
220 168 V
2792 1103 M
213 164 V
5633 635 M
220 169 V
4906 3241 M
211 162 V
759 1264 R
160 123 V
6004 2783 M
125 96 V
3256 1139 M
187 143 V
1950 749 R
140 109 V
3706 2416 M
225 173 V
2944 387 M
176 136 V
1355 378 M
126 96 V
-14 824 R
150 115 V
6540 367 M
227 174 V
4179 1495 M
214 164 V
3214 4261 M
209 161 V
2650 2771 M
202 155 V
4222 2510 M
214 164 V
5903 1105 M
177 135 V
5328 2738 M
162 124 V
3207 842 M
216 166 V
2424 2460 M
164 126 V
1294 613 M
128 99 V
1513 927 R
199 152 V
312 1395 R
176 135 V
3400 3011 M
144 111 V
3617 551 M
152 117 V
997 1430 R
204 157 V
4108 796 M
235 180 V
3045 4324 M
175 134 V
4569 829 M
200 153 V
stroke 4769 982 M
287 2089 R
131 101 V
5346 341 M
141 109 V
2685 3070 M
194 149 V
4 -2183 R
171 131 V
-998 392 R
215 165 V
4267 953 R
225 172 V
2258 2195 M
152 117 V
1801 1007 M
227 173 V
301 1177 R
189 145 V
1689 488 M
160 123 V
3287 2352 M
193 148 V
6418 4517 M
144 111 V
4085 4044 M
144 111 V
1480 3031 M
220 169 V
2987 2077 M
157 121 V
1505 3406 M
148 113 V
4064 2394 M
199 153 V
2753 1448 M
196 151 V
3919 878 M
200 154 V
2719 820 M
203 155 V
1329 3330 M
149 114 V
4649 4531 M
227 174 V
6071 1689 M
224 172 V
250 -78 R
224 172 V
3032 2938 M
156 120 V
2202 591 R
201 155 V
1899 2914 M
159 121 V
4639 4161 M
180 138 V
1403 1989 M
156 120 V
3801 450 M
169 130 V
3107 3445 M
193 149 V
1086 325 R
146 112 V
3811 1799 M
206 158 V
2027 344 R
158 122 V
1705 4164 M
212 163 V
4899 1974 M
162 124 V
6591 4212 M
125 97 V
5743 539 M
146 112 V
3276 1789 M
216 167 V
853 1027 R
197 152 V
973 -680 R
195 150 V
3358 1848 M
214 164 V
1597 941 R
141 108 V
4235 2571 M
175 134 V
1674 1218 M
137 105 V
5354 291 M
219 169 V
979 1055 R
153 118 V
1577 492 M
213 163 V
5083 4236 M
176 135 V
112 -103 R
140 108 V
6500 1446 M
154 118 V
6279 4364 M
196 151 V
stroke 6475 4515 M
2430 3334 M
143 110 V
688 356 R
177 136 V
5666 1896 M
237 182 V
4131 2624 M
153 118 V
-10 898 R
169 130 V
945 2 R
171 132 V
6488 1406 M
170 130 V
5669 2958 M
237 181 V
725 -66 R
230 176 V
1502 450 M
140 108 V
2519 23 R
147 113 V
882 1543 R
170 130 V
5976 521 M
141 109 V
57 971 R
187 143 V
1158 540 M
179 137 V
1665 773 R
131 100 V
1496 2736 M
135 104 V
1205 456 R
209 160 V
4794 3258 M
173 133 V
3888 718 M
166 127 V
2881 4374 M
184 140 V
1158 881 M
193 148 V
5316 2763 M
234 179 V
2602 2688 M
122 94 V
3787 1112 M
154 118 V
344 3180 R
139 107 V
6270 3171 M
124 95 V
3391 2965 M
145 110 V
99 -1923 R
127 98 V
2068 619 M
135 103 V
289 3442 R
211 162 V
1306 3805 M
221 170 V
4776 617 M
190 146 V
2061 3169 M
167 128 V
5766 2997 M
231 177 V
664 1395 R
147 113 V
5568 2502 M
144 110 V
5049 1808 M
150 115 V
1503 3368 M
122 94 V
5805 507 M
161 124 V
332 47 R
121 93 V
3571 1195 M
196 151 V
1090 1579 M
144 111 V
2500 617 M
120 92 V
717 816 R
149 114 V
2961 303 R
142 109 V
5938 3074 M
238 183 V
295 978 R
204 156 V
4411 1686 M
176 136 V
5065 498 M
192 147 V
1599 494 M
197 151 V
-481 431 R
229 177 V
stroke 1544 1253 M
3201 2812 M
209 160 V
701 130 R
177 136 V
1792 -59 R
170 130 V
3809 836 M
128 98 V
1437 1539 M
190 145 V
5637 2708 M
194 149 V
-5 -1232 R
171 132 V
3484 2858 M
176 135 V
4927 2379 M
201 154 V
1159 307 M
174 133 V
1789 283 M
204 157 V
6357 2318 M
223 171 V
5494 772 M
196 150 V
-162 314 R
222 171 V
-12 2672 R
228 176 V
6168 1289 M
162 124 V
-1533 44 R
167 128 V
3684 4636 M
234 180 V
984 -477 R
225 173 V
2496 2877 M
133 102 V
1110 21 R
158 121 V
97 -1585 R
227 175 V
1751 3816 M
123 94 V
5095 1374 M
159 122 V
6327 849 M
174 135 V
3386 4160 M
169 130 V
6328 1769 M
138 106 V
4718 322 M
160 122 V
374 2948 R
190 146 V
3228 2479 M
186 143 V
2846 4326 M
143 110 V
3542 1250 M
149 115 V
4772 3008 M
164 126 V
634 -79 R
230 176 V
3326 3977 M
197 151 V
5190 487 M
227 174 V
2581 763 M
179 137 V
5355 4103 M
214 165 V
3060 4213 M
190 146 V
6250 4186 M
162 124 V
1792 2288 M
207 159 V
5673 979 M
125 96 V
81 2538 R
171 131 V
2441 2887 M
223 171 V
2290 2843 M
136 105 V
5204 1565 M
191 146 V
2715 3942 M
207 159 V
6405 3320 M
190 145 V
1758 3163 M
208 160 V
5271 2673 M
200 154 V
2924 2568 M
131 101 V
6041 4029 M
163 125 V
stroke 6204 4154 M
3746 1596 M
177 135 V
6666 3110 M
204 158 V
4977 2355 M
163 125 V
491 -162 R
229 176 V
-754 -44 R
144 110 V
2318 4437 M
213 163 V
4404 2692 M
188 143 V
4486 2240 M
122 93 V
2720 2751 M
133 103 V
1545 336 M
130 100 V
3294 1564 M
131 100 V
817 728 R
180 138 V
3651 791 M
180 138 V
5853 4384 M
221 169 V
1374 2306 M
213 163 V
301 -183 R
202 155 V
3215 306 R
170 131 V
717 1612 R
139 106 V
1613 1604 M
163 125 V
573 2342 R
157 120 V
1050 3267 M
132 102 V
2537 1688 M
175 134 V
4314 3817 M
186 143 V
6001 2545 M
226 173 V
2278 3454 M
167 128 V
1559 770 R
183 141 V
131 -557 R
126 97 V
3919 631 M
169 130 V
5902 908 M
146 112 V
125 736 R
133 102 V
3303 1522 M
215 165 V
1852 2339 M
234 180 V
4401 4074 M
128 98 V
1862 851 M
236 181 V
6585 4323 M
136 104 V
980 3519 M
205 157 V
696 -629 R
165 126 V
5780 2383 M
189 145 V
3511 3235 M
236 181 V
4441 575 M
167 129 V
5941 4608 M
204 157 V
4568 927 M
169 130 V
1079 228 R
223 172 V
59 48 R
153 118 V
1833 2791 M
152 117 V
2556 30 R
123 94 V
1057 4535 M
154 119 V
1514 611 M
225 172 V
713 3147 R
173 133 V
1128 497 R
238 183 V
6703 2489 M
146 112 V
1246 3158 M
142 109 V
stroke 1388 3267 M
5277 4594 M
203 155 V
6542 2017 M
120 92 V
3758 313 M
127 97 V
1310 633 M
217 167 V
3116 3 R
200 153 V
519 2221 R
220 168 V
4623 1246 M
155 119 V
3435 1308 M
216 166 V
4705 862 M
195 149 V
5672 690 M
168 129 V
1390 2316 M
171 132 V
5502 3924 M
166 128 V
4751 2595 M
162 125 V
1527 4546 M
138 106 V
1409 947 M
149 114 V
4800 3646 M
162 124 V
2740 3412 M
150 115 V
5964 4565 M
182 140 V
-77 -182 R
186 142 V
4661 348 M
155 120 V
1302 569 M
212 162 V
6210 1776 M
187 143 V
2333 558 M
173 132 V
4633 3709 M
147 114 V
3062 1941 M
131 101 V
6446 4663 M
133 102 V
4174 1273 M
169 130 V
1985 380 M
157 120 V
3253 938 R
134 103 V
5795 972 M
124 94 V
4153 1318 M
144 111 V
2831 878 M
192 147 V
997 1731 R
126 97 V
-1081 36 R
172 132 V
6155 579 M
140 107 V
-74 556 R
189 146 V
3727 2801 M
149 115 V
6241 3986 M
142 109 V
4074 4030 M
203 156 V
1289 2298 M
123 95 V
6164 461 M
190 147 V
2656 3095 M
201 154 V
3887 860 M
188 145 V
5138 993 M
150 115 V
1608 4521 M
180 138 V
5578 4110 M
162 124 V
2079 1717 M
210 161 V
-46 1642 R
173 133 V
6696 896 M
194 149 V
2367 2938 M
179 137 V
3850 4671 M
205 157 V
1238 1548 M
123 94 V
stroke 1361 1642 M
1095 3596 M
162 125 V
1119 266 R
182 139 V
560 311 R
128 98 V
2361 1902 M
206 158 V
54 30 R
139 107 V
2785 963 R
236 181 V
3736 1166 M
161 123 V
1702 495 R
230 177 V
2334 3294 M
210 162 V
1421 3107 M
213 164 V
6007 4580 M
177 135 V
5274 4594 M
210 162 V
6485 3727 M
213 163 V
5735 1816 M
208 160 V
1962 332 M
130 100 V
1145 2045 M
160 123 V
6588 1360 M
183 140 V
4073 4280 M
227 173 V
6252 3587 M
231 177 V
1281 973 M
156 120 V
4164 827 R
164 126 V
4596 4563 M
215 165 V
3267 3181 M
214 164 V
4048 742 M
188 145 V
5407 4260 M
193 148 V
5879 2019 M
173 133 V
429 1866 R
188 144 V
5878 3906 M
169 130 V
2280 2273 M
159 122 V
1083 1824 M
197 151 V
4405 1230 M
187 144 V
1242 1757 M
215 164 V
3324 4009 M
138 105 V
-635 431 R
187 144 V
1495 2064 M
211 161 V
3832 379 R
229 177 V
2307 865 M
235 180 V
1016 418 R
208 159 V
5375 3262 M
226 173 V
3364 327 M
170 130 V
6705 3100 M
204 156 V
4529 2080 M
226 174 V
3987 782 M
158 121 V
3015 1902 M
172 132 V
-52 -673 R
185 143 V
-84 -231 R
121 93 V
141 2088 R
232 178 V
1942 2302 M
147 113 V
-33 -601 R
183 141 V
1021 4307 M
146 112 V
4046 2234 M
199 153 V
6167 1303 M
230 177 V
stroke 6397 1480 M
4733 2516 M
170 131 V
-160 921 R
203 155 V
1710 3873 M
131 100 V
2665 2269 M
185 142 V
2019 290 M
148 113 V
6220 2848 M
145 111 V
1021 2885 M
195 150 V
3128 2415 M
224 172 V
2511 -14 R
186 143 V
4677 3653 M
129 99 V
3665 1681 M
191 147 V
5290 2923 M
123 95 V
-1550 17 R
137 105 V
5772 4685 M
222 171 V
5673 3416 M
138 106 V
5233 2008 M
195 149 V
1608 2745 M
151 116 V
5544 927 M
217 167 V
3059 4421 M
191 147 V
5768 685 M
191 146 V
4625 1838 M
143 110 V
4259 4397 M
173 132 V
2554 2892 M
161 124 V
1220 704 M
167 128 V
3585 2671 M
159 122 V
1888 273 R
124 95 V
1510 3498 M
208 159 V
5487 1908 M
190 146 V
1383 2500 M
205 157 V
-29 585 R
225 173 V
2737 700 R
134 103 V
1803 1157 M
202 154 V
1041 300 R
199 152 V
4371 3751 M
184 141 V
3394 2956 M
162 124 V
4988 2968 M
217 166 V
5073 1547 M
237 181 V
2592 3467 M
153 117 V
2077 2722 M
127 98 V
4441 2640 M
232 178 V
2016 4003 M
161 124 V
1332 36 R
198 152 V
1529 2974 M
180 138 V
970 -181 R
191 146 V
1040 3331 M
211 162 V
1864 352 M
204 156 V
4347 799 M
169 129 V
940 3351 R
233 180 V
1555 746 M
128 98 V
1515 429 M
169 129 V
2422 400 M
125 96 V
6066 3584 M
191 146 V
stroke 6257 3730 M
6433 1686 M
185 142 V
4423 3487 M
145 111 V
2923 1261 M
212 163 V
5638 344 M
201 154 V
2801 2807 M
131 101 V
6332 1574 M
150 114 V
4857 3941 M
186 143 V
1447 3662 M
181 139 V
5404 1987 M
130 99 V
4231 479 M
128 99 V
2368 1078 M
134 102 V
3995 801 M
189 145 V
449 3418 R
177 136 V
1867 603 M
233 179 V
4884 2319 M
209 161 V
4131 4092 M
198 152 V
6100 1913 M
183 140 V
6088 537 M
190 146 V
3814 3452 M
198 152 V
4982 1707 M
168 129 V
3075 1177 M
205 157 V
5191 2890 M
125 96 V
1982 3813 M
199 153 V
1215 954 M
124 95 V
6652 2482 M
183 141 V
2573 2327 M
176 136 V
2662 1144 M
224 172 V
-16 3351 R
200 154 V
4609 3526 M
161 124 V
-81 304 R
159 122 V
6413 1424 M
174 133 V
4003 4283 M
179 137 V
1642 3235 M
174 133 V
1122 496 R
159 122 V
303 -566 R
211 162 V
6496 2425 M
123 94 V
3226 2703 M
210 162 V
5099 1662 M
220 168 V
-231 611 R
195 149 V
830 -161 R
142 109 V
1217 2380 M
133 102 V
5653 4182 M
215 165 V
6696 2735 M
133 102 V
3293 1453 M
221 169 V
1626 1763 M
182 139 V
5059 3201 M
209 161 V
3239 538 M
158 121 V
5634 2673 M
211 161 V
2195 784 M
167 128 V
5228 2009 M
126 98 V
4236 4251 M
144 111 V
281 -683 R
139 107 V
stroke 4800 3786 M
1184 1046 M
197 151 V
341 927 R
202 155 V
6060 1214 M
235 181 V
3158 3436 M
209 161 V
1419 360 M
135 103 V
2778 805 R
124 95 V
2118 831 R
144 110 V
2278 1636 M
177 137 V
1 -183 R
233 179 V
5938 1599 M
139 106 V
5116 1178 M
213 163 V
4063 3052 M
173 133 V
3151 1281 M
180 138 V
2203 1354 M
198 152 V
6063 2589 M
121 92 V
5673 819 M
129 99 V
3537 4138 M
237 181 V
2272 946 M
139 107 V
3966 2180 M
190 145 V
2527 466 R
215 165 V
2143 2733 M
201 154 V
725 -216 R
196 151 V
674 -821 R
178 138 V
2529 2746 M
145 112 V
2569 746 M
162 124 V
3868 943 R
177 136 V
3415 4324 M
156 120 V
6100 2866 M
189 145 V
1677 4139 M
185 142 V
3637 1717 M
227 175 V
-589 760 R
213 163 V
1650 2385 M
202 155 V
5904 2356 M
188 144 V
580 1843 R
169 131 V
4538 2895 M
209 161 V
1957 3392 M
141 109 V
-535 -43 R
219 168 V
3322 1863 M
136 105 V
6141 1371 M
148 114 V
2953 1422 M
142 109 V
4289 3767 M
188 144 V
349 -386 R
216 166 V
4320 814 M
130 99 V
5960 4321 M
168 130 V
2591 2246 M
222 171 V
2460 428 M
177 136 V
4539 1720 M
235 181 V
1809 3286 M
121 93 V
3622 641 R
136 105 V
1901 361 M
199 152 V
5185 2623 M
201 154 V
-87 574 R
186 143 V
stroke 5485 3494 M
6170 1254 M
210 161 V
3984 395 M
181 139 V
3344 3827 M
219 169 V
1380 3707 M
234 180 V
4083 2123 M
189 146 V
3079 2510 M
132 100 V
3822 1131 M
167 128 V
2923 1518 M
214 164 V
5232 4030 M
160 122 V
1568 3622 M
176 134 V
4856 3489 M
222 171 V
1436 3105 M
151 116 V
4847 183 R
197 151 V
4933 1681 M
146 112 V
2988 3384 M
136 104 V
1800 2410 M
158 121 V
4711 2152 M
161 124 V
837 1829 R
221 170 V
971 434 M
120 92 V
2123 1687 M
186 142 V
2460 649 R
152 116 V
3342 3009 M
154 119 V
4570 1834 M
204 157 V
1283 2354 M
174 134 V
1295 1611 M
157 121 V
494 1091 R
138 106 V
4815 653 M
182 139 V
3510 1929 M
148 113 V
2921 491 R
218 168 V
4076 2463 M
128 99 V
-2258 8 R
130 100 V
3607 671 M
193 149 V
928 1673 R
146 112 V
630 535 R
159 122 V
5516 1330 M
226 173 V
1659 1001 M
215 165 V
4047 70 R
143 110 V
2678 1819 M
128 98 V
2236 3057 M
161 123 V
4793 3039 M
176 135 V
6521 2417 M
134 103 V
2737 1416 M
182 140 V
1656 1119 M
231 177 V
1623 3189 M
133 103 V
6460 3042 M
215 165 V
983 713 M
160 123 V
5230 740 R
123 95 V
5850 4275 M
217 167 V
6704 1796 M
233 179 V
1432 534 M
155 120 V
3593 17 R
131 100 V
1903 3647 M
147 113 V
stroke 2050 3760 M
1735 1215 M
209 160 V
1176 900 M
209 161 V
5950 4477 M
228 175 V
1145 2409 M
120 92 V
6396 770 M
202 154 V
1088 2597 M
131 101 V
3912 3752 M
162 124 V
1801 3468 M
226 174 V
2391 431 M
230 176 V
-38 1977 R
217 167 V
260 1531 R
157 120 V
577 -567 R
131 101 V
1063 888 M
219 168 V
252 230 R
196 150 V
789 -65 R
238 183 V
1381 755 R
121 93 V
5506 4311 M
169 130 V
3298 4638 M
154 118 V
2101 1458 M
223 170 V
-110 254 R
167 129 V
6471 454 M
142 108 V
5811 1884 M
152 116 V
3668 3477 M
124 95 V
4917 3412 M
211 162 V
4151 1900 M
206 158 V
3724 4131 M
167 128 V
4604 742 M
121 93 V
901 2047 R
167 128 V
1707 977 M
215 164 V
6571 3597 M
192 147 V
1503 1540 M
164 127 V
3149 4301 M
224 171 V
1454 1834 M
132 101 V
3921 520 M
143 110 V
5775 3937 M
237 182 V
4385 4684 M
204 157 V
6113 2276 M
228 174 V
4453 405 M
162 125 V
1515 1836 M
224 172 V
3705 983 M
129 100 V
1479 3083 M
158 122 V
6553 2093 M
142 109 V
5673 4395 M
196 151 V
1735 4370 M
170 130 V
4308 1175 M
227 174 V
4994 336 M
219 168 V
1625 4144 M
136 104 V
4788 3850 M
144 110 V
2094 4278 M
229 175 V
3365 712 M
130 100 V
2684 795 M
165 127 V
1078 2525 M
124 95 V
stroke 1202 2620 M
6468 2313 M
226 173 V
1630 1149 M
136 104 V
6666 4562 M
237 182 V
2860 3363 M
152 117 V
4743 2726 M
148 114 V
3074 1589 M
194 150 V
-354 210 R
153 118 V
1913 335 R
161 123 V
2358 1135 M
235 180 V
2735 929 M
222 170 V
6161 2982 M
151 116 V
5247 1488 M
189 144 V
2157 2026 M
236 181 V
55 423 R
220 169 V
3109 1089 M
150 115 V
4776 2999 M
156 120 V
1639 4670 M
147 113 V
988 850 M
139 106 V
26 -607 R
223 171 V
3542 3689 M
144 110 V
3645 1726 M
186 143 V
1903 41 R
121 93 V
0 494 R
207 159 V
466 -719 R
186 143 V
5242 1832 M
234 180 V
3030 4183 M
181 138 V
4886 2892 M
166 128 V
4042 2600 M
212 163 V
6018 2110 M
227 174 V
4192 4493 M
184 141 V
2696 2613 M
192 148 V
6567 1226 M
205 158 V
5603 2112 M
168 129 V
-497 501 R
215 164 V
2550 4658 M
198 152 V
5267 3266 M
199 152 V
3162 1173 M
217 167 V
2931 532 M
192 148 V
227 464 R
169 129 V
6321 971 M
203 156 V
1283 1238 M
231 177 V
1160 539 R
211 163 V
2476 4456 M
179 137 V
395 -301 R
135 105 V
2514 1995 M
120 93 V
1156 266 R
153 118 V
555 1408 R
221 170 V
2533 3659 M
157 120 V
265 -109 R
127 98 V
2617 2405 M
184 142 V
5594 904 M
229 176 V
-326 614 R
229 176 V
stroke 5726 1870 M
1581 3835 M
207 159 V
4386 880 M
130 100 V
6068 4576 M
152 116 V
3752 2892 M
233 179 V
1108 575 R
160 122 V
3869 1084 M
164 127 V
5228 3174 M
171 131 V
4315 1262 M
130 100 V
1117 -57 R
124 95 V
3728 630 M
191 147 V
2261 4526 M
122 93 V
1077 2656 M
159 122 V
1516 788 R
201 154 V
843 521 R
229 176 V
5413 497 M
212 163 V
1949 315 M
170 131 V
6299 1561 M
132 101 V
190 2745 R
210 161 V
4954 1781 M
162 124 V
1541 4087 M
126 97 V
2974 1414 M
180 138 V
3010 782 R
197 151 V
2985 1583 M
130 100 V
4319 883 M
174 134 V
1249 3384 M
143 110 V
5027 1337 M
167 128 V
2011 3642 M
165 127 V
1659 2829 M
186 143 V
1646 4418 M
168 129 V
3635 3339 M
127 98 V
6282 1204 M
202 154 V
3484 2060 M
201 154 V
3021 671 M
140 107 V
4011 578 M
135 103 V
691 2738 R
122 93 V
1237 2280 M
121 92 V
4037 2095 M
184 141 V
1848 2757 M
179 138 V
1153 1308 M
181 139 V
4799 320 R
221 170 V
2970 1177 M
230 176 V
2200 2024 M
216 165 V
1274 3016 M
191 147 V
1673 179 R
152 117 V
2979 93 R
197 151 V
4723 1496 M
122 94 V
2613 3136 M
192 147 V
-789 786 R
205 157 V
3289 1872 M
212 163 V
503 508 R
216 166 V
3457 3804 M
175 134 V
880 -718 R
219 168 V
stroke 4731 3388 M
2813 1485 M
152 116 V
2689 3917 M
137 105 V
4397 1735 M
179 137 V
1924 856 M
122 94 V
5792 3246 M
166 127 V
2280 3147 M
191 146 V
3469 2282 M
149 115 V
2158 1564 M
127 97 V
3691 4202 M
156 119 V
6676 1279 M
172 132 V
5937 4323 M
207 158 V
6678 3463 M
130 99 V
5021 1333 M
195 150 V
1108 1982 M
209 160 V
5666 1111 M
121 93 V
3902 1070 M
147 113 V
2129 3441 M
184 141 V
-5 150 R
180 138 V
5014 513 M
171 131 V
-3 1531 R
213 163 V
3860 3053 M
140 107 V
-779 277 R
194 148 V
3895 2211 M
236 182 V
-109 491 R
189 145 V
5657 1693 M
186 143 V
-1676 9 R
125 96 V
3777 1117 M
122 94 V
1185 3321 M
220 169 V
3269 2093 M
219 167 V
-415 948 R
174 134 V
5572 2860 M
171 131 V
1861 3953 M
135 104 V
6560 2271 M
154 118 V
3806 1528 M
122 93 V
754 1143 R
178 136 V
1164 108 R
130 100 V
3152 2695 M
201 155 V
-10 -8 R
229 176 V
2235 3481 M
184 141 V
-294 892 R
180 138 V
4614 3613 M
160 122 V
3030 3921 M
199 152 V
4760 1483 M
217 166 V
3901 3127 M
229 175 V
1070 658 R
198 151 V
2512 1394 M
153 117 V
5222 1266 M
153 117 V
4279 3028 M
198 152 V
847 -441 R
171 130 V
3602 2644 M
182 140 V
801 -899 R
225 173 V
3936 4615 M
194 150 V
stroke 4130 4765 M
3343 883 M
227 174 V
3018 4075 M
177 136 V
100 -683 R
164 126 V
2724 522 M
208 160 V
4614 3904 M
162 124 V
6186 2934 M
139 106 V
4604 4133 M
208 160 V
6246 2599 M
121 93 V
4116 3667 M
209 161 V
1258 3684 M
235 180 V
1106 3070 M
142 109 V
5264 602 R
120 93 V
4450 1641 M
202 155 V
2029 2659 M
158 121 V
1783 4051 M
197 151 V
5858 2368 M
137 105 V
2603 3739 M
162 125 V
6557 2983 M
163 126 V
6073 4684 M
165 127 V
5424 2820 M
143 110 V
6232 586 M
137 105 V
6073 887 M
200 154 V
4993 2365 M
173 133 V
6490 2174 M
155 119 V
4874 3185 M
237 182 V
77 188 R
135 103 V
5897 2110 M
232 178 V
-83 -103 R
193 149 V
2772 3861 M
226 173 V
1378 3127 M
225 174 V
1078 1252 M
226 173 V
3721 805 M
175 134 V
816 1261 R
167 128 V
3651 2460 M
128 98 V
6158 527 M
158 122 V
-98 1685 R
181 139 V
-921 125 R
189 145 V
1124 781 M
208 160 V
3876 4574 M
174 134 V
5057 286 M
191 146 V
6590 1806 M
164 125 V
1376 286 M
237 182 V
3643 3150 M
150 115 V
6185 1342 M
204 156 V
5929 3999 M
237 182 V
1502 542 M
170 130 V
5156 3281 M
174 134 V
967 1671 M
147 112 V
4783 937 M
140 107 V
4235 2825 M
235 181 V
1084 413 M
195 149 V
680 9 R
229 176 V
stroke 2188 747 M
1437 4375 M
185 142 V
4927 61 R
176 136 V
2134 3114 M
173 132 V
6387 2826 M
202 155 V
5214 1443 M
173 132 V
1101 3206 M
126 97 V
1782 807 M
232 178 V
4171 3463 M
197 152 V
1136 528 R
169 130 V
5511 331 M
148 113 V
4584 3863 M
140 108 V
4574 692 M
138 106 V
3164 1331 M
211 162 V
487 1833 R
147 113 V
5835 799 M
128 99 V
2617 4028 CircleF
2819 4183 CircleF
1977 2676 CircleF
2155 2813 CircleF
5952 2917 CircleF
6104 3034 CircleF
1459 2328 CircleF
1580 2421 CircleF
2775 3679 CircleF
2930 3798 CircleF
6123 2422 CircleF
6247 2517 CircleF
6060 3444 CircleF
6275 3609 CircleF
2214 304 CircleF
2377 429 CircleF
2200 3224 CircleF
2353 3342 CircleF
3782 3142 CircleF
3913 3243 CircleF
4103 779 CircleF
4266 904 CircleF
5067 2780 CircleF
5280 2943 CircleF
2136 3878 CircleF
2327 4025 CircleF
2224 972 CircleF
2434 1133 CircleF
6093 599 CircleF
6216 694 CircleF
6525 3980 CircleF
6723 4133 CircleF
6177 2397 CircleF
6307 2496 CircleF
2090 1962 CircleF
2232 2071 CircleF
3877 1855 CircleF
3997 1947 CircleF
5044 298 CircleF
5199 416 CircleF
2145 3895 CircleF
2365 4064 CircleF
6686 3970 CircleF
6851 4097 CircleF
6703 3790 CircleF
6824 3883 CircleF
2585 561 CircleF
2819 741 CircleF
5915 4357 CircleF
6104 4502 CircleF
1800 2141 CircleF
1938 2247 CircleF
4105 2479 CircleF
4275 2610 CircleF
1620 891 CircleF
1813 1040 CircleF
1456 314 CircleF
1643 457 CircleF
1506 4268 CircleF
1666 4391 CircleF
1399 1381 CircleF
1612 1545 CircleF
1961 4431 CircleF
2088 4528 CircleF
5968 3041 CircleF
6159 3189 CircleF
6183 4166 CircleF
6307 4261 CircleF
1098 1525 CircleF
1223 1621 CircleF
4638 3319 CircleF
4867 3495 CircleF
2683 3716 CircleF
2888 3873 CircleF
2355 1751 CircleF
2487 1852 CircleF
2071 1274 CircleF
2263 1422 CircleF
5268 745 CircleF
5429 868 CircleF
2512 2127 CircleF
2679 2256 CircleF
4898 3128 CircleF
5022 3224 CircleF
6250 3009 CircleF
6453 3165 CircleF
5692 3847 CircleF
5850 3968 CircleF
2716 2183 CircleF
2841 2278 CircleF
1602 3887 CircleF
1809 4046 CircleF
4051 642 CircleF
4273 813 CircleF
3711 4047 CircleF
3886 4181 CircleF
6614 2698 CircleF
6750 2802 CircleF
4832 4267 CircleF
5045 4431 CircleF
2624 1696 CircleF
2798 1830 CircleF
2070 686 CircleF
2291 856 CircleF
5056 2362 CircleF
5216 2485 CircleF
2662 2309 CircleF
2800 2415 CircleF
4373 3061 CircleF
4559 3204 CircleF
3241 2744 CircleF
3426 2886 CircleF
4332 3795 CircleF
4473 3902 CircleF
1348 2732 CircleF
1516 2861 CircleF
6644 1716 CircleF
6802 1838 CircleF
5107 2712 CircleF
5285 2848 CircleF
1628 2532 CircleF
1814 2675 CircleF
5488 3554 CircleF
5664 3689 CircleF
3443 3918 CircleF
3639 4068 CircleF
2276 1727 CircleF
2401 1823 CircleF
4920 4548 CircleF
5063 4657 CircleF
2780 667 CircleF
3014 846 CircleF
1143 823 CircleF
1273 923 CircleF
1710 3149 CircleF
1946 3330 CircleF
3174 4363 CircleF
3321 4476 CircleF
1029 2434 CircleF
1172 2543 CircleF
5583 2237 CircleF
5718 2340 CircleF
6366 3795 CircleF
6596 3971 CircleF
1904 2694 CircleF
2117 2857 CircleF
2460 1348 CircleF
2636 1483 CircleF
2105 3450 CircleF
2327 3621 CircleF
4856 2170 CircleF
5076 2338 CircleF
2792 1103 CircleF
3005 1267 CircleF
5633 635 CircleF
5853 804 CircleF
4906 3241 CircleF
5117 3403 CircleF
5876 4667 CircleF
6036 4790 CircleF
6004 2783 CircleF
6129 2879 CircleF
3256 1139 CircleF
3443 1282 CircleF
5393 2031 CircleF
5533 2140 CircleF
3706 2416 CircleF
3931 2589 CircleF
2944 387 CircleF
3120 523 CircleF
1355 378 CircleF
1481 474 CircleF
1467 1298 CircleF
1617 1413 CircleF
6540 367 CircleF
6767 541 CircleF
4179 1495 CircleF
4393 1659 CircleF
3214 4261 CircleF
3423 4422 CircleF
2650 2771 CircleF
2852 2926 CircleF
4222 2510 CircleF
4436 2674 CircleF
5903 1105 CircleF
6080 1240 CircleF
5328 2738 CircleF
5490 2862 CircleF
3207 842 CircleF
3423 1008 CircleF
2424 2460 CircleF
2588 2586 CircleF
1294 613 CircleF
1422 712 CircleF
2935 1639 CircleF
3134 1791 CircleF
3446 3186 CircleF
3622 3321 CircleF
3400 3011 CircleF
3544 3122 CircleF
3617 551 CircleF
3769 668 CircleF
4766 2098 CircleF
4970 2255 CircleF
4108 796 CircleF
4343 976 CircleF
3045 4324 CircleF
3220 4458 CircleF
4569 829 CircleF
4769 982 CircleF
5056 3071 CircleF
5187 3172 CircleF
5346 341 CircleF
5487 450 CircleF
2685 3070 CircleF
2879 3219 CircleF
2883 1036 CircleF
3054 1167 CircleF
2056 1559 CircleF
2271 1724 CircleF
6538 2677 CircleF
6763 2849 CircleF
2258 2195 CircleF
2410 2312 CircleF
1801 1007 CircleF
2028 1180 CircleF
2329 2357 CircleF
2518 2502 CircleF
1689 488 CircleF
1849 611 CircleF
3287 2352 CircleF
3480 2500 CircleF
6418 4517 CircleF
6562 4628 CircleF
4085 4044 CircleF
4229 4155 CircleF
1480 3031 CircleF
1700 3200 CircleF
2987 2077 CircleF
3144 2198 CircleF
1505 3406 CircleF
1653 3519 CircleF
4064 2394 CircleF
4263 2547 CircleF
2753 1448 CircleF
2949 1599 CircleF
3919 878 CircleF
4119 1032 CircleF
2719 820 CircleF
2922 975 CircleF
1329 3330 CircleF
1478 3444 CircleF
4649 4531 CircleF
4876 4705 CircleF
6071 1689 CircleF
6295 1861 CircleF
6545 1783 CircleF
6769 1955 CircleF
3032 2938 CircleF
3188 3058 CircleF
5390 3649 CircleF
5591 3804 CircleF
1899 2914 CircleF
2058 3035 CircleF
4639 4161 CircleF
4819 4299 CircleF
1403 1989 CircleF
1559 2109 CircleF
3801 450 CircleF
3970 580 CircleF
3107 3445 CircleF
3300 3594 CircleF
4386 3919 CircleF
4532 4031 CircleF
3811 1799 CircleF
4017 1957 CircleF
6044 2301 CircleF
6202 2423 CircleF
1705 4164 CircleF
1917 4327 CircleF
4899 1974 CircleF
5061 2098 CircleF
6591 4212 CircleF
6716 4309 CircleF
5743 539 CircleF
5889 651 CircleF
3276 1789 CircleF
3492 1956 CircleF
4345 2983 CircleF
4542 3135 CircleF
5515 2455 CircleF
5710 2605 CircleF
3358 1848 CircleF
3572 2012 CircleF
5169 2953 CircleF
5310 3061 CircleF
4235 2571 CircleF
4410 2705 CircleF
1674 1218 CircleF
1811 1323 CircleF
5354 291 CircleF
5573 460 CircleF
6552 1515 CircleF
6705 1633 CircleF
1577 492 CircleF
1790 655 CircleF
5083 4236 CircleF
5259 4371 CircleF
5371 4268 CircleF
5511 4376 CircleF
6500 1446 CircleF
6654 1564 CircleF
6279 4364 CircleF
6475 4515 CircleF
2430 3334 CircleF
2573 3444 CircleF
3261 3800 CircleF
3438 3936 CircleF
5666 1896 CircleF
5903 2078 CircleF
4131 2624 CircleF
4284 2742 CircleF
4274 3640 CircleF
4443 3770 CircleF
5388 3772 CircleF
5559 3904 CircleF
6488 1406 CircleF
6658 1536 CircleF
5669 2958 CircleF
5906 3139 CircleF
6631 3073 CircleF
6861 3249 CircleF
1502 450 CircleF
1642 558 CircleF
4161 581 CircleF
4308 694 CircleF
5190 2237 CircleF
5360 2367 CircleF
5976 521 CircleF
6117 630 CircleF
6174 1601 CircleF
6361 1744 CircleF
1158 540 CircleF
1337 677 CircleF
3002 1450 CircleF
3133 1550 CircleF
1496 2736 CircleF
1631 2840 CircleF
2836 3296 CircleF
3045 3456 CircleF
4794 3258 CircleF
4967 3391 CircleF
3888 718 CircleF
4054 845 CircleF
2881 4374 CircleF
3065 4514 CircleF
1158 881 CircleF
1351 1029 CircleF
5316 2763 CircleF
5550 2942 CircleF
2602 2688 CircleF
2724 2782 CircleF
3787 1112 CircleF
3941 1230 CircleF
4285 4410 CircleF
4424 4517 CircleF
6270 3171 CircleF
6394 3266 CircleF
3391 2965 CircleF
3536 3075 CircleF
3635 1152 CircleF
3762 1250 CircleF
2068 619 CircleF
2203 722 CircleF
2492 4164 CircleF
2703 4326 CircleF
1306 3805 CircleF
1527 3975 CircleF
4776 617 CircleF
4966 763 CircleF
2061 3169 CircleF
2228 3297 CircleF
5766 2997 CircleF
5997 3174 CircleF
6661 4569 CircleF
6808 4682 CircleF
5568 2502 CircleF
5712 2612 CircleF
5049 1808 CircleF
5199 1923 CircleF
1503 3368 CircleF
1625 3462 CircleF
5805 507 CircleF
5966 631 CircleF
6298 678 CircleF
6419 771 CircleF
3571 1195 CircleF
3767 1346 CircleF
1090 1579 CircleF
1234 1690 CircleF
2500 617 CircleF
2620 709 CircleF
3337 1525 CircleF
3486 1639 CircleF
6447 1942 CircleF
6589 2051 CircleF
5938 3074 CircleF
6176 3257 CircleF
6471 4235 CircleF
6675 4391 CircleF
4411 1686 CircleF
4587 1822 CircleF
5065 498 CircleF
5257 645 CircleF
1599 494 CircleF
1796 645 CircleF
1315 1076 CircleF
1544 1253 CircleF
3201 2812 CircleF
3410 2972 CircleF
4111 3102 CircleF
4288 3238 CircleF
6080 3179 CircleF
6250 3309 CircleF
3809 836 CircleF
3937 934 CircleF
1437 1539 CircleF
1627 1684 CircleF
5637 2708 CircleF
5831 2857 CircleF
5826 1625 CircleF
5997 1757 CircleF
3484 2858 CircleF
3660 2993 CircleF
4927 2379 CircleF
5128 2533 CircleF
1159 307 CircleF
1333 440 CircleF
1789 283 CircleF
1993 440 CircleF
6357 2318 CircleF
6580 2489 CircleF
5494 772 CircleF
5690 922 CircleF
5528 1236 CircleF
5750 1407 CircleF
5738 4079 CircleF
5966 4255 CircleF
6168 1289 CircleF
6330 1413 CircleF
4797 1457 CircleF
4964 1585 CircleF
3684 4636 CircleF
3918 4816 CircleF
4902 4339 CircleF
5127 4512 CircleF
2496 2877 CircleF
2629 2979 CircleF
3739 3000 CircleF
3897 3121 CircleF
3994 1536 CircleF
4221 1711 CircleF
1751 3816 CircleF
1874 3910 CircleF
5095 1374 CircleF
5254 1496 CircleF
6327 849 CircleF
6501 984 CircleF
3386 4160 CircleF
3555 4290 CircleF
6328 1769 CircleF
6466 1875 CircleF
4718 322 CircleF
4878 444 CircleF
5252 3392 CircleF
5442 3538 CircleF
3228 2479 CircleF
3414 2622 CircleF
2846 4326 CircleF
2989 4436 CircleF
3542 1250 CircleF
3691 1365 CircleF
4772 3008 CircleF
4936 3134 CircleF
5570 3055 CircleF
5800 3231 CircleF
3326 3977 CircleF
3523 4128 CircleF
5190 487 CircleF
5417 661 CircleF
2581 763 CircleF
2760 900 CircleF
5355 4103 CircleF
5569 4268 CircleF
3060 4213 CircleF
3250 4359 CircleF
6250 4186 CircleF
6412 4310 CircleF
1792 2288 CircleF
1999 2447 CircleF
5673 979 CircleF
5798 1075 CircleF
5879 3613 CircleF
6050 3744 CircleF
2441 2887 CircleF
2664 3058 CircleF
2290 2843 CircleF
2426 2948 CircleF
5204 1565 CircleF
5395 1711 CircleF
2715 3942 CircleF
2922 4101 CircleF
6405 3320 CircleF
6595 3465 CircleF
1758 3163 CircleF
1966 3323 CircleF
5271 2673 CircleF
5471 2827 CircleF
2924 2568 CircleF
3055 2669 CircleF
6041 4029 CircleF
6204 4154 CircleF
3746 1596 CircleF
3923 1731 CircleF
6666 3110 CircleF
6870 3268 CircleF
4977 2355 CircleF
5140 2480 CircleF
5631 2318 CircleF
5860 2494 CircleF
5106 2450 CircleF
5250 2560 CircleF
2318 4437 CircleF
2531 4600 CircleF
4404 2692 CircleF
4592 2835 CircleF
4486 2240 CircleF
4608 2333 CircleF
2720 2751 CircleF
2853 2854 CircleF
1545 336 CircleF
1675 436 CircleF
3294 1564 CircleF
3425 1664 CircleF
4242 2392 CircleF
4422 2530 CircleF
3651 791 CircleF
3831 929 CircleF
5853 4384 CircleF
6074 4553 CircleF
1374 2306 CircleF
1587 2469 CircleF
1888 2286 CircleF
2090 2441 CircleF
5305 2747 CircleF
5475 2878 CircleF
6192 4490 CircleF
6331 4596 CircleF
1613 1604 CircleF
1776 1729 CircleF
2349 4071 CircleF
2506 4191 CircleF
1050 3267 CircleF
1182 3369 CircleF
2537 1688 CircleF
2712 1822 CircleF
4314 3817 CircleF
4500 3960 CircleF
6001 2545 CircleF
6227 2718 CircleF
2278 3454 CircleF
2445 3582 CircleF
4004 4352 CircleF
4187 4493 CircleF
4318 3936 CircleF
4444 4033 CircleF
3919 631 CircleF
4088 761 CircleF
5902 908 CircleF
6048 1020 CircleF
6173 1756 CircleF
6306 1858 CircleF
3303 1522 CircleF
3518 1687 CircleF
1852 2339 CircleF
2086 2519 CircleF
4401 4074 CircleF
4529 4172 CircleF
1862 851 CircleF
2098 1032 CircleF
6585 4323 CircleF
6721 4427 CircleF
980 3519 CircleF
1185 3676 CircleF
1881 3047 CircleF
2046 3173 CircleF
5780 2383 CircleF
5969 2528 CircleF
3511 3235 CircleF
3747 3416 CircleF
4441 575 CircleF
4608 704 CircleF
5941 4608 CircleF
6145 4765 CircleF
4568 927 CircleF
4737 1057 CircleF
5816 1285 CircleF
6039 1457 CircleF
6098 1505 CircleF
6251 1623 CircleF
1833 2791 CircleF
1985 2908 CircleF
4541 2938 CircleF
4664 3032 CircleF
1057 4535 CircleF
1211 4654 CircleF
1514 611 CircleF
1739 783 CircleF
2452 3930 CircleF
2625 4063 CircleF
3753 4560 CircleF
3991 4743 CircleF
6703 2489 CircleF
6849 2601 CircleF
1246 3158 CircleF
1388 3267 CircleF
5277 4594 CircleF
5480 4749 CircleF
6542 2017 CircleF
6662 2109 CircleF
3758 313 CircleF
3885 410 CircleF
1310 633 CircleF
1527 800 CircleF
4643 803 CircleF
4843 956 CircleF
5362 3177 CircleF
5582 3345 CircleF
4623 1246 CircleF
4778 1365 CircleF
3435 1308 CircleF
3651 1474 CircleF
4705 862 CircleF
4900 1011 CircleF
5672 690 CircleF
5840 819 CircleF
1390 2316 CircleF
1561 2448 CircleF
5502 3924 CircleF
5668 4052 CircleF
4751 2595 CircleF
4913 2720 CircleF
1527 4546 CircleF
1665 4652 CircleF
1409 947 CircleF
1558 1061 CircleF
4800 3646 CircleF
4962 3770 CircleF
2740 3412 CircleF
2890 3527 CircleF
5964 4565 CircleF
6146 4705 CircleF
6069 4523 CircleF
6255 4665 CircleF
4661 348 CircleF
4816 468 CircleF
1302 569 CircleF
1514 731 CircleF
6210 1776 CircleF
6397 1919 CircleF
2333 558 CircleF
2506 690 CircleF
4633 3709 CircleF
4780 3823 CircleF
3062 1941 CircleF
3193 2042 CircleF
6446 4663 CircleF
6579 4765 CircleF
4174 1273 CircleF
4343 1403 CircleF
1985 380 CircleF
2142 500 CircleF
5395 1438 CircleF
5529 1541 CircleF
5795 972 CircleF
5919 1066 CircleF
4153 1318 CircleF
4297 1429 CircleF
2831 878 CircleF
3023 1025 CircleF
4020 2756 CircleF
4146 2853 CircleF
3065 2889 CircleF
3237 3021 CircleF
6155 579 CircleF
6295 686 CircleF
6221 1242 CircleF
6410 1388 CircleF
3727 2801 CircleF
3876 2916 CircleF
6241 3986 CircleF
6383 4095 CircleF
4074 4030 CircleF
4277 4186 CircleF
1289 2298 CircleF
1412 2393 CircleF
6164 461 CircleF
6354 608 CircleF
2656 3095 CircleF
2857 3249 CircleF
3887 860 CircleF
4075 1005 CircleF
5138 993 CircleF
5288 1108 CircleF
1608 4521 CircleF
1788 4659 CircleF
5578 4110 CircleF
5740 4234 CircleF
2079 1717 CircleF
2289 1878 CircleF
2243 3520 CircleF
2416 3653 CircleF
6696 896 CircleF
6890 1045 CircleF
2367 2938 CircleF
2546 3075 CircleF
3850 4671 CircleF
4055 4828 CircleF
1238 1548 CircleF
1361 1642 CircleF
1095 3596 CircleF
1257 3721 CircleF
2376 3987 CircleF
2558 4126 CircleF
3118 4437 CircleF
3246 4535 CircleF
2361 1902 CircleF
2567 2060 CircleF
2621 2090 CircleF
2760 2197 CircleF
5545 3160 CircleF
5781 3341 CircleF
3736 1166 CircleF
3897 1289 CircleF
5599 1784 CircleF
5829 1961 CircleF
2334 3294 CircleF
2544 3456 CircleF
1421 3107 CircleF
1634 3271 CircleF
6007 4580 CircleF
6184 4715 CircleF
5274 4594 CircleF
5484 4756 CircleF
6485 3727 CircleF
6698 3890 CircleF
5735 1816 CircleF
5943 1976 CircleF
1962 332 CircleF
2092 432 CircleF
1145 2045 CircleF
1305 2168 CircleF
6588 1360 CircleF
6771 1500 CircleF
4073 4280 CircleF
4300 4453 CircleF
6252 3587 CircleF
6483 3764 CircleF
1281 973 CircleF
1437 1093 CircleF
5601 1920 CircleF
5765 2046 CircleF
4596 4563 CircleF
4811 4728 CircleF
3267 3181 CircleF
3481 3345 CircleF
4048 742 CircleF
4236 887 CircleF
5407 4260 CircleF
5600 4408 CircleF
5879 2019 CircleF
6052 2152 CircleF
6481 4018 CircleF
6669 4162 CircleF
5878 3906 CircleF
6047 4036 CircleF
2280 2273 CircleF
2439 2395 CircleF
1083 1824 CircleF
1280 1975 CircleF
4405 1230 CircleF
4592 1374 CircleF
1242 1757 CircleF
1457 1921 CircleF
3324 4009 CircleF
3462 4114 CircleF
2827 4545 CircleF
3014 4689 CircleF
1495 2064 CircleF
1706 2225 CircleF
5538 2604 CircleF
5767 2781 CircleF
2307 865 CircleF
2542 1045 CircleF
3558 1463 CircleF
3766 1622 CircleF
5375 3262 CircleF
5601 3435 CircleF
3364 327 CircleF
3534 457 CircleF
6705 3100 CircleF
6909 3256 CircleF
4529 2080 CircleF
4755 2254 CircleF
3987 782 CircleF
4145 903 CircleF
3015 1902 CircleF
3187 2034 CircleF
3135 1361 CircleF
3320 1504 CircleF
3236 1273 CircleF
3357 1366 CircleF
3498 3454 CircleF
3730 3632 CircleF
1942 2302 CircleF
2089 2415 CircleF
2056 1814 CircleF
2239 1955 CircleF
1021 4307 CircleF
1167 4419 CircleF
4046 2234 CircleF
4245 2387 CircleF
6167 1303 CircleF
6397 1480 CircleF
4733 2516 CircleF
4903 2647 CircleF
4743 3568 CircleF
4946 3723 CircleF
1710 3873 CircleF
1841 3973 CircleF
2665 2269 CircleF
2850 2411 CircleF
2019 290 CircleF
2167 403 CircleF
6220 2848 CircleF
6365 2959 CircleF
1021 2885 CircleF
1216 3035 CircleF
3128 2415 CircleF
3352 2587 CircleF
5863 2573 CircleF
6049 2716 CircleF
4677 3653 CircleF
4806 3752 CircleF
3665 1681 CircleF
3856 1828 CircleF
5290 2923 CircleF
5413 3018 CircleF
3863 3035 CircleF
4000 3140 CircleF
5772 4685 CircleF
5994 4856 CircleF
5673 3416 CircleF
5811 3522 CircleF
5233 2008 CircleF
5428 2157 CircleF
1608 2745 CircleF
1759 2861 CircleF
5544 927 CircleF
5761 1094 CircleF
3059 4421 CircleF
3250 4568 CircleF
5768 685 CircleF
5959 831 CircleF
4625 1838 CircleF
4768 1948 CircleF
4259 4397 CircleF
4432 4529 CircleF
2554 2892 CircleF
2715 3016 CircleF
1220 704 CircleF
1387 832 CircleF
3585 2671 CircleF
3744 2793 CircleF
5632 3066 CircleF
5756 3161 CircleF
1510 3498 CircleF
1718 3657 CircleF
5487 1908 CircleF
5677 2054 CircleF
1383 2500 CircleF
1588 2657 CircleF
1559 3242 CircleF
1784 3415 CircleF
4521 4115 CircleF
4655 4218 CircleF
1803 1157 CircleF
2005 1311 CircleF
3046 1611 CircleF
3245 1763 CircleF
4371 3751 CircleF
4555 3892 CircleF
3394 2956 CircleF
3556 3080 CircleF
4988 2968 CircleF
5205 3134 CircleF
5073 1547 CircleF
5310 1728 CircleF
2592 3467 CircleF
2745 3584 CircleF
2077 2722 CircleF
2204 2820 CircleF
4441 2640 CircleF
4673 2818 CircleF
2016 4003 CircleF
2177 4127 CircleF
3509 4163 CircleF
3707 4315 CircleF
1529 2974 CircleF
1709 3112 CircleF
2679 2931 CircleF
2870 3077 CircleF
1040 3331 CircleF
1251 3493 CircleF
1864 352 CircleF
2068 508 CircleF
4347 799 CircleF
4516 928 CircleF
5456 4279 CircleF
5689 4459 CircleF
1555 746 CircleF
1683 844 CircleF
1515 429 CircleF
1684 558 CircleF
2422 400 CircleF
2547 496 CircleF
6066 3584 CircleF
6257 3730 CircleF
6433 1686 CircleF
6618 1828 CircleF
4423 3487 CircleF
4568 3598 CircleF
2923 1261 CircleF
3135 1424 CircleF
5638 344 CircleF
5839 498 CircleF
2801 2807 CircleF
2932 2908 CircleF
6332 1574 CircleF
6482 1688 CircleF
4857 3941 CircleF
5043 4084 CircleF
1447 3662 CircleF
1628 3801 CircleF
5404 1987 CircleF
5534 2086 CircleF
4231 479 CircleF
4359 578 CircleF
2368 1078 CircleF
2502 1180 CircleF
3995 801 CircleF
4184 946 CircleF
4633 4364 CircleF
4810 4500 CircleF
1867 603 CircleF
2100 782 CircleF
4884 2319 CircleF
5093 2480 CircleF
4131 4092 CircleF
4329 4244 CircleF
6100 1913 CircleF
6283 2053 CircleF
6088 537 CircleF
6278 683 CircleF
3814 3452 CircleF
4012 3604 CircleF
4982 1707 CircleF
5150 1836 CircleF
3075 1177 CircleF
3280 1334 CircleF
5191 2890 CircleF
5316 2986 CircleF
1982 3813 CircleF
2181 3966 CircleF
1215 954 CircleF
1339 1049 CircleF
6652 2482 CircleF
6835 2623 CircleF
2573 2327 CircleF
2749 2463 CircleF
2662 1144 CircleF
2886 1316 CircleF
2870 4667 CircleF
3070 4821 CircleF
4609 3526 CircleF
4770 3650 CircleF
4689 3954 CircleF
4848 4076 CircleF
6413 1424 CircleF
6587 1557 CircleF
4003 4283 CircleF
4182 4420 CircleF
1642 3235 CircleF
1816 3368 CircleF
2938 3864 CircleF
3097 3986 CircleF
3400 3420 CircleF
3611 3582 CircleF
6496 2425 CircleF
6619 2519 CircleF
3226 2703 CircleF
3436 2865 CircleF
5099 1662 CircleF
5319 1830 CircleF
5088 2441 CircleF
5283 2590 CircleF
6113 2429 CircleF
6255 2538 CircleF
1217 2380 CircleF
1350 2482 CircleF
5653 4182 CircleF
5868 4347 CircleF
6696 2735 CircleF
6829 2837 CircleF
3293 1453 CircleF
3514 1622 CircleF
1626 1763 CircleF
1808 1902 CircleF
5059 3201 CircleF
5268 3362 CircleF
3239 538 CircleF
3397 659 CircleF
5634 2673 CircleF
5845 2834 CircleF
2195 784 CircleF
2362 912 CircleF
5228 2009 CircleF
5354 2107 CircleF
4236 4251 CircleF
4380 4362 CircleF
4661 3679 CircleF
4800 3786 CircleF
1184 1046 CircleF
1381 1197 CircleF
1722 2124 CircleF
1924 2279 CircleF
6060 1214 CircleF
6295 1395 CircleF
3158 3436 CircleF
3367 3597 CircleF
1419 360 CircleF
1554 463 CircleF
4332 1268 CircleF
4456 1363 CircleF
6574 2194 CircleF
6718 2304 CircleF
2278 1636 CircleF
2455 1773 CircleF
2456 1590 CircleF
2689 1769 CircleF
5938 1599 CircleF
6077 1705 CircleF
5116 1178 CircleF
5329 1341 CircleF
4063 3052 CircleF
4236 3185 CircleF
3151 1281 CircleF
3331 1419 CircleF
2203 1354 CircleF
2401 1506 CircleF
6063 2589 CircleF
6184 2681 CircleF
5673 819 CircleF
5802 918 CircleF
3537 4138 CircleF
3774 4319 CircleF
2272 946 CircleF
2411 1053 CircleF
3966 2180 CircleF
4156 2325 CircleF
6683 2791 CircleF
6898 2956 CircleF
2143 2733 CircleF
2344 2887 CircleF
3069 2671 CircleF
3265 2822 CircleF
3939 2001 CircleF
4117 2139 CircleF
2529 2746 CircleF
2674 2858 CircleF
2569 746 CircleF
2731 870 CircleF
6599 1813 CircleF
6776 1949 CircleF
3415 4324 CircleF
3571 4444 CircleF
6100 2866 CircleF
6289 3011 CircleF
1677 4139 CircleF
1862 4281 CircleF
3637 1717 CircleF
3864 1892 CircleF
3275 2652 CircleF
3488 2815 CircleF
1650 2385 CircleF
1852 2540 CircleF
5904 2356 CircleF
6092 2500 CircleF
6672 4343 CircleF
6841 4474 CircleF
4538 2895 CircleF
4747 3056 CircleF
1957 3392 CircleF
2098 3501 CircleF
1563 3458 CircleF
1782 3626 CircleF
3322 1863 CircleF
3458 1968 CircleF
6141 1371 CircleF
6289 1485 CircleF
2953 1422 CircleF
3095 1531 CircleF
4289 3767 CircleF
4477 3911 CircleF
4826 3525 CircleF
5042 3691 CircleF
4320 814 CircleF
4450 913 CircleF
5960 4321 CircleF
6128 4451 CircleF
2591 2246 CircleF
2813 2417 CircleF
2460 428 CircleF
2637 564 CircleF
4539 1720 CircleF
4774 1901 CircleF
1809 3286 CircleF
1930 3379 CircleF
5552 4020 CircleF
5688 4125 CircleF
1901 361 CircleF
2100 513 CircleF
5185 2623 CircleF
5386 2777 CircleF
5299 3351 CircleF
5485 3494 CircleF
6170 1254 CircleF
6380 1415 CircleF
3984 395 CircleF
4165 534 CircleF
3344 3827 CircleF
3563 3996 CircleF
1380 3707 CircleF
1614 3887 CircleF
4083 2123 CircleF
4272 2269 CircleF
3079 2510 CircleF
3211 2610 CircleF
3822 1131 CircleF
3989 1259 CircleF
2923 1518 CircleF
3137 1682 CircleF
5232 4030 CircleF
5392 4152 CircleF
1568 3622 CircleF
1744 3756 CircleF
4856 3489 CircleF
5078 3660 CircleF
1436 3105 CircleF
1587 3221 CircleF
6434 3404 CircleF
6631 3555 CircleF
4933 1681 CircleF
5079 1793 CircleF
2988 3384 CircleF
3124 3488 CircleF
1800 2410 CircleF
1958 2531 CircleF
4711 2152 CircleF
4872 2276 CircleF
5709 4105 CircleF
5930 4275 CircleF
971 434 CircleF
1091 526 CircleF
2123 1687 CircleF
2309 1829 CircleF
4769 2478 CircleF
4921 2594 CircleF
3342 3009 CircleF
3496 3128 CircleF
4570 1834 CircleF
4774 1991 CircleF
1283 2354 CircleF
1457 2488 CircleF
1295 1611 CircleF
1452 1732 CircleF
1946 2823 CircleF
2084 2929 CircleF
4815 653 CircleF
4997 792 CircleF
3510 1929 CircleF
3658 2042 CircleF
6579 2533 CircleF
6797 2701 CircleF
4076 2463 CircleF
4204 2562 CircleF
1946 2570 CircleF
2076 2670 CircleF
3607 671 CircleF
3800 820 CircleF
4728 2493 CircleF
4874 2605 CircleF
5504 3140 CircleF
5663 3262 CircleF
5516 1330 CircleF
5742 1503 CircleF
1659 1001 CircleF
1874 1166 CircleF
5921 1236 CircleF
6064 1346 CircleF
2678 1819 CircleF
2806 1917 CircleF
2236 3057 CircleF
2397 3180 CircleF
4793 3039 CircleF
4969 3174 CircleF
6521 2417 CircleF
6655 2520 CircleF
2737 1416 CircleF
2919 1556 CircleF
1656 1119 CircleF
1887 1296 CircleF
1623 3189 CircleF
1756 3292 CircleF
6460 3042 CircleF
6675 3207 CircleF
983 713 CircleF
1143 836 CircleF
6373 1576 CircleF
6496 1671 CircleF
5850 4275 CircleF
6067 4442 CircleF
6704 1796 CircleF
6937 1975 CircleF
1432 534 CircleF
1587 654 CircleF
5180 671 CircleF
5311 771 CircleF
1903 3647 CircleF
2050 3760 CircleF
1735 1215 CircleF
1944 1375 CircleF
1176 900 CircleF
1385 1061 CircleF
5950 4477 CircleF
6178 4652 CircleF
1145 2409 CircleF
1265 2501 CircleF
6396 770 CircleF
6598 924 CircleF
1088 2597 CircleF
1219 2698 CircleF
3912 3752 CircleF
4074 3876 CircleF
1801 3468 CircleF
2027 3642 CircleF
2391 431 CircleF
2621 607 CircleF
2583 2584 CircleF
2800 2751 CircleF
3060 4282 CircleF
3217 4402 CircleF
3794 3835 CircleF
3925 3936 CircleF
1063 888 CircleF
1282 1056 CircleF
1534 1286 CircleF
1730 1436 CircleF
2519 1371 CircleF
2757 1554 CircleF
4138 2309 CircleF
4259 2402 CircleF
5506 4311 CircleF
5675 4441 CircleF
3298 4638 CircleF
3452 4756 CircleF
2101 1458 CircleF
2324 1628 CircleF
2214 1882 CircleF
2381 2011 CircleF
6471 454 CircleF
6613 562 CircleF
5811 1884 CircleF
5963 2000 CircleF
3668 3477 CircleF
3792 3572 CircleF
4917 3412 CircleF
5128 3574 CircleF
4151 1900 CircleF
4357 2058 CircleF
3724 4131 CircleF
3891 4259 CircleF
4604 742 CircleF
4725 835 CircleF
5626 2882 CircleF
5793 3010 CircleF
1707 977 CircleF
1922 1141 CircleF
6571 3597 CircleF
6763 3744 CircleF
1503 1540 CircleF
1667 1667 CircleF
3149 4301 CircleF
3373 4472 CircleF
1454 1834 CircleF
1586 1935 CircleF
3921 520 CircleF
4064 630 CircleF
5775 3937 CircleF
6012 4119 CircleF
4385 4684 CircleF
4589 4841 CircleF
6113 2276 CircleF
6341 2450 CircleF
4453 405 CircleF
4615 530 CircleF
1515 1836 CircleF
1739 2008 CircleF
3705 983 CircleF
3834 1083 CircleF
1479 3083 CircleF
1637 3205 CircleF
6553 2093 CircleF
6695 2202 CircleF
5673 4395 CircleF
5869 4546 CircleF
1735 4370 CircleF
1905 4500 CircleF
4308 1175 CircleF
4535 1349 CircleF
4994 336 CircleF
5213 504 CircleF
1625 4144 CircleF
1761 4248 CircleF
4788 3850 CircleF
4932 3960 CircleF
2094 4278 CircleF
2323 4453 CircleF
3365 712 CircleF
3495 812 CircleF
2684 795 CircleF
2849 922 CircleF
1078 2525 CircleF
1202 2620 CircleF
6468 2313 CircleF
6694 2486 CircleF
1630 1149 CircleF
1766 1253 CircleF
6666 4562 CircleF
6903 4744 CircleF
2860 3363 CircleF
3012 3480 CircleF
4743 2726 CircleF
4891 2840 CircleF
3074 1589 CircleF
3268 1739 CircleF
2914 1949 CircleF
3067 2067 CircleF
4980 2402 CircleF
5141 2525 CircleF
2358 1135 CircleF
2593 1315 CircleF
2735 929 CircleF
2957 1099 CircleF
6161 2982 CircleF
6312 3098 CircleF
5247 1488 CircleF
5436 1632 CircleF
2157 2026 CircleF
2393 2207 CircleF
2448 2630 CircleF
2668 2799 CircleF
3109 1089 CircleF
3259 1204 CircleF
4776 2999 CircleF
4932 3119 CircleF
1639 4670 CircleF
1786 4783 CircleF
988 850 CircleF
1127 956 CircleF
1153 349 CircleF
1376 520 CircleF
3542 3689 CircleF
3686 3799 CircleF
3645 1726 CircleF
3831 1869 CircleF
5734 1910 CircleF
5855 2003 CircleF
5855 2497 CircleF
6062 2656 CircleF
6528 1937 CircleF
6714 2080 CircleF
5242 1832 CircleF
5476 2012 CircleF
3030 4183 CircleF
3211 4321 CircleF
4886 2892 CircleF
5052 3020 CircleF
4042 2600 CircleF
4254 2763 CircleF
6018 2110 CircleF
6245 2284 CircleF
4192 4493 CircleF
4376 4634 CircleF
2696 2613 CircleF
2888 2761 CircleF
6567 1226 CircleF
6772 1384 CircleF
5603 2112 CircleF
5771 2241 CircleF
5274 2742 CircleF
5489 2906 CircleF
2550 4658 CircleF
2748 4810 CircleF
5267 3266 CircleF
5466 3418 CircleF
3162 1173 CircleF
3379 1340 CircleF
2931 532 CircleF
3123 680 CircleF
3350 1144 CircleF
3519 1273 CircleF
6321 971 CircleF
6524 1127 CircleF
1283 1238 CircleF
1514 1415 CircleF
2674 1954 CircleF
2885 2117 CircleF
2476 4456 CircleF
2655 4593 CircleF
3050 4292 CircleF
3185 4397 CircleF
2514 1995 CircleF
2634 2088 CircleF
3790 2354 CircleF
3943 2472 CircleF
4498 3880 CircleF
4719 4050 CircleF
2533 3659 CircleF
2690 3779 CircleF
2955 3670 CircleF
3082 3768 CircleF
2617 2405 CircleF
2801 2547 CircleF
5594 904 CircleF
5823 1080 CircleF
5497 1694 CircleF
5726 1870 CircleF
1581 3835 CircleF
1788 3994 CircleF
4386 880 CircleF
4516 980 CircleF
6068 4576 CircleF
6220 4692 CircleF
3752 2892 CircleF
3985 3071 CircleF
5093 3646 CircleF
5253 3768 CircleF
3869 1084 CircleF
4033 1211 CircleF
5228 3174 CircleF
5399 3305 CircleF
4315 1262 CircleF
4445 1362 CircleF
5562 1305 CircleF
5686 1400 CircleF
3728 630 CircleF
3919 777 CircleF
2261 4526 CircleF
2383 4619 CircleF
1077 2656 CircleF
1236 2778 CircleF
2752 3566 CircleF
2953 3720 CircleF
3796 4241 CircleF
4025 4417 CircleF
5413 497 CircleF
5625 660 CircleF
1949 315 CircleF
2119 446 CircleF
6299 1561 CircleF
6431 1662 CircleF
6621 4407 CircleF
6831 4568 CircleF
4954 1781 CircleF
5116 1905 CircleF
1541 4087 CircleF
1667 4184 CircleF
2974 1414 CircleF
3154 1552 CircleF
6164 2334 CircleF
6361 2485 CircleF
2985 1583 CircleF
3115 1683 CircleF
4319 883 CircleF
4493 1017 CircleF
1249 3384 CircleF
1392 3494 CircleF
5027 1337 CircleF
5194 1465 CircleF
2011 3642 CircleF
2176 3769 CircleF
1659 2829 CircleF
1845 2972 CircleF
1646 4418 CircleF
1814 4547 CircleF
3635 3339 CircleF
3762 3437 CircleF
6282 1204 CircleF
6484 1358 CircleF
3484 2060 CircleF
3685 2214 CircleF
3021 671 CircleF
3161 778 CircleF
4011 578 CircleF
4146 681 CircleF
4837 3419 CircleF
4959 3512 CircleF
1237 2280 CircleF
1358 2372 CircleF
4037 2095 CircleF
4221 2236 CircleF
1848 2757 CircleF
2027 2895 CircleF
1153 1308 CircleF
1334 1447 CircleF
6133 1767 CircleF
6354 1937 CircleF
2970 1177 CircleF
3200 1353 CircleF
2200 2024 CircleF
2416 2189 CircleF
1274 3016 CircleF
1465 3163 CircleF
3138 3342 CircleF
3290 3459 CircleF
6269 3552 CircleF
6466 3703 CircleF
4723 1496 CircleF
4845 1590 CircleF
2613 3136 CircleF
2805 3283 CircleF
2016 4069 CircleF
2221 4226 CircleF
3289 1872 CircleF
3501 2035 CircleF
4004 2543 CircleF
4220 2709 CircleF
3457 3804 CircleF
3632 3938 CircleF
4512 3220 CircleF
4731 3388 CircleF
2813 1485 CircleF
2965 1601 CircleF
2689 3917 CircleF
2826 4022 CircleF
4397 1735 CircleF
4576 1872 CircleF
1924 856 CircleF
2046 950 CircleF
5792 3246 CircleF
5958 3373 CircleF
2280 3147 CircleF
2471 3293 CircleF
3469 2282 CircleF
3618 2397 CircleF
2158 1564 CircleF
2285 1661 CircleF
3691 4202 CircleF
3847 4321 CircleF
6676 1279 CircleF
6848 1411 CircleF
5937 4323 CircleF
6144 4481 CircleF
6678 3463 CircleF
6808 3562 CircleF
5021 1333 CircleF
5216 1483 CircleF
1108 1982 CircleF
1317 2142 CircleF
5666 1111 CircleF
5787 1204 CircleF
3902 1070 CircleF
4049 1183 CircleF
2129 3441 CircleF
2313 3582 CircleF
2308 3732 CircleF
2488 3870 CircleF
5014 513 CircleF
5185 644 CircleF
5182 2175 CircleF
5395 2338 CircleF
3860 3053 CircleF
4000 3160 CircleF
3221 3437 CircleF
3415 3585 CircleF
3895 2211 CircleF
4131 2393 CircleF
4022 2884 CircleF
4211 3029 CircleF
5657 1693 CircleF
5843 1836 CircleF
4167 1845 CircleF
4292 1941 CircleF
3777 1117 CircleF
3899 1211 CircleF
1185 3321 CircleF
1405 3490 CircleF
3269 2093 CircleF
3488 2260 CircleF
3073 3208 CircleF
3247 3342 CircleF
5572 2860 CircleF
5743 2991 CircleF
1861 3953 CircleF
1996 4057 CircleF
6560 2271 CircleF
6714 2389 CircleF
3806 1528 CircleF
3928 1621 CircleF
4682 2764 CircleF
4860 2900 CircleF
6024 3008 CircleF
6154 3108 CircleF
3152 2695 CircleF
3353 2850 CircleF
3343 2842 CircleF
3572 3018 CircleF
2235 3481 CircleF
2419 3622 CircleF
2125 4514 CircleF
2305 4652 CircleF
4614 3613 CircleF
4774 3735 CircleF
3030 3921 CircleF
3229 4073 CircleF
4760 1483 CircleF
4977 1649 CircleF
3901 3127 CircleF
4130 3302 CircleF
5200 3960 CircleF
5398 4111 CircleF
2512 1394 CircleF
2665 1511 CircleF
5222 1266 CircleF
5375 1383 CircleF
4279 3028 CircleF
4477 3180 CircleF
5324 2739 CircleF
5495 2869 CircleF
3602 2644 CircleF
3784 2784 CircleF
4585 1885 CircleF
4810 2058 CircleF
3936 4615 CircleF
4130 4765 CircleF
3343 883 CircleF
3570 1057 CircleF
3018 4075 CircleF
3195 4211 CircleF
3295 3528 CircleF
3459 3654 CircleF
2724 522 CircleF
2932 682 CircleF
4614 3904 CircleF
4776 4028 CircleF
6186 2934 CircleF
6325 3040 CircleF
4604 4133 CircleF
4812 4293 CircleF
6246 2599 CircleF
6367 2692 CircleF
4116 3667 CircleF
4325 3828 CircleF
1258 3684 CircleF
1493 3864 CircleF
1106 3070 CircleF
1248 3179 CircleF
6512 3781 CircleF
6632 3874 CircleF
4450 1641 CircleF
4652 1796 CircleF
2029 2659 CircleF
2187 2780 CircleF
1783 4051 CircleF
1980 4202 CircleF
5858 2368 CircleF
5995 2473 CircleF
2603 3739 CircleF
2765 3864 CircleF
6557 2983 CircleF
6720 3109 CircleF
6073 4684 CircleF
6238 4811 CircleF
5424 2820 CircleF
5567 2930 CircleF
6232 586 CircleF
6369 691 CircleF
6073 887 CircleF
6273 1041 CircleF
4993 2365 CircleF
5166 2498 CircleF
6490 2174 CircleF
6645 2293 CircleF
4874 3185 CircleF
5111 3367 CircleF
5188 3555 CircleF
5323 3658 CircleF
5897 2110 CircleF
6129 2288 CircleF
6046 2185 CircleF
6239 2334 CircleF
2772 3861 CircleF
2998 4034 CircleF
1378 3127 CircleF
1603 3301 CircleF
1078 1252 CircleF
1304 1425 CircleF
3721 805 CircleF
3896 939 CircleF
4712 2200 CircleF
4879 2328 CircleF
3651 2460 CircleF
3779 2558 CircleF
6158 527 CircleF
6316 649 CircleF
6218 2334 CircleF
6399 2473 CircleF
5478 2598 CircleF
5667 2743 CircleF
1124 781 CircleF
1332 941 CircleF
3876 4574 CircleF
4050 4708 CircleF
5057 286 CircleF
5248 432 CircleF
6590 1806 CircleF
6754 1931 CircleF
1376 286 CircleF
1613 468 CircleF
3643 3150 CircleF
3793 3265 CircleF
6185 1342 CircleF
6389 1498 CircleF
5929 3999 CircleF
6166 4181 CircleF
1502 542 CircleF
1672 672 CircleF
5156 3281 CircleF
5330 3415 CircleF
967 1671 CircleF
1114 1783 CircleF
4783 937 CircleF
4923 1044 CircleF
4235 2825 CircleF
4470 3006 CircleF
1084 413 CircleF
1279 562 CircleF
1959 571 CircleF
2188 747 CircleF
1437 4375 CircleF
1622 4517 CircleF
6549 4578 CircleF
6725 4714 CircleF
2134 3114 CircleF
2307 3246 CircleF
6387 2826 CircleF
6589 2981 CircleF
5214 1443 CircleF
5387 1575 CircleF
1101 3206 CircleF
1227 3303 CircleF
1782 807 CircleF
2014 985 CircleF
4171 3463 CircleF
4368 3615 CircleF
5504 4143 CircleF
5673 4273 CircleF
5511 331 CircleF
5659 444 CircleF
4584 3863 CircleF
4724 3971 CircleF
4574 692 CircleF
4712 798 CircleF
3164 1331 CircleF
3375 1493 CircleF
3862 3326 CircleF
4009 3439 CircleF
5835 799 CircleF
5963 898 CircleF
% End plot #2
1.000 UP
1.000 UL
LT0
0.50 0.50 0.50 C stroke
grestore
end
showpage
%%Trailer
%%DocumentFonts: Helvetica
%%Pages: 1
