%!PS-Adobe-2.0
%%Title: out.ps
%%Creator: gnuplot 4.6 patchlevel 6
%%CreationDate: Fri May 29 03:02:07 2015
%%DocumentFonts: (atend)
%%BoundingBox: 50 50 554 770
%%Orientation: Landscape
%%Pages: (atend)
%%EndComments
%%BeginProlog
/gnudict 256 dict def
gnudict begin
%
% The following true/false flags may be edited by hand if desired.
% The unit line width and grayscale image gamma correction may also be changed.
%
/Color false def
/Blacktext false def
/Solid false def
/Dashlength 1 def
/Landscape true def
/Level1 false def
/Rounded false def
/ClipToBoundingBox false def
/SuppressPDFMark false def
/TransparentPatterns false def
/gnulinewidth 5.000 def
/userlinewidth gnulinewidth def
/Gamma 1.0 def
/BackgroundColor {-1.000 -1.000 -1.000} def
%
/vshift -46 def
/dl1 {
  10.0 Dashlength mul mul
  Rounded { currentlinewidth 0.75 mul sub dup 0 le { pop 0.01 } if } if
} def
/dl2 {
  10.0 Dashlength mul mul
  Rounded { currentlinewidth 0.75 mul add } if
} def
/hpt_ 31.5 def
/vpt_ 31.5 def
/hpt hpt_ def
/vpt vpt_ def
/doclip {
  ClipToBoundingBox {
    newpath 50 50 moveto 554 50 lineto 554 770 lineto 50 770 lineto closepath
    clip
  } if
} def
%
% Gnuplot Prolog Version 4.6 (September 2012)
%
%/SuppressPDFMark true def
%
/M {moveto} bind def
/L {lineto} bind def
/R {rmoveto} bind def
/V {rlineto} bind def
/N {newpath moveto} bind def
/Z {closepath} bind def
/C {setrgbcolor} bind def
/f {rlineto fill} bind def
/g {setgray} bind def
/Gshow {show} def   % May be redefined later in the file to support UTF-8
/vpt2 vpt 2 mul def
/hpt2 hpt 2 mul def
/Lshow {currentpoint stroke M 0 vshift R 
	Blacktext {gsave 0 setgray show grestore} {show} ifelse} def
/Rshow {currentpoint stroke M dup stringwidth pop neg vshift R
	Blacktext {gsave 0 setgray show grestore} {show} ifelse} def
/Cshow {currentpoint stroke M dup stringwidth pop -2 div vshift R 
	Blacktext {gsave 0 setgray show grestore} {show} ifelse} def
/UP {dup vpt_ mul /vpt exch def hpt_ mul /hpt exch def
  /hpt2 hpt 2 mul def /vpt2 vpt 2 mul def} def
/DL {Color {setrgbcolor Solid {pop []} if 0 setdash}
 {pop pop pop 0 setgray Solid {pop []} if 0 setdash} ifelse} def
/BL {stroke userlinewidth 2 mul setlinewidth
	Rounded {1 setlinejoin 1 setlinecap} if} def
/AL {stroke userlinewidth 2 div setlinewidth
	Rounded {1 setlinejoin 1 setlinecap} if} def
/UL {dup gnulinewidth mul /userlinewidth exch def
	dup 1 lt {pop 1} if 10 mul /udl exch def} def
/PL {stroke userlinewidth setlinewidth
	Rounded {1 setlinejoin 1 setlinecap} if} def
3.8 setmiterlimit
% Default Line colors
/LCw {1 1 1} def
/LCb {0 0 0} def
/LCa {0 0 0} def
/LC0 {1 0 0} def
/LC1 {0 1 0} def
/LC2 {0 0 1} def
/LC3 {1 0 1} def
/LC4 {0 1 1} def
/LC5 {1 1 0} def
/LC6 {0 0 0} def
/LC7 {1 0.3 0} def
/LC8 {0.5 0.5 0.5} def
% Default Line Types
/LTw {PL [] 1 setgray} def
/LTb {BL [] LCb DL} def
/LTa {AL [1 udl mul 2 udl mul] 0 setdash LCa setrgbcolor} def
/LT0 {PL [] LC0 DL} def
/LT1 {PL [4 dl1 2 dl2] LC1 DL} def
/LT2 {PL [2 dl1 3 dl2] LC2 DL} def
/LT3 {PL [1 dl1 1.5 dl2] LC3 DL} def
/LT4 {PL [6 dl1 2 dl2 1 dl1 2 dl2] LC4 DL} def
/LT5 {PL [3 dl1 3 dl2 1 dl1 3 dl2] LC5 DL} def
/LT6 {PL [2 dl1 2 dl2 2 dl1 6 dl2] LC6 DL} def
/LT7 {PL [1 dl1 2 dl2 6 dl1 2 dl2 1 dl1 2 dl2] LC7 DL} def
/LT8 {PL [2 dl1 2 dl2 2 dl1 2 dl2 2 dl1 2 dl2 2 dl1 4 dl2] LC8 DL} def
/Pnt {stroke [] 0 setdash gsave 1 setlinecap M 0 0 V stroke grestore} def
/Dia {stroke [] 0 setdash 2 copy vpt add M
  hpt neg vpt neg V hpt vpt neg V
  hpt vpt V hpt neg vpt V closepath stroke
  Pnt} def
/Pls {stroke [] 0 setdash vpt sub M 0 vpt2 V
  currentpoint stroke M
  hpt neg vpt neg R hpt2 0 V stroke
 } def
/Box {stroke [] 0 setdash 2 copy exch hpt sub exch vpt add M
  0 vpt2 neg V hpt2 0 V 0 vpt2 V
  hpt2 neg 0 V closepath stroke
  Pnt} def
/Crs {stroke [] 0 setdash exch hpt sub exch vpt add M
  hpt2 vpt2 neg V currentpoint stroke M
  hpt2 neg 0 R hpt2 vpt2 V stroke} def
/TriU {stroke [] 0 setdash 2 copy vpt 1.12 mul add M
  hpt neg vpt -1.62 mul V
  hpt 2 mul 0 V
  hpt neg vpt 1.62 mul V closepath stroke
  Pnt} def
/Star {2 copy Pls Crs} def
/BoxF {stroke [] 0 setdash exch hpt sub exch vpt add M
  0 vpt2 neg V hpt2 0 V 0 vpt2 V
  hpt2 neg 0 V closepath fill} def
/TriUF {stroke [] 0 setdash vpt 1.12 mul add M
  hpt neg vpt -1.62 mul V
  hpt 2 mul 0 V
  hpt neg vpt 1.62 mul V closepath fill} def
/TriD {stroke [] 0 setdash 2 copy vpt 1.12 mul sub M
  hpt neg vpt 1.62 mul V
  hpt 2 mul 0 V
  hpt neg vpt -1.62 mul V closepath stroke
  Pnt} def
/TriDF {stroke [] 0 setdash vpt 1.12 mul sub M
  hpt neg vpt 1.62 mul V
  hpt 2 mul 0 V
  hpt neg vpt -1.62 mul V closepath fill} def
/DiaF {stroke [] 0 setdash vpt add M
  hpt neg vpt neg V hpt vpt neg V
  hpt vpt V hpt neg vpt V closepath fill} def
/Pent {stroke [] 0 setdash 2 copy gsave
  translate 0 hpt M 4 {72 rotate 0 hpt L} repeat
  closepath stroke grestore Pnt} def
/PentF {stroke [] 0 setdash gsave
  translate 0 hpt M 4 {72 rotate 0 hpt L} repeat
  closepath fill grestore} def
/Circle {stroke [] 0 setdash 2 copy
  hpt 0 360 arc stroke Pnt} def
/CircleF {stroke [] 0 setdash hpt 0 360 arc fill} def
/C0 {BL [] 0 setdash 2 copy moveto vpt 90 450 arc} bind def
/C1 {BL [] 0 setdash 2 copy moveto
	2 copy vpt 0 90 arc closepath fill
	vpt 0 360 arc closepath} bind def
/C2 {BL [] 0 setdash 2 copy moveto
	2 copy vpt 90 180 arc closepath fill
	vpt 0 360 arc closepath} bind def
/C3 {BL [] 0 setdash 2 copy moveto
	2 copy vpt 0 180 arc closepath fill
	vpt 0 360 arc closepath} bind def
/C4 {BL [] 0 setdash 2 copy moveto
	2 copy vpt 180 270 arc closepath fill
	vpt 0 360 arc closepath} bind def
/C5 {BL [] 0 setdash 2 copy moveto
	2 copy vpt 0 90 arc
	2 copy moveto
	2 copy vpt 180 270 arc closepath fill
	vpt 0 360 arc} bind def
/C6 {BL [] 0 setdash 2 copy moveto
	2 copy vpt 90 270 arc closepath fill
	vpt 0 360 arc closepath} bind def
/C7 {BL [] 0 setdash 2 copy moveto
	2 copy vpt 0 270 arc closepath fill
	vpt 0 360 arc closepath} bind def
/C8 {BL [] 0 setdash 2 copy moveto
	2 copy vpt 270 360 arc closepath fill
	vpt 0 360 arc closepath} bind def
/C9 {BL [] 0 setdash 2 copy moveto
	2 copy vpt 270 450 arc closepath fill
	vpt 0 360 arc closepath} bind def
/C10 {BL [] 0 setdash 2 copy 2 copy moveto vpt 270 360 arc closepath fill
	2 copy moveto
	2 copy vpt 90 180 arc closepath fill
	vpt 0 360 arc closepath} bind def
/C11 {BL [] 0 setdash 2 copy moveto
	2 copy vpt 0 180 arc closepath fill
	2 copy moveto
	2 copy vpt 270 360 arc closepath fill
	vpt 0 360 arc closepath} bind def
/C12 {BL [] 0 setdash 2 copy moveto
	2 copy vpt 180 360 arc closepath fill
	vpt 0 360 arc closepath} bind def
/C13 {BL [] 0 setdash 2 copy moveto
	2 copy vpt 0 90 arc closepath fill
	2 copy moveto
	2 copy vpt 180 360 arc closepath fill
	vpt 0 360 arc closepath} bind def
/C14 {BL [] 0 setdash 2 copy moveto
	2 copy vpt 90 360 arc closepath fill
	vpt 0 360 arc} bind def
/C15 {BL [] 0 setdash 2 copy vpt 0 360 arc closepath fill
	vpt 0 360 arc closepath} bind def
/Rec {newpath 4 2 roll moveto 1 index 0 rlineto 0 exch rlineto
	neg 0 rlineto closepath} bind def
/Square {dup Rec} bind def
/Bsquare {vpt sub exch vpt sub exch vpt2 Square} bind def
/S0 {BL [] 0 setdash 2 copy moveto 0 vpt rlineto BL Bsquare} bind def
/S1 {BL [] 0 setdash 2 copy vpt Square fill Bsquare} bind def
/S2 {BL [] 0 setdash 2 copy exch vpt sub exch vpt Square fill Bsquare} bind def
/S3 {BL [] 0 setdash 2 copy exch vpt sub exch vpt2 vpt Rec fill Bsquare} bind def
/S4 {BL [] 0 setdash 2 copy exch vpt sub exch vpt sub vpt Square fill Bsquare} bind def
/S5 {BL [] 0 setdash 2 copy 2 copy vpt Square fill
	exch vpt sub exch vpt sub vpt Square fill Bsquare} bind def
/S6 {BL [] 0 setdash 2 copy exch vpt sub exch vpt sub vpt vpt2 Rec fill Bsquare} bind def
/S7 {BL [] 0 setdash 2 copy exch vpt sub exch vpt sub vpt vpt2 Rec fill
	2 copy vpt Square fill Bsquare} bind def
/S8 {BL [] 0 setdash 2 copy vpt sub vpt Square fill Bsquare} bind def
/S9 {BL [] 0 setdash 2 copy vpt sub vpt vpt2 Rec fill Bsquare} bind def
/S10 {BL [] 0 setdash 2 copy vpt sub vpt Square fill 2 copy exch vpt sub exch vpt Square fill
	Bsquare} bind def
/S11 {BL [] 0 setdash 2 copy vpt sub vpt Square fill 2 copy exch vpt sub exch vpt2 vpt Rec fill
	Bsquare} bind def
/S12 {BL [] 0 setdash 2 copy exch vpt sub exch vpt sub vpt2 vpt Rec fill Bsquare} bind def
/S13 {BL [] 0 setdash 2 copy exch vpt sub exch vpt sub vpt2 vpt Rec fill
	2 copy vpt Square fill Bsquare} bind def
/S14 {BL [] 0 setdash 2 copy exch vpt sub exch vpt sub vpt2 vpt Rec fill
	2 copy exch vpt sub exch vpt Square fill Bsquare} bind def
/S15 {BL [] 0 setdash 2 copy Bsquare fill Bsquare} bind def
/D0 {gsave translate 45 rotate 0 0 S0 stroke grestore} bind def
/D1 {gsave translate 45 rotate 0 0 S1 stroke grestore} bind def
/D2 {gsave translate 45 rotate 0 0 S2 stroke grestore} bind def
/D3 {gsave translate 45 rotate 0 0 S3 stroke grestore} bind def
/D4 {gsave translate 45 rotate 0 0 S4 stroke grestore} bind def
/D5 {gsave translate 45 rotate 0 0 S5 stroke grestore} bind def
/D6 {gsave translate 45 rotate 0 0 S6 stroke grestore} bind def
/D7 {gsave translate 45 rotate 0 0 S7 stroke grestore} bind def
/D8 {gsave translate 45 rotate 0 0 S8 stroke grestore} bind def
/D9 {gsave translate 45 rotate 0 0 S9 stroke grestore} bind def
/D10 {gsave translate 45 rotate 0 0 S10 stroke grestore} bind def
/D11 {gsave translate 45 rotate 0 0 S11 stroke grestore} bind def
/D12 {gsave translate 45 rotate 0 0 S12 stroke grestore} bind def
/D13 {gsave translate 45 rotate 0 0 S13 stroke grestore} bind def
/D14 {gsave translate 45 rotate 0 0 S14 stroke grestore} bind def
/D15 {gsave translate 45 rotate 0 0 S15 stroke grestore} bind def
/DiaE {stroke [] 0 setdash vpt add M
  hpt neg vpt neg V hpt vpt neg V
  hpt vpt V hpt neg vpt V closepath stroke} def
/BoxE {stroke [] 0 setdash exch hpt sub exch vpt add M
  0 vpt2 neg V hpt2 0 V 0 vpt2 V
  hpt2 neg 0 V closepath stroke} def
/TriUE {stroke [] 0 setdash vpt 1.12 mul add M
  hpt neg vpt -1.62 mul V
  hpt 2 mul 0 V
  hpt neg vpt 1.62 mul V closepath stroke} def
/TriDE {stroke [] 0 setdash vpt 1.12 mul sub M
  hpt neg vpt 1.62 mul V
  hpt 2 mul 0 V
  hpt neg vpt -1.62 mul V closepath stroke} def
/PentE {stroke [] 0 setdash gsave
  translate 0 hpt M 4 {72 rotate 0 hpt L} repeat
  closepath stroke grestore} def
/CircE {stroke [] 0 setdash 
  hpt 0 360 arc stroke} def
/Opaque {gsave closepath 1 setgray fill grestore 0 setgray closepath} def
/DiaW {stroke [] 0 setdash vpt add M
  hpt neg vpt neg V hpt vpt neg V
  hpt vpt V hpt neg vpt V Opaque stroke} def
/BoxW {stroke [] 0 setdash exch hpt sub exch vpt add M
  0 vpt2 neg V hpt2 0 V 0 vpt2 V
  hpt2 neg 0 V Opaque stroke} def
/TriUW {stroke [] 0 setdash vpt 1.12 mul add M
  hpt neg vpt -1.62 mul V
  hpt 2 mul 0 V
  hpt neg vpt 1.62 mul V Opaque stroke} def
/TriDW {stroke [] 0 setdash vpt 1.12 mul sub M
  hpt neg vpt 1.62 mul V
  hpt 2 mul 0 V
  hpt neg vpt -1.62 mul V Opaque stroke} def
/PentW {stroke [] 0 setdash gsave
  translate 0 hpt M 4 {72 rotate 0 hpt L} repeat
  Opaque stroke grestore} def
/CircW {stroke [] 0 setdash 
  hpt 0 360 arc Opaque stroke} def
/BoxFill {gsave Rec 1 setgray fill grestore} def
/Density {
  /Fillden exch def
  currentrgbcolor
  /ColB exch def /ColG exch def /ColR exch def
  /ColR ColR Fillden mul Fillden sub 1 add def
  /ColG ColG Fillden mul Fillden sub 1 add def
  /ColB ColB Fillden mul Fillden sub 1 add def
  ColR ColG ColB setrgbcolor} def
/BoxColFill {gsave Rec PolyFill} def
/PolyFill {gsave Density fill grestore grestore} def
/h {rlineto rlineto rlineto gsave closepath fill grestore} bind def
%
% PostScript Level 1 Pattern Fill routine for rectangles
% Usage: x y w h s a XX PatternFill
%	x,y = lower left corner of box to be filled
%	w,h = width and height of box
%	  a = angle in degrees between lines and x-axis
%	 XX = 0/1 for no/yes cross-hatch
%
/PatternFill {gsave /PFa [ 9 2 roll ] def
  PFa 0 get PFa 2 get 2 div add PFa 1 get PFa 3 get 2 div add translate
  PFa 2 get -2 div PFa 3 get -2 div PFa 2 get PFa 3 get Rec
  TransparentPatterns {} {gsave 1 setgray fill grestore} ifelse
  clip
  currentlinewidth 0.5 mul setlinewidth
  /PFs PFa 2 get dup mul PFa 3 get dup mul add sqrt def
  0 0 M PFa 5 get rotate PFs -2 div dup translate
  0 1 PFs PFa 4 get div 1 add floor cvi
	{PFa 4 get mul 0 M 0 PFs V} for
  0 PFa 6 get ne {
	0 1 PFs PFa 4 get div 1 add floor cvi
	{PFa 4 get mul 0 2 1 roll M PFs 0 V} for
 } if
  stroke grestore} def
%
/languagelevel where
 {pop languagelevel} {1} ifelse
 2 lt
	{/InterpretLevel1 true def}
	{/InterpretLevel1 Level1 def}
 ifelse
%
% PostScript level 2 pattern fill definitions
%
/Level2PatternFill {
/Tile8x8 {/PaintType 2 /PatternType 1 /TilingType 1 /BBox [0 0 8 8] /XStep 8 /YStep 8}
	bind def
/KeepColor {currentrgbcolor [/Pattern /DeviceRGB] setcolorspace} bind def
<< Tile8x8
 /PaintProc {0.5 setlinewidth pop 0 0 M 8 8 L 0 8 M 8 0 L stroke} 
>> matrix makepattern
/Pat1 exch def
<< Tile8x8
 /PaintProc {0.5 setlinewidth pop 0 0 M 8 8 L 0 8 M 8 0 L stroke
	0 4 M 4 8 L 8 4 L 4 0 L 0 4 L stroke}
>> matrix makepattern
/Pat2 exch def
<< Tile8x8
 /PaintProc {0.5 setlinewidth pop 0 0 M 0 8 L
	8 8 L 8 0 L 0 0 L fill}
>> matrix makepattern
/Pat3 exch def
<< Tile8x8
 /PaintProc {0.5 setlinewidth pop -4 8 M 8 -4 L
	0 12 M 12 0 L stroke}
>> matrix makepattern
/Pat4 exch def
<< Tile8x8
 /PaintProc {0.5 setlinewidth pop -4 0 M 8 12 L
	0 -4 M 12 8 L stroke}
>> matrix makepattern
/Pat5 exch def
<< Tile8x8
 /PaintProc {0.5 setlinewidth pop -2 8 M 4 -4 L
	0 12 M 8 -4 L 4 12 M 10 0 L stroke}
>> matrix makepattern
/Pat6 exch def
<< Tile8x8
 /PaintProc {0.5 setlinewidth pop -2 0 M 4 12 L
	0 -4 M 8 12 L 4 -4 M 10 8 L stroke}
>> matrix makepattern
/Pat7 exch def
<< Tile8x8
 /PaintProc {0.5 setlinewidth pop 8 -2 M -4 4 L
	12 0 M -4 8 L 12 4 M 0 10 L stroke}
>> matrix makepattern
/Pat8 exch def
<< Tile8x8
 /PaintProc {0.5 setlinewidth pop 0 -2 M 12 4 L
	-4 0 M 12 8 L -4 4 M 8 10 L stroke}
>> matrix makepattern
/Pat9 exch def
/Pattern1 {PatternBgnd KeepColor Pat1 setpattern} bind def
/Pattern2 {PatternBgnd KeepColor Pat2 setpattern} bind def
/Pattern3 {PatternBgnd KeepColor Pat3 setpattern} bind def
/Pattern4 {PatternBgnd KeepColor Landscape {Pat5} {Pat4} ifelse setpattern} bind def
/Pattern5 {PatternBgnd KeepColor Landscape {Pat4} {Pat5} ifelse setpattern} bind def
/Pattern6 {PatternBgnd KeepColor Landscape {Pat9} {Pat6} ifelse setpattern} bind def
/Pattern7 {PatternBgnd KeepColor Landscape {Pat8} {Pat7} ifelse setpattern} bind def
} def
%
%
%End of PostScript Level 2 code
%
/PatternBgnd {
  TransparentPatterns {} {gsave 1 setgray fill grestore} ifelse
} def
%
% Substitute for Level 2 pattern fill codes with
% grayscale if Level 2 support is not selected.
%
/Level1PatternFill {
/Pattern1 {0.250 Density} bind def
/Pattern2 {0.500 Density} bind def
/Pattern3 {0.750 Density} bind def
/Pattern4 {0.125 Density} bind def
/Pattern5 {0.375 Density} bind def
/Pattern6 {0.625 Density} bind def
/Pattern7 {0.875 Density} bind def
} def
%
% Now test for support of Level 2 code
%
Level1 {Level1PatternFill} {Level2PatternFill} ifelse
%
/Symbol-Oblique /Symbol findfont [1 0 .167 1 0 0] makefont
dup length dict begin {1 index /FID eq {pop pop} {def} ifelse} forall
currentdict end definefont pop
Level1 SuppressPDFMark or 
{} {
/SDict 10 dict def
systemdict /pdfmark known not {
  userdict /pdfmark systemdict /cleartomark get put
} if
SDict begin [
  /Title (out.ps)
  /Subject (gnuplot plot)
  /Creator (gnuplot 4.6 patchlevel 6)
  /Author (yani)
%  /Producer (gnuplot)
%  /Keywords ()
  /CreationDate (Fri May 29 03:02:07 2015)
  /DOCINFO pdfmark
end
} ifelse
end
%%EndProlog
%%Page: 1 1
gnudict begin
gsave
doclip
50 50 translate
0.100 0.100 scale
90 rotate
0 -5040 translate
0 setgray
newpath
(Helvetica) findfont 140 scalefont setfont
BackgroundColor 0 lt 3 1 roll 0 lt exch 0 lt or or not {gsave BackgroundColor C clippath fill grestore} if
1.000 UL
LT0
0.50 0.50 0.50 C 1.000 UL
LTa
0.50 0.50 0.50 C 966 280 M
5981 0 V
stroke
LT0
0.50 0.50 0.50 C 966 280 M
63 0 V
5918 0 R
-63 0 V
882 280 M
( 0) Rshow
1.000 UL
LT0
0.50 0.50 0.50 C 1.000 UL
LTa
0.50 0.50 0.50 C 966 372 M
5981 0 V
stroke
LT0
0.50 0.50 0.50 C 966 372 M
63 0 V
5918 0 R
-63 0 V
882 372 M
( 0.707106) Rshow
1.000 UL
LT0
0.50 0.50 0.50 C 1.000 UL
LTa
0.50 0.50 0.50 C 966 464 M
5981 0 V
stroke
LT0
0.50 0.50 0.50 C 966 464 M
63 0 V
5918 0 R
-63 0 V
882 464 M
( 1.41421) Rshow
1.000 UL
LT0
0.50 0.50 0.50 C 1.000 UL
LTa
0.50 0.50 0.50 C 966 555 M
5981 0 V
stroke
LT0
0.50 0.50 0.50 C 966 555 M
63 0 V
5918 0 R
-63 0 V
882 555 M
( 2.12132) Rshow
1.000 UL
LT0
0.50 0.50 0.50 C 1.000 UL
LTa
0.50 0.50 0.50 C 966 647 M
5981 0 V
stroke
LT0
0.50 0.50 0.50 C 966 647 M
63 0 V
5918 0 R
-63 0 V
882 647 M
( 2.82842) Rshow
1.000 UL
LT0
0.50 0.50 0.50 C 1.000 UL
LTa
0.50 0.50 0.50 C 966 739 M
5981 0 V
stroke
LT0
0.50 0.50 0.50 C 966 739 M
63 0 V
5918 0 R
-63 0 V
882 739 M
( 3.53553) Rshow
1.000 UL
LT0
0.50 0.50 0.50 C 1.000 UL
LTa
0.50 0.50 0.50 C 966 831 M
5981 0 V
stroke
LT0
0.50 0.50 0.50 C 966 831 M
63 0 V
5918 0 R
-63 0 V
882 831 M
( 4.24264) Rshow
1.000 UL
LT0
0.50 0.50 0.50 C 1.000 UL
LTa
0.50 0.50 0.50 C 966 923 M
5981 0 V
stroke
LT0
0.50 0.50 0.50 C 966 923 M
63 0 V
5918 0 R
-63 0 V
882 923 M
( 4.94974) Rshow
1.000 UL
LT0
0.50 0.50 0.50 C 1.000 UL
LTa
0.50 0.50 0.50 C 966 1015 M
5981 0 V
stroke
LT0
0.50 0.50 0.50 C 966 1015 M
63 0 V
5918 0 R
-63 0 V
-6002 0 R
( 5.65685) Rshow
1.000 UL
LT0
0.50 0.50 0.50 C 1.000 UL
LTa
0.50 0.50 0.50 C 966 1106 M
5981 0 V
stroke
LT0
0.50 0.50 0.50 C 966 1106 M
63 0 V
5918 0 R
-63 0 V
-6002 0 R
( 6.36395) Rshow
1.000 UL
LT0
0.50 0.50 0.50 C 1.000 UL
LTa
0.50 0.50 0.50 C 966 1198 M
5981 0 V
stroke
LT0
0.50 0.50 0.50 C 966 1198 M
63 0 V
5918 0 R
-63 0 V
-6002 0 R
( 7.07106) Rshow
1.000 UL
LT0
0.50 0.50 0.50 C 1.000 UL
LTa
0.50 0.50 0.50 C 966 1290 M
5981 0 V
stroke
LT0
0.50 0.50 0.50 C 966 1290 M
63 0 V
5918 0 R
-63 0 V
-6002 0 R
( 7.77817) Rshow
1.000 UL
LT0
0.50 0.50 0.50 C 1.000 UL
LTa
0.50 0.50 0.50 C 966 1382 M
5981 0 V
stroke
LT0
0.50 0.50 0.50 C 966 1382 M
63 0 V
5918 0 R
-63 0 V
-6002 0 R
( 8.48527) Rshow
1.000 UL
LT0
0.50 0.50 0.50 C 1.000 UL
LTa
0.50 0.50 0.50 C 966 1474 M
5981 0 V
stroke
LT0
0.50 0.50 0.50 C 966 1474 M
63 0 V
5918 0 R
-63 0 V
-6002 0 R
( 9.19238) Rshow
1.000 UL
LT0
0.50 0.50 0.50 C 1.000 UL
LTa
0.50 0.50 0.50 C 966 1565 M
5981 0 V
stroke
LT0
0.50 0.50 0.50 C 966 1565 M
63 0 V
5918 0 R
-63 0 V
-6002 0 R
( 9.89948) Rshow
1.000 UL
LT0
0.50 0.50 0.50 C 1.000 UL
LTa
0.50 0.50 0.50 C 966 1657 M
5981 0 V
stroke
LT0
0.50 0.50 0.50 C 966 1657 M
63 0 V
5918 0 R
-63 0 V
-6002 0 R
( 10.6066) Rshow
1.000 UL
LT0
0.50 0.50 0.50 C 1.000 UL
LTa
0.50 0.50 0.50 C 966 1749 M
5981 0 V
stroke
LT0
0.50 0.50 0.50 C 966 1749 M
63 0 V
5918 0 R
-63 0 V
-6002 0 R
( 11.3137) Rshow
1.000 UL
LT0
0.50 0.50 0.50 C 1.000 UL
LTa
0.50 0.50 0.50 C 966 1841 M
5981 0 V
stroke
LT0
0.50 0.50 0.50 C 966 1841 M
63 0 V
5918 0 R
-63 0 V
-6002 0 R
( 12.0208) Rshow
1.000 UL
LT0
0.50 0.50 0.50 C 1.000 UL
LTa
0.50 0.50 0.50 C 966 1933 M
5981 0 V
stroke
LT0
0.50 0.50 0.50 C 966 1933 M
63 0 V
5918 0 R
-63 0 V
-6002 0 R
( 12.7279) Rshow
1.000 UL
LT0
0.50 0.50 0.50 C 1.000 UL
LTa
0.50 0.50 0.50 C 966 2025 M
5981 0 V
stroke
LT0
0.50 0.50 0.50 C 966 2025 M
63 0 V
5918 0 R
-63 0 V
-6002 0 R
( 13.435) Rshow
1.000 UL
LT0
0.50 0.50 0.50 C 1.000 UL
LTa
0.50 0.50 0.50 C 966 2116 M
5981 0 V
stroke
LT0
0.50 0.50 0.50 C 966 2116 M
63 0 V
5918 0 R
-63 0 V
-6002 0 R
( 14.1421) Rshow
1.000 UL
LT0
0.50 0.50 0.50 C 1.000 UL
LTa
0.50 0.50 0.50 C 966 2208 M
5981 0 V
stroke
LT0
0.50 0.50 0.50 C 966 2208 M
63 0 V
5918 0 R
-63 0 V
-6002 0 R
( 14.8492) Rshow
1.000 UL
LT0
0.50 0.50 0.50 C 1.000 UL
LTa
0.50 0.50 0.50 C 966 2300 M
5981 0 V
stroke
LT0
0.50 0.50 0.50 C 966 2300 M
63 0 V
5918 0 R
-63 0 V
-6002 0 R
( 15.5563) Rshow
1.000 UL
LT0
0.50 0.50 0.50 C 1.000 UL
LTa
0.50 0.50 0.50 C 966 2392 M
5981 0 V
stroke
LT0
0.50 0.50 0.50 C 966 2392 M
63 0 V
5918 0 R
-63 0 V
-6002 0 R
( 16.2634) Rshow
1.000 UL
LT0
0.50 0.50 0.50 C 1.000 UL
LTa
0.50 0.50 0.50 C 966 2484 M
5981 0 V
stroke
LT0
0.50 0.50 0.50 C 966 2484 M
63 0 V
5918 0 R
-63 0 V
-6002 0 R
( 16.9705) Rshow
1.000 UL
LT0
0.50 0.50 0.50 C 1.000 UL
LTa
0.50 0.50 0.50 C 966 2575 M
5981 0 V
stroke
LT0
0.50 0.50 0.50 C 966 2575 M
63 0 V
5918 0 R
-63 0 V
-6002 0 R
( 17.6776) Rshow
1.000 UL
LT0
0.50 0.50 0.50 C 1.000 UL
LTa
0.50 0.50 0.50 C 966 2667 M
5981 0 V
stroke
LT0
0.50 0.50 0.50 C 966 2667 M
63 0 V
5918 0 R
-63 0 V
-6002 0 R
( 18.3848) Rshow
1.000 UL
LT0
0.50 0.50 0.50 C 1.000 UL
LTa
0.50 0.50 0.50 C 966 2759 M
5981 0 V
stroke
LT0
0.50 0.50 0.50 C 966 2759 M
63 0 V
5918 0 R
-63 0 V
-6002 0 R
( 19.0919) Rshow
1.000 UL
LT0
0.50 0.50 0.50 C 1.000 UL
LTa
0.50 0.50 0.50 C 966 2851 M
5981 0 V
stroke
LT0
0.50 0.50 0.50 C 966 2851 M
63 0 V
5918 0 R
-63 0 V
-6002 0 R
( 19.799) Rshow
1.000 UL
LT0
0.50 0.50 0.50 C 1.000 UL
LTa
0.50 0.50 0.50 C 966 2943 M
5981 0 V
stroke
LT0
0.50 0.50 0.50 C 966 2943 M
63 0 V
5918 0 R
-63 0 V
-6002 0 R
( 20.5061) Rshow
1.000 UL
LT0
0.50 0.50 0.50 C 1.000 UL
LTa
0.50 0.50 0.50 C 966 3035 M
5981 0 V
stroke
LT0
0.50 0.50 0.50 C 966 3035 M
63 0 V
5918 0 R
-63 0 V
-6002 0 R
( 21.2132) Rshow
1.000 UL
LT0
0.50 0.50 0.50 C 1.000 UL
LTa
0.50 0.50 0.50 C 966 3126 M
5981 0 V
stroke
LT0
0.50 0.50 0.50 C 966 3126 M
63 0 V
5918 0 R
-63 0 V
-6002 0 R
( 21.9203) Rshow
1.000 UL
LT0
0.50 0.50 0.50 C 1.000 UL
LTa
0.50 0.50 0.50 C 966 3218 M
5981 0 V
stroke
LT0
0.50 0.50 0.50 C 966 3218 M
63 0 V
5918 0 R
-63 0 V
-6002 0 R
( 22.6274) Rshow
1.000 UL
LT0
0.50 0.50 0.50 C 1.000 UL
LTa
0.50 0.50 0.50 C 966 3310 M
5981 0 V
stroke
LT0
0.50 0.50 0.50 C 966 3310 M
63 0 V
5918 0 R
-63 0 V
-6002 0 R
( 23.3345) Rshow
1.000 UL
LT0
0.50 0.50 0.50 C 1.000 UL
LTa
0.50 0.50 0.50 C 966 3402 M
5981 0 V
stroke
LT0
0.50 0.50 0.50 C 966 3402 M
63 0 V
5918 0 R
-63 0 V
-6002 0 R
( 24.0416) Rshow
1.000 UL
LT0
0.50 0.50 0.50 C 1.000 UL
LTa
0.50 0.50 0.50 C 966 3494 M
5981 0 V
stroke
LT0
0.50 0.50 0.50 C 966 3494 M
63 0 V
5918 0 R
-63 0 V
-6002 0 R
( 24.7487) Rshow
1.000 UL
LT0
0.50 0.50 0.50 C 1.000 UL
LTa
0.50 0.50 0.50 C 966 3586 M
5981 0 V
stroke
LT0
0.50 0.50 0.50 C 966 3586 M
63 0 V
5918 0 R
-63 0 V
-6002 0 R
( 25.4558) Rshow
1.000 UL
LT0
0.50 0.50 0.50 C 1.000 UL
LTa
0.50 0.50 0.50 C 966 3677 M
5981 0 V
stroke
LT0
0.50 0.50 0.50 C 966 3677 M
63 0 V
5918 0 R
-63 0 V
-6002 0 R
( 26.1629) Rshow
1.000 UL
LT0
0.50 0.50 0.50 C 1.000 UL
LTa
0.50 0.50 0.50 C 966 3769 M
5981 0 V
stroke
LT0
0.50 0.50 0.50 C 966 3769 M
63 0 V
5918 0 R
-63 0 V
-6002 0 R
( 26.87) Rshow
1.000 UL
LT0
0.50 0.50 0.50 C 1.000 UL
LTa
0.50 0.50 0.50 C 966 3861 M
5981 0 V
stroke
LT0
0.50 0.50 0.50 C 966 3861 M
63 0 V
5918 0 R
-63 0 V
-6002 0 R
( 27.5771) Rshow
1.000 UL
LT0
0.50 0.50 0.50 C 1.000 UL
LTa
0.50 0.50 0.50 C 966 3953 M
5981 0 V
stroke
LT0
0.50 0.50 0.50 C 966 3953 M
63 0 V
5918 0 R
-63 0 V
-6002 0 R
( 28.2842) Rshow
1.000 UL
LT0
0.50 0.50 0.50 C 1.000 UL
LTa
0.50 0.50 0.50 C 966 4045 M
5981 0 V
stroke
LT0
0.50 0.50 0.50 C 966 4045 M
63 0 V
5918 0 R
-63 0 V
-6002 0 R
( 28.9913) Rshow
1.000 UL
LT0
0.50 0.50 0.50 C 1.000 UL
LTa
0.50 0.50 0.50 C 966 4136 M
5981 0 V
stroke
LT0
0.50 0.50 0.50 C 966 4136 M
63 0 V
5918 0 R
-63 0 V
-6002 0 R
( 29.6985) Rshow
1.000 UL
LT0
0.50 0.50 0.50 C 1.000 UL
LTa
0.50 0.50 0.50 C 966 4228 M
5981 0 V
stroke
LT0
0.50 0.50 0.50 C 966 4228 M
63 0 V
5918 0 R
-63 0 V
-6002 0 R
( 30.4056) Rshow
1.000 UL
LT0
0.50 0.50 0.50 C 1.000 UL
LTa
0.50 0.50 0.50 C 966 4320 M
5981 0 V
stroke
LT0
0.50 0.50 0.50 C 966 4320 M
63 0 V
5918 0 R
-63 0 V
-6002 0 R
( 31.1127) Rshow
1.000 UL
LT0
0.50 0.50 0.50 C 1.000 UL
LTa
0.50 0.50 0.50 C 966 4412 M
5981 0 V
stroke
LT0
0.50 0.50 0.50 C 966 4412 M
63 0 V
5918 0 R
-63 0 V
-6002 0 R
( 31.8198) Rshow
1.000 UL
LT0
0.50 0.50 0.50 C 1.000 UL
LTa
0.50 0.50 0.50 C 966 4504 M
5981 0 V
stroke
LT0
0.50 0.50 0.50 C 966 4504 M
63 0 V
5918 0 R
-63 0 V
-6002 0 R
( 32.5269) Rshow
1.000 UL
LT0
0.50 0.50 0.50 C 1.000 UL
LTa
0.50 0.50 0.50 C 966 4596 M
5981 0 V
stroke
LT0
0.50 0.50 0.50 C 966 4596 M
63 0 V
5918 0 R
-63 0 V
-6002 0 R
( 33.234) Rshow
1.000 UL
LT0
0.50 0.50 0.50 C 1.000 UL
LTa
0.50 0.50 0.50 C 966 4687 M
5981 0 V
stroke
LT0
0.50 0.50 0.50 C 966 4687 M
63 0 V
5918 0 R
-63 0 V
-6002 0 R
( 33.9411) Rshow
1.000 UL
LT0
0.50 0.50 0.50 C 1.000 UL
LTa
0.50 0.50 0.50 C 966 4779 M
5981 0 V
stroke
LT0
0.50 0.50 0.50 C 966 4779 M
63 0 V
5918 0 R
-63 0 V
-6002 0 R
( 34.6482) Rshow
1.000 UL
LT0
0.50 0.50 0.50 C 1.000 UL
LTa
0.50 0.50 0.50 C 966 4871 M
5981 0 V
stroke
LT0
0.50 0.50 0.50 C 966 4871 M
63 0 V
5918 0 R
-63 0 V
-6002 0 R
( 35.3553) Rshow
1.000 UL
LT0
0.50 0.50 0.50 C 1.000 UL
LTa
0.50 0.50 0.50 C 966 280 M
0 4591 V
stroke
LT0
0.50 0.50 0.50 C 966 280 M
0 63 V
0 4528 R
0 -63 V
966 140 M
( 0) Cshow
1.000 UL
LT0
0.50 0.50 0.50 C 1.000 UL
LTa
0.50 0.50 0.50 C 1086 280 M
0 4591 V
stroke
LT0
0.50 0.50 0.50 C 1086 280 M
0 63 V
0 4528 R
0 -63 V
0 -4668 R
( 0.707106) Cshow
1.000 UL
LT0
0.50 0.50 0.50 C 1.000 UL
LTa
0.50 0.50 0.50 C 1205 280 M
0 4591 V
stroke
LT0
0.50 0.50 0.50 C 1205 280 M
0 63 V
0 4528 R
0 -63 V
0 -4668 R
( 1.41421) Cshow
1.000 UL
LT0
0.50 0.50 0.50 C 1.000 UL
LTa
0.50 0.50 0.50 C 1325 280 M
0 4591 V
stroke
LT0
0.50 0.50 0.50 C 1325 280 M
0 63 V
0 4528 R
0 -63 V
0 -4668 R
( 2.12132) Cshow
1.000 UL
LT0
0.50 0.50 0.50 C 1.000 UL
LTa
0.50 0.50 0.50 C 1444 280 M
0 4591 V
stroke
LT0
0.50 0.50 0.50 C 1444 280 M
0 63 V
0 4528 R
0 -63 V
0 -4668 R
( 2.82842) Cshow
1.000 UL
LT0
0.50 0.50 0.50 C 1.000 UL
LTa
0.50 0.50 0.50 C 1564 280 M
0 4591 V
stroke
LT0
0.50 0.50 0.50 C 1564 280 M
0 63 V
0 4528 R
0 -63 V
0 -4668 R
( 3.53553) Cshow
1.000 UL
LT0
0.50 0.50 0.50 C 1.000 UL
LTa
0.50 0.50 0.50 C 1684 280 M
0 4591 V
stroke
LT0
0.50 0.50 0.50 C 1684 280 M
0 63 V
0 4528 R
0 -63 V
0 -4668 R
( 4.24264) Cshow
1.000 UL
LT0
0.50 0.50 0.50 C 1.000 UL
LTa
0.50 0.50 0.50 C 1803 280 M
0 4591 V
stroke
LT0
0.50 0.50 0.50 C 1803 280 M
0 63 V
0 4528 R
0 -63 V
0 -4668 R
( 4.94974) Cshow
1.000 UL
LT0
0.50 0.50 0.50 C 1.000 UL
LTa
0.50 0.50 0.50 C 1923 280 M
0 4591 V
stroke
LT0
0.50 0.50 0.50 C 1923 280 M
0 63 V
0 4528 R
0 -63 V
0 -4668 R
( 5.65685) Cshow
1.000 UL
LT0
0.50 0.50 0.50 C 1.000 UL
LTa
0.50 0.50 0.50 C 2043 280 M
0 4591 V
stroke
LT0
0.50 0.50 0.50 C 2043 280 M
0 63 V
0 4528 R
0 -63 V
0 -4668 R
( 6.36395) Cshow
1.000 UL
LT0
0.50 0.50 0.50 C 1.000 UL
LTa
0.50 0.50 0.50 C 2162 280 M
0 4591 V
stroke
LT0
0.50 0.50 0.50 C 2162 280 M
0 63 V
0 4528 R
0 -63 V
0 -4668 R
( 7.07106) Cshow
1.000 UL
LT0
0.50 0.50 0.50 C 1.000 UL
LTa
0.50 0.50 0.50 C 2282 280 M
0 4591 V
stroke
LT0
0.50 0.50 0.50 C 2282 280 M
0 63 V
0 4528 R
0 -63 V
0 -4668 R
( 7.77817) Cshow
1.000 UL
LT0
0.50 0.50 0.50 C 1.000 UL
LTa
0.50 0.50 0.50 C 2401 280 M
0 4591 V
stroke
LT0
0.50 0.50 0.50 C 2401 280 M
0 63 V
0 4528 R
0 -63 V
0 -4668 R
( 8.48527) Cshow
1.000 UL
LT0
0.50 0.50 0.50 C 1.000 UL
LTa
0.50 0.50 0.50 C 2521 280 M
0 4591 V
stroke
LT0
0.50 0.50 0.50 C 2521 280 M
0 63 V
0 4528 R
0 -63 V
0 -4668 R
( 9.19238) Cshow
1.000 UL
LT0
0.50 0.50 0.50 C 1.000 UL
LTa
0.50 0.50 0.50 C 2641 280 M
0 4591 V
stroke
LT0
0.50 0.50 0.50 C 2641 280 M
0 63 V
0 4528 R
0 -63 V
0 -4668 R
( 9.89948) Cshow
1.000 UL
LT0
0.50 0.50 0.50 C 1.000 UL
LTa
0.50 0.50 0.50 C 2760 280 M
0 4591 V
stroke
LT0
0.50 0.50 0.50 C 2760 280 M
0 63 V
0 4528 R
0 -63 V
0 -4668 R
( 10.6066) Cshow
1.000 UL
LT0
0.50 0.50 0.50 C 1.000 UL
LTa
0.50 0.50 0.50 C 2880 280 M
0 4591 V
stroke
LT0
0.50 0.50 0.50 C 2880 280 M
0 63 V
0 4528 R
0 -63 V
0 -4668 R
( 11.3137) Cshow
1.000 UL
LT0
0.50 0.50 0.50 C 1.000 UL
LTa
0.50 0.50 0.50 C 3000 280 M
0 4591 V
stroke
LT0
0.50 0.50 0.50 C 3000 280 M
0 63 V
0 4528 R
0 -63 V
0 -4668 R
( 12.0208) Cshow
1.000 UL
LT0
0.50 0.50 0.50 C 1.000 UL
LTa
0.50 0.50 0.50 C 3119 280 M
0 4591 V
stroke
LT0
0.50 0.50 0.50 C 3119 280 M
0 63 V
0 4528 R
0 -63 V
0 -4668 R
( 12.7279) Cshow
1.000 UL
LT0
0.50 0.50 0.50 C 1.000 UL
LTa
0.50 0.50 0.50 C 3239 280 M
0 4591 V
stroke
LT0
0.50 0.50 0.50 C 3239 280 M
0 63 V
0 4528 R
0 -63 V
0 -4668 R
( 13.435) Cshow
1.000 UL
LT0
0.50 0.50 0.50 C 1.000 UL
LTa
0.50 0.50 0.50 C 3358 280 M
0 4591 V
stroke
LT0
0.50 0.50 0.50 C 3358 280 M
0 63 V
0 4528 R
0 -63 V
0 -4668 R
( 14.1421) Cshow
1.000 UL
LT0
0.50 0.50 0.50 C 1.000 UL
LTa
0.50 0.50 0.50 C 3478 280 M
0 4591 V
stroke
LT0
0.50 0.50 0.50 C 3478 280 M
0 63 V
0 4528 R
0 -63 V
0 -4668 R
( 14.8492) Cshow
1.000 UL
LT0
0.50 0.50 0.50 C 1.000 UL
LTa
0.50 0.50 0.50 C 3598 280 M
0 4591 V
stroke
LT0
0.50 0.50 0.50 C 3598 280 M
0 63 V
0 4528 R
0 -63 V
0 -4668 R
( 15.5563) Cshow
1.000 UL
LT0
0.50 0.50 0.50 C 1.000 UL
LTa
0.50 0.50 0.50 C 3717 280 M
0 4591 V
stroke
LT0
0.50 0.50 0.50 C 3717 280 M
0 63 V
0 4528 R
0 -63 V
0 -4668 R
( 16.2634) Cshow
1.000 UL
LT0
0.50 0.50 0.50 C 1.000 UL
LTa
0.50 0.50 0.50 C 3837 280 M
0 4591 V
stroke
LT0
0.50 0.50 0.50 C 3837 280 M
0 63 V
0 4528 R
0 -63 V
0 -4668 R
( 16.9705) Cshow
1.000 UL
LT0
0.50 0.50 0.50 C 1.000 UL
LTa
0.50 0.50 0.50 C 3956 280 M
0 4591 V
stroke
LT0
0.50 0.50 0.50 C 3956 280 M
0 63 V
0 4528 R
0 -63 V
0 -4668 R
( 17.6776) Cshow
1.000 UL
LT0
0.50 0.50 0.50 C 1.000 UL
LTa
0.50 0.50 0.50 C 4076 280 M
0 4591 V
stroke
LT0
0.50 0.50 0.50 C 4076 280 M
0 63 V
0 4528 R
0 -63 V
0 -4668 R
( 18.3848) Cshow
1.000 UL
LT0
0.50 0.50 0.50 C 1.000 UL
LTa
0.50 0.50 0.50 C 4196 280 M
0 4591 V
stroke
LT0
0.50 0.50 0.50 C 4196 280 M
0 63 V
0 4528 R
0 -63 V
0 -4668 R
( 19.0919) Cshow
1.000 UL
LT0
0.50 0.50 0.50 C 1.000 UL
LTa
0.50 0.50 0.50 C 4315 280 M
0 4591 V
stroke
LT0
0.50 0.50 0.50 C 4315 280 M
0 63 V
0 4528 R
0 -63 V
0 -4668 R
( 19.799) Cshow
1.000 UL
LT0
0.50 0.50 0.50 C 1.000 UL
LTa
0.50 0.50 0.50 C 4435 280 M
0 4591 V
stroke
LT0
0.50 0.50 0.50 C 4435 280 M
0 63 V
0 4528 R
0 -63 V
0 -4668 R
( 20.5061) Cshow
1.000 UL
LT0
0.50 0.50 0.50 C 1.000 UL
LTa
0.50 0.50 0.50 C 4555 280 M
0 4591 V
stroke
LT0
0.50 0.50 0.50 C 4555 280 M
0 63 V
0 4528 R
0 -63 V
0 -4668 R
( 21.2132) Cshow
1.000 UL
LT0
0.50 0.50 0.50 C 1.000 UL
LTa
0.50 0.50 0.50 C 4674 280 M
0 4591 V
stroke
LT0
0.50 0.50 0.50 C 4674 280 M
0 63 V
0 4528 R
0 -63 V
0 -4668 R
( 21.9203) Cshow
1.000 UL
LT0
0.50 0.50 0.50 C 1.000 UL
LTa
0.50 0.50 0.50 C 4794 280 M
0 4591 V
stroke
LT0
0.50 0.50 0.50 C 4794 280 M
0 63 V
0 4528 R
0 -63 V
0 -4668 R
( 22.6274) Cshow
1.000 UL
LT0
0.50 0.50 0.50 C 1.000 UL
LTa
0.50 0.50 0.50 C 4913 280 M
0 4591 V
stroke
LT0
0.50 0.50 0.50 C 4913 280 M
0 63 V
0 4528 R
0 -63 V
0 -4668 R
( 23.3345) Cshow
1.000 UL
LT0
0.50 0.50 0.50 C 1.000 UL
LTa
0.50 0.50 0.50 C 5033 280 M
0 4591 V
stroke
LT0
0.50 0.50 0.50 C 5033 280 M
0 63 V
0 4528 R
0 -63 V
0 -4668 R
( 24.0416) Cshow
1.000 UL
LT0
0.50 0.50 0.50 C 1.000 UL
LTa
0.50 0.50 0.50 C 5153 280 M
0 4591 V
stroke
LT0
0.50 0.50 0.50 C 5153 280 M
0 63 V
0 4528 R
0 -63 V
0 -4668 R
( 24.7487) Cshow
1.000 UL
LT0
0.50 0.50 0.50 C 1.000 UL
LTa
0.50 0.50 0.50 C 5272 280 M
0 4591 V
stroke
LT0
0.50 0.50 0.50 C 5272 280 M
0 63 V
0 4528 R
0 -63 V
0 -4668 R
( 25.4558) Cshow
1.000 UL
LT0
0.50 0.50 0.50 C 1.000 UL
LTa
0.50 0.50 0.50 C 5392 280 M
0 4591 V
stroke
LT0
0.50 0.50 0.50 C 5392 280 M
0 63 V
0 4528 R
0 -63 V
0 -4668 R
( 26.1629) Cshow
1.000 UL
LT0
0.50 0.50 0.50 C 1.000 UL
LTa
0.50 0.50 0.50 C 5512 280 M
0 4591 V
stroke
LT0
0.50 0.50 0.50 C 5512 280 M
0 63 V
0 4528 R
0 -63 V
0 -4668 R
( 26.87) Cshow
1.000 UL
LT0
0.50 0.50 0.50 C 1.000 UL
LTa
0.50 0.50 0.50 C 5631 280 M
0 4591 V
stroke
LT0
0.50 0.50 0.50 C 5631 280 M
0 63 V
0 4528 R
0 -63 V
0 -4668 R
( 27.5771) Cshow
1.000 UL
LT0
0.50 0.50 0.50 C 1.000 UL
LTa
0.50 0.50 0.50 C 5751 280 M
0 4591 V
stroke
LT0
0.50 0.50 0.50 C 5751 280 M
0 63 V
0 4528 R
0 -63 V
0 -4668 R
( 28.2842) Cshow
1.000 UL
LT0
0.50 0.50 0.50 C 1.000 UL
LTa
0.50 0.50 0.50 C 5870 280 M
0 4591 V
stroke
LT0
0.50 0.50 0.50 C 5870 280 M
0 63 V
0 4528 R
0 -63 V
0 -4668 R
( 28.9913) Cshow
1.000 UL
LT0
0.50 0.50 0.50 C 1.000 UL
LTa
0.50 0.50 0.50 C 5990 280 M
0 4591 V
stroke
LT0
0.50 0.50 0.50 C 5990 280 M
0 63 V
0 4528 R
0 -63 V
0 -4668 R
( 29.6985) Cshow
1.000 UL
LT0
0.50 0.50 0.50 C 1.000 UL
LTa
0.50 0.50 0.50 C 6110 280 M
0 4591 V
stroke
LT0
0.50 0.50 0.50 C 6110 280 M
0 63 V
0 4528 R
0 -63 V
0 -4668 R
( 30.4056) Cshow
1.000 UL
LT0
0.50 0.50 0.50 C 1.000 UL
LTa
0.50 0.50 0.50 C 6229 280 M
0 4591 V
stroke
LT0
0.50 0.50 0.50 C 6229 280 M
0 63 V
0 4528 R
0 -63 V
0 -4668 R
( 31.1127) Cshow
1.000 UL
LT0
0.50 0.50 0.50 C 1.000 UL
LTa
0.50 0.50 0.50 C 6349 280 M
0 4591 V
stroke
LT0
0.50 0.50 0.50 C 6349 280 M
0 63 V
0 4528 R
0 -63 V
0 -4668 R
( 31.8198) Cshow
1.000 UL
LT0
0.50 0.50 0.50 C 1.000 UL
LTa
0.50 0.50 0.50 C 6469 280 M
0 4591 V
stroke
LT0
0.50 0.50 0.50 C 6469 280 M
0 63 V
0 4528 R
0 -63 V
0 -4668 R
( 32.5269) Cshow
1.000 UL
LT0
0.50 0.50 0.50 C 1.000 UL
LTa
0.50 0.50 0.50 C 6588 280 M
0 4591 V
stroke
LT0
0.50 0.50 0.50 C 6588 280 M
0 63 V
0 4528 R
0 -63 V
0 -4668 R
( 33.234) Cshow
1.000 UL
LT0
0.50 0.50 0.50 C 1.000 UL
LTa
0.50 0.50 0.50 C 6708 280 M
0 4591 V
stroke
LT0
0.50 0.50 0.50 C 6708 280 M
0 63 V
0 4528 R
0 -63 V
0 -4668 R
( 33.9411) Cshow
1.000 UL
LT0
0.50 0.50 0.50 C 1.000 UL
LTa
0.50 0.50 0.50 C 6827 280 M
0 4591 V
stroke
LT0
0.50 0.50 0.50 C 6827 280 M
0 63 V
0 4528 R
0 -63 V
0 -4668 R
( 34.6482) Cshow
1.000 UL
LT0
0.50 0.50 0.50 C 1.000 UL
LTa
0.50 0.50 0.50 C 6947 280 M
0 4591 V
stroke
LT0
0.50 0.50 0.50 C 6947 280 M
0 63 V
0 4528 R
0 -63 V
0 -4668 R
( 35.3553) Cshow
1.000 UL
LT0
0.50 0.50 0.50 C 1.000 UL
LT0
0.50 0.50 0.50 C 966 4871 M
966 280 L
5981 0 V
0 4591 R
-5981 0 R
1.000 UP
stroke
LT0
0.50 0.50 0.50 C % Begin plot #1
1.500 UP
2.000 UL
LT0
0.00 0.00 1.00 C /Helvetica findfont 140 scalefont setfont
/vshift -46 def
966 464 M
120 0 V
0 91 R
119 0 V
0 92 R
120 0 V
0 184 R
119 0 V
120 0 V
120 0 V
119 0 V
120 0 V
120 0 V
119 0 V
120 0 V
119 0 V
120 0 V
120 0 V
119 0 V
120 0 V
120 0 V
119 0 V
120 0 V
119 0 V
0 459 R
120 0 V
120 0 V
119 0 V
120 0 V
120 0 V
119 0 V
0 826 R
120 0 V
119 0 V
120 0 V
0 92 R
120 0 V
119 0 V
0 276 R
120 0 V
119 0 V
120 0 V
120 0 V
119 0 V
0 92 R
120 0 V
120 0 V
0 275 R
119 0 V
120 0 V
119 0 V
0 92 R
120 0 V
120 0 V
0 734 R
119 0 V
0 92 R
120 0 V
0 551 R
120 0 V
119 0 V
120 0 V
0 459 R
119 0 V
120 0 V
1086 464 M
0 91 V
119 0 R
0 92 V
120 0 R
0 92 V
0 92 V
2033 0 R
0 92 V
0 92 V
0 91 V
0 92 V
0 92 V
718 0 R
0 92 V
0 92 V
0 91 V
0 92 V
0 92 V
0 92 V
0 92 V
0 92 V
0 91 V
359 0 R
0 92 V
239 0 R
0 92 V
0 92 V
0 92 V
598 0 R
0 92 V
240 0 R
0 91 V
0 92 V
0 92 V
358 0 R
0 92 V
240 0 R
0 92 V
0 91 V
stroke 6110 3126 M
0 92 V
0 92 V
0 92 V
0 92 V
0 92 V
0 91 V
119 0 R
0 92 V
120 0 R
0 92 V
0 92 V
0 92 V
0 91 V
0 92 V
0 92 V
359 0 R
0 92 V
0 92 V
0 92 V
0 91 V
0 92 V
966 280 M
0 92 V
6947 4779 M
0 92 V
966 372 M
0 92 V
966 464 CircleF
1086 464 CircleF
1086 555 CircleF
1205 555 CircleF
1205 647 CircleF
1325 647 CircleF
1325 831 CircleF
1444 831 CircleF
1444 831 CircleF
1564 831 CircleF
1564 831 CircleF
1684 831 CircleF
1684 831 CircleF
1803 831 CircleF
1803 831 CircleF
1923 831 CircleF
1923 831 CircleF
2043 831 CircleF
2043 831 CircleF
2162 831 CircleF
2162 831 CircleF
2282 831 CircleF
2282 831 CircleF
2401 831 CircleF
2401 831 CircleF
2521 831 CircleF
2521 831 CircleF
2641 831 CircleF
2641 831 CircleF
2760 831 CircleF
2760 831 CircleF
2880 831 CircleF
2880 831 CircleF
3000 831 CircleF
3000 831 CircleF
3119 831 CircleF
3119 831 CircleF
3239 831 CircleF
3239 831 CircleF
3358 831 CircleF
3358 1290 CircleF
3478 1290 CircleF
3478 1290 CircleF
3598 1290 CircleF
3598 1290 CircleF
3717 1290 CircleF
3717 1290 CircleF
3837 1290 CircleF
3837 1290 CircleF
3957 1290 CircleF
3957 1290 CircleF
4076 1290 CircleF
4076 2116 CircleF
4196 2116 CircleF
4196 2116 CircleF
4315 2116 CircleF
4315 2116 CircleF
4435 2116 CircleF
4435 2208 CircleF
4555 2208 CircleF
4555 2208 CircleF
4674 2208 CircleF
4674 2484 CircleF
4794 2484 CircleF
4794 2484 CircleF
4913 2484 CircleF
4913 2484 CircleF
5033 2484 CircleF
5033 2484 CircleF
5153 2484 CircleF
5153 2484 CircleF
5272 2484 CircleF
5272 2576 CircleF
5392 2576 CircleF
5392 2576 CircleF
5512 2576 CircleF
5512 2851 CircleF
5631 2851 CircleF
5631 2851 CircleF
5751 2851 CircleF
5751 2851 CircleF
5870 2851 CircleF
5870 2943 CircleF
5990 2943 CircleF
5990 2943 CircleF
6110 2943 CircleF
6110 3677 CircleF
6229 3677 CircleF
6229 3769 CircleF
6349 3769 CircleF
6349 4320 CircleF
6469 4320 CircleF
6469 4320 CircleF
6588 4320 CircleF
6588 4320 CircleF
6708 4320 CircleF
6708 4779 CircleF
6827 4779 CircleF
6827 4779 CircleF
6947 4779 CircleF
1086 464 CircleF
1086 555 CircleF
1205 555 CircleF
1205 647 CircleF
1325 647 CircleF
1325 739 CircleF
1325 739 CircleF
1325 831 CircleF
3358 831 CircleF
3358 923 CircleF
3358 923 CircleF
3358 1015 CircleF
3358 1015 CircleF
3358 1106 CircleF
3358 1106 CircleF
3358 1198 CircleF
3358 1198 CircleF
3358 1290 CircleF
4076 1290 CircleF
4076 1382 CircleF
4076 1382 CircleF
4076 1474 CircleF
4076 1474 CircleF
4076 1565 CircleF
4076 1565 CircleF
4076 1657 CircleF
4076 1657 CircleF
4076 1749 CircleF
4076 1749 CircleF
4076 1841 CircleF
4076 1841 CircleF
4076 1933 CircleF
4076 1933 CircleF
4076 2025 CircleF
4076 2025 CircleF
4076 2116 CircleF
4435 2116 CircleF
4435 2208 CircleF
4674 2208 CircleF
4674 2300 CircleF
4674 2300 CircleF
4674 2392 CircleF
4674 2392 CircleF
4674 2484 CircleF
5272 2484 CircleF
5272 2576 CircleF
5512 2576 CircleF
5512 2667 CircleF
5512 2667 CircleF
5512 2759 CircleF
5512 2759 CircleF
5512 2851 CircleF
5870 2851 CircleF
5870 2943 CircleF
6110 2943 CircleF
6110 3035 CircleF
6110 3035 CircleF
6110 3126 CircleF
6110 3126 CircleF
6110 3218 CircleF
6110 3218 CircleF
6110 3310 CircleF
6110 3310 CircleF
6110 3402 CircleF
6110 3402 CircleF
6110 3494 CircleF
6110 3494 CircleF
6110 3586 CircleF
6110 3586 CircleF
6110 3677 CircleF
6229 3677 CircleF
6229 3769 CircleF
6349 3769 CircleF
6349 3861 CircleF
6349 3861 CircleF
6349 3953 CircleF
6349 3953 CircleF
6349 4045 CircleF
6349 4045 CircleF
6349 4136 CircleF
6349 4136 CircleF
6349 4228 CircleF
6349 4228 CircleF
6349 4320 CircleF
6708 4320 CircleF
6708 4412 CircleF
6708 4412 CircleF
6708 4504 CircleF
6708 4504 CircleF
6708 4596 CircleF
6708 4596 CircleF
6708 4687 CircleF
6708 4687 CircleF
6708 4779 CircleF
966 280 CircleF
966 372 CircleF
6947 4779 CircleF
6947 4871 CircleF
966 372 CircleF
966 464 CircleF
% End plot #1
% Begin plot #2
1.500 UP
2.000 UL
LT0
1.00 0.55 0.00 C /Helvetica findfont 140 scalefont setfont
2683 4227 M
224 172 V
5590 1972 M
140 108 V
4144 3545 M
125 96 V
5200 1945 M
163 124 V
3977 1366 M
162 124 V
2461 1884 M
152 117 V
4836 1635 M
160 123 V
6165 4297 M
215 164 V
4518 4617 M
185 143 V
2184 317 M
219 168 V
4496 4345 M
184 141 V
1037 1368 M
121 92 V
5881 1054 M
182 139 V
4488 3955 M
154 118 V
1934 490 R
149 115 V
1480 396 M
159 122 V
1334 3105 M
140 107 V
4895 2626 M
184 142 V
1160 2298 M
158 121 V
2622 2254 M
205 157 V
6701 2148 M
195 149 V
5469 1755 M
189 146 V
4240 1454 M
208 160 V
6453 704 M
216 166 V
3271 714 M
122 94 V
2322 1395 M
152 117 V
545 3165 R
124 95 V
1812 1627 M
211 161 V
5135 902 M
174 133 V
2089 780 M
197 151 V
4066 2394 M
152 117 V
-77 2034 R
142 109 V
3889 1303 M
215 165 V
-929 335 R
143 110 V
2993 3105 M
176 135 V
2433 1170 M
142 108 V
4387 2750 M
184 142 V
5268 395 M
188 144 V
3678 2940 M
224 171 V
3070 2845 M
211 162 V
1627 1681 M
212 163 V
4141 4183 M
164 126 V
2404 4198 M
216 166 V
819 -489 R
159 122 V
5525 1149 M
159 122 V
2055 2220 M
136 105 V
3539 699 R
170 131 V
3119 3929 M
210 162 V
4463 1813 M
144 110 V
3409 321 M
122 93 V
5407 2573 M
174 134 V
5776 1146 M
190 146 V
-911 323 R
229 176 V
stroke 5284 1791 M
172 -147 R
208 159 V
998 136 R
237 182 V
5786 1361 M
227 174 V
218 2511 R
204 156 V
1616 852 M
145 112 V
5224 3457 M
214 164 V
1160 870 R
148 113 V
3380 4111 M
194 148 V
1151 924 M
207 159 V
4620 4032 M
217 167 V
1446 1917 M
207 159 V
826 884 R
206 158 V
2078 652 M
210 161 V
1280 266 R
119 92 V
2983 4173 M
171 131 V
2334 1725 M
223 172 V
1458 2493 M
199 153 V
5619 1294 M
189 144 V
3103 4346 M
210 162 V
2201 674 M
201 154 V
1742 4017 M
233 178 V
2720 62 R
175 134 V
4035 1339 M
195 149 V
571 873 R
235 181 V
2345 1360 M
128 98 V
2077 902 M
173 133 V
1249 4532 M
208 159 V
5981 2780 M
195 150 V
1584 1715 M
165 127 V
3729 3189 M
202 154 V
2968 1838 M
140 107 V
375 2449 R
176 135 V
6389 2324 M
198 153 V
5384 2060 M
154 118 V
6044 549 M
149 114 V
1005 2266 M
121 93 V
815 -968 R
172 132 V
3529 4604 M
224 172 V
4529 600 M
177 137 V
1448 3058 M
152 117 V
3428 412 R
223 171 V
3568 3153 M
135 104 V
1276 3448 M
199 152 V
4020 1695 M
175 134 V
391 1520 R
136 104 V
3761 500 M
216 165 V
1606 3763 M
187 144 V
6571 1842 M
211 162 V
3662 3876 M
132 102 V
6584 2628 M
207 158 V
5674 1473 M
192 147 V
2907 2873 M
237 182 V
stroke 3144 3055 M
1408 2393 M
138 106 V
2904 4438 M
185 142 V
2572 2784 M
237 183 V
6242 4035 M
133 102 V
5811 3331 M
219 168 V
6024 607 M
201 155 V
4694 1351 M
180 138 V
1336 682 R
205 158 V
85 -832 R
226 173 V
3682 3873 M
198 153 V
5234 668 M
150 116 V
3419 1141 M
148 114 V
1668 2617 M
172 132 V
3167 1158 M
142 109 V
-474 355 R
193 148 V
2431 877 R
188 145 V
2624 3978 M
206 158 V
4220 2888 M
223 171 V
647 -971 R
129 99 V
2535 1887 M
167 128 V
2172 802 M
208 159 V
6572 2313 M
184 141 V
4300 2073 M
181 139 V
1612 500 R
189 145 V
1187 3372 M
134 103 V
5036 842 R
222 171 V
3386 1985 M
155 120 V
2346 958 M
181 138 V
2011 2974 M
181 139 V
2859 12 R
223 171 V
4380 4595 M
192 148 V
2712 3243 M
223 171 V
1193 4451 M
180 138 V
79 -3579 R
174 133 V
78 1677 R
172 131 V
4209 4593 M
216 166 V
1901 3660 M
179 138 V
2733 1314 M
222 170 V
6450 3993 M
160 123 V
3850 2318 M
186 143 V
2183 2637 M
179 137 V
4642 1370 M
120 92 V
-283 720 R
135 103 V
3994 1954 M
187 143 V
1001 889 M
210 161 V
6001 4090 M
122 94 V
5872 2002 M
228 175 V
3922 1200 M
122 94 V
2386 4457 M
171 131 V
5922 2070 M
198 152 V
4793 941 M
229 176 V
1650 4192 M
192 148 V
stroke 1842 4340 M
5779 2787 M
134 103 V
3632 1976 M
232 178 V
3513 1687 M
221 170 V
1321 3001 M
184 142 V
6085 1864 M
215 165 V
3576 364 M
183 141 V
2192 613 R
160 123 V
5549 3981 M
223 171 V
1445 1464 M
187 143 V
3793 4100 M
170 130 V
6113 1505 M
170 131 V
1728 3357 M
216 166 V
1648 2956 M
202 155 V
2841 585 M
176 134 V
5330 2640 M
203 155 V
6313 1152 M
132 102 V
3757 1783 M
134 103 V
3057 740 M
147 113 V
2974 2828 M
224 171 V
4219 1511 M
142 109 V
4109 3840 M
183 140 V
5079 1929 M
156 120 V
4278 353 M
201 154 V
1755 792 M
206 158 V
4366 584 M
124 95 V
3010 412 M
134 102 V
6493 671 M
206 159 V
3552 553 M
165 127 V
1580 4135 M
175 134 V
4770 809 M
171 131 V
450 1791 R
217 167 V
2770 3469 M
214 165 V
5126 2722 M
181 139 V
1346 2659 M
161 123 V
5303 4179 M
142 109 V
6579 1109 M
191 146 V
3926 448 M
197 151 V
3780 768 M
230 177 V
5506 3144 M
149 114 V
-501 607 R
179 138 V
2496 693 M
133 101 V
-658 993 R
150 114 V
6683 1769 M
188 145 V
3633 2705 M
221 169 V
2849 2088 M
170 131 V
894 -485 R
220 169 V
5532 1086 M
171 131 V
1654 694 M
191 147 V
-795 585 R
130 100 V
3345 2560 M
232 177 V
6008 485 M
196 151 V
5372 1925 M
187 143 V
stroke 5559 2068 M
1586 4667 M
232 177 V
3158 4562 M
142 110 V
1649 949 M
133 102 V
734 2301 R
121 93 V
2532 271 R
155 118 V
2129 925 M
139 106 V
652 3418 R
207 158 V
6100 3146 M
193 148 V
4377 2243 M
163 125 V
227 2108 R
222 170 V
884 -986 R
209 161 V
4553 1464 M
137 105 V
-619 469 R
231 178 V
3500 1116 M
196 151 V
2507 3337 M
183 140 V
3291 381 R
194 150 V
1673 1653 M
170 131 V
3656 4167 M
130 99 V
6248 1513 M
160 123 V
197 -373 R
143 110 V
-764 751 R
186 142 V
1656 4500 M
124 95 V
5001 3581 M
227 174 V
4492 898 M
188 145 V
1475 3833 M
202 155 V
2714 2003 M
143 110 V
2408 785 M
176 135 V
935 365 R
202 155 V
6473 3999 M
212 163 V
2699 4610 M
201 155 V
6698 3736 M
170 130 V
6224 1974 M
173 133 V
2214 3830 M
237 182 V
5599 2174 M
169 130 V
4802 3668 M
185 143 V
696 869 R
217 167 V
5537 4513 M
142 109 V
3641 1085 M
236 181 V
6324 4112 M
180 138 V
6382 633 M
136 104 V
3520 2624 M
231 178 V
2099 233 R
127 97 V
4721 4652 M
236 181 V
2195 712 M
230 177 V
5782 4065 M
171 132 V
2995 700 M
220 169 V
-31 1811 R
222 171 V
-1457 60 R
212 162 V
6621 1037 M
164 125 V
6034 680 M
121 93 V
3426 4316 M
152 116 V
4994 3970 M
195 150 V
stroke 5189 4120 M
3212 3482 M
140 108 V
2123 4146 M
190 146 V
4346 3052 M
140 108 V
5907 463 M
165 127 V
3833 3630 M
186 144 V
-3049 0 R
186 142 V
-5 -1366 R
153 117 V
89 -1227 R
145 111 V
4829 453 M
158 122 V
3013 2977 M
219 168 V
2976 4224 M
219 168 V
4036 728 M
129 99 V
5884 4166 M
230 177 V
4095 794 M
234 179 V
47 388 R
219 168 V
-337 970 R
222 170 V
1089 4510 M
161 123 V
3223 1172 M
149 114 V
2344 4357 M
147 112 V
6597 368 M
182 140 V
3092 1233 M
192 147 V
1453 745 M
175 134 V
104 1564 R
198 152 V
2850 984 M
126 96 V
4150 3456 M
221 170 V
51 -1479 R
125 96 V
4040 312 M
178 137 V
1777 1821 M
148 114 V
5552 1256 M
172 132 V
5438 2623 M
139 106 V
1057 2024 M
155 119 V
5184 570 R
234 180 V
1966 472 M
151 116 V
-81 1275 R
175 134 V
2479 696 M
136 104 V
3798 558 R
127 97 V
4202 3168 M
220 169 V
5921 1867 M
136 104 V
1161 3021 M
142 109 V
2550 962 M
125 96 V
684 1907 R
158 121 V
969 2956 M
221 170 V
1705 1985 M
154 118 V
2254 2 R
141 108 V
1224 -40 R
167 129 V
2304 930 M
135 103 V
5345 798 M
223 172 V
4668 2025 M
205 158 V
598 1461 R
225 172 V
2133 561 M
155 119 V
6511 4182 M
214 163 V
6472 3619 M
150 115 V
stroke 6622 3734 M
4252 2725 M
158 122 V
6685 1693 M
208 160 V
2860 2719 M
124 95 V
2924 252 R
194 149 V
5021 3590 M
188 144 V
2193 1868 M
158 122 V
4931 3600 M
237 182 V
-47 549 R
139 107 V
3164 3842 M
141 109 V
4336 3411 M
209 161 V
2717 1769 M
134 103 V
5742 3485 M
175 134 V
5552 1051 M
214 164 V
4136 3748 M
175 135 V
2376 -49 R
174 133 V
4883 3032 M
190 145 V
2365 1472 M
170 130 V
2351 634 M
218 167 V
3933 307 R
126 97 V
1427 3167 M
134 103 V
393 -558 R
237 182 V
6262 4339 M
142 109 V
4744 4607 M
120 92 V
1828 3419 M
203 156 V
6544 491 M
139 107 V
2587 3718 M
140 108 V
4492 1183 M
126 97 V
5115 880 M
161 123 V
2067 3300 M
214 165 V
3429 3357 M
233 179 V
4498 2335 M
212 163 V
2999 778 M
184 141 V
991 3573 M
215 165 V
3749 192 R
144 110 V
2561 2111 M
213 163 V
2268 4621 M
165 127 V
1879 1755 M
191 147 V
1575 748 R
195 149 V
6476 644 M
134 102 V
4586 888 M
171 131 V
1365 1151 M
120 92 V
913 558 R
153 118 V
6104 3608 M
171 131 V
2051 3640 M
182 139 V
5012 2672 M
228 175 V
4326 711 M
201 153 V
3170 731 M
221 170 V
1855 4054 M
226 174 V
1026 2224 M
198 152 V
520 1510 R
145 112 V
6407 2258 M
192 148 V
4667 2311 M
236 181 V
stroke 4903 2492 M
2847 3019 M
173 133 V
4506 1664 M
189 145 V
113 1037 R
133 102 V
4693 2532 M
201 154 V
-3144 83 R
168 130 V
425 1651 R
195 150 V
3022 324 M
224 172 V
1538 944 M
209 160 V
1063 2374 M
146 112 V
130 2019 R
142 109 V
4378 3963 M
135 104 V
2591 989 M
180 139 V
-604 209 R
204 157 V
1043 609 R
127 98 V
5675 485 M
155 119 V
4860 978 M
160 123 V
2701 1235 M
146 112 V
3880 4181 M
201 154 V
3028 2599 M
238 183 V
4630 1985 M
203 156 V
2279 1037 M
165 126 V
755 3229 R
159 123 V
6334 4113 M
128 99 V
6299 3598 M
233 179 V
4082 4502 M
183 140 V
1186 2402 M
173 133 V
2652 842 R
141 108 V
4274 940 M
208 160 V
1397 4681 M
231 177 V
2918 1847 M
210 161 V
-65 1810 R
188 145 V
-82 556 R
141 108 V
6547 2848 M
159 123 V
1342 2156 M
226 173 V
4488 4090 M
209 160 V
2061 3141 M
194 150 V
817 1335 R
214 164 V
1269 3407 M
218 167 V
5178 2495 M
164 127 V
1935 3508 M
169 130 V
3316 249 R
179 138 V
2982 1964 M
216 165 V
1306 2093 M
135 104 V
3055 533 R
148 114 V
1461 4412 M
172 132 V
3542 496 M
173 132 V
55 1303 R
210 162 V
-230 35 R
156 120 V
3859 910 M
191 147 V
2875 819 M
228 175 V
4418 3416 M
222 170 V
6500 3223 M
126 97 V
stroke 6626 3320 M
-5419 -4 R
152 116 V
2437 62 R
176 135 V
5364 1180 M
237 181 V
3250 2849 M
121 93 V
2777 328 M
217 167 V
4527 4038 M
234 179 V
1738 810 M
158 121 V
6138 2108 M
145 111 V
5927 4257 M
203 156 V
1016 1653 M
164 127 V
1554 541 M
223 172 V
1021 4282 M
234 179 V
281 -516 R
202 155 V
2938 676 M
216 166 V
-915 724 R
232 178 V
4719 345 M
224 172 V
2079 850 M
207 159 V
4097 455 M
193 148 V
2811 4612 M
152 117 V
6013 2466 M
190 146 V
2757 781 M
223 172 V
4338 2372 M
181 139 V
5562 563 M
203 157 V
3581 1092 M
124 96 V
1914 2087 M
128 98 V
5490 3684 M
152 117 V
33 -2072 R
157 120 V
651 -312 R
222 171 V
2391 4008 M
183 141 V
3193 373 M
149 115 V
4890 325 M
129 99 V
4157 1915 M
232 177 V
564 930 R
188 144 V
5765 1522 M
217 167 V
4741 1439 M
140 107 V
4522 4484 M
218 167 V
4155 3152 M
171 132 V
4592 1360 M
126 97 V
1406 4223 M
176 135 V
4047 507 M
211 162 V
1742 4014 M
137 105 V
1103 1042 M
211 162 V
5929 669 M
137 105 V
1856 4017 M
153 117 V
3488 2794 M
209 160 V
780 196 R
177 136 V
4029 1496 M
152 116 V
6145 2720 M
140 107 V
-907 241 R
129 99 V
2801 4015 M
217 166 V
67 -2306 R
131 102 V
5870 3600 M
138 106 V
stroke 6008 3706 M
6437 620 M
236 181 V
3091 4362 M
206 159 V
1274 3113 M
210 161 V
3004 2839 M
202 155 V
6102 4601 M
143 110 V
1490 4568 M
232 179 V
2124 288 M
159 123 V
3764 2428 M
162 124 V
4696 890 M
128 99 V
1089 510 R
123 94 V
428 2597 R
190 145 V
1148 1954 M
229 176 V
6093 861 M
227 174 V
352 3353 R
210 161 V
5306 3669 M
234 179 V
3908 4489 M
204 156 V
2935 3115 M
230 177 V
4706 4379 M
212 162 V
2606 3130 M
130 100 V
5675 1157 M
165 127 V
3241 4114 M
212 163 V
2650 773 M
185 143 V
3466 796 R
126 96 V
4524 2709 M
161 124 V
4578 4176 M
173 132 V
1220 109 R
183 140 V
6535 1947 M
130 100 V
2166 1050 M
218 168 V
2259 1073 M
179 136 V
90 -675 R
222 171 V
-720 672 R
142 109 V
558 2850 R
216 166 V
3459 2297 M
214 164 V
4031 1257 M
203 156 V
3497 4524 M
234 180 V
2374 2593 M
157 121 V
517 1787 R
160 123 V
1338 3557 M
236 181 V
6638 1691 M
200 154 V
5727 4603 M
121 93 V
1248 3051 M
132 101 V
1463 16 R
230 177 V
4754 1703 M
227 174 V
6661 895 M
121 93 V
3969 1249 M
195 150 V
1823 2825 M
202 155 V
2122 57 R
218 167 V
2605 727 M
125 96 V
2120 308 R
145 111 V
-1088 22 R
145 111 V
1959 2247 M
205 157 V
4099 4664 M
155 119 V
stroke 4254 4783 M
1772 3453 M
207 159 V
3511 1140 M
204 157 V
5187 902 M
141 108 V
3280 4382 M
200 153 V
2212 3506 M
134 103 V
344 54 R
230 176 V
2202 1173 M
191 146 V
1079 2790 M
157 120 V
2482 4187 M
139 106 V
3772 254 R
196 150 V
3479 1994 M
209 161 V
1459 860 R
218 168 V
2739 3665 M
161 124 V
5920 1308 M
188 144 V
4000 1239 M
193 148 V
1392 1713 M
222 171 V
5360 4189 M
234 180 V
4058 1869 M
143 110 V
3807 1202 M
195 149 V
5998 2890 M
187 144 V
-744 570 R
166 127 V
1422 2031 M
146 112 V
4255 635 R
217 166 V
4205 694 M
145 111 V
3350 1034 M
193 148 V
1692 3416 M
132 101 V
5657 2023 M
221 169 V
4859 3816 M
178 137 V
1271 1243 M
125 96 V
647 3182 R
170 130 V
1759 2156 M
185 142 V
5450 3702 M
199 153 V
3510 1776 M
220 169 V
1983 544 R
153 117 V
4008 4177 M
225 173 V
2291 3241 M
175 135 V
-142 -43 R
200 153 V
3873 3209 M
172 133 V
2512 1904 M
181 139 V
2164 48 R
131 101 V
2672 3346 M
136 105 V
4575 1487 M
206 158 V
456 838 R
125 96 V
4690 3842 M
145 111 V
3375 287 M
194 149 V
478 2603 R
167 128 V
1516 3569 M
229 176 V
1645 817 M
179 137 V
-156 40 R
146 112 V
6075 752 M
170 131 V
3623 819 M
121 93 V
1096 2154 M
231 177 V
stroke 1327 2331 M
5178 322 M
199 153 V
3363 1289 M
170 130 V
1985 3757 M
133 102 V
1431 951 M
156 119 V
3765 2391 M
196 151 V
1644 417 M
160 123 V
855 3208 R
149 114 V
2104 1457 M
121 92 V
2939 264 R
194 149 V
3291 4582 M
217 167 V
5220 1671 M
145 112 V
1149 4422 M
134 103 V
4386 -96 R
136 105 V
-3105 45 R
229 176 V
2539 3464 M
168 128 V
6015 3229 M
170 130 V
2554 3723 M
195 150 V
2702 531 M
131 101 V
6010 4203 M
134 103 V
4854 2898 M
226 173 V
2058 397 M
138 106 V
5303 356 M
154 118 V
1741 1893 M
168 129 V
4051 4505 M
182 139 V
5741 1995 M
153 118 V
4255 1633 M
148 114 V
2513 3752 M
224 171 V
-127 497 R
237 181 V
3294 2901 M
148 113 V
-629 973 R
179 137 V
6064 2356 M
232 178 V
1088 3622 M
194 149 V
4474 344 M
206 159 V
2267 2815 M
132 102 V
1666 4615 M
131 101 V
5741 4211 M
204 157 V
6537 442 M
128 98 V
4504 2269 M
192 148 V
632 1797 R
164 126 V
3416 4463 M
183 140 V
2604 2960 M
180 139 V
3860 1647 M
194 149 V
6205 2889 M
235 180 V
1460 648 M
171 131 V
1326 2583 M
177 135 V
2797 312 M
129 100 V
4979 2636 M
204 156 V
2962 3353 M
143 110 V
2220 459 R
133 101 V
4401 2686 M
148 114 V
1808 675 M
202 155 V
4428 2467 M
165 127 V
stroke 4593 2594 M
4181 517 M
223 171 V
6432 3480 M
146 112 V
2772 2032 M
233 179 V
151 -220 R
188 145 V
4376 1130 M
217 167 V
2085 2859 M
166 128 V
1818 937 M
135 104 V
600 1923 R
213 164 V
485 37 R
137 105 V
1498 908 M
132 102 V
3311 799 R
226 174 V
3846 3807 M
198 152 V
1616 1040 M
166 127 V
4741 883 R
172 133 V
3619 3528 M
146 112 V
1536 141 R
206 158 V
1534 741 M
204 157 V
992 3046 R
222 170 V
6355 290 M
139 107 V
1740 2886 M
237 182 V
4598 269 R
199 153 V
3643 2654 M
213 164 V
5126 1592 M
179 138 V
2087 2010 M
232 178 V
4957 977 M
153 117 V
1429 2820 M
207 158 V
3826 400 M
210 161 V
-75 964 R
224 173 V
2618 2801 M
206 157 V
1434 1734 M
149 115 V
549 916 R
230 177 V
5921 410 M
160 123 V
4000 3999 M
138 107 V
2533 3468 M
217 166 V
5562 4654 M
128 97 V
5948 2664 M
236 181 V
4919 3891 M
216 166 V
-47 -22 R
214 164 V
4729 3394 M
211 162 V
2580 2682 M
208 160 V
1402 824 M
178 137 V
4539 2347 M
159 122 V
1262 4430 M
205 156 V
3703 808 M
226 173 V
5396 3520 M
207 159 V
5125 2402 M
144 111 V
-357 616 R
126 97 V
863 216 R
232 179 V
3381 2722 M
133 102 V
5270 804 M
167 129 V
6672 387 M
218 168 V
2045 505 M
161 123 V
stroke 2206 628 M
5350 2090 M
128 98 V
56 570 R
231 178 V
3266 888 M
234 179 V
378 2813 R
161 123 V
5057 1107 M
190 145 V
4716 2904 M
217 167 V
1528 754 R
120 92 V
5322 924 M
209 160 V
4279 3405 M
193 149 V
3329 1591 M
163 125 V
-613 777 R
176 135 V
1818 4387 M
223 172 V
2000 3040 M
204 156 V
5014 1964 M
145 110 V
1018 4442 M
188 144 V
846 -657 R
190 146 V
1725 3638 M
211 161 V
5244 657 M
216 166 V
4507 2311 M
192 147 V
2689 3740 M
149 114 V
1733 362 R
191 146 V
4498 3422 M
142 109 V
4589 1374 M
170 131 V
5073 421 M
218 168 V
1947 1073 M
216 165 V
1471 3883 M
174 134 V
6240 497 M
233 179 V
2473 1436 M
180 138 V
403 784 R
209 161 V
6479 2230 M
227 175 V
4718 347 M
169 129 V
3166 1117 M
211 162 V
3250 -39 R
185 143 V
4688 3459 M
146 112 V
5433 2363 M
210 161 V
1641 2650 M
200 154 V
1899 78 R
150 115 V
36 267 R
158 121 V
3250 2563 M
212 163 V
1835 3373 M
180 138 V
346 -215 R
155 119 V
1282 4340 M
216 167 V
371 -818 R
188 145 V
4006 613 M
126 96 V
6374 2404 M
123 94 V
4849 2036 M
189 145 V
1946 4032 M
232 179 V
6155 931 M
192 148 V
4523 2171 M
176 136 V
3001 1608 M
207 158 V
1454 -59 R
230 176 V
1893 722 M
225 173 V
stroke 2118 895 M
596 3606 R
196 150 V
5508 4449 M
193 149 V
3153 1765 M
210 161 V
3480 542 M
229 176 V
6447 3100 M
135 103 V
4570 4646 M
129 98 V
6091 1289 M
182 139 V
1280 4010 M
215 165 V
976 461 M
221 169 V
4687 1793 M
216 165 V
1503 791 R
126 97 V
1320 817 M
196 151 V
3400 4579 M
202 155 V
5851 1040 M
152 117 V
500 3104 R
165 126 V
3974 1848 M
214 164 V
2202 588 M
153 117 V
6590 2353 M
149 114 V
3354 2951 M
160 123 V
6532 1639 M
150 115 V
5313 824 M
145 111 V
4490 3121 M
234 179 V
3608 3839 M
137 105 V
1504 -54 R
228 175 V
1844 3203 M
180 137 V
-580 881 R
237 182 V
2188 1131 M
187 143 V
6085 2992 M
175 135 V
1270 1948 M
217 167 V
4380 1384 M
197 151 V
6219 2894 M
125 96 V
4557 3851 M
136 104 V
3914 3140 M
133 102 V
2963 3439 M
187 143 V
6511 3420 M
212 163 V
3351 2349 M
131 100 V
2414 363 R
191 146 V
-901 90 R
132 101 V
1076 3293 M
181 139 V
1888 1177 M
154 118 V
4938 352 M
163 125 V
1172 4621 M
212 163 V
969 974 M
211 162 V
4865 804 M
217 166 V
-737 952 R
125 96 V
2761 2292 M
166 128 V
-514 130 R
214 164 V
5394 1261 M
192 148 V
1975 1249 M
230 177 V
5354 2568 M
216 166 V
2341 309 M
156 120 V
4670 4327 M
160 123 V
stroke 4830 4450 M
6283 4262 M
133 101 V
3864 1784 M
235 180 V
3268 4354 M
199 153 V
5400 3861 M
136 104 V
4968 3587 M
138 106 V
4118 1041 M
127 98 V
6011 3057 M
160 123 V
4864 2159 M
139 106 V
5942 303 M
144 111 V
261 244 R
207 159 V
1418 4542 M
189 146 V
2139 2096 M
157 121 V
-903 603 R
201 154 V
2443 494 M
144 111 V
1611 3199 M
122 94 V
3734 821 M
142 109 V
1248 3197 M
173 132 V
4076 617 R
128 98 V
2606 680 M
220 169 V
1450 4430 M
168 129 V
2239 2652 M
139 106 V
971 4337 M
151 116 V
3685 2752 M
219 168 V
3172 2357 M
224 171 V
1611 994 R
187 144 V
1903 2415 M
131 101 V
-42 432 R
227 174 V
1453 896 R
208 160 V
3483 2599 M
163 126 V
1176 4219 M
143 110 V
3587 3847 M
149 114 V
1340 584 M
201 155 V
382 982 R
223 171 V
5244 1075 M
190 145 V
4056 327 M
200 154 V
5888 2897 M
166 128 V
2868 3003 M
199 153 V
3358 892 R
165 127 V
1739 1764 M
161 123 V
2978 4540 M
123 95 V
6602 835 M
226 174 V
3653 626 M
203 156 V
6114 3670 M
218 168 V
4173 816 M
137 105 V
2438 3266 M
200 154 V
1203 4110 M
162 125 V
4174 897 M
154 117 V
3714 2398 M
186 143 V
1970 3055 M
153 117 V
2591 1073 M
232 178 V
4222 3612 M
208 160 V
157 337 R
120 92 V
stroke 4707 4201 M
3740 2174 M
151 116 V
2423 2076 M
237 182 V
592 745 R
139 106 V
2412 393 R
204 157 V
23 -342 R
187 144 V
3589 3027 M
196 151 V
2234 201 R
145 111 V
27 -168 R
222 170 V
3384 434 M
175 133 V
1049 519 M
179 137 V
2552 3296 M
219 168 V
1751 1542 M
147 113 V
2967 860 R
188 145 V
1003 1416 M
193 148 V
5239 142 R
165 127 V
2957 2632 M
154 118 V
5333 1929 M
120 92 V
-1307 69 R
213 163 V
3483 3882 M
197 151 V
2489 2343 M
168 129 V
-511 187 R
151 116 V
1749 729 M
153 118 V
5673 2135 M
204 158 V
1791 1689 M
196 151 V
3899 155 R
207 159 V
3338 3503 M
143 110 V
1286 734 M
207 159 V
3268 557 M
196 151 V
467 3535 R
212 163 V
5356 1665 M
134 103 V
6691 4036 M
129 99 V
1663 808 M
217 166 V
6073 3266 M
166 128 V
3773 2605 M
184 141 V
-2023 88 R
135 103 V
2583 926 M
226 174 V
-873 424 R
142 109 V
3950 328 M
207 159 V
5238 2008 M
237 183 V
5157 4564 M
136 104 V
1207 2345 M
164 127 V
5711 3886 M
214 165 V
105 342 R
224 172 V
1819 2665 M
222 170 V
-89 167 R
165 127 V
5854 2244 M
224 171 V
4410 2064 M
142 108 V
5877 4122 M
176 136 V
-1950 78 R
149 114 V
2230 4154 M
138 106 V
1043 2726 M
210 161 V
5168 3921 M
173 133 V
stroke 5341 4054 M
3991 4573 M
165 126 V
3514 3999 M
133 101 V
1237 1603 M
186 142 V
3788 766 R
150 116 V
1837 1793 M
163 125 V
2297 128 R
179 137 V
749 643 R
209 161 V
1644 1249 M
166 128 V
5321 419 M
198 152 V
2843 3436 M
149 115 V
-738 923 R
187 144 V
5230 3675 M
137 106 V
1051 3158 M
144 112 V
77 713 R
166 127 V
1299 2288 M
119 92 V
1631 315 M
184 141 V
3133 3764 M
208 160 V
5931 3067 M
179 137 V
162 181 R
222 170 V
2108 316 M
132 101 V
6278 2987 M
186 143 V
3720 554 M
183 141 V
1412 2719 M
140 107 V
5467 2252 M
209 160 V
-6 718 R
142 109 V
2367 1467 M
205 157 V
3336 870 M
189 145 V
861 2689 R
168 129 V
3705 2356 M
183 140 V
817 1891 R
213 164 V
1303 4304 M
232 177 V
6219 702 M
121 93 V
2875 4448 M
220 169 V
3352 3422 M
211 162 V
1567 621 R
228 175 V
2843 3868 M
226 173 V
4189 1279 M
154 119 V
2190 1943 M
120 92 V
3445 770 M
169 130 V
5902 4612 M
155 119 V
-96 -407 R
181 139 V
1242 672 M
172 132 V
6592 341 M
208 159 V
2217 1639 M
141 108 V
1694 599 M
228 175 V
1082 2288 M
155 118 V
6024 835 M
129 99 V
3778 857 M
217 167 V
5366 3468 M
211 162 V
5951 893 M
182 140 V
3556 1659 M
171 131 V
3831 784 M
150 115 V
stroke 3981 899 M
-913 512 R
183 141 V
4565 4270 M
203 155 V
1435 1539 M
223 171 V
5888 1542 M
154 118 V
4185 853 M
125 96 V
6364 4299 M
165 126 V
3794 3634 M
125 96 V
-584 324 R
207 158 V
5608 1199 M
162 124 V
2737 636 M
152 117 V
1445 4613 M
152 117 V
3702 2739 M
224 172 V
2503 930 R
163 126 V
2683 4227 CircleF
2907 4399 CircleF
5590 1972 CircleF
5730 2080 CircleF
4144 3545 CircleF
4269 3641 CircleF
5200 1945 CircleF
5363 2069 CircleF
3977 1366 CircleF
4139 1490 CircleF
2461 1884 CircleF
2613 2001 CircleF
4836 1635 CircleF
4996 1758 CircleF
6165 4297 CircleF
6380 4461 CircleF
4518 4617 CircleF
4703 4760 CircleF
2184 317 CircleF
2403 485 CircleF
4496 4345 CircleF
4680 4486 CircleF
1037 1368 CircleF
1158 1460 CircleF
5881 1054 CircleF
6063 1193 CircleF
4488 3955 CircleF
4642 4073 CircleF
6576 4563 CircleF
6725 4678 CircleF
1480 396 CircleF
1639 518 CircleF
1334 3105 CircleF
1474 3212 CircleF
4895 2626 CircleF
5079 2768 CircleF
1160 2298 CircleF
1318 2419 CircleF
2622 2254 CircleF
2827 2411 CircleF
6701 2148 CircleF
6896 2297 CircleF
5469 1755 CircleF
5658 1901 CircleF
4240 1454 CircleF
4448 1614 CircleF
6453 704 CircleF
6669 870 CircleF
3271 714 CircleF
3393 808 CircleF
2322 1395 CircleF
2474 1512 CircleF
3019 4677 CircleF
3143 4772 CircleF
1812 1627 CircleF
2023 1788 CircleF
5135 902 CircleF
5309 1035 CircleF
2089 780 CircleF
2286 931 CircleF
4066 2394 CircleF
4218 2511 CircleF
4141 4545 CircleF
4283 4654 CircleF
3889 1303 CircleF
4104 1468 CircleF
3175 1803 CircleF
3318 1913 CircleF
2993 3105 CircleF
3169 3240 CircleF
2433 1170 CircleF
2575 1278 CircleF
4387 2750 CircleF
4571 2892 CircleF
5268 395 CircleF
5456 539 CircleF
3678 2940 CircleF
3902 3111 CircleF
3070 2845 CircleF
3281 3007 CircleF
1627 1681 CircleF
1839 1844 CircleF
4141 4183 CircleF
4305 4309 CircleF
2404 4198 CircleF
2620 4364 CircleF
3439 3875 CircleF
3598 3997 CircleF
5525 1149 CircleF
5684 1271 CircleF
2055 2220 CircleF
2191 2325 CircleF
5730 3024 CircleF
5900 3155 CircleF
3119 3929 CircleF
3329 4091 CircleF
4463 1813 CircleF
4607 1923 CircleF
3409 321 CircleF
3531 414 CircleF
5407 2573 CircleF
5581 2707 CircleF
5776 1146 CircleF
5966 1292 CircleF
5055 1615 CircleF
5284 1791 CircleF
5456 1644 CircleF
5664 1803 CircleF
6662 1939 CircleF
6899 2121 CircleF
5786 1361 CircleF
6013 1535 CircleF
6231 4046 CircleF
6435 4202 CircleF
1616 852 CircleF
1761 964 CircleF
5224 3457 CircleF
5438 3621 CircleF
6598 4491 CircleF
6746 4604 CircleF
3380 4111 CircleF
3574 4259 CircleF
1151 924 CircleF
1358 1083 CircleF
4620 4032 CircleF
4837 4199 CircleF
1446 1917 CircleF
1653 2076 CircleF
2479 2960 CircleF
2685 3118 CircleF
2078 652 CircleF
2288 813 CircleF
3568 1079 CircleF
3687 1171 CircleF
2983 4173 CircleF
3154 4304 CircleF
2334 1725 CircleF
2557 1897 CircleF
1458 2493 CircleF
1657 2646 CircleF
5619 1294 CircleF
5808 1438 CircleF
3103 4346 CircleF
3313 4508 CircleF
2201 674 CircleF
2402 828 CircleF
1742 4017 CircleF
1975 4195 CircleF
4695 4257 CircleF
4870 4391 CircleF
4035 1339 CircleF
4230 1488 CircleF
4801 2361 CircleF
5036 2542 CircleF
2345 1360 CircleF
2473 1458 CircleF
2077 902 CircleF
2250 1035 CircleF
1249 4532 CircleF
1457 4691 CircleF
5981 2780 CircleF
6176 2930 CircleF
1584 1715 CircleF
1749 1842 CircleF
3729 3189 CircleF
3931 3343 CircleF
2968 1838 CircleF
3108 1945 CircleF
3483 4394 CircleF
3659 4529 CircleF
6389 2324 CircleF
6587 2477 CircleF
5384 2060 CircleF
5538 2178 CircleF
6044 549 CircleF
6193 663 CircleF
1005 2266 CircleF
1126 2359 CircleF
1941 1391 CircleF
2113 1523 CircleF
3529 4604 CircleF
3753 4776 CircleF
4529 600 CircleF
4706 737 CircleF
1448 3058 CircleF
1600 3175 CircleF
5028 3587 CircleF
5251 3758 CircleF
3568 3153 CircleF
3703 3257 CircleF
1276 3448 CircleF
1475 3600 CircleF
4020 1695 CircleF
4195 1829 CircleF
4586 3349 CircleF
4722 3453 CircleF
3761 500 CircleF
3977 665 CircleF
1606 3763 CircleF
1793 3907 CircleF
6571 1842 CircleF
6782 2004 CircleF
3662 3876 CircleF
3794 3978 CircleF
6584 2628 CircleF
6791 2786 CircleF
5674 1473 CircleF
5866 1620 CircleF
2907 2873 CircleF
3144 3055 CircleF
1408 2393 CircleF
1546 2499 CircleF
2904 4438 CircleF
3089 4580 CircleF
2572 2784 CircleF
2809 2967 CircleF
6242 4035 CircleF
6375 4137 CircleF
5811 3331 CircleF
6030 3499 CircleF
6024 607 CircleF
6225 762 CircleF
4694 1351 CircleF
4874 1489 CircleF
6210 2171 CircleF
6415 2329 CircleF
6500 1497 CircleF
6726 1670 CircleF
3682 3873 CircleF
3880 4026 CircleF
5234 668 CircleF
5384 784 CircleF
3419 1141 CircleF
3567 1255 CircleF
1668 2617 CircleF
1840 2749 CircleF
3167 1158 CircleF
3309 1267 CircleF
2835 1622 CircleF
3028 1770 CircleF
5459 2647 CircleF
5647 2792 CircleF
2624 3978 CircleF
2830 4136 CircleF
4220 2888 CircleF
4443 3059 CircleF
5090 2088 CircleF
5219 2187 CircleF
2535 1887 CircleF
2702 2015 CircleF
2172 802 CircleF
2380 961 CircleF
6572 2313 CircleF
6756 2454 CircleF
4300 2073 CircleF
4481 2212 CircleF
6093 2712 CircleF
6282 2857 CircleF
1187 3372 CircleF
1321 3475 CircleF
6357 4317 CircleF
6579 4488 CircleF
3386 1985 CircleF
3541 2105 CircleF
2346 958 CircleF
2527 1096 CircleF
2011 2974 CircleF
2192 3113 CircleF
5051 3125 CircleF
5274 3296 CircleF
4380 4595 CircleF
4572 4743 CircleF
2712 3243 CircleF
2935 3414 CircleF
1193 4451 CircleF
1373 4589 CircleF
1452 1010 CircleF
1626 1143 CircleF
1704 2820 CircleF
1876 2951 CircleF
4209 4593 CircleF
4425 4759 CircleF
1901 3660 CircleF
2080 3798 CircleF
2733 1314 CircleF
2955 1484 CircleF
6450 3993 CircleF
6610 4116 CircleF
3850 2318 CircleF
4036 2461 CircleF
2183 2637 CircleF
2362 2774 CircleF
4642 1370 CircleF
4762 1462 CircleF
4479 2182 CircleF
4614 2285 CircleF
3994 1954 CircleF
4181 2097 CircleF
1001 889 CircleF
1211 1050 CircleF
6001 4090 CircleF
6123 4184 CircleF
5872 2002 CircleF
6100 2177 CircleF
3922 1200 CircleF
4044 1294 CircleF
2386 4457 CircleF
2557 4588 CircleF
5922 2070 CircleF
6120 2222 CircleF
4793 941 CircleF
5022 1117 CircleF
1650 4192 CircleF
1842 4340 CircleF
5779 2787 CircleF
5913 2890 CircleF
3632 1976 CircleF
3864 2154 CircleF
3513 1687 CircleF
3734 1857 CircleF
1321 3001 CircleF
1505 3143 CircleF
6085 1864 CircleF
6300 2029 CircleF
3576 364 CircleF
3759 505 CircleF
5951 1118 CircleF
6111 1241 CircleF
5549 3981 CircleF
5772 4152 CircleF
1445 1464 CircleF
1632 1607 CircleF
3793 4100 CircleF
3963 4230 CircleF
6113 1505 CircleF
6283 1636 CircleF
1728 3357 CircleF
1944 3523 CircleF
1648 2956 CircleF
1850 3111 CircleF
2841 585 CircleF
3017 719 CircleF
5330 2640 CircleF
5533 2795 CircleF
6313 1152 CircleF
6445 1254 CircleF
3757 1783 CircleF
3891 1886 CircleF
3057 740 CircleF
3204 853 CircleF
2974 2828 CircleF
3198 2999 CircleF
4219 1511 CircleF
4361 1620 CircleF
4109 3840 CircleF
4292 3980 CircleF
5079 1929 CircleF
5235 2049 CircleF
4278 353 CircleF
4479 507 CircleF
1755 792 CircleF
1961 950 CircleF
4366 584 CircleF
4490 679 CircleF
3010 412 CircleF
3144 514 CircleF
6493 671 CircleF
6699 830 CircleF
3552 553 CircleF
3717 680 CircleF
1580 4135 CircleF
1755 4269 CircleF
4770 809 CircleF
4941 940 CircleF
5391 2731 CircleF
5608 2898 CircleF
2770 3469 CircleF
2984 3634 CircleF
5126 2722 CircleF
5307 2861 CircleF
1346 2659 CircleF
1507 2782 CircleF
5303 4179 CircleF
5445 4288 CircleF
6579 1109 CircleF
6770 1255 CircleF
3926 448 CircleF
4123 599 CircleF
3780 768 CircleF
4010 945 CircleF
5506 3144 CircleF
5655 3258 CircleF
5154 3865 CircleF
5333 4003 CircleF
2496 693 CircleF
2629 794 CircleF
1971 1787 CircleF
2121 1901 CircleF
6683 1769 CircleF
6871 1914 CircleF
3633 2705 CircleF
3854 2874 CircleF
2849 2088 CircleF
3019 2219 CircleF
3913 1734 CircleF
4133 1903 CircleF
5532 1086 CircleF
5703 1217 CircleF
1654 694 CircleF
1845 841 CircleF
1050 1426 CircleF
1180 1526 CircleF
3345 2560 CircleF
3577 2737 CircleF
6008 485 CircleF
6204 636 CircleF
5372 1925 CircleF
5559 2068 CircleF
1586 4667 CircleF
1818 4844 CircleF
3158 4562 CircleF
3300 4672 CircleF
1649 949 CircleF
1782 1051 CircleF
2516 3352 CircleF
2637 3445 CircleF
5169 3716 CircleF
5324 3834 CircleF
2129 925 CircleF
2268 1031 CircleF
2920 4449 CircleF
3127 4607 CircleF
6100 3146 CircleF
6293 3294 CircleF
4377 2243 CircleF
4540 2368 CircleF
4767 4476 CircleF
4989 4646 CircleF
5873 3660 CircleF
6082 3821 CircleF
4553 1464 CircleF
4690 1569 CircleF
4071 2038 CircleF
4302 2216 CircleF
3500 1116 CircleF
3696 1267 CircleF
2507 3337 CircleF
2690 3477 CircleF
5981 3858 CircleF
6175 4008 CircleF
1673 1653 CircleF
1843 1784 CircleF
3656 4167 CircleF
3786 4266 CircleF
6248 1513 CircleF
6408 1636 CircleF
6605 1263 CircleF
6748 1373 CircleF
5984 2124 CircleF
6170 2266 CircleF
1656 4500 CircleF
1780 4595 CircleF
5001 3581 CircleF
5228 3755 CircleF
4492 898 CircleF
4680 1043 CircleF
1475 3833 CircleF
1677 3988 CircleF
2714 2003 CircleF
2857 2113 CircleF
2408 785 CircleF
2584 920 CircleF
3519 1285 CircleF
3721 1440 CircleF
6473 3999 CircleF
6685 4162 CircleF
2699 4610 CircleF
2900 4765 CircleF
6698 3736 CircleF
6868 3866 CircleF
6224 1974 CircleF
6397 2107 CircleF
2214 3830 CircleF
2451 4012 CircleF
5599 2174 CircleF
5768 2304 CircleF
4802 3668 CircleF
4987 3811 CircleF
5683 4680 CircleF
5900 4847 CircleF
5537 4513 CircleF
5679 4622 CircleF
3641 1085 CircleF
3877 1266 CircleF
6324 4112 CircleF
6504 4250 CircleF
6382 633 CircleF
6518 737 CircleF
3520 2624 CircleF
3751 2802 CircleF
5850 3035 CircleF
5977 3132 CircleF
4721 4652 CircleF
4957 4833 CircleF
2195 712 CircleF
2425 889 CircleF
5782 4065 CircleF
5953 4197 CircleF
2995 700 CircleF
3215 869 CircleF
3184 2680 CircleF
3406 2851 CircleF
1949 2911 CircleF
2161 3073 CircleF
6621 1037 CircleF
6785 1162 CircleF
6034 680 CircleF
6155 773 CircleF
3426 4316 CircleF
3578 4432 CircleF
4994 3970 CircleF
5189 4120 CircleF
3212 3482 CircleF
3352 3590 CircleF
2123 4146 CircleF
2313 4292 CircleF
4346 3052 CircleF
4486 3160 CircleF
5907 463 CircleF
6072 590 CircleF
3833 3630 CircleF
4019 3774 CircleF
970 3774 CircleF
1156 3916 CircleF
1151 2550 CircleF
1304 2667 CircleF
1393 1440 CircleF
1538 1551 CircleF
4829 453 CircleF
4987 575 CircleF
3013 2977 CircleF
3232 3145 CircleF
2976 4224 CircleF
3195 4392 CircleF
4036 728 CircleF
4165 827 CircleF
5884 4166 CircleF
6114 4343 CircleF
4095 794 CircleF
4329 973 CircleF
4376 1361 CircleF
4595 1529 CircleF
4258 2499 CircleF
4480 2669 CircleF
1089 4510 CircleF
1250 4633 CircleF
3223 1172 CircleF
3372 1286 CircleF
2344 4357 CircleF
2491 4469 CircleF
6597 368 CircleF
6779 508 CircleF
3092 1233 CircleF
3284 1380 CircleF
1453 745 CircleF
1628 879 CircleF
1732 2443 CircleF
1930 2595 CircleF
2850 984 CircleF
2976 1080 CircleF
4150 3456 CircleF
4371 3626 CircleF
4422 2147 CircleF
4547 2243 CircleF
4040 312 CircleF
4218 449 CircleF
1777 1821 CircleF
1925 1935 CircleF
5552 1256 CircleF
5724 1388 CircleF
5438 2623 CircleF
5577 2729 CircleF
1057 2024 CircleF
1212 2143 CircleF
6396 2713 CircleF
6630 2893 CircleF
1966 472 CircleF
2117 588 CircleF
2036 1863 CircleF
2211 1997 CircleF
2479 696 CircleF
2615 800 CircleF
6413 1358 CircleF
6540 1455 CircleF
4202 3168 CircleF
4422 3337 CircleF
5921 1867 CircleF
6057 1971 CircleF
1161 3021 CircleF
1303 3130 CircleF
2550 962 CircleF
2675 1058 CircleF
3359 2965 CircleF
3517 3086 CircleF
969 2956 CircleF
1190 3126 CircleF
1705 1985 CircleF
1859 2103 CircleF
4113 2105 CircleF
4254 2213 CircleF
5478 2173 CircleF
5645 2302 CircleF
2304 930 CircleF
2439 1033 CircleF
5345 798 CircleF
5568 970 CircleF
4668 2025 CircleF
4873 2183 CircleF
5471 3644 CircleF
5696 3816 CircleF
2133 561 CircleF
2288 680 CircleF
6511 4182 CircleF
6725 4345 CircleF
6472 3619 CircleF
6622 3734 CircleF
4252 2725 CircleF
4410 2847 CircleF
6685 1693 CircleF
6893 1853 CircleF
2860 2719 CircleF
2984 2814 CircleF
5908 3066 CircleF
6102 3215 CircleF
5021 3590 CircleF
5209 3734 CircleF
2193 1868 CircleF
2351 1990 CircleF
4931 3600 CircleF
5168 3782 CircleF
5121 4331 CircleF
5260 4438 CircleF
3164 3842 CircleF
3305 3951 CircleF
4336 3411 CircleF
4545 3572 CircleF
2717 1769 CircleF
2851 1872 CircleF
5742 3485 CircleF
5917 3619 CircleF
5552 1051 CircleF
5766 1215 CircleF
4136 3748 CircleF
4311 3883 CircleF
6687 3834 CircleF
6861 3967 CircleF
4883 3032 CircleF
5073 3177 CircleF
2365 1472 CircleF
2535 1602 CircleF
2351 634 CircleF
2569 801 CircleF
6502 1108 CircleF
6628 1205 CircleF
1427 3167 CircleF
1561 3270 CircleF
1954 2712 CircleF
2191 2894 CircleF
6262 4339 CircleF
6404 4448 CircleF
4744 4607 CircleF
4864 4699 CircleF
1828 3419 CircleF
2031 3575 CircleF
6544 491 CircleF
6683 598 CircleF
2587 3718 CircleF
2727 3826 CircleF
4492 1183 CircleF
4618 1280 CircleF
5115 880 CircleF
5276 1003 CircleF
2067 3300 CircleF
2281 3465 CircleF
3429 3357 CircleF
3662 3536 CircleF
4498 2335 CircleF
4710 2498 CircleF
2999 778 CircleF
3183 919 CircleF
991 3573 CircleF
1206 3738 CircleF
4955 3930 CircleF
5099 4040 CircleF
2561 2111 CircleF
2774 2274 CircleF
2268 4621 CircleF
2433 4748 CircleF
1879 1755 CircleF
2070 1902 CircleF
3645 2650 CircleF
3840 2799 CircleF
6476 644 CircleF
6610 746 CircleF
4586 888 CircleF
4757 1019 CircleF
1365 1151 CircleF
1485 1243 CircleF
2398 1801 CircleF
2551 1919 CircleF
6104 3608 CircleF
6275 3739 CircleF
2051 3640 CircleF
2233 3779 CircleF
5012 2672 CircleF
5240 2847 CircleF
4326 711 CircleF
4527 864 CircleF
3170 731 CircleF
3391 901 CircleF
1855 4054 CircleF
2081 4228 CircleF
1026 2224 CircleF
1224 2376 CircleF
1744 3886 CircleF
1889 3998 CircleF
6407 2258 CircleF
6599 2406 CircleF
4667 2311 CircleF
4903 2492 CircleF
2847 3019 CircleF
3020 3152 CircleF
4506 1664 CircleF
4695 1809 CircleF
4808 2846 CircleF
4941 2948 CircleF
4693 2532 CircleF
4894 2686 CircleF
1750 2769 CircleF
1918 2899 CircleF
2343 4550 CircleF
2538 4700 CircleF
3022 324 CircleF
3246 496 CircleF
1538 944 CircleF
1747 1104 CircleF
1063 2374 CircleF
1209 2486 CircleF
1339 4505 CircleF
1481 4614 CircleF
4378 3963 CircleF
4513 4067 CircleF
2591 989 CircleF
2771 1128 CircleF
2167 1337 CircleF
2371 1494 CircleF
3414 2103 CircleF
3541 2201 CircleF
5675 485 CircleF
5830 604 CircleF
4860 978 CircleF
5020 1101 CircleF
2701 1235 CircleF
2847 1347 CircleF
3880 4181 CircleF
4081 4335 CircleF
3028 2599 CircleF
3266 2782 CircleF
4630 1985 CircleF
4833 2141 CircleF
2279 1037 CircleF
2444 1163 CircleF
3199 4392 CircleF
3358 4515 CircleF
6334 4113 CircleF
6462 4212 CircleF
6299 3598 CircleF
6532 3777 CircleF
4082 4502 CircleF
4265 4642 CircleF
1186 2402 CircleF
1359 2535 CircleF
4011 3377 CircleF
4152 3485 CircleF
4274 940 CircleF
4482 1100 CircleF
1397 4681 CircleF
1628 4858 CircleF
2918 1847 CircleF
3128 2008 CircleF
3063 3818 CircleF
3251 3963 CircleF
3169 4519 CircleF
3310 4627 CircleF
6547 2848 CircleF
6706 2971 CircleF
1342 2156 CircleF
1568 2329 CircleF
4488 4090 CircleF
4697 4250 CircleF
2061 3141 CircleF
2255 3291 CircleF
3072 4626 CircleF
3286 4790 CircleF
1269 3407 CircleF
1487 3574 CircleF
5178 2495 CircleF
5342 2622 CircleF
1935 3508 CircleF
2104 3638 CircleF
5420 3887 CircleF
5599 4025 CircleF
2982 1964 CircleF
3198 2129 CircleF
1306 2093 CircleF
1441 2197 CircleF
4496 2730 CircleF
4644 2844 CircleF
1461 4412 CircleF
1633 4544 CircleF
3542 496 CircleF
3715 628 CircleF
3770 1931 CircleF
3980 2093 CircleF
3750 2128 CircleF
3906 2248 CircleF
3859 910 CircleF
4050 1057 CircleF
2875 819 CircleF
3103 994 CircleF
4418 3416 CircleF
4640 3586 CircleF
6500 3223 CircleF
6626 3320 CircleF
1207 3316 CircleF
1359 3432 CircleF
3796 3494 CircleF
3972 3629 CircleF
5364 1180 CircleF
5601 1361 CircleF
3250 2849 CircleF
3371 2942 CircleF
2777 328 CircleF
2994 495 CircleF
4527 4038 CircleF
4761 4217 CircleF
1738 810 CircleF
1896 931 CircleF
6138 2108 CircleF
6283 2219 CircleF
5927 4257 CircleF
6130 4413 CircleF
1016 1653 CircleF
1180 1780 CircleF
1554 541 CircleF
1777 713 CircleF
1021 4282 CircleF
1255 4461 CircleF
1536 3945 CircleF
1738 4100 CircleF
2938 676 CircleF
3154 842 CircleF
2239 1566 CircleF
2471 1744 CircleF
4719 345 CircleF
4943 517 CircleF
2079 850 CircleF
2286 1009 CircleF
4097 455 CircleF
4290 603 CircleF
2811 4612 CircleF
2963 4729 CircleF
6013 2466 CircleF
6203 2612 CircleF
2757 781 CircleF
2980 953 CircleF
4338 2372 CircleF
4519 2511 CircleF
5562 563 CircleF
5765 720 CircleF
3581 1092 CircleF
3705 1188 CircleF
1914 2087 CircleF
2042 2185 CircleF
5490 3684 CircleF
5642 3801 CircleF
5675 1729 CircleF
5832 1849 CircleF
6483 1537 CircleF
6705 1708 CircleF
2391 4008 CircleF
2574 4149 CircleF
3193 373 CircleF
3342 488 CircleF
4890 325 CircleF
5019 424 CircleF
4157 1915 CircleF
4389 2092 CircleF
4953 3022 CircleF
5141 3166 CircleF
5765 1522 CircleF
5982 1689 CircleF
4741 1439 CircleF
4881 1546 CircleF
4522 4484 CircleF
4740 4651 CircleF
4155 3152 CircleF
4326 3284 CircleF
4592 1360 CircleF
4718 1457 CircleF
1406 4223 CircleF
1582 4358 CircleF
4047 507 CircleF
4258 669 CircleF
1742 4014 CircleF
1879 4119 CircleF
1103 1042 CircleF
1314 1204 CircleF
5929 669 CircleF
6066 774 CircleF
1856 4017 CircleF
2009 4134 CircleF
3488 2794 CircleF
3697 2954 CircleF
4477 3150 CircleF
4654 3286 CircleF
4029 1496 CircleF
4181 1612 CircleF
6145 2720 CircleF
6285 2827 CircleF
5378 3068 CircleF
5507 3167 CircleF
2801 4015 CircleF
3018 4181 CircleF
3085 1875 CircleF
3216 1977 CircleF
5870 3600 CircleF
6008 3706 CircleF
6437 620 CircleF
6673 801 CircleF
3091 4362 CircleF
3297 4521 CircleF
1274 3113 CircleF
1484 3274 CircleF
3004 2839 CircleF
3206 2994 CircleF
6102 4601 CircleF
6245 4711 CircleF
1490 4568 CircleF
1722 4747 CircleF
2124 288 CircleF
2283 411 CircleF
3764 2428 CircleF
3926 2552 CircleF
4696 890 CircleF
4824 989 CircleF
5913 1499 CircleF
6036 1593 CircleF
6464 4190 CircleF
6654 4335 CircleF
1148 1954 CircleF
1377 2130 CircleF
6093 861 CircleF
6320 1035 CircleF
6672 4388 CircleF
6882 4549 CircleF
5306 3669 CircleF
5540 3848 CircleF
3908 4489 CircleF
4112 4645 CircleF
2935 3115 CircleF
3165 3292 CircleF
4706 4379 CircleF
4918 4541 CircleF
2606 3130 CircleF
2736 3230 CircleF
5675 1157 CircleF
5840 1284 CircleF
3241 4114 CircleF
3453 4277 CircleF
2650 773 CircleF
2835 916 CircleF
6301 1712 CircleF
6427 1808 CircleF
4524 2709 CircleF
4685 2833 CircleF
4578 4176 CircleF
4751 4308 CircleF
5971 4417 CircleF
6154 4557 CircleF
6535 1947 CircleF
6665 2047 CircleF
2166 1050 CircleF
2384 1218 CircleF
2259 1073 CircleF
2438 1209 CircleF
2528 534 CircleF
2750 705 CircleF
2030 1377 CircleF
2172 1486 CircleF
2730 4336 CircleF
2946 4502 CircleF
3459 2297 CircleF
3673 2461 CircleF
4031 1257 CircleF
4234 1413 CircleF
3497 4524 CircleF
3731 4704 CircleF
2374 2593 CircleF
2531 2714 CircleF
3048 4501 CircleF
3208 4624 CircleF
1338 3557 CircleF
1574 3738 CircleF
6638 1691 CircleF
6838 1845 CircleF
5727 4603 CircleF
5848 4696 CircleF
1248 3051 CircleF
1380 3152 CircleF
2843 3168 CircleF
3073 3345 CircleF
4754 1703 CircleF
4981 1877 CircleF
6661 895 CircleF
6782 988 CircleF
3969 1249 CircleF
4164 1399 CircleF
1823 2825 CircleF
2025 2980 CircleF
4147 3037 CircleF
4365 3204 CircleF
2605 727 CircleF
2730 823 CircleF
4850 1131 CircleF
4995 1242 CircleF
3907 1264 CircleF
4052 1375 CircleF
1959 2247 CircleF
2164 2404 CircleF
4099 4664 CircleF
4254 4783 CircleF
1772 3453 CircleF
1979 3612 CircleF
3511 1140 CircleF
3715 1297 CircleF
5187 902 CircleF
5328 1010 CircleF
3280 4382 CircleF
3480 4535 CircleF
2212 3506 CircleF
2346 3609 CircleF
2690 3663 CircleF
2920 3839 CircleF
2202 1173 CircleF
2393 1319 CircleF
1079 2790 CircleF
1236 2910 CircleF
2482 4187 CircleF
2621 4293 CircleF
6393 4547 CircleF
6589 4697 CircleF
3479 1994 CircleF
3688 2155 CircleF
5147 3015 CircleF
5365 3183 CircleF
2739 3665 CircleF
2900 3789 CircleF
5920 1308 CircleF
6108 1452 CircleF
4000 1239 CircleF
4193 1387 CircleF
1392 1713 CircleF
1614 1884 CircleF
5360 4189 CircleF
5594 4369 CircleF
4058 1869 CircleF
4201 1979 CircleF
3807 1202 CircleF
4002 1351 CircleF
5998 2890 CircleF
6185 3034 CircleF
5441 3604 CircleF
5607 3731 CircleF
1422 2031 CircleF
1568 2143 CircleF
5823 2778 CircleF
6040 2944 CircleF
4205 694 CircleF
4350 805 CircleF
3350 1034 CircleF
3543 1182 CircleF
1692 3416 CircleF
1824 3517 CircleF
5657 2023 CircleF
5878 2192 CircleF
4859 3816 CircleF
5037 3953 CircleF
1271 1243 CircleF
1396 1339 CircleF
2043 4521 CircleF
2213 4651 CircleF
1759 2156 CircleF
1944 2298 CircleF
5450 3702 CircleF
5649 3855 CircleF
3510 1776 CircleF
3730 1945 CircleF
5713 2489 CircleF
5866 2606 CircleF
4008 4177 CircleF
4233 4350 CircleF
2291 3241 CircleF
2466 3376 CircleF
2324 3333 CircleF
2524 3486 CircleF
3873 3209 CircleF
4045 3342 CircleF
2512 1904 CircleF
2693 2043 CircleF
4857 2091 CircleF
4988 2192 CircleF
2672 3346 CircleF
2808 3451 CircleF
4575 1487 CircleF
4781 1645 CircleF
5237 2483 CircleF
5362 2579 CircleF
4690 3842 CircleF
4835 3953 CircleF
3375 287 CircleF
3569 436 CircleF
4047 3039 CircleF
4214 3167 CircleF
1516 3569 CircleF
1745 3745 CircleF
1645 817 CircleF
1824 954 CircleF
1668 994 CircleF
1814 1106 CircleF
6075 752 CircleF
6245 883 CircleF
3623 819 CircleF
3744 912 CircleF
1096 2154 CircleF
1327 2331 CircleF
5178 322 CircleF
5377 475 CircleF
3363 1289 CircleF
3533 1419 CircleF
1985 3757 CircleF
2118 3859 CircleF
1431 951 CircleF
1587 1070 CircleF
3765 2391 CircleF
3961 2542 CircleF
1644 417 CircleF
1804 540 CircleF
2659 3748 CircleF
2808 3862 CircleF
2104 1457 CircleF
2225 1549 CircleF
5164 1813 CircleF
5358 1962 CircleF
3291 4582 CircleF
3508 4749 CircleF
5220 1671 CircleF
5365 1783 CircleF
1149 4422 CircleF
1283 4525 CircleF
5669 4429 CircleF
5805 4534 CircleF
2700 4579 CircleF
2929 4755 CircleF
2539 3464 CircleF
2707 3592 CircleF
6015 3229 CircleF
6185 3359 CircleF
2554 3723 CircleF
2749 3873 CircleF
2702 531 CircleF
2833 632 CircleF
6010 4203 CircleF
6144 4306 CircleF
4854 2898 CircleF
5080 3071 CircleF
2058 397 CircleF
2196 503 CircleF
5303 356 CircleF
5457 474 CircleF
1741 1893 CircleF
1909 2022 CircleF
4051 4505 CircleF
4233 4644 CircleF
5741 1995 CircleF
5894 2113 CircleF
4255 1633 CircleF
4403 1747 CircleF
2513 3752 CircleF
2737 3923 CircleF
2610 4420 CircleF
2847 4601 CircleF
3294 2901 CircleF
3442 3014 CircleF
2813 3987 CircleF
2992 4124 CircleF
6064 2356 CircleF
6296 2534 CircleF
1088 3622 CircleF
1282 3771 CircleF
4474 344 CircleF
4680 503 CircleF
2267 2815 CircleF
2399 2917 CircleF
1666 4615 CircleF
1797 4716 CircleF
5741 4211 CircleF
5945 4368 CircleF
6537 442 CircleF
6665 540 CircleF
4504 2269 CircleF
4696 2417 CircleF
5328 4214 CircleF
5492 4340 CircleF
3416 4463 CircleF
3599 4603 CircleF
2604 2960 CircleF
2784 3099 CircleF
3860 1647 CircleF
4054 1796 CircleF
6205 2889 CircleF
6440 3069 CircleF
1460 648 CircleF
1631 779 CircleF
1326 2583 CircleF
1503 2718 CircleF
2797 312 CircleF
2926 412 CircleF
4979 2636 CircleF
5183 2792 CircleF
2962 3353 CircleF
3105 3463 CircleF
5325 3922 CircleF
5458 4023 CircleF
4401 2686 CircleF
4549 2800 CircleF
1808 675 CircleF
2010 830 CircleF
4428 2467 CircleF
4593 2594 CircleF
4181 517 CircleF
4404 688 CircleF
6432 3480 CircleF
6578 3592 CircleF
2772 2032 CircleF
3005 2211 CircleF
3156 1991 CircleF
3344 2136 CircleF
4376 1130 CircleF
4593 1297 CircleF
2085 2859 CircleF
2251 2987 CircleF
1818 937 CircleF
1953 1041 CircleF
2553 2964 CircleF
2766 3128 CircleF
3251 3165 CircleF
3388 3270 CircleF
1498 908 CircleF
1630 1010 CircleF
4941 1809 CircleF
5167 1983 CircleF
3846 3807 CircleF
4044 3959 CircleF
1616 1040 CircleF
1782 1167 CircleF
6523 2050 CircleF
6695 2183 CircleF
3619 3528 CircleF
3765 3640 CircleF
5301 3781 CircleF
5507 3939 CircleF
1534 741 CircleF
1738 898 CircleF
2730 3944 CircleF
2952 4114 CircleF
6355 290 CircleF
6494 397 CircleF
1740 2886 CircleF
1977 3068 CircleF
6575 3337 CircleF
6774 3490 CircleF
3643 2654 CircleF
3856 2818 CircleF
5126 1592 CircleF
5305 1730 CircleF
2087 2010 CircleF
2319 2188 CircleF
4957 977 CircleF
5110 1094 CircleF
1429 2820 CircleF
1636 2978 CircleF
3826 400 CircleF
4036 561 CircleF
3961 1525 CircleF
4185 1698 CircleF
2618 2801 CircleF
2824 2958 CircleF
1434 1734 CircleF
1583 1849 CircleF
2132 2765 CircleF
2362 2942 CircleF
5921 410 CircleF
6081 533 CircleF
4000 3999 CircleF
4138 4106 CircleF
2533 3468 CircleF
2750 3634 CircleF
5562 4654 CircleF
5690 4751 CircleF
5948 2664 CircleF
6184 2845 CircleF
4919 3891 CircleF
5135 4057 CircleF
5088 4035 CircleF
5302 4199 CircleF
4729 3394 CircleF
4940 3556 CircleF
2580 2682 CircleF
2788 2842 CircleF
1402 824 CircleF
1580 961 CircleF
4539 2347 CircleF
4698 2469 CircleF
1262 4430 CircleF
1467 4586 CircleF
3703 808 CircleF
3929 981 CircleF
5396 3520 CircleF
5603 3679 CircleF
5125 2402 CircleF
5269 2513 CircleF
4912 3129 CircleF
5038 3226 CircleF
5901 3442 CircleF
6133 3621 CircleF
3381 2722 CircleF
3514 2824 CircleF
5270 804 CircleF
5437 933 CircleF
6672 387 CircleF
6890 555 CircleF
2045 505 CircleF
2206 628 CircleF
5350 2090 CircleF
5478 2188 CircleF
5534 2758 CircleF
5765 2936 CircleF
3266 888 CircleF
3500 1067 CircleF
3878 3880 CircleF
4039 4003 CircleF
5057 1107 CircleF
5247 1252 CircleF
4716 2904 CircleF
4933 3071 CircleF
6461 3825 CircleF
6581 3917 CircleF
5322 924 CircleF
5531 1084 CircleF
4279 3405 CircleF
4472 3554 CircleF
3329 1591 CircleF
3492 1716 CircleF
2879 2493 CircleF
3055 2628 CircleF
1818 4387 CircleF
2041 4559 CircleF
2000 3040 CircleF
2204 3196 CircleF
5014 1964 CircleF
5159 2074 CircleF
1018 4442 CircleF
1206 4586 CircleF
2052 3929 CircleF
2242 4075 CircleF
1725 3638 CircleF
1936 3799 CircleF
5244 657 CircleF
5460 823 CircleF
4507 2311 CircleF
4699 2458 CircleF
2689 3740 CircleF
2838 3854 CircleF
4571 4216 CircleF
4762 4362 CircleF
4498 3422 CircleF
4640 3531 CircleF
4589 1374 CircleF
4759 1505 CircleF
5073 421 CircleF
5291 589 CircleF
1947 1073 CircleF
2163 1238 CircleF
1471 3883 CircleF
1645 4017 CircleF
6240 497 CircleF
6473 676 CircleF
2473 1436 CircleF
2653 1574 CircleF
3056 2358 CircleF
3265 2519 CircleF
6479 2230 CircleF
6706 2405 CircleF
4718 347 CircleF
4887 476 CircleF
3166 1117 CircleF
3377 1279 CircleF
6627 1240 CircleF
6812 1383 CircleF
4688 3459 CircleF
4834 3571 CircleF
5433 2363 CircleF
5643 2524 CircleF
1641 2650 CircleF
1841 2804 CircleF
3740 2882 CircleF
3890 2997 CircleF
3926 3264 CircleF
4084 3385 CircleF
3250 2563 CircleF
3462 2726 CircleF
1835 3373 CircleF
2015 3511 CircleF
2361 3296 CircleF
2516 3415 CircleF
1282 4340 CircleF
1498 4507 CircleF
1869 3689 CircleF
2057 3834 CircleF
4006 613 CircleF
4132 709 CircleF
6374 2404 CircleF
6497 2498 CircleF
4849 2036 CircleF
5038 2181 CircleF
1946 4032 CircleF
2178 4211 CircleF
6155 931 CircleF
6347 1079 CircleF
4523 2171 CircleF
4699 2307 CircleF
3001 1608 CircleF
3208 1766 CircleF
4662 1707 CircleF
4892 1883 CircleF
1893 722 CircleF
2118 895 CircleF
2714 4501 CircleF
2910 4651 CircleF
5508 4449 CircleF
5701 4598 CircleF
3153 1765 CircleF
3363 1926 CircleF
3480 542 CircleF
3709 718 CircleF
6447 3100 CircleF
6582 3203 CircleF
4570 4646 CircleF
4699 4744 CircleF
6091 1289 CircleF
6273 1428 CircleF
1280 4010 CircleF
1495 4175 CircleF
976 461 CircleF
1197 630 CircleF
4687 1793 CircleF
4903 1958 CircleF
6406 2749 CircleF
6532 2846 CircleF
1320 817 CircleF
1516 968 CircleF
3400 4579 CircleF
3602 4734 CircleF
5851 1040 CircleF
6003 1157 CircleF
6503 4261 CircleF
6668 4387 CircleF
3974 1848 CircleF
4188 2012 CircleF
2202 588 CircleF
2355 705 CircleF
6590 2353 CircleF
6739 2467 CircleF
3354 2951 CircleF
3514 3074 CircleF
6532 1639 CircleF
6682 1754 CircleF
5313 824 CircleF
5458 935 CircleF
4490 3121 CircleF
4724 3300 CircleF
3608 3839 CircleF
3745 3944 CircleF
5249 3890 CircleF
5477 4065 CircleF
1844 3203 CircleF
2024 3340 CircleF
1444 4221 CircleF
1681 4403 CircleF
2188 1131 CircleF
2375 1274 CircleF
6085 2992 CircleF
6260 3127 CircleF
1270 1948 CircleF
1487 2115 CircleF
4380 1384 CircleF
4577 1535 CircleF
6219 2894 CircleF
6344 2990 CircleF
4557 3851 CircleF
4693 3955 CircleF
3914 3140 CircleF
4047 3242 CircleF
2963 3439 CircleF
3150 3582 CircleF
6511 3420 CircleF
6723 3583 CircleF
3351 2349 CircleF
3482 2449 CircleF
5896 2812 CircleF
6087 2958 CircleF
5186 3048 CircleF
5318 3149 CircleF
1076 3293 CircleF
1257 3432 CircleF
1888 1177 CircleF
2042 1295 CircleF
4938 352 CircleF
5101 477 CircleF
1172 4621 CircleF
1384 4784 CircleF
969 974 CircleF
1180 1136 CircleF
4865 804 CircleF
5082 970 CircleF
4345 1922 CircleF
4470 2018 CircleF
2761 2292 CircleF
2927 2420 CircleF
2413 2550 CircleF
2627 2714 CircleF
5394 1261 CircleF
5586 1409 CircleF
1975 1249 CircleF
2205 1426 CircleF
5354 2568 CircleF
5570 2734 CircleF
2341 309 CircleF
2497 429 CircleF
4670 4327 CircleF
4830 4450 CircleF
6283 4262 CircleF
6416 4363 CircleF
3864 1784 CircleF
4099 1964 CircleF
3268 4354 CircleF
3467 4507 CircleF
5400 3861 CircleF
5536 3965 CircleF
4968 3587 CircleF
5106 3693 CircleF
4118 1041 CircleF
4245 1139 CircleF
6011 3057 CircleF
6171 3180 CircleF
4864 2159 CircleF
5003 2265 CircleF
5942 303 CircleF
6086 414 CircleF
6347 658 CircleF
6554 817 CircleF
1418 4542 CircleF
1607 4688 CircleF
2139 2096 CircleF
2296 2217 CircleF
1393 2820 CircleF
1594 2974 CircleF
2443 494 CircleF
2587 605 CircleF
1611 3199 CircleF
1733 3293 CircleF
3734 821 CircleF
3876 930 CircleF
1248 3197 CircleF
1421 3329 CircleF
5497 3946 CircleF
5625 4044 CircleF
2606 680 CircleF
2826 849 CircleF
1450 4430 CircleF
1618 4559 CircleF
2239 2652 CircleF
2378 2758 CircleF
971 4337 CircleF
1122 4453 CircleF
3685 2752 CircleF
3904 2920 CircleF
3172 2357 CircleF
3396 2528 CircleF
5007 3522 CircleF
5194 3666 CircleF
1903 2415 CircleF
2034 2516 CircleF
1992 2948 CircleF
2219 3122 CircleF
3672 4018 CircleF
3880 4178 CircleF
3483 2599 CircleF
3646 2725 CircleF
1176 4219 CircleF
1319 4329 CircleF
3587 3847 CircleF
3736 3961 CircleF
1340 584 CircleF
1541 739 CircleF
1923 1721 CircleF
2146 1892 CircleF
5244 1075 CircleF
5434 1220 CircleF
4056 327 CircleF
4256 481 CircleF
5888 2897 CircleF
6054 3025 CircleF
2868 3003 CircleF
3067 3156 CircleF
6425 4048 CircleF
6590 4175 CircleF
1739 1764 CircleF
1900 1887 CircleF
2978 4540 CircleF
3101 4635 CircleF
6602 835 CircleF
6828 1009 CircleF
3653 626 CircleF
3856 782 CircleF
6114 3670 CircleF
6332 3838 CircleF
4173 816 CircleF
4310 921 CircleF
2438 3266 CircleF
2638 3420 CircleF
1203 4110 CircleF
1365 4235 CircleF
4174 897 CircleF
4328 1014 CircleF
3714 2398 CircleF
3900 2541 CircleF
1970 3055 CircleF
2123 3172 CircleF
2591 1073 CircleF
2823 1251 CircleF
4222 3612 CircleF
4430 3772 CircleF
4587 4109 CircleF
4707 4201 CircleF
3740 2174 CircleF
3891 2290 CircleF
2423 2076 CircleF
2660 2258 CircleF
3252 3003 CircleF
3391 3109 CircleF
5803 3502 CircleF
6007 3659 CircleF
6030 3317 CircleF
6217 3461 CircleF
3589 3027 CircleF
3785 3178 CircleF
6019 3379 CircleF
6164 3490 CircleF
6191 3322 CircleF
6413 3492 CircleF
3384 434 CircleF
3559 567 CircleF
1049 519 CircleF
1228 656 CircleF
2552 3296 CircleF
2771 3464 CircleF
1751 1542 CircleF
1898 1655 CircleF
4865 2515 CircleF
5053 2660 CircleF
1003 1416 CircleF
1196 1564 CircleF
6435 1706 CircleF
6600 1833 CircleF
2957 2632 CircleF
3111 2750 CircleF
5333 1929 CircleF
5453 2021 CircleF
4146 2090 CircleF
4359 2253 CircleF
3483 3882 CircleF
3680 4033 CircleF
2489 2343 CircleF
2657 2472 CircleF
2146 2659 CircleF
2297 2775 CircleF
1749 729 CircleF
1902 847 CircleF
5673 2135 CircleF
5877 2293 CircleF
1791 1689 CircleF
1987 1840 CircleF
5886 1995 CircleF
6093 2154 CircleF
3338 3503 CircleF
3481 3613 CircleF
1286 734 CircleF
1493 893 CircleF
3268 557 CircleF
3464 708 CircleF
3931 4243 CircleF
4143 4406 CircleF
5356 1665 CircleF
5490 1768 CircleF
6691 4036 CircleF
6820 4135 CircleF
1663 808 CircleF
1880 974 CircleF
6073 3266 CircleF
6239 3394 CircleF
3773 2605 CircleF
3957 2746 CircleF
1934 2834 CircleF
2069 2937 CircleF
2583 926 CircleF
2809 1100 CircleF
1936 1524 CircleF
2078 1633 CircleF
3950 328 CircleF
4157 487 CircleF
5238 2008 CircleF
5475 2191 CircleF
5157 4564 CircleF
5293 4668 CircleF
1207 2345 CircleF
1371 2472 CircleF
5711 3886 CircleF
5925 4051 CircleF
6030 4393 CircleF
6254 4565 CircleF
1819 2665 CircleF
2041 2835 CircleF
1952 3002 CircleF
2117 3129 CircleF
5854 2244 CircleF
6078 2415 CircleF
4410 2064 CircleF
4552 2172 CircleF
5877 4122 CircleF
6053 4258 CircleF
4103 4336 CircleF
4252 4450 CircleF
2230 4154 CircleF
2368 4260 CircleF
1043 2726 CircleF
1253 2887 CircleF
5168 3921 CircleF
5341 4054 CircleF
3991 4573 CircleF
4156 4699 CircleF
3514 3999 CircleF
3647 4100 CircleF
1237 1603 CircleF
1423 1745 CircleF
5211 2511 CircleF
5361 2627 CircleF
1837 1793 CircleF
2000 1918 CircleF
4297 2046 CircleF
4476 2183 CircleF
5225 2826 CircleF
5434 2987 CircleF
1644 1249 CircleF
1810 1377 CircleF
5321 419 CircleF
5519 571 CircleF
2843 3436 CircleF
2992 3551 CircleF
2254 4474 CircleF
2441 4618 CircleF
5230 3675 CircleF
5367 3781 CircleF
1051 3158 CircleF
1195 3270 CircleF
1272 3983 CircleF
1438 4110 CircleF
1299 2288 CircleF
1418 2380 CircleF
1631 315 CircleF
1815 456 CircleF
3133 3764 CircleF
3341 3924 CircleF
5931 3067 CircleF
6110 3204 CircleF
6272 3385 CircleF
6494 3555 CircleF
2108 316 CircleF
2240 417 CircleF
6278 2987 CircleF
6464 3130 CircleF
3720 554 CircleF
3903 695 CircleF
1412 2719 CircleF
1552 2826 CircleF
5467 2252 CircleF
5676 2412 CircleF
5670 3130 CircleF
5812 3239 CircleF
2367 1467 CircleF
2572 1624 CircleF
3336 870 CircleF
3525 1015 CircleF
4386 3704 CircleF
4554 3833 CircleF
3705 2356 CircleF
3888 2496 CircleF
4705 4387 CircleF
4918 4551 CircleF
1303 4304 CircleF
1535 4481 CircleF
6219 702 CircleF
6340 795 CircleF
2875 4448 CircleF
3095 4617 CircleF
3352 3422 CircleF
3563 3584 CircleF
5130 4205 CircleF
5358 4380 CircleF
2843 3868 CircleF
3069 4041 CircleF
4189 1279 CircleF
4343 1398 CircleF
2190 1943 CircleF
2310 2035 CircleF
3445 770 CircleF
3614 900 CircleF
5902 4612 CircleF
6057 4731 CircleF
5961 4324 CircleF
6142 4463 CircleF
1242 672 CircleF
1414 804 CircleF
6592 341 CircleF
6800 500 CircleF
2217 1639 CircleF
2358 1747 CircleF
1694 599 CircleF
1922 774 CircleF
1082 2288 CircleF
1237 2406 CircleF
6024 835 CircleF
6153 934 CircleF
3778 857 CircleF
3995 1024 CircleF
5366 3468 CircleF
5577 3630 CircleF
5951 893 CircleF
6133 1033 CircleF
3556 1659 CircleF
3727 1790 CircleF
3831 784 CircleF
3981 899 CircleF
3068 1411 CircleF
3251 1552 CircleF
4565 4270 CircleF
4768 4425 CircleF
1435 1539 CircleF
1658 1710 CircleF
5888 1542 CircleF
6042 1660 CircleF
4185 853 CircleF
4310 949 CircleF
6364 4299 CircleF
6529 4425 CircleF
3794 3634 CircleF
3919 3730 CircleF
3335 4054 CircleF
3542 4212 CircleF
5608 1199 CircleF
5770 1323 CircleF
2737 636 CircleF
2889 753 CircleF
1445 4613 CircleF
1597 4730 CircleF
3702 2739 CircleF
3926 2911 CircleF
6429 3841 CircleF
6592 3967 CircleF
% End plot #2
1.000 UP
1.000 UL
LT0
0.50 0.50 0.50 C stroke
grestore
end
showpage
%%Trailer
%%DocumentFonts: Helvetica
%%Pages: 1
