%!PS-Adobe-2.0
%%Title: out.ps
%%Creator: gnuplot 4.6 patchlevel 6
%%CreationDate: Thu May 28 23:38:12 2015
%%DocumentFonts: (atend)
%%BoundingBox: 50 50 554 770
%%Orientation: Landscape
%%Pages: (atend)
%%EndComments
%%BeginProlog
/gnudict 256 dict def
gnudict begin
%
% The following true/false flags may be edited by hand if desired.
% The unit line width and grayscale image gamma correction may also be changed.
%
/Color false def
/Blacktext false def
/Solid false def
/Dashlength 1 def
/Landscape true def
/Level1 false def
/Rounded false def
/ClipToBoundingBox false def
/SuppressPDFMark false def
/TransparentPatterns false def
/gnulinewidth 5.000 def
/userlinewidth gnulinewidth def
/Gamma 1.0 def
/BackgroundColor {-1.000 -1.000 -1.000} def
%
/vshift -46 def
/dl1 {
  10.0 Dashlength mul mul
  Rounded { currentlinewidth 0.75 mul sub dup 0 le { pop 0.01 } if } if
} def
/dl2 {
  10.0 Dashlength mul mul
  Rounded { currentlinewidth 0.75 mul add } if
} def
/hpt_ 31.5 def
/vpt_ 31.5 def
/hpt hpt_ def
/vpt vpt_ def
/doclip {
  ClipToBoundingBox {
    newpath 50 50 moveto 554 50 lineto 554 770 lineto 50 770 lineto closepath
    clip
  } if
} def
%
% Gnuplot Prolog Version 4.6 (September 2012)
%
%/SuppressPDFMark true def
%
/M {moveto} bind def
/L {lineto} bind def
/R {rmoveto} bind def
/V {rlineto} bind def
/N {newpath moveto} bind def
/Z {closepath} bind def
/C {setrgbcolor} bind def
/f {rlineto fill} bind def
/g {setgray} bind def
/Gshow {show} def   % May be redefined later in the file to support UTF-8
/vpt2 vpt 2 mul def
/hpt2 hpt 2 mul def
/Lshow {currentpoint stroke M 0 vshift R 
	Blacktext {gsave 0 setgray show grestore} {show} ifelse} def
/Rshow {currentpoint stroke M dup stringwidth pop neg vshift R
	Blacktext {gsave 0 setgray show grestore} {show} ifelse} def
/Cshow {currentpoint stroke M dup stringwidth pop -2 div vshift R 
	Blacktext {gsave 0 setgray show grestore} {show} ifelse} def
/UP {dup vpt_ mul /vpt exch def hpt_ mul /hpt exch def
  /hpt2 hpt 2 mul def /vpt2 vpt 2 mul def} def
/DL {Color {setrgbcolor Solid {pop []} if 0 setdash}
 {pop pop pop 0 setgray Solid {pop []} if 0 setdash} ifelse} def
/BL {stroke userlinewidth 2 mul setlinewidth
	Rounded {1 setlinejoin 1 setlinecap} if} def
/AL {stroke userlinewidth 2 div setlinewidth
	Rounded {1 setlinejoin 1 setlinecap} if} def
/UL {dup gnulinewidth mul /userlinewidth exch def
	dup 1 lt {pop 1} if 10 mul /udl exch def} def
/PL {stroke userlinewidth setlinewidth
	Rounded {1 setlinejoin 1 setlinecap} if} def
3.8 setmiterlimit
% Default Line colors
/LCw {1 1 1} def
/LCb {0 0 0} def
/LCa {0 0 0} def
/LC0 {1 0 0} def
/LC1 {0 1 0} def
/LC2 {0 0 1} def
/LC3 {1 0 1} def
/LC4 {0 1 1} def
/LC5 {1 1 0} def
/LC6 {0 0 0} def
/LC7 {1 0.3 0} def
/LC8 {0.5 0.5 0.5} def
% Default Line Types
/LTw {PL [] 1 setgray} def
/LTb {BL [] LCb DL} def
/LTa {AL [1 udl mul 2 udl mul] 0 setdash LCa setrgbcolor} def
/LT0 {PL [] LC0 DL} def
/LT1 {PL [4 dl1 2 dl2] LC1 DL} def
/LT2 {PL [2 dl1 3 dl2] LC2 DL} def
/LT3 {PL [1 dl1 1.5 dl2] LC3 DL} def
/LT4 {PL [6 dl1 2 dl2 1 dl1 2 dl2] LC4 DL} def
/LT5 {PL [3 dl1 3 dl2 1 dl1 3 dl2] LC5 DL} def
/LT6 {PL [2 dl1 2 dl2 2 dl1 6 dl2] LC6 DL} def
/LT7 {PL [1 dl1 2 dl2 6 dl1 2 dl2 1 dl1 2 dl2] LC7 DL} def
/LT8 {PL [2 dl1 2 dl2 2 dl1 2 dl2 2 dl1 2 dl2 2 dl1 4 dl2] LC8 DL} def
/Pnt {stroke [] 0 setdash gsave 1 setlinecap M 0 0 V stroke grestore} def
/Dia {stroke [] 0 setdash 2 copy vpt add M
  hpt neg vpt neg V hpt vpt neg V
  hpt vpt V hpt neg vpt V closepath stroke
  Pnt} def
/Pls {stroke [] 0 setdash vpt sub M 0 vpt2 V
  currentpoint stroke M
  hpt neg vpt neg R hpt2 0 V stroke
 } def
/Box {stroke [] 0 setdash 2 copy exch hpt sub exch vpt add M
  0 vpt2 neg V hpt2 0 V 0 vpt2 V
  hpt2 neg 0 V closepath stroke
  Pnt} def
/Crs {stroke [] 0 setdash exch hpt sub exch vpt add M
  hpt2 vpt2 neg V currentpoint stroke M
  hpt2 neg 0 R hpt2 vpt2 V stroke} def
/TriU {stroke [] 0 setdash 2 copy vpt 1.12 mul add M
  hpt neg vpt -1.62 mul V
  hpt 2 mul 0 V
  hpt neg vpt 1.62 mul V closepath stroke
  Pnt} def
/Star {2 copy Pls Crs} def
/BoxF {stroke [] 0 setdash exch hpt sub exch vpt add M
  0 vpt2 neg V hpt2 0 V 0 vpt2 V
  hpt2 neg 0 V closepath fill} def
/TriUF {stroke [] 0 setdash vpt 1.12 mul add M
  hpt neg vpt -1.62 mul V
  hpt 2 mul 0 V
  hpt neg vpt 1.62 mul V closepath fill} def
/TriD {stroke [] 0 setdash 2 copy vpt 1.12 mul sub M
  hpt neg vpt 1.62 mul V
  hpt 2 mul 0 V
  hpt neg vpt -1.62 mul V closepath stroke
  Pnt} def
/TriDF {stroke [] 0 setdash vpt 1.12 mul sub M
  hpt neg vpt 1.62 mul V
  hpt 2 mul 0 V
  hpt neg vpt -1.62 mul V closepath fill} def
/DiaF {stroke [] 0 setdash vpt add M
  hpt neg vpt neg V hpt vpt neg V
  hpt vpt V hpt neg vpt V closepath fill} def
/Pent {stroke [] 0 setdash 2 copy gsave
  translate 0 hpt M 4 {72 rotate 0 hpt L} repeat
  closepath stroke grestore Pnt} def
/PentF {stroke [] 0 setdash gsave
  translate 0 hpt M 4 {72 rotate 0 hpt L} repeat
  closepath fill grestore} def
/Circle {stroke [] 0 setdash 2 copy
  hpt 0 360 arc stroke Pnt} def
/CircleF {stroke [] 0 setdash hpt 0 360 arc fill} def
/C0 {BL [] 0 setdash 2 copy moveto vpt 90 450 arc} bind def
/C1 {BL [] 0 setdash 2 copy moveto
	2 copy vpt 0 90 arc closepath fill
	vpt 0 360 arc closepath} bind def
/C2 {BL [] 0 setdash 2 copy moveto
	2 copy vpt 90 180 arc closepath fill
	vpt 0 360 arc closepath} bind def
/C3 {BL [] 0 setdash 2 copy moveto
	2 copy vpt 0 180 arc closepath fill
	vpt 0 360 arc closepath} bind def
/C4 {BL [] 0 setdash 2 copy moveto
	2 copy vpt 180 270 arc closepath fill
	vpt 0 360 arc closepath} bind def
/C5 {BL [] 0 setdash 2 copy moveto
	2 copy vpt 0 90 arc
	2 copy moveto
	2 copy vpt 180 270 arc closepath fill
	vpt 0 360 arc} bind def
/C6 {BL [] 0 setdash 2 copy moveto
	2 copy vpt 90 270 arc closepath fill
	vpt 0 360 arc closepath} bind def
/C7 {BL [] 0 setdash 2 copy moveto
	2 copy vpt 0 270 arc closepath fill
	vpt 0 360 arc closepath} bind def
/C8 {BL [] 0 setdash 2 copy moveto
	2 copy vpt 270 360 arc closepath fill
	vpt 0 360 arc closepath} bind def
/C9 {BL [] 0 setdash 2 copy moveto
	2 copy vpt 270 450 arc closepath fill
	vpt 0 360 arc closepath} bind def
/C10 {BL [] 0 setdash 2 copy 2 copy moveto vpt 270 360 arc closepath fill
	2 copy moveto
	2 copy vpt 90 180 arc closepath fill
	vpt 0 360 arc closepath} bind def
/C11 {BL [] 0 setdash 2 copy moveto
	2 copy vpt 0 180 arc closepath fill
	2 copy moveto
	2 copy vpt 270 360 arc closepath fill
	vpt 0 360 arc closepath} bind def
/C12 {BL [] 0 setdash 2 copy moveto
	2 copy vpt 180 360 arc closepath fill
	vpt 0 360 arc closepath} bind def
/C13 {BL [] 0 setdash 2 copy moveto
	2 copy vpt 0 90 arc closepath fill
	2 copy moveto
	2 copy vpt 180 360 arc closepath fill
	vpt 0 360 arc closepath} bind def
/C14 {BL [] 0 setdash 2 copy moveto
	2 copy vpt 90 360 arc closepath fill
	vpt 0 360 arc} bind def
/C15 {BL [] 0 setdash 2 copy vpt 0 360 arc closepath fill
	vpt 0 360 arc closepath} bind def
/Rec {newpath 4 2 roll moveto 1 index 0 rlineto 0 exch rlineto
	neg 0 rlineto closepath} bind def
/Square {dup Rec} bind def
/Bsquare {vpt sub exch vpt sub exch vpt2 Square} bind def
/S0 {BL [] 0 setdash 2 copy moveto 0 vpt rlineto BL Bsquare} bind def
/S1 {BL [] 0 setdash 2 copy vpt Square fill Bsquare} bind def
/S2 {BL [] 0 setdash 2 copy exch vpt sub exch vpt Square fill Bsquare} bind def
/S3 {BL [] 0 setdash 2 copy exch vpt sub exch vpt2 vpt Rec fill Bsquare} bind def
/S4 {BL [] 0 setdash 2 copy exch vpt sub exch vpt sub vpt Square fill Bsquare} bind def
/S5 {BL [] 0 setdash 2 copy 2 copy vpt Square fill
	exch vpt sub exch vpt sub vpt Square fill Bsquare} bind def
/S6 {BL [] 0 setdash 2 copy exch vpt sub exch vpt sub vpt vpt2 Rec fill Bsquare} bind def
/S7 {BL [] 0 setdash 2 copy exch vpt sub exch vpt sub vpt vpt2 Rec fill
	2 copy vpt Square fill Bsquare} bind def
/S8 {BL [] 0 setdash 2 copy vpt sub vpt Square fill Bsquare} bind def
/S9 {BL [] 0 setdash 2 copy vpt sub vpt vpt2 Rec fill Bsquare} bind def
/S10 {BL [] 0 setdash 2 copy vpt sub vpt Square fill 2 copy exch vpt sub exch vpt Square fill
	Bsquare} bind def
/S11 {BL [] 0 setdash 2 copy vpt sub vpt Square fill 2 copy exch vpt sub exch vpt2 vpt Rec fill
	Bsquare} bind def
/S12 {BL [] 0 setdash 2 copy exch vpt sub exch vpt sub vpt2 vpt Rec fill Bsquare} bind def
/S13 {BL [] 0 setdash 2 copy exch vpt sub exch vpt sub vpt2 vpt Rec fill
	2 copy vpt Square fill Bsquare} bind def
/S14 {BL [] 0 setdash 2 copy exch vpt sub exch vpt sub vpt2 vpt Rec fill
	2 copy exch vpt sub exch vpt Square fill Bsquare} bind def
/S15 {BL [] 0 setdash 2 copy Bsquare fill Bsquare} bind def
/D0 {gsave translate 45 rotate 0 0 S0 stroke grestore} bind def
/D1 {gsave translate 45 rotate 0 0 S1 stroke grestore} bind def
/D2 {gsave translate 45 rotate 0 0 S2 stroke grestore} bind def
/D3 {gsave translate 45 rotate 0 0 S3 stroke grestore} bind def
/D4 {gsave translate 45 rotate 0 0 S4 stroke grestore} bind def
/D5 {gsave translate 45 rotate 0 0 S5 stroke grestore} bind def
/D6 {gsave translate 45 rotate 0 0 S6 stroke grestore} bind def
/D7 {gsave translate 45 rotate 0 0 S7 stroke grestore} bind def
/D8 {gsave translate 45 rotate 0 0 S8 stroke grestore} bind def
/D9 {gsave translate 45 rotate 0 0 S9 stroke grestore} bind def
/D10 {gsave translate 45 rotate 0 0 S10 stroke grestore} bind def
/D11 {gsave translate 45 rotate 0 0 S11 stroke grestore} bind def
/D12 {gsave translate 45 rotate 0 0 S12 stroke grestore} bind def
/D13 {gsave translate 45 rotate 0 0 S13 stroke grestore} bind def
/D14 {gsave translate 45 rotate 0 0 S14 stroke grestore} bind def
/D15 {gsave translate 45 rotate 0 0 S15 stroke grestore} bind def
/DiaE {stroke [] 0 setdash vpt add M
  hpt neg vpt neg V hpt vpt neg V
  hpt vpt V hpt neg vpt V closepath stroke} def
/BoxE {stroke [] 0 setdash exch hpt sub exch vpt add M
  0 vpt2 neg V hpt2 0 V 0 vpt2 V
  hpt2 neg 0 V closepath stroke} def
/TriUE {stroke [] 0 setdash vpt 1.12 mul add M
  hpt neg vpt -1.62 mul V
  hpt 2 mul 0 V
  hpt neg vpt 1.62 mul V closepath stroke} def
/TriDE {stroke [] 0 setdash vpt 1.12 mul sub M
  hpt neg vpt 1.62 mul V
  hpt 2 mul 0 V
  hpt neg vpt -1.62 mul V closepath stroke} def
/PentE {stroke [] 0 setdash gsave
  translate 0 hpt M 4 {72 rotate 0 hpt L} repeat
  closepath stroke grestore} def
/CircE {stroke [] 0 setdash 
  hpt 0 360 arc stroke} def
/Opaque {gsave closepath 1 setgray fill grestore 0 setgray closepath} def
/DiaW {stroke [] 0 setdash vpt add M
  hpt neg vpt neg V hpt vpt neg V
  hpt vpt V hpt neg vpt V Opaque stroke} def
/BoxW {stroke [] 0 setdash exch hpt sub exch vpt add M
  0 vpt2 neg V hpt2 0 V 0 vpt2 V
  hpt2 neg 0 V Opaque stroke} def
/TriUW {stroke [] 0 setdash vpt 1.12 mul add M
  hpt neg vpt -1.62 mul V
  hpt 2 mul 0 V
  hpt neg vpt 1.62 mul V Opaque stroke} def
/TriDW {stroke [] 0 setdash vpt 1.12 mul sub M
  hpt neg vpt 1.62 mul V
  hpt 2 mul 0 V
  hpt neg vpt -1.62 mul V Opaque stroke} def
/PentW {stroke [] 0 setdash gsave
  translate 0 hpt M 4 {72 rotate 0 hpt L} repeat
  Opaque stroke grestore} def
/CircW {stroke [] 0 setdash 
  hpt 0 360 arc Opaque stroke} def
/BoxFill {gsave Rec 1 setgray fill grestore} def
/Density {
  /Fillden exch def
  currentrgbcolor
  /ColB exch def /ColG exch def /ColR exch def
  /ColR ColR Fillden mul Fillden sub 1 add def
  /ColG ColG Fillden mul Fillden sub 1 add def
  /ColB ColB Fillden mul Fillden sub 1 add def
  ColR ColG ColB setrgbcolor} def
/BoxColFill {gsave Rec PolyFill} def
/PolyFill {gsave Density fill grestore grestore} def
/h {rlineto rlineto rlineto gsave closepath fill grestore} bind def
%
% PostScript Level 1 Pattern Fill routine for rectangles
% Usage: x y w h s a XX PatternFill
%	x,y = lower left corner of box to be filled
%	w,h = width and height of box
%	  a = angle in degrees between lines and x-axis
%	 XX = 0/1 for no/yes cross-hatch
%
/PatternFill {gsave /PFa [ 9 2 roll ] def
  PFa 0 get PFa 2 get 2 div add PFa 1 get PFa 3 get 2 div add translate
  PFa 2 get -2 div PFa 3 get -2 div PFa 2 get PFa 3 get Rec
  TransparentPatterns {} {gsave 1 setgray fill grestore} ifelse
  clip
  currentlinewidth 0.5 mul setlinewidth
  /PFs PFa 2 get dup mul PFa 3 get dup mul add sqrt def
  0 0 M PFa 5 get rotate PFs -2 div dup translate
  0 1 PFs PFa 4 get div 1 add floor cvi
	{PFa 4 get mul 0 M 0 PFs V} for
  0 PFa 6 get ne {
	0 1 PFs PFa 4 get div 1 add floor cvi
	{PFa 4 get mul 0 2 1 roll M PFs 0 V} for
 } if
  stroke grestore} def
%
/languagelevel where
 {pop languagelevel} {1} ifelse
 2 lt
	{/InterpretLevel1 true def}
	{/InterpretLevel1 Level1 def}
 ifelse
%
% PostScript level 2 pattern fill definitions
%
/Level2PatternFill {
/Tile8x8 {/PaintType 2 /PatternType 1 /TilingType 1 /BBox [0 0 8 8] /XStep 8 /YStep 8}
	bind def
/KeepColor {currentrgbcolor [/Pattern /DeviceRGB] setcolorspace} bind def
<< Tile8x8
 /PaintProc {0.5 setlinewidth pop 0 0 M 8 8 L 0 8 M 8 0 L stroke} 
>> matrix makepattern
/Pat1 exch def
<< Tile8x8
 /PaintProc {0.5 setlinewidth pop 0 0 M 8 8 L 0 8 M 8 0 L stroke
	0 4 M 4 8 L 8 4 L 4 0 L 0 4 L stroke}
>> matrix makepattern
/Pat2 exch def
<< Tile8x8
 /PaintProc {0.5 setlinewidth pop 0 0 M 0 8 L
	8 8 L 8 0 L 0 0 L fill}
>> matrix makepattern
/Pat3 exch def
<< Tile8x8
 /PaintProc {0.5 setlinewidth pop -4 8 M 8 -4 L
	0 12 M 12 0 L stroke}
>> matrix makepattern
/Pat4 exch def
<< Tile8x8
 /PaintProc {0.5 setlinewidth pop -4 0 M 8 12 L
	0 -4 M 12 8 L stroke}
>> matrix makepattern
/Pat5 exch def
<< Tile8x8
 /PaintProc {0.5 setlinewidth pop -2 8 M 4 -4 L
	0 12 M 8 -4 L 4 12 M 10 0 L stroke}
>> matrix makepattern
/Pat6 exch def
<< Tile8x8
 /PaintProc {0.5 setlinewidth pop -2 0 M 4 12 L
	0 -4 M 8 12 L 4 -4 M 10 8 L stroke}
>> matrix makepattern
/Pat7 exch def
<< Tile8x8
 /PaintProc {0.5 setlinewidth pop 8 -2 M -4 4 L
	12 0 M -4 8 L 12 4 M 0 10 L stroke}
>> matrix makepattern
/Pat8 exch def
<< Tile8x8
 /PaintProc {0.5 setlinewidth pop 0 -2 M 12 4 L
	-4 0 M 12 8 L -4 4 M 8 10 L stroke}
>> matrix makepattern
/Pat9 exch def
/Pattern1 {PatternBgnd KeepColor Pat1 setpattern} bind def
/Pattern2 {PatternBgnd KeepColor Pat2 setpattern} bind def
/Pattern3 {PatternBgnd KeepColor Pat3 setpattern} bind def
/Pattern4 {PatternBgnd KeepColor Landscape {Pat5} {Pat4} ifelse setpattern} bind def
/Pattern5 {PatternBgnd KeepColor Landscape {Pat4} {Pat5} ifelse setpattern} bind def
/Pattern6 {PatternBgnd KeepColor Landscape {Pat9} {Pat6} ifelse setpattern} bind def
/Pattern7 {PatternBgnd KeepColor Landscape {Pat8} {Pat7} ifelse setpattern} bind def
} def
%
%
%End of PostScript Level 2 code
%
/PatternBgnd {
  TransparentPatterns {} {gsave 1 setgray fill grestore} ifelse
} def
%
% Substitute for Level 2 pattern fill codes with
% grayscale if Level 2 support is not selected.
%
/Level1PatternFill {
/Pattern1 {0.250 Density} bind def
/Pattern2 {0.500 Density} bind def
/Pattern3 {0.750 Density} bind def
/Pattern4 {0.125 Density} bind def
/Pattern5 {0.375 Density} bind def
/Pattern6 {0.625 Density} bind def
/Pattern7 {0.875 Density} bind def
} def
%
% Now test for support of Level 2 code
%
Level1 {Level1PatternFill} {Level2PatternFill} ifelse
%
/Symbol-Oblique /Symbol findfont [1 0 .167 1 0 0] makefont
dup length dict begin {1 index /FID eq {pop pop} {def} ifelse} forall
currentdict end definefont pop
Level1 SuppressPDFMark or 
{} {
/SDict 10 dict def
systemdict /pdfmark known not {
  userdict /pdfmark systemdict /cleartomark get put
} if
SDict begin [
  /Title (out.ps)
  /Subject (gnuplot plot)
  /Creator (gnuplot 4.6 patchlevel 6)
  /Author (yani)
%  /Producer (gnuplot)
%  /Keywords ()
  /CreationDate (Thu May 28 23:38:12 2015)
  /DOCINFO pdfmark
end
} ifelse
end
%%EndProlog
%%Page: 1 1
gnudict begin
gsave
doclip
50 50 translate
0.100 0.100 scale
90 rotate
0 -5040 translate
0 setgray
newpath
(Helvetica) findfont 140 scalefont setfont
BackgroundColor 0 lt 3 1 roll 0 lt exch 0 lt or or not {gsave BackgroundColor C clippath fill grestore} if
1.000 UL
LT0
0.50 0.50 0.50 C 1.000 UL
LTa
0.50 0.50 0.50 C 966 280 M
5981 0 V
stroke
LT0
0.50 0.50 0.50 C 966 280 M
63 0 V
5918 0 R
-63 0 V
882 280 M
( 0) Rshow
1.000 UL
LT0
0.50 0.50 0.50 C 1.000 UL
LTa
0.50 0.50 0.50 C 966 310 M
5981 0 V
stroke
LT0
0.50 0.50 0.50 C 966 310 M
63 0 V
5918 0 R
-63 0 V
882 310 M
( 0.707106) Rshow
1.000 UL
LT0
0.50 0.50 0.50 C 1.000 UL
LTa
0.50 0.50 0.50 C 966 341 M
5981 0 V
stroke
LT0
0.50 0.50 0.50 C 966 341 M
63 0 V
5918 0 R
-63 0 V
882 341 M
( 1.41421) Rshow
1.000 UL
LT0
0.50 0.50 0.50 C 1.000 UL
LTa
0.50 0.50 0.50 C 966 371 M
5981 0 V
stroke
LT0
0.50 0.50 0.50 C 966 371 M
63 0 V
5918 0 R
-63 0 V
882 371 M
( 2.12132) Rshow
1.000 UL
LT0
0.50 0.50 0.50 C 1.000 UL
LTa
0.50 0.50 0.50 C 966 402 M
5981 0 V
stroke
LT0
0.50 0.50 0.50 C 966 402 M
63 0 V
5918 0 R
-63 0 V
882 402 M
( 2.82842) Rshow
1.000 UL
LT0
0.50 0.50 0.50 C 1.000 UL
LTa
0.50 0.50 0.50 C 966 432 M
5981 0 V
stroke
LT0
0.50 0.50 0.50 C 966 432 M
63 0 V
5918 0 R
-63 0 V
882 432 M
( 3.53553) Rshow
1.000 UL
LT0
0.50 0.50 0.50 C 1.000 UL
LTa
0.50 0.50 0.50 C 966 462 M
5981 0 V
stroke
LT0
0.50 0.50 0.50 C 966 462 M
63 0 V
5918 0 R
-63 0 V
882 462 M
( 4.24264) Rshow
1.000 UL
LT0
0.50 0.50 0.50 C 1.000 UL
LTa
0.50 0.50 0.50 C 966 493 M
5981 0 V
stroke
LT0
0.50 0.50 0.50 C 966 493 M
63 0 V
5918 0 R
-63 0 V
882 493 M
( 4.94974) Rshow
1.000 UL
LT0
0.50 0.50 0.50 C 1.000 UL
LTa
0.50 0.50 0.50 C 966 523 M
5981 0 V
stroke
LT0
0.50 0.50 0.50 C 966 523 M
63 0 V
5918 0 R
-63 0 V
882 523 M
( 5.65685) Rshow
1.000 UL
LT0
0.50 0.50 0.50 C 1.000 UL
LTa
0.50 0.50 0.50 C 966 554 M
5981 0 V
stroke
LT0
0.50 0.50 0.50 C 966 554 M
63 0 V
5918 0 R
-63 0 V
882 554 M
( 6.36395) Rshow
1.000 UL
LT0
0.50 0.50 0.50 C 1.000 UL
LTa
0.50 0.50 0.50 C 966 584 M
5981 0 V
stroke
LT0
0.50 0.50 0.50 C 966 584 M
63 0 V
5918 0 R
-63 0 V
882 584 M
( 7.07106) Rshow
1.000 UL
LT0
0.50 0.50 0.50 C 1.000 UL
LTa
0.50 0.50 0.50 C 966 614 M
5981 0 V
stroke
LT0
0.50 0.50 0.50 C 966 614 M
63 0 V
5918 0 R
-63 0 V
882 614 M
( 7.77817) Rshow
1.000 UL
LT0
0.50 0.50 0.50 C 1.000 UL
LTa
0.50 0.50 0.50 C 966 645 M
5981 0 V
stroke
LT0
0.50 0.50 0.50 C 966 645 M
63 0 V
5918 0 R
-63 0 V
882 645 M
( 8.48527) Rshow
1.000 UL
LT0
0.50 0.50 0.50 C 1.000 UL
LTa
0.50 0.50 0.50 C 966 675 M
5981 0 V
stroke
LT0
0.50 0.50 0.50 C 966 675 M
63 0 V
5918 0 R
-63 0 V
882 675 M
( 9.19238) Rshow
1.000 UL
LT0
0.50 0.50 0.50 C 1.000 UL
LTa
0.50 0.50 0.50 C 966 706 M
5981 0 V
stroke
LT0
0.50 0.50 0.50 C 966 706 M
63 0 V
5918 0 R
-63 0 V
882 706 M
( 9.89948) Rshow
1.000 UL
LT0
0.50 0.50 0.50 C 1.000 UL
LTa
0.50 0.50 0.50 C 966 736 M
5981 0 V
stroke
LT0
0.50 0.50 0.50 C 966 736 M
63 0 V
5918 0 R
-63 0 V
882 736 M
( 10.6066) Rshow
1.000 UL
LT0
0.50 0.50 0.50 C 1.000 UL
LTa
0.50 0.50 0.50 C 966 766 M
5981 0 V
stroke
LT0
0.50 0.50 0.50 C 966 766 M
63 0 V
5918 0 R
-63 0 V
882 766 M
( 11.3137) Rshow
1.000 UL
LT0
0.50 0.50 0.50 C 1.000 UL
LTa
0.50 0.50 0.50 C 966 797 M
5981 0 V
stroke
LT0
0.50 0.50 0.50 C 966 797 M
63 0 V
5918 0 R
-63 0 V
882 797 M
( 12.0208) Rshow
1.000 UL
LT0
0.50 0.50 0.50 C 1.000 UL
LTa
0.50 0.50 0.50 C 966 827 M
5981 0 V
stroke
LT0
0.50 0.50 0.50 C 966 827 M
63 0 V
5918 0 R
-63 0 V
882 827 M
( 12.7279) Rshow
1.000 UL
LT0
0.50 0.50 0.50 C 1.000 UL
LTa
0.50 0.50 0.50 C 966 858 M
5981 0 V
stroke
LT0
0.50 0.50 0.50 C 966 858 M
63 0 V
5918 0 R
-63 0 V
882 858 M
( 13.435) Rshow
1.000 UL
LT0
0.50 0.50 0.50 C 1.000 UL
LTa
0.50 0.50 0.50 C 966 888 M
5981 0 V
stroke
LT0
0.50 0.50 0.50 C 966 888 M
63 0 V
5918 0 R
-63 0 V
882 888 M
( 14.1421) Rshow
1.000 UL
LT0
0.50 0.50 0.50 C 1.000 UL
LTa
0.50 0.50 0.50 C 966 918 M
5981 0 V
stroke
LT0
0.50 0.50 0.50 C 966 918 M
63 0 V
5918 0 R
-63 0 V
882 918 M
( 14.8492) Rshow
1.000 UL
LT0
0.50 0.50 0.50 C 1.000 UL
LTa
0.50 0.50 0.50 C 966 949 M
5981 0 V
stroke
LT0
0.50 0.50 0.50 C 966 949 M
63 0 V
5918 0 R
-63 0 V
882 949 M
( 15.5563) Rshow
1.000 UL
LT0
0.50 0.50 0.50 C 1.000 UL
LTa
0.50 0.50 0.50 C 966 979 M
5981 0 V
stroke
LT0
0.50 0.50 0.50 C 966 979 M
63 0 V
5918 0 R
-63 0 V
882 979 M
( 16.2634) Rshow
1.000 UL
LT0
0.50 0.50 0.50 C 1.000 UL
LTa
0.50 0.50 0.50 C 966 1010 M
5981 0 V
stroke
LT0
0.50 0.50 0.50 C 966 1010 M
63 0 V
5918 0 R
-63 0 V
-6002 0 R
( 16.9705) Rshow
1.000 UL
LT0
0.50 0.50 0.50 C 1.000 UL
LTa
0.50 0.50 0.50 C 966 1040 M
5981 0 V
stroke
LT0
0.50 0.50 0.50 C 966 1040 M
63 0 V
5918 0 R
-63 0 V
-6002 0 R
( 17.6776) Rshow
1.000 UL
LT0
0.50 0.50 0.50 C 1.000 UL
LTa
0.50 0.50 0.50 C 966 1071 M
5981 0 V
stroke
LT0
0.50 0.50 0.50 C 966 1071 M
63 0 V
5918 0 R
-63 0 V
-6002 0 R
( 18.3848) Rshow
1.000 UL
LT0
0.50 0.50 0.50 C 1.000 UL
LTa
0.50 0.50 0.50 C 966 1101 M
5981 0 V
stroke
LT0
0.50 0.50 0.50 C 966 1101 M
63 0 V
5918 0 R
-63 0 V
-6002 0 R
( 19.0919) Rshow
1.000 UL
LT0
0.50 0.50 0.50 C 1.000 UL
LTa
0.50 0.50 0.50 C 966 1131 M
5981 0 V
stroke
LT0
0.50 0.50 0.50 C 966 1131 M
63 0 V
5918 0 R
-63 0 V
-6002 0 R
( 19.799) Rshow
1.000 UL
LT0
0.50 0.50 0.50 C 1.000 UL
LTa
0.50 0.50 0.50 C 966 1162 M
5981 0 V
stroke
LT0
0.50 0.50 0.50 C 966 1162 M
63 0 V
5918 0 R
-63 0 V
-6002 0 R
( 20.5061) Rshow
1.000 UL
LT0
0.50 0.50 0.50 C 1.000 UL
LTa
0.50 0.50 0.50 C 966 1192 M
5981 0 V
stroke
LT0
0.50 0.50 0.50 C 966 1192 M
63 0 V
5918 0 R
-63 0 V
-6002 0 R
( 21.2132) Rshow
1.000 UL
LT0
0.50 0.50 0.50 C 1.000 UL
LTa
0.50 0.50 0.50 C 966 1223 M
5981 0 V
stroke
LT0
0.50 0.50 0.50 C 966 1223 M
63 0 V
5918 0 R
-63 0 V
-6002 0 R
( 21.9203) Rshow
1.000 UL
LT0
0.50 0.50 0.50 C 1.000 UL
LTa
0.50 0.50 0.50 C 966 1253 M
5981 0 V
stroke
LT0
0.50 0.50 0.50 C 966 1253 M
63 0 V
5918 0 R
-63 0 V
-6002 0 R
( 22.6274) Rshow
1.000 UL
LT0
0.50 0.50 0.50 C 1.000 UL
LTa
0.50 0.50 0.50 C 966 1283 M
5981 0 V
stroke
LT0
0.50 0.50 0.50 C 966 1283 M
63 0 V
5918 0 R
-63 0 V
-6002 0 R
( 23.3345) Rshow
1.000 UL
LT0
0.50 0.50 0.50 C 1.000 UL
LTa
0.50 0.50 0.50 C 966 1314 M
5981 0 V
stroke
LT0
0.50 0.50 0.50 C 966 1314 M
63 0 V
5918 0 R
-63 0 V
-6002 0 R
( 24.0416) Rshow
1.000 UL
LT0
0.50 0.50 0.50 C 1.000 UL
LTa
0.50 0.50 0.50 C 966 1344 M
5981 0 V
stroke
LT0
0.50 0.50 0.50 C 966 1344 M
63 0 V
5918 0 R
-63 0 V
-6002 0 R
( 24.7487) Rshow
1.000 UL
LT0
0.50 0.50 0.50 C 1.000 UL
LTa
0.50 0.50 0.50 C 966 1375 M
5981 0 V
stroke
LT0
0.50 0.50 0.50 C 966 1375 M
63 0 V
5918 0 R
-63 0 V
-6002 0 R
( 25.4558) Rshow
1.000 UL
LT0
0.50 0.50 0.50 C 1.000 UL
LTa
0.50 0.50 0.50 C 966 1405 M
5981 0 V
stroke
LT0
0.50 0.50 0.50 C 966 1405 M
63 0 V
5918 0 R
-63 0 V
-6002 0 R
( 26.1629) Rshow
1.000 UL
LT0
0.50 0.50 0.50 C 1.000 UL
LTa
0.50 0.50 0.50 C 966 1435 M
5981 0 V
stroke
LT0
0.50 0.50 0.50 C 966 1435 M
63 0 V
5918 0 R
-63 0 V
-6002 0 R
( 26.87) Rshow
1.000 UL
LT0
0.50 0.50 0.50 C 1.000 UL
LTa
0.50 0.50 0.50 C 966 1466 M
5981 0 V
stroke
LT0
0.50 0.50 0.50 C 966 1466 M
63 0 V
5918 0 R
-63 0 V
-6002 0 R
( 27.5771) Rshow
1.000 UL
LT0
0.50 0.50 0.50 C 1.000 UL
LTa
0.50 0.50 0.50 C 966 1496 M
5981 0 V
stroke
LT0
0.50 0.50 0.50 C 966 1496 M
63 0 V
5918 0 R
-63 0 V
-6002 0 R
( 28.2842) Rshow
1.000 UL
LT0
0.50 0.50 0.50 C 1.000 UL
LTa
0.50 0.50 0.50 C 966 1527 M
5981 0 V
stroke
LT0
0.50 0.50 0.50 C 966 1527 M
63 0 V
5918 0 R
-63 0 V
-6002 0 R
( 28.9913) Rshow
1.000 UL
LT0
0.50 0.50 0.50 C 1.000 UL
LTa
0.50 0.50 0.50 C 966 1557 M
5981 0 V
stroke
LT0
0.50 0.50 0.50 C 966 1557 M
63 0 V
5918 0 R
-63 0 V
-6002 0 R
( 29.6985) Rshow
1.000 UL
LT0
0.50 0.50 0.50 C 1.000 UL
LTa
0.50 0.50 0.50 C 966 1587 M
5981 0 V
stroke
LT0
0.50 0.50 0.50 C 966 1587 M
63 0 V
5918 0 R
-63 0 V
-6002 0 R
( 30.4056) Rshow
1.000 UL
LT0
0.50 0.50 0.50 C 1.000 UL
LTa
0.50 0.50 0.50 C 966 1618 M
5981 0 V
stroke
LT0
0.50 0.50 0.50 C 966 1618 M
63 0 V
5918 0 R
-63 0 V
-6002 0 R
( 31.1127) Rshow
1.000 UL
LT0
0.50 0.50 0.50 C 1.000 UL
LTa
0.50 0.50 0.50 C 966 1648 M
5981 0 V
stroke
LT0
0.50 0.50 0.50 C 966 1648 M
63 0 V
5918 0 R
-63 0 V
-6002 0 R
( 31.8198) Rshow
1.000 UL
LT0
0.50 0.50 0.50 C 1.000 UL
LTa
0.50 0.50 0.50 C 966 1679 M
5981 0 V
stroke
LT0
0.50 0.50 0.50 C 966 1679 M
63 0 V
5918 0 R
-63 0 V
-6002 0 R
( 32.5269) Rshow
1.000 UL
LT0
0.50 0.50 0.50 C 1.000 UL
LTa
0.50 0.50 0.50 C 966 1709 M
5981 0 V
stroke
LT0
0.50 0.50 0.50 C 966 1709 M
63 0 V
5918 0 R
-63 0 V
-6002 0 R
( 33.234) Rshow
1.000 UL
LT0
0.50 0.50 0.50 C 1.000 UL
LTa
0.50 0.50 0.50 C 966 1739 M
5981 0 V
stroke
LT0
0.50 0.50 0.50 C 966 1739 M
63 0 V
5918 0 R
-63 0 V
-6002 0 R
( 33.9411) Rshow
1.000 UL
LT0
0.50 0.50 0.50 C 1.000 UL
LTa
0.50 0.50 0.50 C 966 1770 M
5981 0 V
stroke
LT0
0.50 0.50 0.50 C 966 1770 M
63 0 V
5918 0 R
-63 0 V
-6002 0 R
( 34.6482) Rshow
1.000 UL
LT0
0.50 0.50 0.50 C 1.000 UL
LTa
0.50 0.50 0.50 C 966 1800 M
5981 0 V
stroke
LT0
0.50 0.50 0.50 C 966 1800 M
63 0 V
5918 0 R
-63 0 V
-6002 0 R
( 35.3553) Rshow
1.000 UL
LT0
0.50 0.50 0.50 C 1.000 UL
LTa
0.50 0.50 0.50 C 966 1831 M
5981 0 V
stroke
LT0
0.50 0.50 0.50 C 966 1831 M
63 0 V
5918 0 R
-63 0 V
-6002 0 R
( 36.0624) Rshow
1.000 UL
LT0
0.50 0.50 0.50 C 1.000 UL
LTa
0.50 0.50 0.50 C 966 1861 M
5981 0 V
stroke
LT0
0.50 0.50 0.50 C 966 1861 M
63 0 V
5918 0 R
-63 0 V
-6002 0 R
( 36.7695) Rshow
1.000 UL
LT0
0.50 0.50 0.50 C 1.000 UL
LTa
0.50 0.50 0.50 C 966 1891 M
5981 0 V
stroke
LT0
0.50 0.50 0.50 C 966 1891 M
63 0 V
5918 0 R
-63 0 V
-6002 0 R
( 37.4766) Rshow
1.000 UL
LT0
0.50 0.50 0.50 C 1.000 UL
LTa
0.50 0.50 0.50 C 966 1922 M
5981 0 V
stroke
LT0
0.50 0.50 0.50 C 966 1922 M
63 0 V
5918 0 R
-63 0 V
-6002 0 R
( 38.1837) Rshow
1.000 UL
LT0
0.50 0.50 0.50 C 1.000 UL
LTa
0.50 0.50 0.50 C 966 1952 M
5981 0 V
stroke
LT0
0.50 0.50 0.50 C 966 1952 M
63 0 V
5918 0 R
-63 0 V
-6002 0 R
( 38.8908) Rshow
1.000 UL
LT0
0.50 0.50 0.50 C 1.000 UL
LTa
0.50 0.50 0.50 C 966 1983 M
5981 0 V
stroke
LT0
0.50 0.50 0.50 C 966 1983 M
63 0 V
5918 0 R
-63 0 V
-6002 0 R
( 39.5979) Rshow
1.000 UL
LT0
0.50 0.50 0.50 C 1.000 UL
LTa
0.50 0.50 0.50 C 966 2013 M
5981 0 V
stroke
LT0
0.50 0.50 0.50 C 966 2013 M
63 0 V
5918 0 R
-63 0 V
-6002 0 R
( 40.305) Rshow
1.000 UL
LT0
0.50 0.50 0.50 C 1.000 UL
LTa
0.50 0.50 0.50 C 966 2043 M
5981 0 V
stroke
LT0
0.50 0.50 0.50 C 966 2043 M
63 0 V
5918 0 R
-63 0 V
-6002 0 R
( 41.0121) Rshow
1.000 UL
LT0
0.50 0.50 0.50 C 1.000 UL
LTa
0.50 0.50 0.50 C 966 2074 M
5981 0 V
stroke
LT0
0.50 0.50 0.50 C 966 2074 M
63 0 V
5918 0 R
-63 0 V
-6002 0 R
( 41.7193) Rshow
1.000 UL
LT0
0.50 0.50 0.50 C 1.000 UL
LTa
0.50 0.50 0.50 C 966 2104 M
5981 0 V
stroke
LT0
0.50 0.50 0.50 C 966 2104 M
63 0 V
5918 0 R
-63 0 V
-6002 0 R
( 42.4264) Rshow
1.000 UL
LT0
0.50 0.50 0.50 C 1.000 UL
LTa
0.50 0.50 0.50 C 966 2135 M
5981 0 V
stroke
LT0
0.50 0.50 0.50 C 966 2135 M
63 0 V
5918 0 R
-63 0 V
-6002 0 R
( 43.1335) Rshow
1.000 UL
LT0
0.50 0.50 0.50 C 1.000 UL
LTa
0.50 0.50 0.50 C 966 2165 M
5981 0 V
stroke
LT0
0.50 0.50 0.50 C 966 2165 M
63 0 V
5918 0 R
-63 0 V
-6002 0 R
( 43.8406) Rshow
1.000 UL
LT0
0.50 0.50 0.50 C 1.000 UL
LTa
0.50 0.50 0.50 C 966 2195 M
5981 0 V
stroke
LT0
0.50 0.50 0.50 C 966 2195 M
63 0 V
5918 0 R
-63 0 V
-6002 0 R
( 44.5477) Rshow
1.000 UL
LT0
0.50 0.50 0.50 C 1.000 UL
LTa
0.50 0.50 0.50 C 966 2226 M
5981 0 V
stroke
LT0
0.50 0.50 0.50 C 966 2226 M
63 0 V
5918 0 R
-63 0 V
-6002 0 R
( 45.2548) Rshow
1.000 UL
LT0
0.50 0.50 0.50 C 1.000 UL
LTa
0.50 0.50 0.50 C 966 2256 M
5981 0 V
stroke
LT0
0.50 0.50 0.50 C 966 2256 M
63 0 V
5918 0 R
-63 0 V
-6002 0 R
( 45.9619) Rshow
1.000 UL
LT0
0.50 0.50 0.50 C 1.000 UL
LTa
0.50 0.50 0.50 C 966 2287 M
5981 0 V
stroke
LT0
0.50 0.50 0.50 C 966 2287 M
63 0 V
5918 0 R
-63 0 V
-6002 0 R
( 46.669) Rshow
1.000 UL
LT0
0.50 0.50 0.50 C 1.000 UL
LTa
0.50 0.50 0.50 C 966 2317 M
5981 0 V
stroke
LT0
0.50 0.50 0.50 C 966 2317 M
63 0 V
5918 0 R
-63 0 V
-6002 0 R
( 47.3761) Rshow
1.000 UL
LT0
0.50 0.50 0.50 C 1.000 UL
LTa
0.50 0.50 0.50 C 966 2347 M
5981 0 V
stroke
LT0
0.50 0.50 0.50 C 966 2347 M
63 0 V
5918 0 R
-63 0 V
-6002 0 R
( 48.0832) Rshow
1.000 UL
LT0
0.50 0.50 0.50 C 1.000 UL
LTa
0.50 0.50 0.50 C 966 2378 M
5981 0 V
stroke
LT0
0.50 0.50 0.50 C 966 2378 M
63 0 V
5918 0 R
-63 0 V
-6002 0 R
( 48.7903) Rshow
1.000 UL
LT0
0.50 0.50 0.50 C 1.000 UL
LTa
0.50 0.50 0.50 C 966 2408 M
5981 0 V
stroke
LT0
0.50 0.50 0.50 C 966 2408 M
63 0 V
5918 0 R
-63 0 V
-6002 0 R
( 49.4974) Rshow
1.000 UL
LT0
0.50 0.50 0.50 C 1.000 UL
LTa
0.50 0.50 0.50 C 966 2439 M
5981 0 V
stroke
LT0
0.50 0.50 0.50 C 966 2439 M
63 0 V
5918 0 R
-63 0 V
-6002 0 R
( 50.2045) Rshow
1.000 UL
LT0
0.50 0.50 0.50 C 1.000 UL
LTa
0.50 0.50 0.50 C 966 2469 M
5981 0 V
stroke
LT0
0.50 0.50 0.50 C 966 2469 M
63 0 V
5918 0 R
-63 0 V
-6002 0 R
( 50.9116) Rshow
1.000 UL
LT0
0.50 0.50 0.50 C 1.000 UL
LTa
0.50 0.50 0.50 C 966 2499 M
5981 0 V
stroke
LT0
0.50 0.50 0.50 C 966 2499 M
63 0 V
5918 0 R
-63 0 V
-6002 0 R
( 51.6187) Rshow
1.000 UL
LT0
0.50 0.50 0.50 C 1.000 UL
LTa
0.50 0.50 0.50 C 966 2530 M
5981 0 V
stroke
LT0
0.50 0.50 0.50 C 966 2530 M
63 0 V
5918 0 R
-63 0 V
-6002 0 R
( 52.3258) Rshow
1.000 UL
LT0
0.50 0.50 0.50 C 1.000 UL
LTa
0.50 0.50 0.50 C 966 2560 M
5981 0 V
stroke
LT0
0.50 0.50 0.50 C 966 2560 M
63 0 V
5918 0 R
-63 0 V
-6002 0 R
( 53.033) Rshow
1.000 UL
LT0
0.50 0.50 0.50 C 1.000 UL
LTa
0.50 0.50 0.50 C 966 2591 M
5981 0 V
stroke
LT0
0.50 0.50 0.50 C 966 2591 M
63 0 V
5918 0 R
-63 0 V
-6002 0 R
( 53.7401) Rshow
1.000 UL
LT0
0.50 0.50 0.50 C 1.000 UL
LTa
0.50 0.50 0.50 C 966 2621 M
5981 0 V
stroke
LT0
0.50 0.50 0.50 C 966 2621 M
63 0 V
5918 0 R
-63 0 V
-6002 0 R
( 54.4472) Rshow
1.000 UL
LT0
0.50 0.50 0.50 C 1.000 UL
LTa
0.50 0.50 0.50 C 966 2652 M
5981 0 V
stroke
LT0
0.50 0.50 0.50 C 966 2652 M
63 0 V
5918 0 R
-63 0 V
-6002 0 R
( 55.1543) Rshow
1.000 UL
LT0
0.50 0.50 0.50 C 1.000 UL
LTa
0.50 0.50 0.50 C 966 2682 M
5981 0 V
stroke
LT0
0.50 0.50 0.50 C 966 2682 M
63 0 V
5918 0 R
-63 0 V
-6002 0 R
( 55.8614) Rshow
1.000 UL
LT0
0.50 0.50 0.50 C 1.000 UL
LTa
0.50 0.50 0.50 C 966 2712 M
5981 0 V
stroke
LT0
0.50 0.50 0.50 C 966 2712 M
63 0 V
5918 0 R
-63 0 V
-6002 0 R
( 56.5685) Rshow
1.000 UL
LT0
0.50 0.50 0.50 C 1.000 UL
LTa
0.50 0.50 0.50 C 966 2743 M
5981 0 V
stroke
LT0
0.50 0.50 0.50 C 966 2743 M
63 0 V
5918 0 R
-63 0 V
-6002 0 R
( 57.2756) Rshow
1.000 UL
LT0
0.50 0.50 0.50 C 1.000 UL
LTa
0.50 0.50 0.50 C 966 2773 M
5981 0 V
stroke
LT0
0.50 0.50 0.50 C 966 2773 M
63 0 V
5918 0 R
-63 0 V
-6002 0 R
( 57.9827) Rshow
1.000 UL
LT0
0.50 0.50 0.50 C 1.000 UL
LTa
0.50 0.50 0.50 C 966 2804 M
5981 0 V
stroke
LT0
0.50 0.50 0.50 C 966 2804 M
63 0 V
5918 0 R
-63 0 V
-6002 0 R
( 58.6898) Rshow
1.000 UL
LT0
0.50 0.50 0.50 C 1.000 UL
LTa
0.50 0.50 0.50 C 966 2834 M
5981 0 V
stroke
LT0
0.50 0.50 0.50 C 966 2834 M
63 0 V
5918 0 R
-63 0 V
-6002 0 R
( 59.3969) Rshow
1.000 UL
LT0
0.50 0.50 0.50 C 1.000 UL
LTa
0.50 0.50 0.50 C 966 2864 M
5981 0 V
stroke
LT0
0.50 0.50 0.50 C 966 2864 M
63 0 V
5918 0 R
-63 0 V
-6002 0 R
( 60.104) Rshow
1.000 UL
LT0
0.50 0.50 0.50 C 1.000 UL
LTa
0.50 0.50 0.50 C 966 2895 M
5981 0 V
stroke
LT0
0.50 0.50 0.50 C 966 2895 M
63 0 V
5918 0 R
-63 0 V
-6002 0 R
( 60.8111) Rshow
1.000 UL
LT0
0.50 0.50 0.50 C 1.000 UL
LTa
0.50 0.50 0.50 C 966 2925 M
5981 0 V
stroke
LT0
0.50 0.50 0.50 C 966 2925 M
63 0 V
5918 0 R
-63 0 V
-6002 0 R
( 61.5182) Rshow
1.000 UL
LT0
0.50 0.50 0.50 C 1.000 UL
LTa
0.50 0.50 0.50 C 966 2956 M
5981 0 V
stroke
LT0
0.50 0.50 0.50 C 966 2956 M
63 0 V
5918 0 R
-63 0 V
-6002 0 R
( 62.2253) Rshow
1.000 UL
LT0
0.50 0.50 0.50 C 1.000 UL
LTa
0.50 0.50 0.50 C 966 2986 M
5981 0 V
stroke
LT0
0.50 0.50 0.50 C 966 2986 M
63 0 V
5918 0 R
-63 0 V
-6002 0 R
( 62.9324) Rshow
1.000 UL
LT0
0.50 0.50 0.50 C 1.000 UL
LTa
0.50 0.50 0.50 C 966 3016 M
5981 0 V
stroke
LT0
0.50 0.50 0.50 C 966 3016 M
63 0 V
5918 0 R
-63 0 V
-6002 0 R
( 63.6395) Rshow
1.000 UL
LT0
0.50 0.50 0.50 C 1.000 UL
LTa
0.50 0.50 0.50 C 966 3047 M
5981 0 V
stroke
LT0
0.50 0.50 0.50 C 966 3047 M
63 0 V
5918 0 R
-63 0 V
-6002 0 R
( 64.3466) Rshow
1.000 UL
LT0
0.50 0.50 0.50 C 1.000 UL
LTa
0.50 0.50 0.50 C 966 3077 M
5981 0 V
stroke
LT0
0.50 0.50 0.50 C 966 3077 M
63 0 V
5918 0 R
-63 0 V
-6002 0 R
( 65.0538) Rshow
1.000 UL
LT0
0.50 0.50 0.50 C 1.000 UL
LTa
0.50 0.50 0.50 C 966 3108 M
5981 0 V
stroke
LT0
0.50 0.50 0.50 C 966 3108 M
63 0 V
5918 0 R
-63 0 V
-6002 0 R
( 65.7609) Rshow
1.000 UL
LT0
0.50 0.50 0.50 C 1.000 UL
LTa
0.50 0.50 0.50 C 966 3138 M
5981 0 V
stroke
LT0
0.50 0.50 0.50 C 966 3138 M
63 0 V
5918 0 R
-63 0 V
-6002 0 R
( 66.468) Rshow
1.000 UL
LT0
0.50 0.50 0.50 C 1.000 UL
LTa
0.50 0.50 0.50 C 966 3168 M
5981 0 V
stroke
LT0
0.50 0.50 0.50 C 966 3168 M
63 0 V
5918 0 R
-63 0 V
-6002 0 R
( 67.1751) Rshow
1.000 UL
LT0
0.50 0.50 0.50 C 1.000 UL
LTa
0.50 0.50 0.50 C 966 3199 M
5981 0 V
stroke
LT0
0.50 0.50 0.50 C 966 3199 M
63 0 V
5918 0 R
-63 0 V
-6002 0 R
( 67.8822) Rshow
1.000 UL
LT0
0.50 0.50 0.50 C 1.000 UL
LTa
0.50 0.50 0.50 C 966 3229 M
5981 0 V
stroke
LT0
0.50 0.50 0.50 C 966 3229 M
63 0 V
5918 0 R
-63 0 V
-6002 0 R
( 68.5893) Rshow
1.000 UL
LT0
0.50 0.50 0.50 C 1.000 UL
LTa
0.50 0.50 0.50 C 966 3260 M
5981 0 V
stroke
LT0
0.50 0.50 0.50 C 966 3260 M
63 0 V
5918 0 R
-63 0 V
-6002 0 R
( 69.2964) Rshow
1.000 UL
LT0
0.50 0.50 0.50 C 1.000 UL
LTa
0.50 0.50 0.50 C 966 3290 M
5981 0 V
stroke
LT0
0.50 0.50 0.50 C 966 3290 M
63 0 V
5918 0 R
-63 0 V
-6002 0 R
( 70.0035) Rshow
1.000 UL
LT0
0.50 0.50 0.50 C 1.000 UL
LTa
0.50 0.50 0.50 C 966 3320 M
5981 0 V
stroke
LT0
0.50 0.50 0.50 C 966 3320 M
63 0 V
5918 0 R
-63 0 V
-6002 0 R
( 70.7106) Rshow
1.000 UL
LT0
0.50 0.50 0.50 C 1.000 UL
LTa
0.50 0.50 0.50 C 966 3351 M
5981 0 V
stroke
LT0
0.50 0.50 0.50 C 966 3351 M
63 0 V
5918 0 R
-63 0 V
-6002 0 R
( 71.4177) Rshow
1.000 UL
LT0
0.50 0.50 0.50 C 1.000 UL
LTa
0.50 0.50 0.50 C 966 3381 M
5981 0 V
stroke
LT0
0.50 0.50 0.50 C 966 3381 M
63 0 V
5918 0 R
-63 0 V
-6002 0 R
( 72.1248) Rshow
1.000 UL
LT0
0.50 0.50 0.50 C 1.000 UL
LTa
0.50 0.50 0.50 C 966 3412 M
5981 0 V
stroke
LT0
0.50 0.50 0.50 C 966 3412 M
63 0 V
5918 0 R
-63 0 V
-6002 0 R
( 72.8319) Rshow
1.000 UL
LT0
0.50 0.50 0.50 C 1.000 UL
LTa
0.50 0.50 0.50 C 966 3442 M
5981 0 V
stroke
LT0
0.50 0.50 0.50 C 966 3442 M
63 0 V
5918 0 R
-63 0 V
-6002 0 R
( 73.539) Rshow
1.000 UL
LT0
0.50 0.50 0.50 C 1.000 UL
LTa
0.50 0.50 0.50 C 966 3472 M
5981 0 V
stroke
LT0
0.50 0.50 0.50 C 966 3472 M
63 0 V
5918 0 R
-63 0 V
-6002 0 R
( 74.2461) Rshow
1.000 UL
LT0
0.50 0.50 0.50 C 1.000 UL
LTa
0.50 0.50 0.50 C 966 3503 M
5981 0 V
stroke
LT0
0.50 0.50 0.50 C 966 3503 M
63 0 V
5918 0 R
-63 0 V
-6002 0 R
( 74.9532) Rshow
1.000 UL
LT0
0.50 0.50 0.50 C 1.000 UL
LTa
0.50 0.50 0.50 C 966 3533 M
5981 0 V
stroke
LT0
0.50 0.50 0.50 C 966 3533 M
63 0 V
5918 0 R
-63 0 V
-6002 0 R
( 75.6603) Rshow
1.000 UL
LT0
0.50 0.50 0.50 C 1.000 UL
LTa
0.50 0.50 0.50 C 966 3564 M
5981 0 V
stroke
LT0
0.50 0.50 0.50 C 966 3564 M
63 0 V
5918 0 R
-63 0 V
-6002 0 R
( 76.3674) Rshow
1.000 UL
LT0
0.50 0.50 0.50 C 1.000 UL
LTa
0.50 0.50 0.50 C 966 3594 M
5981 0 V
stroke
LT0
0.50 0.50 0.50 C 966 3594 M
63 0 V
5918 0 R
-63 0 V
-6002 0 R
( 77.0746) Rshow
1.000 UL
LT0
0.50 0.50 0.50 C 1.000 UL
LTa
0.50 0.50 0.50 C 966 3624 M
5981 0 V
stroke
LT0
0.50 0.50 0.50 C 966 3624 M
63 0 V
5918 0 R
-63 0 V
-6002 0 R
( 77.7817) Rshow
1.000 UL
LT0
0.50 0.50 0.50 C 1.000 UL
LTa
0.50 0.50 0.50 C 966 3655 M
5981 0 V
stroke
LT0
0.50 0.50 0.50 C 966 3655 M
63 0 V
5918 0 R
-63 0 V
-6002 0 R
( 78.4888) Rshow
1.000 UL
LT0
0.50 0.50 0.50 C 1.000 UL
LTa
0.50 0.50 0.50 C 966 3685 M
5981 0 V
stroke
LT0
0.50 0.50 0.50 C 966 3685 M
63 0 V
5918 0 R
-63 0 V
-6002 0 R
( 79.1959) Rshow
1.000 UL
LT0
0.50 0.50 0.50 C 1.000 UL
LTa
0.50 0.50 0.50 C 966 3716 M
5981 0 V
stroke
LT0
0.50 0.50 0.50 C 966 3716 M
63 0 V
5918 0 R
-63 0 V
-6002 0 R
( 79.903) Rshow
1.000 UL
LT0
0.50 0.50 0.50 C 1.000 UL
LTa
0.50 0.50 0.50 C 966 3746 M
5981 0 V
stroke
LT0
0.50 0.50 0.50 C 966 3746 M
63 0 V
5918 0 R
-63 0 V
-6002 0 R
( 80.6101) Rshow
1.000 UL
LT0
0.50 0.50 0.50 C 1.000 UL
LTa
0.50 0.50 0.50 C 966 3776 M
5981 0 V
stroke
LT0
0.50 0.50 0.50 C 966 3776 M
63 0 V
5918 0 R
-63 0 V
-6002 0 R
( 81.3172) Rshow
1.000 UL
LT0
0.50 0.50 0.50 C 1.000 UL
LTa
0.50 0.50 0.50 C 966 3807 M
5981 0 V
stroke
LT0
0.50 0.50 0.50 C 966 3807 M
63 0 V
5918 0 R
-63 0 V
-6002 0 R
( 82.0243) Rshow
1.000 UL
LT0
0.50 0.50 0.50 C 1.000 UL
LTa
0.50 0.50 0.50 C 966 3837 M
5981 0 V
stroke
LT0
0.50 0.50 0.50 C 966 3837 M
63 0 V
5918 0 R
-63 0 V
-6002 0 R
( 82.7314) Rshow
1.000 UL
LT0
0.50 0.50 0.50 C 1.000 UL
LTa
0.50 0.50 0.50 C 966 3868 M
5981 0 V
stroke
LT0
0.50 0.50 0.50 C 966 3868 M
63 0 V
5918 0 R
-63 0 V
-6002 0 R
( 83.4385) Rshow
1.000 UL
LT0
0.50 0.50 0.50 C 1.000 UL
LTa
0.50 0.50 0.50 C 966 3898 M
5981 0 V
stroke
LT0
0.50 0.50 0.50 C 966 3898 M
63 0 V
5918 0 R
-63 0 V
-6002 0 R
( 84.1456) Rshow
1.000 UL
LT0
0.50 0.50 0.50 C 1.000 UL
LTa
0.50 0.50 0.50 C 966 3928 M
5981 0 V
stroke
LT0
0.50 0.50 0.50 C 966 3928 M
63 0 V
5918 0 R
-63 0 V
-6002 0 R
( 84.8527) Rshow
1.000 UL
LT0
0.50 0.50 0.50 C 1.000 UL
LTa
0.50 0.50 0.50 C 966 3959 M
5981 0 V
stroke
LT0
0.50 0.50 0.50 C 966 3959 M
63 0 V
5918 0 R
-63 0 V
-6002 0 R
( 85.5598) Rshow
1.000 UL
LT0
0.50 0.50 0.50 C 1.000 UL
LTa
0.50 0.50 0.50 C 966 3989 M
5981 0 V
stroke
LT0
0.50 0.50 0.50 C 966 3989 M
63 0 V
5918 0 R
-63 0 V
-6002 0 R
( 86.2669) Rshow
1.000 UL
LT0
0.50 0.50 0.50 C 1.000 UL
LTa
0.50 0.50 0.50 C 966 4020 M
5981 0 V
stroke
LT0
0.50 0.50 0.50 C 966 4020 M
63 0 V
5918 0 R
-63 0 V
-6002 0 R
( 86.974) Rshow
1.000 UL
LT0
0.50 0.50 0.50 C 1.000 UL
LTa
0.50 0.50 0.50 C 966 4050 M
5981 0 V
stroke
LT0
0.50 0.50 0.50 C 966 4050 M
63 0 V
5918 0 R
-63 0 V
-6002 0 R
( 87.6811) Rshow
1.000 UL
LT0
0.50 0.50 0.50 C 1.000 UL
LTa
0.50 0.50 0.50 C 966 4080 M
5981 0 V
stroke
LT0
0.50 0.50 0.50 C 966 4080 M
63 0 V
5918 0 R
-63 0 V
-6002 0 R
( 88.3882) Rshow
1.000 UL
LT0
0.50 0.50 0.50 C 1.000 UL
LTa
0.50 0.50 0.50 C 966 4111 M
5981 0 V
stroke
LT0
0.50 0.50 0.50 C 966 4111 M
63 0 V
5918 0 R
-63 0 V
-6002 0 R
( 89.0954) Rshow
1.000 UL
LT0
0.50 0.50 0.50 C 1.000 UL
LTa
0.50 0.50 0.50 C 966 4141 M
5981 0 V
stroke
LT0
0.50 0.50 0.50 C 966 4141 M
63 0 V
5918 0 R
-63 0 V
-6002 0 R
( 89.8025) Rshow
1.000 UL
LT0
0.50 0.50 0.50 C 1.000 UL
LTa
0.50 0.50 0.50 C 966 4172 M
5981 0 V
stroke
LT0
0.50 0.50 0.50 C 966 4172 M
63 0 V
5918 0 R
-63 0 V
-6002 0 R
( 90.5096) Rshow
1.000 UL
LT0
0.50 0.50 0.50 C 1.000 UL
LTa
0.50 0.50 0.50 C 966 4202 M
5981 0 V
stroke
LT0
0.50 0.50 0.50 C 966 4202 M
63 0 V
5918 0 R
-63 0 V
-6002 0 R
( 91.2167) Rshow
1.000 UL
LT0
0.50 0.50 0.50 C 1.000 UL
LTa
0.50 0.50 0.50 C 966 4233 M
5981 0 V
stroke
LT0
0.50 0.50 0.50 C 966 4233 M
63 0 V
5918 0 R
-63 0 V
-6002 0 R
( 91.9238) Rshow
1.000 UL
LT0
0.50 0.50 0.50 C 1.000 UL
LTa
0.50 0.50 0.50 C 966 4263 M
5981 0 V
stroke
LT0
0.50 0.50 0.50 C 966 4263 M
63 0 V
5918 0 R
-63 0 V
-6002 0 R
( 92.6309) Rshow
1.000 UL
LT0
0.50 0.50 0.50 C 1.000 UL
LTa
0.50 0.50 0.50 C 966 4293 M
5981 0 V
stroke
LT0
0.50 0.50 0.50 C 966 4293 M
63 0 V
5918 0 R
-63 0 V
-6002 0 R
( 93.338) Rshow
1.000 UL
LT0
0.50 0.50 0.50 C 1.000 UL
LTa
0.50 0.50 0.50 C 966 4324 M
5981 0 V
stroke
LT0
0.50 0.50 0.50 C 966 4324 M
63 0 V
5918 0 R
-63 0 V
-6002 0 R
( 94.0451) Rshow
1.000 UL
LT0
0.50 0.50 0.50 C 1.000 UL
LTa
0.50 0.50 0.50 C 966 4354 M
5981 0 V
stroke
LT0
0.50 0.50 0.50 C 966 4354 M
63 0 V
5918 0 R
-63 0 V
-6002 0 R
( 94.7522) Rshow
1.000 UL
LT0
0.50 0.50 0.50 C 1.000 UL
LTa
0.50 0.50 0.50 C 966 4385 M
5981 0 V
stroke
LT0
0.50 0.50 0.50 C 966 4385 M
63 0 V
5918 0 R
-63 0 V
-6002 0 R
( 95.4593) Rshow
1.000 UL
LT0
0.50 0.50 0.50 C 1.000 UL
LTa
0.50 0.50 0.50 C 966 4415 M
5981 0 V
stroke
LT0
0.50 0.50 0.50 C 966 4415 M
63 0 V
5918 0 R
-63 0 V
-6002 0 R
( 96.1664) Rshow
1.000 UL
LT0
0.50 0.50 0.50 C 1.000 UL
LTa
0.50 0.50 0.50 C 966 4445 M
5981 0 V
stroke
LT0
0.50 0.50 0.50 C 966 4445 M
63 0 V
5918 0 R
-63 0 V
-6002 0 R
( 96.8735) Rshow
1.000 UL
LT0
0.50 0.50 0.50 C 1.000 UL
LTa
0.50 0.50 0.50 C 966 4476 M
5981 0 V
stroke
LT0
0.50 0.50 0.50 C 966 4476 M
63 0 V
5918 0 R
-63 0 V
-6002 0 R
( 97.5806) Rshow
1.000 UL
LT0
0.50 0.50 0.50 C 1.000 UL
LTa
0.50 0.50 0.50 C 966 4506 M
5981 0 V
stroke
LT0
0.50 0.50 0.50 C 966 4506 M
63 0 V
5918 0 R
-63 0 V
-6002 0 R
( 98.2877) Rshow
1.000 UL
LT0
0.50 0.50 0.50 C 1.000 UL
LTa
0.50 0.50 0.50 C 966 4537 M
5981 0 V
stroke
LT0
0.50 0.50 0.50 C 966 4537 M
63 0 V
5918 0 R
-63 0 V
-6002 0 R
( 98.9948) Rshow
1.000 UL
LT0
0.50 0.50 0.50 C 1.000 UL
LTa
0.50 0.50 0.50 C 966 4567 M
5981 0 V
stroke
LT0
0.50 0.50 0.50 C 966 4567 M
63 0 V
5918 0 R
-63 0 V
-6002 0 R
( 99.7019) Rshow
1.000 UL
LT0
0.50 0.50 0.50 C 1.000 UL
LTa
0.50 0.50 0.50 C 966 4597 M
5981 0 V
stroke
LT0
0.50 0.50 0.50 C 966 4597 M
63 0 V
5918 0 R
-63 0 V
-6002 0 R
( 100.409) Rshow
1.000 UL
LT0
0.50 0.50 0.50 C 1.000 UL
LTa
0.50 0.50 0.50 C 966 4628 M
5981 0 V
stroke
LT0
0.50 0.50 0.50 C 966 4628 M
63 0 V
5918 0 R
-63 0 V
-6002 0 R
( 101.116) Rshow
1.000 UL
LT0
0.50 0.50 0.50 C 1.000 UL
LTa
0.50 0.50 0.50 C 966 4658 M
5981 0 V
stroke
LT0
0.50 0.50 0.50 C 966 4658 M
63 0 V
5918 0 R
-63 0 V
-6002 0 R
( 101.823) Rshow
1.000 UL
LT0
0.50 0.50 0.50 C 1.000 UL
LTa
0.50 0.50 0.50 C 966 4689 M
5981 0 V
stroke
LT0
0.50 0.50 0.50 C 966 4689 M
63 0 V
5918 0 R
-63 0 V
-6002 0 R
( 102.53) Rshow
1.000 UL
LT0
0.50 0.50 0.50 C 1.000 UL
LTa
0.50 0.50 0.50 C 966 4719 M
5981 0 V
stroke
LT0
0.50 0.50 0.50 C 966 4719 M
63 0 V
5918 0 R
-63 0 V
-6002 0 R
( 103.237) Rshow
1.000 UL
LT0
0.50 0.50 0.50 C 1.000 UL
LTa
0.50 0.50 0.50 C 966 4749 M
5981 0 V
stroke
LT0
0.50 0.50 0.50 C 966 4749 M
63 0 V
5918 0 R
-63 0 V
-6002 0 R
( 103.945) Rshow
1.000 UL
LT0
0.50 0.50 0.50 C 1.000 UL
LTa
0.50 0.50 0.50 C 966 4780 M
5981 0 V
stroke
LT0
0.50 0.50 0.50 C 966 4780 M
63 0 V
5918 0 R
-63 0 V
-6002 0 R
( 104.652) Rshow
1.000 UL
LT0
0.50 0.50 0.50 C 1.000 UL
LTa
0.50 0.50 0.50 C 966 4810 M
5981 0 V
stroke
LT0
0.50 0.50 0.50 C 966 4810 M
63 0 V
5918 0 R
-63 0 V
-6002 0 R
( 105.359) Rshow
1.000 UL
LT0
0.50 0.50 0.50 C 1.000 UL
LTa
0.50 0.50 0.50 C 966 4841 M
5981 0 V
stroke
LT0
0.50 0.50 0.50 C 966 4841 M
63 0 V
5918 0 R
-63 0 V
-6002 0 R
( 106.066) Rshow
1.000 UL
LT0
0.50 0.50 0.50 C 1.000 UL
LTa
0.50 0.50 0.50 C 966 4871 M
5981 0 V
stroke
LT0
0.50 0.50 0.50 C 966 4871 M
63 0 V
5918 0 R
-63 0 V
-6002 0 R
( 106.773) Rshow
1.000 UL
LT0
0.50 0.50 0.50 C 1.000 UL
LTa
0.50 0.50 0.50 C 966 280 M
0 4591 V
stroke
LT0
0.50 0.50 0.50 C 966 280 M
0 63 V
0 4528 R
0 -63 V
966 140 M
( 0) Cshow
1.000 UL
LT0
0.50 0.50 0.50 C 1.000 UL
LTa
0.50 0.50 0.50 C 1006 280 M
0 4591 V
stroke
LT0
0.50 0.50 0.50 C 1006 280 M
0 63 V
0 4528 R
0 -63 V
0 -4668 R
( 0.707106) Cshow
1.000 UL
LT0
0.50 0.50 0.50 C 1.000 UL
LTa
0.50 0.50 0.50 C 1045 280 M
0 4591 V
stroke
LT0
0.50 0.50 0.50 C 1045 280 M
0 63 V
0 4528 R
0 -63 V
0 -4668 R
( 1.41421) Cshow
1.000 UL
LT0
0.50 0.50 0.50 C 1.000 UL
LTa
0.50 0.50 0.50 C 1085 280 M
0 4591 V
stroke
LT0
0.50 0.50 0.50 C 1085 280 M
0 63 V
0 4528 R
0 -63 V
0 -4668 R
( 2.12132) Cshow
1.000 UL
LT0
0.50 0.50 0.50 C 1.000 UL
LTa
0.50 0.50 0.50 C 1124 280 M
0 4591 V
stroke
LT0
0.50 0.50 0.50 C 1124 280 M
0 63 V
0 4528 R
0 -63 V
0 -4668 R
( 2.82842) Cshow
1.000 UL
LT0
0.50 0.50 0.50 C 1.000 UL
LTa
0.50 0.50 0.50 C 1164 280 M
0 4591 V
stroke
LT0
0.50 0.50 0.50 C 1164 280 M
0 63 V
0 4528 R
0 -63 V
0 -4668 R
( 3.53553) Cshow
1.000 UL
LT0
0.50 0.50 0.50 C 1.000 UL
LTa
0.50 0.50 0.50 C 1204 280 M
0 4591 V
stroke
LT0
0.50 0.50 0.50 C 1204 280 M
0 63 V
0 4528 R
0 -63 V
0 -4668 R
( 4.24264) Cshow
1.000 UL
LT0
0.50 0.50 0.50 C 1.000 UL
LTa
0.50 0.50 0.50 C 1243 280 M
0 4591 V
stroke
LT0
0.50 0.50 0.50 C 1243 280 M
0 63 V
0 4528 R
0 -63 V
0 -4668 R
( 4.94974) Cshow
1.000 UL
LT0
0.50 0.50 0.50 C 1.000 UL
LTa
0.50 0.50 0.50 C 1283 280 M
0 4591 V
stroke
LT0
0.50 0.50 0.50 C 1283 280 M
0 63 V
0 4528 R
0 -63 V
0 -4668 R
( 5.65685) Cshow
1.000 UL
LT0
0.50 0.50 0.50 C 1.000 UL
LTa
0.50 0.50 0.50 C 1322 280 M
0 4591 V
stroke
LT0
0.50 0.50 0.50 C 1322 280 M
0 63 V
0 4528 R
0 -63 V
0 -4668 R
( 6.36395) Cshow
1.000 UL
LT0
0.50 0.50 0.50 C 1.000 UL
LTa
0.50 0.50 0.50 C 1362 280 M
0 4591 V
stroke
LT0
0.50 0.50 0.50 C 1362 280 M
0 63 V
0 4528 R
0 -63 V
0 -4668 R
( 7.07106) Cshow
1.000 UL
LT0
0.50 0.50 0.50 C 1.000 UL
LTa
0.50 0.50 0.50 C 1402 280 M
0 4591 V
stroke
LT0
0.50 0.50 0.50 C 1402 280 M
0 63 V
0 4528 R
0 -63 V
0 -4668 R
( 7.77817) Cshow
1.000 UL
LT0
0.50 0.50 0.50 C 1.000 UL
LTa
0.50 0.50 0.50 C 1441 280 M
0 4591 V
stroke
LT0
0.50 0.50 0.50 C 1441 280 M
0 63 V
0 4528 R
0 -63 V
0 -4668 R
( 8.48527) Cshow
1.000 UL
LT0
0.50 0.50 0.50 C 1.000 UL
LTa
0.50 0.50 0.50 C 1481 280 M
0 4591 V
stroke
LT0
0.50 0.50 0.50 C 1481 280 M
0 63 V
0 4528 R
0 -63 V
0 -4668 R
( 9.19238) Cshow
1.000 UL
LT0
0.50 0.50 0.50 C 1.000 UL
LTa
0.50 0.50 0.50 C 1521 280 M
0 4591 V
stroke
LT0
0.50 0.50 0.50 C 1521 280 M
0 63 V
0 4528 R
0 -63 V
0 -4668 R
( 9.89948) Cshow
1.000 UL
LT0
0.50 0.50 0.50 C 1.000 UL
LTa
0.50 0.50 0.50 C 1560 280 M
0 4591 V
stroke
LT0
0.50 0.50 0.50 C 1560 280 M
0 63 V
0 4528 R
0 -63 V
0 -4668 R
( 10.6066) Cshow
1.000 UL
LT0
0.50 0.50 0.50 C 1.000 UL
LTa
0.50 0.50 0.50 C 1600 280 M
0 4591 V
stroke
LT0
0.50 0.50 0.50 C 1600 280 M
0 63 V
0 4528 R
0 -63 V
0 -4668 R
( 11.3137) Cshow
1.000 UL
LT0
0.50 0.50 0.50 C 1.000 UL
LTa
0.50 0.50 0.50 C 1639 280 M
0 4591 V
stroke
LT0
0.50 0.50 0.50 C 1639 280 M
0 63 V
0 4528 R
0 -63 V
0 -4668 R
( 12.0208) Cshow
1.000 UL
LT0
0.50 0.50 0.50 C 1.000 UL
LTa
0.50 0.50 0.50 C 1679 280 M
0 4591 V
stroke
LT0
0.50 0.50 0.50 C 1679 280 M
0 63 V
0 4528 R
0 -63 V
0 -4668 R
( 12.7279) Cshow
1.000 UL
LT0
0.50 0.50 0.50 C 1.000 UL
LTa
0.50 0.50 0.50 C 1719 280 M
0 4591 V
stroke
LT0
0.50 0.50 0.50 C 1719 280 M
0 63 V
0 4528 R
0 -63 V
0 -4668 R
( 13.435) Cshow
1.000 UL
LT0
0.50 0.50 0.50 C 1.000 UL
LTa
0.50 0.50 0.50 C 1758 280 M
0 4591 V
stroke
LT0
0.50 0.50 0.50 C 1758 280 M
0 63 V
0 4528 R
0 -63 V
0 -4668 R
( 14.1421) Cshow
1.000 UL
LT0
0.50 0.50 0.50 C 1.000 UL
LTa
0.50 0.50 0.50 C 1798 280 M
0 4591 V
stroke
LT0
0.50 0.50 0.50 C 1798 280 M
0 63 V
0 4528 R
0 -63 V
0 -4668 R
( 14.8492) Cshow
1.000 UL
LT0
0.50 0.50 0.50 C 1.000 UL
LTa
0.50 0.50 0.50 C 1837 280 M
0 4591 V
stroke
LT0
0.50 0.50 0.50 C 1837 280 M
0 63 V
0 4528 R
0 -63 V
0 -4668 R
( 15.5563) Cshow
1.000 UL
LT0
0.50 0.50 0.50 C 1.000 UL
LTa
0.50 0.50 0.50 C 1877 280 M
0 4591 V
stroke
LT0
0.50 0.50 0.50 C 1877 280 M
0 63 V
0 4528 R
0 -63 V
0 -4668 R
( 16.2634) Cshow
1.000 UL
LT0
0.50 0.50 0.50 C 1.000 UL
LTa
0.50 0.50 0.50 C 1917 280 M
0 4591 V
stroke
LT0
0.50 0.50 0.50 C 1917 280 M
0 63 V
0 4528 R
0 -63 V
0 -4668 R
( 16.9705) Cshow
1.000 UL
LT0
0.50 0.50 0.50 C 1.000 UL
LTa
0.50 0.50 0.50 C 1956 280 M
0 4591 V
stroke
LT0
0.50 0.50 0.50 C 1956 280 M
0 63 V
0 4528 R
0 -63 V
0 -4668 R
( 17.6776) Cshow
1.000 UL
LT0
0.50 0.50 0.50 C 1.000 UL
LTa
0.50 0.50 0.50 C 1996 280 M
0 4591 V
stroke
LT0
0.50 0.50 0.50 C 1996 280 M
0 63 V
0 4528 R
0 -63 V
0 -4668 R
( 18.3848) Cshow
1.000 UL
LT0
0.50 0.50 0.50 C 1.000 UL
LTa
0.50 0.50 0.50 C 2035 280 M
0 4591 V
stroke
LT0
0.50 0.50 0.50 C 2035 280 M
0 63 V
0 4528 R
0 -63 V
0 -4668 R
( 19.0919) Cshow
1.000 UL
LT0
0.50 0.50 0.50 C 1.000 UL
LTa
0.50 0.50 0.50 C 2075 280 M
0 4591 V
stroke
LT0
0.50 0.50 0.50 C 2075 280 M
0 63 V
0 4528 R
0 -63 V
0 -4668 R
( 19.799) Cshow
1.000 UL
LT0
0.50 0.50 0.50 C 1.000 UL
LTa
0.50 0.50 0.50 C 2115 280 M
0 4591 V
stroke
LT0
0.50 0.50 0.50 C 2115 280 M
0 63 V
0 4528 R
0 -63 V
0 -4668 R
( 20.5061) Cshow
1.000 UL
LT0
0.50 0.50 0.50 C 1.000 UL
LTa
0.50 0.50 0.50 C 2154 280 M
0 4591 V
stroke
LT0
0.50 0.50 0.50 C 2154 280 M
0 63 V
0 4528 R
0 -63 V
0 -4668 R
( 21.2132) Cshow
1.000 UL
LT0
0.50 0.50 0.50 C 1.000 UL
LTa
0.50 0.50 0.50 C 2194 280 M
0 4591 V
stroke
LT0
0.50 0.50 0.50 C 2194 280 M
0 63 V
0 4528 R
0 -63 V
0 -4668 R
( 21.9203) Cshow
1.000 UL
LT0
0.50 0.50 0.50 C 1.000 UL
LTa
0.50 0.50 0.50 C 2233 280 M
0 4591 V
stroke
LT0
0.50 0.50 0.50 C 2233 280 M
0 63 V
0 4528 R
0 -63 V
0 -4668 R
( 22.6274) Cshow
1.000 UL
LT0
0.50 0.50 0.50 C 1.000 UL
LTa
0.50 0.50 0.50 C 2273 280 M
0 4591 V
stroke
LT0
0.50 0.50 0.50 C 2273 280 M
0 63 V
0 4528 R
0 -63 V
0 -4668 R
( 23.3345) Cshow
1.000 UL
LT0
0.50 0.50 0.50 C 1.000 UL
LTa
0.50 0.50 0.50 C 2313 280 M
0 4591 V
stroke
LT0
0.50 0.50 0.50 C 2313 280 M
0 63 V
0 4528 R
0 -63 V
0 -4668 R
( 24.0416) Cshow
1.000 UL
LT0
0.50 0.50 0.50 C 1.000 UL
LTa
0.50 0.50 0.50 C 2352 280 M
0 4591 V
stroke
LT0
0.50 0.50 0.50 C 2352 280 M
0 63 V
0 4528 R
0 -63 V
0 -4668 R
( 24.7487) Cshow
1.000 UL
LT0
0.50 0.50 0.50 C 1.000 UL
LTa
0.50 0.50 0.50 C 2392 280 M
0 4591 V
stroke
LT0
0.50 0.50 0.50 C 2392 280 M
0 63 V
0 4528 R
0 -63 V
0 -4668 R
( 25.4558) Cshow
1.000 UL
LT0
0.50 0.50 0.50 C 1.000 UL
LTa
0.50 0.50 0.50 C 2432 280 M
0 4591 V
stroke
LT0
0.50 0.50 0.50 C 2432 280 M
0 63 V
0 4528 R
0 -63 V
0 -4668 R
( 26.1629) Cshow
1.000 UL
LT0
0.50 0.50 0.50 C 1.000 UL
LTa
0.50 0.50 0.50 C 2471 280 M
0 4591 V
stroke
LT0
0.50 0.50 0.50 C 2471 280 M
0 63 V
0 4528 R
0 -63 V
0 -4668 R
( 26.87) Cshow
1.000 UL
LT0
0.50 0.50 0.50 C 1.000 UL
LTa
0.50 0.50 0.50 C 2511 280 M
0 4591 V
stroke
LT0
0.50 0.50 0.50 C 2511 280 M
0 63 V
0 4528 R
0 -63 V
0 -4668 R
( 27.5771) Cshow
1.000 UL
LT0
0.50 0.50 0.50 C 1.000 UL
LTa
0.50 0.50 0.50 C 2550 280 M
0 4591 V
stroke
LT0
0.50 0.50 0.50 C 2550 280 M
0 63 V
0 4528 R
0 -63 V
0 -4668 R
( 28.2842) Cshow
1.000 UL
LT0
0.50 0.50 0.50 C 1.000 UL
LTa
0.50 0.50 0.50 C 2590 280 M
0 4591 V
stroke
LT0
0.50 0.50 0.50 C 2590 280 M
0 63 V
0 4528 R
0 -63 V
0 -4668 R
( 28.9913) Cshow
1.000 UL
LT0
0.50 0.50 0.50 C 1.000 UL
LTa
0.50 0.50 0.50 C 2630 280 M
0 4591 V
stroke
LT0
0.50 0.50 0.50 C 2630 280 M
0 63 V
0 4528 R
0 -63 V
0 -4668 R
( 29.6985) Cshow
1.000 UL
LT0
0.50 0.50 0.50 C 1.000 UL
LTa
0.50 0.50 0.50 C 2669 280 M
0 4591 V
stroke
LT0
0.50 0.50 0.50 C 2669 280 M
0 63 V
0 4528 R
0 -63 V
0 -4668 R
( 30.4056) Cshow
1.000 UL
LT0
0.50 0.50 0.50 C 1.000 UL
LTa
0.50 0.50 0.50 C 2709 280 M
0 4591 V
stroke
LT0
0.50 0.50 0.50 C 2709 280 M
0 63 V
0 4528 R
0 -63 V
0 -4668 R
( 31.1127) Cshow
1.000 UL
LT0
0.50 0.50 0.50 C 1.000 UL
LTa
0.50 0.50 0.50 C 2748 280 M
0 4591 V
stroke
LT0
0.50 0.50 0.50 C 2748 280 M
0 63 V
0 4528 R
0 -63 V
0 -4668 R
( 31.8198) Cshow
1.000 UL
LT0
0.50 0.50 0.50 C 1.000 UL
LTa
0.50 0.50 0.50 C 2788 280 M
0 4591 V
stroke
LT0
0.50 0.50 0.50 C 2788 280 M
0 63 V
0 4528 R
0 -63 V
0 -4668 R
( 32.5269) Cshow
1.000 UL
LT0
0.50 0.50 0.50 C 1.000 UL
LTa
0.50 0.50 0.50 C 2828 280 M
0 4591 V
stroke
LT0
0.50 0.50 0.50 C 2828 280 M
0 63 V
0 4528 R
0 -63 V
0 -4668 R
( 33.234) Cshow
1.000 UL
LT0
0.50 0.50 0.50 C 1.000 UL
LTa
0.50 0.50 0.50 C 2867 280 M
0 4591 V
stroke
LT0
0.50 0.50 0.50 C 2867 280 M
0 63 V
0 4528 R
0 -63 V
0 -4668 R
( 33.9411) Cshow
1.000 UL
LT0
0.50 0.50 0.50 C 1.000 UL
LTa
0.50 0.50 0.50 C 2907 280 M
0 4591 V
stroke
LT0
0.50 0.50 0.50 C 2907 280 M
0 63 V
0 4528 R
0 -63 V
0 -4668 R
( 34.6482) Cshow
1.000 UL
LT0
0.50 0.50 0.50 C 1.000 UL
LTa
0.50 0.50 0.50 C 2946 280 M
0 4591 V
stroke
LT0
0.50 0.50 0.50 C 2946 280 M
0 63 V
0 4528 R
0 -63 V
0 -4668 R
( 35.3553) Cshow
1.000 UL
LT0
0.50 0.50 0.50 C 1.000 UL
LTa
0.50 0.50 0.50 C 2986 280 M
0 4591 V
stroke
LT0
0.50 0.50 0.50 C 2986 280 M
0 63 V
0 4528 R
0 -63 V
0 -4668 R
( 36.0624) Cshow
1.000 UL
LT0
0.50 0.50 0.50 C 1.000 UL
LTa
0.50 0.50 0.50 C 3026 280 M
0 4591 V
stroke
LT0
0.50 0.50 0.50 C 3026 280 M
0 63 V
0 4528 R
0 -63 V
0 -4668 R
( 36.7695) Cshow
1.000 UL
LT0
0.50 0.50 0.50 C 1.000 UL
LTa
0.50 0.50 0.50 C 3065 280 M
0 4591 V
stroke
LT0
0.50 0.50 0.50 C 3065 280 M
0 63 V
0 4528 R
0 -63 V
0 -4668 R
( 37.4766) Cshow
1.000 UL
LT0
0.50 0.50 0.50 C 1.000 UL
LTa
0.50 0.50 0.50 C 3105 280 M
0 4591 V
stroke
LT0
0.50 0.50 0.50 C 3105 280 M
0 63 V
0 4528 R
0 -63 V
0 -4668 R
( 38.1837) Cshow
1.000 UL
LT0
0.50 0.50 0.50 C 1.000 UL
LTa
0.50 0.50 0.50 C 3145 280 M
0 4591 V
stroke
LT0
0.50 0.50 0.50 C 3145 280 M
0 63 V
0 4528 R
0 -63 V
0 -4668 R
( 38.8908) Cshow
1.000 UL
LT0
0.50 0.50 0.50 C 1.000 UL
LTa
0.50 0.50 0.50 C 3184 280 M
0 4591 V
stroke
LT0
0.50 0.50 0.50 C 3184 280 M
0 63 V
0 4528 R
0 -63 V
0 -4668 R
( 39.5979) Cshow
1.000 UL
LT0
0.50 0.50 0.50 C 1.000 UL
LTa
0.50 0.50 0.50 C 3224 280 M
0 4591 V
stroke
LT0
0.50 0.50 0.50 C 3224 280 M
0 63 V
0 4528 R
0 -63 V
0 -4668 R
( 40.305) Cshow
1.000 UL
LT0
0.50 0.50 0.50 C 1.000 UL
LTa
0.50 0.50 0.50 C 3263 280 M
0 4591 V
stroke
LT0
0.50 0.50 0.50 C 3263 280 M
0 63 V
0 4528 R
0 -63 V
0 -4668 R
( 41.0121) Cshow
1.000 UL
LT0
0.50 0.50 0.50 C 1.000 UL
LTa
0.50 0.50 0.50 C 3303 280 M
0 4591 V
stroke
LT0
0.50 0.50 0.50 C 3303 280 M
0 63 V
0 4528 R
0 -63 V
0 -4668 R
( 41.7193) Cshow
1.000 UL
LT0
0.50 0.50 0.50 C 1.000 UL
LTa
0.50 0.50 0.50 C 3343 280 M
0 4591 V
stroke
LT0
0.50 0.50 0.50 C 3343 280 M
0 63 V
0 4528 R
0 -63 V
0 -4668 R
( 42.4264) Cshow
1.000 UL
LT0
0.50 0.50 0.50 C 1.000 UL
LTa
0.50 0.50 0.50 C 3382 280 M
0 4591 V
stroke
LT0
0.50 0.50 0.50 C 3382 280 M
0 63 V
0 4528 R
0 -63 V
0 -4668 R
( 43.1335) Cshow
1.000 UL
LT0
0.50 0.50 0.50 C 1.000 UL
LTa
0.50 0.50 0.50 C 3422 280 M
0 4591 V
stroke
LT0
0.50 0.50 0.50 C 3422 280 M
0 63 V
0 4528 R
0 -63 V
0 -4668 R
( 43.8406) Cshow
1.000 UL
LT0
0.50 0.50 0.50 C 1.000 UL
LTa
0.50 0.50 0.50 C 3461 280 M
0 4591 V
stroke
LT0
0.50 0.50 0.50 C 3461 280 M
0 63 V
0 4528 R
0 -63 V
0 -4668 R
( 44.5477) Cshow
1.000 UL
LT0
0.50 0.50 0.50 C 1.000 UL
LTa
0.50 0.50 0.50 C 3501 280 M
0 4591 V
stroke
LT0
0.50 0.50 0.50 C 3501 280 M
0 63 V
0 4528 R
0 -63 V
0 -4668 R
( 45.2548) Cshow
1.000 UL
LT0
0.50 0.50 0.50 C 1.000 UL
LTa
0.50 0.50 0.50 C 3541 280 M
0 4591 V
stroke
LT0
0.50 0.50 0.50 C 3541 280 M
0 63 V
0 4528 R
0 -63 V
0 -4668 R
( 45.9619) Cshow
1.000 UL
LT0
0.50 0.50 0.50 C 1.000 UL
LTa
0.50 0.50 0.50 C 3580 280 M
0 4591 V
stroke
LT0
0.50 0.50 0.50 C 3580 280 M
0 63 V
0 4528 R
0 -63 V
0 -4668 R
( 46.669) Cshow
1.000 UL
LT0
0.50 0.50 0.50 C 1.000 UL
LTa
0.50 0.50 0.50 C 3620 280 M
0 4591 V
stroke
LT0
0.50 0.50 0.50 C 3620 280 M
0 63 V
0 4528 R
0 -63 V
0 -4668 R
( 47.3761) Cshow
1.000 UL
LT0
0.50 0.50 0.50 C 1.000 UL
LTa
0.50 0.50 0.50 C 3659 280 M
0 4591 V
stroke
LT0
0.50 0.50 0.50 C 3659 280 M
0 63 V
0 4528 R
0 -63 V
0 -4668 R
( 48.0832) Cshow
1.000 UL
LT0
0.50 0.50 0.50 C 1.000 UL
LTa
0.50 0.50 0.50 C 3699 280 M
0 4591 V
stroke
LT0
0.50 0.50 0.50 C 3699 280 M
0 63 V
0 4528 R
0 -63 V
0 -4668 R
( 48.7903) Cshow
1.000 UL
LT0
0.50 0.50 0.50 C 1.000 UL
LTa
0.50 0.50 0.50 C 3739 280 M
0 4591 V
stroke
LT0
0.50 0.50 0.50 C 3739 280 M
0 63 V
0 4528 R
0 -63 V
0 -4668 R
( 49.4974) Cshow
1.000 UL
LT0
0.50 0.50 0.50 C 1.000 UL
LTa
0.50 0.50 0.50 C 3778 280 M
0 4591 V
stroke
LT0
0.50 0.50 0.50 C 3778 280 M
0 63 V
0 4528 R
0 -63 V
0 -4668 R
( 50.2045) Cshow
1.000 UL
LT0
0.50 0.50 0.50 C 1.000 UL
LTa
0.50 0.50 0.50 C 3818 280 M
0 4591 V
stroke
LT0
0.50 0.50 0.50 C 3818 280 M
0 63 V
0 4528 R
0 -63 V
0 -4668 R
( 50.9116) Cshow
1.000 UL
LT0
0.50 0.50 0.50 C 1.000 UL
LTa
0.50 0.50 0.50 C 3857 280 M
0 4591 V
stroke
LT0
0.50 0.50 0.50 C 3857 280 M
0 63 V
0 4528 R
0 -63 V
0 -4668 R
( 51.6187) Cshow
1.000 UL
LT0
0.50 0.50 0.50 C 1.000 UL
LTa
0.50 0.50 0.50 C 3897 280 M
0 4591 V
stroke
LT0
0.50 0.50 0.50 C 3897 280 M
0 63 V
0 4528 R
0 -63 V
0 -4668 R
( 52.3258) Cshow
1.000 UL
LT0
0.50 0.50 0.50 C 1.000 UL
LTa
0.50 0.50 0.50 C 3937 280 M
0 4591 V
stroke
LT0
0.50 0.50 0.50 C 3937 280 M
0 63 V
0 4528 R
0 -63 V
0 -4668 R
( 53.033) Cshow
1.000 UL
LT0
0.50 0.50 0.50 C 1.000 UL
LTa
0.50 0.50 0.50 C 3976 280 M
0 4591 V
stroke
LT0
0.50 0.50 0.50 C 3976 280 M
0 63 V
0 4528 R
0 -63 V
0 -4668 R
( 53.7401) Cshow
1.000 UL
LT0
0.50 0.50 0.50 C 1.000 UL
LTa
0.50 0.50 0.50 C 4016 280 M
0 4591 V
stroke
LT0
0.50 0.50 0.50 C 4016 280 M
0 63 V
0 4528 R
0 -63 V
0 -4668 R
( 54.4472) Cshow
1.000 UL
LT0
0.50 0.50 0.50 C 1.000 UL
LTa
0.50 0.50 0.50 C 4056 280 M
0 4591 V
stroke
LT0
0.50 0.50 0.50 C 4056 280 M
0 63 V
0 4528 R
0 -63 V
0 -4668 R
( 55.1543) Cshow
1.000 UL
LT0
0.50 0.50 0.50 C 1.000 UL
LTa
0.50 0.50 0.50 C 4095 280 M
0 4591 V
stroke
LT0
0.50 0.50 0.50 C 4095 280 M
0 63 V
0 4528 R
0 -63 V
0 -4668 R
( 55.8614) Cshow
1.000 UL
LT0
0.50 0.50 0.50 C 1.000 UL
LTa
0.50 0.50 0.50 C 4135 280 M
0 4591 V
stroke
LT0
0.50 0.50 0.50 C 4135 280 M
0 63 V
0 4528 R
0 -63 V
0 -4668 R
( 56.5685) Cshow
1.000 UL
LT0
0.50 0.50 0.50 C 1.000 UL
LTa
0.50 0.50 0.50 C 4174 280 M
0 4591 V
stroke
LT0
0.50 0.50 0.50 C 4174 280 M
0 63 V
0 4528 R
0 -63 V
0 -4668 R
( 57.2756) Cshow
1.000 UL
LT0
0.50 0.50 0.50 C 1.000 UL
LTa
0.50 0.50 0.50 C 4214 280 M
0 4591 V
stroke
LT0
0.50 0.50 0.50 C 4214 280 M
0 63 V
0 4528 R
0 -63 V
0 -4668 R
( 57.9827) Cshow
1.000 UL
LT0
0.50 0.50 0.50 C 1.000 UL
LTa
0.50 0.50 0.50 C 4254 280 M
0 4591 V
stroke
LT0
0.50 0.50 0.50 C 4254 280 M
0 63 V
0 4528 R
0 -63 V
0 -4668 R
( 58.6898) Cshow
1.000 UL
LT0
0.50 0.50 0.50 C 1.000 UL
LTa
0.50 0.50 0.50 C 4293 280 M
0 4591 V
stroke
LT0
0.50 0.50 0.50 C 4293 280 M
0 63 V
0 4528 R
0 -63 V
0 -4668 R
( 59.3969) Cshow
1.000 UL
LT0
0.50 0.50 0.50 C 1.000 UL
LTa
0.50 0.50 0.50 C 4333 280 M
0 4591 V
stroke
LT0
0.50 0.50 0.50 C 4333 280 M
0 63 V
0 4528 R
0 -63 V
0 -4668 R
( 60.104) Cshow
1.000 UL
LT0
0.50 0.50 0.50 C 1.000 UL
LTa
0.50 0.50 0.50 C 4372 280 M
0 4591 V
stroke
LT0
0.50 0.50 0.50 C 4372 280 M
0 63 V
0 4528 R
0 -63 V
0 -4668 R
( 60.8111) Cshow
1.000 UL
LT0
0.50 0.50 0.50 C 1.000 UL
LTa
0.50 0.50 0.50 C 4412 280 M
0 4591 V
stroke
LT0
0.50 0.50 0.50 C 4412 280 M
0 63 V
0 4528 R
0 -63 V
0 -4668 R
( 61.5182) Cshow
1.000 UL
LT0
0.50 0.50 0.50 C 1.000 UL
LTa
0.50 0.50 0.50 C 4452 280 M
0 4591 V
stroke
LT0
0.50 0.50 0.50 C 4452 280 M
0 63 V
0 4528 R
0 -63 V
0 -4668 R
( 62.2253) Cshow
1.000 UL
LT0
0.50 0.50 0.50 C 1.000 UL
LTa
0.50 0.50 0.50 C 4491 280 M
0 4591 V
stroke
LT0
0.50 0.50 0.50 C 4491 280 M
0 63 V
0 4528 R
0 -63 V
0 -4668 R
( 62.9324) Cshow
1.000 UL
LT0
0.50 0.50 0.50 C 1.000 UL
LTa
0.50 0.50 0.50 C 4531 280 M
0 4591 V
stroke
LT0
0.50 0.50 0.50 C 4531 280 M
0 63 V
0 4528 R
0 -63 V
0 -4668 R
( 63.6395) Cshow
1.000 UL
LT0
0.50 0.50 0.50 C 1.000 UL
LTa
0.50 0.50 0.50 C 4570 280 M
0 4591 V
stroke
LT0
0.50 0.50 0.50 C 4570 280 M
0 63 V
0 4528 R
0 -63 V
0 -4668 R
( 64.3466) Cshow
1.000 UL
LT0
0.50 0.50 0.50 C 1.000 UL
LTa
0.50 0.50 0.50 C 4610 280 M
0 4591 V
stroke
LT0
0.50 0.50 0.50 C 4610 280 M
0 63 V
0 4528 R
0 -63 V
0 -4668 R
( 65.0538) Cshow
1.000 UL
LT0
0.50 0.50 0.50 C 1.000 UL
LTa
0.50 0.50 0.50 C 4650 280 M
0 4591 V
stroke
LT0
0.50 0.50 0.50 C 4650 280 M
0 63 V
0 4528 R
0 -63 V
0 -4668 R
( 65.7609) Cshow
1.000 UL
LT0
0.50 0.50 0.50 C 1.000 UL
LTa
0.50 0.50 0.50 C 4689 280 M
0 4591 V
stroke
LT0
0.50 0.50 0.50 C 4689 280 M
0 63 V
0 4528 R
0 -63 V
0 -4668 R
( 66.468) Cshow
1.000 UL
LT0
0.50 0.50 0.50 C 1.000 UL
LTa
0.50 0.50 0.50 C 4729 280 M
0 4591 V
stroke
LT0
0.50 0.50 0.50 C 4729 280 M
0 63 V
0 4528 R
0 -63 V
0 -4668 R
( 67.1751) Cshow
1.000 UL
LT0
0.50 0.50 0.50 C 1.000 UL
LTa
0.50 0.50 0.50 C 4768 280 M
0 4591 V
stroke
LT0
0.50 0.50 0.50 C 4768 280 M
0 63 V
0 4528 R
0 -63 V
0 -4668 R
( 67.8822) Cshow
1.000 UL
LT0
0.50 0.50 0.50 C 1.000 UL
LTa
0.50 0.50 0.50 C 4808 280 M
0 4591 V
stroke
LT0
0.50 0.50 0.50 C 4808 280 M
0 63 V
0 4528 R
0 -63 V
0 -4668 R
( 68.5893) Cshow
1.000 UL
LT0
0.50 0.50 0.50 C 1.000 UL
LTa
0.50 0.50 0.50 C 4848 280 M
0 4591 V
stroke
LT0
0.50 0.50 0.50 C 4848 280 M
0 63 V
0 4528 R
0 -63 V
0 -4668 R
( 69.2964) Cshow
1.000 UL
LT0
0.50 0.50 0.50 C 1.000 UL
LTa
0.50 0.50 0.50 C 4887 280 M
0 4591 V
stroke
LT0
0.50 0.50 0.50 C 4887 280 M
0 63 V
0 4528 R
0 -63 V
0 -4668 R
( 70.0035) Cshow
1.000 UL
LT0
0.50 0.50 0.50 C 1.000 UL
LTa
0.50 0.50 0.50 C 4927 280 M
0 4591 V
stroke
LT0
0.50 0.50 0.50 C 4927 280 M
0 63 V
0 4528 R
0 -63 V
0 -4668 R
( 70.7106) Cshow
1.000 UL
LT0
0.50 0.50 0.50 C 1.000 UL
LTa
0.50 0.50 0.50 C 4967 280 M
0 4591 V
stroke
LT0
0.50 0.50 0.50 C 4967 280 M
0 63 V
0 4528 R
0 -63 V
0 -4668 R
( 71.4177) Cshow
1.000 UL
LT0
0.50 0.50 0.50 C 1.000 UL
LTa
0.50 0.50 0.50 C 5006 280 M
0 4591 V
stroke
LT0
0.50 0.50 0.50 C 5006 280 M
0 63 V
0 4528 R
0 -63 V
0 -4668 R
( 72.1248) Cshow
1.000 UL
LT0
0.50 0.50 0.50 C 1.000 UL
LTa
0.50 0.50 0.50 C 5046 280 M
0 4591 V
stroke
LT0
0.50 0.50 0.50 C 5046 280 M
0 63 V
0 4528 R
0 -63 V
0 -4668 R
( 72.8319) Cshow
1.000 UL
LT0
0.50 0.50 0.50 C 1.000 UL
LTa
0.50 0.50 0.50 C 5085 280 M
0 4591 V
stroke
LT0
0.50 0.50 0.50 C 5085 280 M
0 63 V
0 4528 R
0 -63 V
0 -4668 R
( 73.539) Cshow
1.000 UL
LT0
0.50 0.50 0.50 C 1.000 UL
LTa
0.50 0.50 0.50 C 5125 280 M
0 4591 V
stroke
LT0
0.50 0.50 0.50 C 5125 280 M
0 63 V
0 4528 R
0 -63 V
0 -4668 R
( 74.2461) Cshow
1.000 UL
LT0
0.50 0.50 0.50 C 1.000 UL
LTa
0.50 0.50 0.50 C 5165 280 M
0 4591 V
stroke
LT0
0.50 0.50 0.50 C 5165 280 M
0 63 V
0 4528 R
0 -63 V
0 -4668 R
( 74.9532) Cshow
1.000 UL
LT0
0.50 0.50 0.50 C 1.000 UL
LTa
0.50 0.50 0.50 C 5204 280 M
0 4591 V
stroke
LT0
0.50 0.50 0.50 C 5204 280 M
0 63 V
0 4528 R
0 -63 V
0 -4668 R
( 75.6603) Cshow
1.000 UL
LT0
0.50 0.50 0.50 C 1.000 UL
LTa
0.50 0.50 0.50 C 5244 280 M
0 4591 V
stroke
LT0
0.50 0.50 0.50 C 5244 280 M
0 63 V
0 4528 R
0 -63 V
0 -4668 R
( 76.3674) Cshow
1.000 UL
LT0
0.50 0.50 0.50 C 1.000 UL
LTa
0.50 0.50 0.50 C 5283 280 M
0 4591 V
stroke
LT0
0.50 0.50 0.50 C 5283 280 M
0 63 V
0 4528 R
0 -63 V
0 -4668 R
( 77.0746) Cshow
1.000 UL
LT0
0.50 0.50 0.50 C 1.000 UL
LTa
0.50 0.50 0.50 C 5323 280 M
0 4591 V
stroke
LT0
0.50 0.50 0.50 C 5323 280 M
0 63 V
0 4528 R
0 -63 V
0 -4668 R
( 77.7817) Cshow
1.000 UL
LT0
0.50 0.50 0.50 C 1.000 UL
LTa
0.50 0.50 0.50 C 5363 280 M
0 4591 V
stroke
LT0
0.50 0.50 0.50 C 5363 280 M
0 63 V
0 4528 R
0 -63 V
0 -4668 R
( 78.4888) Cshow
1.000 UL
LT0
0.50 0.50 0.50 C 1.000 UL
LTa
0.50 0.50 0.50 C 5402 280 M
0 4591 V
stroke
LT0
0.50 0.50 0.50 C 5402 280 M
0 63 V
0 4528 R
0 -63 V
0 -4668 R
( 79.1959) Cshow
1.000 UL
LT0
0.50 0.50 0.50 C 1.000 UL
LTa
0.50 0.50 0.50 C 5442 280 M
0 4591 V
stroke
LT0
0.50 0.50 0.50 C 5442 280 M
0 63 V
0 4528 R
0 -63 V
0 -4668 R
( 79.903) Cshow
1.000 UL
LT0
0.50 0.50 0.50 C 1.000 UL
LTa
0.50 0.50 0.50 C 5481 280 M
0 4591 V
stroke
LT0
0.50 0.50 0.50 C 5481 280 M
0 63 V
0 4528 R
0 -63 V
0 -4668 R
( 80.6101) Cshow
1.000 UL
LT0
0.50 0.50 0.50 C 1.000 UL
LTa
0.50 0.50 0.50 C 5521 280 M
0 4591 V
stroke
LT0
0.50 0.50 0.50 C 5521 280 M
0 63 V
0 4528 R
0 -63 V
0 -4668 R
( 81.3172) Cshow
1.000 UL
LT0
0.50 0.50 0.50 C 1.000 UL
LTa
0.50 0.50 0.50 C 5561 280 M
0 4591 V
stroke
LT0
0.50 0.50 0.50 C 5561 280 M
0 63 V
0 4528 R
0 -63 V
0 -4668 R
( 82.0243) Cshow
1.000 UL
LT0
0.50 0.50 0.50 C 1.000 UL
LTa
0.50 0.50 0.50 C 5600 280 M
0 4591 V
stroke
LT0
0.50 0.50 0.50 C 5600 280 M
0 63 V
0 4528 R
0 -63 V
0 -4668 R
( 82.7314) Cshow
1.000 UL
LT0
0.50 0.50 0.50 C 1.000 UL
LTa
0.50 0.50 0.50 C 5640 280 M
0 4591 V
stroke
LT0
0.50 0.50 0.50 C 5640 280 M
0 63 V
0 4528 R
0 -63 V
0 -4668 R
( 83.4385) Cshow
1.000 UL
LT0
0.50 0.50 0.50 C 1.000 UL
LTa
0.50 0.50 0.50 C 5680 280 M
0 4591 V
stroke
LT0
0.50 0.50 0.50 C 5680 280 M
0 63 V
0 4528 R
0 -63 V
0 -4668 R
( 84.1456) Cshow
1.000 UL
LT0
0.50 0.50 0.50 C 1.000 UL
LTa
0.50 0.50 0.50 C 5719 280 M
0 4591 V
stroke
LT0
0.50 0.50 0.50 C 5719 280 M
0 63 V
0 4528 R
0 -63 V
0 -4668 R
( 84.8527) Cshow
1.000 UL
LT0
0.50 0.50 0.50 C 1.000 UL
LTa
0.50 0.50 0.50 C 5759 280 M
0 4591 V
stroke
LT0
0.50 0.50 0.50 C 5759 280 M
0 63 V
0 4528 R
0 -63 V
0 -4668 R
( 85.5598) Cshow
1.000 UL
LT0
0.50 0.50 0.50 C 1.000 UL
LTa
0.50 0.50 0.50 C 5798 280 M
0 4591 V
stroke
LT0
0.50 0.50 0.50 C 5798 280 M
0 63 V
0 4528 R
0 -63 V
0 -4668 R
( 86.2669) Cshow
1.000 UL
LT0
0.50 0.50 0.50 C 1.000 UL
LTa
0.50 0.50 0.50 C 5838 280 M
0 4591 V
stroke
LT0
0.50 0.50 0.50 C 5838 280 M
0 63 V
0 4528 R
0 -63 V
0 -4668 R
( 86.974) Cshow
1.000 UL
LT0
0.50 0.50 0.50 C 1.000 UL
LTa
0.50 0.50 0.50 C 5878 280 M
0 4591 V
stroke
LT0
0.50 0.50 0.50 C 5878 280 M
0 63 V
0 4528 R
0 -63 V
0 -4668 R
( 87.6811) Cshow
1.000 UL
LT0
0.50 0.50 0.50 C 1.000 UL
LTa
0.50 0.50 0.50 C 5917 280 M
0 4591 V
stroke
LT0
0.50 0.50 0.50 C 5917 280 M
0 63 V
0 4528 R
0 -63 V
0 -4668 R
( 88.3882) Cshow
1.000 UL
LT0
0.50 0.50 0.50 C 1.000 UL
LTa
0.50 0.50 0.50 C 5957 280 M
0 4591 V
stroke
LT0
0.50 0.50 0.50 C 5957 280 M
0 63 V
0 4528 R
0 -63 V
0 -4668 R
( 89.0954) Cshow
1.000 UL
LT0
0.50 0.50 0.50 C 1.000 UL
LTa
0.50 0.50 0.50 C 5996 280 M
0 4591 V
stroke
LT0
0.50 0.50 0.50 C 5996 280 M
0 63 V
0 4528 R
0 -63 V
0 -4668 R
( 89.8025) Cshow
1.000 UL
LT0
0.50 0.50 0.50 C 1.000 UL
LTa
0.50 0.50 0.50 C 6036 280 M
0 4591 V
stroke
LT0
0.50 0.50 0.50 C 6036 280 M
0 63 V
0 4528 R
0 -63 V
0 -4668 R
( 90.5096) Cshow
1.000 UL
LT0
0.50 0.50 0.50 C 1.000 UL
LTa
0.50 0.50 0.50 C 6076 280 M
0 4591 V
stroke
LT0
0.50 0.50 0.50 C 6076 280 M
0 63 V
0 4528 R
0 -63 V
0 -4668 R
( 91.2167) Cshow
1.000 UL
LT0
0.50 0.50 0.50 C 1.000 UL
LTa
0.50 0.50 0.50 C 6115 280 M
0 4591 V
stroke
LT0
0.50 0.50 0.50 C 6115 280 M
0 63 V
0 4528 R
0 -63 V
0 -4668 R
( 91.9238) Cshow
1.000 UL
LT0
0.50 0.50 0.50 C 1.000 UL
LTa
0.50 0.50 0.50 C 6155 280 M
0 4591 V
stroke
LT0
0.50 0.50 0.50 C 6155 280 M
0 63 V
0 4528 R
0 -63 V
0 -4668 R
( 92.6309) Cshow
1.000 UL
LT0
0.50 0.50 0.50 C 1.000 UL
LTa
0.50 0.50 0.50 C 6194 280 M
0 4591 V
stroke
LT0
0.50 0.50 0.50 C 6194 280 M
0 63 V
0 4528 R
0 -63 V
0 -4668 R
( 93.338) Cshow
1.000 UL
LT0
0.50 0.50 0.50 C 1.000 UL
LTa
0.50 0.50 0.50 C 6234 280 M
0 4591 V
stroke
LT0
0.50 0.50 0.50 C 6234 280 M
0 63 V
0 4528 R
0 -63 V
0 -4668 R
( 94.0451) Cshow
1.000 UL
LT0
0.50 0.50 0.50 C 1.000 UL
LTa
0.50 0.50 0.50 C 6274 280 M
0 4591 V
stroke
LT0
0.50 0.50 0.50 C 6274 280 M
0 63 V
0 4528 R
0 -63 V
0 -4668 R
( 94.7522) Cshow
1.000 UL
LT0
0.50 0.50 0.50 C 1.000 UL
LTa
0.50 0.50 0.50 C 6313 280 M
0 4591 V
stroke
LT0
0.50 0.50 0.50 C 6313 280 M
0 63 V
0 4528 R
0 -63 V
0 -4668 R
( 95.4593) Cshow
1.000 UL
LT0
0.50 0.50 0.50 C 1.000 UL
LTa
0.50 0.50 0.50 C 6353 280 M
0 4591 V
stroke
LT0
0.50 0.50 0.50 C 6353 280 M
0 63 V
0 4528 R
0 -63 V
0 -4668 R
( 96.1664) Cshow
1.000 UL
LT0
0.50 0.50 0.50 C 1.000 UL
LTa
0.50 0.50 0.50 C 6392 280 M
0 4591 V
stroke
LT0
0.50 0.50 0.50 C 6392 280 M
0 63 V
0 4528 R
0 -63 V
0 -4668 R
( 96.8735) Cshow
1.000 UL
LT0
0.50 0.50 0.50 C 1.000 UL
LTa
0.50 0.50 0.50 C 6432 280 M
0 4591 V
stroke
LT0
0.50 0.50 0.50 C 6432 280 M
0 63 V
0 4528 R
0 -63 V
0 -4668 R
( 97.5806) Cshow
1.000 UL
LT0
0.50 0.50 0.50 C 1.000 UL
LTa
0.50 0.50 0.50 C 6472 280 M
0 4591 V
stroke
LT0
0.50 0.50 0.50 C 6472 280 M
0 63 V
0 4528 R
0 -63 V
0 -4668 R
( 98.2877) Cshow
1.000 UL
LT0
0.50 0.50 0.50 C 1.000 UL
LTa
0.50 0.50 0.50 C 6511 280 M
0 4591 V
stroke
LT0
0.50 0.50 0.50 C 6511 280 M
0 63 V
0 4528 R
0 -63 V
0 -4668 R
( 98.9948) Cshow
1.000 UL
LT0
0.50 0.50 0.50 C 1.000 UL
LTa
0.50 0.50 0.50 C 6551 280 M
0 4591 V
stroke
LT0
0.50 0.50 0.50 C 6551 280 M
0 63 V
0 4528 R
0 -63 V
0 -4668 R
( 99.7019) Cshow
1.000 UL
LT0
0.50 0.50 0.50 C 1.000 UL
LTa
0.50 0.50 0.50 C 6591 280 M
0 4591 V
stroke
LT0
0.50 0.50 0.50 C 6591 280 M
0 63 V
0 4528 R
0 -63 V
0 -4668 R
( 100.409) Cshow
1.000 UL
LT0
0.50 0.50 0.50 C 1.000 UL
LTa
0.50 0.50 0.50 C 6630 280 M
0 4591 V
stroke
LT0
0.50 0.50 0.50 C 6630 280 M
0 63 V
0 4528 R
0 -63 V
0 -4668 R
( 101.116) Cshow
1.000 UL
LT0
0.50 0.50 0.50 C 1.000 UL
LTa
0.50 0.50 0.50 C 6670 280 M
0 4591 V
stroke
LT0
0.50 0.50 0.50 C 6670 280 M
0 63 V
0 4528 R
0 -63 V
0 -4668 R
( 101.823) Cshow
1.000 UL
LT0
0.50 0.50 0.50 C 1.000 UL
LTa
0.50 0.50 0.50 C 6709 280 M
0 4591 V
stroke
LT0
0.50 0.50 0.50 C 6709 280 M
0 63 V
0 4528 R
0 -63 V
0 -4668 R
( 102.53) Cshow
1.000 UL
LT0
0.50 0.50 0.50 C 1.000 UL
LTa
0.50 0.50 0.50 C 6749 280 M
0 4591 V
stroke
LT0
0.50 0.50 0.50 C 6749 280 M
0 63 V
0 4528 R
0 -63 V
0 -4668 R
( 103.237) Cshow
1.000 UL
LT0
0.50 0.50 0.50 C 1.000 UL
LTa
0.50 0.50 0.50 C 6789 280 M
0 4591 V
stroke
LT0
0.50 0.50 0.50 C 6789 280 M
0 63 V
0 4528 R
0 -63 V
0 -4668 R
( 103.945) Cshow
1.000 UL
LT0
0.50 0.50 0.50 C 1.000 UL
LTa
0.50 0.50 0.50 C 6828 280 M
0 4591 V
stroke
LT0
0.50 0.50 0.50 C 6828 280 M
0 63 V
0 4528 R
0 -63 V
0 -4668 R
( 104.652) Cshow
1.000 UL
LT0
0.50 0.50 0.50 C 1.000 UL
LTa
0.50 0.50 0.50 C 6868 280 M
0 4591 V
stroke
LT0
0.50 0.50 0.50 C 6868 280 M
0 63 V
0 4528 R
0 -63 V
0 -4668 R
( 105.359) Cshow
1.000 UL
LT0
0.50 0.50 0.50 C 1.000 UL
LTa
0.50 0.50 0.50 C 6907 280 M
0 4591 V
stroke
LT0
0.50 0.50 0.50 C 6907 280 M
0 63 V
0 4528 R
0 -63 V
0 -4668 R
( 106.066) Cshow
1.000 UL
LT0
0.50 0.50 0.50 C 1.000 UL
LTa
0.50 0.50 0.50 C 6947 280 M
0 4591 V
stroke
LT0
0.50 0.50 0.50 C 6947 280 M
0 63 V
0 4528 R
0 -63 V
0 -4668 R
( 106.773) Cshow
1.000 UL
LT0
0.50 0.50 0.50 C 1.000 UL
LT0
0.50 0.50 0.50 C 966 4871 M
966 280 L
5981 0 V
0 4591 R
-5981 0 R
1.000 UP
stroke
LT0
0.50 0.50 0.50 C % Begin plot #1
1.500 UP
2.000 UL
LT0
0.00 0.00 1.00 C /Helvetica findfont 140 scalefont setfont
/vshift -46 def
966 341 M
40 0 V
0 851 R
39 0 V
0 304 R
40 0 V
0 213 R
39 0 V
0 152 R
40 0 V
0 91 R
40 0 V
0 61 R
39 0 V
0 426 R
40 0 V
0 60 R
39 0 V
0 183 R
40 0 V
0 182 R
40 0 V
0 61 R
39 0 V
40 0 V
40 0 V
0 91 R
39 0 V
40 0 V
39 0 V
40 0 V
40 0 V
39 0 V
0 31 R
40 0 V
39 0 V
40 0 V
40 0 V
0 30 R
39 0 V
0 213 R
40 0 V
39 0 V
40 0 V
0 91 R
40 0 V
0 61 R
39 0 V
0 61 R
40 0 V
39 0 V
40 0 V
40 0 V
39 0 V
0 30 R
40 0 V
0 31 R
40 0 V
0 30 R
39 0 V
40 0 V
39 0 V
0 30 R
40 0 V
40 0 V
39 0 V
40 0 V
39 0 V
40 0 V
0 31 R
40 0 V
39 0 V
40 0 V
39 0 V
40 0 V
40 0 V
39 0 V
40 0 V
40 0 V
39 0 V
40 0 V
39 0 V
40 0 V
40 0 V
39 0 V
40 0 V
39 0 V
40 0 V
40 0 V
39 0 V
40 0 V
39 0 V
40 0 V
40 0 V
39 0 V
40 0 V
39 0 V
40 0 V
40 0 V
39 0 V
40 0 V
40 0 V
0 30 R
39 0 V
0 152 R
40 0 V
stroke 4135 3837 M
39 0 V
40 0 V
40 0 V
39 0 V
40 0 V
39 0 V
40 0 V
40 0 V
39 0 V
40 0 V
39 0 V
40 0 V
40 0 V
39 0 V
40 0 V
39 0 V
40 0 V
40 0 V
39 0 V
40 0 V
40 0 V
39 0 V
40 0 V
39 0 V
40 0 V
40 0 V
39 0 V
40 0 V
39 0 V
40 0 V
0 152 R
40 0 V
0 31 R
39 0 V
0 30 R
40 0 V
0 30 R
39 0 V
40 0 V
40 0 V
0 92 R
39 0 V
0 61 R
40 0 V
40 0 V
0 121 R
39 0 V
0 91 R
40 0 V
0 61 R
39 0 V
40 0 V
0 31 R
40 0 V
39 0 V
0 60 R
40 0 V
0 31 R
39 0 V
0 91 R
40 0 V
40 0 V
39 0 V
40 0 V
39 0 V
40 0 V
40 0 V
39 0 V
40 0 V
39 0 V
40 0 V
40 0 V
396 122 R
39 0 V
-435 0 R
39 0 V
40 0 V
40 0 V
39 0 V
40 0 V
39 0 V
40 0 V
40 0 V
39 0 V
40 0 V
1006 341 M
0 30 V
0 31 V
0 30 V
0 30 V
0 31 V
0 30 V
0 31 V
0 30 V
0 30 V
0 31 V
0 30 V
0 31 V
0 30 V
0 30 V
0 31 V
0 30 V
0 31 V
0 30 V
stroke 1006 888 M
0 30 V
0 31 V
0 30 V
0 31 V
0 30 V
0 31 V
0 30 V
0 30 V
0 31 V
0 30 V
39 0 R
0 31 V
0 30 V
0 30 V
0 31 V
0 30 V
0 31 V
0 30 V
0 30 V
0 31 V
0 30 V
40 0 R
0 31 V
0 30 V
0 30 V
0 31 V
0 30 V
0 31 V
0 30 V
39 0 R
0 30 V
0 31 V
0 30 V
0 31 V
0 30 V
40 0 R
0 30 V
0 31 V
0 30 V
40 0 R
0 31 V
0 30 V
39 0 R
0 30 V
0 31 V
0 30 V
0 31 V
0 30 V
0 30 V
0 31 V
0 30 V
0 31 V
0 30 V
0 30 V
0 31 V
0 30 V
0 31 V
40 0 R
0 30 V
0 30 V
39 0 R
0 31 V
0 30 V
0 31 V
0 30 V
0 31 V
0 30 V
40 0 R
0 30 V
0 31 V
0 30 V
0 31 V
0 30 V
0 30 V
40 0 R
0 31 V
0 30 V
119 0 R
0 31 V
0 30 V
0 30 V
237 0 R
0 31 V
159 0 R
0 30 V
39 0 R
0 31 V
0 30 V
0 30 V
0 31 V
0 30 V
0 31 V
0 30 V
119 0 R
0 30 V
0 31 V
0 30 V
40 0 R
0 31 V
0 30 V
39 0 R
0 30 V
0 31 V
198 0 R
0 30 V
stroke 2352 3533 M
40 0 R
0 31 V
40 0 R
0 30 V
118 0 R
0 30 V
238 0 R
0 31 V
1268 0 R
0 30 V
39 0 R
0 31 V
0 30 V
0 30 V
0 31 V
0 30 V
1228 0 R
0 31 V
0 30 V
0 30 V
0 31 V
0 30 V
40 0 R
0 31 V
39 0 R
0 30 V
40 0 R
0 30 V
119 0 R
0 31 V
0 30 V
0 31 V
39 0 R
0 30 V
0 31 V
80 0 R
0 30 V
0 30 V
0 31 V
0 30 V
39 0 R
0 31 V
0 30 V
0 30 V
40 0 R
0 31 V
0 30 V
79 0 R
0 31 V
79 0 R
0 30 V
0 30 V
40 0 R
0 31 V
39 0 R
0 30 V
0 31 V
0 30 V
476 0 R
0 30 V
0 31 V
0 30 V
0 31 V
966 280 M
0 30 V
0 31 V
966 341 CircleF
1006 341 CircleF
1006 1192 CircleF
1045 1192 CircleF
1045 1496 CircleF
1085 1496 CircleF
1085 1709 CircleF
1124 1709 CircleF
1124 1861 CircleF
1164 1861 CircleF
1164 1952 CircleF
1204 1952 CircleF
1204 2013 CircleF
1243 2013 CircleF
1243 2439 CircleF
1283 2439 CircleF
1283 2499 CircleF
1322 2499 CircleF
1322 2682 CircleF
1362 2682 CircleF
1362 2864 CircleF
1402 2864 CircleF
1402 2925 CircleF
1441 2925 CircleF
1441 2925 CircleF
1481 2925 CircleF
1481 2925 CircleF
1521 2925 CircleF
1521 3016 CircleF
1560 3016 CircleF
1560 3016 CircleF
1600 3016 CircleF
1600 3016 CircleF
1639 3016 CircleF
1639 3016 CircleF
1679 3016 CircleF
1679 3016 CircleF
1719 3016 CircleF
1719 3016 CircleF
1758 3016 CircleF
1758 3047 CircleF
1798 3047 CircleF
1798 3047 CircleF
1837 3047 CircleF
1837 3047 CircleF
1877 3047 CircleF
1877 3047 CircleF
1917 3047 CircleF
1917 3077 CircleF
1956 3077 CircleF
1956 3290 CircleF
1996 3290 CircleF
1996 3290 CircleF
2035 3290 CircleF
2035 3290 CircleF
2075 3290 CircleF
2075 3381 CircleF
2115 3381 CircleF
2115 3442 CircleF
2154 3442 CircleF
2154 3503 CircleF
2194 3503 CircleF
2194 3503 CircleF
2233 3503 CircleF
2233 3503 CircleF
2273 3503 CircleF
2273 3503 CircleF
2313 3503 CircleF
2313 3503 CircleF
2352 3503 CircleF
2352 3533 CircleF
2392 3533 CircleF
2392 3564 CircleF
2432 3564 CircleF
2432 3594 CircleF
2471 3594 CircleF
2471 3594 CircleF
2511 3594 CircleF
2511 3594 CircleF
2550 3594 CircleF
2550 3624 CircleF
2590 3624 CircleF
2590 3624 CircleF
2630 3624 CircleF
2630 3624 CircleF
2669 3624 CircleF
2669 3624 CircleF
2709 3624 CircleF
2709 3624 CircleF
2748 3624 CircleF
2748 3624 CircleF
2788 3624 CircleF
2788 3655 CircleF
2828 3655 CircleF
2828 3655 CircleF
2867 3655 CircleF
2867 3655 CircleF
2907 3655 CircleF
2907 3655 CircleF
2946 3655 CircleF
2946 3655 CircleF
2986 3655 CircleF
2986 3655 CircleF
3026 3655 CircleF
3026 3655 CircleF
3065 3655 CircleF
3065 3655 CircleF
3105 3655 CircleF
3105 3655 CircleF
3145 3655 CircleF
3145 3655 CircleF
3184 3655 CircleF
3184 3655 CircleF
3224 3655 CircleF
3224 3655 CircleF
3263 3655 CircleF
3263 3655 CircleF
3303 3655 CircleF
3303 3655 CircleF
3343 3655 CircleF
3343 3655 CircleF
3382 3655 CircleF
3382 3655 CircleF
3422 3655 CircleF
3422 3655 CircleF
3461 3655 CircleF
3461 3655 CircleF
3501 3655 CircleF
3501 3655 CircleF
3541 3655 CircleF
3541 3655 CircleF
3580 3655 CircleF
3580 3655 CircleF
3620 3655 CircleF
3620 3655 CircleF
3659 3655 CircleF
3659 3655 CircleF
3699 3655 CircleF
3699 3655 CircleF
3739 3655 CircleF
3739 3655 CircleF
3778 3655 CircleF
3778 3655 CircleF
3818 3655 CircleF
3818 3655 CircleF
3857 3655 CircleF
3857 3655 CircleF
3897 3655 CircleF
3897 3655 CircleF
3937 3655 CircleF
3937 3655 CircleF
3976 3655 CircleF
3976 3655 CircleF
4016 3655 CircleF
4016 3655 CircleF
4056 3655 CircleF
4056 3685 CircleF
4095 3685 CircleF
4095 3837 CircleF
4135 3837 CircleF
4135 3837 CircleF
4174 3837 CircleF
4174 3837 CircleF
4214 3837 CircleF
4214 3837 CircleF
4254 3837 CircleF
4254 3837 CircleF
4293 3837 CircleF
4293 3837 CircleF
4333 3837 CircleF
4333 3837 CircleF
4372 3837 CircleF
4372 3837 CircleF
4412 3837 CircleF
4412 3837 CircleF
4452 3837 CircleF
4452 3837 CircleF
4491 3837 CircleF
4491 3837 CircleF
4531 3837 CircleF
4531 3837 CircleF
4570 3837 CircleF
4570 3837 CircleF
4610 3837 CircleF
4610 3837 CircleF
4650 3837 CircleF
4650 3837 CircleF
4689 3837 CircleF
4689 3837 CircleF
4729 3837 CircleF
4729 3837 CircleF
4768 3837 CircleF
4768 3837 CircleF
4808 3837 CircleF
4808 3837 CircleF
4848 3837 CircleF
4848 3837 CircleF
4887 3837 CircleF
4887 3837 CircleF
4927 3837 CircleF
4927 3837 CircleF
4967 3837 CircleF
4967 3837 CircleF
5006 3837 CircleF
5006 3837 CircleF
5046 3837 CircleF
5046 3837 CircleF
5085 3837 CircleF
5085 3837 CircleF
5125 3837 CircleF
5125 3837 CircleF
5165 3837 CircleF
5165 3837 CircleF
5204 3837 CircleF
5204 3837 CircleF
5244 3837 CircleF
5244 3837 CircleF
5283 3837 CircleF
5283 3837 CircleF
5323 3837 CircleF
5323 3989 CircleF
5363 3989 CircleF
5363 4020 CircleF
5402 4020 CircleF
5402 4050 CircleF
5442 4050 CircleF
5442 4080 CircleF
5481 4080 CircleF
5481 4080 CircleF
5521 4080 CircleF
5521 4080 CircleF
5561 4080 CircleF
5561 4172 CircleF
5600 4172 CircleF
5600 4233 CircleF
5640 4233 CircleF
5640 4233 CircleF
5680 4233 CircleF
5680 4354 CircleF
5719 4354 CircleF
5719 4445 CircleF
5759 4445 CircleF
5759 4506 CircleF
5798 4506 CircleF
5798 4506 CircleF
5838 4506 CircleF
5838 4537 CircleF
5878 4537 CircleF
5878 4537 CircleF
5917 4537 CircleF
5917 4597 CircleF
5957 4597 CircleF
5957 4628 CircleF
5996 4628 CircleF
5996 4719 CircleF
6036 4719 CircleF
6036 4719 CircleF
6076 4719 CircleF
6076 4719 CircleF
6115 4719 CircleF
6115 4719 CircleF
6155 4719 CircleF
6155 4719 CircleF
6194 4719 CircleF
6194 4719 CircleF
6234 4719 CircleF
6234 4719 CircleF
6274 4719 CircleF
6274 4719 CircleF
6313 4719 CircleF
6313 4719 CircleF
6353 4719 CircleF
6353 4719 CircleF
6392 4719 CircleF
6392 4719 CircleF
6432 4719 CircleF
6432 4719 CircleF
6472 4719 CircleF
6868 4841 CircleF
6907 4841 CircleF
6472 4841 CircleF
6511 4841 CircleF
6511 4841 CircleF
6551 4841 CircleF
6551 4841 CircleF
6591 4841 CircleF
6591 4841 CircleF
6630 4841 CircleF
6630 4841 CircleF
6670 4841 CircleF
6670 4841 CircleF
6709 4841 CircleF
6709 4841 CircleF
6749 4841 CircleF
6749 4841 CircleF
6789 4841 CircleF
6789 4841 CircleF
6828 4841 CircleF
6828 4841 CircleF
6868 4841 CircleF
1006 341 CircleF
1006 371 CircleF
1006 371 CircleF
1006 402 CircleF
1006 402 CircleF
1006 432 CircleF
1006 432 CircleF
1006 462 CircleF
1006 462 CircleF
1006 493 CircleF
1006 493 CircleF
1006 523 CircleF
1006 523 CircleF
1006 554 CircleF
1006 554 CircleF
1006 584 CircleF
1006 584 CircleF
1006 614 CircleF
1006 614 CircleF
1006 645 CircleF
1006 645 CircleF
1006 675 CircleF
1006 675 CircleF
1006 706 CircleF
1006 706 CircleF
1006 736 CircleF
1006 736 CircleF
1006 766 CircleF
1006 766 CircleF
1006 797 CircleF
1006 797 CircleF
1006 827 CircleF
1006 827 CircleF
1006 858 CircleF
1006 858 CircleF
1006 888 CircleF
1006 888 CircleF
1006 918 CircleF
1006 918 CircleF
1006 949 CircleF
1006 949 CircleF
1006 979 CircleF
1006 979 CircleF
1006 1010 CircleF
1006 1010 CircleF
1006 1040 CircleF
1006 1040 CircleF
1006 1071 CircleF
1006 1071 CircleF
1006 1101 CircleF
1006 1101 CircleF
1006 1131 CircleF
1006 1131 CircleF
1006 1162 CircleF
1006 1162 CircleF
1006 1192 CircleF
1045 1192 CircleF
1045 1223 CircleF
1045 1223 CircleF
1045 1253 CircleF
1045 1253 CircleF
1045 1283 CircleF
1045 1283 CircleF
1045 1314 CircleF
1045 1314 CircleF
1045 1344 CircleF
1045 1344 CircleF
1045 1375 CircleF
1045 1375 CircleF
1045 1405 CircleF
1045 1405 CircleF
1045 1435 CircleF
1045 1435 CircleF
1045 1466 CircleF
1045 1466 CircleF
1045 1496 CircleF
1085 1496 CircleF
1085 1527 CircleF
1085 1527 CircleF
1085 1557 CircleF
1085 1557 CircleF
1085 1587 CircleF
1085 1587 CircleF
1085 1618 CircleF
1085 1618 CircleF
1085 1648 CircleF
1085 1648 CircleF
1085 1679 CircleF
1085 1679 CircleF
1085 1709 CircleF
1124 1709 CircleF
1124 1739 CircleF
1124 1739 CircleF
1124 1770 CircleF
1124 1770 CircleF
1124 1800 CircleF
1124 1800 CircleF
1124 1831 CircleF
1124 1831 CircleF
1124 1861 CircleF
1164 1861 CircleF
1164 1891 CircleF
1164 1891 CircleF
1164 1922 CircleF
1164 1922 CircleF
1164 1952 CircleF
1204 1952 CircleF
1204 1983 CircleF
1204 1983 CircleF
1204 2013 CircleF
1243 2013 CircleF
1243 2043 CircleF
1243 2043 CircleF
1243 2074 CircleF
1243 2074 CircleF
1243 2104 CircleF
1243 2104 CircleF
1243 2135 CircleF
1243 2135 CircleF
1243 2165 CircleF
1243 2165 CircleF
1243 2195 CircleF
1243 2195 CircleF
1243 2226 CircleF
1243 2226 CircleF
1243 2256 CircleF
1243 2256 CircleF
1243 2287 CircleF
1243 2287 CircleF
1243 2317 CircleF
1243 2317 CircleF
1243 2347 CircleF
1243 2347 CircleF
1243 2378 CircleF
1243 2378 CircleF
1243 2408 CircleF
1243 2408 CircleF
1243 2439 CircleF
1283 2439 CircleF
1283 2469 CircleF
1283 2469 CircleF
1283 2499 CircleF
1322 2499 CircleF
1322 2530 CircleF
1322 2530 CircleF
1322 2560 CircleF
1322 2560 CircleF
1322 2591 CircleF
1322 2591 CircleF
1322 2621 CircleF
1322 2621 CircleF
1322 2652 CircleF
1322 2652 CircleF
1322 2682 CircleF
1362 2682 CircleF
1362 2712 CircleF
1362 2712 CircleF
1362 2743 CircleF
1362 2743 CircleF
1362 2773 CircleF
1362 2773 CircleF
1362 2804 CircleF
1362 2804 CircleF
1362 2834 CircleF
1362 2834 CircleF
1362 2864 CircleF
1402 2864 CircleF
1402 2895 CircleF
1402 2895 CircleF
1402 2925 CircleF
1521 2925 CircleF
1521 2956 CircleF
1521 2956 CircleF
1521 2986 CircleF
1521 2986 CircleF
1521 3016 CircleF
1758 3016 CircleF
1758 3047 CircleF
1917 3047 CircleF
1917 3077 CircleF
1956 3077 CircleF
1956 3108 CircleF
1956 3108 CircleF
1956 3138 CircleF
1956 3138 CircleF
1956 3168 CircleF
1956 3168 CircleF
1956 3199 CircleF
1956 3199 CircleF
1956 3229 CircleF
1956 3229 CircleF
1956 3260 CircleF
1956 3260 CircleF
1956 3290 CircleF
2075 3290 CircleF
2075 3320 CircleF
2075 3320 CircleF
2075 3351 CircleF
2075 3351 CircleF
2075 3381 CircleF
2115 3381 CircleF
2115 3412 CircleF
2115 3412 CircleF
2115 3442 CircleF
2154 3442 CircleF
2154 3472 CircleF
2154 3472 CircleF
2154 3503 CircleF
2352 3503 CircleF
2352 3533 CircleF
2392 3533 CircleF
2392 3564 CircleF
2432 3564 CircleF
2432 3594 CircleF
2550 3594 CircleF
2550 3624 CircleF
2788 3624 CircleF
2788 3655 CircleF
4056 3655 CircleF
4056 3685 CircleF
4095 3685 CircleF
4095 3716 CircleF
4095 3716 CircleF
4095 3746 CircleF
4095 3746 CircleF
4095 3776 CircleF
4095 3776 CircleF
4095 3807 CircleF
4095 3807 CircleF
4095 3837 CircleF
5323 3837 CircleF
5323 3868 CircleF
5323 3868 CircleF
5323 3898 CircleF
5323 3898 CircleF
5323 3928 CircleF
5323 3928 CircleF
5323 3959 CircleF
5323 3959 CircleF
5323 3989 CircleF
5363 3989 CircleF
5363 4020 CircleF
5402 4020 CircleF
5402 4050 CircleF
5442 4050 CircleF
5442 4080 CircleF
5561 4080 CircleF
5561 4111 CircleF
5561 4111 CircleF
5561 4141 CircleF
5561 4141 CircleF
5561 4172 CircleF
5600 4172 CircleF
5600 4202 CircleF
5600 4202 CircleF
5600 4233 CircleF
5680 4233 CircleF
5680 4263 CircleF
5680 4263 CircleF
5680 4293 CircleF
5680 4293 CircleF
5680 4324 CircleF
5680 4324 CircleF
5680 4354 CircleF
5719 4354 CircleF
5719 4385 CircleF
5719 4385 CircleF
5719 4415 CircleF
5719 4415 CircleF
5719 4445 CircleF
5759 4445 CircleF
5759 4476 CircleF
5759 4476 CircleF
5759 4506 CircleF
5838 4506 CircleF
5838 4537 CircleF
5917 4537 CircleF
5917 4567 CircleF
5917 4567 CircleF
5917 4597 CircleF
5957 4597 CircleF
5957 4628 CircleF
5996 4628 CircleF
5996 4658 CircleF
5996 4658 CircleF
5996 4689 CircleF
5996 4689 CircleF
5996 4719 CircleF
6472 4719 CircleF
6472 4749 CircleF
6472 4749 CircleF
6472 4780 CircleF
6472 4780 CircleF
6472 4810 CircleF
6472 4810 CircleF
6472 4841 CircleF
966 280 CircleF
966 310 CircleF
966 310 CircleF
966 341 CircleF
% End plot #1
% Begin plot #2
1.500 UP
2.000 UL
LT0
1.00 0.55 0.00 C /Helvetica findfont 140 scalefont setfont
2157 1249 M
59 45 V
4685 3200 M
41 31 V
3851 471 M
42 32 V
3445 2056 M
44 34 V
3040 4379 M
68 52 V
1444 909 M
40 31 V
5359 3989 M
48 37 V
3156 4295 M
64 49 V
2754 3615 M
57 44 V
6679 713 M
69 54 V
5282 3913 M
71 54 V
358 471 R
71 54 V
2120 4462 M
50 38 V
1209 4072 M
77 59 V
969 863 M
55 43 V
240 2340 R
44 33 V
3941 526 R
57 43 V
694 862 R
52 40 V
5856 2877 M
76 58 V
3822 1156 M
44 33 V
158 1525 R
65 50 V
2290 4339 M
73 56 V
4663 1370 M
54 41 V
6231 4500 M
79 60 V
4101 2098 M
50 38 V
1535 4570 M
39 31 V
4573 4073 M
56 43 V
1250 305 M
64 49 V
1201 1999 M
54 42 V
4047 3662 M
43 33 V
1368 2840 M
44 33 V
2582 925 R
45 35 V
327 651 R
40 31 V
6111 542 M
61 47 V
3531 362 M
46 36 V
2973 3627 M
57 43 V
2475 3301 M
46 36 V
6275 941 M
60 45 V
2096 4008 M
61 46 V
123 539 R
67 51 V
4120 72 R
42 32 V
4084 3814 M
65 50 V
5057 1095 M
69 53 V
1899 3048 M
74 56 V
6484 787 M
40 32 V
3856 781 M
63 48 V
5242 2749 M
61 47 V
3275 3963 M
65 50 V
1190 4779 M
64 49 V
2379 3526 M
46 35 V
2157 1249 CircleF
2216 1294 CircleF
4685 3200 CircleF
4726 3231 CircleF
3851 471 CircleF
3893 503 CircleF
3445 2056 CircleF
3489 2090 CircleF
3040 4379 CircleF
3108 4431 CircleF
1444 909 CircleF
1484 940 CircleF
5359 3989 CircleF
5407 4026 CircleF
3156 4295 CircleF
3220 4344 CircleF
2754 3615 CircleF
2811 3659 CircleF
6679 713 CircleF
6748 767 CircleF
5282 3913 CircleF
5353 3967 CircleF
5711 4438 CircleF
5782 4492 CircleF
2120 4462 CircleF
2170 4500 CircleF
1209 4072 CircleF
1286 4131 CircleF
969 863 CircleF
1024 906 CircleF
1264 3246 CircleF
1308 3279 CircleF
5249 3805 CircleF
5306 3848 CircleF
6000 4710 CircleF
6052 4750 CircleF
5856 2877 CircleF
5932 2935 CircleF
3822 1156 CircleF
3866 1189 CircleF
4024 2714 CircleF
4089 2764 CircleF
2290 4339 CircleF
2363 4395 CircleF
4663 1370 CircleF
4717 1411 CircleF
6231 4500 CircleF
6310 4560 CircleF
4101 2098 CircleF
4151 2136 CircleF
1535 4570 CircleF
1574 4601 CircleF
4573 4073 CircleF
4629 4116 CircleF
1250 305 CircleF
1314 354 CircleF
1201 1999 CircleF
1255 2041 CircleF
4047 3662 CircleF
4090 3695 CircleF
1368 2840 CircleF
1412 2873 CircleF
3994 3798 CircleF
4039 3833 CircleF
4366 4484 CircleF
4406 4515 CircleF
6111 542 CircleF
6172 589 CircleF
3531 362 CircleF
3577 398 CircleF
2973 3627 CircleF
3030 3670 CircleF
2475 3301 CircleF
2521 3337 CircleF
6275 941 CircleF
6335 986 CircleF
2096 4008 CircleF
2157 4054 CircleF
2280 4593 CircleF
2347 4644 CircleF
6467 4716 CircleF
6509 4748 CircleF
4084 3814 CircleF
4149 3864 CircleF
5057 1095 CircleF
5126 1148 CircleF
1899 3048 CircleF
1973 3104 CircleF
6484 787 CircleF
6524 819 CircleF
3856 781 CircleF
3919 829 CircleF
5242 2749 CircleF
5303 2796 CircleF
3275 3963 CircleF
3340 4013 CircleF
1190 4779 CircleF
1254 4828 CircleF
2379 3526 CircleF
2425 3561 CircleF
% End plot #2
1.000 UP
1.000 UL
LT0
0.50 0.50 0.50 C stroke
grestore
end
showpage
%%Trailer
%%DocumentFonts: Helvetica
%%Pages: 1
