%!PS-Adobe-2.0
%%Title: out.ps
%%Creator: gnuplot 4.6 patchlevel 6
%%CreationDate: Thu May 28 23:58:21 2015
%%DocumentFonts: (atend)
%%BoundingBox: 50 50 554 770
%%Orientation: Landscape
%%Pages: (atend)
%%EndComments
%%BeginProlog
/gnudict 256 dict def
gnudict begin
%
% The following true/false flags may be edited by hand if desired.
% The unit line width and grayscale image gamma correction may also be changed.
%
/Color false def
/Blacktext false def
/Solid false def
/Dashlength 1 def
/Landscape true def
/Level1 false def
/Rounded false def
/ClipToBoundingBox false def
/SuppressPDFMark false def
/TransparentPatterns false def
/gnulinewidth 5.000 def
/userlinewidth gnulinewidth def
/Gamma 1.0 def
/BackgroundColor {-1.000 -1.000 -1.000} def
%
/vshift -46 def
/dl1 {
  10.0 Dashlength mul mul
  Rounded { currentlinewidth 0.75 mul sub dup 0 le { pop 0.01 } if } if
} def
/dl2 {
  10.0 Dashlength mul mul
  Rounded { currentlinewidth 0.75 mul add } if
} def
/hpt_ 31.5 def
/vpt_ 31.5 def
/hpt hpt_ def
/vpt vpt_ def
/doclip {
  ClipToBoundingBox {
    newpath 50 50 moveto 554 50 lineto 554 770 lineto 50 770 lineto closepath
    clip
  } if
} def
%
% Gnuplot Prolog Version 4.6 (September 2012)
%
%/SuppressPDFMark true def
%
/M {moveto} bind def
/L {lineto} bind def
/R {rmoveto} bind def
/V {rlineto} bind def
/N {newpath moveto} bind def
/Z {closepath} bind def
/C {setrgbcolor} bind def
/f {rlineto fill} bind def
/g {setgray} bind def
/Gshow {show} def   % May be redefined later in the file to support UTF-8
/vpt2 vpt 2 mul def
/hpt2 hpt 2 mul def
/Lshow {currentpoint stroke M 0 vshift R 
	Blacktext {gsave 0 setgray show grestore} {show} ifelse} def
/Rshow {currentpoint stroke M dup stringwidth pop neg vshift R
	Blacktext {gsave 0 setgray show grestore} {show} ifelse} def
/Cshow {currentpoint stroke M dup stringwidth pop -2 div vshift R 
	Blacktext {gsave 0 setgray show grestore} {show} ifelse} def
/UP {dup vpt_ mul /vpt exch def hpt_ mul /hpt exch def
  /hpt2 hpt 2 mul def /vpt2 vpt 2 mul def} def
/DL {Color {setrgbcolor Solid {pop []} if 0 setdash}
 {pop pop pop 0 setgray Solid {pop []} if 0 setdash} ifelse} def
/BL {stroke userlinewidth 2 mul setlinewidth
	Rounded {1 setlinejoin 1 setlinecap} if} def
/AL {stroke userlinewidth 2 div setlinewidth
	Rounded {1 setlinejoin 1 setlinecap} if} def
/UL {dup gnulinewidth mul /userlinewidth exch def
	dup 1 lt {pop 1} if 10 mul /udl exch def} def
/PL {stroke userlinewidth setlinewidth
	Rounded {1 setlinejoin 1 setlinecap} if} def
3.8 setmiterlimit
% Default Line colors
/LCw {1 1 1} def
/LCb {0 0 0} def
/LCa {0 0 0} def
/LC0 {1 0 0} def
/LC1 {0 1 0} def
/LC2 {0 0 1} def
/LC3 {1 0 1} def
/LC4 {0 1 1} def
/LC5 {1 1 0} def
/LC6 {0 0 0} def
/LC7 {1 0.3 0} def
/LC8 {0.5 0.5 0.5} def
% Default Line Types
/LTw {PL [] 1 setgray} def
/LTb {BL [] LCb DL} def
/LTa {AL [1 udl mul 2 udl mul] 0 setdash LCa setrgbcolor} def
/LT0 {PL [] LC0 DL} def
/LT1 {PL [4 dl1 2 dl2] LC1 DL} def
/LT2 {PL [2 dl1 3 dl2] LC2 DL} def
/LT3 {PL [1 dl1 1.5 dl2] LC3 DL} def
/LT4 {PL [6 dl1 2 dl2 1 dl1 2 dl2] LC4 DL} def
/LT5 {PL [3 dl1 3 dl2 1 dl1 3 dl2] LC5 DL} def
/LT6 {PL [2 dl1 2 dl2 2 dl1 6 dl2] LC6 DL} def
/LT7 {PL [1 dl1 2 dl2 6 dl1 2 dl2 1 dl1 2 dl2] LC7 DL} def
/LT8 {PL [2 dl1 2 dl2 2 dl1 2 dl2 2 dl1 2 dl2 2 dl1 4 dl2] LC8 DL} def
/Pnt {stroke [] 0 setdash gsave 1 setlinecap M 0 0 V stroke grestore} def
/Dia {stroke [] 0 setdash 2 copy vpt add M
  hpt neg vpt neg V hpt vpt neg V
  hpt vpt V hpt neg vpt V closepath stroke
  Pnt} def
/Pls {stroke [] 0 setdash vpt sub M 0 vpt2 V
  currentpoint stroke M
  hpt neg vpt neg R hpt2 0 V stroke
 } def
/Box {stroke [] 0 setdash 2 copy exch hpt sub exch vpt add M
  0 vpt2 neg V hpt2 0 V 0 vpt2 V
  hpt2 neg 0 V closepath stroke
  Pnt} def
/Crs {stroke [] 0 setdash exch hpt sub exch vpt add M
  hpt2 vpt2 neg V currentpoint stroke M
  hpt2 neg 0 R hpt2 vpt2 V stroke} def
/TriU {stroke [] 0 setdash 2 copy vpt 1.12 mul add M
  hpt neg vpt -1.62 mul V
  hpt 2 mul 0 V
  hpt neg vpt 1.62 mul V closepath stroke
  Pnt} def
/Star {2 copy Pls Crs} def
/BoxF {stroke [] 0 setdash exch hpt sub exch vpt add M
  0 vpt2 neg V hpt2 0 V 0 vpt2 V
  hpt2 neg 0 V closepath fill} def
/TriUF {stroke [] 0 setdash vpt 1.12 mul add M
  hpt neg vpt -1.62 mul V
  hpt 2 mul 0 V
  hpt neg vpt 1.62 mul V closepath fill} def
/TriD {stroke [] 0 setdash 2 copy vpt 1.12 mul sub M
  hpt neg vpt 1.62 mul V
  hpt 2 mul 0 V
  hpt neg vpt -1.62 mul V closepath stroke
  Pnt} def
/TriDF {stroke [] 0 setdash vpt 1.12 mul sub M
  hpt neg vpt 1.62 mul V
  hpt 2 mul 0 V
  hpt neg vpt -1.62 mul V closepath fill} def
/DiaF {stroke [] 0 setdash vpt add M
  hpt neg vpt neg V hpt vpt neg V
  hpt vpt V hpt neg vpt V closepath fill} def
/Pent {stroke [] 0 setdash 2 copy gsave
  translate 0 hpt M 4 {72 rotate 0 hpt L} repeat
  closepath stroke grestore Pnt} def
/PentF {stroke [] 0 setdash gsave
  translate 0 hpt M 4 {72 rotate 0 hpt L} repeat
  closepath fill grestore} def
/Circle {stroke [] 0 setdash 2 copy
  hpt 0 360 arc stroke Pnt} def
/CircleF {stroke [] 0 setdash hpt 0 360 arc fill} def
/C0 {BL [] 0 setdash 2 copy moveto vpt 90 450 arc} bind def
/C1 {BL [] 0 setdash 2 copy moveto
	2 copy vpt 0 90 arc closepath fill
	vpt 0 360 arc closepath} bind def
/C2 {BL [] 0 setdash 2 copy moveto
	2 copy vpt 90 180 arc closepath fill
	vpt 0 360 arc closepath} bind def
/C3 {BL [] 0 setdash 2 copy moveto
	2 copy vpt 0 180 arc closepath fill
	vpt 0 360 arc closepath} bind def
/C4 {BL [] 0 setdash 2 copy moveto
	2 copy vpt 180 270 arc closepath fill
	vpt 0 360 arc closepath} bind def
/C5 {BL [] 0 setdash 2 copy moveto
	2 copy vpt 0 90 arc
	2 copy moveto
	2 copy vpt 180 270 arc closepath fill
	vpt 0 360 arc} bind def
/C6 {BL [] 0 setdash 2 copy moveto
	2 copy vpt 90 270 arc closepath fill
	vpt 0 360 arc closepath} bind def
/C7 {BL [] 0 setdash 2 copy moveto
	2 copy vpt 0 270 arc closepath fill
	vpt 0 360 arc closepath} bind def
/C8 {BL [] 0 setdash 2 copy moveto
	2 copy vpt 270 360 arc closepath fill
	vpt 0 360 arc closepath} bind def
/C9 {BL [] 0 setdash 2 copy moveto
	2 copy vpt 270 450 arc closepath fill
	vpt 0 360 arc closepath} bind def
/C10 {BL [] 0 setdash 2 copy 2 copy moveto vpt 270 360 arc closepath fill
	2 copy moveto
	2 copy vpt 90 180 arc closepath fill
	vpt 0 360 arc closepath} bind def
/C11 {BL [] 0 setdash 2 copy moveto
	2 copy vpt 0 180 arc closepath fill
	2 copy moveto
	2 copy vpt 270 360 arc closepath fill
	vpt 0 360 arc closepath} bind def
/C12 {BL [] 0 setdash 2 copy moveto
	2 copy vpt 180 360 arc closepath fill
	vpt 0 360 arc closepath} bind def
/C13 {BL [] 0 setdash 2 copy moveto
	2 copy vpt 0 90 arc closepath fill
	2 copy moveto
	2 copy vpt 180 360 arc closepath fill
	vpt 0 360 arc closepath} bind def
/C14 {BL [] 0 setdash 2 copy moveto
	2 copy vpt 90 360 arc closepath fill
	vpt 0 360 arc} bind def
/C15 {BL [] 0 setdash 2 copy vpt 0 360 arc closepath fill
	vpt 0 360 arc closepath} bind def
/Rec {newpath 4 2 roll moveto 1 index 0 rlineto 0 exch rlineto
	neg 0 rlineto closepath} bind def
/Square {dup Rec} bind def
/Bsquare {vpt sub exch vpt sub exch vpt2 Square} bind def
/S0 {BL [] 0 setdash 2 copy moveto 0 vpt rlineto BL Bsquare} bind def
/S1 {BL [] 0 setdash 2 copy vpt Square fill Bsquare} bind def
/S2 {BL [] 0 setdash 2 copy exch vpt sub exch vpt Square fill Bsquare} bind def
/S3 {BL [] 0 setdash 2 copy exch vpt sub exch vpt2 vpt Rec fill Bsquare} bind def
/S4 {BL [] 0 setdash 2 copy exch vpt sub exch vpt sub vpt Square fill Bsquare} bind def
/S5 {BL [] 0 setdash 2 copy 2 copy vpt Square fill
	exch vpt sub exch vpt sub vpt Square fill Bsquare} bind def
/S6 {BL [] 0 setdash 2 copy exch vpt sub exch vpt sub vpt vpt2 Rec fill Bsquare} bind def
/S7 {BL [] 0 setdash 2 copy exch vpt sub exch vpt sub vpt vpt2 Rec fill
	2 copy vpt Square fill Bsquare} bind def
/S8 {BL [] 0 setdash 2 copy vpt sub vpt Square fill Bsquare} bind def
/S9 {BL [] 0 setdash 2 copy vpt sub vpt vpt2 Rec fill Bsquare} bind def
/S10 {BL [] 0 setdash 2 copy vpt sub vpt Square fill 2 copy exch vpt sub exch vpt Square fill
	Bsquare} bind def
/S11 {BL [] 0 setdash 2 copy vpt sub vpt Square fill 2 copy exch vpt sub exch vpt2 vpt Rec fill
	Bsquare} bind def
/S12 {BL [] 0 setdash 2 copy exch vpt sub exch vpt sub vpt2 vpt Rec fill Bsquare} bind def
/S13 {BL [] 0 setdash 2 copy exch vpt sub exch vpt sub vpt2 vpt Rec fill
	2 copy vpt Square fill Bsquare} bind def
/S14 {BL [] 0 setdash 2 copy exch vpt sub exch vpt sub vpt2 vpt Rec fill
	2 copy exch vpt sub exch vpt Square fill Bsquare} bind def
/S15 {BL [] 0 setdash 2 copy Bsquare fill Bsquare} bind def
/D0 {gsave translate 45 rotate 0 0 S0 stroke grestore} bind def
/D1 {gsave translate 45 rotate 0 0 S1 stroke grestore} bind def
/D2 {gsave translate 45 rotate 0 0 S2 stroke grestore} bind def
/D3 {gsave translate 45 rotate 0 0 S3 stroke grestore} bind def
/D4 {gsave translate 45 rotate 0 0 S4 stroke grestore} bind def
/D5 {gsave translate 45 rotate 0 0 S5 stroke grestore} bind def
/D6 {gsave translate 45 rotate 0 0 S6 stroke grestore} bind def
/D7 {gsave translate 45 rotate 0 0 S7 stroke grestore} bind def
/D8 {gsave translate 45 rotate 0 0 S8 stroke grestore} bind def
/D9 {gsave translate 45 rotate 0 0 S9 stroke grestore} bind def
/D10 {gsave translate 45 rotate 0 0 S10 stroke grestore} bind def
/D11 {gsave translate 45 rotate 0 0 S11 stroke grestore} bind def
/D12 {gsave translate 45 rotate 0 0 S12 stroke grestore} bind def
/D13 {gsave translate 45 rotate 0 0 S13 stroke grestore} bind def
/D14 {gsave translate 45 rotate 0 0 S14 stroke grestore} bind def
/D15 {gsave translate 45 rotate 0 0 S15 stroke grestore} bind def
/DiaE {stroke [] 0 setdash vpt add M
  hpt neg vpt neg V hpt vpt neg V
  hpt vpt V hpt neg vpt V closepath stroke} def
/BoxE {stroke [] 0 setdash exch hpt sub exch vpt add M
  0 vpt2 neg V hpt2 0 V 0 vpt2 V
  hpt2 neg 0 V closepath stroke} def
/TriUE {stroke [] 0 setdash vpt 1.12 mul add M
  hpt neg vpt -1.62 mul V
  hpt 2 mul 0 V
  hpt neg vpt 1.62 mul V closepath stroke} def
/TriDE {stroke [] 0 setdash vpt 1.12 mul sub M
  hpt neg vpt 1.62 mul V
  hpt 2 mul 0 V
  hpt neg vpt -1.62 mul V closepath stroke} def
/PentE {stroke [] 0 setdash gsave
  translate 0 hpt M 4 {72 rotate 0 hpt L} repeat
  closepath stroke grestore} def
/CircE {stroke [] 0 setdash 
  hpt 0 360 arc stroke} def
/Opaque {gsave closepath 1 setgray fill grestore 0 setgray closepath} def
/DiaW {stroke [] 0 setdash vpt add M
  hpt neg vpt neg V hpt vpt neg V
  hpt vpt V hpt neg vpt V Opaque stroke} def
/BoxW {stroke [] 0 setdash exch hpt sub exch vpt add M
  0 vpt2 neg V hpt2 0 V 0 vpt2 V
  hpt2 neg 0 V Opaque stroke} def
/TriUW {stroke [] 0 setdash vpt 1.12 mul add M
  hpt neg vpt -1.62 mul V
  hpt 2 mul 0 V
  hpt neg vpt 1.62 mul V Opaque stroke} def
/TriDW {stroke [] 0 setdash vpt 1.12 mul sub M
  hpt neg vpt 1.62 mul V
  hpt 2 mul 0 V
  hpt neg vpt -1.62 mul V Opaque stroke} def
/PentW {stroke [] 0 setdash gsave
  translate 0 hpt M 4 {72 rotate 0 hpt L} repeat
  Opaque stroke grestore} def
/CircW {stroke [] 0 setdash 
  hpt 0 360 arc Opaque stroke} def
/BoxFill {gsave Rec 1 setgray fill grestore} def
/Density {
  /Fillden exch def
  currentrgbcolor
  /ColB exch def /ColG exch def /ColR exch def
  /ColR ColR Fillden mul Fillden sub 1 add def
  /ColG ColG Fillden mul Fillden sub 1 add def
  /ColB ColB Fillden mul Fillden sub 1 add def
  ColR ColG ColB setrgbcolor} def
/BoxColFill {gsave Rec PolyFill} def
/PolyFill {gsave Density fill grestore grestore} def
/h {rlineto rlineto rlineto gsave closepath fill grestore} bind def
%
% PostScript Level 1 Pattern Fill routine for rectangles
% Usage: x y w h s a XX PatternFill
%	x,y = lower left corner of box to be filled
%	w,h = width and height of box
%	  a = angle in degrees between lines and x-axis
%	 XX = 0/1 for no/yes cross-hatch
%
/PatternFill {gsave /PFa [ 9 2 roll ] def
  PFa 0 get PFa 2 get 2 div add PFa 1 get PFa 3 get 2 div add translate
  PFa 2 get -2 div PFa 3 get -2 div PFa 2 get PFa 3 get Rec
  TransparentPatterns {} {gsave 1 setgray fill grestore} ifelse
  clip
  currentlinewidth 0.5 mul setlinewidth
  /PFs PFa 2 get dup mul PFa 3 get dup mul add sqrt def
  0 0 M PFa 5 get rotate PFs -2 div dup translate
  0 1 PFs PFa 4 get div 1 add floor cvi
	{PFa 4 get mul 0 M 0 PFs V} for
  0 PFa 6 get ne {
	0 1 PFs PFa 4 get div 1 add floor cvi
	{PFa 4 get mul 0 2 1 roll M PFs 0 V} for
 } if
  stroke grestore} def
%
/languagelevel where
 {pop languagelevel} {1} ifelse
 2 lt
	{/InterpretLevel1 true def}
	{/InterpretLevel1 Level1 def}
 ifelse
%
% PostScript level 2 pattern fill definitions
%
/Level2PatternFill {
/Tile8x8 {/PaintType 2 /PatternType 1 /TilingType 1 /BBox [0 0 8 8] /XStep 8 /YStep 8}
	bind def
/KeepColor {currentrgbcolor [/Pattern /DeviceRGB] setcolorspace} bind def
<< Tile8x8
 /PaintProc {0.5 setlinewidth pop 0 0 M 8 8 L 0 8 M 8 0 L stroke} 
>> matrix makepattern
/Pat1 exch def
<< Tile8x8
 /PaintProc {0.5 setlinewidth pop 0 0 M 8 8 L 0 8 M 8 0 L stroke
	0 4 M 4 8 L 8 4 L 4 0 L 0 4 L stroke}
>> matrix makepattern
/Pat2 exch def
<< Tile8x8
 /PaintProc {0.5 setlinewidth pop 0 0 M 0 8 L
	8 8 L 8 0 L 0 0 L fill}
>> matrix makepattern
/Pat3 exch def
<< Tile8x8
 /PaintProc {0.5 setlinewidth pop -4 8 M 8 -4 L
	0 12 M 12 0 L stroke}
>> matrix makepattern
/Pat4 exch def
<< Tile8x8
 /PaintProc {0.5 setlinewidth pop -4 0 M 8 12 L
	0 -4 M 12 8 L stroke}
>> matrix makepattern
/Pat5 exch def
<< Tile8x8
 /PaintProc {0.5 setlinewidth pop -2 8 M 4 -4 L
	0 12 M 8 -4 L 4 12 M 10 0 L stroke}
>> matrix makepattern
/Pat6 exch def
<< Tile8x8
 /PaintProc {0.5 setlinewidth pop -2 0 M 4 12 L
	0 -4 M 8 12 L 4 -4 M 10 8 L stroke}
>> matrix makepattern
/Pat7 exch def
<< Tile8x8
 /PaintProc {0.5 setlinewidth pop 8 -2 M -4 4 L
	12 0 M -4 8 L 12 4 M 0 10 L stroke}
>> matrix makepattern
/Pat8 exch def
<< Tile8x8
 /PaintProc {0.5 setlinewidth pop 0 -2 M 12 4 L
	-4 0 M 12 8 L -4 4 M 8 10 L stroke}
>> matrix makepattern
/Pat9 exch def
/Pattern1 {PatternBgnd KeepColor Pat1 setpattern} bind def
/Pattern2 {PatternBgnd KeepColor Pat2 setpattern} bind def
/Pattern3 {PatternBgnd KeepColor Pat3 setpattern} bind def
/Pattern4 {PatternBgnd KeepColor Landscape {Pat5} {Pat4} ifelse setpattern} bind def
/Pattern5 {PatternBgnd KeepColor Landscape {Pat4} {Pat5} ifelse setpattern} bind def
/Pattern6 {PatternBgnd KeepColor Landscape {Pat9} {Pat6} ifelse setpattern} bind def
/Pattern7 {PatternBgnd KeepColor Landscape {Pat8} {Pat7} ifelse setpattern} bind def
} def
%
%
%End of PostScript Level 2 code
%
/PatternBgnd {
  TransparentPatterns {} {gsave 1 setgray fill grestore} ifelse
} def
%
% Substitute for Level 2 pattern fill codes with
% grayscale if Level 2 support is not selected.
%
/Level1PatternFill {
/Pattern1 {0.250 Density} bind def
/Pattern2 {0.500 Density} bind def
/Pattern3 {0.750 Density} bind def
/Pattern4 {0.125 Density} bind def
/Pattern5 {0.375 Density} bind def
/Pattern6 {0.625 Density} bind def
/Pattern7 {0.875 Density} bind def
} def
%
% Now test for support of Level 2 code
%
Level1 {Level1PatternFill} {Level2PatternFill} ifelse
%
/Symbol-Oblique /Symbol findfont [1 0 .167 1 0 0] makefont
dup length dict begin {1 index /FID eq {pop pop} {def} ifelse} forall
currentdict end definefont pop
Level1 SuppressPDFMark or 
{} {
/SDict 10 dict def
systemdict /pdfmark known not {
  userdict /pdfmark systemdict /cleartomark get put
} if
SDict begin [
  /Title (out.ps)
  /Subject (gnuplot plot)
  /Creator (gnuplot 4.6 patchlevel 6)
  /Author (yani)
%  /Producer (gnuplot)
%  /Keywords ()
  /CreationDate (Thu May 28 23:58:21 2015)
  /DOCINFO pdfmark
end
} ifelse
end
%%EndProlog
%%Page: 1 1
gnudict begin
gsave
doclip
50 50 translate
0.100 0.100 scale
90 rotate
0 -5040 translate
0 setgray
newpath
(Helvetica) findfont 140 scalefont setfont
BackgroundColor 0 lt 3 1 roll 0 lt exch 0 lt or or not {gsave BackgroundColor C clippath fill grestore} if
1.000 UL
LT0
0.50 0.50 0.50 C 1.000 UL
LTa
0.50 0.50 0.50 C 966 280 M
5981 0 V
stroke
LT0
0.50 0.50 0.50 C 966 280 M
63 0 V
5918 0 R
-63 0 V
882 280 M
( 0) Rshow
1.000 UL
LT0
0.50 0.50 0.50 C 1.000 UL
LTa
0.50 0.50 0.50 C 966 310 M
5981 0 V
stroke
LT0
0.50 0.50 0.50 C 966 310 M
63 0 V
5918 0 R
-63 0 V
882 310 M
( 0.707106) Rshow
1.000 UL
LT0
0.50 0.50 0.50 C 1.000 UL
LTa
0.50 0.50 0.50 C 966 341 M
5981 0 V
stroke
LT0
0.50 0.50 0.50 C 966 341 M
63 0 V
5918 0 R
-63 0 V
882 341 M
( 1.41421) Rshow
1.000 UL
LT0
0.50 0.50 0.50 C 1.000 UL
LTa
0.50 0.50 0.50 C 966 371 M
5981 0 V
stroke
LT0
0.50 0.50 0.50 C 966 371 M
63 0 V
5918 0 R
-63 0 V
882 371 M
( 2.12132) Rshow
1.000 UL
LT0
0.50 0.50 0.50 C 1.000 UL
LTa
0.50 0.50 0.50 C 966 402 M
5981 0 V
stroke
LT0
0.50 0.50 0.50 C 966 402 M
63 0 V
5918 0 R
-63 0 V
882 402 M
( 2.82842) Rshow
1.000 UL
LT0
0.50 0.50 0.50 C 1.000 UL
LTa
0.50 0.50 0.50 C 966 432 M
5981 0 V
stroke
LT0
0.50 0.50 0.50 C 966 432 M
63 0 V
5918 0 R
-63 0 V
882 432 M
( 3.53553) Rshow
1.000 UL
LT0
0.50 0.50 0.50 C 1.000 UL
LTa
0.50 0.50 0.50 C 966 462 M
5981 0 V
stroke
LT0
0.50 0.50 0.50 C 966 462 M
63 0 V
5918 0 R
-63 0 V
882 462 M
( 4.24264) Rshow
1.000 UL
LT0
0.50 0.50 0.50 C 1.000 UL
LTa
0.50 0.50 0.50 C 966 493 M
5981 0 V
stroke
LT0
0.50 0.50 0.50 C 966 493 M
63 0 V
5918 0 R
-63 0 V
882 493 M
( 4.94974) Rshow
1.000 UL
LT0
0.50 0.50 0.50 C 1.000 UL
LTa
0.50 0.50 0.50 C 966 523 M
5981 0 V
stroke
LT0
0.50 0.50 0.50 C 966 523 M
63 0 V
5918 0 R
-63 0 V
882 523 M
( 5.65685) Rshow
1.000 UL
LT0
0.50 0.50 0.50 C 1.000 UL
LTa
0.50 0.50 0.50 C 966 554 M
5981 0 V
stroke
LT0
0.50 0.50 0.50 C 966 554 M
63 0 V
5918 0 R
-63 0 V
882 554 M
( 6.36395) Rshow
1.000 UL
LT0
0.50 0.50 0.50 C 1.000 UL
LTa
0.50 0.50 0.50 C 966 584 M
5981 0 V
stroke
LT0
0.50 0.50 0.50 C 966 584 M
63 0 V
5918 0 R
-63 0 V
882 584 M
( 7.07106) Rshow
1.000 UL
LT0
0.50 0.50 0.50 C 1.000 UL
LTa
0.50 0.50 0.50 C 966 614 M
5981 0 V
stroke
LT0
0.50 0.50 0.50 C 966 614 M
63 0 V
5918 0 R
-63 0 V
882 614 M
( 7.77817) Rshow
1.000 UL
LT0
0.50 0.50 0.50 C 1.000 UL
LTa
0.50 0.50 0.50 C 966 645 M
5981 0 V
stroke
LT0
0.50 0.50 0.50 C 966 645 M
63 0 V
5918 0 R
-63 0 V
882 645 M
( 8.48527) Rshow
1.000 UL
LT0
0.50 0.50 0.50 C 1.000 UL
LTa
0.50 0.50 0.50 C 966 675 M
5981 0 V
stroke
LT0
0.50 0.50 0.50 C 966 675 M
63 0 V
5918 0 R
-63 0 V
882 675 M
( 9.19238) Rshow
1.000 UL
LT0
0.50 0.50 0.50 C 1.000 UL
LTa
0.50 0.50 0.50 C 966 706 M
5981 0 V
stroke
LT0
0.50 0.50 0.50 C 966 706 M
63 0 V
5918 0 R
-63 0 V
882 706 M
( 9.89948) Rshow
1.000 UL
LT0
0.50 0.50 0.50 C 1.000 UL
LTa
0.50 0.50 0.50 C 966 736 M
5981 0 V
stroke
LT0
0.50 0.50 0.50 C 966 736 M
63 0 V
5918 0 R
-63 0 V
882 736 M
( 10.6066) Rshow
1.000 UL
LT0
0.50 0.50 0.50 C 1.000 UL
LTa
0.50 0.50 0.50 C 966 766 M
5981 0 V
stroke
LT0
0.50 0.50 0.50 C 966 766 M
63 0 V
5918 0 R
-63 0 V
882 766 M
( 11.3137) Rshow
1.000 UL
LT0
0.50 0.50 0.50 C 1.000 UL
LTa
0.50 0.50 0.50 C 966 797 M
5981 0 V
stroke
LT0
0.50 0.50 0.50 C 966 797 M
63 0 V
5918 0 R
-63 0 V
882 797 M
( 12.0208) Rshow
1.000 UL
LT0
0.50 0.50 0.50 C 1.000 UL
LTa
0.50 0.50 0.50 C 966 827 M
5981 0 V
stroke
LT0
0.50 0.50 0.50 C 966 827 M
63 0 V
5918 0 R
-63 0 V
882 827 M
( 12.7279) Rshow
1.000 UL
LT0
0.50 0.50 0.50 C 1.000 UL
LTa
0.50 0.50 0.50 C 966 858 M
5981 0 V
stroke
LT0
0.50 0.50 0.50 C 966 858 M
63 0 V
5918 0 R
-63 0 V
882 858 M
( 13.435) Rshow
1.000 UL
LT0
0.50 0.50 0.50 C 1.000 UL
LTa
0.50 0.50 0.50 C 966 888 M
5981 0 V
stroke
LT0
0.50 0.50 0.50 C 966 888 M
63 0 V
5918 0 R
-63 0 V
882 888 M
( 14.1421) Rshow
1.000 UL
LT0
0.50 0.50 0.50 C 1.000 UL
LTa
0.50 0.50 0.50 C 966 918 M
5981 0 V
stroke
LT0
0.50 0.50 0.50 C 966 918 M
63 0 V
5918 0 R
-63 0 V
882 918 M
( 14.8492) Rshow
1.000 UL
LT0
0.50 0.50 0.50 C 1.000 UL
LTa
0.50 0.50 0.50 C 966 949 M
5981 0 V
stroke
LT0
0.50 0.50 0.50 C 966 949 M
63 0 V
5918 0 R
-63 0 V
882 949 M
( 15.5563) Rshow
1.000 UL
LT0
0.50 0.50 0.50 C 1.000 UL
LTa
0.50 0.50 0.50 C 966 979 M
5981 0 V
stroke
LT0
0.50 0.50 0.50 C 966 979 M
63 0 V
5918 0 R
-63 0 V
882 979 M
( 16.2634) Rshow
1.000 UL
LT0
0.50 0.50 0.50 C 1.000 UL
LTa
0.50 0.50 0.50 C 966 1010 M
5981 0 V
stroke
LT0
0.50 0.50 0.50 C 966 1010 M
63 0 V
5918 0 R
-63 0 V
-6002 0 R
( 16.9705) Rshow
1.000 UL
LT0
0.50 0.50 0.50 C 1.000 UL
LTa
0.50 0.50 0.50 C 966 1040 M
5981 0 V
stroke
LT0
0.50 0.50 0.50 C 966 1040 M
63 0 V
5918 0 R
-63 0 V
-6002 0 R
( 17.6776) Rshow
1.000 UL
LT0
0.50 0.50 0.50 C 1.000 UL
LTa
0.50 0.50 0.50 C 966 1071 M
5981 0 V
stroke
LT0
0.50 0.50 0.50 C 966 1071 M
63 0 V
5918 0 R
-63 0 V
-6002 0 R
( 18.3848) Rshow
1.000 UL
LT0
0.50 0.50 0.50 C 1.000 UL
LTa
0.50 0.50 0.50 C 966 1101 M
5981 0 V
stroke
LT0
0.50 0.50 0.50 C 966 1101 M
63 0 V
5918 0 R
-63 0 V
-6002 0 R
( 19.0919) Rshow
1.000 UL
LT0
0.50 0.50 0.50 C 1.000 UL
LTa
0.50 0.50 0.50 C 966 1131 M
5981 0 V
stroke
LT0
0.50 0.50 0.50 C 966 1131 M
63 0 V
5918 0 R
-63 0 V
-6002 0 R
( 19.799) Rshow
1.000 UL
LT0
0.50 0.50 0.50 C 1.000 UL
LTa
0.50 0.50 0.50 C 966 1162 M
5981 0 V
stroke
LT0
0.50 0.50 0.50 C 966 1162 M
63 0 V
5918 0 R
-63 0 V
-6002 0 R
( 20.5061) Rshow
1.000 UL
LT0
0.50 0.50 0.50 C 1.000 UL
LTa
0.50 0.50 0.50 C 966 1192 M
5981 0 V
stroke
LT0
0.50 0.50 0.50 C 966 1192 M
63 0 V
5918 0 R
-63 0 V
-6002 0 R
( 21.2132) Rshow
1.000 UL
LT0
0.50 0.50 0.50 C 1.000 UL
LTa
0.50 0.50 0.50 C 966 1223 M
5981 0 V
stroke
LT0
0.50 0.50 0.50 C 966 1223 M
63 0 V
5918 0 R
-63 0 V
-6002 0 R
( 21.9203) Rshow
1.000 UL
LT0
0.50 0.50 0.50 C 1.000 UL
LTa
0.50 0.50 0.50 C 966 1253 M
5981 0 V
stroke
LT0
0.50 0.50 0.50 C 966 1253 M
63 0 V
5918 0 R
-63 0 V
-6002 0 R
( 22.6274) Rshow
1.000 UL
LT0
0.50 0.50 0.50 C 1.000 UL
LTa
0.50 0.50 0.50 C 966 1283 M
5981 0 V
stroke
LT0
0.50 0.50 0.50 C 966 1283 M
63 0 V
5918 0 R
-63 0 V
-6002 0 R
( 23.3345) Rshow
1.000 UL
LT0
0.50 0.50 0.50 C 1.000 UL
LTa
0.50 0.50 0.50 C 966 1314 M
5981 0 V
stroke
LT0
0.50 0.50 0.50 C 966 1314 M
63 0 V
5918 0 R
-63 0 V
-6002 0 R
( 24.0416) Rshow
1.000 UL
LT0
0.50 0.50 0.50 C 1.000 UL
LTa
0.50 0.50 0.50 C 966 1344 M
5981 0 V
stroke
LT0
0.50 0.50 0.50 C 966 1344 M
63 0 V
5918 0 R
-63 0 V
-6002 0 R
( 24.7487) Rshow
1.000 UL
LT0
0.50 0.50 0.50 C 1.000 UL
LTa
0.50 0.50 0.50 C 966 1375 M
5981 0 V
stroke
LT0
0.50 0.50 0.50 C 966 1375 M
63 0 V
5918 0 R
-63 0 V
-6002 0 R
( 25.4558) Rshow
1.000 UL
LT0
0.50 0.50 0.50 C 1.000 UL
LTa
0.50 0.50 0.50 C 966 1405 M
5981 0 V
stroke
LT0
0.50 0.50 0.50 C 966 1405 M
63 0 V
5918 0 R
-63 0 V
-6002 0 R
( 26.1629) Rshow
1.000 UL
LT0
0.50 0.50 0.50 C 1.000 UL
LTa
0.50 0.50 0.50 C 966 1435 M
5981 0 V
stroke
LT0
0.50 0.50 0.50 C 966 1435 M
63 0 V
5918 0 R
-63 0 V
-6002 0 R
( 26.87) Rshow
1.000 UL
LT0
0.50 0.50 0.50 C 1.000 UL
LTa
0.50 0.50 0.50 C 966 1466 M
5981 0 V
stroke
LT0
0.50 0.50 0.50 C 966 1466 M
63 0 V
5918 0 R
-63 0 V
-6002 0 R
( 27.5771) Rshow
1.000 UL
LT0
0.50 0.50 0.50 C 1.000 UL
LTa
0.50 0.50 0.50 C 966 1496 M
5981 0 V
stroke
LT0
0.50 0.50 0.50 C 966 1496 M
63 0 V
5918 0 R
-63 0 V
-6002 0 R
( 28.2842) Rshow
1.000 UL
LT0
0.50 0.50 0.50 C 1.000 UL
LTa
0.50 0.50 0.50 C 966 1527 M
5981 0 V
stroke
LT0
0.50 0.50 0.50 C 966 1527 M
63 0 V
5918 0 R
-63 0 V
-6002 0 R
( 28.9913) Rshow
1.000 UL
LT0
0.50 0.50 0.50 C 1.000 UL
LTa
0.50 0.50 0.50 C 966 1557 M
5981 0 V
stroke
LT0
0.50 0.50 0.50 C 966 1557 M
63 0 V
5918 0 R
-63 0 V
-6002 0 R
( 29.6985) Rshow
1.000 UL
LT0
0.50 0.50 0.50 C 1.000 UL
LTa
0.50 0.50 0.50 C 966 1587 M
5981 0 V
stroke
LT0
0.50 0.50 0.50 C 966 1587 M
63 0 V
5918 0 R
-63 0 V
-6002 0 R
( 30.4056) Rshow
1.000 UL
LT0
0.50 0.50 0.50 C 1.000 UL
LTa
0.50 0.50 0.50 C 966 1618 M
5981 0 V
stroke
LT0
0.50 0.50 0.50 C 966 1618 M
63 0 V
5918 0 R
-63 0 V
-6002 0 R
( 31.1127) Rshow
1.000 UL
LT0
0.50 0.50 0.50 C 1.000 UL
LTa
0.50 0.50 0.50 C 966 1648 M
5981 0 V
stroke
LT0
0.50 0.50 0.50 C 966 1648 M
63 0 V
5918 0 R
-63 0 V
-6002 0 R
( 31.8198) Rshow
1.000 UL
LT0
0.50 0.50 0.50 C 1.000 UL
LTa
0.50 0.50 0.50 C 966 1679 M
5981 0 V
stroke
LT0
0.50 0.50 0.50 C 966 1679 M
63 0 V
5918 0 R
-63 0 V
-6002 0 R
( 32.5269) Rshow
1.000 UL
LT0
0.50 0.50 0.50 C 1.000 UL
LTa
0.50 0.50 0.50 C 966 1709 M
5981 0 V
stroke
LT0
0.50 0.50 0.50 C 966 1709 M
63 0 V
5918 0 R
-63 0 V
-6002 0 R
( 33.234) Rshow
1.000 UL
LT0
0.50 0.50 0.50 C 1.000 UL
LTa
0.50 0.50 0.50 C 966 1739 M
5981 0 V
stroke
LT0
0.50 0.50 0.50 C 966 1739 M
63 0 V
5918 0 R
-63 0 V
-6002 0 R
( 33.9411) Rshow
1.000 UL
LT0
0.50 0.50 0.50 C 1.000 UL
LTa
0.50 0.50 0.50 C 966 1770 M
5981 0 V
stroke
LT0
0.50 0.50 0.50 C 966 1770 M
63 0 V
5918 0 R
-63 0 V
-6002 0 R
( 34.6482) Rshow
1.000 UL
LT0
0.50 0.50 0.50 C 1.000 UL
LTa
0.50 0.50 0.50 C 966 1800 M
5981 0 V
stroke
LT0
0.50 0.50 0.50 C 966 1800 M
63 0 V
5918 0 R
-63 0 V
-6002 0 R
( 35.3553) Rshow
1.000 UL
LT0
0.50 0.50 0.50 C 1.000 UL
LTa
0.50 0.50 0.50 C 966 1831 M
5981 0 V
stroke
LT0
0.50 0.50 0.50 C 966 1831 M
63 0 V
5918 0 R
-63 0 V
-6002 0 R
( 36.0624) Rshow
1.000 UL
LT0
0.50 0.50 0.50 C 1.000 UL
LTa
0.50 0.50 0.50 C 966 1861 M
5981 0 V
stroke
LT0
0.50 0.50 0.50 C 966 1861 M
63 0 V
5918 0 R
-63 0 V
-6002 0 R
( 36.7695) Rshow
1.000 UL
LT0
0.50 0.50 0.50 C 1.000 UL
LTa
0.50 0.50 0.50 C 966 1891 M
5981 0 V
stroke
LT0
0.50 0.50 0.50 C 966 1891 M
63 0 V
5918 0 R
-63 0 V
-6002 0 R
( 37.4766) Rshow
1.000 UL
LT0
0.50 0.50 0.50 C 1.000 UL
LTa
0.50 0.50 0.50 C 966 1922 M
5981 0 V
stroke
LT0
0.50 0.50 0.50 C 966 1922 M
63 0 V
5918 0 R
-63 0 V
-6002 0 R
( 38.1837) Rshow
1.000 UL
LT0
0.50 0.50 0.50 C 1.000 UL
LTa
0.50 0.50 0.50 C 966 1952 M
5981 0 V
stroke
LT0
0.50 0.50 0.50 C 966 1952 M
63 0 V
5918 0 R
-63 0 V
-6002 0 R
( 38.8908) Rshow
1.000 UL
LT0
0.50 0.50 0.50 C 1.000 UL
LTa
0.50 0.50 0.50 C 966 1983 M
5981 0 V
stroke
LT0
0.50 0.50 0.50 C 966 1983 M
63 0 V
5918 0 R
-63 0 V
-6002 0 R
( 39.5979) Rshow
1.000 UL
LT0
0.50 0.50 0.50 C 1.000 UL
LTa
0.50 0.50 0.50 C 966 2013 M
5981 0 V
stroke
LT0
0.50 0.50 0.50 C 966 2013 M
63 0 V
5918 0 R
-63 0 V
-6002 0 R
( 40.305) Rshow
1.000 UL
LT0
0.50 0.50 0.50 C 1.000 UL
LTa
0.50 0.50 0.50 C 966 2043 M
5981 0 V
stroke
LT0
0.50 0.50 0.50 C 966 2043 M
63 0 V
5918 0 R
-63 0 V
-6002 0 R
( 41.0121) Rshow
1.000 UL
LT0
0.50 0.50 0.50 C 1.000 UL
LTa
0.50 0.50 0.50 C 966 2074 M
5981 0 V
stroke
LT0
0.50 0.50 0.50 C 966 2074 M
63 0 V
5918 0 R
-63 0 V
-6002 0 R
( 41.7193) Rshow
1.000 UL
LT0
0.50 0.50 0.50 C 1.000 UL
LTa
0.50 0.50 0.50 C 966 2104 M
5981 0 V
stroke
LT0
0.50 0.50 0.50 C 966 2104 M
63 0 V
5918 0 R
-63 0 V
-6002 0 R
( 42.4264) Rshow
1.000 UL
LT0
0.50 0.50 0.50 C 1.000 UL
LTa
0.50 0.50 0.50 C 966 2135 M
5981 0 V
stroke
LT0
0.50 0.50 0.50 C 966 2135 M
63 0 V
5918 0 R
-63 0 V
-6002 0 R
( 43.1335) Rshow
1.000 UL
LT0
0.50 0.50 0.50 C 1.000 UL
LTa
0.50 0.50 0.50 C 966 2165 M
5981 0 V
stroke
LT0
0.50 0.50 0.50 C 966 2165 M
63 0 V
5918 0 R
-63 0 V
-6002 0 R
( 43.8406) Rshow
1.000 UL
LT0
0.50 0.50 0.50 C 1.000 UL
LTa
0.50 0.50 0.50 C 966 2195 M
5981 0 V
stroke
LT0
0.50 0.50 0.50 C 966 2195 M
63 0 V
5918 0 R
-63 0 V
-6002 0 R
( 44.5477) Rshow
1.000 UL
LT0
0.50 0.50 0.50 C 1.000 UL
LTa
0.50 0.50 0.50 C 966 2226 M
5981 0 V
stroke
LT0
0.50 0.50 0.50 C 966 2226 M
63 0 V
5918 0 R
-63 0 V
-6002 0 R
( 45.2548) Rshow
1.000 UL
LT0
0.50 0.50 0.50 C 1.000 UL
LTa
0.50 0.50 0.50 C 966 2256 M
5981 0 V
stroke
LT0
0.50 0.50 0.50 C 966 2256 M
63 0 V
5918 0 R
-63 0 V
-6002 0 R
( 45.9619) Rshow
1.000 UL
LT0
0.50 0.50 0.50 C 1.000 UL
LTa
0.50 0.50 0.50 C 966 2287 M
5981 0 V
stroke
LT0
0.50 0.50 0.50 C 966 2287 M
63 0 V
5918 0 R
-63 0 V
-6002 0 R
( 46.669) Rshow
1.000 UL
LT0
0.50 0.50 0.50 C 1.000 UL
LTa
0.50 0.50 0.50 C 966 2317 M
5981 0 V
stroke
LT0
0.50 0.50 0.50 C 966 2317 M
63 0 V
5918 0 R
-63 0 V
-6002 0 R
( 47.3761) Rshow
1.000 UL
LT0
0.50 0.50 0.50 C 1.000 UL
LTa
0.50 0.50 0.50 C 966 2347 M
5981 0 V
stroke
LT0
0.50 0.50 0.50 C 966 2347 M
63 0 V
5918 0 R
-63 0 V
-6002 0 R
( 48.0832) Rshow
1.000 UL
LT0
0.50 0.50 0.50 C 1.000 UL
LTa
0.50 0.50 0.50 C 966 2378 M
5981 0 V
stroke
LT0
0.50 0.50 0.50 C 966 2378 M
63 0 V
5918 0 R
-63 0 V
-6002 0 R
( 48.7903) Rshow
1.000 UL
LT0
0.50 0.50 0.50 C 1.000 UL
LTa
0.50 0.50 0.50 C 966 2408 M
5981 0 V
stroke
LT0
0.50 0.50 0.50 C 966 2408 M
63 0 V
5918 0 R
-63 0 V
-6002 0 R
( 49.4974) Rshow
1.000 UL
LT0
0.50 0.50 0.50 C 1.000 UL
LTa
0.50 0.50 0.50 C 966 2439 M
5981 0 V
stroke
LT0
0.50 0.50 0.50 C 966 2439 M
63 0 V
5918 0 R
-63 0 V
-6002 0 R
( 50.2045) Rshow
1.000 UL
LT0
0.50 0.50 0.50 C 1.000 UL
LTa
0.50 0.50 0.50 C 966 2469 M
5981 0 V
stroke
LT0
0.50 0.50 0.50 C 966 2469 M
63 0 V
5918 0 R
-63 0 V
-6002 0 R
( 50.9116) Rshow
1.000 UL
LT0
0.50 0.50 0.50 C 1.000 UL
LTa
0.50 0.50 0.50 C 966 2499 M
5981 0 V
stroke
LT0
0.50 0.50 0.50 C 966 2499 M
63 0 V
5918 0 R
-63 0 V
-6002 0 R
( 51.6187) Rshow
1.000 UL
LT0
0.50 0.50 0.50 C 1.000 UL
LTa
0.50 0.50 0.50 C 966 2530 M
5981 0 V
stroke
LT0
0.50 0.50 0.50 C 966 2530 M
63 0 V
5918 0 R
-63 0 V
-6002 0 R
( 52.3258) Rshow
1.000 UL
LT0
0.50 0.50 0.50 C 1.000 UL
LTa
0.50 0.50 0.50 C 966 2560 M
5981 0 V
stroke
LT0
0.50 0.50 0.50 C 966 2560 M
63 0 V
5918 0 R
-63 0 V
-6002 0 R
( 53.033) Rshow
1.000 UL
LT0
0.50 0.50 0.50 C 1.000 UL
LTa
0.50 0.50 0.50 C 966 2591 M
5981 0 V
stroke
LT0
0.50 0.50 0.50 C 966 2591 M
63 0 V
5918 0 R
-63 0 V
-6002 0 R
( 53.7401) Rshow
1.000 UL
LT0
0.50 0.50 0.50 C 1.000 UL
LTa
0.50 0.50 0.50 C 966 2621 M
5981 0 V
stroke
LT0
0.50 0.50 0.50 C 966 2621 M
63 0 V
5918 0 R
-63 0 V
-6002 0 R
( 54.4472) Rshow
1.000 UL
LT0
0.50 0.50 0.50 C 1.000 UL
LTa
0.50 0.50 0.50 C 966 2652 M
5981 0 V
stroke
LT0
0.50 0.50 0.50 C 966 2652 M
63 0 V
5918 0 R
-63 0 V
-6002 0 R
( 55.1543) Rshow
1.000 UL
LT0
0.50 0.50 0.50 C 1.000 UL
LTa
0.50 0.50 0.50 C 966 2682 M
5981 0 V
stroke
LT0
0.50 0.50 0.50 C 966 2682 M
63 0 V
5918 0 R
-63 0 V
-6002 0 R
( 55.8614) Rshow
1.000 UL
LT0
0.50 0.50 0.50 C 1.000 UL
LTa
0.50 0.50 0.50 C 966 2712 M
5981 0 V
stroke
LT0
0.50 0.50 0.50 C 966 2712 M
63 0 V
5918 0 R
-63 0 V
-6002 0 R
( 56.5685) Rshow
1.000 UL
LT0
0.50 0.50 0.50 C 1.000 UL
LTa
0.50 0.50 0.50 C 966 2743 M
5981 0 V
stroke
LT0
0.50 0.50 0.50 C 966 2743 M
63 0 V
5918 0 R
-63 0 V
-6002 0 R
( 57.2756) Rshow
1.000 UL
LT0
0.50 0.50 0.50 C 1.000 UL
LTa
0.50 0.50 0.50 C 966 2773 M
5981 0 V
stroke
LT0
0.50 0.50 0.50 C 966 2773 M
63 0 V
5918 0 R
-63 0 V
-6002 0 R
( 57.9827) Rshow
1.000 UL
LT0
0.50 0.50 0.50 C 1.000 UL
LTa
0.50 0.50 0.50 C 966 2804 M
5981 0 V
stroke
LT0
0.50 0.50 0.50 C 966 2804 M
63 0 V
5918 0 R
-63 0 V
-6002 0 R
( 58.6898) Rshow
1.000 UL
LT0
0.50 0.50 0.50 C 1.000 UL
LTa
0.50 0.50 0.50 C 966 2834 M
5981 0 V
stroke
LT0
0.50 0.50 0.50 C 966 2834 M
63 0 V
5918 0 R
-63 0 V
-6002 0 R
( 59.3969) Rshow
1.000 UL
LT0
0.50 0.50 0.50 C 1.000 UL
LTa
0.50 0.50 0.50 C 966 2864 M
5981 0 V
stroke
LT0
0.50 0.50 0.50 C 966 2864 M
63 0 V
5918 0 R
-63 0 V
-6002 0 R
( 60.104) Rshow
1.000 UL
LT0
0.50 0.50 0.50 C 1.000 UL
LTa
0.50 0.50 0.50 C 966 2895 M
5981 0 V
stroke
LT0
0.50 0.50 0.50 C 966 2895 M
63 0 V
5918 0 R
-63 0 V
-6002 0 R
( 60.8111) Rshow
1.000 UL
LT0
0.50 0.50 0.50 C 1.000 UL
LTa
0.50 0.50 0.50 C 966 2925 M
5981 0 V
stroke
LT0
0.50 0.50 0.50 C 966 2925 M
63 0 V
5918 0 R
-63 0 V
-6002 0 R
( 61.5182) Rshow
1.000 UL
LT0
0.50 0.50 0.50 C 1.000 UL
LTa
0.50 0.50 0.50 C 966 2956 M
5981 0 V
stroke
LT0
0.50 0.50 0.50 C 966 2956 M
63 0 V
5918 0 R
-63 0 V
-6002 0 R
( 62.2253) Rshow
1.000 UL
LT0
0.50 0.50 0.50 C 1.000 UL
LTa
0.50 0.50 0.50 C 966 2986 M
5981 0 V
stroke
LT0
0.50 0.50 0.50 C 966 2986 M
63 0 V
5918 0 R
-63 0 V
-6002 0 R
( 62.9324) Rshow
1.000 UL
LT0
0.50 0.50 0.50 C 1.000 UL
LTa
0.50 0.50 0.50 C 966 3016 M
5981 0 V
stroke
LT0
0.50 0.50 0.50 C 966 3016 M
63 0 V
5918 0 R
-63 0 V
-6002 0 R
( 63.6395) Rshow
1.000 UL
LT0
0.50 0.50 0.50 C 1.000 UL
LTa
0.50 0.50 0.50 C 966 3047 M
5981 0 V
stroke
LT0
0.50 0.50 0.50 C 966 3047 M
63 0 V
5918 0 R
-63 0 V
-6002 0 R
( 64.3466) Rshow
1.000 UL
LT0
0.50 0.50 0.50 C 1.000 UL
LTa
0.50 0.50 0.50 C 966 3077 M
5981 0 V
stroke
LT0
0.50 0.50 0.50 C 966 3077 M
63 0 V
5918 0 R
-63 0 V
-6002 0 R
( 65.0538) Rshow
1.000 UL
LT0
0.50 0.50 0.50 C 1.000 UL
LTa
0.50 0.50 0.50 C 966 3108 M
5981 0 V
stroke
LT0
0.50 0.50 0.50 C 966 3108 M
63 0 V
5918 0 R
-63 0 V
-6002 0 R
( 65.7609) Rshow
1.000 UL
LT0
0.50 0.50 0.50 C 1.000 UL
LTa
0.50 0.50 0.50 C 966 3138 M
5981 0 V
stroke
LT0
0.50 0.50 0.50 C 966 3138 M
63 0 V
5918 0 R
-63 0 V
-6002 0 R
( 66.468) Rshow
1.000 UL
LT0
0.50 0.50 0.50 C 1.000 UL
LTa
0.50 0.50 0.50 C 966 3168 M
5981 0 V
stroke
LT0
0.50 0.50 0.50 C 966 3168 M
63 0 V
5918 0 R
-63 0 V
-6002 0 R
( 67.1751) Rshow
1.000 UL
LT0
0.50 0.50 0.50 C 1.000 UL
LTa
0.50 0.50 0.50 C 966 3199 M
5981 0 V
stroke
LT0
0.50 0.50 0.50 C 966 3199 M
63 0 V
5918 0 R
-63 0 V
-6002 0 R
( 67.8822) Rshow
1.000 UL
LT0
0.50 0.50 0.50 C 1.000 UL
LTa
0.50 0.50 0.50 C 966 3229 M
5981 0 V
stroke
LT0
0.50 0.50 0.50 C 966 3229 M
63 0 V
5918 0 R
-63 0 V
-6002 0 R
( 68.5893) Rshow
1.000 UL
LT0
0.50 0.50 0.50 C 1.000 UL
LTa
0.50 0.50 0.50 C 966 3260 M
5981 0 V
stroke
LT0
0.50 0.50 0.50 C 966 3260 M
63 0 V
5918 0 R
-63 0 V
-6002 0 R
( 69.2964) Rshow
1.000 UL
LT0
0.50 0.50 0.50 C 1.000 UL
LTa
0.50 0.50 0.50 C 966 3290 M
5981 0 V
stroke
LT0
0.50 0.50 0.50 C 966 3290 M
63 0 V
5918 0 R
-63 0 V
-6002 0 R
( 70.0035) Rshow
1.000 UL
LT0
0.50 0.50 0.50 C 1.000 UL
LTa
0.50 0.50 0.50 C 966 3320 M
5981 0 V
stroke
LT0
0.50 0.50 0.50 C 966 3320 M
63 0 V
5918 0 R
-63 0 V
-6002 0 R
( 70.7106) Rshow
1.000 UL
LT0
0.50 0.50 0.50 C 1.000 UL
LTa
0.50 0.50 0.50 C 966 3351 M
5981 0 V
stroke
LT0
0.50 0.50 0.50 C 966 3351 M
63 0 V
5918 0 R
-63 0 V
-6002 0 R
( 71.4177) Rshow
1.000 UL
LT0
0.50 0.50 0.50 C 1.000 UL
LTa
0.50 0.50 0.50 C 966 3381 M
5981 0 V
stroke
LT0
0.50 0.50 0.50 C 966 3381 M
63 0 V
5918 0 R
-63 0 V
-6002 0 R
( 72.1248) Rshow
1.000 UL
LT0
0.50 0.50 0.50 C 1.000 UL
LTa
0.50 0.50 0.50 C 966 3412 M
5981 0 V
stroke
LT0
0.50 0.50 0.50 C 966 3412 M
63 0 V
5918 0 R
-63 0 V
-6002 0 R
( 72.8319) Rshow
1.000 UL
LT0
0.50 0.50 0.50 C 1.000 UL
LTa
0.50 0.50 0.50 C 966 3442 M
5981 0 V
stroke
LT0
0.50 0.50 0.50 C 966 3442 M
63 0 V
5918 0 R
-63 0 V
-6002 0 R
( 73.539) Rshow
1.000 UL
LT0
0.50 0.50 0.50 C 1.000 UL
LTa
0.50 0.50 0.50 C 966 3472 M
5981 0 V
stroke
LT0
0.50 0.50 0.50 C 966 3472 M
63 0 V
5918 0 R
-63 0 V
-6002 0 R
( 74.2461) Rshow
1.000 UL
LT0
0.50 0.50 0.50 C 1.000 UL
LTa
0.50 0.50 0.50 C 966 3503 M
5981 0 V
stroke
LT0
0.50 0.50 0.50 C 966 3503 M
63 0 V
5918 0 R
-63 0 V
-6002 0 R
( 74.9532) Rshow
1.000 UL
LT0
0.50 0.50 0.50 C 1.000 UL
LTa
0.50 0.50 0.50 C 966 3533 M
5981 0 V
stroke
LT0
0.50 0.50 0.50 C 966 3533 M
63 0 V
5918 0 R
-63 0 V
-6002 0 R
( 75.6603) Rshow
1.000 UL
LT0
0.50 0.50 0.50 C 1.000 UL
LTa
0.50 0.50 0.50 C 966 3564 M
5981 0 V
stroke
LT0
0.50 0.50 0.50 C 966 3564 M
63 0 V
5918 0 R
-63 0 V
-6002 0 R
( 76.3674) Rshow
1.000 UL
LT0
0.50 0.50 0.50 C 1.000 UL
LTa
0.50 0.50 0.50 C 966 3594 M
5981 0 V
stroke
LT0
0.50 0.50 0.50 C 966 3594 M
63 0 V
5918 0 R
-63 0 V
-6002 0 R
( 77.0746) Rshow
1.000 UL
LT0
0.50 0.50 0.50 C 1.000 UL
LTa
0.50 0.50 0.50 C 966 3624 M
5981 0 V
stroke
LT0
0.50 0.50 0.50 C 966 3624 M
63 0 V
5918 0 R
-63 0 V
-6002 0 R
( 77.7817) Rshow
1.000 UL
LT0
0.50 0.50 0.50 C 1.000 UL
LTa
0.50 0.50 0.50 C 966 3655 M
5981 0 V
stroke
LT0
0.50 0.50 0.50 C 966 3655 M
63 0 V
5918 0 R
-63 0 V
-6002 0 R
( 78.4888) Rshow
1.000 UL
LT0
0.50 0.50 0.50 C 1.000 UL
LTa
0.50 0.50 0.50 C 966 3685 M
5981 0 V
stroke
LT0
0.50 0.50 0.50 C 966 3685 M
63 0 V
5918 0 R
-63 0 V
-6002 0 R
( 79.1959) Rshow
1.000 UL
LT0
0.50 0.50 0.50 C 1.000 UL
LTa
0.50 0.50 0.50 C 966 3716 M
5981 0 V
stroke
LT0
0.50 0.50 0.50 C 966 3716 M
63 0 V
5918 0 R
-63 0 V
-6002 0 R
( 79.903) Rshow
1.000 UL
LT0
0.50 0.50 0.50 C 1.000 UL
LTa
0.50 0.50 0.50 C 966 3746 M
5981 0 V
stroke
LT0
0.50 0.50 0.50 C 966 3746 M
63 0 V
5918 0 R
-63 0 V
-6002 0 R
( 80.6101) Rshow
1.000 UL
LT0
0.50 0.50 0.50 C 1.000 UL
LTa
0.50 0.50 0.50 C 966 3776 M
5981 0 V
stroke
LT0
0.50 0.50 0.50 C 966 3776 M
63 0 V
5918 0 R
-63 0 V
-6002 0 R
( 81.3172) Rshow
1.000 UL
LT0
0.50 0.50 0.50 C 1.000 UL
LTa
0.50 0.50 0.50 C 966 3807 M
5981 0 V
stroke
LT0
0.50 0.50 0.50 C 966 3807 M
63 0 V
5918 0 R
-63 0 V
-6002 0 R
( 82.0243) Rshow
1.000 UL
LT0
0.50 0.50 0.50 C 1.000 UL
LTa
0.50 0.50 0.50 C 966 3837 M
5981 0 V
stroke
LT0
0.50 0.50 0.50 C 966 3837 M
63 0 V
5918 0 R
-63 0 V
-6002 0 R
( 82.7314) Rshow
1.000 UL
LT0
0.50 0.50 0.50 C 1.000 UL
LTa
0.50 0.50 0.50 C 966 3868 M
5981 0 V
stroke
LT0
0.50 0.50 0.50 C 966 3868 M
63 0 V
5918 0 R
-63 0 V
-6002 0 R
( 83.4385) Rshow
1.000 UL
LT0
0.50 0.50 0.50 C 1.000 UL
LTa
0.50 0.50 0.50 C 966 3898 M
5981 0 V
stroke
LT0
0.50 0.50 0.50 C 966 3898 M
63 0 V
5918 0 R
-63 0 V
-6002 0 R
( 84.1456) Rshow
1.000 UL
LT0
0.50 0.50 0.50 C 1.000 UL
LTa
0.50 0.50 0.50 C 966 3928 M
5981 0 V
stroke
LT0
0.50 0.50 0.50 C 966 3928 M
63 0 V
5918 0 R
-63 0 V
-6002 0 R
( 84.8527) Rshow
1.000 UL
LT0
0.50 0.50 0.50 C 1.000 UL
LTa
0.50 0.50 0.50 C 966 3959 M
5981 0 V
stroke
LT0
0.50 0.50 0.50 C 966 3959 M
63 0 V
5918 0 R
-63 0 V
-6002 0 R
( 85.5598) Rshow
1.000 UL
LT0
0.50 0.50 0.50 C 1.000 UL
LTa
0.50 0.50 0.50 C 966 3989 M
5981 0 V
stroke
LT0
0.50 0.50 0.50 C 966 3989 M
63 0 V
5918 0 R
-63 0 V
-6002 0 R
( 86.2669) Rshow
1.000 UL
LT0
0.50 0.50 0.50 C 1.000 UL
LTa
0.50 0.50 0.50 C 966 4020 M
5981 0 V
stroke
LT0
0.50 0.50 0.50 C 966 4020 M
63 0 V
5918 0 R
-63 0 V
-6002 0 R
( 86.974) Rshow
1.000 UL
LT0
0.50 0.50 0.50 C 1.000 UL
LTa
0.50 0.50 0.50 C 966 4050 M
5981 0 V
stroke
LT0
0.50 0.50 0.50 C 966 4050 M
63 0 V
5918 0 R
-63 0 V
-6002 0 R
( 87.6811) Rshow
1.000 UL
LT0
0.50 0.50 0.50 C 1.000 UL
LTa
0.50 0.50 0.50 C 966 4080 M
5981 0 V
stroke
LT0
0.50 0.50 0.50 C 966 4080 M
63 0 V
5918 0 R
-63 0 V
-6002 0 R
( 88.3882) Rshow
1.000 UL
LT0
0.50 0.50 0.50 C 1.000 UL
LTa
0.50 0.50 0.50 C 966 4111 M
5981 0 V
stroke
LT0
0.50 0.50 0.50 C 966 4111 M
63 0 V
5918 0 R
-63 0 V
-6002 0 R
( 89.0954) Rshow
1.000 UL
LT0
0.50 0.50 0.50 C 1.000 UL
LTa
0.50 0.50 0.50 C 966 4141 M
5981 0 V
stroke
LT0
0.50 0.50 0.50 C 966 4141 M
63 0 V
5918 0 R
-63 0 V
-6002 0 R
( 89.8025) Rshow
1.000 UL
LT0
0.50 0.50 0.50 C 1.000 UL
LTa
0.50 0.50 0.50 C 966 4172 M
5981 0 V
stroke
LT0
0.50 0.50 0.50 C 966 4172 M
63 0 V
5918 0 R
-63 0 V
-6002 0 R
( 90.5096) Rshow
1.000 UL
LT0
0.50 0.50 0.50 C 1.000 UL
LTa
0.50 0.50 0.50 C 966 4202 M
5981 0 V
stroke
LT0
0.50 0.50 0.50 C 966 4202 M
63 0 V
5918 0 R
-63 0 V
-6002 0 R
( 91.2167) Rshow
1.000 UL
LT0
0.50 0.50 0.50 C 1.000 UL
LTa
0.50 0.50 0.50 C 966 4233 M
5981 0 V
stroke
LT0
0.50 0.50 0.50 C 966 4233 M
63 0 V
5918 0 R
-63 0 V
-6002 0 R
( 91.9238) Rshow
1.000 UL
LT0
0.50 0.50 0.50 C 1.000 UL
LTa
0.50 0.50 0.50 C 966 4263 M
5981 0 V
stroke
LT0
0.50 0.50 0.50 C 966 4263 M
63 0 V
5918 0 R
-63 0 V
-6002 0 R
( 92.6309) Rshow
1.000 UL
LT0
0.50 0.50 0.50 C 1.000 UL
LTa
0.50 0.50 0.50 C 966 4293 M
5981 0 V
stroke
LT0
0.50 0.50 0.50 C 966 4293 M
63 0 V
5918 0 R
-63 0 V
-6002 0 R
( 93.338) Rshow
1.000 UL
LT0
0.50 0.50 0.50 C 1.000 UL
LTa
0.50 0.50 0.50 C 966 4324 M
5981 0 V
stroke
LT0
0.50 0.50 0.50 C 966 4324 M
63 0 V
5918 0 R
-63 0 V
-6002 0 R
( 94.0451) Rshow
1.000 UL
LT0
0.50 0.50 0.50 C 1.000 UL
LTa
0.50 0.50 0.50 C 966 4354 M
5981 0 V
stroke
LT0
0.50 0.50 0.50 C 966 4354 M
63 0 V
5918 0 R
-63 0 V
-6002 0 R
( 94.7522) Rshow
1.000 UL
LT0
0.50 0.50 0.50 C 1.000 UL
LTa
0.50 0.50 0.50 C 966 4385 M
5981 0 V
stroke
LT0
0.50 0.50 0.50 C 966 4385 M
63 0 V
5918 0 R
-63 0 V
-6002 0 R
( 95.4593) Rshow
1.000 UL
LT0
0.50 0.50 0.50 C 1.000 UL
LTa
0.50 0.50 0.50 C 966 4415 M
5981 0 V
stroke
LT0
0.50 0.50 0.50 C 966 4415 M
63 0 V
5918 0 R
-63 0 V
-6002 0 R
( 96.1664) Rshow
1.000 UL
LT0
0.50 0.50 0.50 C 1.000 UL
LTa
0.50 0.50 0.50 C 966 4445 M
5981 0 V
stroke
LT0
0.50 0.50 0.50 C 966 4445 M
63 0 V
5918 0 R
-63 0 V
-6002 0 R
( 96.8735) Rshow
1.000 UL
LT0
0.50 0.50 0.50 C 1.000 UL
LTa
0.50 0.50 0.50 C 966 4476 M
5981 0 V
stroke
LT0
0.50 0.50 0.50 C 966 4476 M
63 0 V
5918 0 R
-63 0 V
-6002 0 R
( 97.5806) Rshow
1.000 UL
LT0
0.50 0.50 0.50 C 1.000 UL
LTa
0.50 0.50 0.50 C 966 4506 M
5981 0 V
stroke
LT0
0.50 0.50 0.50 C 966 4506 M
63 0 V
5918 0 R
-63 0 V
-6002 0 R
( 98.2877) Rshow
1.000 UL
LT0
0.50 0.50 0.50 C 1.000 UL
LTa
0.50 0.50 0.50 C 966 4537 M
5981 0 V
stroke
LT0
0.50 0.50 0.50 C 966 4537 M
63 0 V
5918 0 R
-63 0 V
-6002 0 R
( 98.9948) Rshow
1.000 UL
LT0
0.50 0.50 0.50 C 1.000 UL
LTa
0.50 0.50 0.50 C 966 4567 M
5981 0 V
stroke
LT0
0.50 0.50 0.50 C 966 4567 M
63 0 V
5918 0 R
-63 0 V
-6002 0 R
( 99.7019) Rshow
1.000 UL
LT0
0.50 0.50 0.50 C 1.000 UL
LTa
0.50 0.50 0.50 C 966 4597 M
5981 0 V
stroke
LT0
0.50 0.50 0.50 C 966 4597 M
63 0 V
5918 0 R
-63 0 V
-6002 0 R
( 100.409) Rshow
1.000 UL
LT0
0.50 0.50 0.50 C 1.000 UL
LTa
0.50 0.50 0.50 C 966 4628 M
5981 0 V
stroke
LT0
0.50 0.50 0.50 C 966 4628 M
63 0 V
5918 0 R
-63 0 V
-6002 0 R
( 101.116) Rshow
1.000 UL
LT0
0.50 0.50 0.50 C 1.000 UL
LTa
0.50 0.50 0.50 C 966 4658 M
5981 0 V
stroke
LT0
0.50 0.50 0.50 C 966 4658 M
63 0 V
5918 0 R
-63 0 V
-6002 0 R
( 101.823) Rshow
1.000 UL
LT0
0.50 0.50 0.50 C 1.000 UL
LTa
0.50 0.50 0.50 C 966 4689 M
5981 0 V
stroke
LT0
0.50 0.50 0.50 C 966 4689 M
63 0 V
5918 0 R
-63 0 V
-6002 0 R
( 102.53) Rshow
1.000 UL
LT0
0.50 0.50 0.50 C 1.000 UL
LTa
0.50 0.50 0.50 C 966 4719 M
5981 0 V
stroke
LT0
0.50 0.50 0.50 C 966 4719 M
63 0 V
5918 0 R
-63 0 V
-6002 0 R
( 103.237) Rshow
1.000 UL
LT0
0.50 0.50 0.50 C 1.000 UL
LTa
0.50 0.50 0.50 C 966 4749 M
5981 0 V
stroke
LT0
0.50 0.50 0.50 C 966 4749 M
63 0 V
5918 0 R
-63 0 V
-6002 0 R
( 103.945) Rshow
1.000 UL
LT0
0.50 0.50 0.50 C 1.000 UL
LTa
0.50 0.50 0.50 C 966 4780 M
5981 0 V
stroke
LT0
0.50 0.50 0.50 C 966 4780 M
63 0 V
5918 0 R
-63 0 V
-6002 0 R
( 104.652) Rshow
1.000 UL
LT0
0.50 0.50 0.50 C 1.000 UL
LTa
0.50 0.50 0.50 C 966 4810 M
5981 0 V
stroke
LT0
0.50 0.50 0.50 C 966 4810 M
63 0 V
5918 0 R
-63 0 V
-6002 0 R
( 105.359) Rshow
1.000 UL
LT0
0.50 0.50 0.50 C 1.000 UL
LTa
0.50 0.50 0.50 C 966 4841 M
5981 0 V
stroke
LT0
0.50 0.50 0.50 C 966 4841 M
63 0 V
5918 0 R
-63 0 V
-6002 0 R
( 106.066) Rshow
1.000 UL
LT0
0.50 0.50 0.50 C 1.000 UL
LTa
0.50 0.50 0.50 C 966 4871 M
5981 0 V
stroke
LT0
0.50 0.50 0.50 C 966 4871 M
63 0 V
5918 0 R
-63 0 V
-6002 0 R
( 106.773) Rshow
1.000 UL
LT0
0.50 0.50 0.50 C 1.000 UL
LTa
0.50 0.50 0.50 C 966 280 M
0 4591 V
stroke
LT0
0.50 0.50 0.50 C 966 280 M
0 63 V
0 4528 R
0 -63 V
966 140 M
( 0) Cshow
1.000 UL
LT0
0.50 0.50 0.50 C 1.000 UL
LTa
0.50 0.50 0.50 C 1006 280 M
0 4591 V
stroke
LT0
0.50 0.50 0.50 C 1006 280 M
0 63 V
0 4528 R
0 -63 V
0 -4668 R
( 0.707106) Cshow
1.000 UL
LT0
0.50 0.50 0.50 C 1.000 UL
LTa
0.50 0.50 0.50 C 1045 280 M
0 4591 V
stroke
LT0
0.50 0.50 0.50 C 1045 280 M
0 63 V
0 4528 R
0 -63 V
0 -4668 R
( 1.41421) Cshow
1.000 UL
LT0
0.50 0.50 0.50 C 1.000 UL
LTa
0.50 0.50 0.50 C 1085 280 M
0 4591 V
stroke
LT0
0.50 0.50 0.50 C 1085 280 M
0 63 V
0 4528 R
0 -63 V
0 -4668 R
( 2.12132) Cshow
1.000 UL
LT0
0.50 0.50 0.50 C 1.000 UL
LTa
0.50 0.50 0.50 C 1124 280 M
0 4591 V
stroke
LT0
0.50 0.50 0.50 C 1124 280 M
0 63 V
0 4528 R
0 -63 V
0 -4668 R
( 2.82842) Cshow
1.000 UL
LT0
0.50 0.50 0.50 C 1.000 UL
LTa
0.50 0.50 0.50 C 1164 280 M
0 4591 V
stroke
LT0
0.50 0.50 0.50 C 1164 280 M
0 63 V
0 4528 R
0 -63 V
0 -4668 R
( 3.53553) Cshow
1.000 UL
LT0
0.50 0.50 0.50 C 1.000 UL
LTa
0.50 0.50 0.50 C 1204 280 M
0 4591 V
stroke
LT0
0.50 0.50 0.50 C 1204 280 M
0 63 V
0 4528 R
0 -63 V
0 -4668 R
( 4.24264) Cshow
1.000 UL
LT0
0.50 0.50 0.50 C 1.000 UL
LTa
0.50 0.50 0.50 C 1243 280 M
0 4591 V
stroke
LT0
0.50 0.50 0.50 C 1243 280 M
0 63 V
0 4528 R
0 -63 V
0 -4668 R
( 4.94974) Cshow
1.000 UL
LT0
0.50 0.50 0.50 C 1.000 UL
LTa
0.50 0.50 0.50 C 1283 280 M
0 4591 V
stroke
LT0
0.50 0.50 0.50 C 1283 280 M
0 63 V
0 4528 R
0 -63 V
0 -4668 R
( 5.65685) Cshow
1.000 UL
LT0
0.50 0.50 0.50 C 1.000 UL
LTa
0.50 0.50 0.50 C 1322 280 M
0 4591 V
stroke
LT0
0.50 0.50 0.50 C 1322 280 M
0 63 V
0 4528 R
0 -63 V
0 -4668 R
( 6.36395) Cshow
1.000 UL
LT0
0.50 0.50 0.50 C 1.000 UL
LTa
0.50 0.50 0.50 C 1362 280 M
0 4591 V
stroke
LT0
0.50 0.50 0.50 C 1362 280 M
0 63 V
0 4528 R
0 -63 V
0 -4668 R
( 7.07106) Cshow
1.000 UL
LT0
0.50 0.50 0.50 C 1.000 UL
LTa
0.50 0.50 0.50 C 1402 280 M
0 4591 V
stroke
LT0
0.50 0.50 0.50 C 1402 280 M
0 63 V
0 4528 R
0 -63 V
0 -4668 R
( 7.77817) Cshow
1.000 UL
LT0
0.50 0.50 0.50 C 1.000 UL
LTa
0.50 0.50 0.50 C 1441 280 M
0 4591 V
stroke
LT0
0.50 0.50 0.50 C 1441 280 M
0 63 V
0 4528 R
0 -63 V
0 -4668 R
( 8.48527) Cshow
1.000 UL
LT0
0.50 0.50 0.50 C 1.000 UL
LTa
0.50 0.50 0.50 C 1481 280 M
0 4591 V
stroke
LT0
0.50 0.50 0.50 C 1481 280 M
0 63 V
0 4528 R
0 -63 V
0 -4668 R
( 9.19238) Cshow
1.000 UL
LT0
0.50 0.50 0.50 C 1.000 UL
LTa
0.50 0.50 0.50 C 1521 280 M
0 4591 V
stroke
LT0
0.50 0.50 0.50 C 1521 280 M
0 63 V
0 4528 R
0 -63 V
0 -4668 R
( 9.89948) Cshow
1.000 UL
LT0
0.50 0.50 0.50 C 1.000 UL
LTa
0.50 0.50 0.50 C 1560 280 M
0 4591 V
stroke
LT0
0.50 0.50 0.50 C 1560 280 M
0 63 V
0 4528 R
0 -63 V
0 -4668 R
( 10.6066) Cshow
1.000 UL
LT0
0.50 0.50 0.50 C 1.000 UL
LTa
0.50 0.50 0.50 C 1600 280 M
0 4591 V
stroke
LT0
0.50 0.50 0.50 C 1600 280 M
0 63 V
0 4528 R
0 -63 V
0 -4668 R
( 11.3137) Cshow
1.000 UL
LT0
0.50 0.50 0.50 C 1.000 UL
LTa
0.50 0.50 0.50 C 1639 280 M
0 4591 V
stroke
LT0
0.50 0.50 0.50 C 1639 280 M
0 63 V
0 4528 R
0 -63 V
0 -4668 R
( 12.0208) Cshow
1.000 UL
LT0
0.50 0.50 0.50 C 1.000 UL
LTa
0.50 0.50 0.50 C 1679 280 M
0 4591 V
stroke
LT0
0.50 0.50 0.50 C 1679 280 M
0 63 V
0 4528 R
0 -63 V
0 -4668 R
( 12.7279) Cshow
1.000 UL
LT0
0.50 0.50 0.50 C 1.000 UL
LTa
0.50 0.50 0.50 C 1719 280 M
0 4591 V
stroke
LT0
0.50 0.50 0.50 C 1719 280 M
0 63 V
0 4528 R
0 -63 V
0 -4668 R
( 13.435) Cshow
1.000 UL
LT0
0.50 0.50 0.50 C 1.000 UL
LTa
0.50 0.50 0.50 C 1758 280 M
0 4591 V
stroke
LT0
0.50 0.50 0.50 C 1758 280 M
0 63 V
0 4528 R
0 -63 V
0 -4668 R
( 14.1421) Cshow
1.000 UL
LT0
0.50 0.50 0.50 C 1.000 UL
LTa
0.50 0.50 0.50 C 1798 280 M
0 4591 V
stroke
LT0
0.50 0.50 0.50 C 1798 280 M
0 63 V
0 4528 R
0 -63 V
0 -4668 R
( 14.8492) Cshow
1.000 UL
LT0
0.50 0.50 0.50 C 1.000 UL
LTa
0.50 0.50 0.50 C 1837 280 M
0 4591 V
stroke
LT0
0.50 0.50 0.50 C 1837 280 M
0 63 V
0 4528 R
0 -63 V
0 -4668 R
( 15.5563) Cshow
1.000 UL
LT0
0.50 0.50 0.50 C 1.000 UL
LTa
0.50 0.50 0.50 C 1877 280 M
0 4591 V
stroke
LT0
0.50 0.50 0.50 C 1877 280 M
0 63 V
0 4528 R
0 -63 V
0 -4668 R
( 16.2634) Cshow
1.000 UL
LT0
0.50 0.50 0.50 C 1.000 UL
LTa
0.50 0.50 0.50 C 1917 280 M
0 4591 V
stroke
LT0
0.50 0.50 0.50 C 1917 280 M
0 63 V
0 4528 R
0 -63 V
0 -4668 R
( 16.9705) Cshow
1.000 UL
LT0
0.50 0.50 0.50 C 1.000 UL
LTa
0.50 0.50 0.50 C 1956 280 M
0 4591 V
stroke
LT0
0.50 0.50 0.50 C 1956 280 M
0 63 V
0 4528 R
0 -63 V
0 -4668 R
( 17.6776) Cshow
1.000 UL
LT0
0.50 0.50 0.50 C 1.000 UL
LTa
0.50 0.50 0.50 C 1996 280 M
0 4591 V
stroke
LT0
0.50 0.50 0.50 C 1996 280 M
0 63 V
0 4528 R
0 -63 V
0 -4668 R
( 18.3848) Cshow
1.000 UL
LT0
0.50 0.50 0.50 C 1.000 UL
LTa
0.50 0.50 0.50 C 2035 280 M
0 4591 V
stroke
LT0
0.50 0.50 0.50 C 2035 280 M
0 63 V
0 4528 R
0 -63 V
0 -4668 R
( 19.0919) Cshow
1.000 UL
LT0
0.50 0.50 0.50 C 1.000 UL
LTa
0.50 0.50 0.50 C 2075 280 M
0 4591 V
stroke
LT0
0.50 0.50 0.50 C 2075 280 M
0 63 V
0 4528 R
0 -63 V
0 -4668 R
( 19.799) Cshow
1.000 UL
LT0
0.50 0.50 0.50 C 1.000 UL
LTa
0.50 0.50 0.50 C 2115 280 M
0 4591 V
stroke
LT0
0.50 0.50 0.50 C 2115 280 M
0 63 V
0 4528 R
0 -63 V
0 -4668 R
( 20.5061) Cshow
1.000 UL
LT0
0.50 0.50 0.50 C 1.000 UL
LTa
0.50 0.50 0.50 C 2154 280 M
0 4591 V
stroke
LT0
0.50 0.50 0.50 C 2154 280 M
0 63 V
0 4528 R
0 -63 V
0 -4668 R
( 21.2132) Cshow
1.000 UL
LT0
0.50 0.50 0.50 C 1.000 UL
LTa
0.50 0.50 0.50 C 2194 280 M
0 4591 V
stroke
LT0
0.50 0.50 0.50 C 2194 280 M
0 63 V
0 4528 R
0 -63 V
0 -4668 R
( 21.9203) Cshow
1.000 UL
LT0
0.50 0.50 0.50 C 1.000 UL
LTa
0.50 0.50 0.50 C 2233 280 M
0 4591 V
stroke
LT0
0.50 0.50 0.50 C 2233 280 M
0 63 V
0 4528 R
0 -63 V
0 -4668 R
( 22.6274) Cshow
1.000 UL
LT0
0.50 0.50 0.50 C 1.000 UL
LTa
0.50 0.50 0.50 C 2273 280 M
0 4591 V
stroke
LT0
0.50 0.50 0.50 C 2273 280 M
0 63 V
0 4528 R
0 -63 V
0 -4668 R
( 23.3345) Cshow
1.000 UL
LT0
0.50 0.50 0.50 C 1.000 UL
LTa
0.50 0.50 0.50 C 2313 280 M
0 4591 V
stroke
LT0
0.50 0.50 0.50 C 2313 280 M
0 63 V
0 4528 R
0 -63 V
0 -4668 R
( 24.0416) Cshow
1.000 UL
LT0
0.50 0.50 0.50 C 1.000 UL
LTa
0.50 0.50 0.50 C 2352 280 M
0 4591 V
stroke
LT0
0.50 0.50 0.50 C 2352 280 M
0 63 V
0 4528 R
0 -63 V
0 -4668 R
( 24.7487) Cshow
1.000 UL
LT0
0.50 0.50 0.50 C 1.000 UL
LTa
0.50 0.50 0.50 C 2392 280 M
0 4591 V
stroke
LT0
0.50 0.50 0.50 C 2392 280 M
0 63 V
0 4528 R
0 -63 V
0 -4668 R
( 25.4558) Cshow
1.000 UL
LT0
0.50 0.50 0.50 C 1.000 UL
LTa
0.50 0.50 0.50 C 2432 280 M
0 4591 V
stroke
LT0
0.50 0.50 0.50 C 2432 280 M
0 63 V
0 4528 R
0 -63 V
0 -4668 R
( 26.1629) Cshow
1.000 UL
LT0
0.50 0.50 0.50 C 1.000 UL
LTa
0.50 0.50 0.50 C 2471 280 M
0 4591 V
stroke
LT0
0.50 0.50 0.50 C 2471 280 M
0 63 V
0 4528 R
0 -63 V
0 -4668 R
( 26.87) Cshow
1.000 UL
LT0
0.50 0.50 0.50 C 1.000 UL
LTa
0.50 0.50 0.50 C 2511 280 M
0 4591 V
stroke
LT0
0.50 0.50 0.50 C 2511 280 M
0 63 V
0 4528 R
0 -63 V
0 -4668 R
( 27.5771) Cshow
1.000 UL
LT0
0.50 0.50 0.50 C 1.000 UL
LTa
0.50 0.50 0.50 C 2550 280 M
0 4591 V
stroke
LT0
0.50 0.50 0.50 C 2550 280 M
0 63 V
0 4528 R
0 -63 V
0 -4668 R
( 28.2842) Cshow
1.000 UL
LT0
0.50 0.50 0.50 C 1.000 UL
LTa
0.50 0.50 0.50 C 2590 280 M
0 4591 V
stroke
LT0
0.50 0.50 0.50 C 2590 280 M
0 63 V
0 4528 R
0 -63 V
0 -4668 R
( 28.9913) Cshow
1.000 UL
LT0
0.50 0.50 0.50 C 1.000 UL
LTa
0.50 0.50 0.50 C 2630 280 M
0 4591 V
stroke
LT0
0.50 0.50 0.50 C 2630 280 M
0 63 V
0 4528 R
0 -63 V
0 -4668 R
( 29.6985) Cshow
1.000 UL
LT0
0.50 0.50 0.50 C 1.000 UL
LTa
0.50 0.50 0.50 C 2669 280 M
0 4591 V
stroke
LT0
0.50 0.50 0.50 C 2669 280 M
0 63 V
0 4528 R
0 -63 V
0 -4668 R
( 30.4056) Cshow
1.000 UL
LT0
0.50 0.50 0.50 C 1.000 UL
LTa
0.50 0.50 0.50 C 2709 280 M
0 4591 V
stroke
LT0
0.50 0.50 0.50 C 2709 280 M
0 63 V
0 4528 R
0 -63 V
0 -4668 R
( 31.1127) Cshow
1.000 UL
LT0
0.50 0.50 0.50 C 1.000 UL
LTa
0.50 0.50 0.50 C 2748 280 M
0 4591 V
stroke
LT0
0.50 0.50 0.50 C 2748 280 M
0 63 V
0 4528 R
0 -63 V
0 -4668 R
( 31.8198) Cshow
1.000 UL
LT0
0.50 0.50 0.50 C 1.000 UL
LTa
0.50 0.50 0.50 C 2788 280 M
0 4591 V
stroke
LT0
0.50 0.50 0.50 C 2788 280 M
0 63 V
0 4528 R
0 -63 V
0 -4668 R
( 32.5269) Cshow
1.000 UL
LT0
0.50 0.50 0.50 C 1.000 UL
LTa
0.50 0.50 0.50 C 2828 280 M
0 4591 V
stroke
LT0
0.50 0.50 0.50 C 2828 280 M
0 63 V
0 4528 R
0 -63 V
0 -4668 R
( 33.234) Cshow
1.000 UL
LT0
0.50 0.50 0.50 C 1.000 UL
LTa
0.50 0.50 0.50 C 2867 280 M
0 4591 V
stroke
LT0
0.50 0.50 0.50 C 2867 280 M
0 63 V
0 4528 R
0 -63 V
0 -4668 R
( 33.9411) Cshow
1.000 UL
LT0
0.50 0.50 0.50 C 1.000 UL
LTa
0.50 0.50 0.50 C 2907 280 M
0 4591 V
stroke
LT0
0.50 0.50 0.50 C 2907 280 M
0 63 V
0 4528 R
0 -63 V
0 -4668 R
( 34.6482) Cshow
1.000 UL
LT0
0.50 0.50 0.50 C 1.000 UL
LTa
0.50 0.50 0.50 C 2946 280 M
0 4591 V
stroke
LT0
0.50 0.50 0.50 C 2946 280 M
0 63 V
0 4528 R
0 -63 V
0 -4668 R
( 35.3553) Cshow
1.000 UL
LT0
0.50 0.50 0.50 C 1.000 UL
LTa
0.50 0.50 0.50 C 2986 280 M
0 4591 V
stroke
LT0
0.50 0.50 0.50 C 2986 280 M
0 63 V
0 4528 R
0 -63 V
0 -4668 R
( 36.0624) Cshow
1.000 UL
LT0
0.50 0.50 0.50 C 1.000 UL
LTa
0.50 0.50 0.50 C 3026 280 M
0 4591 V
stroke
LT0
0.50 0.50 0.50 C 3026 280 M
0 63 V
0 4528 R
0 -63 V
0 -4668 R
( 36.7695) Cshow
1.000 UL
LT0
0.50 0.50 0.50 C 1.000 UL
LTa
0.50 0.50 0.50 C 3065 280 M
0 4591 V
stroke
LT0
0.50 0.50 0.50 C 3065 280 M
0 63 V
0 4528 R
0 -63 V
0 -4668 R
( 37.4766) Cshow
1.000 UL
LT0
0.50 0.50 0.50 C 1.000 UL
LTa
0.50 0.50 0.50 C 3105 280 M
0 4591 V
stroke
LT0
0.50 0.50 0.50 C 3105 280 M
0 63 V
0 4528 R
0 -63 V
0 -4668 R
( 38.1837) Cshow
1.000 UL
LT0
0.50 0.50 0.50 C 1.000 UL
LTa
0.50 0.50 0.50 C 3145 280 M
0 4591 V
stroke
LT0
0.50 0.50 0.50 C 3145 280 M
0 63 V
0 4528 R
0 -63 V
0 -4668 R
( 38.8908) Cshow
1.000 UL
LT0
0.50 0.50 0.50 C 1.000 UL
LTa
0.50 0.50 0.50 C 3184 280 M
0 4591 V
stroke
LT0
0.50 0.50 0.50 C 3184 280 M
0 63 V
0 4528 R
0 -63 V
0 -4668 R
( 39.5979) Cshow
1.000 UL
LT0
0.50 0.50 0.50 C 1.000 UL
LTa
0.50 0.50 0.50 C 3224 280 M
0 4591 V
stroke
LT0
0.50 0.50 0.50 C 3224 280 M
0 63 V
0 4528 R
0 -63 V
0 -4668 R
( 40.305) Cshow
1.000 UL
LT0
0.50 0.50 0.50 C 1.000 UL
LTa
0.50 0.50 0.50 C 3263 280 M
0 4591 V
stroke
LT0
0.50 0.50 0.50 C 3263 280 M
0 63 V
0 4528 R
0 -63 V
0 -4668 R
( 41.0121) Cshow
1.000 UL
LT0
0.50 0.50 0.50 C 1.000 UL
LTa
0.50 0.50 0.50 C 3303 280 M
0 4591 V
stroke
LT0
0.50 0.50 0.50 C 3303 280 M
0 63 V
0 4528 R
0 -63 V
0 -4668 R
( 41.7193) Cshow
1.000 UL
LT0
0.50 0.50 0.50 C 1.000 UL
LTa
0.50 0.50 0.50 C 3343 280 M
0 4591 V
stroke
LT0
0.50 0.50 0.50 C 3343 280 M
0 63 V
0 4528 R
0 -63 V
0 -4668 R
( 42.4264) Cshow
1.000 UL
LT0
0.50 0.50 0.50 C 1.000 UL
LTa
0.50 0.50 0.50 C 3382 280 M
0 4591 V
stroke
LT0
0.50 0.50 0.50 C 3382 280 M
0 63 V
0 4528 R
0 -63 V
0 -4668 R
( 43.1335) Cshow
1.000 UL
LT0
0.50 0.50 0.50 C 1.000 UL
LTa
0.50 0.50 0.50 C 3422 280 M
0 4591 V
stroke
LT0
0.50 0.50 0.50 C 3422 280 M
0 63 V
0 4528 R
0 -63 V
0 -4668 R
( 43.8406) Cshow
1.000 UL
LT0
0.50 0.50 0.50 C 1.000 UL
LTa
0.50 0.50 0.50 C 3461 280 M
0 4591 V
stroke
LT0
0.50 0.50 0.50 C 3461 280 M
0 63 V
0 4528 R
0 -63 V
0 -4668 R
( 44.5477) Cshow
1.000 UL
LT0
0.50 0.50 0.50 C 1.000 UL
LTa
0.50 0.50 0.50 C 3501 280 M
0 4591 V
stroke
LT0
0.50 0.50 0.50 C 3501 280 M
0 63 V
0 4528 R
0 -63 V
0 -4668 R
( 45.2548) Cshow
1.000 UL
LT0
0.50 0.50 0.50 C 1.000 UL
LTa
0.50 0.50 0.50 C 3541 280 M
0 4591 V
stroke
LT0
0.50 0.50 0.50 C 3541 280 M
0 63 V
0 4528 R
0 -63 V
0 -4668 R
( 45.9619) Cshow
1.000 UL
LT0
0.50 0.50 0.50 C 1.000 UL
LTa
0.50 0.50 0.50 C 3580 280 M
0 4591 V
stroke
LT0
0.50 0.50 0.50 C 3580 280 M
0 63 V
0 4528 R
0 -63 V
0 -4668 R
( 46.669) Cshow
1.000 UL
LT0
0.50 0.50 0.50 C 1.000 UL
LTa
0.50 0.50 0.50 C 3620 280 M
0 4591 V
stroke
LT0
0.50 0.50 0.50 C 3620 280 M
0 63 V
0 4528 R
0 -63 V
0 -4668 R
( 47.3761) Cshow
1.000 UL
LT0
0.50 0.50 0.50 C 1.000 UL
LTa
0.50 0.50 0.50 C 3659 280 M
0 4591 V
stroke
LT0
0.50 0.50 0.50 C 3659 280 M
0 63 V
0 4528 R
0 -63 V
0 -4668 R
( 48.0832) Cshow
1.000 UL
LT0
0.50 0.50 0.50 C 1.000 UL
LTa
0.50 0.50 0.50 C 3699 280 M
0 4591 V
stroke
LT0
0.50 0.50 0.50 C 3699 280 M
0 63 V
0 4528 R
0 -63 V
0 -4668 R
( 48.7903) Cshow
1.000 UL
LT0
0.50 0.50 0.50 C 1.000 UL
LTa
0.50 0.50 0.50 C 3739 280 M
0 4591 V
stroke
LT0
0.50 0.50 0.50 C 3739 280 M
0 63 V
0 4528 R
0 -63 V
0 -4668 R
( 49.4974) Cshow
1.000 UL
LT0
0.50 0.50 0.50 C 1.000 UL
LTa
0.50 0.50 0.50 C 3778 280 M
0 4591 V
stroke
LT0
0.50 0.50 0.50 C 3778 280 M
0 63 V
0 4528 R
0 -63 V
0 -4668 R
( 50.2045) Cshow
1.000 UL
LT0
0.50 0.50 0.50 C 1.000 UL
LTa
0.50 0.50 0.50 C 3818 280 M
0 4591 V
stroke
LT0
0.50 0.50 0.50 C 3818 280 M
0 63 V
0 4528 R
0 -63 V
0 -4668 R
( 50.9116) Cshow
1.000 UL
LT0
0.50 0.50 0.50 C 1.000 UL
LTa
0.50 0.50 0.50 C 3857 280 M
0 4591 V
stroke
LT0
0.50 0.50 0.50 C 3857 280 M
0 63 V
0 4528 R
0 -63 V
0 -4668 R
( 51.6187) Cshow
1.000 UL
LT0
0.50 0.50 0.50 C 1.000 UL
LTa
0.50 0.50 0.50 C 3897 280 M
0 4591 V
stroke
LT0
0.50 0.50 0.50 C 3897 280 M
0 63 V
0 4528 R
0 -63 V
0 -4668 R
( 52.3258) Cshow
1.000 UL
LT0
0.50 0.50 0.50 C 1.000 UL
LTa
0.50 0.50 0.50 C 3937 280 M
0 4591 V
stroke
LT0
0.50 0.50 0.50 C 3937 280 M
0 63 V
0 4528 R
0 -63 V
0 -4668 R
( 53.033) Cshow
1.000 UL
LT0
0.50 0.50 0.50 C 1.000 UL
LTa
0.50 0.50 0.50 C 3976 280 M
0 4591 V
stroke
LT0
0.50 0.50 0.50 C 3976 280 M
0 63 V
0 4528 R
0 -63 V
0 -4668 R
( 53.7401) Cshow
1.000 UL
LT0
0.50 0.50 0.50 C 1.000 UL
LTa
0.50 0.50 0.50 C 4016 280 M
0 4591 V
stroke
LT0
0.50 0.50 0.50 C 4016 280 M
0 63 V
0 4528 R
0 -63 V
0 -4668 R
( 54.4472) Cshow
1.000 UL
LT0
0.50 0.50 0.50 C 1.000 UL
LTa
0.50 0.50 0.50 C 4056 280 M
0 4591 V
stroke
LT0
0.50 0.50 0.50 C 4056 280 M
0 63 V
0 4528 R
0 -63 V
0 -4668 R
( 55.1543) Cshow
1.000 UL
LT0
0.50 0.50 0.50 C 1.000 UL
LTa
0.50 0.50 0.50 C 4095 280 M
0 4591 V
stroke
LT0
0.50 0.50 0.50 C 4095 280 M
0 63 V
0 4528 R
0 -63 V
0 -4668 R
( 55.8614) Cshow
1.000 UL
LT0
0.50 0.50 0.50 C 1.000 UL
LTa
0.50 0.50 0.50 C 4135 280 M
0 4591 V
stroke
LT0
0.50 0.50 0.50 C 4135 280 M
0 63 V
0 4528 R
0 -63 V
0 -4668 R
( 56.5685) Cshow
1.000 UL
LT0
0.50 0.50 0.50 C 1.000 UL
LTa
0.50 0.50 0.50 C 4174 280 M
0 4591 V
stroke
LT0
0.50 0.50 0.50 C 4174 280 M
0 63 V
0 4528 R
0 -63 V
0 -4668 R
( 57.2756) Cshow
1.000 UL
LT0
0.50 0.50 0.50 C 1.000 UL
LTa
0.50 0.50 0.50 C 4214 280 M
0 4591 V
stroke
LT0
0.50 0.50 0.50 C 4214 280 M
0 63 V
0 4528 R
0 -63 V
0 -4668 R
( 57.9827) Cshow
1.000 UL
LT0
0.50 0.50 0.50 C 1.000 UL
LTa
0.50 0.50 0.50 C 4254 280 M
0 4591 V
stroke
LT0
0.50 0.50 0.50 C 4254 280 M
0 63 V
0 4528 R
0 -63 V
0 -4668 R
( 58.6898) Cshow
1.000 UL
LT0
0.50 0.50 0.50 C 1.000 UL
LTa
0.50 0.50 0.50 C 4293 280 M
0 4591 V
stroke
LT0
0.50 0.50 0.50 C 4293 280 M
0 63 V
0 4528 R
0 -63 V
0 -4668 R
( 59.3969) Cshow
1.000 UL
LT0
0.50 0.50 0.50 C 1.000 UL
LTa
0.50 0.50 0.50 C 4333 280 M
0 4591 V
stroke
LT0
0.50 0.50 0.50 C 4333 280 M
0 63 V
0 4528 R
0 -63 V
0 -4668 R
( 60.104) Cshow
1.000 UL
LT0
0.50 0.50 0.50 C 1.000 UL
LTa
0.50 0.50 0.50 C 4372 280 M
0 4591 V
stroke
LT0
0.50 0.50 0.50 C 4372 280 M
0 63 V
0 4528 R
0 -63 V
0 -4668 R
( 60.8111) Cshow
1.000 UL
LT0
0.50 0.50 0.50 C 1.000 UL
LTa
0.50 0.50 0.50 C 4412 280 M
0 4591 V
stroke
LT0
0.50 0.50 0.50 C 4412 280 M
0 63 V
0 4528 R
0 -63 V
0 -4668 R
( 61.5182) Cshow
1.000 UL
LT0
0.50 0.50 0.50 C 1.000 UL
LTa
0.50 0.50 0.50 C 4452 280 M
0 4591 V
stroke
LT0
0.50 0.50 0.50 C 4452 280 M
0 63 V
0 4528 R
0 -63 V
0 -4668 R
( 62.2253) Cshow
1.000 UL
LT0
0.50 0.50 0.50 C 1.000 UL
LTa
0.50 0.50 0.50 C 4491 280 M
0 4591 V
stroke
LT0
0.50 0.50 0.50 C 4491 280 M
0 63 V
0 4528 R
0 -63 V
0 -4668 R
( 62.9324) Cshow
1.000 UL
LT0
0.50 0.50 0.50 C 1.000 UL
LTa
0.50 0.50 0.50 C 4531 280 M
0 4591 V
stroke
LT0
0.50 0.50 0.50 C 4531 280 M
0 63 V
0 4528 R
0 -63 V
0 -4668 R
( 63.6395) Cshow
1.000 UL
LT0
0.50 0.50 0.50 C 1.000 UL
LTa
0.50 0.50 0.50 C 4570 280 M
0 4591 V
stroke
LT0
0.50 0.50 0.50 C 4570 280 M
0 63 V
0 4528 R
0 -63 V
0 -4668 R
( 64.3466) Cshow
1.000 UL
LT0
0.50 0.50 0.50 C 1.000 UL
LTa
0.50 0.50 0.50 C 4610 280 M
0 4591 V
stroke
LT0
0.50 0.50 0.50 C 4610 280 M
0 63 V
0 4528 R
0 -63 V
0 -4668 R
( 65.0538) Cshow
1.000 UL
LT0
0.50 0.50 0.50 C 1.000 UL
LTa
0.50 0.50 0.50 C 4650 280 M
0 4591 V
stroke
LT0
0.50 0.50 0.50 C 4650 280 M
0 63 V
0 4528 R
0 -63 V
0 -4668 R
( 65.7609) Cshow
1.000 UL
LT0
0.50 0.50 0.50 C 1.000 UL
LTa
0.50 0.50 0.50 C 4689 280 M
0 4591 V
stroke
LT0
0.50 0.50 0.50 C 4689 280 M
0 63 V
0 4528 R
0 -63 V
0 -4668 R
( 66.468) Cshow
1.000 UL
LT0
0.50 0.50 0.50 C 1.000 UL
LTa
0.50 0.50 0.50 C 4729 280 M
0 4591 V
stroke
LT0
0.50 0.50 0.50 C 4729 280 M
0 63 V
0 4528 R
0 -63 V
0 -4668 R
( 67.1751) Cshow
1.000 UL
LT0
0.50 0.50 0.50 C 1.000 UL
LTa
0.50 0.50 0.50 C 4768 280 M
0 4591 V
stroke
LT0
0.50 0.50 0.50 C 4768 280 M
0 63 V
0 4528 R
0 -63 V
0 -4668 R
( 67.8822) Cshow
1.000 UL
LT0
0.50 0.50 0.50 C 1.000 UL
LTa
0.50 0.50 0.50 C 4808 280 M
0 4591 V
stroke
LT0
0.50 0.50 0.50 C 4808 280 M
0 63 V
0 4528 R
0 -63 V
0 -4668 R
( 68.5893) Cshow
1.000 UL
LT0
0.50 0.50 0.50 C 1.000 UL
LTa
0.50 0.50 0.50 C 4848 280 M
0 4591 V
stroke
LT0
0.50 0.50 0.50 C 4848 280 M
0 63 V
0 4528 R
0 -63 V
0 -4668 R
( 69.2964) Cshow
1.000 UL
LT0
0.50 0.50 0.50 C 1.000 UL
LTa
0.50 0.50 0.50 C 4887 280 M
0 4591 V
stroke
LT0
0.50 0.50 0.50 C 4887 280 M
0 63 V
0 4528 R
0 -63 V
0 -4668 R
( 70.0035) Cshow
1.000 UL
LT0
0.50 0.50 0.50 C 1.000 UL
LTa
0.50 0.50 0.50 C 4927 280 M
0 4591 V
stroke
LT0
0.50 0.50 0.50 C 4927 280 M
0 63 V
0 4528 R
0 -63 V
0 -4668 R
( 70.7106) Cshow
1.000 UL
LT0
0.50 0.50 0.50 C 1.000 UL
LTa
0.50 0.50 0.50 C 4967 280 M
0 4591 V
stroke
LT0
0.50 0.50 0.50 C 4967 280 M
0 63 V
0 4528 R
0 -63 V
0 -4668 R
( 71.4177) Cshow
1.000 UL
LT0
0.50 0.50 0.50 C 1.000 UL
LTa
0.50 0.50 0.50 C 5006 280 M
0 4591 V
stroke
LT0
0.50 0.50 0.50 C 5006 280 M
0 63 V
0 4528 R
0 -63 V
0 -4668 R
( 72.1248) Cshow
1.000 UL
LT0
0.50 0.50 0.50 C 1.000 UL
LTa
0.50 0.50 0.50 C 5046 280 M
0 4591 V
stroke
LT0
0.50 0.50 0.50 C 5046 280 M
0 63 V
0 4528 R
0 -63 V
0 -4668 R
( 72.8319) Cshow
1.000 UL
LT0
0.50 0.50 0.50 C 1.000 UL
LTa
0.50 0.50 0.50 C 5085 280 M
0 4591 V
stroke
LT0
0.50 0.50 0.50 C 5085 280 M
0 63 V
0 4528 R
0 -63 V
0 -4668 R
( 73.539) Cshow
1.000 UL
LT0
0.50 0.50 0.50 C 1.000 UL
LTa
0.50 0.50 0.50 C 5125 280 M
0 4591 V
stroke
LT0
0.50 0.50 0.50 C 5125 280 M
0 63 V
0 4528 R
0 -63 V
0 -4668 R
( 74.2461) Cshow
1.000 UL
LT0
0.50 0.50 0.50 C 1.000 UL
LTa
0.50 0.50 0.50 C 5165 280 M
0 4591 V
stroke
LT0
0.50 0.50 0.50 C 5165 280 M
0 63 V
0 4528 R
0 -63 V
0 -4668 R
( 74.9532) Cshow
1.000 UL
LT0
0.50 0.50 0.50 C 1.000 UL
LTa
0.50 0.50 0.50 C 5204 280 M
0 4591 V
stroke
LT0
0.50 0.50 0.50 C 5204 280 M
0 63 V
0 4528 R
0 -63 V
0 -4668 R
( 75.6603) Cshow
1.000 UL
LT0
0.50 0.50 0.50 C 1.000 UL
LTa
0.50 0.50 0.50 C 5244 280 M
0 4591 V
stroke
LT0
0.50 0.50 0.50 C 5244 280 M
0 63 V
0 4528 R
0 -63 V
0 -4668 R
( 76.3674) Cshow
1.000 UL
LT0
0.50 0.50 0.50 C 1.000 UL
LTa
0.50 0.50 0.50 C 5283 280 M
0 4591 V
stroke
LT0
0.50 0.50 0.50 C 5283 280 M
0 63 V
0 4528 R
0 -63 V
0 -4668 R
( 77.0746) Cshow
1.000 UL
LT0
0.50 0.50 0.50 C 1.000 UL
LTa
0.50 0.50 0.50 C 5323 280 M
0 4591 V
stroke
LT0
0.50 0.50 0.50 C 5323 280 M
0 63 V
0 4528 R
0 -63 V
0 -4668 R
( 77.7817) Cshow
1.000 UL
LT0
0.50 0.50 0.50 C 1.000 UL
LTa
0.50 0.50 0.50 C 5363 280 M
0 4591 V
stroke
LT0
0.50 0.50 0.50 C 5363 280 M
0 63 V
0 4528 R
0 -63 V
0 -4668 R
( 78.4888) Cshow
1.000 UL
LT0
0.50 0.50 0.50 C 1.000 UL
LTa
0.50 0.50 0.50 C 5402 280 M
0 4591 V
stroke
LT0
0.50 0.50 0.50 C 5402 280 M
0 63 V
0 4528 R
0 -63 V
0 -4668 R
( 79.1959) Cshow
1.000 UL
LT0
0.50 0.50 0.50 C 1.000 UL
LTa
0.50 0.50 0.50 C 5442 280 M
0 4591 V
stroke
LT0
0.50 0.50 0.50 C 5442 280 M
0 63 V
0 4528 R
0 -63 V
0 -4668 R
( 79.903) Cshow
1.000 UL
LT0
0.50 0.50 0.50 C 1.000 UL
LTa
0.50 0.50 0.50 C 5481 280 M
0 4591 V
stroke
LT0
0.50 0.50 0.50 C 5481 280 M
0 63 V
0 4528 R
0 -63 V
0 -4668 R
( 80.6101) Cshow
1.000 UL
LT0
0.50 0.50 0.50 C 1.000 UL
LTa
0.50 0.50 0.50 C 5521 280 M
0 4591 V
stroke
LT0
0.50 0.50 0.50 C 5521 280 M
0 63 V
0 4528 R
0 -63 V
0 -4668 R
( 81.3172) Cshow
1.000 UL
LT0
0.50 0.50 0.50 C 1.000 UL
LTa
0.50 0.50 0.50 C 5561 280 M
0 4591 V
stroke
LT0
0.50 0.50 0.50 C 5561 280 M
0 63 V
0 4528 R
0 -63 V
0 -4668 R
( 82.0243) Cshow
1.000 UL
LT0
0.50 0.50 0.50 C 1.000 UL
LTa
0.50 0.50 0.50 C 5600 280 M
0 4591 V
stroke
LT0
0.50 0.50 0.50 C 5600 280 M
0 63 V
0 4528 R
0 -63 V
0 -4668 R
( 82.7314) Cshow
1.000 UL
LT0
0.50 0.50 0.50 C 1.000 UL
LTa
0.50 0.50 0.50 C 5640 280 M
0 4591 V
stroke
LT0
0.50 0.50 0.50 C 5640 280 M
0 63 V
0 4528 R
0 -63 V
0 -4668 R
( 83.4385) Cshow
1.000 UL
LT0
0.50 0.50 0.50 C 1.000 UL
LTa
0.50 0.50 0.50 C 5680 280 M
0 4591 V
stroke
LT0
0.50 0.50 0.50 C 5680 280 M
0 63 V
0 4528 R
0 -63 V
0 -4668 R
( 84.1456) Cshow
1.000 UL
LT0
0.50 0.50 0.50 C 1.000 UL
LTa
0.50 0.50 0.50 C 5719 280 M
0 4591 V
stroke
LT0
0.50 0.50 0.50 C 5719 280 M
0 63 V
0 4528 R
0 -63 V
0 -4668 R
( 84.8527) Cshow
1.000 UL
LT0
0.50 0.50 0.50 C 1.000 UL
LTa
0.50 0.50 0.50 C 5759 280 M
0 4591 V
stroke
LT0
0.50 0.50 0.50 C 5759 280 M
0 63 V
0 4528 R
0 -63 V
0 -4668 R
( 85.5598) Cshow
1.000 UL
LT0
0.50 0.50 0.50 C 1.000 UL
LTa
0.50 0.50 0.50 C 5798 280 M
0 4591 V
stroke
LT0
0.50 0.50 0.50 C 5798 280 M
0 63 V
0 4528 R
0 -63 V
0 -4668 R
( 86.2669) Cshow
1.000 UL
LT0
0.50 0.50 0.50 C 1.000 UL
LTa
0.50 0.50 0.50 C 5838 280 M
0 4591 V
stroke
LT0
0.50 0.50 0.50 C 5838 280 M
0 63 V
0 4528 R
0 -63 V
0 -4668 R
( 86.974) Cshow
1.000 UL
LT0
0.50 0.50 0.50 C 1.000 UL
LTa
0.50 0.50 0.50 C 5878 280 M
0 4591 V
stroke
LT0
0.50 0.50 0.50 C 5878 280 M
0 63 V
0 4528 R
0 -63 V
0 -4668 R
( 87.6811) Cshow
1.000 UL
LT0
0.50 0.50 0.50 C 1.000 UL
LTa
0.50 0.50 0.50 C 5917 280 M
0 4591 V
stroke
LT0
0.50 0.50 0.50 C 5917 280 M
0 63 V
0 4528 R
0 -63 V
0 -4668 R
( 88.3882) Cshow
1.000 UL
LT0
0.50 0.50 0.50 C 1.000 UL
LTa
0.50 0.50 0.50 C 5957 280 M
0 4591 V
stroke
LT0
0.50 0.50 0.50 C 5957 280 M
0 63 V
0 4528 R
0 -63 V
0 -4668 R
( 89.0954) Cshow
1.000 UL
LT0
0.50 0.50 0.50 C 1.000 UL
LTa
0.50 0.50 0.50 C 5996 280 M
0 4591 V
stroke
LT0
0.50 0.50 0.50 C 5996 280 M
0 63 V
0 4528 R
0 -63 V
0 -4668 R
( 89.8025) Cshow
1.000 UL
LT0
0.50 0.50 0.50 C 1.000 UL
LTa
0.50 0.50 0.50 C 6036 280 M
0 4591 V
stroke
LT0
0.50 0.50 0.50 C 6036 280 M
0 63 V
0 4528 R
0 -63 V
0 -4668 R
( 90.5096) Cshow
1.000 UL
LT0
0.50 0.50 0.50 C 1.000 UL
LTa
0.50 0.50 0.50 C 6076 280 M
0 4591 V
stroke
LT0
0.50 0.50 0.50 C 6076 280 M
0 63 V
0 4528 R
0 -63 V
0 -4668 R
( 91.2167) Cshow
1.000 UL
LT0
0.50 0.50 0.50 C 1.000 UL
LTa
0.50 0.50 0.50 C 6115 280 M
0 4591 V
stroke
LT0
0.50 0.50 0.50 C 6115 280 M
0 63 V
0 4528 R
0 -63 V
0 -4668 R
( 91.9238) Cshow
1.000 UL
LT0
0.50 0.50 0.50 C 1.000 UL
LTa
0.50 0.50 0.50 C 6155 280 M
0 4591 V
stroke
LT0
0.50 0.50 0.50 C 6155 280 M
0 63 V
0 4528 R
0 -63 V
0 -4668 R
( 92.6309) Cshow
1.000 UL
LT0
0.50 0.50 0.50 C 1.000 UL
LTa
0.50 0.50 0.50 C 6194 280 M
0 4591 V
stroke
LT0
0.50 0.50 0.50 C 6194 280 M
0 63 V
0 4528 R
0 -63 V
0 -4668 R
( 93.338) Cshow
1.000 UL
LT0
0.50 0.50 0.50 C 1.000 UL
LTa
0.50 0.50 0.50 C 6234 280 M
0 4591 V
stroke
LT0
0.50 0.50 0.50 C 6234 280 M
0 63 V
0 4528 R
0 -63 V
0 -4668 R
( 94.0451) Cshow
1.000 UL
LT0
0.50 0.50 0.50 C 1.000 UL
LTa
0.50 0.50 0.50 C 6274 280 M
0 4591 V
stroke
LT0
0.50 0.50 0.50 C 6274 280 M
0 63 V
0 4528 R
0 -63 V
0 -4668 R
( 94.7522) Cshow
1.000 UL
LT0
0.50 0.50 0.50 C 1.000 UL
LTa
0.50 0.50 0.50 C 6313 280 M
0 4591 V
stroke
LT0
0.50 0.50 0.50 C 6313 280 M
0 63 V
0 4528 R
0 -63 V
0 -4668 R
( 95.4593) Cshow
1.000 UL
LT0
0.50 0.50 0.50 C 1.000 UL
LTa
0.50 0.50 0.50 C 6353 280 M
0 4591 V
stroke
LT0
0.50 0.50 0.50 C 6353 280 M
0 63 V
0 4528 R
0 -63 V
0 -4668 R
( 96.1664) Cshow
1.000 UL
LT0
0.50 0.50 0.50 C 1.000 UL
LTa
0.50 0.50 0.50 C 6392 280 M
0 4591 V
stroke
LT0
0.50 0.50 0.50 C 6392 280 M
0 63 V
0 4528 R
0 -63 V
0 -4668 R
( 96.8735) Cshow
1.000 UL
LT0
0.50 0.50 0.50 C 1.000 UL
LTa
0.50 0.50 0.50 C 6432 280 M
0 4591 V
stroke
LT0
0.50 0.50 0.50 C 6432 280 M
0 63 V
0 4528 R
0 -63 V
0 -4668 R
( 97.5806) Cshow
1.000 UL
LT0
0.50 0.50 0.50 C 1.000 UL
LTa
0.50 0.50 0.50 C 6472 280 M
0 4591 V
stroke
LT0
0.50 0.50 0.50 C 6472 280 M
0 63 V
0 4528 R
0 -63 V
0 -4668 R
( 98.2877) Cshow
1.000 UL
LT0
0.50 0.50 0.50 C 1.000 UL
LTa
0.50 0.50 0.50 C 6511 280 M
0 4591 V
stroke
LT0
0.50 0.50 0.50 C 6511 280 M
0 63 V
0 4528 R
0 -63 V
0 -4668 R
( 98.9948) Cshow
1.000 UL
LT0
0.50 0.50 0.50 C 1.000 UL
LTa
0.50 0.50 0.50 C 6551 280 M
0 4591 V
stroke
LT0
0.50 0.50 0.50 C 6551 280 M
0 63 V
0 4528 R
0 -63 V
0 -4668 R
( 99.7019) Cshow
1.000 UL
LT0
0.50 0.50 0.50 C 1.000 UL
LTa
0.50 0.50 0.50 C 6591 280 M
0 4591 V
stroke
LT0
0.50 0.50 0.50 C 6591 280 M
0 63 V
0 4528 R
0 -63 V
0 -4668 R
( 100.409) Cshow
1.000 UL
LT0
0.50 0.50 0.50 C 1.000 UL
LTa
0.50 0.50 0.50 C 6630 280 M
0 4591 V
stroke
LT0
0.50 0.50 0.50 C 6630 280 M
0 63 V
0 4528 R
0 -63 V
0 -4668 R
( 101.116) Cshow
1.000 UL
LT0
0.50 0.50 0.50 C 1.000 UL
LTa
0.50 0.50 0.50 C 6670 280 M
0 4591 V
stroke
LT0
0.50 0.50 0.50 C 6670 280 M
0 63 V
0 4528 R
0 -63 V
0 -4668 R
( 101.823) Cshow
1.000 UL
LT0
0.50 0.50 0.50 C 1.000 UL
LTa
0.50 0.50 0.50 C 6709 280 M
0 4591 V
stroke
LT0
0.50 0.50 0.50 C 6709 280 M
0 63 V
0 4528 R
0 -63 V
0 -4668 R
( 102.53) Cshow
1.000 UL
LT0
0.50 0.50 0.50 C 1.000 UL
LTa
0.50 0.50 0.50 C 6749 280 M
0 4591 V
stroke
LT0
0.50 0.50 0.50 C 6749 280 M
0 63 V
0 4528 R
0 -63 V
0 -4668 R
( 103.237) Cshow
1.000 UL
LT0
0.50 0.50 0.50 C 1.000 UL
LTa
0.50 0.50 0.50 C 6789 280 M
0 4591 V
stroke
LT0
0.50 0.50 0.50 C 6789 280 M
0 63 V
0 4528 R
0 -63 V
0 -4668 R
( 103.945) Cshow
1.000 UL
LT0
0.50 0.50 0.50 C 1.000 UL
LTa
0.50 0.50 0.50 C 6828 280 M
0 4591 V
stroke
LT0
0.50 0.50 0.50 C 6828 280 M
0 63 V
0 4528 R
0 -63 V
0 -4668 R
( 104.652) Cshow
1.000 UL
LT0
0.50 0.50 0.50 C 1.000 UL
LTa
0.50 0.50 0.50 C 6868 280 M
0 4591 V
stroke
LT0
0.50 0.50 0.50 C 6868 280 M
0 63 V
0 4528 R
0 -63 V
0 -4668 R
( 105.359) Cshow
1.000 UL
LT0
0.50 0.50 0.50 C 1.000 UL
LTa
0.50 0.50 0.50 C 6907 280 M
0 4591 V
stroke
LT0
0.50 0.50 0.50 C 6907 280 M
0 63 V
0 4528 R
0 -63 V
0 -4668 R
( 106.066) Cshow
1.000 UL
LT0
0.50 0.50 0.50 C 1.000 UL
LTa
0.50 0.50 0.50 C 6947 280 M
0 4591 V
stroke
LT0
0.50 0.50 0.50 C 6947 280 M
0 63 V
0 4528 R
0 -63 V
0 -4668 R
( 106.773) Cshow
1.000 UL
LT0
0.50 0.50 0.50 C 1.000 UL
LT0
0.50 0.50 0.50 C 966 4871 M
966 280 L
5981 0 V
0 4591 R
-5981 0 R
1.000 UP
stroke
LT0
0.50 0.50 0.50 C % Begin plot #1
1.500 UP
2.000 UL
LT0
0.00 0.00 1.00 C /Helvetica findfont 140 scalefont setfont
/vshift -46 def
1521 341 M
39 0 V
40 0 V
39 0 V
40 0 V
40 0 V
39 0 V
40 0 V
39 0 V
40 0 V
40 0 V
39 0 V
40 0 V
39 0 V
40 0 V
40 0 V
39 0 V
40 0 V
39 0 V
40 0 V
0 30 R
40 0 V
0 31 R
39 0 V
0 60 R
40 0 V
40 0 V
39 0 V
40 0 V
39 0 V
40 0 V
40 0 V
39 0 V
40 0 V
39 0 V
40 0 V
40 0 V
0 31 R
39 0 V
0 91 R
40 0 V
39 0 V
40 0 V
40 0 V
0 30 R
39 0 V
40 0 V
40 0 V
0 61 R
39 0 V
0 31 R
40 0 V
39 0 V
0 30 R
40 0 V
40 0 V
0 152 R
39 0 V
40 0 V
39 0 V
40 0 V
0 30 R
40 0 V
0 31 R
39 0 V
40 0 V
39 0 V
40 0 V
40 0 V
39 0 V
40 0 V
0 30 R
39 0 V
0 304 R
40 0 V
0 31 R
40 0 V
0 61 R
39 0 V
40 0 V
40 0 V
39 0 V
40 0 V
39 0 V
40 0 V
40 0 V
39 0 V
40 0 V
0 60 R
39 0 V
0 31 R
40 0 V
40 0 V
39 0 V
40 0 V
0 91 R
39 0 V
0 30 R
40 0 V
40 0 V
39 0 V
40 0 V
39 0 V
40 0 V
0 365 R
40 0 V
stroke 4848 1952 M
0 31 R
39 0 V
40 0 V
0 121 R
40 0 V
0 31 R
39 0 V
40 0 V
39 0 V
0 30 R
40 0 V
40 0 V
39 0 V
0 30 R
40 0 V
39 0 V
40 0 V
40 0 V
0 396 R
39 0 V
40 0 V
0 152 R
39 0 V
40 0 V
40 0 V
39 0 V
0 30 R
40 0 V
0 152 R
40 0 V
0 31 R
39 0 V
0 212 R
40 0 V
0 152 R
39 0 V
0 31 R
40 0 V
0 30 R
40 0 V
0 213 R
39 0 V
40 0 V
0 91 R
39 0 V
40 0 V
0 61 R
40 0 V
39 0 V
40 0 V
39 0 V
0 30 R
40 0 V
40 0 V
39 0 V
0 304 R
40 0 V
39 0 V
40 0 V
40 0 V
39 0 V
40 0 V
40 0 V
0 61 R
39 0 V
40 0 V
39 0 V
0 183 R
40 0 V
0 91 R
40 0 V
0 30 R
39 0 V
40 0 V
39 0 V
966 280 M
40 0 V
39 0 V
40 0 V
39 0 V
40 0 V
40 0 V
39 0 V
40 0 V
39 0 V
40 0 V
40 0 V
39 0 V
40 0 V
40 0 V
0 30 V
0 31 V
752 0 R
0 30 V
40 0 R
0 31 V
39 0 R
0 30 V
0 30 V
476 0 R
0 31 V
39 0 R
0 30 V
0 31 V
stroke 2867 554 M
0 30 V
159 0 R
0 30 V
119 0 R
0 31 V
0 30 V
39 0 R
0 31 V
79 0 R
0 30 V
80 0 R
0 30 V
0 31 V
0 30 V
0 31 V
0 30 V
158 0 R
0 30 V
40 0 R
0 31 V
277 0 R
0 30 V
39 0 R
0 31 V
0 30 V
0 31 V
0 30 V
0 30 V
0 31 V
0 30 V
0 31 V
0 30 V
0 30 V
40 0 R
0 31 V
40 0 R
0 30 V
0 31 V
396 0 R
0 30 V
0 30 V
39 0 R
0 31 V
159 0 R
0 30 V
0 31 V
0 30 V
39 0 R
0 30 V
238 0 R
0 31 V
0 30 V
0 31 V
0 30 V
0 30 V
0 31 V
0 30 V
0 31 V
0 30 V
0 30 V
0 31 V
0 30 V
40 0 R
0 31 V
79 0 R
0 30 V
0 30 V
0 31 V
0 30 V
40 0 R
0 31 V
118 0 R
0 30 V
119 0 R
0 30 V
159 0 R
0 31 V
0 30 V
0 31 V
0 30 V
0 30 V
0 31 V
0 30 V
0 31 V
0 30 V
0 30 V
0 31 V
0 30 V
0 31 V
79 0 R
0 30 V
0 31 V
0 30 V
0 30 V
0 31 V
158 0 R
0 30 V
40 0 R
0 31 V
0 30 V
0 30 V
0 31 V
0 30 V
40 0 R
0 31 V
stroke 5680 2956 M
39 0 R
0 30 V
0 30 V
0 31 V
0 30 V
0 31 V
0 30 V
0 30 V
40 0 R
0 31 V
0 30 V
0 31 V
0 30 V
0 30 V
39 0 R
0 31 V
40 0 R
0 30 V
40 0 R
0 31 V
0 30 V
0 30 V
0 31 V
0 30 V
0 31 V
0 30 V
79 0 R
0 30 V
0 31 V
0 30 V
79 0 R
0 31 V
0 30 V
158 0 R
0 30 V
119 0 R
0 31 V
0 30 V
0 31 V
0 30 V
0 30 V
0 31 V
0 30 V
0 31 V
0 30 V
0 30 V
278 0 R
0 31 V
0 30 V
118 0 R
0 31 V
0 30 V
0 31 V
0 30 V
0 30 V
0 31 V
40 0 R
0 30 V
0 31 V
0 30 V
40 0 R
0 30 V
118 365 R
0 31 V
0 -396 R
0 31 V
0 30 V
0 31 V
0 30 V
0 30 V
0 31 V
0 30 V
0 31 V
0 30 V
0 30 V
0 31 V
0 30 V
1521 341 CircleF
1560 341 CircleF
1560 341 CircleF
1600 341 CircleF
1600 341 CircleF
1639 341 CircleF
1639 341 CircleF
1679 341 CircleF
1679 341 CircleF
1719 341 CircleF
1719 341 CircleF
1758 341 CircleF
1758 341 CircleF
1798 341 CircleF
1798 341 CircleF
1837 341 CircleF
1837 341 CircleF
1877 341 CircleF
1877 341 CircleF
1917 341 CircleF
1917 341 CircleF
1956 341 CircleF
1956 341 CircleF
1996 341 CircleF
1996 341 CircleF
2035 341 CircleF
2035 341 CircleF
2075 341 CircleF
2075 341 CircleF
2115 341 CircleF
2115 341 CircleF
2154 341 CircleF
2154 341 CircleF
2194 341 CircleF
2194 341 CircleF
2233 341 CircleF
2233 341 CircleF
2273 341 CircleF
2273 371 CircleF
2313 371 CircleF
2313 402 CircleF
2352 402 CircleF
2352 462 CircleF
2392 462 CircleF
2392 462 CircleF
2432 462 CircleF
2432 462 CircleF
2471 462 CircleF
2471 462 CircleF
2511 462 CircleF
2511 462 CircleF
2550 462 CircleF
2550 462 CircleF
2590 462 CircleF
2590 462 CircleF
2630 462 CircleF
2630 462 CircleF
2669 462 CircleF
2669 462 CircleF
2709 462 CircleF
2709 462 CircleF
2748 462 CircleF
2748 462 CircleF
2788 462 CircleF
2788 462 CircleF
2828 462 CircleF
2828 493 CircleF
2867 493 CircleF
2867 584 CircleF
2907 584 CircleF
2907 584 CircleF
2946 584 CircleF
2946 584 CircleF
2986 584 CircleF
2986 584 CircleF
3026 584 CircleF
3026 614 CircleF
3065 614 CircleF
3065 614 CircleF
3105 614 CircleF
3105 614 CircleF
3145 614 CircleF
3145 675 CircleF
3184 675 CircleF
3184 706 CircleF
3224 706 CircleF
3224 706 CircleF
3263 706 CircleF
3263 736 CircleF
3303 736 CircleF
3303 736 CircleF
3343 736 CircleF
3343 888 CircleF
3382 888 CircleF
3382 888 CircleF
3422 888 CircleF
3422 888 CircleF
3461 888 CircleF
3461 888 CircleF
3501 888 CircleF
3501 918 CircleF
3541 918 CircleF
3541 949 CircleF
3580 949 CircleF
3580 949 CircleF
3620 949 CircleF
3620 949 CircleF
3659 949 CircleF
3659 949 CircleF
3699 949 CircleF
3699 949 CircleF
3739 949 CircleF
3739 949 CircleF
3778 949 CircleF
3778 949 CircleF
3818 949 CircleF
3818 979 CircleF
3857 979 CircleF
3857 1283 CircleF
3897 1283 CircleF
3897 1314 CircleF
3937 1314 CircleF
3937 1375 CircleF
3976 1375 CircleF
3976 1375 CircleF
4016 1375 CircleF
4016 1375 CircleF
4056 1375 CircleF
4056 1375 CircleF
4095 1375 CircleF
4095 1375 CircleF
4135 1375 CircleF
4135 1375 CircleF
4174 1375 CircleF
4174 1375 CircleF
4214 1375 CircleF
4214 1375 CircleF
4254 1375 CircleF
4254 1375 CircleF
4293 1375 CircleF
4293 1375 CircleF
4333 1375 CircleF
4333 1435 CircleF
4372 1435 CircleF
4372 1466 CircleF
4412 1466 CircleF
4412 1466 CircleF
4452 1466 CircleF
4452 1466 CircleF
4491 1466 CircleF
4491 1466 CircleF
4531 1466 CircleF
4531 1557 CircleF
4570 1557 CircleF
4570 1587 CircleF
4610 1587 CircleF
4610 1587 CircleF
4650 1587 CircleF
4650 1587 CircleF
4689 1587 CircleF
4689 1587 CircleF
4729 1587 CircleF
4729 1587 CircleF
4768 1587 CircleF
4768 1587 CircleF
4808 1587 CircleF
4808 1952 CircleF
4848 1952 CircleF
4848 1983 CircleF
4887 1983 CircleF
4887 1983 CircleF
4927 1983 CircleF
4927 2104 CircleF
4967 2104 CircleF
4967 2135 CircleF
5006 2135 CircleF
5006 2135 CircleF
5046 2135 CircleF
5046 2135 CircleF
5085 2135 CircleF
5085 2165 CircleF
5125 2165 CircleF
5125 2165 CircleF
5165 2165 CircleF
5165 2165 CircleF
5204 2165 CircleF
5204 2195 CircleF
5244 2195 CircleF
5244 2195 CircleF
5283 2195 CircleF
5283 2195 CircleF
5323 2195 CircleF
5323 2195 CircleF
5363 2195 CircleF
5363 2591 CircleF
5402 2591 CircleF
5402 2591 CircleF
5442 2591 CircleF
5442 2743 CircleF
5481 2743 CircleF
5481 2743 CircleF
5521 2743 CircleF
5521 2743 CircleF
5561 2743 CircleF
5561 2743 CircleF
5600 2743 CircleF
5600 2773 CircleF
5640 2773 CircleF
5640 2925 CircleF
5680 2925 CircleF
5680 2956 CircleF
5719 2956 CircleF
5719 3168 CircleF
5759 3168 CircleF
5759 3320 CircleF
5798 3320 CircleF
5798 3351 CircleF
5838 3351 CircleF
5838 3381 CircleF
5878 3381 CircleF
5878 3594 CircleF
5917 3594 CircleF
5917 3594 CircleF
5957 3594 CircleF
5957 3685 CircleF
5996 3685 CircleF
5996 3685 CircleF
6036 3685 CircleF
6036 3746 CircleF
6076 3746 CircleF
6076 3746 CircleF
6115 3746 CircleF
6115 3746 CircleF
6155 3746 CircleF
6155 3746 CircleF
6194 3746 CircleF
6194 3776 CircleF
6234 3776 CircleF
6234 3776 CircleF
6274 3776 CircleF
6274 3776 CircleF
6313 3776 CircleF
6313 4080 CircleF
6353 4080 CircleF
6353 4080 CircleF
6392 4080 CircleF
6392 4080 CircleF
6432 4080 CircleF
6432 4080 CircleF
6472 4080 CircleF
6472 4080 CircleF
6511 4080 CircleF
6511 4080 CircleF
6551 4080 CircleF
6551 4080 CircleF
6591 4080 CircleF
6591 4141 CircleF
6630 4141 CircleF
6630 4141 CircleF
6670 4141 CircleF
6670 4141 CircleF
6709 4141 CircleF
6709 4324 CircleF
6749 4324 CircleF
6749 4415 CircleF
6789 4415 CircleF
6789 4445 CircleF
6828 4445 CircleF
6828 4445 CircleF
6868 4445 CircleF
6868 4445 CircleF
6907 4445 CircleF
966 280 CircleF
1006 280 CircleF
1006 280 CircleF
1045 280 CircleF
1045 280 CircleF
1085 280 CircleF
1085 280 CircleF
1124 280 CircleF
1124 280 CircleF
1164 280 CircleF
1164 280 CircleF
1204 280 CircleF
1204 280 CircleF
1243 280 CircleF
1243 280 CircleF
1283 280 CircleF
1283 280 CircleF
1322 280 CircleF
1322 280 CircleF
1362 280 CircleF
1362 280 CircleF
1402 280 CircleF
1402 280 CircleF
1441 280 CircleF
1441 280 CircleF
1481 280 CircleF
1481 280 CircleF
1521 280 CircleF
1521 280 CircleF
1521 310 CircleF
1521 310 CircleF
1521 341 CircleF
2273 341 CircleF
2273 371 CircleF
2313 371 CircleF
2313 402 CircleF
2352 402 CircleF
2352 432 CircleF
2352 432 CircleF
2352 462 CircleF
2828 462 CircleF
2828 493 CircleF
2867 493 CircleF
2867 523 CircleF
2867 523 CircleF
2867 554 CircleF
2867 554 CircleF
2867 584 CircleF
3026 584 CircleF
3026 614 CircleF
3145 614 CircleF
3145 645 CircleF
3145 645 CircleF
3145 675 CircleF
3184 675 CircleF
3184 706 CircleF
3263 706 CircleF
3263 736 CircleF
3343 736 CircleF
3343 766 CircleF
3343 766 CircleF
3343 797 CircleF
3343 797 CircleF
3343 827 CircleF
3343 827 CircleF
3343 858 CircleF
3343 858 CircleF
3343 888 CircleF
3501 888 CircleF
3501 918 CircleF
3541 918 CircleF
3541 949 CircleF
3818 949 CircleF
3818 979 CircleF
3857 979 CircleF
3857 1010 CircleF
3857 1010 CircleF
3857 1040 CircleF
3857 1040 CircleF
3857 1071 CircleF
3857 1071 CircleF
3857 1101 CircleF
3857 1101 CircleF
3857 1131 CircleF
3857 1131 CircleF
3857 1162 CircleF
3857 1162 CircleF
3857 1192 CircleF
3857 1192 CircleF
3857 1223 CircleF
3857 1223 CircleF
3857 1253 CircleF
3857 1253 CircleF
3857 1283 CircleF
3897 1283 CircleF
3897 1314 CircleF
3937 1314 CircleF
3937 1344 CircleF
3937 1344 CircleF
3937 1375 CircleF
4333 1375 CircleF
4333 1405 CircleF
4333 1405 CircleF
4333 1435 CircleF
4372 1435 CircleF
4372 1466 CircleF
4531 1466 CircleF
4531 1496 CircleF
4531 1496 CircleF
4531 1527 CircleF
4531 1527 CircleF
4531 1557 CircleF
4570 1557 CircleF
4570 1587 CircleF
4808 1587 CircleF
4808 1618 CircleF
4808 1618 CircleF
4808 1648 CircleF
4808 1648 CircleF
4808 1679 CircleF
4808 1679 CircleF
4808 1709 CircleF
4808 1709 CircleF
4808 1739 CircleF
4808 1739 CircleF
4808 1770 CircleF
4808 1770 CircleF
4808 1800 CircleF
4808 1800 CircleF
4808 1831 CircleF
4808 1831 CircleF
4808 1861 CircleF
4808 1861 CircleF
4808 1891 CircleF
4808 1891 CircleF
4808 1922 CircleF
4808 1922 CircleF
4808 1952 CircleF
4848 1952 CircleF
4848 1983 CircleF
4927 1983 CircleF
4927 2013 CircleF
4927 2013 CircleF
4927 2043 CircleF
4927 2043 CircleF
4927 2074 CircleF
4927 2074 CircleF
4927 2104 CircleF
4967 2104 CircleF
4967 2135 CircleF
5085 2135 CircleF
5085 2165 CircleF
5204 2165 CircleF
5204 2195 CircleF
5363 2195 CircleF
5363 2226 CircleF
5363 2226 CircleF
5363 2256 CircleF
5363 2256 CircleF
5363 2287 CircleF
5363 2287 CircleF
5363 2317 CircleF
5363 2317 CircleF
5363 2347 CircleF
5363 2347 CircleF
5363 2378 CircleF
5363 2378 CircleF
5363 2408 CircleF
5363 2408 CircleF
5363 2439 CircleF
5363 2439 CircleF
5363 2469 CircleF
5363 2469 CircleF
5363 2499 CircleF
5363 2499 CircleF
5363 2530 CircleF
5363 2530 CircleF
5363 2560 CircleF
5363 2560 CircleF
5363 2591 CircleF
5442 2591 CircleF
5442 2621 CircleF
5442 2621 CircleF
5442 2652 CircleF
5442 2652 CircleF
5442 2682 CircleF
5442 2682 CircleF
5442 2712 CircleF
5442 2712 CircleF
5442 2743 CircleF
5600 2743 CircleF
5600 2773 CircleF
5640 2773 CircleF
5640 2804 CircleF
5640 2804 CircleF
5640 2834 CircleF
5640 2834 CircleF
5640 2864 CircleF
5640 2864 CircleF
5640 2895 CircleF
5640 2895 CircleF
5640 2925 CircleF
5680 2925 CircleF
5680 2956 CircleF
5719 2956 CircleF
5719 2986 CircleF
5719 2986 CircleF
5719 3016 CircleF
5719 3016 CircleF
5719 3047 CircleF
5719 3047 CircleF
5719 3077 CircleF
5719 3077 CircleF
5719 3108 CircleF
5719 3108 CircleF
5719 3138 CircleF
5719 3138 CircleF
5719 3168 CircleF
5759 3168 CircleF
5759 3199 CircleF
5759 3199 CircleF
5759 3229 CircleF
5759 3229 CircleF
5759 3260 CircleF
5759 3260 CircleF
5759 3290 CircleF
5759 3290 CircleF
5759 3320 CircleF
5798 3320 CircleF
5798 3351 CircleF
5838 3351 CircleF
5838 3381 CircleF
5878 3381 CircleF
5878 3412 CircleF
5878 3412 CircleF
5878 3442 CircleF
5878 3442 CircleF
5878 3472 CircleF
5878 3472 CircleF
5878 3503 CircleF
5878 3503 CircleF
5878 3533 CircleF
5878 3533 CircleF
5878 3564 CircleF
5878 3564 CircleF
5878 3594 CircleF
5957 3594 CircleF
5957 3624 CircleF
5957 3624 CircleF
5957 3655 CircleF
5957 3655 CircleF
5957 3685 CircleF
6036 3685 CircleF
6036 3716 CircleF
6036 3716 CircleF
6036 3746 CircleF
6194 3746 CircleF
6194 3776 CircleF
6313 3776 CircleF
6313 3807 CircleF
6313 3807 CircleF
6313 3837 CircleF
6313 3837 CircleF
6313 3868 CircleF
6313 3868 CircleF
6313 3898 CircleF
6313 3898 CircleF
6313 3928 CircleF
6313 3928 CircleF
6313 3959 CircleF
6313 3959 CircleF
6313 3989 CircleF
6313 3989 CircleF
6313 4020 CircleF
6313 4020 CircleF
6313 4050 CircleF
6313 4050 CircleF
6313 4080 CircleF
6591 4080 CircleF
6591 4111 CircleF
6591 4111 CircleF
6591 4141 CircleF
6709 4141 CircleF
6709 4172 CircleF
6709 4172 CircleF
6709 4202 CircleF
6709 4202 CircleF
6709 4233 CircleF
6709 4233 CircleF
6709 4263 CircleF
6709 4263 CircleF
6709 4293 CircleF
6709 4293 CircleF
6709 4324 CircleF
6749 4324 CircleF
6749 4354 CircleF
6749 4354 CircleF
6749 4385 CircleF
6749 4385 CircleF
6749 4415 CircleF
6789 4415 CircleF
6789 4445 CircleF
6907 4810 CircleF
6907 4841 CircleF
6907 4445 CircleF
6907 4476 CircleF
6907 4476 CircleF
6907 4506 CircleF
6907 4506 CircleF
6907 4537 CircleF
6907 4537 CircleF
6907 4567 CircleF
6907 4567 CircleF
6907 4597 CircleF
6907 4597 CircleF
6907 4628 CircleF
6907 4628 CircleF
6907 4658 CircleF
6907 4658 CircleF
6907 4689 CircleF
6907 4689 CircleF
6907 4719 CircleF
6907 4719 CircleF
6907 4749 CircleF
6907 4749 CircleF
6907 4780 CircleF
6907 4780 CircleF
6907 4810 CircleF
% End plot #1
% Begin plot #2
1.500 UP
2.000 UL
LT0
1.00 0.55 0.00 C /Helvetica findfont 140 scalefont setfont
2212 318 M
46 35 V
733 3111 R
40 31 V
4303 1401 M
71 54 V
-26 1207 R
49 38 V
6034 824 M
57 44 V
3805 954 M
46 36 V
5543 2531 M
74 57 V
1005 4566 M
67 51 V
6452 4061 M
43 33 V
3580 4634 M
62 47 V
5882 1843 M
65 50 V
3236 1782 M
41 31 V
2736 2847 M
63 48 V
4045 1688 M
45 35 V
3379 864 M
40 31 V
5025 2835 M
66 50 V
570 1830 R
44 34 V
2813 2132 M
39 30 V
1423 522 M
73 56 V
3859 4648 M
52 39 V
6056 4475 M
42 32 V
3974 4687 M
66 51 V
6095 2061 M
44 34 V
5697 3793 M
75 57 V
-21 -536 R
68 53 V
5166 2987 M
67 52 V
2961 4450 M
47 36 V
795 -67 R
50 39 V
6773 3869 M
77 60 V
2236 754 M
50 39 V
1182 3450 M
60 45 V
2952 2031 M
61 47 V
5540 347 M
42 32 V
1130 2641 M
52 39 V
4442 232 R
56 43 V
5392 1231 M
72 56 V
2852 4149 M
76 59 V
6069 1229 M
50 38 V
1043 2708 M
78 60 V
5796 4297 M
46 35 V
3304 1607 M
65 50 V
3132 3978 M
69 53 V
4903 976 M
54 42 V
-85 3347 R
44 34 V
1790 1528 M
76 58 V
4844 3892 M
58 44 V
4811 2417 M
77 59 V
2380 3631 M
49 38 V
1774 1403 M
66 51 V
2645 -22 R
58 45 V
5913 2691 M
58 43 V
397 -69 R
50 38 V
1919 4758 M
40 31 V
stroke 1959 4789 M
3405 4395 M
69 53 V
6256 4107 M
54 42 V
4731 1042 M
46 35 V
2992 3270 M
66 51 V
1211 1786 M
56 44 V
2584 3109 M
69 52 V
1931 554 R
68 52 V
1729 2959 M
53 41 V
562 -460 R
63 48 V
-844 112 R
47 36 V
6827 2570 M
56 43 V
1620 735 M
54 42 V
6828 3069 M
43 34 V
4103 3885 M
66 51 V
1846 683 R
50 39 V
1872 2602 M
68 51 V
1196 1391 M
56 43 V
3085 2751 M
72 55 V
570 1751 R
70 54 V
5968 3667 M
60 46 V
1592 2736 M
50 39 V
4151 1695 M
40 31 V
2407 2006 M
77 58 V
6765 4410 M
55 42 V
-791 258 R
61 46 V
3916 3508 M
47 36 V
1859 1064 M
48 37 V
2626 442 R
40 31 V
2174 1331 M
58 45 V
170 2817 R
75 58 V
5821 3774 M
57 44 V
4358 3429 M
63 49 V
1494 650 R
56 43 V
1024 2328 M
63 47 V
1995 339 M
71 54 V
3669 3849 M
52 39 V
5873 1571 M
70 54 V
2289 3724 M
72 56 V
6769 2660 M
42 32 V
3229 2837 M
72 55 V
1191 4005 M
71 54 V
1019 480 R
63 49 V
4610 2451 M
78 60 V
4290 1460 M
66 51 V
2301 409 M
65 50 V
3985 3213 M
65 51 V
314 713 R
78 60 V
3336 748 M
62 48 V
1955 4677 M
41 31 V
6020 643 M
58 45 V
5595 2874 M
54 42 V
921 -175 R
47 36 V
stroke 6617 2777 M
6447 2080 M
40 31 V
1191 4189 M
60 47 V
4329 2254 M
46 35 V
1504 3916 M
60 46 V
3094 1694 M
67 51 V
6194 4614 M
66 50 V
3546 1010 M
71 54 V
2550 953 R
78 59 V
3082 487 M
57 44 V
6443 2562 M
40 31 V
3254 282 M
65 50 V
2276 354 M
49 37 V
1903 600 M
52 39 V
4304 4310 M
62 48 V
1612 3799 M
40 31 V
2180 1578 M
68 53 V
1316 410 R
69 53 V
5009 1286 M
68 53 V
2482 1930 M
65 50 V
5962 1511 M
65 50 V
2679 2594 M
63 48 V
3755 3923 M
45 34 V
2367 4616 M
42 32 V
5962 2679 M
68 52 V
5170 1030 M
76 58 V
4062 4201 M
42 32 V
2881 3583 M
62 47 V
3017 598 M
71 55 V
4826 3437 M
72 55 V
2110 2679 M
41 32 V
4256 2444 M
74 57 V
5789 1968 M
61 47 V
5469 3766 M
67 52 V
5959 1041 M
68 52 V
4606 3951 M
58 44 V
2457 3914 M
71 54 V
5246 3509 M
44 34 V
287 -806 R
78 60 V
-16 1675 R
73 57 V
2303 2282 M
59 45 V
6199 449 M
41 32 V
4340 851 M
62 48 V
6248 3757 M
70 54 V
2001 1680 M
42 32 V
6791 334 M
72 56 V
6520 4460 M
49 38 V
6696 1625 M
55 42 V
-5177 75 R
75 57 V
-314 -43 R
70 54 V
3613 1644 M
56 43 V
-622 192 R
44 34 V
4831 2960 M
45 35 V
stroke 4876 2995 M
1701 1961 M
43 32 V
3595 548 R
78 61 V
3612 357 M
50 39 V
223 882 R
78 60 V
5357 2411 M
48 37 V
4576 518 M
49 37 V
1327 553 R
73 56 V
2427 2025 M
50 39 V
1623 3689 M
59 45 V
1270 2244 M
41 32 V
156 480 R
57 44 V
1760 635 R
49 37 V
2824 539 M
66 51 V
2786 438 M
72 55 V
117 3464 R
53 42 V
3728 1858 M
54 42 V
978 4671 M
66 51 V
1350 3527 M
42 32 V
4348 3127 M
72 55 V
671 1023 R
62 47 V
2675 1840 M
69 53 V
2229 1761 M
74 58 V
2628 281 R
51 39 V
1374 428 R
71 54 V
6094 3913 M
47 37 V
4050 4448 M
47 36 V
1388 1058 M
77 59 V
484 2927 R
65 50 V
6808 3562 M
62 47 V
5415 2671 M
43 33 V
1329 1812 M
41 32 V
1495 314 M
43 33 V
6478 652 M
66 51 V
6207 3060 M
43 33 V
3482 2667 M
57 44 V
1546 980 M
70 54 V
5819 3083 M
73 56 V
5966 896 M
64 49 V
2467 538 M
64 49 V
6538 3344 M
51 39 V
3551 2282 M
74 56 V
2162 2075 M
74 57 V
5412 4328 M
67 51 V
2804 3565 M
50 39 V
6583 700 M
62 48 V
4604 4652 M
72 55 V
1900 2522 M
75 58 V
4644 652 R
64 48 V
6436 2692 M
42 33 V
2388 957 M
49 37 V
3680 3771 M
46 35 V
279 -512 R
68 52 V
stroke 4073 3346 M
2629 2893 M
44 34 V
-403 614 R
62 47 V
2943 1411 M
73 57 V
33 -908 R
73 56 V
4324 1730 M
65 50 V
-66 1618 R
41 32 V
4773 1915 M
59 46 V
1425 3875 M
56 43 V
5682 2287 M
56 43 V
4585 4395 M
73 56 V
2207 3373 M
67 52 V
96 215 R
45 35 V
3655 2060 M
77 59 V
6698 1492 M
76 59 V
27 1348 R
62 47 V
3702 2887 M
52 40 V
6773 1589 M
49 38 V
-29 -374 R
76 58 V
2929 1766 M
64 49 V
904 43 R
74 57 V
6670 4123 M
53 40 V
1669 3829 M
41 31 V
2716 2550 M
42 31 V
3608 1380 M
65 50 V
2607 302 R
66 51 V
4976 3378 M
48 37 V
-1618 79 R
72 55 V
4955 1757 M
46 35 V
4434 3810 M
50 39 V
5325 1703 M
69 53 V
4646 1542 M
71 55 V
4372 881 M
63 49 V
6421 4526 M
43 33 V
2679 1550 M
54 41 V
1338 1500 M
70 54 V
5703 333 M
58 45 V
2694 2254 M
51 39 V
1635 1531 M
58 44 V
1522 272 R
42 31 V
332 2490 R
78 61 V
1188 2815 M
69 53 V
3365 674 R
63 49 V
467 1164 R
70 54 V
2918 885 M
65 49 V
460 792 R
63 49 V
5792 1543 M
61 47 V
5552 704 M
74 57 V
4628 3542 M
46 35 V
4449 1653 M
53 40 V
-48 1394 R
59 45 V
1627 733 M
62 47 V
6023 287 M
64 49 V
stroke 6087 336 M
5161 3887 M
52 40 V
-648 534 R
40 32 V
5828 3364 M
56 43 V
1642 1359 M
49 38 V
1252 848 R
69 53 V
5656 3370 M
42 32 V
6791 323 M
56 42 V
4228 3330 M
67 51 V
1320 526 R
76 58 V
4927 2042 M
61 47 V
1222 481 M
69 53 V
5437 4262 M
68 52 V
3515 4763 M
67 51 V
2867 4646 M
44 34 V
5325 2172 M
58 45 V
1127 4316 M
48 36 V
2632 437 M
43 32 V
19 899 R
58 45 V
6262 4017 M
57 44 V
3271 4371 M
64 48 V
1005 1150 M
71 54 V
5250 3407 M
68 51 V
588 124 R
42 32 V
3580 306 M
68 52 V
1188 1887 M
64 49 V
4661 3480 M
57 44 V
1034 183 R
63 49 V
1594 2756 M
58 44 V
2216 603 M
65 49 V
974 322 R
79 60 V
2313 782 M
52 40 V
4850 689 M
54 41 V
3487 1607 M
79 60 V
2278 3933 M
71 54 V
1555 1926 M
66 51 V
6102 327 M
72 55 V
566 1965 R
73 56 V
3052 3199 M
42 32 V
2741 3057 M
72 55 V
2212 318 CircleF
2258 353 CircleF
2991 3464 CircleF
3031 3495 CircleF
4303 1401 CircleF
4374 1455 CircleF
4348 2662 CircleF
4397 2700 CircleF
6034 824 CircleF
6091 868 CircleF
3805 954 CircleF
3851 990 CircleF
5543 2531 CircleF
5617 2588 CircleF
1005 4566 CircleF
1072 4617 CircleF
6452 4061 CircleF
6495 4094 CircleF
3580 4634 CircleF
3642 4681 CircleF
5882 1843 CircleF
5947 1893 CircleF
3236 1782 CircleF
3277 1813 CircleF
2736 2847 CircleF
2799 2895 CircleF
4045 1688 CircleF
4090 1723 CircleF
3379 864 CircleF
3419 895 CircleF
5025 2835 CircleF
5091 2885 CircleF
5661 4715 CircleF
5705 4749 CircleF
2813 2132 CircleF
2852 2162 CircleF
1423 522 CircleF
1496 578 CircleF
3859 4648 CircleF
3911 4687 CircleF
6056 4475 CircleF
6098 4507 CircleF
3974 4687 CircleF
4040 4738 CircleF
6095 2061 CircleF
6139 2095 CircleF
5697 3793 CircleF
5772 3850 CircleF
5751 3314 CircleF
5819 3367 CircleF
5166 2987 CircleF
5233 3039 CircleF
2961 4450 CircleF
3008 4486 CircleF
3803 4419 CircleF
3853 4458 CircleF
6773 3869 CircleF
6850 3929 CircleF
2236 754 CircleF
2286 793 CircleF
1182 3450 CircleF
1242 3495 CircleF
2952 2031 CircleF
3013 2078 CircleF
5540 347 CircleF
5582 379 CircleF
1130 2641 CircleF
1182 2680 CircleF
5624 2912 CircleF
5680 2955 CircleF
5392 1231 CircleF
5464 1287 CircleF
2852 4149 CircleF
2928 4208 CircleF
6069 1229 CircleF
6119 1267 CircleF
1043 2708 CircleF
1121 2768 CircleF
5796 4297 CircleF
5842 4332 CircleF
3304 1607 CircleF
3369 1657 CircleF
3132 3978 CircleF
3201 4031 CircleF
4903 976 CircleF
4957 1018 CircleF
4872 4365 CircleF
4916 4399 CircleF
1790 1528 CircleF
1866 1586 CircleF
4844 3892 CircleF
4902 3936 CircleF
4811 2417 CircleF
4888 2476 CircleF
2380 3631 CircleF
2429 3669 CircleF
1774 1403 CircleF
1840 1454 CircleF
4485 1432 CircleF
4543 1477 CircleF
5913 2691 CircleF
5971 2734 CircleF
6368 2665 CircleF
6418 2703 CircleF
1919 4758 CircleF
1959 4789 CircleF
3405 4395 CircleF
3474 4448 CircleF
6256 4107 CircleF
6310 4149 CircleF
4731 1042 CircleF
4777 1077 CircleF
2992 3270 CircleF
3058 3321 CircleF
1211 1786 CircleF
1267 1830 CircleF
2584 3109 CircleF
2653 3161 CircleF
4584 3715 CircleF
4652 3767 CircleF
1729 2959 CircleF
1782 3000 CircleF
2344 2540 CircleF
2407 2588 CircleF
1563 2700 CircleF
1610 2736 CircleF
6827 2570 CircleF
6883 2613 CircleF
1620 735 CircleF
1674 777 CircleF
6828 3069 CircleF
6871 3103 CircleF
4103 3885 CircleF
4169 3936 CircleF
6015 4619 CircleF
6065 4658 CircleF
1872 2602 CircleF
1940 2653 CircleF
1196 1391 CircleF
1252 1434 CircleF
3085 2751 CircleF
3157 2806 CircleF
3727 4557 CircleF
3797 4611 CircleF
5968 3667 CircleF
6028 3713 CircleF
1592 2736 CircleF
1642 2775 CircleF
4151 1695 CircleF
4191 1726 CircleF
2407 2006 CircleF
2484 2064 CircleF
6765 4410 CircleF
6820 4452 CircleF
6029 4710 CircleF
6090 4756 CircleF
3916 3508 CircleF
3963 3544 CircleF
1859 1064 CircleF
1907 1101 CircleF
4533 1543 CircleF
4573 1574 CircleF
2174 1331 CircleF
2232 1376 CircleF
2402 4193 CircleF
2477 4251 CircleF
5821 3774 CircleF
5878 3818 CircleF
4358 3429 CircleF
4421 3478 CircleF
5915 4128 CircleF
5971 4171 CircleF
1024 2328 CircleF
1087 2375 CircleF
1995 339 CircleF
2066 393 CircleF
3669 3849 CircleF
3721 3888 CircleF
5873 1571 CircleF
5943 1625 CircleF
2289 3724 CircleF
2361 3780 CircleF
6769 2660 CircleF
6811 2692 CircleF
3229 2837 CircleF
3301 2892 CircleF
1191 4005 CircleF
1262 4059 CircleF
2281 4539 CircleF
2344 4588 CircleF
4610 2451 CircleF
4688 2511 CircleF
4290 1460 CircleF
4356 1511 CircleF
2301 409 CircleF
2366 459 CircleF
3985 3213 CircleF
4050 3264 CircleF
4364 3977 CircleF
4442 4037 CircleF
3336 748 CircleF
3398 796 CircleF
1955 4677 CircleF
1996 4708 CircleF
6020 643 CircleF
6078 688 CircleF
5595 2874 CircleF
5649 2916 CircleF
6570 2741 CircleF
6617 2777 CircleF
6447 2080 CircleF
6487 2111 CircleF
1191 4189 CircleF
1251 4236 CircleF
4329 2254 CircleF
4375 2289 CircleF
1504 3916 CircleF
1564 3962 CircleF
3094 1694 CircleF
3161 1745 CircleF
6194 4614 CircleF
6260 4664 CircleF
3546 1010 CircleF
3617 1064 CircleF
6167 2017 CircleF
6245 2076 CircleF
3082 487 CircleF
3139 531 CircleF
6443 2562 CircleF
6483 2593 CircleF
3254 282 CircleF
3319 332 CircleF
2276 354 CircleF
2325 391 CircleF
1903 600 CircleF
1955 639 CircleF
4304 4310 CircleF
4366 4358 CircleF
1612 3799 CircleF
1652 3830 CircleF
2180 1578 CircleF
2248 1631 CircleF
3564 2041 CircleF
3633 2094 CircleF
5009 1286 CircleF
5077 1339 CircleF
2482 1930 CircleF
2547 1980 CircleF
5962 1511 CircleF
6027 1561 CircleF
2679 2594 CircleF
2742 2642 CircleF
3755 3923 CircleF
3800 3957 CircleF
2367 4616 CircleF
2409 4648 CircleF
5962 2679 CircleF
6030 2731 CircleF
5170 1030 CircleF
5246 1088 CircleF
4062 4201 CircleF
4104 4233 CircleF
2881 3583 CircleF
2943 3630 CircleF
3017 598 CircleF
3088 653 CircleF
4826 3437 CircleF
4898 3492 CircleF
2110 2679 CircleF
2151 2711 CircleF
4256 2444 CircleF
4330 2501 CircleF
5789 1968 CircleF
5850 2015 CircleF
5469 3766 CircleF
5536 3818 CircleF
5959 1041 CircleF
6027 1093 CircleF
4606 3951 CircleF
4664 3995 CircleF
2457 3914 CircleF
2528 3968 CircleF
5246 3509 CircleF
5290 3543 CircleF
5577 2737 CircleF
5655 2797 CircleF
5639 4472 CircleF
5712 4529 CircleF
2303 2282 CircleF
2362 2327 CircleF
6199 449 CircleF
6240 481 CircleF
4340 851 CircleF
4402 899 CircleF
6248 3757 CircleF
6318 3811 CircleF
2001 1680 CircleF
2043 1712 CircleF
6791 334 CircleF
6863 390 CircleF
6520 4460 CircleF
6569 4498 CircleF
6696 1625 CircleF
6751 1667 CircleF
1574 1742 CircleF
1649 1799 CircleF
1335 1756 CircleF
1405 1810 CircleF
3613 1644 CircleF
3669 1687 CircleF
3047 1879 CircleF
3091 1913 CircleF
4831 2960 CircleF
4876 2995 CircleF
1701 1961 CircleF
1744 1993 CircleF
5339 2541 CircleF
5417 2602 CircleF
3612 357 CircleF
3662 396 CircleF
3885 1278 CircleF
3963 1338 CircleF
5357 2411 CircleF
5405 2448 CircleF
4576 518 CircleF
4625 555 CircleF
5952 1108 CircleF
6025 1164 CircleF
2427 2025 CircleF
2477 2064 CircleF
1623 3689 CircleF
1682 3734 CircleF
1270 2244 CircleF
1311 2276 CircleF
1467 2756 CircleF
1524 2800 CircleF
3284 3435 CircleF
3333 3472 CircleF
2824 539 CircleF
2890 590 CircleF
2786 438 CircleF
2858 493 CircleF
2975 3957 CircleF
3028 3999 CircleF
3728 1858 CircleF
3782 1900 CircleF
978 4671 CircleF
1044 4722 CircleF
1350 3527 CircleF
1392 3559 CircleF
4348 3127 CircleF
4420 3182 CircleF
5091 4205 CircleF
5153 4252 CircleF
2675 1840 CircleF
2744 1893 CircleF
2229 1761 CircleF
2303 1819 CircleF
4931 2100 CircleF
4982 2139 CircleF
6356 2567 CircleF
6427 2621 CircleF
6094 3913 CircleF
6141 3950 CircleF
4050 4448 CircleF
4097 4484 CircleF
1388 1058 CircleF
1465 1117 CircleF
1949 4044 CircleF
2014 4094 CircleF
6808 3562 CircleF
6870 3609 CircleF
5415 2671 CircleF
5458 2704 CircleF
1329 1812 CircleF
1370 1844 CircleF
1495 314 CircleF
1538 347 CircleF
6478 652 CircleF
6544 703 CircleF
6207 3060 CircleF
6250 3093 CircleF
3482 2667 CircleF
3539 2711 CircleF
1546 980 CircleF
1616 1034 CircleF
5819 3083 CircleF
5892 3139 CircleF
5966 896 CircleF
6030 945 CircleF
2467 538 CircleF
2531 587 CircleF
6538 3344 CircleF
6589 3383 CircleF
3551 2282 CircleF
3625 2338 CircleF
2162 2075 CircleF
2236 2132 CircleF
5412 4328 CircleF
5479 4379 CircleF
2804 3565 CircleF
2854 3604 CircleF
6583 700 CircleF
6645 748 CircleF
4604 4652 CircleF
4676 4707 CircleF
1900 2522 CircleF
1975 2580 CircleF
6619 3232 CircleF
6683 3280 CircleF
6436 2692 CircleF
6478 2725 CircleF
2388 957 CircleF
2437 994 CircleF
3680 3771 CircleF
3726 3806 CircleF
4005 3294 CircleF
4073 3346 CircleF
2629 2893 CircleF
2673 2927 CircleF
2270 3541 CircleF
2332 3588 CircleF
2943 1411 CircleF
3016 1468 CircleF
3049 560 CircleF
3122 616 CircleF
4324 1730 CircleF
4389 1780 CircleF
4323 3398 CircleF
4364 3430 CircleF
4773 1915 CircleF
4832 1961 CircleF
1425 3875 CircleF
1481 3918 CircleF
5682 2287 CircleF
5738 2330 CircleF
4585 4395 CircleF
4658 4451 CircleF
2207 3373 CircleF
2274 3425 CircleF
2370 3640 CircleF
2415 3675 CircleF
3655 2060 CircleF
3732 2119 CircleF
6698 1492 CircleF
6774 1551 CircleF
6801 2899 CircleF
6863 2946 CircleF
3702 2887 CircleF
3754 2927 CircleF
6773 1589 CircleF
6822 1627 CircleF
6793 1253 CircleF
6869 1311 CircleF
2929 1766 CircleF
2993 1815 CircleF
3897 1858 CircleF
3971 1915 CircleF
6670 4123 CircleF
6723 4163 CircleF
1669 3829 CircleF
1710 3860 CircleF
2716 2550 CircleF
2758 2581 CircleF
3608 1380 CircleF
3673 1430 CircleF
6280 1732 CircleF
6346 1783 CircleF
4976 3378 CircleF
5024 3415 CircleF
3406 3494 CircleF
3478 3549 CircleF
4955 1757 CircleF
5001 1792 CircleF
4434 3810 CircleF
4484 3849 CircleF
5325 1703 CircleF
5394 1756 CircleF
4646 1542 CircleF
4717 1597 CircleF
4372 881 CircleF
4435 930 CircleF
6421 4526 CircleF
6464 4559 CircleF
2679 1550 CircleF
2733 1591 CircleF
1338 1500 CircleF
1408 1554 CircleF
5703 333 CircleF
5761 378 CircleF
2694 2254 CircleF
2745 2293 CircleF
1635 1531 CircleF
1693 1575 CircleF
3215 1847 CircleF
3257 1878 CircleF
3589 4368 CircleF
3667 4429 CircleF
1188 2815 CircleF
1257 2868 CircleF
4622 3542 CircleF
4685 3591 CircleF
5152 4755 CircleF
5222 4809 CircleF
2918 885 CircleF
2983 934 CircleF
3443 1726 CircleF
3506 1775 CircleF
5792 1543 CircleF
5853 1590 CircleF
5552 704 CircleF
5626 761 CircleF
4628 3542 CircleF
4674 3577 CircleF
4449 1653 CircleF
4502 1693 CircleF
4454 3087 CircleF
4513 3132 CircleF
1627 733 CircleF
1689 780 CircleF
6023 287 CircleF
6087 336 CircleF
5161 3887 CircleF
5213 3927 CircleF
4565 4461 CircleF
4605 4493 CircleF
5828 3364 CircleF
5884 3407 CircleF
1642 1359 CircleF
1691 1397 CircleF
2943 2245 CircleF
3012 2298 CircleF
5656 3370 CircleF
5698 3402 CircleF
6791 323 CircleF
6847 365 CircleF
4228 3330 CircleF
4295 3381 CircleF
5615 3907 CircleF
5691 3965 CircleF
4927 2042 CircleF
4988 2089 CircleF
1222 481 CircleF
1291 534 CircleF
5437 4262 CircleF
5505 4314 CircleF
3515 4763 CircleF
3582 4814 CircleF
2867 4646 CircleF
2911 4680 CircleF
5325 2172 CircleF
5383 2217 CircleF
1127 4316 CircleF
1175 4352 CircleF
2632 437 CircleF
2675 469 CircleF
2694 1368 CircleF
2752 1413 CircleF
6262 4017 CircleF
6319 4061 CircleF
3271 4371 CircleF
3335 4419 CircleF
1005 1150 CircleF
1076 1204 CircleF
5250 3407 CircleF
5318 3458 CircleF
5906 3582 CircleF
5948 3614 CircleF
3580 306 CircleF
3648 358 CircleF
1188 1887 CircleF
1252 1936 CircleF
4661 3480 CircleF
4718 3524 CircleF
5752 3707 CircleF
5815 3756 CircleF
1594 2756 CircleF
1652 2800 CircleF
2216 603 CircleF
2281 652 CircleF
3255 974 CircleF
3334 1034 CircleF
2313 782 CircleF
2365 822 CircleF
4850 689 CircleF
4904 730 CircleF
3487 1607 CircleF
3566 1667 CircleF
2278 3933 CircleF
2349 3987 CircleF
1555 1926 CircleF
1621 1977 CircleF
6102 327 CircleF
6174 382 CircleF
6740 2347 CircleF
6813 2403 CircleF
3052 3199 CircleF
3094 3231 CircleF
2741 3057 CircleF
2813 3112 CircleF
% End plot #2
1.000 UP
1.000 UL
LT0
0.50 0.50 0.50 C stroke
grestore
end
showpage
%%Trailer
%%DocumentFonts: Helvetica
%%Pages: 1
