%!PS-Adobe-2.0
%%Title: out.ps
%%Creator: gnuplot 4.6 patchlevel 6
%%CreationDate: Fri May 29 00:33:53 2015
%%DocumentFonts: (atend)
%%BoundingBox: 50 50 554 770
%%Orientation: Landscape
%%Pages: (atend)
%%EndComments
%%BeginProlog
/gnudict 256 dict def
gnudict begin
%
% The following true/false flags may be edited by hand if desired.
% The unit line width and grayscale image gamma correction may also be changed.
%
/Color false def
/Blacktext false def
/Solid false def
/Dashlength 1 def
/Landscape true def
/Level1 false def
/Rounded false def
/ClipToBoundingBox false def
/SuppressPDFMark false def
/TransparentPatterns false def
/gnulinewidth 5.000 def
/userlinewidth gnulinewidth def
/Gamma 1.0 def
/BackgroundColor {-1.000 -1.000 -1.000} def
%
/vshift -46 def
/dl1 {
  10.0 Dashlength mul mul
  Rounded { currentlinewidth 0.75 mul sub dup 0 le { pop 0.01 } if } if
} def
/dl2 {
  10.0 Dashlength mul mul
  Rounded { currentlinewidth 0.75 mul add } if
} def
/hpt_ 31.5 def
/vpt_ 31.5 def
/hpt hpt_ def
/vpt vpt_ def
/doclip {
  ClipToBoundingBox {
    newpath 50 50 moveto 554 50 lineto 554 770 lineto 50 770 lineto closepath
    clip
  } if
} def
%
% Gnuplot Prolog Version 4.6 (September 2012)
%
%/SuppressPDFMark true def
%
/M {moveto} bind def
/L {lineto} bind def
/R {rmoveto} bind def
/V {rlineto} bind def
/N {newpath moveto} bind def
/Z {closepath} bind def
/C {setrgbcolor} bind def
/f {rlineto fill} bind def
/g {setgray} bind def
/Gshow {show} def   % May be redefined later in the file to support UTF-8
/vpt2 vpt 2 mul def
/hpt2 hpt 2 mul def
/Lshow {currentpoint stroke M 0 vshift R 
	Blacktext {gsave 0 setgray show grestore} {show} ifelse} def
/Rshow {currentpoint stroke M dup stringwidth pop neg vshift R
	Blacktext {gsave 0 setgray show grestore} {show} ifelse} def
/Cshow {currentpoint stroke M dup stringwidth pop -2 div vshift R 
	Blacktext {gsave 0 setgray show grestore} {show} ifelse} def
/UP {dup vpt_ mul /vpt exch def hpt_ mul /hpt exch def
  /hpt2 hpt 2 mul def /vpt2 vpt 2 mul def} def
/DL {Color {setrgbcolor Solid {pop []} if 0 setdash}
 {pop pop pop 0 setgray Solid {pop []} if 0 setdash} ifelse} def
/BL {stroke userlinewidth 2 mul setlinewidth
	Rounded {1 setlinejoin 1 setlinecap} if} def
/AL {stroke userlinewidth 2 div setlinewidth
	Rounded {1 setlinejoin 1 setlinecap} if} def
/UL {dup gnulinewidth mul /userlinewidth exch def
	dup 1 lt {pop 1} if 10 mul /udl exch def} def
/PL {stroke userlinewidth setlinewidth
	Rounded {1 setlinejoin 1 setlinecap} if} def
3.8 setmiterlimit
% Default Line colors
/LCw {1 1 1} def
/LCb {0 0 0} def
/LCa {0 0 0} def
/LC0 {1 0 0} def
/LC1 {0 1 0} def
/LC2 {0 0 1} def
/LC3 {1 0 1} def
/LC4 {0 1 1} def
/LC5 {1 1 0} def
/LC6 {0 0 0} def
/LC7 {1 0.3 0} def
/LC8 {0.5 0.5 0.5} def
% Default Line Types
/LTw {PL [] 1 setgray} def
/LTb {BL [] LCb DL} def
/LTa {AL [1 udl mul 2 udl mul] 0 setdash LCa setrgbcolor} def
/LT0 {PL [] LC0 DL} def
/LT1 {PL [4 dl1 2 dl2] LC1 DL} def
/LT2 {PL [2 dl1 3 dl2] LC2 DL} def
/LT3 {PL [1 dl1 1.5 dl2] LC3 DL} def
/LT4 {PL [6 dl1 2 dl2 1 dl1 2 dl2] LC4 DL} def
/LT5 {PL [3 dl1 3 dl2 1 dl1 3 dl2] LC5 DL} def
/LT6 {PL [2 dl1 2 dl2 2 dl1 6 dl2] LC6 DL} def
/LT7 {PL [1 dl1 2 dl2 6 dl1 2 dl2 1 dl1 2 dl2] LC7 DL} def
/LT8 {PL [2 dl1 2 dl2 2 dl1 2 dl2 2 dl1 2 dl2 2 dl1 4 dl2] LC8 DL} def
/Pnt {stroke [] 0 setdash gsave 1 setlinecap M 0 0 V stroke grestore} def
/Dia {stroke [] 0 setdash 2 copy vpt add M
  hpt neg vpt neg V hpt vpt neg V
  hpt vpt V hpt neg vpt V closepath stroke
  Pnt} def
/Pls {stroke [] 0 setdash vpt sub M 0 vpt2 V
  currentpoint stroke M
  hpt neg vpt neg R hpt2 0 V stroke
 } def
/Box {stroke [] 0 setdash 2 copy exch hpt sub exch vpt add M
  0 vpt2 neg V hpt2 0 V 0 vpt2 V
  hpt2 neg 0 V closepath stroke
  Pnt} def
/Crs {stroke [] 0 setdash exch hpt sub exch vpt add M
  hpt2 vpt2 neg V currentpoint stroke M
  hpt2 neg 0 R hpt2 vpt2 V stroke} def
/TriU {stroke [] 0 setdash 2 copy vpt 1.12 mul add M
  hpt neg vpt -1.62 mul V
  hpt 2 mul 0 V
  hpt neg vpt 1.62 mul V closepath stroke
  Pnt} def
/Star {2 copy Pls Crs} def
/BoxF {stroke [] 0 setdash exch hpt sub exch vpt add M
  0 vpt2 neg V hpt2 0 V 0 vpt2 V
  hpt2 neg 0 V closepath fill} def
/TriUF {stroke [] 0 setdash vpt 1.12 mul add M
  hpt neg vpt -1.62 mul V
  hpt 2 mul 0 V
  hpt neg vpt 1.62 mul V closepath fill} def
/TriD {stroke [] 0 setdash 2 copy vpt 1.12 mul sub M
  hpt neg vpt 1.62 mul V
  hpt 2 mul 0 V
  hpt neg vpt -1.62 mul V closepath stroke
  Pnt} def
/TriDF {stroke [] 0 setdash vpt 1.12 mul sub M
  hpt neg vpt 1.62 mul V
  hpt 2 mul 0 V
  hpt neg vpt -1.62 mul V closepath fill} def
/DiaF {stroke [] 0 setdash vpt add M
  hpt neg vpt neg V hpt vpt neg V
  hpt vpt V hpt neg vpt V closepath fill} def
/Pent {stroke [] 0 setdash 2 copy gsave
  translate 0 hpt M 4 {72 rotate 0 hpt L} repeat
  closepath stroke grestore Pnt} def
/PentF {stroke [] 0 setdash gsave
  translate 0 hpt M 4 {72 rotate 0 hpt L} repeat
  closepath fill grestore} def
/Circle {stroke [] 0 setdash 2 copy
  hpt 0 360 arc stroke Pnt} def
/CircleF {stroke [] 0 setdash hpt 0 360 arc fill} def
/C0 {BL [] 0 setdash 2 copy moveto vpt 90 450 arc} bind def
/C1 {BL [] 0 setdash 2 copy moveto
	2 copy vpt 0 90 arc closepath fill
	vpt 0 360 arc closepath} bind def
/C2 {BL [] 0 setdash 2 copy moveto
	2 copy vpt 90 180 arc closepath fill
	vpt 0 360 arc closepath} bind def
/C3 {BL [] 0 setdash 2 copy moveto
	2 copy vpt 0 180 arc closepath fill
	vpt 0 360 arc closepath} bind def
/C4 {BL [] 0 setdash 2 copy moveto
	2 copy vpt 180 270 arc closepath fill
	vpt 0 360 arc closepath} bind def
/C5 {BL [] 0 setdash 2 copy moveto
	2 copy vpt 0 90 arc
	2 copy moveto
	2 copy vpt 180 270 arc closepath fill
	vpt 0 360 arc} bind def
/C6 {BL [] 0 setdash 2 copy moveto
	2 copy vpt 90 270 arc closepath fill
	vpt 0 360 arc closepath} bind def
/C7 {BL [] 0 setdash 2 copy moveto
	2 copy vpt 0 270 arc closepath fill
	vpt 0 360 arc closepath} bind def
/C8 {BL [] 0 setdash 2 copy moveto
	2 copy vpt 270 360 arc closepath fill
	vpt 0 360 arc closepath} bind def
/C9 {BL [] 0 setdash 2 copy moveto
	2 copy vpt 270 450 arc closepath fill
	vpt 0 360 arc closepath} bind def
/C10 {BL [] 0 setdash 2 copy 2 copy moveto vpt 270 360 arc closepath fill
	2 copy moveto
	2 copy vpt 90 180 arc closepath fill
	vpt 0 360 arc closepath} bind def
/C11 {BL [] 0 setdash 2 copy moveto
	2 copy vpt 0 180 arc closepath fill
	2 copy moveto
	2 copy vpt 270 360 arc closepath fill
	vpt 0 360 arc closepath} bind def
/C12 {BL [] 0 setdash 2 copy moveto
	2 copy vpt 180 360 arc closepath fill
	vpt 0 360 arc closepath} bind def
/C13 {BL [] 0 setdash 2 copy moveto
	2 copy vpt 0 90 arc closepath fill
	2 copy moveto
	2 copy vpt 180 360 arc closepath fill
	vpt 0 360 arc closepath} bind def
/C14 {BL [] 0 setdash 2 copy moveto
	2 copy vpt 90 360 arc closepath fill
	vpt 0 360 arc} bind def
/C15 {BL [] 0 setdash 2 copy vpt 0 360 arc closepath fill
	vpt 0 360 arc closepath} bind def
/Rec {newpath 4 2 roll moveto 1 index 0 rlineto 0 exch rlineto
	neg 0 rlineto closepath} bind def
/Square {dup Rec} bind def
/Bsquare {vpt sub exch vpt sub exch vpt2 Square} bind def
/S0 {BL [] 0 setdash 2 copy moveto 0 vpt rlineto BL Bsquare} bind def
/S1 {BL [] 0 setdash 2 copy vpt Square fill Bsquare} bind def
/S2 {BL [] 0 setdash 2 copy exch vpt sub exch vpt Square fill Bsquare} bind def
/S3 {BL [] 0 setdash 2 copy exch vpt sub exch vpt2 vpt Rec fill Bsquare} bind def
/S4 {BL [] 0 setdash 2 copy exch vpt sub exch vpt sub vpt Square fill Bsquare} bind def
/S5 {BL [] 0 setdash 2 copy 2 copy vpt Square fill
	exch vpt sub exch vpt sub vpt Square fill Bsquare} bind def
/S6 {BL [] 0 setdash 2 copy exch vpt sub exch vpt sub vpt vpt2 Rec fill Bsquare} bind def
/S7 {BL [] 0 setdash 2 copy exch vpt sub exch vpt sub vpt vpt2 Rec fill
	2 copy vpt Square fill Bsquare} bind def
/S8 {BL [] 0 setdash 2 copy vpt sub vpt Square fill Bsquare} bind def
/S9 {BL [] 0 setdash 2 copy vpt sub vpt vpt2 Rec fill Bsquare} bind def
/S10 {BL [] 0 setdash 2 copy vpt sub vpt Square fill 2 copy exch vpt sub exch vpt Square fill
	Bsquare} bind def
/S11 {BL [] 0 setdash 2 copy vpt sub vpt Square fill 2 copy exch vpt sub exch vpt2 vpt Rec fill
	Bsquare} bind def
/S12 {BL [] 0 setdash 2 copy exch vpt sub exch vpt sub vpt2 vpt Rec fill Bsquare} bind def
/S13 {BL [] 0 setdash 2 copy exch vpt sub exch vpt sub vpt2 vpt Rec fill
	2 copy vpt Square fill Bsquare} bind def
/S14 {BL [] 0 setdash 2 copy exch vpt sub exch vpt sub vpt2 vpt Rec fill
	2 copy exch vpt sub exch vpt Square fill Bsquare} bind def
/S15 {BL [] 0 setdash 2 copy Bsquare fill Bsquare} bind def
/D0 {gsave translate 45 rotate 0 0 S0 stroke grestore} bind def
/D1 {gsave translate 45 rotate 0 0 S1 stroke grestore} bind def
/D2 {gsave translate 45 rotate 0 0 S2 stroke grestore} bind def
/D3 {gsave translate 45 rotate 0 0 S3 stroke grestore} bind def
/D4 {gsave translate 45 rotate 0 0 S4 stroke grestore} bind def
/D5 {gsave translate 45 rotate 0 0 S5 stroke grestore} bind def
/D6 {gsave translate 45 rotate 0 0 S6 stroke grestore} bind def
/D7 {gsave translate 45 rotate 0 0 S7 stroke grestore} bind def
/D8 {gsave translate 45 rotate 0 0 S8 stroke grestore} bind def
/D9 {gsave translate 45 rotate 0 0 S9 stroke grestore} bind def
/D10 {gsave translate 45 rotate 0 0 S10 stroke grestore} bind def
/D11 {gsave translate 45 rotate 0 0 S11 stroke grestore} bind def
/D12 {gsave translate 45 rotate 0 0 S12 stroke grestore} bind def
/D13 {gsave translate 45 rotate 0 0 S13 stroke grestore} bind def
/D14 {gsave translate 45 rotate 0 0 S14 stroke grestore} bind def
/D15 {gsave translate 45 rotate 0 0 S15 stroke grestore} bind def
/DiaE {stroke [] 0 setdash vpt add M
  hpt neg vpt neg V hpt vpt neg V
  hpt vpt V hpt neg vpt V closepath stroke} def
/BoxE {stroke [] 0 setdash exch hpt sub exch vpt add M
  0 vpt2 neg V hpt2 0 V 0 vpt2 V
  hpt2 neg 0 V closepath stroke} def
/TriUE {stroke [] 0 setdash vpt 1.12 mul add M
  hpt neg vpt -1.62 mul V
  hpt 2 mul 0 V
  hpt neg vpt 1.62 mul V closepath stroke} def
/TriDE {stroke [] 0 setdash vpt 1.12 mul sub M
  hpt neg vpt 1.62 mul V
  hpt 2 mul 0 V
  hpt neg vpt -1.62 mul V closepath stroke} def
/PentE {stroke [] 0 setdash gsave
  translate 0 hpt M 4 {72 rotate 0 hpt L} repeat
  closepath stroke grestore} def
/CircE {stroke [] 0 setdash 
  hpt 0 360 arc stroke} def
/Opaque {gsave closepath 1 setgray fill grestore 0 setgray closepath} def
/DiaW {stroke [] 0 setdash vpt add M
  hpt neg vpt neg V hpt vpt neg V
  hpt vpt V hpt neg vpt V Opaque stroke} def
/BoxW {stroke [] 0 setdash exch hpt sub exch vpt add M
  0 vpt2 neg V hpt2 0 V 0 vpt2 V
  hpt2 neg 0 V Opaque stroke} def
/TriUW {stroke [] 0 setdash vpt 1.12 mul add M
  hpt neg vpt -1.62 mul V
  hpt 2 mul 0 V
  hpt neg vpt 1.62 mul V Opaque stroke} def
/TriDW {stroke [] 0 setdash vpt 1.12 mul sub M
  hpt neg vpt 1.62 mul V
  hpt 2 mul 0 V
  hpt neg vpt -1.62 mul V Opaque stroke} def
/PentW {stroke [] 0 setdash gsave
  translate 0 hpt M 4 {72 rotate 0 hpt L} repeat
  Opaque stroke grestore} def
/CircW {stroke [] 0 setdash 
  hpt 0 360 arc Opaque stroke} def
/BoxFill {gsave Rec 1 setgray fill grestore} def
/Density {
  /Fillden exch def
  currentrgbcolor
  /ColB exch def /ColG exch def /ColR exch def
  /ColR ColR Fillden mul Fillden sub 1 add def
  /ColG ColG Fillden mul Fillden sub 1 add def
  /ColB ColB Fillden mul Fillden sub 1 add def
  ColR ColG ColB setrgbcolor} def
/BoxColFill {gsave Rec PolyFill} def
/PolyFill {gsave Density fill grestore grestore} def
/h {rlineto rlineto rlineto gsave closepath fill grestore} bind def
%
% PostScript Level 1 Pattern Fill routine for rectangles
% Usage: x y w h s a XX PatternFill
%	x,y = lower left corner of box to be filled
%	w,h = width and height of box
%	  a = angle in degrees between lines and x-axis
%	 XX = 0/1 for no/yes cross-hatch
%
/PatternFill {gsave /PFa [ 9 2 roll ] def
  PFa 0 get PFa 2 get 2 div add PFa 1 get PFa 3 get 2 div add translate
  PFa 2 get -2 div PFa 3 get -2 div PFa 2 get PFa 3 get Rec
  TransparentPatterns {} {gsave 1 setgray fill grestore} ifelse
  clip
  currentlinewidth 0.5 mul setlinewidth
  /PFs PFa 2 get dup mul PFa 3 get dup mul add sqrt def
  0 0 M PFa 5 get rotate PFs -2 div dup translate
  0 1 PFs PFa 4 get div 1 add floor cvi
	{PFa 4 get mul 0 M 0 PFs V} for
  0 PFa 6 get ne {
	0 1 PFs PFa 4 get div 1 add floor cvi
	{PFa 4 get mul 0 2 1 roll M PFs 0 V} for
 } if
  stroke grestore} def
%
/languagelevel where
 {pop languagelevel} {1} ifelse
 2 lt
	{/InterpretLevel1 true def}
	{/InterpretLevel1 Level1 def}
 ifelse
%
% PostScript level 2 pattern fill definitions
%
/Level2PatternFill {
/Tile8x8 {/PaintType 2 /PatternType 1 /TilingType 1 /BBox [0 0 8 8] /XStep 8 /YStep 8}
	bind def
/KeepColor {currentrgbcolor [/Pattern /DeviceRGB] setcolorspace} bind def
<< Tile8x8
 /PaintProc {0.5 setlinewidth pop 0 0 M 8 8 L 0 8 M 8 0 L stroke} 
>> matrix makepattern
/Pat1 exch def
<< Tile8x8
 /PaintProc {0.5 setlinewidth pop 0 0 M 8 8 L 0 8 M 8 0 L stroke
	0 4 M 4 8 L 8 4 L 4 0 L 0 4 L stroke}
>> matrix makepattern
/Pat2 exch def
<< Tile8x8
 /PaintProc {0.5 setlinewidth pop 0 0 M 0 8 L
	8 8 L 8 0 L 0 0 L fill}
>> matrix makepattern
/Pat3 exch def
<< Tile8x8
 /PaintProc {0.5 setlinewidth pop -4 8 M 8 -4 L
	0 12 M 12 0 L stroke}
>> matrix makepattern
/Pat4 exch def
<< Tile8x8
 /PaintProc {0.5 setlinewidth pop -4 0 M 8 12 L
	0 -4 M 12 8 L stroke}
>> matrix makepattern
/Pat5 exch def
<< Tile8x8
 /PaintProc {0.5 setlinewidth pop -2 8 M 4 -4 L
	0 12 M 8 -4 L 4 12 M 10 0 L stroke}
>> matrix makepattern
/Pat6 exch def
<< Tile8x8
 /PaintProc {0.5 setlinewidth pop -2 0 M 4 12 L
	0 -4 M 8 12 L 4 -4 M 10 8 L stroke}
>> matrix makepattern
/Pat7 exch def
<< Tile8x8
 /PaintProc {0.5 setlinewidth pop 8 -2 M -4 4 L
	12 0 M -4 8 L 12 4 M 0 10 L stroke}
>> matrix makepattern
/Pat8 exch def
<< Tile8x8
 /PaintProc {0.5 setlinewidth pop 0 -2 M 12 4 L
	-4 0 M 12 8 L -4 4 M 8 10 L stroke}
>> matrix makepattern
/Pat9 exch def
/Pattern1 {PatternBgnd KeepColor Pat1 setpattern} bind def
/Pattern2 {PatternBgnd KeepColor Pat2 setpattern} bind def
/Pattern3 {PatternBgnd KeepColor Pat3 setpattern} bind def
/Pattern4 {PatternBgnd KeepColor Landscape {Pat5} {Pat4} ifelse setpattern} bind def
/Pattern5 {PatternBgnd KeepColor Landscape {Pat4} {Pat5} ifelse setpattern} bind def
/Pattern6 {PatternBgnd KeepColor Landscape {Pat9} {Pat6} ifelse setpattern} bind def
/Pattern7 {PatternBgnd KeepColor Landscape {Pat8} {Pat7} ifelse setpattern} bind def
} def
%
%
%End of PostScript Level 2 code
%
/PatternBgnd {
  TransparentPatterns {} {gsave 1 setgray fill grestore} ifelse
} def
%
% Substitute for Level 2 pattern fill codes with
% grayscale if Level 2 support is not selected.
%
/Level1PatternFill {
/Pattern1 {0.250 Density} bind def
/Pattern2 {0.500 Density} bind def
/Pattern3 {0.750 Density} bind def
/Pattern4 {0.125 Density} bind def
/Pattern5 {0.375 Density} bind def
/Pattern6 {0.625 Density} bind def
/Pattern7 {0.875 Density} bind def
} def
%
% Now test for support of Level 2 code
%
Level1 {Level1PatternFill} {Level2PatternFill} ifelse
%
/Symbol-Oblique /Symbol findfont [1 0 .167 1 0 0] makefont
dup length dict begin {1 index /FID eq {pop pop} {def} ifelse} forall
currentdict end definefont pop
Level1 SuppressPDFMark or 
{} {
/SDict 10 dict def
systemdict /pdfmark known not {
  userdict /pdfmark systemdict /cleartomark get put
} if
SDict begin [
  /Title (out.ps)
  /Subject (gnuplot plot)
  /Creator (gnuplot 4.6 patchlevel 6)
  /Author (yani)
%  /Producer (gnuplot)
%  /Keywords ()
  /CreationDate (Fri May 29 00:33:53 2015)
  /DOCINFO pdfmark
end
} ifelse
end
%%EndProlog
%%Page: 1 1
gnudict begin
gsave
doclip
50 50 translate
0.100 0.100 scale
90 rotate
0 -5040 translate
0 setgray
newpath
(Helvetica) findfont 140 scalefont setfont
BackgroundColor 0 lt 3 1 roll 0 lt exch 0 lt or or not {gsave BackgroundColor C clippath fill grestore} if
1.000 UL
LT0
0.50 0.50 0.50 C 1.000 UL
LTa
0.50 0.50 0.50 C 966 280 M
5981 0 V
stroke
LT0
0.50 0.50 0.50 C 966 280 M
63 0 V
5918 0 R
-63 0 V
882 280 M
( 0) Rshow
1.000 UL
LT0
0.50 0.50 0.50 C 1.000 UL
LTa
0.50 0.50 0.50 C 966 326 M
5981 0 V
stroke
LT0
0.50 0.50 0.50 C 966 326 M
63 0 V
5918 0 R
-63 0 V
882 326 M
( 0.707106) Rshow
1.000 UL
LT0
0.50 0.50 0.50 C 1.000 UL
LTa
0.50 0.50 0.50 C 966 372 M
5981 0 V
stroke
LT0
0.50 0.50 0.50 C 966 372 M
63 0 V
5918 0 R
-63 0 V
882 372 M
( 1.41421) Rshow
1.000 UL
LT0
0.50 0.50 0.50 C 1.000 UL
LTa
0.50 0.50 0.50 C 966 418 M
5981 0 V
stroke
LT0
0.50 0.50 0.50 C 966 418 M
63 0 V
5918 0 R
-63 0 V
882 418 M
( 2.12132) Rshow
1.000 UL
LT0
0.50 0.50 0.50 C 1.000 UL
LTa
0.50 0.50 0.50 C 966 464 M
5981 0 V
stroke
LT0
0.50 0.50 0.50 C 966 464 M
63 0 V
5918 0 R
-63 0 V
882 464 M
( 2.82842) Rshow
1.000 UL
LT0
0.50 0.50 0.50 C 1.000 UL
LTa
0.50 0.50 0.50 C 966 510 M
5981 0 V
stroke
LT0
0.50 0.50 0.50 C 966 510 M
63 0 V
5918 0 R
-63 0 V
882 510 M
( 3.53553) Rshow
1.000 UL
LT0
0.50 0.50 0.50 C 1.000 UL
LTa
0.50 0.50 0.50 C 966 555 M
5981 0 V
stroke
LT0
0.50 0.50 0.50 C 966 555 M
63 0 V
5918 0 R
-63 0 V
882 555 M
( 4.24264) Rshow
1.000 UL
LT0
0.50 0.50 0.50 C 1.000 UL
LTa
0.50 0.50 0.50 C 966 601 M
5981 0 V
stroke
LT0
0.50 0.50 0.50 C 966 601 M
63 0 V
5918 0 R
-63 0 V
882 601 M
( 4.94974) Rshow
1.000 UL
LT0
0.50 0.50 0.50 C 1.000 UL
LTa
0.50 0.50 0.50 C 966 647 M
5981 0 V
stroke
LT0
0.50 0.50 0.50 C 966 647 M
63 0 V
5918 0 R
-63 0 V
882 647 M
( 5.65685) Rshow
1.000 UL
LT0
0.50 0.50 0.50 C 1.000 UL
LTa
0.50 0.50 0.50 C 966 693 M
5981 0 V
stroke
LT0
0.50 0.50 0.50 C 966 693 M
63 0 V
5918 0 R
-63 0 V
882 693 M
( 6.36395) Rshow
1.000 UL
LT0
0.50 0.50 0.50 C 1.000 UL
LTa
0.50 0.50 0.50 C 966 739 M
5981 0 V
stroke
LT0
0.50 0.50 0.50 C 966 739 M
63 0 V
5918 0 R
-63 0 V
882 739 M
( 7.07106) Rshow
1.000 UL
LT0
0.50 0.50 0.50 C 1.000 UL
LTa
0.50 0.50 0.50 C 966 785 M
5981 0 V
stroke
LT0
0.50 0.50 0.50 C 966 785 M
63 0 V
5918 0 R
-63 0 V
882 785 M
( 7.77817) Rshow
1.000 UL
LT0
0.50 0.50 0.50 C 1.000 UL
LTa
0.50 0.50 0.50 C 966 831 M
5981 0 V
stroke
LT0
0.50 0.50 0.50 C 966 831 M
63 0 V
5918 0 R
-63 0 V
882 831 M
( 8.48527) Rshow
1.000 UL
LT0
0.50 0.50 0.50 C 1.000 UL
LTa
0.50 0.50 0.50 C 966 877 M
5981 0 V
stroke
LT0
0.50 0.50 0.50 C 966 877 M
63 0 V
5918 0 R
-63 0 V
882 877 M
( 9.19238) Rshow
1.000 UL
LT0
0.50 0.50 0.50 C 1.000 UL
LTa
0.50 0.50 0.50 C 966 923 M
5981 0 V
stroke
LT0
0.50 0.50 0.50 C 966 923 M
63 0 V
5918 0 R
-63 0 V
882 923 M
( 9.89948) Rshow
1.000 UL
LT0
0.50 0.50 0.50 C 1.000 UL
LTa
0.50 0.50 0.50 C 966 969 M
5981 0 V
stroke
LT0
0.50 0.50 0.50 C 966 969 M
63 0 V
5918 0 R
-63 0 V
882 969 M
( 10.6066) Rshow
1.000 UL
LT0
0.50 0.50 0.50 C 1.000 UL
LTa
0.50 0.50 0.50 C 966 1015 M
5981 0 V
stroke
LT0
0.50 0.50 0.50 C 966 1015 M
63 0 V
5918 0 R
-63 0 V
-6002 0 R
( 11.3137) Rshow
1.000 UL
LT0
0.50 0.50 0.50 C 1.000 UL
LTa
0.50 0.50 0.50 C 966 1060 M
5981 0 V
stroke
LT0
0.50 0.50 0.50 C 966 1060 M
63 0 V
5918 0 R
-63 0 V
-6002 0 R
( 12.0208) Rshow
1.000 UL
LT0
0.50 0.50 0.50 C 1.000 UL
LTa
0.50 0.50 0.50 C 966 1106 M
5981 0 V
stroke
LT0
0.50 0.50 0.50 C 966 1106 M
63 0 V
5918 0 R
-63 0 V
-6002 0 R
( 12.7279) Rshow
1.000 UL
LT0
0.50 0.50 0.50 C 1.000 UL
LTa
0.50 0.50 0.50 C 966 1152 M
5981 0 V
stroke
LT0
0.50 0.50 0.50 C 966 1152 M
63 0 V
5918 0 R
-63 0 V
-6002 0 R
( 13.435) Rshow
1.000 UL
LT0
0.50 0.50 0.50 C 1.000 UL
LTa
0.50 0.50 0.50 C 966 1198 M
5981 0 V
stroke
LT0
0.50 0.50 0.50 C 966 1198 M
63 0 V
5918 0 R
-63 0 V
-6002 0 R
( 14.1421) Rshow
1.000 UL
LT0
0.50 0.50 0.50 C 1.000 UL
LTa
0.50 0.50 0.50 C 966 1244 M
5981 0 V
stroke
LT0
0.50 0.50 0.50 C 966 1244 M
63 0 V
5918 0 R
-63 0 V
-6002 0 R
( 14.8492) Rshow
1.000 UL
LT0
0.50 0.50 0.50 C 1.000 UL
LTa
0.50 0.50 0.50 C 966 1290 M
5981 0 V
stroke
LT0
0.50 0.50 0.50 C 966 1290 M
63 0 V
5918 0 R
-63 0 V
-6002 0 R
( 15.5563) Rshow
1.000 UL
LT0
0.50 0.50 0.50 C 1.000 UL
LTa
0.50 0.50 0.50 C 966 1336 M
5981 0 V
stroke
LT0
0.50 0.50 0.50 C 966 1336 M
63 0 V
5918 0 R
-63 0 V
-6002 0 R
( 16.2634) Rshow
1.000 UL
LT0
0.50 0.50 0.50 C 1.000 UL
LTa
0.50 0.50 0.50 C 966 1382 M
5981 0 V
stroke
LT0
0.50 0.50 0.50 C 966 1382 M
63 0 V
5918 0 R
-63 0 V
-6002 0 R
( 16.9705) Rshow
1.000 UL
LT0
0.50 0.50 0.50 C 1.000 UL
LTa
0.50 0.50 0.50 C 966 1428 M
5981 0 V
stroke
LT0
0.50 0.50 0.50 C 966 1428 M
63 0 V
5918 0 R
-63 0 V
-6002 0 R
( 17.6776) Rshow
1.000 UL
LT0
0.50 0.50 0.50 C 1.000 UL
LTa
0.50 0.50 0.50 C 966 1474 M
5981 0 V
stroke
LT0
0.50 0.50 0.50 C 966 1474 M
63 0 V
5918 0 R
-63 0 V
-6002 0 R
( 18.3848) Rshow
1.000 UL
LT0
0.50 0.50 0.50 C 1.000 UL
LTa
0.50 0.50 0.50 C 966 1520 M
5981 0 V
stroke
LT0
0.50 0.50 0.50 C 966 1520 M
63 0 V
5918 0 R
-63 0 V
-6002 0 R
( 19.0919) Rshow
1.000 UL
LT0
0.50 0.50 0.50 C 1.000 UL
LTa
0.50 0.50 0.50 C 966 1565 M
5981 0 V
stroke
LT0
0.50 0.50 0.50 C 966 1565 M
63 0 V
5918 0 R
-63 0 V
-6002 0 R
( 19.799) Rshow
1.000 UL
LT0
0.50 0.50 0.50 C 1.000 UL
LTa
0.50 0.50 0.50 C 966 1611 M
5981 0 V
stroke
LT0
0.50 0.50 0.50 C 966 1611 M
63 0 V
5918 0 R
-63 0 V
-6002 0 R
( 20.5061) Rshow
1.000 UL
LT0
0.50 0.50 0.50 C 1.000 UL
LTa
0.50 0.50 0.50 C 966 1657 M
5981 0 V
stroke
LT0
0.50 0.50 0.50 C 966 1657 M
63 0 V
5918 0 R
-63 0 V
-6002 0 R
( 21.2132) Rshow
1.000 UL
LT0
0.50 0.50 0.50 C 1.000 UL
LTa
0.50 0.50 0.50 C 966 1703 M
5981 0 V
stroke
LT0
0.50 0.50 0.50 C 966 1703 M
63 0 V
5918 0 R
-63 0 V
-6002 0 R
( 21.9203) Rshow
1.000 UL
LT0
0.50 0.50 0.50 C 1.000 UL
LTa
0.50 0.50 0.50 C 966 1749 M
5981 0 V
stroke
LT0
0.50 0.50 0.50 C 966 1749 M
63 0 V
5918 0 R
-63 0 V
-6002 0 R
( 22.6274) Rshow
1.000 UL
LT0
0.50 0.50 0.50 C 1.000 UL
LTa
0.50 0.50 0.50 C 966 1795 M
5981 0 V
stroke
LT0
0.50 0.50 0.50 C 966 1795 M
63 0 V
5918 0 R
-63 0 V
-6002 0 R
( 23.3345) Rshow
1.000 UL
LT0
0.50 0.50 0.50 C 1.000 UL
LTa
0.50 0.50 0.50 C 966 1841 M
5981 0 V
stroke
LT0
0.50 0.50 0.50 C 966 1841 M
63 0 V
5918 0 R
-63 0 V
-6002 0 R
( 24.0416) Rshow
1.000 UL
LT0
0.50 0.50 0.50 C 1.000 UL
LTa
0.50 0.50 0.50 C 966 1887 M
5981 0 V
stroke
LT0
0.50 0.50 0.50 C 966 1887 M
63 0 V
5918 0 R
-63 0 V
-6002 0 R
( 24.7487) Rshow
1.000 UL
LT0
0.50 0.50 0.50 C 1.000 UL
LTa
0.50 0.50 0.50 C 966 1933 M
5981 0 V
stroke
LT0
0.50 0.50 0.50 C 966 1933 M
63 0 V
5918 0 R
-63 0 V
-6002 0 R
( 25.4558) Rshow
1.000 UL
LT0
0.50 0.50 0.50 C 1.000 UL
LTa
0.50 0.50 0.50 C 966 1979 M
5981 0 V
stroke
LT0
0.50 0.50 0.50 C 966 1979 M
63 0 V
5918 0 R
-63 0 V
-6002 0 R
( 26.1629) Rshow
1.000 UL
LT0
0.50 0.50 0.50 C 1.000 UL
LTa
0.50 0.50 0.50 C 966 2025 M
5981 0 V
stroke
LT0
0.50 0.50 0.50 C 966 2025 M
63 0 V
5918 0 R
-63 0 V
-6002 0 R
( 26.87) Rshow
1.000 UL
LT0
0.50 0.50 0.50 C 1.000 UL
LTa
0.50 0.50 0.50 C 966 2070 M
5981 0 V
stroke
LT0
0.50 0.50 0.50 C 966 2070 M
63 0 V
5918 0 R
-63 0 V
-6002 0 R
( 27.5771) Rshow
1.000 UL
LT0
0.50 0.50 0.50 C 1.000 UL
LTa
0.50 0.50 0.50 C 966 2116 M
5981 0 V
stroke
LT0
0.50 0.50 0.50 C 966 2116 M
63 0 V
5918 0 R
-63 0 V
-6002 0 R
( 28.2842) Rshow
1.000 UL
LT0
0.50 0.50 0.50 C 1.000 UL
LTa
0.50 0.50 0.50 C 966 2162 M
5981 0 V
stroke
LT0
0.50 0.50 0.50 C 966 2162 M
63 0 V
5918 0 R
-63 0 V
-6002 0 R
( 28.9913) Rshow
1.000 UL
LT0
0.50 0.50 0.50 C 1.000 UL
LTa
0.50 0.50 0.50 C 966 2208 M
5981 0 V
stroke
LT0
0.50 0.50 0.50 C 966 2208 M
63 0 V
5918 0 R
-63 0 V
-6002 0 R
( 29.6985) Rshow
1.000 UL
LT0
0.50 0.50 0.50 C 1.000 UL
LTa
0.50 0.50 0.50 C 966 2254 M
5981 0 V
stroke
LT0
0.50 0.50 0.50 C 966 2254 M
63 0 V
5918 0 R
-63 0 V
-6002 0 R
( 30.4056) Rshow
1.000 UL
LT0
0.50 0.50 0.50 C 1.000 UL
LTa
0.50 0.50 0.50 C 966 2300 M
5981 0 V
stroke
LT0
0.50 0.50 0.50 C 966 2300 M
63 0 V
5918 0 R
-63 0 V
-6002 0 R
( 31.1127) Rshow
1.000 UL
LT0
0.50 0.50 0.50 C 1.000 UL
LTa
0.50 0.50 0.50 C 966 2346 M
5981 0 V
stroke
LT0
0.50 0.50 0.50 C 966 2346 M
63 0 V
5918 0 R
-63 0 V
-6002 0 R
( 31.8198) Rshow
1.000 UL
LT0
0.50 0.50 0.50 C 1.000 UL
LTa
0.50 0.50 0.50 C 966 2392 M
5981 0 V
stroke
LT0
0.50 0.50 0.50 C 966 2392 M
63 0 V
5918 0 R
-63 0 V
-6002 0 R
( 32.5269) Rshow
1.000 UL
LT0
0.50 0.50 0.50 C 1.000 UL
LTa
0.50 0.50 0.50 C 966 2438 M
5981 0 V
stroke
LT0
0.50 0.50 0.50 C 966 2438 M
63 0 V
5918 0 R
-63 0 V
-6002 0 R
( 33.234) Rshow
1.000 UL
LT0
0.50 0.50 0.50 C 1.000 UL
LTa
0.50 0.50 0.50 C 966 2484 M
5981 0 V
stroke
LT0
0.50 0.50 0.50 C 966 2484 M
63 0 V
5918 0 R
-63 0 V
-6002 0 R
( 33.9411) Rshow
1.000 UL
LT0
0.50 0.50 0.50 C 1.000 UL
LTa
0.50 0.50 0.50 C 966 2530 M
5981 0 V
stroke
LT0
0.50 0.50 0.50 C 966 2530 M
63 0 V
5918 0 R
-63 0 V
-6002 0 R
( 34.6482) Rshow
1.000 UL
LT0
0.50 0.50 0.50 C 1.000 UL
LTa
0.50 0.50 0.50 C 966 2576 M
5981 0 V
stroke
LT0
0.50 0.50 0.50 C 966 2576 M
63 0 V
5918 0 R
-63 0 V
-6002 0 R
( 35.3553) Rshow
1.000 UL
LT0
0.50 0.50 0.50 C 1.000 UL
LTa
0.50 0.50 0.50 C 966 2621 M
5981 0 V
stroke
LT0
0.50 0.50 0.50 C 966 2621 M
63 0 V
5918 0 R
-63 0 V
-6002 0 R
( 36.0624) Rshow
1.000 UL
LT0
0.50 0.50 0.50 C 1.000 UL
LTa
0.50 0.50 0.50 C 966 2667 M
5981 0 V
stroke
LT0
0.50 0.50 0.50 C 966 2667 M
63 0 V
5918 0 R
-63 0 V
-6002 0 R
( 36.7695) Rshow
1.000 UL
LT0
0.50 0.50 0.50 C 1.000 UL
LTa
0.50 0.50 0.50 C 966 2713 M
5981 0 V
stroke
LT0
0.50 0.50 0.50 C 966 2713 M
63 0 V
5918 0 R
-63 0 V
-6002 0 R
( 37.4766) Rshow
1.000 UL
LT0
0.50 0.50 0.50 C 1.000 UL
LTa
0.50 0.50 0.50 C 966 2759 M
5981 0 V
stroke
LT0
0.50 0.50 0.50 C 966 2759 M
63 0 V
5918 0 R
-63 0 V
-6002 0 R
( 38.1837) Rshow
1.000 UL
LT0
0.50 0.50 0.50 C 1.000 UL
LTa
0.50 0.50 0.50 C 966 2805 M
5981 0 V
stroke
LT0
0.50 0.50 0.50 C 966 2805 M
63 0 V
5918 0 R
-63 0 V
-6002 0 R
( 38.8908) Rshow
1.000 UL
LT0
0.50 0.50 0.50 C 1.000 UL
LTa
0.50 0.50 0.50 C 966 2851 M
5981 0 V
stroke
LT0
0.50 0.50 0.50 C 966 2851 M
63 0 V
5918 0 R
-63 0 V
-6002 0 R
( 39.5979) Rshow
1.000 UL
LT0
0.50 0.50 0.50 C 1.000 UL
LTa
0.50 0.50 0.50 C 966 2897 M
5981 0 V
stroke
LT0
0.50 0.50 0.50 C 966 2897 M
63 0 V
5918 0 R
-63 0 V
-6002 0 R
( 40.305) Rshow
1.000 UL
LT0
0.50 0.50 0.50 C 1.000 UL
LTa
0.50 0.50 0.50 C 966 2943 M
5981 0 V
stroke
LT0
0.50 0.50 0.50 C 966 2943 M
63 0 V
5918 0 R
-63 0 V
-6002 0 R
( 41.0121) Rshow
1.000 UL
LT0
0.50 0.50 0.50 C 1.000 UL
LTa
0.50 0.50 0.50 C 966 2989 M
5981 0 V
stroke
LT0
0.50 0.50 0.50 C 966 2989 M
63 0 V
5918 0 R
-63 0 V
-6002 0 R
( 41.7193) Rshow
1.000 UL
LT0
0.50 0.50 0.50 C 1.000 UL
LTa
0.50 0.50 0.50 C 966 3035 M
5981 0 V
stroke
LT0
0.50 0.50 0.50 C 966 3035 M
63 0 V
5918 0 R
-63 0 V
-6002 0 R
( 42.4264) Rshow
1.000 UL
LT0
0.50 0.50 0.50 C 1.000 UL
LTa
0.50 0.50 0.50 C 966 3081 M
5981 0 V
stroke
LT0
0.50 0.50 0.50 C 966 3081 M
63 0 V
5918 0 R
-63 0 V
-6002 0 R
( 43.1335) Rshow
1.000 UL
LT0
0.50 0.50 0.50 C 1.000 UL
LTa
0.50 0.50 0.50 C 966 3126 M
5981 0 V
stroke
LT0
0.50 0.50 0.50 C 966 3126 M
63 0 V
5918 0 R
-63 0 V
-6002 0 R
( 43.8406) Rshow
1.000 UL
LT0
0.50 0.50 0.50 C 1.000 UL
LTa
0.50 0.50 0.50 C 966 3172 M
5981 0 V
stroke
LT0
0.50 0.50 0.50 C 966 3172 M
63 0 V
5918 0 R
-63 0 V
-6002 0 R
( 44.5477) Rshow
1.000 UL
LT0
0.50 0.50 0.50 C 1.000 UL
LTa
0.50 0.50 0.50 C 966 3218 M
5981 0 V
stroke
LT0
0.50 0.50 0.50 C 966 3218 M
63 0 V
5918 0 R
-63 0 V
-6002 0 R
( 45.2548) Rshow
1.000 UL
LT0
0.50 0.50 0.50 C 1.000 UL
LTa
0.50 0.50 0.50 C 966 3264 M
5981 0 V
stroke
LT0
0.50 0.50 0.50 C 966 3264 M
63 0 V
5918 0 R
-63 0 V
-6002 0 R
( 45.9619) Rshow
1.000 UL
LT0
0.50 0.50 0.50 C 1.000 UL
LTa
0.50 0.50 0.50 C 966 3310 M
5981 0 V
stroke
LT0
0.50 0.50 0.50 C 966 3310 M
63 0 V
5918 0 R
-63 0 V
-6002 0 R
( 46.669) Rshow
1.000 UL
LT0
0.50 0.50 0.50 C 1.000 UL
LTa
0.50 0.50 0.50 C 966 3356 M
5981 0 V
stroke
LT0
0.50 0.50 0.50 C 966 3356 M
63 0 V
5918 0 R
-63 0 V
-6002 0 R
( 47.3761) Rshow
1.000 UL
LT0
0.50 0.50 0.50 C 1.000 UL
LTa
0.50 0.50 0.50 C 966 3402 M
5981 0 V
stroke
LT0
0.50 0.50 0.50 C 966 3402 M
63 0 V
5918 0 R
-63 0 V
-6002 0 R
( 48.0832) Rshow
1.000 UL
LT0
0.50 0.50 0.50 C 1.000 UL
LTa
0.50 0.50 0.50 C 966 3448 M
5981 0 V
stroke
LT0
0.50 0.50 0.50 C 966 3448 M
63 0 V
5918 0 R
-63 0 V
-6002 0 R
( 48.7903) Rshow
1.000 UL
LT0
0.50 0.50 0.50 C 1.000 UL
LTa
0.50 0.50 0.50 C 966 3494 M
5981 0 V
stroke
LT0
0.50 0.50 0.50 C 966 3494 M
63 0 V
5918 0 R
-63 0 V
-6002 0 R
( 49.4974) Rshow
1.000 UL
LT0
0.50 0.50 0.50 C 1.000 UL
LTa
0.50 0.50 0.50 C 966 3540 M
5981 0 V
stroke
LT0
0.50 0.50 0.50 C 966 3540 M
63 0 V
5918 0 R
-63 0 V
-6002 0 R
( 50.2045) Rshow
1.000 UL
LT0
0.50 0.50 0.50 C 1.000 UL
LTa
0.50 0.50 0.50 C 966 3586 M
5981 0 V
stroke
LT0
0.50 0.50 0.50 C 966 3586 M
63 0 V
5918 0 R
-63 0 V
-6002 0 R
( 50.9116) Rshow
1.000 UL
LT0
0.50 0.50 0.50 C 1.000 UL
LTa
0.50 0.50 0.50 C 966 3631 M
5981 0 V
stroke
LT0
0.50 0.50 0.50 C 966 3631 M
63 0 V
5918 0 R
-63 0 V
-6002 0 R
( 51.6187) Rshow
1.000 UL
LT0
0.50 0.50 0.50 C 1.000 UL
LTa
0.50 0.50 0.50 C 966 3677 M
5981 0 V
stroke
LT0
0.50 0.50 0.50 C 966 3677 M
63 0 V
5918 0 R
-63 0 V
-6002 0 R
( 52.3258) Rshow
1.000 UL
LT0
0.50 0.50 0.50 C 1.000 UL
LTa
0.50 0.50 0.50 C 966 3723 M
5981 0 V
stroke
LT0
0.50 0.50 0.50 C 966 3723 M
63 0 V
5918 0 R
-63 0 V
-6002 0 R
( 53.033) Rshow
1.000 UL
LT0
0.50 0.50 0.50 C 1.000 UL
LTa
0.50 0.50 0.50 C 966 3769 M
5981 0 V
stroke
LT0
0.50 0.50 0.50 C 966 3769 M
63 0 V
5918 0 R
-63 0 V
-6002 0 R
( 53.7401) Rshow
1.000 UL
LT0
0.50 0.50 0.50 C 1.000 UL
LTa
0.50 0.50 0.50 C 966 3815 M
5981 0 V
stroke
LT0
0.50 0.50 0.50 C 966 3815 M
63 0 V
5918 0 R
-63 0 V
-6002 0 R
( 54.4472) Rshow
1.000 UL
LT0
0.50 0.50 0.50 C 1.000 UL
LTa
0.50 0.50 0.50 C 966 3861 M
5981 0 V
stroke
LT0
0.50 0.50 0.50 C 966 3861 M
63 0 V
5918 0 R
-63 0 V
-6002 0 R
( 55.1543) Rshow
1.000 UL
LT0
0.50 0.50 0.50 C 1.000 UL
LTa
0.50 0.50 0.50 C 966 3907 M
5981 0 V
stroke
LT0
0.50 0.50 0.50 C 966 3907 M
63 0 V
5918 0 R
-63 0 V
-6002 0 R
( 55.8614) Rshow
1.000 UL
LT0
0.50 0.50 0.50 C 1.000 UL
LTa
0.50 0.50 0.50 C 966 3953 M
5981 0 V
stroke
LT0
0.50 0.50 0.50 C 966 3953 M
63 0 V
5918 0 R
-63 0 V
-6002 0 R
( 56.5685) Rshow
1.000 UL
LT0
0.50 0.50 0.50 C 1.000 UL
LTa
0.50 0.50 0.50 C 966 3999 M
5981 0 V
stroke
LT0
0.50 0.50 0.50 C 966 3999 M
63 0 V
5918 0 R
-63 0 V
-6002 0 R
( 57.2756) Rshow
1.000 UL
LT0
0.50 0.50 0.50 C 1.000 UL
LTa
0.50 0.50 0.50 C 966 4045 M
5981 0 V
stroke
LT0
0.50 0.50 0.50 C 966 4045 M
63 0 V
5918 0 R
-63 0 V
-6002 0 R
( 57.9827) Rshow
1.000 UL
LT0
0.50 0.50 0.50 C 1.000 UL
LTa
0.50 0.50 0.50 C 966 4091 M
5981 0 V
stroke
LT0
0.50 0.50 0.50 C 966 4091 M
63 0 V
5918 0 R
-63 0 V
-6002 0 R
( 58.6898) Rshow
1.000 UL
LT0
0.50 0.50 0.50 C 1.000 UL
LTa
0.50 0.50 0.50 C 966 4136 M
5981 0 V
stroke
LT0
0.50 0.50 0.50 C 966 4136 M
63 0 V
5918 0 R
-63 0 V
-6002 0 R
( 59.3969) Rshow
1.000 UL
LT0
0.50 0.50 0.50 C 1.000 UL
LTa
0.50 0.50 0.50 C 966 4182 M
5981 0 V
stroke
LT0
0.50 0.50 0.50 C 966 4182 M
63 0 V
5918 0 R
-63 0 V
-6002 0 R
( 60.104) Rshow
1.000 UL
LT0
0.50 0.50 0.50 C 1.000 UL
LTa
0.50 0.50 0.50 C 966 4228 M
5981 0 V
stroke
LT0
0.50 0.50 0.50 C 966 4228 M
63 0 V
5918 0 R
-63 0 V
-6002 0 R
( 60.8111) Rshow
1.000 UL
LT0
0.50 0.50 0.50 C 1.000 UL
LTa
0.50 0.50 0.50 C 966 4274 M
5981 0 V
stroke
LT0
0.50 0.50 0.50 C 966 4274 M
63 0 V
5918 0 R
-63 0 V
-6002 0 R
( 61.5182) Rshow
1.000 UL
LT0
0.50 0.50 0.50 C 1.000 UL
LTa
0.50 0.50 0.50 C 966 4320 M
5981 0 V
stroke
LT0
0.50 0.50 0.50 C 966 4320 M
63 0 V
5918 0 R
-63 0 V
-6002 0 R
( 62.2253) Rshow
1.000 UL
LT0
0.50 0.50 0.50 C 1.000 UL
LTa
0.50 0.50 0.50 C 966 4366 M
5981 0 V
stroke
LT0
0.50 0.50 0.50 C 966 4366 M
63 0 V
5918 0 R
-63 0 V
-6002 0 R
( 62.9324) Rshow
1.000 UL
LT0
0.50 0.50 0.50 C 1.000 UL
LTa
0.50 0.50 0.50 C 966 4412 M
5981 0 V
stroke
LT0
0.50 0.50 0.50 C 966 4412 M
63 0 V
5918 0 R
-63 0 V
-6002 0 R
( 63.6395) Rshow
1.000 UL
LT0
0.50 0.50 0.50 C 1.000 UL
LTa
0.50 0.50 0.50 C 966 4458 M
5981 0 V
stroke
LT0
0.50 0.50 0.50 C 966 4458 M
63 0 V
5918 0 R
-63 0 V
-6002 0 R
( 64.3466) Rshow
1.000 UL
LT0
0.50 0.50 0.50 C 1.000 UL
LTa
0.50 0.50 0.50 C 966 4504 M
5981 0 V
stroke
LT0
0.50 0.50 0.50 C 966 4504 M
63 0 V
5918 0 R
-63 0 V
-6002 0 R
( 65.0538) Rshow
1.000 UL
LT0
0.50 0.50 0.50 C 1.000 UL
LTa
0.50 0.50 0.50 C 966 4550 M
5981 0 V
stroke
LT0
0.50 0.50 0.50 C 966 4550 M
63 0 V
5918 0 R
-63 0 V
-6002 0 R
( 65.7609) Rshow
1.000 UL
LT0
0.50 0.50 0.50 C 1.000 UL
LTa
0.50 0.50 0.50 C 966 4596 M
5981 0 V
stroke
LT0
0.50 0.50 0.50 C 966 4596 M
63 0 V
5918 0 R
-63 0 V
-6002 0 R
( 66.468) Rshow
1.000 UL
LT0
0.50 0.50 0.50 C 1.000 UL
LTa
0.50 0.50 0.50 C 966 4641 M
5981 0 V
stroke
LT0
0.50 0.50 0.50 C 966 4641 M
63 0 V
5918 0 R
-63 0 V
-6002 0 R
( 67.1751) Rshow
1.000 UL
LT0
0.50 0.50 0.50 C 1.000 UL
LTa
0.50 0.50 0.50 C 966 4687 M
5981 0 V
stroke
LT0
0.50 0.50 0.50 C 966 4687 M
63 0 V
5918 0 R
-63 0 V
-6002 0 R
( 67.8822) Rshow
1.000 UL
LT0
0.50 0.50 0.50 C 1.000 UL
LTa
0.50 0.50 0.50 C 966 4733 M
5981 0 V
stroke
LT0
0.50 0.50 0.50 C 966 4733 M
63 0 V
5918 0 R
-63 0 V
-6002 0 R
( 68.5893) Rshow
1.000 UL
LT0
0.50 0.50 0.50 C 1.000 UL
LTa
0.50 0.50 0.50 C 966 4779 M
5981 0 V
stroke
LT0
0.50 0.50 0.50 C 966 4779 M
63 0 V
5918 0 R
-63 0 V
-6002 0 R
( 69.2964) Rshow
1.000 UL
LT0
0.50 0.50 0.50 C 1.000 UL
LTa
0.50 0.50 0.50 C 966 4825 M
5981 0 V
stroke
LT0
0.50 0.50 0.50 C 966 4825 M
63 0 V
5918 0 R
-63 0 V
-6002 0 R
( 70.0035) Rshow
1.000 UL
LT0
0.50 0.50 0.50 C 1.000 UL
LTa
0.50 0.50 0.50 C 966 4871 M
5981 0 V
stroke
LT0
0.50 0.50 0.50 C 966 4871 M
63 0 V
5918 0 R
-63 0 V
-6002 0 R
( 70.7106) Rshow
1.000 UL
LT0
0.50 0.50 0.50 C 1.000 UL
LTa
0.50 0.50 0.50 C 966 280 M
0 4591 V
stroke
LT0
0.50 0.50 0.50 C 966 280 M
0 63 V
0 4528 R
0 -63 V
966 140 M
( 0) Cshow
1.000 UL
LT0
0.50 0.50 0.50 C 1.000 UL
LTa
0.50 0.50 0.50 C 1026 280 M
0 4591 V
stroke
LT0
0.50 0.50 0.50 C 1026 280 M
0 63 V
0 4528 R
0 -63 V
0 -4668 R
( 0.707106) Cshow
1.000 UL
LT0
0.50 0.50 0.50 C 1.000 UL
LTa
0.50 0.50 0.50 C 1086 280 M
0 4591 V
stroke
LT0
0.50 0.50 0.50 C 1086 280 M
0 63 V
0 4528 R
0 -63 V
0 -4668 R
( 1.41421) Cshow
1.000 UL
LT0
0.50 0.50 0.50 C 1.000 UL
LTa
0.50 0.50 0.50 C 1145 280 M
0 4591 V
stroke
LT0
0.50 0.50 0.50 C 1145 280 M
0 63 V
0 4528 R
0 -63 V
0 -4668 R
( 2.12132) Cshow
1.000 UL
LT0
0.50 0.50 0.50 C 1.000 UL
LTa
0.50 0.50 0.50 C 1205 280 M
0 4591 V
stroke
LT0
0.50 0.50 0.50 C 1205 280 M
0 63 V
0 4528 R
0 -63 V
0 -4668 R
( 2.82842) Cshow
1.000 UL
LT0
0.50 0.50 0.50 C 1.000 UL
LTa
0.50 0.50 0.50 C 1265 280 M
0 4591 V
stroke
LT0
0.50 0.50 0.50 C 1265 280 M
0 63 V
0 4528 R
0 -63 V
0 -4668 R
( 3.53553) Cshow
1.000 UL
LT0
0.50 0.50 0.50 C 1.000 UL
LTa
0.50 0.50 0.50 C 1325 280 M
0 4591 V
stroke
LT0
0.50 0.50 0.50 C 1325 280 M
0 63 V
0 4528 R
0 -63 V
0 -4668 R
( 4.24264) Cshow
1.000 UL
LT0
0.50 0.50 0.50 C 1.000 UL
LTa
0.50 0.50 0.50 C 1385 280 M
0 4591 V
stroke
LT0
0.50 0.50 0.50 C 1385 280 M
0 63 V
0 4528 R
0 -63 V
0 -4668 R
( 4.94974) Cshow
1.000 UL
LT0
0.50 0.50 0.50 C 1.000 UL
LTa
0.50 0.50 0.50 C 1444 280 M
0 4591 V
stroke
LT0
0.50 0.50 0.50 C 1444 280 M
0 63 V
0 4528 R
0 -63 V
0 -4668 R
( 5.65685) Cshow
1.000 UL
LT0
0.50 0.50 0.50 C 1.000 UL
LTa
0.50 0.50 0.50 C 1504 280 M
0 4591 V
stroke
LT0
0.50 0.50 0.50 C 1504 280 M
0 63 V
0 4528 R
0 -63 V
0 -4668 R
( 6.36395) Cshow
1.000 UL
LT0
0.50 0.50 0.50 C 1.000 UL
LTa
0.50 0.50 0.50 C 1564 280 M
0 4591 V
stroke
LT0
0.50 0.50 0.50 C 1564 280 M
0 63 V
0 4528 R
0 -63 V
0 -4668 R
( 7.07106) Cshow
1.000 UL
LT0
0.50 0.50 0.50 C 1.000 UL
LTa
0.50 0.50 0.50 C 1624 280 M
0 4591 V
stroke
LT0
0.50 0.50 0.50 C 1624 280 M
0 63 V
0 4528 R
0 -63 V
0 -4668 R
( 7.77817) Cshow
1.000 UL
LT0
0.50 0.50 0.50 C 1.000 UL
LTa
0.50 0.50 0.50 C 1684 280 M
0 4591 V
stroke
LT0
0.50 0.50 0.50 C 1684 280 M
0 63 V
0 4528 R
0 -63 V
0 -4668 R
( 8.48527) Cshow
1.000 UL
LT0
0.50 0.50 0.50 C 1.000 UL
LTa
0.50 0.50 0.50 C 1744 280 M
0 4591 V
stroke
LT0
0.50 0.50 0.50 C 1744 280 M
0 63 V
0 4528 R
0 -63 V
0 -4668 R
( 9.19238) Cshow
1.000 UL
LT0
0.50 0.50 0.50 C 1.000 UL
LTa
0.50 0.50 0.50 C 1803 280 M
0 4591 V
stroke
LT0
0.50 0.50 0.50 C 1803 280 M
0 63 V
0 4528 R
0 -63 V
0 -4668 R
( 9.89948) Cshow
1.000 UL
LT0
0.50 0.50 0.50 C 1.000 UL
LTa
0.50 0.50 0.50 C 1863 280 M
0 4591 V
stroke
LT0
0.50 0.50 0.50 C 1863 280 M
0 63 V
0 4528 R
0 -63 V
0 -4668 R
( 10.6066) Cshow
1.000 UL
LT0
0.50 0.50 0.50 C 1.000 UL
LTa
0.50 0.50 0.50 C 1923 280 M
0 4591 V
stroke
LT0
0.50 0.50 0.50 C 1923 280 M
0 63 V
0 4528 R
0 -63 V
0 -4668 R
( 11.3137) Cshow
1.000 UL
LT0
0.50 0.50 0.50 C 1.000 UL
LTa
0.50 0.50 0.50 C 1983 280 M
0 4591 V
stroke
LT0
0.50 0.50 0.50 C 1983 280 M
0 63 V
0 4528 R
0 -63 V
0 -4668 R
( 12.0208) Cshow
1.000 UL
LT0
0.50 0.50 0.50 C 1.000 UL
LTa
0.50 0.50 0.50 C 2043 280 M
0 4591 V
stroke
LT0
0.50 0.50 0.50 C 2043 280 M
0 63 V
0 4528 R
0 -63 V
0 -4668 R
( 12.7279) Cshow
1.000 UL
LT0
0.50 0.50 0.50 C 1.000 UL
LTa
0.50 0.50 0.50 C 2102 280 M
0 4591 V
stroke
LT0
0.50 0.50 0.50 C 2102 280 M
0 63 V
0 4528 R
0 -63 V
0 -4668 R
( 13.435) Cshow
1.000 UL
LT0
0.50 0.50 0.50 C 1.000 UL
LTa
0.50 0.50 0.50 C 2162 280 M
0 4591 V
stroke
LT0
0.50 0.50 0.50 C 2162 280 M
0 63 V
0 4528 R
0 -63 V
0 -4668 R
( 14.1421) Cshow
1.000 UL
LT0
0.50 0.50 0.50 C 1.000 UL
LTa
0.50 0.50 0.50 C 2222 280 M
0 4591 V
stroke
LT0
0.50 0.50 0.50 C 2222 280 M
0 63 V
0 4528 R
0 -63 V
0 -4668 R
( 14.8492) Cshow
1.000 UL
LT0
0.50 0.50 0.50 C 1.000 UL
LTa
0.50 0.50 0.50 C 2282 280 M
0 4591 V
stroke
LT0
0.50 0.50 0.50 C 2282 280 M
0 63 V
0 4528 R
0 -63 V
0 -4668 R
( 15.5563) Cshow
1.000 UL
LT0
0.50 0.50 0.50 C 1.000 UL
LTa
0.50 0.50 0.50 C 2342 280 M
0 4591 V
stroke
LT0
0.50 0.50 0.50 C 2342 280 M
0 63 V
0 4528 R
0 -63 V
0 -4668 R
( 16.2634) Cshow
1.000 UL
LT0
0.50 0.50 0.50 C 1.000 UL
LTa
0.50 0.50 0.50 C 2401 280 M
0 4591 V
stroke
LT0
0.50 0.50 0.50 C 2401 280 M
0 63 V
0 4528 R
0 -63 V
0 -4668 R
( 16.9705) Cshow
1.000 UL
LT0
0.50 0.50 0.50 C 1.000 UL
LTa
0.50 0.50 0.50 C 2461 280 M
0 4591 V
stroke
LT0
0.50 0.50 0.50 C 2461 280 M
0 63 V
0 4528 R
0 -63 V
0 -4668 R
( 17.6776) Cshow
1.000 UL
LT0
0.50 0.50 0.50 C 1.000 UL
LTa
0.50 0.50 0.50 C 2521 280 M
0 4591 V
stroke
LT0
0.50 0.50 0.50 C 2521 280 M
0 63 V
0 4528 R
0 -63 V
0 -4668 R
( 18.3848) Cshow
1.000 UL
LT0
0.50 0.50 0.50 C 1.000 UL
LTa
0.50 0.50 0.50 C 2581 280 M
0 4591 V
stroke
LT0
0.50 0.50 0.50 C 2581 280 M
0 63 V
0 4528 R
0 -63 V
0 -4668 R
( 19.0919) Cshow
1.000 UL
LT0
0.50 0.50 0.50 C 1.000 UL
LTa
0.50 0.50 0.50 C 2641 280 M
0 4591 V
stroke
LT0
0.50 0.50 0.50 C 2641 280 M
0 63 V
0 4528 R
0 -63 V
0 -4668 R
( 19.799) Cshow
1.000 UL
LT0
0.50 0.50 0.50 C 1.000 UL
LTa
0.50 0.50 0.50 C 2700 280 M
0 4591 V
stroke
LT0
0.50 0.50 0.50 C 2700 280 M
0 63 V
0 4528 R
0 -63 V
0 -4668 R
( 20.5061) Cshow
1.000 UL
LT0
0.50 0.50 0.50 C 1.000 UL
LTa
0.50 0.50 0.50 C 2760 280 M
0 4591 V
stroke
LT0
0.50 0.50 0.50 C 2760 280 M
0 63 V
0 4528 R
0 -63 V
0 -4668 R
( 21.2132) Cshow
1.000 UL
LT0
0.50 0.50 0.50 C 1.000 UL
LTa
0.50 0.50 0.50 C 2820 280 M
0 4591 V
stroke
LT0
0.50 0.50 0.50 C 2820 280 M
0 63 V
0 4528 R
0 -63 V
0 -4668 R
( 21.9203) Cshow
1.000 UL
LT0
0.50 0.50 0.50 C 1.000 UL
LTa
0.50 0.50 0.50 C 2880 280 M
0 4591 V
stroke
LT0
0.50 0.50 0.50 C 2880 280 M
0 63 V
0 4528 R
0 -63 V
0 -4668 R
( 22.6274) Cshow
1.000 UL
LT0
0.50 0.50 0.50 C 1.000 UL
LTa
0.50 0.50 0.50 C 2940 280 M
0 4591 V
stroke
LT0
0.50 0.50 0.50 C 2940 280 M
0 63 V
0 4528 R
0 -63 V
0 -4668 R
( 23.3345) Cshow
1.000 UL
LT0
0.50 0.50 0.50 C 1.000 UL
LTa
0.50 0.50 0.50 C 3000 280 M
0 4591 V
stroke
LT0
0.50 0.50 0.50 C 3000 280 M
0 63 V
0 4528 R
0 -63 V
0 -4668 R
( 24.0416) Cshow
1.000 UL
LT0
0.50 0.50 0.50 C 1.000 UL
LTa
0.50 0.50 0.50 C 3059 280 M
0 4591 V
stroke
LT0
0.50 0.50 0.50 C 3059 280 M
0 63 V
0 4528 R
0 -63 V
0 -4668 R
( 24.7487) Cshow
1.000 UL
LT0
0.50 0.50 0.50 C 1.000 UL
LTa
0.50 0.50 0.50 C 3119 280 M
0 4591 V
stroke
LT0
0.50 0.50 0.50 C 3119 280 M
0 63 V
0 4528 R
0 -63 V
0 -4668 R
( 25.4558) Cshow
1.000 UL
LT0
0.50 0.50 0.50 C 1.000 UL
LTa
0.50 0.50 0.50 C 3179 280 M
0 4591 V
stroke
LT0
0.50 0.50 0.50 C 3179 280 M
0 63 V
0 4528 R
0 -63 V
0 -4668 R
( 26.1629) Cshow
1.000 UL
LT0
0.50 0.50 0.50 C 1.000 UL
LTa
0.50 0.50 0.50 C 3239 280 M
0 4591 V
stroke
LT0
0.50 0.50 0.50 C 3239 280 M
0 63 V
0 4528 R
0 -63 V
0 -4668 R
( 26.87) Cshow
1.000 UL
LT0
0.50 0.50 0.50 C 1.000 UL
LTa
0.50 0.50 0.50 C 3299 280 M
0 4591 V
stroke
LT0
0.50 0.50 0.50 C 3299 280 M
0 63 V
0 4528 R
0 -63 V
0 -4668 R
( 27.5771) Cshow
1.000 UL
LT0
0.50 0.50 0.50 C 1.000 UL
LTa
0.50 0.50 0.50 C 3358 280 M
0 4591 V
stroke
LT0
0.50 0.50 0.50 C 3358 280 M
0 63 V
0 4528 R
0 -63 V
0 -4668 R
( 28.2842) Cshow
1.000 UL
LT0
0.50 0.50 0.50 C 1.000 UL
LTa
0.50 0.50 0.50 C 3418 280 M
0 4591 V
stroke
LT0
0.50 0.50 0.50 C 3418 280 M
0 63 V
0 4528 R
0 -63 V
0 -4668 R
( 28.9913) Cshow
1.000 UL
LT0
0.50 0.50 0.50 C 1.000 UL
LTa
0.50 0.50 0.50 C 3478 280 M
0 4591 V
stroke
LT0
0.50 0.50 0.50 C 3478 280 M
0 63 V
0 4528 R
0 -63 V
0 -4668 R
( 29.6985) Cshow
1.000 UL
LT0
0.50 0.50 0.50 C 1.000 UL
LTa
0.50 0.50 0.50 C 3538 280 M
0 4591 V
stroke
LT0
0.50 0.50 0.50 C 3538 280 M
0 63 V
0 4528 R
0 -63 V
0 -4668 R
( 30.4056) Cshow
1.000 UL
LT0
0.50 0.50 0.50 C 1.000 UL
LTa
0.50 0.50 0.50 C 3598 280 M
0 4591 V
stroke
LT0
0.50 0.50 0.50 C 3598 280 M
0 63 V
0 4528 R
0 -63 V
0 -4668 R
( 31.1127) Cshow
1.000 UL
LT0
0.50 0.50 0.50 C 1.000 UL
LTa
0.50 0.50 0.50 C 3657 280 M
0 4591 V
stroke
LT0
0.50 0.50 0.50 C 3657 280 M
0 63 V
0 4528 R
0 -63 V
0 -4668 R
( 31.8198) Cshow
1.000 UL
LT0
0.50 0.50 0.50 C 1.000 UL
LTa
0.50 0.50 0.50 C 3717 280 M
0 4591 V
stroke
LT0
0.50 0.50 0.50 C 3717 280 M
0 63 V
0 4528 R
0 -63 V
0 -4668 R
( 32.5269) Cshow
1.000 UL
LT0
0.50 0.50 0.50 C 1.000 UL
LTa
0.50 0.50 0.50 C 3777 280 M
0 4591 V
stroke
LT0
0.50 0.50 0.50 C 3777 280 M
0 63 V
0 4528 R
0 -63 V
0 -4668 R
( 33.234) Cshow
1.000 UL
LT0
0.50 0.50 0.50 C 1.000 UL
LTa
0.50 0.50 0.50 C 3837 280 M
0 4591 V
stroke
LT0
0.50 0.50 0.50 C 3837 280 M
0 63 V
0 4528 R
0 -63 V
0 -4668 R
( 33.9411) Cshow
1.000 UL
LT0
0.50 0.50 0.50 C 1.000 UL
LTa
0.50 0.50 0.50 C 3897 280 M
0 4591 V
stroke
LT0
0.50 0.50 0.50 C 3897 280 M
0 63 V
0 4528 R
0 -63 V
0 -4668 R
( 34.6482) Cshow
1.000 UL
LT0
0.50 0.50 0.50 C 1.000 UL
LTa
0.50 0.50 0.50 C 3957 280 M
0 4591 V
stroke
LT0
0.50 0.50 0.50 C 3957 280 M
0 63 V
0 4528 R
0 -63 V
0 -4668 R
( 35.3553) Cshow
1.000 UL
LT0
0.50 0.50 0.50 C 1.000 UL
LTa
0.50 0.50 0.50 C 4016 280 M
0 4591 V
stroke
LT0
0.50 0.50 0.50 C 4016 280 M
0 63 V
0 4528 R
0 -63 V
0 -4668 R
( 36.0624) Cshow
1.000 UL
LT0
0.50 0.50 0.50 C 1.000 UL
LTa
0.50 0.50 0.50 C 4076 280 M
0 4591 V
stroke
LT0
0.50 0.50 0.50 C 4076 280 M
0 63 V
0 4528 R
0 -63 V
0 -4668 R
( 36.7695) Cshow
1.000 UL
LT0
0.50 0.50 0.50 C 1.000 UL
LTa
0.50 0.50 0.50 C 4136 280 M
0 4591 V
stroke
LT0
0.50 0.50 0.50 C 4136 280 M
0 63 V
0 4528 R
0 -63 V
0 -4668 R
( 37.4766) Cshow
1.000 UL
LT0
0.50 0.50 0.50 C 1.000 UL
LTa
0.50 0.50 0.50 C 4196 280 M
0 4591 V
stroke
LT0
0.50 0.50 0.50 C 4196 280 M
0 63 V
0 4528 R
0 -63 V
0 -4668 R
( 38.1837) Cshow
1.000 UL
LT0
0.50 0.50 0.50 C 1.000 UL
LTa
0.50 0.50 0.50 C 4256 280 M
0 4591 V
stroke
LT0
0.50 0.50 0.50 C 4256 280 M
0 63 V
0 4528 R
0 -63 V
0 -4668 R
( 38.8908) Cshow
1.000 UL
LT0
0.50 0.50 0.50 C 1.000 UL
LTa
0.50 0.50 0.50 C 4315 280 M
0 4591 V
stroke
LT0
0.50 0.50 0.50 C 4315 280 M
0 63 V
0 4528 R
0 -63 V
0 -4668 R
( 39.5979) Cshow
1.000 UL
LT0
0.50 0.50 0.50 C 1.000 UL
LTa
0.50 0.50 0.50 C 4375 280 M
0 4591 V
stroke
LT0
0.50 0.50 0.50 C 4375 280 M
0 63 V
0 4528 R
0 -63 V
0 -4668 R
( 40.305) Cshow
1.000 UL
LT0
0.50 0.50 0.50 C 1.000 UL
LTa
0.50 0.50 0.50 C 4435 280 M
0 4591 V
stroke
LT0
0.50 0.50 0.50 C 4435 280 M
0 63 V
0 4528 R
0 -63 V
0 -4668 R
( 41.0121) Cshow
1.000 UL
LT0
0.50 0.50 0.50 C 1.000 UL
LTa
0.50 0.50 0.50 C 4495 280 M
0 4591 V
stroke
LT0
0.50 0.50 0.50 C 4495 280 M
0 63 V
0 4528 R
0 -63 V
0 -4668 R
( 41.7193) Cshow
1.000 UL
LT0
0.50 0.50 0.50 C 1.000 UL
LTa
0.50 0.50 0.50 C 4555 280 M
0 4591 V
stroke
LT0
0.50 0.50 0.50 C 4555 280 M
0 63 V
0 4528 R
0 -63 V
0 -4668 R
( 42.4264) Cshow
1.000 UL
LT0
0.50 0.50 0.50 C 1.000 UL
LTa
0.50 0.50 0.50 C 4614 280 M
0 4591 V
stroke
LT0
0.50 0.50 0.50 C 4614 280 M
0 63 V
0 4528 R
0 -63 V
0 -4668 R
( 43.1335) Cshow
1.000 UL
LT0
0.50 0.50 0.50 C 1.000 UL
LTa
0.50 0.50 0.50 C 4674 280 M
0 4591 V
stroke
LT0
0.50 0.50 0.50 C 4674 280 M
0 63 V
0 4528 R
0 -63 V
0 -4668 R
( 43.8406) Cshow
1.000 UL
LT0
0.50 0.50 0.50 C 1.000 UL
LTa
0.50 0.50 0.50 C 4734 280 M
0 4591 V
stroke
LT0
0.50 0.50 0.50 C 4734 280 M
0 63 V
0 4528 R
0 -63 V
0 -4668 R
( 44.5477) Cshow
1.000 UL
LT0
0.50 0.50 0.50 C 1.000 UL
LTa
0.50 0.50 0.50 C 4794 280 M
0 4591 V
stroke
LT0
0.50 0.50 0.50 C 4794 280 M
0 63 V
0 4528 R
0 -63 V
0 -4668 R
( 45.2548) Cshow
1.000 UL
LT0
0.50 0.50 0.50 C 1.000 UL
LTa
0.50 0.50 0.50 C 4854 280 M
0 4591 V
stroke
LT0
0.50 0.50 0.50 C 4854 280 M
0 63 V
0 4528 R
0 -63 V
0 -4668 R
( 45.9619) Cshow
1.000 UL
LT0
0.50 0.50 0.50 C 1.000 UL
LTa
0.50 0.50 0.50 C 4913 280 M
0 4591 V
stroke
LT0
0.50 0.50 0.50 C 4913 280 M
0 63 V
0 4528 R
0 -63 V
0 -4668 R
( 46.669) Cshow
1.000 UL
LT0
0.50 0.50 0.50 C 1.000 UL
LTa
0.50 0.50 0.50 C 4973 280 M
0 4591 V
stroke
LT0
0.50 0.50 0.50 C 4973 280 M
0 63 V
0 4528 R
0 -63 V
0 -4668 R
( 47.3761) Cshow
1.000 UL
LT0
0.50 0.50 0.50 C 1.000 UL
LTa
0.50 0.50 0.50 C 5033 280 M
0 4591 V
stroke
LT0
0.50 0.50 0.50 C 5033 280 M
0 63 V
0 4528 R
0 -63 V
0 -4668 R
( 48.0832) Cshow
1.000 UL
LT0
0.50 0.50 0.50 C 1.000 UL
LTa
0.50 0.50 0.50 C 5093 280 M
0 4591 V
stroke
LT0
0.50 0.50 0.50 C 5093 280 M
0 63 V
0 4528 R
0 -63 V
0 -4668 R
( 48.7903) Cshow
1.000 UL
LT0
0.50 0.50 0.50 C 1.000 UL
LTa
0.50 0.50 0.50 C 5153 280 M
0 4591 V
stroke
LT0
0.50 0.50 0.50 C 5153 280 M
0 63 V
0 4528 R
0 -63 V
0 -4668 R
( 49.4974) Cshow
1.000 UL
LT0
0.50 0.50 0.50 C 1.000 UL
LTa
0.50 0.50 0.50 C 5213 280 M
0 4591 V
stroke
LT0
0.50 0.50 0.50 C 5213 280 M
0 63 V
0 4528 R
0 -63 V
0 -4668 R
( 50.2045) Cshow
1.000 UL
LT0
0.50 0.50 0.50 C 1.000 UL
LTa
0.50 0.50 0.50 C 5272 280 M
0 4591 V
stroke
LT0
0.50 0.50 0.50 C 5272 280 M
0 63 V
0 4528 R
0 -63 V
0 -4668 R
( 50.9116) Cshow
1.000 UL
LT0
0.50 0.50 0.50 C 1.000 UL
LTa
0.50 0.50 0.50 C 5332 280 M
0 4591 V
stroke
LT0
0.50 0.50 0.50 C 5332 280 M
0 63 V
0 4528 R
0 -63 V
0 -4668 R
( 51.6187) Cshow
1.000 UL
LT0
0.50 0.50 0.50 C 1.000 UL
LTa
0.50 0.50 0.50 C 5392 280 M
0 4591 V
stroke
LT0
0.50 0.50 0.50 C 5392 280 M
0 63 V
0 4528 R
0 -63 V
0 -4668 R
( 52.3258) Cshow
1.000 UL
LT0
0.50 0.50 0.50 C 1.000 UL
LTa
0.50 0.50 0.50 C 5452 280 M
0 4591 V
stroke
LT0
0.50 0.50 0.50 C 5452 280 M
0 63 V
0 4528 R
0 -63 V
0 -4668 R
( 53.033) Cshow
1.000 UL
LT0
0.50 0.50 0.50 C 1.000 UL
LTa
0.50 0.50 0.50 C 5512 280 M
0 4591 V
stroke
LT0
0.50 0.50 0.50 C 5512 280 M
0 63 V
0 4528 R
0 -63 V
0 -4668 R
( 53.7401) Cshow
1.000 UL
LT0
0.50 0.50 0.50 C 1.000 UL
LTa
0.50 0.50 0.50 C 5571 280 M
0 4591 V
stroke
LT0
0.50 0.50 0.50 C 5571 280 M
0 63 V
0 4528 R
0 -63 V
0 -4668 R
( 54.4472) Cshow
1.000 UL
LT0
0.50 0.50 0.50 C 1.000 UL
LTa
0.50 0.50 0.50 C 5631 280 M
0 4591 V
stroke
LT0
0.50 0.50 0.50 C 5631 280 M
0 63 V
0 4528 R
0 -63 V
0 -4668 R
( 55.1543) Cshow
1.000 UL
LT0
0.50 0.50 0.50 C 1.000 UL
LTa
0.50 0.50 0.50 C 5691 280 M
0 4591 V
stroke
LT0
0.50 0.50 0.50 C 5691 280 M
0 63 V
0 4528 R
0 -63 V
0 -4668 R
( 55.8614) Cshow
1.000 UL
LT0
0.50 0.50 0.50 C 1.000 UL
LTa
0.50 0.50 0.50 C 5751 280 M
0 4591 V
stroke
LT0
0.50 0.50 0.50 C 5751 280 M
0 63 V
0 4528 R
0 -63 V
0 -4668 R
( 56.5685) Cshow
1.000 UL
LT0
0.50 0.50 0.50 C 1.000 UL
LTa
0.50 0.50 0.50 C 5811 280 M
0 4591 V
stroke
LT0
0.50 0.50 0.50 C 5811 280 M
0 63 V
0 4528 R
0 -63 V
0 -4668 R
( 57.2756) Cshow
1.000 UL
LT0
0.50 0.50 0.50 C 1.000 UL
LTa
0.50 0.50 0.50 C 5870 280 M
0 4591 V
stroke
LT0
0.50 0.50 0.50 C 5870 280 M
0 63 V
0 4528 R
0 -63 V
0 -4668 R
( 57.9827) Cshow
1.000 UL
LT0
0.50 0.50 0.50 C 1.000 UL
LTa
0.50 0.50 0.50 C 5930 280 M
0 4591 V
stroke
LT0
0.50 0.50 0.50 C 5930 280 M
0 63 V
0 4528 R
0 -63 V
0 -4668 R
( 58.6898) Cshow
1.000 UL
LT0
0.50 0.50 0.50 C 1.000 UL
LTa
0.50 0.50 0.50 C 5990 280 M
0 4591 V
stroke
LT0
0.50 0.50 0.50 C 5990 280 M
0 63 V
0 4528 R
0 -63 V
0 -4668 R
( 59.3969) Cshow
1.000 UL
LT0
0.50 0.50 0.50 C 1.000 UL
LTa
0.50 0.50 0.50 C 6050 280 M
0 4591 V
stroke
LT0
0.50 0.50 0.50 C 6050 280 M
0 63 V
0 4528 R
0 -63 V
0 -4668 R
( 60.104) Cshow
1.000 UL
LT0
0.50 0.50 0.50 C 1.000 UL
LTa
0.50 0.50 0.50 C 6110 280 M
0 4591 V
stroke
LT0
0.50 0.50 0.50 C 6110 280 M
0 63 V
0 4528 R
0 -63 V
0 -4668 R
( 60.8111) Cshow
1.000 UL
LT0
0.50 0.50 0.50 C 1.000 UL
LTa
0.50 0.50 0.50 C 6169 280 M
0 4591 V
stroke
LT0
0.50 0.50 0.50 C 6169 280 M
0 63 V
0 4528 R
0 -63 V
0 -4668 R
( 61.5182) Cshow
1.000 UL
LT0
0.50 0.50 0.50 C 1.000 UL
LTa
0.50 0.50 0.50 C 6229 280 M
0 4591 V
stroke
LT0
0.50 0.50 0.50 C 6229 280 M
0 63 V
0 4528 R
0 -63 V
0 -4668 R
( 62.2253) Cshow
1.000 UL
LT0
0.50 0.50 0.50 C 1.000 UL
LTa
0.50 0.50 0.50 C 6289 280 M
0 4591 V
stroke
LT0
0.50 0.50 0.50 C 6289 280 M
0 63 V
0 4528 R
0 -63 V
0 -4668 R
( 62.9324) Cshow
1.000 UL
LT0
0.50 0.50 0.50 C 1.000 UL
LTa
0.50 0.50 0.50 C 6349 280 M
0 4591 V
stroke
LT0
0.50 0.50 0.50 C 6349 280 M
0 63 V
0 4528 R
0 -63 V
0 -4668 R
( 63.6395) Cshow
1.000 UL
LT0
0.50 0.50 0.50 C 1.000 UL
LTa
0.50 0.50 0.50 C 6409 280 M
0 4591 V
stroke
LT0
0.50 0.50 0.50 C 6409 280 M
0 63 V
0 4528 R
0 -63 V
0 -4668 R
( 64.3466) Cshow
1.000 UL
LT0
0.50 0.50 0.50 C 1.000 UL
LTa
0.50 0.50 0.50 C 6469 280 M
0 4591 V
stroke
LT0
0.50 0.50 0.50 C 6469 280 M
0 63 V
0 4528 R
0 -63 V
0 -4668 R
( 65.0538) Cshow
1.000 UL
LT0
0.50 0.50 0.50 C 1.000 UL
LTa
0.50 0.50 0.50 C 6528 280 M
0 4591 V
stroke
LT0
0.50 0.50 0.50 C 6528 280 M
0 63 V
0 4528 R
0 -63 V
0 -4668 R
( 65.7609) Cshow
1.000 UL
LT0
0.50 0.50 0.50 C 1.000 UL
LTa
0.50 0.50 0.50 C 6588 280 M
0 4591 V
stroke
LT0
0.50 0.50 0.50 C 6588 280 M
0 63 V
0 4528 R
0 -63 V
0 -4668 R
( 66.468) Cshow
1.000 UL
LT0
0.50 0.50 0.50 C 1.000 UL
LTa
0.50 0.50 0.50 C 6648 280 M
0 4591 V
stroke
LT0
0.50 0.50 0.50 C 6648 280 M
0 63 V
0 4528 R
0 -63 V
0 -4668 R
( 67.1751) Cshow
1.000 UL
LT0
0.50 0.50 0.50 C 1.000 UL
LTa
0.50 0.50 0.50 C 6708 280 M
0 4591 V
stroke
LT0
0.50 0.50 0.50 C 6708 280 M
0 63 V
0 4528 R
0 -63 V
0 -4668 R
( 67.8822) Cshow
1.000 UL
LT0
0.50 0.50 0.50 C 1.000 UL
LTa
0.50 0.50 0.50 C 6768 280 M
0 4591 V
stroke
LT0
0.50 0.50 0.50 C 6768 280 M
0 63 V
0 4528 R
0 -63 V
0 -4668 R
( 68.5893) Cshow
1.000 UL
LT0
0.50 0.50 0.50 C 1.000 UL
LTa
0.50 0.50 0.50 C 6827 280 M
0 4591 V
stroke
LT0
0.50 0.50 0.50 C 6827 280 M
0 63 V
0 4528 R
0 -63 V
0 -4668 R
( 69.2964) Cshow
1.000 UL
LT0
0.50 0.50 0.50 C 1.000 UL
LTa
0.50 0.50 0.50 C 6887 280 M
0 4591 V
stroke
LT0
0.50 0.50 0.50 C 6887 280 M
0 63 V
0 4528 R
0 -63 V
0 -4668 R
( 70.0035) Cshow
1.000 UL
LT0
0.50 0.50 0.50 C 1.000 UL
LTa
0.50 0.50 0.50 C 6947 280 M
0 4591 V
stroke
LT0
0.50 0.50 0.50 C 6947 280 M
0 63 V
0 4528 R
0 -63 V
0 -4668 R
( 70.7106) Cshow
1.000 UL
LT0
0.50 0.50 0.50 C 1.000 UL
LT0
0.50 0.50 0.50 C 966 4871 M
966 280 L
5981 0 V
0 4591 R
-5981 0 R
1.000 UP
stroke
LT0
0.50 0.50 0.50 C % Begin plot #1
1.500 UP
2.000 UL
LT0
0.00 0.00 1.00 C /Helvetica findfont 140 scalefont setfont
/vshift -46 def
966 326 M
60 0 V
0 46 R
60 0 V
0 229 R
59 0 V
0 46 R
60 0 V
60 0 V
0 46 R
60 0 V
0 46 R
60 0 V
0 92 R
59 0 V
60 0 V
0 275 R
60 0 V
60 0 V
60 0 V
0 46 R
60 0 V
0 459 R
59 0 V
0 92 R
60 0 V
60 0 V
0 46 R
60 0 V
0 92 R
60 0 V
59 0 V
60 0 V
60 0 V
60 0 V
60 0 V
59 0 V
60 0 V
60 0 V
60 0 V
60 0 V
59 0 V
0 275 R
60 0 V
60 0 V
60 0 V
60 0 V
60 0 V
59 0 V
60 0 V
0 184 R
60 0 V
0 46 R
60 0 V
0 138 R
60 0 V
59 0 V
60 0 V
60 0 V
60 0 V
60 0 V
59 0 V
60 0 V
60 0 V
60 0 V
60 0 V
60 0 V
59 0 V
60 0 V
60 0 V
60 0 V
60 0 V
59 0 V
60 0 V
60 0 V
60 0 V
60 0 V
59 0 V
60 0 V
60 0 V
60 0 V
0 46 R
60 0 V
59 0 V
60 0 V
60 0 V
60 0 V
60 0 V
60 0 V
59 0 V
60 0 V
60 0 V
60 0 V
60 0 V
59 0 V
60 0 V
60 0 V
60 0 V
60 0 V
59 0 V
60 0 V
60 0 V
60 0 V
60 0 V
59 0 V
stroke 6169 2530 M
0 137 R
60 0 V
60 0 V
60 0 V
60 0 V
60 0 V
0 276 R
59 0 V
0 1193 R
60 0 V
0 414 R
60 0 V
60 0 V
0 46 R
60 0 V
0 183 R
59 0 V
0 46 R
60 0 V
0 46 R
60 0 V
1026 326 M
0 46 V
60 0 R
0 46 V
0 46 V
0 46 V
0 45 V
0 46 V
59 0 R
0 46 V
120 0 R
0 46 V
60 0 R
0 46 V
60 0 R
0 46 V
0 46 V
119 0 R
0 46 V
0 46 V
0 46 V
0 46 V
0 45 V
0 46 V
180 0 R
0 46 V
60 0 R
0 46 V
0 46 V
0 46 V
0 46 V
0 46 V
0 46 V
0 46 V
0 46 V
0 45 V
0 46 V
59 0 R
0 46 V
0 46 V
120 0 R
0 46 V
60 0 R
0 46 V
0 46 V
717 0 R
0 46 V
0 46 V
0 46 V
0 46 V
0 45 V
0 46 V
419 0 R
0 46 V
0 46 V
0 46 V
0 46 V
60 0 R
0 46 V
60 0 R
0 46 V
0 46 V
0 46 V
1555 0 R
0 46 V
1375 0 R
0 46 V
0 45 V
0 46 V
300 0 R
0 46 V
0 46 V
0 46 V
0 46 V
0 46 V
0 46 V
59 0 R
0 46 V
0 46 V
0 46 V
0 45 V
0 46 V
0 46 V
stroke 6528 3218 M
0 46 V
0 46 V
0 46 V
0 46 V
0 46 V
0 46 V
0 46 V
0 46 V
0 45 V
0 46 V
0 46 V
0 46 V
0 46 V
0 46 V
0 46 V
0 46 V
0 46 V
0 46 V
0 46 V
0 45 V
60 0 R
0 46 V
0 46 V
0 46 V
0 46 V
0 46 V
0 46 V
0 46 V
0 46 V
0 46 V
120 0 R
0 46 V
60 0 R
0 45 V
0 46 V
0 46 V
0 46 V
59 0 R
0 46 V
60 0 R
0 46 V
966 280 M
0 46 V
966 326 CircleF
1026 326 CircleF
1026 372 CircleF
1086 372 CircleF
1086 601 CircleF
1145 601 CircleF
1145 647 CircleF
1205 647 CircleF
1205 647 CircleF
1265 647 CircleF
1265 693 CircleF
1325 693 CircleF
1325 739 CircleF
1385 739 CircleF
1385 831 CircleF
1444 831 CircleF
1444 831 CircleF
1504 831 CircleF
1504 1106 CircleF
1564 1106 CircleF
1564 1106 CircleF
1624 1106 CircleF
1624 1106 CircleF
1684 1106 CircleF
1684 1152 CircleF
1744 1152 CircleF
1744 1611 CircleF
1803 1611 CircleF
1803 1703 CircleF
1863 1703 CircleF
1863 1703 CircleF
1923 1703 CircleF
1923 1749 CircleF
1983 1749 CircleF
1983 1841 CircleF
2043 1841 CircleF
2043 1841 CircleF
2102 1841 CircleF
2102 1841 CircleF
2162 1841 CircleF
2162 1841 CircleF
2222 1841 CircleF
2222 1841 CircleF
2282 1841 CircleF
2282 1841 CircleF
2342 1841 CircleF
2342 1841 CircleF
2401 1841 CircleF
2401 1841 CircleF
2461 1841 CircleF
2461 1841 CircleF
2521 1841 CircleF
2521 1841 CircleF
2581 1841 CircleF
2581 1841 CircleF
2641 1841 CircleF
2641 1841 CircleF
2700 1841 CircleF
2700 2116 CircleF
2760 2116 CircleF
2760 2116 CircleF
2820 2116 CircleF
2820 2116 CircleF
2880 2116 CircleF
2880 2116 CircleF
2940 2116 CircleF
2940 2116 CircleF
3000 2116 CircleF
3000 2116 CircleF
3059 2116 CircleF
3059 2116 CircleF
3119 2116 CircleF
3119 2300 CircleF
3179 2300 CircleF
3179 2346 CircleF
3239 2346 CircleF
3239 2484 CircleF
3299 2484 CircleF
3299 2484 CircleF
3358 2484 CircleF
3358 2484 CircleF
3418 2484 CircleF
3418 2484 CircleF
3478 2484 CircleF
3478 2484 CircleF
3538 2484 CircleF
3538 2484 CircleF
3598 2484 CircleF
3598 2484 CircleF
3657 2484 CircleF
3657 2484 CircleF
3717 2484 CircleF
3717 2484 CircleF
3777 2484 CircleF
3777 2484 CircleF
3837 2484 CircleF
3837 2484 CircleF
3897 2484 CircleF
3897 2484 CircleF
3957 2484 CircleF
3957 2484 CircleF
4016 2484 CircleF
4016 2484 CircleF
4076 2484 CircleF
4076 2484 CircleF
4136 2484 CircleF
4136 2484 CircleF
4196 2484 CircleF
4196 2484 CircleF
4256 2484 CircleF
4256 2484 CircleF
4315 2484 CircleF
4315 2484 CircleF
4375 2484 CircleF
4375 2484 CircleF
4435 2484 CircleF
4435 2484 CircleF
4495 2484 CircleF
4495 2484 CircleF
4555 2484 CircleF
4555 2484 CircleF
4614 2484 CircleF
4614 2484 CircleF
4674 2484 CircleF
4674 2484 CircleF
4734 2484 CircleF
4734 2484 CircleF
4794 2484 CircleF
4794 2530 CircleF
4854 2530 CircleF
4854 2530 CircleF
4913 2530 CircleF
4913 2530 CircleF
4973 2530 CircleF
4973 2530 CircleF
5033 2530 CircleF
5033 2530 CircleF
5093 2530 CircleF
5093 2530 CircleF
5153 2530 CircleF
5153 2530 CircleF
5213 2530 CircleF
5213 2530 CircleF
5272 2530 CircleF
5272 2530 CircleF
5332 2530 CircleF
5332 2530 CircleF
5392 2530 CircleF
5392 2530 CircleF
5452 2530 CircleF
5452 2530 CircleF
5512 2530 CircleF
5512 2530 CircleF
5571 2530 CircleF
5571 2530 CircleF
5631 2530 CircleF
5631 2530 CircleF
5691 2530 CircleF
5691 2530 CircleF
5751 2530 CircleF
5751 2530 CircleF
5811 2530 CircleF
5811 2530 CircleF
5870 2530 CircleF
5870 2530 CircleF
5930 2530 CircleF
5930 2530 CircleF
5990 2530 CircleF
5990 2530 CircleF
6050 2530 CircleF
6050 2530 CircleF
6110 2530 CircleF
6110 2530 CircleF
6169 2530 CircleF
6169 2667 CircleF
6229 2667 CircleF
6229 2667 CircleF
6289 2667 CircleF
6289 2667 CircleF
6349 2667 CircleF
6349 2667 CircleF
6409 2667 CircleF
6409 2667 CircleF
6469 2667 CircleF
6469 2943 CircleF
6528 2943 CircleF
6528 4136 CircleF
6588 4136 CircleF
6588 4550 CircleF
6648 4550 CircleF
6648 4550 CircleF
6708 4550 CircleF
6708 4596 CircleF
6768 4596 CircleF
6768 4779 CircleF
6827 4779 CircleF
6827 4825 CircleF
6887 4825 CircleF
6887 4871 CircleF
6947 4871 CircleF
1026 326 CircleF
1026 372 CircleF
1086 372 CircleF
1086 418 CircleF
1086 418 CircleF
1086 464 CircleF
1086 464 CircleF
1086 510 CircleF
1086 510 CircleF
1086 555 CircleF
1086 555 CircleF
1086 601 CircleF
1145 601 CircleF
1145 647 CircleF
1265 647 CircleF
1265 693 CircleF
1325 693 CircleF
1325 739 CircleF
1385 739 CircleF
1385 785 CircleF
1385 785 CircleF
1385 831 CircleF
1504 831 CircleF
1504 877 CircleF
1504 877 CircleF
1504 923 CircleF
1504 923 CircleF
1504 969 CircleF
1504 969 CircleF
1504 1015 CircleF
1504 1015 CircleF
1504 1060 CircleF
1504 1060 CircleF
1504 1106 CircleF
1684 1106 CircleF
1684 1152 CircleF
1744 1152 CircleF
1744 1198 CircleF
1744 1198 CircleF
1744 1244 CircleF
1744 1244 CircleF
1744 1290 CircleF
1744 1290 CircleF
1744 1336 CircleF
1744 1336 CircleF
1744 1382 CircleF
1744 1382 CircleF
1744 1428 CircleF
1744 1428 CircleF
1744 1474 CircleF
1744 1474 CircleF
1744 1520 CircleF
1744 1520 CircleF
1744 1565 CircleF
1744 1565 CircleF
1744 1611 CircleF
1803 1611 CircleF
1803 1657 CircleF
1803 1657 CircleF
1803 1703 CircleF
1923 1703 CircleF
1923 1749 CircleF
1983 1749 CircleF
1983 1795 CircleF
1983 1795 CircleF
1983 1841 CircleF
2700 1841 CircleF
2700 1887 CircleF
2700 1887 CircleF
2700 1933 CircleF
2700 1933 CircleF
2700 1979 CircleF
2700 1979 CircleF
2700 2025 CircleF
2700 2025 CircleF
2700 2070 CircleF
2700 2070 CircleF
2700 2116 CircleF
3119 2116 CircleF
3119 2162 CircleF
3119 2162 CircleF
3119 2208 CircleF
3119 2208 CircleF
3119 2254 CircleF
3119 2254 CircleF
3119 2300 CircleF
3179 2300 CircleF
3179 2346 CircleF
3239 2346 CircleF
3239 2392 CircleF
3239 2392 CircleF
3239 2438 CircleF
3239 2438 CircleF
3239 2484 CircleF
4794 2484 CircleF
4794 2530 CircleF
6169 2530 CircleF
6169 2576 CircleF
6169 2576 CircleF
6169 2621 CircleF
6169 2621 CircleF
6169 2667 CircleF
6469 2667 CircleF
6469 2713 CircleF
6469 2713 CircleF
6469 2759 CircleF
6469 2759 CircleF
6469 2805 CircleF
6469 2805 CircleF
6469 2851 CircleF
6469 2851 CircleF
6469 2897 CircleF
6469 2897 CircleF
6469 2943 CircleF
6528 2943 CircleF
6528 2989 CircleF
6528 2989 CircleF
6528 3035 CircleF
6528 3035 CircleF
6528 3081 CircleF
6528 3081 CircleF
6528 3126 CircleF
6528 3126 CircleF
6528 3172 CircleF
6528 3172 CircleF
6528 3218 CircleF
6528 3218 CircleF
6528 3264 CircleF
6528 3264 CircleF
6528 3310 CircleF
6528 3310 CircleF
6528 3356 CircleF
6528 3356 CircleF
6528 3402 CircleF
6528 3402 CircleF
6528 3448 CircleF
6528 3448 CircleF
6528 3494 CircleF
6528 3494 CircleF
6528 3540 CircleF
6528 3540 CircleF
6528 3586 CircleF
6528 3586 CircleF
6528 3631 CircleF
6528 3631 CircleF
6528 3677 CircleF
6528 3677 CircleF
6528 3723 CircleF
6528 3723 CircleF
6528 3769 CircleF
6528 3769 CircleF
6528 3815 CircleF
6528 3815 CircleF
6528 3861 CircleF
6528 3861 CircleF
6528 3907 CircleF
6528 3907 CircleF
6528 3953 CircleF
6528 3953 CircleF
6528 3999 CircleF
6528 3999 CircleF
6528 4045 CircleF
6528 4045 CircleF
6528 4091 CircleF
6528 4091 CircleF
6528 4136 CircleF
6588 4136 CircleF
6588 4182 CircleF
6588 4182 CircleF
6588 4228 CircleF
6588 4228 CircleF
6588 4274 CircleF
6588 4274 CircleF
6588 4320 CircleF
6588 4320 CircleF
6588 4366 CircleF
6588 4366 CircleF
6588 4412 CircleF
6588 4412 CircleF
6588 4458 CircleF
6588 4458 CircleF
6588 4504 CircleF
6588 4504 CircleF
6588 4550 CircleF
6708 4550 CircleF
6708 4596 CircleF
6768 4596 CircleF
6768 4641 CircleF
6768 4641 CircleF
6768 4687 CircleF
6768 4687 CircleF
6768 4733 CircleF
6768 4733 CircleF
6768 4779 CircleF
6827 4779 CircleF
6827 4825 CircleF
6887 4825 CircleF
6887 4871 CircleF
966 280 CircleF
966 326 CircleF
% End plot #1
% Begin plot #2
1.500 UP
2.000 UL
LT0
1.00 0.55 0.00 C /Helvetica findfont 140 scalefont setfont
2310 3945 M
103 79 V
3564 987 M
106 81 V
5158 3916 M
76 59 V
1943 544 M
118 91 V
3545 2309 M
82 63 V
2957 825 M
103 79 V
1695 1230 M
88 67 V
2513 118 R
67 52 V
2107 3597 M
107 82 V
3144 1927 M
68 52 V
1133 609 M
114 88 V
3521 4373 M
103 80 V
126 -335 R
78 61 V
985 2289 M
98 75 V
654 1717 R
106 82 V
6634 2900 M
107 82 V
1712 1496 M
64 49 V
3535 3099 M
63 49 V
3883 479 M
111 85 V
3630 3736 M
91 69 V
6079 3233 M
65 50 V
3510 1450 M
102 78 V
1468 2401 M
107 83 V
3120 1634 M
107 82 V
917 282 R
100 77 V
2577 3468 M
83 63 V
1799 648 R
118 90 V
1080 439 M
86 67 V
5197 1702 M
111 84 V
655 2723 R
101 77 V
3345 1613 M
71 55 V
6108 1555 M
84 65 V
5385 1463 M
65 49 V
1707 3556 M
80 61 V
945 1115 R
113 87 V
5730 2006 M
113 87 V
3245 2944 M
117 90 V
5067 2827 M
81 61 V
3540 4441 M
87 67 V
2371 2616 M
94 72 V
1131 3247 M
64 50 V
357 -291 R
111 85 V
186 1522 R
78 59 V
3171 4499 M
63 49 V
3082 1053 M
85 65 V
-612 268 R
98 76 V
1594 2361 M
101 77 V
1440 -93 R
106 81 V
2395 721 M
94 72 V
-747 962 R
106 81 V
3953 4285 M
84 65 V
-730 54 R
72 56 V
4446 1138 M
91 70 V
stroke 4537 1208 M
1101 3763 M
64 50 V
5240 241 R
82 62 V
2375 904 M
88 69 V
3558 4048 M
103 80 V
2055 2566 M
69 53 V
1334 764 M
108 83 V
123 1875 R
98 75 V
4524 463 M
95 73 V
2929 2715 M
83 64 V
-724 739 R
116 90 V
3535 -76 R
73 56 V
569 553 R
87 67 V
5811 549 M
89 69 V
1524 4332 M
60 46 V
4515 1751 M
76 59 V
3219 2736 M
70 53 V
1399 3114 M
94 72 V
2737 1024 M
114 88 V
627 3071 R
84 64 V
3322 3898 M
72 54 V
1877 2587 M
119 91 V
4994 2446 M
111 85 V
3742 4300 M
81 62 V
1154 3342 M
61 47 V
3333 2409 M
108 83 V
5364 4090 M
93 72 V
1568 4775 M
103 79 V
5903 3387 M
72 55 V
3917 1735 M
73 57 V
2992 817 M
87 66 V
6719 531 M
80 62 V
2639 2395 M
110 84 V
6536 1259 M
96 75 V
2859 3689 M
105 81 V
6227 1598 M
91 70 V
1385 1956 M
65 50 V
5159 828 R
104 80 V
3128 4722 M
61 47 V
5665 3395 M
103 78 V
4761 4232 M
67 51 V
86 -143 R
67 51 V
-231 154 R
78 60 V
1157 4151 M
119 91 V
5297 2777 M
97 75 V
3016 699 M
93 71 V
2272 285 R
83 64 V
2268 1348 M
103 79 V
508 3019 R
62 47 V
1218 1741 M
71 54 V
5121 524 R
66 51 V
2601 746 M
92 70 V
6038 3533 M
118 90 V
stroke 6156 3623 M
3089 4542 M
98 76 V
3823 1873 M
63 48 V
5483 1546 M
94 72 V
1295 1120 M
96 74 V
4377 -41 R
60 46 V
3333 4553 M
99 75 V
2149 1805 M
98 75 V
872 1333 R
114 87 V
2688 1998 M
81 62 V
6226 348 M
100 76 V
4535 2528 M
118 91 V
4352 4554 M
66 50 V
1401 333 M
85 66 V
2704 972 R
78 60 V
2829 2345 M
63 48 V
1378 2225 M
77 59 V
4480 628 R
67 52 V
288 1410 R
72 56 V
5688 2609 M
90 69 V
4601 3670 M
74 57 V
2342 1813 M
80 62 V
4958 4717 M
115 88 V
6529 4391 M
112 86 V
6165 3335 M
86 67 V
4122 3838 M
62 48 V
6599 1322 M
82 63 V
6601 399 M
77 59 V
1416 3517 M
104 80 V
4976 756 M
93 72 V
1902 2849 M
70 53 V
63 685 R
89 69 V
6483 1352 M
98 76 V
6430 4054 M
111 85 V
2870 363 M
95 73 V
2196 4364 M
63 48 V
1258 670 M
102 78 V
5100 3296 M
76 58 V
4264 4611 M
96 73 V
1057 2238 M
112 87 V
5655 1375 M
97 74 V
3639 4112 M
69 53 V
-931 66 R
80 61 V
4848 1796 M
104 80 V
59 1558 R
106 81 V
5577 1843 M
72 55 V
2795 3360 M
113 86 V
1780 3374 M
77 59 V
5340 1204 M
100 77 V
3223 1996 M
78 59 V
2795 3116 M
81 62 V
5861 905 M
116 89 V
2648 975 M
93 71 V
stroke 2741 1046 M
1677 2278 M
85 65 V
3125 754 M
83 64 V
58 3664 R
67 50 V
2831 4402 M
102 78 V
3944 728 M
90 68 V
5545 4269 M
90 69 V
3579 675 M
104 80 V
5899 4641 M
80 61 V
2739 2472 M
64 48 V
1951 341 R
104 80 V
427 1266 R
111 86 V
3137 2283 M
63 49 V
2431 110 R
118 90 V
738 1001 R
108 83 V
4429 4649 M
115 88 V
4449 1966 M
62 48 V
-937 452 R
113 87 V
5335 1349 M
64 49 V
3981 1525 M
77 59 V
3621 4380 M
62 48 V
5404 1469 M
69 53 V
-723 953 R
67 51 V
6541 418 M
88 67 V
140 2745 R
70 53 V
2627 1054 M
103 79 V
4783 4754 M
103 79 V
2727 4142 M
89 68 V
4759 3006 M
102 78 V
3758 3270 M
117 89 V
3293 2432 M
103 79 V
242 2077 R
62 47 V
5502 1350 M
85 65 V
6442 489 M
90 69 V
44 1888 R
117 89 V
3870 3395 M
115 88 V
5438 1016 M
69 54 V
-29 2716 R
114 88 V
-4546 51 R
67 50 V
3546 941 M
96 74 V
6442 2906 M
87 67 V
4179 1409 M
96 75 V
5377 1299 M
103 79 V
1213 1994 M
119 91 V
5633 3808 M
112 86 V
-3911 57 R
64 49 V
2682 640 M
96 75 V
3859 4032 M
107 83 V
3433 2439 M
88 68 V
-91 1920 R
70 55 V
5945 2854 M
107 82 V
4045 2494 M
106 82 V
494 823 R
63 48 V
stroke 4708 3447 M
2128 3864 M
102 77 V
2082 1452 M
83 64 V
1180 4777 M
103 79 V
6804 1260 M
107 82 V
4555 997 M
96 74 V
1786 602 R
72 55 V
5502 3262 M
62 48 V
3269 672 M
77 59 V
6501 3685 M
70 54 V
1898 2403 M
73 56 V
3208 4228 M
119 91 V
1108 347 R
65 50 V
1836 2145 M
102 78 V
4532 4301 M
88 67 V
-589 342 R
67 52 V
5146 2590 M
62 48 V
4605 1237 M
76 59 V
3539 2365 M
61 47 V
1941 1092 M
65 50 V
922 1617 R
73 57 V
3862 741 M
113 87 V
3172 4061 M
101 77 V
1981 4754 M
96 73 V
3022 2081 M
68 53 V
1917 -15 R
107 82 V
2159 2939 M
79 61 V
133 1017 R
102 78 V
1626 2033 M
69 53 V
1130 1024 M
98 76 V
5653 3674 M
67 52 V
1324 1148 M
101 77 V
3145 4773 M
112 86 V
2695 3511 M
98 75 V
3887 319 M
114 87 V
78 3466 R
94 71 V
5157 1337 M
103 79 V
673 1945 R
84 64 V
1709 4113 M
114 87 V
6395 2773 M
94 71 V
3225 4727 M
114 88 V
1014 824 M
90 69 V
6694 4722 M
95 73 V
1323 3389 M
89 68 V
6803 2423 M
63 49 V
5280 3778 M
74 57 V
1547 4742 M
75 58 V
4611 3799 M
105 81 V
3430 4128 M
102 79 V
6461 3295 M
100 76 V
5159 2403 M
83 63 V
4309 4777 M
68 52 V
4488 722 M
103 79 V
stroke 4591 801 M
-72 467 R
96 74 V
4359 3953 M
81 62 V
1627 2932 M
103 79 V
1615 1190 M
68 52 V
6569 445 M
117 89 V
4191 1202 M
64 49 V
5392 2513 M
83 63 V
6644 2219 M
84 65 V
3124 4766 M
98 76 V
5406 712 M
72 55 V
5242 4450 M
76 59 V
3801 2807 M
113 87 V
1572 3611 M
99 77 V
6769 975 M
79 60 V
5982 3618 M
63 48 V
4731 4543 M
79 61 V
3360 3548 M
95 73 V
6139 972 M
94 72 V
3869 2362 M
102 79 V
1748 621 M
102 79 V
6443 3238 M
91 70 V
2778 4053 M
93 71 V
3429 2163 M
73 56 V
5386 3445 M
106 82 V
1473 2137 M
115 89 V
5128 4664 M
64 49 V
3486 385 M
114 88 V
1157 899 R
77 58 V
791 1792 R
85 66 V
3074 397 M
82 63 V
-486 800 R
62 47 V
-366 283 R
64 49 V
1352 1523 M
76 58 V
4426 3451 M
102 78 V
2208 1219 M
92 71 V
5798 4752 M
94 72 V
4607 803 M
82 63 V
2902 3039 M
96 74 V
2299 4553 M
109 84 V
4209 3977 M
61 47 V
3280 994 M
77 60 V
4411 4073 M
93 72 V
2739 3138 M
68 52 V
985 3584 M
90 68 V
2171 3242 M
86 66 V
5553 868 M
94 72 V
-107 779 R
68 52 V
2501 1344 M
63 49 V
6600 4519 M
119 91 V
3725 3254 M
113 87 V
2881 1038 M
73 56 V
974 3607 M
102 79 V
stroke 1076 3686 M
1452 947 M
95 73 V
4920 771 R
75 57 V
-3443 84 R
119 91 V
3768 428 M
63 48 V
1520 1078 M
66 52 V
3886 4430 M
109 83 V
1850 2709 M
76 58 V
361 1333 R
115 88 V
5772 3101 M
103 79 V
4203 1635 M
112 86 V
1429 3423 M
72 55 V
5148 2055 M
96 73 V
2484 4404 M
108 83 V
552 -66 R
96 74 V
6790 4343 M
118 90 V
2734 1186 M
115 88 V
1390 3929 M
98 76 V
2569 7 R
82 63 V
6261 2944 M
86 66 V
3725 4075 M
83 64 V
5120 324 M
82 62 V
718 408 R
99 77 V
1468 1028 M
66 51 V
6459 4704 M
116 89 V
2650 416 M
68 52 V
6149 2685 M
108 83 V
4513 2149 M
72 56 V
2846 4067 M
113 87 V
3267 826 M
68 52 V
399 3344 R
116 89 V
2648 3823 M
66 51 V
1265 4522 M
61 48 V
843 -167 R
86 66 V
1246 4757 M
94 72 V
6238 4154 M
63 49 V
3728 2197 M
71 54 V
-1928 17 R
78 59 V
999 4202 M
82 63 V
3076 3388 M
104 80 V
3524 276 R
77 58 V
1479 3226 M
68 52 V
4467 1815 M
114 88 V
3044 3573 M
81 62 V
2595 2555 M
70 54 V
5940 623 M
99 75 V
1812 609 M
94 72 V
4304 3296 M
115 88 V
2930 433 M
79 60 V
2826 919 M
95 73 V
953 1306 R
103 79 V
5672 4621 M
62 48 V
1391 2163 M
81 62 V
stroke 1472 2225 M
3749 570 R
118 91 V
698 -684 R
117 90 V
4772 1772 M
90 69 V
-1753 8 R
98 75 V
4377 3975 M
97 75 V
1601 2705 M
113 87 V
2397 259 R
97 74 V
4559 2087 M
98 75 V
2523 3858 M
66 51 V
2869 2378 M
83 65 V
6046 4391 M
87 67 V
5802 4328 M
101 78 V
5457 3298 M
108 83 V
4099 4284 M
79 61 V
2899 4234 M
98 75 V
2755 463 R
111 86 V
4948 3133 M
103 79 V
1943 1474 M
98 75 V
1652 907 R
102 78 V
769 -116 R
71 55 V
2098 421 R
118 91 V
2816 2013 M
66 51 V
1022 549 M
90 69 V
4866 3010 M
78 59 V
6816 1931 M
96 74 V
3327 2462 M
112 86 V
1457 2732 M
61 47 V
1227 1176 M
105 80 V
5438 319 R
73 56 V
-153 6 R
64 50 V
3560 882 M
112 85 V
965 2204 R
100 76 V
919 -569 R
64 49 V
-62 -229 R
75 58 V
3700 2965 M
74 57 V
1985 3562 M
109 84 V
-913 138 R
70 53 V
5364 1989 M
74 56 V
102 52 R
114 87 V
2204 517 M
87 66 V
1870 2224 M
99 76 V
3576 1232 M
92 70 V
-996 784 R
75 57 V
3723 318 M
75 58 V
3341 4533 M
73 56 V
1097 -18 R
83 64 V
6657 4522 M
105 81 V
4140 4503 M
100 76 V
6311 2626 M
62 47 V
3860 3037 M
91 69 V
59 -1328 R
66 51 V
3672 1497 M
96 74 V
stroke 3768 1571 M
6102 1112 M
84 64 V
1689 1497 M
86 66 V
334 1290 R
92 70 V
2841 174 R
86 65 V
2674 1652 M
81 63 V
5065 3927 M
82 63 V
-814 17 R
70 53 V
2061 1350 M
73 55 V
41 -915 R
80 61 V
6452 2562 M
105 81 V
5881 949 M
103 80 V
2045 3664 M
103 80 V
1539 1749 M
67 52 V
5572 450 M
114 87 V
5481 438 M
99 77 V
5159 4295 M
99 77 V
1842 401 M
67 51 V
6711 1870 M
107 82 V
-2607 79 R
103 80 V
1322 493 R
96 74 V
3278 2535 M
106 81 V
4446 3761 M
70 54 V
1164 1373 M
102 78 V
4918 1125 M
76 58 V
6618 3375 M
88 67 V
4502 4583 M
93 72 V
4288 2601 M
67 51 V
1587 3587 M
77 60 V
3381 2471 M
65 51 V
2727 119 R
85 66 V
5071 2580 M
113 86 V
3530 2372 M
71 55 V
6301 454 M
87 66 V
4584 1166 M
100 76 V
625 3514 R
100 76 V
5770 2286 M
80 61 V
2303 3241 M
83 63 V
1883 1701 M
92 71 V
547 2435 R
79 61 V
-45 61 R
87 67 V
5696 4139 M
97 75 V
4810 4063 M
72 55 V
1387 1647 M
106 82 V
3105 723 M
79 61 V
1636 3456 M
78 60 V
-113 438 R
97 74 V
6034 2444 M
116 89 V
5320 4286 M
60 46 V
2474 1802 M
88 67 V
1612 4658 M
119 91 V
6319 3071 M
83 64 V
2393 835 M
115 88 V
stroke 2508 923 M
4157 2561 M
111 85 V
-1377 29 R
87 67 V
1293 1280 M
106 81 V
5172 2486 M
113 87 V
950 -824 R
67 51 V
-472 -21 R
78 59 V
1304 3554 M
115 88 V
653 134 R
110 85 V
5290 2525 M
114 87 V
3314 3484 M
107 82 V
4001 1589 M
88 67 V
3034 1234 M
74 57 V
1699 601 M
76 58 V
4250 2457 M
70 54 V
-33 -701 R
86 66 V
1359 3732 M
116 89 V
5159 3108 M
61 47 V
4683 4654 M
71 55 V
6160 3569 M
68 53 V
4883 3255 M
110 84 V
1697 4190 M
65 49 V
2863 1145 M
92 70 V
117 2222 R
87 66 V
1683 4336 M
77 59 V
5106 4108 M
68 52 V
3637 597 M
105 81 V
5214 2662 M
93 72 V
1780 476 M
91 70 V
2534 971 R
83 64 V
1819 1260 M
72 55 V
5912 2566 M
113 87 V
4372 944 M
103 79 V
6047 2278 M
100 77 V
1621 520 M
79 61 V
6539 2709 M
97 74 V
5405 574 M
83 64 V
3369 3374 M
102 78 V
58 993 R
64 49 V
6500 3939 M
103 79 V
2646 1934 M
71 55 V
390 1560 R
103 79 V
6644 2618 M
97 74 V
2647 1021 M
82 63 V
1328 1894 M
112 86 V
2660 470 M
73 56 V
1907 746 M
63 49 V
6641 3737 M
63 49 V
1478 816 M
94 72 V
2678 4277 M
103 79 V
4488 2438 M
119 91 V
6237 1025 M
72 55 V
1863 2636 M
65 50 V
stroke 1928 2686 M
6173 2423 M
105 80 V
5511 3648 M
104 80 V
4080 726 M
91 70 V
6142 362 M
61 48 V
5077 3819 M
91 70 V
2903 928 M
81 62 V
2187 2395 M
67 51 V
1002 3422 M
115 89 V
6169 760 M
101 77 V
6075 2474 M
87 67 V
1682 1147 M
77 59 V
449 -94 R
115 89 V
375 1845 R
61 48 V
3446 1156 M
119 91 V
4646 353 M
91 70 V
2376 2427 M
107 82 V
-715 437 R
64 49 V
1011 1819 M
74 56 V
1436 329 R
75 57 V
4696 4690 M
79 61 V
4565 858 M
100 77 V
6760 746 M
112 86 V
3606 4480 M
81 62 V
4511 1917 M
69 53 V
3839 1799 M
93 72 V
2740 658 R
78 59 V
1888 4066 M
118 91 V
4403 3319 M
84 65 V
3253 2037 M
81 62 V
2310 3945 CircleF
2413 4024 CircleF
3564 987 CircleF
3670 1068 CircleF
5158 3916 CircleF
5234 3975 CircleF
1943 544 CircleF
2061 635 CircleF
3545 2309 CircleF
3627 2372 CircleF
2957 825 CircleF
3060 904 CircleF
1695 1230 CircleF
1783 1297 CircleF
4296 1415 CircleF
4363 1467 CircleF
2107 3597 CircleF
2214 3679 CircleF
3144 1927 CircleF
3212 1979 CircleF
1133 609 CircleF
1247 697 CircleF
3521 4373 CircleF
3624 4453 CircleF
3750 4118 CircleF
3828 4179 CircleF
985 2289 CircleF
1083 2364 CircleF
1737 4081 CircleF
1843 4163 CircleF
6634 2900 CircleF
6741 2982 CircleF
1712 1496 CircleF
1776 1545 CircleF
3535 3099 CircleF
3598 3148 CircleF
3883 479 CircleF
3994 564 CircleF
3630 3736 CircleF
3721 3805 CircleF
6079 3233 CircleF
6144 3283 CircleF
3510 1450 CircleF
3612 1528 CircleF
1468 2401 CircleF
1575 2484 CircleF
3120 1634 CircleF
3227 1716 CircleF
4144 1998 CircleF
4244 2075 CircleF
2577 3468 CircleF
2660 3531 CircleF
4459 4179 CircleF
4577 4269 CircleF
1080 439 CircleF
1166 506 CircleF
5197 1702 CircleF
5308 1786 CircleF
5963 4509 CircleF
6064 4586 CircleF
3345 1613 CircleF
3416 1668 CircleF
6108 1555 CircleF
6192 1620 CircleF
5385 1463 CircleF
5450 1512 CircleF
1707 3556 CircleF
1787 3617 CircleF
2732 4732 CircleF
2845 4819 CircleF
5730 2006 CircleF
5843 2093 CircleF
3245 2944 CircleF
3362 3034 CircleF
5067 2827 CircleF
5148 2888 CircleF
3540 4441 CircleF
3627 4508 CircleF
2371 2616 CircleF
2465 2688 CircleF
1131 3247 CircleF
1195 3297 CircleF
1552 3006 CircleF
1663 3091 CircleF
1849 4613 CircleF
1927 4672 CircleF
3171 4499 CircleF
3234 4548 CircleF
3082 1053 CircleF
3167 1118 CircleF
2555 1386 CircleF
2653 1462 CircleF
1594 2361 CircleF
1695 2438 CircleF
3135 2345 CircleF
3241 2426 CircleF
2395 721 CircleF
2489 793 CircleF
1742 1755 CircleF
1848 1836 CircleF
3953 4285 CircleF
4037 4350 CircleF
3307 4404 CircleF
3379 4460 CircleF
4446 1138 CircleF
4537 1208 CircleF
1101 3763 CircleF
1165 3813 CircleF
6405 4054 CircleF
6487 4116 CircleF
2375 904 CircleF
2463 973 CircleF
3558 4048 CircleF
3661 4128 CircleF
2055 2566 CircleF
2124 2619 CircleF
1334 764 CircleF
1442 847 CircleF
1565 2722 CircleF
1663 2797 CircleF
4524 463 CircleF
4619 536 CircleF
2929 2715 CircleF
3012 2779 CircleF
2288 3518 CircleF
2404 3608 CircleF
5939 3532 CircleF
6012 3588 CircleF
6581 4141 CircleF
6668 4208 CircleF
5811 549 CircleF
5900 618 CircleF
1524 4332 CircleF
1584 4378 CircleF
4515 1751 CircleF
4591 1810 CircleF
3219 2736 CircleF
3289 2789 CircleF
1399 3114 CircleF
1493 3186 CircleF
2737 1024 CircleF
2851 1112 CircleF
3478 4183 CircleF
3562 4247 CircleF
3322 3898 CircleF
3394 3952 CircleF
1877 2587 CircleF
1996 2678 CircleF
4994 2446 CircleF
5105 2531 CircleF
3742 4300 CircleF
3823 4362 CircleF
1154 3342 CircleF
1215 3389 CircleF
3333 2409 CircleF
3441 2492 CircleF
5364 4090 CircleF
5457 4162 CircleF
1568 4775 CircleF
1671 4854 CircleF
5903 3387 CircleF
5975 3442 CircleF
3917 1735 CircleF
3990 1792 CircleF
2992 817 CircleF
3079 883 CircleF
6719 531 CircleF
6799 593 CircleF
2639 2395 CircleF
2749 2479 CircleF
6536 1259 CircleF
6632 1334 CircleF
2859 3689 CircleF
2964 3770 CircleF
6227 1598 CircleF
6318 1668 CircleF
1385 1956 CircleF
1450 2006 CircleF
6609 2834 CircleF
6713 2914 CircleF
3128 4722 CircleF
3189 4769 CircleF
5665 3395 CircleF
5768 3473 CircleF
4761 4232 CircleF
4828 4283 CircleF
4914 4140 CircleF
4981 4191 CircleF
4750 4345 CircleF
4828 4405 CircleF
1157 4151 CircleF
1276 4242 CircleF
5297 2777 CircleF
5394 2852 CircleF
3016 699 CircleF
3109 770 CircleF
5381 1055 CircleF
5464 1119 CircleF
2268 1348 CircleF
2371 1427 CircleF
2879 4446 CircleF
2941 4493 CircleF
1218 1741 CircleF
1289 1795 CircleF
6410 2319 CircleF
6476 2370 CircleF
2601 746 CircleF
2693 816 CircleF
6038 3533 CircleF
6156 3623 CircleF
3089 4542 CircleF
3187 4618 CircleF
3823 1873 CircleF
3886 1921 CircleF
5483 1546 CircleF
5577 1618 CircleF
1295 1120 CircleF
1391 1194 CircleF
5768 1153 CircleF
5828 1199 CircleF
3333 4553 CircleF
3432 4628 CircleF
2149 1805 CircleF
2247 1880 CircleF
3119 3213 CircleF
3233 3300 CircleF
2688 1998 CircleF
2769 2060 CircleF
6226 348 CircleF
6326 424 CircleF
4535 2528 CircleF
4653 2619 CircleF
4352 4554 CircleF
4418 4604 CircleF
1401 333 CircleF
1486 399 CircleF
4190 1371 CircleF
4268 1431 CircleF
2829 2345 CircleF
2892 2393 CircleF
1378 2225 CircleF
1455 2284 CircleF
5935 2912 CircleF
6002 2964 CircleF
6290 4374 CircleF
6362 4430 CircleF
5688 2609 CircleF
5778 2678 CircleF
4601 3670 CircleF
4675 3727 CircleF
2342 1813 CircleF
2422 1875 CircleF
4958 4717 CircleF
5073 4805 CircleF
6529 4391 CircleF
6641 4477 CircleF
6165 3335 CircleF
6251 3402 CircleF
4122 3838 CircleF
4184 3886 CircleF
6599 1322 CircleF
6681 1385 CircleF
6601 399 CircleF
6678 458 CircleF
1416 3517 CircleF
1520 3597 CircleF
4976 756 CircleF
5069 828 CircleF
1902 2849 CircleF
1972 2902 CircleF
2035 3587 CircleF
2124 3656 CircleF
6483 1352 CircleF
6581 1428 CircleF
6430 4054 CircleF
6541 4139 CircleF
2870 363 CircleF
2965 436 CircleF
2196 4364 CircleF
2259 4412 CircleF
1258 670 CircleF
1360 748 CircleF
5100 3296 CircleF
5176 3354 CircleF
4264 4611 CircleF
4360 4684 CircleF
1057 2238 CircleF
1169 2325 CircleF
5655 1375 CircleF
5752 1449 CircleF
3639 4112 CircleF
3708 4165 CircleF
2777 4231 CircleF
2857 4292 CircleF
4848 1796 CircleF
4952 1876 CircleF
5011 3434 CircleF
5117 3515 CircleF
5577 1843 CircleF
5649 1898 CircleF
2795 3360 CircleF
2908 3446 CircleF
1780 3374 CircleF
1857 3433 CircleF
5340 1204 CircleF
5440 1281 CircleF
3223 1996 CircleF
3301 2055 CircleF
2795 3116 CircleF
2876 3178 CircleF
5861 905 CircleF
5977 994 CircleF
2648 975 CircleF
2741 1046 CircleF
1677 2278 CircleF
1762 2343 CircleF
3125 754 CircleF
3208 818 CircleF
3266 4482 CircleF
3333 4532 CircleF
2831 4402 CircleF
2933 4480 CircleF
3944 728 CircleF
4034 796 CircleF
5545 4269 CircleF
5635 4338 CircleF
3579 675 CircleF
3683 755 CircleF
5899 4641 CircleF
5979 4702 CircleF
2739 2472 CircleF
2803 2520 CircleF
4754 2861 CircleF
4858 2941 CircleF
5285 4207 CircleF
5396 4293 CircleF
3137 2283 CircleF
3200 2332 CircleF
5631 2442 CircleF
5749 2532 CircleF
6487 3533 CircleF
6595 3616 CircleF
4429 4649 CircleF
4544 4737 CircleF
4449 1966 CircleF
4511 2014 CircleF
3574 2466 CircleF
3687 2553 CircleF
5335 1349 CircleF
5399 1398 CircleF
3981 1525 CircleF
4058 1584 CircleF
3621 4380 CircleF
3683 4428 CircleF
5404 1469 CircleF
5473 1522 CircleF
4750 2475 CircleF
4817 2526 CircleF
6541 418 CircleF
6629 485 CircleF
6769 3230 CircleF
6839 3283 CircleF
2627 1054 CircleF
2730 1133 CircleF
4783 4754 CircleF
4886 4833 CircleF
2727 4142 CircleF
2816 4210 CircleF
4759 3006 CircleF
4861 3084 CircleF
3758 3270 CircleF
3875 3359 CircleF
3293 2432 CircleF
3396 2511 CircleF
3638 4588 CircleF
3700 4635 CircleF
5502 1350 CircleF
5587 1415 CircleF
6442 489 CircleF
6532 558 CircleF
6576 2446 CircleF
6693 2535 CircleF
3870 3395 CircleF
3985 3483 CircleF
5438 1016 CircleF
5507 1070 CircleF
5478 3786 CircleF
5592 3874 CircleF
1046 3925 CircleF
1113 3975 CircleF
3546 941 CircleF
3642 1015 CircleF
6442 2906 CircleF
6529 2973 CircleF
4179 1409 CircleF
4275 1484 CircleF
5377 1299 CircleF
5480 1378 CircleF
1213 1994 CircleF
1332 2085 CircleF
5633 3808 CircleF
5745 3894 CircleF
1834 3951 CircleF
1898 4000 CircleF
2682 640 CircleF
2778 715 CircleF
3859 4032 CircleF
3966 4115 CircleF
3433 2439 CircleF
3521 2507 CircleF
3430 4427 CircleF
3500 4482 CircleF
5945 2854 CircleF
6052 2936 CircleF
4045 2494 CircleF
4151 2576 CircleF
4645 3399 CircleF
4708 3447 CircleF
2128 3864 CircleF
2230 3941 CircleF
2082 1452 CircleF
2165 1516 CircleF
1180 4777 CircleF
1283 4856 CircleF
6804 1260 CircleF
6911 1342 CircleF
4555 997 CircleF
4651 1071 CircleF
6437 1673 CircleF
6509 1728 CircleF
5502 3262 CircleF
5564 3310 CircleF
3269 672 CircleF
3346 731 CircleF
6501 3685 CircleF
6571 3739 CircleF
1898 2403 CircleF
1971 2459 CircleF
3208 4228 CircleF
3327 4319 CircleF
4435 4666 CircleF
4500 4716 CircleF
1836 2145 CircleF
1938 2223 CircleF
4532 4301 CircleF
4620 4368 CircleF
4031 4710 CircleF
4098 4762 CircleF
5146 2590 CircleF
5208 2638 CircleF
4605 1237 CircleF
4681 1296 CircleF
3539 2365 CircleF
3600 2412 CircleF
1941 1092 CircleF
2006 1142 CircleF
2928 2759 CircleF
3001 2816 CircleF
3862 741 CircleF
3975 828 CircleF
3172 4061 CircleF
3273 4138 CircleF
1981 4754 CircleF
2077 4827 CircleF
3022 2081 CircleF
3090 2134 CircleF
5007 2119 CircleF
5114 2201 CircleF
2159 2939 CircleF
2238 3000 CircleF
2371 4017 CircleF
2473 4095 CircleF
1626 2033 CircleF
1695 2086 CircleF
1130 1024 CircleF
1228 1100 CircleF
5653 3674 CircleF
5720 3726 CircleF
1324 1148 CircleF
1425 1225 CircleF
3145 4773 CircleF
3257 4859 CircleF
2695 3511 CircleF
2793 3586 CircleF
3887 319 CircleF
4001 406 CircleF
4079 3872 CircleF
4173 3943 CircleF
5157 1337 CircleF
5260 1416 CircleF
5933 3361 CircleF
6017 3425 CircleF
1709 4113 CircleF
1823 4200 CircleF
6395 2773 CircleF
6489 2844 CircleF
3225 4727 CircleF
3339 4815 CircleF
1014 824 CircleF
1104 893 CircleF
6694 4722 CircleF
6789 4795 CircleF
1323 3389 CircleF
1412 3457 CircleF
6803 2423 CircleF
6866 2472 CircleF
5280 3778 CircleF
5354 3835 CircleF
1547 4742 CircleF
1622 4800 CircleF
4611 3799 CircleF
4716 3880 CircleF
3430 4128 CircleF
3532 4207 CircleF
6461 3295 CircleF
6561 3371 CircleF
5159 2403 CircleF
5242 2466 CircleF
4309 4777 CircleF
4377 4829 CircleF
4488 722 CircleF
4591 801 CircleF
4519 1268 CircleF
4615 1342 CircleF
4359 3953 CircleF
4440 4015 CircleF
1627 2932 CircleF
1730 3011 CircleF
1615 1190 CircleF
1683 1242 CircleF
6569 445 CircleF
6686 534 CircleF
4191 1202 CircleF
4255 1251 CircleF
5392 2513 CircleF
5475 2576 CircleF
6644 2219 CircleF
6728 2284 CircleF
3124 4766 CircleF
3222 4842 CircleF
5406 712 CircleF
5478 767 CircleF
5242 4450 CircleF
5318 4509 CircleF
3801 2807 CircleF
3914 2894 CircleF
1572 3611 CircleF
1671 3688 CircleF
6769 975 CircleF
6848 1035 CircleF
5982 3618 CircleF
6045 3666 CircleF
4731 4543 CircleF
4810 4604 CircleF
3360 3548 CircleF
3455 3621 CircleF
6139 972 CircleF
6233 1044 CircleF
3869 2362 CircleF
3971 2441 CircleF
1748 621 CircleF
1850 700 CircleF
6443 3238 CircleF
6534 3308 CircleF
2778 4053 CircleF
2871 4124 CircleF
3429 2163 CircleF
3502 2219 CircleF
5386 3445 CircleF
5492 3527 CircleF
1473 2137 CircleF
1588 2226 CircleF
5128 4664 CircleF
5192 4713 CircleF
3486 385 CircleF
3600 473 CircleF
4757 1372 CircleF
4834 1430 CircleF
5625 3222 CircleF
5710 3288 CircleF
3074 397 CircleF
3156 460 CircleF
2670 1260 CircleF
2732 1307 CircleF
2366 1590 CircleF
2430 1639 CircleF
1352 1523 CircleF
1428 1581 CircleF
4426 3451 CircleF
4528 3529 CircleF
2208 1219 CircleF
2300 1290 CircleF
5798 4752 CircleF
5892 4824 CircleF
4607 803 CircleF
4689 866 CircleF
2902 3039 CircleF
2998 3113 CircleF
2299 4553 CircleF
2408 4637 CircleF
4209 3977 CircleF
4270 4024 CircleF
3280 994 CircleF
3357 1054 CircleF
4411 4073 CircleF
4504 4145 CircleF
2739 3138 CircleF
2807 3190 CircleF
985 3584 CircleF
1075 3652 CircleF
2171 3242 CircleF
2257 3308 CircleF
5553 868 CircleF
5647 940 CircleF
5540 1719 CircleF
5608 1771 CircleF
2501 1344 CircleF
2564 1393 CircleF
6600 4519 CircleF
6719 4610 CircleF
3725 3254 CircleF
3838 3341 CircleF
2881 1038 CircleF
2954 1094 CircleF
974 3607 CircleF
1076 3686 CircleF
1452 947 CircleF
1547 1020 CircleF
6467 1791 CircleF
6542 1848 CircleF
3099 1932 CircleF
3218 2023 CircleF
3768 428 CircleF
3831 476 CircleF
1520 1078 CircleF
1586 1130 CircleF
3886 4430 CircleF
3995 4513 CircleF
1850 2709 CircleF
1926 2767 CircleF
2287 4100 CircleF
2402 4188 CircleF
5772 3101 CircleF
5875 3180 CircleF
4203 1635 CircleF
4315 1721 CircleF
1429 3423 CircleF
1501 3478 CircleF
5148 2055 CircleF
5244 2128 CircleF
2484 4404 CircleF
2592 4487 CircleF
3144 4421 CircleF
3240 4495 CircleF
6790 4343 CircleF
6908 4433 CircleF
2734 1186 CircleF
2849 1274 CircleF
1390 3929 CircleF
1488 4005 CircleF
4057 4012 CircleF
4139 4075 CircleF
6261 2944 CircleF
6347 3010 CircleF
3725 4075 CircleF
3808 4139 CircleF
5120 324 CircleF
5202 386 CircleF
5920 794 CircleF
6019 871 CircleF
1468 1028 CircleF
1534 1079 CircleF
6459 4704 CircleF
6575 4793 CircleF
2650 416 CircleF
2718 468 CircleF
6149 2685 CircleF
6257 2768 CircleF
4513 2149 CircleF
4585 2205 CircleF
2846 4067 CircleF
2959 4154 CircleF
3267 826 CircleF
3335 878 CircleF
3734 4222 CircleF
3850 4311 CircleF
2648 3823 CircleF
2714 3874 CircleF
1265 4522 CircleF
1326 4570 CircleF
2169 4403 CircleF
2255 4469 CircleF
1246 4757 CircleF
1340 4829 CircleF
6238 4154 CircleF
6301 4203 CircleF
3728 2197 CircleF
3799 2251 CircleF
1871 2268 CircleF
1949 2327 CircleF
999 4202 CircleF
1081 4265 CircleF
3076 3388 CircleF
3180 3468 CircleF
6704 3744 CircleF
6781 3802 CircleF
1479 3226 CircleF
1547 3278 CircleF
4467 1815 CircleF
4581 1903 CircleF
3044 3573 CircleF
3125 3635 CircleF
2595 2555 CircleF
2665 2609 CircleF
5940 623 CircleF
6039 698 CircleF
1812 609 CircleF
1906 681 CircleF
4304 3296 CircleF
4419 3384 CircleF
2930 433 CircleF
3009 493 CircleF
2826 919 CircleF
2921 992 CircleF
3874 2298 CircleF
3977 2377 CircleF
5672 4621 CircleF
5734 4669 CircleF
1391 2163 CircleF
1472 2225 CircleF
5221 2795 CircleF
5339 2886 CircleF
6037 2202 CircleF
6154 2292 CircleF
4772 1772 CircleF
4862 1841 CircleF
3109 1849 CircleF
3207 1924 CircleF
4377 3975 CircleF
4474 4050 CircleF
1601 2705 CircleF
1714 2792 CircleF
4111 3051 CircleF
4208 3125 CircleF
4559 2087 CircleF
4657 2162 CircleF
2523 3858 CircleF
2589 3909 CircleF
2869 2378 CircleF
2952 2443 CircleF
6046 4391 CircleF
6133 4458 CircleF
5802 4328 CircleF
5903 4406 CircleF
5457 3298 CircleF
5565 3381 CircleF
4099 4284 CircleF
4178 4345 CircleF
2899 4234 CircleF
2997 4309 CircleF
5752 4772 CircleF
5863 4858 CircleF
4948 3133 CircleF
5051 3212 CircleF
1943 1474 CircleF
2041 1549 CircleF
3693 2456 CircleF
3795 2534 CircleF
4564 2418 CircleF
4635 2473 CircleF
6733 2894 CircleF
6851 2985 CircleF
2816 2013 CircleF
2882 2064 CircleF
1022 549 CircleF
1112 618 CircleF
4866 3010 CircleF
4944 3069 CircleF
6816 1931 CircleF
6912 2005 CircleF
3327 2462 CircleF
3439 2548 CircleF
1457 2732 CircleF
1518 2779 CircleF
1227 1176 CircleF
1332 1256 CircleF
6770 1575 CircleF
6843 1631 CircleF
6690 1637 CircleF
6754 1687 CircleF
3560 882 CircleF
3672 967 CircleF
4637 3171 CircleF
4737 3247 CircleF
5656 2678 CircleF
5720 2727 CircleF
5658 2498 CircleF
5733 2556 CircleF
3700 2965 CircleF
3774 3022 CircleF
1985 3562 CircleF
2094 3646 CircleF
1181 3784 CircleF
1251 3837 CircleF
5364 1989 CircleF
5438 2045 CircleF
5540 2097 CircleF
5654 2184 CircleF
2204 517 CircleF
2291 583 CircleF
1870 2224 CircleF
1969 2300 CircleF
3576 1232 CircleF
3668 1302 CircleF
2672 2086 CircleF
2747 2143 CircleF
3723 318 CircleF
3798 376 CircleF
3341 4533 CircleF
3414 4589 CircleF
4511 4571 CircleF
4594 4635 CircleF
6657 4522 CircleF
6762 4603 CircleF
4140 4503 CircleF
4240 4579 CircleF
6311 2626 CircleF
6373 2673 CircleF
3860 3037 CircleF
3951 3106 CircleF
4010 1778 CircleF
4076 1829 CircleF
3672 1497 CircleF
3768 1571 CircleF
6102 1112 CircleF
6186 1176 CircleF
1689 1497 CircleF
1775 1563 CircleF
2109 2853 CircleF
2201 2923 CircleF
5042 3097 CircleF
5128 3162 CircleF
2674 1652 CircleF
2755 1715 CircleF
5065 3927 CircleF
5147 3990 CircleF
4333 4007 CircleF
4403 4060 CircleF
2061 1350 CircleF
2134 1405 CircleF
2175 490 CircleF
2255 551 CircleF
6452 2562 CircleF
6557 2643 CircleF
5881 949 CircleF
5984 1029 CircleF
2045 3664 CircleF
2148 3744 CircleF
1539 1749 CircleF
1606 1801 CircleF
5572 450 CircleF
5686 537 CircleF
5481 438 CircleF
5580 515 CircleF
5159 4295 CircleF
5258 4372 CircleF
1842 401 CircleF
1909 452 CircleF
6711 1870 CircleF
6818 1952 CircleF
4211 2031 CircleF
4314 2111 CircleF
5636 2604 CircleF
5732 2678 CircleF
3278 2535 CircleF
3384 2616 CircleF
4446 3761 CircleF
4516 3815 CircleF
1164 1373 CircleF
1266 1451 CircleF
4918 1125 CircleF
4994 1183 CircleF
6618 3375 CircleF
6706 3442 CircleF
4502 4583 CircleF
4595 4655 CircleF
4288 2601 CircleF
4355 2652 CircleF
1587 3587 CircleF
1664 3647 CircleF
3381 2471 CircleF
3446 2522 CircleF
6173 2641 CircleF
6258 2707 CircleF
5071 2580 CircleF
5184 2666 CircleF
3530 2372 CircleF
3601 2427 CircleF
6301 454 CircleF
6388 520 CircleF
4584 1166 CircleF
4684 1242 CircleF
5309 4756 CircleF
5409 4832 CircleF
5770 2286 CircleF
5850 2347 CircleF
2303 3241 CircleF
2386 3304 CircleF
1883 1701 CircleF
1975 1772 CircleF
2522 4207 CircleF
2601 4268 CircleF
2556 4329 CircleF
2643 4396 CircleF
5696 4139 CircleF
5793 4214 CircleF
4810 4063 CircleF
4882 4118 CircleF
1387 1647 CircleF
1493 1729 CircleF
3105 723 CircleF
3184 784 CircleF
1636 3456 CircleF
1714 3516 CircleF
1601 3954 CircleF
1698 4028 CircleF
6034 2444 CircleF
6150 2533 CircleF
5320 4286 CircleF
5380 4332 CircleF
2474 1802 CircleF
2562 1869 CircleF
1612 4658 CircleF
1731 4749 CircleF
6319 3071 CircleF
6402 3135 CircleF
2393 835 CircleF
2508 923 CircleF
4157 2561 CircleF
4268 2646 CircleF
2891 2675 CircleF
2978 2742 CircleF
1293 1280 CircleF
1399 1361 CircleF
5172 2486 CircleF
5285 2573 CircleF
6235 1749 CircleF
6302 1800 CircleF
5830 1779 CircleF
5908 1838 CircleF
1304 3554 CircleF
1419 3642 CircleF
2072 3776 CircleF
2182 3861 CircleF
5290 2525 CircleF
5404 2612 CircleF
3314 3484 CircleF
3421 3566 CircleF
4001 1589 CircleF
4089 1656 CircleF
3034 1234 CircleF
3108 1291 CircleF
1699 601 CircleF
1775 659 CircleF
4250 2457 CircleF
4320 2511 CircleF
4287 1810 CircleF
4373 1876 CircleF
1359 3732 CircleF
1475 3821 CircleF
5159 3108 CircleF
5220 3155 CircleF
4683 4654 CircleF
4754 4709 CircleF
6160 3569 CircleF
6228 3622 CircleF
4883 3255 CircleF
4993 3339 CircleF
1697 4190 CircleF
1762 4239 CircleF
2863 1145 CircleF
2955 1215 CircleF
3072 3437 CircleF
3159 3503 CircleF
1683 4336 CircleF
1760 4395 CircleF
5106 4108 CircleF
5174 4160 CircleF
3637 597 CircleF
3742 678 CircleF
5214 2662 CircleF
5307 2734 CircleF
1780 476 CircleF
1871 546 CircleF
4405 1517 CircleF
4488 1581 CircleF
1819 1260 CircleF
1891 1315 CircleF
5912 2566 CircleF
6025 2653 CircleF
4372 944 CircleF
4475 1023 CircleF
6047 2278 CircleF
6147 2355 CircleF
1621 520 CircleF
1700 581 CircleF
6539 2709 CircleF
6636 2783 CircleF
5405 574 CircleF
5488 638 CircleF
3369 3374 CircleF
3471 3452 CircleF
3529 4445 CircleF
3593 4494 CircleF
6500 3939 CircleF
6603 4018 CircleF
2646 1934 CircleF
2717 1989 CircleF
3107 3549 CircleF
3210 3628 CircleF
6644 2618 CircleF
6741 2692 CircleF
2647 1021 CircleF
2729 1084 CircleF
1328 1894 CircleF
1440 1980 CircleF
2660 470 CircleF
2733 526 CircleF
1907 746 CircleF
1970 795 CircleF
6641 3737 CircleF
6704 3786 CircleF
1478 816 CircleF
1572 888 CircleF
2678 4277 CircleF
2781 4356 CircleF
4488 2438 CircleF
4607 2529 CircleF
6237 1025 CircleF
6309 1080 CircleF
1863 2636 CircleF
1928 2686 CircleF
6173 2423 CircleF
6278 2503 CircleF
5511 3648 CircleF
5615 3728 CircleF
4080 726 CircleF
4171 796 CircleF
6142 362 CircleF
6203 410 CircleF
5077 3819 CircleF
5168 3889 CircleF
2903 928 CircleF
2984 990 CircleF
2187 2395 CircleF
2254 2446 CircleF
1002 3422 CircleF
1117 3511 CircleF
6169 760 CircleF
6270 837 CircleF
6075 2474 CircleF
6162 2541 CircleF
1682 1147 CircleF
1759 1206 CircleF
2208 1112 CircleF
2323 1201 CircleF
2698 3046 CircleF
2759 3094 CircleF
3446 1156 CircleF
3565 1247 CircleF
4646 353 CircleF
4737 423 CircleF
2376 2427 CircleF
2483 2509 CircleF
1768 2946 CircleF
1832 2995 CircleF
1011 1819 CircleF
1085 1875 CircleF
2521 2204 CircleF
2596 2261 CircleF
4696 4690 CircleF
4775 4751 CircleF
4565 858 CircleF
4665 935 CircleF
6760 746 CircleF
6872 832 CircleF
3606 4480 CircleF
3687 4542 CircleF
4511 1917 CircleF
4580 1970 CircleF
3839 1799 CircleF
3932 1871 CircleF
6672 2529 CircleF
6750 2588 CircleF
1888 4066 CircleF
2006 4157 CircleF
4403 3319 CircleF
4487 3384 CircleF
3253 2037 CircleF
3334 2099 CircleF
% End plot #2
1.000 UP
1.000 UL
LT0
0.50 0.50 0.50 C stroke
grestore
end
showpage
%%Trailer
%%DocumentFonts: Helvetica
%%Pages: 1
