%!PS-Adobe-2.0
%%Title: out.ps
%%Creator: gnuplot 4.6 patchlevel 6
%%CreationDate: Thu May 28 23:57:50 2015
%%DocumentFonts: (atend)
%%BoundingBox: 50 50 554 770
%%Orientation: Landscape
%%Pages: (atend)
%%EndComments
%%BeginProlog
/gnudict 256 dict def
gnudict begin
%
% The following true/false flags may be edited by hand if desired.
% The unit line width and grayscale image gamma correction may also be changed.
%
/Color false def
/Blacktext false def
/Solid false def
/Dashlength 1 def
/Landscape true def
/Level1 false def
/Rounded false def
/ClipToBoundingBox false def
/SuppressPDFMark false def
/TransparentPatterns false def
/gnulinewidth 5.000 def
/userlinewidth gnulinewidth def
/Gamma 1.0 def
/BackgroundColor {-1.000 -1.000 -1.000} def
%
/vshift -46 def
/dl1 {
  10.0 Dashlength mul mul
  Rounded { currentlinewidth 0.75 mul sub dup 0 le { pop 0.01 } if } if
} def
/dl2 {
  10.0 Dashlength mul mul
  Rounded { currentlinewidth 0.75 mul add } if
} def
/hpt_ 31.5 def
/vpt_ 31.5 def
/hpt hpt_ def
/vpt vpt_ def
/doclip {
  ClipToBoundingBox {
    newpath 50 50 moveto 554 50 lineto 554 770 lineto 50 770 lineto closepath
    clip
  } if
} def
%
% Gnuplot Prolog Version 4.6 (September 2012)
%
%/SuppressPDFMark true def
%
/M {moveto} bind def
/L {lineto} bind def
/R {rmoveto} bind def
/V {rlineto} bind def
/N {newpath moveto} bind def
/Z {closepath} bind def
/C {setrgbcolor} bind def
/f {rlineto fill} bind def
/g {setgray} bind def
/Gshow {show} def   % May be redefined later in the file to support UTF-8
/vpt2 vpt 2 mul def
/hpt2 hpt 2 mul def
/Lshow {currentpoint stroke M 0 vshift R 
	Blacktext {gsave 0 setgray show grestore} {show} ifelse} def
/Rshow {currentpoint stroke M dup stringwidth pop neg vshift R
	Blacktext {gsave 0 setgray show grestore} {show} ifelse} def
/Cshow {currentpoint stroke M dup stringwidth pop -2 div vshift R 
	Blacktext {gsave 0 setgray show grestore} {show} ifelse} def
/UP {dup vpt_ mul /vpt exch def hpt_ mul /hpt exch def
  /hpt2 hpt 2 mul def /vpt2 vpt 2 mul def} def
/DL {Color {setrgbcolor Solid {pop []} if 0 setdash}
 {pop pop pop 0 setgray Solid {pop []} if 0 setdash} ifelse} def
/BL {stroke userlinewidth 2 mul setlinewidth
	Rounded {1 setlinejoin 1 setlinecap} if} def
/AL {stroke userlinewidth 2 div setlinewidth
	Rounded {1 setlinejoin 1 setlinecap} if} def
/UL {dup gnulinewidth mul /userlinewidth exch def
	dup 1 lt {pop 1} if 10 mul /udl exch def} def
/PL {stroke userlinewidth setlinewidth
	Rounded {1 setlinejoin 1 setlinecap} if} def
3.8 setmiterlimit
% Default Line colors
/LCw {1 1 1} def
/LCb {0 0 0} def
/LCa {0 0 0} def
/LC0 {1 0 0} def
/LC1 {0 1 0} def
/LC2 {0 0 1} def
/LC3 {1 0 1} def
/LC4 {0 1 1} def
/LC5 {1 1 0} def
/LC6 {0 0 0} def
/LC7 {1 0.3 0} def
/LC8 {0.5 0.5 0.5} def
% Default Line Types
/LTw {PL [] 1 setgray} def
/LTb {BL [] LCb DL} def
/LTa {AL [1 udl mul 2 udl mul] 0 setdash LCa setrgbcolor} def
/LT0 {PL [] LC0 DL} def
/LT1 {PL [4 dl1 2 dl2] LC1 DL} def
/LT2 {PL [2 dl1 3 dl2] LC2 DL} def
/LT3 {PL [1 dl1 1.5 dl2] LC3 DL} def
/LT4 {PL [6 dl1 2 dl2 1 dl1 2 dl2] LC4 DL} def
/LT5 {PL [3 dl1 3 dl2 1 dl1 3 dl2] LC5 DL} def
/LT6 {PL [2 dl1 2 dl2 2 dl1 6 dl2] LC6 DL} def
/LT7 {PL [1 dl1 2 dl2 6 dl1 2 dl2 1 dl1 2 dl2] LC7 DL} def
/LT8 {PL [2 dl1 2 dl2 2 dl1 2 dl2 2 dl1 2 dl2 2 dl1 4 dl2] LC8 DL} def
/Pnt {stroke [] 0 setdash gsave 1 setlinecap M 0 0 V stroke grestore} def
/Dia {stroke [] 0 setdash 2 copy vpt add M
  hpt neg vpt neg V hpt vpt neg V
  hpt vpt V hpt neg vpt V closepath stroke
  Pnt} def
/Pls {stroke [] 0 setdash vpt sub M 0 vpt2 V
  currentpoint stroke M
  hpt neg vpt neg R hpt2 0 V stroke
 } def
/Box {stroke [] 0 setdash 2 copy exch hpt sub exch vpt add M
  0 vpt2 neg V hpt2 0 V 0 vpt2 V
  hpt2 neg 0 V closepath stroke
  Pnt} def
/Crs {stroke [] 0 setdash exch hpt sub exch vpt add M
  hpt2 vpt2 neg V currentpoint stroke M
  hpt2 neg 0 R hpt2 vpt2 V stroke} def
/TriU {stroke [] 0 setdash 2 copy vpt 1.12 mul add M
  hpt neg vpt -1.62 mul V
  hpt 2 mul 0 V
  hpt neg vpt 1.62 mul V closepath stroke
  Pnt} def
/Star {2 copy Pls Crs} def
/BoxF {stroke [] 0 setdash exch hpt sub exch vpt add M
  0 vpt2 neg V hpt2 0 V 0 vpt2 V
  hpt2 neg 0 V closepath fill} def
/TriUF {stroke [] 0 setdash vpt 1.12 mul add M
  hpt neg vpt -1.62 mul V
  hpt 2 mul 0 V
  hpt neg vpt 1.62 mul V closepath fill} def
/TriD {stroke [] 0 setdash 2 copy vpt 1.12 mul sub M
  hpt neg vpt 1.62 mul V
  hpt 2 mul 0 V
  hpt neg vpt -1.62 mul V closepath stroke
  Pnt} def
/TriDF {stroke [] 0 setdash vpt 1.12 mul sub M
  hpt neg vpt 1.62 mul V
  hpt 2 mul 0 V
  hpt neg vpt -1.62 mul V closepath fill} def
/DiaF {stroke [] 0 setdash vpt add M
  hpt neg vpt neg V hpt vpt neg V
  hpt vpt V hpt neg vpt V closepath fill} def
/Pent {stroke [] 0 setdash 2 copy gsave
  translate 0 hpt M 4 {72 rotate 0 hpt L} repeat
  closepath stroke grestore Pnt} def
/PentF {stroke [] 0 setdash gsave
  translate 0 hpt M 4 {72 rotate 0 hpt L} repeat
  closepath fill grestore} def
/Circle {stroke [] 0 setdash 2 copy
  hpt 0 360 arc stroke Pnt} def
/CircleF {stroke [] 0 setdash hpt 0 360 arc fill} def
/C0 {BL [] 0 setdash 2 copy moveto vpt 90 450 arc} bind def
/C1 {BL [] 0 setdash 2 copy moveto
	2 copy vpt 0 90 arc closepath fill
	vpt 0 360 arc closepath} bind def
/C2 {BL [] 0 setdash 2 copy moveto
	2 copy vpt 90 180 arc closepath fill
	vpt 0 360 arc closepath} bind def
/C3 {BL [] 0 setdash 2 copy moveto
	2 copy vpt 0 180 arc closepath fill
	vpt 0 360 arc closepath} bind def
/C4 {BL [] 0 setdash 2 copy moveto
	2 copy vpt 180 270 arc closepath fill
	vpt 0 360 arc closepath} bind def
/C5 {BL [] 0 setdash 2 copy moveto
	2 copy vpt 0 90 arc
	2 copy moveto
	2 copy vpt 180 270 arc closepath fill
	vpt 0 360 arc} bind def
/C6 {BL [] 0 setdash 2 copy moveto
	2 copy vpt 90 270 arc closepath fill
	vpt 0 360 arc closepath} bind def
/C7 {BL [] 0 setdash 2 copy moveto
	2 copy vpt 0 270 arc closepath fill
	vpt 0 360 arc closepath} bind def
/C8 {BL [] 0 setdash 2 copy moveto
	2 copy vpt 270 360 arc closepath fill
	vpt 0 360 arc closepath} bind def
/C9 {BL [] 0 setdash 2 copy moveto
	2 copy vpt 270 450 arc closepath fill
	vpt 0 360 arc closepath} bind def
/C10 {BL [] 0 setdash 2 copy 2 copy moveto vpt 270 360 arc closepath fill
	2 copy moveto
	2 copy vpt 90 180 arc closepath fill
	vpt 0 360 arc closepath} bind def
/C11 {BL [] 0 setdash 2 copy moveto
	2 copy vpt 0 180 arc closepath fill
	2 copy moveto
	2 copy vpt 270 360 arc closepath fill
	vpt 0 360 arc closepath} bind def
/C12 {BL [] 0 setdash 2 copy moveto
	2 copy vpt 180 360 arc closepath fill
	vpt 0 360 arc closepath} bind def
/C13 {BL [] 0 setdash 2 copy moveto
	2 copy vpt 0 90 arc closepath fill
	2 copy moveto
	2 copy vpt 180 360 arc closepath fill
	vpt 0 360 arc closepath} bind def
/C14 {BL [] 0 setdash 2 copy moveto
	2 copy vpt 90 360 arc closepath fill
	vpt 0 360 arc} bind def
/C15 {BL [] 0 setdash 2 copy vpt 0 360 arc closepath fill
	vpt 0 360 arc closepath} bind def
/Rec {newpath 4 2 roll moveto 1 index 0 rlineto 0 exch rlineto
	neg 0 rlineto closepath} bind def
/Square {dup Rec} bind def
/Bsquare {vpt sub exch vpt sub exch vpt2 Square} bind def
/S0 {BL [] 0 setdash 2 copy moveto 0 vpt rlineto BL Bsquare} bind def
/S1 {BL [] 0 setdash 2 copy vpt Square fill Bsquare} bind def
/S2 {BL [] 0 setdash 2 copy exch vpt sub exch vpt Square fill Bsquare} bind def
/S3 {BL [] 0 setdash 2 copy exch vpt sub exch vpt2 vpt Rec fill Bsquare} bind def
/S4 {BL [] 0 setdash 2 copy exch vpt sub exch vpt sub vpt Square fill Bsquare} bind def
/S5 {BL [] 0 setdash 2 copy 2 copy vpt Square fill
	exch vpt sub exch vpt sub vpt Square fill Bsquare} bind def
/S6 {BL [] 0 setdash 2 copy exch vpt sub exch vpt sub vpt vpt2 Rec fill Bsquare} bind def
/S7 {BL [] 0 setdash 2 copy exch vpt sub exch vpt sub vpt vpt2 Rec fill
	2 copy vpt Square fill Bsquare} bind def
/S8 {BL [] 0 setdash 2 copy vpt sub vpt Square fill Bsquare} bind def
/S9 {BL [] 0 setdash 2 copy vpt sub vpt vpt2 Rec fill Bsquare} bind def
/S10 {BL [] 0 setdash 2 copy vpt sub vpt Square fill 2 copy exch vpt sub exch vpt Square fill
	Bsquare} bind def
/S11 {BL [] 0 setdash 2 copy vpt sub vpt Square fill 2 copy exch vpt sub exch vpt2 vpt Rec fill
	Bsquare} bind def
/S12 {BL [] 0 setdash 2 copy exch vpt sub exch vpt sub vpt2 vpt Rec fill Bsquare} bind def
/S13 {BL [] 0 setdash 2 copy exch vpt sub exch vpt sub vpt2 vpt Rec fill
	2 copy vpt Square fill Bsquare} bind def
/S14 {BL [] 0 setdash 2 copy exch vpt sub exch vpt sub vpt2 vpt Rec fill
	2 copy exch vpt sub exch vpt Square fill Bsquare} bind def
/S15 {BL [] 0 setdash 2 copy Bsquare fill Bsquare} bind def
/D0 {gsave translate 45 rotate 0 0 S0 stroke grestore} bind def
/D1 {gsave translate 45 rotate 0 0 S1 stroke grestore} bind def
/D2 {gsave translate 45 rotate 0 0 S2 stroke grestore} bind def
/D3 {gsave translate 45 rotate 0 0 S3 stroke grestore} bind def
/D4 {gsave translate 45 rotate 0 0 S4 stroke grestore} bind def
/D5 {gsave translate 45 rotate 0 0 S5 stroke grestore} bind def
/D6 {gsave translate 45 rotate 0 0 S6 stroke grestore} bind def
/D7 {gsave translate 45 rotate 0 0 S7 stroke grestore} bind def
/D8 {gsave translate 45 rotate 0 0 S8 stroke grestore} bind def
/D9 {gsave translate 45 rotate 0 0 S9 stroke grestore} bind def
/D10 {gsave translate 45 rotate 0 0 S10 stroke grestore} bind def
/D11 {gsave translate 45 rotate 0 0 S11 stroke grestore} bind def
/D12 {gsave translate 45 rotate 0 0 S12 stroke grestore} bind def
/D13 {gsave translate 45 rotate 0 0 S13 stroke grestore} bind def
/D14 {gsave translate 45 rotate 0 0 S14 stroke grestore} bind def
/D15 {gsave translate 45 rotate 0 0 S15 stroke grestore} bind def
/DiaE {stroke [] 0 setdash vpt add M
  hpt neg vpt neg V hpt vpt neg V
  hpt vpt V hpt neg vpt V closepath stroke} def
/BoxE {stroke [] 0 setdash exch hpt sub exch vpt add M
  0 vpt2 neg V hpt2 0 V 0 vpt2 V
  hpt2 neg 0 V closepath stroke} def
/TriUE {stroke [] 0 setdash vpt 1.12 mul add M
  hpt neg vpt -1.62 mul V
  hpt 2 mul 0 V
  hpt neg vpt 1.62 mul V closepath stroke} def
/TriDE {stroke [] 0 setdash vpt 1.12 mul sub M
  hpt neg vpt 1.62 mul V
  hpt 2 mul 0 V
  hpt neg vpt -1.62 mul V closepath stroke} def
/PentE {stroke [] 0 setdash gsave
  translate 0 hpt M 4 {72 rotate 0 hpt L} repeat
  closepath stroke grestore} def
/CircE {stroke [] 0 setdash 
  hpt 0 360 arc stroke} def
/Opaque {gsave closepath 1 setgray fill grestore 0 setgray closepath} def
/DiaW {stroke [] 0 setdash vpt add M
  hpt neg vpt neg V hpt vpt neg V
  hpt vpt V hpt neg vpt V Opaque stroke} def
/BoxW {stroke [] 0 setdash exch hpt sub exch vpt add M
  0 vpt2 neg V hpt2 0 V 0 vpt2 V
  hpt2 neg 0 V Opaque stroke} def
/TriUW {stroke [] 0 setdash vpt 1.12 mul add M
  hpt neg vpt -1.62 mul V
  hpt 2 mul 0 V
  hpt neg vpt 1.62 mul V Opaque stroke} def
/TriDW {stroke [] 0 setdash vpt 1.12 mul sub M
  hpt neg vpt 1.62 mul V
  hpt 2 mul 0 V
  hpt neg vpt -1.62 mul V Opaque stroke} def
/PentW {stroke [] 0 setdash gsave
  translate 0 hpt M 4 {72 rotate 0 hpt L} repeat
  Opaque stroke grestore} def
/CircW {stroke [] 0 setdash 
  hpt 0 360 arc Opaque stroke} def
/BoxFill {gsave Rec 1 setgray fill grestore} def
/Density {
  /Fillden exch def
  currentrgbcolor
  /ColB exch def /ColG exch def /ColR exch def
  /ColR ColR Fillden mul Fillden sub 1 add def
  /ColG ColG Fillden mul Fillden sub 1 add def
  /ColB ColB Fillden mul Fillden sub 1 add def
  ColR ColG ColB setrgbcolor} def
/BoxColFill {gsave Rec PolyFill} def
/PolyFill {gsave Density fill grestore grestore} def
/h {rlineto rlineto rlineto gsave closepath fill grestore} bind def
%
% PostScript Level 1 Pattern Fill routine for rectangles
% Usage: x y w h s a XX PatternFill
%	x,y = lower left corner of box to be filled
%	w,h = width and height of box
%	  a = angle in degrees between lines and x-axis
%	 XX = 0/1 for no/yes cross-hatch
%
/PatternFill {gsave /PFa [ 9 2 roll ] def
  PFa 0 get PFa 2 get 2 div add PFa 1 get PFa 3 get 2 div add translate
  PFa 2 get -2 div PFa 3 get -2 div PFa 2 get PFa 3 get Rec
  TransparentPatterns {} {gsave 1 setgray fill grestore} ifelse
  clip
  currentlinewidth 0.5 mul setlinewidth
  /PFs PFa 2 get dup mul PFa 3 get dup mul add sqrt def
  0 0 M PFa 5 get rotate PFs -2 div dup translate
  0 1 PFs PFa 4 get div 1 add floor cvi
	{PFa 4 get mul 0 M 0 PFs V} for
  0 PFa 6 get ne {
	0 1 PFs PFa 4 get div 1 add floor cvi
	{PFa 4 get mul 0 2 1 roll M PFs 0 V} for
 } if
  stroke grestore} def
%
/languagelevel where
 {pop languagelevel} {1} ifelse
 2 lt
	{/InterpretLevel1 true def}
	{/InterpretLevel1 Level1 def}
 ifelse
%
% PostScript level 2 pattern fill definitions
%
/Level2PatternFill {
/Tile8x8 {/PaintType 2 /PatternType 1 /TilingType 1 /BBox [0 0 8 8] /XStep 8 /YStep 8}
	bind def
/KeepColor {currentrgbcolor [/Pattern /DeviceRGB] setcolorspace} bind def
<< Tile8x8
 /PaintProc {0.5 setlinewidth pop 0 0 M 8 8 L 0 8 M 8 0 L stroke} 
>> matrix makepattern
/Pat1 exch def
<< Tile8x8
 /PaintProc {0.5 setlinewidth pop 0 0 M 8 8 L 0 8 M 8 0 L stroke
	0 4 M 4 8 L 8 4 L 4 0 L 0 4 L stroke}
>> matrix makepattern
/Pat2 exch def
<< Tile8x8
 /PaintProc {0.5 setlinewidth pop 0 0 M 0 8 L
	8 8 L 8 0 L 0 0 L fill}
>> matrix makepattern
/Pat3 exch def
<< Tile8x8
 /PaintProc {0.5 setlinewidth pop -4 8 M 8 -4 L
	0 12 M 12 0 L stroke}
>> matrix makepattern
/Pat4 exch def
<< Tile8x8
 /PaintProc {0.5 setlinewidth pop -4 0 M 8 12 L
	0 -4 M 12 8 L stroke}
>> matrix makepattern
/Pat5 exch def
<< Tile8x8
 /PaintProc {0.5 setlinewidth pop -2 8 M 4 -4 L
	0 12 M 8 -4 L 4 12 M 10 0 L stroke}
>> matrix makepattern
/Pat6 exch def
<< Tile8x8
 /PaintProc {0.5 setlinewidth pop -2 0 M 4 12 L
	0 -4 M 8 12 L 4 -4 M 10 8 L stroke}
>> matrix makepattern
/Pat7 exch def
<< Tile8x8
 /PaintProc {0.5 setlinewidth pop 8 -2 M -4 4 L
	12 0 M -4 8 L 12 4 M 0 10 L stroke}
>> matrix makepattern
/Pat8 exch def
<< Tile8x8
 /PaintProc {0.5 setlinewidth pop 0 -2 M 12 4 L
	-4 0 M 12 8 L -4 4 M 8 10 L stroke}
>> matrix makepattern
/Pat9 exch def
/Pattern1 {PatternBgnd KeepColor Pat1 setpattern} bind def
/Pattern2 {PatternBgnd KeepColor Pat2 setpattern} bind def
/Pattern3 {PatternBgnd KeepColor Pat3 setpattern} bind def
/Pattern4 {PatternBgnd KeepColor Landscape {Pat5} {Pat4} ifelse setpattern} bind def
/Pattern5 {PatternBgnd KeepColor Landscape {Pat4} {Pat5} ifelse setpattern} bind def
/Pattern6 {PatternBgnd KeepColor Landscape {Pat9} {Pat6} ifelse setpattern} bind def
/Pattern7 {PatternBgnd KeepColor Landscape {Pat8} {Pat7} ifelse setpattern} bind def
} def
%
%
%End of PostScript Level 2 code
%
/PatternBgnd {
  TransparentPatterns {} {gsave 1 setgray fill grestore} ifelse
} def
%
% Substitute for Level 2 pattern fill codes with
% grayscale if Level 2 support is not selected.
%
/Level1PatternFill {
/Pattern1 {0.250 Density} bind def
/Pattern2 {0.500 Density} bind def
/Pattern3 {0.750 Density} bind def
/Pattern4 {0.125 Density} bind def
/Pattern5 {0.375 Density} bind def
/Pattern6 {0.625 Density} bind def
/Pattern7 {0.875 Density} bind def
} def
%
% Now test for support of Level 2 code
%
Level1 {Level1PatternFill} {Level2PatternFill} ifelse
%
/Symbol-Oblique /Symbol findfont [1 0 .167 1 0 0] makefont
dup length dict begin {1 index /FID eq {pop pop} {def} ifelse} forall
currentdict end definefont pop
Level1 SuppressPDFMark or 
{} {
/SDict 10 dict def
systemdict /pdfmark known not {
  userdict /pdfmark systemdict /cleartomark get put
} if
SDict begin [
  /Title (out.ps)
  /Subject (gnuplot plot)
  /Creator (gnuplot 4.6 patchlevel 6)
  /Author (yani)
%  /Producer (gnuplot)
%  /Keywords ()
  /CreationDate (Thu May 28 23:57:50 2015)
  /DOCINFO pdfmark
end
} ifelse
end
%%EndProlog
%%Page: 1 1
gnudict begin
gsave
doclip
50 50 translate
0.100 0.100 scale
90 rotate
0 -5040 translate
0 setgray
newpath
(Helvetica) findfont 140 scalefont setfont
BackgroundColor 0 lt 3 1 roll 0 lt exch 0 lt or or not {gsave BackgroundColor C clippath fill grestore} if
1.000 UL
LT0
0.50 0.50 0.50 C 1.000 UL
LTa
0.50 0.50 0.50 C 966 280 M
5981 0 V
stroke
LT0
0.50 0.50 0.50 C 966 280 M
63 0 V
5918 0 R
-63 0 V
882 280 M
( 0) Rshow
1.000 UL
LT0
0.50 0.50 0.50 C 1.000 UL
LTa
0.50 0.50 0.50 C 966 326 M
5981 0 V
stroke
LT0
0.50 0.50 0.50 C 966 326 M
63 0 V
5918 0 R
-63 0 V
882 326 M
( 0.707106) Rshow
1.000 UL
LT0
0.50 0.50 0.50 C 1.000 UL
LTa
0.50 0.50 0.50 C 966 372 M
5981 0 V
stroke
LT0
0.50 0.50 0.50 C 966 372 M
63 0 V
5918 0 R
-63 0 V
882 372 M
( 1.41421) Rshow
1.000 UL
LT0
0.50 0.50 0.50 C 1.000 UL
LTa
0.50 0.50 0.50 C 966 418 M
5981 0 V
stroke
LT0
0.50 0.50 0.50 C 966 418 M
63 0 V
5918 0 R
-63 0 V
882 418 M
( 2.12132) Rshow
1.000 UL
LT0
0.50 0.50 0.50 C 1.000 UL
LTa
0.50 0.50 0.50 C 966 464 M
5981 0 V
stroke
LT0
0.50 0.50 0.50 C 966 464 M
63 0 V
5918 0 R
-63 0 V
882 464 M
( 2.82842) Rshow
1.000 UL
LT0
0.50 0.50 0.50 C 1.000 UL
LTa
0.50 0.50 0.50 C 966 510 M
5981 0 V
stroke
LT0
0.50 0.50 0.50 C 966 510 M
63 0 V
5918 0 R
-63 0 V
882 510 M
( 3.53553) Rshow
1.000 UL
LT0
0.50 0.50 0.50 C 1.000 UL
LTa
0.50 0.50 0.50 C 966 555 M
5981 0 V
stroke
LT0
0.50 0.50 0.50 C 966 555 M
63 0 V
5918 0 R
-63 0 V
882 555 M
( 4.24264) Rshow
1.000 UL
LT0
0.50 0.50 0.50 C 1.000 UL
LTa
0.50 0.50 0.50 C 966 601 M
5981 0 V
stroke
LT0
0.50 0.50 0.50 C 966 601 M
63 0 V
5918 0 R
-63 0 V
882 601 M
( 4.94974) Rshow
1.000 UL
LT0
0.50 0.50 0.50 C 1.000 UL
LTa
0.50 0.50 0.50 C 966 647 M
5981 0 V
stroke
LT0
0.50 0.50 0.50 C 966 647 M
63 0 V
5918 0 R
-63 0 V
882 647 M
( 5.65685) Rshow
1.000 UL
LT0
0.50 0.50 0.50 C 1.000 UL
LTa
0.50 0.50 0.50 C 966 693 M
5981 0 V
stroke
LT0
0.50 0.50 0.50 C 966 693 M
63 0 V
5918 0 R
-63 0 V
882 693 M
( 6.36395) Rshow
1.000 UL
LT0
0.50 0.50 0.50 C 1.000 UL
LTa
0.50 0.50 0.50 C 966 739 M
5981 0 V
stroke
LT0
0.50 0.50 0.50 C 966 739 M
63 0 V
5918 0 R
-63 0 V
882 739 M
( 7.07106) Rshow
1.000 UL
LT0
0.50 0.50 0.50 C 1.000 UL
LTa
0.50 0.50 0.50 C 966 785 M
5981 0 V
stroke
LT0
0.50 0.50 0.50 C 966 785 M
63 0 V
5918 0 R
-63 0 V
882 785 M
( 7.77817) Rshow
1.000 UL
LT0
0.50 0.50 0.50 C 1.000 UL
LTa
0.50 0.50 0.50 C 966 831 M
5981 0 V
stroke
LT0
0.50 0.50 0.50 C 966 831 M
63 0 V
5918 0 R
-63 0 V
882 831 M
( 8.48527) Rshow
1.000 UL
LT0
0.50 0.50 0.50 C 1.000 UL
LTa
0.50 0.50 0.50 C 966 877 M
5981 0 V
stroke
LT0
0.50 0.50 0.50 C 966 877 M
63 0 V
5918 0 R
-63 0 V
882 877 M
( 9.19238) Rshow
1.000 UL
LT0
0.50 0.50 0.50 C 1.000 UL
LTa
0.50 0.50 0.50 C 966 923 M
5981 0 V
stroke
LT0
0.50 0.50 0.50 C 966 923 M
63 0 V
5918 0 R
-63 0 V
882 923 M
( 9.89948) Rshow
1.000 UL
LT0
0.50 0.50 0.50 C 1.000 UL
LTa
0.50 0.50 0.50 C 966 969 M
5981 0 V
stroke
LT0
0.50 0.50 0.50 C 966 969 M
63 0 V
5918 0 R
-63 0 V
882 969 M
( 10.6066) Rshow
1.000 UL
LT0
0.50 0.50 0.50 C 1.000 UL
LTa
0.50 0.50 0.50 C 966 1015 M
5981 0 V
stroke
LT0
0.50 0.50 0.50 C 966 1015 M
63 0 V
5918 0 R
-63 0 V
-6002 0 R
( 11.3137) Rshow
1.000 UL
LT0
0.50 0.50 0.50 C 1.000 UL
LTa
0.50 0.50 0.50 C 966 1060 M
5981 0 V
stroke
LT0
0.50 0.50 0.50 C 966 1060 M
63 0 V
5918 0 R
-63 0 V
-6002 0 R
( 12.0208) Rshow
1.000 UL
LT0
0.50 0.50 0.50 C 1.000 UL
LTa
0.50 0.50 0.50 C 966 1106 M
5981 0 V
stroke
LT0
0.50 0.50 0.50 C 966 1106 M
63 0 V
5918 0 R
-63 0 V
-6002 0 R
( 12.7279) Rshow
1.000 UL
LT0
0.50 0.50 0.50 C 1.000 UL
LTa
0.50 0.50 0.50 C 966 1152 M
5981 0 V
stroke
LT0
0.50 0.50 0.50 C 966 1152 M
63 0 V
5918 0 R
-63 0 V
-6002 0 R
( 13.435) Rshow
1.000 UL
LT0
0.50 0.50 0.50 C 1.000 UL
LTa
0.50 0.50 0.50 C 966 1198 M
5981 0 V
stroke
LT0
0.50 0.50 0.50 C 966 1198 M
63 0 V
5918 0 R
-63 0 V
-6002 0 R
( 14.1421) Rshow
1.000 UL
LT0
0.50 0.50 0.50 C 1.000 UL
LTa
0.50 0.50 0.50 C 966 1244 M
5981 0 V
stroke
LT0
0.50 0.50 0.50 C 966 1244 M
63 0 V
5918 0 R
-63 0 V
-6002 0 R
( 14.8492) Rshow
1.000 UL
LT0
0.50 0.50 0.50 C 1.000 UL
LTa
0.50 0.50 0.50 C 966 1290 M
5981 0 V
stroke
LT0
0.50 0.50 0.50 C 966 1290 M
63 0 V
5918 0 R
-63 0 V
-6002 0 R
( 15.5563) Rshow
1.000 UL
LT0
0.50 0.50 0.50 C 1.000 UL
LTa
0.50 0.50 0.50 C 966 1336 M
5981 0 V
stroke
LT0
0.50 0.50 0.50 C 966 1336 M
63 0 V
5918 0 R
-63 0 V
-6002 0 R
( 16.2634) Rshow
1.000 UL
LT0
0.50 0.50 0.50 C 1.000 UL
LTa
0.50 0.50 0.50 C 966 1382 M
5981 0 V
stroke
LT0
0.50 0.50 0.50 C 966 1382 M
63 0 V
5918 0 R
-63 0 V
-6002 0 R
( 16.9705) Rshow
1.000 UL
LT0
0.50 0.50 0.50 C 1.000 UL
LTa
0.50 0.50 0.50 C 966 1428 M
5981 0 V
stroke
LT0
0.50 0.50 0.50 C 966 1428 M
63 0 V
5918 0 R
-63 0 V
-6002 0 R
( 17.6776) Rshow
1.000 UL
LT0
0.50 0.50 0.50 C 1.000 UL
LTa
0.50 0.50 0.50 C 966 1474 M
5981 0 V
stroke
LT0
0.50 0.50 0.50 C 966 1474 M
63 0 V
5918 0 R
-63 0 V
-6002 0 R
( 18.3848) Rshow
1.000 UL
LT0
0.50 0.50 0.50 C 1.000 UL
LTa
0.50 0.50 0.50 C 966 1520 M
5981 0 V
stroke
LT0
0.50 0.50 0.50 C 966 1520 M
63 0 V
5918 0 R
-63 0 V
-6002 0 R
( 19.0919) Rshow
1.000 UL
LT0
0.50 0.50 0.50 C 1.000 UL
LTa
0.50 0.50 0.50 C 966 1565 M
5981 0 V
stroke
LT0
0.50 0.50 0.50 C 966 1565 M
63 0 V
5918 0 R
-63 0 V
-6002 0 R
( 19.799) Rshow
1.000 UL
LT0
0.50 0.50 0.50 C 1.000 UL
LTa
0.50 0.50 0.50 C 966 1611 M
5981 0 V
stroke
LT0
0.50 0.50 0.50 C 966 1611 M
63 0 V
5918 0 R
-63 0 V
-6002 0 R
( 20.5061) Rshow
1.000 UL
LT0
0.50 0.50 0.50 C 1.000 UL
LTa
0.50 0.50 0.50 C 966 1657 M
5981 0 V
stroke
LT0
0.50 0.50 0.50 C 966 1657 M
63 0 V
5918 0 R
-63 0 V
-6002 0 R
( 21.2132) Rshow
1.000 UL
LT0
0.50 0.50 0.50 C 1.000 UL
LTa
0.50 0.50 0.50 C 966 1703 M
5981 0 V
stroke
LT0
0.50 0.50 0.50 C 966 1703 M
63 0 V
5918 0 R
-63 0 V
-6002 0 R
( 21.9203) Rshow
1.000 UL
LT0
0.50 0.50 0.50 C 1.000 UL
LTa
0.50 0.50 0.50 C 966 1749 M
5981 0 V
stroke
LT0
0.50 0.50 0.50 C 966 1749 M
63 0 V
5918 0 R
-63 0 V
-6002 0 R
( 22.6274) Rshow
1.000 UL
LT0
0.50 0.50 0.50 C 1.000 UL
LTa
0.50 0.50 0.50 C 966 1795 M
5981 0 V
stroke
LT0
0.50 0.50 0.50 C 966 1795 M
63 0 V
5918 0 R
-63 0 V
-6002 0 R
( 23.3345) Rshow
1.000 UL
LT0
0.50 0.50 0.50 C 1.000 UL
LTa
0.50 0.50 0.50 C 966 1841 M
5981 0 V
stroke
LT0
0.50 0.50 0.50 C 966 1841 M
63 0 V
5918 0 R
-63 0 V
-6002 0 R
( 24.0416) Rshow
1.000 UL
LT0
0.50 0.50 0.50 C 1.000 UL
LTa
0.50 0.50 0.50 C 966 1887 M
5981 0 V
stroke
LT0
0.50 0.50 0.50 C 966 1887 M
63 0 V
5918 0 R
-63 0 V
-6002 0 R
( 24.7487) Rshow
1.000 UL
LT0
0.50 0.50 0.50 C 1.000 UL
LTa
0.50 0.50 0.50 C 966 1933 M
5981 0 V
stroke
LT0
0.50 0.50 0.50 C 966 1933 M
63 0 V
5918 0 R
-63 0 V
-6002 0 R
( 25.4558) Rshow
1.000 UL
LT0
0.50 0.50 0.50 C 1.000 UL
LTa
0.50 0.50 0.50 C 966 1979 M
5981 0 V
stroke
LT0
0.50 0.50 0.50 C 966 1979 M
63 0 V
5918 0 R
-63 0 V
-6002 0 R
( 26.1629) Rshow
1.000 UL
LT0
0.50 0.50 0.50 C 1.000 UL
LTa
0.50 0.50 0.50 C 966 2025 M
5981 0 V
stroke
LT0
0.50 0.50 0.50 C 966 2025 M
63 0 V
5918 0 R
-63 0 V
-6002 0 R
( 26.87) Rshow
1.000 UL
LT0
0.50 0.50 0.50 C 1.000 UL
LTa
0.50 0.50 0.50 C 966 2070 M
5981 0 V
stroke
LT0
0.50 0.50 0.50 C 966 2070 M
63 0 V
5918 0 R
-63 0 V
-6002 0 R
( 27.5771) Rshow
1.000 UL
LT0
0.50 0.50 0.50 C 1.000 UL
LTa
0.50 0.50 0.50 C 966 2116 M
5981 0 V
stroke
LT0
0.50 0.50 0.50 C 966 2116 M
63 0 V
5918 0 R
-63 0 V
-6002 0 R
( 28.2842) Rshow
1.000 UL
LT0
0.50 0.50 0.50 C 1.000 UL
LTa
0.50 0.50 0.50 C 966 2162 M
5981 0 V
stroke
LT0
0.50 0.50 0.50 C 966 2162 M
63 0 V
5918 0 R
-63 0 V
-6002 0 R
( 28.9913) Rshow
1.000 UL
LT0
0.50 0.50 0.50 C 1.000 UL
LTa
0.50 0.50 0.50 C 966 2208 M
5981 0 V
stroke
LT0
0.50 0.50 0.50 C 966 2208 M
63 0 V
5918 0 R
-63 0 V
-6002 0 R
( 29.6985) Rshow
1.000 UL
LT0
0.50 0.50 0.50 C 1.000 UL
LTa
0.50 0.50 0.50 C 966 2254 M
5981 0 V
stroke
LT0
0.50 0.50 0.50 C 966 2254 M
63 0 V
5918 0 R
-63 0 V
-6002 0 R
( 30.4056) Rshow
1.000 UL
LT0
0.50 0.50 0.50 C 1.000 UL
LTa
0.50 0.50 0.50 C 966 2300 M
5981 0 V
stroke
LT0
0.50 0.50 0.50 C 966 2300 M
63 0 V
5918 0 R
-63 0 V
-6002 0 R
( 31.1127) Rshow
1.000 UL
LT0
0.50 0.50 0.50 C 1.000 UL
LTa
0.50 0.50 0.50 C 966 2346 M
5981 0 V
stroke
LT0
0.50 0.50 0.50 C 966 2346 M
63 0 V
5918 0 R
-63 0 V
-6002 0 R
( 31.8198) Rshow
1.000 UL
LT0
0.50 0.50 0.50 C 1.000 UL
LTa
0.50 0.50 0.50 C 966 2392 M
5981 0 V
stroke
LT0
0.50 0.50 0.50 C 966 2392 M
63 0 V
5918 0 R
-63 0 V
-6002 0 R
( 32.5269) Rshow
1.000 UL
LT0
0.50 0.50 0.50 C 1.000 UL
LTa
0.50 0.50 0.50 C 966 2438 M
5981 0 V
stroke
LT0
0.50 0.50 0.50 C 966 2438 M
63 0 V
5918 0 R
-63 0 V
-6002 0 R
( 33.234) Rshow
1.000 UL
LT0
0.50 0.50 0.50 C 1.000 UL
LTa
0.50 0.50 0.50 C 966 2484 M
5981 0 V
stroke
LT0
0.50 0.50 0.50 C 966 2484 M
63 0 V
5918 0 R
-63 0 V
-6002 0 R
( 33.9411) Rshow
1.000 UL
LT0
0.50 0.50 0.50 C 1.000 UL
LTa
0.50 0.50 0.50 C 966 2530 M
5981 0 V
stroke
LT0
0.50 0.50 0.50 C 966 2530 M
63 0 V
5918 0 R
-63 0 V
-6002 0 R
( 34.6482) Rshow
1.000 UL
LT0
0.50 0.50 0.50 C 1.000 UL
LTa
0.50 0.50 0.50 C 966 2576 M
5981 0 V
stroke
LT0
0.50 0.50 0.50 C 966 2576 M
63 0 V
5918 0 R
-63 0 V
-6002 0 R
( 35.3553) Rshow
1.000 UL
LT0
0.50 0.50 0.50 C 1.000 UL
LTa
0.50 0.50 0.50 C 966 2621 M
5981 0 V
stroke
LT0
0.50 0.50 0.50 C 966 2621 M
63 0 V
5918 0 R
-63 0 V
-6002 0 R
( 36.0624) Rshow
1.000 UL
LT0
0.50 0.50 0.50 C 1.000 UL
LTa
0.50 0.50 0.50 C 966 2667 M
5981 0 V
stroke
LT0
0.50 0.50 0.50 C 966 2667 M
63 0 V
5918 0 R
-63 0 V
-6002 0 R
( 36.7695) Rshow
1.000 UL
LT0
0.50 0.50 0.50 C 1.000 UL
LTa
0.50 0.50 0.50 C 966 2713 M
5981 0 V
stroke
LT0
0.50 0.50 0.50 C 966 2713 M
63 0 V
5918 0 R
-63 0 V
-6002 0 R
( 37.4766) Rshow
1.000 UL
LT0
0.50 0.50 0.50 C 1.000 UL
LTa
0.50 0.50 0.50 C 966 2759 M
5981 0 V
stroke
LT0
0.50 0.50 0.50 C 966 2759 M
63 0 V
5918 0 R
-63 0 V
-6002 0 R
( 38.1837) Rshow
1.000 UL
LT0
0.50 0.50 0.50 C 1.000 UL
LTa
0.50 0.50 0.50 C 966 2805 M
5981 0 V
stroke
LT0
0.50 0.50 0.50 C 966 2805 M
63 0 V
5918 0 R
-63 0 V
-6002 0 R
( 38.8908) Rshow
1.000 UL
LT0
0.50 0.50 0.50 C 1.000 UL
LTa
0.50 0.50 0.50 C 966 2851 M
5981 0 V
stroke
LT0
0.50 0.50 0.50 C 966 2851 M
63 0 V
5918 0 R
-63 0 V
-6002 0 R
( 39.5979) Rshow
1.000 UL
LT0
0.50 0.50 0.50 C 1.000 UL
LTa
0.50 0.50 0.50 C 966 2897 M
5981 0 V
stroke
LT0
0.50 0.50 0.50 C 966 2897 M
63 0 V
5918 0 R
-63 0 V
-6002 0 R
( 40.305) Rshow
1.000 UL
LT0
0.50 0.50 0.50 C 1.000 UL
LTa
0.50 0.50 0.50 C 966 2943 M
5981 0 V
stroke
LT0
0.50 0.50 0.50 C 966 2943 M
63 0 V
5918 0 R
-63 0 V
-6002 0 R
( 41.0121) Rshow
1.000 UL
LT0
0.50 0.50 0.50 C 1.000 UL
LTa
0.50 0.50 0.50 C 966 2989 M
5981 0 V
stroke
LT0
0.50 0.50 0.50 C 966 2989 M
63 0 V
5918 0 R
-63 0 V
-6002 0 R
( 41.7193) Rshow
1.000 UL
LT0
0.50 0.50 0.50 C 1.000 UL
LTa
0.50 0.50 0.50 C 966 3035 M
5981 0 V
stroke
LT0
0.50 0.50 0.50 C 966 3035 M
63 0 V
5918 0 R
-63 0 V
-6002 0 R
( 42.4264) Rshow
1.000 UL
LT0
0.50 0.50 0.50 C 1.000 UL
LTa
0.50 0.50 0.50 C 966 3081 M
5981 0 V
stroke
LT0
0.50 0.50 0.50 C 966 3081 M
63 0 V
5918 0 R
-63 0 V
-6002 0 R
( 43.1335) Rshow
1.000 UL
LT0
0.50 0.50 0.50 C 1.000 UL
LTa
0.50 0.50 0.50 C 966 3126 M
5981 0 V
stroke
LT0
0.50 0.50 0.50 C 966 3126 M
63 0 V
5918 0 R
-63 0 V
-6002 0 R
( 43.8406) Rshow
1.000 UL
LT0
0.50 0.50 0.50 C 1.000 UL
LTa
0.50 0.50 0.50 C 966 3172 M
5981 0 V
stroke
LT0
0.50 0.50 0.50 C 966 3172 M
63 0 V
5918 0 R
-63 0 V
-6002 0 R
( 44.5477) Rshow
1.000 UL
LT0
0.50 0.50 0.50 C 1.000 UL
LTa
0.50 0.50 0.50 C 966 3218 M
5981 0 V
stroke
LT0
0.50 0.50 0.50 C 966 3218 M
63 0 V
5918 0 R
-63 0 V
-6002 0 R
( 45.2548) Rshow
1.000 UL
LT0
0.50 0.50 0.50 C 1.000 UL
LTa
0.50 0.50 0.50 C 966 3264 M
5981 0 V
stroke
LT0
0.50 0.50 0.50 C 966 3264 M
63 0 V
5918 0 R
-63 0 V
-6002 0 R
( 45.9619) Rshow
1.000 UL
LT0
0.50 0.50 0.50 C 1.000 UL
LTa
0.50 0.50 0.50 C 966 3310 M
5981 0 V
stroke
LT0
0.50 0.50 0.50 C 966 3310 M
63 0 V
5918 0 R
-63 0 V
-6002 0 R
( 46.669) Rshow
1.000 UL
LT0
0.50 0.50 0.50 C 1.000 UL
LTa
0.50 0.50 0.50 C 966 3356 M
5981 0 V
stroke
LT0
0.50 0.50 0.50 C 966 3356 M
63 0 V
5918 0 R
-63 0 V
-6002 0 R
( 47.3761) Rshow
1.000 UL
LT0
0.50 0.50 0.50 C 1.000 UL
LTa
0.50 0.50 0.50 C 966 3402 M
5981 0 V
stroke
LT0
0.50 0.50 0.50 C 966 3402 M
63 0 V
5918 0 R
-63 0 V
-6002 0 R
( 48.0832) Rshow
1.000 UL
LT0
0.50 0.50 0.50 C 1.000 UL
LTa
0.50 0.50 0.50 C 966 3448 M
5981 0 V
stroke
LT0
0.50 0.50 0.50 C 966 3448 M
63 0 V
5918 0 R
-63 0 V
-6002 0 R
( 48.7903) Rshow
1.000 UL
LT0
0.50 0.50 0.50 C 1.000 UL
LTa
0.50 0.50 0.50 C 966 3494 M
5981 0 V
stroke
LT0
0.50 0.50 0.50 C 966 3494 M
63 0 V
5918 0 R
-63 0 V
-6002 0 R
( 49.4974) Rshow
1.000 UL
LT0
0.50 0.50 0.50 C 1.000 UL
LTa
0.50 0.50 0.50 C 966 3540 M
5981 0 V
stroke
LT0
0.50 0.50 0.50 C 966 3540 M
63 0 V
5918 0 R
-63 0 V
-6002 0 R
( 50.2045) Rshow
1.000 UL
LT0
0.50 0.50 0.50 C 1.000 UL
LTa
0.50 0.50 0.50 C 966 3586 M
5981 0 V
stroke
LT0
0.50 0.50 0.50 C 966 3586 M
63 0 V
5918 0 R
-63 0 V
-6002 0 R
( 50.9116) Rshow
1.000 UL
LT0
0.50 0.50 0.50 C 1.000 UL
LTa
0.50 0.50 0.50 C 966 3631 M
5981 0 V
stroke
LT0
0.50 0.50 0.50 C 966 3631 M
63 0 V
5918 0 R
-63 0 V
-6002 0 R
( 51.6187) Rshow
1.000 UL
LT0
0.50 0.50 0.50 C 1.000 UL
LTa
0.50 0.50 0.50 C 966 3677 M
5981 0 V
stroke
LT0
0.50 0.50 0.50 C 966 3677 M
63 0 V
5918 0 R
-63 0 V
-6002 0 R
( 52.3258) Rshow
1.000 UL
LT0
0.50 0.50 0.50 C 1.000 UL
LTa
0.50 0.50 0.50 C 966 3723 M
5981 0 V
stroke
LT0
0.50 0.50 0.50 C 966 3723 M
63 0 V
5918 0 R
-63 0 V
-6002 0 R
( 53.033) Rshow
1.000 UL
LT0
0.50 0.50 0.50 C 1.000 UL
LTa
0.50 0.50 0.50 C 966 3769 M
5981 0 V
stroke
LT0
0.50 0.50 0.50 C 966 3769 M
63 0 V
5918 0 R
-63 0 V
-6002 0 R
( 53.7401) Rshow
1.000 UL
LT0
0.50 0.50 0.50 C 1.000 UL
LTa
0.50 0.50 0.50 C 966 3815 M
5981 0 V
stroke
LT0
0.50 0.50 0.50 C 966 3815 M
63 0 V
5918 0 R
-63 0 V
-6002 0 R
( 54.4472) Rshow
1.000 UL
LT0
0.50 0.50 0.50 C 1.000 UL
LTa
0.50 0.50 0.50 C 966 3861 M
5981 0 V
stroke
LT0
0.50 0.50 0.50 C 966 3861 M
63 0 V
5918 0 R
-63 0 V
-6002 0 R
( 55.1543) Rshow
1.000 UL
LT0
0.50 0.50 0.50 C 1.000 UL
LTa
0.50 0.50 0.50 C 966 3907 M
5981 0 V
stroke
LT0
0.50 0.50 0.50 C 966 3907 M
63 0 V
5918 0 R
-63 0 V
-6002 0 R
( 55.8614) Rshow
1.000 UL
LT0
0.50 0.50 0.50 C 1.000 UL
LTa
0.50 0.50 0.50 C 966 3953 M
5981 0 V
stroke
LT0
0.50 0.50 0.50 C 966 3953 M
63 0 V
5918 0 R
-63 0 V
-6002 0 R
( 56.5685) Rshow
1.000 UL
LT0
0.50 0.50 0.50 C 1.000 UL
LTa
0.50 0.50 0.50 C 966 3999 M
5981 0 V
stroke
LT0
0.50 0.50 0.50 C 966 3999 M
63 0 V
5918 0 R
-63 0 V
-6002 0 R
( 57.2756) Rshow
1.000 UL
LT0
0.50 0.50 0.50 C 1.000 UL
LTa
0.50 0.50 0.50 C 966 4045 M
5981 0 V
stroke
LT0
0.50 0.50 0.50 C 966 4045 M
63 0 V
5918 0 R
-63 0 V
-6002 0 R
( 57.9827) Rshow
1.000 UL
LT0
0.50 0.50 0.50 C 1.000 UL
LTa
0.50 0.50 0.50 C 966 4091 M
5981 0 V
stroke
LT0
0.50 0.50 0.50 C 966 4091 M
63 0 V
5918 0 R
-63 0 V
-6002 0 R
( 58.6898) Rshow
1.000 UL
LT0
0.50 0.50 0.50 C 1.000 UL
LTa
0.50 0.50 0.50 C 966 4136 M
5981 0 V
stroke
LT0
0.50 0.50 0.50 C 966 4136 M
63 0 V
5918 0 R
-63 0 V
-6002 0 R
( 59.3969) Rshow
1.000 UL
LT0
0.50 0.50 0.50 C 1.000 UL
LTa
0.50 0.50 0.50 C 966 4182 M
5981 0 V
stroke
LT0
0.50 0.50 0.50 C 966 4182 M
63 0 V
5918 0 R
-63 0 V
-6002 0 R
( 60.104) Rshow
1.000 UL
LT0
0.50 0.50 0.50 C 1.000 UL
LTa
0.50 0.50 0.50 C 966 4228 M
5981 0 V
stroke
LT0
0.50 0.50 0.50 C 966 4228 M
63 0 V
5918 0 R
-63 0 V
-6002 0 R
( 60.8111) Rshow
1.000 UL
LT0
0.50 0.50 0.50 C 1.000 UL
LTa
0.50 0.50 0.50 C 966 4274 M
5981 0 V
stroke
LT0
0.50 0.50 0.50 C 966 4274 M
63 0 V
5918 0 R
-63 0 V
-6002 0 R
( 61.5182) Rshow
1.000 UL
LT0
0.50 0.50 0.50 C 1.000 UL
LTa
0.50 0.50 0.50 C 966 4320 M
5981 0 V
stroke
LT0
0.50 0.50 0.50 C 966 4320 M
63 0 V
5918 0 R
-63 0 V
-6002 0 R
( 62.2253) Rshow
1.000 UL
LT0
0.50 0.50 0.50 C 1.000 UL
LTa
0.50 0.50 0.50 C 966 4366 M
5981 0 V
stroke
LT0
0.50 0.50 0.50 C 966 4366 M
63 0 V
5918 0 R
-63 0 V
-6002 0 R
( 62.9324) Rshow
1.000 UL
LT0
0.50 0.50 0.50 C 1.000 UL
LTa
0.50 0.50 0.50 C 966 4412 M
5981 0 V
stroke
LT0
0.50 0.50 0.50 C 966 4412 M
63 0 V
5918 0 R
-63 0 V
-6002 0 R
( 63.6395) Rshow
1.000 UL
LT0
0.50 0.50 0.50 C 1.000 UL
LTa
0.50 0.50 0.50 C 966 4458 M
5981 0 V
stroke
LT0
0.50 0.50 0.50 C 966 4458 M
63 0 V
5918 0 R
-63 0 V
-6002 0 R
( 64.3466) Rshow
1.000 UL
LT0
0.50 0.50 0.50 C 1.000 UL
LTa
0.50 0.50 0.50 C 966 4504 M
5981 0 V
stroke
LT0
0.50 0.50 0.50 C 966 4504 M
63 0 V
5918 0 R
-63 0 V
-6002 0 R
( 65.0538) Rshow
1.000 UL
LT0
0.50 0.50 0.50 C 1.000 UL
LTa
0.50 0.50 0.50 C 966 4550 M
5981 0 V
stroke
LT0
0.50 0.50 0.50 C 966 4550 M
63 0 V
5918 0 R
-63 0 V
-6002 0 R
( 65.7609) Rshow
1.000 UL
LT0
0.50 0.50 0.50 C 1.000 UL
LTa
0.50 0.50 0.50 C 966 4596 M
5981 0 V
stroke
LT0
0.50 0.50 0.50 C 966 4596 M
63 0 V
5918 0 R
-63 0 V
-6002 0 R
( 66.468) Rshow
1.000 UL
LT0
0.50 0.50 0.50 C 1.000 UL
LTa
0.50 0.50 0.50 C 966 4641 M
5981 0 V
stroke
LT0
0.50 0.50 0.50 C 966 4641 M
63 0 V
5918 0 R
-63 0 V
-6002 0 R
( 67.1751) Rshow
1.000 UL
LT0
0.50 0.50 0.50 C 1.000 UL
LTa
0.50 0.50 0.50 C 966 4687 M
5981 0 V
stroke
LT0
0.50 0.50 0.50 C 966 4687 M
63 0 V
5918 0 R
-63 0 V
-6002 0 R
( 67.8822) Rshow
1.000 UL
LT0
0.50 0.50 0.50 C 1.000 UL
LTa
0.50 0.50 0.50 C 966 4733 M
5981 0 V
stroke
LT0
0.50 0.50 0.50 C 966 4733 M
63 0 V
5918 0 R
-63 0 V
-6002 0 R
( 68.5893) Rshow
1.000 UL
LT0
0.50 0.50 0.50 C 1.000 UL
LTa
0.50 0.50 0.50 C 966 4779 M
5981 0 V
stroke
LT0
0.50 0.50 0.50 C 966 4779 M
63 0 V
5918 0 R
-63 0 V
-6002 0 R
( 69.2964) Rshow
1.000 UL
LT0
0.50 0.50 0.50 C 1.000 UL
LTa
0.50 0.50 0.50 C 966 4825 M
5981 0 V
stroke
LT0
0.50 0.50 0.50 C 966 4825 M
63 0 V
5918 0 R
-63 0 V
-6002 0 R
( 70.0035) Rshow
1.000 UL
LT0
0.50 0.50 0.50 C 1.000 UL
LTa
0.50 0.50 0.50 C 966 4871 M
5981 0 V
stroke
LT0
0.50 0.50 0.50 C 966 4871 M
63 0 V
5918 0 R
-63 0 V
-6002 0 R
( 70.7106) Rshow
1.000 UL
LT0
0.50 0.50 0.50 C 1.000 UL
LTa
0.50 0.50 0.50 C 966 280 M
0 4591 V
stroke
LT0
0.50 0.50 0.50 C 966 280 M
0 63 V
0 4528 R
0 -63 V
966 140 M
( 0) Cshow
1.000 UL
LT0
0.50 0.50 0.50 C 1.000 UL
LTa
0.50 0.50 0.50 C 1026 280 M
0 4591 V
stroke
LT0
0.50 0.50 0.50 C 1026 280 M
0 63 V
0 4528 R
0 -63 V
0 -4668 R
( 0.707106) Cshow
1.000 UL
LT0
0.50 0.50 0.50 C 1.000 UL
LTa
0.50 0.50 0.50 C 1086 280 M
0 4591 V
stroke
LT0
0.50 0.50 0.50 C 1086 280 M
0 63 V
0 4528 R
0 -63 V
0 -4668 R
( 1.41421) Cshow
1.000 UL
LT0
0.50 0.50 0.50 C 1.000 UL
LTa
0.50 0.50 0.50 C 1145 280 M
0 4591 V
stroke
LT0
0.50 0.50 0.50 C 1145 280 M
0 63 V
0 4528 R
0 -63 V
0 -4668 R
( 2.12132) Cshow
1.000 UL
LT0
0.50 0.50 0.50 C 1.000 UL
LTa
0.50 0.50 0.50 C 1205 280 M
0 4591 V
stroke
LT0
0.50 0.50 0.50 C 1205 280 M
0 63 V
0 4528 R
0 -63 V
0 -4668 R
( 2.82842) Cshow
1.000 UL
LT0
0.50 0.50 0.50 C 1.000 UL
LTa
0.50 0.50 0.50 C 1265 280 M
0 4591 V
stroke
LT0
0.50 0.50 0.50 C 1265 280 M
0 63 V
0 4528 R
0 -63 V
0 -4668 R
( 3.53553) Cshow
1.000 UL
LT0
0.50 0.50 0.50 C 1.000 UL
LTa
0.50 0.50 0.50 C 1325 280 M
0 4591 V
stroke
LT0
0.50 0.50 0.50 C 1325 280 M
0 63 V
0 4528 R
0 -63 V
0 -4668 R
( 4.24264) Cshow
1.000 UL
LT0
0.50 0.50 0.50 C 1.000 UL
LTa
0.50 0.50 0.50 C 1385 280 M
0 4591 V
stroke
LT0
0.50 0.50 0.50 C 1385 280 M
0 63 V
0 4528 R
0 -63 V
0 -4668 R
( 4.94974) Cshow
1.000 UL
LT0
0.50 0.50 0.50 C 1.000 UL
LTa
0.50 0.50 0.50 C 1444 280 M
0 4591 V
stroke
LT0
0.50 0.50 0.50 C 1444 280 M
0 63 V
0 4528 R
0 -63 V
0 -4668 R
( 5.65685) Cshow
1.000 UL
LT0
0.50 0.50 0.50 C 1.000 UL
LTa
0.50 0.50 0.50 C 1504 280 M
0 4591 V
stroke
LT0
0.50 0.50 0.50 C 1504 280 M
0 63 V
0 4528 R
0 -63 V
0 -4668 R
( 6.36395) Cshow
1.000 UL
LT0
0.50 0.50 0.50 C 1.000 UL
LTa
0.50 0.50 0.50 C 1564 280 M
0 4591 V
stroke
LT0
0.50 0.50 0.50 C 1564 280 M
0 63 V
0 4528 R
0 -63 V
0 -4668 R
( 7.07106) Cshow
1.000 UL
LT0
0.50 0.50 0.50 C 1.000 UL
LTa
0.50 0.50 0.50 C 1624 280 M
0 4591 V
stroke
LT0
0.50 0.50 0.50 C 1624 280 M
0 63 V
0 4528 R
0 -63 V
0 -4668 R
( 7.77817) Cshow
1.000 UL
LT0
0.50 0.50 0.50 C 1.000 UL
LTa
0.50 0.50 0.50 C 1684 280 M
0 4591 V
stroke
LT0
0.50 0.50 0.50 C 1684 280 M
0 63 V
0 4528 R
0 -63 V
0 -4668 R
( 8.48527) Cshow
1.000 UL
LT0
0.50 0.50 0.50 C 1.000 UL
LTa
0.50 0.50 0.50 C 1744 280 M
0 4591 V
stroke
LT0
0.50 0.50 0.50 C 1744 280 M
0 63 V
0 4528 R
0 -63 V
0 -4668 R
( 9.19238) Cshow
1.000 UL
LT0
0.50 0.50 0.50 C 1.000 UL
LTa
0.50 0.50 0.50 C 1803 280 M
0 4591 V
stroke
LT0
0.50 0.50 0.50 C 1803 280 M
0 63 V
0 4528 R
0 -63 V
0 -4668 R
( 9.89948) Cshow
1.000 UL
LT0
0.50 0.50 0.50 C 1.000 UL
LTa
0.50 0.50 0.50 C 1863 280 M
0 4591 V
stroke
LT0
0.50 0.50 0.50 C 1863 280 M
0 63 V
0 4528 R
0 -63 V
0 -4668 R
( 10.6066) Cshow
1.000 UL
LT0
0.50 0.50 0.50 C 1.000 UL
LTa
0.50 0.50 0.50 C 1923 280 M
0 4591 V
stroke
LT0
0.50 0.50 0.50 C 1923 280 M
0 63 V
0 4528 R
0 -63 V
0 -4668 R
( 11.3137) Cshow
1.000 UL
LT0
0.50 0.50 0.50 C 1.000 UL
LTa
0.50 0.50 0.50 C 1983 280 M
0 4591 V
stroke
LT0
0.50 0.50 0.50 C 1983 280 M
0 63 V
0 4528 R
0 -63 V
0 -4668 R
( 12.0208) Cshow
1.000 UL
LT0
0.50 0.50 0.50 C 1.000 UL
LTa
0.50 0.50 0.50 C 2043 280 M
0 4591 V
stroke
LT0
0.50 0.50 0.50 C 2043 280 M
0 63 V
0 4528 R
0 -63 V
0 -4668 R
( 12.7279) Cshow
1.000 UL
LT0
0.50 0.50 0.50 C 1.000 UL
LTa
0.50 0.50 0.50 C 2102 280 M
0 4591 V
stroke
LT0
0.50 0.50 0.50 C 2102 280 M
0 63 V
0 4528 R
0 -63 V
0 -4668 R
( 13.435) Cshow
1.000 UL
LT0
0.50 0.50 0.50 C 1.000 UL
LTa
0.50 0.50 0.50 C 2162 280 M
0 4591 V
stroke
LT0
0.50 0.50 0.50 C 2162 280 M
0 63 V
0 4528 R
0 -63 V
0 -4668 R
( 14.1421) Cshow
1.000 UL
LT0
0.50 0.50 0.50 C 1.000 UL
LTa
0.50 0.50 0.50 C 2222 280 M
0 4591 V
stroke
LT0
0.50 0.50 0.50 C 2222 280 M
0 63 V
0 4528 R
0 -63 V
0 -4668 R
( 14.8492) Cshow
1.000 UL
LT0
0.50 0.50 0.50 C 1.000 UL
LTa
0.50 0.50 0.50 C 2282 280 M
0 4591 V
stroke
LT0
0.50 0.50 0.50 C 2282 280 M
0 63 V
0 4528 R
0 -63 V
0 -4668 R
( 15.5563) Cshow
1.000 UL
LT0
0.50 0.50 0.50 C 1.000 UL
LTa
0.50 0.50 0.50 C 2342 280 M
0 4591 V
stroke
LT0
0.50 0.50 0.50 C 2342 280 M
0 63 V
0 4528 R
0 -63 V
0 -4668 R
( 16.2634) Cshow
1.000 UL
LT0
0.50 0.50 0.50 C 1.000 UL
LTa
0.50 0.50 0.50 C 2401 280 M
0 4591 V
stroke
LT0
0.50 0.50 0.50 C 2401 280 M
0 63 V
0 4528 R
0 -63 V
0 -4668 R
( 16.9705) Cshow
1.000 UL
LT0
0.50 0.50 0.50 C 1.000 UL
LTa
0.50 0.50 0.50 C 2461 280 M
0 4591 V
stroke
LT0
0.50 0.50 0.50 C 2461 280 M
0 63 V
0 4528 R
0 -63 V
0 -4668 R
( 17.6776) Cshow
1.000 UL
LT0
0.50 0.50 0.50 C 1.000 UL
LTa
0.50 0.50 0.50 C 2521 280 M
0 4591 V
stroke
LT0
0.50 0.50 0.50 C 2521 280 M
0 63 V
0 4528 R
0 -63 V
0 -4668 R
( 18.3848) Cshow
1.000 UL
LT0
0.50 0.50 0.50 C 1.000 UL
LTa
0.50 0.50 0.50 C 2581 280 M
0 4591 V
stroke
LT0
0.50 0.50 0.50 C 2581 280 M
0 63 V
0 4528 R
0 -63 V
0 -4668 R
( 19.0919) Cshow
1.000 UL
LT0
0.50 0.50 0.50 C 1.000 UL
LTa
0.50 0.50 0.50 C 2641 280 M
0 4591 V
stroke
LT0
0.50 0.50 0.50 C 2641 280 M
0 63 V
0 4528 R
0 -63 V
0 -4668 R
( 19.799) Cshow
1.000 UL
LT0
0.50 0.50 0.50 C 1.000 UL
LTa
0.50 0.50 0.50 C 2700 280 M
0 4591 V
stroke
LT0
0.50 0.50 0.50 C 2700 280 M
0 63 V
0 4528 R
0 -63 V
0 -4668 R
( 20.5061) Cshow
1.000 UL
LT0
0.50 0.50 0.50 C 1.000 UL
LTa
0.50 0.50 0.50 C 2760 280 M
0 4591 V
stroke
LT0
0.50 0.50 0.50 C 2760 280 M
0 63 V
0 4528 R
0 -63 V
0 -4668 R
( 21.2132) Cshow
1.000 UL
LT0
0.50 0.50 0.50 C 1.000 UL
LTa
0.50 0.50 0.50 C 2820 280 M
0 4591 V
stroke
LT0
0.50 0.50 0.50 C 2820 280 M
0 63 V
0 4528 R
0 -63 V
0 -4668 R
( 21.9203) Cshow
1.000 UL
LT0
0.50 0.50 0.50 C 1.000 UL
LTa
0.50 0.50 0.50 C 2880 280 M
0 4591 V
stroke
LT0
0.50 0.50 0.50 C 2880 280 M
0 63 V
0 4528 R
0 -63 V
0 -4668 R
( 22.6274) Cshow
1.000 UL
LT0
0.50 0.50 0.50 C 1.000 UL
LTa
0.50 0.50 0.50 C 2940 280 M
0 4591 V
stroke
LT0
0.50 0.50 0.50 C 2940 280 M
0 63 V
0 4528 R
0 -63 V
0 -4668 R
( 23.3345) Cshow
1.000 UL
LT0
0.50 0.50 0.50 C 1.000 UL
LTa
0.50 0.50 0.50 C 3000 280 M
0 4591 V
stroke
LT0
0.50 0.50 0.50 C 3000 280 M
0 63 V
0 4528 R
0 -63 V
0 -4668 R
( 24.0416) Cshow
1.000 UL
LT0
0.50 0.50 0.50 C 1.000 UL
LTa
0.50 0.50 0.50 C 3059 280 M
0 4591 V
stroke
LT0
0.50 0.50 0.50 C 3059 280 M
0 63 V
0 4528 R
0 -63 V
0 -4668 R
( 24.7487) Cshow
1.000 UL
LT0
0.50 0.50 0.50 C 1.000 UL
LTa
0.50 0.50 0.50 C 3119 280 M
0 4591 V
stroke
LT0
0.50 0.50 0.50 C 3119 280 M
0 63 V
0 4528 R
0 -63 V
0 -4668 R
( 25.4558) Cshow
1.000 UL
LT0
0.50 0.50 0.50 C 1.000 UL
LTa
0.50 0.50 0.50 C 3179 280 M
0 4591 V
stroke
LT0
0.50 0.50 0.50 C 3179 280 M
0 63 V
0 4528 R
0 -63 V
0 -4668 R
( 26.1629) Cshow
1.000 UL
LT0
0.50 0.50 0.50 C 1.000 UL
LTa
0.50 0.50 0.50 C 3239 280 M
0 4591 V
stroke
LT0
0.50 0.50 0.50 C 3239 280 M
0 63 V
0 4528 R
0 -63 V
0 -4668 R
( 26.87) Cshow
1.000 UL
LT0
0.50 0.50 0.50 C 1.000 UL
LTa
0.50 0.50 0.50 C 3299 280 M
0 4591 V
stroke
LT0
0.50 0.50 0.50 C 3299 280 M
0 63 V
0 4528 R
0 -63 V
0 -4668 R
( 27.5771) Cshow
1.000 UL
LT0
0.50 0.50 0.50 C 1.000 UL
LTa
0.50 0.50 0.50 C 3358 280 M
0 4591 V
stroke
LT0
0.50 0.50 0.50 C 3358 280 M
0 63 V
0 4528 R
0 -63 V
0 -4668 R
( 28.2842) Cshow
1.000 UL
LT0
0.50 0.50 0.50 C 1.000 UL
LTa
0.50 0.50 0.50 C 3418 280 M
0 4591 V
stroke
LT0
0.50 0.50 0.50 C 3418 280 M
0 63 V
0 4528 R
0 -63 V
0 -4668 R
( 28.9913) Cshow
1.000 UL
LT0
0.50 0.50 0.50 C 1.000 UL
LTa
0.50 0.50 0.50 C 3478 280 M
0 4591 V
stroke
LT0
0.50 0.50 0.50 C 3478 280 M
0 63 V
0 4528 R
0 -63 V
0 -4668 R
( 29.6985) Cshow
1.000 UL
LT0
0.50 0.50 0.50 C 1.000 UL
LTa
0.50 0.50 0.50 C 3538 280 M
0 4591 V
stroke
LT0
0.50 0.50 0.50 C 3538 280 M
0 63 V
0 4528 R
0 -63 V
0 -4668 R
( 30.4056) Cshow
1.000 UL
LT0
0.50 0.50 0.50 C 1.000 UL
LTa
0.50 0.50 0.50 C 3598 280 M
0 4591 V
stroke
LT0
0.50 0.50 0.50 C 3598 280 M
0 63 V
0 4528 R
0 -63 V
0 -4668 R
( 31.1127) Cshow
1.000 UL
LT0
0.50 0.50 0.50 C 1.000 UL
LTa
0.50 0.50 0.50 C 3657 280 M
0 4591 V
stroke
LT0
0.50 0.50 0.50 C 3657 280 M
0 63 V
0 4528 R
0 -63 V
0 -4668 R
( 31.8198) Cshow
1.000 UL
LT0
0.50 0.50 0.50 C 1.000 UL
LTa
0.50 0.50 0.50 C 3717 280 M
0 4591 V
stroke
LT0
0.50 0.50 0.50 C 3717 280 M
0 63 V
0 4528 R
0 -63 V
0 -4668 R
( 32.5269) Cshow
1.000 UL
LT0
0.50 0.50 0.50 C 1.000 UL
LTa
0.50 0.50 0.50 C 3777 280 M
0 4591 V
stroke
LT0
0.50 0.50 0.50 C 3777 280 M
0 63 V
0 4528 R
0 -63 V
0 -4668 R
( 33.234) Cshow
1.000 UL
LT0
0.50 0.50 0.50 C 1.000 UL
LTa
0.50 0.50 0.50 C 3837 280 M
0 4591 V
stroke
LT0
0.50 0.50 0.50 C 3837 280 M
0 63 V
0 4528 R
0 -63 V
0 -4668 R
( 33.9411) Cshow
1.000 UL
LT0
0.50 0.50 0.50 C 1.000 UL
LTa
0.50 0.50 0.50 C 3897 280 M
0 4591 V
stroke
LT0
0.50 0.50 0.50 C 3897 280 M
0 63 V
0 4528 R
0 -63 V
0 -4668 R
( 34.6482) Cshow
1.000 UL
LT0
0.50 0.50 0.50 C 1.000 UL
LTa
0.50 0.50 0.50 C 3957 280 M
0 4591 V
stroke
LT0
0.50 0.50 0.50 C 3957 280 M
0 63 V
0 4528 R
0 -63 V
0 -4668 R
( 35.3553) Cshow
1.000 UL
LT0
0.50 0.50 0.50 C 1.000 UL
LTa
0.50 0.50 0.50 C 4016 280 M
0 4591 V
stroke
LT0
0.50 0.50 0.50 C 4016 280 M
0 63 V
0 4528 R
0 -63 V
0 -4668 R
( 36.0624) Cshow
1.000 UL
LT0
0.50 0.50 0.50 C 1.000 UL
LTa
0.50 0.50 0.50 C 4076 280 M
0 4591 V
stroke
LT0
0.50 0.50 0.50 C 4076 280 M
0 63 V
0 4528 R
0 -63 V
0 -4668 R
( 36.7695) Cshow
1.000 UL
LT0
0.50 0.50 0.50 C 1.000 UL
LTa
0.50 0.50 0.50 C 4136 280 M
0 4591 V
stroke
LT0
0.50 0.50 0.50 C 4136 280 M
0 63 V
0 4528 R
0 -63 V
0 -4668 R
( 37.4766) Cshow
1.000 UL
LT0
0.50 0.50 0.50 C 1.000 UL
LTa
0.50 0.50 0.50 C 4196 280 M
0 4591 V
stroke
LT0
0.50 0.50 0.50 C 4196 280 M
0 63 V
0 4528 R
0 -63 V
0 -4668 R
( 38.1837) Cshow
1.000 UL
LT0
0.50 0.50 0.50 C 1.000 UL
LTa
0.50 0.50 0.50 C 4256 280 M
0 4591 V
stroke
LT0
0.50 0.50 0.50 C 4256 280 M
0 63 V
0 4528 R
0 -63 V
0 -4668 R
( 38.8908) Cshow
1.000 UL
LT0
0.50 0.50 0.50 C 1.000 UL
LTa
0.50 0.50 0.50 C 4315 280 M
0 4591 V
stroke
LT0
0.50 0.50 0.50 C 4315 280 M
0 63 V
0 4528 R
0 -63 V
0 -4668 R
( 39.5979) Cshow
1.000 UL
LT0
0.50 0.50 0.50 C 1.000 UL
LTa
0.50 0.50 0.50 C 4375 280 M
0 4591 V
stroke
LT0
0.50 0.50 0.50 C 4375 280 M
0 63 V
0 4528 R
0 -63 V
0 -4668 R
( 40.305) Cshow
1.000 UL
LT0
0.50 0.50 0.50 C 1.000 UL
LTa
0.50 0.50 0.50 C 4435 280 M
0 4591 V
stroke
LT0
0.50 0.50 0.50 C 4435 280 M
0 63 V
0 4528 R
0 -63 V
0 -4668 R
( 41.0121) Cshow
1.000 UL
LT0
0.50 0.50 0.50 C 1.000 UL
LTa
0.50 0.50 0.50 C 4495 280 M
0 4591 V
stroke
LT0
0.50 0.50 0.50 C 4495 280 M
0 63 V
0 4528 R
0 -63 V
0 -4668 R
( 41.7193) Cshow
1.000 UL
LT0
0.50 0.50 0.50 C 1.000 UL
LTa
0.50 0.50 0.50 C 4555 280 M
0 4591 V
stroke
LT0
0.50 0.50 0.50 C 4555 280 M
0 63 V
0 4528 R
0 -63 V
0 -4668 R
( 42.4264) Cshow
1.000 UL
LT0
0.50 0.50 0.50 C 1.000 UL
LTa
0.50 0.50 0.50 C 4614 280 M
0 4591 V
stroke
LT0
0.50 0.50 0.50 C 4614 280 M
0 63 V
0 4528 R
0 -63 V
0 -4668 R
( 43.1335) Cshow
1.000 UL
LT0
0.50 0.50 0.50 C 1.000 UL
LTa
0.50 0.50 0.50 C 4674 280 M
0 4591 V
stroke
LT0
0.50 0.50 0.50 C 4674 280 M
0 63 V
0 4528 R
0 -63 V
0 -4668 R
( 43.8406) Cshow
1.000 UL
LT0
0.50 0.50 0.50 C 1.000 UL
LTa
0.50 0.50 0.50 C 4734 280 M
0 4591 V
stroke
LT0
0.50 0.50 0.50 C 4734 280 M
0 63 V
0 4528 R
0 -63 V
0 -4668 R
( 44.5477) Cshow
1.000 UL
LT0
0.50 0.50 0.50 C 1.000 UL
LTa
0.50 0.50 0.50 C 4794 280 M
0 4591 V
stroke
LT0
0.50 0.50 0.50 C 4794 280 M
0 63 V
0 4528 R
0 -63 V
0 -4668 R
( 45.2548) Cshow
1.000 UL
LT0
0.50 0.50 0.50 C 1.000 UL
LTa
0.50 0.50 0.50 C 4854 280 M
0 4591 V
stroke
LT0
0.50 0.50 0.50 C 4854 280 M
0 63 V
0 4528 R
0 -63 V
0 -4668 R
( 45.9619) Cshow
1.000 UL
LT0
0.50 0.50 0.50 C 1.000 UL
LTa
0.50 0.50 0.50 C 4913 280 M
0 4591 V
stroke
LT0
0.50 0.50 0.50 C 4913 280 M
0 63 V
0 4528 R
0 -63 V
0 -4668 R
( 46.669) Cshow
1.000 UL
LT0
0.50 0.50 0.50 C 1.000 UL
LTa
0.50 0.50 0.50 C 4973 280 M
0 4591 V
stroke
LT0
0.50 0.50 0.50 C 4973 280 M
0 63 V
0 4528 R
0 -63 V
0 -4668 R
( 47.3761) Cshow
1.000 UL
LT0
0.50 0.50 0.50 C 1.000 UL
LTa
0.50 0.50 0.50 C 5033 280 M
0 4591 V
stroke
LT0
0.50 0.50 0.50 C 5033 280 M
0 63 V
0 4528 R
0 -63 V
0 -4668 R
( 48.0832) Cshow
1.000 UL
LT0
0.50 0.50 0.50 C 1.000 UL
LTa
0.50 0.50 0.50 C 5093 280 M
0 4591 V
stroke
LT0
0.50 0.50 0.50 C 5093 280 M
0 63 V
0 4528 R
0 -63 V
0 -4668 R
( 48.7903) Cshow
1.000 UL
LT0
0.50 0.50 0.50 C 1.000 UL
LTa
0.50 0.50 0.50 C 5153 280 M
0 4591 V
stroke
LT0
0.50 0.50 0.50 C 5153 280 M
0 63 V
0 4528 R
0 -63 V
0 -4668 R
( 49.4974) Cshow
1.000 UL
LT0
0.50 0.50 0.50 C 1.000 UL
LTa
0.50 0.50 0.50 C 5213 280 M
0 4591 V
stroke
LT0
0.50 0.50 0.50 C 5213 280 M
0 63 V
0 4528 R
0 -63 V
0 -4668 R
( 50.2045) Cshow
1.000 UL
LT0
0.50 0.50 0.50 C 1.000 UL
LTa
0.50 0.50 0.50 C 5272 280 M
0 4591 V
stroke
LT0
0.50 0.50 0.50 C 5272 280 M
0 63 V
0 4528 R
0 -63 V
0 -4668 R
( 50.9116) Cshow
1.000 UL
LT0
0.50 0.50 0.50 C 1.000 UL
LTa
0.50 0.50 0.50 C 5332 280 M
0 4591 V
stroke
LT0
0.50 0.50 0.50 C 5332 280 M
0 63 V
0 4528 R
0 -63 V
0 -4668 R
( 51.6187) Cshow
1.000 UL
LT0
0.50 0.50 0.50 C 1.000 UL
LTa
0.50 0.50 0.50 C 5392 280 M
0 4591 V
stroke
LT0
0.50 0.50 0.50 C 5392 280 M
0 63 V
0 4528 R
0 -63 V
0 -4668 R
( 52.3258) Cshow
1.000 UL
LT0
0.50 0.50 0.50 C 1.000 UL
LTa
0.50 0.50 0.50 C 5452 280 M
0 4591 V
stroke
LT0
0.50 0.50 0.50 C 5452 280 M
0 63 V
0 4528 R
0 -63 V
0 -4668 R
( 53.033) Cshow
1.000 UL
LT0
0.50 0.50 0.50 C 1.000 UL
LTa
0.50 0.50 0.50 C 5512 280 M
0 4591 V
stroke
LT0
0.50 0.50 0.50 C 5512 280 M
0 63 V
0 4528 R
0 -63 V
0 -4668 R
( 53.7401) Cshow
1.000 UL
LT0
0.50 0.50 0.50 C 1.000 UL
LTa
0.50 0.50 0.50 C 5571 280 M
0 4591 V
stroke
LT0
0.50 0.50 0.50 C 5571 280 M
0 63 V
0 4528 R
0 -63 V
0 -4668 R
( 54.4472) Cshow
1.000 UL
LT0
0.50 0.50 0.50 C 1.000 UL
LTa
0.50 0.50 0.50 C 5631 280 M
0 4591 V
stroke
LT0
0.50 0.50 0.50 C 5631 280 M
0 63 V
0 4528 R
0 -63 V
0 -4668 R
( 55.1543) Cshow
1.000 UL
LT0
0.50 0.50 0.50 C 1.000 UL
LTa
0.50 0.50 0.50 C 5691 280 M
0 4591 V
stroke
LT0
0.50 0.50 0.50 C 5691 280 M
0 63 V
0 4528 R
0 -63 V
0 -4668 R
( 55.8614) Cshow
1.000 UL
LT0
0.50 0.50 0.50 C 1.000 UL
LTa
0.50 0.50 0.50 C 5751 280 M
0 4591 V
stroke
LT0
0.50 0.50 0.50 C 5751 280 M
0 63 V
0 4528 R
0 -63 V
0 -4668 R
( 56.5685) Cshow
1.000 UL
LT0
0.50 0.50 0.50 C 1.000 UL
LTa
0.50 0.50 0.50 C 5811 280 M
0 4591 V
stroke
LT0
0.50 0.50 0.50 C 5811 280 M
0 63 V
0 4528 R
0 -63 V
0 -4668 R
( 57.2756) Cshow
1.000 UL
LT0
0.50 0.50 0.50 C 1.000 UL
LTa
0.50 0.50 0.50 C 5870 280 M
0 4591 V
stroke
LT0
0.50 0.50 0.50 C 5870 280 M
0 63 V
0 4528 R
0 -63 V
0 -4668 R
( 57.9827) Cshow
1.000 UL
LT0
0.50 0.50 0.50 C 1.000 UL
LTa
0.50 0.50 0.50 C 5930 280 M
0 4591 V
stroke
LT0
0.50 0.50 0.50 C 5930 280 M
0 63 V
0 4528 R
0 -63 V
0 -4668 R
( 58.6898) Cshow
1.000 UL
LT0
0.50 0.50 0.50 C 1.000 UL
LTa
0.50 0.50 0.50 C 5990 280 M
0 4591 V
stroke
LT0
0.50 0.50 0.50 C 5990 280 M
0 63 V
0 4528 R
0 -63 V
0 -4668 R
( 59.3969) Cshow
1.000 UL
LT0
0.50 0.50 0.50 C 1.000 UL
LTa
0.50 0.50 0.50 C 6050 280 M
0 4591 V
stroke
LT0
0.50 0.50 0.50 C 6050 280 M
0 63 V
0 4528 R
0 -63 V
0 -4668 R
( 60.104) Cshow
1.000 UL
LT0
0.50 0.50 0.50 C 1.000 UL
LTa
0.50 0.50 0.50 C 6110 280 M
0 4591 V
stroke
LT0
0.50 0.50 0.50 C 6110 280 M
0 63 V
0 4528 R
0 -63 V
0 -4668 R
( 60.8111) Cshow
1.000 UL
LT0
0.50 0.50 0.50 C 1.000 UL
LTa
0.50 0.50 0.50 C 6169 280 M
0 4591 V
stroke
LT0
0.50 0.50 0.50 C 6169 280 M
0 63 V
0 4528 R
0 -63 V
0 -4668 R
( 61.5182) Cshow
1.000 UL
LT0
0.50 0.50 0.50 C 1.000 UL
LTa
0.50 0.50 0.50 C 6229 280 M
0 4591 V
stroke
LT0
0.50 0.50 0.50 C 6229 280 M
0 63 V
0 4528 R
0 -63 V
0 -4668 R
( 62.2253) Cshow
1.000 UL
LT0
0.50 0.50 0.50 C 1.000 UL
LTa
0.50 0.50 0.50 C 6289 280 M
0 4591 V
stroke
LT0
0.50 0.50 0.50 C 6289 280 M
0 63 V
0 4528 R
0 -63 V
0 -4668 R
( 62.9324) Cshow
1.000 UL
LT0
0.50 0.50 0.50 C 1.000 UL
LTa
0.50 0.50 0.50 C 6349 280 M
0 4591 V
stroke
LT0
0.50 0.50 0.50 C 6349 280 M
0 63 V
0 4528 R
0 -63 V
0 -4668 R
( 63.6395) Cshow
1.000 UL
LT0
0.50 0.50 0.50 C 1.000 UL
LTa
0.50 0.50 0.50 C 6409 280 M
0 4591 V
stroke
LT0
0.50 0.50 0.50 C 6409 280 M
0 63 V
0 4528 R
0 -63 V
0 -4668 R
( 64.3466) Cshow
1.000 UL
LT0
0.50 0.50 0.50 C 1.000 UL
LTa
0.50 0.50 0.50 C 6469 280 M
0 4591 V
stroke
LT0
0.50 0.50 0.50 C 6469 280 M
0 63 V
0 4528 R
0 -63 V
0 -4668 R
( 65.0538) Cshow
1.000 UL
LT0
0.50 0.50 0.50 C 1.000 UL
LTa
0.50 0.50 0.50 C 6528 280 M
0 4591 V
stroke
LT0
0.50 0.50 0.50 C 6528 280 M
0 63 V
0 4528 R
0 -63 V
0 -4668 R
( 65.7609) Cshow
1.000 UL
LT0
0.50 0.50 0.50 C 1.000 UL
LTa
0.50 0.50 0.50 C 6588 280 M
0 4591 V
stroke
LT0
0.50 0.50 0.50 C 6588 280 M
0 63 V
0 4528 R
0 -63 V
0 -4668 R
( 66.468) Cshow
1.000 UL
LT0
0.50 0.50 0.50 C 1.000 UL
LTa
0.50 0.50 0.50 C 6648 280 M
0 4591 V
stroke
LT0
0.50 0.50 0.50 C 6648 280 M
0 63 V
0 4528 R
0 -63 V
0 -4668 R
( 67.1751) Cshow
1.000 UL
LT0
0.50 0.50 0.50 C 1.000 UL
LTa
0.50 0.50 0.50 C 6708 280 M
0 4591 V
stroke
LT0
0.50 0.50 0.50 C 6708 280 M
0 63 V
0 4528 R
0 -63 V
0 -4668 R
( 67.8822) Cshow
1.000 UL
LT0
0.50 0.50 0.50 C 1.000 UL
LTa
0.50 0.50 0.50 C 6768 280 M
0 4591 V
stroke
LT0
0.50 0.50 0.50 C 6768 280 M
0 63 V
0 4528 R
0 -63 V
0 -4668 R
( 68.5893) Cshow
1.000 UL
LT0
0.50 0.50 0.50 C 1.000 UL
LTa
0.50 0.50 0.50 C 6827 280 M
0 4591 V
stroke
LT0
0.50 0.50 0.50 C 6827 280 M
0 63 V
0 4528 R
0 -63 V
0 -4668 R
( 69.2964) Cshow
1.000 UL
LT0
0.50 0.50 0.50 C 1.000 UL
LTa
0.50 0.50 0.50 C 6887 280 M
0 4591 V
stroke
LT0
0.50 0.50 0.50 C 6887 280 M
0 63 V
0 4528 R
0 -63 V
0 -4668 R
( 70.0035) Cshow
1.000 UL
LT0
0.50 0.50 0.50 C 1.000 UL
LTa
0.50 0.50 0.50 C 6947 280 M
0 4591 V
stroke
LT0
0.50 0.50 0.50 C 6947 280 M
0 63 V
0 4528 R
0 -63 V
0 -4668 R
( 70.7106) Cshow
1.000 UL
LT0
0.50 0.50 0.50 C 1.000 UL
LT0
0.50 0.50 0.50 C 966 4871 M
966 280 L
5981 0 V
0 4591 R
-5981 0 R
1.000 UP
stroke
LT0
0.50 0.50 0.50 C % Begin plot #1
1.500 UP
2.000 UL
LT0
0.00 0.00 1.00 C /Helvetica findfont 140 scalefont setfont
/vshift -46 def
966 601 M
60 0 V
60 0 V
0 46 R
59 0 V
60 0 V
60 0 V
60 0 V
0 230 R
60 0 V
59 0 V
60 0 V
0 46 R
60 0 V
60 0 V
60 0 V
60 0 V
0 92 R
59 0 V
60 0 V
0 137 R
60 0 V
60 0 V
0 46 R
60 0 V
59 0 V
60 0 V
60 0 V
0 46 R
60 0 V
0 46 R
60 0 V
59 0 V
60 0 V
0 46 R
60 0 V
0 46 R
60 0 V
0 367 R
60 0 V
0 230 R
59 0 V
60 0 V
0 91 R
60 0 V
60 0 V
60 0 V
60 0 V
0 184 R
59 0 V
60 0 V
60 0 V
60 0 V
0 46 R
60 0 V
59 0 V
0 459 R
60 0 V
60 0 V
60 0 V
0 92 R
60 0 V
59 0 V
60 0 V
60 0 V
60 0 V
60 0 V
60 0 V
59 0 V
0 46 R
60 0 V
60 0 V
60 0 V
60 0 V
59 0 V
60 0 V
60 0 V
60 0 V
60 0 V
59 0 V
60 0 V
60 0 V
0 46 R
60 0 V
60 0 V
59 0 V
0 46 R
60 0 V
60 0 V
60 0 V
60 0 V
60 0 V
59 0 V
60 0 V
60 0 V
60 0 V
60 0 V
59 0 V
60 0 V
60 0 V
60 0 V
60 0 V
59 0 V
0 321 R
60 0 V
stroke 5930 3310 M
0 138 R
60 0 V
0 46 R
60 0 V
60 0 V
0 46 R
59 0 V
0 321 R
60 0 V
60 0 V
60 0 V
60 0 V
60 0 V
59 0 V
60 0 V
60 0 V
60 0 V
0 780 R
60 0 V
59 0 V
60 0 V
60 0 V
1086 601 M
0 46 V
239 0 R
0 46 V
0 46 V
0 46 V
0 46 V
0 46 V
179 0 R
0 46 V
240 0 R
0 46 V
0 46 V
119 0 R
0 45 V
0 46 V
0 46 V
120 0 R
0 46 V
239 0 R
0 46 V
60 0 R
0 46 V
179 0 R
0 46 V
60 0 R
0 46 V
60 0 R
0 46 V
0 46 V
0 46 V
0 45 V
0 46 V
0 46 V
0 46 V
0 46 V
60 0 R
0 46 V
0 46 V
0 46 V
0 46 V
0 46 V
119 0 R
0 46 V
0 45 V
240 0 R
0 46 V
0 46 V
0 46 V
0 46 V
239 0 R
0 46 V
119 0 R
0 46 V
0 46 V
0 46 V
0 46 V
0 46 V
0 46 V
0 45 V
0 46 V
0 46 V
0 46 V
180 0 R
0 46 V
0 46 V
478 0 R
0 46 V
718 0 R
0 46 V
179 0 R
0 46 V
957 0 R
0 46 V
0 46 V
0 45 V
0 46 V
0 46 V
0 46 V
0 46 V
60 0 R
0 46 V
stroke 5930 3356 M
0 46 V
0 46 V
60 0 R
0 46 V
120 0 R
0 46 V
59 0 R
0 46 V
0 45 V
0 46 V
0 46 V
0 46 V
0 46 V
0 46 V
539 0 R
0 46 V
0 46 V
0 46 V
0 46 V
0 46 V
0 45 V
0 46 V
0 46 V
0 46 V
0 46 V
0 46 V
0 46 V
0 46 V
0 46 V
0 46 V
0 46 V
0 45 V
966 280 M
0 46 V
6947 4825 M
0 46 V
966 326 M
0 46 V
0 46 V
0 46 V
0 46 V
0 45 V
0 46 V
6947 4641 M
0 46 V
0 46 V
0 46 V
0 46 V
966 601 CircleF
1026 601 CircleF
1026 601 CircleF
1086 601 CircleF
1086 647 CircleF
1145 647 CircleF
1145 647 CircleF
1205 647 CircleF
1205 647 CircleF
1265 647 CircleF
1265 647 CircleF
1325 647 CircleF
1325 877 CircleF
1385 877 CircleF
1385 877 CircleF
1444 877 CircleF
1444 877 CircleF
1504 877 CircleF
1504 923 CircleF
1564 923 CircleF
1564 923 CircleF
1624 923 CircleF
1624 923 CircleF
1684 923 CircleF
1684 923 CircleF
1744 923 CircleF
1744 1015 CircleF
1803 1015 CircleF
1803 1015 CircleF
1863 1015 CircleF
1863 1152 CircleF
1923 1152 CircleF
1923 1152 CircleF
1983 1152 CircleF
1983 1198 CircleF
2043 1198 CircleF
2043 1198 CircleF
2102 1198 CircleF
2102 1198 CircleF
2162 1198 CircleF
2162 1198 CircleF
2222 1198 CircleF
2222 1244 CircleF
2282 1244 CircleF
2282 1290 CircleF
2342 1290 CircleF
2342 1290 CircleF
2401 1290 CircleF
2401 1290 CircleF
2461 1290 CircleF
2461 1336 CircleF
2521 1336 CircleF
2521 1382 CircleF
2581 1382 CircleF
2581 1749 CircleF
2641 1749 CircleF
2641 1979 CircleF
2700 1979 CircleF
2700 1979 CircleF
2760 1979 CircleF
2760 2070 CircleF
2820 2070 CircleF
2820 2070 CircleF
2880 2070 CircleF
2880 2070 CircleF
2940 2070 CircleF
2940 2070 CircleF
3000 2070 CircleF
3000 2254 CircleF
3059 2254 CircleF
3059 2254 CircleF
3119 2254 CircleF
3119 2254 CircleF
3179 2254 CircleF
3179 2254 CircleF
3239 2254 CircleF
3239 2300 CircleF
3299 2300 CircleF
3299 2300 CircleF
3358 2300 CircleF
3358 2759 CircleF
3418 2759 CircleF
3418 2759 CircleF
3478 2759 CircleF
3478 2759 CircleF
3538 2759 CircleF
3538 2851 CircleF
3598 2851 CircleF
3598 2851 CircleF
3657 2851 CircleF
3657 2851 CircleF
3717 2851 CircleF
3717 2851 CircleF
3777 2851 CircleF
3777 2851 CircleF
3837 2851 CircleF
3837 2851 CircleF
3897 2851 CircleF
3897 2851 CircleF
3957 2851 CircleF
3957 2851 CircleF
4016 2851 CircleF
4016 2897 CircleF
4076 2897 CircleF
4076 2897 CircleF
4136 2897 CircleF
4136 2897 CircleF
4196 2897 CircleF
4196 2897 CircleF
4256 2897 CircleF
4256 2897 CircleF
4315 2897 CircleF
4315 2897 CircleF
4375 2897 CircleF
4375 2897 CircleF
4435 2897 CircleF
4435 2897 CircleF
4495 2897 CircleF
4495 2897 CircleF
4555 2897 CircleF
4555 2897 CircleF
4614 2897 CircleF
4614 2897 CircleF
4674 2897 CircleF
4674 2897 CircleF
4734 2897 CircleF
4734 2943 CircleF
4794 2943 CircleF
4794 2943 CircleF
4854 2943 CircleF
4854 2943 CircleF
4913 2943 CircleF
4913 2989 CircleF
4973 2989 CircleF
4973 2989 CircleF
5033 2989 CircleF
5033 2989 CircleF
5093 2989 CircleF
5093 2989 CircleF
5153 2989 CircleF
5153 2989 CircleF
5213 2989 CircleF
5213 2989 CircleF
5272 2989 CircleF
5272 2989 CircleF
5332 2989 CircleF
5332 2989 CircleF
5392 2989 CircleF
5392 2989 CircleF
5452 2989 CircleF
5452 2989 CircleF
5512 2989 CircleF
5512 2989 CircleF
5571 2989 CircleF
5571 2989 CircleF
5631 2989 CircleF
5631 2989 CircleF
5691 2989 CircleF
5691 2989 CircleF
5751 2989 CircleF
5751 2989 CircleF
5811 2989 CircleF
5811 2989 CircleF
5870 2989 CircleF
5870 3310 CircleF
5930 3310 CircleF
5930 3448 CircleF
5990 3448 CircleF
5990 3494 CircleF
6050 3494 CircleF
6050 3494 CircleF
6110 3494 CircleF
6110 3540 CircleF
6169 3540 CircleF
6169 3861 CircleF
6229 3861 CircleF
6229 3861 CircleF
6289 3861 CircleF
6289 3861 CircleF
6349 3861 CircleF
6349 3861 CircleF
6409 3861 CircleF
6409 3861 CircleF
6469 3861 CircleF
6469 3861 CircleF
6528 3861 CircleF
6528 3861 CircleF
6588 3861 CircleF
6588 3861 CircleF
6648 3861 CircleF
6648 3861 CircleF
6708 3861 CircleF
6708 4641 CircleF
6768 4641 CircleF
6768 4641 CircleF
6827 4641 CircleF
6827 4641 CircleF
6887 4641 CircleF
6887 4641 CircleF
6947 4641 CircleF
1086 601 CircleF
1086 647 CircleF
1325 647 CircleF
1325 693 CircleF
1325 693 CircleF
1325 739 CircleF
1325 739 CircleF
1325 785 CircleF
1325 785 CircleF
1325 831 CircleF
1325 831 CircleF
1325 877 CircleF
1504 877 CircleF
1504 923 CircleF
1744 923 CircleF
1744 969 CircleF
1744 969 CircleF
1744 1015 CircleF
1863 1015 CircleF
1863 1060 CircleF
1863 1060 CircleF
1863 1106 CircleF
1863 1106 CircleF
1863 1152 CircleF
1983 1152 CircleF
1983 1198 CircleF
2222 1198 CircleF
2222 1244 CircleF
2282 1244 CircleF
2282 1290 CircleF
2461 1290 CircleF
2461 1336 CircleF
2521 1336 CircleF
2521 1382 CircleF
2581 1382 CircleF
2581 1428 CircleF
2581 1428 CircleF
2581 1474 CircleF
2581 1474 CircleF
2581 1520 CircleF
2581 1520 CircleF
2581 1565 CircleF
2581 1565 CircleF
2581 1611 CircleF
2581 1611 CircleF
2581 1657 CircleF
2581 1657 CircleF
2581 1703 CircleF
2581 1703 CircleF
2581 1749 CircleF
2641 1749 CircleF
2641 1795 CircleF
2641 1795 CircleF
2641 1841 CircleF
2641 1841 CircleF
2641 1887 CircleF
2641 1887 CircleF
2641 1933 CircleF
2641 1933 CircleF
2641 1979 CircleF
2760 1979 CircleF
2760 2025 CircleF
2760 2025 CircleF
2760 2070 CircleF
3000 2070 CircleF
3000 2116 CircleF
3000 2116 CircleF
3000 2162 CircleF
3000 2162 CircleF
3000 2208 CircleF
3000 2208 CircleF
3000 2254 CircleF
3239 2254 CircleF
3239 2300 CircleF
3358 2300 CircleF
3358 2346 CircleF
3358 2346 CircleF
3358 2392 CircleF
3358 2392 CircleF
3358 2438 CircleF
3358 2438 CircleF
3358 2484 CircleF
3358 2484 CircleF
3358 2530 CircleF
3358 2530 CircleF
3358 2576 CircleF
3358 2576 CircleF
3358 2621 CircleF
3358 2621 CircleF
3358 2667 CircleF
3358 2667 CircleF
3358 2713 CircleF
3358 2713 CircleF
3358 2759 CircleF
3538 2759 CircleF
3538 2805 CircleF
3538 2805 CircleF
3538 2851 CircleF
4016 2851 CircleF
4016 2897 CircleF
4734 2897 CircleF
4734 2943 CircleF
4913 2943 CircleF
4913 2989 CircleF
5870 2989 CircleF
5870 3035 CircleF
5870 3035 CircleF
5870 3081 CircleF
5870 3081 CircleF
5870 3126 CircleF
5870 3126 CircleF
5870 3172 CircleF
5870 3172 CircleF
5870 3218 CircleF
5870 3218 CircleF
5870 3264 CircleF
5870 3264 CircleF
5870 3310 CircleF
5930 3310 CircleF
5930 3356 CircleF
5930 3356 CircleF
5930 3402 CircleF
5930 3402 CircleF
5930 3448 CircleF
5990 3448 CircleF
5990 3494 CircleF
6110 3494 CircleF
6110 3540 CircleF
6169 3540 CircleF
6169 3586 CircleF
6169 3586 CircleF
6169 3631 CircleF
6169 3631 CircleF
6169 3677 CircleF
6169 3677 CircleF
6169 3723 CircleF
6169 3723 CircleF
6169 3769 CircleF
6169 3769 CircleF
6169 3815 CircleF
6169 3815 CircleF
6169 3861 CircleF
6708 3861 CircleF
6708 3907 CircleF
6708 3907 CircleF
6708 3953 CircleF
6708 3953 CircleF
6708 3999 CircleF
6708 3999 CircleF
6708 4045 CircleF
6708 4045 CircleF
6708 4091 CircleF
6708 4091 CircleF
6708 4136 CircleF
6708 4136 CircleF
6708 4182 CircleF
6708 4182 CircleF
6708 4228 CircleF
6708 4228 CircleF
6708 4274 CircleF
6708 4274 CircleF
6708 4320 CircleF
6708 4320 CircleF
6708 4366 CircleF
6708 4366 CircleF
6708 4412 CircleF
6708 4412 CircleF
6708 4458 CircleF
6708 4458 CircleF
6708 4504 CircleF
6708 4504 CircleF
6708 4550 CircleF
6708 4550 CircleF
6708 4596 CircleF
6708 4596 CircleF
6708 4641 CircleF
966 280 CircleF
966 326 CircleF
6947 4825 CircleF
6947 4871 CircleF
966 326 CircleF
966 372 CircleF
966 372 CircleF
966 418 CircleF
966 418 CircleF
966 464 CircleF
966 464 CircleF
966 510 CircleF
966 510 CircleF
966 555 CircleF
966 555 CircleF
966 601 CircleF
6947 4641 CircleF
6947 4687 CircleF
6947 4687 CircleF
6947 4733 CircleF
6947 4733 CircleF
6947 4779 CircleF
6947 4779 CircleF
6947 4825 CircleF
% End plot #1
% Begin plot #2
1.500 UP
2.000 UL
LT0
1.00 0.55 0.00 C /Helvetica findfont 140 scalefont setfont
2211 4346 M
65 50 V
1007 1105 M
90 69 V
4655 848 R
114 88 V
4611 2049 M
115 89 V
-425 697 R
95 72 V
1019 2131 M
63 49 V
3671 38 R
71 55 V
1074 2660 M
107 82 V
3294 2122 M
95 73 V
6729 1682 M
81 62 V
2569 965 M
87 66 V
4645 2783 M
107 82 V
2020 2386 M
103 79 V
4950 1901 M
86 66 V
5943 623 M
95 72 V
4069 2357 M
91 69 V
3531 294 M
109 84 V
4901 3012 M
96 73 V
2899 2033 M
63 49 V
1734 2185 M
79 61 V
3274 4148 M
107 83 V
3361 1149 M
105 81 V
4580 4528 M
116 88 V
-55 -875 R
104 80 V
3211 520 M
74 57 V
2638 2736 M
113 87 V
-870 172 R
115 88 V
1772 193 R
75 58 V
1544 3542 M
71 54 V
4542 793 M
63 49 V
2758 3894 M
113 86 V
1707 4471 M
61 46 V
2062 2758 M
103 80 V
3204 4454 M
108 83 V
2134 3572 M
116 89 V
4532 1958 M
79 60 V
871 2240 R
99 76 V
6229 1798 M
60 47 V
1057 581 M
84 65 V
3428 2338 M
64 49 V
6494 4336 M
94 73 V
5308 2043 M
83 64 V
4865 1703 M
88 67 V
4399 3502 M
100 77 V
5276 1971 M
104 80 V
3650 3910 M
66 50 V
2496 4535 M
90 69 V
6561 4088 M
112 86 V
3340 3472 M
83 63 V
4260 1279 M
98 75 V
3425 992 M
85 65 V
5217 2178 M
73 56 V
1759 2868 M
63 48 V
stroke 1822 2916 M
4289 4550 M
67 51 V
4913 2973 M
114 87 V
2229 1834 M
112 85 V
2055 727 M
95 73 V
6073 4149 M
110 84 V
1781 3804 M
101 77 V
3635 1328 M
86 66 V
397 499 R
84 65 V
2890 621 M
69 53 V
2305 4756 M
71 55 V
-85 -173 R
78 61 V
3927 370 M
77 60 V
502 1641 R
118 90 V
-693 845 R
99 77 V
4635 1044 M
60 47 V
4098 4270 M
66 51 V
5704 2944 M
107 82 V
1751 2638 M
107 82 V
5626 470 M
79 61 V
1211 2297 M
97 75 V
5663 1942 M
111 85 V
1729 1501 M
95 73 V
3444 3432 M
62 48 V
5634 1412 M
91 70 V
-1105 63 R
78 61 V
2711 4274 M
103 79 V
1060 831 M
118 91 V
2744 461 R
91 69 V
2723 2040 M
64 49 V
-303 44 R
108 84 V
6631 3731 M
86 66 V
2167 561 M
90 69 V
1908 4488 M
91 69 V
5220 605 M
74 57 V
6336 2531 M
89 68 V
2355 3519 M
113 86 V
962 1129 R
92 72 V
6775 3001 M
95 73 V
4967 2324 M
89 69 V
6570 399 M
64 49 V
4037 3539 M
96 74 V
1875 1246 M
101 78 V
1955 302 R
97 73 V
2512 525 R
84 65 V
5093 1277 M
91 70 V
5522 396 M
69 53 V
3452 3364 M
75 58 V
2516 536 M
110 85 V
1164 614 M
87 66 V
2314 4691 M
76 58 V
6303 1969 M
116 89 V
1514 906 M
113 87 V
stroke 1627 993 M
4993 781 M
86 66 V
2567 753 M
90 69 V
4860 3046 M
66 51 V
6397 1860 M
92 71 V
6553 392 M
106 82 V
5364 458 M
83 63 V
2667 2745 M
95 73 V
3419 882 M
63 48 V
-768 688 R
97 74 V
5135 4101 M
89 68 V
2574 3111 M
95 73 V
-1242 18 R
116 90 V
4355 3167 M
97 74 V
5569 2482 M
111 85 V
4536 796 M
99 76 V
6471 502 M
81 62 V
1877 3218 M
64 49 V
1509 173 R
106 81 V
5391 1460 M
81 62 V
58 2898 R
64 49 V
6717 1130 M
94 73 V
1886 3799 M
76 58 V
1599 2491 M
61 46 V
-29 -165 R
106 82 V
1799 333 R
89 68 V
968 4439 M
64 50 V
2286 1978 M
76 58 V
247 -108 R
94 73 V
-534 660 R
106 82 V
4777 1108 M
85 66 V
1415 2196 M
115 89 V
5919 2135 M
84 65 V
-4408 56 R
78 60 V
2846 1561 M
95 73 V
1298 1340 M
101 77 V
3572 1012 M
89 68 V
3370 2862 M
102 78 V
2206 1212 M
110 84 V
4206 429 M
93 71 V
2774 3226 M
108 82 V
6042 1803 M
94 72 V
4100 1596 M
81 62 V
1421 4345 M
71 54 V
4525 1859 M
89 69 V
2103 111 R
61 47 V
2288 4393 M
83 63 V
5146 2926 M
116 90 V
3989 1093 M
111 85 V
2570 1717 M
84 65 V
4121 880 M
77 59 V
1701 899 M
87 67 V
3833 405 R
79 61 V
stroke 5700 1432 M
-2543 91 R
75 58 V
1881 2943 M
100 77 V
3619 335 M
113 86 V
280 2775 R
91 70 V
3682 2825 M
113 87 V
4901 507 M
88 67 V
-830 537 R
111 85 V
3889 2445 M
70 54 V
4074 588 M
115 88 V
1261 4755 M
69 53 V
468 -238 R
101 77 V
6518 488 M
79 61 V
5425 1609 M
65 50 V
2791 4098 M
64 50 V
3345 1148 M
64 49 V
6677 3883 M
86 66 V
1803 4373 M
82 63 V
5153 3321 M
118 90 V
6488 950 M
92 71 V
4300 4689 M
76 58 V
4187 2018 M
102 79 V
5525 1404 M
105 81 V
5038 4703 M
103 78 V
4695 3993 M
79 60 V
6697 393 M
117 90 V
1607 3420 M
73 56 V
4796 347 R
104 79 V
-89 304 R
118 90 V
2157 718 M
76 58 V
678 2583 R
105 80 V
-194 361 R
83 64 V
3373 2734 M
75 57 V
456 -794 R
110 85 V
6792 1327 M
111 85 V
2749 1335 M
64 50 V
339 829 R
115 88 V
5516 1923 M
72 55 V
1258 944 M
73 56 V
288 736 R
88 68 V
502 2908 R
75 57 V
6131 3723 M
101 78 V
6773 503 M
74 57 V
3824 578 M
95 73 V
494 -68 R
108 83 V
461 89 R
75 58 V
330 1462 R
92 71 V
5277 1644 M
96 74 V
1261 2383 M
73 56 V
6119 1746 M
81 62 V
2520 3152 M
87 67 V
3207 47 R
96 73 V
1775 1016 M
100 77 V
stroke 1875 1093 M
5762 2145 M
109 84 V
3951 911 M
100 76 V
6124 2324 M
83 63 V
5344 1099 M
110 84 V
2130 1903 M
84 65 V
1455 3799 M
119 92 V
4499 3424 M
80 61 V
4078 3317 M
76 58 V
2829 3829 M
114 87 V
5989 1944 M
93 72 V
5967 3446 M
119 91 V
559 1037 R
81 62 V
2627 418 M
111 86 V
2384 3589 M
112 86 V
2831 403 R
61 47 V
3222 1194 M
98 75 V
982 59 R
62 47 V
-28 3310 R
89 68 V
4054 2328 M
103 79 V
3337 508 M
70 53 V
-408 946 R
61 46 V
2530 1206 M
84 65 V
1604 876 M
92 70 V
874 1906 R
66 50 V
1708 2759 M
119 91 V
5433 2723 M
107 83 V
3048 1606 M
107 82 V
6702 3977 M
80 62 V
2364 3224 M
102 78 V
5780 2986 M
96 74 V
-230 486 R
62 47 V
4582 3794 M
84 65 V
1808 2716 M
116 89 V
5489 2496 M
101 78 V
-543 963 R
81 62 V
1666 2666 M
73 56 V
5696 2199 M
91 70 V
3887 3512 M
115 88 V
4833 2279 M
113 87 V
1018 1289 M
101 77 V
4749 2712 M
80 61 V
-659 882 R
70 54 V
6674 2672 M
91 70 V
2278 1032 M
117 90 V
-356 677 R
112 86 V
4275 3352 M
88 68 V
2543 1815 M
105 81 V
-459 331 R
75 58 V
1183 427 R
66 50 V
5441 434 M
98 76 V
2392 1280 M
101 78 V
40 939 R
102 78 V
stroke 2635 2375 M
251 -691 R
73 55 V
3748 924 M
85 65 V
3362 3664 M
87 66 V
1462 4227 M
91 70 V
6345 802 M
62 47 V
4723 1109 M
71 55 V
-87 122 R
118 90 V
-81 200 R
87 67 V
840 416 R
113 86 V
6564 792 M
92 71 V
6541 3139 M
103 79 V
6082 2000 M
97 75 V
2543 3134 M
96 75 V
4332 2677 M
91 69 V
1405 4229 M
99 76 V
-387 -29 R
69 53 V
6678 4201 M
103 79 V
2374 2342 M
99 76 V
6029 3468 M
85 66 V
3577 3339 M
79 61 V
-554 731 R
118 90 V
3753 643 M
98 76 V
2645 438 R
75 57 V
5060 1618 M
110 85 V
847 282 R
111 86 V
3419 3505 M
95 72 V
6188 4598 M
75 58 V
2999 1473 M
113 87 V
4966 1437 M
73 56 V
1288 4711 M
114 88 V
85 -1434 R
66 51 V
3037 104 R
86 66 V
4124 1080 M
83 64 V
3031 2220 M
63 49 V
1986 1166 M
73 55 V
593 3100 R
67 51 V
6810 1655 M
70 54 V
1733 1651 M
105 80 V
4003 2886 M
67 51 V
2211 4346 CircleF
2276 4396 CircleF
1007 1105 CircleF
1097 1174 CircleF
5752 2022 CircleF
5866 2110 CircleF
4611 2049 CircleF
4726 2138 CircleF
4301 2835 CircleF
4396 2907 CircleF
1019 2131 CircleF
1082 2180 CircleF
4753 2218 CircleF
4824 2273 CircleF
1074 2660 CircleF
1181 2742 CircleF
3294 2122 CircleF
3389 2195 CircleF
6729 1682 CircleF
6810 1744 CircleF
2569 965 CircleF
2656 1031 CircleF
4645 2783 CircleF
4752 2865 CircleF
2020 2386 CircleF
2123 2465 CircleF
4950 1901 CircleF
5036 1967 CircleF
5943 623 CircleF
6038 695 CircleF
4069 2357 CircleF
4160 2426 CircleF
3531 294 CircleF
3640 378 CircleF
4901 3012 CircleF
4997 3085 CircleF
2899 2033 CircleF
2962 2082 CircleF
1734 2185 CircleF
1813 2246 CircleF
3274 4148 CircleF
3381 4231 CircleF
3361 1149 CircleF
3466 1230 CircleF
4580 4528 CircleF
4696 4616 CircleF
4641 3741 CircleF
4745 3821 CircleF
3211 520 CircleF
3285 577 CircleF
2638 2736 CircleF
2751 2823 CircleF
1881 2995 CircleF
1996 3083 CircleF
3768 3276 CircleF
3843 3334 CircleF
1544 3542 CircleF
1615 3596 CircleF
4542 793 CircleF
4605 842 CircleF
2758 3894 CircleF
2871 3980 CircleF
1707 4471 CircleF
1768 4517 CircleF
2062 2758 CircleF
2165 2838 CircleF
3204 4454 CircleF
3312 4537 CircleF
2134 3572 CircleF
2250 3661 CircleF
4532 1958 CircleF
4611 2018 CircleF
5482 4258 CircleF
5581 4334 CircleF
6229 1798 CircleF
6289 1845 CircleF
1057 581 CircleF
1141 646 CircleF
3428 2338 CircleF
3492 2387 CircleF
6494 4336 CircleF
6588 4409 CircleF
5308 2043 CircleF
5391 2107 CircleF
4865 1703 CircleF
4953 1770 CircleF
4399 3502 CircleF
4499 3579 CircleF
5276 1971 CircleF
5380 2051 CircleF
3650 3910 CircleF
3716 3960 CircleF
2496 4535 CircleF
2586 4604 CircleF
6561 4088 CircleF
6673 4174 CircleF
3340 3472 CircleF
3423 3535 CircleF
4260 1279 CircleF
4358 1354 CircleF
3425 992 CircleF
3510 1057 CircleF
5217 2178 CircleF
5290 2234 CircleF
1759 2868 CircleF
1822 2916 CircleF
4289 4550 CircleF
4356 4601 CircleF
4913 2973 CircleF
5027 3060 CircleF
2229 1834 CircleF
2341 1919 CircleF
2055 727 CircleF
2150 800 CircleF
6073 4149 CircleF
6183 4233 CircleF
1781 3804 CircleF
1882 3881 CircleF
3635 1328 CircleF
3721 1394 CircleF
4118 1893 CircleF
4202 1958 CircleF
2890 621 CircleF
2959 674 CircleF
2305 4756 CircleF
2376 4811 CircleF
2291 4638 CircleF
2369 4699 CircleF
3927 370 CircleF
4004 430 CircleF
4506 2071 CircleF
4624 2161 CircleF
3931 3006 CircleF
4030 3083 CircleF
4635 1044 CircleF
4695 1091 CircleF
4098 4270 CircleF
4164 4321 CircleF
5704 2944 CircleF
5811 3026 CircleF
1751 2638 CircleF
1858 2720 CircleF
5626 470 CircleF
5705 531 CircleF
1211 2297 CircleF
1308 2372 CircleF
5663 1942 CircleF
5774 2027 CircleF
1729 1501 CircleF
1824 1574 CircleF
3444 3432 CircleF
3506 3480 CircleF
5634 1412 CircleF
5725 1482 CircleF
4620 1545 CircleF
4698 1606 CircleF
2711 4274 CircleF
2814 4353 CircleF
1060 831 CircleF
1178 922 CircleF
3922 1383 CircleF
4013 1452 CircleF
2723 2040 CircleF
2787 2089 CircleF
2484 2133 CircleF
2592 2217 CircleF
6631 3731 CircleF
6717 3797 CircleF
2167 561 CircleF
2257 630 CircleF
1908 4488 CircleF
1999 4557 CircleF
5220 605 CircleF
5294 662 CircleF
6336 2531 CircleF
6425 2599 CircleF
2355 3519 CircleF
2468 3605 CircleF
3430 4734 CircleF
3522 4806 CircleF
6775 3001 CircleF
6870 3074 CircleF
4967 2324 CircleF
5056 2393 CircleF
6570 399 CircleF
6634 448 CircleF
4037 3539 CircleF
4133 3613 CircleF
1875 1246 CircleF
1976 1324 CircleF
3931 1626 CircleF
4028 1699 CircleF
6540 2224 CircleF
6624 2289 CircleF
5093 1277 CircleF
5184 1347 CircleF
5522 396 CircleF
5591 449 CircleF
3452 3364 CircleF
3527 3422 CircleF
2516 536 CircleF
2626 621 CircleF
1164 614 CircleF
1251 680 CircleF
2314 4691 CircleF
2390 4749 CircleF
6303 1969 CircleF
6419 2058 CircleF
1514 906 CircleF
1627 993 CircleF
4993 781 CircleF
5079 847 CircleF
2567 753 CircleF
2657 822 CircleF
4860 3046 CircleF
4926 3097 CircleF
6397 1860 CircleF
6489 1931 CircleF
6553 392 CircleF
6659 474 CircleF
5364 458 CircleF
5447 521 CircleF
2667 2745 CircleF
2762 2818 CircleF
3419 882 CircleF
3482 930 CircleF
2714 1618 CircleF
2811 1692 CircleF
5135 4101 CircleF
5224 4169 CircleF
2574 3111 CircleF
2669 3184 CircleF
1427 3202 CircleF
1543 3292 CircleF
4355 3167 CircleF
4452 3241 CircleF
5569 2482 CircleF
5680 2567 CircleF
4536 796 CircleF
4635 872 CircleF
6471 502 CircleF
6552 564 CircleF
1877 3218 CircleF
1941 3267 CircleF
3450 3440 CircleF
3556 3521 CircleF
5391 1460 CircleF
5472 1522 CircleF
5530 4420 CircleF
5594 4469 CircleF
6717 1130 CircleF
6811 1203 CircleF
1886 3799 CircleF
1962 3857 CircleF
1599 2491 CircleF
1660 2537 CircleF
1631 2372 CircleF
1737 2454 CircleF
3536 2787 CircleF
3625 2855 CircleF
968 4439 CircleF
1032 4489 CircleF
2286 1978 CircleF
2362 2036 CircleF
2609 1928 CircleF
2703 2001 CircleF
2169 2661 CircleF
2275 2743 CircleF
4777 1108 CircleF
4862 1174 CircleF
1415 2196 CircleF
1530 2285 CircleF
5919 2135 CircleF
6003 2200 CircleF
1595 2256 CircleF
1673 2316 CircleF
2846 1561 CircleF
2941 1634 CircleF
1298 1340 CircleF
1399 1417 CircleF
3572 1012 CircleF
3661 1080 CircleF
3370 2862 CircleF
3472 2940 CircleF
2206 1212 CircleF
2316 1296 CircleF
4206 429 CircleF
4299 500 CircleF
2774 3226 CircleF
2882 3308 CircleF
6042 1803 CircleF
6136 1875 CircleF
4100 1596 CircleF
4181 1658 CircleF
1421 4345 CircleF
1492 4399 CircleF
4525 1859 CircleF
4614 1928 CircleF
6717 2039 CircleF
6778 2086 CircleF
2288 4393 CircleF
2371 4456 CircleF
5146 2926 CircleF
5262 3016 CircleF
3989 1093 CircleF
4100 1178 CircleF
2570 1717 CircleF
2654 1782 CircleF
4121 880 CircleF
4198 939 CircleF
1701 899 CircleF
1788 966 CircleF
5621 1371 CircleF
5700 1432 CircleF
3157 1523 CircleF
3232 1581 CircleF
1881 2943 CircleF
1981 3020 CircleF
3619 335 CircleF
3732 421 CircleF
4012 3196 CircleF
4103 3266 CircleF
3682 2825 CircleF
3795 2912 CircleF
4901 507 CircleF
4989 574 CircleF
4159 1111 CircleF
4270 1196 CircleF
3889 2445 CircleF
3959 2499 CircleF
4074 588 CircleF
4189 676 CircleF
1261 4755 CircleF
1330 4808 CircleF
1798 4570 CircleF
1899 4647 CircleF
6518 488 CircleF
6597 549 CircleF
5425 1609 CircleF
5490 1659 CircleF
2791 4098 CircleF
2855 4148 CircleF
3345 1148 CircleF
3409 1197 CircleF
6677 3883 CircleF
6763 3949 CircleF
1803 4373 CircleF
1885 4436 CircleF
5153 3321 CircleF
5271 3411 CircleF
6488 950 CircleF
6580 1021 CircleF
4300 4689 CircleF
4376 4747 CircleF
4187 2018 CircleF
4289 2097 CircleF
5525 1404 CircleF
5630 1485 CircleF
5038 4703 CircleF
5141 4781 CircleF
4695 3993 CircleF
4774 4053 CircleF
6697 393 CircleF
6814 483 CircleF
1607 3420 CircleF
1680 3476 CircleF
6476 3823 CircleF
6580 3902 CircleF
6491 4206 CircleF
6609 4296 CircleF
2157 718 CircleF
2233 776 CircleF
2911 3359 CircleF
3016 3439 CircleF
2822 3800 CircleF
2905 3864 CircleF
3373 2734 CircleF
3448 2791 CircleF
3904 1997 CircleF
4014 2082 CircleF
6792 1327 CircleF
6903 1412 CircleF
2749 1335 CircleF
2813 1385 CircleF
3152 2214 CircleF
3267 2302 CircleF
5516 1923 CircleF
5588 1978 CircleF
1258 944 CircleF
1331 1000 CircleF
1619 1736 CircleF
1707 1804 CircleF
2209 4712 CircleF
2284 4769 CircleF
6131 3723 CircleF
6232 3801 CircleF
6773 503 CircleF
6847 560 CircleF
3824 578 CircleF
3919 651 CircleF
4413 583 CircleF
4521 666 CircleF
4982 755 CircleF
5057 813 CircleF
5387 2275 CircleF
5479 2346 CircleF
5277 1644 CircleF
5373 1718 CircleF
1261 2383 CircleF
1334 2439 CircleF
6119 1746 CircleF
6200 1808 CircleF
2520 3152 CircleF
2607 3219 CircleF
5814 3266 CircleF
5910 3339 CircleF
1775 1016 CircleF
1875 1093 CircleF
5762 2145 CircleF
5871 2229 CircleF
3951 911 CircleF
4051 987 CircleF
6124 2324 CircleF
6207 2387 CircleF
5344 1099 CircleF
5454 1183 CircleF
2130 1903 CircleF
2214 1968 CircleF
1455 3799 CircleF
1574 3891 CircleF
4499 3424 CircleF
4579 3485 CircleF
4078 3317 CircleF
4154 3375 CircleF
2829 3829 CircleF
2943 3916 CircleF
5989 1944 CircleF
6082 2016 CircleF
5967 3446 CircleF
6086 3537 CircleF
6645 4574 CircleF
6726 4636 CircleF
2627 418 CircleF
2738 504 CircleF
2384 3589 CircleF
2496 3675 CircleF
5327 4078 CircleF
5388 4125 CircleF
3222 1194 CircleF
3320 1269 CircleF
4302 1328 CircleF
4364 1375 CircleF
4336 4685 CircleF
4425 4753 CircleF
4054 2328 CircleF
4157 2407 CircleF
3337 508 CircleF
3407 561 CircleF
2999 1507 CircleF
3060 1553 CircleF
2530 1206 CircleF
2614 1271 CircleF
1604 876 CircleF
1696 946 CircleF
2570 2852 CircleF
2636 2902 CircleF
1708 2759 CircleF
1827 2850 CircleF
5433 2723 CircleF
5540 2806 CircleF
3048 1606 CircleF
3155 1688 CircleF
6702 3977 CircleF
6782 4039 CircleF
2364 3224 CircleF
2466 3302 CircleF
5780 2986 CircleF
5876 3060 CircleF
5646 3546 CircleF
5708 3593 CircleF
4582 3794 CircleF
4666 3859 CircleF
1808 2716 CircleF
1924 2805 CircleF
5489 2496 CircleF
5590 2574 CircleF
5047 3537 CircleF
5128 3599 CircleF
1666 2666 CircleF
1739 2722 CircleF
5696 2199 CircleF
5787 2269 CircleF
3887 3512 CircleF
4002 3600 CircleF
4833 2279 CircleF
4946 2366 CircleF
1018 1289 CircleF
1119 1366 CircleF
4749 2712 CircleF
4829 2773 CircleF
4170 3655 CircleF
4240 3709 CircleF
6674 2672 CircleF
6765 2742 CircleF
2278 1032 CircleF
2395 1122 CircleF
2039 1799 CircleF
2151 1885 CircleF
4275 3352 CircleF
4363 3420 CircleF
2543 1815 CircleF
2648 1896 CircleF
2189 2227 CircleF
2264 2285 CircleF
3447 2712 CircleF
3513 2762 CircleF
5441 434 CircleF
5539 510 CircleF
2392 1280 CircleF
2493 1358 CircleF
2533 2297 CircleF
2635 2375 CircleF
2886 1684 CircleF
2959 1739 CircleF
3748 924 CircleF
3833 989 CircleF
3362 3664 CircleF
3449 3730 CircleF
1462 4227 CircleF
1553 4297 CircleF
6345 802 CircleF
6407 849 CircleF
4723 1109 CircleF
4794 1164 CircleF
4707 1286 CircleF
4825 1376 CircleF
4744 1576 CircleF
4831 1643 CircleF
5671 2059 CircleF
5784 2145 CircleF
6564 792 CircleF
6656 863 CircleF
6541 3139 CircleF
6644 3218 CircleF
6082 2000 CircleF
6179 2075 CircleF
2543 3134 CircleF
2639 3209 CircleF
4332 2677 CircleF
4423 2746 CircleF
1405 4229 CircleF
1504 4305 CircleF
1117 4276 CircleF
1186 4329 CircleF
6678 4201 CircleF
6781 4280 CircleF
2374 2342 CircleF
2473 2418 CircleF
6029 3468 CircleF
6114 3534 CircleF
3577 3339 CircleF
3656 3400 CircleF
3102 4131 CircleF
3220 4221 CircleF
3753 643 CircleF
3851 719 CircleF
6496 1157 CircleF
6571 1214 CircleF
5060 1618 CircleF
5170 1703 CircleF
6017 1985 CircleF
6128 2071 CircleF
3419 3505 CircleF
3514 3577 CircleF
6188 4598 CircleF
6263 4656 CircleF
2999 1473 CircleF
3112 1560 CircleF
4966 1437 CircleF
5039 1493 CircleF
1288 4711 CircleF
1402 4799 CircleF
1487 3365 CircleF
1553 3416 CircleF
4590 3520 CircleF
4676 3586 CircleF
4124 1080 CircleF
4207 1144 CircleF
3031 2220 CircleF
3094 2269 CircleF
1986 1166 CircleF
2059 1221 CircleF
2652 4321 CircleF
2719 4372 CircleF
6810 1655 CircleF
6880 1709 CircleF
1733 1651 CircleF
1838 1731 CircleF
4003 2886 CircleF
4070 2937 CircleF
% End plot #2
1.000 UP
1.000 UL
LT0
0.50 0.50 0.50 C stroke
grestore
end
showpage
%%Trailer
%%DocumentFonts: Helvetica
%%Pages: 1
