%!PS-Adobe-2.0
%%Title: out.ps
%%Creator: gnuplot 4.6 patchlevel 6
%%CreationDate: Fri May 29 00:33:40 2015
%%DocumentFonts: (atend)
%%BoundingBox: 50 50 554 770
%%Orientation: Landscape
%%Pages: (atend)
%%EndComments
%%BeginProlog
/gnudict 256 dict def
gnudict begin
%
% The following true/false flags may be edited by hand if desired.
% The unit line width and grayscale image gamma correction may also be changed.
%
/Color false def
/Blacktext false def
/Solid false def
/Dashlength 1 def
/Landscape true def
/Level1 false def
/Rounded false def
/ClipToBoundingBox false def
/SuppressPDFMark false def
/TransparentPatterns false def
/gnulinewidth 5.000 def
/userlinewidth gnulinewidth def
/Gamma 1.0 def
/BackgroundColor {-1.000 -1.000 -1.000} def
%
/vshift -46 def
/dl1 {
  10.0 Dashlength mul mul
  Rounded { currentlinewidth 0.75 mul sub dup 0 le { pop 0.01 } if } if
} def
/dl2 {
  10.0 Dashlength mul mul
  Rounded { currentlinewidth 0.75 mul add } if
} def
/hpt_ 31.5 def
/vpt_ 31.5 def
/hpt hpt_ def
/vpt vpt_ def
/doclip {
  ClipToBoundingBox {
    newpath 50 50 moveto 554 50 lineto 554 770 lineto 50 770 lineto closepath
    clip
  } if
} def
%
% Gnuplot Prolog Version 4.6 (September 2012)
%
%/SuppressPDFMark true def
%
/M {moveto} bind def
/L {lineto} bind def
/R {rmoveto} bind def
/V {rlineto} bind def
/N {newpath moveto} bind def
/Z {closepath} bind def
/C {setrgbcolor} bind def
/f {rlineto fill} bind def
/g {setgray} bind def
/Gshow {show} def   % May be redefined later in the file to support UTF-8
/vpt2 vpt 2 mul def
/hpt2 hpt 2 mul def
/Lshow {currentpoint stroke M 0 vshift R 
	Blacktext {gsave 0 setgray show grestore} {show} ifelse} def
/Rshow {currentpoint stroke M dup stringwidth pop neg vshift R
	Blacktext {gsave 0 setgray show grestore} {show} ifelse} def
/Cshow {currentpoint stroke M dup stringwidth pop -2 div vshift R 
	Blacktext {gsave 0 setgray show grestore} {show} ifelse} def
/UP {dup vpt_ mul /vpt exch def hpt_ mul /hpt exch def
  /hpt2 hpt 2 mul def /vpt2 vpt 2 mul def} def
/DL {Color {setrgbcolor Solid {pop []} if 0 setdash}
 {pop pop pop 0 setgray Solid {pop []} if 0 setdash} ifelse} def
/BL {stroke userlinewidth 2 mul setlinewidth
	Rounded {1 setlinejoin 1 setlinecap} if} def
/AL {stroke userlinewidth 2 div setlinewidth
	Rounded {1 setlinejoin 1 setlinecap} if} def
/UL {dup gnulinewidth mul /userlinewidth exch def
	dup 1 lt {pop 1} if 10 mul /udl exch def} def
/PL {stroke userlinewidth setlinewidth
	Rounded {1 setlinejoin 1 setlinecap} if} def
3.8 setmiterlimit
% Default Line colors
/LCw {1 1 1} def
/LCb {0 0 0} def
/LCa {0 0 0} def
/LC0 {1 0 0} def
/LC1 {0 1 0} def
/LC2 {0 0 1} def
/LC3 {1 0 1} def
/LC4 {0 1 1} def
/LC5 {1 1 0} def
/LC6 {0 0 0} def
/LC7 {1 0.3 0} def
/LC8 {0.5 0.5 0.5} def
% Default Line Types
/LTw {PL [] 1 setgray} def
/LTb {BL [] LCb DL} def
/LTa {AL [1 udl mul 2 udl mul] 0 setdash LCa setrgbcolor} def
/LT0 {PL [] LC0 DL} def
/LT1 {PL [4 dl1 2 dl2] LC1 DL} def
/LT2 {PL [2 dl1 3 dl2] LC2 DL} def
/LT3 {PL [1 dl1 1.5 dl2] LC3 DL} def
/LT4 {PL [6 dl1 2 dl2 1 dl1 2 dl2] LC4 DL} def
/LT5 {PL [3 dl1 3 dl2 1 dl1 3 dl2] LC5 DL} def
/LT6 {PL [2 dl1 2 dl2 2 dl1 6 dl2] LC6 DL} def
/LT7 {PL [1 dl1 2 dl2 6 dl1 2 dl2 1 dl1 2 dl2] LC7 DL} def
/LT8 {PL [2 dl1 2 dl2 2 dl1 2 dl2 2 dl1 2 dl2 2 dl1 4 dl2] LC8 DL} def
/Pnt {stroke [] 0 setdash gsave 1 setlinecap M 0 0 V stroke grestore} def
/Dia {stroke [] 0 setdash 2 copy vpt add M
  hpt neg vpt neg V hpt vpt neg V
  hpt vpt V hpt neg vpt V closepath stroke
  Pnt} def
/Pls {stroke [] 0 setdash vpt sub M 0 vpt2 V
  currentpoint stroke M
  hpt neg vpt neg R hpt2 0 V stroke
 } def
/Box {stroke [] 0 setdash 2 copy exch hpt sub exch vpt add M
  0 vpt2 neg V hpt2 0 V 0 vpt2 V
  hpt2 neg 0 V closepath stroke
  Pnt} def
/Crs {stroke [] 0 setdash exch hpt sub exch vpt add M
  hpt2 vpt2 neg V currentpoint stroke M
  hpt2 neg 0 R hpt2 vpt2 V stroke} def
/TriU {stroke [] 0 setdash 2 copy vpt 1.12 mul add M
  hpt neg vpt -1.62 mul V
  hpt 2 mul 0 V
  hpt neg vpt 1.62 mul V closepath stroke
  Pnt} def
/Star {2 copy Pls Crs} def
/BoxF {stroke [] 0 setdash exch hpt sub exch vpt add M
  0 vpt2 neg V hpt2 0 V 0 vpt2 V
  hpt2 neg 0 V closepath fill} def
/TriUF {stroke [] 0 setdash vpt 1.12 mul add M
  hpt neg vpt -1.62 mul V
  hpt 2 mul 0 V
  hpt neg vpt 1.62 mul V closepath fill} def
/TriD {stroke [] 0 setdash 2 copy vpt 1.12 mul sub M
  hpt neg vpt 1.62 mul V
  hpt 2 mul 0 V
  hpt neg vpt -1.62 mul V closepath stroke
  Pnt} def
/TriDF {stroke [] 0 setdash vpt 1.12 mul sub M
  hpt neg vpt 1.62 mul V
  hpt 2 mul 0 V
  hpt neg vpt -1.62 mul V closepath fill} def
/DiaF {stroke [] 0 setdash vpt add M
  hpt neg vpt neg V hpt vpt neg V
  hpt vpt V hpt neg vpt V closepath fill} def
/Pent {stroke [] 0 setdash 2 copy gsave
  translate 0 hpt M 4 {72 rotate 0 hpt L} repeat
  closepath stroke grestore Pnt} def
/PentF {stroke [] 0 setdash gsave
  translate 0 hpt M 4 {72 rotate 0 hpt L} repeat
  closepath fill grestore} def
/Circle {stroke [] 0 setdash 2 copy
  hpt 0 360 arc stroke Pnt} def
/CircleF {stroke [] 0 setdash hpt 0 360 arc fill} def
/C0 {BL [] 0 setdash 2 copy moveto vpt 90 450 arc} bind def
/C1 {BL [] 0 setdash 2 copy moveto
	2 copy vpt 0 90 arc closepath fill
	vpt 0 360 arc closepath} bind def
/C2 {BL [] 0 setdash 2 copy moveto
	2 copy vpt 90 180 arc closepath fill
	vpt 0 360 arc closepath} bind def
/C3 {BL [] 0 setdash 2 copy moveto
	2 copy vpt 0 180 arc closepath fill
	vpt 0 360 arc closepath} bind def
/C4 {BL [] 0 setdash 2 copy moveto
	2 copy vpt 180 270 arc closepath fill
	vpt 0 360 arc closepath} bind def
/C5 {BL [] 0 setdash 2 copy moveto
	2 copy vpt 0 90 arc
	2 copy moveto
	2 copy vpt 180 270 arc closepath fill
	vpt 0 360 arc} bind def
/C6 {BL [] 0 setdash 2 copy moveto
	2 copy vpt 90 270 arc closepath fill
	vpt 0 360 arc closepath} bind def
/C7 {BL [] 0 setdash 2 copy moveto
	2 copy vpt 0 270 arc closepath fill
	vpt 0 360 arc closepath} bind def
/C8 {BL [] 0 setdash 2 copy moveto
	2 copy vpt 270 360 arc closepath fill
	vpt 0 360 arc closepath} bind def
/C9 {BL [] 0 setdash 2 copy moveto
	2 copy vpt 270 450 arc closepath fill
	vpt 0 360 arc closepath} bind def
/C10 {BL [] 0 setdash 2 copy 2 copy moveto vpt 270 360 arc closepath fill
	2 copy moveto
	2 copy vpt 90 180 arc closepath fill
	vpt 0 360 arc closepath} bind def
/C11 {BL [] 0 setdash 2 copy moveto
	2 copy vpt 0 180 arc closepath fill
	2 copy moveto
	2 copy vpt 270 360 arc closepath fill
	vpt 0 360 arc closepath} bind def
/C12 {BL [] 0 setdash 2 copy moveto
	2 copy vpt 180 360 arc closepath fill
	vpt 0 360 arc closepath} bind def
/C13 {BL [] 0 setdash 2 copy moveto
	2 copy vpt 0 90 arc closepath fill
	2 copy moveto
	2 copy vpt 180 360 arc closepath fill
	vpt 0 360 arc closepath} bind def
/C14 {BL [] 0 setdash 2 copy moveto
	2 copy vpt 90 360 arc closepath fill
	vpt 0 360 arc} bind def
/C15 {BL [] 0 setdash 2 copy vpt 0 360 arc closepath fill
	vpt 0 360 arc closepath} bind def
/Rec {newpath 4 2 roll moveto 1 index 0 rlineto 0 exch rlineto
	neg 0 rlineto closepath} bind def
/Square {dup Rec} bind def
/Bsquare {vpt sub exch vpt sub exch vpt2 Square} bind def
/S0 {BL [] 0 setdash 2 copy moveto 0 vpt rlineto BL Bsquare} bind def
/S1 {BL [] 0 setdash 2 copy vpt Square fill Bsquare} bind def
/S2 {BL [] 0 setdash 2 copy exch vpt sub exch vpt Square fill Bsquare} bind def
/S3 {BL [] 0 setdash 2 copy exch vpt sub exch vpt2 vpt Rec fill Bsquare} bind def
/S4 {BL [] 0 setdash 2 copy exch vpt sub exch vpt sub vpt Square fill Bsquare} bind def
/S5 {BL [] 0 setdash 2 copy 2 copy vpt Square fill
	exch vpt sub exch vpt sub vpt Square fill Bsquare} bind def
/S6 {BL [] 0 setdash 2 copy exch vpt sub exch vpt sub vpt vpt2 Rec fill Bsquare} bind def
/S7 {BL [] 0 setdash 2 copy exch vpt sub exch vpt sub vpt vpt2 Rec fill
	2 copy vpt Square fill Bsquare} bind def
/S8 {BL [] 0 setdash 2 copy vpt sub vpt Square fill Bsquare} bind def
/S9 {BL [] 0 setdash 2 copy vpt sub vpt vpt2 Rec fill Bsquare} bind def
/S10 {BL [] 0 setdash 2 copy vpt sub vpt Square fill 2 copy exch vpt sub exch vpt Square fill
	Bsquare} bind def
/S11 {BL [] 0 setdash 2 copy vpt sub vpt Square fill 2 copy exch vpt sub exch vpt2 vpt Rec fill
	Bsquare} bind def
/S12 {BL [] 0 setdash 2 copy exch vpt sub exch vpt sub vpt2 vpt Rec fill Bsquare} bind def
/S13 {BL [] 0 setdash 2 copy exch vpt sub exch vpt sub vpt2 vpt Rec fill
	2 copy vpt Square fill Bsquare} bind def
/S14 {BL [] 0 setdash 2 copy exch vpt sub exch vpt sub vpt2 vpt Rec fill
	2 copy exch vpt sub exch vpt Square fill Bsquare} bind def
/S15 {BL [] 0 setdash 2 copy Bsquare fill Bsquare} bind def
/D0 {gsave translate 45 rotate 0 0 S0 stroke grestore} bind def
/D1 {gsave translate 45 rotate 0 0 S1 stroke grestore} bind def
/D2 {gsave translate 45 rotate 0 0 S2 stroke grestore} bind def
/D3 {gsave translate 45 rotate 0 0 S3 stroke grestore} bind def
/D4 {gsave translate 45 rotate 0 0 S4 stroke grestore} bind def
/D5 {gsave translate 45 rotate 0 0 S5 stroke grestore} bind def
/D6 {gsave translate 45 rotate 0 0 S6 stroke grestore} bind def
/D7 {gsave translate 45 rotate 0 0 S7 stroke grestore} bind def
/D8 {gsave translate 45 rotate 0 0 S8 stroke grestore} bind def
/D9 {gsave translate 45 rotate 0 0 S9 stroke grestore} bind def
/D10 {gsave translate 45 rotate 0 0 S10 stroke grestore} bind def
/D11 {gsave translate 45 rotate 0 0 S11 stroke grestore} bind def
/D12 {gsave translate 45 rotate 0 0 S12 stroke grestore} bind def
/D13 {gsave translate 45 rotate 0 0 S13 stroke grestore} bind def
/D14 {gsave translate 45 rotate 0 0 S14 stroke grestore} bind def
/D15 {gsave translate 45 rotate 0 0 S15 stroke grestore} bind def
/DiaE {stroke [] 0 setdash vpt add M
  hpt neg vpt neg V hpt vpt neg V
  hpt vpt V hpt neg vpt V closepath stroke} def
/BoxE {stroke [] 0 setdash exch hpt sub exch vpt add M
  0 vpt2 neg V hpt2 0 V 0 vpt2 V
  hpt2 neg 0 V closepath stroke} def
/TriUE {stroke [] 0 setdash vpt 1.12 mul add M
  hpt neg vpt -1.62 mul V
  hpt 2 mul 0 V
  hpt neg vpt 1.62 mul V closepath stroke} def
/TriDE {stroke [] 0 setdash vpt 1.12 mul sub M
  hpt neg vpt 1.62 mul V
  hpt 2 mul 0 V
  hpt neg vpt -1.62 mul V closepath stroke} def
/PentE {stroke [] 0 setdash gsave
  translate 0 hpt M 4 {72 rotate 0 hpt L} repeat
  closepath stroke grestore} def
/CircE {stroke [] 0 setdash 
  hpt 0 360 arc stroke} def
/Opaque {gsave closepath 1 setgray fill grestore 0 setgray closepath} def
/DiaW {stroke [] 0 setdash vpt add M
  hpt neg vpt neg V hpt vpt neg V
  hpt vpt V hpt neg vpt V Opaque stroke} def
/BoxW {stroke [] 0 setdash exch hpt sub exch vpt add M
  0 vpt2 neg V hpt2 0 V 0 vpt2 V
  hpt2 neg 0 V Opaque stroke} def
/TriUW {stroke [] 0 setdash vpt 1.12 mul add M
  hpt neg vpt -1.62 mul V
  hpt 2 mul 0 V
  hpt neg vpt 1.62 mul V Opaque stroke} def
/TriDW {stroke [] 0 setdash vpt 1.12 mul sub M
  hpt neg vpt 1.62 mul V
  hpt 2 mul 0 V
  hpt neg vpt -1.62 mul V Opaque stroke} def
/PentW {stroke [] 0 setdash gsave
  translate 0 hpt M 4 {72 rotate 0 hpt L} repeat
  Opaque stroke grestore} def
/CircW {stroke [] 0 setdash 
  hpt 0 360 arc Opaque stroke} def
/BoxFill {gsave Rec 1 setgray fill grestore} def
/Density {
  /Fillden exch def
  currentrgbcolor
  /ColB exch def /ColG exch def /ColR exch def
  /ColR ColR Fillden mul Fillden sub 1 add def
  /ColG ColG Fillden mul Fillden sub 1 add def
  /ColB ColB Fillden mul Fillden sub 1 add def
  ColR ColG ColB setrgbcolor} def
/BoxColFill {gsave Rec PolyFill} def
/PolyFill {gsave Density fill grestore grestore} def
/h {rlineto rlineto rlineto gsave closepath fill grestore} bind def
%
% PostScript Level 1 Pattern Fill routine for rectangles
% Usage: x y w h s a XX PatternFill
%	x,y = lower left corner of box to be filled
%	w,h = width and height of box
%	  a = angle in degrees between lines and x-axis
%	 XX = 0/1 for no/yes cross-hatch
%
/PatternFill {gsave /PFa [ 9 2 roll ] def
  PFa 0 get PFa 2 get 2 div add PFa 1 get PFa 3 get 2 div add translate
  PFa 2 get -2 div PFa 3 get -2 div PFa 2 get PFa 3 get Rec
  TransparentPatterns {} {gsave 1 setgray fill grestore} ifelse
  clip
  currentlinewidth 0.5 mul setlinewidth
  /PFs PFa 2 get dup mul PFa 3 get dup mul add sqrt def
  0 0 M PFa 5 get rotate PFs -2 div dup translate
  0 1 PFs PFa 4 get div 1 add floor cvi
	{PFa 4 get mul 0 M 0 PFs V} for
  0 PFa 6 get ne {
	0 1 PFs PFa 4 get div 1 add floor cvi
	{PFa 4 get mul 0 2 1 roll M PFs 0 V} for
 } if
  stroke grestore} def
%
/languagelevel where
 {pop languagelevel} {1} ifelse
 2 lt
	{/InterpretLevel1 true def}
	{/InterpretLevel1 Level1 def}
 ifelse
%
% PostScript level 2 pattern fill definitions
%
/Level2PatternFill {
/Tile8x8 {/PaintType 2 /PatternType 1 /TilingType 1 /BBox [0 0 8 8] /XStep 8 /YStep 8}
	bind def
/KeepColor {currentrgbcolor [/Pattern /DeviceRGB] setcolorspace} bind def
<< Tile8x8
 /PaintProc {0.5 setlinewidth pop 0 0 M 8 8 L 0 8 M 8 0 L stroke} 
>> matrix makepattern
/Pat1 exch def
<< Tile8x8
 /PaintProc {0.5 setlinewidth pop 0 0 M 8 8 L 0 8 M 8 0 L stroke
	0 4 M 4 8 L 8 4 L 4 0 L 0 4 L stroke}
>> matrix makepattern
/Pat2 exch def
<< Tile8x8
 /PaintProc {0.5 setlinewidth pop 0 0 M 0 8 L
	8 8 L 8 0 L 0 0 L fill}
>> matrix makepattern
/Pat3 exch def
<< Tile8x8
 /PaintProc {0.5 setlinewidth pop -4 8 M 8 -4 L
	0 12 M 12 0 L stroke}
>> matrix makepattern
/Pat4 exch def
<< Tile8x8
 /PaintProc {0.5 setlinewidth pop -4 0 M 8 12 L
	0 -4 M 12 8 L stroke}
>> matrix makepattern
/Pat5 exch def
<< Tile8x8
 /PaintProc {0.5 setlinewidth pop -2 8 M 4 -4 L
	0 12 M 8 -4 L 4 12 M 10 0 L stroke}
>> matrix makepattern
/Pat6 exch def
<< Tile8x8
 /PaintProc {0.5 setlinewidth pop -2 0 M 4 12 L
	0 -4 M 8 12 L 4 -4 M 10 8 L stroke}
>> matrix makepattern
/Pat7 exch def
<< Tile8x8
 /PaintProc {0.5 setlinewidth pop 8 -2 M -4 4 L
	12 0 M -4 8 L 12 4 M 0 10 L stroke}
>> matrix makepattern
/Pat8 exch def
<< Tile8x8
 /PaintProc {0.5 setlinewidth pop 0 -2 M 12 4 L
	-4 0 M 12 8 L -4 4 M 8 10 L stroke}
>> matrix makepattern
/Pat9 exch def
/Pattern1 {PatternBgnd KeepColor Pat1 setpattern} bind def
/Pattern2 {PatternBgnd KeepColor Pat2 setpattern} bind def
/Pattern3 {PatternBgnd KeepColor Pat3 setpattern} bind def
/Pattern4 {PatternBgnd KeepColor Landscape {Pat5} {Pat4} ifelse setpattern} bind def
/Pattern5 {PatternBgnd KeepColor Landscape {Pat4} {Pat5} ifelse setpattern} bind def
/Pattern6 {PatternBgnd KeepColor Landscape {Pat9} {Pat6} ifelse setpattern} bind def
/Pattern7 {PatternBgnd KeepColor Landscape {Pat8} {Pat7} ifelse setpattern} bind def
} def
%
%
%End of PostScript Level 2 code
%
/PatternBgnd {
  TransparentPatterns {} {gsave 1 setgray fill grestore} ifelse
} def
%
% Substitute for Level 2 pattern fill codes with
% grayscale if Level 2 support is not selected.
%
/Level1PatternFill {
/Pattern1 {0.250 Density} bind def
/Pattern2 {0.500 Density} bind def
/Pattern3 {0.750 Density} bind def
/Pattern4 {0.125 Density} bind def
/Pattern5 {0.375 Density} bind def
/Pattern6 {0.625 Density} bind def
/Pattern7 {0.875 Density} bind def
} def
%
% Now test for support of Level 2 code
%
Level1 {Level1PatternFill} {Level2PatternFill} ifelse
%
/Symbol-Oblique /Symbol findfont [1 0 .167 1 0 0] makefont
dup length dict begin {1 index /FID eq {pop pop} {def} ifelse} forall
currentdict end definefont pop
Level1 SuppressPDFMark or 
{} {
/SDict 10 dict def
systemdict /pdfmark known not {
  userdict /pdfmark systemdict /cleartomark get put
} if
SDict begin [
  /Title (out.ps)
  /Subject (gnuplot plot)
  /Creator (gnuplot 4.6 patchlevel 6)
  /Author (yani)
%  /Producer (gnuplot)
%  /Keywords ()
  /CreationDate (Fri May 29 00:33:40 2015)
  /DOCINFO pdfmark
end
} ifelse
end
%%EndProlog
%%Page: 1 1
gnudict begin
gsave
doclip
50 50 translate
0.100 0.100 scale
90 rotate
0 -5040 translate
0 setgray
newpath
(Helvetica) findfont 140 scalefont setfont
BackgroundColor 0 lt 3 1 roll 0 lt exch 0 lt or or not {gsave BackgroundColor C clippath fill grestore} if
1.000 UL
LT0
0.50 0.50 0.50 C 1.000 UL
LTa
0.50 0.50 0.50 C 966 280 M
5981 0 V
stroke
LT0
0.50 0.50 0.50 C 966 280 M
63 0 V
5918 0 R
-63 0 V
882 280 M
( 0) Rshow
1.000 UL
LT0
0.50 0.50 0.50 C 1.000 UL
LTa
0.50 0.50 0.50 C 966 372 M
5981 0 V
stroke
LT0
0.50 0.50 0.50 C 966 372 M
63 0 V
5918 0 R
-63 0 V
882 372 M
( 0.707106) Rshow
1.000 UL
LT0
0.50 0.50 0.50 C 1.000 UL
LTa
0.50 0.50 0.50 C 966 464 M
5981 0 V
stroke
LT0
0.50 0.50 0.50 C 966 464 M
63 0 V
5918 0 R
-63 0 V
882 464 M
( 1.41421) Rshow
1.000 UL
LT0
0.50 0.50 0.50 C 1.000 UL
LTa
0.50 0.50 0.50 C 966 555 M
5981 0 V
stroke
LT0
0.50 0.50 0.50 C 966 555 M
63 0 V
5918 0 R
-63 0 V
882 555 M
( 2.12132) Rshow
1.000 UL
LT0
0.50 0.50 0.50 C 1.000 UL
LTa
0.50 0.50 0.50 C 966 647 M
5981 0 V
stroke
LT0
0.50 0.50 0.50 C 966 647 M
63 0 V
5918 0 R
-63 0 V
882 647 M
( 2.82842) Rshow
1.000 UL
LT0
0.50 0.50 0.50 C 1.000 UL
LTa
0.50 0.50 0.50 C 966 739 M
5981 0 V
stroke
LT0
0.50 0.50 0.50 C 966 739 M
63 0 V
5918 0 R
-63 0 V
882 739 M
( 3.53553) Rshow
1.000 UL
LT0
0.50 0.50 0.50 C 1.000 UL
LTa
0.50 0.50 0.50 C 966 831 M
5981 0 V
stroke
LT0
0.50 0.50 0.50 C 966 831 M
63 0 V
5918 0 R
-63 0 V
882 831 M
( 4.24264) Rshow
1.000 UL
LT0
0.50 0.50 0.50 C 1.000 UL
LTa
0.50 0.50 0.50 C 966 923 M
5981 0 V
stroke
LT0
0.50 0.50 0.50 C 966 923 M
63 0 V
5918 0 R
-63 0 V
882 923 M
( 4.94974) Rshow
1.000 UL
LT0
0.50 0.50 0.50 C 1.000 UL
LTa
0.50 0.50 0.50 C 966 1015 M
5981 0 V
stroke
LT0
0.50 0.50 0.50 C 966 1015 M
63 0 V
5918 0 R
-63 0 V
-6002 0 R
( 5.65685) Rshow
1.000 UL
LT0
0.50 0.50 0.50 C 1.000 UL
LTa
0.50 0.50 0.50 C 966 1106 M
5981 0 V
stroke
LT0
0.50 0.50 0.50 C 966 1106 M
63 0 V
5918 0 R
-63 0 V
-6002 0 R
( 6.36395) Rshow
1.000 UL
LT0
0.50 0.50 0.50 C 1.000 UL
LTa
0.50 0.50 0.50 C 966 1198 M
5981 0 V
stroke
LT0
0.50 0.50 0.50 C 966 1198 M
63 0 V
5918 0 R
-63 0 V
-6002 0 R
( 7.07106) Rshow
1.000 UL
LT0
0.50 0.50 0.50 C 1.000 UL
LTa
0.50 0.50 0.50 C 966 1290 M
5981 0 V
stroke
LT0
0.50 0.50 0.50 C 966 1290 M
63 0 V
5918 0 R
-63 0 V
-6002 0 R
( 7.77817) Rshow
1.000 UL
LT0
0.50 0.50 0.50 C 1.000 UL
LTa
0.50 0.50 0.50 C 966 1382 M
5981 0 V
stroke
LT0
0.50 0.50 0.50 C 966 1382 M
63 0 V
5918 0 R
-63 0 V
-6002 0 R
( 8.48527) Rshow
1.000 UL
LT0
0.50 0.50 0.50 C 1.000 UL
LTa
0.50 0.50 0.50 C 966 1474 M
5981 0 V
stroke
LT0
0.50 0.50 0.50 C 966 1474 M
63 0 V
5918 0 R
-63 0 V
-6002 0 R
( 9.19238) Rshow
1.000 UL
LT0
0.50 0.50 0.50 C 1.000 UL
LTa
0.50 0.50 0.50 C 966 1565 M
5981 0 V
stroke
LT0
0.50 0.50 0.50 C 966 1565 M
63 0 V
5918 0 R
-63 0 V
-6002 0 R
( 9.89948) Rshow
1.000 UL
LT0
0.50 0.50 0.50 C 1.000 UL
LTa
0.50 0.50 0.50 C 966 1657 M
5981 0 V
stroke
LT0
0.50 0.50 0.50 C 966 1657 M
63 0 V
5918 0 R
-63 0 V
-6002 0 R
( 10.6066) Rshow
1.000 UL
LT0
0.50 0.50 0.50 C 1.000 UL
LTa
0.50 0.50 0.50 C 966 1749 M
5981 0 V
stroke
LT0
0.50 0.50 0.50 C 966 1749 M
63 0 V
5918 0 R
-63 0 V
-6002 0 R
( 11.3137) Rshow
1.000 UL
LT0
0.50 0.50 0.50 C 1.000 UL
LTa
0.50 0.50 0.50 C 966 1841 M
5981 0 V
stroke
LT0
0.50 0.50 0.50 C 966 1841 M
63 0 V
5918 0 R
-63 0 V
-6002 0 R
( 12.0208) Rshow
1.000 UL
LT0
0.50 0.50 0.50 C 1.000 UL
LTa
0.50 0.50 0.50 C 966 1933 M
5981 0 V
stroke
LT0
0.50 0.50 0.50 C 966 1933 M
63 0 V
5918 0 R
-63 0 V
-6002 0 R
( 12.7279) Rshow
1.000 UL
LT0
0.50 0.50 0.50 C 1.000 UL
LTa
0.50 0.50 0.50 C 966 2025 M
5981 0 V
stroke
LT0
0.50 0.50 0.50 C 966 2025 M
63 0 V
5918 0 R
-63 0 V
-6002 0 R
( 13.435) Rshow
1.000 UL
LT0
0.50 0.50 0.50 C 1.000 UL
LTa
0.50 0.50 0.50 C 966 2116 M
5981 0 V
stroke
LT0
0.50 0.50 0.50 C 966 2116 M
63 0 V
5918 0 R
-63 0 V
-6002 0 R
( 14.1421) Rshow
1.000 UL
LT0
0.50 0.50 0.50 C 1.000 UL
LTa
0.50 0.50 0.50 C 966 2208 M
5981 0 V
stroke
LT0
0.50 0.50 0.50 C 966 2208 M
63 0 V
5918 0 R
-63 0 V
-6002 0 R
( 14.8492) Rshow
1.000 UL
LT0
0.50 0.50 0.50 C 1.000 UL
LTa
0.50 0.50 0.50 C 966 2300 M
5981 0 V
stroke
LT0
0.50 0.50 0.50 C 966 2300 M
63 0 V
5918 0 R
-63 0 V
-6002 0 R
( 15.5563) Rshow
1.000 UL
LT0
0.50 0.50 0.50 C 1.000 UL
LTa
0.50 0.50 0.50 C 966 2392 M
5981 0 V
stroke
LT0
0.50 0.50 0.50 C 966 2392 M
63 0 V
5918 0 R
-63 0 V
-6002 0 R
( 16.2634) Rshow
1.000 UL
LT0
0.50 0.50 0.50 C 1.000 UL
LTa
0.50 0.50 0.50 C 966 2484 M
5981 0 V
stroke
LT0
0.50 0.50 0.50 C 966 2484 M
63 0 V
5918 0 R
-63 0 V
-6002 0 R
( 16.9705) Rshow
1.000 UL
LT0
0.50 0.50 0.50 C 1.000 UL
LTa
0.50 0.50 0.50 C 966 2575 M
5981 0 V
stroke
LT0
0.50 0.50 0.50 C 966 2575 M
63 0 V
5918 0 R
-63 0 V
-6002 0 R
( 17.6776) Rshow
1.000 UL
LT0
0.50 0.50 0.50 C 1.000 UL
LTa
0.50 0.50 0.50 C 966 2667 M
5981 0 V
stroke
LT0
0.50 0.50 0.50 C 966 2667 M
63 0 V
5918 0 R
-63 0 V
-6002 0 R
( 18.3848) Rshow
1.000 UL
LT0
0.50 0.50 0.50 C 1.000 UL
LTa
0.50 0.50 0.50 C 966 2759 M
5981 0 V
stroke
LT0
0.50 0.50 0.50 C 966 2759 M
63 0 V
5918 0 R
-63 0 V
-6002 0 R
( 19.0919) Rshow
1.000 UL
LT0
0.50 0.50 0.50 C 1.000 UL
LTa
0.50 0.50 0.50 C 966 2851 M
5981 0 V
stroke
LT0
0.50 0.50 0.50 C 966 2851 M
63 0 V
5918 0 R
-63 0 V
-6002 0 R
( 19.799) Rshow
1.000 UL
LT0
0.50 0.50 0.50 C 1.000 UL
LTa
0.50 0.50 0.50 C 966 2943 M
5981 0 V
stroke
LT0
0.50 0.50 0.50 C 966 2943 M
63 0 V
5918 0 R
-63 0 V
-6002 0 R
( 20.5061) Rshow
1.000 UL
LT0
0.50 0.50 0.50 C 1.000 UL
LTa
0.50 0.50 0.50 C 966 3035 M
5981 0 V
stroke
LT0
0.50 0.50 0.50 C 966 3035 M
63 0 V
5918 0 R
-63 0 V
-6002 0 R
( 21.2132) Rshow
1.000 UL
LT0
0.50 0.50 0.50 C 1.000 UL
LTa
0.50 0.50 0.50 C 966 3126 M
5981 0 V
stroke
LT0
0.50 0.50 0.50 C 966 3126 M
63 0 V
5918 0 R
-63 0 V
-6002 0 R
( 21.9203) Rshow
1.000 UL
LT0
0.50 0.50 0.50 C 1.000 UL
LTa
0.50 0.50 0.50 C 966 3218 M
5981 0 V
stroke
LT0
0.50 0.50 0.50 C 966 3218 M
63 0 V
5918 0 R
-63 0 V
-6002 0 R
( 22.6274) Rshow
1.000 UL
LT0
0.50 0.50 0.50 C 1.000 UL
LTa
0.50 0.50 0.50 C 966 3310 M
5981 0 V
stroke
LT0
0.50 0.50 0.50 C 966 3310 M
63 0 V
5918 0 R
-63 0 V
-6002 0 R
( 23.3345) Rshow
1.000 UL
LT0
0.50 0.50 0.50 C 1.000 UL
LTa
0.50 0.50 0.50 C 966 3402 M
5981 0 V
stroke
LT0
0.50 0.50 0.50 C 966 3402 M
63 0 V
5918 0 R
-63 0 V
-6002 0 R
( 24.0416) Rshow
1.000 UL
LT0
0.50 0.50 0.50 C 1.000 UL
LTa
0.50 0.50 0.50 C 966 3494 M
5981 0 V
stroke
LT0
0.50 0.50 0.50 C 966 3494 M
63 0 V
5918 0 R
-63 0 V
-6002 0 R
( 24.7487) Rshow
1.000 UL
LT0
0.50 0.50 0.50 C 1.000 UL
LTa
0.50 0.50 0.50 C 966 3586 M
5981 0 V
stroke
LT0
0.50 0.50 0.50 C 966 3586 M
63 0 V
5918 0 R
-63 0 V
-6002 0 R
( 25.4558) Rshow
1.000 UL
LT0
0.50 0.50 0.50 C 1.000 UL
LTa
0.50 0.50 0.50 C 966 3677 M
5981 0 V
stroke
LT0
0.50 0.50 0.50 C 966 3677 M
63 0 V
5918 0 R
-63 0 V
-6002 0 R
( 26.1629) Rshow
1.000 UL
LT0
0.50 0.50 0.50 C 1.000 UL
LTa
0.50 0.50 0.50 C 966 3769 M
5981 0 V
stroke
LT0
0.50 0.50 0.50 C 966 3769 M
63 0 V
5918 0 R
-63 0 V
-6002 0 R
( 26.87) Rshow
1.000 UL
LT0
0.50 0.50 0.50 C 1.000 UL
LTa
0.50 0.50 0.50 C 966 3861 M
5981 0 V
stroke
LT0
0.50 0.50 0.50 C 966 3861 M
63 0 V
5918 0 R
-63 0 V
-6002 0 R
( 27.5771) Rshow
1.000 UL
LT0
0.50 0.50 0.50 C 1.000 UL
LTa
0.50 0.50 0.50 C 966 3953 M
5981 0 V
stroke
LT0
0.50 0.50 0.50 C 966 3953 M
63 0 V
5918 0 R
-63 0 V
-6002 0 R
( 28.2842) Rshow
1.000 UL
LT0
0.50 0.50 0.50 C 1.000 UL
LTa
0.50 0.50 0.50 C 966 4045 M
5981 0 V
stroke
LT0
0.50 0.50 0.50 C 966 4045 M
63 0 V
5918 0 R
-63 0 V
-6002 0 R
( 28.9913) Rshow
1.000 UL
LT0
0.50 0.50 0.50 C 1.000 UL
LTa
0.50 0.50 0.50 C 966 4136 M
5981 0 V
stroke
LT0
0.50 0.50 0.50 C 966 4136 M
63 0 V
5918 0 R
-63 0 V
-6002 0 R
( 29.6985) Rshow
1.000 UL
LT0
0.50 0.50 0.50 C 1.000 UL
LTa
0.50 0.50 0.50 C 966 4228 M
5981 0 V
stroke
LT0
0.50 0.50 0.50 C 966 4228 M
63 0 V
5918 0 R
-63 0 V
-6002 0 R
( 30.4056) Rshow
1.000 UL
LT0
0.50 0.50 0.50 C 1.000 UL
LTa
0.50 0.50 0.50 C 966 4320 M
5981 0 V
stroke
LT0
0.50 0.50 0.50 C 966 4320 M
63 0 V
5918 0 R
-63 0 V
-6002 0 R
( 31.1127) Rshow
1.000 UL
LT0
0.50 0.50 0.50 C 1.000 UL
LTa
0.50 0.50 0.50 C 966 4412 M
5981 0 V
stroke
LT0
0.50 0.50 0.50 C 966 4412 M
63 0 V
5918 0 R
-63 0 V
-6002 0 R
( 31.8198) Rshow
1.000 UL
LT0
0.50 0.50 0.50 C 1.000 UL
LTa
0.50 0.50 0.50 C 966 4504 M
5981 0 V
stroke
LT0
0.50 0.50 0.50 C 966 4504 M
63 0 V
5918 0 R
-63 0 V
-6002 0 R
( 32.5269) Rshow
1.000 UL
LT0
0.50 0.50 0.50 C 1.000 UL
LTa
0.50 0.50 0.50 C 966 4596 M
5981 0 V
stroke
LT0
0.50 0.50 0.50 C 966 4596 M
63 0 V
5918 0 R
-63 0 V
-6002 0 R
( 33.234) Rshow
1.000 UL
LT0
0.50 0.50 0.50 C 1.000 UL
LTa
0.50 0.50 0.50 C 966 4687 M
5981 0 V
stroke
LT0
0.50 0.50 0.50 C 966 4687 M
63 0 V
5918 0 R
-63 0 V
-6002 0 R
( 33.9411) Rshow
1.000 UL
LT0
0.50 0.50 0.50 C 1.000 UL
LTa
0.50 0.50 0.50 C 966 4779 M
5981 0 V
stroke
LT0
0.50 0.50 0.50 C 966 4779 M
63 0 V
5918 0 R
-63 0 V
-6002 0 R
( 34.6482) Rshow
1.000 UL
LT0
0.50 0.50 0.50 C 1.000 UL
LTa
0.50 0.50 0.50 C 966 4871 M
5981 0 V
stroke
LT0
0.50 0.50 0.50 C 966 4871 M
63 0 V
5918 0 R
-63 0 V
-6002 0 R
( 35.3553) Rshow
1.000 UL
LT0
0.50 0.50 0.50 C 1.000 UL
LTa
0.50 0.50 0.50 C 966 280 M
0 4591 V
stroke
LT0
0.50 0.50 0.50 C 966 280 M
0 63 V
0 4528 R
0 -63 V
966 140 M
( 0) Cshow
1.000 UL
LT0
0.50 0.50 0.50 C 1.000 UL
LTa
0.50 0.50 0.50 C 1086 280 M
0 4591 V
stroke
LT0
0.50 0.50 0.50 C 1086 280 M
0 63 V
0 4528 R
0 -63 V
0 -4668 R
( 0.707106) Cshow
1.000 UL
LT0
0.50 0.50 0.50 C 1.000 UL
LTa
0.50 0.50 0.50 C 1205 280 M
0 4591 V
stroke
LT0
0.50 0.50 0.50 C 1205 280 M
0 63 V
0 4528 R
0 -63 V
0 -4668 R
( 1.41421) Cshow
1.000 UL
LT0
0.50 0.50 0.50 C 1.000 UL
LTa
0.50 0.50 0.50 C 1325 280 M
0 4591 V
stroke
LT0
0.50 0.50 0.50 C 1325 280 M
0 63 V
0 4528 R
0 -63 V
0 -4668 R
( 2.12132) Cshow
1.000 UL
LT0
0.50 0.50 0.50 C 1.000 UL
LTa
0.50 0.50 0.50 C 1444 280 M
0 4591 V
stroke
LT0
0.50 0.50 0.50 C 1444 280 M
0 63 V
0 4528 R
0 -63 V
0 -4668 R
( 2.82842) Cshow
1.000 UL
LT0
0.50 0.50 0.50 C 1.000 UL
LTa
0.50 0.50 0.50 C 1564 280 M
0 4591 V
stroke
LT0
0.50 0.50 0.50 C 1564 280 M
0 63 V
0 4528 R
0 -63 V
0 -4668 R
( 3.53553) Cshow
1.000 UL
LT0
0.50 0.50 0.50 C 1.000 UL
LTa
0.50 0.50 0.50 C 1684 280 M
0 4591 V
stroke
LT0
0.50 0.50 0.50 C 1684 280 M
0 63 V
0 4528 R
0 -63 V
0 -4668 R
( 4.24264) Cshow
1.000 UL
LT0
0.50 0.50 0.50 C 1.000 UL
LTa
0.50 0.50 0.50 C 1803 280 M
0 4591 V
stroke
LT0
0.50 0.50 0.50 C 1803 280 M
0 63 V
0 4528 R
0 -63 V
0 -4668 R
( 4.94974) Cshow
1.000 UL
LT0
0.50 0.50 0.50 C 1.000 UL
LTa
0.50 0.50 0.50 C 1923 280 M
0 4591 V
stroke
LT0
0.50 0.50 0.50 C 1923 280 M
0 63 V
0 4528 R
0 -63 V
0 -4668 R
( 5.65685) Cshow
1.000 UL
LT0
0.50 0.50 0.50 C 1.000 UL
LTa
0.50 0.50 0.50 C 2043 280 M
0 4591 V
stroke
LT0
0.50 0.50 0.50 C 2043 280 M
0 63 V
0 4528 R
0 -63 V
0 -4668 R
( 6.36395) Cshow
1.000 UL
LT0
0.50 0.50 0.50 C 1.000 UL
LTa
0.50 0.50 0.50 C 2162 280 M
0 4591 V
stroke
LT0
0.50 0.50 0.50 C 2162 280 M
0 63 V
0 4528 R
0 -63 V
0 -4668 R
( 7.07106) Cshow
1.000 UL
LT0
0.50 0.50 0.50 C 1.000 UL
LTa
0.50 0.50 0.50 C 2282 280 M
0 4591 V
stroke
LT0
0.50 0.50 0.50 C 2282 280 M
0 63 V
0 4528 R
0 -63 V
0 -4668 R
( 7.77817) Cshow
1.000 UL
LT0
0.50 0.50 0.50 C 1.000 UL
LTa
0.50 0.50 0.50 C 2401 280 M
0 4591 V
stroke
LT0
0.50 0.50 0.50 C 2401 280 M
0 63 V
0 4528 R
0 -63 V
0 -4668 R
( 8.48527) Cshow
1.000 UL
LT0
0.50 0.50 0.50 C 1.000 UL
LTa
0.50 0.50 0.50 C 2521 280 M
0 4591 V
stroke
LT0
0.50 0.50 0.50 C 2521 280 M
0 63 V
0 4528 R
0 -63 V
0 -4668 R
( 9.19238) Cshow
1.000 UL
LT0
0.50 0.50 0.50 C 1.000 UL
LTa
0.50 0.50 0.50 C 2641 280 M
0 4591 V
stroke
LT0
0.50 0.50 0.50 C 2641 280 M
0 63 V
0 4528 R
0 -63 V
0 -4668 R
( 9.89948) Cshow
1.000 UL
LT0
0.50 0.50 0.50 C 1.000 UL
LTa
0.50 0.50 0.50 C 2760 280 M
0 4591 V
stroke
LT0
0.50 0.50 0.50 C 2760 280 M
0 63 V
0 4528 R
0 -63 V
0 -4668 R
( 10.6066) Cshow
1.000 UL
LT0
0.50 0.50 0.50 C 1.000 UL
LTa
0.50 0.50 0.50 C 2880 280 M
0 4591 V
stroke
LT0
0.50 0.50 0.50 C 2880 280 M
0 63 V
0 4528 R
0 -63 V
0 -4668 R
( 11.3137) Cshow
1.000 UL
LT0
0.50 0.50 0.50 C 1.000 UL
LTa
0.50 0.50 0.50 C 3000 280 M
0 4591 V
stroke
LT0
0.50 0.50 0.50 C 3000 280 M
0 63 V
0 4528 R
0 -63 V
0 -4668 R
( 12.0208) Cshow
1.000 UL
LT0
0.50 0.50 0.50 C 1.000 UL
LTa
0.50 0.50 0.50 C 3119 280 M
0 4591 V
stroke
LT0
0.50 0.50 0.50 C 3119 280 M
0 63 V
0 4528 R
0 -63 V
0 -4668 R
( 12.7279) Cshow
1.000 UL
LT0
0.50 0.50 0.50 C 1.000 UL
LTa
0.50 0.50 0.50 C 3239 280 M
0 4591 V
stroke
LT0
0.50 0.50 0.50 C 3239 280 M
0 63 V
0 4528 R
0 -63 V
0 -4668 R
( 13.435) Cshow
1.000 UL
LT0
0.50 0.50 0.50 C 1.000 UL
LTa
0.50 0.50 0.50 C 3358 280 M
0 4591 V
stroke
LT0
0.50 0.50 0.50 C 3358 280 M
0 63 V
0 4528 R
0 -63 V
0 -4668 R
( 14.1421) Cshow
1.000 UL
LT0
0.50 0.50 0.50 C 1.000 UL
LTa
0.50 0.50 0.50 C 3478 280 M
0 4591 V
stroke
LT0
0.50 0.50 0.50 C 3478 280 M
0 63 V
0 4528 R
0 -63 V
0 -4668 R
( 14.8492) Cshow
1.000 UL
LT0
0.50 0.50 0.50 C 1.000 UL
LTa
0.50 0.50 0.50 C 3598 280 M
0 4591 V
stroke
LT0
0.50 0.50 0.50 C 3598 280 M
0 63 V
0 4528 R
0 -63 V
0 -4668 R
( 15.5563) Cshow
1.000 UL
LT0
0.50 0.50 0.50 C 1.000 UL
LTa
0.50 0.50 0.50 C 3717 280 M
0 4591 V
stroke
LT0
0.50 0.50 0.50 C 3717 280 M
0 63 V
0 4528 R
0 -63 V
0 -4668 R
( 16.2634) Cshow
1.000 UL
LT0
0.50 0.50 0.50 C 1.000 UL
LTa
0.50 0.50 0.50 C 3837 280 M
0 4591 V
stroke
LT0
0.50 0.50 0.50 C 3837 280 M
0 63 V
0 4528 R
0 -63 V
0 -4668 R
( 16.9705) Cshow
1.000 UL
LT0
0.50 0.50 0.50 C 1.000 UL
LTa
0.50 0.50 0.50 C 3956 280 M
0 4591 V
stroke
LT0
0.50 0.50 0.50 C 3956 280 M
0 63 V
0 4528 R
0 -63 V
0 -4668 R
( 17.6776) Cshow
1.000 UL
LT0
0.50 0.50 0.50 C 1.000 UL
LTa
0.50 0.50 0.50 C 4076 280 M
0 4591 V
stroke
LT0
0.50 0.50 0.50 C 4076 280 M
0 63 V
0 4528 R
0 -63 V
0 -4668 R
( 18.3848) Cshow
1.000 UL
LT0
0.50 0.50 0.50 C 1.000 UL
LTa
0.50 0.50 0.50 C 4196 280 M
0 4591 V
stroke
LT0
0.50 0.50 0.50 C 4196 280 M
0 63 V
0 4528 R
0 -63 V
0 -4668 R
( 19.0919) Cshow
1.000 UL
LT0
0.50 0.50 0.50 C 1.000 UL
LTa
0.50 0.50 0.50 C 4315 280 M
0 4591 V
stroke
LT0
0.50 0.50 0.50 C 4315 280 M
0 63 V
0 4528 R
0 -63 V
0 -4668 R
( 19.799) Cshow
1.000 UL
LT0
0.50 0.50 0.50 C 1.000 UL
LTa
0.50 0.50 0.50 C 4435 280 M
0 4591 V
stroke
LT0
0.50 0.50 0.50 C 4435 280 M
0 63 V
0 4528 R
0 -63 V
0 -4668 R
( 20.5061) Cshow
1.000 UL
LT0
0.50 0.50 0.50 C 1.000 UL
LTa
0.50 0.50 0.50 C 4555 280 M
0 4591 V
stroke
LT0
0.50 0.50 0.50 C 4555 280 M
0 63 V
0 4528 R
0 -63 V
0 -4668 R
( 21.2132) Cshow
1.000 UL
LT0
0.50 0.50 0.50 C 1.000 UL
LTa
0.50 0.50 0.50 C 4674 280 M
0 4591 V
stroke
LT0
0.50 0.50 0.50 C 4674 280 M
0 63 V
0 4528 R
0 -63 V
0 -4668 R
( 21.9203) Cshow
1.000 UL
LT0
0.50 0.50 0.50 C 1.000 UL
LTa
0.50 0.50 0.50 C 4794 280 M
0 4591 V
stroke
LT0
0.50 0.50 0.50 C 4794 280 M
0 63 V
0 4528 R
0 -63 V
0 -4668 R
( 22.6274) Cshow
1.000 UL
LT0
0.50 0.50 0.50 C 1.000 UL
LTa
0.50 0.50 0.50 C 4913 280 M
0 4591 V
stroke
LT0
0.50 0.50 0.50 C 4913 280 M
0 63 V
0 4528 R
0 -63 V
0 -4668 R
( 23.3345) Cshow
1.000 UL
LT0
0.50 0.50 0.50 C 1.000 UL
LTa
0.50 0.50 0.50 C 5033 280 M
0 4591 V
stroke
LT0
0.50 0.50 0.50 C 5033 280 M
0 63 V
0 4528 R
0 -63 V
0 -4668 R
( 24.0416) Cshow
1.000 UL
LT0
0.50 0.50 0.50 C 1.000 UL
LTa
0.50 0.50 0.50 C 5153 280 M
0 4591 V
stroke
LT0
0.50 0.50 0.50 C 5153 280 M
0 63 V
0 4528 R
0 -63 V
0 -4668 R
( 24.7487) Cshow
1.000 UL
LT0
0.50 0.50 0.50 C 1.000 UL
LTa
0.50 0.50 0.50 C 5272 280 M
0 4591 V
stroke
LT0
0.50 0.50 0.50 C 5272 280 M
0 63 V
0 4528 R
0 -63 V
0 -4668 R
( 25.4558) Cshow
1.000 UL
LT0
0.50 0.50 0.50 C 1.000 UL
LTa
0.50 0.50 0.50 C 5392 280 M
0 4591 V
stroke
LT0
0.50 0.50 0.50 C 5392 280 M
0 63 V
0 4528 R
0 -63 V
0 -4668 R
( 26.1629) Cshow
1.000 UL
LT0
0.50 0.50 0.50 C 1.000 UL
LTa
0.50 0.50 0.50 C 5512 280 M
0 4591 V
stroke
LT0
0.50 0.50 0.50 C 5512 280 M
0 63 V
0 4528 R
0 -63 V
0 -4668 R
( 26.87) Cshow
1.000 UL
LT0
0.50 0.50 0.50 C 1.000 UL
LTa
0.50 0.50 0.50 C 5631 280 M
0 4591 V
stroke
LT0
0.50 0.50 0.50 C 5631 280 M
0 63 V
0 4528 R
0 -63 V
0 -4668 R
( 27.5771) Cshow
1.000 UL
LT0
0.50 0.50 0.50 C 1.000 UL
LTa
0.50 0.50 0.50 C 5751 280 M
0 4591 V
stroke
LT0
0.50 0.50 0.50 C 5751 280 M
0 63 V
0 4528 R
0 -63 V
0 -4668 R
( 28.2842) Cshow
1.000 UL
LT0
0.50 0.50 0.50 C 1.000 UL
LTa
0.50 0.50 0.50 C 5870 280 M
0 4591 V
stroke
LT0
0.50 0.50 0.50 C 5870 280 M
0 63 V
0 4528 R
0 -63 V
0 -4668 R
( 28.9913) Cshow
1.000 UL
LT0
0.50 0.50 0.50 C 1.000 UL
LTa
0.50 0.50 0.50 C 5990 280 M
0 4591 V
stroke
LT0
0.50 0.50 0.50 C 5990 280 M
0 63 V
0 4528 R
0 -63 V
0 -4668 R
( 29.6985) Cshow
1.000 UL
LT0
0.50 0.50 0.50 C 1.000 UL
LTa
0.50 0.50 0.50 C 6110 280 M
0 4591 V
stroke
LT0
0.50 0.50 0.50 C 6110 280 M
0 63 V
0 4528 R
0 -63 V
0 -4668 R
( 30.4056) Cshow
1.000 UL
LT0
0.50 0.50 0.50 C 1.000 UL
LTa
0.50 0.50 0.50 C 6229 280 M
0 4591 V
stroke
LT0
0.50 0.50 0.50 C 6229 280 M
0 63 V
0 4528 R
0 -63 V
0 -4668 R
( 31.1127) Cshow
1.000 UL
LT0
0.50 0.50 0.50 C 1.000 UL
LTa
0.50 0.50 0.50 C 6349 280 M
0 4591 V
stroke
LT0
0.50 0.50 0.50 C 6349 280 M
0 63 V
0 4528 R
0 -63 V
0 -4668 R
( 31.8198) Cshow
1.000 UL
LT0
0.50 0.50 0.50 C 1.000 UL
LTa
0.50 0.50 0.50 C 6469 280 M
0 4591 V
stroke
LT0
0.50 0.50 0.50 C 6469 280 M
0 63 V
0 4528 R
0 -63 V
0 -4668 R
( 32.5269) Cshow
1.000 UL
LT0
0.50 0.50 0.50 C 1.000 UL
LTa
0.50 0.50 0.50 C 6588 280 M
0 4591 V
stroke
LT0
0.50 0.50 0.50 C 6588 280 M
0 63 V
0 4528 R
0 -63 V
0 -4668 R
( 33.234) Cshow
1.000 UL
LT0
0.50 0.50 0.50 C 1.000 UL
LTa
0.50 0.50 0.50 C 6708 280 M
0 4591 V
stroke
LT0
0.50 0.50 0.50 C 6708 280 M
0 63 V
0 4528 R
0 -63 V
0 -4668 R
( 33.9411) Cshow
1.000 UL
LT0
0.50 0.50 0.50 C 1.000 UL
LTa
0.50 0.50 0.50 C 6827 280 M
0 4591 V
stroke
LT0
0.50 0.50 0.50 C 6827 280 M
0 63 V
0 4528 R
0 -63 V
0 -4668 R
( 34.6482) Cshow
1.000 UL
LT0
0.50 0.50 0.50 C 1.000 UL
LTa
0.50 0.50 0.50 C 6947 280 M
0 4591 V
stroke
LT0
0.50 0.50 0.50 C 6947 280 M
0 63 V
0 4528 R
0 -63 V
0 -4668 R
( 35.3553) Cshow
1.000 UL
LT0
0.50 0.50 0.50 C 1.000 UL
LT0
0.50 0.50 0.50 C 966 4871 M
966 280 L
5981 0 V
0 4591 R
-5981 0 R
1.000 UP
stroke
LT0
0.50 0.50 0.50 C % Begin plot #1
1.500 UP
2.000 UL
LT0
0.00 0.00 1.00 C /Helvetica findfont 140 scalefont setfont
/vshift -46 def
966 372 M
120 0 V
0 734 R
119 0 V
0 92 R
120 0 V
119 0 V
120 0 V
0 184 R
120 0 V
119 0 V
120 0 V
120 0 V
0 92 R
119 0 V
120 0 V
0 91 R
119 0 V
0 919 R
120 0 V
0 92 R
120 0 V
119 0 V
0 91 R
120 0 V
0 184 R
120 0 V
0 367 R
119 0 V
120 0 V
0 92 R
119 0 V
120 0 V
120 0 V
119 0 V
120 0 V
120 0 V
119 0 V
0 459 R
120 0 V
0 643 R
119 0 V
120 0 V
120 0 V
119 0 V
120 0 V
119 0 V
120 0 V
120 0 V
119 0 V
120 0 V
120 0 V
119 0 V
120 0 V
119 0 V
0 92 R
120 0 V
0 92 R
120 0 V
119 0 V
120 0 V
0 91 R
120 0 V
119 0 V
120 0 V
119 184 R
120 0 V
-239 0 R
119 0 V
1086 372 M
0 92 V
0 91 V
0 92 V
0 92 V
0 92 V
0 92 V
0 92 V
0 91 V
119 0 R
0 92 V
359 0 R
0 92 V
0 92 V
479 0 R
0 92 V
239 0 R
0 91 V
119 0 R
0 92 V
0 92 V
0 92 V
0 92 V
0 92 V
0 91 V
0 92 V
0 92 V
0 92 V
0 92 V
120 0 R
0 92 V
239 0 R
0 91 V
120 0 R
0 92 V
0 92 V
stroke 2880 2851 M
120 0 R
0 92 V
0 92 V
0 91 V
0 92 V
239 0 R
0 92 V
837 0 R
0 92 V
0 92 V
0 92 V
0 91 V
0 92 V
120 0 R
0 92 V
0 92 V
0 92 V
0 91 V
0 92 V
0 92 V
0 92 V
1674 0 R
0 92 V
120 0 R
0 92 V
359 0 R
0 91 V
359 0 R
0 92 V
0 92 V
966 280 M
0 92 V
966 372 CircleF
1086 372 CircleF
1086 1106 CircleF
1205 1106 CircleF
1205 1198 CircleF
1325 1198 CircleF
1325 1198 CircleF
1444 1198 CircleF
1444 1198 CircleF
1564 1198 CircleF
1564 1382 CircleF
1684 1382 CircleF
1684 1382 CircleF
1803 1382 CircleF
1803 1382 CircleF
1923 1382 CircleF
1923 1382 CircleF
2043 1382 CircleF
2043 1474 CircleF
2162 1474 CircleF
2162 1474 CircleF
2282 1474 CircleF
2282 1565 CircleF
2401 1565 CircleF
2401 2484 CircleF
2521 2484 CircleF
2521 2576 CircleF
2641 2576 CircleF
2641 2576 CircleF
2760 2576 CircleF
2760 2667 CircleF
2880 2667 CircleF
2880 2851 CircleF
3000 2851 CircleF
3000 3218 CircleF
3119 3218 CircleF
3119 3218 CircleF
3239 3218 CircleF
3239 3310 CircleF
3358 3310 CircleF
3358 3310 CircleF
3478 3310 CircleF
3478 3310 CircleF
3598 3310 CircleF
3598 3310 CircleF
3717 3310 CircleF
3717 3310 CircleF
3837 3310 CircleF
3837 3310 CircleF
3957 3310 CircleF
3957 3310 CircleF
4076 3310 CircleF
4076 3769 CircleF
4196 3769 CircleF
4196 4412 CircleF
4315 4412 CircleF
4315 4412 CircleF
4435 4412 CircleF
4435 4412 CircleF
4555 4412 CircleF
4555 4412 CircleF
4674 4412 CircleF
4674 4412 CircleF
4794 4412 CircleF
4794 4412 CircleF
4913 4412 CircleF
4913 4412 CircleF
5033 4412 CircleF
5033 4412 CircleF
5153 4412 CircleF
5153 4412 CircleF
5272 4412 CircleF
5272 4412 CircleF
5392 4412 CircleF
5392 4412 CircleF
5512 4412 CircleF
5512 4412 CircleF
5631 4412 CircleF
5631 4412 CircleF
5751 4412 CircleF
5751 4412 CircleF
5870 4412 CircleF
5870 4504 CircleF
5990 4504 CircleF
5990 4596 CircleF
6110 4596 CircleF
6110 4596 CircleF
6229 4596 CircleF
6229 4596 CircleF
6349 4596 CircleF
6349 4687 CircleF
6469 4687 CircleF
6469 4687 CircleF
6588 4687 CircleF
6588 4687 CircleF
6708 4687 CircleF
6827 4871 CircleF
6947 4871 CircleF
6708 4871 CircleF
6827 4871 CircleF
1086 372 CircleF
1086 464 CircleF
1086 464 CircleF
1086 555 CircleF
1086 555 CircleF
1086 647 CircleF
1086 647 CircleF
1086 739 CircleF
1086 739 CircleF
1086 831 CircleF
1086 831 CircleF
1086 923 CircleF
1086 923 CircleF
1086 1015 CircleF
1086 1015 CircleF
1086 1106 CircleF
1205 1106 CircleF
1205 1198 CircleF
1564 1198 CircleF
1564 1290 CircleF
1564 1290 CircleF
1564 1382 CircleF
2043 1382 CircleF
2043 1474 CircleF
2282 1474 CircleF
2282 1565 CircleF
2401 1565 CircleF
2401 1657 CircleF
2401 1657 CircleF
2401 1749 CircleF
2401 1749 CircleF
2401 1841 CircleF
2401 1841 CircleF
2401 1933 CircleF
2401 1933 CircleF
2401 2025 CircleF
2401 2025 CircleF
2401 2116 CircleF
2401 2116 CircleF
2401 2208 CircleF
2401 2208 CircleF
2401 2300 CircleF
2401 2300 CircleF
2401 2392 CircleF
2401 2392 CircleF
2401 2484 CircleF
2521 2484 CircleF
2521 2576 CircleF
2760 2576 CircleF
2760 2667 CircleF
2880 2667 CircleF
2880 2759 CircleF
2880 2759 CircleF
2880 2851 CircleF
3000 2851 CircleF
3000 2943 CircleF
3000 2943 CircleF
3000 3035 CircleF
3000 3035 CircleF
3000 3126 CircleF
3000 3126 CircleF
3000 3218 CircleF
3239 3218 CircleF
3239 3310 CircleF
4076 3310 CircleF
4076 3402 CircleF
4076 3402 CircleF
4076 3494 CircleF
4076 3494 CircleF
4076 3586 CircleF
4076 3586 CircleF
4076 3677 CircleF
4076 3677 CircleF
4076 3769 CircleF
4196 3769 CircleF
4196 3861 CircleF
4196 3861 CircleF
4196 3953 CircleF
4196 3953 CircleF
4196 4045 CircleF
4196 4045 CircleF
4196 4136 CircleF
4196 4136 CircleF
4196 4228 CircleF
4196 4228 CircleF
4196 4320 CircleF
4196 4320 CircleF
4196 4412 CircleF
5870 4412 CircleF
5870 4504 CircleF
5990 4504 CircleF
5990 4596 CircleF
6349 4596 CircleF
6349 4687 CircleF
6708 4687 CircleF
6708 4779 CircleF
6708 4779 CircleF
6708 4871 CircleF
966 280 CircleF
966 372 CircleF
% End plot #1
% Begin plot #2
1.500 UP
2.000 UL
LT0
1.00 0.55 0.00 C /Helvetica findfont 140 scalefont setfont
2283 1551 M
203 156 V
4460 395 M
227 174 V
3992 689 M
185 142 V
3422 2593 M
229 175 V
1633 1658 M
139 107 V
462 439 R
203 156 V
4358 4439 M
214 164 V
5680 4231 M
167 128 V
5617 3054 M
170 131 V
-480 190 R
158 121 V
3189 387 M
223 172 V
2379 4535 M
170 131 V
6388 3927 M
161 124 V
4078 2300 M
203 157 V
2349 3944 M
140 108 V
4849 526 M
150 115 V
1176 2592 M
238 183 V
2580 482 R
233 179 V
1314 1947 M
228 175 V
5926 859 M
152 116 V
2423 3093 M
122 94 V
1872 1661 M
207 159 V
1087 759 M
121 93 V
175 742 R
150 115 V
3457 3482 M
186 143 V
-282 818 R
141 108 V
622 -808 R
199 153 V
-383 668 R
202 155 V
2395 3797 M
227 174 V
3804 461 R
136 105 V
3683 593 M
212 163 V
5698 4330 M
123 95 V
1572 4233 M
120 92 V
3635 2832 M
175 133 V
1841 1497 M
154 118 V
3987 1047 M
211 162 V
2407 2916 M
138 106 V
5023 1813 M
212 162 V
1127 758 R
217 167 V
3198 3190 M
126 97 V
4779 2753 M
128 98 V
3509 2477 M
121 93 V
3258 295 M
187 144 V
1575 1998 M
172 132 V
3581 118 R
223 171 V
5101 1368 M
127 98 V
93 -832 R
158 121 V
4115 1313 M
142 108 V
2749 2320 M
121 93 V
5978 1687 M
217 167 V
4718 482 M
227 175 V
4413 3099 M
202 155 V
1465 2862 M
123 94 V
stroke 1588 2956 M
4033 774 R
140 107 V
3094 394 M
150 114 V
4604 2187 M
229 176 V
4711 1145 M
145 111 V
4659 894 M
181 139 V
596 2095 R
215 165 V
4192 2088 M
216 165 V
2166 1300 M
161 125 V
4458 4399 M
182 140 V
3878 651 M
233 178 V
3291 3973 M
143 109 V
4161 2872 M
170 130 V
6579 1401 M
233 179 V
2906 2932 M
149 114 V
5541 1948 M
173 133 V
875 -89 R
123 95 V
1058 1233 M
229 175 V
6681 3185 M
138 106 V
3892 2001 M
184 141 V
2109 4590 M
147 112 V
1420 4549 M
226 173 V
5754 1252 M
121 93 V
3939 1262 M
194 148 V
2308 342 M
186 143 V
5810 1591 M
151 116 V
453 2493 R
204 156 V
2795 3524 M
200 153 V
-213 709 R
159 122 V
2556 4083 M
165 127 V
2971 2505 M
230 177 V
3929 516 M
160 122 V
2069 2751 M
186 143 V
315 -465 R
226 174 V
3848 2096 M
230 176 V
234 2040 R
144 110 V
1055 4045 M
148 113 V
1589 1353 M
142 109 V
4183 1149 M
174 133 V
771 3069 R
189 145 V
4067 3554 M
170 131 V
4095 641 M
129 99 V
6008 4558 M
160 122 V
5294 1667 M
167 128 V
2888 4015 M
157 121 V
5094 903 M
182 140 V
391 2612 R
182 139 V
4889 2278 M
185 142 V
4075 4309 M
162 124 V
3890 716 M
214 164 V
1085 1065 M
156 120 V
5613 515 M
170 131 V
4697 1915 M
196 151 V
stroke 4893 2066 M
4125 1934 M
121 92 V
4102 4304 M
214 165 V
4086 1714 M
157 121 V
3922 600 M
163 125 V
-439 91 R
153 118 V
3082 2346 M
129 99 V
134 -246 R
131 100 V
2402 1773 M
171 131 V
-10 1438 R
197 151 V
5799 723 M
213 164 V
5731 3175 M
147 113 V
2640 757 M
123 94 V
665 1212 R
121 93 V
885 949 R
194 148 V
6378 1567 M
234 180 V
5291 1921 M
143 110 V
-2884 14 R
174 133 V
5799 411 M
146 112 V
3433 3548 M
202 155 V
2986 3212 M
191 146 V
125 -833 R
192 147 V
2984 4597 M
233 179 V
1921 3787 M
223 171 V
-17 -760 R
175 134 V
2222 891 M
170 130 V
3334 338 R
194 149 V
420 1801 R
146 112 V
5614 2675 M
140 108 V
-75 -23 R
127 98 V
3972 3513 M
121 93 V
1317 2357 M
122 93 V
657 2227 R
192 148 V
3935 3607 M
208 160 V
-639 28 R
157 120 V
4232 336 M
222 170 V
1378 548 R
223 171 V
4556 4177 M
201 154 V
3372 3047 M
216 166 V
1422 199 R
186 143 V
4239 1583 M
174 134 V
-867 445 R
124 95 V
5552 4333 M
124 95 V
5022 3011 M
191 146 V
4111 1210 M
225 172 V
1158 4432 M
209 160 V
6028 1077 M
200 154 V
2819 1426 M
231 177 V
5842 1026 M
199 153 V
4915 849 M
203 156 V
2882 2871 M
188 144 V
1125 652 M
153 118 V
4401 904 R
131 101 V
stroke 5810 1775 M
516 356 R
204 156 V
11 -342 R
127 97 V
4657 2187 M
210 161 V
5696 380 M
189 145 V
2038 820 M
170 130 V
1225 4185 M
127 98 V
3087 668 M
208 160 V
1850 1349 M
157 121 V
1868 2769 M
140 108 V
3239 4525 M
152 117 V
-984 -71 R
230 177 V
5320 3725 M
129 98 V
1867 1558 M
158 121 V
3505 4363 M
224 172 V
1578 1668 M
222 171 V
430 589 R
125 96 V
-68 926 R
219 168 V
2236 964 R
154 119 V
4444 2068 M
234 180 V
130 2167 R
146 111 V
1377 3692 M
168 128 V
5480 2342 M
219 168 V
3583 4358 M
218 167 V
6244 1315 M
216 166 V
-848 899 R
170 130 V
-240 799 R
148 114 V
2502 2536 M
201 155 V
1488 4092 M
153 118 V
1127 2512 M
137 105 V
4240 -60 R
165 127 V
5385 579 M
223 171 V
2998 1921 M
146 112 V
5700 1916 M
126 96 V
779 1067 R
227 174 V
6502 1904 M
130 99 V
5740 4609 M
144 111 V
5311 3430 M
152 116 V
2763 557 M
150 115 V
6157 4527 M
217 167 V
2400 984 M
144 111 V
1874 638 M
189 145 V
3545 4199 M
217 167 V
5126 1041 M
174 134 V
4496 3005 M
152 117 V
1424 2787 M
237 183 V
4274 1153 M
215 165 V
1756 435 M
236 181 V
3505 2187 M
196 150 V
6173 806 M
150 114 V
1570 3339 M
161 124 V
2774 -36 R
196 151 V
4024 2777 M
125 96 V
stroke 4149 2873 M
5743 2505 M
165 127 V
2471 784 M
200 153 V
3391 502 M
220 169 V
765 2904 R
185 142 V
1073 1024 M
127 98 V
116 1722 R
173 133 V
3907 2469 M
208 160 V
5308 1629 M
120 92 V
2819 2891 M
214 164 V
5094 657 M
138 106 V
2648 3063 M
186 143 V
3976 1500 M
135 103 V
3002 1705 M
231 178 V
3041 645 R
143 110 V
62 -1035 R
148 113 V
2072 1026 M
164 126 V
3926 2256 M
147 112 V
4321 959 M
197 152 V
3632 2315 M
162 124 V
2750 1276 M
186 143 V
1468 1193 M
218 166 V
3338 1138 M
212 162 V
5994 4252 M
177 136 V
4161 3507 M
208 160 V
-564 870 R
135 103 V
2247 1623 M
234 180 V
3690 1275 M
204 156 V
-1853 9 R
231 178 V
6362 4171 M
180 138 V
5669 1715 M
189 146 V
10 1963 R
150 115 V
4587 4293 M
219 168 V
2966 799 M
220 169 V
5951 550 M
237 181 V
4924 3195 M
174 134 V
2648 785 M
227 174 V
5131 4387 M
174 133 V
3681 2316 M
212 163 V
2374 3930 M
154 117 V
2549 577 M
160 123 V
612 87 R
227 174 V
2918 392 R
179 137 V
4559 2815 M
200 154 V
6528 4620 M
165 127 V
6284 419 M
215 165 V
1164 2891 M
178 137 V
2364 2898 M
207 158 V
1347 2626 M
178 136 V
3143 731 R
222 170 V
2444 2812 M
231 176 V
4428 2615 M
228 176 V
6433 2307 M
179 137 V
stroke 6612 2444 M
1018 1810 M
131 101 V
1219 808 M
204 156 V
2458 885 R
177 136 V
1806 990 R
175 135 V
2981 4495 M
153 118 V
2462 629 M
220 170 V
4792 500 M
152 116 V
3784 648 M
221 170 V
1658 4222 M
226 173 V
1410 3703 M
144 110 V
2151 2812 M
182 140 V
1568 352 R
166 127 V
1561 816 R
137 105 V
4139 3784 M
199 153 V
2049 1850 M
161 124 V
3217 3345 M
215 165 V
2867 1098 M
121 93 V
97 5 R
134 103 V
6623 4389 M
235 180 V
4677 3667 M
137 105 V
1103 3908 M
187 144 V
3955 349 R
125 96 V
4959 3735 M
210 161 V
2787 2599 M
129 99 V
5516 2124 M
120 91 V
539 2366 R
132 101 V
4977 3907 M
159 122 V
2153 4341 M
166 127 V
1897 3367 M
187 144 V
1114 1310 M
222 170 V
3868 4076 M
206 158 V
-364 226 R
158 122 V
4371 3572 M
224 172 V
5975 763 M
123 94 V
2288 2116 M
230 176 V
901 1143 R
168 129 V
1679 623 M
175 134 V
5411 400 M
123 95 V
1146 2221 M
167 128 V
5367 67 R
149 114 V
5647 4655 M
194 149 V
1944 2855 M
236 181 V
3916 -55 R
174 133 V
3696 3225 M
134 102 V
1822 2459 M
131 100 V
650 331 R
164 126 V
3643 845 R
181 139 V
2335 2804 M
122 94 V
2998 460 R
219 169 V
5608 1949 M
219 168 V
3550 3807 M
155 119 V
1777 1365 M
182 139 V
stroke 1959 1504 M
3528 268 R
160 122 V
4483 3126 M
225 172 V
2067 3111 M
187 143 V
2970 1 R
188 145 V
2357 3216 M
160 123 V
3473 116 R
125 96 V
5370 2689 M
216 166 V
4993 2179 M
151 116 V
3759 1610 M
130 100 V
661 -436 R
143 110 V
2690 3928 M
133 102 V
4401 2551 M
149 115 V
1645 160 R
141 108 V
3549 1815 M
145 111 V
5871 1366 M
199 153 V
-368 665 R
150 115 V
6511 298 M
141 108 V
5923 2413 M
182 140 V
4248 2428 M
155 119 V
2104 826 M
207 159 V
2880 370 R
236 181 V
2924 837 M
134 103 V
2693 2547 M
212 162 V
3995 2441 M
190 146 V
231 -262 R
195 150 V
2200 598 M
216 166 V
6138 4249 M
168 128 V
1100 3421 M
178 137 V
6548 3092 M
178 136 V
1922 3084 M
235 180 V
1936 355 M
168 129 V
4892 1840 M
127 97 V
705 1800 R
200 154 V
1534 3443 M
237 182 V
1893 750 M
149 115 V
2050 898 R
165 127 V
1984 3051 M
166 128 V
3821 395 M
232 178 V
3781 3201 M
193 148 V
5430 4377 M
205 157 V
5525 749 M
192 148 V
2682 1751 M
154 119 V
50 1169 R
223 172 V
1679 727 R
128 99 V
2699 2528 M
159 123 V
-902 183 R
197 151 V
6577 4094 M
183 140 V
2372 2976 M
187 144 V
5981 384 M
204 156 V
5736 829 M
157 121 V
1967 3791 M
162 124 V
1986 3511 M
207 159 V
stroke 2193 3670 M
1999 1345 M
193 147 V
1633 3051 M
194 148 V
3730 4403 M
165 126 V
2728 3228 M
181 138 V
-283 556 R
196 150 V
1700 89 R
145 111 V
3514 3637 M
224 172 V
-12 -513 R
146 112 V
2117 4102 M
230 176 V
2657 2972 M
152 117 V
2942 638 M
207 159 V
5380 2191 M
166 127 V
2924 454 M
121 94 V
1414 3477 M
183 140 V
843 572 R
142 109 V
2325 1954 M
178 137 V
1825 3691 M
168 129 V
1514 2959 M
180 138 V
6085 2764 M
164 126 V
1555 4497 M
217 167 V
2204 863 M
188 145 V
6667 710 M
120 92 V
4599 662 M
148 113 V
1508 4093 M
226 173 V
4419 1341 M
231 178 V
1473 994 R
149 114 V
310 21 R
188 144 V
4561 4426 M
159 122 V
3759 3775 M
202 156 V
6300 3795 M
152 116 V
3495 4026 M
124 95 V
5406 3382 M
225 172 V
1336 1195 M
197 151 V
2058 334 M
123 94 V
4926 2108 M
237 182 V
5875 1007 M
194 149 V
1693 1082 M
212 162 V
1709 1006 M
155 119 V
4015 3583 M
214 164 V
5439 962 M
237 182 V
3665 697 M
202 156 V
415 3185 R
197 151 V
3148 2021 M
174 134 V
5739 1499 M
140 107 V
2982 2216 M
213 163 V
236 174 R
128 98 V
134 -928 R
141 109 V
32 2126 R
206 158 V
1431 4476 M
213 164 V
6628 853 M
205 157 V
6527 4642 M
229 177 V
3993 3471 M
154 118 V
stroke 4147 3589 M
-735 137 R
143 110 V
5310 3006 M
135 104 V
2768 1685 M
160 122 V
-32 2136 R
223 171 V
3927 465 M
177 136 V
2172 580 R
197 151 V
5017 1666 M
132 101 V
2550 3104 M
152 116 V
4746 1218 M
188 144 V
739 2753 R
215 165 V
-825 112 R
234 180 V
6313 3157 M
222 170 V
3626 1101 M
147 113 V
-65 1296 R
206 158 V
1468 -79 R
154 118 V
183 1644 R
186 142 V
87 -1590 R
186 143 V
3169 3832 M
168 129 V
2855 2755 M
201 154 V
1509 319 R
191 147 V
3252 2637 M
163 125 V
3305 4589 M
211 162 V
5918 1321 M
227 174 V
3101 865 M
151 117 V
770 2513 R
152 116 V
3171 1910 M
136 104 V
367 605 R
218 167 V
5378 369 M
122 94 V
1158 4608 M
211 162 V
2727 2698 M
213 163 V
1479 1034 M
198 152 V
3613 311 M
177 136 V
3575 338 M
155 118 V
1738 3907 M
187 144 V
1284 2712 M
236 181 V
4100 2591 M
220 168 V
5361 954 M
125 95 V
211 2066 R
131 101 V
6503 863 M
129 99 V
5466 3685 M
186 143 V
4216 4495 M
142 110 V
4911 3112 M
168 130 V
4198 2060 M
185 142 V
-61 -42 R
186 143 V
364 1138 R
134 103 V
4476 2181 M
221 169 V
2157 4053 M
124 95 V
6205 1395 M
173 133 V
1677 2247 M
130 100 V
4993 3460 M
154 118 V
-3517 24 R
152 116 V
3277 2044 M
174 133 V
stroke 3451 2177 M
5272 4546 M
217 166 V
1377 3989 M
187 143 V
1253 407 R
131 100 V
6509 3835 M
147 113 V
6040 3018 M
167 128 V
-5025 43 R
192 147 V
6638 2193 M
126 97 V
6165 2054 M
163 125 V
134 2102 R
155 119 V
4599 1086 M
137 105 V
261 1775 R
169 130 V
-231 603 R
212 163 V
6022 1232 M
154 118 V
3635 1883 M
195 149 V
1087 3308 M
151 116 V
1891 466 R
201 154 V
6530 1586 M
216 167 V
5256 4506 M
222 170 V
2093 3274 M
194 148 V
721 353 R
217 167 V
6244 504 M
181 138 V
-7 479 R
192 147 V
972 323 M
194 149 V
3830 3789 M
142 109 V
2919 1321 M
121 92 V
203 2565 R
122 94 V
4975 486 M
237 182 V
517 1492 R
213 164 V
5363 907 M
209 160 V
3507 2843 M
129 99 V
1969 1373 M
232 178 V
1081 3864 M
178 137 V
3547 3773 M
167 129 V
4373 2430 M
229 176 V
5560 1159 M
156 120 V
4303 725 M
149 114 V
3258 4381 M
127 98 V
1741 4331 M
141 108 V
4071 2659 M
227 174 V
1776 559 R
149 115 V
-92 -763 R
223 171 V
-636 177 R
146 112 V
2508 2107 M
168 129 V
6314 994 M
161 123 V
-443 751 R
238 183 V
1708 2465 M
195 149 V
6303 3950 M
126 97 V
1208 3008 M
164 126 V
2746 4340 M
199 152 V
6056 4304 M
136 104 V
3776 2210 M
209 161 V
1767 3805 M
178 136 V
stroke 1945 3941 M
3177 569 R
220 169 V
4406 2157 M
182 140 V
5403 1153 M
175 134 V
3283 4198 M
232 179 V
2112 4282 M
209 161 V
3356 3613 M
210 161 V
1026 857 M
121 93 V
6258 4092 M
206 157 V
2995 3895 M
204 157 V
5513 2434 M
203 155 V
1703 2105 M
183 141 V
2323 238 R
199 153 V
1908 3309 M
166 127 V
4471 2913 M
157 121 V
1069 1056 M
159 122 V
4041 973 R
188 144 V
2077 4498 M
206 158 V
6244 2618 M
215 165 V
4393 1781 M
235 180 V
1696 3863 M
173 133 V
2708 495 R
197 151 V
1975 2381 M
226 173 V
4648 624 M
204 157 V
1722 637 R
213 164 V
2599 2854 M
208 160 V
5908 4205 M
145 111 V
2460 3041 M
162 124 V
6319 2446 M
162 124 V
124 815 R
229 176 V
2283 1551 CircleF
2486 1707 CircleF
4460 395 CircleF
4687 569 CircleF
3992 689 CircleF
4177 831 CircleF
3422 2593 CircleF
3651 2768 CircleF
1633 1658 CircleF
1772 1765 CircleF
2234 2204 CircleF
2437 2360 CircleF
4358 4439 CircleF
4572 4603 CircleF
5680 4231 CircleF
5847 4359 CircleF
5617 3054 CircleF
5787 3185 CircleF
5307 3375 CircleF
5465 3496 CircleF
3189 387 CircleF
3412 559 CircleF
2379 4535 CircleF
2549 4666 CircleF
6388 3927 CircleF
6549 4051 CircleF
4078 2300 CircleF
4281 2457 CircleF
2349 3944 CircleF
2489 4052 CircleF
4849 526 CircleF
4999 641 CircleF
1176 2592 CircleF
1414 2775 CircleF
3994 3257 CircleF
4227 3436 CircleF
1314 1947 CircleF
1542 2122 CircleF
5926 859 CircleF
6078 975 CircleF
2423 3093 CircleF
2545 3187 CircleF
1872 1661 CircleF
2079 1820 CircleF
1087 759 CircleF
1208 852 CircleF
1383 1594 CircleF
1533 1709 CircleF
3457 3482 CircleF
3643 3625 CircleF
3361 4443 CircleF
3502 4551 CircleF
4124 3743 CircleF
4323 3896 CircleF
3940 4564 CircleF
4142 4719 CircleF
2395 3797 CircleF
2622 3971 CircleF
6426 4432 CircleF
6562 4537 CircleF
3683 593 CircleF
3895 756 CircleF
5698 4330 CircleF
5821 4425 CircleF
1572 4233 CircleF
1692 4325 CircleF
3635 2832 CircleF
3810 2965 CircleF
1841 1497 CircleF
1995 1615 CircleF
3987 1047 CircleF
4198 1209 CircleF
2407 2916 CircleF
2545 3022 CircleF
5023 1813 CircleF
5235 1975 CircleF
6362 2733 CircleF
6579 2900 CircleF
3198 3190 CircleF
3324 3287 CircleF
4779 2753 CircleF
4907 2851 CircleF
3509 2477 CircleF
3630 2570 CircleF
3258 295 CircleF
3445 439 CircleF
1575 1998 CircleF
1747 2130 CircleF
5328 2248 CircleF
5551 2419 CircleF
5101 1368 CircleF
5228 1466 CircleF
5321 634 CircleF
5479 755 CircleF
4115 1313 CircleF
4257 1421 CircleF
2749 2320 CircleF
2870 2413 CircleF
5978 1687 CircleF
6195 1854 CircleF
4718 482 CircleF
4945 657 CircleF
4413 3099 CircleF
4615 3254 CircleF
1465 2862 CircleF
1588 2956 CircleF
5621 3730 CircleF
5761 3837 CircleF
3094 394 CircleF
3244 508 CircleF
4604 2187 CircleF
4833 2363 CircleF
4711 1145 CircleF
4856 1256 CircleF
4659 894 CircleF
4840 1033 CircleF
5436 3128 CircleF
5651 3293 CircleF
4192 2088 CircleF
4408 2253 CircleF
2166 1300 CircleF
2327 1425 CircleF
4458 4399 CircleF
4640 4539 CircleF
3878 651 CircleF
4111 829 CircleF
3291 3973 CircleF
3434 4082 CircleF
4161 2872 CircleF
4331 3002 CircleF
6579 1401 CircleF
6812 1580 CircleF
2906 2932 CircleF
3055 3046 CircleF
5541 1948 CircleF
5714 2081 CircleF
6589 1992 CircleF
6712 2087 CircleF
1058 1233 CircleF
1287 1408 CircleF
6681 3185 CircleF
6819 3291 CircleF
3892 2001 CircleF
4076 2142 CircleF
2109 4590 CircleF
2256 4702 CircleF
1420 4549 CircleF
1646 4722 CircleF
5754 1252 CircleF
5875 1345 CircleF
3939 1262 CircleF
4133 1410 CircleF
2308 342 CircleF
2494 485 CircleF
5810 1591 CircleF
5961 1707 CircleF
6414 4200 CircleF
6618 4356 CircleF
2795 3524 CircleF
2995 3677 CircleF
2782 4386 CircleF
2941 4508 CircleF
2556 4083 CircleF
2721 4210 CircleF
2971 2505 CircleF
3201 2682 CircleF
3929 516 CircleF
4089 638 CircleF
2069 2751 CircleF
2255 2894 CircleF
2570 2429 CircleF
2796 2603 CircleF
3848 2096 CircleF
4078 2272 CircleF
4312 4312 CircleF
4456 4422 CircleF
1055 4045 CircleF
1203 4158 CircleF
1589 1353 CircleF
1731 1462 CircleF
4183 1149 CircleF
4357 1282 CircleF
5128 4351 CircleF
5317 4496 CircleF
4067 3554 CircleF
4237 3685 CircleF
4095 641 CircleF
4224 740 CircleF
6008 4558 CircleF
6168 4680 CircleF
5294 1667 CircleF
5461 1795 CircleF
2888 4015 CircleF
3045 4136 CircleF
5094 903 CircleF
5276 1043 CircleF
5667 3655 CircleF
5849 3794 CircleF
4889 2278 CircleF
5074 2420 CircleF
4075 4309 CircleF
4237 4433 CircleF
3890 716 CircleF
4104 880 CircleF
1085 1065 CircleF
1241 1185 CircleF
5613 515 CircleF
5783 646 CircleF
4697 1915 CircleF
4893 2066 CircleF
4125 1934 CircleF
4246 2026 CircleF
4102 4304 CircleF
4316 4469 CircleF
4086 1714 CircleF
4243 1835 CircleF
3922 600 CircleF
4085 725 CircleF
3646 816 CircleF
3799 934 CircleF
3082 2346 CircleF
3211 2445 CircleF
3345 2199 CircleF
3476 2299 CircleF
2402 1773 CircleF
2573 1904 CircleF
2563 3342 CircleF
2760 3493 CircleF
5799 723 CircleF
6012 887 CircleF
5731 3175 CircleF
5878 3288 CircleF
2640 757 CircleF
2763 851 CircleF
3428 2063 CircleF
3549 2156 CircleF
4434 3105 CircleF
4628 3253 CircleF
6378 1567 CircleF
6612 1747 CircleF
5291 1921 CircleF
5434 2031 CircleF
2550 2045 CircleF
2724 2178 CircleF
5799 411 CircleF
5945 523 CircleF
3433 3548 CircleF
3635 3703 CircleF
2986 3212 CircleF
3177 3358 CircleF
3302 2525 CircleF
3494 2672 CircleF
2984 4597 CircleF
3217 4776 CircleF
1921 3787 CircleF
2144 3958 CircleF
2127 3198 CircleF
2302 3332 CircleF
2222 891 CircleF
2392 1021 CircleF
5726 1359 CircleF
5920 1508 CircleF
6340 3309 CircleF
6486 3421 CircleF
5614 2675 CircleF
5754 2783 CircleF
5679 2760 CircleF
5806 2858 CircleF
3972 3513 CircleF
4093 3606 CircleF
1317 2357 CircleF
1439 2450 CircleF
2096 4677 CircleF
2288 4825 CircleF
3935 3607 CircleF
4143 3767 CircleF
3504 3795 CircleF
3661 3915 CircleF
4232 336 CircleF
4454 506 CircleF
5832 1054 CircleF
6055 1225 CircleF
4556 4177 CircleF
4757 4331 CircleF
3372 3047 CircleF
3588 3213 CircleF
5010 3412 CircleF
5196 3555 CircleF
4239 1583 CircleF
4413 1717 CircleF
3546 2162 CircleF
3670 2257 CircleF
5552 4333 CircleF
5676 4428 CircleF
5022 3011 CircleF
5213 3157 CircleF
4111 1210 CircleF
4336 1382 CircleF
1158 4432 CircleF
1367 4592 CircleF
6028 1077 CircleF
6228 1231 CircleF
2819 1426 CircleF
3050 1603 CircleF
5842 1026 CircleF
6041 1179 CircleF
4915 849 CircleF
5118 1005 CircleF
2882 2871 CircleF
3070 3015 CircleF
1125 652 CircleF
1278 770 CircleF
5679 1674 CircleF
5810 1775 CircleF
6326 2131 CircleF
6530 2287 CircleF
6541 1945 CircleF
6668 2042 CircleF
4657 2187 CircleF
4867 2348 CircleF
5696 380 CircleF
5885 525 CircleF
2038 820 CircleF
2208 950 CircleF
1225 4185 CircleF
1352 4283 CircleF
3087 668 CircleF
3295 828 CircleF
1850 1349 CircleF
2007 1470 CircleF
1868 2769 CircleF
2008 2877 CircleF
3239 4525 CircleF
3391 4642 CircleF
2407 4571 CircleF
2637 4748 CircleF
5320 3725 CircleF
5449 3823 CircleF
1867 1558 CircleF
2025 1679 CircleF
3505 4363 CircleF
3729 4535 CircleF
1578 1668 CircleF
1800 1839 CircleF
2230 2428 CircleF
2355 2524 CircleF
2287 3450 CircleF
2506 3618 CircleF
4742 4582 CircleF
4896 4701 CircleF
4444 2068 CircleF
4678 2248 CircleF
4808 4415 CircleF
4954 4526 CircleF
1377 3692 CircleF
1545 3820 CircleF
5480 2342 CircleF
5699 2510 CircleF
3583 4358 CircleF
3801 4525 CircleF
6244 1315 CircleF
6460 1481 CircleF
5612 2380 CircleF
5782 2510 CircleF
5542 3309 CircleF
5690 3423 CircleF
2502 2536 CircleF
2703 2691 CircleF
1488 4092 CircleF
1641 4210 CircleF
1127 2512 CircleF
1264 2617 CircleF
5504 2557 CircleF
5669 2684 CircleF
5385 579 CircleF
5608 750 CircleF
2998 1921 CircleF
3144 2033 CircleF
5700 1916 CircleF
5826 2012 CircleF
6605 3079 CircleF
6832 3253 CircleF
6502 1904 CircleF
6632 2003 CircleF
5740 4609 CircleF
5884 4720 CircleF
5311 3430 CircleF
5463 3546 CircleF
2763 557 CircleF
2913 672 CircleF
6157 4527 CircleF
6374 4694 CircleF
2400 984 CircleF
2544 1095 CircleF
1874 638 CircleF
2063 783 CircleF
3545 4199 CircleF
3762 4366 CircleF
5126 1041 CircleF
5300 1175 CircleF
4496 3005 CircleF
4648 3122 CircleF
1424 2787 CircleF
1661 2970 CircleF
4274 1153 CircleF
4489 1318 CircleF
1756 435 CircleF
1992 616 CircleF
3505 2187 CircleF
3701 2337 CircleF
6173 806 CircleF
6323 920 CircleF
1570 3339 CircleF
1731 3463 CircleF
4505 3427 CircleF
4701 3578 CircleF
4024 2777 CircleF
4149 2873 CircleF
5743 2505 CircleF
5908 2632 CircleF
2471 784 CircleF
2671 937 CircleF
3391 502 CircleF
3611 671 CircleF
4376 3575 CircleF
4561 3717 CircleF
1073 1024 CircleF
1200 1122 CircleF
1316 2844 CircleF
1489 2977 CircleF
3907 2469 CircleF
4115 2629 CircleF
5308 1629 CircleF
5428 1721 CircleF
2819 2891 CircleF
3033 3055 CircleF
5094 657 CircleF
5232 763 CircleF
2648 3063 CircleF
2834 3206 CircleF
3976 1500 CircleF
4111 1603 CircleF
3002 1705 CircleF
3233 1883 CircleF
6274 2528 CircleF
6417 2638 CircleF
6479 1603 CircleF
6627 1716 CircleF
2072 1026 CircleF
2236 1152 CircleF
3926 2256 CircleF
4073 2368 CircleF
4321 959 CircleF
4518 1111 CircleF
3632 2315 CircleF
3794 2439 CircleF
2750 1276 CircleF
2936 1419 CircleF
1468 1193 CircleF
1686 1359 CircleF
3338 1138 CircleF
3550 1300 CircleF
5994 4252 CircleF
6171 4388 CircleF
4161 3507 CircleF
4369 3667 CircleF
3805 4537 CircleF
3940 4640 CircleF
2247 1623 CircleF
2481 1803 CircleF
3690 1275 CircleF
3894 1431 CircleF
2041 1440 CircleF
2272 1618 CircleF
6362 4171 CircleF
6542 4309 CircleF
5669 1715 CircleF
5858 1861 CircleF
5868 3824 CircleF
6018 3939 CircleF
4587 4293 CircleF
4806 4461 CircleF
2966 799 CircleF
3186 968 CircleF
5951 550 CircleF
6188 731 CircleF
4924 3195 CircleF
5098 3329 CircleF
2648 785 CircleF
2875 959 CircleF
5131 4387 CircleF
5305 4520 CircleF
3681 2316 CircleF
3893 2479 CircleF
2374 3930 CircleF
2528 4047 CircleF
2549 577 CircleF
2709 700 CircleF
3321 787 CircleF
3548 961 CircleF
6466 1353 CircleF
6645 1490 CircleF
4559 2815 CircleF
4759 2969 CircleF
6528 4620 CircleF
6693 4747 CircleF
6284 419 CircleF
6499 584 CircleF
1164 2891 CircleF
1342 3028 CircleF
2364 2898 CircleF
2571 3056 CircleF
1347 2626 CircleF
1525 2762 CircleF
4668 3493 CircleF
4890 3663 CircleF
2444 2812 CircleF
2675 2988 CircleF
4428 2615 CircleF
4656 2791 CircleF
6433 2307 CircleF
6612 2444 CircleF
1018 1810 CircleF
1149 1911 CircleF
1219 808 CircleF
1423 964 CircleF
3881 1849 CircleF
4058 1985 CircleF
5864 2975 CircleF
6039 3110 CircleF
2981 4495 CircleF
3134 4613 CircleF
2462 629 CircleF
2682 799 CircleF
4792 500 CircleF
4944 616 CircleF
3784 648 CircleF
4005 818 CircleF
1658 4222 CircleF
1884 4395 CircleF
1410 3703 CircleF
1554 3813 CircleF
2151 2812 CircleF
2333 2952 CircleF
3901 3304 CircleF
4067 3431 CircleF
5628 4247 CircleF
5765 4352 CircleF
4139 3784 CircleF
4338 3937 CircleF
2049 1850 CircleF
2210 1974 CircleF
3217 3345 CircleF
3432 3510 CircleF
2867 1098 CircleF
2988 1191 CircleF
3085 1196 CircleF
3219 1299 CircleF
6623 4389 CircleF
6858 4569 CircleF
4677 3667 CircleF
4814 3772 CircleF
1103 3908 CircleF
1290 4052 CircleF
5245 4401 CircleF
5370 4497 CircleF
4959 3735 CircleF
5169 3896 CircleF
2787 2599 CircleF
2916 2698 CircleF
5516 2124 CircleF
5636 2215 CircleF
6175 4581 CircleF
6307 4682 CircleF
4977 3907 CircleF
5136 4029 CircleF
2153 4341 CircleF
2319 4468 CircleF
1897 3367 CircleF
2084 3511 CircleF
1114 1310 CircleF
1336 1480 CircleF
3868 4076 CircleF
4074 4234 CircleF
3710 4460 CircleF
3868 4582 CircleF
4371 3572 CircleF
4595 3744 CircleF
5975 763 CircleF
6098 857 CircleF
2288 2116 CircleF
2518 2292 CircleF
3419 3435 CircleF
3587 3564 CircleF
1679 623 CircleF
1854 757 CircleF
5411 400 CircleF
5534 495 CircleF
1146 2221 CircleF
1313 2349 CircleF
6680 2416 CircleF
6829 2530 CircleF
5647 4655 CircleF
5841 4804 CircleF
1944 2855 CircleF
2180 3036 CircleF
6096 2981 CircleF
6270 3114 CircleF
3696 3225 CircleF
3830 3327 CircleF
1822 2459 CircleF
1953 2559 CircleF
2603 2890 CircleF
2767 3016 CircleF
6410 3861 CircleF
6591 4000 CircleF
2335 2804 CircleF
2457 2898 CircleF
5455 3358 CircleF
5674 3527 CircleF
5608 1949 CircleF
5827 2117 CircleF
3550 3807 CircleF
3705 3926 CircleF
1777 1365 CircleF
1959 1504 CircleF
5487 1772 CircleF
5647 1894 CircleF
4483 3126 CircleF
4708 3298 CircleF
2067 3111 CircleF
2254 3254 CircleF
5224 3255 CircleF
5412 3400 CircleF
2357 3216 CircleF
2517 3339 CircleF
5990 3455 CircleF
6115 3551 CircleF
5370 2689 CircleF
5586 2855 CircleF
4993 2179 CircleF
5144 2295 CircleF
3759 1610 CircleF
3889 1710 CircleF
4550 1274 CircleF
4693 1384 CircleF
2690 3928 CircleF
2823 4030 CircleF
4401 2551 CircleF
4550 2666 CircleF
6195 2826 CircleF
6336 2934 CircleF
3549 1815 CircleF
3694 1926 CircleF
5871 1366 CircleF
6070 1519 CircleF
5702 2184 CircleF
5852 2299 CircleF
6511 298 CircleF
6652 406 CircleF
5923 2413 CircleF
6105 2553 CircleF
4248 2428 CircleF
4403 2547 CircleF
2104 826 CircleF
2311 985 CircleF
5191 1355 CircleF
5427 1536 CircleF
2924 837 CircleF
3058 940 CircleF
2693 2547 CircleF
2905 2709 CircleF
3995 2441 CircleF
4185 2587 CircleF
4416 2325 CircleF
4611 2475 CircleF
2200 598 CircleF
2416 764 CircleF
6138 4249 CircleF
6306 4377 CircleF
1100 3421 CircleF
1278 3558 CircleF
6548 3092 CircleF
6726 3228 CircleF
1922 3084 CircleF
2157 3264 CircleF
1936 355 CircleF
2104 484 CircleF
4892 1840 CircleF
5019 1937 CircleF
5724 3737 CircleF
5924 3891 CircleF
1534 3443 CircleF
1771 3625 CircleF
1893 750 CircleF
2042 865 CircleF
4092 1763 CircleF
4257 1890 CircleF
1984 3051 CircleF
2150 3179 CircleF
3821 395 CircleF
4053 573 CircleF
3781 3201 CircleF
3974 3349 CircleF
5430 4377 CircleF
5635 4534 CircleF
5525 749 CircleF
5717 897 CircleF
2682 1751 CircleF
2836 1870 CircleF
2886 3039 CircleF
3109 3211 CircleF
4788 3938 CircleF
4916 4037 CircleF
2699 2528 CircleF
2858 2651 CircleF
1956 2834 CircleF
2153 2985 CircleF
6577 4094 CircleF
6760 4234 CircleF
2372 2976 CircleF
2559 3120 CircleF
5981 384 CircleF
6185 540 CircleF
5736 829 CircleF
5893 950 CircleF
1967 3791 CircleF
2129 3915 CircleF
1986 3511 CircleF
2193 3670 CircleF
1999 1345 CircleF
2192 1492 CircleF
1633 3051 CircleF
1827 3199 CircleF
3730 4403 CircleF
3895 4529 CircleF
2728 3228 CircleF
2909 3366 CircleF
2626 3922 CircleF
2822 4072 CircleF
4522 4161 CircleF
4667 4272 CircleF
3514 3637 CircleF
3738 3809 CircleF
3726 3296 CircleF
3872 3408 CircleF
2117 4102 CircleF
2347 4278 CircleF
2657 2972 CircleF
2809 3089 CircleF
2942 638 CircleF
3149 797 CircleF
5380 2191 CircleF
5546 2318 CircleF
2924 454 CircleF
3045 548 CircleF
1414 3477 CircleF
1597 3617 CircleF
2440 4189 CircleF
2582 4298 CircleF
2325 1954 CircleF
2503 2091 CircleF
1825 3691 CircleF
1993 3820 CircleF
1514 2959 CircleF
1694 3097 CircleF
6085 2764 CircleF
6249 2890 CircleF
1555 4497 CircleF
1772 4664 CircleF
2204 863 CircleF
2392 1008 CircleF
6667 710 CircleF
6787 802 CircleF
4599 662 CircleF
4747 775 CircleF
1508 4093 CircleF
1734 4266 CircleF
4419 1341 CircleF
4650 1519 CircleF
6123 2513 CircleF
6272 2627 CircleF
6582 2648 CircleF
6770 2792 CircleF
4561 4426 CircleF
4720 4548 CircleF
3759 3775 CircleF
3961 3931 CircleF
6300 3795 CircleF
6452 3911 CircleF
3495 4026 CircleF
3619 4121 CircleF
5406 3382 CircleF
5631 3554 CircleF
1336 1195 CircleF
1533 1346 CircleF
2058 334 CircleF
2181 428 CircleF
4926 2108 CircleF
5163 2290 CircleF
5875 1007 CircleF
6069 1156 CircleF
1693 1082 CircleF
1905 1244 CircleF
1709 1006 CircleF
1864 1125 CircleF
4015 3583 CircleF
4229 3747 CircleF
5439 962 CircleF
5676 1144 CircleF
3665 697 CircleF
3867 853 CircleF
4282 4038 CircleF
4479 4189 CircleF
3148 2021 CircleF
3322 2155 CircleF
5739 1499 CircleF
5879 1606 CircleF
2982 2216 CircleF
3195 2379 CircleF
3431 2553 CircleF
3559 2651 CircleF
3693 1723 CircleF
3834 1832 CircleF
3866 3958 CircleF
4072 4116 CircleF
1431 4476 CircleF
1644 4640 CircleF
6628 853 CircleF
6833 1010 CircleF
6527 4642 CircleF
6756 4819 CircleF
3993 3471 CircleF
4147 3589 CircleF
3412 3726 CircleF
3555 3836 CircleF
5310 3006 CircleF
5445 3110 CircleF
2768 1685 CircleF
2928 1807 CircleF
2896 3943 CircleF
3119 4114 CircleF
3927 465 CircleF
4104 601 CircleF
6276 1181 CircleF
6473 1332 CircleF
5017 1666 CircleF
5149 1767 CircleF
2550 3104 CircleF
2702 3220 CircleF
4746 1218 CircleF
4934 1362 CircleF
5673 4115 CircleF
5888 4280 CircleF
5063 4392 CircleF
5297 4572 CircleF
6313 3157 CircleF
6535 3327 CircleF
3626 1101 CircleF
3773 1214 CircleF
3708 2510 CircleF
3914 2668 CircleF
5382 2589 CircleF
5536 2707 CircleF
5719 4351 CircleF
5905 4493 CircleF
5992 2903 CircleF
6178 3046 CircleF
3169 3832 CircleF
3337 3961 CircleF
2855 2755 CircleF
3056 2909 CircleF
4565 3228 CircleF
4756 3375 CircleF
3252 2637 CircleF
3415 2762 CircleF
3305 4589 CircleF
3516 4751 CircleF
5918 1321 CircleF
6145 1495 CircleF
3101 865 CircleF
3252 982 CircleF
4022 3495 CircleF
4174 3611 CircleF
3171 1910 CircleF
3307 2014 CircleF
3674 2619 CircleF
3892 2786 CircleF
5378 369 CircleF
5500 463 CircleF
1158 4608 CircleF
1369 4770 CircleF
2727 2698 CircleF
2940 2861 CircleF
1479 1034 CircleF
1677 1186 CircleF
3613 311 CircleF
3790 447 CircleF
3575 338 CircleF
3730 456 CircleF
1738 3907 CircleF
1925 4051 CircleF
1284 2712 CircleF
1520 2893 CircleF
4100 2591 CircleF
4320 2759 CircleF
5361 954 CircleF
5486 1049 CircleF
5697 3115 CircleF
5828 3216 CircleF
6503 863 CircleF
6632 962 CircleF
5466 3685 CircleF
5652 3828 CircleF
4216 4495 CircleF
4358 4605 CircleF
4911 3112 CircleF
5079 3242 CircleF
4198 2060 CircleF
4383 2202 CircleF
4322 2160 CircleF
4508 2303 CircleF
4872 3441 CircleF
5006 3544 CircleF
4476 2181 CircleF
4697 2350 CircleF
2157 4053 CircleF
2281 4148 CircleF
6205 1395 CircleF
6378 1528 CircleF
1677 2247 CircleF
1807 2347 CircleF
4993 3460 CircleF
5147 3578 CircleF
1630 3602 CircleF
1782 3718 CircleF
3277 2044 CircleF
3451 2177 CircleF
5272 4546 CircleF
5489 4712 CircleF
1377 3989 CircleF
1564 4132 CircleF
2817 4539 CircleF
2948 4639 CircleF
6509 3835 CircleF
6656 3948 CircleF
6040 3018 CircleF
6207 3146 CircleF
1182 3189 CircleF
1374 3336 CircleF
6638 2193 CircleF
6764 2290 CircleF
6165 2054 CircleF
6328 2179 CircleF
6462 4281 CircleF
6617 4400 CircleF
4599 1086 CircleF
4736 1191 CircleF
4997 2966 CircleF
5166 3096 CircleF
4935 3699 CircleF
5147 3862 CircleF
6022 1232 CircleF
6176 1350 CircleF
3635 1883 CircleF
3830 2032 CircleF
1087 3308 CircleF
1238 3424 CircleF
3129 3890 CircleF
3330 4044 CircleF
6530 1586 CircleF
6746 1753 CircleF
5256 4506 CircleF
5478 4676 CircleF
2093 3274 CircleF
2287 3422 CircleF
3008 3775 CircleF
3225 3942 CircleF
6244 504 CircleF
6425 642 CircleF
6418 1121 CircleF
6610 1268 CircleF
972 323 CircleF
1166 472 CircleF
3830 3789 CircleF
3972 3898 CircleF
2919 1321 CircleF
3040 1413 CircleF
3243 3978 CircleF
3365 4072 CircleF
4975 486 CircleF
5212 668 CircleF
5729 2160 CircleF
5942 2324 CircleF
5363 907 CircleF
5572 1067 CircleF
3507 2843 CircleF
3636 2942 CircleF
1969 1373 CircleF
2201 1551 CircleF
1081 3864 CircleF
1259 4001 CircleF
3547 3773 CircleF
3714 3902 CircleF
4373 2430 CircleF
4602 2606 CircleF
5560 1159 CircleF
5716 1279 CircleF
4303 725 CircleF
4452 839 CircleF
3258 4381 CircleF
3385 4479 CircleF
1741 4331 CircleF
1882 4439 CircleF
4071 2659 CircleF
4298 2833 CircleF
6074 3392 CircleF
6223 3507 CircleF
6131 2744 CircleF
6354 2915 CircleF
5718 3092 CircleF
5864 3204 CircleF
2508 2107 CircleF
2676 2236 CircleF
6314 994 CircleF
6475 1117 CircleF
6032 1868 CircleF
6270 2051 CircleF
1708 2465 CircleF
1903 2614 CircleF
6303 3950 CircleF
6429 4047 CircleF
1208 3008 CircleF
1372 3134 CircleF
2746 4340 CircleF
2945 4492 CircleF
6056 4304 CircleF
6192 4408 CircleF
3776 2210 CircleF
3985 2371 CircleF
1767 3805 CircleF
1945 3941 CircleF
5122 4510 CircleF
5342 4679 CircleF
4406 2157 CircleF
4588 2297 CircleF
5403 1153 CircleF
5578 1287 CircleF
3283 4198 CircleF
3515 4377 CircleF
2112 4282 CircleF
2321 4443 CircleF
3356 3613 CircleF
3566 3774 CircleF
1026 857 CircleF
1147 950 CircleF
6258 4092 CircleF
6464 4249 CircleF
2995 3895 CircleF
3199 4052 CircleF
5513 2434 CircleF
5716 2589 CircleF
1703 2105 CircleF
1886 2246 CircleF
4209 2484 CircleF
4408 2637 CircleF
1908 3309 CircleF
2074 3436 CircleF
4471 2913 CircleF
4628 3034 CircleF
1069 1056 CircleF
1228 1178 CircleF
5269 2151 CircleF
5457 2295 CircleF
2077 4498 CircleF
2283 4656 CircleF
6244 2618 CircleF
6459 2783 CircleF
4393 1781 CircleF
4628 1961 CircleF
1696 3863 CircleF
1869 3996 CircleF
4577 4491 CircleF
4774 4642 CircleF
1975 2381 CircleF
2201 2554 CircleF
4648 624 CircleF
4852 781 CircleF
6574 1418 CircleF
6787 1582 CircleF
2599 2854 CircleF
2807 3014 CircleF
5908 4205 CircleF
6053 4316 CircleF
2460 3041 CircleF
2622 3165 CircleF
6319 2446 CircleF
6481 2570 CircleF
6605 3385 CircleF
6834 3561 CircleF
% End plot #2
1.000 UP
1.000 UL
LT0
0.50 0.50 0.50 C stroke
grestore
end
showpage
%%Trailer
%%DocumentFonts: Helvetica
%%Pages: 1
