%!PS-Adobe-2.0
%%Title: out.ps
%%Creator: gnuplot 4.6 patchlevel 6
%%CreationDate: Fri May 29 00:08:59 2015
%%DocumentFonts: (atend)
%%BoundingBox: 50 50 554 770
%%Orientation: Landscape
%%Pages: (atend)
%%EndComments
%%BeginProlog
/gnudict 256 dict def
gnudict begin
%
% The following true/false flags may be edited by hand if desired.
% The unit line width and grayscale image gamma correction may also be changed.
%
/Color false def
/Blacktext false def
/Solid false def
/Dashlength 1 def
/Landscape true def
/Level1 false def
/Rounded false def
/ClipToBoundingBox false def
/SuppressPDFMark false def
/TransparentPatterns false def
/gnulinewidth 5.000 def
/userlinewidth gnulinewidth def
/Gamma 1.0 def
/BackgroundColor {-1.000 -1.000 -1.000} def
%
/vshift -46 def
/dl1 {
  10.0 Dashlength mul mul
  Rounded { currentlinewidth 0.75 mul sub dup 0 le { pop 0.01 } if } if
} def
/dl2 {
  10.0 Dashlength mul mul
  Rounded { currentlinewidth 0.75 mul add } if
} def
/hpt_ 31.5 def
/vpt_ 31.5 def
/hpt hpt_ def
/vpt vpt_ def
/doclip {
  ClipToBoundingBox {
    newpath 50 50 moveto 554 50 lineto 554 770 lineto 50 770 lineto closepath
    clip
  } if
} def
%
% Gnuplot Prolog Version 4.6 (September 2012)
%
%/SuppressPDFMark true def
%
/M {moveto} bind def
/L {lineto} bind def
/R {rmoveto} bind def
/V {rlineto} bind def
/N {newpath moveto} bind def
/Z {closepath} bind def
/C {setrgbcolor} bind def
/f {rlineto fill} bind def
/g {setgray} bind def
/Gshow {show} def   % May be redefined later in the file to support UTF-8
/vpt2 vpt 2 mul def
/hpt2 hpt 2 mul def
/Lshow {currentpoint stroke M 0 vshift R 
	Blacktext {gsave 0 setgray show grestore} {show} ifelse} def
/Rshow {currentpoint stroke M dup stringwidth pop neg vshift R
	Blacktext {gsave 0 setgray show grestore} {show} ifelse} def
/Cshow {currentpoint stroke M dup stringwidth pop -2 div vshift R 
	Blacktext {gsave 0 setgray show grestore} {show} ifelse} def
/UP {dup vpt_ mul /vpt exch def hpt_ mul /hpt exch def
  /hpt2 hpt 2 mul def /vpt2 vpt 2 mul def} def
/DL {Color {setrgbcolor Solid {pop []} if 0 setdash}
 {pop pop pop 0 setgray Solid {pop []} if 0 setdash} ifelse} def
/BL {stroke userlinewidth 2 mul setlinewidth
	Rounded {1 setlinejoin 1 setlinecap} if} def
/AL {stroke userlinewidth 2 div setlinewidth
	Rounded {1 setlinejoin 1 setlinecap} if} def
/UL {dup gnulinewidth mul /userlinewidth exch def
	dup 1 lt {pop 1} if 10 mul /udl exch def} def
/PL {stroke userlinewidth setlinewidth
	Rounded {1 setlinejoin 1 setlinecap} if} def
3.8 setmiterlimit
% Default Line colors
/LCw {1 1 1} def
/LCb {0 0 0} def
/LCa {0 0 0} def
/LC0 {1 0 0} def
/LC1 {0 1 0} def
/LC2 {0 0 1} def
/LC3 {1 0 1} def
/LC4 {0 1 1} def
/LC5 {1 1 0} def
/LC6 {0 0 0} def
/LC7 {1 0.3 0} def
/LC8 {0.5 0.5 0.5} def
% Default Line Types
/LTw {PL [] 1 setgray} def
/LTb {BL [] LCb DL} def
/LTa {AL [1 udl mul 2 udl mul] 0 setdash LCa setrgbcolor} def
/LT0 {PL [] LC0 DL} def
/LT1 {PL [4 dl1 2 dl2] LC1 DL} def
/LT2 {PL [2 dl1 3 dl2] LC2 DL} def
/LT3 {PL [1 dl1 1.5 dl2] LC3 DL} def
/LT4 {PL [6 dl1 2 dl2 1 dl1 2 dl2] LC4 DL} def
/LT5 {PL [3 dl1 3 dl2 1 dl1 3 dl2] LC5 DL} def
/LT6 {PL [2 dl1 2 dl2 2 dl1 6 dl2] LC6 DL} def
/LT7 {PL [1 dl1 2 dl2 6 dl1 2 dl2 1 dl1 2 dl2] LC7 DL} def
/LT8 {PL [2 dl1 2 dl2 2 dl1 2 dl2 2 dl1 2 dl2 2 dl1 4 dl2] LC8 DL} def
/Pnt {stroke [] 0 setdash gsave 1 setlinecap M 0 0 V stroke grestore} def
/Dia {stroke [] 0 setdash 2 copy vpt add M
  hpt neg vpt neg V hpt vpt neg V
  hpt vpt V hpt neg vpt V closepath stroke
  Pnt} def
/Pls {stroke [] 0 setdash vpt sub M 0 vpt2 V
  currentpoint stroke M
  hpt neg vpt neg R hpt2 0 V stroke
 } def
/Box {stroke [] 0 setdash 2 copy exch hpt sub exch vpt add M
  0 vpt2 neg V hpt2 0 V 0 vpt2 V
  hpt2 neg 0 V closepath stroke
  Pnt} def
/Crs {stroke [] 0 setdash exch hpt sub exch vpt add M
  hpt2 vpt2 neg V currentpoint stroke M
  hpt2 neg 0 R hpt2 vpt2 V stroke} def
/TriU {stroke [] 0 setdash 2 copy vpt 1.12 mul add M
  hpt neg vpt -1.62 mul V
  hpt 2 mul 0 V
  hpt neg vpt 1.62 mul V closepath stroke
  Pnt} def
/Star {2 copy Pls Crs} def
/BoxF {stroke [] 0 setdash exch hpt sub exch vpt add M
  0 vpt2 neg V hpt2 0 V 0 vpt2 V
  hpt2 neg 0 V closepath fill} def
/TriUF {stroke [] 0 setdash vpt 1.12 mul add M
  hpt neg vpt -1.62 mul V
  hpt 2 mul 0 V
  hpt neg vpt 1.62 mul V closepath fill} def
/TriD {stroke [] 0 setdash 2 copy vpt 1.12 mul sub M
  hpt neg vpt 1.62 mul V
  hpt 2 mul 0 V
  hpt neg vpt -1.62 mul V closepath stroke
  Pnt} def
/TriDF {stroke [] 0 setdash vpt 1.12 mul sub M
  hpt neg vpt 1.62 mul V
  hpt 2 mul 0 V
  hpt neg vpt -1.62 mul V closepath fill} def
/DiaF {stroke [] 0 setdash vpt add M
  hpt neg vpt neg V hpt vpt neg V
  hpt vpt V hpt neg vpt V closepath fill} def
/Pent {stroke [] 0 setdash 2 copy gsave
  translate 0 hpt M 4 {72 rotate 0 hpt L} repeat
  closepath stroke grestore Pnt} def
/PentF {stroke [] 0 setdash gsave
  translate 0 hpt M 4 {72 rotate 0 hpt L} repeat
  closepath fill grestore} def
/Circle {stroke [] 0 setdash 2 copy
  hpt 0 360 arc stroke Pnt} def
/CircleF {stroke [] 0 setdash hpt 0 360 arc fill} def
/C0 {BL [] 0 setdash 2 copy moveto vpt 90 450 arc} bind def
/C1 {BL [] 0 setdash 2 copy moveto
	2 copy vpt 0 90 arc closepath fill
	vpt 0 360 arc closepath} bind def
/C2 {BL [] 0 setdash 2 copy moveto
	2 copy vpt 90 180 arc closepath fill
	vpt 0 360 arc closepath} bind def
/C3 {BL [] 0 setdash 2 copy moveto
	2 copy vpt 0 180 arc closepath fill
	vpt 0 360 arc closepath} bind def
/C4 {BL [] 0 setdash 2 copy moveto
	2 copy vpt 180 270 arc closepath fill
	vpt 0 360 arc closepath} bind def
/C5 {BL [] 0 setdash 2 copy moveto
	2 copy vpt 0 90 arc
	2 copy moveto
	2 copy vpt 180 270 arc closepath fill
	vpt 0 360 arc} bind def
/C6 {BL [] 0 setdash 2 copy moveto
	2 copy vpt 90 270 arc closepath fill
	vpt 0 360 arc closepath} bind def
/C7 {BL [] 0 setdash 2 copy moveto
	2 copy vpt 0 270 arc closepath fill
	vpt 0 360 arc closepath} bind def
/C8 {BL [] 0 setdash 2 copy moveto
	2 copy vpt 270 360 arc closepath fill
	vpt 0 360 arc closepath} bind def
/C9 {BL [] 0 setdash 2 copy moveto
	2 copy vpt 270 450 arc closepath fill
	vpt 0 360 arc closepath} bind def
/C10 {BL [] 0 setdash 2 copy 2 copy moveto vpt 270 360 arc closepath fill
	2 copy moveto
	2 copy vpt 90 180 arc closepath fill
	vpt 0 360 arc closepath} bind def
/C11 {BL [] 0 setdash 2 copy moveto
	2 copy vpt 0 180 arc closepath fill
	2 copy moveto
	2 copy vpt 270 360 arc closepath fill
	vpt 0 360 arc closepath} bind def
/C12 {BL [] 0 setdash 2 copy moveto
	2 copy vpt 180 360 arc closepath fill
	vpt 0 360 arc closepath} bind def
/C13 {BL [] 0 setdash 2 copy moveto
	2 copy vpt 0 90 arc closepath fill
	2 copy moveto
	2 copy vpt 180 360 arc closepath fill
	vpt 0 360 arc closepath} bind def
/C14 {BL [] 0 setdash 2 copy moveto
	2 copy vpt 90 360 arc closepath fill
	vpt 0 360 arc} bind def
/C15 {BL [] 0 setdash 2 copy vpt 0 360 arc closepath fill
	vpt 0 360 arc closepath} bind def
/Rec {newpath 4 2 roll moveto 1 index 0 rlineto 0 exch rlineto
	neg 0 rlineto closepath} bind def
/Square {dup Rec} bind def
/Bsquare {vpt sub exch vpt sub exch vpt2 Square} bind def
/S0 {BL [] 0 setdash 2 copy moveto 0 vpt rlineto BL Bsquare} bind def
/S1 {BL [] 0 setdash 2 copy vpt Square fill Bsquare} bind def
/S2 {BL [] 0 setdash 2 copy exch vpt sub exch vpt Square fill Bsquare} bind def
/S3 {BL [] 0 setdash 2 copy exch vpt sub exch vpt2 vpt Rec fill Bsquare} bind def
/S4 {BL [] 0 setdash 2 copy exch vpt sub exch vpt sub vpt Square fill Bsquare} bind def
/S5 {BL [] 0 setdash 2 copy 2 copy vpt Square fill
	exch vpt sub exch vpt sub vpt Square fill Bsquare} bind def
/S6 {BL [] 0 setdash 2 copy exch vpt sub exch vpt sub vpt vpt2 Rec fill Bsquare} bind def
/S7 {BL [] 0 setdash 2 copy exch vpt sub exch vpt sub vpt vpt2 Rec fill
	2 copy vpt Square fill Bsquare} bind def
/S8 {BL [] 0 setdash 2 copy vpt sub vpt Square fill Bsquare} bind def
/S9 {BL [] 0 setdash 2 copy vpt sub vpt vpt2 Rec fill Bsquare} bind def
/S10 {BL [] 0 setdash 2 copy vpt sub vpt Square fill 2 copy exch vpt sub exch vpt Square fill
	Bsquare} bind def
/S11 {BL [] 0 setdash 2 copy vpt sub vpt Square fill 2 copy exch vpt sub exch vpt2 vpt Rec fill
	Bsquare} bind def
/S12 {BL [] 0 setdash 2 copy exch vpt sub exch vpt sub vpt2 vpt Rec fill Bsquare} bind def
/S13 {BL [] 0 setdash 2 copy exch vpt sub exch vpt sub vpt2 vpt Rec fill
	2 copy vpt Square fill Bsquare} bind def
/S14 {BL [] 0 setdash 2 copy exch vpt sub exch vpt sub vpt2 vpt Rec fill
	2 copy exch vpt sub exch vpt Square fill Bsquare} bind def
/S15 {BL [] 0 setdash 2 copy Bsquare fill Bsquare} bind def
/D0 {gsave translate 45 rotate 0 0 S0 stroke grestore} bind def
/D1 {gsave translate 45 rotate 0 0 S1 stroke grestore} bind def
/D2 {gsave translate 45 rotate 0 0 S2 stroke grestore} bind def
/D3 {gsave translate 45 rotate 0 0 S3 stroke grestore} bind def
/D4 {gsave translate 45 rotate 0 0 S4 stroke grestore} bind def
/D5 {gsave translate 45 rotate 0 0 S5 stroke grestore} bind def
/D6 {gsave translate 45 rotate 0 0 S6 stroke grestore} bind def
/D7 {gsave translate 45 rotate 0 0 S7 stroke grestore} bind def
/D8 {gsave translate 45 rotate 0 0 S8 stroke grestore} bind def
/D9 {gsave translate 45 rotate 0 0 S9 stroke grestore} bind def
/D10 {gsave translate 45 rotate 0 0 S10 stroke grestore} bind def
/D11 {gsave translate 45 rotate 0 0 S11 stroke grestore} bind def
/D12 {gsave translate 45 rotate 0 0 S12 stroke grestore} bind def
/D13 {gsave translate 45 rotate 0 0 S13 stroke grestore} bind def
/D14 {gsave translate 45 rotate 0 0 S14 stroke grestore} bind def
/D15 {gsave translate 45 rotate 0 0 S15 stroke grestore} bind def
/DiaE {stroke [] 0 setdash vpt add M
  hpt neg vpt neg V hpt vpt neg V
  hpt vpt V hpt neg vpt V closepath stroke} def
/BoxE {stroke [] 0 setdash exch hpt sub exch vpt add M
  0 vpt2 neg V hpt2 0 V 0 vpt2 V
  hpt2 neg 0 V closepath stroke} def
/TriUE {stroke [] 0 setdash vpt 1.12 mul add M
  hpt neg vpt -1.62 mul V
  hpt 2 mul 0 V
  hpt neg vpt 1.62 mul V closepath stroke} def
/TriDE {stroke [] 0 setdash vpt 1.12 mul sub M
  hpt neg vpt 1.62 mul V
  hpt 2 mul 0 V
  hpt neg vpt -1.62 mul V closepath stroke} def
/PentE {stroke [] 0 setdash gsave
  translate 0 hpt M 4 {72 rotate 0 hpt L} repeat
  closepath stroke grestore} def
/CircE {stroke [] 0 setdash 
  hpt 0 360 arc stroke} def
/Opaque {gsave closepath 1 setgray fill grestore 0 setgray closepath} def
/DiaW {stroke [] 0 setdash vpt add M
  hpt neg vpt neg V hpt vpt neg V
  hpt vpt V hpt neg vpt V Opaque stroke} def
/BoxW {stroke [] 0 setdash exch hpt sub exch vpt add M
  0 vpt2 neg V hpt2 0 V 0 vpt2 V
  hpt2 neg 0 V Opaque stroke} def
/TriUW {stroke [] 0 setdash vpt 1.12 mul add M
  hpt neg vpt -1.62 mul V
  hpt 2 mul 0 V
  hpt neg vpt 1.62 mul V Opaque stroke} def
/TriDW {stroke [] 0 setdash vpt 1.12 mul sub M
  hpt neg vpt 1.62 mul V
  hpt 2 mul 0 V
  hpt neg vpt -1.62 mul V Opaque stroke} def
/PentW {stroke [] 0 setdash gsave
  translate 0 hpt M 4 {72 rotate 0 hpt L} repeat
  Opaque stroke grestore} def
/CircW {stroke [] 0 setdash 
  hpt 0 360 arc Opaque stroke} def
/BoxFill {gsave Rec 1 setgray fill grestore} def
/Density {
  /Fillden exch def
  currentrgbcolor
  /ColB exch def /ColG exch def /ColR exch def
  /ColR ColR Fillden mul Fillden sub 1 add def
  /ColG ColG Fillden mul Fillden sub 1 add def
  /ColB ColB Fillden mul Fillden sub 1 add def
  ColR ColG ColB setrgbcolor} def
/BoxColFill {gsave Rec PolyFill} def
/PolyFill {gsave Density fill grestore grestore} def
/h {rlineto rlineto rlineto gsave closepath fill grestore} bind def
%
% PostScript Level 1 Pattern Fill routine for rectangles
% Usage: x y w h s a XX PatternFill
%	x,y = lower left corner of box to be filled
%	w,h = width and height of box
%	  a = angle in degrees between lines and x-axis
%	 XX = 0/1 for no/yes cross-hatch
%
/PatternFill {gsave /PFa [ 9 2 roll ] def
  PFa 0 get PFa 2 get 2 div add PFa 1 get PFa 3 get 2 div add translate
  PFa 2 get -2 div PFa 3 get -2 div PFa 2 get PFa 3 get Rec
  TransparentPatterns {} {gsave 1 setgray fill grestore} ifelse
  clip
  currentlinewidth 0.5 mul setlinewidth
  /PFs PFa 2 get dup mul PFa 3 get dup mul add sqrt def
  0 0 M PFa 5 get rotate PFs -2 div dup translate
  0 1 PFs PFa 4 get div 1 add floor cvi
	{PFa 4 get mul 0 M 0 PFs V} for
  0 PFa 6 get ne {
	0 1 PFs PFa 4 get div 1 add floor cvi
	{PFa 4 get mul 0 2 1 roll M PFs 0 V} for
 } if
  stroke grestore} def
%
/languagelevel where
 {pop languagelevel} {1} ifelse
 2 lt
	{/InterpretLevel1 true def}
	{/InterpretLevel1 Level1 def}
 ifelse
%
% PostScript level 2 pattern fill definitions
%
/Level2PatternFill {
/Tile8x8 {/PaintType 2 /PatternType 1 /TilingType 1 /BBox [0 0 8 8] /XStep 8 /YStep 8}
	bind def
/KeepColor {currentrgbcolor [/Pattern /DeviceRGB] setcolorspace} bind def
<< Tile8x8
 /PaintProc {0.5 setlinewidth pop 0 0 M 8 8 L 0 8 M 8 0 L stroke} 
>> matrix makepattern
/Pat1 exch def
<< Tile8x8
 /PaintProc {0.5 setlinewidth pop 0 0 M 8 8 L 0 8 M 8 0 L stroke
	0 4 M 4 8 L 8 4 L 4 0 L 0 4 L stroke}
>> matrix makepattern
/Pat2 exch def
<< Tile8x8
 /PaintProc {0.5 setlinewidth pop 0 0 M 0 8 L
	8 8 L 8 0 L 0 0 L fill}
>> matrix makepattern
/Pat3 exch def
<< Tile8x8
 /PaintProc {0.5 setlinewidth pop -4 8 M 8 -4 L
	0 12 M 12 0 L stroke}
>> matrix makepattern
/Pat4 exch def
<< Tile8x8
 /PaintProc {0.5 setlinewidth pop -4 0 M 8 12 L
	0 -4 M 12 8 L stroke}
>> matrix makepattern
/Pat5 exch def
<< Tile8x8
 /PaintProc {0.5 setlinewidth pop -2 8 M 4 -4 L
	0 12 M 8 -4 L 4 12 M 10 0 L stroke}
>> matrix makepattern
/Pat6 exch def
<< Tile8x8
 /PaintProc {0.5 setlinewidth pop -2 0 M 4 12 L
	0 -4 M 8 12 L 4 -4 M 10 8 L stroke}
>> matrix makepattern
/Pat7 exch def
<< Tile8x8
 /PaintProc {0.5 setlinewidth pop 8 -2 M -4 4 L
	12 0 M -4 8 L 12 4 M 0 10 L stroke}
>> matrix makepattern
/Pat8 exch def
<< Tile8x8
 /PaintProc {0.5 setlinewidth pop 0 -2 M 12 4 L
	-4 0 M 12 8 L -4 4 M 8 10 L stroke}
>> matrix makepattern
/Pat9 exch def
/Pattern1 {PatternBgnd KeepColor Pat1 setpattern} bind def
/Pattern2 {PatternBgnd KeepColor Pat2 setpattern} bind def
/Pattern3 {PatternBgnd KeepColor Pat3 setpattern} bind def
/Pattern4 {PatternBgnd KeepColor Landscape {Pat5} {Pat4} ifelse setpattern} bind def
/Pattern5 {PatternBgnd KeepColor Landscape {Pat4} {Pat5} ifelse setpattern} bind def
/Pattern6 {PatternBgnd KeepColor Landscape {Pat9} {Pat6} ifelse setpattern} bind def
/Pattern7 {PatternBgnd KeepColor Landscape {Pat8} {Pat7} ifelse setpattern} bind def
} def
%
%
%End of PostScript Level 2 code
%
/PatternBgnd {
  TransparentPatterns {} {gsave 1 setgray fill grestore} ifelse
} def
%
% Substitute for Level 2 pattern fill codes with
% grayscale if Level 2 support is not selected.
%
/Level1PatternFill {
/Pattern1 {0.250 Density} bind def
/Pattern2 {0.500 Density} bind def
/Pattern3 {0.750 Density} bind def
/Pattern4 {0.125 Density} bind def
/Pattern5 {0.375 Density} bind def
/Pattern6 {0.625 Density} bind def
/Pattern7 {0.875 Density} bind def
} def
%
% Now test for support of Level 2 code
%
Level1 {Level1PatternFill} {Level2PatternFill} ifelse
%
/Symbol-Oblique /Symbol findfont [1 0 .167 1 0 0] makefont
dup length dict begin {1 index /FID eq {pop pop} {def} ifelse} forall
currentdict end definefont pop
Level1 SuppressPDFMark or 
{} {
/SDict 10 dict def
systemdict /pdfmark known not {
  userdict /pdfmark systemdict /cleartomark get put
} if
SDict begin [
  /Title (out.ps)
  /Subject (gnuplot plot)
  /Creator (gnuplot 4.6 patchlevel 6)
  /Author (yani)
%  /Producer (gnuplot)
%  /Keywords ()
  /CreationDate (Fri May 29 00:08:59 2015)
  /DOCINFO pdfmark
end
} ifelse
end
%%EndProlog
%%Page: 1 1
gnudict begin
gsave
doclip
50 50 translate
0.100 0.100 scale
90 rotate
0 -5040 translate
0 setgray
newpath
(Helvetica) findfont 140 scalefont setfont
BackgroundColor 0 lt 3 1 roll 0 lt exch 0 lt or or not {gsave BackgroundColor C clippath fill grestore} if
1.000 UL
LT0
0.50 0.50 0.50 C 1.000 UL
LTa
0.50 0.50 0.50 C 966 280 M
5981 0 V
stroke
LT0
0.50 0.50 0.50 C 966 280 M
63 0 V
5918 0 R
-63 0 V
882 280 M
( 0) Rshow
1.000 UL
LT0
0.50 0.50 0.50 C 1.000 UL
LTa
0.50 0.50 0.50 C 966 372 M
5981 0 V
stroke
LT0
0.50 0.50 0.50 C 966 372 M
63 0 V
5918 0 R
-63 0 V
882 372 M
( 0.707106) Rshow
1.000 UL
LT0
0.50 0.50 0.50 C 1.000 UL
LTa
0.50 0.50 0.50 C 966 464 M
5981 0 V
stroke
LT0
0.50 0.50 0.50 C 966 464 M
63 0 V
5918 0 R
-63 0 V
882 464 M
( 1.41421) Rshow
1.000 UL
LT0
0.50 0.50 0.50 C 1.000 UL
LTa
0.50 0.50 0.50 C 966 555 M
5981 0 V
stroke
LT0
0.50 0.50 0.50 C 966 555 M
63 0 V
5918 0 R
-63 0 V
882 555 M
( 2.12132) Rshow
1.000 UL
LT0
0.50 0.50 0.50 C 1.000 UL
LTa
0.50 0.50 0.50 C 966 647 M
5981 0 V
stroke
LT0
0.50 0.50 0.50 C 966 647 M
63 0 V
5918 0 R
-63 0 V
882 647 M
( 2.82842) Rshow
1.000 UL
LT0
0.50 0.50 0.50 C 1.000 UL
LTa
0.50 0.50 0.50 C 966 739 M
5981 0 V
stroke
LT0
0.50 0.50 0.50 C 966 739 M
63 0 V
5918 0 R
-63 0 V
882 739 M
( 3.53553) Rshow
1.000 UL
LT0
0.50 0.50 0.50 C 1.000 UL
LTa
0.50 0.50 0.50 C 966 831 M
5981 0 V
stroke
LT0
0.50 0.50 0.50 C 966 831 M
63 0 V
5918 0 R
-63 0 V
882 831 M
( 4.24264) Rshow
1.000 UL
LT0
0.50 0.50 0.50 C 1.000 UL
LTa
0.50 0.50 0.50 C 966 923 M
5981 0 V
stroke
LT0
0.50 0.50 0.50 C 966 923 M
63 0 V
5918 0 R
-63 0 V
882 923 M
( 4.94974) Rshow
1.000 UL
LT0
0.50 0.50 0.50 C 1.000 UL
LTa
0.50 0.50 0.50 C 966 1015 M
5981 0 V
stroke
LT0
0.50 0.50 0.50 C 966 1015 M
63 0 V
5918 0 R
-63 0 V
-6002 0 R
( 5.65685) Rshow
1.000 UL
LT0
0.50 0.50 0.50 C 1.000 UL
LTa
0.50 0.50 0.50 C 966 1106 M
5981 0 V
stroke
LT0
0.50 0.50 0.50 C 966 1106 M
63 0 V
5918 0 R
-63 0 V
-6002 0 R
( 6.36395) Rshow
1.000 UL
LT0
0.50 0.50 0.50 C 1.000 UL
LTa
0.50 0.50 0.50 C 966 1198 M
5981 0 V
stroke
LT0
0.50 0.50 0.50 C 966 1198 M
63 0 V
5918 0 R
-63 0 V
-6002 0 R
( 7.07106) Rshow
1.000 UL
LT0
0.50 0.50 0.50 C 1.000 UL
LTa
0.50 0.50 0.50 C 966 1290 M
5981 0 V
stroke
LT0
0.50 0.50 0.50 C 966 1290 M
63 0 V
5918 0 R
-63 0 V
-6002 0 R
( 7.77817) Rshow
1.000 UL
LT0
0.50 0.50 0.50 C 1.000 UL
LTa
0.50 0.50 0.50 C 966 1382 M
5981 0 V
stroke
LT0
0.50 0.50 0.50 C 966 1382 M
63 0 V
5918 0 R
-63 0 V
-6002 0 R
( 8.48527) Rshow
1.000 UL
LT0
0.50 0.50 0.50 C 1.000 UL
LTa
0.50 0.50 0.50 C 966 1474 M
5981 0 V
stroke
LT0
0.50 0.50 0.50 C 966 1474 M
63 0 V
5918 0 R
-63 0 V
-6002 0 R
( 9.19238) Rshow
1.000 UL
LT0
0.50 0.50 0.50 C 1.000 UL
LTa
0.50 0.50 0.50 C 966 1565 M
5981 0 V
stroke
LT0
0.50 0.50 0.50 C 966 1565 M
63 0 V
5918 0 R
-63 0 V
-6002 0 R
( 9.89948) Rshow
1.000 UL
LT0
0.50 0.50 0.50 C 1.000 UL
LTa
0.50 0.50 0.50 C 966 1657 M
5981 0 V
stroke
LT0
0.50 0.50 0.50 C 966 1657 M
63 0 V
5918 0 R
-63 0 V
-6002 0 R
( 10.6066) Rshow
1.000 UL
LT0
0.50 0.50 0.50 C 1.000 UL
LTa
0.50 0.50 0.50 C 966 1749 M
5981 0 V
stroke
LT0
0.50 0.50 0.50 C 966 1749 M
63 0 V
5918 0 R
-63 0 V
-6002 0 R
( 11.3137) Rshow
1.000 UL
LT0
0.50 0.50 0.50 C 1.000 UL
LTa
0.50 0.50 0.50 C 966 1841 M
5981 0 V
stroke
LT0
0.50 0.50 0.50 C 966 1841 M
63 0 V
5918 0 R
-63 0 V
-6002 0 R
( 12.0208) Rshow
1.000 UL
LT0
0.50 0.50 0.50 C 1.000 UL
LTa
0.50 0.50 0.50 C 966 1933 M
5981 0 V
stroke
LT0
0.50 0.50 0.50 C 966 1933 M
63 0 V
5918 0 R
-63 0 V
-6002 0 R
( 12.7279) Rshow
1.000 UL
LT0
0.50 0.50 0.50 C 1.000 UL
LTa
0.50 0.50 0.50 C 966 2025 M
5981 0 V
stroke
LT0
0.50 0.50 0.50 C 966 2025 M
63 0 V
5918 0 R
-63 0 V
-6002 0 R
( 13.435) Rshow
1.000 UL
LT0
0.50 0.50 0.50 C 1.000 UL
LTa
0.50 0.50 0.50 C 966 2116 M
5981 0 V
stroke
LT0
0.50 0.50 0.50 C 966 2116 M
63 0 V
5918 0 R
-63 0 V
-6002 0 R
( 14.1421) Rshow
1.000 UL
LT0
0.50 0.50 0.50 C 1.000 UL
LTa
0.50 0.50 0.50 C 966 2208 M
5981 0 V
stroke
LT0
0.50 0.50 0.50 C 966 2208 M
63 0 V
5918 0 R
-63 0 V
-6002 0 R
( 14.8492) Rshow
1.000 UL
LT0
0.50 0.50 0.50 C 1.000 UL
LTa
0.50 0.50 0.50 C 966 2300 M
5981 0 V
stroke
LT0
0.50 0.50 0.50 C 966 2300 M
63 0 V
5918 0 R
-63 0 V
-6002 0 R
( 15.5563) Rshow
1.000 UL
LT0
0.50 0.50 0.50 C 1.000 UL
LTa
0.50 0.50 0.50 C 966 2392 M
5981 0 V
stroke
LT0
0.50 0.50 0.50 C 966 2392 M
63 0 V
5918 0 R
-63 0 V
-6002 0 R
( 16.2634) Rshow
1.000 UL
LT0
0.50 0.50 0.50 C 1.000 UL
LTa
0.50 0.50 0.50 C 966 2484 M
5981 0 V
stroke
LT0
0.50 0.50 0.50 C 966 2484 M
63 0 V
5918 0 R
-63 0 V
-6002 0 R
( 16.9705) Rshow
1.000 UL
LT0
0.50 0.50 0.50 C 1.000 UL
LTa
0.50 0.50 0.50 C 966 2575 M
5981 0 V
stroke
LT0
0.50 0.50 0.50 C 966 2575 M
63 0 V
5918 0 R
-63 0 V
-6002 0 R
( 17.6776) Rshow
1.000 UL
LT0
0.50 0.50 0.50 C 1.000 UL
LTa
0.50 0.50 0.50 C 966 2667 M
5981 0 V
stroke
LT0
0.50 0.50 0.50 C 966 2667 M
63 0 V
5918 0 R
-63 0 V
-6002 0 R
( 18.3848) Rshow
1.000 UL
LT0
0.50 0.50 0.50 C 1.000 UL
LTa
0.50 0.50 0.50 C 966 2759 M
5981 0 V
stroke
LT0
0.50 0.50 0.50 C 966 2759 M
63 0 V
5918 0 R
-63 0 V
-6002 0 R
( 19.0919) Rshow
1.000 UL
LT0
0.50 0.50 0.50 C 1.000 UL
LTa
0.50 0.50 0.50 C 966 2851 M
5981 0 V
stroke
LT0
0.50 0.50 0.50 C 966 2851 M
63 0 V
5918 0 R
-63 0 V
-6002 0 R
( 19.799) Rshow
1.000 UL
LT0
0.50 0.50 0.50 C 1.000 UL
LTa
0.50 0.50 0.50 C 966 2943 M
5981 0 V
stroke
LT0
0.50 0.50 0.50 C 966 2943 M
63 0 V
5918 0 R
-63 0 V
-6002 0 R
( 20.5061) Rshow
1.000 UL
LT0
0.50 0.50 0.50 C 1.000 UL
LTa
0.50 0.50 0.50 C 966 3035 M
5981 0 V
stroke
LT0
0.50 0.50 0.50 C 966 3035 M
63 0 V
5918 0 R
-63 0 V
-6002 0 R
( 21.2132) Rshow
1.000 UL
LT0
0.50 0.50 0.50 C 1.000 UL
LTa
0.50 0.50 0.50 C 966 3126 M
5981 0 V
stroke
LT0
0.50 0.50 0.50 C 966 3126 M
63 0 V
5918 0 R
-63 0 V
-6002 0 R
( 21.9203) Rshow
1.000 UL
LT0
0.50 0.50 0.50 C 1.000 UL
LTa
0.50 0.50 0.50 C 966 3218 M
5981 0 V
stroke
LT0
0.50 0.50 0.50 C 966 3218 M
63 0 V
5918 0 R
-63 0 V
-6002 0 R
( 22.6274) Rshow
1.000 UL
LT0
0.50 0.50 0.50 C 1.000 UL
LTa
0.50 0.50 0.50 C 966 3310 M
5981 0 V
stroke
LT0
0.50 0.50 0.50 C 966 3310 M
63 0 V
5918 0 R
-63 0 V
-6002 0 R
( 23.3345) Rshow
1.000 UL
LT0
0.50 0.50 0.50 C 1.000 UL
LTa
0.50 0.50 0.50 C 966 3402 M
5981 0 V
stroke
LT0
0.50 0.50 0.50 C 966 3402 M
63 0 V
5918 0 R
-63 0 V
-6002 0 R
( 24.0416) Rshow
1.000 UL
LT0
0.50 0.50 0.50 C 1.000 UL
LTa
0.50 0.50 0.50 C 966 3494 M
5981 0 V
stroke
LT0
0.50 0.50 0.50 C 966 3494 M
63 0 V
5918 0 R
-63 0 V
-6002 0 R
( 24.7487) Rshow
1.000 UL
LT0
0.50 0.50 0.50 C 1.000 UL
LTa
0.50 0.50 0.50 C 966 3586 M
5981 0 V
stroke
LT0
0.50 0.50 0.50 C 966 3586 M
63 0 V
5918 0 R
-63 0 V
-6002 0 R
( 25.4558) Rshow
1.000 UL
LT0
0.50 0.50 0.50 C 1.000 UL
LTa
0.50 0.50 0.50 C 966 3677 M
5981 0 V
stroke
LT0
0.50 0.50 0.50 C 966 3677 M
63 0 V
5918 0 R
-63 0 V
-6002 0 R
( 26.1629) Rshow
1.000 UL
LT0
0.50 0.50 0.50 C 1.000 UL
LTa
0.50 0.50 0.50 C 966 3769 M
5981 0 V
stroke
LT0
0.50 0.50 0.50 C 966 3769 M
63 0 V
5918 0 R
-63 0 V
-6002 0 R
( 26.87) Rshow
1.000 UL
LT0
0.50 0.50 0.50 C 1.000 UL
LTa
0.50 0.50 0.50 C 966 3861 M
5981 0 V
stroke
LT0
0.50 0.50 0.50 C 966 3861 M
63 0 V
5918 0 R
-63 0 V
-6002 0 R
( 27.5771) Rshow
1.000 UL
LT0
0.50 0.50 0.50 C 1.000 UL
LTa
0.50 0.50 0.50 C 966 3953 M
5981 0 V
stroke
LT0
0.50 0.50 0.50 C 966 3953 M
63 0 V
5918 0 R
-63 0 V
-6002 0 R
( 28.2842) Rshow
1.000 UL
LT0
0.50 0.50 0.50 C 1.000 UL
LTa
0.50 0.50 0.50 C 966 4045 M
5981 0 V
stroke
LT0
0.50 0.50 0.50 C 966 4045 M
63 0 V
5918 0 R
-63 0 V
-6002 0 R
( 28.9913) Rshow
1.000 UL
LT0
0.50 0.50 0.50 C 1.000 UL
LTa
0.50 0.50 0.50 C 966 4136 M
5981 0 V
stroke
LT0
0.50 0.50 0.50 C 966 4136 M
63 0 V
5918 0 R
-63 0 V
-6002 0 R
( 29.6985) Rshow
1.000 UL
LT0
0.50 0.50 0.50 C 1.000 UL
LTa
0.50 0.50 0.50 C 966 4228 M
5981 0 V
stroke
LT0
0.50 0.50 0.50 C 966 4228 M
63 0 V
5918 0 R
-63 0 V
-6002 0 R
( 30.4056) Rshow
1.000 UL
LT0
0.50 0.50 0.50 C 1.000 UL
LTa
0.50 0.50 0.50 C 966 4320 M
5981 0 V
stroke
LT0
0.50 0.50 0.50 C 966 4320 M
63 0 V
5918 0 R
-63 0 V
-6002 0 R
( 31.1127) Rshow
1.000 UL
LT0
0.50 0.50 0.50 C 1.000 UL
LTa
0.50 0.50 0.50 C 966 4412 M
5981 0 V
stroke
LT0
0.50 0.50 0.50 C 966 4412 M
63 0 V
5918 0 R
-63 0 V
-6002 0 R
( 31.8198) Rshow
1.000 UL
LT0
0.50 0.50 0.50 C 1.000 UL
LTa
0.50 0.50 0.50 C 966 4504 M
5981 0 V
stroke
LT0
0.50 0.50 0.50 C 966 4504 M
63 0 V
5918 0 R
-63 0 V
-6002 0 R
( 32.5269) Rshow
1.000 UL
LT0
0.50 0.50 0.50 C 1.000 UL
LTa
0.50 0.50 0.50 C 966 4596 M
5981 0 V
stroke
LT0
0.50 0.50 0.50 C 966 4596 M
63 0 V
5918 0 R
-63 0 V
-6002 0 R
( 33.234) Rshow
1.000 UL
LT0
0.50 0.50 0.50 C 1.000 UL
LTa
0.50 0.50 0.50 C 966 4687 M
5981 0 V
stroke
LT0
0.50 0.50 0.50 C 966 4687 M
63 0 V
5918 0 R
-63 0 V
-6002 0 R
( 33.9411) Rshow
1.000 UL
LT0
0.50 0.50 0.50 C 1.000 UL
LTa
0.50 0.50 0.50 C 966 4779 M
5981 0 V
stroke
LT0
0.50 0.50 0.50 C 966 4779 M
63 0 V
5918 0 R
-63 0 V
-6002 0 R
( 34.6482) Rshow
1.000 UL
LT0
0.50 0.50 0.50 C 1.000 UL
LTa
0.50 0.50 0.50 C 966 4871 M
5981 0 V
stroke
LT0
0.50 0.50 0.50 C 966 4871 M
63 0 V
5918 0 R
-63 0 V
-6002 0 R
( 35.3553) Rshow
1.000 UL
LT0
0.50 0.50 0.50 C 1.000 UL
LTa
0.50 0.50 0.50 C 966 280 M
0 4591 V
stroke
LT0
0.50 0.50 0.50 C 966 280 M
0 63 V
0 4528 R
0 -63 V
966 140 M
( 0) Cshow
1.000 UL
LT0
0.50 0.50 0.50 C 1.000 UL
LTa
0.50 0.50 0.50 C 1086 280 M
0 4591 V
stroke
LT0
0.50 0.50 0.50 C 1086 280 M
0 63 V
0 4528 R
0 -63 V
0 -4668 R
( 0.707106) Cshow
1.000 UL
LT0
0.50 0.50 0.50 C 1.000 UL
LTa
0.50 0.50 0.50 C 1205 280 M
0 4591 V
stroke
LT0
0.50 0.50 0.50 C 1205 280 M
0 63 V
0 4528 R
0 -63 V
0 -4668 R
( 1.41421) Cshow
1.000 UL
LT0
0.50 0.50 0.50 C 1.000 UL
LTa
0.50 0.50 0.50 C 1325 280 M
0 4591 V
stroke
LT0
0.50 0.50 0.50 C 1325 280 M
0 63 V
0 4528 R
0 -63 V
0 -4668 R
( 2.12132) Cshow
1.000 UL
LT0
0.50 0.50 0.50 C 1.000 UL
LTa
0.50 0.50 0.50 C 1444 280 M
0 4591 V
stroke
LT0
0.50 0.50 0.50 C 1444 280 M
0 63 V
0 4528 R
0 -63 V
0 -4668 R
( 2.82842) Cshow
1.000 UL
LT0
0.50 0.50 0.50 C 1.000 UL
LTa
0.50 0.50 0.50 C 1564 280 M
0 4591 V
stroke
LT0
0.50 0.50 0.50 C 1564 280 M
0 63 V
0 4528 R
0 -63 V
0 -4668 R
( 3.53553) Cshow
1.000 UL
LT0
0.50 0.50 0.50 C 1.000 UL
LTa
0.50 0.50 0.50 C 1684 280 M
0 4591 V
stroke
LT0
0.50 0.50 0.50 C 1684 280 M
0 63 V
0 4528 R
0 -63 V
0 -4668 R
( 4.24264) Cshow
1.000 UL
LT0
0.50 0.50 0.50 C 1.000 UL
LTa
0.50 0.50 0.50 C 1803 280 M
0 4591 V
stroke
LT0
0.50 0.50 0.50 C 1803 280 M
0 63 V
0 4528 R
0 -63 V
0 -4668 R
( 4.94974) Cshow
1.000 UL
LT0
0.50 0.50 0.50 C 1.000 UL
LTa
0.50 0.50 0.50 C 1923 280 M
0 4591 V
stroke
LT0
0.50 0.50 0.50 C 1923 280 M
0 63 V
0 4528 R
0 -63 V
0 -4668 R
( 5.65685) Cshow
1.000 UL
LT0
0.50 0.50 0.50 C 1.000 UL
LTa
0.50 0.50 0.50 C 2043 280 M
0 4591 V
stroke
LT0
0.50 0.50 0.50 C 2043 280 M
0 63 V
0 4528 R
0 -63 V
0 -4668 R
( 6.36395) Cshow
1.000 UL
LT0
0.50 0.50 0.50 C 1.000 UL
LTa
0.50 0.50 0.50 C 2162 280 M
0 4591 V
stroke
LT0
0.50 0.50 0.50 C 2162 280 M
0 63 V
0 4528 R
0 -63 V
0 -4668 R
( 7.07106) Cshow
1.000 UL
LT0
0.50 0.50 0.50 C 1.000 UL
LTa
0.50 0.50 0.50 C 2282 280 M
0 4591 V
stroke
LT0
0.50 0.50 0.50 C 2282 280 M
0 63 V
0 4528 R
0 -63 V
0 -4668 R
( 7.77817) Cshow
1.000 UL
LT0
0.50 0.50 0.50 C 1.000 UL
LTa
0.50 0.50 0.50 C 2401 280 M
0 4591 V
stroke
LT0
0.50 0.50 0.50 C 2401 280 M
0 63 V
0 4528 R
0 -63 V
0 -4668 R
( 8.48527) Cshow
1.000 UL
LT0
0.50 0.50 0.50 C 1.000 UL
LTa
0.50 0.50 0.50 C 2521 280 M
0 4591 V
stroke
LT0
0.50 0.50 0.50 C 2521 280 M
0 63 V
0 4528 R
0 -63 V
0 -4668 R
( 9.19238) Cshow
1.000 UL
LT0
0.50 0.50 0.50 C 1.000 UL
LTa
0.50 0.50 0.50 C 2641 280 M
0 4591 V
stroke
LT0
0.50 0.50 0.50 C 2641 280 M
0 63 V
0 4528 R
0 -63 V
0 -4668 R
( 9.89948) Cshow
1.000 UL
LT0
0.50 0.50 0.50 C 1.000 UL
LTa
0.50 0.50 0.50 C 2760 280 M
0 4591 V
stroke
LT0
0.50 0.50 0.50 C 2760 280 M
0 63 V
0 4528 R
0 -63 V
0 -4668 R
( 10.6066) Cshow
1.000 UL
LT0
0.50 0.50 0.50 C 1.000 UL
LTa
0.50 0.50 0.50 C 2880 280 M
0 4591 V
stroke
LT0
0.50 0.50 0.50 C 2880 280 M
0 63 V
0 4528 R
0 -63 V
0 -4668 R
( 11.3137) Cshow
1.000 UL
LT0
0.50 0.50 0.50 C 1.000 UL
LTa
0.50 0.50 0.50 C 3000 280 M
0 4591 V
stroke
LT0
0.50 0.50 0.50 C 3000 280 M
0 63 V
0 4528 R
0 -63 V
0 -4668 R
( 12.0208) Cshow
1.000 UL
LT0
0.50 0.50 0.50 C 1.000 UL
LTa
0.50 0.50 0.50 C 3119 280 M
0 4591 V
stroke
LT0
0.50 0.50 0.50 C 3119 280 M
0 63 V
0 4528 R
0 -63 V
0 -4668 R
( 12.7279) Cshow
1.000 UL
LT0
0.50 0.50 0.50 C 1.000 UL
LTa
0.50 0.50 0.50 C 3239 280 M
0 4591 V
stroke
LT0
0.50 0.50 0.50 C 3239 280 M
0 63 V
0 4528 R
0 -63 V
0 -4668 R
( 13.435) Cshow
1.000 UL
LT0
0.50 0.50 0.50 C 1.000 UL
LTa
0.50 0.50 0.50 C 3358 280 M
0 4591 V
stroke
LT0
0.50 0.50 0.50 C 3358 280 M
0 63 V
0 4528 R
0 -63 V
0 -4668 R
( 14.1421) Cshow
1.000 UL
LT0
0.50 0.50 0.50 C 1.000 UL
LTa
0.50 0.50 0.50 C 3478 280 M
0 4591 V
stroke
LT0
0.50 0.50 0.50 C 3478 280 M
0 63 V
0 4528 R
0 -63 V
0 -4668 R
( 14.8492) Cshow
1.000 UL
LT0
0.50 0.50 0.50 C 1.000 UL
LTa
0.50 0.50 0.50 C 3598 280 M
0 4591 V
stroke
LT0
0.50 0.50 0.50 C 3598 280 M
0 63 V
0 4528 R
0 -63 V
0 -4668 R
( 15.5563) Cshow
1.000 UL
LT0
0.50 0.50 0.50 C 1.000 UL
LTa
0.50 0.50 0.50 C 3717 280 M
0 4591 V
stroke
LT0
0.50 0.50 0.50 C 3717 280 M
0 63 V
0 4528 R
0 -63 V
0 -4668 R
( 16.2634) Cshow
1.000 UL
LT0
0.50 0.50 0.50 C 1.000 UL
LTa
0.50 0.50 0.50 C 3837 280 M
0 4591 V
stroke
LT0
0.50 0.50 0.50 C 3837 280 M
0 63 V
0 4528 R
0 -63 V
0 -4668 R
( 16.9705) Cshow
1.000 UL
LT0
0.50 0.50 0.50 C 1.000 UL
LTa
0.50 0.50 0.50 C 3956 280 M
0 4591 V
stroke
LT0
0.50 0.50 0.50 C 3956 280 M
0 63 V
0 4528 R
0 -63 V
0 -4668 R
( 17.6776) Cshow
1.000 UL
LT0
0.50 0.50 0.50 C 1.000 UL
LTa
0.50 0.50 0.50 C 4076 280 M
0 4591 V
stroke
LT0
0.50 0.50 0.50 C 4076 280 M
0 63 V
0 4528 R
0 -63 V
0 -4668 R
( 18.3848) Cshow
1.000 UL
LT0
0.50 0.50 0.50 C 1.000 UL
LTa
0.50 0.50 0.50 C 4196 280 M
0 4591 V
stroke
LT0
0.50 0.50 0.50 C 4196 280 M
0 63 V
0 4528 R
0 -63 V
0 -4668 R
( 19.0919) Cshow
1.000 UL
LT0
0.50 0.50 0.50 C 1.000 UL
LTa
0.50 0.50 0.50 C 4315 280 M
0 4591 V
stroke
LT0
0.50 0.50 0.50 C 4315 280 M
0 63 V
0 4528 R
0 -63 V
0 -4668 R
( 19.799) Cshow
1.000 UL
LT0
0.50 0.50 0.50 C 1.000 UL
LTa
0.50 0.50 0.50 C 4435 280 M
0 4591 V
stroke
LT0
0.50 0.50 0.50 C 4435 280 M
0 63 V
0 4528 R
0 -63 V
0 -4668 R
( 20.5061) Cshow
1.000 UL
LT0
0.50 0.50 0.50 C 1.000 UL
LTa
0.50 0.50 0.50 C 4555 280 M
0 4591 V
stroke
LT0
0.50 0.50 0.50 C 4555 280 M
0 63 V
0 4528 R
0 -63 V
0 -4668 R
( 21.2132) Cshow
1.000 UL
LT0
0.50 0.50 0.50 C 1.000 UL
LTa
0.50 0.50 0.50 C 4674 280 M
0 4591 V
stroke
LT0
0.50 0.50 0.50 C 4674 280 M
0 63 V
0 4528 R
0 -63 V
0 -4668 R
( 21.9203) Cshow
1.000 UL
LT0
0.50 0.50 0.50 C 1.000 UL
LTa
0.50 0.50 0.50 C 4794 280 M
0 4591 V
stroke
LT0
0.50 0.50 0.50 C 4794 280 M
0 63 V
0 4528 R
0 -63 V
0 -4668 R
( 22.6274) Cshow
1.000 UL
LT0
0.50 0.50 0.50 C 1.000 UL
LTa
0.50 0.50 0.50 C 4913 280 M
0 4591 V
stroke
LT0
0.50 0.50 0.50 C 4913 280 M
0 63 V
0 4528 R
0 -63 V
0 -4668 R
( 23.3345) Cshow
1.000 UL
LT0
0.50 0.50 0.50 C 1.000 UL
LTa
0.50 0.50 0.50 C 5033 280 M
0 4591 V
stroke
LT0
0.50 0.50 0.50 C 5033 280 M
0 63 V
0 4528 R
0 -63 V
0 -4668 R
( 24.0416) Cshow
1.000 UL
LT0
0.50 0.50 0.50 C 1.000 UL
LTa
0.50 0.50 0.50 C 5153 280 M
0 4591 V
stroke
LT0
0.50 0.50 0.50 C 5153 280 M
0 63 V
0 4528 R
0 -63 V
0 -4668 R
( 24.7487) Cshow
1.000 UL
LT0
0.50 0.50 0.50 C 1.000 UL
LTa
0.50 0.50 0.50 C 5272 280 M
0 4591 V
stroke
LT0
0.50 0.50 0.50 C 5272 280 M
0 63 V
0 4528 R
0 -63 V
0 -4668 R
( 25.4558) Cshow
1.000 UL
LT0
0.50 0.50 0.50 C 1.000 UL
LTa
0.50 0.50 0.50 C 5392 280 M
0 4591 V
stroke
LT0
0.50 0.50 0.50 C 5392 280 M
0 63 V
0 4528 R
0 -63 V
0 -4668 R
( 26.1629) Cshow
1.000 UL
LT0
0.50 0.50 0.50 C 1.000 UL
LTa
0.50 0.50 0.50 C 5512 280 M
0 4591 V
stroke
LT0
0.50 0.50 0.50 C 5512 280 M
0 63 V
0 4528 R
0 -63 V
0 -4668 R
( 26.87) Cshow
1.000 UL
LT0
0.50 0.50 0.50 C 1.000 UL
LTa
0.50 0.50 0.50 C 5631 280 M
0 4591 V
stroke
LT0
0.50 0.50 0.50 C 5631 280 M
0 63 V
0 4528 R
0 -63 V
0 -4668 R
( 27.5771) Cshow
1.000 UL
LT0
0.50 0.50 0.50 C 1.000 UL
LTa
0.50 0.50 0.50 C 5751 280 M
0 4591 V
stroke
LT0
0.50 0.50 0.50 C 5751 280 M
0 63 V
0 4528 R
0 -63 V
0 -4668 R
( 28.2842) Cshow
1.000 UL
LT0
0.50 0.50 0.50 C 1.000 UL
LTa
0.50 0.50 0.50 C 5870 280 M
0 4591 V
stroke
LT0
0.50 0.50 0.50 C 5870 280 M
0 63 V
0 4528 R
0 -63 V
0 -4668 R
( 28.9913) Cshow
1.000 UL
LT0
0.50 0.50 0.50 C 1.000 UL
LTa
0.50 0.50 0.50 C 5990 280 M
0 4591 V
stroke
LT0
0.50 0.50 0.50 C 5990 280 M
0 63 V
0 4528 R
0 -63 V
0 -4668 R
( 29.6985) Cshow
1.000 UL
LT0
0.50 0.50 0.50 C 1.000 UL
LTa
0.50 0.50 0.50 C 6110 280 M
0 4591 V
stroke
LT0
0.50 0.50 0.50 C 6110 280 M
0 63 V
0 4528 R
0 -63 V
0 -4668 R
( 30.4056) Cshow
1.000 UL
LT0
0.50 0.50 0.50 C 1.000 UL
LTa
0.50 0.50 0.50 C 6229 280 M
0 4591 V
stroke
LT0
0.50 0.50 0.50 C 6229 280 M
0 63 V
0 4528 R
0 -63 V
0 -4668 R
( 31.1127) Cshow
1.000 UL
LT0
0.50 0.50 0.50 C 1.000 UL
LTa
0.50 0.50 0.50 C 6349 280 M
0 4591 V
stroke
LT0
0.50 0.50 0.50 C 6349 280 M
0 63 V
0 4528 R
0 -63 V
0 -4668 R
( 31.8198) Cshow
1.000 UL
LT0
0.50 0.50 0.50 C 1.000 UL
LTa
0.50 0.50 0.50 C 6469 280 M
0 4591 V
stroke
LT0
0.50 0.50 0.50 C 6469 280 M
0 63 V
0 4528 R
0 -63 V
0 -4668 R
( 32.5269) Cshow
1.000 UL
LT0
0.50 0.50 0.50 C 1.000 UL
LTa
0.50 0.50 0.50 C 6588 280 M
0 4591 V
stroke
LT0
0.50 0.50 0.50 C 6588 280 M
0 63 V
0 4528 R
0 -63 V
0 -4668 R
( 33.234) Cshow
1.000 UL
LT0
0.50 0.50 0.50 C 1.000 UL
LTa
0.50 0.50 0.50 C 6708 280 M
0 4591 V
stroke
LT0
0.50 0.50 0.50 C 6708 280 M
0 63 V
0 4528 R
0 -63 V
0 -4668 R
( 33.9411) Cshow
1.000 UL
LT0
0.50 0.50 0.50 C 1.000 UL
LTa
0.50 0.50 0.50 C 6827 280 M
0 4591 V
stroke
LT0
0.50 0.50 0.50 C 6827 280 M
0 63 V
0 4528 R
0 -63 V
0 -4668 R
( 34.6482) Cshow
1.000 UL
LT0
0.50 0.50 0.50 C 1.000 UL
LTa
0.50 0.50 0.50 C 6947 280 M
0 4591 V
stroke
LT0
0.50 0.50 0.50 C 6947 280 M
0 63 V
0 4528 R
0 -63 V
0 -4668 R
( 35.3553) Cshow
1.000 UL
LT0
0.50 0.50 0.50 C 1.000 UL
LT0
0.50 0.50 0.50 C 966 4871 M
966 280 L
5981 0 V
0 4591 R
-5981 0 R
1.000 UP
stroke
LT0
0.50 0.50 0.50 C % Begin plot #1
1.500 UP
2.000 UL
LT0
0.00 0.00 1.00 C /Helvetica findfont 140 scalefont setfont
/vshift -46 def
1086 372 M
119 0 V
120 0 V
119 0 V
120 0 V
120 0 V
119 0 V
0 826 R
120 0 V
120 0 V
0 367 R
119 0 V
0 827 R
120 0 V
119 0 V
0 184 R
120 0 V
0 91 R
120 0 V
119 0 V
120 0 V
120 0 V
119 0 V
120 0 V
119 0 V
120 0 V
120 0 V
0 184 R
119 0 V
120 0 V
0 184 R
120 0 V
119 0 V
120 0 V
119 0 V
120 0 V
120 0 V
0 183 R
119 0 V
120 0 V
0 92 R
119 0 V
120 0 V
120 0 V
119 0 V
120 0 V
120 0 V
0 92 R
119 0 V
120 0 V
0 367 R
119 0 V
120 0 V
0 367 R
120 0 V
0 368 R
119 0 V
120 0 V
120 0 V
966 280 M
120 0 V
6827 4871 M
120 0 V
-478 0 R
119 0 V
120 0 V
119 0 V
1086 280 M
0 92 V
717 0 R
0 92 V
0 91 V
0 92 V
0 92 V
0 92 V
0 92 V
0 92 V
0 91 V
0 92 V
240 0 R
0 92 V
0 92 V
0 92 V
0 91 V
119 0 R
0 92 V
0 92 V
0 92 V
0 92 V
0 92 V
0 91 V
0 92 V
0 92 V
0 92 V
239 0 R
0 92 V
0 92 V
120 0 R
0 91 V
1077 0 R
0 92 V
0 92 V
239 0 R
0 92 V
0 92 V
stroke 3837 3035 M
718 0 R
0 91 V
0 92 V
239 0 R
0 92 V
718 0 R
0 92 V
239 0 R
0 92 V
0 92 V
0 91 V
0 92 V
239 0 R
0 92 V
0 92 V
0 92 V
0 91 V
120 0 R
0 92 V
0 92 V
0 92 V
0 92 V
359 0 R
0 92 V
0 91 V
0 92 V
0 92 V
1086 372 CircleF
1205 372 CircleF
1205 372 CircleF
1325 372 CircleF
1325 372 CircleF
1444 372 CircleF
1444 372 CircleF
1564 372 CircleF
1564 372 CircleF
1684 372 CircleF
1684 372 CircleF
1803 372 CircleF
1803 1198 CircleF
1923 1198 CircleF
1923 1198 CircleF
2043 1198 CircleF
2043 1565 CircleF
2162 1565 CircleF
2162 2392 CircleF
2282 2392 CircleF
2282 2392 CircleF
2401 2392 CircleF
2401 2576 CircleF
2521 2576 CircleF
2521 2667 CircleF
2641 2667 CircleF
2641 2667 CircleF
2760 2667 CircleF
2760 2667 CircleF
2880 2667 CircleF
2880 2667 CircleF
3000 2667 CircleF
3000 2667 CircleF
3119 2667 CircleF
3119 2667 CircleF
3239 2667 CircleF
3239 2667 CircleF
3358 2667 CircleF
3358 2667 CircleF
3478 2667 CircleF
3478 2667 CircleF
3598 2667 CircleF
3598 2851 CircleF
3717 2851 CircleF
3717 2851 CircleF
3837 2851 CircleF
3837 3035 CircleF
3957 3035 CircleF
3957 3035 CircleF
4076 3035 CircleF
4076 3035 CircleF
4196 3035 CircleF
4196 3035 CircleF
4315 3035 CircleF
4315 3035 CircleF
4435 3035 CircleF
4435 3035 CircleF
4555 3035 CircleF
4555 3218 CircleF
4674 3218 CircleF
4674 3218 CircleF
4794 3218 CircleF
4794 3310 CircleF
4913 3310 CircleF
4913 3310 CircleF
5033 3310 CircleF
5033 3310 CircleF
5153 3310 CircleF
5153 3310 CircleF
5272 3310 CircleF
5272 3310 CircleF
5392 3310 CircleF
5392 3310 CircleF
5512 3310 CircleF
5512 3402 CircleF
5631 3402 CircleF
5631 3402 CircleF
5751 3402 CircleF
5751 3769 CircleF
5870 3769 CircleF
5870 3769 CircleF
5990 3769 CircleF
5990 4136 CircleF
6110 4136 CircleF
6110 4504 CircleF
6229 4504 CircleF
6229 4504 CircleF
6349 4504 CircleF
6349 4504 CircleF
6469 4504 CircleF
966 280 CircleF
1086 280 CircleF
6827 4871 CircleF
6947 4871 CircleF
6469 4871 CircleF
6588 4871 CircleF
6588 4871 CircleF
6708 4871 CircleF
6708 4871 CircleF
6827 4871 CircleF
1086 280 CircleF
1086 372 CircleF
1803 372 CircleF
1803 464 CircleF
1803 464 CircleF
1803 555 CircleF
1803 555 CircleF
1803 647 CircleF
1803 647 CircleF
1803 739 CircleF
1803 739 CircleF
1803 831 CircleF
1803 831 CircleF
1803 923 CircleF
1803 923 CircleF
1803 1015 CircleF
1803 1015 CircleF
1803 1106 CircleF
1803 1106 CircleF
1803 1198 CircleF
2043 1198 CircleF
2043 1290 CircleF
2043 1290 CircleF
2043 1382 CircleF
2043 1382 CircleF
2043 1474 CircleF
2043 1474 CircleF
2043 1565 CircleF
2162 1565 CircleF
2162 1657 CircleF
2162 1657 CircleF
2162 1749 CircleF
2162 1749 CircleF
2162 1841 CircleF
2162 1841 CircleF
2162 1933 CircleF
2162 1933 CircleF
2162 2025 CircleF
2162 2025 CircleF
2162 2116 CircleF
2162 2116 CircleF
2162 2208 CircleF
2162 2208 CircleF
2162 2300 CircleF
2162 2300 CircleF
2162 2392 CircleF
2401 2392 CircleF
2401 2484 CircleF
2401 2484 CircleF
2401 2576 CircleF
2521 2576 CircleF
2521 2667 CircleF
3598 2667 CircleF
3598 2759 CircleF
3598 2759 CircleF
3598 2851 CircleF
3837 2851 CircleF
3837 2943 CircleF
3837 2943 CircleF
3837 3035 CircleF
4555 3035 CircleF
4555 3126 CircleF
4555 3126 CircleF
4555 3218 CircleF
4794 3218 CircleF
4794 3310 CircleF
5512 3310 CircleF
5512 3402 CircleF
5751 3402 CircleF
5751 3494 CircleF
5751 3494 CircleF
5751 3586 CircleF
5751 3586 CircleF
5751 3677 CircleF
5751 3677 CircleF
5751 3769 CircleF
5990 3769 CircleF
5990 3861 CircleF
5990 3861 CircleF
5990 3953 CircleF
5990 3953 CircleF
5990 4045 CircleF
5990 4045 CircleF
5990 4136 CircleF
6110 4136 CircleF
6110 4228 CircleF
6110 4228 CircleF
6110 4320 CircleF
6110 4320 CircleF
6110 4412 CircleF
6110 4412 CircleF
6110 4504 CircleF
6469 4504 CircleF
6469 4596 CircleF
6469 4596 CircleF
6469 4687 CircleF
6469 4687 CircleF
6469 4779 CircleF
6469 4779 CircleF
6469 4871 CircleF
% End plot #1
% Begin plot #2
1.500 UP
2.000 UL
LT0
1.00 0.55 0.00 C /Helvetica findfont 140 scalefont setfont
2216 2400 M
197 151 V
549 2127 R
195 149 V
5869 3339 M
181 139 V
1814 2740 M
198 152 V
3587 771 M
237 182 V
5185 2326 M
156 120 V
-56 2023 R
178 137 V
5046 3021 M
170 131 V
4623 1373 M
146 112 V
2700 2956 M
222 170 V
2126 1202 M
141 108 V
6427 3930 M
156 120 V
1004 2852 M
194 148 V
3695 2897 M
186 142 V
6598 771 M
152 117 V
1130 2946 M
119 91 V
1845 1158 M
217 167 V
1004 2623 M
217 166 V
5425 933 R
165 127 V
3464 2898 M
187 144 V
-29 -823 R
166 128 V
4813 705 M
139 106 V
958 2700 R
163 126 V
-226 -48 R
161 124 V
1400 1880 M
120 92 V
4255 1837 M
121 92 V
5257 777 M
199 153 V
401 1430 R
131 100 V
3119 2237 M
185 143 V
4501 3563 M
140 107 V
1606 2080 M
230 176 V
2953 138 R
135 104 V
716 513 R
136 104 V
2490 3946 M
176 135 V
5507 1042 M
195 149 V
463 2664 R
216 167 V
5162 1818 M
151 116 V
3752 320 M
190 146 V
113 2000 R
145 111 V
2710 1051 M
226 173 V
6176 4229 M
194 149 V
5987 3342 M
211 162 V
3109 3345 M
199 153 V
2424 117 R
208 159 V
1617 1923 M
177 135 V
3831 855 M
186 143 V
1741 3730 M
164 126 V
4342 2845 M
211 162 V
1171 630 M
235 181 V
2447 4335 M
159 122 V
3402 3206 M
150 116 V
1778 620 R
207 160 V
3413 628 M
166 127 V
stroke 3579 755 M
26 2739 R
188 144 V
5539 333 M
147 113 V
2431 3762 M
189 146 V
3402 2583 M
230 176 V
3064 298 R
155 120 V
4028 2832 M
124 95 V
3635 2749 M
179 138 V
388 -954 R
157 120 V
5551 4012 M
207 160 V
1143 4558 M
181 140 V
3674 4239 M
223 171 V
3110 3715 M
122 94 V
3222 1511 M
222 171 V
4926 1271 M
222 171 V
576 671 R
234 180 V
2395 4296 M
132 101 V
1760 415 M
208 159 V
6007 2331 M
174 133 V
5291 328 M
200 153 V
2874 2920 M
208 159 V
2496 535 R
166 128 V
4715 3226 M
171 131 V
3223 1999 M
180 138 V
1543 256 R
142 109 V
47 907 R
133 102 V
6618 3116 M
179 138 V
5318 881 M
175 134 V
116 2342 R
228 175 V
4574 561 M
134 103 V
33 -311 R
141 108 V
110 578 R
124 95 V
775 810 R
221 170 V
4586 3426 M
237 181 V
3889 3252 M
122 93 V
2495 4194 M
138 105 V
3977 2300 M
181 139 V
5822 1128 M
160 123 V
3330 4171 M
130 100 V
1068 3900 M
230 176 V
976 3976 M
210 161 V
4825 3877 M
157 121 V
503 -199 R
226 173 V
5212 1271 M
208 160 V
2337 4192 M
182 140 V
1649 310 M
199 152 V
4047 879 R
188 144 V
4794 3217 M
179 138 V
3296 3847 M
214 165 V
3261 2529 M
218 168 V
5687 580 M
221 170 V
140 2554 R
148 113 V
2729 2746 M
169 129 V
stroke 2898 2875 M
496 -280 R
185 141 V
5442 4330 M
161 123 V
356 -333 R
156 121 V
1470 1569 M
139 107 V
3620 3981 M
143 110 V
1094 1001 M
123 94 V
4445 3070 M
204 157 V
4510 2179 M
219 169 V
2225 3728 M
136 105 V
4996 419 M
159 122 V
4704 1885 M
219 169 V
1316 1184 M
136 105 V
5033 269 R
127 97 V
4374 4280 M
145 111 V
5265 365 M
202 155 V
-765 776 R
131 100 V
1104 2801 M
135 104 V
6636 1740 M
215 166 V
3849 4213 M
206 158 V
2256 4508 M
183 140 V
3343 1244 M
231 178 V
5478 3351 M
178 137 V
280 489 R
167 128 V
4906 1875 M
161 124 V
848 994 R
194 149 V
2217 2100 M
153 118 V
1719 783 R
161 124 V
1338 883 R
236 181 V
2015 1330 M
200 154 V
3639 1298 M
150 115 V
6440 614 M
145 111 V
1427 3089 M
211 162 V
5521 1219 M
199 153 V
4453 4377 M
203 155 V
2132 803 M
235 180 V
6162 2693 M
217 165 V
3965 3071 M
128 98 V
6353 4443 M
189 145 V
1070 4273 M
131 100 V
3545 3462 M
141 108 V
6678 2068 M
185 143 V
4678 3565 M
206 158 V
2738 2610 M
165 127 V
2900 973 R
161 123 V
2097 3096 M
147 113 V
-1226 43 R
225 173 V
3300 3163 M
204 156 V
6602 2789 M
138 106 V
2380 302 M
226 174 V
1549 781 M
178 137 V
5766 3202 M
199 153 V
1994 4487 M
208 159 V
stroke 2202 4646 M
5925 2115 M
131 101 V
2803 3460 M
222 171 V
4307 2917 M
161 123 V
613 -570 R
203 156 V
2021 925 M
225 172 V
3003 973 R
169 129 V
2754 3163 M
133 102 V
-1548 81 R
184 141 V
2669 667 M
224 173 V
2013 2176 M
128 98 V
1599 470 M
219 168 V
4688 469 M
126 97 V
4157 3530 M
227 174 V
3256 1270 M
215 165 V
2907 3118 M
154 118 V
1994 2023 M
191 147 V
5035 3195 M
231 177 V
3310 1089 M
182 139 V
3273 3280 M
195 150 V
2384 938 M
133 102 V
2452 599 M
199 153 V
5798 4141 M
198 152 V
1171 2127 M
208 159 V
706 4 R
171 132 V
4271 920 R
215 164 V
1164 2405 M
236 181 V
1320 -56 R
155 119 V
6092 3683 M
165 127 V
5457 2484 M
141 108 V
445 -442 R
160 122 V
-2873 93 R
206 159 V
6103 4266 M
171 131 V
4912 4019 M
237 182 V
6639 3842 M
168 130 V
998 2040 M
141 108 V
6452 567 M
182 139 V
-70 2184 R
222 171 V
4439 1934 M
161 123 V
3217 1608 M
207 159 V
5380 3241 M
204 157 V
3969 4405 M
212 163 V
3178 1311 M
234 179 V
2333 49 R
217 167 V
3637 1491 M
145 111 V
1290 918 M
227 174 V
3867 2988 M
220 170 V
2915 3774 M
204 157 V
6099 3536 M
214 164 V
4104 4532 M
210 161 V
2382 1897 M
230 176 V
228 -113 R
230 176 V
5712 3407 M
190 146 V
stroke 5902 3553 M
-975 267 R
152 117 V
4149 2554 M
230 176 V
713 1175 R
221 169 V
1155 433 R
126 98 V
2416 3477 M
229 176 V
5803 2114 M
168 129 V
133 170 R
169 130 V
188 -542 R
192 147 V
1854 3633 M
227 174 V
5446 776 M
220 168 V
1604 607 M
182 139 V
4826 881 R
164 126 V
-442 983 R
192 148 V
2038 1488 M
123 94 V
4227 831 M
234 180 V
2361 1514 M
189 145 V
3874 4203 M
143 109 V
4419 3087 M
138 105 V
970 -359 R
222 171 V
6534 879 M
140 107 V
1323 1185 M
201 154 V
3913 864 M
137 105 V
2391 1234 M
172 132 V
6661 3948 M
173 133 V
5652 2322 M
222 171 V
503 1273 R
218 167 V
6073 1485 M
220 169 V
1180 1954 M
180 137 V
5352 331 M
188 145 V
5348 2886 M
169 130 V
4378 2032 M
144 111 V
-552 489 R
222 170 V
67 -1295 R
190 147 V
2716 443 M
171 131 V
3910 2542 M
209 160 V
3785 1518 M
145 112 V
1370 1944 M
218 167 V
-118 812 R
138 106 V
2985 2659 M
133 103 V
1983 447 M
183 141 V
60 3037 R
121 93 V
5709 820 M
202 155 V
5522 2404 M
135 104 V
3081 4229 M
189 145 V
4216 2872 M
149 114 V
2858 3327 M
236 182 V
6281 3109 M
202 155 V
-1305 9 R
136 105 V
5334 369 M
237 182 V
5104 2771 M
172 133 V
2039 2123 M
219 168 V
5147 818 M
122 94 V
stroke 5269 912 M
6523 672 M
168 130 V
2559 4591 M
140 107 V
6365 3467 M
169 129 V
4998 1081 M
203 155 V
4682 2561 M
159 122 V
3688 2793 M
145 112 V
2496 4634 M
208 160 V
5387 4427 M
178 137 V
5006 1940 M
231 178 V
971 281 M
206 157 V
5359 4119 M
215 165 V
798 255 R
161 124 V
6092 1257 M
151 116 V
2755 3465 M
142 109 V
6210 2684 M
134 104 V
-4435 17 R
143 111 V
6184 2247 M
150 116 V
3489 3563 M
198 152 V
6310 1481 M
199 153 V
2976 4668 M
228 174 V
4628 2062 M
128 98 V
365 1009 R
219 169 V
5789 338 M
125 96 V
-225 730 R
228 176 V
347 3111 R
165 127 V
-3345 36 R
125 96 V
1870 1790 M
216 166 V
427 2575 R
138 105 V
4706 2989 M
135 104 V
4702 4147 M
132 101 V
5411 3038 M
137 106 V
3497 2768 M
148 113 V
2602 2641 M
129 99 V
2962 869 R
175 134 V
1207 2837 M
176 135 V
4676 4670 M
168 129 V
5909 4020 M
227 174 V
2857 2783 M
230 177 V
4760 2767 M
201 154 V
1799 1938 M
125 96 V
317 -680 R
122 93 V
5878 2551 M
180 138 V
432 -925 R
204 156 V
5561 3299 M
235 181 V
725 -892 R
175 134 V
1324 3457 M
150 115 V
2835 1 R
199 153 V
5652 1454 M
231 177 V
4201 4618 M
160 123 V
3055 2718 M
206 159 V
-106 634 R
221 171 V
3641 1606 M
168 130 V
stroke 3809 1736 M
-460 796 R
217 167 V
1687 4006 M
181 139 V
2083 1565 M
127 98 V
619 1901 R
123 95 V
611 365 R
191 147 V
2411 328 R
146 111 V
2108 1593 M
235 180 V
2390 926 R
232 177 V
2424 2125 M
204 157 V
2310 1209 M
179 137 V
6598 3055 M
172 132 V
4995 2480 M
212 163 V
2071 2041 M
224 173 V
4733 393 M
186 143 V
81 2584 R
200 153 V
4167 1521 M
208 159 V
2235 2296 M
185 142 V
5309 3858 M
121 94 V
3864 1216 M
184 141 V
256 3139 R
237 183 V
-621 -46 R
147 113 V
4900 1860 M
224 171 V
213 -986 R
198 152 V
3064 2343 M
181 138 V
2830 313 R
152 117 V
5977 4065 M
209 160 V
4688 3440 M
145 112 V
3360 4343 M
129 99 V
4383 2166 M
228 175 V
3685 3963 M
169 130 V
2341 2445 M
135 104 V
2662 87 R
154 118 V
721 1519 R
168 130 V
4057 2595 M
169 130 V
4771 1596 M
164 126 V
1636 4020 M
203 156 V
3083 4015 M
123 95 V
2576 893 M
179 137 V
1118 502 R
212 162 V
1798 670 M
220 168 V
4344 594 M
179 137 V
1119 670 M
229 176 V
2930 4455 M
182 139 V
2339 1085 M
234 179 V
4343 3402 M
176 135 V
-1903 85 R
123 95 V
-752 369 R
192 148 V
5782 1486 M
141 108 V
2578 1820 M
187 143 V
6395 3405 M
147 113 V
3428 1206 M
227 175 V
2380 933 R
153 117 V
stroke 6188 2431 M
2448 1188 M
160 123 V
4200 2322 M
125 96 V
-170 -84 R
169 130 V
2935 4496 M
161 124 V
6157 3360 M
195 150 V
4471 758 M
194 149 V
2866 2341 M
148 113 V
784 -591 R
141 108 V
5730 4480 M
217 167 V
191 -835 R
232 178 V
-1760 39 R
190 145 V
2060 1618 M
185 142 V
2224 798 R
229 176 V
1460 484 M
185 142 V
623 293 R
186 143 V
5533 4135 M
147 113 V
5537 1541 M
210 161 V
-442 467 R
146 113 V
-3390 18 R
220 169 V
1458 304 M
144 111 V
1027 3483 M
141 108 V
4082 838 M
139 107 V
3093 2555 M
213 163 V
2143 608 M
133 102 V
1560 775 R
206 158 V
176 2091 R
230 176 V
1560 2006 M
134 102 V
6472 310 M
146 113 V
66 1620 R
153 118 V
1600 922 M
226 173 V
6210 3686 M
164 127 V
2169 936 M
163 124 V
1772 3644 M
182 139 V
2372 415 M
205 157 V
343 4112 R
209 159 V
2216 2400 CircleF
2413 2551 CircleF
2962 4678 CircleF
3157 4827 CircleF
5869 3339 CircleF
6050 3478 CircleF
1814 2740 CircleF
2012 2892 CircleF
3587 771 CircleF
3824 953 CircleF
5185 2326 CircleF
5341 2446 CircleF
5285 4469 CircleF
5463 4606 CircleF
5046 3021 CircleF
5216 3152 CircleF
4623 1373 CircleF
4769 1485 CircleF
2700 2956 CircleF
2922 3126 CircleF
2126 1202 CircleF
2267 1310 CircleF
6427 3930 CircleF
6583 4050 CircleF
1004 2852 CircleF
1198 3000 CircleF
3695 2897 CircleF
3881 3039 CircleF
6598 771 CircleF
6750 888 CircleF
1130 2946 CircleF
1249 3037 CircleF
1845 1158 CircleF
2062 1325 CircleF
1004 2623 CircleF
1221 2789 CircleF
6646 3722 CircleF
6811 3849 CircleF
3464 2898 CircleF
3651 3042 CircleF
3622 2219 CircleF
3788 2347 CircleF
4813 705 CircleF
4952 811 CircleF
5910 3511 CircleF
6073 3637 CircleF
5847 3589 CircleF
6008 3713 CircleF
1400 1880 CircleF
1520 1972 CircleF
4255 1837 CircleF
4376 1929 CircleF
5257 777 CircleF
5456 930 CircleF
5857 2360 CircleF
5988 2460 CircleF
3119 2237 CircleF
3304 2380 CircleF
4501 3563 CircleF
4641 3670 CircleF
1606 2080 CircleF
1836 2256 CircleF
4789 2394 CircleF
4924 2498 CircleF
5640 3011 CircleF
5776 3115 CircleF
2490 3946 CircleF
2666 4081 CircleF
5507 1042 CircleF
5702 1191 CircleF
6165 3855 CircleF
6381 4022 CircleF
5162 1818 CircleF
5313 1934 CircleF
3752 320 CircleF
3942 466 CircleF
4055 2466 CircleF
4200 2577 CircleF
2710 1051 CircleF
2936 1224 CircleF
6176 4229 CircleF
6370 4378 CircleF
5987 3342 CircleF
6198 3504 CircleF
3109 3345 CircleF
3308 3498 CircleF
5732 3615 CircleF
5940 3774 CircleF
1617 1923 CircleF
1794 2058 CircleF
3831 855 CircleF
4017 998 CircleF
1741 3730 CircleF
1905 3856 CircleF
4342 2845 CircleF
4553 3007 CircleF
1171 630 CircleF
1406 811 CircleF
2447 4335 CircleF
2606 4457 CircleF
3402 3206 CircleF
3552 3322 CircleF
5330 3942 CircleF
5537 4102 CircleF
3413 628 CircleF
3579 755 CircleF
3605 3494 CircleF
3793 3638 CircleF
5539 333 CircleF
5686 446 CircleF
2431 3762 CircleF
2620 3908 CircleF
3402 2583 CircleF
3632 2759 CircleF
6696 3057 CircleF
6851 3177 CircleF
4028 2832 CircleF
4152 2927 CircleF
3635 2749 CircleF
3814 2887 CircleF
4202 1933 CircleF
4359 2053 CircleF
5551 4012 CircleF
5758 4172 CircleF
1143 4558 CircleF
1324 4698 CircleF
3674 4239 CircleF
3897 4410 CircleF
3110 3715 CircleF
3232 3809 CircleF
3222 1511 CircleF
3444 1682 CircleF
4926 1271 CircleF
5148 1442 CircleF
5724 2113 CircleF
5958 2293 CircleF
2395 4296 CircleF
2527 4397 CircleF
1760 415 CircleF
1968 574 CircleF
6007 2331 CircleF
6181 2464 CircleF
5291 328 CircleF
5491 481 CircleF
2874 2920 CircleF
3082 3079 CircleF
5578 3614 CircleF
5744 3742 CircleF
4715 3226 CircleF
4886 3357 CircleF
3223 1999 CircleF
3403 2137 CircleF
4946 2393 CircleF
5088 2502 CircleF
5135 3409 CircleF
5268 3511 CircleF
6618 3116 CircleF
6797 3254 CircleF
5318 881 CircleF
5493 1015 CircleF
5609 3357 CircleF
5837 3532 CircleF
4574 561 CircleF
4708 664 CircleF
4741 353 CircleF
4882 461 CircleF
4992 1039 CircleF
5116 1134 CircleF
5891 1944 CircleF
6112 2114 CircleF
4586 3426 CircleF
4823 3607 CircleF
3889 3252 CircleF
4011 3345 CircleF
2495 4194 CircleF
2633 4299 CircleF
3977 2300 CircleF
4158 2439 CircleF
5822 1128 CircleF
5982 1251 CircleF
3330 4171 CircleF
3460 4271 CircleF
1068 3900 CircleF
1298 4076 CircleF
976 3976 CircleF
1186 4137 CircleF
4825 3877 CircleF
4982 3998 CircleF
5485 3799 CircleF
5711 3972 CircleF
5212 1271 CircleF
5420 1431 CircleF
2337 4192 CircleF
2519 4332 CircleF
1649 310 CircleF
1848 462 CircleF
5895 1341 CircleF
6083 1485 CircleF
4794 3217 CircleF
4973 3355 CircleF
3296 3847 CircleF
3510 4012 CircleF
3261 2529 CircleF
3479 2697 CircleF
5687 580 CircleF
5908 750 CircleF
6048 3304 CircleF
6196 3417 CircleF
2729 2746 CircleF
2898 2875 CircleF
3394 2595 CircleF
3579 2736 CircleF
5442 4330 CircleF
5603 4453 CircleF
5959 4120 CircleF
6115 4241 CircleF
1470 1569 CircleF
1609 1676 CircleF
3620 3981 CircleF
3763 4091 CircleF
1094 1001 CircleF
1217 1095 CircleF
4445 3070 CircleF
4649 3227 CircleF
4510 2179 CircleF
4729 2348 CircleF
2225 3728 CircleF
2361 3833 CircleF
4996 419 CircleF
5155 541 CircleF
4704 1885 CircleF
4923 2054 CircleF
1316 1184 CircleF
1452 1289 CircleF
6485 1558 CircleF
6612 1655 CircleF
4374 4280 CircleF
4519 4391 CircleF
5265 365 CircleF
5467 520 CircleF
4702 1296 CircleF
4833 1396 CircleF
1104 2801 CircleF
1239 2905 CircleF
6636 1740 CircleF
6851 1906 CircleF
3849 4213 CircleF
4055 4371 CircleF
2256 4508 CircleF
2439 4648 CircleF
3343 1244 CircleF
3574 1422 CircleF
5478 3351 CircleF
5656 3488 CircleF
5936 3977 CircleF
6103 4105 CircleF
4906 1875 CircleF
5067 1999 CircleF
5915 2993 CircleF
6109 3142 CircleF
2217 2100 CircleF
2370 2218 CircleF
4089 3001 CircleF
4250 3125 CircleF
5588 4008 CircleF
5824 4189 CircleF
2015 1330 CircleF
2215 1484 CircleF
3639 1298 CircleF
3789 1413 CircleF
6440 614 CircleF
6585 725 CircleF
1427 3089 CircleF
1638 3251 CircleF
5521 1219 CircleF
5720 1372 CircleF
4453 4377 CircleF
4656 4532 CircleF
2132 803 CircleF
2367 983 CircleF
6162 2693 CircleF
6379 2858 CircleF
3965 3071 CircleF
4093 3169 CircleF
6353 4443 CircleF
6542 4588 CircleF
1070 4273 CircleF
1201 4373 CircleF
3545 3462 CircleF
3686 3570 CircleF
6678 2068 CircleF
6863 2211 CircleF
4678 3565 CircleF
4884 3723 CircleF
2738 2610 CircleF
2903 2737 CircleF
5803 3710 CircleF
5964 3833 CircleF
2097 3096 CircleF
2244 3209 CircleF
1018 3252 CircleF
1243 3425 CircleF
3300 3163 CircleF
3504 3319 CircleF
6602 2789 CircleF
6740 2895 CircleF
2380 302 CircleF
2606 476 CircleF
1549 781 CircleF
1727 918 CircleF
5766 3202 CircleF
5965 3355 CircleF
1994 4487 CircleF
2202 4646 CircleF
5925 2115 CircleF
6056 2216 CircleF
2803 3460 CircleF
3025 3631 CircleF
4307 2917 CircleF
4468 3040 CircleF
5081 2470 CircleF
5284 2626 CircleF
2021 925 CircleF
2246 1097 CircleF
5249 2070 CircleF
5418 2199 CircleF
2754 3163 CircleF
2887 3265 CircleF
1339 3346 CircleF
1523 3487 CircleF
2669 667 CircleF
2893 840 CircleF
2013 2176 CircleF
2141 2274 CircleF
1599 470 CircleF
1818 638 CircleF
4688 469 CircleF
4814 566 CircleF
4157 3530 CircleF
4384 3704 CircleF
3256 1270 CircleF
3471 1435 CircleF
2907 3118 CircleF
3061 3236 CircleF
1994 2023 CircleF
2185 2170 CircleF
5035 3195 CircleF
5266 3372 CircleF
3310 1089 CircleF
3492 1228 CircleF
3273 3280 CircleF
3468 3430 CircleF
2384 938 CircleF
2517 1040 CircleF
2452 599 CircleF
2651 752 CircleF
5798 4141 CircleF
5996 4293 CircleF
1171 2127 CircleF
1379 2286 CircleF
2085 2290 CircleF
2256 2422 CircleF
6527 3342 CircleF
6742 3506 CircleF
1164 2405 CircleF
1400 2586 CircleF
2720 2530 CircleF
2875 2649 CircleF
6092 3683 CircleF
6257 3810 CircleF
5457 2484 CircleF
5598 2592 CircleF
6043 2150 CircleF
6203 2272 CircleF
3330 2365 CircleF
3536 2524 CircleF
6103 4266 CircleF
6274 4397 CircleF
4912 4019 CircleF
5149 4201 CircleF
6639 3842 CircleF
6807 3972 CircleF
998 2040 CircleF
1139 2148 CircleF
6452 567 CircleF
6634 706 CircleF
6564 2890 CircleF
6786 3061 CircleF
4439 1934 CircleF
4600 2057 CircleF
3217 1608 CircleF
3424 1767 CircleF
5380 3241 CircleF
5584 3398 CircleF
3969 4405 CircleF
4181 4568 CircleF
3178 1311 CircleF
3412 1490 CircleF
5745 1539 CircleF
5962 1706 CircleF
3637 1491 CircleF
3782 1602 CircleF
1290 918 CircleF
1517 1092 CircleF
3867 2988 CircleF
4087 3158 CircleF
2915 3774 CircleF
3119 3931 CircleF
6099 3536 CircleF
6313 3700 CircleF
4104 4532 CircleF
4314 4693 CircleF
2382 1897 CircleF
2612 2073 CircleF
2840 1960 CircleF
3070 2136 CircleF
5712 3407 CircleF
5902 3553 CircleF
4927 3820 CircleF
5079 3937 CircleF
4149 2554 CircleF
4379 2730 CircleF
5092 3905 CircleF
5313 4074 CircleF
6468 4507 CircleF
6594 4605 CircleF
2416 3477 CircleF
2645 3653 CircleF
5803 2114 CircleF
5971 2243 CircleF
6104 2413 CircleF
6273 2543 CircleF
6461 2001 CircleF
6653 2148 CircleF
1854 3633 CircleF
2081 3807 CircleF
5446 776 CircleF
5666 944 CircleF
1604 607 CircleF
1786 746 CircleF
6612 1627 CircleF
6776 1753 CircleF
6334 2736 CircleF
6526 2884 CircleF
2038 1488 CircleF
2161 1582 CircleF
4227 831 CircleF
4461 1011 CircleF
2361 1514 CircleF
2550 1659 CircleF
3874 4203 CircleF
4017 4312 CircleF
4419 3087 CircleF
4557 3192 CircleF
5527 2833 CircleF
5749 3004 CircleF
6534 879 CircleF
6674 986 CircleF
1323 1185 CircleF
1524 1339 CircleF
3913 864 CircleF
4050 969 CircleF
2391 1234 CircleF
2563 1366 CircleF
6661 3948 CircleF
6834 4081 CircleF
5652 2322 CircleF
5874 2493 CircleF
6377 3766 CircleF
6595 3933 CircleF
6073 1485 CircleF
6293 1654 CircleF
1180 1954 CircleF
1360 2091 CircleF
5352 331 CircleF
5540 476 CircleF
5348 2886 CircleF
5517 3016 CircleF
4378 2032 CircleF
4522 2143 CircleF
3970 2632 CircleF
4192 2802 CircleF
4259 1507 CircleF
4449 1654 CircleF
2716 443 CircleF
2887 574 CircleF
3910 2542 CircleF
4119 2702 CircleF
3785 1518 CircleF
3930 1630 CircleF
1370 1944 CircleF
1588 2111 CircleF
1470 2923 CircleF
1608 3029 CircleF
2985 2659 CircleF
3118 2762 CircleF
1983 447 CircleF
2166 588 CircleF
2226 3625 CircleF
2347 3718 CircleF
5709 820 CircleF
5911 975 CircleF
5522 2404 CircleF
5657 2508 CircleF
3081 4229 CircleF
3270 4374 CircleF
4216 2872 CircleF
4365 2986 CircleF
2858 3327 CircleF
3094 3509 CircleF
6281 3109 CircleF
6483 3264 CircleF
5178 3273 CircleF
5314 3378 CircleF
5334 369 CircleF
5571 551 CircleF
5104 2771 CircleF
5276 2904 CircleF
2039 2123 CircleF
2258 2291 CircleF
5147 818 CircleF
5269 912 CircleF
6523 672 CircleF
6691 802 CircleF
2559 4591 CircleF
2699 4698 CircleF
6365 3467 CircleF
6534 3596 CircleF
4998 1081 CircleF
5201 1236 CircleF
4682 2561 CircleF
4841 2683 CircleF
3688 2793 CircleF
3833 2905 CircleF
2496 4634 CircleF
2704 4794 CircleF
5387 4427 CircleF
5565 4564 CircleF
5006 1940 CircleF
5237 2118 CircleF
971 281 CircleF
1177 438 CircleF
5359 4119 CircleF
5574 4284 CircleF
6372 4539 CircleF
6533 4663 CircleF
6092 1257 CircleF
6243 1373 CircleF
2755 3465 CircleF
2897 3574 CircleF
6210 2684 CircleF
6344 2788 CircleF
1909 2805 CircleF
2052 2916 CircleF
6184 2247 CircleF
6334 2363 CircleF
3489 3563 CircleF
3687 3715 CircleF
6310 1481 CircleF
6509 1634 CircleF
2976 4668 CircleF
3204 4842 CircleF
4628 2062 CircleF
4756 2160 CircleF
5121 3169 CircleF
5340 3338 CircleF
5789 338 CircleF
5914 434 CircleF
5689 1164 CircleF
5917 1340 CircleF
6264 4451 CircleF
6429 4578 CircleF
3084 4614 CircleF
3209 4710 CircleF
1870 1790 CircleF
2086 1956 CircleF
2513 4531 CircleF
2651 4636 CircleF
4706 2989 CircleF
4841 3093 CircleF
4702 4147 CircleF
4834 4248 CircleF
5411 3038 CircleF
5548 3144 CircleF
3497 2768 CircleF
3645 2881 CircleF
2602 2641 CircleF
2731 2740 CircleF
5693 3609 CircleF
5868 3743 CircleF
1207 2837 CircleF
1383 2972 CircleF
4676 4670 CircleF
4844 4799 CircleF
5909 4020 CircleF
6136 4194 CircleF
2857 2783 CircleF
3087 2960 CircleF
4760 2767 CircleF
4961 2921 CircleF
1799 1938 CircleF
1924 2034 CircleF
2241 1354 CircleF
2363 1447 CircleF
5878 2551 CircleF
6058 2689 CircleF
6490 1764 CircleF
6694 1920 CircleF
5561 3299 CircleF
5796 3480 CircleF
6521 2588 CircleF
6696 2722 CircleF
1324 3457 CircleF
1474 3572 CircleF
4309 3573 CircleF
4508 3726 CircleF
5652 1454 CircleF
5883 1631 CircleF
4201 4618 CircleF
4361 4741 CircleF
3055 2718 CircleF
3261 2877 CircleF
3155 3511 CircleF
3376 3682 CircleF
3641 1606 CircleF
3809 1736 CircleF
3349 2532 CircleF
3566 2699 CircleF
1687 4006 CircleF
1868 4145 CircleF
2083 1565 CircleF
2210 1663 CircleF
2829 3564 CircleF
2952 3659 CircleF
3563 4024 CircleF
3754 4171 CircleF
6165 4499 CircleF
6311 4610 CircleF
2108 1593 CircleF
2343 1773 CircleF
4733 2699 CircleF
4965 2876 CircleF
2424 2125 CircleF
2628 2282 CircleF
2310 1209 CircleF
2489 1346 CircleF
6598 3055 CircleF
6770 3187 CircleF
4995 2480 CircleF
5207 2643 CircleF
2071 2041 CircleF
2295 2214 CircleF
4733 393 CircleF
4919 536 CircleF
5000 3120 CircleF
5200 3273 CircleF
4167 1521 CircleF
4375 1680 CircleF
2235 2296 CircleF
2420 2438 CircleF
5309 3858 CircleF
5430 3952 CircleF
3864 1216 CircleF
4048 1357 CircleF
4304 4496 CircleF
4541 4679 CircleF
3920 4633 CircleF
4067 4746 CircleF
4900 1860 CircleF
5124 2031 CircleF
5337 1045 CircleF
5535 1197 CircleF
3064 2343 CircleF
3245 2481 CircleF
6075 2794 CircleF
6227 2911 CircleF
5977 4065 CircleF
6186 4225 CircleF
4688 3440 CircleF
4833 3552 CircleF
3360 4343 CircleF
3489 4442 CircleF
4383 2166 CircleF
4611 2341 CircleF
3685 3963 CircleF
3854 4093 CircleF
2341 2445 CircleF
2476 2549 CircleF
5138 2636 CircleF
5292 2754 CircleF
6013 4273 CircleF
6181 4403 CircleF
4057 2595 CircleF
4226 2725 CircleF
4771 1596 CircleF
4935 1722 CircleF
1636 4020 CircleF
1839 4176 CircleF
3083 4015 CircleF
3206 4110 CircleF
2576 893 CircleF
2755 1030 CircleF
3873 1532 CircleF
4085 1694 CircleF
1798 670 CircleF
2018 838 CircleF
4344 594 CircleF
4523 731 CircleF
1119 670 CircleF
1348 846 CircleF
2930 4455 CircleF
3112 4594 CircleF
2339 1085 CircleF
2573 1264 CircleF
4343 3402 CircleF
4519 3537 CircleF
2616 3622 CircleF
2739 3717 CircleF
1987 4086 CircleF
2179 4234 CircleF
5782 1486 CircleF
5923 1594 CircleF
2578 1820 CircleF
2765 1963 CircleF
6395 3405 CircleF
6542 3518 CircleF
3428 1206 CircleF
3655 1381 CircleF
6035 2314 CircleF
6188 2431 CircleF
2448 1188 CircleF
2608 1311 CircleF
4200 2322 CircleF
4325 2418 CircleF
4155 2334 CircleF
4324 2464 CircleF
2935 4496 CircleF
3096 4620 CircleF
6157 3360 CircleF
6352 3510 CircleF
4471 758 CircleF
4665 907 CircleF
2866 2341 CircleF
3014 2454 CircleF
3798 1863 CircleF
3939 1971 CircleF
5730 4480 CircleF
5947 4647 CircleF
6138 3812 CircleF
6370 3990 CircleF
4610 4029 CircleF
4800 4174 CircleF
2060 1618 CircleF
2245 1760 CircleF
4469 2558 CircleF
4698 2734 CircleF
1460 484 CircleF
1645 626 CircleF
2268 919 CircleF
2454 1062 CircleF
5533 4135 CircleF
5680 4248 CircleF
5537 1541 CircleF
5747 1702 CircleF
5305 2169 CircleF
5451 2282 CircleF
2061 2300 CircleF
2281 2469 CircleF
1458 304 CircleF
1602 415 CircleF
1027 3483 CircleF
1168 3591 CircleF
4082 838 CircleF
4221 945 CircleF
3093 2555 CircleF
3306 2718 CircleF
2143 608 CircleF
2276 710 CircleF
3836 1485 CircleF
4042 1643 CircleF
4218 3734 CircleF
4448 3910 CircleF
1560 2006 CircleF
1694 2108 CircleF
6472 310 CircleF
6618 423 CircleF
6684 2043 CircleF
6837 2161 CircleF
1600 922 CircleF
1826 1095 CircleF
6210 3686 CircleF
6374 3813 CircleF
2169 936 CircleF
2332 1060 CircleF
1772 3644 CircleF
1954 3783 CircleF
2372 415 CircleF
2577 572 CircleF
2920 4684 CircleF
3129 4843 CircleF
% End plot #2
1.000 UP
1.000 UL
LT0
0.50 0.50 0.50 C stroke
grestore
end
showpage
%%Trailer
%%DocumentFonts: Helvetica
%%Pages: 1
