%!PS-Adobe-2.0
%%Title: out.ps
%%Creator: gnuplot 4.6 patchlevel 6
%%CreationDate: Fri May 29 00:50:18 2015
%%DocumentFonts: (atend)
%%BoundingBox: 50 50 554 770
%%Orientation: Landscape
%%Pages: (atend)
%%EndComments
%%BeginProlog
/gnudict 256 dict def
gnudict begin
%
% The following true/false flags may be edited by hand if desired.
% The unit line width and grayscale image gamma correction may also be changed.
%
/Color false def
/Blacktext false def
/Solid false def
/Dashlength 1 def
/Landscape true def
/Level1 false def
/Rounded false def
/ClipToBoundingBox false def
/SuppressPDFMark false def
/TransparentPatterns false def
/gnulinewidth 5.000 def
/userlinewidth gnulinewidth def
/Gamma 1.0 def
/BackgroundColor {-1.000 -1.000 -1.000} def
%
/vshift -46 def
/dl1 {
  10.0 Dashlength mul mul
  Rounded { currentlinewidth 0.75 mul sub dup 0 le { pop 0.01 } if } if
} def
/dl2 {
  10.0 Dashlength mul mul
  Rounded { currentlinewidth 0.75 mul add } if
} def
/hpt_ 31.5 def
/vpt_ 31.5 def
/hpt hpt_ def
/vpt vpt_ def
/doclip {
  ClipToBoundingBox {
    newpath 50 50 moveto 554 50 lineto 554 770 lineto 50 770 lineto closepath
    clip
  } if
} def
%
% Gnuplot Prolog Version 4.6 (September 2012)
%
%/SuppressPDFMark true def
%
/M {moveto} bind def
/L {lineto} bind def
/R {rmoveto} bind def
/V {rlineto} bind def
/N {newpath moveto} bind def
/Z {closepath} bind def
/C {setrgbcolor} bind def
/f {rlineto fill} bind def
/g {setgray} bind def
/Gshow {show} def   % May be redefined later in the file to support UTF-8
/vpt2 vpt 2 mul def
/hpt2 hpt 2 mul def
/Lshow {currentpoint stroke M 0 vshift R 
	Blacktext {gsave 0 setgray show grestore} {show} ifelse} def
/Rshow {currentpoint stroke M dup stringwidth pop neg vshift R
	Blacktext {gsave 0 setgray show grestore} {show} ifelse} def
/Cshow {currentpoint stroke M dup stringwidth pop -2 div vshift R 
	Blacktext {gsave 0 setgray show grestore} {show} ifelse} def
/UP {dup vpt_ mul /vpt exch def hpt_ mul /hpt exch def
  /hpt2 hpt 2 mul def /vpt2 vpt 2 mul def} def
/DL {Color {setrgbcolor Solid {pop []} if 0 setdash}
 {pop pop pop 0 setgray Solid {pop []} if 0 setdash} ifelse} def
/BL {stroke userlinewidth 2 mul setlinewidth
	Rounded {1 setlinejoin 1 setlinecap} if} def
/AL {stroke userlinewidth 2 div setlinewidth
	Rounded {1 setlinejoin 1 setlinecap} if} def
/UL {dup gnulinewidth mul /userlinewidth exch def
	dup 1 lt {pop 1} if 10 mul /udl exch def} def
/PL {stroke userlinewidth setlinewidth
	Rounded {1 setlinejoin 1 setlinecap} if} def
3.8 setmiterlimit
% Default Line colors
/LCw {1 1 1} def
/LCb {0 0 0} def
/LCa {0 0 0} def
/LC0 {1 0 0} def
/LC1 {0 1 0} def
/LC2 {0 0 1} def
/LC3 {1 0 1} def
/LC4 {0 1 1} def
/LC5 {1 1 0} def
/LC6 {0 0 0} def
/LC7 {1 0.3 0} def
/LC8 {0.5 0.5 0.5} def
% Default Line Types
/LTw {PL [] 1 setgray} def
/LTb {BL [] LCb DL} def
/LTa {AL [1 udl mul 2 udl mul] 0 setdash LCa setrgbcolor} def
/LT0 {PL [] LC0 DL} def
/LT1 {PL [4 dl1 2 dl2] LC1 DL} def
/LT2 {PL [2 dl1 3 dl2] LC2 DL} def
/LT3 {PL [1 dl1 1.5 dl2] LC3 DL} def
/LT4 {PL [6 dl1 2 dl2 1 dl1 2 dl2] LC4 DL} def
/LT5 {PL [3 dl1 3 dl2 1 dl1 3 dl2] LC5 DL} def
/LT6 {PL [2 dl1 2 dl2 2 dl1 6 dl2] LC6 DL} def
/LT7 {PL [1 dl1 2 dl2 6 dl1 2 dl2 1 dl1 2 dl2] LC7 DL} def
/LT8 {PL [2 dl1 2 dl2 2 dl1 2 dl2 2 dl1 2 dl2 2 dl1 4 dl2] LC8 DL} def
/Pnt {stroke [] 0 setdash gsave 1 setlinecap M 0 0 V stroke grestore} def
/Dia {stroke [] 0 setdash 2 copy vpt add M
  hpt neg vpt neg V hpt vpt neg V
  hpt vpt V hpt neg vpt V closepath stroke
  Pnt} def
/Pls {stroke [] 0 setdash vpt sub M 0 vpt2 V
  currentpoint stroke M
  hpt neg vpt neg R hpt2 0 V stroke
 } def
/Box {stroke [] 0 setdash 2 copy exch hpt sub exch vpt add M
  0 vpt2 neg V hpt2 0 V 0 vpt2 V
  hpt2 neg 0 V closepath stroke
  Pnt} def
/Crs {stroke [] 0 setdash exch hpt sub exch vpt add M
  hpt2 vpt2 neg V currentpoint stroke M
  hpt2 neg 0 R hpt2 vpt2 V stroke} def
/TriU {stroke [] 0 setdash 2 copy vpt 1.12 mul add M
  hpt neg vpt -1.62 mul V
  hpt 2 mul 0 V
  hpt neg vpt 1.62 mul V closepath stroke
  Pnt} def
/Star {2 copy Pls Crs} def
/BoxF {stroke [] 0 setdash exch hpt sub exch vpt add M
  0 vpt2 neg V hpt2 0 V 0 vpt2 V
  hpt2 neg 0 V closepath fill} def
/TriUF {stroke [] 0 setdash vpt 1.12 mul add M
  hpt neg vpt -1.62 mul V
  hpt 2 mul 0 V
  hpt neg vpt 1.62 mul V closepath fill} def
/TriD {stroke [] 0 setdash 2 copy vpt 1.12 mul sub M
  hpt neg vpt 1.62 mul V
  hpt 2 mul 0 V
  hpt neg vpt -1.62 mul V closepath stroke
  Pnt} def
/TriDF {stroke [] 0 setdash vpt 1.12 mul sub M
  hpt neg vpt 1.62 mul V
  hpt 2 mul 0 V
  hpt neg vpt -1.62 mul V closepath fill} def
/DiaF {stroke [] 0 setdash vpt add M
  hpt neg vpt neg V hpt vpt neg V
  hpt vpt V hpt neg vpt V closepath fill} def
/Pent {stroke [] 0 setdash 2 copy gsave
  translate 0 hpt M 4 {72 rotate 0 hpt L} repeat
  closepath stroke grestore Pnt} def
/PentF {stroke [] 0 setdash gsave
  translate 0 hpt M 4 {72 rotate 0 hpt L} repeat
  closepath fill grestore} def
/Circle {stroke [] 0 setdash 2 copy
  hpt 0 360 arc stroke Pnt} def
/CircleF {stroke [] 0 setdash hpt 0 360 arc fill} def
/C0 {BL [] 0 setdash 2 copy moveto vpt 90 450 arc} bind def
/C1 {BL [] 0 setdash 2 copy moveto
	2 copy vpt 0 90 arc closepath fill
	vpt 0 360 arc closepath} bind def
/C2 {BL [] 0 setdash 2 copy moveto
	2 copy vpt 90 180 arc closepath fill
	vpt 0 360 arc closepath} bind def
/C3 {BL [] 0 setdash 2 copy moveto
	2 copy vpt 0 180 arc closepath fill
	vpt 0 360 arc closepath} bind def
/C4 {BL [] 0 setdash 2 copy moveto
	2 copy vpt 180 270 arc closepath fill
	vpt 0 360 arc closepath} bind def
/C5 {BL [] 0 setdash 2 copy moveto
	2 copy vpt 0 90 arc
	2 copy moveto
	2 copy vpt 180 270 arc closepath fill
	vpt 0 360 arc} bind def
/C6 {BL [] 0 setdash 2 copy moveto
	2 copy vpt 90 270 arc closepath fill
	vpt 0 360 arc closepath} bind def
/C7 {BL [] 0 setdash 2 copy moveto
	2 copy vpt 0 270 arc closepath fill
	vpt 0 360 arc closepath} bind def
/C8 {BL [] 0 setdash 2 copy moveto
	2 copy vpt 270 360 arc closepath fill
	vpt 0 360 arc closepath} bind def
/C9 {BL [] 0 setdash 2 copy moveto
	2 copy vpt 270 450 arc closepath fill
	vpt 0 360 arc closepath} bind def
/C10 {BL [] 0 setdash 2 copy 2 copy moveto vpt 270 360 arc closepath fill
	2 copy moveto
	2 copy vpt 90 180 arc closepath fill
	vpt 0 360 arc closepath} bind def
/C11 {BL [] 0 setdash 2 copy moveto
	2 copy vpt 0 180 arc closepath fill
	2 copy moveto
	2 copy vpt 270 360 arc closepath fill
	vpt 0 360 arc closepath} bind def
/C12 {BL [] 0 setdash 2 copy moveto
	2 copy vpt 180 360 arc closepath fill
	vpt 0 360 arc closepath} bind def
/C13 {BL [] 0 setdash 2 copy moveto
	2 copy vpt 0 90 arc closepath fill
	2 copy moveto
	2 copy vpt 180 360 arc closepath fill
	vpt 0 360 arc closepath} bind def
/C14 {BL [] 0 setdash 2 copy moveto
	2 copy vpt 90 360 arc closepath fill
	vpt 0 360 arc} bind def
/C15 {BL [] 0 setdash 2 copy vpt 0 360 arc closepath fill
	vpt 0 360 arc closepath} bind def
/Rec {newpath 4 2 roll moveto 1 index 0 rlineto 0 exch rlineto
	neg 0 rlineto closepath} bind def
/Square {dup Rec} bind def
/Bsquare {vpt sub exch vpt sub exch vpt2 Square} bind def
/S0 {BL [] 0 setdash 2 copy moveto 0 vpt rlineto BL Bsquare} bind def
/S1 {BL [] 0 setdash 2 copy vpt Square fill Bsquare} bind def
/S2 {BL [] 0 setdash 2 copy exch vpt sub exch vpt Square fill Bsquare} bind def
/S3 {BL [] 0 setdash 2 copy exch vpt sub exch vpt2 vpt Rec fill Bsquare} bind def
/S4 {BL [] 0 setdash 2 copy exch vpt sub exch vpt sub vpt Square fill Bsquare} bind def
/S5 {BL [] 0 setdash 2 copy 2 copy vpt Square fill
	exch vpt sub exch vpt sub vpt Square fill Bsquare} bind def
/S6 {BL [] 0 setdash 2 copy exch vpt sub exch vpt sub vpt vpt2 Rec fill Bsquare} bind def
/S7 {BL [] 0 setdash 2 copy exch vpt sub exch vpt sub vpt vpt2 Rec fill
	2 copy vpt Square fill Bsquare} bind def
/S8 {BL [] 0 setdash 2 copy vpt sub vpt Square fill Bsquare} bind def
/S9 {BL [] 0 setdash 2 copy vpt sub vpt vpt2 Rec fill Bsquare} bind def
/S10 {BL [] 0 setdash 2 copy vpt sub vpt Square fill 2 copy exch vpt sub exch vpt Square fill
	Bsquare} bind def
/S11 {BL [] 0 setdash 2 copy vpt sub vpt Square fill 2 copy exch vpt sub exch vpt2 vpt Rec fill
	Bsquare} bind def
/S12 {BL [] 0 setdash 2 copy exch vpt sub exch vpt sub vpt2 vpt Rec fill Bsquare} bind def
/S13 {BL [] 0 setdash 2 copy exch vpt sub exch vpt sub vpt2 vpt Rec fill
	2 copy vpt Square fill Bsquare} bind def
/S14 {BL [] 0 setdash 2 copy exch vpt sub exch vpt sub vpt2 vpt Rec fill
	2 copy exch vpt sub exch vpt Square fill Bsquare} bind def
/S15 {BL [] 0 setdash 2 copy Bsquare fill Bsquare} bind def
/D0 {gsave translate 45 rotate 0 0 S0 stroke grestore} bind def
/D1 {gsave translate 45 rotate 0 0 S1 stroke grestore} bind def
/D2 {gsave translate 45 rotate 0 0 S2 stroke grestore} bind def
/D3 {gsave translate 45 rotate 0 0 S3 stroke grestore} bind def
/D4 {gsave translate 45 rotate 0 0 S4 stroke grestore} bind def
/D5 {gsave translate 45 rotate 0 0 S5 stroke grestore} bind def
/D6 {gsave translate 45 rotate 0 0 S6 stroke grestore} bind def
/D7 {gsave translate 45 rotate 0 0 S7 stroke grestore} bind def
/D8 {gsave translate 45 rotate 0 0 S8 stroke grestore} bind def
/D9 {gsave translate 45 rotate 0 0 S9 stroke grestore} bind def
/D10 {gsave translate 45 rotate 0 0 S10 stroke grestore} bind def
/D11 {gsave translate 45 rotate 0 0 S11 stroke grestore} bind def
/D12 {gsave translate 45 rotate 0 0 S12 stroke grestore} bind def
/D13 {gsave translate 45 rotate 0 0 S13 stroke grestore} bind def
/D14 {gsave translate 45 rotate 0 0 S14 stroke grestore} bind def
/D15 {gsave translate 45 rotate 0 0 S15 stroke grestore} bind def
/DiaE {stroke [] 0 setdash vpt add M
  hpt neg vpt neg V hpt vpt neg V
  hpt vpt V hpt neg vpt V closepath stroke} def
/BoxE {stroke [] 0 setdash exch hpt sub exch vpt add M
  0 vpt2 neg V hpt2 0 V 0 vpt2 V
  hpt2 neg 0 V closepath stroke} def
/TriUE {stroke [] 0 setdash vpt 1.12 mul add M
  hpt neg vpt -1.62 mul V
  hpt 2 mul 0 V
  hpt neg vpt 1.62 mul V closepath stroke} def
/TriDE {stroke [] 0 setdash vpt 1.12 mul sub M
  hpt neg vpt 1.62 mul V
  hpt 2 mul 0 V
  hpt neg vpt -1.62 mul V closepath stroke} def
/PentE {stroke [] 0 setdash gsave
  translate 0 hpt M 4 {72 rotate 0 hpt L} repeat
  closepath stroke grestore} def
/CircE {stroke [] 0 setdash 
  hpt 0 360 arc stroke} def
/Opaque {gsave closepath 1 setgray fill grestore 0 setgray closepath} def
/DiaW {stroke [] 0 setdash vpt add M
  hpt neg vpt neg V hpt vpt neg V
  hpt vpt V hpt neg vpt V Opaque stroke} def
/BoxW {stroke [] 0 setdash exch hpt sub exch vpt add M
  0 vpt2 neg V hpt2 0 V 0 vpt2 V
  hpt2 neg 0 V Opaque stroke} def
/TriUW {stroke [] 0 setdash vpt 1.12 mul add M
  hpt neg vpt -1.62 mul V
  hpt 2 mul 0 V
  hpt neg vpt 1.62 mul V Opaque stroke} def
/TriDW {stroke [] 0 setdash vpt 1.12 mul sub M
  hpt neg vpt 1.62 mul V
  hpt 2 mul 0 V
  hpt neg vpt -1.62 mul V Opaque stroke} def
/PentW {stroke [] 0 setdash gsave
  translate 0 hpt M 4 {72 rotate 0 hpt L} repeat
  Opaque stroke grestore} def
/CircW {stroke [] 0 setdash 
  hpt 0 360 arc Opaque stroke} def
/BoxFill {gsave Rec 1 setgray fill grestore} def
/Density {
  /Fillden exch def
  currentrgbcolor
  /ColB exch def /ColG exch def /ColR exch def
  /ColR ColR Fillden mul Fillden sub 1 add def
  /ColG ColG Fillden mul Fillden sub 1 add def
  /ColB ColB Fillden mul Fillden sub 1 add def
  ColR ColG ColB setrgbcolor} def
/BoxColFill {gsave Rec PolyFill} def
/PolyFill {gsave Density fill grestore grestore} def
/h {rlineto rlineto rlineto gsave closepath fill grestore} bind def
%
% PostScript Level 1 Pattern Fill routine for rectangles
% Usage: x y w h s a XX PatternFill
%	x,y = lower left corner of box to be filled
%	w,h = width and height of box
%	  a = angle in degrees between lines and x-axis
%	 XX = 0/1 for no/yes cross-hatch
%
/PatternFill {gsave /PFa [ 9 2 roll ] def
  PFa 0 get PFa 2 get 2 div add PFa 1 get PFa 3 get 2 div add translate
  PFa 2 get -2 div PFa 3 get -2 div PFa 2 get PFa 3 get Rec
  TransparentPatterns {} {gsave 1 setgray fill grestore} ifelse
  clip
  currentlinewidth 0.5 mul setlinewidth
  /PFs PFa 2 get dup mul PFa 3 get dup mul add sqrt def
  0 0 M PFa 5 get rotate PFs -2 div dup translate
  0 1 PFs PFa 4 get div 1 add floor cvi
	{PFa 4 get mul 0 M 0 PFs V} for
  0 PFa 6 get ne {
	0 1 PFs PFa 4 get div 1 add floor cvi
	{PFa 4 get mul 0 2 1 roll M PFs 0 V} for
 } if
  stroke grestore} def
%
/languagelevel where
 {pop languagelevel} {1} ifelse
 2 lt
	{/InterpretLevel1 true def}
	{/InterpretLevel1 Level1 def}
 ifelse
%
% PostScript level 2 pattern fill definitions
%
/Level2PatternFill {
/Tile8x8 {/PaintType 2 /PatternType 1 /TilingType 1 /BBox [0 0 8 8] /XStep 8 /YStep 8}
	bind def
/KeepColor {currentrgbcolor [/Pattern /DeviceRGB] setcolorspace} bind def
<< Tile8x8
 /PaintProc {0.5 setlinewidth pop 0 0 M 8 8 L 0 8 M 8 0 L stroke} 
>> matrix makepattern
/Pat1 exch def
<< Tile8x8
 /PaintProc {0.5 setlinewidth pop 0 0 M 8 8 L 0 8 M 8 0 L stroke
	0 4 M 4 8 L 8 4 L 4 0 L 0 4 L stroke}
>> matrix makepattern
/Pat2 exch def
<< Tile8x8
 /PaintProc {0.5 setlinewidth pop 0 0 M 0 8 L
	8 8 L 8 0 L 0 0 L fill}
>> matrix makepattern
/Pat3 exch def
<< Tile8x8
 /PaintProc {0.5 setlinewidth pop -4 8 M 8 -4 L
	0 12 M 12 0 L stroke}
>> matrix makepattern
/Pat4 exch def
<< Tile8x8
 /PaintProc {0.5 setlinewidth pop -4 0 M 8 12 L
	0 -4 M 12 8 L stroke}
>> matrix makepattern
/Pat5 exch def
<< Tile8x8
 /PaintProc {0.5 setlinewidth pop -2 8 M 4 -4 L
	0 12 M 8 -4 L 4 12 M 10 0 L stroke}
>> matrix makepattern
/Pat6 exch def
<< Tile8x8
 /PaintProc {0.5 setlinewidth pop -2 0 M 4 12 L
	0 -4 M 8 12 L 4 -4 M 10 8 L stroke}
>> matrix makepattern
/Pat7 exch def
<< Tile8x8
 /PaintProc {0.5 setlinewidth pop 8 -2 M -4 4 L
	12 0 M -4 8 L 12 4 M 0 10 L stroke}
>> matrix makepattern
/Pat8 exch def
<< Tile8x8
 /PaintProc {0.5 setlinewidth pop 0 -2 M 12 4 L
	-4 0 M 12 8 L -4 4 M 8 10 L stroke}
>> matrix makepattern
/Pat9 exch def
/Pattern1 {PatternBgnd KeepColor Pat1 setpattern} bind def
/Pattern2 {PatternBgnd KeepColor Pat2 setpattern} bind def
/Pattern3 {PatternBgnd KeepColor Pat3 setpattern} bind def
/Pattern4 {PatternBgnd KeepColor Landscape {Pat5} {Pat4} ifelse setpattern} bind def
/Pattern5 {PatternBgnd KeepColor Landscape {Pat4} {Pat5} ifelse setpattern} bind def
/Pattern6 {PatternBgnd KeepColor Landscape {Pat9} {Pat6} ifelse setpattern} bind def
/Pattern7 {PatternBgnd KeepColor Landscape {Pat8} {Pat7} ifelse setpattern} bind def
} def
%
%
%End of PostScript Level 2 code
%
/PatternBgnd {
  TransparentPatterns {} {gsave 1 setgray fill grestore} ifelse
} def
%
% Substitute for Level 2 pattern fill codes with
% grayscale if Level 2 support is not selected.
%
/Level1PatternFill {
/Pattern1 {0.250 Density} bind def
/Pattern2 {0.500 Density} bind def
/Pattern3 {0.750 Density} bind def
/Pattern4 {0.125 Density} bind def
/Pattern5 {0.375 Density} bind def
/Pattern6 {0.625 Density} bind def
/Pattern7 {0.875 Density} bind def
} def
%
% Now test for support of Level 2 code
%
Level1 {Level1PatternFill} {Level2PatternFill} ifelse
%
/Symbol-Oblique /Symbol findfont [1 0 .167 1 0 0] makefont
dup length dict begin {1 index /FID eq {pop pop} {def} ifelse} forall
currentdict end definefont pop
Level1 SuppressPDFMark or 
{} {
/SDict 10 dict def
systemdict /pdfmark known not {
  userdict /pdfmark systemdict /cleartomark get put
} if
SDict begin [
  /Title (out.ps)
  /Subject (gnuplot plot)
  /Creator (gnuplot 4.6 patchlevel 6)
  /Author (yani)
%  /Producer (gnuplot)
%  /Keywords ()
  /CreationDate (Fri May 29 00:50:18 2015)
  /DOCINFO pdfmark
end
} ifelse
end
%%EndProlog
%%Page: 1 1
gnudict begin
gsave
doclip
50 50 translate
0.100 0.100 scale
90 rotate
0 -5040 translate
0 setgray
newpath
(Helvetica) findfont 140 scalefont setfont
BackgroundColor 0 lt 3 1 roll 0 lt exch 0 lt or or not {gsave BackgroundColor C clippath fill grestore} if
1.000 UL
LT0
0.50 0.50 0.50 C 1.000 UL
LTa
0.50 0.50 0.50 C 966 280 M
5981 0 V
stroke
LT0
0.50 0.50 0.50 C 966 280 M
63 0 V
5918 0 R
-63 0 V
882 280 M
( 0) Rshow
1.000 UL
LT0
0.50 0.50 0.50 C 1.000 UL
LTa
0.50 0.50 0.50 C 966 372 M
5981 0 V
stroke
LT0
0.50 0.50 0.50 C 966 372 M
63 0 V
5918 0 R
-63 0 V
882 372 M
( 0.707106) Rshow
1.000 UL
LT0
0.50 0.50 0.50 C 1.000 UL
LTa
0.50 0.50 0.50 C 966 464 M
5981 0 V
stroke
LT0
0.50 0.50 0.50 C 966 464 M
63 0 V
5918 0 R
-63 0 V
882 464 M
( 1.41421) Rshow
1.000 UL
LT0
0.50 0.50 0.50 C 1.000 UL
LTa
0.50 0.50 0.50 C 966 555 M
5981 0 V
stroke
LT0
0.50 0.50 0.50 C 966 555 M
63 0 V
5918 0 R
-63 0 V
882 555 M
( 2.12132) Rshow
1.000 UL
LT0
0.50 0.50 0.50 C 1.000 UL
LTa
0.50 0.50 0.50 C 966 647 M
5981 0 V
stroke
LT0
0.50 0.50 0.50 C 966 647 M
63 0 V
5918 0 R
-63 0 V
882 647 M
( 2.82842) Rshow
1.000 UL
LT0
0.50 0.50 0.50 C 1.000 UL
LTa
0.50 0.50 0.50 C 966 739 M
5981 0 V
stroke
LT0
0.50 0.50 0.50 C 966 739 M
63 0 V
5918 0 R
-63 0 V
882 739 M
( 3.53553) Rshow
1.000 UL
LT0
0.50 0.50 0.50 C 1.000 UL
LTa
0.50 0.50 0.50 C 966 831 M
5981 0 V
stroke
LT0
0.50 0.50 0.50 C 966 831 M
63 0 V
5918 0 R
-63 0 V
882 831 M
( 4.24264) Rshow
1.000 UL
LT0
0.50 0.50 0.50 C 1.000 UL
LTa
0.50 0.50 0.50 C 966 923 M
5981 0 V
stroke
LT0
0.50 0.50 0.50 C 966 923 M
63 0 V
5918 0 R
-63 0 V
882 923 M
( 4.94974) Rshow
1.000 UL
LT0
0.50 0.50 0.50 C 1.000 UL
LTa
0.50 0.50 0.50 C 966 1015 M
5981 0 V
stroke
LT0
0.50 0.50 0.50 C 966 1015 M
63 0 V
5918 0 R
-63 0 V
-6002 0 R
( 5.65685) Rshow
1.000 UL
LT0
0.50 0.50 0.50 C 1.000 UL
LTa
0.50 0.50 0.50 C 966 1106 M
5981 0 V
stroke
LT0
0.50 0.50 0.50 C 966 1106 M
63 0 V
5918 0 R
-63 0 V
-6002 0 R
( 6.36395) Rshow
1.000 UL
LT0
0.50 0.50 0.50 C 1.000 UL
LTa
0.50 0.50 0.50 C 966 1198 M
5981 0 V
stroke
LT0
0.50 0.50 0.50 C 966 1198 M
63 0 V
5918 0 R
-63 0 V
-6002 0 R
( 7.07106) Rshow
1.000 UL
LT0
0.50 0.50 0.50 C 1.000 UL
LTa
0.50 0.50 0.50 C 966 1290 M
5981 0 V
stroke
LT0
0.50 0.50 0.50 C 966 1290 M
63 0 V
5918 0 R
-63 0 V
-6002 0 R
( 7.77817) Rshow
1.000 UL
LT0
0.50 0.50 0.50 C 1.000 UL
LTa
0.50 0.50 0.50 C 966 1382 M
5981 0 V
stroke
LT0
0.50 0.50 0.50 C 966 1382 M
63 0 V
5918 0 R
-63 0 V
-6002 0 R
( 8.48527) Rshow
1.000 UL
LT0
0.50 0.50 0.50 C 1.000 UL
LTa
0.50 0.50 0.50 C 966 1474 M
5981 0 V
stroke
LT0
0.50 0.50 0.50 C 966 1474 M
63 0 V
5918 0 R
-63 0 V
-6002 0 R
( 9.19238) Rshow
1.000 UL
LT0
0.50 0.50 0.50 C 1.000 UL
LTa
0.50 0.50 0.50 C 966 1565 M
5981 0 V
stroke
LT0
0.50 0.50 0.50 C 966 1565 M
63 0 V
5918 0 R
-63 0 V
-6002 0 R
( 9.89948) Rshow
1.000 UL
LT0
0.50 0.50 0.50 C 1.000 UL
LTa
0.50 0.50 0.50 C 966 1657 M
5981 0 V
stroke
LT0
0.50 0.50 0.50 C 966 1657 M
63 0 V
5918 0 R
-63 0 V
-6002 0 R
( 10.6066) Rshow
1.000 UL
LT0
0.50 0.50 0.50 C 1.000 UL
LTa
0.50 0.50 0.50 C 966 1749 M
5981 0 V
stroke
LT0
0.50 0.50 0.50 C 966 1749 M
63 0 V
5918 0 R
-63 0 V
-6002 0 R
( 11.3137) Rshow
1.000 UL
LT0
0.50 0.50 0.50 C 1.000 UL
LTa
0.50 0.50 0.50 C 966 1841 M
5981 0 V
stroke
LT0
0.50 0.50 0.50 C 966 1841 M
63 0 V
5918 0 R
-63 0 V
-6002 0 R
( 12.0208) Rshow
1.000 UL
LT0
0.50 0.50 0.50 C 1.000 UL
LTa
0.50 0.50 0.50 C 966 1933 M
5981 0 V
stroke
LT0
0.50 0.50 0.50 C 966 1933 M
63 0 V
5918 0 R
-63 0 V
-6002 0 R
( 12.7279) Rshow
1.000 UL
LT0
0.50 0.50 0.50 C 1.000 UL
LTa
0.50 0.50 0.50 C 966 2025 M
5981 0 V
stroke
LT0
0.50 0.50 0.50 C 966 2025 M
63 0 V
5918 0 R
-63 0 V
-6002 0 R
( 13.435) Rshow
1.000 UL
LT0
0.50 0.50 0.50 C 1.000 UL
LTa
0.50 0.50 0.50 C 966 2116 M
5981 0 V
stroke
LT0
0.50 0.50 0.50 C 966 2116 M
63 0 V
5918 0 R
-63 0 V
-6002 0 R
( 14.1421) Rshow
1.000 UL
LT0
0.50 0.50 0.50 C 1.000 UL
LTa
0.50 0.50 0.50 C 966 2208 M
5981 0 V
stroke
LT0
0.50 0.50 0.50 C 966 2208 M
63 0 V
5918 0 R
-63 0 V
-6002 0 R
( 14.8492) Rshow
1.000 UL
LT0
0.50 0.50 0.50 C 1.000 UL
LTa
0.50 0.50 0.50 C 966 2300 M
5981 0 V
stroke
LT0
0.50 0.50 0.50 C 966 2300 M
63 0 V
5918 0 R
-63 0 V
-6002 0 R
( 15.5563) Rshow
1.000 UL
LT0
0.50 0.50 0.50 C 1.000 UL
LTa
0.50 0.50 0.50 C 966 2392 M
5981 0 V
stroke
LT0
0.50 0.50 0.50 C 966 2392 M
63 0 V
5918 0 R
-63 0 V
-6002 0 R
( 16.2634) Rshow
1.000 UL
LT0
0.50 0.50 0.50 C 1.000 UL
LTa
0.50 0.50 0.50 C 966 2484 M
5981 0 V
stroke
LT0
0.50 0.50 0.50 C 966 2484 M
63 0 V
5918 0 R
-63 0 V
-6002 0 R
( 16.9705) Rshow
1.000 UL
LT0
0.50 0.50 0.50 C 1.000 UL
LTa
0.50 0.50 0.50 C 966 2575 M
5981 0 V
stroke
LT0
0.50 0.50 0.50 C 966 2575 M
63 0 V
5918 0 R
-63 0 V
-6002 0 R
( 17.6776) Rshow
1.000 UL
LT0
0.50 0.50 0.50 C 1.000 UL
LTa
0.50 0.50 0.50 C 966 2667 M
5981 0 V
stroke
LT0
0.50 0.50 0.50 C 966 2667 M
63 0 V
5918 0 R
-63 0 V
-6002 0 R
( 18.3848) Rshow
1.000 UL
LT0
0.50 0.50 0.50 C 1.000 UL
LTa
0.50 0.50 0.50 C 966 2759 M
5981 0 V
stroke
LT0
0.50 0.50 0.50 C 966 2759 M
63 0 V
5918 0 R
-63 0 V
-6002 0 R
( 19.0919) Rshow
1.000 UL
LT0
0.50 0.50 0.50 C 1.000 UL
LTa
0.50 0.50 0.50 C 966 2851 M
5981 0 V
stroke
LT0
0.50 0.50 0.50 C 966 2851 M
63 0 V
5918 0 R
-63 0 V
-6002 0 R
( 19.799) Rshow
1.000 UL
LT0
0.50 0.50 0.50 C 1.000 UL
LTa
0.50 0.50 0.50 C 966 2943 M
5981 0 V
stroke
LT0
0.50 0.50 0.50 C 966 2943 M
63 0 V
5918 0 R
-63 0 V
-6002 0 R
( 20.5061) Rshow
1.000 UL
LT0
0.50 0.50 0.50 C 1.000 UL
LTa
0.50 0.50 0.50 C 966 3035 M
5981 0 V
stroke
LT0
0.50 0.50 0.50 C 966 3035 M
63 0 V
5918 0 R
-63 0 V
-6002 0 R
( 21.2132) Rshow
1.000 UL
LT0
0.50 0.50 0.50 C 1.000 UL
LTa
0.50 0.50 0.50 C 966 3126 M
5981 0 V
stroke
LT0
0.50 0.50 0.50 C 966 3126 M
63 0 V
5918 0 R
-63 0 V
-6002 0 R
( 21.9203) Rshow
1.000 UL
LT0
0.50 0.50 0.50 C 1.000 UL
LTa
0.50 0.50 0.50 C 966 3218 M
5981 0 V
stroke
LT0
0.50 0.50 0.50 C 966 3218 M
63 0 V
5918 0 R
-63 0 V
-6002 0 R
( 22.6274) Rshow
1.000 UL
LT0
0.50 0.50 0.50 C 1.000 UL
LTa
0.50 0.50 0.50 C 966 3310 M
5981 0 V
stroke
LT0
0.50 0.50 0.50 C 966 3310 M
63 0 V
5918 0 R
-63 0 V
-6002 0 R
( 23.3345) Rshow
1.000 UL
LT0
0.50 0.50 0.50 C 1.000 UL
LTa
0.50 0.50 0.50 C 966 3402 M
5981 0 V
stroke
LT0
0.50 0.50 0.50 C 966 3402 M
63 0 V
5918 0 R
-63 0 V
-6002 0 R
( 24.0416) Rshow
1.000 UL
LT0
0.50 0.50 0.50 C 1.000 UL
LTa
0.50 0.50 0.50 C 966 3494 M
5981 0 V
stroke
LT0
0.50 0.50 0.50 C 966 3494 M
63 0 V
5918 0 R
-63 0 V
-6002 0 R
( 24.7487) Rshow
1.000 UL
LT0
0.50 0.50 0.50 C 1.000 UL
LTa
0.50 0.50 0.50 C 966 3586 M
5981 0 V
stroke
LT0
0.50 0.50 0.50 C 966 3586 M
63 0 V
5918 0 R
-63 0 V
-6002 0 R
( 25.4558) Rshow
1.000 UL
LT0
0.50 0.50 0.50 C 1.000 UL
LTa
0.50 0.50 0.50 C 966 3677 M
5981 0 V
stroke
LT0
0.50 0.50 0.50 C 966 3677 M
63 0 V
5918 0 R
-63 0 V
-6002 0 R
( 26.1629) Rshow
1.000 UL
LT0
0.50 0.50 0.50 C 1.000 UL
LTa
0.50 0.50 0.50 C 966 3769 M
5981 0 V
stroke
LT0
0.50 0.50 0.50 C 966 3769 M
63 0 V
5918 0 R
-63 0 V
-6002 0 R
( 26.87) Rshow
1.000 UL
LT0
0.50 0.50 0.50 C 1.000 UL
LTa
0.50 0.50 0.50 C 966 3861 M
5981 0 V
stroke
LT0
0.50 0.50 0.50 C 966 3861 M
63 0 V
5918 0 R
-63 0 V
-6002 0 R
( 27.5771) Rshow
1.000 UL
LT0
0.50 0.50 0.50 C 1.000 UL
LTa
0.50 0.50 0.50 C 966 3953 M
5981 0 V
stroke
LT0
0.50 0.50 0.50 C 966 3953 M
63 0 V
5918 0 R
-63 0 V
-6002 0 R
( 28.2842) Rshow
1.000 UL
LT0
0.50 0.50 0.50 C 1.000 UL
LTa
0.50 0.50 0.50 C 966 4045 M
5981 0 V
stroke
LT0
0.50 0.50 0.50 C 966 4045 M
63 0 V
5918 0 R
-63 0 V
-6002 0 R
( 28.9913) Rshow
1.000 UL
LT0
0.50 0.50 0.50 C 1.000 UL
LTa
0.50 0.50 0.50 C 966 4136 M
5981 0 V
stroke
LT0
0.50 0.50 0.50 C 966 4136 M
63 0 V
5918 0 R
-63 0 V
-6002 0 R
( 29.6985) Rshow
1.000 UL
LT0
0.50 0.50 0.50 C 1.000 UL
LTa
0.50 0.50 0.50 C 966 4228 M
5981 0 V
stroke
LT0
0.50 0.50 0.50 C 966 4228 M
63 0 V
5918 0 R
-63 0 V
-6002 0 R
( 30.4056) Rshow
1.000 UL
LT0
0.50 0.50 0.50 C 1.000 UL
LTa
0.50 0.50 0.50 C 966 4320 M
5981 0 V
stroke
LT0
0.50 0.50 0.50 C 966 4320 M
63 0 V
5918 0 R
-63 0 V
-6002 0 R
( 31.1127) Rshow
1.000 UL
LT0
0.50 0.50 0.50 C 1.000 UL
LTa
0.50 0.50 0.50 C 966 4412 M
5981 0 V
stroke
LT0
0.50 0.50 0.50 C 966 4412 M
63 0 V
5918 0 R
-63 0 V
-6002 0 R
( 31.8198) Rshow
1.000 UL
LT0
0.50 0.50 0.50 C 1.000 UL
LTa
0.50 0.50 0.50 C 966 4504 M
5981 0 V
stroke
LT0
0.50 0.50 0.50 C 966 4504 M
63 0 V
5918 0 R
-63 0 V
-6002 0 R
( 32.5269) Rshow
1.000 UL
LT0
0.50 0.50 0.50 C 1.000 UL
LTa
0.50 0.50 0.50 C 966 4596 M
5981 0 V
stroke
LT0
0.50 0.50 0.50 C 966 4596 M
63 0 V
5918 0 R
-63 0 V
-6002 0 R
( 33.234) Rshow
1.000 UL
LT0
0.50 0.50 0.50 C 1.000 UL
LTa
0.50 0.50 0.50 C 966 4687 M
5981 0 V
stroke
LT0
0.50 0.50 0.50 C 966 4687 M
63 0 V
5918 0 R
-63 0 V
-6002 0 R
( 33.9411) Rshow
1.000 UL
LT0
0.50 0.50 0.50 C 1.000 UL
LTa
0.50 0.50 0.50 C 966 4779 M
5981 0 V
stroke
LT0
0.50 0.50 0.50 C 966 4779 M
63 0 V
5918 0 R
-63 0 V
-6002 0 R
( 34.6482) Rshow
1.000 UL
LT0
0.50 0.50 0.50 C 1.000 UL
LTa
0.50 0.50 0.50 C 966 4871 M
5981 0 V
stroke
LT0
0.50 0.50 0.50 C 966 4871 M
63 0 V
5918 0 R
-63 0 V
-6002 0 R
( 35.3553) Rshow
1.000 UL
LT0
0.50 0.50 0.50 C 1.000 UL
LTa
0.50 0.50 0.50 C 966 280 M
0 4591 V
stroke
LT0
0.50 0.50 0.50 C 966 280 M
0 63 V
0 4528 R
0 -63 V
966 140 M
( 0) Cshow
1.000 UL
LT0
0.50 0.50 0.50 C 1.000 UL
LTa
0.50 0.50 0.50 C 1086 280 M
0 4591 V
stroke
LT0
0.50 0.50 0.50 C 1086 280 M
0 63 V
0 4528 R
0 -63 V
0 -4668 R
( 0.707106) Cshow
1.000 UL
LT0
0.50 0.50 0.50 C 1.000 UL
LTa
0.50 0.50 0.50 C 1205 280 M
0 4591 V
stroke
LT0
0.50 0.50 0.50 C 1205 280 M
0 63 V
0 4528 R
0 -63 V
0 -4668 R
( 1.41421) Cshow
1.000 UL
LT0
0.50 0.50 0.50 C 1.000 UL
LTa
0.50 0.50 0.50 C 1325 280 M
0 4591 V
stroke
LT0
0.50 0.50 0.50 C 1325 280 M
0 63 V
0 4528 R
0 -63 V
0 -4668 R
( 2.12132) Cshow
1.000 UL
LT0
0.50 0.50 0.50 C 1.000 UL
LTa
0.50 0.50 0.50 C 1444 280 M
0 4591 V
stroke
LT0
0.50 0.50 0.50 C 1444 280 M
0 63 V
0 4528 R
0 -63 V
0 -4668 R
( 2.82842) Cshow
1.000 UL
LT0
0.50 0.50 0.50 C 1.000 UL
LTa
0.50 0.50 0.50 C 1564 280 M
0 4591 V
stroke
LT0
0.50 0.50 0.50 C 1564 280 M
0 63 V
0 4528 R
0 -63 V
0 -4668 R
( 3.53553) Cshow
1.000 UL
LT0
0.50 0.50 0.50 C 1.000 UL
LTa
0.50 0.50 0.50 C 1684 280 M
0 4591 V
stroke
LT0
0.50 0.50 0.50 C 1684 280 M
0 63 V
0 4528 R
0 -63 V
0 -4668 R
( 4.24264) Cshow
1.000 UL
LT0
0.50 0.50 0.50 C 1.000 UL
LTa
0.50 0.50 0.50 C 1803 280 M
0 4591 V
stroke
LT0
0.50 0.50 0.50 C 1803 280 M
0 63 V
0 4528 R
0 -63 V
0 -4668 R
( 4.94974) Cshow
1.000 UL
LT0
0.50 0.50 0.50 C 1.000 UL
LTa
0.50 0.50 0.50 C 1923 280 M
0 4591 V
stroke
LT0
0.50 0.50 0.50 C 1923 280 M
0 63 V
0 4528 R
0 -63 V
0 -4668 R
( 5.65685) Cshow
1.000 UL
LT0
0.50 0.50 0.50 C 1.000 UL
LTa
0.50 0.50 0.50 C 2043 280 M
0 4591 V
stroke
LT0
0.50 0.50 0.50 C 2043 280 M
0 63 V
0 4528 R
0 -63 V
0 -4668 R
( 6.36395) Cshow
1.000 UL
LT0
0.50 0.50 0.50 C 1.000 UL
LTa
0.50 0.50 0.50 C 2162 280 M
0 4591 V
stroke
LT0
0.50 0.50 0.50 C 2162 280 M
0 63 V
0 4528 R
0 -63 V
0 -4668 R
( 7.07106) Cshow
1.000 UL
LT0
0.50 0.50 0.50 C 1.000 UL
LTa
0.50 0.50 0.50 C 2282 280 M
0 4591 V
stroke
LT0
0.50 0.50 0.50 C 2282 280 M
0 63 V
0 4528 R
0 -63 V
0 -4668 R
( 7.77817) Cshow
1.000 UL
LT0
0.50 0.50 0.50 C 1.000 UL
LTa
0.50 0.50 0.50 C 2401 280 M
0 4591 V
stroke
LT0
0.50 0.50 0.50 C 2401 280 M
0 63 V
0 4528 R
0 -63 V
0 -4668 R
( 8.48527) Cshow
1.000 UL
LT0
0.50 0.50 0.50 C 1.000 UL
LTa
0.50 0.50 0.50 C 2521 280 M
0 4591 V
stroke
LT0
0.50 0.50 0.50 C 2521 280 M
0 63 V
0 4528 R
0 -63 V
0 -4668 R
( 9.19238) Cshow
1.000 UL
LT0
0.50 0.50 0.50 C 1.000 UL
LTa
0.50 0.50 0.50 C 2641 280 M
0 4591 V
stroke
LT0
0.50 0.50 0.50 C 2641 280 M
0 63 V
0 4528 R
0 -63 V
0 -4668 R
( 9.89948) Cshow
1.000 UL
LT0
0.50 0.50 0.50 C 1.000 UL
LTa
0.50 0.50 0.50 C 2760 280 M
0 4591 V
stroke
LT0
0.50 0.50 0.50 C 2760 280 M
0 63 V
0 4528 R
0 -63 V
0 -4668 R
( 10.6066) Cshow
1.000 UL
LT0
0.50 0.50 0.50 C 1.000 UL
LTa
0.50 0.50 0.50 C 2880 280 M
0 4591 V
stroke
LT0
0.50 0.50 0.50 C 2880 280 M
0 63 V
0 4528 R
0 -63 V
0 -4668 R
( 11.3137) Cshow
1.000 UL
LT0
0.50 0.50 0.50 C 1.000 UL
LTa
0.50 0.50 0.50 C 3000 280 M
0 4591 V
stroke
LT0
0.50 0.50 0.50 C 3000 280 M
0 63 V
0 4528 R
0 -63 V
0 -4668 R
( 12.0208) Cshow
1.000 UL
LT0
0.50 0.50 0.50 C 1.000 UL
LTa
0.50 0.50 0.50 C 3119 280 M
0 4591 V
stroke
LT0
0.50 0.50 0.50 C 3119 280 M
0 63 V
0 4528 R
0 -63 V
0 -4668 R
( 12.7279) Cshow
1.000 UL
LT0
0.50 0.50 0.50 C 1.000 UL
LTa
0.50 0.50 0.50 C 3239 280 M
0 4591 V
stroke
LT0
0.50 0.50 0.50 C 3239 280 M
0 63 V
0 4528 R
0 -63 V
0 -4668 R
( 13.435) Cshow
1.000 UL
LT0
0.50 0.50 0.50 C 1.000 UL
LTa
0.50 0.50 0.50 C 3358 280 M
0 4591 V
stroke
LT0
0.50 0.50 0.50 C 3358 280 M
0 63 V
0 4528 R
0 -63 V
0 -4668 R
( 14.1421) Cshow
1.000 UL
LT0
0.50 0.50 0.50 C 1.000 UL
LTa
0.50 0.50 0.50 C 3478 280 M
0 4591 V
stroke
LT0
0.50 0.50 0.50 C 3478 280 M
0 63 V
0 4528 R
0 -63 V
0 -4668 R
( 14.8492) Cshow
1.000 UL
LT0
0.50 0.50 0.50 C 1.000 UL
LTa
0.50 0.50 0.50 C 3598 280 M
0 4591 V
stroke
LT0
0.50 0.50 0.50 C 3598 280 M
0 63 V
0 4528 R
0 -63 V
0 -4668 R
( 15.5563) Cshow
1.000 UL
LT0
0.50 0.50 0.50 C 1.000 UL
LTa
0.50 0.50 0.50 C 3717 280 M
0 4591 V
stroke
LT0
0.50 0.50 0.50 C 3717 280 M
0 63 V
0 4528 R
0 -63 V
0 -4668 R
( 16.2634) Cshow
1.000 UL
LT0
0.50 0.50 0.50 C 1.000 UL
LTa
0.50 0.50 0.50 C 3837 280 M
0 4591 V
stroke
LT0
0.50 0.50 0.50 C 3837 280 M
0 63 V
0 4528 R
0 -63 V
0 -4668 R
( 16.9705) Cshow
1.000 UL
LT0
0.50 0.50 0.50 C 1.000 UL
LTa
0.50 0.50 0.50 C 3956 280 M
0 4591 V
stroke
LT0
0.50 0.50 0.50 C 3956 280 M
0 63 V
0 4528 R
0 -63 V
0 -4668 R
( 17.6776) Cshow
1.000 UL
LT0
0.50 0.50 0.50 C 1.000 UL
LTa
0.50 0.50 0.50 C 4076 280 M
0 4591 V
stroke
LT0
0.50 0.50 0.50 C 4076 280 M
0 63 V
0 4528 R
0 -63 V
0 -4668 R
( 18.3848) Cshow
1.000 UL
LT0
0.50 0.50 0.50 C 1.000 UL
LTa
0.50 0.50 0.50 C 4196 280 M
0 4591 V
stroke
LT0
0.50 0.50 0.50 C 4196 280 M
0 63 V
0 4528 R
0 -63 V
0 -4668 R
( 19.0919) Cshow
1.000 UL
LT0
0.50 0.50 0.50 C 1.000 UL
LTa
0.50 0.50 0.50 C 4315 280 M
0 4591 V
stroke
LT0
0.50 0.50 0.50 C 4315 280 M
0 63 V
0 4528 R
0 -63 V
0 -4668 R
( 19.799) Cshow
1.000 UL
LT0
0.50 0.50 0.50 C 1.000 UL
LTa
0.50 0.50 0.50 C 4435 280 M
0 4591 V
stroke
LT0
0.50 0.50 0.50 C 4435 280 M
0 63 V
0 4528 R
0 -63 V
0 -4668 R
( 20.5061) Cshow
1.000 UL
LT0
0.50 0.50 0.50 C 1.000 UL
LTa
0.50 0.50 0.50 C 4555 280 M
0 4591 V
stroke
LT0
0.50 0.50 0.50 C 4555 280 M
0 63 V
0 4528 R
0 -63 V
0 -4668 R
( 21.2132) Cshow
1.000 UL
LT0
0.50 0.50 0.50 C 1.000 UL
LTa
0.50 0.50 0.50 C 4674 280 M
0 4591 V
stroke
LT0
0.50 0.50 0.50 C 4674 280 M
0 63 V
0 4528 R
0 -63 V
0 -4668 R
( 21.9203) Cshow
1.000 UL
LT0
0.50 0.50 0.50 C 1.000 UL
LTa
0.50 0.50 0.50 C 4794 280 M
0 4591 V
stroke
LT0
0.50 0.50 0.50 C 4794 280 M
0 63 V
0 4528 R
0 -63 V
0 -4668 R
( 22.6274) Cshow
1.000 UL
LT0
0.50 0.50 0.50 C 1.000 UL
LTa
0.50 0.50 0.50 C 4913 280 M
0 4591 V
stroke
LT0
0.50 0.50 0.50 C 4913 280 M
0 63 V
0 4528 R
0 -63 V
0 -4668 R
( 23.3345) Cshow
1.000 UL
LT0
0.50 0.50 0.50 C 1.000 UL
LTa
0.50 0.50 0.50 C 5033 280 M
0 4591 V
stroke
LT0
0.50 0.50 0.50 C 5033 280 M
0 63 V
0 4528 R
0 -63 V
0 -4668 R
( 24.0416) Cshow
1.000 UL
LT0
0.50 0.50 0.50 C 1.000 UL
LTa
0.50 0.50 0.50 C 5153 280 M
0 4591 V
stroke
LT0
0.50 0.50 0.50 C 5153 280 M
0 63 V
0 4528 R
0 -63 V
0 -4668 R
( 24.7487) Cshow
1.000 UL
LT0
0.50 0.50 0.50 C 1.000 UL
LTa
0.50 0.50 0.50 C 5272 280 M
0 4591 V
stroke
LT0
0.50 0.50 0.50 C 5272 280 M
0 63 V
0 4528 R
0 -63 V
0 -4668 R
( 25.4558) Cshow
1.000 UL
LT0
0.50 0.50 0.50 C 1.000 UL
LTa
0.50 0.50 0.50 C 5392 280 M
0 4591 V
stroke
LT0
0.50 0.50 0.50 C 5392 280 M
0 63 V
0 4528 R
0 -63 V
0 -4668 R
( 26.1629) Cshow
1.000 UL
LT0
0.50 0.50 0.50 C 1.000 UL
LTa
0.50 0.50 0.50 C 5512 280 M
0 4591 V
stroke
LT0
0.50 0.50 0.50 C 5512 280 M
0 63 V
0 4528 R
0 -63 V
0 -4668 R
( 26.87) Cshow
1.000 UL
LT0
0.50 0.50 0.50 C 1.000 UL
LTa
0.50 0.50 0.50 C 5631 280 M
0 4591 V
stroke
LT0
0.50 0.50 0.50 C 5631 280 M
0 63 V
0 4528 R
0 -63 V
0 -4668 R
( 27.5771) Cshow
1.000 UL
LT0
0.50 0.50 0.50 C 1.000 UL
LTa
0.50 0.50 0.50 C 5751 280 M
0 4591 V
stroke
LT0
0.50 0.50 0.50 C 5751 280 M
0 63 V
0 4528 R
0 -63 V
0 -4668 R
( 28.2842) Cshow
1.000 UL
LT0
0.50 0.50 0.50 C 1.000 UL
LTa
0.50 0.50 0.50 C 5870 280 M
0 4591 V
stroke
LT0
0.50 0.50 0.50 C 5870 280 M
0 63 V
0 4528 R
0 -63 V
0 -4668 R
( 28.9913) Cshow
1.000 UL
LT0
0.50 0.50 0.50 C 1.000 UL
LTa
0.50 0.50 0.50 C 5990 280 M
0 4591 V
stroke
LT0
0.50 0.50 0.50 C 5990 280 M
0 63 V
0 4528 R
0 -63 V
0 -4668 R
( 29.6985) Cshow
1.000 UL
LT0
0.50 0.50 0.50 C 1.000 UL
LTa
0.50 0.50 0.50 C 6110 280 M
0 4591 V
stroke
LT0
0.50 0.50 0.50 C 6110 280 M
0 63 V
0 4528 R
0 -63 V
0 -4668 R
( 30.4056) Cshow
1.000 UL
LT0
0.50 0.50 0.50 C 1.000 UL
LTa
0.50 0.50 0.50 C 6229 280 M
0 4591 V
stroke
LT0
0.50 0.50 0.50 C 6229 280 M
0 63 V
0 4528 R
0 -63 V
0 -4668 R
( 31.1127) Cshow
1.000 UL
LT0
0.50 0.50 0.50 C 1.000 UL
LTa
0.50 0.50 0.50 C 6349 280 M
0 4591 V
stroke
LT0
0.50 0.50 0.50 C 6349 280 M
0 63 V
0 4528 R
0 -63 V
0 -4668 R
( 31.8198) Cshow
1.000 UL
LT0
0.50 0.50 0.50 C 1.000 UL
LTa
0.50 0.50 0.50 C 6469 280 M
0 4591 V
stroke
LT0
0.50 0.50 0.50 C 6469 280 M
0 63 V
0 4528 R
0 -63 V
0 -4668 R
( 32.5269) Cshow
1.000 UL
LT0
0.50 0.50 0.50 C 1.000 UL
LTa
0.50 0.50 0.50 C 6588 280 M
0 4591 V
stroke
LT0
0.50 0.50 0.50 C 6588 280 M
0 63 V
0 4528 R
0 -63 V
0 -4668 R
( 33.234) Cshow
1.000 UL
LT0
0.50 0.50 0.50 C 1.000 UL
LTa
0.50 0.50 0.50 C 6708 280 M
0 4591 V
stroke
LT0
0.50 0.50 0.50 C 6708 280 M
0 63 V
0 4528 R
0 -63 V
0 -4668 R
( 33.9411) Cshow
1.000 UL
LT0
0.50 0.50 0.50 C 1.000 UL
LTa
0.50 0.50 0.50 C 6827 280 M
0 4591 V
stroke
LT0
0.50 0.50 0.50 C 6827 280 M
0 63 V
0 4528 R
0 -63 V
0 -4668 R
( 34.6482) Cshow
1.000 UL
LT0
0.50 0.50 0.50 C 1.000 UL
LTa
0.50 0.50 0.50 C 6947 280 M
0 4591 V
stroke
LT0
0.50 0.50 0.50 C 6947 280 M
0 63 V
0 4528 R
0 -63 V
0 -4668 R
( 35.3553) Cshow
1.000 UL
LT0
0.50 0.50 0.50 C 1.000 UL
LT0
0.50 0.50 0.50 C 966 4871 M
966 280 L
5981 0 V
0 4591 R
-5981 0 R
1.000 UP
stroke
LT0
0.50 0.50 0.50 C % Begin plot #1
1.500 UP
2.000 UL
LT0
0.00 0.00 1.00 C /Helvetica findfont 140 scalefont setfont
/vshift -46 def
966 372 M
120 0 V
119 0 V
0 92 R
120 0 V
119 0 V
120 0 V
120 0 V
119 0 V
0 367 R
120 0 V
120 0 V
119 0 V
120 0 V
119 0 V
120 0 V
0 3030 R
120 0 V
0 92 R
119 0 V
120 0 V
120 0 V
119 0 V
120 0 V
0 183 R
119 0 V
120 0 V
0 276 R
120 0 V
119 0 V
120 0 V
120 0 V
119 0 V
120 0 V
119 0 V
120 0 V
120 0 V
119 0 V
120 0 V
119 0 V
120 0 V
120 0 V
119 0 V
120 0 V
120 0 V
119 0 V
120 0 V
119 0 V
120 0 V
120 0 V
119 0 V
120 0 V
120 0 V
119 0 V
120 0 V
119 0 V
0 367 R
120 0 V
1205 372 M
0 92 V
598 0 R
0 91 V
0 92 V
0 92 V
0 92 V
718 0 R
0 92 V
0 92 V
0 91 V
0 92 V
0 92 V
0 92 V
0 92 V
0 91 V
0 92 V
0 92 V
0 92 V
0 92 V
0 92 V
0 91 V
0 92 V
0 92 V
0 92 V
0 92 V
0 92 V
0 91 V
0 92 V
0 92 V
0 92 V
0 92 V
0 91 V
0 92 V
0 92 V
0 92 V
0 92 V
0 92 V
0 91 V
0 92 V
0 92 V
120 0 R
0 92 V
598 0 R
0 92 V
0 91 V
239 0 R
0 92 V
stroke 3478 4228 M
0 92 V
0 92 V
3349 0 R
0 92 V
0 92 V
0 91 V
0 92 V
966 280 M
0 92 V
6947 4779 M
0 92 V
966 372 CircleF
1086 372 CircleF
1086 372 CircleF
1205 372 CircleF
1205 464 CircleF
1325 464 CircleF
1325 464 CircleF
1444 464 CircleF
1444 464 CircleF
1564 464 CircleF
1564 464 CircleF
1684 464 CircleF
1684 464 CircleF
1803 464 CircleF
1803 831 CircleF
1923 831 CircleF
1923 831 CircleF
2043 831 CircleF
2043 831 CircleF
2162 831 CircleF
2162 831 CircleF
2282 831 CircleF
2282 831 CircleF
2401 831 CircleF
2401 831 CircleF
2521 831 CircleF
2521 3861 CircleF
2641 3861 CircleF
2641 3953 CircleF
2760 3953 CircleF
2760 3953 CircleF
2880 3953 CircleF
2880 3953 CircleF
3000 3953 CircleF
3000 3953 CircleF
3119 3953 CircleF
3119 3953 CircleF
3239 3953 CircleF
3239 4136 CircleF
3358 4136 CircleF
3358 4136 CircleF
3478 4136 CircleF
3478 4412 CircleF
3598 4412 CircleF
3598 4412 CircleF
3717 4412 CircleF
3717 4412 CircleF
3837 4412 CircleF
3837 4412 CircleF
3957 4412 CircleF
3957 4412 CircleF
4076 4412 CircleF
4076 4412 CircleF
4196 4412 CircleF
4196 4412 CircleF
4315 4412 CircleF
4315 4412 CircleF
4435 4412 CircleF
4435 4412 CircleF
4555 4412 CircleF
4555 4412 CircleF
4674 4412 CircleF
4674 4412 CircleF
4794 4412 CircleF
4794 4412 CircleF
4913 4412 CircleF
4913 4412 CircleF
5033 4412 CircleF
5033 4412 CircleF
5153 4412 CircleF
5153 4412 CircleF
5272 4412 CircleF
5272 4412 CircleF
5392 4412 CircleF
5392 4412 CircleF
5512 4412 CircleF
5512 4412 CircleF
5631 4412 CircleF
5631 4412 CircleF
5751 4412 CircleF
5751 4412 CircleF
5870 4412 CircleF
5870 4412 CircleF
5990 4412 CircleF
5990 4412 CircleF
6110 4412 CircleF
6110 4412 CircleF
6229 4412 CircleF
6229 4412 CircleF
6349 4412 CircleF
6349 4412 CircleF
6469 4412 CircleF
6469 4412 CircleF
6588 4412 CircleF
6588 4412 CircleF
6708 4412 CircleF
6708 4412 CircleF
6827 4412 CircleF
6827 4779 CircleF
6947 4779 CircleF
1205 372 CircleF
1205 464 CircleF
1803 464 CircleF
1803 555 CircleF
1803 555 CircleF
1803 647 CircleF
1803 647 CircleF
1803 739 CircleF
1803 739 CircleF
1803 831 CircleF
2521 831 CircleF
2521 923 CircleF
2521 923 CircleF
2521 1015 CircleF
2521 1015 CircleF
2521 1106 CircleF
2521 1106 CircleF
2521 1198 CircleF
2521 1198 CircleF
2521 1290 CircleF
2521 1290 CircleF
2521 1382 CircleF
2521 1382 CircleF
2521 1474 CircleF
2521 1474 CircleF
2521 1565 CircleF
2521 1565 CircleF
2521 1657 CircleF
2521 1657 CircleF
2521 1749 CircleF
2521 1749 CircleF
2521 1841 CircleF
2521 1841 CircleF
2521 1933 CircleF
2521 1933 CircleF
2521 2025 CircleF
2521 2025 CircleF
2521 2116 CircleF
2521 2116 CircleF
2521 2208 CircleF
2521 2208 CircleF
2521 2300 CircleF
2521 2300 CircleF
2521 2392 CircleF
2521 2392 CircleF
2521 2484 CircleF
2521 2484 CircleF
2521 2576 CircleF
2521 2576 CircleF
2521 2667 CircleF
2521 2667 CircleF
2521 2759 CircleF
2521 2759 CircleF
2521 2851 CircleF
2521 2851 CircleF
2521 2943 CircleF
2521 2943 CircleF
2521 3035 CircleF
2521 3035 CircleF
2521 3126 CircleF
2521 3126 CircleF
2521 3218 CircleF
2521 3218 CircleF
2521 3310 CircleF
2521 3310 CircleF
2521 3402 CircleF
2521 3402 CircleF
2521 3494 CircleF
2521 3494 CircleF
2521 3586 CircleF
2521 3586 CircleF
2521 3677 CircleF
2521 3677 CircleF
2521 3769 CircleF
2521 3769 CircleF
2521 3861 CircleF
2641 3861 CircleF
2641 3953 CircleF
3239 3953 CircleF
3239 4045 CircleF
3239 4045 CircleF
3239 4136 CircleF
3478 4136 CircleF
3478 4228 CircleF
3478 4228 CircleF
3478 4320 CircleF
3478 4320 CircleF
3478 4412 CircleF
6827 4412 CircleF
6827 4504 CircleF
6827 4504 CircleF
6827 4596 CircleF
6827 4596 CircleF
6827 4687 CircleF
6827 4687 CircleF
6827 4779 CircleF
966 280 CircleF
966 372 CircleF
6947 4779 CircleF
6947 4871 CircleF
% End plot #1
% Begin plot #2
1.500 UP
2.000 UL
LT0
1.00 0.55 0.00 C /Helvetica findfont 140 scalefont setfont
2328 2183 M
124 95 V
6034 1139 M
145 111 V
3438 4339 M
216 165 V
2784 4142 M
212 163 V
4345 3722 M
176 135 V
2872 2803 M
165 126 V
2845 -69 R
123 94 V
4028 748 M
126 96 V
3483 4588 M
133 102 V
5061 2279 M
169 130 V
6576 4405 M
183 140 V
4228 3978 M
200 153 V
471 419 R
169 129 V
5471 3613 M
157 120 V
-451 634 R
206 158 V
1794 3787 M
155 119 V
6296 3042 M
143 110 V
-731 374 R
125 96 V
2389 1981 M
235 180 V
3092 815 R
197 151 V
-3840 7 R
211 162 V
24 1372 R
147 113 V
3074 2789 M
230 177 V
4413 2497 M
150 115 V
332 1205 R
205 157 V
3663 728 M
133 102 V
5443 3275 M
120 93 V
3879 3771 M
129 99 V
6084 2275 M
228 176 V
2037 2050 M
126 96 V
4364 223 R
207 159 V
4170 1422 M
176 135 V
6421 4171 M
181 139 V
4488 1474 M
235 181 V
3855 584 M
185 141 V
-398 316 R
206 158 V
1526 2848 M
196 151 V
5297 1461 M
220 168 V
6217 589 M
133 102 V
3848 1277 M
131 100 V
-822 338 R
126 97 V
515 -236 R
203 156 V
3738 1137 M
229 176 V
978 2138 R
184 142 V
-467 -14 R
183 141 V
2587 2434 M
138 106 V
2020 805 M
198 153 V
1489 3418 M
225 173 V
4789 295 M
167 128 V
1407 3318 M
223 171 V
2642 1416 M
186 143 V
5320 4386 M
128 98 V
3371 4184 M
215 164 V
stroke 3586 4348 M
105 -185 R
140 107 V
3934 3217 M
184 141 V
305 -210 R
181 139 V
2669 1507 M
121 92 V
4609 441 M
147 112 V
4577 4199 M
132 102 V
2492 1222 M
209 161 V
4896 1050 M
223 172 V
3766 3038 M
135 103 V
1315 1510 M
159 123 V
4883 3305 M
195 149 V
1822 3351 M
120 92 V
3823 221 R
215 164 V
-3003 88 R
139 107 V
6115 2759 M
120 93 V
4958 3968 M
218 168 V
6176 1778 M
204 156 V
223 969 R
224 171 V
1356 485 M
124 95 V
3936 2016 M
205 157 V
1622 1786 M
156 120 V
5368 1245 M
155 118 V
6674 4241 M
194 149 V
2056 4238 M
220 169 V
2070 2986 M
125 95 V
6394 1531 M
189 145 V
989 2577 M
213 164 V
774 -971 R
174 134 V
3876 4359 M
152 116 V
3656 3138 M
183 140 V
1066 3130 M
145 112 V
1041 183 R
212 163 V
2808 810 R
169 131 V
1816 1702 M
205 158 V
5586 1073 M
202 155 V
5148 2648 M
172 133 V
1050 549 M
220 169 V
5924 4245 M
136 104 V
1723 351 M
211 162 V
-536 898 R
193 148 V
4280 782 R
163 124 V
1693 1411 M
198 152 V
-806 305 R
161 123 V
4077 1149 M
142 109 V
6575 785 M
230 176 V
5084 713 M
152 117 V
3817 1922 M
231 177 V
912 807 R
222 170 V
1190 1912 M
145 111 V
2961 4686 M
125 96 V
6098 1762 M
235 181 V
-203 964 R
158 121 V
stroke 6288 3028 M
3439 4649 M
144 111 V
3351 2740 M
193 148 V
5035 743 M
164 126 V
3498 435 M
140 107 V
5683 3149 M
219 168 V
3462 2855 M
229 176 V
6362 4264 M
209 161 V
5016 1898 M
127 98 V
3485 2323 M
221 170 V
-1384 93 R
167 127 V
5263 4565 M
188 144 V
6058 990 M
194 148 V
5561 421 M
218 167 V
1811 2852 M
204 157 V
5150 1942 M
144 111 V
3861 1506 M
189 144 V
2836 4240 M
186 143 V
4728 1188 M
146 112 V
5979 3290 M
130 100 V
976 3289 M
223 171 V
2321 1216 M
230 176 V
1111 2194 M
181 139 V
4029 14 R
175 134 V
452 1780 R
199 153 V
-37 -915 R
121 93 V
3676 3294 M
208 160 V
-1433 0 R
136 105 V
1013 838 R
207 159 V
6703 1051 M
125 96 V
4409 4359 M
127 97 V
-646 36 R
215 165 V
2345 1320 M
230 177 V
983 951 M
155 119 V
3637 4292 M
206 159 V
3044 2947 M
237 182 V
2678 2689 M
199 152 V
1275 432 M
184 141 V
3857 3845 M
163 125 V
1235 -25 R
208 159 V
5978 1241 M
146 112 V
1551 505 M
155 119 V
503 107 R
176 135 V
3540 4308 M
150 115 V
1131 1824 M
158 121 V
5241 1192 M
123 95 V
4814 3523 M
225 172 V
3774 783 M
182 140 V
1993 2072 M
171 131 V
5276 3533 M
229 176 V
2035 4349 M
160 124 V
3971 4308 M
213 164 V
1208 1381 M
171 132 V
stroke 1379 1513 M
1122 887 R
139 106 V
4022 4644 M
157 121 V
6679 2998 M
175 134 V
1484 2258 M
135 104 V
2681 4178 M
185 142 V
2537 1562 M
195 150 V
-755 963 R
209 161 V
1206 4085 M
216 166 V
3352 2241 M
141 108 V
-746 695 R
123 95 V
4424 723 M
230 176 V
968 312 R
232 178 V
3466 3743 M
158 122 V
1036 1320 M
192 147 V
2626 2915 M
209 160 V
6622 1132 M
137 105 V
5349 399 M
173 133 V
2608 881 M
209 160 V
5871 3558 M
125 96 V
2466 4609 M
232 178 V
6345 1057 M
156 120 V
5231 3191 M
234 179 V
858 -74 R
171 130 V
1387 739 M
222 170 V
2491 700 M
199 153 V
2131 3510 M
180 138 V
24 -724 R
165 127 V
6616 1606 M
128 98 V
1112 2010 M
220 169 V
2559 1319 M
146 112 V
1446 415 M
211 162 V
1013 761 M
219 168 V
3646 167 R
132 101 V
973 566 M
211 162 V
4625 857 M
175 135 V
6707 4462 M
128 98 V
6569 437 M
234 179 V
2278 1721 M
219 168 V
1576 294 R
123 94 V
6084 1792 M
217 166 V
4453 3241 M
204 156 V
950 77 R
129 99 V
1945 4029 M
159 122 V
3567 160 R
135 103 V
4 -3627 R
207 159 V
6354 509 M
210 161 V
5923 3044 M
158 121 V
4350 2157 M
128 99 V
1758 993 M
139 107 V
6094 3736 M
232 179 V
-60 330 R
212 164 V
5175 767 M
233 179 V
stroke 5408 946 M
4672 4367 M
234 180 V
4663 425 M
120 92 V
734 1584 R
221 169 V
4256 3186 M
145 112 V
2100 396 R
198 153 V
5166 3369 M
137 105 V
3681 2073 M
218 167 V
-93 1216 R
223 171 V
2518 2678 M
165 126 V
3311 1753 M
163 125 V
1114 301 R
222 170 V
6028 3709 M
131 100 V
5097 520 M
161 124 V
890 1153 R
154 119 V
2393 3164 M
147 112 V
1924 2162 M
142 109 V
3357 219 R
153 117 V
1761 1366 M
202 155 V
99 392 R
180 138 V
5344 4636 M
124 95 V
782 -608 R
191 147 V
5317 852 M
233 180 V
3911 1746 M
157 121 V
1075 3719 M
225 173 V
3022 228 R
131 100 V
5921 1041 M
131 100 V
3628 4638 M
177 136 V
3015 3915 M
168 129 V
3475 2762 M
175 134 V
2263 1094 M
168 129 V
1125 1078 M
183 141 V
97 1815 R
172 132 V
4235 1580 M
209 161 V
2019 2264 M
159 122 V
1012 1415 M
153 117 V
-116 413 R
140 108 V
4546 1915 M
138 106 V
5138 922 M
171 132 V
-112 437 R
238 182 V
1577 3129 M
190 145 V
535 457 R
175 134 V
5325 1918 M
122 94 V
201 1208 R
150 115 V
2506 2772 M
192 148 V
2632 1220 M
146 112 V
6195 978 M
172 132 V
5481 3660 M
129 100 V
4184 1595 M
230 176 V
1587 2744 M
207 159 V
3198 4684 M
232 178 V
6525 3905 M
169 130 V
4809 2752 M
126 97 V
stroke 4935 2849 M
5633 476 M
185 142 V
1527 4603 M
204 158 V
5837 3623 M
173 133 V
5710 2816 M
144 110 V
80 407 R
187 143 V
6622 1994 M
204 156 V
2771 662 M
196 150 V
160 283 R
221 170 V
950 3368 R
231 178 V
5877 4244 M
132 102 V
2964 3122 M
180 139 V
3308 2258 M
227 174 V
85 1741 R
188 144 V
5869 1949 M
145 111 V
-830 404 R
122 93 V
2779 1616 M
162 124 V
224 679 R
220 168 V
1808 1246 M
221 170 V
874 644 R
177 137 V
1085 1866 M
121 93 V
2296 1538 M
224 172 V
4060 4195 M
230 175 V
5850 3578 M
129 99 V
6436 2137 M
198 152 V
1442 2717 M
169 130 V
2630 872 M
195 150 V
5235 475 M
130 100 V
6106 291 M
232 178 V
1627 2023 M
219 169 V
6704 3451 M
233 178 V
2252 4525 M
200 154 V
955 -582 R
227 175 V
1300 49 R
145 111 V
1292 2266 M
145 111 V
4667 1993 M
175 134 V
1872 3737 M
167 129 V
367 -691 R
215 165 V
6219 2850 M
237 182 V
4807 3243 M
238 183 V
2845 3755 M
209 161 V
2562 3116 M
177 136 V
6549 1774 M
202 155 V
2896 1092 M
181 140 V
2600 3145 M
184 141 V
996 -268 R
149 114 V
2703 1636 M
230 177 V
1593 665 R
228 175 V
957 42 R
181 139 V
2561 4379 M
194 149 V
1666 404 M
225 173 V
3538 1682 M
178 137 V
1575 600 R
169 130 V
stroke 5460 2549 M
3356 1075 M
217 167 V
4651 4381 M
229 175 V
3011 1579 M
121 93 V
-1882 45 R
180 139 V
6201 2982 M
234 179 V
3515 503 M
186 143 V
6171 2981 M
166 127 V
2868 3349 M
188 145 V
1 502 R
203 156 V
5045 653 M
228 175 V
3235 3135 M
192 147 V
4167 944 M
231 177 V
3729 3652 M
130 100 V
5024 2245 M
201 155 V
1688 2049 M
135 104 V
1470 221 R
175 134 V
5578 4256 M
128 98 V
4541 1824 M
141 108 V
3844 679 M
195 151 V
1815 439 R
195 150 V
2313 4020 M
228 175 V
6688 1863 M
141 109 V
6078 4615 M
151 116 V
1686 4084 M
210 161 V
414 -242 R
157 120 V
4185 1743 M
221 169 V
6351 3662 M
189 145 V
4676 4182 M
218 167 V
3776 1878 M
230 177 V
1939 59 R
145 111 V
5696 1659 M
155 119 V
2167 4277 M
179 138 V
2145 3316 M
184 141 V
5842 1821 M
122 94 V
3037 3079 M
214 165 V
5671 4519 M
199 153 V
5241 417 M
228 175 V
2135 2827 M
183 140 V
71 177 R
208 159 V
1078 739 M
140 108 V
3687 3756 M
152 116 V
3560 3286 M
145 111 V
6008 2489 M
228 174 V
1040 3488 M
217 167 V
4584 279 R
231 177 V
3519 3160 M
212 162 V
1588 2389 M
200 153 V
5178 4059 M
237 182 V
5318 1791 M
210 161 V
2089 1827 M
172 132 V
5888 329 M
233 179 V
2133 591 M
154 118 V
stroke 2287 709 M
1143 4096 M
171 131 V
1224 1024 M
167 129 V
80 1137 R
209 160 V
1969 808 M
173 133 V
279 1832 R
186 143 V
3685 4627 M
124 95 V
2841 3315 M
180 138 V
3599 1240 M
233 178 V
1087 932 R
159 122 V
1232 4179 M
226 173 V
5731 2837 M
177 135 V
4067 928 M
181 138 V
198 -64 R
158 121 V
5803 2450 M
191 147 V
3568 2977 M
164 126 V
3926 478 M
160 123 V
-735 463 R
203 156 V
2162 87 R
193 148 V
1897 1854 M
170 131 V
426 -923 R
145 111 V
963 152 R
189 145 V
-492 14 R
128 98 V
2698 4257 M
131 101 V
3308 40 R
137 106 V
5048 4426 M
156 119 V
1955 4040 M
157 120 V
1348 3527 M
214 164 V
4787 2943 M
232 179 V
1143 1752 M
190 145 V
-332 368 R
176 135 V
3887 468 R
187 144 V
1696 3258 M
216 165 V
6470 1559 M
159 121 V
2660 3931 M
206 158 V
1252 3799 M
128 99 V
91 440 R
167 127 V
6321 1156 M
140 108 V
3092 3499 M
202 156 V
3259 669 M
183 141 V
415 2548 R
180 138 V
8 1017 R
144 111 V
3065 3769 M
181 139 V
356 621 R
229 176 V
3077 2408 M
187 144 V
2744 3855 M
204 157 V
6248 966 M
223 171 V
4457 1333 M
195 150 V
5832 3616 M
215 165 V
2154 1824 M
172 132 V
3169 345 R
177 136 V
2521 423 M
226 174 V
4857 3206 M
196 151 V
stroke 5053 3357 M
6313 1551 M
180 139 V
6131 4166 M
188 144 V
4996 980 M
216 166 V
-728 39 R
124 95 V
3033 1841 M
154 118 V
3392 765 R
181 138 V
3910 3029 M
137 105 V
2969 1206 M
139 107 V
-756 370 R
196 150 V
6696 4337 M
182 139 V
-889 7 R
124 95 V
4877 3351 M
175 135 V
874 778 R
162 125 V
5592 2685 M
229 176 V
1217 2199 M
200 153 V
1092 812 R
189 145 V
960 1140 R
138 106 V
2853 2740 M
156 119 V
2662 589 M
228 175 V
2368 3382 M
191 146 V
1238 836 R
131 100 V
4424 1960 M
204 156 V
1302 1046 M
228 176 V
981 603 R
205 158 V
2430 41 R
159 122 V
3822 2930 M
217 166 V
4897 686 M
208 160 V
1717 3337 M
141 108 V
-87 -454 R
220 168 V
2521 2003 M
202 155 V
2059 76 R
173 133 V
1511 3211 M
184 141 V
4060 3046 M
219 168 V
6630 1522 M
198 152 V
-495 558 R
185 142 V
2563 3391 M
202 155 V
-5 -1939 R
165 127 V
-869 989 R
188 144 V
2407 1344 M
163 126 V
1189 444 M
140 108 V
4563 4135 M
238 182 V
6073 2524 M
122 93 V
3368 4525 M
205 157 V
3013 3144 M
209 160 V
1280 953 R
211 162 V
3967 1239 M
184 142 V
30 -397 R
156 120 V
1861 816 M
146 111 V
4449 2444 M
149 114 V
2992 2126 M
137 104 V
4765 374 M
197 151 V
2530 4388 M
238 183 V
stroke 2768 4571 M
5471 2834 M
208 159 V
188 -236 R
237 182 V
4625 327 M
128 99 V
6382 4597 M
179 137 V
4932 2036 M
122 94 V
3814 4373 M
124 95 V
6234 4109 M
193 148 V
5371 3653 M
143 110 V
5231 1335 M
165 127 V
96 2723 R
130 100 V
987 2242 M
171 131 V
3303 251 R
226 172 V
2862 1001 M
125 96 V
-562 566 R
137 105 V
5064 1033 M
123 94 V
3465 2069 M
198 152 V
1712 751 R
129 99 V
1454 437 M
141 109 V
161 193 R
227 174 V
1172 4378 M
190 145 V
3289 1395 M
155 119 V
6429 3787 M
157 121 V
1188 3374 M
236 181 V
434 -995 R
140 108 V
2408 754 R
213 164 V
3212 3693 M
171 132 V
1280 4059 M
168 129 V
1890 1145 M
189 146 V
4408 3467 M
202 155 V
3462 2096 M
140 107 V
2865 783 R
171 131 V
5894 1965 M
201 155 V
5059 1038 M
189 145 V
1178 4421 M
171 130 V
3089 1590 M
154 119 V
6580 3583 M
150 116 V
3030 4392 M
203 156 V
5198 2829 M
233 179 V
1585 4517 M
186 142 V
1602 2996 M
213 163 V
6663 1683 M
232 178 V
-1606 38 R
165 126 V
1355 2981 M
201 155 V
3298 417 R
120 92 V
1600 236 R
231 177 V
4921 3744 M
174 134 V
2963 636 M
161 124 V
948 1874 R
235 180 V
79 905 R
200 154 V
2173 3158 M
184 142 V
2342 386 R
182 140 V
1753 782 R
218 167 V
stroke 6852 4775 M
1060 1220 M
158 122 V
1058 2938 M
139 107 V
5708 2775 M
164 126 V
4821 856 M
219 168 V
3896 3215 M
158 122 V
2698 4303 M
189 145 V
5792 3142 M
198 152 V
4976 889 M
179 137 V
2501 1345 M
166 128 V
6131 3641 M
233 179 V
2791 1283 M
141 108 V
4426 1221 M
185 143 V
1788 804 M
180 138 V
4894 3398 M
149 115 V
539 -545 R
126 97 V
3309 3752 M
221 169 V
-728 292 R
158 122 V
3743 522 M
221 170 V
4985 461 M
205 157 V
2750 4616 M
148 114 V
4835 4077 M
129 99 V
1220 307 M
166 128 V
4254 973 R
227 174 V
5586 3905 M
228 174 V
-8 255 R
140 107 V
5032 2429 M
214 165 V
4283 1237 M
129 99 V
6663 903 M
227 174 V
2014 2078 M
181 140 V
1633 1287 M
164 126 V
2591 259 R
151 117 V
2007 1277 M
208 159 V
-564 251 R
203 156 V
124 -233 R
126 96 V
4148 -98 R
165 127 V
3665 1401 M
228 175 V
-30 1950 R
186 143 V
2188 3647 M
215 164 V
6639 709 M
236 181 V
5083 3655 M
183 141 V
265 78 R
228 175 V
4558 1931 M
203 155 V
1332 2980 M
131 101 V
1032 2938 M
181 138 V
3018 1301 M
230 177 V
-1861 33 R
171 131 V
801 1567 R
199 153 V
6704 2332 M
187 143 V
5524 3110 M
141 109 V
1514 3401 M
160 123 V
3472 3104 M
126 97 V
6289 911 M
166 127 V
stroke 6455 1038 M
1823 3016 M
188 144 V
4720 1822 M
141 108 V
-3656 96 R
220 169 V
1073 3810 M
227 175 V
3286 2962 M
133 103 V
5293 311 M
142 109 V
4357 1013 M
156 119 V
2924 2634 M
227 174 V
2069 571 R
225 172 V
2020 615 M
148 114 V
6078 863 M
176 136 V
976 4653 M
127 97 V
4818 1895 M
160 123 V
4653 288 M
231 177 V
2413 3093 M
190 146 V
-111 354 R
234 179 V
-324 225 R
155 119 V
6292 1997 M
154 118 V
3328 4221 M
189 144 V
-877 272 R
149 114 V
1647 350 M
168 129 V
4815 700 R
147 113 V
2474 852 M
133 101 V
4270 2302 M
145 111 V
4070 4384 M
172 132 V
2955 2072 M
144 110 V
2516 1422 M
181 139 V
2328 2183 CircleF
2452 2278 CircleF
6034 1139 CircleF
6179 1250 CircleF
3438 4339 CircleF
3654 4504 CircleF
2784 4142 CircleF
2996 4305 CircleF
4345 3722 CircleF
4521 3857 CircleF
2872 2803 CircleF
3037 2929 CircleF
5882 2860 CircleF
6005 2954 CircleF
4028 748 CircleF
4154 844 CircleF
3483 4588 CircleF
3616 4690 CircleF
5061 2279 CircleF
5230 2409 CircleF
6576 4405 CircleF
6759 4545 CircleF
4228 3978 CircleF
4428 4131 CircleF
4899 4550 CircleF
5068 4679 CircleF
5471 3613 CircleF
5628 3733 CircleF
5177 4367 CircleF
5383 4525 CircleF
1794 3787 CircleF
1949 3906 CircleF
6296 3042 CircleF
6439 3152 CircleF
5708 3526 CircleF
5833 3622 CircleF
2389 1981 CircleF
2624 2161 CircleF
5716 2976 CircleF
5913 3127 CircleF
2073 3134 CircleF
2284 3296 CircleF
2308 4668 CircleF
2455 4781 CircleF
3074 2789 CircleF
3304 2966 CircleF
4413 2497 CircleF
4563 2612 CircleF
4895 3817 CircleF
5100 3974 CircleF
3663 728 CircleF
3796 830 CircleF
5443 3275 CircleF
5563 3368 CircleF
3879 3771 CircleF
4008 3870 CircleF
6084 2275 CircleF
6312 2451 CircleF
2037 2050 CircleF
2163 2146 CircleF
6527 2369 CircleF
6734 2528 CircleF
4170 1422 CircleF
4346 1557 CircleF
6421 4171 CircleF
6602 4310 CircleF
4488 1474 CircleF
4723 1655 CircleF
3855 584 CircleF
4040 725 CircleF
3642 1041 CircleF
3848 1199 CircleF
1526 2848 CircleF
1722 2999 CircleF
5297 1461 CircleF
5517 1629 CircleF
6217 589 CircleF
6350 691 CircleF
3848 1277 CircleF
3979 1377 CircleF
3157 1715 CircleF
3283 1812 CircleF
3798 1576 CircleF
4001 1732 CircleF
3738 1137 CircleF
3967 1313 CircleF
4945 3451 CircleF
5129 3593 CircleF
4662 3579 CircleF
4845 3720 CircleF
2587 2434 CircleF
2725 2540 CircleF
2020 805 CircleF
2218 958 CircleF
1489 3418 CircleF
1714 3591 CircleF
4789 295 CircleF
4956 423 CircleF
1407 3318 CircleF
1630 3489 CircleF
2642 1416 CircleF
2828 1559 CircleF
5320 4386 CircleF
5448 4484 CircleF
3371 4184 CircleF
3586 4348 CircleF
3691 4163 CircleF
3831 4270 CircleF
3934 3217 CircleF
4118 3358 CircleF
4423 3148 CircleF
4604 3287 CircleF
2669 1507 CircleF
2790 1599 CircleF
4609 441 CircleF
4756 553 CircleF
4577 4199 CircleF
4709 4301 CircleF
2492 1222 CircleF
2701 1383 CircleF
4896 1050 CircleF
5119 1222 CircleF
3766 3038 CircleF
3901 3141 CircleF
1315 1510 CircleF
1474 1633 CircleF
4883 3305 CircleF
5078 3454 CircleF
1822 3351 CircleF
1942 3443 CircleF
5765 3664 CircleF
5980 3828 CircleF
2977 3916 CircleF
3116 4023 CircleF
6115 2759 CircleF
6235 2852 CircleF
4958 3968 CircleF
5176 4136 CircleF
6176 1778 CircleF
6380 1934 CircleF
6603 2903 CircleF
6827 3074 CircleF
1356 485 CircleF
1480 580 CircleF
3936 2016 CircleF
4141 2173 CircleF
1622 1786 CircleF
1778 1906 CircleF
5368 1245 CircleF
5523 1363 CircleF
6674 4241 CircleF
6868 4390 CircleF
2056 4238 CircleF
2276 4407 CircleF
2070 2986 CircleF
2195 3081 CircleF
6394 1531 CircleF
6583 1676 CircleF
989 2577 CircleF
1202 2741 CircleF
1976 1770 CircleF
2150 1904 CircleF
3876 4359 CircleF
4028 4475 CircleF
3656 3138 CircleF
3839 3278 CircleF
1066 3130 CircleF
1211 3242 CircleF
2252 3425 CircleF
2464 3588 CircleF
5272 4398 CircleF
5441 4529 CircleF
1816 1702 CircleF
2021 1860 CircleF
5586 1073 CircleF
5788 1228 CircleF
5148 2648 CircleF
5320 2781 CircleF
1050 549 CircleF
1270 718 CircleF
5924 4245 CircleF
6060 4349 CircleF
1723 351 CircleF
1934 513 CircleF
1398 1411 CircleF
1591 1559 CircleF
5871 2341 CircleF
6034 2465 CircleF
1693 1411 CircleF
1891 1563 CircleF
1085 1868 CircleF
1246 1991 CircleF
4077 1149 CircleF
4219 1258 CircleF
6575 785 CircleF
6805 961 CircleF
5084 713 CircleF
5236 830 CircleF
3817 1922 CircleF
4048 2099 CircleF
4960 2906 CircleF
5182 3076 CircleF
1190 1912 CircleF
1335 2023 CircleF
2961 4686 CircleF
3086 4782 CircleF
6098 1762 CircleF
6333 1943 CircleF
6130 2907 CircleF
6288 3028 CircleF
3439 4649 CircleF
3583 4760 CircleF
3351 2740 CircleF
3544 2888 CircleF
5035 743 CircleF
5199 869 CircleF
3498 435 CircleF
3638 542 CircleF
5683 3149 CircleF
5902 3317 CircleF
3462 2855 CircleF
3691 3031 CircleF
6362 4264 CircleF
6571 4425 CircleF
5016 1898 CircleF
5143 1996 CircleF
3485 2323 CircleF
3706 2493 CircleF
2322 2586 CircleF
2489 2713 CircleF
5263 4565 CircleF
5451 4709 CircleF
6058 990 CircleF
6252 1138 CircleF
5561 421 CircleF
5779 588 CircleF
1811 2852 CircleF
2015 3009 CircleF
5150 1942 CircleF
5294 2053 CircleF
3861 1506 CircleF
4050 1650 CircleF
2836 4240 CircleF
3022 4383 CircleF
4728 1188 CircleF
4874 1300 CircleF
5979 3290 CircleF
6109 3390 CircleF
976 3289 CircleF
1199 3460 CircleF
2321 1216 CircleF
2551 1392 CircleF
1111 2194 CircleF
1292 2333 CircleF
5321 2347 CircleF
5496 2481 CircleF
5948 4261 CircleF
6147 4414 CircleF
6110 3499 CircleF
6231 3592 CircleF
3676 3294 CircleF
3884 3454 CircleF
2451 3454 CircleF
2587 3559 CircleF
3600 4397 CircleF
3807 4556 CircleF
6703 1051 CircleF
6828 1147 CircleF
4409 4359 CircleF
4536 4456 CircleF
3890 4492 CircleF
4105 4657 CircleF
2345 1320 CircleF
2575 1497 CircleF
983 951 CircleF
1138 1070 CircleF
3637 4292 CircleF
3843 4451 CircleF
3044 2947 CircleF
3281 3129 CircleF
2678 2689 CircleF
2877 2841 CircleF
1275 432 CircleF
1459 573 CircleF
3857 3845 CircleF
4020 3970 CircleF
5255 3945 CircleF
5463 4104 CircleF
5978 1241 CircleF
6124 1353 CircleF
1551 505 CircleF
1706 624 CircleF
2209 731 CircleF
2385 866 CircleF
3540 4308 CircleF
3690 4423 CircleF
1131 1824 CircleF
1289 1945 CircleF
5241 1192 CircleF
5364 1287 CircleF
4814 3523 CircleF
5039 3695 CircleF
3774 783 CircleF
3956 923 CircleF
1993 2072 CircleF
2164 2203 CircleF
5276 3533 CircleF
5505 3709 CircleF
2035 4349 CircleF
2195 4473 CircleF
3971 4308 CircleF
4184 4472 CircleF
1208 1381 CircleF
1379 1513 CircleF
2501 2400 CircleF
2640 2506 CircleF
4022 4644 CircleF
4179 4765 CircleF
6679 2998 CircleF
6854 3132 CircleF
1484 2258 CircleF
1619 2362 CircleF
2681 4178 CircleF
2866 4320 CircleF
2537 1562 CircleF
2732 1712 CircleF
1977 2675 CircleF
2186 2836 CircleF
1206 4085 CircleF
1422 4251 CircleF
3352 2241 CircleF
3493 2349 CircleF
2747 3044 CircleF
2870 3139 CircleF
4424 723 CircleF
4654 899 CircleF
5622 1211 CircleF
5854 1389 CircleF
3466 3743 CircleF
3624 3865 CircleF
1036 1320 CircleF
1228 1467 CircleF
2626 2915 CircleF
2835 3075 CircleF
6622 1132 CircleF
6759 1237 CircleF
5349 399 CircleF
5522 532 CircleF
2608 881 CircleF
2817 1041 CircleF
5871 3558 CircleF
5996 3654 CircleF
2466 4609 CircleF
2698 4787 CircleF
6345 1057 CircleF
6501 1177 CircleF
5231 3191 CircleF
5465 3370 CircleF
6323 3296 CircleF
6494 3426 CircleF
1387 739 CircleF
1609 909 CircleF
2491 700 CircleF
2690 853 CircleF
2131 3510 CircleF
2311 3648 CircleF
2335 2924 CircleF
2500 3051 CircleF
6616 1606 CircleF
6744 1704 CircleF
1112 2010 CircleF
1332 2179 CircleF
2559 1319 CircleF
2705 1431 CircleF
1446 415 CircleF
1657 577 CircleF
1013 761 CircleF
1232 929 CircleF
4878 1096 CircleF
5010 1197 CircleF
973 566 CircleF
1184 728 CircleF
4625 857 CircleF
4800 992 CircleF
6707 4462 CircleF
6835 4560 CircleF
6569 437 CircleF
6803 616 CircleF
2278 1721 CircleF
2497 1889 CircleF
4073 2183 CircleF
4196 2277 CircleF
6084 1792 CircleF
6301 1958 CircleF
4453 3241 CircleF
4657 3397 CircleF
5607 3474 CircleF
5736 3573 CircleF
1945 4029 CircleF
2104 4151 CircleF
5671 4311 CircleF
5806 4414 CircleF
5810 787 CircleF
6017 946 CircleF
6354 509 CircleF
6564 670 CircleF
5923 3044 CircleF
6081 3165 CircleF
4350 2157 CircleF
4478 2256 CircleF
1758 993 CircleF
1897 1100 CircleF
6094 3736 CircleF
6326 3915 CircleF
6266 4245 CircleF
6478 4409 CircleF
5175 767 CircleF
5408 946 CircleF
4672 4367 CircleF
4906 4547 CircleF
4663 425 CircleF
4783 517 CircleF
5517 2101 CircleF
5738 2270 CircleF
4256 3186 CircleF
4401 3298 CircleF
6501 3694 CircleF
6699 3847 CircleF
5166 3369 CircleF
5303 3474 CircleF
3681 2073 CircleF
3899 2240 CircleF
3806 3456 CircleF
4029 3627 CircleF
2518 2678 CircleF
2683 2804 CircleF
3311 1753 CircleF
3474 1878 CircleF
4588 2179 CircleF
4810 2349 CircleF
6028 3709 CircleF
6159 3809 CircleF
5097 520 CircleF
5258 644 CircleF
6148 1797 CircleF
6302 1916 CircleF
2393 3164 CircleF
2540 3276 CircleF
1924 2162 CircleF
2066 2271 CircleF
5423 2490 CircleF
5576 2607 CircleF
1761 1366 CircleF
1963 1521 CircleF
2062 1913 CircleF
2242 2051 CircleF
5344 4636 CircleF
5468 4731 CircleF
6250 4123 CircleF
6441 4270 CircleF
5317 852 CircleF
5550 1032 CircleF
3911 1746 CircleF
4068 1867 CircleF
1075 3719 CircleF
1300 3892 CircleF
4322 4120 CircleF
4453 4220 CircleF
5921 1041 CircleF
6052 1141 CircleF
3628 4638 CircleF
3805 4774 CircleF
3015 3915 CircleF
3183 4044 CircleF
3475 2762 CircleF
3650 2896 CircleF
2263 1094 CircleF
2431 1223 CircleF
1125 1078 CircleF
1308 1219 CircleF
1405 3034 CircleF
1577 3166 CircleF
4235 1580 CircleF
4444 1741 CircleF
2019 2264 CircleF
2178 2386 CircleF
1012 1415 CircleF
1165 1532 CircleF
1049 1945 CircleF
1189 2053 CircleF
4546 1915 CircleF
4684 2021 CircleF
5138 922 CircleF
5309 1054 CircleF
5197 1491 CircleF
5435 1673 CircleF
1577 3129 CircleF
1767 3274 CircleF
2302 3731 CircleF
2477 3865 CircleF
5325 1918 CircleF
5447 2012 CircleF
5648 3220 CircleF
5798 3335 CircleF
2506 2772 CircleF
2698 2920 CircleF
2632 1220 CircleF
2778 1332 CircleF
6195 978 CircleF
6367 1110 CircleF
5481 3660 CircleF
5610 3760 CircleF
4184 1595 CircleF
4414 1771 CircleF
1587 2744 CircleF
1794 2903 CircleF
3198 4684 CircleF
3430 4862 CircleF
6525 3905 CircleF
6694 4035 CircleF
4809 2752 CircleF
4935 2849 CircleF
5633 476 CircleF
5818 618 CircleF
1527 4603 CircleF
1731 4761 CircleF
5837 3623 CircleF
6010 3756 CircleF
5710 2816 CircleF
5854 2926 CircleF
5934 3333 CircleF
6121 3476 CircleF
6622 1994 CircleF
6826 2150 CircleF
2771 662 CircleF
2967 812 CircleF
3127 1095 CircleF
3348 1265 CircleF
4298 4633 CircleF
4529 4811 CircleF
5877 4244 CircleF
6009 4346 CircleF
2964 3122 CircleF
3144 3261 CircleF
3308 2258 CircleF
3535 2432 CircleF
3620 4173 CircleF
3808 4317 CircleF
5869 1949 CircleF
6014 2060 CircleF
5184 2464 CircleF
5306 2557 CircleF
2779 1616 CircleF
2941 1740 CircleF
3165 2419 CircleF
3385 2587 CircleF
1808 1246 CircleF
2029 1416 CircleF
2903 2060 CircleF
3080 2197 CircleF
1085 1866 CircleF
1206 1959 CircleF
2296 1538 CircleF
2520 1710 CircleF
4060 4195 CircleF
4290 4370 CircleF
5850 3578 CircleF
5979 3677 CircleF
6436 2137 CircleF
6634 2289 CircleF
1442 2717 CircleF
1611 2847 CircleF
2630 872 CircleF
2825 1022 CircleF
5235 475 CircleF
5365 575 CircleF
6106 291 CircleF
6338 469 CircleF
1627 2023 CircleF
1846 2192 CircleF
6704 3451 CircleF
6937 3629 CircleF
2252 4525 CircleF
2452 4679 CircleF
3407 4097 CircleF
3634 4272 CircleF
4934 4321 CircleF
5079 4432 CircleF
1292 2266 CircleF
1437 2377 CircleF
4667 1993 CircleF
4842 2127 CircleF
1872 3737 CircleF
2039 3866 CircleF
2406 3175 CircleF
2621 3340 CircleF
6219 2850 CircleF
6456 3032 CircleF
4807 3243 CircleF
5045 3426 CircleF
2845 3755 CircleF
3054 3916 CircleF
2562 3116 CircleF
2739 3252 CircleF
6549 1774 CircleF
6751 1929 CircleF
2896 1092 CircleF
3077 1232 CircleF
2600 3145 CircleF
2784 3286 CircleF
3780 3018 CircleF
3929 3132 CircleF
2703 1636 CircleF
2933 1813 CircleF
4526 2478 CircleF
4754 2653 CircleF
5711 2695 CircleF
5892 2834 CircleF
2561 4379 CircleF
2755 4528 CircleF
1666 404 CircleF
1891 577 CircleF
3538 1682 CircleF
3716 1819 CircleF
5291 2419 CircleF
5460 2549 CircleF
3356 1075 CircleF
3573 1242 CircleF
4651 4381 CircleF
4880 4556 CircleF
3011 1579 CircleF
3132 1672 CircleF
1250 1717 CircleF
1430 1856 CircleF
6201 2982 CircleF
6435 3161 CircleF
3515 503 CircleF
3701 646 CircleF
6171 2981 CircleF
6337 3108 CircleF
2868 3349 CircleF
3056 3494 CircleF
3057 3996 CircleF
3260 4152 CircleF
5045 653 CircleF
5273 828 CircleF
3235 3135 CircleF
3427 3282 CircleF
4167 944 CircleF
4398 1121 CircleF
3729 3652 CircleF
3859 3752 CircleF
5024 2245 CircleF
5225 2400 CircleF
1688 2049 CircleF
1823 2153 CircleF
3293 2374 CircleF
3468 2508 CircleF
5578 4256 CircleF
5706 4354 CircleF
4541 1824 CircleF
4682 1932 CircleF
3844 679 CircleF
4039 830 CircleF
5854 1269 CircleF
6049 1419 CircleF
2313 4020 CircleF
2541 4195 CircleF
6688 1863 CircleF
6829 1972 CircleF
6078 4615 CircleF
6229 4731 CircleF
1686 4084 CircleF
1896 4245 CircleF
2310 4003 CircleF
2467 4123 CircleF
4185 1743 CircleF
4406 1912 CircleF
6351 3662 CircleF
6540 3807 CircleF
4676 4182 CircleF
4894 4349 CircleF
3776 1878 CircleF
4006 2055 CircleF
5945 2114 CircleF
6090 2225 CircleF
5696 1659 CircleF
5851 1778 CircleF
2167 4277 CircleF
2346 4415 CircleF
2145 3316 CircleF
2329 3457 CircleF
5842 1821 CircleF
5964 1915 CircleF
3037 3079 CircleF
3251 3244 CircleF
5671 4519 CircleF
5870 4672 CircleF
5241 417 CircleF
5469 592 CircleF
2135 2827 CircleF
2318 2967 CircleF
2389 3144 CircleF
2597 3303 CircleF
1078 739 CircleF
1218 847 CircleF
3687 3756 CircleF
3839 3872 CircleF
3560 3286 CircleF
3705 3397 CircleF
6008 2489 CircleF
6236 2663 CircleF
1040 3488 CircleF
1257 3655 CircleF
5841 3934 CircleF
6072 4111 CircleF
3519 3160 CircleF
3731 3322 CircleF
1588 2389 CircleF
1788 2542 CircleF
5178 4059 CircleF
5415 4241 CircleF
5318 1791 CircleF
5528 1952 CircleF
2089 1827 CircleF
2261 1959 CircleF
5888 329 CircleF
6121 508 CircleF
2133 591 CircleF
2287 709 CircleF
1143 4096 CircleF
1314 4227 CircleF
1224 1024 CircleF
1391 1153 CircleF
1471 2290 CircleF
1680 2450 CircleF
1969 808 CircleF
2142 941 CircleF
2421 2773 CircleF
2607 2916 CircleF
3685 4627 CircleF
3809 4722 CircleF
2841 3315 CircleF
3021 3453 CircleF
3599 1240 CircleF
3832 1418 CircleF
4919 2350 CircleF
5078 2472 CircleF
1232 4179 CircleF
1458 4352 CircleF
5731 2837 CircleF
5908 2972 CircleF
4067 928 CircleF
4248 1066 CircleF
4446 1002 CircleF
4604 1123 CircleF
5803 2450 CircleF
5994 2597 CircleF
3568 2977 CircleF
3732 3103 CircleF
3926 478 CircleF
4086 601 CircleF
3351 1064 CircleF
3554 1220 CircleF
5716 1307 CircleF
5909 1455 CircleF
1897 1854 CircleF
2067 1985 CircleF
2493 1062 CircleF
2638 1173 CircleF
3601 1325 CircleF
3790 1470 CircleF
3298 1484 CircleF
3426 1582 CircleF
2698 4257 CircleF
2829 4358 CircleF
6137 4398 CircleF
6274 4504 CircleF
5048 4426 CircleF
5204 4545 CircleF
1955 4040 CircleF
2112 4160 CircleF
1348 3527 CircleF
1562 3691 CircleF
4787 2943 CircleF
5019 3122 CircleF
1143 1752 CircleF
1333 1897 CircleF
1001 2265 CircleF
1177 2400 CircleF
5064 2868 CircleF
5251 3012 CircleF
1696 3258 CircleF
1912 3423 CircleF
6470 1559 CircleF
6629 1680 CircleF
2660 3931 CircleF
2866 4089 CircleF
1252 3799 CircleF
1380 3898 CircleF
1471 4338 CircleF
1638 4465 CircleF
6321 1156 CircleF
6461 1264 CircleF
3092 3499 CircleF
3294 3655 CircleF
3259 669 CircleF
3442 810 CircleF
3857 3358 CircleF
4037 3496 CircleF
4045 4513 CircleF
4189 4624 CircleF
3065 3769 CircleF
3246 3908 CircleF
3602 4529 CircleF
3831 4705 CircleF
3077 2408 CircleF
3264 2552 CircleF
2744 3855 CircleF
2948 4012 CircleF
6248 966 CircleF
6471 1137 CircleF
4457 1333 CircleF
4652 1483 CircleF
5832 3616 CircleF
6047 3781 CircleF
2154 1824 CircleF
2326 1956 CircleF
5495 2301 CircleF
5672 2437 CircleF
2521 423 CircleF
2747 597 CircleF
4857 3206 CircleF
5053 3357 CircleF
6313 1551 CircleF
6493 1690 CircleF
6131 4166 CircleF
6319 4310 CircleF
4996 980 CircleF
5212 1146 CircleF
4484 1185 CircleF
4608 1280 CircleF
3033 1841 CircleF
3187 1959 CircleF
6579 2724 CircleF
6760 2862 CircleF
3910 3029 CircleF
4047 3134 CircleF
2969 1206 CircleF
3108 1313 CircleF
2352 1683 CircleF
2548 1833 CircleF
6696 4337 CircleF
6878 4476 CircleF
5989 4483 CircleF
6113 4578 CircleF
4877 3351 CircleF
5052 3486 CircleF
5926 4264 CircleF
6088 4389 CircleF
5592 2685 CircleF
5821 2861 CircleF
1217 2199 CircleF
1417 2352 CircleF
2509 3164 CircleF
2698 3309 CircleF
3658 4449 CircleF
3796 4555 CircleF
2853 2740 CircleF
3009 2859 CircleF
2662 589 CircleF
2890 764 CircleF
2368 3382 CircleF
2559 3528 CircleF
3797 4364 CircleF
3928 4464 CircleF
4424 1960 CircleF
4628 2116 CircleF
1302 1046 CircleF
1530 1222 CircleF
2511 1825 CircleF
2716 1983 CircleF
5146 2024 CircleF
5305 2146 CircleF
3822 2930 CircleF
4039 3096 CircleF
4897 686 CircleF
5105 846 CircleF
1717 3337 CircleF
1858 3445 CircleF
1771 2991 CircleF
1991 3159 CircleF
2521 2003 CircleF
2723 2158 CircleF
4782 2234 CircleF
4955 2367 CircleF
1511 3211 CircleF
1695 3352 CircleF
4060 3046 CircleF
4279 3214 CircleF
6630 1522 CircleF
6828 1674 CircleF
6333 2232 CircleF
6518 2374 CircleF
2563 3391 CircleF
2765 3546 CircleF
2760 1607 CircleF
2925 1734 CircleF
2056 2723 CircleF
2244 2867 CircleF
2407 1344 CircleF
2570 1470 CircleF
1189 444 CircleF
1329 552 CircleF
4563 4135 CircleF
4801 4317 CircleF
6073 2524 CircleF
6195 2617 CircleF
3368 4525 CircleF
3573 4682 CircleF
3013 3144 CircleF
3222 3304 CircleF
4502 4257 CircleF
4713 4419 CircleF
3967 1239 CircleF
4151 1381 CircleF
4181 984 CircleF
4337 1104 CircleF
1861 816 CircleF
2007 927 CircleF
4449 2444 CircleF
4598 2558 CircleF
2992 2126 CircleF
3129 2230 CircleF
4765 374 CircleF
4962 525 CircleF
2530 4388 CircleF
2768 4571 CircleF
5471 2834 CircleF
5679 2993 CircleF
5867 2757 CircleF
6104 2939 CircleF
4625 327 CircleF
4753 426 CircleF
6382 4597 CircleF
6561 4734 CircleF
4932 2036 CircleF
5054 2130 CircleF
3814 4373 CircleF
3938 4468 CircleF
6234 4109 CircleF
6427 4257 CircleF
5371 3653 CircleF
5514 3763 CircleF
5231 1335 CircleF
5396 1462 CircleF
5492 4185 CircleF
5622 4285 CircleF
987 2242 CircleF
1158 2373 CircleF
4461 2624 CircleF
4687 2796 CircleF
2862 1001 CircleF
2987 1097 CircleF
2425 1663 CircleF
2562 1768 CircleF
5064 1033 CircleF
5187 1127 CircleF
3465 2069 CircleF
3663 2221 CircleF
5375 2972 CircleF
5504 3071 CircleF
1454 437 CircleF
1595 546 CircleF
1756 739 CircleF
1983 913 CircleF
1172 4378 CircleF
1362 4523 CircleF
3289 1395 CircleF
3444 1514 CircleF
6429 3787 CircleF
6586 3908 CircleF
1188 3374 CircleF
1424 3555 CircleF
1858 2560 CircleF
1998 2668 CircleF
4406 3422 CircleF
4619 3586 CircleF
3212 3693 CircleF
3383 3825 CircleF
1280 4059 CircleF
1448 4188 CircleF
1890 1145 CircleF
2079 1291 CircleF
4408 3467 CircleF
4610 3622 CircleF
3462 2096 CircleF
3602 2203 CircleF
6467 2986 CircleF
6638 3117 CircleF
5894 1965 CircleF
6095 2120 CircleF
5059 1038 CircleF
5248 1183 CircleF
1178 4421 CircleF
1349 4551 CircleF
3089 1590 CircleF
3243 1709 CircleF
6580 3583 CircleF
6730 3699 CircleF
3030 4392 CircleF
3233 4548 CircleF
5198 2829 CircleF
5431 3008 CircleF
1585 4517 CircleF
1771 4659 CircleF
1602 2996 CircleF
1815 3159 CircleF
6663 1683 CircleF
6895 1861 CircleF
5289 1899 CircleF
5454 2025 CircleF
1355 2981 CircleF
1556 3136 CircleF
4854 3553 CircleF
4974 3645 CircleF
6574 3881 CircleF
6805 4058 CircleF
4921 3744 CircleF
5095 3878 CircleF
2963 636 CircleF
3124 760 CircleF
4072 2634 CircleF
4307 2814 CircleF
4386 3719 CircleF
4586 3873 CircleF
2173 3158 CircleF
2357 3300 CircleF
4699 3686 CircleF
4881 3826 CircleF
6634 4608 CircleF
6852 4775 CircleF
1060 1220 CircleF
1218 1342 CircleF
1058 2938 CircleF
1197 3045 CircleF
5708 2775 CircleF
5872 2901 CircleF
4821 856 CircleF
5040 1024 CircleF
3896 3215 CircleF
4054 3337 CircleF
2698 4303 CircleF
2887 4448 CircleF
5792 3142 CircleF
5990 3294 CircleF
4976 889 CircleF
5155 1026 CircleF
2501 1345 CircleF
2667 1473 CircleF
6131 3641 CircleF
6364 3820 CircleF
2791 1283 CircleF
2932 1391 CircleF
4426 1221 CircleF
4611 1364 CircleF
1788 804 CircleF
1968 942 CircleF
4894 3398 CircleF
5043 3513 CircleF
5582 2968 CircleF
5708 3065 CircleF
3309 3752 CircleF
3530 3921 CircleF
2802 4213 CircleF
2960 4335 CircleF
3743 522 CircleF
3964 692 CircleF
4985 461 CircleF
5190 618 CircleF
2750 4616 CircleF
2898 4730 CircleF
4835 4077 CircleF
4964 4176 CircleF
1220 307 CircleF
1386 435 CircleF
5640 1408 CircleF
5867 1582 CircleF
5586 3905 CircleF
5814 4079 CircleF
5806 4334 CircleF
5946 4441 CircleF
5032 2429 CircleF
5246 2594 CircleF
4283 1237 CircleF
4412 1336 CircleF
6663 903 CircleF
6890 1077 CircleF
2014 2078 CircleF
2195 2218 CircleF
1633 1287 CircleF
1797 1413 CircleF
4388 1672 CircleF
4539 1789 CircleF
2007 1277 CircleF
2215 1436 CircleF
1651 1687 CircleF
1854 1843 CircleF
1978 1610 CircleF
2104 1706 CircleF
6252 1608 CircleF
6417 1735 CircleF
3665 1401 CircleF
3893 1576 CircleF
3863 3526 CircleF
4049 3669 CircleF
2188 3647 CircleF
2403 3811 CircleF
6639 709 CircleF
6875 890 CircleF
5083 3655 CircleF
5266 3796 CircleF
5531 3874 CircleF
5759 4049 CircleF
4558 1931 CircleF
4761 2086 CircleF
1332 2980 CircleF
1463 3081 CircleF
1032 2938 CircleF
1213 3076 CircleF
3018 1301 CircleF
3248 1478 CircleF
1387 1511 CircleF
1558 1642 CircleF
2359 3209 CircleF
2558 3362 CircleF
6704 2332 CircleF
6891 2475 CircleF
5524 3110 CircleF
5665 3219 CircleF
1514 3401 CircleF
1674 3524 CircleF
3472 3104 CircleF
3598 3201 CircleF
6289 911 CircleF
6455 1038 CircleF
1823 3016 CircleF
2011 3160 CircleF
4720 1822 CircleF
4861 1930 CircleF
1205 2026 CircleF
1425 2195 CircleF
1073 3810 CircleF
1300 3985 CircleF
3286 2962 CircleF
3419 3065 CircleF
5293 311 CircleF
5435 420 CircleF
4357 1013 CircleF
4513 1132 CircleF
2924 2634 CircleF
3151 2808 CircleF
5220 3379 CircleF
5445 3551 CircleF
2020 615 CircleF
2168 729 CircleF
6078 863 CircleF
6254 999 CircleF
976 4653 CircleF
1103 4750 CircleF
4818 1895 CircleF
4978 2018 CircleF
4653 288 CircleF
4884 465 CircleF
2413 3093 CircleF
2603 3239 CircleF
2492 3593 CircleF
2726 3772 CircleF
2402 3997 CircleF
2557 4116 CircleF
6292 1997 CircleF
6446 2115 CircleF
3328 4221 CircleF
3517 4365 CircleF
2640 4637 CircleF
2789 4751 CircleF
1647 350 CircleF
1815 479 CircleF
6630 1179 CircleF
6777 1292 CircleF
2474 852 CircleF
2607 953 CircleF
4270 2302 CircleF
4415 2413 CircleF
4070 4384 CircleF
4242 4516 CircleF
2955 2072 CircleF
3099 2182 CircleF
2516 1422 CircleF
2697 1561 CircleF
% End plot #2
1.000 UP
1.000 UL
LT0
0.50 0.50 0.50 C stroke
grestore
end
showpage
%%Trailer
%%DocumentFonts: Helvetica
%%Pages: 1
