%!PS-Adobe-2.0
%%Title: out.ps
%%Creator: gnuplot 4.6 patchlevel 6
%%CreationDate: Fri May 29 01:01:49 2015
%%DocumentFonts: (atend)
%%BoundingBox: 50 50 554 770
%%Orientation: Landscape
%%Pages: (atend)
%%EndComments
%%BeginProlog
/gnudict 256 dict def
gnudict begin
%
% The following true/false flags may be edited by hand if desired.
% The unit line width and grayscale image gamma correction may also be changed.
%
/Color false def
/Blacktext false def
/Solid false def
/Dashlength 1 def
/Landscape true def
/Level1 false def
/Rounded false def
/ClipToBoundingBox false def
/SuppressPDFMark false def
/TransparentPatterns false def
/gnulinewidth 5.000 def
/userlinewidth gnulinewidth def
/Gamma 1.0 def
/BackgroundColor {-1.000 -1.000 -1.000} def
%
/vshift -46 def
/dl1 {
  10.0 Dashlength mul mul
  Rounded { currentlinewidth 0.75 mul sub dup 0 le { pop 0.01 } if } if
} def
/dl2 {
  10.0 Dashlength mul mul
  Rounded { currentlinewidth 0.75 mul add } if
} def
/hpt_ 31.5 def
/vpt_ 31.5 def
/hpt hpt_ def
/vpt vpt_ def
/doclip {
  ClipToBoundingBox {
    newpath 50 50 moveto 554 50 lineto 554 770 lineto 50 770 lineto closepath
    clip
  } if
} def
%
% Gnuplot Prolog Version 4.6 (September 2012)
%
%/SuppressPDFMark true def
%
/M {moveto} bind def
/L {lineto} bind def
/R {rmoveto} bind def
/V {rlineto} bind def
/N {newpath moveto} bind def
/Z {closepath} bind def
/C {setrgbcolor} bind def
/f {rlineto fill} bind def
/g {setgray} bind def
/Gshow {show} def   % May be redefined later in the file to support UTF-8
/vpt2 vpt 2 mul def
/hpt2 hpt 2 mul def
/Lshow {currentpoint stroke M 0 vshift R 
	Blacktext {gsave 0 setgray show grestore} {show} ifelse} def
/Rshow {currentpoint stroke M dup stringwidth pop neg vshift R
	Blacktext {gsave 0 setgray show grestore} {show} ifelse} def
/Cshow {currentpoint stroke M dup stringwidth pop -2 div vshift R 
	Blacktext {gsave 0 setgray show grestore} {show} ifelse} def
/UP {dup vpt_ mul /vpt exch def hpt_ mul /hpt exch def
  /hpt2 hpt 2 mul def /vpt2 vpt 2 mul def} def
/DL {Color {setrgbcolor Solid {pop []} if 0 setdash}
 {pop pop pop 0 setgray Solid {pop []} if 0 setdash} ifelse} def
/BL {stroke userlinewidth 2 mul setlinewidth
	Rounded {1 setlinejoin 1 setlinecap} if} def
/AL {stroke userlinewidth 2 div setlinewidth
	Rounded {1 setlinejoin 1 setlinecap} if} def
/UL {dup gnulinewidth mul /userlinewidth exch def
	dup 1 lt {pop 1} if 10 mul /udl exch def} def
/PL {stroke userlinewidth setlinewidth
	Rounded {1 setlinejoin 1 setlinecap} if} def
3.8 setmiterlimit
% Default Line colors
/LCw {1 1 1} def
/LCb {0 0 0} def
/LCa {0 0 0} def
/LC0 {1 0 0} def
/LC1 {0 1 0} def
/LC2 {0 0 1} def
/LC3 {1 0 1} def
/LC4 {0 1 1} def
/LC5 {1 1 0} def
/LC6 {0 0 0} def
/LC7 {1 0.3 0} def
/LC8 {0.5 0.5 0.5} def
% Default Line Types
/LTw {PL [] 1 setgray} def
/LTb {BL [] LCb DL} def
/LTa {AL [1 udl mul 2 udl mul] 0 setdash LCa setrgbcolor} def
/LT0 {PL [] LC0 DL} def
/LT1 {PL [4 dl1 2 dl2] LC1 DL} def
/LT2 {PL [2 dl1 3 dl2] LC2 DL} def
/LT3 {PL [1 dl1 1.5 dl2] LC3 DL} def
/LT4 {PL [6 dl1 2 dl2 1 dl1 2 dl2] LC4 DL} def
/LT5 {PL [3 dl1 3 dl2 1 dl1 3 dl2] LC5 DL} def
/LT6 {PL [2 dl1 2 dl2 2 dl1 6 dl2] LC6 DL} def
/LT7 {PL [1 dl1 2 dl2 6 dl1 2 dl2 1 dl1 2 dl2] LC7 DL} def
/LT8 {PL [2 dl1 2 dl2 2 dl1 2 dl2 2 dl1 2 dl2 2 dl1 4 dl2] LC8 DL} def
/Pnt {stroke [] 0 setdash gsave 1 setlinecap M 0 0 V stroke grestore} def
/Dia {stroke [] 0 setdash 2 copy vpt add M
  hpt neg vpt neg V hpt vpt neg V
  hpt vpt V hpt neg vpt V closepath stroke
  Pnt} def
/Pls {stroke [] 0 setdash vpt sub M 0 vpt2 V
  currentpoint stroke M
  hpt neg vpt neg R hpt2 0 V stroke
 } def
/Box {stroke [] 0 setdash 2 copy exch hpt sub exch vpt add M
  0 vpt2 neg V hpt2 0 V 0 vpt2 V
  hpt2 neg 0 V closepath stroke
  Pnt} def
/Crs {stroke [] 0 setdash exch hpt sub exch vpt add M
  hpt2 vpt2 neg V currentpoint stroke M
  hpt2 neg 0 R hpt2 vpt2 V stroke} def
/TriU {stroke [] 0 setdash 2 copy vpt 1.12 mul add M
  hpt neg vpt -1.62 mul V
  hpt 2 mul 0 V
  hpt neg vpt 1.62 mul V closepath stroke
  Pnt} def
/Star {2 copy Pls Crs} def
/BoxF {stroke [] 0 setdash exch hpt sub exch vpt add M
  0 vpt2 neg V hpt2 0 V 0 vpt2 V
  hpt2 neg 0 V closepath fill} def
/TriUF {stroke [] 0 setdash vpt 1.12 mul add M
  hpt neg vpt -1.62 mul V
  hpt 2 mul 0 V
  hpt neg vpt 1.62 mul V closepath fill} def
/TriD {stroke [] 0 setdash 2 copy vpt 1.12 mul sub M
  hpt neg vpt 1.62 mul V
  hpt 2 mul 0 V
  hpt neg vpt -1.62 mul V closepath stroke
  Pnt} def
/TriDF {stroke [] 0 setdash vpt 1.12 mul sub M
  hpt neg vpt 1.62 mul V
  hpt 2 mul 0 V
  hpt neg vpt -1.62 mul V closepath fill} def
/DiaF {stroke [] 0 setdash vpt add M
  hpt neg vpt neg V hpt vpt neg V
  hpt vpt V hpt neg vpt V closepath fill} def
/Pent {stroke [] 0 setdash 2 copy gsave
  translate 0 hpt M 4 {72 rotate 0 hpt L} repeat
  closepath stroke grestore Pnt} def
/PentF {stroke [] 0 setdash gsave
  translate 0 hpt M 4 {72 rotate 0 hpt L} repeat
  closepath fill grestore} def
/Circle {stroke [] 0 setdash 2 copy
  hpt 0 360 arc stroke Pnt} def
/CircleF {stroke [] 0 setdash hpt 0 360 arc fill} def
/C0 {BL [] 0 setdash 2 copy moveto vpt 90 450 arc} bind def
/C1 {BL [] 0 setdash 2 copy moveto
	2 copy vpt 0 90 arc closepath fill
	vpt 0 360 arc closepath} bind def
/C2 {BL [] 0 setdash 2 copy moveto
	2 copy vpt 90 180 arc closepath fill
	vpt 0 360 arc closepath} bind def
/C3 {BL [] 0 setdash 2 copy moveto
	2 copy vpt 0 180 arc closepath fill
	vpt 0 360 arc closepath} bind def
/C4 {BL [] 0 setdash 2 copy moveto
	2 copy vpt 180 270 arc closepath fill
	vpt 0 360 arc closepath} bind def
/C5 {BL [] 0 setdash 2 copy moveto
	2 copy vpt 0 90 arc
	2 copy moveto
	2 copy vpt 180 270 arc closepath fill
	vpt 0 360 arc} bind def
/C6 {BL [] 0 setdash 2 copy moveto
	2 copy vpt 90 270 arc closepath fill
	vpt 0 360 arc closepath} bind def
/C7 {BL [] 0 setdash 2 copy moveto
	2 copy vpt 0 270 arc closepath fill
	vpt 0 360 arc closepath} bind def
/C8 {BL [] 0 setdash 2 copy moveto
	2 copy vpt 270 360 arc closepath fill
	vpt 0 360 arc closepath} bind def
/C9 {BL [] 0 setdash 2 copy moveto
	2 copy vpt 270 450 arc closepath fill
	vpt 0 360 arc closepath} bind def
/C10 {BL [] 0 setdash 2 copy 2 copy moveto vpt 270 360 arc closepath fill
	2 copy moveto
	2 copy vpt 90 180 arc closepath fill
	vpt 0 360 arc closepath} bind def
/C11 {BL [] 0 setdash 2 copy moveto
	2 copy vpt 0 180 arc closepath fill
	2 copy moveto
	2 copy vpt 270 360 arc closepath fill
	vpt 0 360 arc closepath} bind def
/C12 {BL [] 0 setdash 2 copy moveto
	2 copy vpt 180 360 arc closepath fill
	vpt 0 360 arc closepath} bind def
/C13 {BL [] 0 setdash 2 copy moveto
	2 copy vpt 0 90 arc closepath fill
	2 copy moveto
	2 copy vpt 180 360 arc closepath fill
	vpt 0 360 arc closepath} bind def
/C14 {BL [] 0 setdash 2 copy moveto
	2 copy vpt 90 360 arc closepath fill
	vpt 0 360 arc} bind def
/C15 {BL [] 0 setdash 2 copy vpt 0 360 arc closepath fill
	vpt 0 360 arc closepath} bind def
/Rec {newpath 4 2 roll moveto 1 index 0 rlineto 0 exch rlineto
	neg 0 rlineto closepath} bind def
/Square {dup Rec} bind def
/Bsquare {vpt sub exch vpt sub exch vpt2 Square} bind def
/S0 {BL [] 0 setdash 2 copy moveto 0 vpt rlineto BL Bsquare} bind def
/S1 {BL [] 0 setdash 2 copy vpt Square fill Bsquare} bind def
/S2 {BL [] 0 setdash 2 copy exch vpt sub exch vpt Square fill Bsquare} bind def
/S3 {BL [] 0 setdash 2 copy exch vpt sub exch vpt2 vpt Rec fill Bsquare} bind def
/S4 {BL [] 0 setdash 2 copy exch vpt sub exch vpt sub vpt Square fill Bsquare} bind def
/S5 {BL [] 0 setdash 2 copy 2 copy vpt Square fill
	exch vpt sub exch vpt sub vpt Square fill Bsquare} bind def
/S6 {BL [] 0 setdash 2 copy exch vpt sub exch vpt sub vpt vpt2 Rec fill Bsquare} bind def
/S7 {BL [] 0 setdash 2 copy exch vpt sub exch vpt sub vpt vpt2 Rec fill
	2 copy vpt Square fill Bsquare} bind def
/S8 {BL [] 0 setdash 2 copy vpt sub vpt Square fill Bsquare} bind def
/S9 {BL [] 0 setdash 2 copy vpt sub vpt vpt2 Rec fill Bsquare} bind def
/S10 {BL [] 0 setdash 2 copy vpt sub vpt Square fill 2 copy exch vpt sub exch vpt Square fill
	Bsquare} bind def
/S11 {BL [] 0 setdash 2 copy vpt sub vpt Square fill 2 copy exch vpt sub exch vpt2 vpt Rec fill
	Bsquare} bind def
/S12 {BL [] 0 setdash 2 copy exch vpt sub exch vpt sub vpt2 vpt Rec fill Bsquare} bind def
/S13 {BL [] 0 setdash 2 copy exch vpt sub exch vpt sub vpt2 vpt Rec fill
	2 copy vpt Square fill Bsquare} bind def
/S14 {BL [] 0 setdash 2 copy exch vpt sub exch vpt sub vpt2 vpt Rec fill
	2 copy exch vpt sub exch vpt Square fill Bsquare} bind def
/S15 {BL [] 0 setdash 2 copy Bsquare fill Bsquare} bind def
/D0 {gsave translate 45 rotate 0 0 S0 stroke grestore} bind def
/D1 {gsave translate 45 rotate 0 0 S1 stroke grestore} bind def
/D2 {gsave translate 45 rotate 0 0 S2 stroke grestore} bind def
/D3 {gsave translate 45 rotate 0 0 S3 stroke grestore} bind def
/D4 {gsave translate 45 rotate 0 0 S4 stroke grestore} bind def
/D5 {gsave translate 45 rotate 0 0 S5 stroke grestore} bind def
/D6 {gsave translate 45 rotate 0 0 S6 stroke grestore} bind def
/D7 {gsave translate 45 rotate 0 0 S7 stroke grestore} bind def
/D8 {gsave translate 45 rotate 0 0 S8 stroke grestore} bind def
/D9 {gsave translate 45 rotate 0 0 S9 stroke grestore} bind def
/D10 {gsave translate 45 rotate 0 0 S10 stroke grestore} bind def
/D11 {gsave translate 45 rotate 0 0 S11 stroke grestore} bind def
/D12 {gsave translate 45 rotate 0 0 S12 stroke grestore} bind def
/D13 {gsave translate 45 rotate 0 0 S13 stroke grestore} bind def
/D14 {gsave translate 45 rotate 0 0 S14 stroke grestore} bind def
/D15 {gsave translate 45 rotate 0 0 S15 stroke grestore} bind def
/DiaE {stroke [] 0 setdash vpt add M
  hpt neg vpt neg V hpt vpt neg V
  hpt vpt V hpt neg vpt V closepath stroke} def
/BoxE {stroke [] 0 setdash exch hpt sub exch vpt add M
  0 vpt2 neg V hpt2 0 V 0 vpt2 V
  hpt2 neg 0 V closepath stroke} def
/TriUE {stroke [] 0 setdash vpt 1.12 mul add M
  hpt neg vpt -1.62 mul V
  hpt 2 mul 0 V
  hpt neg vpt 1.62 mul V closepath stroke} def
/TriDE {stroke [] 0 setdash vpt 1.12 mul sub M
  hpt neg vpt 1.62 mul V
  hpt 2 mul 0 V
  hpt neg vpt -1.62 mul V closepath stroke} def
/PentE {stroke [] 0 setdash gsave
  translate 0 hpt M 4 {72 rotate 0 hpt L} repeat
  closepath stroke grestore} def
/CircE {stroke [] 0 setdash 
  hpt 0 360 arc stroke} def
/Opaque {gsave closepath 1 setgray fill grestore 0 setgray closepath} def
/DiaW {stroke [] 0 setdash vpt add M
  hpt neg vpt neg V hpt vpt neg V
  hpt vpt V hpt neg vpt V Opaque stroke} def
/BoxW {stroke [] 0 setdash exch hpt sub exch vpt add M
  0 vpt2 neg V hpt2 0 V 0 vpt2 V
  hpt2 neg 0 V Opaque stroke} def
/TriUW {stroke [] 0 setdash vpt 1.12 mul add M
  hpt neg vpt -1.62 mul V
  hpt 2 mul 0 V
  hpt neg vpt 1.62 mul V Opaque stroke} def
/TriDW {stroke [] 0 setdash vpt 1.12 mul sub M
  hpt neg vpt 1.62 mul V
  hpt 2 mul 0 V
  hpt neg vpt -1.62 mul V Opaque stroke} def
/PentW {stroke [] 0 setdash gsave
  translate 0 hpt M 4 {72 rotate 0 hpt L} repeat
  Opaque stroke grestore} def
/CircW {stroke [] 0 setdash 
  hpt 0 360 arc Opaque stroke} def
/BoxFill {gsave Rec 1 setgray fill grestore} def
/Density {
  /Fillden exch def
  currentrgbcolor
  /ColB exch def /ColG exch def /ColR exch def
  /ColR ColR Fillden mul Fillden sub 1 add def
  /ColG ColG Fillden mul Fillden sub 1 add def
  /ColB ColB Fillden mul Fillden sub 1 add def
  ColR ColG ColB setrgbcolor} def
/BoxColFill {gsave Rec PolyFill} def
/PolyFill {gsave Density fill grestore grestore} def
/h {rlineto rlineto rlineto gsave closepath fill grestore} bind def
%
% PostScript Level 1 Pattern Fill routine for rectangles
% Usage: x y w h s a XX PatternFill
%	x,y = lower left corner of box to be filled
%	w,h = width and height of box
%	  a = angle in degrees between lines and x-axis
%	 XX = 0/1 for no/yes cross-hatch
%
/PatternFill {gsave /PFa [ 9 2 roll ] def
  PFa 0 get PFa 2 get 2 div add PFa 1 get PFa 3 get 2 div add translate
  PFa 2 get -2 div PFa 3 get -2 div PFa 2 get PFa 3 get Rec
  TransparentPatterns {} {gsave 1 setgray fill grestore} ifelse
  clip
  currentlinewidth 0.5 mul setlinewidth
  /PFs PFa 2 get dup mul PFa 3 get dup mul add sqrt def
  0 0 M PFa 5 get rotate PFs -2 div dup translate
  0 1 PFs PFa 4 get div 1 add floor cvi
	{PFa 4 get mul 0 M 0 PFs V} for
  0 PFa 6 get ne {
	0 1 PFs PFa 4 get div 1 add floor cvi
	{PFa 4 get mul 0 2 1 roll M PFs 0 V} for
 } if
  stroke grestore} def
%
/languagelevel where
 {pop languagelevel} {1} ifelse
 2 lt
	{/InterpretLevel1 true def}
	{/InterpretLevel1 Level1 def}
 ifelse
%
% PostScript level 2 pattern fill definitions
%
/Level2PatternFill {
/Tile8x8 {/PaintType 2 /PatternType 1 /TilingType 1 /BBox [0 0 8 8] /XStep 8 /YStep 8}
	bind def
/KeepColor {currentrgbcolor [/Pattern /DeviceRGB] setcolorspace} bind def
<< Tile8x8
 /PaintProc {0.5 setlinewidth pop 0 0 M 8 8 L 0 8 M 8 0 L stroke} 
>> matrix makepattern
/Pat1 exch def
<< Tile8x8
 /PaintProc {0.5 setlinewidth pop 0 0 M 8 8 L 0 8 M 8 0 L stroke
	0 4 M 4 8 L 8 4 L 4 0 L 0 4 L stroke}
>> matrix makepattern
/Pat2 exch def
<< Tile8x8
 /PaintProc {0.5 setlinewidth pop 0 0 M 0 8 L
	8 8 L 8 0 L 0 0 L fill}
>> matrix makepattern
/Pat3 exch def
<< Tile8x8
 /PaintProc {0.5 setlinewidth pop -4 8 M 8 -4 L
	0 12 M 12 0 L stroke}
>> matrix makepattern
/Pat4 exch def
<< Tile8x8
 /PaintProc {0.5 setlinewidth pop -4 0 M 8 12 L
	0 -4 M 12 8 L stroke}
>> matrix makepattern
/Pat5 exch def
<< Tile8x8
 /PaintProc {0.5 setlinewidth pop -2 8 M 4 -4 L
	0 12 M 8 -4 L 4 12 M 10 0 L stroke}
>> matrix makepattern
/Pat6 exch def
<< Tile8x8
 /PaintProc {0.5 setlinewidth pop -2 0 M 4 12 L
	0 -4 M 8 12 L 4 -4 M 10 8 L stroke}
>> matrix makepattern
/Pat7 exch def
<< Tile8x8
 /PaintProc {0.5 setlinewidth pop 8 -2 M -4 4 L
	12 0 M -4 8 L 12 4 M 0 10 L stroke}
>> matrix makepattern
/Pat8 exch def
<< Tile8x8
 /PaintProc {0.5 setlinewidth pop 0 -2 M 12 4 L
	-4 0 M 12 8 L -4 4 M 8 10 L stroke}
>> matrix makepattern
/Pat9 exch def
/Pattern1 {PatternBgnd KeepColor Pat1 setpattern} bind def
/Pattern2 {PatternBgnd KeepColor Pat2 setpattern} bind def
/Pattern3 {PatternBgnd KeepColor Pat3 setpattern} bind def
/Pattern4 {PatternBgnd KeepColor Landscape {Pat5} {Pat4} ifelse setpattern} bind def
/Pattern5 {PatternBgnd KeepColor Landscape {Pat4} {Pat5} ifelse setpattern} bind def
/Pattern6 {PatternBgnd KeepColor Landscape {Pat9} {Pat6} ifelse setpattern} bind def
/Pattern7 {PatternBgnd KeepColor Landscape {Pat8} {Pat7} ifelse setpattern} bind def
} def
%
%
%End of PostScript Level 2 code
%
/PatternBgnd {
  TransparentPatterns {} {gsave 1 setgray fill grestore} ifelse
} def
%
% Substitute for Level 2 pattern fill codes with
% grayscale if Level 2 support is not selected.
%
/Level1PatternFill {
/Pattern1 {0.250 Density} bind def
/Pattern2 {0.500 Density} bind def
/Pattern3 {0.750 Density} bind def
/Pattern4 {0.125 Density} bind def
/Pattern5 {0.375 Density} bind def
/Pattern6 {0.625 Density} bind def
/Pattern7 {0.875 Density} bind def
} def
%
% Now test for support of Level 2 code
%
Level1 {Level1PatternFill} {Level2PatternFill} ifelse
%
/Symbol-Oblique /Symbol findfont [1 0 .167 1 0 0] makefont
dup length dict begin {1 index /FID eq {pop pop} {def} ifelse} forall
currentdict end definefont pop
Level1 SuppressPDFMark or 
{} {
/SDict 10 dict def
systemdict /pdfmark known not {
  userdict /pdfmark systemdict /cleartomark get put
} if
SDict begin [
  /Title (out.ps)
  /Subject (gnuplot plot)
  /Creator (gnuplot 4.6 patchlevel 6)
  /Author (yani)
%  /Producer (gnuplot)
%  /Keywords ()
  /CreationDate (Fri May 29 01:01:49 2015)
  /DOCINFO pdfmark
end
} ifelse
end
%%EndProlog
%%Page: 1 1
gnudict begin
gsave
doclip
50 50 translate
0.100 0.100 scale
90 rotate
0 -5040 translate
0 setgray
newpath
(Helvetica) findfont 140 scalefont setfont
BackgroundColor 0 lt 3 1 roll 0 lt exch 0 lt or or not {gsave BackgroundColor C clippath fill grestore} if
1.000 UL
LT0
0.50 0.50 0.50 C 1.000 UL
LTa
0.50 0.50 0.50 C 966 280 M
5981 0 V
stroke
LT0
0.50 0.50 0.50 C 966 280 M
63 0 V
5918 0 R
-63 0 V
882 280 M
( 0) Rshow
1.000 UL
LT0
0.50 0.50 0.50 C 1.000 UL
LTa
0.50 0.50 0.50 C 966 372 M
5981 0 V
stroke
LT0
0.50 0.50 0.50 C 966 372 M
63 0 V
5918 0 R
-63 0 V
882 372 M
( 0.707106) Rshow
1.000 UL
LT0
0.50 0.50 0.50 C 1.000 UL
LTa
0.50 0.50 0.50 C 966 464 M
5981 0 V
stroke
LT0
0.50 0.50 0.50 C 966 464 M
63 0 V
5918 0 R
-63 0 V
882 464 M
( 1.41421) Rshow
1.000 UL
LT0
0.50 0.50 0.50 C 1.000 UL
LTa
0.50 0.50 0.50 C 966 555 M
5981 0 V
stroke
LT0
0.50 0.50 0.50 C 966 555 M
63 0 V
5918 0 R
-63 0 V
882 555 M
( 2.12132) Rshow
1.000 UL
LT0
0.50 0.50 0.50 C 1.000 UL
LTa
0.50 0.50 0.50 C 966 647 M
5981 0 V
stroke
LT0
0.50 0.50 0.50 C 966 647 M
63 0 V
5918 0 R
-63 0 V
882 647 M
( 2.82842) Rshow
1.000 UL
LT0
0.50 0.50 0.50 C 1.000 UL
LTa
0.50 0.50 0.50 C 966 739 M
5981 0 V
stroke
LT0
0.50 0.50 0.50 C 966 739 M
63 0 V
5918 0 R
-63 0 V
882 739 M
( 3.53553) Rshow
1.000 UL
LT0
0.50 0.50 0.50 C 1.000 UL
LTa
0.50 0.50 0.50 C 966 831 M
5981 0 V
stroke
LT0
0.50 0.50 0.50 C 966 831 M
63 0 V
5918 0 R
-63 0 V
882 831 M
( 4.24264) Rshow
1.000 UL
LT0
0.50 0.50 0.50 C 1.000 UL
LTa
0.50 0.50 0.50 C 966 923 M
5981 0 V
stroke
LT0
0.50 0.50 0.50 C 966 923 M
63 0 V
5918 0 R
-63 0 V
882 923 M
( 4.94974) Rshow
1.000 UL
LT0
0.50 0.50 0.50 C 1.000 UL
LTa
0.50 0.50 0.50 C 966 1015 M
5981 0 V
stroke
LT0
0.50 0.50 0.50 C 966 1015 M
63 0 V
5918 0 R
-63 0 V
-6002 0 R
( 5.65685) Rshow
1.000 UL
LT0
0.50 0.50 0.50 C 1.000 UL
LTa
0.50 0.50 0.50 C 966 1106 M
5981 0 V
stroke
LT0
0.50 0.50 0.50 C 966 1106 M
63 0 V
5918 0 R
-63 0 V
-6002 0 R
( 6.36395) Rshow
1.000 UL
LT0
0.50 0.50 0.50 C 1.000 UL
LTa
0.50 0.50 0.50 C 966 1198 M
5981 0 V
stroke
LT0
0.50 0.50 0.50 C 966 1198 M
63 0 V
5918 0 R
-63 0 V
-6002 0 R
( 7.07106) Rshow
1.000 UL
LT0
0.50 0.50 0.50 C 1.000 UL
LTa
0.50 0.50 0.50 C 966 1290 M
5981 0 V
stroke
LT0
0.50 0.50 0.50 C 966 1290 M
63 0 V
5918 0 R
-63 0 V
-6002 0 R
( 7.77817) Rshow
1.000 UL
LT0
0.50 0.50 0.50 C 1.000 UL
LTa
0.50 0.50 0.50 C 966 1382 M
5981 0 V
stroke
LT0
0.50 0.50 0.50 C 966 1382 M
63 0 V
5918 0 R
-63 0 V
-6002 0 R
( 8.48527) Rshow
1.000 UL
LT0
0.50 0.50 0.50 C 1.000 UL
LTa
0.50 0.50 0.50 C 966 1474 M
5981 0 V
stroke
LT0
0.50 0.50 0.50 C 966 1474 M
63 0 V
5918 0 R
-63 0 V
-6002 0 R
( 9.19238) Rshow
1.000 UL
LT0
0.50 0.50 0.50 C 1.000 UL
LTa
0.50 0.50 0.50 C 966 1565 M
5981 0 V
stroke
LT0
0.50 0.50 0.50 C 966 1565 M
63 0 V
5918 0 R
-63 0 V
-6002 0 R
( 9.89948) Rshow
1.000 UL
LT0
0.50 0.50 0.50 C 1.000 UL
LTa
0.50 0.50 0.50 C 966 1657 M
5981 0 V
stroke
LT0
0.50 0.50 0.50 C 966 1657 M
63 0 V
5918 0 R
-63 0 V
-6002 0 R
( 10.6066) Rshow
1.000 UL
LT0
0.50 0.50 0.50 C 1.000 UL
LTa
0.50 0.50 0.50 C 966 1749 M
5981 0 V
stroke
LT0
0.50 0.50 0.50 C 966 1749 M
63 0 V
5918 0 R
-63 0 V
-6002 0 R
( 11.3137) Rshow
1.000 UL
LT0
0.50 0.50 0.50 C 1.000 UL
LTa
0.50 0.50 0.50 C 966 1841 M
5981 0 V
stroke
LT0
0.50 0.50 0.50 C 966 1841 M
63 0 V
5918 0 R
-63 0 V
-6002 0 R
( 12.0208) Rshow
1.000 UL
LT0
0.50 0.50 0.50 C 1.000 UL
LTa
0.50 0.50 0.50 C 966 1933 M
5981 0 V
stroke
LT0
0.50 0.50 0.50 C 966 1933 M
63 0 V
5918 0 R
-63 0 V
-6002 0 R
( 12.7279) Rshow
1.000 UL
LT0
0.50 0.50 0.50 C 1.000 UL
LTa
0.50 0.50 0.50 C 966 2025 M
5981 0 V
stroke
LT0
0.50 0.50 0.50 C 966 2025 M
63 0 V
5918 0 R
-63 0 V
-6002 0 R
( 13.435) Rshow
1.000 UL
LT0
0.50 0.50 0.50 C 1.000 UL
LTa
0.50 0.50 0.50 C 966 2116 M
5981 0 V
stroke
LT0
0.50 0.50 0.50 C 966 2116 M
63 0 V
5918 0 R
-63 0 V
-6002 0 R
( 14.1421) Rshow
1.000 UL
LT0
0.50 0.50 0.50 C 1.000 UL
LTa
0.50 0.50 0.50 C 966 2208 M
5981 0 V
stroke
LT0
0.50 0.50 0.50 C 966 2208 M
63 0 V
5918 0 R
-63 0 V
-6002 0 R
( 14.8492) Rshow
1.000 UL
LT0
0.50 0.50 0.50 C 1.000 UL
LTa
0.50 0.50 0.50 C 966 2300 M
5981 0 V
stroke
LT0
0.50 0.50 0.50 C 966 2300 M
63 0 V
5918 0 R
-63 0 V
-6002 0 R
( 15.5563) Rshow
1.000 UL
LT0
0.50 0.50 0.50 C 1.000 UL
LTa
0.50 0.50 0.50 C 966 2392 M
5981 0 V
stroke
LT0
0.50 0.50 0.50 C 966 2392 M
63 0 V
5918 0 R
-63 0 V
-6002 0 R
( 16.2634) Rshow
1.000 UL
LT0
0.50 0.50 0.50 C 1.000 UL
LTa
0.50 0.50 0.50 C 966 2484 M
5981 0 V
stroke
LT0
0.50 0.50 0.50 C 966 2484 M
63 0 V
5918 0 R
-63 0 V
-6002 0 R
( 16.9705) Rshow
1.000 UL
LT0
0.50 0.50 0.50 C 1.000 UL
LTa
0.50 0.50 0.50 C 966 2575 M
5981 0 V
stroke
LT0
0.50 0.50 0.50 C 966 2575 M
63 0 V
5918 0 R
-63 0 V
-6002 0 R
( 17.6776) Rshow
1.000 UL
LT0
0.50 0.50 0.50 C 1.000 UL
LTa
0.50 0.50 0.50 C 966 2667 M
5981 0 V
stroke
LT0
0.50 0.50 0.50 C 966 2667 M
63 0 V
5918 0 R
-63 0 V
-6002 0 R
( 18.3848) Rshow
1.000 UL
LT0
0.50 0.50 0.50 C 1.000 UL
LTa
0.50 0.50 0.50 C 966 2759 M
5981 0 V
stroke
LT0
0.50 0.50 0.50 C 966 2759 M
63 0 V
5918 0 R
-63 0 V
-6002 0 R
( 19.0919) Rshow
1.000 UL
LT0
0.50 0.50 0.50 C 1.000 UL
LTa
0.50 0.50 0.50 C 966 2851 M
5981 0 V
stroke
LT0
0.50 0.50 0.50 C 966 2851 M
63 0 V
5918 0 R
-63 0 V
-6002 0 R
( 19.799) Rshow
1.000 UL
LT0
0.50 0.50 0.50 C 1.000 UL
LTa
0.50 0.50 0.50 C 966 2943 M
5981 0 V
stroke
LT0
0.50 0.50 0.50 C 966 2943 M
63 0 V
5918 0 R
-63 0 V
-6002 0 R
( 20.5061) Rshow
1.000 UL
LT0
0.50 0.50 0.50 C 1.000 UL
LTa
0.50 0.50 0.50 C 966 3035 M
5981 0 V
stroke
LT0
0.50 0.50 0.50 C 966 3035 M
63 0 V
5918 0 R
-63 0 V
-6002 0 R
( 21.2132) Rshow
1.000 UL
LT0
0.50 0.50 0.50 C 1.000 UL
LTa
0.50 0.50 0.50 C 966 3126 M
5981 0 V
stroke
LT0
0.50 0.50 0.50 C 966 3126 M
63 0 V
5918 0 R
-63 0 V
-6002 0 R
( 21.9203) Rshow
1.000 UL
LT0
0.50 0.50 0.50 C 1.000 UL
LTa
0.50 0.50 0.50 C 966 3218 M
5981 0 V
stroke
LT0
0.50 0.50 0.50 C 966 3218 M
63 0 V
5918 0 R
-63 0 V
-6002 0 R
( 22.6274) Rshow
1.000 UL
LT0
0.50 0.50 0.50 C 1.000 UL
LTa
0.50 0.50 0.50 C 966 3310 M
5981 0 V
stroke
LT0
0.50 0.50 0.50 C 966 3310 M
63 0 V
5918 0 R
-63 0 V
-6002 0 R
( 23.3345) Rshow
1.000 UL
LT0
0.50 0.50 0.50 C 1.000 UL
LTa
0.50 0.50 0.50 C 966 3402 M
5981 0 V
stroke
LT0
0.50 0.50 0.50 C 966 3402 M
63 0 V
5918 0 R
-63 0 V
-6002 0 R
( 24.0416) Rshow
1.000 UL
LT0
0.50 0.50 0.50 C 1.000 UL
LTa
0.50 0.50 0.50 C 966 3494 M
5981 0 V
stroke
LT0
0.50 0.50 0.50 C 966 3494 M
63 0 V
5918 0 R
-63 0 V
-6002 0 R
( 24.7487) Rshow
1.000 UL
LT0
0.50 0.50 0.50 C 1.000 UL
LTa
0.50 0.50 0.50 C 966 3586 M
5981 0 V
stroke
LT0
0.50 0.50 0.50 C 966 3586 M
63 0 V
5918 0 R
-63 0 V
-6002 0 R
( 25.4558) Rshow
1.000 UL
LT0
0.50 0.50 0.50 C 1.000 UL
LTa
0.50 0.50 0.50 C 966 3677 M
5981 0 V
stroke
LT0
0.50 0.50 0.50 C 966 3677 M
63 0 V
5918 0 R
-63 0 V
-6002 0 R
( 26.1629) Rshow
1.000 UL
LT0
0.50 0.50 0.50 C 1.000 UL
LTa
0.50 0.50 0.50 C 966 3769 M
5981 0 V
stroke
LT0
0.50 0.50 0.50 C 966 3769 M
63 0 V
5918 0 R
-63 0 V
-6002 0 R
( 26.87) Rshow
1.000 UL
LT0
0.50 0.50 0.50 C 1.000 UL
LTa
0.50 0.50 0.50 C 966 3861 M
5981 0 V
stroke
LT0
0.50 0.50 0.50 C 966 3861 M
63 0 V
5918 0 R
-63 0 V
-6002 0 R
( 27.5771) Rshow
1.000 UL
LT0
0.50 0.50 0.50 C 1.000 UL
LTa
0.50 0.50 0.50 C 966 3953 M
5981 0 V
stroke
LT0
0.50 0.50 0.50 C 966 3953 M
63 0 V
5918 0 R
-63 0 V
-6002 0 R
( 28.2842) Rshow
1.000 UL
LT0
0.50 0.50 0.50 C 1.000 UL
LTa
0.50 0.50 0.50 C 966 4045 M
5981 0 V
stroke
LT0
0.50 0.50 0.50 C 966 4045 M
63 0 V
5918 0 R
-63 0 V
-6002 0 R
( 28.9913) Rshow
1.000 UL
LT0
0.50 0.50 0.50 C 1.000 UL
LTa
0.50 0.50 0.50 C 966 4136 M
5981 0 V
stroke
LT0
0.50 0.50 0.50 C 966 4136 M
63 0 V
5918 0 R
-63 0 V
-6002 0 R
( 29.6985) Rshow
1.000 UL
LT0
0.50 0.50 0.50 C 1.000 UL
LTa
0.50 0.50 0.50 C 966 4228 M
5981 0 V
stroke
LT0
0.50 0.50 0.50 C 966 4228 M
63 0 V
5918 0 R
-63 0 V
-6002 0 R
( 30.4056) Rshow
1.000 UL
LT0
0.50 0.50 0.50 C 1.000 UL
LTa
0.50 0.50 0.50 C 966 4320 M
5981 0 V
stroke
LT0
0.50 0.50 0.50 C 966 4320 M
63 0 V
5918 0 R
-63 0 V
-6002 0 R
( 31.1127) Rshow
1.000 UL
LT0
0.50 0.50 0.50 C 1.000 UL
LTa
0.50 0.50 0.50 C 966 4412 M
5981 0 V
stroke
LT0
0.50 0.50 0.50 C 966 4412 M
63 0 V
5918 0 R
-63 0 V
-6002 0 R
( 31.8198) Rshow
1.000 UL
LT0
0.50 0.50 0.50 C 1.000 UL
LTa
0.50 0.50 0.50 C 966 4504 M
5981 0 V
stroke
LT0
0.50 0.50 0.50 C 966 4504 M
63 0 V
5918 0 R
-63 0 V
-6002 0 R
( 32.5269) Rshow
1.000 UL
LT0
0.50 0.50 0.50 C 1.000 UL
LTa
0.50 0.50 0.50 C 966 4596 M
5981 0 V
stroke
LT0
0.50 0.50 0.50 C 966 4596 M
63 0 V
5918 0 R
-63 0 V
-6002 0 R
( 33.234) Rshow
1.000 UL
LT0
0.50 0.50 0.50 C 1.000 UL
LTa
0.50 0.50 0.50 C 966 4687 M
5981 0 V
stroke
LT0
0.50 0.50 0.50 C 966 4687 M
63 0 V
5918 0 R
-63 0 V
-6002 0 R
( 33.9411) Rshow
1.000 UL
LT0
0.50 0.50 0.50 C 1.000 UL
LTa
0.50 0.50 0.50 C 966 4779 M
5981 0 V
stroke
LT0
0.50 0.50 0.50 C 966 4779 M
63 0 V
5918 0 R
-63 0 V
-6002 0 R
( 34.6482) Rshow
1.000 UL
LT0
0.50 0.50 0.50 C 1.000 UL
LTa
0.50 0.50 0.50 C 966 4871 M
5981 0 V
stroke
LT0
0.50 0.50 0.50 C 966 4871 M
63 0 V
5918 0 R
-63 0 V
-6002 0 R
( 35.3553) Rshow
1.000 UL
LT0
0.50 0.50 0.50 C 1.000 UL
LTa
0.50 0.50 0.50 C 966 280 M
0 4591 V
stroke
LT0
0.50 0.50 0.50 C 966 280 M
0 63 V
0 4528 R
0 -63 V
966 140 M
( 0) Cshow
1.000 UL
LT0
0.50 0.50 0.50 C 1.000 UL
LTa
0.50 0.50 0.50 C 1086 280 M
0 4591 V
stroke
LT0
0.50 0.50 0.50 C 1086 280 M
0 63 V
0 4528 R
0 -63 V
0 -4668 R
( 0.707106) Cshow
1.000 UL
LT0
0.50 0.50 0.50 C 1.000 UL
LTa
0.50 0.50 0.50 C 1205 280 M
0 4591 V
stroke
LT0
0.50 0.50 0.50 C 1205 280 M
0 63 V
0 4528 R
0 -63 V
0 -4668 R
( 1.41421) Cshow
1.000 UL
LT0
0.50 0.50 0.50 C 1.000 UL
LTa
0.50 0.50 0.50 C 1325 280 M
0 4591 V
stroke
LT0
0.50 0.50 0.50 C 1325 280 M
0 63 V
0 4528 R
0 -63 V
0 -4668 R
( 2.12132) Cshow
1.000 UL
LT0
0.50 0.50 0.50 C 1.000 UL
LTa
0.50 0.50 0.50 C 1444 280 M
0 4591 V
stroke
LT0
0.50 0.50 0.50 C 1444 280 M
0 63 V
0 4528 R
0 -63 V
0 -4668 R
( 2.82842) Cshow
1.000 UL
LT0
0.50 0.50 0.50 C 1.000 UL
LTa
0.50 0.50 0.50 C 1564 280 M
0 4591 V
stroke
LT0
0.50 0.50 0.50 C 1564 280 M
0 63 V
0 4528 R
0 -63 V
0 -4668 R
( 3.53553) Cshow
1.000 UL
LT0
0.50 0.50 0.50 C 1.000 UL
LTa
0.50 0.50 0.50 C 1684 280 M
0 4591 V
stroke
LT0
0.50 0.50 0.50 C 1684 280 M
0 63 V
0 4528 R
0 -63 V
0 -4668 R
( 4.24264) Cshow
1.000 UL
LT0
0.50 0.50 0.50 C 1.000 UL
LTa
0.50 0.50 0.50 C 1803 280 M
0 4591 V
stroke
LT0
0.50 0.50 0.50 C 1803 280 M
0 63 V
0 4528 R
0 -63 V
0 -4668 R
( 4.94974) Cshow
1.000 UL
LT0
0.50 0.50 0.50 C 1.000 UL
LTa
0.50 0.50 0.50 C 1923 280 M
0 4591 V
stroke
LT0
0.50 0.50 0.50 C 1923 280 M
0 63 V
0 4528 R
0 -63 V
0 -4668 R
( 5.65685) Cshow
1.000 UL
LT0
0.50 0.50 0.50 C 1.000 UL
LTa
0.50 0.50 0.50 C 2043 280 M
0 4591 V
stroke
LT0
0.50 0.50 0.50 C 2043 280 M
0 63 V
0 4528 R
0 -63 V
0 -4668 R
( 6.36395) Cshow
1.000 UL
LT0
0.50 0.50 0.50 C 1.000 UL
LTa
0.50 0.50 0.50 C 2162 280 M
0 4591 V
stroke
LT0
0.50 0.50 0.50 C 2162 280 M
0 63 V
0 4528 R
0 -63 V
0 -4668 R
( 7.07106) Cshow
1.000 UL
LT0
0.50 0.50 0.50 C 1.000 UL
LTa
0.50 0.50 0.50 C 2282 280 M
0 4591 V
stroke
LT0
0.50 0.50 0.50 C 2282 280 M
0 63 V
0 4528 R
0 -63 V
0 -4668 R
( 7.77817) Cshow
1.000 UL
LT0
0.50 0.50 0.50 C 1.000 UL
LTa
0.50 0.50 0.50 C 2401 280 M
0 4591 V
stroke
LT0
0.50 0.50 0.50 C 2401 280 M
0 63 V
0 4528 R
0 -63 V
0 -4668 R
( 8.48527) Cshow
1.000 UL
LT0
0.50 0.50 0.50 C 1.000 UL
LTa
0.50 0.50 0.50 C 2521 280 M
0 4591 V
stroke
LT0
0.50 0.50 0.50 C 2521 280 M
0 63 V
0 4528 R
0 -63 V
0 -4668 R
( 9.19238) Cshow
1.000 UL
LT0
0.50 0.50 0.50 C 1.000 UL
LTa
0.50 0.50 0.50 C 2641 280 M
0 4591 V
stroke
LT0
0.50 0.50 0.50 C 2641 280 M
0 63 V
0 4528 R
0 -63 V
0 -4668 R
( 9.89948) Cshow
1.000 UL
LT0
0.50 0.50 0.50 C 1.000 UL
LTa
0.50 0.50 0.50 C 2760 280 M
0 4591 V
stroke
LT0
0.50 0.50 0.50 C 2760 280 M
0 63 V
0 4528 R
0 -63 V
0 -4668 R
( 10.6066) Cshow
1.000 UL
LT0
0.50 0.50 0.50 C 1.000 UL
LTa
0.50 0.50 0.50 C 2880 280 M
0 4591 V
stroke
LT0
0.50 0.50 0.50 C 2880 280 M
0 63 V
0 4528 R
0 -63 V
0 -4668 R
( 11.3137) Cshow
1.000 UL
LT0
0.50 0.50 0.50 C 1.000 UL
LTa
0.50 0.50 0.50 C 3000 280 M
0 4591 V
stroke
LT0
0.50 0.50 0.50 C 3000 280 M
0 63 V
0 4528 R
0 -63 V
0 -4668 R
( 12.0208) Cshow
1.000 UL
LT0
0.50 0.50 0.50 C 1.000 UL
LTa
0.50 0.50 0.50 C 3119 280 M
0 4591 V
stroke
LT0
0.50 0.50 0.50 C 3119 280 M
0 63 V
0 4528 R
0 -63 V
0 -4668 R
( 12.7279) Cshow
1.000 UL
LT0
0.50 0.50 0.50 C 1.000 UL
LTa
0.50 0.50 0.50 C 3239 280 M
0 4591 V
stroke
LT0
0.50 0.50 0.50 C 3239 280 M
0 63 V
0 4528 R
0 -63 V
0 -4668 R
( 13.435) Cshow
1.000 UL
LT0
0.50 0.50 0.50 C 1.000 UL
LTa
0.50 0.50 0.50 C 3358 280 M
0 4591 V
stroke
LT0
0.50 0.50 0.50 C 3358 280 M
0 63 V
0 4528 R
0 -63 V
0 -4668 R
( 14.1421) Cshow
1.000 UL
LT0
0.50 0.50 0.50 C 1.000 UL
LTa
0.50 0.50 0.50 C 3478 280 M
0 4591 V
stroke
LT0
0.50 0.50 0.50 C 3478 280 M
0 63 V
0 4528 R
0 -63 V
0 -4668 R
( 14.8492) Cshow
1.000 UL
LT0
0.50 0.50 0.50 C 1.000 UL
LTa
0.50 0.50 0.50 C 3598 280 M
0 4591 V
stroke
LT0
0.50 0.50 0.50 C 3598 280 M
0 63 V
0 4528 R
0 -63 V
0 -4668 R
( 15.5563) Cshow
1.000 UL
LT0
0.50 0.50 0.50 C 1.000 UL
LTa
0.50 0.50 0.50 C 3717 280 M
0 4591 V
stroke
LT0
0.50 0.50 0.50 C 3717 280 M
0 63 V
0 4528 R
0 -63 V
0 -4668 R
( 16.2634) Cshow
1.000 UL
LT0
0.50 0.50 0.50 C 1.000 UL
LTa
0.50 0.50 0.50 C 3837 280 M
0 4591 V
stroke
LT0
0.50 0.50 0.50 C 3837 280 M
0 63 V
0 4528 R
0 -63 V
0 -4668 R
( 16.9705) Cshow
1.000 UL
LT0
0.50 0.50 0.50 C 1.000 UL
LTa
0.50 0.50 0.50 C 3956 280 M
0 4591 V
stroke
LT0
0.50 0.50 0.50 C 3956 280 M
0 63 V
0 4528 R
0 -63 V
0 -4668 R
( 17.6776) Cshow
1.000 UL
LT0
0.50 0.50 0.50 C 1.000 UL
LTa
0.50 0.50 0.50 C 4076 280 M
0 4591 V
stroke
LT0
0.50 0.50 0.50 C 4076 280 M
0 63 V
0 4528 R
0 -63 V
0 -4668 R
( 18.3848) Cshow
1.000 UL
LT0
0.50 0.50 0.50 C 1.000 UL
LTa
0.50 0.50 0.50 C 4196 280 M
0 4591 V
stroke
LT0
0.50 0.50 0.50 C 4196 280 M
0 63 V
0 4528 R
0 -63 V
0 -4668 R
( 19.0919) Cshow
1.000 UL
LT0
0.50 0.50 0.50 C 1.000 UL
LTa
0.50 0.50 0.50 C 4315 280 M
0 4591 V
stroke
LT0
0.50 0.50 0.50 C 4315 280 M
0 63 V
0 4528 R
0 -63 V
0 -4668 R
( 19.799) Cshow
1.000 UL
LT0
0.50 0.50 0.50 C 1.000 UL
LTa
0.50 0.50 0.50 C 4435 280 M
0 4591 V
stroke
LT0
0.50 0.50 0.50 C 4435 280 M
0 63 V
0 4528 R
0 -63 V
0 -4668 R
( 20.5061) Cshow
1.000 UL
LT0
0.50 0.50 0.50 C 1.000 UL
LTa
0.50 0.50 0.50 C 4555 280 M
0 4591 V
stroke
LT0
0.50 0.50 0.50 C 4555 280 M
0 63 V
0 4528 R
0 -63 V
0 -4668 R
( 21.2132) Cshow
1.000 UL
LT0
0.50 0.50 0.50 C 1.000 UL
LTa
0.50 0.50 0.50 C 4674 280 M
0 4591 V
stroke
LT0
0.50 0.50 0.50 C 4674 280 M
0 63 V
0 4528 R
0 -63 V
0 -4668 R
( 21.9203) Cshow
1.000 UL
LT0
0.50 0.50 0.50 C 1.000 UL
LTa
0.50 0.50 0.50 C 4794 280 M
0 4591 V
stroke
LT0
0.50 0.50 0.50 C 4794 280 M
0 63 V
0 4528 R
0 -63 V
0 -4668 R
( 22.6274) Cshow
1.000 UL
LT0
0.50 0.50 0.50 C 1.000 UL
LTa
0.50 0.50 0.50 C 4913 280 M
0 4591 V
stroke
LT0
0.50 0.50 0.50 C 4913 280 M
0 63 V
0 4528 R
0 -63 V
0 -4668 R
( 23.3345) Cshow
1.000 UL
LT0
0.50 0.50 0.50 C 1.000 UL
LTa
0.50 0.50 0.50 C 5033 280 M
0 4591 V
stroke
LT0
0.50 0.50 0.50 C 5033 280 M
0 63 V
0 4528 R
0 -63 V
0 -4668 R
( 24.0416) Cshow
1.000 UL
LT0
0.50 0.50 0.50 C 1.000 UL
LTa
0.50 0.50 0.50 C 5153 280 M
0 4591 V
stroke
LT0
0.50 0.50 0.50 C 5153 280 M
0 63 V
0 4528 R
0 -63 V
0 -4668 R
( 24.7487) Cshow
1.000 UL
LT0
0.50 0.50 0.50 C 1.000 UL
LTa
0.50 0.50 0.50 C 5272 280 M
0 4591 V
stroke
LT0
0.50 0.50 0.50 C 5272 280 M
0 63 V
0 4528 R
0 -63 V
0 -4668 R
( 25.4558) Cshow
1.000 UL
LT0
0.50 0.50 0.50 C 1.000 UL
LTa
0.50 0.50 0.50 C 5392 280 M
0 4591 V
stroke
LT0
0.50 0.50 0.50 C 5392 280 M
0 63 V
0 4528 R
0 -63 V
0 -4668 R
( 26.1629) Cshow
1.000 UL
LT0
0.50 0.50 0.50 C 1.000 UL
LTa
0.50 0.50 0.50 C 5512 280 M
0 4591 V
stroke
LT0
0.50 0.50 0.50 C 5512 280 M
0 63 V
0 4528 R
0 -63 V
0 -4668 R
( 26.87) Cshow
1.000 UL
LT0
0.50 0.50 0.50 C 1.000 UL
LTa
0.50 0.50 0.50 C 5631 280 M
0 4591 V
stroke
LT0
0.50 0.50 0.50 C 5631 280 M
0 63 V
0 4528 R
0 -63 V
0 -4668 R
( 27.5771) Cshow
1.000 UL
LT0
0.50 0.50 0.50 C 1.000 UL
LTa
0.50 0.50 0.50 C 5751 280 M
0 4591 V
stroke
LT0
0.50 0.50 0.50 C 5751 280 M
0 63 V
0 4528 R
0 -63 V
0 -4668 R
( 28.2842) Cshow
1.000 UL
LT0
0.50 0.50 0.50 C 1.000 UL
LTa
0.50 0.50 0.50 C 5870 280 M
0 4591 V
stroke
LT0
0.50 0.50 0.50 C 5870 280 M
0 63 V
0 4528 R
0 -63 V
0 -4668 R
( 28.9913) Cshow
1.000 UL
LT0
0.50 0.50 0.50 C 1.000 UL
LTa
0.50 0.50 0.50 C 5990 280 M
0 4591 V
stroke
LT0
0.50 0.50 0.50 C 5990 280 M
0 63 V
0 4528 R
0 -63 V
0 -4668 R
( 29.6985) Cshow
1.000 UL
LT0
0.50 0.50 0.50 C 1.000 UL
LTa
0.50 0.50 0.50 C 6110 280 M
0 4591 V
stroke
LT0
0.50 0.50 0.50 C 6110 280 M
0 63 V
0 4528 R
0 -63 V
0 -4668 R
( 30.4056) Cshow
1.000 UL
LT0
0.50 0.50 0.50 C 1.000 UL
LTa
0.50 0.50 0.50 C 6229 280 M
0 4591 V
stroke
LT0
0.50 0.50 0.50 C 6229 280 M
0 63 V
0 4528 R
0 -63 V
0 -4668 R
( 31.1127) Cshow
1.000 UL
LT0
0.50 0.50 0.50 C 1.000 UL
LTa
0.50 0.50 0.50 C 6349 280 M
0 4591 V
stroke
LT0
0.50 0.50 0.50 C 6349 280 M
0 63 V
0 4528 R
0 -63 V
0 -4668 R
( 31.8198) Cshow
1.000 UL
LT0
0.50 0.50 0.50 C 1.000 UL
LTa
0.50 0.50 0.50 C 6469 280 M
0 4591 V
stroke
LT0
0.50 0.50 0.50 C 6469 280 M
0 63 V
0 4528 R
0 -63 V
0 -4668 R
( 32.5269) Cshow
1.000 UL
LT0
0.50 0.50 0.50 C 1.000 UL
LTa
0.50 0.50 0.50 C 6588 280 M
0 4591 V
stroke
LT0
0.50 0.50 0.50 C 6588 280 M
0 63 V
0 4528 R
0 -63 V
0 -4668 R
( 33.234) Cshow
1.000 UL
LT0
0.50 0.50 0.50 C 1.000 UL
LTa
0.50 0.50 0.50 C 6708 280 M
0 4591 V
stroke
LT0
0.50 0.50 0.50 C 6708 280 M
0 63 V
0 4528 R
0 -63 V
0 -4668 R
( 33.9411) Cshow
1.000 UL
LT0
0.50 0.50 0.50 C 1.000 UL
LTa
0.50 0.50 0.50 C 6827 280 M
0 4591 V
stroke
LT0
0.50 0.50 0.50 C 6827 280 M
0 63 V
0 4528 R
0 -63 V
0 -4668 R
( 34.6482) Cshow
1.000 UL
LT0
0.50 0.50 0.50 C 1.000 UL
LTa
0.50 0.50 0.50 C 6947 280 M
0 4591 V
stroke
LT0
0.50 0.50 0.50 C 6947 280 M
0 63 V
0 4528 R
0 -63 V
0 -4668 R
( 35.3553) Cshow
1.000 UL
LT0
0.50 0.50 0.50 C 1.000 UL
LT0
0.50 0.50 0.50 C 966 4871 M
966 280 L
5981 0 V
0 4591 R
-5981 0 R
1.000 UP
stroke
LT0
0.50 0.50 0.50 C % Begin plot #1
1.500 UP
2.000 UL
LT0
0.00 0.00 1.00 C /Helvetica findfont 140 scalefont setfont
/vshift -46 def
966 555 M
120 0 V
119 0 V
120 0 V
0 184 R
119 0 V
0 92 R
120 0 V
120 0 V
119 0 V
120 0 V
120 0 V
119 0 V
120 0 V
119 0 V
120 0 V
120 0 V
119 0 V
0 92 R
120 0 V
120 0 V
119 0 V
120 0 V
119 0 V
120 0 V
120 0 V
0 183 R
119 0 V
0 184 R
120 0 V
0 367 R
120 0 V
119 0 V
120 0 V
0 92 R
119 0 V
120 0 V
0 92 R
120 0 V
0 735 R
119 0 V
0 550 R
120 0 V
119 0 V
120 0 V
120 0 V
119 0 V
120 0 V
0 92 R
120 0 V
119 0 V
120 0 V
119 0 V
120 0 V
120 0 V
0 735 R
119 0 V
120 0 V
120 0 V
0 92 R
119 0 V
120 0 V
0 734 R
119 0 V
0 92 R
120 0 V
1325 555 M
0 92 V
0 92 V
119 0 R
0 92 V
1316 0 R
0 92 V
838 0 R
0 92 V
0 91 V
119 0 R
0 92 V
0 92 V
120 0 R
0 92 V
0 92 V
0 91 V
0 92 V
359 0 R
0 92 V
239 0 R
0 92 V
120 0 R
0 92 V
0 92 V
0 91 V
0 92 V
0 92 V
0 92 V
0 92 V
0 92 V
119 0 R
0 91 V
0 92 V
0 92 V
0 92 V
0 92 V
0 91 V
718 0 R
0 92 V
stroke 5392 3218 M
718 0 R
0 92 V
0 92 V
0 92 V
0 92 V
0 91 V
0 92 V
0 92 V
0 92 V
359 0 R
0 92 V
239 0 R
0 91 V
0 92 V
0 92 V
0 92 V
0 92 V
0 92 V
0 91 V
0 92 V
119 0 R
0 92 V
966 280 M
0 92 V
0 92 V
0 91 V
966 555 CircleF
1086 555 CircleF
1086 555 CircleF
1205 555 CircleF
1205 555 CircleF
1325 555 CircleF
1325 739 CircleF
1444 739 CircleF
1444 831 CircleF
1564 831 CircleF
1564 831 CircleF
1684 831 CircleF
1684 831 CircleF
1803 831 CircleF
1803 831 CircleF
1923 831 CircleF
1923 831 CircleF
2043 831 CircleF
2043 831 CircleF
2162 831 CircleF
2162 831 CircleF
2282 831 CircleF
2282 831 CircleF
2401 831 CircleF
2401 831 CircleF
2521 831 CircleF
2521 831 CircleF
2641 831 CircleF
2641 831 CircleF
2760 831 CircleF
2760 923 CircleF
2880 923 CircleF
2880 923 CircleF
3000 923 CircleF
3000 923 CircleF
3119 923 CircleF
3119 923 CircleF
3239 923 CircleF
3239 923 CircleF
3358 923 CircleF
3358 923 CircleF
3478 923 CircleF
3478 923 CircleF
3598 923 CircleF
3598 1106 CircleF
3717 1106 CircleF
3717 1290 CircleF
3837 1290 CircleF
3837 1657 CircleF
3957 1657 CircleF
3957 1657 CircleF
4076 1657 CircleF
4076 1657 CircleF
4196 1657 CircleF
4196 1749 CircleF
4315 1749 CircleF
4315 1749 CircleF
4435 1749 CircleF
4435 1841 CircleF
4555 1841 CircleF
4555 2576 CircleF
4674 2576 CircleF
4674 3126 CircleF
4794 3126 CircleF
4794 3126 CircleF
4913 3126 CircleF
4913 3126 CircleF
5033 3126 CircleF
5033 3126 CircleF
5153 3126 CircleF
5153 3126 CircleF
5272 3126 CircleF
5272 3126 CircleF
5392 3126 CircleF
5392 3218 CircleF
5512 3218 CircleF
5512 3218 CircleF
5631 3218 CircleF
5631 3218 CircleF
5751 3218 CircleF
5751 3218 CircleF
5870 3218 CircleF
5870 3218 CircleF
5990 3218 CircleF
5990 3218 CircleF
6110 3218 CircleF
6110 3953 CircleF
6229 3953 CircleF
6229 3953 CircleF
6349 3953 CircleF
6349 3953 CircleF
6469 3953 CircleF
6469 4045 CircleF
6588 4045 CircleF
6588 4045 CircleF
6708 4045 CircleF
6708 4779 CircleF
6827 4779 CircleF
6827 4871 CircleF
6947 4871 CircleF
1325 555 CircleF
1325 647 CircleF
1325 647 CircleF
1325 739 CircleF
1444 739 CircleF
1444 831 CircleF
2760 831 CircleF
2760 923 CircleF
3598 923 CircleF
3598 1015 CircleF
3598 1015 CircleF
3598 1106 CircleF
3717 1106 CircleF
3717 1198 CircleF
3717 1198 CircleF
3717 1290 CircleF
3837 1290 CircleF
3837 1382 CircleF
3837 1382 CircleF
3837 1474 CircleF
3837 1474 CircleF
3837 1565 CircleF
3837 1565 CircleF
3837 1657 CircleF
4196 1657 CircleF
4196 1749 CircleF
4435 1749 CircleF
4435 1841 CircleF
4555 1841 CircleF
4555 1933 CircleF
4555 1933 CircleF
4555 2025 CircleF
4555 2025 CircleF
4555 2116 CircleF
4555 2116 CircleF
4555 2208 CircleF
4555 2208 CircleF
4555 2300 CircleF
4555 2300 CircleF
4555 2392 CircleF
4555 2392 CircleF
4555 2484 CircleF
4555 2484 CircleF
4555 2576 CircleF
4674 2576 CircleF
4674 2667 CircleF
4674 2667 CircleF
4674 2759 CircleF
4674 2759 CircleF
4674 2851 CircleF
4674 2851 CircleF
4674 2943 CircleF
4674 2943 CircleF
4674 3035 CircleF
4674 3035 CircleF
4674 3126 CircleF
5392 3126 CircleF
5392 3218 CircleF
6110 3218 CircleF
6110 3310 CircleF
6110 3310 CircleF
6110 3402 CircleF
6110 3402 CircleF
6110 3494 CircleF
6110 3494 CircleF
6110 3586 CircleF
6110 3586 CircleF
6110 3677 CircleF
6110 3677 CircleF
6110 3769 CircleF
6110 3769 CircleF
6110 3861 CircleF
6110 3861 CircleF
6110 3953 CircleF
6469 3953 CircleF
6469 4045 CircleF
6708 4045 CircleF
6708 4136 CircleF
6708 4136 CircleF
6708 4228 CircleF
6708 4228 CircleF
6708 4320 CircleF
6708 4320 CircleF
6708 4412 CircleF
6708 4412 CircleF
6708 4504 CircleF
6708 4504 CircleF
6708 4596 CircleF
6708 4596 CircleF
6708 4687 CircleF
6708 4687 CircleF
6708 4779 CircleF
6827 4779 CircleF
6827 4871 CircleF
966 280 CircleF
966 372 CircleF
966 372 CircleF
966 464 CircleF
966 464 CircleF
966 555 CircleF
% End plot #1
% Begin plot #2
1.500 UP
2.000 UL
LT0
1.00 0.55 0.00 C /Helvetica findfont 140 scalefont setfont
2359 1129 M
168 130 V
456 2566 R
154 119 V
6084 1768 M
182 139 V
2429 2452 M
140 107 V
3878 523 R
163 125 V
-907 6 R
202 155 V
-2568 26 R
131 100 V
3300 2484 M
126 96 V
-774 161 R
187 143 V
6233 2453 M
148 114 V
1531 4037 M
194 149 V
2796 3522 M
138 106 V
-787 583 R
147 113 V
5951 1219 M
152 116 V
3085 3554 M
153 117 V
2674 3028 M
208 161 V
1530 3588 M
129 99 V
1953 123 R
206 158 V
1774 1496 M
198 152 V
200 2887 R
172 132 V
3283 3667 M
120 92 V
-333 -47 R
129 99 V
1005 1051 M
225 173 V
3764 4647 M
156 120 V
5966 1764 M
148 113 V
233 68 R
200 153 V
2255 812 M
143 110 V
1020 3545 M
134 102 V
5450 325 R
228 175 V
5105 401 M
139 107 V
734 3457 R
232 177 V
5082 842 M
143 110 V
2607 2595 M
160 123 V
2319 327 M
219 168 V
4868 787 M
193 148 V
6179 3949 M
183 141 V
5949 2634 M
220 168 V
1404 4382 M
173 133 V
1313 621 M
162 124 V
2692 1937 M
130 100 V
1913 3768 M
134 103 V
961 106 R
176 135 V
4594 3510 M
208 160 V
730 -115 R
175 134 V
3119 4147 M
208 160 V
5633 1646 M
232 179 V
2931 2776 M
219 168 V
2822 2276 M
133 102 V
1806 511 M
151 115 V
5886 3174 M
232 177 V
3682 2102 M
181 139 V
4358 1223 M
151 116 V
1339 47 R
206 157 V
stroke 6054 1543 M
4382 4211 M
227 174 V
1791 4287 M
134 103 V
3386 6 R
181 138 V
1325 2018 M
182 140 V
3662 926 R
137 105 V
4771 4569 M
205 157 V
3787 2878 M
228 175 V
5882 1434 M
125 96 V
2935 1433 M
197 151 V
3458 614 R
228 176 V
4845 4059 M
207 159 V
3382 3869 M
183 140 V
5473 1211 M
165 127 V
3769 4098 M
186 142 V
3374 3334 M
185 142 V
1375 2329 M
198 152 V
4373 925 R
166 127 V
6227 2155 M
179 138 V
4376 3975 M
218 167 V
1048 4261 M
179 137 V
2619 3379 M
185 142 V
3603 1173 M
186 143 V
3061 2913 M
149 114 V
6034 1935 M
156 120 V
2719 4415 M
129 100 V
2051 -75 R
156 120 V
5330 1940 M
228 174 V
3342 3580 M
126 97 V
1513 4178 M
145 112 V
5898 3081 M
187 144 V
2683 532 M
218 167 V
5771 2813 M
122 94 V
695 1143 R
121 93 V
5437 2274 M
224 171 V
4486 2125 M
131 101 V
6086 4431 M
120 93 V
3044 4657 M
136 104 V
5867 3390 M
136 105 V
74 -515 R
209 161 V
1613 824 M
133 103 V
2331 698 R
140 107 V
3751 3318 M
127 98 V
715 -870 R
128 98 V
2337 1359 M
209 160 V
5625 3767 M
164 126 V
6137 1285 M
199 152 V
3558 3002 M
159 122 V
1558 829 M
218 168 V
-204 668 R
237 182 V
6609 4495 M
230 177 V
6279 2528 M
238 183 V
1530 1639 M
214 164 V
stroke 1744 1803 M
3799 3332 M
211 163 V
2630 782 M
211 162 V
6279 336 M
170 130 V
5676 3513 M
188 144 V
4547 847 M
134 103 V
1174 458 M
132 102 V
1252 920 R
162 125 V
643 300 R
142 109 V
4670 4664 M
174 133 V
5860 1439 M
205 157 V
4571 4041 M
153 118 V
625 -86 R
173 133 V
1744 1587 M
206 158 V
3805 101 R
129 99 V
6494 973 M
232 177 V
4865 2898 M
212 163 V
1523 449 R
222 171 V
4517 2774 M
174 134 V
2207 2745 M
185 142 V
5569 4336 M
213 164 V
1147 2979 M
145 112 V
6110 784 M
199 153 V
-881 806 R
195 150 V
976 2082 R
203 155 V
1187 1410 M
155 118 V
5195 4214 M
224 171 V
4609 1264 M
225 173 V
-509 208 R
197 152 V
1721 51 R
189 145 V
2955 1850 M
207 159 V
6183 4462 M
170 130 V
4699 1393 M
166 127 V
4544 2989 M
197 151 V
5203 512 M
175 135 V
6426 289 M
231 177 V
2195 1300 M
132 101 V
5823 775 M
150 115 V
5581 499 M
162 124 V
3334 3961 M
150 114 V
4014 1018 M
176 135 V
2376 3912 M
185 142 V
2575 466 R
124 95 V
2860 3158 M
153 118 V
1307 883 R
231 177 V
4725 2999 M
213 162 V
6261 3055 M
162 124 V
5380 2010 M
216 166 V
3337 837 M
237 182 V
506 2528 R
178 136 V
6424 3582 M
214 165 V
2693 3858 M
236 182 V
771 -23 R
223 171 V
stroke 3923 4188 M
947 -930 R
189 145 V
1484 311 M
149 114 V
2752 2839 M
172 133 V
3262 535 M
189 144 V
5228 4305 M
175 134 V
5299 4238 M
215 165 V
5931 2540 M
207 159 V
4728 1218 M
236 181 V
3890 2658 M
134 104 V
3869 4407 M
178 137 V
6212 1220 M
140 108 V
3199 3371 M
165 126 V
4802 3173 M
132 101 V
2254 961 M
201 155 V
3165 376 R
136 105 V
4019 1535 M
212 163 V
5632 3601 M
200 154 V
6291 1303 M
153 118 V
1590 2419 M
130 100 V
6437 3988 M
194 149 V
2049 1227 M
205 158 V
3781 2842 M
178 136 V
3198 4058 M
224 173 V
2639 3284 M
184 142 V
4258 2835 M
174 133 V
-308 433 R
133 102 V
-833 534 R
148 114 V
3467 3001 M
230 177 V
2225 -29 R
220 169 V
3521 896 M
185 142 V
6552 4568 M
203 156 V
3475 2112 M
146 113 V
872 1013 R
122 93 V
2051 476 M
202 155 V
5468 389 M
203 156 V
4859 3551 M
131 101 V
2136 3179 M
190 146 V
4471 1321 M
194 149 V
1127 2801 M
215 165 V
6642 2413 M
220 169 V
3128 2372 M
165 126 V
4614 2123 M
159 122 V
3723 1553 M
149 115 V
1566 2460 M
228 175 V
-148 773 R
127 97 V
1263 1195 M
227 175 V
1016 734 R
212 163 V
6045 514 M
127 97 V
2176 2953 M
197 152 V
3183 428 R
141 108 V
2215 3004 M
168 129 V
1744 4428 M
196 151 V
stroke 1940 4579 M
5796 3463 M
165 126 V
5432 1327 M
135 103 V
2479 3220 M
123 95 V
3487 1356 M
146 113 V
2995 799 M
230 177 V
5003 3462 M
212 163 V
1560 570 M
128 98 V
2997 4437 M
190 146 V
684 -400 R
175 135 V
2814 4448 M
157 121 V
1484 4046 M
133 102 V
4114 1162 M
207 159 V
418 2424 R
217 166 V
1099 758 R
123 94 V
2911 1273 M
140 108 V
476 2328 R
194 149 V
6424 1949 M
155 119 V
4344 2926 M
198 152 V
948 1001 R
181 139 V
6027 2726 M
157 120 V
1254 1687 M
232 178 V
1900 659 R
177 136 V
5683 4141 M
120 92 V
1104 475 M
134 103 V
949 937 R
236 182 V
3834 2768 M
170 131 V
6534 1728 M
126 97 V
36 1398 R
122 94 V
4760 3834 M
197 151 V
3114 894 M
198 151 V
2190 237 R
143 110 V
3263 1715 M
180 139 V
3144 4173 M
201 153 V
3173 1939 M
165 126 V
2221 4047 M
139 106 V
5765 3142 M
178 137 V
4763 3657 M
189 145 V
1182 2062 M
203 156 V
3664 281 R
192 148 V
1089 2627 M
207 158 V
6147 1445 M
120 92 V
1436 1018 M
122 93 V
3055 843 M
171 131 V
6558 2047 M
236 181 V
6681 2009 M
187 143 V
4246 569 M
228 175 V
4090 3547 M
219 168 V
1724 2579 M
155 119 V
4436 2071 M
173 133 V
3126 1599 M
182 140 V
-400 -27 R
215 165 V
4353 3237 M
224 172 V
stroke 4577 3409 M
5538 431 M
140 108 V
191 2531 R
139 107 V
2354 2504 M
231 177 V
5408 4506 M
197 150 V
5018 389 M
169 130 V
1349 14 R
234 180 V
4655 2950 M
227 174 V
2845 808 M
166 127 V
5491 3366 M
174 133 V
4879 300 M
122 94 V
1477 4350 M
155 119 V
1912 2498 M
183 140 V
5226 4077 M
135 104 V
5707 1943 M
158 121 V
2827 418 M
185 142 V
927 1066 R
157 120 V
2353 3704 M
172 133 V
-114 339 R
223 171 V
5569 2094 M
228 175 V
1087 1897 M
225 173 V
5581 1210 M
133 102 V
-2992 52 R
212 162 V
6006 3563 M
136 104 V
5615 2365 M
189 145 V
-213 450 R
154 118 V
2670 4237 M
210 161 V
3294 846 M
234 179 V
5605 2152 M
233 179 V
5315 4241 M
170 130 V
1520 2019 M
155 119 V
4848 4491 M
226 173 V
2172 4606 M
190 146 V
5278 3434 M
155 119 V
3223 782 M
196 151 V
3671 521 M
162 124 V
1883 1418 M
219 168 V
1637 -44 R
220 169 V
5931 3210 M
235 180 V
983 516 M
214 164 V
243 1628 R
159 122 V
844 1358 R
193 148 V
3746 2401 M
138 106 V
6066 457 M
226 173 V
5752 530 M
145 112 V
5228 2091 M
174 134 V
1725 1140 M
182 140 V
4822 2493 M
175 134 V
3073 586 M
175 135 V
5247 4516 M
214 164 V
5895 1382 M
233 178 V
4784 1727 M
180 138 V
4458 735 M
231 178 V
stroke 4689 913 M
3107 4117 M
178 136 V
3224 2447 M
145 111 V
790 -869 R
203 156 V
4327 392 M
138 105 V
3390 3876 M
195 149 V
-112 147 R
179 137 V
1519 4455 M
199 153 V
5199 4053 M
195 151 V
3233 4378 M
136 104 V
2762 883 M
206 157 V
2152 900 R
183 141 V
983 1765 R
162 124 V
1355 3375 M
168 129 V
5077 872 M
222 171 V
2059 3202 M
155 119 V
-415 91 R
222 171 V
5007 2977 M
234 179 V
4800 2261 M
158 121 V
2239 967 M
173 133 V
537 2920 R
124 95 V
1324 2196 M
197 151 V
6476 3678 M
123 94 V
2419 2151 M
132 101 V
5473 4249 M
173 133 V
4821 359 M
178 137 V
1142 723 M
225 172 V
3394 2956 M
146 112 V
6391 946 M
155 118 V
3816 1339 M
157 120 V
461 2296 R
225 173 V
177 -461 R
123 95 V
4134 306 M
152 116 V
1972 2313 M
153 118 V
1112 1136 M
128 98 V
688 2418 R
236 181 V
-13 623 R
141 108 V
464 -837 R
121 92 V
3222 731 R
235 180 V
2463 2418 M
197 152 V
2847 99 R
205 157 V
1656 1968 M
156 121 V
3516 4516 M
212 162 V
3084 3606 M
192 147 V
1665 1479 M
162 124 V
4854 4510 M
166 127 V
1630 3938 M
156 119 V
2575 1681 M
153 118 V
-54 1546 R
202 155 V
5706 1634 M
121 93 V
805 -478 R
209 160 V
2652 2720 M
196 151 V
4147 1615 M
188 145 V
stroke 4335 1760 M
782 1278 R
156 120 V
-53 1176 R
126 97 V
4157 1658 M
178 137 V
1174 217 R
189 145 V
5273 3336 M
141 108 V
179 -696 R
163 125 V
5768 502 M
228 176 V
2585 2261 M
134 104 V
3414 647 M
161 124 V
5205 2425 M
214 164 V
3624 1097 M
139 106 V
5238 2816 M
221 170 V
3703 2831 M
223 171 V
4274 1952 M
158 122 V
1233 3412 M
167 128 V
-202 -4 R
121 92 V
2576 2756 M
155 119 V
1534 928 M
190 146 V
4659 482 M
144 110 V
6396 2958 M
141 109 V
3762 938 M
179 138 V
1301 4150 M
211 163 V
5563 1497 M
125 97 V
3189 1793 M
149 114 V
4579 1190 M
178 137 V
2215 2983 M
121 93 V
5529 2862 M
134 102 V
2927 3292 M
212 163 V
6232 987 M
186 143 V
4936 2095 M
169 130 V
-832 448 R
146 112 V
941 148 R
131 101 V
536 -967 R
208 160 V
4200 3587 M
123 93 V
4082 1195 M
197 151 V
111 408 R
143 110 V
6132 3175 M
193 148 V
3622 3814 M
154 119 V
6076 2299 M
180 138 V
1294 635 M
217 166 V
4303 3255 M
188 144 V
1272 3322 M
128 98 V
4498 499 M
228 176 V
1575 1411 M
127 98 V
4548 2912 M
212 162 V
177 241 R
217 167 V
1951 2093 M
151 116 V
4641 3352 M
223 171 V
4147 2725 M
127 97 V
1704 698 R
163 125 V
2658 1314 M
154 119 V
236 688 R
231 178 V
stroke 3279 2299 M
1657 4012 M
234 180 V
4701 4041 M
219 168 V
2161 1700 M
161 123 V
1378 3904 M
130 100 V
1937 1285 M
161 124 V
4324 3045 M
198 152 V
1536 391 R
153 117 V
3840 3385 M
167 129 V
5372 3233 M
137 106 V
3943 1701 M
129 99 V
3497 3220 M
234 179 V
5455 1850 M
206 158 V
-9 936 R
207 159 V
6572 1485 M
233 178 V
2308 2985 M
204 157 V
5845 1503 M
123 94 V
2504 4308 M
164 125 V
5197 2607 M
161 124 V
1129 1675 M
135 104 V
79 392 R
191 146 V
4408 792 R
173 133 V
-3738 85 R
145 112 V
1932 552 R
123 95 V
3548 4001 M
195 150 V
2469 1355 M
150 116 V
34 2355 R
198 152 V
1517 454 M
140 107 V
5806 294 M
124 95 V
446 930 R
235 180 V
4395 3817 M
166 128 V
4327 775 M
204 157 V
1169 3237 M
199 153 V
447 -764 R
144 110 V
2570 1555 M
159 123 V
2093 3990 M
120 93 V
3837 3202 M
207 159 V
406 1027 R
136 105 V
4063 671 M
123 95 V
4882 303 M
181 139 V
4581 371 M
192 147 V
2074 4080 M
237 181 V
3796 3253 M
134 103 V
-1747 19 R
199 153 V
3725 517 M
121 93 V
6642 4486 M
214 164 V
2567 1083 M
217 166 V
6469 4634 M
216 166 V
6198 592 M
151 115 V
1576 3964 M
219 168 V
3128 3851 M
217 166 V
5235 377 M
167 127 V
417 662 R
195 149 V
stroke 6014 1315 M
5787 579 M
190 145 V
4804 3594 M
225 172 V
1879 3195 M
158 121 V
4940 2154 M
224 171 V
2834 499 M
232 178 V
1840 446 M
168 128 V
6594 360 M
218 167 V
1747 1952 M
214 165 V
5998 1179 M
154 119 V
5304 3399 M
135 104 V
5007 4618 M
182 140 V
50 -956 R
134 102 V
3906 1218 M
172 131 V
5089 463 M
192 147 V
2668 1581 M
206 158 V
1036 608 R
192 147 V
1126 4355 M
218 167 V
4379 3974 M
177 135 V
1736 496 M
167 128 V
1760 475 R
225 173 V
3053 4262 M
203 157 V
6643 2666 M
205 157 V
2876 2683 M
218 168 V
-931 358 R
215 165 V
5314 1415 M
174 134 V
1514 1149 M
128 98 V
53 -431 R
202 155 V
1007 2998 M
213 164 V
4910 3002 M
211 161 V
-2916 33 R
201 155 V
771 -839 R
164 126 V
1282 47 R
236 180 V
2103 2708 M
223 171 V
6414 2434 M
123 94 V
-3441 37 R
150 115 V
-227 349 R
225 172 V
5188 562 M
137 106 V
3184 3483 M
134 103 V
5031 3106 M
222 170 V
1577 3571 M
212 162 V
2903 1245 M
120 93 V
1370 866 R
166 128 V
518 131 R
164 125 V
-447 822 R
213 164 V
4496 2220 M
201 154 V
4375 1001 M
154 118 V
4061 2512 M
140 107 V
5708 1654 M
194 149 V
1001 925 M
171 131 V
5254 996 R
187 143 V
2993 1471 M
150 114 V
-433 258 R
177 136 V
stroke 2887 1979 M
6254 1694 M
161 123 V
3319 3650 M
236 181 V
4784 2567 M
164 126 V
6059 2239 M
185 143 V
4192 3525 M
190 146 V
1057 3835 M
140 107 V
6597 909 M
212 163 V
5275 4392 M
160 122 V
6288 3237 M
204 156 V
1784 2951 M
144 110 V
5203 431 M
129 99 V
5135 1868 M
136 104 V
2655 2987 M
237 183 V
6021 1293 M
176 135 V
3978 2723 M
170 130 V
402 -973 R
177 135 V
1225 2667 M
226 174 V
5295 2679 M
190 146 V
977 542 M
234 181 V
4746 3908 M
160 123 V
4467 1289 M
188 145 V
742 1771 R
227 174 V
3188 3768 M
134 102 V
4805 2633 M
201 154 V
854 1532 R
195 149 V
4718 621 M
209 159 V
652 849 R
232 178 V
-9 269 R
226 174 V
4221 1253 M
164 126 V
1981 3034 M
163 126 V
1705 2495 M
121 93 V
1916 329 M
130 100 V
1502 591 R
167 128 V
2587 2907 M
196 150 V
-399 636 R
203 156 V
174 -164 R
165 127 V
2335 690 M
216 166 V
2016 4645 M
151 116 V
2447 1866 M
174 134 V
6297 772 M
141 108 V
992 1321 M
187 144 V
2985 4500 M
138 106 V
1411 3527 M
214 165 V
5859 2409 M
160 123 V
2091 3575 M
217 166 V
3985 1477 M
145 111 V
65 744 R
138 106 V
3323 712 M
185 142 V
1761 563 M
129 99 V
3211 3465 M
162 125 V
5605 3278 M
191 147 V
4421 4391 M
206 158 V
stroke 4627 4549 M
4264 3360 M
168 128 V
664 -97 R
204 157 V
3277 4166 M
147 113 V
4951 3594 M
150 116 V
1955 945 M
224 172 V
5991 4605 M
149 115 V
5342 1374 M
176 136 V
1829 854 M
198 152 V
3379 2874 M
207 159 V
389 -907 R
194 149 V
5306 2087 M
190 146 V
5245 1351 M
151 116 V
2294 4311 M
233 179 V
1238 2262 M
159 122 V
1140 4580 M
179 138 V
5703 2380 M
156 120 V
1501 1811 M
123 95 V
1449 398 M
148 113 V
5159 659 M
152 116 V
1650 3911 M
161 124 V
5400 3140 M
215 166 V
1658 2974 M
150 115 V
4087 1121 M
154 118 V
6247 3107 M
149 114 V
4440 1607 M
171 131 V
6052 574 M
171 131 V
3670 3943 M
179 138 V
4936 2608 M
143 110 V
977 1686 M
166 128 V
5162 255 R
157 120 V
3005 1962 M
181 138 V
1042 1406 M
230 177 V
6044 3122 M
227 174 V
3804 4060 M
227 175 V
6626 624 M
228 175 V
6557 714 M
192 148 V
2859 4551 M
170 131 V
5230 2880 M
232 177 V
3410 605 M
136 105 V
3227 3338 M
191 146 V
3650 2087 M
234 179 V
1692 568 M
173 133 V
1720 2832 M
133 102 V
6197 2711 M
153 117 V
2175 4371 M
149 114 V
3737 3624 M
203 156 V
2120 4039 M
143 110 V
2929 787 M
149 114 V
649 1021 R
162 125 V
2111 442 R
176 135 V
3147 3795 M
195 150 V
1852 938 M
190 146 V
stroke 2042 1084 M
742 2642 R
183 140 V
5217 926 M
155 119 V
1421 4041 M
231 177 V
1235 857 M
131 100 V
2963 4300 M
178 136 V
3053 3376 M
188 145 V
2108 2964 M
143 110 V
2954 26 R
125 96 V
2853 4075 M
233 179 V
-313 173 R
127 98 V
2642 2445 M
183 141 V
-98 -148 R
125 96 V
3109 471 R
222 170 V
-3722 45 R
152 117 V
4060 937 R
209 160 V
-804 218 R
140 107 V
3162 4026 M
224 172 V
4199 3090 M
166 128 V
2466 1959 M
222 170 V
5423 1665 M
152 116 V
2601 3870 M
211 162 V
3355 1320 M
201 155 V
1831 805 R
123 94 V
3417 2964 M
135 103 V
1364 3247 M
221 169 V
2359 1129 CircleF
2527 1259 CircleF
2983 3825 CircleF
3137 3944 CircleF
6084 1768 CircleF
6266 1907 CircleF
2429 2452 CircleF
2569 2559 CircleF
6447 3082 CircleF
6610 3207 CircleF
5703 3213 CircleF
5905 3368 CircleF
3337 3394 CircleF
3468 3494 CircleF
3300 2484 CircleF
3426 2580 CircleF
2652 2741 CircleF
2839 2884 CircleF
6233 2453 CircleF
6381 2567 CircleF
1531 4037 CircleF
1725 4186 CircleF
2796 3522 CircleF
2934 3628 CircleF
2147 4211 CircleF
2294 4324 CircleF
5951 1219 CircleF
6103 1335 CircleF
3085 3554 CircleF
3238 3671 CircleF
2674 3028 CircleF
2882 3189 CircleF
1530 3588 CircleF
1659 3687 CircleF
3612 3810 CircleF
3818 3968 CircleF
1774 1496 CircleF
1972 1648 CircleF
2172 4535 CircleF
2344 4667 CircleF
3283 3667 CircleF
3403 3759 CircleF
3070 3712 CircleF
3199 3811 CircleF
1005 1051 CircleF
1230 1224 CircleF
3764 4647 CircleF
3920 4767 CircleF
5966 1764 CircleF
6114 1877 CircleF
6347 1945 CircleF
6547 2098 CircleF
2255 812 CircleF
2398 922 CircleF
1020 3545 CircleF
1154 3647 CircleF
6604 3972 CircleF
6832 4147 CircleF
5105 401 CircleF
5244 508 CircleF
5978 3965 CircleF
6210 4142 CircleF
5082 842 CircleF
5225 952 CircleF
2607 2595 CircleF
2767 2718 CircleF
2319 327 CircleF
2538 495 CircleF
4868 787 CircleF
5061 935 CircleF
6179 3949 CircleF
6362 4090 CircleF
5949 2634 CircleF
6169 2802 CircleF
1404 4382 CircleF
1577 4515 CircleF
1313 621 CircleF
1475 745 CircleF
2692 1937 CircleF
2822 2037 CircleF
1913 3768 CircleF
2047 3871 CircleF
3008 3977 CircleF
3184 4112 CircleF
4594 3510 CircleF
4802 3670 CircleF
5532 3555 CircleF
5707 3689 CircleF
3119 4147 CircleF
3327 4307 CircleF
5633 1646 CircleF
5865 1825 CircleF
2931 2776 CircleF
3150 2944 CircleF
2822 2276 CircleF
2955 2378 CircleF
1806 511 CircleF
1957 626 CircleF
5886 3174 CircleF
6118 3351 CircleF
3682 2102 CircleF
3863 2241 CircleF
4358 1223 CircleF
4509 1339 CircleF
5848 1386 CircleF
6054 1543 CircleF
4382 4211 CircleF
4609 4385 CircleF
1791 4287 CircleF
1925 4390 CircleF
5311 4396 CircleF
5492 4534 CircleF
1325 2018 CircleF
1507 2158 CircleF
5169 3084 CircleF
5306 3189 CircleF
4771 4569 CircleF
4976 4726 CircleF
3787 2878 CircleF
4015 3053 CircleF
5882 1434 CircleF
6007 1530 CircleF
2935 1433 CircleF
3132 1584 CircleF
6590 2198 CircleF
6818 2374 CircleF
4845 4059 CircleF
5052 4218 CircleF
3382 3869 CircleF
3565 4009 CircleF
5473 1211 CircleF
5638 1338 CircleF
3769 4098 CircleF
3955 4240 CircleF
3374 3334 CircleF
3559 3476 CircleF
1375 2329 CircleF
1573 2481 CircleF
5946 3406 CircleF
6112 3533 CircleF
6227 2155 CircleF
6406 2293 CircleF
4376 3975 CircleF
4594 4142 CircleF
1048 4261 CircleF
1227 4398 CircleF
2619 3379 CircleF
2804 3521 CircleF
3603 1173 CircleF
3789 1316 CircleF
3061 2913 CircleF
3210 3027 CircleF
6034 1935 CircleF
6190 2055 CircleF
2719 4415 CircleF
2848 4515 CircleF
4899 4440 CircleF
5055 4560 CircleF
5330 1940 CircleF
5558 2114 CircleF
3342 3580 CircleF
3468 3677 CircleF
1513 4178 CircleF
1658 4290 CircleF
5898 3081 CircleF
6085 3225 CircleF
2683 532 CircleF
2901 699 CircleF
5771 2813 CircleF
5893 2907 CircleF
6588 4050 CircleF
6709 4143 CircleF
5437 2274 CircleF
5661 2445 CircleF
4486 2125 CircleF
4617 2226 CircleF
6086 4431 CircleF
6206 4524 CircleF
3044 4657 CircleF
3180 4761 CircleF
5867 3390 CircleF
6003 3495 CircleF
6077 2980 CircleF
6286 3141 CircleF
1613 824 CircleF
1746 927 CircleF
4077 1625 CircleF
4217 1732 CircleF
3751 3318 CircleF
3878 3416 CircleF
4593 2546 CircleF
4721 2644 CircleF
2337 1359 CircleF
2546 1519 CircleF
5625 3767 CircleF
5789 3893 CircleF
6137 1285 CircleF
6336 1437 CircleF
3558 3002 CircleF
3717 3124 CircleF
1558 829 CircleF
1776 997 CircleF
1572 1665 CircleF
1809 1847 CircleF
6609 4495 CircleF
6839 4672 CircleF
6279 2528 CircleF
6517 2711 CircleF
1530 1639 CircleF
1744 1803 CircleF
3799 3332 CircleF
4010 3495 CircleF
2630 782 CircleF
2841 944 CircleF
6279 336 CircleF
6449 466 CircleF
5676 3513 CircleF
5864 3657 CircleF
4547 847 CircleF
4681 950 CircleF
1174 458 CircleF
1306 560 CircleF
2558 1480 CircleF
2720 1605 CircleF
3363 1905 CircleF
3505 2014 CircleF
4670 4664 CircleF
4844 4797 CircleF
5860 1439 CircleF
6065 1596 CircleF
4571 4041 CircleF
4724 4159 CircleF
5349 4073 CircleF
5522 4206 CircleF
1744 1587 CircleF
1950 1745 CircleF
5755 1846 CircleF
5884 1945 CircleF
6494 973 CircleF
6726 1150 CircleF
4865 2898 CircleF
5077 3061 CircleF
6600 3510 CircleF
6822 3681 CircleF
4517 2774 CircleF
4691 2908 CircleF
2207 2745 CircleF
2392 2887 CircleF
5569 4336 CircleF
5782 4500 CircleF
1147 2979 CircleF
1292 3091 CircleF
6110 784 CircleF
6309 937 CircleF
5428 1743 CircleF
5623 1893 CircleF
6599 3975 CircleF
6802 4130 CircleF
1187 1410 CircleF
1342 1528 CircleF
5195 4214 CircleF
5419 4385 CircleF
4609 1264 CircleF
4834 1437 CircleF
4325 1645 CircleF
4522 1797 CircleF
6243 1848 CircleF
6432 1993 CircleF
2955 1850 CircleF
3162 2009 CircleF
6183 4462 CircleF
6353 4592 CircleF
4699 1393 CircleF
4865 1520 CircleF
4544 2989 CircleF
4741 3140 CircleF
5203 512 CircleF
5378 647 CircleF
6426 289 CircleF
6657 466 CircleF
2195 1300 CircleF
2327 1401 CircleF
5823 775 CircleF
5973 890 CircleF
5581 499 CircleF
5743 623 CircleF
3334 3961 CircleF
3484 4075 CircleF
4014 1018 CircleF
4190 1153 CircleF
2376 3912 CircleF
2561 4054 CircleF
5136 4520 CircleF
5260 4615 CircleF
2860 3158 CircleF
3013 3276 CircleF
4320 4159 CircleF
4551 4336 CircleF
4725 2999 CircleF
4938 3161 CircleF
6261 3055 CircleF
6423 3179 CircleF
5380 2010 CircleF
5596 2176 CircleF
3337 837 CircleF
3574 1019 CircleF
4080 3547 CircleF
4258 3683 CircleF
6424 3582 CircleF
6638 3747 CircleF
2693 3858 CircleF
2929 4040 CircleF
3700 4017 CircleF
3923 4188 CircleF
4870 3258 CircleF
5059 3403 CircleF
1484 311 CircleF
1633 425 CircleF
2752 2839 CircleF
2924 2972 CircleF
3262 535 CircleF
3451 679 CircleF
5228 4305 CircleF
5403 4439 CircleF
5299 4238 CircleF
5514 4403 CircleF
5931 2540 CircleF
6138 2699 CircleF
4728 1218 CircleF
4964 1399 CircleF
3890 2658 CircleF
4024 2762 CircleF
3869 4407 CircleF
4047 4544 CircleF
6212 1220 CircleF
6352 1328 CircleF
3199 3371 CircleF
3364 3497 CircleF
4802 3173 CircleF
4934 3274 CircleF
2254 961 CircleF
2455 1116 CircleF
5620 1492 CircleF
5756 1597 CircleF
4019 1535 CircleF
4231 1698 CircleF
5632 3601 CircleF
5832 3755 CircleF
6291 1303 CircleF
6444 1421 CircleF
1590 2419 CircleF
1720 2519 CircleF
6437 3988 CircleF
6631 4137 CircleF
2049 1227 CircleF
2254 1385 CircleF
3781 2842 CircleF
3959 2978 CircleF
3198 4058 CircleF
3422 4231 CircleF
2639 3284 CircleF
2823 3426 CircleF
4258 2835 CircleF
4432 2968 CircleF
4124 3401 CircleF
4257 3503 CircleF
3424 4037 CircleF
3572 4151 CircleF
3467 3001 CircleF
3697 3178 CircleF
5922 3149 CircleF
6142 3318 CircleF
3521 896 CircleF
3706 1038 CircleF
6552 4568 CircleF
6755 4724 CircleF
3475 2112 CircleF
3621 2225 CircleF
4493 3238 CircleF
4615 3331 CircleF
2051 476 CircleF
2253 631 CircleF
5468 389 CircleF
5671 545 CircleF
4859 3551 CircleF
4990 3652 CircleF
2136 3179 CircleF
2326 3325 CircleF
4471 1321 CircleF
4665 1470 CircleF
1127 2801 CircleF
1342 2966 CircleF
6642 2413 CircleF
6862 2582 CircleF
3128 2372 CircleF
3293 2498 CircleF
4614 2123 CircleF
4773 2245 CircleF
3723 1553 CircleF
3872 1668 CircleF
1566 2460 CircleF
1794 2635 CircleF
1646 3408 CircleF
1773 3505 CircleF
1263 1195 CircleF
1490 1370 CircleF
2506 2104 CircleF
2718 2267 CircleF
6045 514 CircleF
6172 611 CircleF
2176 2953 CircleF
2373 3105 CircleF
5556 3533 CircleF
5697 3641 CircleF
2215 3004 CircleF
2383 3133 CircleF
1744 4428 CircleF
1940 4579 CircleF
5796 3463 CircleF
5961 3589 CircleF
5432 1327 CircleF
5567 1430 CircleF
2479 3220 CircleF
2602 3315 CircleF
3487 1356 CircleF
3633 1469 CircleF
2995 799 CircleF
3225 976 CircleF
5003 3462 CircleF
5215 3625 CircleF
1560 570 CircleF
1688 668 CircleF
2997 4437 CircleF
3187 4583 CircleF
3871 4183 CircleF
4046 4318 CircleF
2814 4448 CircleF
2971 4569 CircleF
1484 4046 CircleF
1617 4148 CircleF
4114 1162 CircleF
4321 1321 CircleF
4739 3745 CircleF
4956 3911 CircleF
6055 4669 CircleF
6178 4763 CircleF
2911 1273 CircleF
3051 1381 CircleF
3527 3709 CircleF
3721 3858 CircleF
6424 1949 CircleF
6579 2068 CircleF
4344 2926 CircleF
4542 3078 CircleF
5490 4079 CircleF
5671 4218 CircleF
6027 2726 CircleF
6184 2846 CircleF
1254 1687 CircleF
1486 1865 CircleF
3386 2524 CircleF
3563 2660 CircleF
5683 4141 CircleF
5803 4233 CircleF
1104 475 CircleF
1238 578 CircleF
2187 1515 CircleF
2423 1697 CircleF
3834 2768 CircleF
4004 2899 CircleF
6534 1728 CircleF
6660 1825 CircleF
6696 3223 CircleF
6818 3317 CircleF
4760 3834 CircleF
4957 3985 CircleF
3114 894 CircleF
3312 1045 CircleF
5502 1282 CircleF
5645 1392 CircleF
3263 1715 CircleF
3443 1854 CircleF
3144 4173 CircleF
3345 4326 CircleF
3173 1939 CircleF
3338 2065 CircleF
2221 4047 CircleF
2360 4153 CircleF
5765 3142 CircleF
5943 3279 CircleF
4763 3657 CircleF
4952 3802 CircleF
1182 2062 CircleF
1385 2218 CircleF
5049 2499 CircleF
5241 2647 CircleF
1089 2627 CircleF
1296 2785 CircleF
6147 1445 CircleF
6267 1537 CircleF
1436 1018 CircleF
1558 1111 CircleF
3055 843 CircleF
3226 974 CircleF
6558 2047 CircleF
6794 2228 CircleF
6681 2009 CircleF
6868 2152 CircleF
4246 569 CircleF
4474 744 CircleF
4090 3547 CircleF
4309 3715 CircleF
1724 2579 CircleF
1879 2698 CircleF
4436 2071 CircleF
4609 2204 CircleF
3126 1599 CircleF
3308 1739 CircleF
2908 1712 CircleF
3123 1877 CircleF
4353 3237 CircleF
4577 3409 CircleF
5538 431 CircleF
5678 539 CircleF
5869 3070 CircleF
6008 3177 CircleF
2354 2504 CircleF
2585 2681 CircleF
5408 4506 CircleF
5605 4656 CircleF
5018 389 CircleF
5187 519 CircleF
6536 533 CircleF
6770 713 CircleF
4655 2950 CircleF
4882 3124 CircleF
2845 808 CircleF
3011 935 CircleF
5491 3366 CircleF
5665 3499 CircleF
4879 300 CircleF
5001 394 CircleF
1477 4350 CircleF
1632 4469 CircleF
1912 2498 CircleF
2095 2638 CircleF
5226 4077 CircleF
5361 4181 CircleF
5707 1943 CircleF
5865 2064 CircleF
2827 418 CircleF
3012 560 CircleF
3939 1626 CircleF
4096 1746 CircleF
2353 3704 CircleF
2525 3837 CircleF
2411 4176 CircleF
2634 4347 CircleF
5569 2094 CircleF
5797 2269 CircleF
1087 1897 CircleF
1312 2070 CircleF
5581 1210 CircleF
5714 1312 CircleF
2722 1364 CircleF
2934 1526 CircleF
6006 3563 CircleF
6142 3667 CircleF
5615 2365 CircleF
5804 2510 CircleF
5591 2960 CircleF
5745 3078 CircleF
2670 4237 CircleF
2880 4398 CircleF
3294 846 CircleF
3528 1025 CircleF
5605 2152 CircleF
5838 2331 CircleF
5315 4241 CircleF
5485 4371 CircleF
1520 2019 CircleF
1675 2138 CircleF
4848 4491 CircleF
5074 4664 CircleF
2172 4606 CircleF
2362 4752 CircleF
5278 3434 CircleF
5433 3553 CircleF
3223 782 CircleF
3419 933 CircleF
3671 521 CircleF
3833 645 CircleF
1883 1418 CircleF
2102 1586 CircleF
3739 1542 CircleF
3959 1711 CircleF
5931 3210 CircleF
6166 3390 CircleF
983 516 CircleF
1197 680 CircleF
1440 2308 CircleF
1599 2430 CircleF
2443 3788 CircleF
2636 3936 CircleF
3746 2401 CircleF
3884 2507 CircleF
6066 457 CircleF
6292 630 CircleF
5752 530 CircleF
5897 642 CircleF
5228 2091 CircleF
5402 2225 CircleF
1725 1140 CircleF
1907 1280 CircleF
4822 2493 CircleF
4997 2627 CircleF
3073 586 CircleF
3248 721 CircleF
5247 4516 CircleF
5461 4680 CircleF
5895 1382 CircleF
6128 1560 CircleF
4784 1727 CircleF
4964 1865 CircleF
4458 735 CircleF
4689 913 CircleF
3107 4117 CircleF
3285 4253 CircleF
3224 2447 CircleF
3369 2558 CircleF
4159 1689 CircleF
4362 1845 CircleF
4327 392 CircleF
4465 497 CircleF
3390 3876 CircleF
3585 4025 CircleF
3473 4172 CircleF
3652 4309 CircleF
1519 4455 CircleF
1718 4608 CircleF
5199 4053 CircleF
5394 4204 CircleF
3233 4378 CircleF
3369 4482 CircleF
2762 883 CircleF
2968 1040 CircleF
5120 1940 CircleF
5303 2081 CircleF
6286 3846 CircleF
6448 3970 CircleF
1355 3375 CircleF
1523 3504 CircleF
5077 872 CircleF
5299 1043 CircleF
2059 3202 CircleF
2214 3321 CircleF
1799 3412 CircleF
2021 3583 CircleF
5007 2977 CircleF
5241 3156 CircleF
4800 2261 CircleF
4958 2382 CircleF
2239 967 CircleF
2412 1100 CircleF
2949 4020 CircleF
3073 4115 CircleF
1324 2196 CircleF
1521 2347 CircleF
6476 3678 CircleF
6599 3772 CircleF
2419 2151 CircleF
2551 2252 CircleF
5473 4249 CircleF
5646 4382 CircleF
4821 359 CircleF
4999 496 CircleF
1142 723 CircleF
1367 895 CircleF
3394 2956 CircleF
3540 3068 CircleF
6391 946 CircleF
6546 1064 CircleF
3816 1339 CircleF
3973 1459 CircleF
4434 3755 CircleF
4659 3928 CircleF
4836 3467 CircleF
4959 3562 CircleF
4134 306 CircleF
4286 422 CircleF
1972 2313 CircleF
2125 2431 CircleF
1112 1136 CircleF
1240 1234 CircleF
1928 3652 CircleF
2164 3833 CircleF
2151 4456 CircleF
2292 4564 CircleF
2756 3727 CircleF
2877 3819 CircleF
6099 4550 CircleF
6334 4730 CircleF
2463 2418 CircleF
2660 2570 CircleF
5507 2669 CircleF
5712 2826 CircleF
1656 1968 CircleF
1812 2089 CircleF
3516 4516 CircleF
3728 4678 CircleF
3084 3606 CircleF
3276 3753 CircleF
1665 1479 CircleF
1827 1603 CircleF
4854 4510 CircleF
5020 4637 CircleF
1630 3938 CircleF
1786 4057 CircleF
2575 1681 CircleF
2728 1799 CircleF
2674 3345 CircleF
2876 3500 CircleF
5706 1634 CircleF
5827 1727 CircleF
6632 1249 CircleF
6841 1409 CircleF
2652 2720 CircleF
2848 2871 CircleF
4147 1615 CircleF
4335 1760 CircleF
5117 3038 CircleF
5273 3158 CircleF
5220 4334 CircleF
5346 4431 CircleF
4157 1658 CircleF
4335 1795 CircleF
5509 2012 CircleF
5698 2157 CircleF
5273 3336 CircleF
5414 3444 CircleF
5593 2748 CircleF
5756 2873 CircleF
5768 502 CircleF
5996 678 CircleF
2585 2261 CircleF
2719 2365 CircleF
3414 647 CircleF
3575 771 CircleF
5205 2425 CircleF
5419 2589 CircleF
3624 1097 CircleF
3763 1203 CircleF
5238 2816 CircleF
5459 2986 CircleF
3703 2831 CircleF
3926 3002 CircleF
4274 1952 CircleF
4432 2074 CircleF
1233 3412 CircleF
1400 3540 CircleF
1198 3536 CircleF
1319 3628 CircleF
2576 2756 CircleF
2731 2875 CircleF
1534 928 CircleF
1724 1074 CircleF
4659 482 CircleF
4803 592 CircleF
6396 2958 CircleF
6537 3067 CircleF
3762 938 CircleF
3941 1076 CircleF
1301 4150 CircleF
1512 4313 CircleF
5563 1497 CircleF
5688 1594 CircleF
3189 1793 CircleF
3338 1907 CircleF
4579 1190 CircleF
4757 1327 CircleF
2215 2983 CircleF
2336 3076 CircleF
5529 2862 CircleF
5663 2964 CircleF
2927 3292 CircleF
3139 3455 CircleF
6232 987 CircleF
6418 1130 CircleF
4936 2095 CircleF
5105 2225 CircleF
4273 2673 CircleF
4419 2785 CircleF
5360 2933 CircleF
5491 3034 CircleF
6027 2067 CircleF
6235 2227 CircleF
4200 3587 CircleF
4323 3680 CircleF
4082 1195 CircleF
4279 1346 CircleF
4390 1754 CircleF
4533 1864 CircleF
6132 3175 CircleF
6325 3323 CircleF
3622 3814 CircleF
3776 3933 CircleF
6076 2299 CircleF
6256 2437 CircleF
1294 635 CircleF
1511 801 CircleF
4303 3255 CircleF
4491 3399 CircleF
1272 3322 CircleF
1400 3420 CircleF
4498 499 CircleF
4726 675 CircleF
1575 1411 CircleF
1702 1509 CircleF
4548 2912 CircleF
4760 3074 CircleF
4937 3315 CircleF
5154 3482 CircleF
1951 2093 CircleF
2102 2209 CircleF
4641 3352 CircleF
4864 3523 CircleF
4147 2725 CircleF
4274 2822 CircleF
5978 3520 CircleF
6141 3645 CircleF
2658 1314 CircleF
2812 1433 CircleF
3048 2121 CircleF
3279 2299 CircleF
1657 4012 CircleF
1891 4192 CircleF
4701 4041 CircleF
4920 4209 CircleF
2161 1700 CircleF
2322 1823 CircleF
1378 3904 CircleF
1508 4004 CircleF
1937 1285 CircleF
2098 1409 CircleF
4324 3045 CircleF
4522 3197 CircleF
6058 3588 CircleF
6211 3705 CircleF
3840 3385 CircleF
4007 3514 CircleF
5372 3233 CircleF
5509 3339 CircleF
3943 1701 CircleF
4072 1800 CircleF
3497 3220 CircleF
3731 3399 CircleF
5455 1850 CircleF
5661 2008 CircleF
5652 2944 CircleF
5859 3103 CircleF
6572 1485 CircleF
6805 1663 CircleF
2308 2985 CircleF
2512 3142 CircleF
5845 1503 CircleF
5968 1597 CircleF
2504 4308 CircleF
2668 4433 CircleF
5197 2607 CircleF
5358 2731 CircleF
1129 1675 CircleF
1264 1779 CircleF
1343 2171 CircleF
1534 2317 CircleF
5942 3109 CircleF
6115 3242 CircleF
2377 3327 CircleF
2522 3439 CircleF
4454 3991 CircleF
4577 4086 CircleF
3548 4001 CircleF
3743 4151 CircleF
2469 1355 CircleF
2619 1471 CircleF
2653 3826 CircleF
2851 3978 CircleF
1517 454 CircleF
1657 561 CircleF
5806 294 CircleF
5930 389 CircleF
6376 1319 CircleF
6611 1499 CircleF
4395 3817 CircleF
4561 3945 CircleF
4327 775 CircleF
4531 932 CircleF
1169 3237 CircleF
1368 3390 CircleF
1815 2626 CircleF
1959 2736 CircleF
2570 1555 CircleF
2729 1678 CircleF
2093 3990 CircleF
2213 4083 CircleF
3837 3202 CircleF
4044 3361 CircleF
4450 4388 CircleF
4586 4493 CircleF
4063 671 CircleF
4186 766 CircleF
4882 303 CircleF
5063 442 CircleF
4581 371 CircleF
4773 518 CircleF
2074 4080 CircleF
2311 4261 CircleF
3796 3253 CircleF
3930 3356 CircleF
2183 3375 CircleF
2382 3528 CircleF
3725 517 CircleF
3846 610 CircleF
6642 4486 CircleF
6856 4650 CircleF
2567 1083 CircleF
2784 1249 CircleF
6469 4634 CircleF
6685 4800 CircleF
6198 592 CircleF
6349 707 CircleF
1576 3964 CircleF
1795 4132 CircleF
3128 3851 CircleF
3345 4017 CircleF
5235 377 CircleF
5402 504 CircleF
5819 1166 CircleF
6014 1315 CircleF
5787 579 CircleF
5977 724 CircleF
4804 3594 CircleF
5029 3766 CircleF
1879 3195 CircleF
2037 3316 CircleF
4940 2154 CircleF
5164 2325 CircleF
2834 499 CircleF
3066 677 CircleF
1840 446 CircleF
2008 574 CircleF
6594 360 CircleF
6812 527 CircleF
1747 1952 CircleF
1961 2117 CircleF
5998 1179 CircleF
6152 1298 CircleF
5304 3399 CircleF
5439 3503 CircleF
5007 4618 CircleF
5189 4758 CircleF
5239 3802 CircleF
5373 3904 CircleF
3906 1218 CircleF
4078 1349 CircleF
5089 463 CircleF
5281 610 CircleF
2668 1581 CircleF
2874 1739 CircleF
3910 2347 CircleF
4102 2494 CircleF
1126 4355 CircleF
1344 4522 CircleF
4379 3974 CircleF
4556 4109 CircleF
1736 496 CircleF
1903 624 CircleF
3663 1099 CircleF
3888 1272 CircleF
3053 4262 CircleF
3256 4419 CircleF
6643 2666 CircleF
6848 2823 CircleF
2876 2683 CircleF
3094 2851 CircleF
2163 3209 CircleF
2378 3374 CircleF
5314 1415 CircleF
5488 1549 CircleF
1514 1149 CircleF
1642 1247 CircleF
1695 816 CircleF
1897 971 CircleF
1007 2998 CircleF
1220 3162 CircleF
4910 3002 CircleF
5121 3163 CircleF
2205 3196 CircleF
2406 3351 CircleF
3177 2512 CircleF
3341 2638 CircleF
4623 2685 CircleF
4859 2865 CircleF
2103 2708 CircleF
2326 2879 CircleF
6414 2434 CircleF
6537 2528 CircleF
3096 2565 CircleF
3246 2680 CircleF
3019 3029 CircleF
3244 3201 CircleF
5188 562 CircleF
5325 668 CircleF
3184 3483 CircleF
3318 3586 CircleF
5031 3106 CircleF
5253 3276 CircleF
1577 3571 CircleF
1789 3733 CircleF
2903 1245 CircleF
3023 1338 CircleF
4393 2204 CircleF
4559 2332 CircleF
5077 2463 CircleF
5241 2588 CircleF
4794 3410 CircleF
5007 3574 CircleF
4496 2220 CircleF
4697 2374 CircleF
4375 1001 CircleF
4529 1119 CircleF
4061 2512 CircleF
4201 2619 CircleF
5708 1654 CircleF
5902 1803 CircleF
1001 925 CircleF
1172 1056 CircleF
6426 2052 CircleF
6613 2195 CircleF
2993 1471 CircleF
3143 1585 CircleF
2710 1843 CircleF
2887 1979 CircleF
6254 1694 CircleF
6415 1817 CircleF
3319 3650 CircleF
3555 3831 CircleF
4784 2567 CircleF
4948 2693 CircleF
6059 2239 CircleF
6244 2382 CircleF
4192 3525 CircleF
4382 3671 CircleF
1057 3835 CircleF
1197 3942 CircleF
6597 909 CircleF
6809 1072 CircleF
5275 4392 CircleF
5435 4514 CircleF
6288 3237 CircleF
6492 3393 CircleF
1784 2951 CircleF
1928 3061 CircleF
5203 431 CircleF
5332 530 CircleF
5135 1868 CircleF
5271 1972 CircleF
2655 2987 CircleF
2892 3170 CircleF
6021 1293 CircleF
6197 1428 CircleF
3978 2723 CircleF
4148 2853 CircleF
4550 1880 CircleF
4727 2015 CircleF
1225 2667 CircleF
1451 2841 CircleF
5295 2679 CircleF
5485 2825 CircleF
977 542 CircleF
1211 723 CircleF
4746 3908 CircleF
4906 4031 CircleF
4467 1289 CircleF
4655 1434 CircleF
5397 3205 CircleF
5624 3379 CircleF
3188 3768 CircleF
3322 3870 CircleF
4805 2633 CircleF
5006 2787 CircleF
5860 4319 CircleF
6055 4468 CircleF
4718 621 CircleF
4927 780 CircleF
5579 1629 CircleF
5811 1807 CircleF
5802 2076 CircleF
6028 2250 CircleF
4221 1253 CircleF
4385 1379 CircleF
1981 3034 CircleF
2144 3160 CircleF
1705 2495 CircleF
1826 2588 CircleF
1916 329 CircleF
2046 429 CircleF
3548 1020 CircleF
3715 1148 CircleF
2587 2907 CircleF
2783 3057 CircleF
2384 3693 CircleF
2587 3849 CircleF
2761 3685 CircleF
2926 3812 CircleF
2335 690 CircleF
2551 856 CircleF
2016 4645 CircleF
2167 4761 CircleF
2447 1866 CircleF
2621 2000 CircleF
6297 772 CircleF
6438 880 CircleF
992 1321 CircleF
1179 1465 CircleF
2985 4500 CircleF
3123 4606 CircleF
1411 3527 CircleF
1625 3692 CircleF
5859 2409 CircleF
6019 2532 CircleF
2091 3575 CircleF
2308 3741 CircleF
3985 1477 CircleF
4130 1588 CircleF
4195 2332 CircleF
4333 2438 CircleF
3323 712 CircleF
3508 854 CircleF
1761 563 CircleF
1890 662 CircleF
3211 3465 CircleF
3373 3590 CircleF
5605 3278 CircleF
5796 3425 CircleF
4421 4391 CircleF
4627 4549 CircleF
4264 3360 CircleF
4432 3488 CircleF
5096 3391 CircleF
5300 3548 CircleF
3277 4166 CircleF
3424 4279 CircleF
4951 3594 CircleF
5101 3710 CircleF
1955 945 CircleF
2179 1117 CircleF
5991 4605 CircleF
6140 4720 CircleF
5342 1374 CircleF
5518 1510 CircleF
1829 854 CircleF
2027 1006 CircleF
3379 2874 CircleF
3586 3033 CircleF
3975 2126 CircleF
4169 2275 CircleF
5306 2087 CircleF
5496 2233 CircleF
5245 1351 CircleF
5396 1467 CircleF
2294 4311 CircleF
2527 4490 CircleF
1238 2262 CircleF
1397 2384 CircleF
1140 4580 CircleF
1319 4718 CircleF
5703 2380 CircleF
5859 2500 CircleF
1501 1811 CircleF
1624 1906 CircleF
1449 398 CircleF
1597 511 CircleF
5159 659 CircleF
5311 775 CircleF
1650 3911 CircleF
1811 4035 CircleF
5400 3140 CircleF
5615 3306 CircleF
1658 2974 CircleF
1808 3089 CircleF
4087 1121 CircleF
4241 1239 CircleF
6247 3107 CircleF
6396 3221 CircleF
4440 1607 CircleF
4611 1738 CircleF
6052 574 CircleF
6223 705 CircleF
3670 3943 CircleF
3849 4081 CircleF
4936 2608 CircleF
5079 2718 CircleF
977 1686 CircleF
1143 1814 CircleF
6305 2069 CircleF
6462 2189 CircleF
3005 1962 CircleF
3186 2100 CircleF
1042 1406 CircleF
1272 1583 CircleF
6044 3122 CircleF
6271 3296 CircleF
3804 4060 CircleF
4031 4235 CircleF
6626 624 CircleF
6854 799 CircleF
6557 714 CircleF
6749 862 CircleF
2859 4551 CircleF
3029 4682 CircleF
5230 2880 CircleF
5462 3057 CircleF
3410 605 CircleF
3546 710 CircleF
3227 3338 CircleF
3418 3484 CircleF
3650 2087 CircleF
3884 2266 CircleF
1692 568 CircleF
1865 701 CircleF
1720 2832 CircleF
1853 2934 CircleF
6197 2711 CircleF
6350 2828 CircleF
2175 4371 CircleF
2324 4485 CircleF
3737 3624 CircleF
3940 3780 CircleF
2120 4039 CircleF
2263 4149 CircleF
2929 787 CircleF
3078 901 CircleF
3727 1922 CircleF
3889 2047 CircleF
6000 2489 CircleF
6176 2624 CircleF
3147 3795 CircleF
3342 3945 CircleF
1852 938 CircleF
2042 1084 CircleF
2784 3726 CircleF
2967 3866 CircleF
5217 926 CircleF
5372 1045 CircleF
1421 4041 CircleF
1652 4218 CircleF
1235 857 CircleF
1366 957 CircleF
2963 4300 CircleF
3141 4436 CircleF
3053 3376 CircleF
3241 3521 CircleF
2108 2964 CircleF
2251 3074 CircleF
5205 3100 CircleF
5330 3196 CircleF
2853 4075 CircleF
3086 4254 CircleF
2773 4427 CircleF
2900 4525 CircleF
2642 2445 CircleF
2825 2586 CircleF
2727 2438 CircleF
2852 2534 CircleF
5961 3005 CircleF
6183 3175 CircleF
2461 3220 CircleF
2613 3337 CircleF
6673 4274 CircleF
6882 4434 CircleF
6078 4652 CircleF
6218 4759 CircleF
3162 4026 CircleF
3386 4198 CircleF
4199 3090 CircleF
4365 3218 CircleF
2466 1959 CircleF
2688 2129 CircleF
5423 1665 CircleF
5575 1781 CircleF
2601 3870 CircleF
2812 4032 CircleF
3355 1320 CircleF
3556 1475 CircleF
5387 2280 CircleF
5510 2374 CircleF
3417 2964 CircleF
3552 3067 CircleF
1364 3247 CircleF
1585 3416 CircleF
% End plot #2
1.000 UP
1.000 UL
LT0
0.50 0.50 0.50 C stroke
grestore
end
showpage
%%Trailer
%%DocumentFonts: Helvetica
%%Pages: 1
