%!PS-Adobe-2.0
%%Title: out.ps
%%Creator: gnuplot 4.6 patchlevel 6
%%CreationDate: Fri May 29 00:09:13 2015
%%DocumentFonts: (atend)
%%BoundingBox: 50 50 554 770
%%Orientation: Landscape
%%Pages: (atend)
%%EndComments
%%BeginProlog
/gnudict 256 dict def
gnudict begin
%
% The following true/false flags may be edited by hand if desired.
% The unit line width and grayscale image gamma correction may also be changed.
%
/Color false def
/Blacktext false def
/Solid false def
/Dashlength 1 def
/Landscape true def
/Level1 false def
/Rounded false def
/ClipToBoundingBox false def
/SuppressPDFMark false def
/TransparentPatterns false def
/gnulinewidth 5.000 def
/userlinewidth gnulinewidth def
/Gamma 1.0 def
/BackgroundColor {-1.000 -1.000 -1.000} def
%
/vshift -46 def
/dl1 {
  10.0 Dashlength mul mul
  Rounded { currentlinewidth 0.75 mul sub dup 0 le { pop 0.01 } if } if
} def
/dl2 {
  10.0 Dashlength mul mul
  Rounded { currentlinewidth 0.75 mul add } if
} def
/hpt_ 31.5 def
/vpt_ 31.5 def
/hpt hpt_ def
/vpt vpt_ def
/doclip {
  ClipToBoundingBox {
    newpath 50 50 moveto 554 50 lineto 554 770 lineto 50 770 lineto closepath
    clip
  } if
} def
%
% Gnuplot Prolog Version 4.6 (September 2012)
%
%/SuppressPDFMark true def
%
/M {moveto} bind def
/L {lineto} bind def
/R {rmoveto} bind def
/V {rlineto} bind def
/N {newpath moveto} bind def
/Z {closepath} bind def
/C {setrgbcolor} bind def
/f {rlineto fill} bind def
/g {setgray} bind def
/Gshow {show} def   % May be redefined later in the file to support UTF-8
/vpt2 vpt 2 mul def
/hpt2 hpt 2 mul def
/Lshow {currentpoint stroke M 0 vshift R 
	Blacktext {gsave 0 setgray show grestore} {show} ifelse} def
/Rshow {currentpoint stroke M dup stringwidth pop neg vshift R
	Blacktext {gsave 0 setgray show grestore} {show} ifelse} def
/Cshow {currentpoint stroke M dup stringwidth pop -2 div vshift R 
	Blacktext {gsave 0 setgray show grestore} {show} ifelse} def
/UP {dup vpt_ mul /vpt exch def hpt_ mul /hpt exch def
  /hpt2 hpt 2 mul def /vpt2 vpt 2 mul def} def
/DL {Color {setrgbcolor Solid {pop []} if 0 setdash}
 {pop pop pop 0 setgray Solid {pop []} if 0 setdash} ifelse} def
/BL {stroke userlinewidth 2 mul setlinewidth
	Rounded {1 setlinejoin 1 setlinecap} if} def
/AL {stroke userlinewidth 2 div setlinewidth
	Rounded {1 setlinejoin 1 setlinecap} if} def
/UL {dup gnulinewidth mul /userlinewidth exch def
	dup 1 lt {pop 1} if 10 mul /udl exch def} def
/PL {stroke userlinewidth setlinewidth
	Rounded {1 setlinejoin 1 setlinecap} if} def
3.8 setmiterlimit
% Default Line colors
/LCw {1 1 1} def
/LCb {0 0 0} def
/LCa {0 0 0} def
/LC0 {1 0 0} def
/LC1 {0 1 0} def
/LC2 {0 0 1} def
/LC3 {1 0 1} def
/LC4 {0 1 1} def
/LC5 {1 1 0} def
/LC6 {0 0 0} def
/LC7 {1 0.3 0} def
/LC8 {0.5 0.5 0.5} def
% Default Line Types
/LTw {PL [] 1 setgray} def
/LTb {BL [] LCb DL} def
/LTa {AL [1 udl mul 2 udl mul] 0 setdash LCa setrgbcolor} def
/LT0 {PL [] LC0 DL} def
/LT1 {PL [4 dl1 2 dl2] LC1 DL} def
/LT2 {PL [2 dl1 3 dl2] LC2 DL} def
/LT3 {PL [1 dl1 1.5 dl2] LC3 DL} def
/LT4 {PL [6 dl1 2 dl2 1 dl1 2 dl2] LC4 DL} def
/LT5 {PL [3 dl1 3 dl2 1 dl1 3 dl2] LC5 DL} def
/LT6 {PL [2 dl1 2 dl2 2 dl1 6 dl2] LC6 DL} def
/LT7 {PL [1 dl1 2 dl2 6 dl1 2 dl2 1 dl1 2 dl2] LC7 DL} def
/LT8 {PL [2 dl1 2 dl2 2 dl1 2 dl2 2 dl1 2 dl2 2 dl1 4 dl2] LC8 DL} def
/Pnt {stroke [] 0 setdash gsave 1 setlinecap M 0 0 V stroke grestore} def
/Dia {stroke [] 0 setdash 2 copy vpt add M
  hpt neg vpt neg V hpt vpt neg V
  hpt vpt V hpt neg vpt V closepath stroke
  Pnt} def
/Pls {stroke [] 0 setdash vpt sub M 0 vpt2 V
  currentpoint stroke M
  hpt neg vpt neg R hpt2 0 V stroke
 } def
/Box {stroke [] 0 setdash 2 copy exch hpt sub exch vpt add M
  0 vpt2 neg V hpt2 0 V 0 vpt2 V
  hpt2 neg 0 V closepath stroke
  Pnt} def
/Crs {stroke [] 0 setdash exch hpt sub exch vpt add M
  hpt2 vpt2 neg V currentpoint stroke M
  hpt2 neg 0 R hpt2 vpt2 V stroke} def
/TriU {stroke [] 0 setdash 2 copy vpt 1.12 mul add M
  hpt neg vpt -1.62 mul V
  hpt 2 mul 0 V
  hpt neg vpt 1.62 mul V closepath stroke
  Pnt} def
/Star {2 copy Pls Crs} def
/BoxF {stroke [] 0 setdash exch hpt sub exch vpt add M
  0 vpt2 neg V hpt2 0 V 0 vpt2 V
  hpt2 neg 0 V closepath fill} def
/TriUF {stroke [] 0 setdash vpt 1.12 mul add M
  hpt neg vpt -1.62 mul V
  hpt 2 mul 0 V
  hpt neg vpt 1.62 mul V closepath fill} def
/TriD {stroke [] 0 setdash 2 copy vpt 1.12 mul sub M
  hpt neg vpt 1.62 mul V
  hpt 2 mul 0 V
  hpt neg vpt -1.62 mul V closepath stroke
  Pnt} def
/TriDF {stroke [] 0 setdash vpt 1.12 mul sub M
  hpt neg vpt 1.62 mul V
  hpt 2 mul 0 V
  hpt neg vpt -1.62 mul V closepath fill} def
/DiaF {stroke [] 0 setdash vpt add M
  hpt neg vpt neg V hpt vpt neg V
  hpt vpt V hpt neg vpt V closepath fill} def
/Pent {stroke [] 0 setdash 2 copy gsave
  translate 0 hpt M 4 {72 rotate 0 hpt L} repeat
  closepath stroke grestore Pnt} def
/PentF {stroke [] 0 setdash gsave
  translate 0 hpt M 4 {72 rotate 0 hpt L} repeat
  closepath fill grestore} def
/Circle {stroke [] 0 setdash 2 copy
  hpt 0 360 arc stroke Pnt} def
/CircleF {stroke [] 0 setdash hpt 0 360 arc fill} def
/C0 {BL [] 0 setdash 2 copy moveto vpt 90 450 arc} bind def
/C1 {BL [] 0 setdash 2 copy moveto
	2 copy vpt 0 90 arc closepath fill
	vpt 0 360 arc closepath} bind def
/C2 {BL [] 0 setdash 2 copy moveto
	2 copy vpt 90 180 arc closepath fill
	vpt 0 360 arc closepath} bind def
/C3 {BL [] 0 setdash 2 copy moveto
	2 copy vpt 0 180 arc closepath fill
	vpt 0 360 arc closepath} bind def
/C4 {BL [] 0 setdash 2 copy moveto
	2 copy vpt 180 270 arc closepath fill
	vpt 0 360 arc closepath} bind def
/C5 {BL [] 0 setdash 2 copy moveto
	2 copy vpt 0 90 arc
	2 copy moveto
	2 copy vpt 180 270 arc closepath fill
	vpt 0 360 arc} bind def
/C6 {BL [] 0 setdash 2 copy moveto
	2 copy vpt 90 270 arc closepath fill
	vpt 0 360 arc closepath} bind def
/C7 {BL [] 0 setdash 2 copy moveto
	2 copy vpt 0 270 arc closepath fill
	vpt 0 360 arc closepath} bind def
/C8 {BL [] 0 setdash 2 copy moveto
	2 copy vpt 270 360 arc closepath fill
	vpt 0 360 arc closepath} bind def
/C9 {BL [] 0 setdash 2 copy moveto
	2 copy vpt 270 450 arc closepath fill
	vpt 0 360 arc closepath} bind def
/C10 {BL [] 0 setdash 2 copy 2 copy moveto vpt 270 360 arc closepath fill
	2 copy moveto
	2 copy vpt 90 180 arc closepath fill
	vpt 0 360 arc closepath} bind def
/C11 {BL [] 0 setdash 2 copy moveto
	2 copy vpt 0 180 arc closepath fill
	2 copy moveto
	2 copy vpt 270 360 arc closepath fill
	vpt 0 360 arc closepath} bind def
/C12 {BL [] 0 setdash 2 copy moveto
	2 copy vpt 180 360 arc closepath fill
	vpt 0 360 arc closepath} bind def
/C13 {BL [] 0 setdash 2 copy moveto
	2 copy vpt 0 90 arc closepath fill
	2 copy moveto
	2 copy vpt 180 360 arc closepath fill
	vpt 0 360 arc closepath} bind def
/C14 {BL [] 0 setdash 2 copy moveto
	2 copy vpt 90 360 arc closepath fill
	vpt 0 360 arc} bind def
/C15 {BL [] 0 setdash 2 copy vpt 0 360 arc closepath fill
	vpt 0 360 arc closepath} bind def
/Rec {newpath 4 2 roll moveto 1 index 0 rlineto 0 exch rlineto
	neg 0 rlineto closepath} bind def
/Square {dup Rec} bind def
/Bsquare {vpt sub exch vpt sub exch vpt2 Square} bind def
/S0 {BL [] 0 setdash 2 copy moveto 0 vpt rlineto BL Bsquare} bind def
/S1 {BL [] 0 setdash 2 copy vpt Square fill Bsquare} bind def
/S2 {BL [] 0 setdash 2 copy exch vpt sub exch vpt Square fill Bsquare} bind def
/S3 {BL [] 0 setdash 2 copy exch vpt sub exch vpt2 vpt Rec fill Bsquare} bind def
/S4 {BL [] 0 setdash 2 copy exch vpt sub exch vpt sub vpt Square fill Bsquare} bind def
/S5 {BL [] 0 setdash 2 copy 2 copy vpt Square fill
	exch vpt sub exch vpt sub vpt Square fill Bsquare} bind def
/S6 {BL [] 0 setdash 2 copy exch vpt sub exch vpt sub vpt vpt2 Rec fill Bsquare} bind def
/S7 {BL [] 0 setdash 2 copy exch vpt sub exch vpt sub vpt vpt2 Rec fill
	2 copy vpt Square fill Bsquare} bind def
/S8 {BL [] 0 setdash 2 copy vpt sub vpt Square fill Bsquare} bind def
/S9 {BL [] 0 setdash 2 copy vpt sub vpt vpt2 Rec fill Bsquare} bind def
/S10 {BL [] 0 setdash 2 copy vpt sub vpt Square fill 2 copy exch vpt sub exch vpt Square fill
	Bsquare} bind def
/S11 {BL [] 0 setdash 2 copy vpt sub vpt Square fill 2 copy exch vpt sub exch vpt2 vpt Rec fill
	Bsquare} bind def
/S12 {BL [] 0 setdash 2 copy exch vpt sub exch vpt sub vpt2 vpt Rec fill Bsquare} bind def
/S13 {BL [] 0 setdash 2 copy exch vpt sub exch vpt sub vpt2 vpt Rec fill
	2 copy vpt Square fill Bsquare} bind def
/S14 {BL [] 0 setdash 2 copy exch vpt sub exch vpt sub vpt2 vpt Rec fill
	2 copy exch vpt sub exch vpt Square fill Bsquare} bind def
/S15 {BL [] 0 setdash 2 copy Bsquare fill Bsquare} bind def
/D0 {gsave translate 45 rotate 0 0 S0 stroke grestore} bind def
/D1 {gsave translate 45 rotate 0 0 S1 stroke grestore} bind def
/D2 {gsave translate 45 rotate 0 0 S2 stroke grestore} bind def
/D3 {gsave translate 45 rotate 0 0 S3 stroke grestore} bind def
/D4 {gsave translate 45 rotate 0 0 S4 stroke grestore} bind def
/D5 {gsave translate 45 rotate 0 0 S5 stroke grestore} bind def
/D6 {gsave translate 45 rotate 0 0 S6 stroke grestore} bind def
/D7 {gsave translate 45 rotate 0 0 S7 stroke grestore} bind def
/D8 {gsave translate 45 rotate 0 0 S8 stroke grestore} bind def
/D9 {gsave translate 45 rotate 0 0 S9 stroke grestore} bind def
/D10 {gsave translate 45 rotate 0 0 S10 stroke grestore} bind def
/D11 {gsave translate 45 rotate 0 0 S11 stroke grestore} bind def
/D12 {gsave translate 45 rotate 0 0 S12 stroke grestore} bind def
/D13 {gsave translate 45 rotate 0 0 S13 stroke grestore} bind def
/D14 {gsave translate 45 rotate 0 0 S14 stroke grestore} bind def
/D15 {gsave translate 45 rotate 0 0 S15 stroke grestore} bind def
/DiaE {stroke [] 0 setdash vpt add M
  hpt neg vpt neg V hpt vpt neg V
  hpt vpt V hpt neg vpt V closepath stroke} def
/BoxE {stroke [] 0 setdash exch hpt sub exch vpt add M
  0 vpt2 neg V hpt2 0 V 0 vpt2 V
  hpt2 neg 0 V closepath stroke} def
/TriUE {stroke [] 0 setdash vpt 1.12 mul add M
  hpt neg vpt -1.62 mul V
  hpt 2 mul 0 V
  hpt neg vpt 1.62 mul V closepath stroke} def
/TriDE {stroke [] 0 setdash vpt 1.12 mul sub M
  hpt neg vpt 1.62 mul V
  hpt 2 mul 0 V
  hpt neg vpt -1.62 mul V closepath stroke} def
/PentE {stroke [] 0 setdash gsave
  translate 0 hpt M 4 {72 rotate 0 hpt L} repeat
  closepath stroke grestore} def
/CircE {stroke [] 0 setdash 
  hpt 0 360 arc stroke} def
/Opaque {gsave closepath 1 setgray fill grestore 0 setgray closepath} def
/DiaW {stroke [] 0 setdash vpt add M
  hpt neg vpt neg V hpt vpt neg V
  hpt vpt V hpt neg vpt V Opaque stroke} def
/BoxW {stroke [] 0 setdash exch hpt sub exch vpt add M
  0 vpt2 neg V hpt2 0 V 0 vpt2 V
  hpt2 neg 0 V Opaque stroke} def
/TriUW {stroke [] 0 setdash vpt 1.12 mul add M
  hpt neg vpt -1.62 mul V
  hpt 2 mul 0 V
  hpt neg vpt 1.62 mul V Opaque stroke} def
/TriDW {stroke [] 0 setdash vpt 1.12 mul sub M
  hpt neg vpt 1.62 mul V
  hpt 2 mul 0 V
  hpt neg vpt -1.62 mul V Opaque stroke} def
/PentW {stroke [] 0 setdash gsave
  translate 0 hpt M 4 {72 rotate 0 hpt L} repeat
  Opaque stroke grestore} def
/CircW {stroke [] 0 setdash 
  hpt 0 360 arc Opaque stroke} def
/BoxFill {gsave Rec 1 setgray fill grestore} def
/Density {
  /Fillden exch def
  currentrgbcolor
  /ColB exch def /ColG exch def /ColR exch def
  /ColR ColR Fillden mul Fillden sub 1 add def
  /ColG ColG Fillden mul Fillden sub 1 add def
  /ColB ColB Fillden mul Fillden sub 1 add def
  ColR ColG ColB setrgbcolor} def
/BoxColFill {gsave Rec PolyFill} def
/PolyFill {gsave Density fill grestore grestore} def
/h {rlineto rlineto rlineto gsave closepath fill grestore} bind def
%
% PostScript Level 1 Pattern Fill routine for rectangles
% Usage: x y w h s a XX PatternFill
%	x,y = lower left corner of box to be filled
%	w,h = width and height of box
%	  a = angle in degrees between lines and x-axis
%	 XX = 0/1 for no/yes cross-hatch
%
/PatternFill {gsave /PFa [ 9 2 roll ] def
  PFa 0 get PFa 2 get 2 div add PFa 1 get PFa 3 get 2 div add translate
  PFa 2 get -2 div PFa 3 get -2 div PFa 2 get PFa 3 get Rec
  TransparentPatterns {} {gsave 1 setgray fill grestore} ifelse
  clip
  currentlinewidth 0.5 mul setlinewidth
  /PFs PFa 2 get dup mul PFa 3 get dup mul add sqrt def
  0 0 M PFa 5 get rotate PFs -2 div dup translate
  0 1 PFs PFa 4 get div 1 add floor cvi
	{PFa 4 get mul 0 M 0 PFs V} for
  0 PFa 6 get ne {
	0 1 PFs PFa 4 get div 1 add floor cvi
	{PFa 4 get mul 0 2 1 roll M PFs 0 V} for
 } if
  stroke grestore} def
%
/languagelevel where
 {pop languagelevel} {1} ifelse
 2 lt
	{/InterpretLevel1 true def}
	{/InterpretLevel1 Level1 def}
 ifelse
%
% PostScript level 2 pattern fill definitions
%
/Level2PatternFill {
/Tile8x8 {/PaintType 2 /PatternType 1 /TilingType 1 /BBox [0 0 8 8] /XStep 8 /YStep 8}
	bind def
/KeepColor {currentrgbcolor [/Pattern /DeviceRGB] setcolorspace} bind def
<< Tile8x8
 /PaintProc {0.5 setlinewidth pop 0 0 M 8 8 L 0 8 M 8 0 L stroke} 
>> matrix makepattern
/Pat1 exch def
<< Tile8x8
 /PaintProc {0.5 setlinewidth pop 0 0 M 8 8 L 0 8 M 8 0 L stroke
	0 4 M 4 8 L 8 4 L 4 0 L 0 4 L stroke}
>> matrix makepattern
/Pat2 exch def
<< Tile8x8
 /PaintProc {0.5 setlinewidth pop 0 0 M 0 8 L
	8 8 L 8 0 L 0 0 L fill}
>> matrix makepattern
/Pat3 exch def
<< Tile8x8
 /PaintProc {0.5 setlinewidth pop -4 8 M 8 -4 L
	0 12 M 12 0 L stroke}
>> matrix makepattern
/Pat4 exch def
<< Tile8x8
 /PaintProc {0.5 setlinewidth pop -4 0 M 8 12 L
	0 -4 M 12 8 L stroke}
>> matrix makepattern
/Pat5 exch def
<< Tile8x8
 /PaintProc {0.5 setlinewidth pop -2 8 M 4 -4 L
	0 12 M 8 -4 L 4 12 M 10 0 L stroke}
>> matrix makepattern
/Pat6 exch def
<< Tile8x8
 /PaintProc {0.5 setlinewidth pop -2 0 M 4 12 L
	0 -4 M 8 12 L 4 -4 M 10 8 L stroke}
>> matrix makepattern
/Pat7 exch def
<< Tile8x8
 /PaintProc {0.5 setlinewidth pop 8 -2 M -4 4 L
	12 0 M -4 8 L 12 4 M 0 10 L stroke}
>> matrix makepattern
/Pat8 exch def
<< Tile8x8
 /PaintProc {0.5 setlinewidth pop 0 -2 M 12 4 L
	-4 0 M 12 8 L -4 4 M 8 10 L stroke}
>> matrix makepattern
/Pat9 exch def
/Pattern1 {PatternBgnd KeepColor Pat1 setpattern} bind def
/Pattern2 {PatternBgnd KeepColor Pat2 setpattern} bind def
/Pattern3 {PatternBgnd KeepColor Pat3 setpattern} bind def
/Pattern4 {PatternBgnd KeepColor Landscape {Pat5} {Pat4} ifelse setpattern} bind def
/Pattern5 {PatternBgnd KeepColor Landscape {Pat4} {Pat5} ifelse setpattern} bind def
/Pattern6 {PatternBgnd KeepColor Landscape {Pat9} {Pat6} ifelse setpattern} bind def
/Pattern7 {PatternBgnd KeepColor Landscape {Pat8} {Pat7} ifelse setpattern} bind def
} def
%
%
%End of PostScript Level 2 code
%
/PatternBgnd {
  TransparentPatterns {} {gsave 1 setgray fill grestore} ifelse
} def
%
% Substitute for Level 2 pattern fill codes with
% grayscale if Level 2 support is not selected.
%
/Level1PatternFill {
/Pattern1 {0.250 Density} bind def
/Pattern2 {0.500 Density} bind def
/Pattern3 {0.750 Density} bind def
/Pattern4 {0.125 Density} bind def
/Pattern5 {0.375 Density} bind def
/Pattern6 {0.625 Density} bind def
/Pattern7 {0.875 Density} bind def
} def
%
% Now test for support of Level 2 code
%
Level1 {Level1PatternFill} {Level2PatternFill} ifelse
%
/Symbol-Oblique /Symbol findfont [1 0 .167 1 0 0] makefont
dup length dict begin {1 index /FID eq {pop pop} {def} ifelse} forall
currentdict end definefont pop
Level1 SuppressPDFMark or 
{} {
/SDict 10 dict def
systemdict /pdfmark known not {
  userdict /pdfmark systemdict /cleartomark get put
} if
SDict begin [
  /Title (out.ps)
  /Subject (gnuplot plot)
  /Creator (gnuplot 4.6 patchlevel 6)
  /Author (yani)
%  /Producer (gnuplot)
%  /Keywords ()
  /CreationDate (Fri May 29 00:09:13 2015)
  /DOCINFO pdfmark
end
} ifelse
end
%%EndProlog
%%Page: 1 1
gnudict begin
gsave
doclip
50 50 translate
0.100 0.100 scale
90 rotate
0 -5040 translate
0 setgray
newpath
(Helvetica) findfont 140 scalefont setfont
BackgroundColor 0 lt 3 1 roll 0 lt exch 0 lt or or not {gsave BackgroundColor C clippath fill grestore} if
1.000 UL
LT0
0.50 0.50 0.50 C 1.000 UL
LTa
0.50 0.50 0.50 C 966 280 M
5981 0 V
stroke
LT0
0.50 0.50 0.50 C 966 280 M
63 0 V
5918 0 R
-63 0 V
882 280 M
( 0) Rshow
1.000 UL
LT0
0.50 0.50 0.50 C 1.000 UL
LTa
0.50 0.50 0.50 C 966 326 M
5981 0 V
stroke
LT0
0.50 0.50 0.50 C 966 326 M
63 0 V
5918 0 R
-63 0 V
882 326 M
( 0.707106) Rshow
1.000 UL
LT0
0.50 0.50 0.50 C 1.000 UL
LTa
0.50 0.50 0.50 C 966 372 M
5981 0 V
stroke
LT0
0.50 0.50 0.50 C 966 372 M
63 0 V
5918 0 R
-63 0 V
882 372 M
( 1.41421) Rshow
1.000 UL
LT0
0.50 0.50 0.50 C 1.000 UL
LTa
0.50 0.50 0.50 C 966 418 M
5981 0 V
stroke
LT0
0.50 0.50 0.50 C 966 418 M
63 0 V
5918 0 R
-63 0 V
882 418 M
( 2.12132) Rshow
1.000 UL
LT0
0.50 0.50 0.50 C 1.000 UL
LTa
0.50 0.50 0.50 C 966 464 M
5981 0 V
stroke
LT0
0.50 0.50 0.50 C 966 464 M
63 0 V
5918 0 R
-63 0 V
882 464 M
( 2.82842) Rshow
1.000 UL
LT0
0.50 0.50 0.50 C 1.000 UL
LTa
0.50 0.50 0.50 C 966 510 M
5981 0 V
stroke
LT0
0.50 0.50 0.50 C 966 510 M
63 0 V
5918 0 R
-63 0 V
882 510 M
( 3.53553) Rshow
1.000 UL
LT0
0.50 0.50 0.50 C 1.000 UL
LTa
0.50 0.50 0.50 C 966 555 M
5981 0 V
stroke
LT0
0.50 0.50 0.50 C 966 555 M
63 0 V
5918 0 R
-63 0 V
882 555 M
( 4.24264) Rshow
1.000 UL
LT0
0.50 0.50 0.50 C 1.000 UL
LTa
0.50 0.50 0.50 C 966 601 M
5981 0 V
stroke
LT0
0.50 0.50 0.50 C 966 601 M
63 0 V
5918 0 R
-63 0 V
882 601 M
( 4.94974) Rshow
1.000 UL
LT0
0.50 0.50 0.50 C 1.000 UL
LTa
0.50 0.50 0.50 C 966 647 M
5981 0 V
stroke
LT0
0.50 0.50 0.50 C 966 647 M
63 0 V
5918 0 R
-63 0 V
882 647 M
( 5.65685) Rshow
1.000 UL
LT0
0.50 0.50 0.50 C 1.000 UL
LTa
0.50 0.50 0.50 C 966 693 M
5981 0 V
stroke
LT0
0.50 0.50 0.50 C 966 693 M
63 0 V
5918 0 R
-63 0 V
882 693 M
( 6.36395) Rshow
1.000 UL
LT0
0.50 0.50 0.50 C 1.000 UL
LTa
0.50 0.50 0.50 C 966 739 M
5981 0 V
stroke
LT0
0.50 0.50 0.50 C 966 739 M
63 0 V
5918 0 R
-63 0 V
882 739 M
( 7.07106) Rshow
1.000 UL
LT0
0.50 0.50 0.50 C 1.000 UL
LTa
0.50 0.50 0.50 C 966 785 M
5981 0 V
stroke
LT0
0.50 0.50 0.50 C 966 785 M
63 0 V
5918 0 R
-63 0 V
882 785 M
( 7.77817) Rshow
1.000 UL
LT0
0.50 0.50 0.50 C 1.000 UL
LTa
0.50 0.50 0.50 C 966 831 M
5981 0 V
stroke
LT0
0.50 0.50 0.50 C 966 831 M
63 0 V
5918 0 R
-63 0 V
882 831 M
( 8.48527) Rshow
1.000 UL
LT0
0.50 0.50 0.50 C 1.000 UL
LTa
0.50 0.50 0.50 C 966 877 M
5981 0 V
stroke
LT0
0.50 0.50 0.50 C 966 877 M
63 0 V
5918 0 R
-63 0 V
882 877 M
( 9.19238) Rshow
1.000 UL
LT0
0.50 0.50 0.50 C 1.000 UL
LTa
0.50 0.50 0.50 C 966 923 M
5981 0 V
stroke
LT0
0.50 0.50 0.50 C 966 923 M
63 0 V
5918 0 R
-63 0 V
882 923 M
( 9.89948) Rshow
1.000 UL
LT0
0.50 0.50 0.50 C 1.000 UL
LTa
0.50 0.50 0.50 C 966 969 M
5981 0 V
stroke
LT0
0.50 0.50 0.50 C 966 969 M
63 0 V
5918 0 R
-63 0 V
882 969 M
( 10.6066) Rshow
1.000 UL
LT0
0.50 0.50 0.50 C 1.000 UL
LTa
0.50 0.50 0.50 C 966 1015 M
5981 0 V
stroke
LT0
0.50 0.50 0.50 C 966 1015 M
63 0 V
5918 0 R
-63 0 V
-6002 0 R
( 11.3137) Rshow
1.000 UL
LT0
0.50 0.50 0.50 C 1.000 UL
LTa
0.50 0.50 0.50 C 966 1060 M
5981 0 V
stroke
LT0
0.50 0.50 0.50 C 966 1060 M
63 0 V
5918 0 R
-63 0 V
-6002 0 R
( 12.0208) Rshow
1.000 UL
LT0
0.50 0.50 0.50 C 1.000 UL
LTa
0.50 0.50 0.50 C 966 1106 M
5981 0 V
stroke
LT0
0.50 0.50 0.50 C 966 1106 M
63 0 V
5918 0 R
-63 0 V
-6002 0 R
( 12.7279) Rshow
1.000 UL
LT0
0.50 0.50 0.50 C 1.000 UL
LTa
0.50 0.50 0.50 C 966 1152 M
5981 0 V
stroke
LT0
0.50 0.50 0.50 C 966 1152 M
63 0 V
5918 0 R
-63 0 V
-6002 0 R
( 13.435) Rshow
1.000 UL
LT0
0.50 0.50 0.50 C 1.000 UL
LTa
0.50 0.50 0.50 C 966 1198 M
5981 0 V
stroke
LT0
0.50 0.50 0.50 C 966 1198 M
63 0 V
5918 0 R
-63 0 V
-6002 0 R
( 14.1421) Rshow
1.000 UL
LT0
0.50 0.50 0.50 C 1.000 UL
LTa
0.50 0.50 0.50 C 966 1244 M
5981 0 V
stroke
LT0
0.50 0.50 0.50 C 966 1244 M
63 0 V
5918 0 R
-63 0 V
-6002 0 R
( 14.8492) Rshow
1.000 UL
LT0
0.50 0.50 0.50 C 1.000 UL
LTa
0.50 0.50 0.50 C 966 1290 M
5981 0 V
stroke
LT0
0.50 0.50 0.50 C 966 1290 M
63 0 V
5918 0 R
-63 0 V
-6002 0 R
( 15.5563) Rshow
1.000 UL
LT0
0.50 0.50 0.50 C 1.000 UL
LTa
0.50 0.50 0.50 C 966 1336 M
5981 0 V
stroke
LT0
0.50 0.50 0.50 C 966 1336 M
63 0 V
5918 0 R
-63 0 V
-6002 0 R
( 16.2634) Rshow
1.000 UL
LT0
0.50 0.50 0.50 C 1.000 UL
LTa
0.50 0.50 0.50 C 966 1382 M
5981 0 V
stroke
LT0
0.50 0.50 0.50 C 966 1382 M
63 0 V
5918 0 R
-63 0 V
-6002 0 R
( 16.9705) Rshow
1.000 UL
LT0
0.50 0.50 0.50 C 1.000 UL
LTa
0.50 0.50 0.50 C 966 1428 M
5981 0 V
stroke
LT0
0.50 0.50 0.50 C 966 1428 M
63 0 V
5918 0 R
-63 0 V
-6002 0 R
( 17.6776) Rshow
1.000 UL
LT0
0.50 0.50 0.50 C 1.000 UL
LTa
0.50 0.50 0.50 C 966 1474 M
5981 0 V
stroke
LT0
0.50 0.50 0.50 C 966 1474 M
63 0 V
5918 0 R
-63 0 V
-6002 0 R
( 18.3848) Rshow
1.000 UL
LT0
0.50 0.50 0.50 C 1.000 UL
LTa
0.50 0.50 0.50 C 966 1520 M
5981 0 V
stroke
LT0
0.50 0.50 0.50 C 966 1520 M
63 0 V
5918 0 R
-63 0 V
-6002 0 R
( 19.0919) Rshow
1.000 UL
LT0
0.50 0.50 0.50 C 1.000 UL
LTa
0.50 0.50 0.50 C 966 1565 M
5981 0 V
stroke
LT0
0.50 0.50 0.50 C 966 1565 M
63 0 V
5918 0 R
-63 0 V
-6002 0 R
( 19.799) Rshow
1.000 UL
LT0
0.50 0.50 0.50 C 1.000 UL
LTa
0.50 0.50 0.50 C 966 1611 M
5981 0 V
stroke
LT0
0.50 0.50 0.50 C 966 1611 M
63 0 V
5918 0 R
-63 0 V
-6002 0 R
( 20.5061) Rshow
1.000 UL
LT0
0.50 0.50 0.50 C 1.000 UL
LTa
0.50 0.50 0.50 C 966 1657 M
5981 0 V
stroke
LT0
0.50 0.50 0.50 C 966 1657 M
63 0 V
5918 0 R
-63 0 V
-6002 0 R
( 21.2132) Rshow
1.000 UL
LT0
0.50 0.50 0.50 C 1.000 UL
LTa
0.50 0.50 0.50 C 966 1703 M
5981 0 V
stroke
LT0
0.50 0.50 0.50 C 966 1703 M
63 0 V
5918 0 R
-63 0 V
-6002 0 R
( 21.9203) Rshow
1.000 UL
LT0
0.50 0.50 0.50 C 1.000 UL
LTa
0.50 0.50 0.50 C 966 1749 M
5981 0 V
stroke
LT0
0.50 0.50 0.50 C 966 1749 M
63 0 V
5918 0 R
-63 0 V
-6002 0 R
( 22.6274) Rshow
1.000 UL
LT0
0.50 0.50 0.50 C 1.000 UL
LTa
0.50 0.50 0.50 C 966 1795 M
5981 0 V
stroke
LT0
0.50 0.50 0.50 C 966 1795 M
63 0 V
5918 0 R
-63 0 V
-6002 0 R
( 23.3345) Rshow
1.000 UL
LT0
0.50 0.50 0.50 C 1.000 UL
LTa
0.50 0.50 0.50 C 966 1841 M
5981 0 V
stroke
LT0
0.50 0.50 0.50 C 966 1841 M
63 0 V
5918 0 R
-63 0 V
-6002 0 R
( 24.0416) Rshow
1.000 UL
LT0
0.50 0.50 0.50 C 1.000 UL
LTa
0.50 0.50 0.50 C 966 1887 M
5981 0 V
stroke
LT0
0.50 0.50 0.50 C 966 1887 M
63 0 V
5918 0 R
-63 0 V
-6002 0 R
( 24.7487) Rshow
1.000 UL
LT0
0.50 0.50 0.50 C 1.000 UL
LTa
0.50 0.50 0.50 C 966 1933 M
5981 0 V
stroke
LT0
0.50 0.50 0.50 C 966 1933 M
63 0 V
5918 0 R
-63 0 V
-6002 0 R
( 25.4558) Rshow
1.000 UL
LT0
0.50 0.50 0.50 C 1.000 UL
LTa
0.50 0.50 0.50 C 966 1979 M
5981 0 V
stroke
LT0
0.50 0.50 0.50 C 966 1979 M
63 0 V
5918 0 R
-63 0 V
-6002 0 R
( 26.1629) Rshow
1.000 UL
LT0
0.50 0.50 0.50 C 1.000 UL
LTa
0.50 0.50 0.50 C 966 2025 M
5981 0 V
stroke
LT0
0.50 0.50 0.50 C 966 2025 M
63 0 V
5918 0 R
-63 0 V
-6002 0 R
( 26.87) Rshow
1.000 UL
LT0
0.50 0.50 0.50 C 1.000 UL
LTa
0.50 0.50 0.50 C 966 2070 M
5981 0 V
stroke
LT0
0.50 0.50 0.50 C 966 2070 M
63 0 V
5918 0 R
-63 0 V
-6002 0 R
( 27.5771) Rshow
1.000 UL
LT0
0.50 0.50 0.50 C 1.000 UL
LTa
0.50 0.50 0.50 C 966 2116 M
5981 0 V
stroke
LT0
0.50 0.50 0.50 C 966 2116 M
63 0 V
5918 0 R
-63 0 V
-6002 0 R
( 28.2842) Rshow
1.000 UL
LT0
0.50 0.50 0.50 C 1.000 UL
LTa
0.50 0.50 0.50 C 966 2162 M
5981 0 V
stroke
LT0
0.50 0.50 0.50 C 966 2162 M
63 0 V
5918 0 R
-63 0 V
-6002 0 R
( 28.9913) Rshow
1.000 UL
LT0
0.50 0.50 0.50 C 1.000 UL
LTa
0.50 0.50 0.50 C 966 2208 M
5981 0 V
stroke
LT0
0.50 0.50 0.50 C 966 2208 M
63 0 V
5918 0 R
-63 0 V
-6002 0 R
( 29.6985) Rshow
1.000 UL
LT0
0.50 0.50 0.50 C 1.000 UL
LTa
0.50 0.50 0.50 C 966 2254 M
5981 0 V
stroke
LT0
0.50 0.50 0.50 C 966 2254 M
63 0 V
5918 0 R
-63 0 V
-6002 0 R
( 30.4056) Rshow
1.000 UL
LT0
0.50 0.50 0.50 C 1.000 UL
LTa
0.50 0.50 0.50 C 966 2300 M
5981 0 V
stroke
LT0
0.50 0.50 0.50 C 966 2300 M
63 0 V
5918 0 R
-63 0 V
-6002 0 R
( 31.1127) Rshow
1.000 UL
LT0
0.50 0.50 0.50 C 1.000 UL
LTa
0.50 0.50 0.50 C 966 2346 M
5981 0 V
stroke
LT0
0.50 0.50 0.50 C 966 2346 M
63 0 V
5918 0 R
-63 0 V
-6002 0 R
( 31.8198) Rshow
1.000 UL
LT0
0.50 0.50 0.50 C 1.000 UL
LTa
0.50 0.50 0.50 C 966 2392 M
5981 0 V
stroke
LT0
0.50 0.50 0.50 C 966 2392 M
63 0 V
5918 0 R
-63 0 V
-6002 0 R
( 32.5269) Rshow
1.000 UL
LT0
0.50 0.50 0.50 C 1.000 UL
LTa
0.50 0.50 0.50 C 966 2438 M
5981 0 V
stroke
LT0
0.50 0.50 0.50 C 966 2438 M
63 0 V
5918 0 R
-63 0 V
-6002 0 R
( 33.234) Rshow
1.000 UL
LT0
0.50 0.50 0.50 C 1.000 UL
LTa
0.50 0.50 0.50 C 966 2484 M
5981 0 V
stroke
LT0
0.50 0.50 0.50 C 966 2484 M
63 0 V
5918 0 R
-63 0 V
-6002 0 R
( 33.9411) Rshow
1.000 UL
LT0
0.50 0.50 0.50 C 1.000 UL
LTa
0.50 0.50 0.50 C 966 2530 M
5981 0 V
stroke
LT0
0.50 0.50 0.50 C 966 2530 M
63 0 V
5918 0 R
-63 0 V
-6002 0 R
( 34.6482) Rshow
1.000 UL
LT0
0.50 0.50 0.50 C 1.000 UL
LTa
0.50 0.50 0.50 C 966 2576 M
5981 0 V
stroke
LT0
0.50 0.50 0.50 C 966 2576 M
63 0 V
5918 0 R
-63 0 V
-6002 0 R
( 35.3553) Rshow
1.000 UL
LT0
0.50 0.50 0.50 C 1.000 UL
LTa
0.50 0.50 0.50 C 966 2621 M
5981 0 V
stroke
LT0
0.50 0.50 0.50 C 966 2621 M
63 0 V
5918 0 R
-63 0 V
-6002 0 R
( 36.0624) Rshow
1.000 UL
LT0
0.50 0.50 0.50 C 1.000 UL
LTa
0.50 0.50 0.50 C 966 2667 M
5981 0 V
stroke
LT0
0.50 0.50 0.50 C 966 2667 M
63 0 V
5918 0 R
-63 0 V
-6002 0 R
( 36.7695) Rshow
1.000 UL
LT0
0.50 0.50 0.50 C 1.000 UL
LTa
0.50 0.50 0.50 C 966 2713 M
5981 0 V
stroke
LT0
0.50 0.50 0.50 C 966 2713 M
63 0 V
5918 0 R
-63 0 V
-6002 0 R
( 37.4766) Rshow
1.000 UL
LT0
0.50 0.50 0.50 C 1.000 UL
LTa
0.50 0.50 0.50 C 966 2759 M
5981 0 V
stroke
LT0
0.50 0.50 0.50 C 966 2759 M
63 0 V
5918 0 R
-63 0 V
-6002 0 R
( 38.1837) Rshow
1.000 UL
LT0
0.50 0.50 0.50 C 1.000 UL
LTa
0.50 0.50 0.50 C 966 2805 M
5981 0 V
stroke
LT0
0.50 0.50 0.50 C 966 2805 M
63 0 V
5918 0 R
-63 0 V
-6002 0 R
( 38.8908) Rshow
1.000 UL
LT0
0.50 0.50 0.50 C 1.000 UL
LTa
0.50 0.50 0.50 C 966 2851 M
5981 0 V
stroke
LT0
0.50 0.50 0.50 C 966 2851 M
63 0 V
5918 0 R
-63 0 V
-6002 0 R
( 39.5979) Rshow
1.000 UL
LT0
0.50 0.50 0.50 C 1.000 UL
LTa
0.50 0.50 0.50 C 966 2897 M
5981 0 V
stroke
LT0
0.50 0.50 0.50 C 966 2897 M
63 0 V
5918 0 R
-63 0 V
-6002 0 R
( 40.305) Rshow
1.000 UL
LT0
0.50 0.50 0.50 C 1.000 UL
LTa
0.50 0.50 0.50 C 966 2943 M
5981 0 V
stroke
LT0
0.50 0.50 0.50 C 966 2943 M
63 0 V
5918 0 R
-63 0 V
-6002 0 R
( 41.0121) Rshow
1.000 UL
LT0
0.50 0.50 0.50 C 1.000 UL
LTa
0.50 0.50 0.50 C 966 2989 M
5981 0 V
stroke
LT0
0.50 0.50 0.50 C 966 2989 M
63 0 V
5918 0 R
-63 0 V
-6002 0 R
( 41.7193) Rshow
1.000 UL
LT0
0.50 0.50 0.50 C 1.000 UL
LTa
0.50 0.50 0.50 C 966 3035 M
5981 0 V
stroke
LT0
0.50 0.50 0.50 C 966 3035 M
63 0 V
5918 0 R
-63 0 V
-6002 0 R
( 42.4264) Rshow
1.000 UL
LT0
0.50 0.50 0.50 C 1.000 UL
LTa
0.50 0.50 0.50 C 966 3081 M
5981 0 V
stroke
LT0
0.50 0.50 0.50 C 966 3081 M
63 0 V
5918 0 R
-63 0 V
-6002 0 R
( 43.1335) Rshow
1.000 UL
LT0
0.50 0.50 0.50 C 1.000 UL
LTa
0.50 0.50 0.50 C 966 3126 M
5981 0 V
stroke
LT0
0.50 0.50 0.50 C 966 3126 M
63 0 V
5918 0 R
-63 0 V
-6002 0 R
( 43.8406) Rshow
1.000 UL
LT0
0.50 0.50 0.50 C 1.000 UL
LTa
0.50 0.50 0.50 C 966 3172 M
5981 0 V
stroke
LT0
0.50 0.50 0.50 C 966 3172 M
63 0 V
5918 0 R
-63 0 V
-6002 0 R
( 44.5477) Rshow
1.000 UL
LT0
0.50 0.50 0.50 C 1.000 UL
LTa
0.50 0.50 0.50 C 966 3218 M
5981 0 V
stroke
LT0
0.50 0.50 0.50 C 966 3218 M
63 0 V
5918 0 R
-63 0 V
-6002 0 R
( 45.2548) Rshow
1.000 UL
LT0
0.50 0.50 0.50 C 1.000 UL
LTa
0.50 0.50 0.50 C 966 3264 M
5981 0 V
stroke
LT0
0.50 0.50 0.50 C 966 3264 M
63 0 V
5918 0 R
-63 0 V
-6002 0 R
( 45.9619) Rshow
1.000 UL
LT0
0.50 0.50 0.50 C 1.000 UL
LTa
0.50 0.50 0.50 C 966 3310 M
5981 0 V
stroke
LT0
0.50 0.50 0.50 C 966 3310 M
63 0 V
5918 0 R
-63 0 V
-6002 0 R
( 46.669) Rshow
1.000 UL
LT0
0.50 0.50 0.50 C 1.000 UL
LTa
0.50 0.50 0.50 C 966 3356 M
5981 0 V
stroke
LT0
0.50 0.50 0.50 C 966 3356 M
63 0 V
5918 0 R
-63 0 V
-6002 0 R
( 47.3761) Rshow
1.000 UL
LT0
0.50 0.50 0.50 C 1.000 UL
LTa
0.50 0.50 0.50 C 966 3402 M
5981 0 V
stroke
LT0
0.50 0.50 0.50 C 966 3402 M
63 0 V
5918 0 R
-63 0 V
-6002 0 R
( 48.0832) Rshow
1.000 UL
LT0
0.50 0.50 0.50 C 1.000 UL
LTa
0.50 0.50 0.50 C 966 3448 M
5981 0 V
stroke
LT0
0.50 0.50 0.50 C 966 3448 M
63 0 V
5918 0 R
-63 0 V
-6002 0 R
( 48.7903) Rshow
1.000 UL
LT0
0.50 0.50 0.50 C 1.000 UL
LTa
0.50 0.50 0.50 C 966 3494 M
5981 0 V
stroke
LT0
0.50 0.50 0.50 C 966 3494 M
63 0 V
5918 0 R
-63 0 V
-6002 0 R
( 49.4974) Rshow
1.000 UL
LT0
0.50 0.50 0.50 C 1.000 UL
LTa
0.50 0.50 0.50 C 966 3540 M
5981 0 V
stroke
LT0
0.50 0.50 0.50 C 966 3540 M
63 0 V
5918 0 R
-63 0 V
-6002 0 R
( 50.2045) Rshow
1.000 UL
LT0
0.50 0.50 0.50 C 1.000 UL
LTa
0.50 0.50 0.50 C 966 3586 M
5981 0 V
stroke
LT0
0.50 0.50 0.50 C 966 3586 M
63 0 V
5918 0 R
-63 0 V
-6002 0 R
( 50.9116) Rshow
1.000 UL
LT0
0.50 0.50 0.50 C 1.000 UL
LTa
0.50 0.50 0.50 C 966 3631 M
5981 0 V
stroke
LT0
0.50 0.50 0.50 C 966 3631 M
63 0 V
5918 0 R
-63 0 V
-6002 0 R
( 51.6187) Rshow
1.000 UL
LT0
0.50 0.50 0.50 C 1.000 UL
LTa
0.50 0.50 0.50 C 966 3677 M
5981 0 V
stroke
LT0
0.50 0.50 0.50 C 966 3677 M
63 0 V
5918 0 R
-63 0 V
-6002 0 R
( 52.3258) Rshow
1.000 UL
LT0
0.50 0.50 0.50 C 1.000 UL
LTa
0.50 0.50 0.50 C 966 3723 M
5981 0 V
stroke
LT0
0.50 0.50 0.50 C 966 3723 M
63 0 V
5918 0 R
-63 0 V
-6002 0 R
( 53.033) Rshow
1.000 UL
LT0
0.50 0.50 0.50 C 1.000 UL
LTa
0.50 0.50 0.50 C 966 3769 M
5981 0 V
stroke
LT0
0.50 0.50 0.50 C 966 3769 M
63 0 V
5918 0 R
-63 0 V
-6002 0 R
( 53.7401) Rshow
1.000 UL
LT0
0.50 0.50 0.50 C 1.000 UL
LTa
0.50 0.50 0.50 C 966 3815 M
5981 0 V
stroke
LT0
0.50 0.50 0.50 C 966 3815 M
63 0 V
5918 0 R
-63 0 V
-6002 0 R
( 54.4472) Rshow
1.000 UL
LT0
0.50 0.50 0.50 C 1.000 UL
LTa
0.50 0.50 0.50 C 966 3861 M
5981 0 V
stroke
LT0
0.50 0.50 0.50 C 966 3861 M
63 0 V
5918 0 R
-63 0 V
-6002 0 R
( 55.1543) Rshow
1.000 UL
LT0
0.50 0.50 0.50 C 1.000 UL
LTa
0.50 0.50 0.50 C 966 3907 M
5981 0 V
stroke
LT0
0.50 0.50 0.50 C 966 3907 M
63 0 V
5918 0 R
-63 0 V
-6002 0 R
( 55.8614) Rshow
1.000 UL
LT0
0.50 0.50 0.50 C 1.000 UL
LTa
0.50 0.50 0.50 C 966 3953 M
5981 0 V
stroke
LT0
0.50 0.50 0.50 C 966 3953 M
63 0 V
5918 0 R
-63 0 V
-6002 0 R
( 56.5685) Rshow
1.000 UL
LT0
0.50 0.50 0.50 C 1.000 UL
LTa
0.50 0.50 0.50 C 966 3999 M
5981 0 V
stroke
LT0
0.50 0.50 0.50 C 966 3999 M
63 0 V
5918 0 R
-63 0 V
-6002 0 R
( 57.2756) Rshow
1.000 UL
LT0
0.50 0.50 0.50 C 1.000 UL
LTa
0.50 0.50 0.50 C 966 4045 M
5981 0 V
stroke
LT0
0.50 0.50 0.50 C 966 4045 M
63 0 V
5918 0 R
-63 0 V
-6002 0 R
( 57.9827) Rshow
1.000 UL
LT0
0.50 0.50 0.50 C 1.000 UL
LTa
0.50 0.50 0.50 C 966 4091 M
5981 0 V
stroke
LT0
0.50 0.50 0.50 C 966 4091 M
63 0 V
5918 0 R
-63 0 V
-6002 0 R
( 58.6898) Rshow
1.000 UL
LT0
0.50 0.50 0.50 C 1.000 UL
LTa
0.50 0.50 0.50 C 966 4136 M
5981 0 V
stroke
LT0
0.50 0.50 0.50 C 966 4136 M
63 0 V
5918 0 R
-63 0 V
-6002 0 R
( 59.3969) Rshow
1.000 UL
LT0
0.50 0.50 0.50 C 1.000 UL
LTa
0.50 0.50 0.50 C 966 4182 M
5981 0 V
stroke
LT0
0.50 0.50 0.50 C 966 4182 M
63 0 V
5918 0 R
-63 0 V
-6002 0 R
( 60.104) Rshow
1.000 UL
LT0
0.50 0.50 0.50 C 1.000 UL
LTa
0.50 0.50 0.50 C 966 4228 M
5981 0 V
stroke
LT0
0.50 0.50 0.50 C 966 4228 M
63 0 V
5918 0 R
-63 0 V
-6002 0 R
( 60.8111) Rshow
1.000 UL
LT0
0.50 0.50 0.50 C 1.000 UL
LTa
0.50 0.50 0.50 C 966 4274 M
5981 0 V
stroke
LT0
0.50 0.50 0.50 C 966 4274 M
63 0 V
5918 0 R
-63 0 V
-6002 0 R
( 61.5182) Rshow
1.000 UL
LT0
0.50 0.50 0.50 C 1.000 UL
LTa
0.50 0.50 0.50 C 966 4320 M
5981 0 V
stroke
LT0
0.50 0.50 0.50 C 966 4320 M
63 0 V
5918 0 R
-63 0 V
-6002 0 R
( 62.2253) Rshow
1.000 UL
LT0
0.50 0.50 0.50 C 1.000 UL
LTa
0.50 0.50 0.50 C 966 4366 M
5981 0 V
stroke
LT0
0.50 0.50 0.50 C 966 4366 M
63 0 V
5918 0 R
-63 0 V
-6002 0 R
( 62.9324) Rshow
1.000 UL
LT0
0.50 0.50 0.50 C 1.000 UL
LTa
0.50 0.50 0.50 C 966 4412 M
5981 0 V
stroke
LT0
0.50 0.50 0.50 C 966 4412 M
63 0 V
5918 0 R
-63 0 V
-6002 0 R
( 63.6395) Rshow
1.000 UL
LT0
0.50 0.50 0.50 C 1.000 UL
LTa
0.50 0.50 0.50 C 966 4458 M
5981 0 V
stroke
LT0
0.50 0.50 0.50 C 966 4458 M
63 0 V
5918 0 R
-63 0 V
-6002 0 R
( 64.3466) Rshow
1.000 UL
LT0
0.50 0.50 0.50 C 1.000 UL
LTa
0.50 0.50 0.50 C 966 4504 M
5981 0 V
stroke
LT0
0.50 0.50 0.50 C 966 4504 M
63 0 V
5918 0 R
-63 0 V
-6002 0 R
( 65.0538) Rshow
1.000 UL
LT0
0.50 0.50 0.50 C 1.000 UL
LTa
0.50 0.50 0.50 C 966 4550 M
5981 0 V
stroke
LT0
0.50 0.50 0.50 C 966 4550 M
63 0 V
5918 0 R
-63 0 V
-6002 0 R
( 65.7609) Rshow
1.000 UL
LT0
0.50 0.50 0.50 C 1.000 UL
LTa
0.50 0.50 0.50 C 966 4596 M
5981 0 V
stroke
LT0
0.50 0.50 0.50 C 966 4596 M
63 0 V
5918 0 R
-63 0 V
-6002 0 R
( 66.468) Rshow
1.000 UL
LT0
0.50 0.50 0.50 C 1.000 UL
LTa
0.50 0.50 0.50 C 966 4641 M
5981 0 V
stroke
LT0
0.50 0.50 0.50 C 966 4641 M
63 0 V
5918 0 R
-63 0 V
-6002 0 R
( 67.1751) Rshow
1.000 UL
LT0
0.50 0.50 0.50 C 1.000 UL
LTa
0.50 0.50 0.50 C 966 4687 M
5981 0 V
stroke
LT0
0.50 0.50 0.50 C 966 4687 M
63 0 V
5918 0 R
-63 0 V
-6002 0 R
( 67.8822) Rshow
1.000 UL
LT0
0.50 0.50 0.50 C 1.000 UL
LTa
0.50 0.50 0.50 C 966 4733 M
5981 0 V
stroke
LT0
0.50 0.50 0.50 C 966 4733 M
63 0 V
5918 0 R
-63 0 V
-6002 0 R
( 68.5893) Rshow
1.000 UL
LT0
0.50 0.50 0.50 C 1.000 UL
LTa
0.50 0.50 0.50 C 966 4779 M
5981 0 V
stroke
LT0
0.50 0.50 0.50 C 966 4779 M
63 0 V
5918 0 R
-63 0 V
-6002 0 R
( 69.2964) Rshow
1.000 UL
LT0
0.50 0.50 0.50 C 1.000 UL
LTa
0.50 0.50 0.50 C 966 4825 M
5981 0 V
stroke
LT0
0.50 0.50 0.50 C 966 4825 M
63 0 V
5918 0 R
-63 0 V
-6002 0 R
( 70.0035) Rshow
1.000 UL
LT0
0.50 0.50 0.50 C 1.000 UL
LTa
0.50 0.50 0.50 C 966 4871 M
5981 0 V
stroke
LT0
0.50 0.50 0.50 C 966 4871 M
63 0 V
5918 0 R
-63 0 V
-6002 0 R
( 70.7106) Rshow
1.000 UL
LT0
0.50 0.50 0.50 C 1.000 UL
LTa
0.50 0.50 0.50 C 966 280 M
0 4591 V
stroke
LT0
0.50 0.50 0.50 C 966 280 M
0 63 V
0 4528 R
0 -63 V
966 140 M
( 0) Cshow
1.000 UL
LT0
0.50 0.50 0.50 C 1.000 UL
LTa
0.50 0.50 0.50 C 1026 280 M
0 4591 V
stroke
LT0
0.50 0.50 0.50 C 1026 280 M
0 63 V
0 4528 R
0 -63 V
0 -4668 R
( 0.707106) Cshow
1.000 UL
LT0
0.50 0.50 0.50 C 1.000 UL
LTa
0.50 0.50 0.50 C 1086 280 M
0 4591 V
stroke
LT0
0.50 0.50 0.50 C 1086 280 M
0 63 V
0 4528 R
0 -63 V
0 -4668 R
( 1.41421) Cshow
1.000 UL
LT0
0.50 0.50 0.50 C 1.000 UL
LTa
0.50 0.50 0.50 C 1145 280 M
0 4591 V
stroke
LT0
0.50 0.50 0.50 C 1145 280 M
0 63 V
0 4528 R
0 -63 V
0 -4668 R
( 2.12132) Cshow
1.000 UL
LT0
0.50 0.50 0.50 C 1.000 UL
LTa
0.50 0.50 0.50 C 1205 280 M
0 4591 V
stroke
LT0
0.50 0.50 0.50 C 1205 280 M
0 63 V
0 4528 R
0 -63 V
0 -4668 R
( 2.82842) Cshow
1.000 UL
LT0
0.50 0.50 0.50 C 1.000 UL
LTa
0.50 0.50 0.50 C 1265 280 M
0 4591 V
stroke
LT0
0.50 0.50 0.50 C 1265 280 M
0 63 V
0 4528 R
0 -63 V
0 -4668 R
( 3.53553) Cshow
1.000 UL
LT0
0.50 0.50 0.50 C 1.000 UL
LTa
0.50 0.50 0.50 C 1325 280 M
0 4591 V
stroke
LT0
0.50 0.50 0.50 C 1325 280 M
0 63 V
0 4528 R
0 -63 V
0 -4668 R
( 4.24264) Cshow
1.000 UL
LT0
0.50 0.50 0.50 C 1.000 UL
LTa
0.50 0.50 0.50 C 1385 280 M
0 4591 V
stroke
LT0
0.50 0.50 0.50 C 1385 280 M
0 63 V
0 4528 R
0 -63 V
0 -4668 R
( 4.94974) Cshow
1.000 UL
LT0
0.50 0.50 0.50 C 1.000 UL
LTa
0.50 0.50 0.50 C 1444 280 M
0 4591 V
stroke
LT0
0.50 0.50 0.50 C 1444 280 M
0 63 V
0 4528 R
0 -63 V
0 -4668 R
( 5.65685) Cshow
1.000 UL
LT0
0.50 0.50 0.50 C 1.000 UL
LTa
0.50 0.50 0.50 C 1504 280 M
0 4591 V
stroke
LT0
0.50 0.50 0.50 C 1504 280 M
0 63 V
0 4528 R
0 -63 V
0 -4668 R
( 6.36395) Cshow
1.000 UL
LT0
0.50 0.50 0.50 C 1.000 UL
LTa
0.50 0.50 0.50 C 1564 280 M
0 4591 V
stroke
LT0
0.50 0.50 0.50 C 1564 280 M
0 63 V
0 4528 R
0 -63 V
0 -4668 R
( 7.07106) Cshow
1.000 UL
LT0
0.50 0.50 0.50 C 1.000 UL
LTa
0.50 0.50 0.50 C 1624 280 M
0 4591 V
stroke
LT0
0.50 0.50 0.50 C 1624 280 M
0 63 V
0 4528 R
0 -63 V
0 -4668 R
( 7.77817) Cshow
1.000 UL
LT0
0.50 0.50 0.50 C 1.000 UL
LTa
0.50 0.50 0.50 C 1684 280 M
0 4591 V
stroke
LT0
0.50 0.50 0.50 C 1684 280 M
0 63 V
0 4528 R
0 -63 V
0 -4668 R
( 8.48527) Cshow
1.000 UL
LT0
0.50 0.50 0.50 C 1.000 UL
LTa
0.50 0.50 0.50 C 1744 280 M
0 4591 V
stroke
LT0
0.50 0.50 0.50 C 1744 280 M
0 63 V
0 4528 R
0 -63 V
0 -4668 R
( 9.19238) Cshow
1.000 UL
LT0
0.50 0.50 0.50 C 1.000 UL
LTa
0.50 0.50 0.50 C 1803 280 M
0 4591 V
stroke
LT0
0.50 0.50 0.50 C 1803 280 M
0 63 V
0 4528 R
0 -63 V
0 -4668 R
( 9.89948) Cshow
1.000 UL
LT0
0.50 0.50 0.50 C 1.000 UL
LTa
0.50 0.50 0.50 C 1863 280 M
0 4591 V
stroke
LT0
0.50 0.50 0.50 C 1863 280 M
0 63 V
0 4528 R
0 -63 V
0 -4668 R
( 10.6066) Cshow
1.000 UL
LT0
0.50 0.50 0.50 C 1.000 UL
LTa
0.50 0.50 0.50 C 1923 280 M
0 4591 V
stroke
LT0
0.50 0.50 0.50 C 1923 280 M
0 63 V
0 4528 R
0 -63 V
0 -4668 R
( 11.3137) Cshow
1.000 UL
LT0
0.50 0.50 0.50 C 1.000 UL
LTa
0.50 0.50 0.50 C 1983 280 M
0 4591 V
stroke
LT0
0.50 0.50 0.50 C 1983 280 M
0 63 V
0 4528 R
0 -63 V
0 -4668 R
( 12.0208) Cshow
1.000 UL
LT0
0.50 0.50 0.50 C 1.000 UL
LTa
0.50 0.50 0.50 C 2043 280 M
0 4591 V
stroke
LT0
0.50 0.50 0.50 C 2043 280 M
0 63 V
0 4528 R
0 -63 V
0 -4668 R
( 12.7279) Cshow
1.000 UL
LT0
0.50 0.50 0.50 C 1.000 UL
LTa
0.50 0.50 0.50 C 2102 280 M
0 4591 V
stroke
LT0
0.50 0.50 0.50 C 2102 280 M
0 63 V
0 4528 R
0 -63 V
0 -4668 R
( 13.435) Cshow
1.000 UL
LT0
0.50 0.50 0.50 C 1.000 UL
LTa
0.50 0.50 0.50 C 2162 280 M
0 4591 V
stroke
LT0
0.50 0.50 0.50 C 2162 280 M
0 63 V
0 4528 R
0 -63 V
0 -4668 R
( 14.1421) Cshow
1.000 UL
LT0
0.50 0.50 0.50 C 1.000 UL
LTa
0.50 0.50 0.50 C 2222 280 M
0 4591 V
stroke
LT0
0.50 0.50 0.50 C 2222 280 M
0 63 V
0 4528 R
0 -63 V
0 -4668 R
( 14.8492) Cshow
1.000 UL
LT0
0.50 0.50 0.50 C 1.000 UL
LTa
0.50 0.50 0.50 C 2282 280 M
0 4591 V
stroke
LT0
0.50 0.50 0.50 C 2282 280 M
0 63 V
0 4528 R
0 -63 V
0 -4668 R
( 15.5563) Cshow
1.000 UL
LT0
0.50 0.50 0.50 C 1.000 UL
LTa
0.50 0.50 0.50 C 2342 280 M
0 4591 V
stroke
LT0
0.50 0.50 0.50 C 2342 280 M
0 63 V
0 4528 R
0 -63 V
0 -4668 R
( 16.2634) Cshow
1.000 UL
LT0
0.50 0.50 0.50 C 1.000 UL
LTa
0.50 0.50 0.50 C 2401 280 M
0 4591 V
stroke
LT0
0.50 0.50 0.50 C 2401 280 M
0 63 V
0 4528 R
0 -63 V
0 -4668 R
( 16.9705) Cshow
1.000 UL
LT0
0.50 0.50 0.50 C 1.000 UL
LTa
0.50 0.50 0.50 C 2461 280 M
0 4591 V
stroke
LT0
0.50 0.50 0.50 C 2461 280 M
0 63 V
0 4528 R
0 -63 V
0 -4668 R
( 17.6776) Cshow
1.000 UL
LT0
0.50 0.50 0.50 C 1.000 UL
LTa
0.50 0.50 0.50 C 2521 280 M
0 4591 V
stroke
LT0
0.50 0.50 0.50 C 2521 280 M
0 63 V
0 4528 R
0 -63 V
0 -4668 R
( 18.3848) Cshow
1.000 UL
LT0
0.50 0.50 0.50 C 1.000 UL
LTa
0.50 0.50 0.50 C 2581 280 M
0 4591 V
stroke
LT0
0.50 0.50 0.50 C 2581 280 M
0 63 V
0 4528 R
0 -63 V
0 -4668 R
( 19.0919) Cshow
1.000 UL
LT0
0.50 0.50 0.50 C 1.000 UL
LTa
0.50 0.50 0.50 C 2641 280 M
0 4591 V
stroke
LT0
0.50 0.50 0.50 C 2641 280 M
0 63 V
0 4528 R
0 -63 V
0 -4668 R
( 19.799) Cshow
1.000 UL
LT0
0.50 0.50 0.50 C 1.000 UL
LTa
0.50 0.50 0.50 C 2700 280 M
0 4591 V
stroke
LT0
0.50 0.50 0.50 C 2700 280 M
0 63 V
0 4528 R
0 -63 V
0 -4668 R
( 20.5061) Cshow
1.000 UL
LT0
0.50 0.50 0.50 C 1.000 UL
LTa
0.50 0.50 0.50 C 2760 280 M
0 4591 V
stroke
LT0
0.50 0.50 0.50 C 2760 280 M
0 63 V
0 4528 R
0 -63 V
0 -4668 R
( 21.2132) Cshow
1.000 UL
LT0
0.50 0.50 0.50 C 1.000 UL
LTa
0.50 0.50 0.50 C 2820 280 M
0 4591 V
stroke
LT0
0.50 0.50 0.50 C 2820 280 M
0 63 V
0 4528 R
0 -63 V
0 -4668 R
( 21.9203) Cshow
1.000 UL
LT0
0.50 0.50 0.50 C 1.000 UL
LTa
0.50 0.50 0.50 C 2880 280 M
0 4591 V
stroke
LT0
0.50 0.50 0.50 C 2880 280 M
0 63 V
0 4528 R
0 -63 V
0 -4668 R
( 22.6274) Cshow
1.000 UL
LT0
0.50 0.50 0.50 C 1.000 UL
LTa
0.50 0.50 0.50 C 2940 280 M
0 4591 V
stroke
LT0
0.50 0.50 0.50 C 2940 280 M
0 63 V
0 4528 R
0 -63 V
0 -4668 R
( 23.3345) Cshow
1.000 UL
LT0
0.50 0.50 0.50 C 1.000 UL
LTa
0.50 0.50 0.50 C 3000 280 M
0 4591 V
stroke
LT0
0.50 0.50 0.50 C 3000 280 M
0 63 V
0 4528 R
0 -63 V
0 -4668 R
( 24.0416) Cshow
1.000 UL
LT0
0.50 0.50 0.50 C 1.000 UL
LTa
0.50 0.50 0.50 C 3059 280 M
0 4591 V
stroke
LT0
0.50 0.50 0.50 C 3059 280 M
0 63 V
0 4528 R
0 -63 V
0 -4668 R
( 24.7487) Cshow
1.000 UL
LT0
0.50 0.50 0.50 C 1.000 UL
LTa
0.50 0.50 0.50 C 3119 280 M
0 4591 V
stroke
LT0
0.50 0.50 0.50 C 3119 280 M
0 63 V
0 4528 R
0 -63 V
0 -4668 R
( 25.4558) Cshow
1.000 UL
LT0
0.50 0.50 0.50 C 1.000 UL
LTa
0.50 0.50 0.50 C 3179 280 M
0 4591 V
stroke
LT0
0.50 0.50 0.50 C 3179 280 M
0 63 V
0 4528 R
0 -63 V
0 -4668 R
( 26.1629) Cshow
1.000 UL
LT0
0.50 0.50 0.50 C 1.000 UL
LTa
0.50 0.50 0.50 C 3239 280 M
0 4591 V
stroke
LT0
0.50 0.50 0.50 C 3239 280 M
0 63 V
0 4528 R
0 -63 V
0 -4668 R
( 26.87) Cshow
1.000 UL
LT0
0.50 0.50 0.50 C 1.000 UL
LTa
0.50 0.50 0.50 C 3299 280 M
0 4591 V
stroke
LT0
0.50 0.50 0.50 C 3299 280 M
0 63 V
0 4528 R
0 -63 V
0 -4668 R
( 27.5771) Cshow
1.000 UL
LT0
0.50 0.50 0.50 C 1.000 UL
LTa
0.50 0.50 0.50 C 3358 280 M
0 4591 V
stroke
LT0
0.50 0.50 0.50 C 3358 280 M
0 63 V
0 4528 R
0 -63 V
0 -4668 R
( 28.2842) Cshow
1.000 UL
LT0
0.50 0.50 0.50 C 1.000 UL
LTa
0.50 0.50 0.50 C 3418 280 M
0 4591 V
stroke
LT0
0.50 0.50 0.50 C 3418 280 M
0 63 V
0 4528 R
0 -63 V
0 -4668 R
( 28.9913) Cshow
1.000 UL
LT0
0.50 0.50 0.50 C 1.000 UL
LTa
0.50 0.50 0.50 C 3478 280 M
0 4591 V
stroke
LT0
0.50 0.50 0.50 C 3478 280 M
0 63 V
0 4528 R
0 -63 V
0 -4668 R
( 29.6985) Cshow
1.000 UL
LT0
0.50 0.50 0.50 C 1.000 UL
LTa
0.50 0.50 0.50 C 3538 280 M
0 4591 V
stroke
LT0
0.50 0.50 0.50 C 3538 280 M
0 63 V
0 4528 R
0 -63 V
0 -4668 R
( 30.4056) Cshow
1.000 UL
LT0
0.50 0.50 0.50 C 1.000 UL
LTa
0.50 0.50 0.50 C 3598 280 M
0 4591 V
stroke
LT0
0.50 0.50 0.50 C 3598 280 M
0 63 V
0 4528 R
0 -63 V
0 -4668 R
( 31.1127) Cshow
1.000 UL
LT0
0.50 0.50 0.50 C 1.000 UL
LTa
0.50 0.50 0.50 C 3657 280 M
0 4591 V
stroke
LT0
0.50 0.50 0.50 C 3657 280 M
0 63 V
0 4528 R
0 -63 V
0 -4668 R
( 31.8198) Cshow
1.000 UL
LT0
0.50 0.50 0.50 C 1.000 UL
LTa
0.50 0.50 0.50 C 3717 280 M
0 4591 V
stroke
LT0
0.50 0.50 0.50 C 3717 280 M
0 63 V
0 4528 R
0 -63 V
0 -4668 R
( 32.5269) Cshow
1.000 UL
LT0
0.50 0.50 0.50 C 1.000 UL
LTa
0.50 0.50 0.50 C 3777 280 M
0 4591 V
stroke
LT0
0.50 0.50 0.50 C 3777 280 M
0 63 V
0 4528 R
0 -63 V
0 -4668 R
( 33.234) Cshow
1.000 UL
LT0
0.50 0.50 0.50 C 1.000 UL
LTa
0.50 0.50 0.50 C 3837 280 M
0 4591 V
stroke
LT0
0.50 0.50 0.50 C 3837 280 M
0 63 V
0 4528 R
0 -63 V
0 -4668 R
( 33.9411) Cshow
1.000 UL
LT0
0.50 0.50 0.50 C 1.000 UL
LTa
0.50 0.50 0.50 C 3897 280 M
0 4591 V
stroke
LT0
0.50 0.50 0.50 C 3897 280 M
0 63 V
0 4528 R
0 -63 V
0 -4668 R
( 34.6482) Cshow
1.000 UL
LT0
0.50 0.50 0.50 C 1.000 UL
LTa
0.50 0.50 0.50 C 3957 280 M
0 4591 V
stroke
LT0
0.50 0.50 0.50 C 3957 280 M
0 63 V
0 4528 R
0 -63 V
0 -4668 R
( 35.3553) Cshow
1.000 UL
LT0
0.50 0.50 0.50 C 1.000 UL
LTa
0.50 0.50 0.50 C 4016 280 M
0 4591 V
stroke
LT0
0.50 0.50 0.50 C 4016 280 M
0 63 V
0 4528 R
0 -63 V
0 -4668 R
( 36.0624) Cshow
1.000 UL
LT0
0.50 0.50 0.50 C 1.000 UL
LTa
0.50 0.50 0.50 C 4076 280 M
0 4591 V
stroke
LT0
0.50 0.50 0.50 C 4076 280 M
0 63 V
0 4528 R
0 -63 V
0 -4668 R
( 36.7695) Cshow
1.000 UL
LT0
0.50 0.50 0.50 C 1.000 UL
LTa
0.50 0.50 0.50 C 4136 280 M
0 4591 V
stroke
LT0
0.50 0.50 0.50 C 4136 280 M
0 63 V
0 4528 R
0 -63 V
0 -4668 R
( 37.4766) Cshow
1.000 UL
LT0
0.50 0.50 0.50 C 1.000 UL
LTa
0.50 0.50 0.50 C 4196 280 M
0 4591 V
stroke
LT0
0.50 0.50 0.50 C 4196 280 M
0 63 V
0 4528 R
0 -63 V
0 -4668 R
( 38.1837) Cshow
1.000 UL
LT0
0.50 0.50 0.50 C 1.000 UL
LTa
0.50 0.50 0.50 C 4256 280 M
0 4591 V
stroke
LT0
0.50 0.50 0.50 C 4256 280 M
0 63 V
0 4528 R
0 -63 V
0 -4668 R
( 38.8908) Cshow
1.000 UL
LT0
0.50 0.50 0.50 C 1.000 UL
LTa
0.50 0.50 0.50 C 4315 280 M
0 4591 V
stroke
LT0
0.50 0.50 0.50 C 4315 280 M
0 63 V
0 4528 R
0 -63 V
0 -4668 R
( 39.5979) Cshow
1.000 UL
LT0
0.50 0.50 0.50 C 1.000 UL
LTa
0.50 0.50 0.50 C 4375 280 M
0 4591 V
stroke
LT0
0.50 0.50 0.50 C 4375 280 M
0 63 V
0 4528 R
0 -63 V
0 -4668 R
( 40.305) Cshow
1.000 UL
LT0
0.50 0.50 0.50 C 1.000 UL
LTa
0.50 0.50 0.50 C 4435 280 M
0 4591 V
stroke
LT0
0.50 0.50 0.50 C 4435 280 M
0 63 V
0 4528 R
0 -63 V
0 -4668 R
( 41.0121) Cshow
1.000 UL
LT0
0.50 0.50 0.50 C 1.000 UL
LTa
0.50 0.50 0.50 C 4495 280 M
0 4591 V
stroke
LT0
0.50 0.50 0.50 C 4495 280 M
0 63 V
0 4528 R
0 -63 V
0 -4668 R
( 41.7193) Cshow
1.000 UL
LT0
0.50 0.50 0.50 C 1.000 UL
LTa
0.50 0.50 0.50 C 4555 280 M
0 4591 V
stroke
LT0
0.50 0.50 0.50 C 4555 280 M
0 63 V
0 4528 R
0 -63 V
0 -4668 R
( 42.4264) Cshow
1.000 UL
LT0
0.50 0.50 0.50 C 1.000 UL
LTa
0.50 0.50 0.50 C 4614 280 M
0 4591 V
stroke
LT0
0.50 0.50 0.50 C 4614 280 M
0 63 V
0 4528 R
0 -63 V
0 -4668 R
( 43.1335) Cshow
1.000 UL
LT0
0.50 0.50 0.50 C 1.000 UL
LTa
0.50 0.50 0.50 C 4674 280 M
0 4591 V
stroke
LT0
0.50 0.50 0.50 C 4674 280 M
0 63 V
0 4528 R
0 -63 V
0 -4668 R
( 43.8406) Cshow
1.000 UL
LT0
0.50 0.50 0.50 C 1.000 UL
LTa
0.50 0.50 0.50 C 4734 280 M
0 4591 V
stroke
LT0
0.50 0.50 0.50 C 4734 280 M
0 63 V
0 4528 R
0 -63 V
0 -4668 R
( 44.5477) Cshow
1.000 UL
LT0
0.50 0.50 0.50 C 1.000 UL
LTa
0.50 0.50 0.50 C 4794 280 M
0 4591 V
stroke
LT0
0.50 0.50 0.50 C 4794 280 M
0 63 V
0 4528 R
0 -63 V
0 -4668 R
( 45.2548) Cshow
1.000 UL
LT0
0.50 0.50 0.50 C 1.000 UL
LTa
0.50 0.50 0.50 C 4854 280 M
0 4591 V
stroke
LT0
0.50 0.50 0.50 C 4854 280 M
0 63 V
0 4528 R
0 -63 V
0 -4668 R
( 45.9619) Cshow
1.000 UL
LT0
0.50 0.50 0.50 C 1.000 UL
LTa
0.50 0.50 0.50 C 4913 280 M
0 4591 V
stroke
LT0
0.50 0.50 0.50 C 4913 280 M
0 63 V
0 4528 R
0 -63 V
0 -4668 R
( 46.669) Cshow
1.000 UL
LT0
0.50 0.50 0.50 C 1.000 UL
LTa
0.50 0.50 0.50 C 4973 280 M
0 4591 V
stroke
LT0
0.50 0.50 0.50 C 4973 280 M
0 63 V
0 4528 R
0 -63 V
0 -4668 R
( 47.3761) Cshow
1.000 UL
LT0
0.50 0.50 0.50 C 1.000 UL
LTa
0.50 0.50 0.50 C 5033 280 M
0 4591 V
stroke
LT0
0.50 0.50 0.50 C 5033 280 M
0 63 V
0 4528 R
0 -63 V
0 -4668 R
( 48.0832) Cshow
1.000 UL
LT0
0.50 0.50 0.50 C 1.000 UL
LTa
0.50 0.50 0.50 C 5093 280 M
0 4591 V
stroke
LT0
0.50 0.50 0.50 C 5093 280 M
0 63 V
0 4528 R
0 -63 V
0 -4668 R
( 48.7903) Cshow
1.000 UL
LT0
0.50 0.50 0.50 C 1.000 UL
LTa
0.50 0.50 0.50 C 5153 280 M
0 4591 V
stroke
LT0
0.50 0.50 0.50 C 5153 280 M
0 63 V
0 4528 R
0 -63 V
0 -4668 R
( 49.4974) Cshow
1.000 UL
LT0
0.50 0.50 0.50 C 1.000 UL
LTa
0.50 0.50 0.50 C 5213 280 M
0 4591 V
stroke
LT0
0.50 0.50 0.50 C 5213 280 M
0 63 V
0 4528 R
0 -63 V
0 -4668 R
( 50.2045) Cshow
1.000 UL
LT0
0.50 0.50 0.50 C 1.000 UL
LTa
0.50 0.50 0.50 C 5272 280 M
0 4591 V
stroke
LT0
0.50 0.50 0.50 C 5272 280 M
0 63 V
0 4528 R
0 -63 V
0 -4668 R
( 50.9116) Cshow
1.000 UL
LT0
0.50 0.50 0.50 C 1.000 UL
LTa
0.50 0.50 0.50 C 5332 280 M
0 4591 V
stroke
LT0
0.50 0.50 0.50 C 5332 280 M
0 63 V
0 4528 R
0 -63 V
0 -4668 R
( 51.6187) Cshow
1.000 UL
LT0
0.50 0.50 0.50 C 1.000 UL
LTa
0.50 0.50 0.50 C 5392 280 M
0 4591 V
stroke
LT0
0.50 0.50 0.50 C 5392 280 M
0 63 V
0 4528 R
0 -63 V
0 -4668 R
( 52.3258) Cshow
1.000 UL
LT0
0.50 0.50 0.50 C 1.000 UL
LTa
0.50 0.50 0.50 C 5452 280 M
0 4591 V
stroke
LT0
0.50 0.50 0.50 C 5452 280 M
0 63 V
0 4528 R
0 -63 V
0 -4668 R
( 53.033) Cshow
1.000 UL
LT0
0.50 0.50 0.50 C 1.000 UL
LTa
0.50 0.50 0.50 C 5512 280 M
0 4591 V
stroke
LT0
0.50 0.50 0.50 C 5512 280 M
0 63 V
0 4528 R
0 -63 V
0 -4668 R
( 53.7401) Cshow
1.000 UL
LT0
0.50 0.50 0.50 C 1.000 UL
LTa
0.50 0.50 0.50 C 5571 280 M
0 4591 V
stroke
LT0
0.50 0.50 0.50 C 5571 280 M
0 63 V
0 4528 R
0 -63 V
0 -4668 R
( 54.4472) Cshow
1.000 UL
LT0
0.50 0.50 0.50 C 1.000 UL
LTa
0.50 0.50 0.50 C 5631 280 M
0 4591 V
stroke
LT0
0.50 0.50 0.50 C 5631 280 M
0 63 V
0 4528 R
0 -63 V
0 -4668 R
( 55.1543) Cshow
1.000 UL
LT0
0.50 0.50 0.50 C 1.000 UL
LTa
0.50 0.50 0.50 C 5691 280 M
0 4591 V
stroke
LT0
0.50 0.50 0.50 C 5691 280 M
0 63 V
0 4528 R
0 -63 V
0 -4668 R
( 55.8614) Cshow
1.000 UL
LT0
0.50 0.50 0.50 C 1.000 UL
LTa
0.50 0.50 0.50 C 5751 280 M
0 4591 V
stroke
LT0
0.50 0.50 0.50 C 5751 280 M
0 63 V
0 4528 R
0 -63 V
0 -4668 R
( 56.5685) Cshow
1.000 UL
LT0
0.50 0.50 0.50 C 1.000 UL
LTa
0.50 0.50 0.50 C 5811 280 M
0 4591 V
stroke
LT0
0.50 0.50 0.50 C 5811 280 M
0 63 V
0 4528 R
0 -63 V
0 -4668 R
( 57.2756) Cshow
1.000 UL
LT0
0.50 0.50 0.50 C 1.000 UL
LTa
0.50 0.50 0.50 C 5870 280 M
0 4591 V
stroke
LT0
0.50 0.50 0.50 C 5870 280 M
0 63 V
0 4528 R
0 -63 V
0 -4668 R
( 57.9827) Cshow
1.000 UL
LT0
0.50 0.50 0.50 C 1.000 UL
LTa
0.50 0.50 0.50 C 5930 280 M
0 4591 V
stroke
LT0
0.50 0.50 0.50 C 5930 280 M
0 63 V
0 4528 R
0 -63 V
0 -4668 R
( 58.6898) Cshow
1.000 UL
LT0
0.50 0.50 0.50 C 1.000 UL
LTa
0.50 0.50 0.50 C 5990 280 M
0 4591 V
stroke
LT0
0.50 0.50 0.50 C 5990 280 M
0 63 V
0 4528 R
0 -63 V
0 -4668 R
( 59.3969) Cshow
1.000 UL
LT0
0.50 0.50 0.50 C 1.000 UL
LTa
0.50 0.50 0.50 C 6050 280 M
0 4591 V
stroke
LT0
0.50 0.50 0.50 C 6050 280 M
0 63 V
0 4528 R
0 -63 V
0 -4668 R
( 60.104) Cshow
1.000 UL
LT0
0.50 0.50 0.50 C 1.000 UL
LTa
0.50 0.50 0.50 C 6110 280 M
0 4591 V
stroke
LT0
0.50 0.50 0.50 C 6110 280 M
0 63 V
0 4528 R
0 -63 V
0 -4668 R
( 60.8111) Cshow
1.000 UL
LT0
0.50 0.50 0.50 C 1.000 UL
LTa
0.50 0.50 0.50 C 6169 280 M
0 4591 V
stroke
LT0
0.50 0.50 0.50 C 6169 280 M
0 63 V
0 4528 R
0 -63 V
0 -4668 R
( 61.5182) Cshow
1.000 UL
LT0
0.50 0.50 0.50 C 1.000 UL
LTa
0.50 0.50 0.50 C 6229 280 M
0 4591 V
stroke
LT0
0.50 0.50 0.50 C 6229 280 M
0 63 V
0 4528 R
0 -63 V
0 -4668 R
( 62.2253) Cshow
1.000 UL
LT0
0.50 0.50 0.50 C 1.000 UL
LTa
0.50 0.50 0.50 C 6289 280 M
0 4591 V
stroke
LT0
0.50 0.50 0.50 C 6289 280 M
0 63 V
0 4528 R
0 -63 V
0 -4668 R
( 62.9324) Cshow
1.000 UL
LT0
0.50 0.50 0.50 C 1.000 UL
LTa
0.50 0.50 0.50 C 6349 280 M
0 4591 V
stroke
LT0
0.50 0.50 0.50 C 6349 280 M
0 63 V
0 4528 R
0 -63 V
0 -4668 R
( 63.6395) Cshow
1.000 UL
LT0
0.50 0.50 0.50 C 1.000 UL
LTa
0.50 0.50 0.50 C 6409 280 M
0 4591 V
stroke
LT0
0.50 0.50 0.50 C 6409 280 M
0 63 V
0 4528 R
0 -63 V
0 -4668 R
( 64.3466) Cshow
1.000 UL
LT0
0.50 0.50 0.50 C 1.000 UL
LTa
0.50 0.50 0.50 C 6469 280 M
0 4591 V
stroke
LT0
0.50 0.50 0.50 C 6469 280 M
0 63 V
0 4528 R
0 -63 V
0 -4668 R
( 65.0538) Cshow
1.000 UL
LT0
0.50 0.50 0.50 C 1.000 UL
LTa
0.50 0.50 0.50 C 6528 280 M
0 4591 V
stroke
LT0
0.50 0.50 0.50 C 6528 280 M
0 63 V
0 4528 R
0 -63 V
0 -4668 R
( 65.7609) Cshow
1.000 UL
LT0
0.50 0.50 0.50 C 1.000 UL
LTa
0.50 0.50 0.50 C 6588 280 M
0 4591 V
stroke
LT0
0.50 0.50 0.50 C 6588 280 M
0 63 V
0 4528 R
0 -63 V
0 -4668 R
( 66.468) Cshow
1.000 UL
LT0
0.50 0.50 0.50 C 1.000 UL
LTa
0.50 0.50 0.50 C 6648 280 M
0 4591 V
stroke
LT0
0.50 0.50 0.50 C 6648 280 M
0 63 V
0 4528 R
0 -63 V
0 -4668 R
( 67.1751) Cshow
1.000 UL
LT0
0.50 0.50 0.50 C 1.000 UL
LTa
0.50 0.50 0.50 C 6708 280 M
0 4591 V
stroke
LT0
0.50 0.50 0.50 C 6708 280 M
0 63 V
0 4528 R
0 -63 V
0 -4668 R
( 67.8822) Cshow
1.000 UL
LT0
0.50 0.50 0.50 C 1.000 UL
LTa
0.50 0.50 0.50 C 6768 280 M
0 4591 V
stroke
LT0
0.50 0.50 0.50 C 6768 280 M
0 63 V
0 4528 R
0 -63 V
0 -4668 R
( 68.5893) Cshow
1.000 UL
LT0
0.50 0.50 0.50 C 1.000 UL
LTa
0.50 0.50 0.50 C 6827 280 M
0 4591 V
stroke
LT0
0.50 0.50 0.50 C 6827 280 M
0 63 V
0 4528 R
0 -63 V
0 -4668 R
( 69.2964) Cshow
1.000 UL
LT0
0.50 0.50 0.50 C 1.000 UL
LTa
0.50 0.50 0.50 C 6887 280 M
0 4591 V
stroke
LT0
0.50 0.50 0.50 C 6887 280 M
0 63 V
0 4528 R
0 -63 V
0 -4668 R
( 70.0035) Cshow
1.000 UL
LT0
0.50 0.50 0.50 C 1.000 UL
LTa
0.50 0.50 0.50 C 6947 280 M
0 4591 V
stroke
LT0
0.50 0.50 0.50 C 6947 280 M
0 63 V
0 4528 R
0 -63 V
0 -4668 R
( 70.7106) Cshow
1.000 UL
LT0
0.50 0.50 0.50 C 1.000 UL
LT0
0.50 0.50 0.50 C 966 4871 M
966 280 L
5981 0 V
0 4591 R
-5981 0 R
1.000 UP
stroke
LT0
0.50 0.50 0.50 C % Begin plot #1
1.500 UP
2.000 UL
LT0
0.00 0.00 1.00 C /Helvetica findfont 140 scalefont setfont
/vshift -46 def
1265 326 M
60 0 V
60 0 V
59 0 V
60 0 V
60 0 V
60 0 V
60 0 V
0 46 R
60 0 V
59 0 V
60 0 V
60 0 V
60 0 V
60 0 V
59 0 V
0 275 R
60 0 V
60 0 V
60 0 V
0 46 R
60 0 V
59 0 V
60 0 V
0 46 R
60 0 V
60 0 V
0 92 R
60 0 V
59 0 V
0 46 R
60 0 V
60 0 V
60 0 V
0 92 R
60 0 V
0 275 R
60 0 V
0 92 R
59 0 V
0 138 R
60 0 V
60 0 V
0 551 R
60 0 V
60 0 V
0 45 R
59 0 V
60 0 V
60 0 V
60 0 V
60 0 V
59 0 V
60 0 V
60 0 V
60 0 V
60 0 V
60 0 V
0 46 R
59 0 V
60 0 V
60 0 V
60 0 V
0 46 R
60 0 V
59 0 V
60 0 V
60 0 V
60 0 V
0 46 R
60 0 V
0 92 R
59 0 V
60 0 V
60 0 V
60 0 V
60 0 V
59 0 V
60 0 V
60 0 V
60 0 V
60 0 V
60 0 V
0 92 R
59 0 V
0 46 R
60 0 V
0 46 R
60 0 V
0 46 R
60 0 V
0 46 R
60 0 V
59 0 V
60 0 V
0 45 R
60 0 V
0 643 R
60 0 V
0 92 R
60 0 V
0 46 R
59 0 V
60 0 V
0 138 R
60 0 V
stroke 5990 3540 M
0 91 R
60 0 V
60 0 V
0 230 R
59 0 V
60 0 V
60 0 V
60 0 V
60 0 V
0 367 R
60 0 V
0 551 R
59 0 V
60 0 V
60 0 V
60 0 V
60 0 V
59 0 V
0 46 R
60 0 V
966 280 M
60 0 V
6887 4871 M
60 0 V
1026 280 M
60 0 V
59 0 V
60 0 V
60 0 V
0 46 V
419 0 R
0 46 V
418 0 R
0 46 V
0 46 V
0 46 V
0 45 V
0 46 V
0 46 V
180 0 R
0 46 V
179 0 R
0 46 V
120 0 R
0 46 V
0 46 V
119 0 R
0 46 V
180 0 R
0 46 V
0 46 V
60 0 R
0 46 V
0 45 V
0 46 V
0 46 V
0 46 V
0 46 V
60 0 R
0 46 V
0 46 V
59 0 R
0 46 V
0 46 V
0 46 V
120 0 R
0 46 V
0 45 V
0 46 V
0 46 V
0 46 V
0 46 V
0 46 V
0 46 V
0 46 V
0 46 V
0 46 V
0 46 V
120 0 R
0 45 V
658 0 R
0 46 V
239 0 R
0 46 V
299 0 R
0 46 V
60 0 R
0 46 V
0 46 V
658 0 R
0 46 V
0 46 V
59 0 R
0 46 V
60 0 R
0 46 V
60 0 R
0 46 V
60 0 R
0 46 V
179 0 R
0 45 V
60 0 R
0 46 V
stroke 5691 2667 M
0 46 V
0 46 V
0 46 V
0 46 V
0 46 V
0 46 V
0 46 V
0 46 V
0 46 V
0 45 V
0 46 V
0 46 V
0 46 V
60 0 R
0 46 V
0 46 V
60 0 R
0 46 V
119 0 R
0 46 V
0 46 V
0 46 V
60 0 R
0 46 V
0 45 V
120 0 R
0 46 V
0 46 V
0 46 V
0 46 V
0 46 V
299 0 R
0 46 V
0 46 V
0 46 V
0 46 V
0 46 V
0 45 V
0 46 V
0 46 V
60 0 R
0 46 V
0 46 V
0 46 V
0 46 V
0 46 V
0 46 V
0 46 V
0 46 V
0 45 V
0 46 V
0 46 V
0 46 V
358 0 R
0 46 V
60 0 R
0 46 V
1265 326 CircleF
1325 326 CircleF
1325 326 CircleF
1385 326 CircleF
1385 326 CircleF
1444 326 CircleF
1444 326 CircleF
1504 326 CircleF
1504 326 CircleF
1564 326 CircleF
1564 326 CircleF
1624 326 CircleF
1624 326 CircleF
1684 326 CircleF
1684 372 CircleF
1744 372 CircleF
1744 372 CircleF
1803 372 CircleF
1803 372 CircleF
1863 372 CircleF
1863 372 CircleF
1923 372 CircleF
1923 372 CircleF
1983 372 CircleF
1983 372 CircleF
2043 372 CircleF
2043 372 CircleF
2102 372 CircleF
2102 647 CircleF
2162 647 CircleF
2162 647 CircleF
2222 647 CircleF
2222 647 CircleF
2282 647 CircleF
2282 693 CircleF
2342 693 CircleF
2342 693 CircleF
2401 693 CircleF
2401 693 CircleF
2461 693 CircleF
2461 739 CircleF
2521 739 CircleF
2521 739 CircleF
2581 739 CircleF
2581 831 CircleF
2641 831 CircleF
2641 831 CircleF
2700 831 CircleF
2700 877 CircleF
2760 877 CircleF
2760 877 CircleF
2820 877 CircleF
2820 877 CircleF
2880 877 CircleF
2880 969 CircleF
2940 969 CircleF
2940 1244 CircleF
3000 1244 CircleF
3000 1336 CircleF
3059 1336 CircleF
3059 1474 CircleF
3119 1474 CircleF
3119 1474 CircleF
3179 1474 CircleF
3179 2025 CircleF
3239 2025 CircleF
3239 2025 CircleF
3299 2025 CircleF
3299 2070 CircleF
3358 2070 CircleF
3358 2070 CircleF
3418 2070 CircleF
3418 2070 CircleF
3478 2070 CircleF
3478 2070 CircleF
3538 2070 CircleF
3538 2070 CircleF
3598 2070 CircleF
3598 2070 CircleF
3657 2070 CircleF
3657 2070 CircleF
3717 2070 CircleF
3717 2070 CircleF
3777 2070 CircleF
3777 2070 CircleF
3837 2070 CircleF
3837 2070 CircleF
3897 2070 CircleF
3897 2070 CircleF
3957 2070 CircleF
3957 2116 CircleF
4016 2116 CircleF
4016 2116 CircleF
4076 2116 CircleF
4076 2116 CircleF
4136 2116 CircleF
4136 2116 CircleF
4196 2116 CircleF
4196 2162 CircleF
4256 2162 CircleF
4256 2162 CircleF
4315 2162 CircleF
4315 2162 CircleF
4375 2162 CircleF
4375 2162 CircleF
4435 2162 CircleF
4435 2162 CircleF
4495 2162 CircleF
4495 2208 CircleF
4555 2208 CircleF
4555 2300 CircleF
4614 2300 CircleF
4614 2300 CircleF
4674 2300 CircleF
4674 2300 CircleF
4734 2300 CircleF
4734 2300 CircleF
4794 2300 CircleF
4794 2300 CircleF
4854 2300 CircleF
4854 2300 CircleF
4913 2300 CircleF
4913 2300 CircleF
4973 2300 CircleF
4973 2300 CircleF
5033 2300 CircleF
5033 2300 CircleF
5093 2300 CircleF
5093 2300 CircleF
5153 2300 CircleF
5153 2300 CircleF
5213 2300 CircleF
5213 2392 CircleF
5272 2392 CircleF
5272 2438 CircleF
5332 2438 CircleF
5332 2484 CircleF
5392 2484 CircleF
5392 2530 CircleF
5452 2530 CircleF
5452 2576 CircleF
5512 2576 CircleF
5512 2576 CircleF
5571 2576 CircleF
5571 2576 CircleF
5631 2576 CircleF
5631 2621 CircleF
5691 2621 CircleF
5691 3264 CircleF
5751 3264 CircleF
5751 3356 CircleF
5811 3356 CircleF
5811 3402 CircleF
5870 3402 CircleF
5870 3402 CircleF
5930 3402 CircleF
5930 3540 CircleF
5990 3540 CircleF
5990 3631 CircleF
6050 3631 CircleF
6050 3631 CircleF
6110 3631 CircleF
6110 3861 CircleF
6169 3861 CircleF
6169 3861 CircleF
6229 3861 CircleF
6229 3861 CircleF
6289 3861 CircleF
6289 3861 CircleF
6349 3861 CircleF
6349 3861 CircleF
6409 3861 CircleF
6409 4228 CircleF
6469 4228 CircleF
6469 4779 CircleF
6528 4779 CircleF
6528 4779 CircleF
6588 4779 CircleF
6588 4779 CircleF
6648 4779 CircleF
6648 4779 CircleF
6708 4779 CircleF
6708 4779 CircleF
6768 4779 CircleF
6768 4779 CircleF
6827 4779 CircleF
6827 4825 CircleF
6887 4825 CircleF
966 280 CircleF
1026 280 CircleF
6887 4871 CircleF
6947 4871 CircleF
1026 280 CircleF
1086 280 CircleF
1086 280 CircleF
1145 280 CircleF
1145 280 CircleF
1205 280 CircleF
1205 280 CircleF
1265 280 CircleF
1265 280 CircleF
1265 326 CircleF
1684 326 CircleF
1684 372 CircleF
2102 372 CircleF
2102 418 CircleF
2102 418 CircleF
2102 464 CircleF
2102 464 CircleF
2102 510 CircleF
2102 510 CircleF
2102 555 CircleF
2102 555 CircleF
2102 601 CircleF
2102 601 CircleF
2102 647 CircleF
2282 647 CircleF
2282 693 CircleF
2461 693 CircleF
2461 739 CircleF
2581 739 CircleF
2581 785 CircleF
2581 785 CircleF
2581 831 CircleF
2700 831 CircleF
2700 877 CircleF
2880 877 CircleF
2880 923 CircleF
2880 923 CircleF
2880 969 CircleF
2940 969 CircleF
2940 1015 CircleF
2940 1015 CircleF
2940 1060 CircleF
2940 1060 CircleF
2940 1106 CircleF
2940 1106 CircleF
2940 1152 CircleF
2940 1152 CircleF
2940 1198 CircleF
2940 1198 CircleF
2940 1244 CircleF
3000 1244 CircleF
3000 1290 CircleF
3000 1290 CircleF
3000 1336 CircleF
3059 1336 CircleF
3059 1382 CircleF
3059 1382 CircleF
3059 1428 CircleF
3059 1428 CircleF
3059 1474 CircleF
3179 1474 CircleF
3179 1520 CircleF
3179 1520 CircleF
3179 1565 CircleF
3179 1565 CircleF
3179 1611 CircleF
3179 1611 CircleF
3179 1657 CircleF
3179 1657 CircleF
3179 1703 CircleF
3179 1703 CircleF
3179 1749 CircleF
3179 1749 CircleF
3179 1795 CircleF
3179 1795 CircleF
3179 1841 CircleF
3179 1841 CircleF
3179 1887 CircleF
3179 1887 CircleF
3179 1933 CircleF
3179 1933 CircleF
3179 1979 CircleF
3179 1979 CircleF
3179 2025 CircleF
3299 2025 CircleF
3299 2070 CircleF
3957 2070 CircleF
3957 2116 CircleF
4196 2116 CircleF
4196 2162 CircleF
4495 2162 CircleF
4495 2208 CircleF
4555 2208 CircleF
4555 2254 CircleF
4555 2254 CircleF
4555 2300 CircleF
5213 2300 CircleF
5213 2346 CircleF
5213 2346 CircleF
5213 2392 CircleF
5272 2392 CircleF
5272 2438 CircleF
5332 2438 CircleF
5332 2484 CircleF
5392 2484 CircleF
5392 2530 CircleF
5452 2530 CircleF
5452 2576 CircleF
5631 2576 CircleF
5631 2621 CircleF
5691 2621 CircleF
5691 2667 CircleF
5691 2667 CircleF
5691 2713 CircleF
5691 2713 CircleF
5691 2759 CircleF
5691 2759 CircleF
5691 2805 CircleF
5691 2805 CircleF
5691 2851 CircleF
5691 2851 CircleF
5691 2897 CircleF
5691 2897 CircleF
5691 2943 CircleF
5691 2943 CircleF
5691 2989 CircleF
5691 2989 CircleF
5691 3035 CircleF
5691 3035 CircleF
5691 3081 CircleF
5691 3081 CircleF
5691 3126 CircleF
5691 3126 CircleF
5691 3172 CircleF
5691 3172 CircleF
5691 3218 CircleF
5691 3218 CircleF
5691 3264 CircleF
5751 3264 CircleF
5751 3310 CircleF
5751 3310 CircleF
5751 3356 CircleF
5811 3356 CircleF
5811 3402 CircleF
5930 3402 CircleF
5930 3448 CircleF
5930 3448 CircleF
5930 3494 CircleF
5930 3494 CircleF
5930 3540 CircleF
5990 3540 CircleF
5990 3586 CircleF
5990 3586 CircleF
5990 3631 CircleF
6110 3631 CircleF
6110 3677 CircleF
6110 3677 CircleF
6110 3723 CircleF
6110 3723 CircleF
6110 3769 CircleF
6110 3769 CircleF
6110 3815 CircleF
6110 3815 CircleF
6110 3861 CircleF
6409 3861 CircleF
6409 3907 CircleF
6409 3907 CircleF
6409 3953 CircleF
6409 3953 CircleF
6409 3999 CircleF
6409 3999 CircleF
6409 4045 CircleF
6409 4045 CircleF
6409 4091 CircleF
6409 4091 CircleF
6409 4136 CircleF
6409 4136 CircleF
6409 4182 CircleF
6409 4182 CircleF
6409 4228 CircleF
6469 4228 CircleF
6469 4274 CircleF
6469 4274 CircleF
6469 4320 CircleF
6469 4320 CircleF
6469 4366 CircleF
6469 4366 CircleF
6469 4412 CircleF
6469 4412 CircleF
6469 4458 CircleF
6469 4458 CircleF
6469 4504 CircleF
6469 4504 CircleF
6469 4550 CircleF
6469 4550 CircleF
6469 4596 CircleF
6469 4596 CircleF
6469 4641 CircleF
6469 4641 CircleF
6469 4687 CircleF
6469 4687 CircleF
6469 4733 CircleF
6469 4733 CircleF
6469 4779 CircleF
6827 4779 CircleF
6827 4825 CircleF
6887 4825 CircleF
6887 4871 CircleF
% End plot #1
% Begin plot #2
1.500 UP
2.000 UL
LT0
1.00 0.55 0.00 C /Helvetica findfont 140 scalefont setfont
2242 312 M
100 77 V
2035 860 M
89 69 V
1213 2123 M
74 56 V
6162 695 M
103 79 V
-725 629 R
72 56 V
5970 950 M
79 61 V
2641 1260 M
70 53 V
938 3367 R
68 52 V
1092 1880 M
95 73 V
6345 1500 M
99 76 V
5909 1440 M
73 57 V
1792 3756 M
97 74 V
4115 3021 M
94 73 V
6457 2898 M
88 68 V
6074 842 M
112 86 V
2837 871 M
92 70 V
2395 4531 M
113 86 V
6344 2452 M
114 87 V
3465 2291 M
79 61 V
1116 1319 M
108 83 V
218 939 R
87 66 V
6512 474 M
68 52 V
6391 712 M
70 54 V
1817 3671 M
112 86 V
2044 362 M
67 51 V
3490 807 M
72 56 V
2054 288 R
118 91 V
3037 2689 M
110 84 V
5936 4609 M
89 69 V
3998 3622 M
103 79 V
1226 3131 M
79 61 V
3875 886 R
90 70 V
3676 4714 M
73 56 V
2651 -76 R
80 61 V
-6 -488 R
75 57 V
2091 374 M
117 89 V
6057 1823 M
65 50 V
3770 1303 M
69 53 V
1185 4168 M
110 84 V
1873 432 M
85 64 V
599 4258 R
97 75 V
4082 3889 M
96 74 V
1698 3227 M
82 64 V
1553 1651 M
81 62 V
5156 721 M
61 47 V
1258 862 M
69 53 V
2475 108 R
103 79 V
3367 3908 M
81 63 V
6646 3495 M
92 70 V
3999 4458 M
77 59 V
2609 2567 M
105 81 V
4243 766 M
75 57 V
6435 3357 M
112 86 V
stroke 6547 3443 M
-1642 79 R
88 68 V
3039 3992 M
80 61 V
6018 2512 M
69 53 V
2222 1017 M
86 67 V
4134 4774 M
116 89 V
5758 462 M
63 48 V
997 3397 M
79 61 V
6603 1109 M
92 70 V
4044 2320 M
96 73 V
1217 616 R
91 69 V
881 726 R
113 87 V
5508 504 M
63 48 V
2383 661 M
84 64 V
3586 2636 M
97 74 V
4703 1920 M
106 82 V
4799 588 M
75 57 V
2115 2279 M
84 64 V
2050 4651 M
72 56 V
4906 2475 M
92 71 V
4103 2192 M
102 79 V
6122 1633 M
88 68 V
3933 4461 M
77 59 V
3010 553 M
74 57 V
762 326 R
99 76 V
2643 4265 M
100 77 V
5571 2984 M
82 62 V
4143 2076 M
91 70 V
2928 2336 M
106 82 V
2943 221 R
117 90 V
4799 3119 M
101 78 V
1942 1065 M
63 48 V
4536 458 R
68 52 V
2733 2276 M
101 79 V
2901 370 M
110 84 V
4372 1478 M
88 67 V
-92 3129 R
82 63 V
5068 2605 M
113 86 V
2258 3308 M
98 75 V
1521 2934 M
64 50 V
21 1678 R
87 67 V
5659 2944 M
81 62 V
4216 3570 M
111 86 V
-3254 92 R
80 61 V
4734 2958 M
109 84 V
519 1550 R
100 78 V
5613 3192 M
87 67 V
2171 2307 M
100 76 V
2084 3975 M
88 67 V
6437 3591 M
73 57 V
5247 1824 M
98 76 V
3046 3593 M
80 62 V
904 726 R
103 79 V
stroke 4133 4460 M
2343 718 M
71 55 V
5192 1899 M
95 73 V
1534 4002 M
94 73 V
4653 2110 M
84 64 V
5742 4384 M
114 88 V
1304 3180 M
95 73 V
3272 2695 M
75 58 V
1923 874 R
79 61 V
2343 2393 M
110 84 V
5407 4536 M
72 56 V
3486 1211 M
96 74 V
3001 491 M
72 55 V
4522 4317 M
89 68 V
4129 2571 M
112 86 V
1693 1118 M
106 81 V
4839 388 R
71 54 V
4459 3684 M
107 82 V
1282 1232 M
107 82 V
6113 3288 M
92 71 V
3856 494 M
70 54 V
2383 505 M
101 77 V
1643 3446 M
87 67 V
4766 4585 M
84 65 V
3140 1985 M
80 61 V
2030 1485 M
75 57 V
911 536 R
62 48 V
4303 4584 M
85 65 V
1390 379 M
92 70 V
1235 3795 M
71 55 V
1562 587 M
85 65 V
1402 1807 M
102 78 V
5800 4231 M
107 82 V
2188 1616 M
106 81 V
3839 958 M
118 90 V
5914 342 M
70 53 V
1596 2343 M
98 76 V
4497 2166 M
99 76 V
1447 1537 M
81 62 V
2896 3118 M
84 64 V
1966 110 R
81 62 V
974 4017 M
100 76 V
811 -646 R
61 48 V
2516 1387 M
91 70 V
4131 30 R
74 57 V
6535 479 M
101 78 V
3542 1081 M
66 51 V
2271 648 M
63 49 V
6116 3004 M
69 53 V
6497 1437 M
89 69 V
1434 983 M
76 58 V
4737 3508 M
80 61 V
-69 278 R
72 55 V
stroke 4820 3902 M
1269 2263 M
107 82 V
3794 -44 R
72 55 V
2910 728 M
100 78 V
2205 2036 M
108 83 V
3927 834 M
117 90 V
3792 2110 M
110 84 V
3239 3223 M
67 50 V
5377 2180 M
93 71 V
3557 326 M
106 81 V
-161 56 R
92 70 V
866 3987 R
105 81 V
2491 3459 M
62 48 V
-445 948 R
93 71 V
6233 376 M
104 79 V
5785 1630 M
81 62 V
4208 1553 M
95 73 V
2076 580 R
61 46 V
-2566 30 R
77 59 V
2786 2762 M
116 90 V
1146 831 M
115 88 V
6501 2810 M
85 66 V
5074 4310 M
116 89 V
4079 2639 M
83 64 V
2523 4225 M
107 82 V
3562 2036 M
66 51 V
6175 3831 M
88 68 V
2950 4135 M
66 51 V
3597 2588 M
108 83 V
2317 3241 M
60 46 V
3844 2017 M
99 76 V
1540 1912 M
113 86 V
2810 3744 M
98 75 V
5638 2636 M
86 66 V
886 523 R
88 67 V
4113 3534 M
60 47 V
6165 1389 M
88 68 V
503 1778 R
91 69 V
2758 832 M
72 55 V
6407 2461 M
90 69 V
3623 711 M
118 90 V
6317 756 M
109 84 V
5003 2850 M
111 86 V
1845 2503 M
81 61 V
4756 2261 M
108 84 V
1697 2042 M
118 91 V
451 381 R
100 76 V
2676 352 R
92 70 V
946 803 R
98 76 V
1318 3732 M
100 77 V
6774 1382 M
83 63 V
2346 996 M
63 49 V
6368 4042 M
96 73 V
stroke 6464 4115 M
1295 707 M
95 73 V
3796 3259 M
98 75 V
-976 418 R
102 79 V
58 -1620 R
78 60 V
5925 3500 M
89 68 V
5155 927 M
70 54 V
1883 3205 M
102 78 V
4447 1051 M
113 87 V
957 3304 R
76 59 V
2257 2523 M
115 88 V
2142 1720 M
117 89 V
1265 297 M
79 60 V
5237 3197 M
82 64 V
751 -22 R
77 59 V
1732 3923 M
111 84 V
5441 3087 M
75 58 V
-964 80 R
74 57 V
3640 4537 M
90 69 V
3875 1621 M
95 73 V
2820 660 R
110 84 V
3713 733 M
105 80 V
-59 2968 R
63 49 V
4164 1672 M
93 72 V
1316 787 R
110 84 V
1030 4357 M
92 71 V
6375 627 M
71 55 V
4804 4232 M
110 84 V
6609 2558 M
102 78 V
5960 1604 M
103 78 V
5326 370 M
116 89 V
223 3359 R
98 75 V
2515 3078 M
114 87 V
4015 4235 M
83 63 V
2348 411 R
81 62 V
3044 3205 M
111 85 V
6318 2085 M
61 48 V
2094 868 M
105 80 V
5314 4732 M
77 59 V
1157 1475 M
84 65 V
2647 4595 M
66 51 V
5757 3720 M
97 74 V
67 383 R
107 82 V
2305 2969 M
116 89 V
3285 2025 M
74 57 V
3169 1783 M
100 77 V
8 -1171 R
104 80 V
2748 4015 M
103 79 V
1480 290 M
81 62 V
1280 4606 M
107 82 V
2012 2361 M
114 87 V
1870 4274 M
63 49 V
3176 3701 M
74 58 V
stroke 3250 3759 M
1027 847 R
115 88 V
5727 3315 M
109 83 V
4164 4583 M
98 76 V
6593 3755 M
82 63 V
2444 2970 M
60 46 V
2939 395 R
85 65 V
3049 2235 M
110 84 V
2420 1578 M
62 48 V
4059 811 R
101 78 V
4958 1718 M
103 79 V
2655 1285 M
94 72 V
6324 4068 M
111 86 V
2046 560 M
106 81 V
3205 8 R
109 84 V
4368 4470 M
109 84 V
3396 3993 M
103 78 V
3247 651 R
110 84 V
6552 3387 M
67 52 V
3549 3893 M
84 65 V
5872 1642 M
89 68 V
4180 1354 M
61 47 V
2651 2795 M
81 62 V
1544 338 R
90 68 V
2487 1980 M
97 74 V
2236 4513 M
79 61 V
-341 124 R
60 46 V
6175 2724 M
84 64 V
5125 1565 M
62 48 V
2631 2836 M
118 91 V
3988 366 R
96 74 V
4245 4700 M
86 66 V
2149 4361 M
118 90 V
5407 572 M
88 68 V
4138 1857 M
68 53 V
-3102 45 R
65 50 V
51 -491 R
94 72 V
3063 4271 M
109 83 V
6156 972 M
91 70 V
5989 611 M
67 52 V
5087 3490 M
108 83 V
5665 2123 M
100 77 V
2566 3762 M
65 50 V
3141 1895 M
83 64 V
2889 3660 M
81 62 V
1106 3374 M
108 82 V
4248 1446 M
87 67 V
-940 -88 R
77 59 V
5887 4465 M
118 91 V
5320 1305 M
89 69 V
1118 4040 M
107 82 V
2477 736 M
107 82 V
292 3036 R
96 74 V
stroke 2972 3928 M
5130 1723 M
65 50 V
3613 2690 M
112 86 V
3115 353 M
89 69 V
1323 743 M
90 69 V
2751 1903 M
82 63 V
4065 996 M
119 91 V
197 503 R
85 65 V
2022 4631 M
96 73 V
4409 3626 M
80 62 V
1917 1569 M
71 54 V
3430 909 R
92 71 V
244 -620 R
69 52 V
4136 3602 M
91 70 V
126 -702 R
116 89 V
5902 1634 M
117 90 V
1167 509 M
84 65 V
1636 896 R
61 47 V
3430 988 M
111 85 V
2328 633 R
101 78 V
0 1539 R
98 75 V
3822 3670 M
97 74 V
2076 1838 M
85 65 V
4166 3993 M
61 47 V
1282 564 R
111 85 V
4344 895 M
105 80 V
-306 750 R
105 80 V
3032 1324 M
62 48 V
5153 509 M
89 68 V
1057 4380 M
93 72 V
5534 620 M
83 64 V
3061 1458 M
110 84 V
1516 836 M
75 57 V
2464 451 M
70 54 V
3821 3891 M
60 47 V
3315 518 M
71 55 V
1221 4501 M
89 69 V
2993 3252 M
116 88 V
5590 4711 M
115 88 V
3170 1684 M
113 87 V
2997 4458 M
84 65 V
6135 3067 M
61 47 V
2872 711 M
92 71 V
3089 519 M
119 91 V
5956 4141 M
64 49 V
1757 1514 M
107 82 V
622 -182 R
116 89 V
5480 3287 M
60 47 V
871 77 R
115 88 V
5213 2386 M
86 66 V
4547 428 M
98 75 V
1303 1983 M
94 72 V
5523 941 M
114 87 V
stroke 5637 1028 M
42 1607 R
102 78 V
2796 1458 M
82 63 V
5206 4160 M
92 70 V
3320 3144 M
88 68 V
2120 3401 M
97 75 V
-669 254 R
79 61 V
3450 1728 M
117 90 V
4632 624 M
96 73 V
6211 4245 M
119 91 V
92 -1100 R
64 50 V
-4598 68 R
77 59 V
448 331 R
110 84 V
1174 947 M
102 79 V
2870 203 R
80 61 V
2723 895 M
61 48 V
382 1556 R
96 74 V
2875 938 M
65 50 V
5813 668 M
81 62 V
5447 1982 M
70 53 V
4464 2637 M
95 73 V
5532 1070 M
94 72 V
412 1002 R
75 58 V
-767 279 R
63 49 V
105 1421 R
91 70 V
6221 2077 M
84 65 V
1382 3708 M
93 71 V
2192 2077 M
93 71 V
892 -674 R
99 76 V
618 2755 R
108 84 V
1891 3203 M
102 78 V
6331 535 M
73 56 V
1333 674 M
68 52 V
6101 678 M
116 89 V
5978 2580 M
117 90 V
1653 1095 M
118 91 V
2242 312 CircleF
2342 389 CircleF
2035 860 CircleF
2124 929 CircleF
1213 2123 CircleF
1287 2179 CircleF
6162 695 CircleF
6265 774 CircleF
5540 1403 CircleF
5612 1459 CircleF
5970 950 CircleF
6049 1011 CircleF
2641 1260 CircleF
2711 1313 CircleF
3649 4680 CircleF
3717 4732 CircleF
1092 1880 CircleF
1187 1953 CircleF
6345 1500 CircleF
6444 1576 CircleF
5909 1440 CircleF
5982 1497 CircleF
1792 3756 CircleF
1889 3830 CircleF
4115 3021 CircleF
4209 3094 CircleF
6457 2898 CircleF
6545 2966 CircleF
6074 842 CircleF
6186 928 CircleF
2837 871 CircleF
2929 941 CircleF
2395 4531 CircleF
2508 4617 CircleF
6344 2452 CircleF
6458 2539 CircleF
3465 2291 CircleF
3544 2352 CircleF
1116 1319 CircleF
1224 1402 CircleF
1442 2341 CircleF
1529 2407 CircleF
6512 474 CircleF
6580 526 CircleF
6391 712 CircleF
6461 766 CircleF
1817 3671 CircleF
1929 3757 CircleF
2044 362 CircleF
2111 413 CircleF
3490 807 CircleF
3562 863 CircleF
5616 1151 CircleF
5734 1242 CircleF
3037 2689 CircleF
3147 2773 CircleF
5936 4609 CircleF
6025 4678 CircleF
3998 3622 CircleF
4101 3701 CircleF
1226 3131 CircleF
1305 3192 CircleF
5180 4078 CircleF
5270 4148 CircleF
3676 4714 CircleF
3749 4770 CircleF
6400 4694 CircleF
6480 4755 CircleF
6474 4267 CircleF
6549 4324 CircleF
2091 374 CircleF
2208 463 CircleF
6057 1823 CircleF
6122 1873 CircleF
3770 1303 CircleF
3839 1356 CircleF
1185 4168 CircleF
1295 4252 CircleF
1873 432 CircleF
1958 496 CircleF
2557 4754 CircleF
2654 4829 CircleF
4082 3889 CircleF
4178 3963 CircleF
1698 3227 CircleF
1780 3291 CircleF
1553 1651 CircleF
1634 1713 CircleF
5156 721 CircleF
5217 768 CircleF
1258 862 CircleF
1327 915 CircleF
3802 1023 CircleF
3905 1102 CircleF
3367 3908 CircleF
3448 3971 CircleF
6646 3495 CircleF
6738 3565 CircleF
3999 4458 CircleF
4076 4517 CircleF
2609 2567 CircleF
2714 2648 CircleF
4243 766 CircleF
4318 823 CircleF
6435 3357 CircleF
6547 3443 CircleF
4905 3522 CircleF
4993 3590 CircleF
3039 3992 CircleF
3119 4053 CircleF
6018 2512 CircleF
6087 2565 CircleF
2222 1017 CircleF
2308 1084 CircleF
4134 4774 CircleF
4250 4863 CircleF
5758 462 CircleF
5821 510 CircleF
997 3397 CircleF
1076 3458 CircleF
6603 1109 CircleF
6695 1179 CircleF
4044 2320 CircleF
4140 2393 CircleF
5357 3009 CircleF
5448 3078 CircleF
6329 3804 CircleF
6442 3891 CircleF
5508 504 CircleF
5571 552 CircleF
2383 661 CircleF
2467 725 CircleF
3586 2636 CircleF
3683 2710 CircleF
4703 1920 CircleF
4809 2002 CircleF
4799 588 CircleF
4874 645 CircleF
2115 2279 CircleF
2199 2343 CircleF
2050 4651 CircleF
2122 4707 CircleF
4906 2475 CircleF
4998 2546 CircleF
4103 2192 CircleF
4205 2271 CircleF
6122 1633 CircleF
6210 1701 CircleF
3933 4461 CircleF
4010 4520 CircleF
3010 553 CircleF
3084 610 CircleF
3846 936 CircleF
3945 1012 CircleF
2643 4265 CircleF
2743 4342 CircleF
5571 2984 CircleF
5653 3046 CircleF
4143 2076 CircleF
4234 2146 CircleF
2928 2336 CircleF
3034 2418 CircleF
5977 2639 CircleF
6094 2729 CircleF
4799 3119 CircleF
4900 3197 CircleF
1942 1065 CircleF
2005 1113 CircleF
6541 1571 CircleF
6609 1623 CircleF
2733 2276 CircleF
2834 2355 CircleF
2901 370 CircleF
3011 454 CircleF
4372 1478 CircleF
4460 1545 CircleF
4368 4674 CircleF
4450 4737 CircleF
5068 2605 CircleF
5181 2691 CircleF
2258 3308 CircleF
2356 3383 CircleF
1521 2934 CircleF
1585 2984 CircleF
1606 4662 CircleF
1693 4729 CircleF
5659 2944 CircleF
5740 3006 CircleF
4216 3570 CircleF
4327 3656 CircleF
1073 3748 CircleF
1153 3809 CircleF
4734 2958 CircleF
4843 3042 CircleF
5362 4592 CircleF
5462 4670 CircleF
5613 3192 CircleF
5700 3259 CircleF
2171 2307 CircleF
2271 2383 CircleF
2084 3975 CircleF
2172 4042 CircleF
6437 3591 CircleF
6510 3648 CircleF
5247 1824 CircleF
5345 1900 CircleF
3046 3593 CircleF
3126 3655 CircleF
4030 4381 CircleF
4133 4460 CircleF
2343 718 CircleF
2414 773 CircleF
5192 1899 CircleF
5287 1972 CircleF
1534 4002 CircleF
1628 4075 CircleF
4653 2110 CircleF
4737 2174 CircleF
5742 4384 CircleF
5856 4472 CircleF
1304 3180 CircleF
1399 3253 CircleF
3272 2695 CircleF
3347 2753 CircleF
5270 3627 CircleF
5349 3688 CircleF
2343 2393 CircleF
2453 2477 CircleF
5407 4536 CircleF
5479 4592 CircleF
3486 1211 CircleF
3582 1285 CircleF
3001 491 CircleF
3073 546 CircleF
4522 4317 CircleF
4611 4385 CircleF
4129 2571 CircleF
4241 2657 CircleF
1693 1118 CircleF
1799 1199 CircleF
6638 1587 CircleF
6709 1641 CircleF
4459 3684 CircleF
4566 3766 CircleF
1282 1232 CircleF
1389 1314 CircleF
6113 3288 CircleF
6205 3359 CircleF
3856 494 CircleF
3926 548 CircleF
2383 505 CircleF
2484 582 CircleF
1643 3446 CircleF
1730 3513 CircleF
4766 4585 CircleF
4850 4650 CircleF
3140 1985 CircleF
3220 2046 CircleF
2030 1485 CircleF
2105 1542 CircleF
3016 2078 CircleF
3078 2126 CircleF
4303 4584 CircleF
4388 4649 CircleF
1390 379 CircleF
1482 449 CircleF
1235 3795 CircleF
1306 3850 CircleF
1562 587 CircleF
1647 652 CircleF
1402 1807 CircleF
1504 1885 CircleF
5800 4231 CircleF
5907 4313 CircleF
2188 1616 CircleF
2294 1697 CircleF
3839 958 CircleF
3957 1048 CircleF
5914 342 CircleF
5984 395 CircleF
1596 2343 CircleF
1694 2419 CircleF
4497 2166 CircleF
4596 2242 CircleF
1447 1537 CircleF
1528 1599 CircleF
2896 3118 CircleF
2980 3182 CircleF
4946 3292 CircleF
5027 3354 CircleF
974 4017 CircleF
1074 4093 CircleF
1885 3447 CircleF
1946 3495 CircleF
2516 1387 CircleF
2607 1457 CircleF
6738 1487 CircleF
6812 1544 CircleF
6535 479 CircleF
6636 557 CircleF
3542 1081 CircleF
3608 1132 CircleF
2271 648 CircleF
2334 697 CircleF
6116 3004 CircleF
6185 3057 CircleF
6497 1437 CircleF
6586 1506 CircleF
1434 983 CircleF
1510 1041 CircleF
4737 3508 CircleF
4817 3569 CircleF
4748 3847 CircleF
4820 3902 CircleF
1269 2263 CircleF
1376 2345 CircleF
5170 2301 CircleF
5242 2356 CircleF
2910 728 CircleF
3010 806 CircleF
2205 2036 CircleF
2313 2119 CircleF
3927 834 CircleF
4044 924 CircleF
3792 2110 CircleF
3902 2194 CircleF
3239 3223 CircleF
3306 3273 CircleF
5377 2180 CircleF
5470 2251 CircleF
3557 326 CircleF
3663 407 CircleF
3502 463 CircleF
3594 533 CircleF
4460 4520 CircleF
4565 4601 CircleF
2491 3459 CircleF
2553 3507 CircleF
2108 4455 CircleF
2201 4526 CircleF
6233 376 CircleF
6337 455 CircleF
5785 1630 CircleF
5866 1692 CircleF
4208 1553 CircleF
4303 1626 CircleF
6379 2206 CircleF
6440 2252 CircleF
3874 2282 CircleF
3951 2341 CircleF
2786 2762 CircleF
2902 2852 CircleF
1146 831 CircleF
1261 919 CircleF
6501 2810 CircleF
6586 2876 CircleF
5074 4310 CircleF
5190 4399 CircleF
4079 2639 CircleF
4162 2703 CircleF
2523 4225 CircleF
2630 4307 CircleF
3562 2036 CircleF
3628 2087 CircleF
6175 3831 CircleF
6263 3899 CircleF
2950 4135 CircleF
3016 4186 CircleF
3597 2588 CircleF
3705 2671 CircleF
2317 3241 CircleF
2377 3287 CircleF
3844 2017 CircleF
3943 2093 CircleF
1540 1912 CircleF
1653 1998 CircleF
2810 3744 CircleF
2908 3819 CircleF
5638 2636 CircleF
5724 2702 CircleF
6610 3225 CircleF
6698 3292 CircleF
4113 3534 CircleF
4173 3581 CircleF
6165 1389 CircleF
6253 1457 CircleF
6756 3235 CircleF
6847 3304 CircleF
2758 832 CircleF
2830 887 CircleF
6407 2461 CircleF
6497 2530 CircleF
3623 711 CircleF
3741 801 CircleF
6317 756 CircleF
6426 840 CircleF
5003 2850 CircleF
5114 2936 CircleF
1845 2503 CircleF
1926 2564 CircleF
4756 2261 CircleF
4864 2345 CircleF
1697 2042 CircleF
1815 2133 CircleF
2266 2514 CircleF
2366 2590 CircleF
5042 2942 CircleF
5134 3012 CircleF
6080 3815 CircleF
6178 3891 CircleF
1318 3732 CircleF
1418 3809 CircleF
6774 1382 CircleF
6857 1445 CircleF
2346 996 CircleF
2409 1045 CircleF
6368 4042 CircleF
6464 4115 CircleF
1295 707 CircleF
1390 780 CircleF
3796 3259 CircleF
3894 3334 CircleF
2918 3752 CircleF
3020 3831 CircleF
3078 2211 CircleF
3156 2271 CircleF
5925 3500 CircleF
6014 3568 CircleF
5155 927 CircleF
5225 981 CircleF
1883 3205 CircleF
1985 3283 CircleF
4447 1051 CircleF
4560 1138 CircleF
5517 4442 CircleF
5593 4501 CircleF
2257 2523 CircleF
2372 2611 CircleF
2142 1720 CircleF
2259 1809 CircleF
1265 297 CircleF
1344 357 CircleF
5237 3197 CircleF
5319 3261 CircleF
6070 3239 CircleF
6147 3298 CircleF
1732 3923 CircleF
1843 4007 CircleF
5441 3087 CircleF
5516 3145 CircleF
4552 3225 CircleF
4626 3282 CircleF
3640 4537 CircleF
3730 4606 CircleF
3875 1621 CircleF
3970 1694 CircleF
6790 2354 CircleF
6900 2438 CircleF
3713 733 CircleF
3818 813 CircleF
3759 3781 CircleF
3822 3830 CircleF
4164 1672 CircleF
4257 1744 CircleF
5573 2531 CircleF
5683 2615 CircleF
1030 4357 CircleF
1122 4428 CircleF
6375 627 CircleF
6446 682 CircleF
4804 4232 CircleF
4914 4316 CircleF
6609 2558 CircleF
6711 2636 CircleF
5960 1604 CircleF
6063 1682 CircleF
5326 370 CircleF
5442 459 CircleF
5665 3818 CircleF
5763 3893 CircleF
2515 3078 CircleF
2629 3165 CircleF
4015 4235 CircleF
4098 4298 CircleF
6446 4709 CircleF
6527 4771 CircleF
3044 3205 CircleF
3155 3290 CircleF
6318 2085 CircleF
6379 2133 CircleF
2094 868 CircleF
2199 948 CircleF
5314 4732 CircleF
5391 4791 CircleF
1157 1475 CircleF
1241 1540 CircleF
2647 4595 CircleF
2713 4646 CircleF
5757 3720 CircleF
5854 3794 CircleF
5921 4177 CircleF
6028 4259 CircleF
2305 2969 CircleF
2421 3058 CircleF
3285 2025 CircleF
3359 2082 CircleF
3169 1783 CircleF
3269 1860 CircleF
3277 689 CircleF
3381 769 CircleF
2748 4015 CircleF
2851 4094 CircleF
1480 290 CircleF
1561 352 CircleF
1280 4606 CircleF
1387 4688 CircleF
2012 2361 CircleF
2126 2448 CircleF
1870 4274 CircleF
1933 4323 CircleF
3176 3701 CircleF
3250 3759 CircleF
4277 4606 CircleF
4392 4694 CircleF
5727 3315 CircleF
5836 3398 CircleF
4164 4583 CircleF
4262 4659 CircleF
6593 3755 CircleF
6675 3818 CircleF
2444 2970 CircleF
2504 3016 CircleF
5443 3411 CircleF
5528 3476 CircleF
3049 2235 CircleF
3159 2319 CircleF
2420 1578 CircleF
2482 1626 CircleF
6541 2437 CircleF
6642 2515 CircleF
4958 1718 CircleF
5061 1797 CircleF
2655 1285 CircleF
2749 1357 CircleF
6324 4068 CircleF
6435 4154 CircleF
2046 560 CircleF
2152 641 CircleF
5357 649 CircleF
5466 733 CircleF
4368 4470 CircleF
4477 4554 CircleF
3396 3993 CircleF
3499 4071 CircleF
6746 4722 CircleF
6856 4806 CircleF
6552 3387 CircleF
6619 3439 CircleF
3549 3893 CircleF
3633 3958 CircleF
5872 1642 CircleF
5961 1710 CircleF
4180 1354 CircleF
4241 1401 CircleF
2651 2795 CircleF
2732 2857 CircleF
4276 3195 CircleF
4366 3263 CircleF
2487 1980 CircleF
2584 2054 CircleF
2236 4513 CircleF
2315 4574 CircleF
1974 4698 CircleF
2034 4744 CircleF
6175 2724 CircleF
6259 2788 CircleF
5125 1565 CircleF
5187 1613 CircleF
2631 2836 CircleF
2749 2927 CircleF
6737 3293 CircleF
6833 3367 CircleF
4245 4700 CircleF
4331 4766 CircleF
2149 4361 CircleF
2267 4451 CircleF
5407 572 CircleF
5495 640 CircleF
4138 1857 CircleF
4206 1910 CircleF
1104 1955 CircleF
1169 2005 CircleF
1220 1514 CircleF
1314 1586 CircleF
3063 4271 CircleF
3172 4354 CircleF
6156 972 CircleF
6247 1042 CircleF
5989 611 CircleF
6056 663 CircleF
5087 3490 CircleF
5195 3573 CircleF
5665 2123 CircleF
5765 2200 CircleF
2566 3762 CircleF
2631 3812 CircleF
3141 1895 CircleF
3224 1959 CircleF
2889 3660 CircleF
2970 3722 CircleF
1106 3374 CircleF
1214 3456 CircleF
4248 1446 CircleF
4335 1513 CircleF
3395 1425 CircleF
3472 1484 CircleF
5887 4465 CircleF
6005 4556 CircleF
5320 1305 CircleF
5409 1374 CircleF
1118 4040 CircleF
1225 4122 CircleF
2477 736 CircleF
2584 818 CircleF
2876 3854 CircleF
2972 3928 CircleF
5130 1723 CircleF
5195 1773 CircleF
3613 2690 CircleF
3725 2776 CircleF
3115 353 CircleF
3204 422 CircleF
1323 743 CircleF
1413 812 CircleF
2751 1903 CircleF
2833 1966 CircleF
4065 996 CircleF
4184 1087 CircleF
4381 1590 CircleF
4466 1655 CircleF
2022 4631 CircleF
2118 4704 CircleF
4409 3626 CircleF
4489 3688 CircleF
1917 1569 CircleF
1988 1623 CircleF
5418 2532 CircleF
5510 2603 CircleF
5754 1983 CircleF
5823 2035 CircleF
4136 3602 CircleF
4227 3672 CircleF
4353 2970 CircleF
4469 3059 CircleF
5902 1634 CircleF
6019 1724 CircleF
1167 509 CircleF
1251 574 CircleF
2887 1470 CircleF
2948 1517 CircleF
3430 988 CircleF
3541 1073 CircleF
5869 1706 CircleF
5970 1784 CircleF
5970 3323 CircleF
6068 3398 CircleF
3822 3670 CircleF
3919 3744 CircleF
2076 1838 CircleF
2161 1903 CircleF
4166 3993 CircleF
4227 4040 CircleF
5509 4604 CircleF
5620 4689 CircleF
4344 895 CircleF
4449 975 CircleF
4143 1725 CircleF
4248 1805 CircleF
3032 1324 CircleF
3094 1372 CircleF
5153 509 CircleF
5242 577 CircleF
1057 4380 CircleF
1150 4452 CircleF
5534 620 CircleF
5617 684 CircleF
3061 1458 CircleF
3171 1542 CircleF
1516 836 CircleF
1591 893 CircleF
2464 451 CircleF
2534 505 CircleF
3821 3891 CircleF
3881 3938 CircleF
3315 518 CircleF
3386 573 CircleF
1221 4501 CircleF
1310 4570 CircleF
2993 3252 CircleF
3109 3340 CircleF
5590 4711 CircleF
5705 4799 CircleF
3170 1684 CircleF
3283 1771 CircleF
2997 4458 CircleF
3081 4523 CircleF
6135 3067 CircleF
6196 3114 CircleF
2872 711 CircleF
2964 782 CircleF
3089 519 CircleF
3208 610 CircleF
5956 4141 CircleF
6020 4190 CircleF
1757 1514 CircleF
1864 1596 CircleF
2486 1414 CircleF
2602 1503 CircleF
5480 3287 CircleF
5540 3334 CircleF
6411 3411 CircleF
6526 3499 CircleF
5213 2386 CircleF
5299 2452 CircleF
4547 428 CircleF
4645 503 CircleF
1303 1983 CircleF
1397 2055 CircleF
5523 941 CircleF
5637 1028 CircleF
5679 2635 CircleF
5781 2713 CircleF
2796 1458 CircleF
2878 1521 CircleF
5206 4160 CircleF
5298 4230 CircleF
3320 3144 CircleF
3408 3212 CircleF
2120 3401 CircleF
2217 3476 CircleF
1548 3730 CircleF
1627 3791 CircleF
3450 1728 CircleF
3567 1818 CircleF
4632 624 CircleF
4728 697 CircleF
6211 4245 CircleF
6330 4336 CircleF
6422 3236 CircleF
6486 3286 CircleF
1888 3354 CircleF
1965 3413 CircleF
2413 3744 CircleF
2523 3828 CircleF
1174 947 CircleF
1276 1026 CircleF
4146 1229 CircleF
4226 1290 CircleF
2723 895 CircleF
2784 943 CircleF
3166 2499 CircleF
3262 2573 CircleF
2875 938 CircleF
2940 988 CircleF
5813 668 CircleF
5894 730 CircleF
5447 1982 CircleF
5517 2035 CircleF
4464 2637 CircleF
4559 2710 CircleF
5532 1070 CircleF
5626 1142 CircleF
6038 2144 CircleF
6113 2202 CircleF
5346 2481 CircleF
5409 2530 CircleF
5514 3951 CircleF
5605 4021 CircleF
6221 2077 CircleF
6305 2142 CircleF
1382 3708 CircleF
1475 3779 CircleF
2192 2077 CircleF
2285 2148 CircleF
3177 1474 CircleF
3276 1550 CircleF
3894 4305 CircleF
4002 4389 CircleF
1891 3203 CircleF
1993 3281 CircleF
6331 535 CircleF
6404 591 CircleF
1333 674 CircleF
1401 726 CircleF
6101 678 CircleF
6217 767 CircleF
5978 2580 CircleF
6095 2670 CircleF
1653 1095 CircleF
1771 1186 CircleF
% End plot #2
1.000 UP
1.000 UL
LT0
0.50 0.50 0.50 C stroke
grestore
end
showpage
%%Trailer
%%DocumentFonts: Helvetica
%%Pages: 1
