%!PS-Adobe-2.0
%%Title: out.ps
%%Creator: gnuplot 4.6 patchlevel 6
%%CreationDate: Fri May 29 00:03:43 2015
%%DocumentFonts: (atend)
%%BoundingBox: 50 50 554 770
%%Orientation: Landscape
%%Pages: (atend)
%%EndComments
%%BeginProlog
/gnudict 256 dict def
gnudict begin
%
% The following true/false flags may be edited by hand if desired.
% The unit line width and grayscale image gamma correction may also be changed.
%
/Color false def
/Blacktext false def
/Solid false def
/Dashlength 1 def
/Landscape true def
/Level1 false def
/Rounded false def
/ClipToBoundingBox false def
/SuppressPDFMark false def
/TransparentPatterns false def
/gnulinewidth 5.000 def
/userlinewidth gnulinewidth def
/Gamma 1.0 def
/BackgroundColor {-1.000 -1.000 -1.000} def
%
/vshift -46 def
/dl1 {
  10.0 Dashlength mul mul
  Rounded { currentlinewidth 0.75 mul sub dup 0 le { pop 0.01 } if } if
} def
/dl2 {
  10.0 Dashlength mul mul
  Rounded { currentlinewidth 0.75 mul add } if
} def
/hpt_ 31.5 def
/vpt_ 31.5 def
/hpt hpt_ def
/vpt vpt_ def
/doclip {
  ClipToBoundingBox {
    newpath 50 50 moveto 554 50 lineto 554 770 lineto 50 770 lineto closepath
    clip
  } if
} def
%
% Gnuplot Prolog Version 4.6 (September 2012)
%
%/SuppressPDFMark true def
%
/M {moveto} bind def
/L {lineto} bind def
/R {rmoveto} bind def
/V {rlineto} bind def
/N {newpath moveto} bind def
/Z {closepath} bind def
/C {setrgbcolor} bind def
/f {rlineto fill} bind def
/g {setgray} bind def
/Gshow {show} def   % May be redefined later in the file to support UTF-8
/vpt2 vpt 2 mul def
/hpt2 hpt 2 mul def
/Lshow {currentpoint stroke M 0 vshift R 
	Blacktext {gsave 0 setgray show grestore} {show} ifelse} def
/Rshow {currentpoint stroke M dup stringwidth pop neg vshift R
	Blacktext {gsave 0 setgray show grestore} {show} ifelse} def
/Cshow {currentpoint stroke M dup stringwidth pop -2 div vshift R 
	Blacktext {gsave 0 setgray show grestore} {show} ifelse} def
/UP {dup vpt_ mul /vpt exch def hpt_ mul /hpt exch def
  /hpt2 hpt 2 mul def /vpt2 vpt 2 mul def} def
/DL {Color {setrgbcolor Solid {pop []} if 0 setdash}
 {pop pop pop 0 setgray Solid {pop []} if 0 setdash} ifelse} def
/BL {stroke userlinewidth 2 mul setlinewidth
	Rounded {1 setlinejoin 1 setlinecap} if} def
/AL {stroke userlinewidth 2 div setlinewidth
	Rounded {1 setlinejoin 1 setlinecap} if} def
/UL {dup gnulinewidth mul /userlinewidth exch def
	dup 1 lt {pop 1} if 10 mul /udl exch def} def
/PL {stroke userlinewidth setlinewidth
	Rounded {1 setlinejoin 1 setlinecap} if} def
3.8 setmiterlimit
% Default Line colors
/LCw {1 1 1} def
/LCb {0 0 0} def
/LCa {0 0 0} def
/LC0 {1 0 0} def
/LC1 {0 1 0} def
/LC2 {0 0 1} def
/LC3 {1 0 1} def
/LC4 {0 1 1} def
/LC5 {1 1 0} def
/LC6 {0 0 0} def
/LC7 {1 0.3 0} def
/LC8 {0.5 0.5 0.5} def
% Default Line Types
/LTw {PL [] 1 setgray} def
/LTb {BL [] LCb DL} def
/LTa {AL [1 udl mul 2 udl mul] 0 setdash LCa setrgbcolor} def
/LT0 {PL [] LC0 DL} def
/LT1 {PL [4 dl1 2 dl2] LC1 DL} def
/LT2 {PL [2 dl1 3 dl2] LC2 DL} def
/LT3 {PL [1 dl1 1.5 dl2] LC3 DL} def
/LT4 {PL [6 dl1 2 dl2 1 dl1 2 dl2] LC4 DL} def
/LT5 {PL [3 dl1 3 dl2 1 dl1 3 dl2] LC5 DL} def
/LT6 {PL [2 dl1 2 dl2 2 dl1 6 dl2] LC6 DL} def
/LT7 {PL [1 dl1 2 dl2 6 dl1 2 dl2 1 dl1 2 dl2] LC7 DL} def
/LT8 {PL [2 dl1 2 dl2 2 dl1 2 dl2 2 dl1 2 dl2 2 dl1 4 dl2] LC8 DL} def
/Pnt {stroke [] 0 setdash gsave 1 setlinecap M 0 0 V stroke grestore} def
/Dia {stroke [] 0 setdash 2 copy vpt add M
  hpt neg vpt neg V hpt vpt neg V
  hpt vpt V hpt neg vpt V closepath stroke
  Pnt} def
/Pls {stroke [] 0 setdash vpt sub M 0 vpt2 V
  currentpoint stroke M
  hpt neg vpt neg R hpt2 0 V stroke
 } def
/Box {stroke [] 0 setdash 2 copy exch hpt sub exch vpt add M
  0 vpt2 neg V hpt2 0 V 0 vpt2 V
  hpt2 neg 0 V closepath stroke
  Pnt} def
/Crs {stroke [] 0 setdash exch hpt sub exch vpt add M
  hpt2 vpt2 neg V currentpoint stroke M
  hpt2 neg 0 R hpt2 vpt2 V stroke} def
/TriU {stroke [] 0 setdash 2 copy vpt 1.12 mul add M
  hpt neg vpt -1.62 mul V
  hpt 2 mul 0 V
  hpt neg vpt 1.62 mul V closepath stroke
  Pnt} def
/Star {2 copy Pls Crs} def
/BoxF {stroke [] 0 setdash exch hpt sub exch vpt add M
  0 vpt2 neg V hpt2 0 V 0 vpt2 V
  hpt2 neg 0 V closepath fill} def
/TriUF {stroke [] 0 setdash vpt 1.12 mul add M
  hpt neg vpt -1.62 mul V
  hpt 2 mul 0 V
  hpt neg vpt 1.62 mul V closepath fill} def
/TriD {stroke [] 0 setdash 2 copy vpt 1.12 mul sub M
  hpt neg vpt 1.62 mul V
  hpt 2 mul 0 V
  hpt neg vpt -1.62 mul V closepath stroke
  Pnt} def
/TriDF {stroke [] 0 setdash vpt 1.12 mul sub M
  hpt neg vpt 1.62 mul V
  hpt 2 mul 0 V
  hpt neg vpt -1.62 mul V closepath fill} def
/DiaF {stroke [] 0 setdash vpt add M
  hpt neg vpt neg V hpt vpt neg V
  hpt vpt V hpt neg vpt V closepath fill} def
/Pent {stroke [] 0 setdash 2 copy gsave
  translate 0 hpt M 4 {72 rotate 0 hpt L} repeat
  closepath stroke grestore Pnt} def
/PentF {stroke [] 0 setdash gsave
  translate 0 hpt M 4 {72 rotate 0 hpt L} repeat
  closepath fill grestore} def
/Circle {stroke [] 0 setdash 2 copy
  hpt 0 360 arc stroke Pnt} def
/CircleF {stroke [] 0 setdash hpt 0 360 arc fill} def
/C0 {BL [] 0 setdash 2 copy moveto vpt 90 450 arc} bind def
/C1 {BL [] 0 setdash 2 copy moveto
	2 copy vpt 0 90 arc closepath fill
	vpt 0 360 arc closepath} bind def
/C2 {BL [] 0 setdash 2 copy moveto
	2 copy vpt 90 180 arc closepath fill
	vpt 0 360 arc closepath} bind def
/C3 {BL [] 0 setdash 2 copy moveto
	2 copy vpt 0 180 arc closepath fill
	vpt 0 360 arc closepath} bind def
/C4 {BL [] 0 setdash 2 copy moveto
	2 copy vpt 180 270 arc closepath fill
	vpt 0 360 arc closepath} bind def
/C5 {BL [] 0 setdash 2 copy moveto
	2 copy vpt 0 90 arc
	2 copy moveto
	2 copy vpt 180 270 arc closepath fill
	vpt 0 360 arc} bind def
/C6 {BL [] 0 setdash 2 copy moveto
	2 copy vpt 90 270 arc closepath fill
	vpt 0 360 arc closepath} bind def
/C7 {BL [] 0 setdash 2 copy moveto
	2 copy vpt 0 270 arc closepath fill
	vpt 0 360 arc closepath} bind def
/C8 {BL [] 0 setdash 2 copy moveto
	2 copy vpt 270 360 arc closepath fill
	vpt 0 360 arc closepath} bind def
/C9 {BL [] 0 setdash 2 copy moveto
	2 copy vpt 270 450 arc closepath fill
	vpt 0 360 arc closepath} bind def
/C10 {BL [] 0 setdash 2 copy 2 copy moveto vpt 270 360 arc closepath fill
	2 copy moveto
	2 copy vpt 90 180 arc closepath fill
	vpt 0 360 arc closepath} bind def
/C11 {BL [] 0 setdash 2 copy moveto
	2 copy vpt 0 180 arc closepath fill
	2 copy moveto
	2 copy vpt 270 360 arc closepath fill
	vpt 0 360 arc closepath} bind def
/C12 {BL [] 0 setdash 2 copy moveto
	2 copy vpt 180 360 arc closepath fill
	vpt 0 360 arc closepath} bind def
/C13 {BL [] 0 setdash 2 copy moveto
	2 copy vpt 0 90 arc closepath fill
	2 copy moveto
	2 copy vpt 180 360 arc closepath fill
	vpt 0 360 arc closepath} bind def
/C14 {BL [] 0 setdash 2 copy moveto
	2 copy vpt 90 360 arc closepath fill
	vpt 0 360 arc} bind def
/C15 {BL [] 0 setdash 2 copy vpt 0 360 arc closepath fill
	vpt 0 360 arc closepath} bind def
/Rec {newpath 4 2 roll moveto 1 index 0 rlineto 0 exch rlineto
	neg 0 rlineto closepath} bind def
/Square {dup Rec} bind def
/Bsquare {vpt sub exch vpt sub exch vpt2 Square} bind def
/S0 {BL [] 0 setdash 2 copy moveto 0 vpt rlineto BL Bsquare} bind def
/S1 {BL [] 0 setdash 2 copy vpt Square fill Bsquare} bind def
/S2 {BL [] 0 setdash 2 copy exch vpt sub exch vpt Square fill Bsquare} bind def
/S3 {BL [] 0 setdash 2 copy exch vpt sub exch vpt2 vpt Rec fill Bsquare} bind def
/S4 {BL [] 0 setdash 2 copy exch vpt sub exch vpt sub vpt Square fill Bsquare} bind def
/S5 {BL [] 0 setdash 2 copy 2 copy vpt Square fill
	exch vpt sub exch vpt sub vpt Square fill Bsquare} bind def
/S6 {BL [] 0 setdash 2 copy exch vpt sub exch vpt sub vpt vpt2 Rec fill Bsquare} bind def
/S7 {BL [] 0 setdash 2 copy exch vpt sub exch vpt sub vpt vpt2 Rec fill
	2 copy vpt Square fill Bsquare} bind def
/S8 {BL [] 0 setdash 2 copy vpt sub vpt Square fill Bsquare} bind def
/S9 {BL [] 0 setdash 2 copy vpt sub vpt vpt2 Rec fill Bsquare} bind def
/S10 {BL [] 0 setdash 2 copy vpt sub vpt Square fill 2 copy exch vpt sub exch vpt Square fill
	Bsquare} bind def
/S11 {BL [] 0 setdash 2 copy vpt sub vpt Square fill 2 copy exch vpt sub exch vpt2 vpt Rec fill
	Bsquare} bind def
/S12 {BL [] 0 setdash 2 copy exch vpt sub exch vpt sub vpt2 vpt Rec fill Bsquare} bind def
/S13 {BL [] 0 setdash 2 copy exch vpt sub exch vpt sub vpt2 vpt Rec fill
	2 copy vpt Square fill Bsquare} bind def
/S14 {BL [] 0 setdash 2 copy exch vpt sub exch vpt sub vpt2 vpt Rec fill
	2 copy exch vpt sub exch vpt Square fill Bsquare} bind def
/S15 {BL [] 0 setdash 2 copy Bsquare fill Bsquare} bind def
/D0 {gsave translate 45 rotate 0 0 S0 stroke grestore} bind def
/D1 {gsave translate 45 rotate 0 0 S1 stroke grestore} bind def
/D2 {gsave translate 45 rotate 0 0 S2 stroke grestore} bind def
/D3 {gsave translate 45 rotate 0 0 S3 stroke grestore} bind def
/D4 {gsave translate 45 rotate 0 0 S4 stroke grestore} bind def
/D5 {gsave translate 45 rotate 0 0 S5 stroke grestore} bind def
/D6 {gsave translate 45 rotate 0 0 S6 stroke grestore} bind def
/D7 {gsave translate 45 rotate 0 0 S7 stroke grestore} bind def
/D8 {gsave translate 45 rotate 0 0 S8 stroke grestore} bind def
/D9 {gsave translate 45 rotate 0 0 S9 stroke grestore} bind def
/D10 {gsave translate 45 rotate 0 0 S10 stroke grestore} bind def
/D11 {gsave translate 45 rotate 0 0 S11 stroke grestore} bind def
/D12 {gsave translate 45 rotate 0 0 S12 stroke grestore} bind def
/D13 {gsave translate 45 rotate 0 0 S13 stroke grestore} bind def
/D14 {gsave translate 45 rotate 0 0 S14 stroke grestore} bind def
/D15 {gsave translate 45 rotate 0 0 S15 stroke grestore} bind def
/DiaE {stroke [] 0 setdash vpt add M
  hpt neg vpt neg V hpt vpt neg V
  hpt vpt V hpt neg vpt V closepath stroke} def
/BoxE {stroke [] 0 setdash exch hpt sub exch vpt add M
  0 vpt2 neg V hpt2 0 V 0 vpt2 V
  hpt2 neg 0 V closepath stroke} def
/TriUE {stroke [] 0 setdash vpt 1.12 mul add M
  hpt neg vpt -1.62 mul V
  hpt 2 mul 0 V
  hpt neg vpt 1.62 mul V closepath stroke} def
/TriDE {stroke [] 0 setdash vpt 1.12 mul sub M
  hpt neg vpt 1.62 mul V
  hpt 2 mul 0 V
  hpt neg vpt -1.62 mul V closepath stroke} def
/PentE {stroke [] 0 setdash gsave
  translate 0 hpt M 4 {72 rotate 0 hpt L} repeat
  closepath stroke grestore} def
/CircE {stroke [] 0 setdash 
  hpt 0 360 arc stroke} def
/Opaque {gsave closepath 1 setgray fill grestore 0 setgray closepath} def
/DiaW {stroke [] 0 setdash vpt add M
  hpt neg vpt neg V hpt vpt neg V
  hpt vpt V hpt neg vpt V Opaque stroke} def
/BoxW {stroke [] 0 setdash exch hpt sub exch vpt add M
  0 vpt2 neg V hpt2 0 V 0 vpt2 V
  hpt2 neg 0 V Opaque stroke} def
/TriUW {stroke [] 0 setdash vpt 1.12 mul add M
  hpt neg vpt -1.62 mul V
  hpt 2 mul 0 V
  hpt neg vpt 1.62 mul V Opaque stroke} def
/TriDW {stroke [] 0 setdash vpt 1.12 mul sub M
  hpt neg vpt 1.62 mul V
  hpt 2 mul 0 V
  hpt neg vpt -1.62 mul V Opaque stroke} def
/PentW {stroke [] 0 setdash gsave
  translate 0 hpt M 4 {72 rotate 0 hpt L} repeat
  Opaque stroke grestore} def
/CircW {stroke [] 0 setdash 
  hpt 0 360 arc Opaque stroke} def
/BoxFill {gsave Rec 1 setgray fill grestore} def
/Density {
  /Fillden exch def
  currentrgbcolor
  /ColB exch def /ColG exch def /ColR exch def
  /ColR ColR Fillden mul Fillden sub 1 add def
  /ColG ColG Fillden mul Fillden sub 1 add def
  /ColB ColB Fillden mul Fillden sub 1 add def
  ColR ColG ColB setrgbcolor} def
/BoxColFill {gsave Rec PolyFill} def
/PolyFill {gsave Density fill grestore grestore} def
/h {rlineto rlineto rlineto gsave closepath fill grestore} bind def
%
% PostScript Level 1 Pattern Fill routine for rectangles
% Usage: x y w h s a XX PatternFill
%	x,y = lower left corner of box to be filled
%	w,h = width and height of box
%	  a = angle in degrees between lines and x-axis
%	 XX = 0/1 for no/yes cross-hatch
%
/PatternFill {gsave /PFa [ 9 2 roll ] def
  PFa 0 get PFa 2 get 2 div add PFa 1 get PFa 3 get 2 div add translate
  PFa 2 get -2 div PFa 3 get -2 div PFa 2 get PFa 3 get Rec
  TransparentPatterns {} {gsave 1 setgray fill grestore} ifelse
  clip
  currentlinewidth 0.5 mul setlinewidth
  /PFs PFa 2 get dup mul PFa 3 get dup mul add sqrt def
  0 0 M PFa 5 get rotate PFs -2 div dup translate
  0 1 PFs PFa 4 get div 1 add floor cvi
	{PFa 4 get mul 0 M 0 PFs V} for
  0 PFa 6 get ne {
	0 1 PFs PFa 4 get div 1 add floor cvi
	{PFa 4 get mul 0 2 1 roll M PFs 0 V} for
 } if
  stroke grestore} def
%
/languagelevel where
 {pop languagelevel} {1} ifelse
 2 lt
	{/InterpretLevel1 true def}
	{/InterpretLevel1 Level1 def}
 ifelse
%
% PostScript level 2 pattern fill definitions
%
/Level2PatternFill {
/Tile8x8 {/PaintType 2 /PatternType 1 /TilingType 1 /BBox [0 0 8 8] /XStep 8 /YStep 8}
	bind def
/KeepColor {currentrgbcolor [/Pattern /DeviceRGB] setcolorspace} bind def
<< Tile8x8
 /PaintProc {0.5 setlinewidth pop 0 0 M 8 8 L 0 8 M 8 0 L stroke} 
>> matrix makepattern
/Pat1 exch def
<< Tile8x8
 /PaintProc {0.5 setlinewidth pop 0 0 M 8 8 L 0 8 M 8 0 L stroke
	0 4 M 4 8 L 8 4 L 4 0 L 0 4 L stroke}
>> matrix makepattern
/Pat2 exch def
<< Tile8x8
 /PaintProc {0.5 setlinewidth pop 0 0 M 0 8 L
	8 8 L 8 0 L 0 0 L fill}
>> matrix makepattern
/Pat3 exch def
<< Tile8x8
 /PaintProc {0.5 setlinewidth pop -4 8 M 8 -4 L
	0 12 M 12 0 L stroke}
>> matrix makepattern
/Pat4 exch def
<< Tile8x8
 /PaintProc {0.5 setlinewidth pop -4 0 M 8 12 L
	0 -4 M 12 8 L stroke}
>> matrix makepattern
/Pat5 exch def
<< Tile8x8
 /PaintProc {0.5 setlinewidth pop -2 8 M 4 -4 L
	0 12 M 8 -4 L 4 12 M 10 0 L stroke}
>> matrix makepattern
/Pat6 exch def
<< Tile8x8
 /PaintProc {0.5 setlinewidth pop -2 0 M 4 12 L
	0 -4 M 8 12 L 4 -4 M 10 8 L stroke}
>> matrix makepattern
/Pat7 exch def
<< Tile8x8
 /PaintProc {0.5 setlinewidth pop 8 -2 M -4 4 L
	12 0 M -4 8 L 12 4 M 0 10 L stroke}
>> matrix makepattern
/Pat8 exch def
<< Tile8x8
 /PaintProc {0.5 setlinewidth pop 0 -2 M 12 4 L
	-4 0 M 12 8 L -4 4 M 8 10 L stroke}
>> matrix makepattern
/Pat9 exch def
/Pattern1 {PatternBgnd KeepColor Pat1 setpattern} bind def
/Pattern2 {PatternBgnd KeepColor Pat2 setpattern} bind def
/Pattern3 {PatternBgnd KeepColor Pat3 setpattern} bind def
/Pattern4 {PatternBgnd KeepColor Landscape {Pat5} {Pat4} ifelse setpattern} bind def
/Pattern5 {PatternBgnd KeepColor Landscape {Pat4} {Pat5} ifelse setpattern} bind def
/Pattern6 {PatternBgnd KeepColor Landscape {Pat9} {Pat6} ifelse setpattern} bind def
/Pattern7 {PatternBgnd KeepColor Landscape {Pat8} {Pat7} ifelse setpattern} bind def
} def
%
%
%End of PostScript Level 2 code
%
/PatternBgnd {
  TransparentPatterns {} {gsave 1 setgray fill grestore} ifelse
} def
%
% Substitute for Level 2 pattern fill codes with
% grayscale if Level 2 support is not selected.
%
/Level1PatternFill {
/Pattern1 {0.250 Density} bind def
/Pattern2 {0.500 Density} bind def
/Pattern3 {0.750 Density} bind def
/Pattern4 {0.125 Density} bind def
/Pattern5 {0.375 Density} bind def
/Pattern6 {0.625 Density} bind def
/Pattern7 {0.875 Density} bind def
} def
%
% Now test for support of Level 2 code
%
Level1 {Level1PatternFill} {Level2PatternFill} ifelse
%
/Symbol-Oblique /Symbol findfont [1 0 .167 1 0 0] makefont
dup length dict begin {1 index /FID eq {pop pop} {def} ifelse} forall
currentdict end definefont pop
Level1 SuppressPDFMark or 
{} {
/SDict 10 dict def
systemdict /pdfmark known not {
  userdict /pdfmark systemdict /cleartomark get put
} if
SDict begin [
  /Title (out.ps)
  /Subject (gnuplot plot)
  /Creator (gnuplot 4.6 patchlevel 6)
  /Author (yani)
%  /Producer (gnuplot)
%  /Keywords ()
  /CreationDate (Fri May 29 00:03:43 2015)
  /DOCINFO pdfmark
end
} ifelse
end
%%EndProlog
%%Page: 1 1
gnudict begin
gsave
doclip
50 50 translate
0.100 0.100 scale
90 rotate
0 -5040 translate
0 setgray
newpath
(Helvetica) findfont 140 scalefont setfont
BackgroundColor 0 lt 3 1 roll 0 lt exch 0 lt or or not {gsave BackgroundColor C clippath fill grestore} if
1.000 UL
LT0
0.50 0.50 0.50 C 1.000 UL
LTa
0.50 0.50 0.50 C 966 280 M
5981 0 V
stroke
LT0
0.50 0.50 0.50 C 966 280 M
63 0 V
5918 0 R
-63 0 V
882 280 M
( 0) Rshow
1.000 UL
LT0
0.50 0.50 0.50 C 1.000 UL
LTa
0.50 0.50 0.50 C 966 372 M
5981 0 V
stroke
LT0
0.50 0.50 0.50 C 966 372 M
63 0 V
5918 0 R
-63 0 V
882 372 M
( 0.707106) Rshow
1.000 UL
LT0
0.50 0.50 0.50 C 1.000 UL
LTa
0.50 0.50 0.50 C 966 464 M
5981 0 V
stroke
LT0
0.50 0.50 0.50 C 966 464 M
63 0 V
5918 0 R
-63 0 V
882 464 M
( 1.41421) Rshow
1.000 UL
LT0
0.50 0.50 0.50 C 1.000 UL
LTa
0.50 0.50 0.50 C 966 555 M
5981 0 V
stroke
LT0
0.50 0.50 0.50 C 966 555 M
63 0 V
5918 0 R
-63 0 V
882 555 M
( 2.12132) Rshow
1.000 UL
LT0
0.50 0.50 0.50 C 1.000 UL
LTa
0.50 0.50 0.50 C 966 647 M
5981 0 V
stroke
LT0
0.50 0.50 0.50 C 966 647 M
63 0 V
5918 0 R
-63 0 V
882 647 M
( 2.82842) Rshow
1.000 UL
LT0
0.50 0.50 0.50 C 1.000 UL
LTa
0.50 0.50 0.50 C 966 739 M
5981 0 V
stroke
LT0
0.50 0.50 0.50 C 966 739 M
63 0 V
5918 0 R
-63 0 V
882 739 M
( 3.53553) Rshow
1.000 UL
LT0
0.50 0.50 0.50 C 1.000 UL
LTa
0.50 0.50 0.50 C 966 831 M
5981 0 V
stroke
LT0
0.50 0.50 0.50 C 966 831 M
63 0 V
5918 0 R
-63 0 V
882 831 M
( 4.24264) Rshow
1.000 UL
LT0
0.50 0.50 0.50 C 1.000 UL
LTa
0.50 0.50 0.50 C 966 923 M
5981 0 V
stroke
LT0
0.50 0.50 0.50 C 966 923 M
63 0 V
5918 0 R
-63 0 V
882 923 M
( 4.94974) Rshow
1.000 UL
LT0
0.50 0.50 0.50 C 1.000 UL
LTa
0.50 0.50 0.50 C 966 1015 M
5981 0 V
stroke
LT0
0.50 0.50 0.50 C 966 1015 M
63 0 V
5918 0 R
-63 0 V
-6002 0 R
( 5.65685) Rshow
1.000 UL
LT0
0.50 0.50 0.50 C 1.000 UL
LTa
0.50 0.50 0.50 C 966 1106 M
5981 0 V
stroke
LT0
0.50 0.50 0.50 C 966 1106 M
63 0 V
5918 0 R
-63 0 V
-6002 0 R
( 6.36395) Rshow
1.000 UL
LT0
0.50 0.50 0.50 C 1.000 UL
LTa
0.50 0.50 0.50 C 966 1198 M
5981 0 V
stroke
LT0
0.50 0.50 0.50 C 966 1198 M
63 0 V
5918 0 R
-63 0 V
-6002 0 R
( 7.07106) Rshow
1.000 UL
LT0
0.50 0.50 0.50 C 1.000 UL
LTa
0.50 0.50 0.50 C 966 1290 M
5981 0 V
stroke
LT0
0.50 0.50 0.50 C 966 1290 M
63 0 V
5918 0 R
-63 0 V
-6002 0 R
( 7.77817) Rshow
1.000 UL
LT0
0.50 0.50 0.50 C 1.000 UL
LTa
0.50 0.50 0.50 C 966 1382 M
5981 0 V
stroke
LT0
0.50 0.50 0.50 C 966 1382 M
63 0 V
5918 0 R
-63 0 V
-6002 0 R
( 8.48527) Rshow
1.000 UL
LT0
0.50 0.50 0.50 C 1.000 UL
LTa
0.50 0.50 0.50 C 966 1474 M
5981 0 V
stroke
LT0
0.50 0.50 0.50 C 966 1474 M
63 0 V
5918 0 R
-63 0 V
-6002 0 R
( 9.19238) Rshow
1.000 UL
LT0
0.50 0.50 0.50 C 1.000 UL
LTa
0.50 0.50 0.50 C 966 1565 M
5981 0 V
stroke
LT0
0.50 0.50 0.50 C 966 1565 M
63 0 V
5918 0 R
-63 0 V
-6002 0 R
( 9.89948) Rshow
1.000 UL
LT0
0.50 0.50 0.50 C 1.000 UL
LTa
0.50 0.50 0.50 C 966 1657 M
5981 0 V
stroke
LT0
0.50 0.50 0.50 C 966 1657 M
63 0 V
5918 0 R
-63 0 V
-6002 0 R
( 10.6066) Rshow
1.000 UL
LT0
0.50 0.50 0.50 C 1.000 UL
LTa
0.50 0.50 0.50 C 966 1749 M
5981 0 V
stroke
LT0
0.50 0.50 0.50 C 966 1749 M
63 0 V
5918 0 R
-63 0 V
-6002 0 R
( 11.3137) Rshow
1.000 UL
LT0
0.50 0.50 0.50 C 1.000 UL
LTa
0.50 0.50 0.50 C 966 1841 M
5981 0 V
stroke
LT0
0.50 0.50 0.50 C 966 1841 M
63 0 V
5918 0 R
-63 0 V
-6002 0 R
( 12.0208) Rshow
1.000 UL
LT0
0.50 0.50 0.50 C 1.000 UL
LTa
0.50 0.50 0.50 C 966 1933 M
5981 0 V
stroke
LT0
0.50 0.50 0.50 C 966 1933 M
63 0 V
5918 0 R
-63 0 V
-6002 0 R
( 12.7279) Rshow
1.000 UL
LT0
0.50 0.50 0.50 C 1.000 UL
LTa
0.50 0.50 0.50 C 966 2025 M
5981 0 V
stroke
LT0
0.50 0.50 0.50 C 966 2025 M
63 0 V
5918 0 R
-63 0 V
-6002 0 R
( 13.435) Rshow
1.000 UL
LT0
0.50 0.50 0.50 C 1.000 UL
LTa
0.50 0.50 0.50 C 966 2116 M
5981 0 V
stroke
LT0
0.50 0.50 0.50 C 966 2116 M
63 0 V
5918 0 R
-63 0 V
-6002 0 R
( 14.1421) Rshow
1.000 UL
LT0
0.50 0.50 0.50 C 1.000 UL
LTa
0.50 0.50 0.50 C 966 2208 M
5981 0 V
stroke
LT0
0.50 0.50 0.50 C 966 2208 M
63 0 V
5918 0 R
-63 0 V
-6002 0 R
( 14.8492) Rshow
1.000 UL
LT0
0.50 0.50 0.50 C 1.000 UL
LTa
0.50 0.50 0.50 C 966 2300 M
5981 0 V
stroke
LT0
0.50 0.50 0.50 C 966 2300 M
63 0 V
5918 0 R
-63 0 V
-6002 0 R
( 15.5563) Rshow
1.000 UL
LT0
0.50 0.50 0.50 C 1.000 UL
LTa
0.50 0.50 0.50 C 966 2392 M
5981 0 V
stroke
LT0
0.50 0.50 0.50 C 966 2392 M
63 0 V
5918 0 R
-63 0 V
-6002 0 R
( 16.2634) Rshow
1.000 UL
LT0
0.50 0.50 0.50 C 1.000 UL
LTa
0.50 0.50 0.50 C 966 2484 M
5981 0 V
stroke
LT0
0.50 0.50 0.50 C 966 2484 M
63 0 V
5918 0 R
-63 0 V
-6002 0 R
( 16.9705) Rshow
1.000 UL
LT0
0.50 0.50 0.50 C 1.000 UL
LTa
0.50 0.50 0.50 C 966 2575 M
5981 0 V
stroke
LT0
0.50 0.50 0.50 C 966 2575 M
63 0 V
5918 0 R
-63 0 V
-6002 0 R
( 17.6776) Rshow
1.000 UL
LT0
0.50 0.50 0.50 C 1.000 UL
LTa
0.50 0.50 0.50 C 966 2667 M
5981 0 V
stroke
LT0
0.50 0.50 0.50 C 966 2667 M
63 0 V
5918 0 R
-63 0 V
-6002 0 R
( 18.3848) Rshow
1.000 UL
LT0
0.50 0.50 0.50 C 1.000 UL
LTa
0.50 0.50 0.50 C 966 2759 M
5981 0 V
stroke
LT0
0.50 0.50 0.50 C 966 2759 M
63 0 V
5918 0 R
-63 0 V
-6002 0 R
( 19.0919) Rshow
1.000 UL
LT0
0.50 0.50 0.50 C 1.000 UL
LTa
0.50 0.50 0.50 C 966 2851 M
5981 0 V
stroke
LT0
0.50 0.50 0.50 C 966 2851 M
63 0 V
5918 0 R
-63 0 V
-6002 0 R
( 19.799) Rshow
1.000 UL
LT0
0.50 0.50 0.50 C 1.000 UL
LTa
0.50 0.50 0.50 C 966 2943 M
5981 0 V
stroke
LT0
0.50 0.50 0.50 C 966 2943 M
63 0 V
5918 0 R
-63 0 V
-6002 0 R
( 20.5061) Rshow
1.000 UL
LT0
0.50 0.50 0.50 C 1.000 UL
LTa
0.50 0.50 0.50 C 966 3035 M
5981 0 V
stroke
LT0
0.50 0.50 0.50 C 966 3035 M
63 0 V
5918 0 R
-63 0 V
-6002 0 R
( 21.2132) Rshow
1.000 UL
LT0
0.50 0.50 0.50 C 1.000 UL
LTa
0.50 0.50 0.50 C 966 3126 M
5981 0 V
stroke
LT0
0.50 0.50 0.50 C 966 3126 M
63 0 V
5918 0 R
-63 0 V
-6002 0 R
( 21.9203) Rshow
1.000 UL
LT0
0.50 0.50 0.50 C 1.000 UL
LTa
0.50 0.50 0.50 C 966 3218 M
5981 0 V
stroke
LT0
0.50 0.50 0.50 C 966 3218 M
63 0 V
5918 0 R
-63 0 V
-6002 0 R
( 22.6274) Rshow
1.000 UL
LT0
0.50 0.50 0.50 C 1.000 UL
LTa
0.50 0.50 0.50 C 966 3310 M
5981 0 V
stroke
LT0
0.50 0.50 0.50 C 966 3310 M
63 0 V
5918 0 R
-63 0 V
-6002 0 R
( 23.3345) Rshow
1.000 UL
LT0
0.50 0.50 0.50 C 1.000 UL
LTa
0.50 0.50 0.50 C 966 3402 M
5981 0 V
stroke
LT0
0.50 0.50 0.50 C 966 3402 M
63 0 V
5918 0 R
-63 0 V
-6002 0 R
( 24.0416) Rshow
1.000 UL
LT0
0.50 0.50 0.50 C 1.000 UL
LTa
0.50 0.50 0.50 C 966 3494 M
5981 0 V
stroke
LT0
0.50 0.50 0.50 C 966 3494 M
63 0 V
5918 0 R
-63 0 V
-6002 0 R
( 24.7487) Rshow
1.000 UL
LT0
0.50 0.50 0.50 C 1.000 UL
LTa
0.50 0.50 0.50 C 966 3586 M
5981 0 V
stroke
LT0
0.50 0.50 0.50 C 966 3586 M
63 0 V
5918 0 R
-63 0 V
-6002 0 R
( 25.4558) Rshow
1.000 UL
LT0
0.50 0.50 0.50 C 1.000 UL
LTa
0.50 0.50 0.50 C 966 3677 M
5981 0 V
stroke
LT0
0.50 0.50 0.50 C 966 3677 M
63 0 V
5918 0 R
-63 0 V
-6002 0 R
( 26.1629) Rshow
1.000 UL
LT0
0.50 0.50 0.50 C 1.000 UL
LTa
0.50 0.50 0.50 C 966 3769 M
5981 0 V
stroke
LT0
0.50 0.50 0.50 C 966 3769 M
63 0 V
5918 0 R
-63 0 V
-6002 0 R
( 26.87) Rshow
1.000 UL
LT0
0.50 0.50 0.50 C 1.000 UL
LTa
0.50 0.50 0.50 C 966 3861 M
5981 0 V
stroke
LT0
0.50 0.50 0.50 C 966 3861 M
63 0 V
5918 0 R
-63 0 V
-6002 0 R
( 27.5771) Rshow
1.000 UL
LT0
0.50 0.50 0.50 C 1.000 UL
LTa
0.50 0.50 0.50 C 966 3953 M
5981 0 V
stroke
LT0
0.50 0.50 0.50 C 966 3953 M
63 0 V
5918 0 R
-63 0 V
-6002 0 R
( 28.2842) Rshow
1.000 UL
LT0
0.50 0.50 0.50 C 1.000 UL
LTa
0.50 0.50 0.50 C 966 4045 M
5981 0 V
stroke
LT0
0.50 0.50 0.50 C 966 4045 M
63 0 V
5918 0 R
-63 0 V
-6002 0 R
( 28.9913) Rshow
1.000 UL
LT0
0.50 0.50 0.50 C 1.000 UL
LTa
0.50 0.50 0.50 C 966 4136 M
5981 0 V
stroke
LT0
0.50 0.50 0.50 C 966 4136 M
63 0 V
5918 0 R
-63 0 V
-6002 0 R
( 29.6985) Rshow
1.000 UL
LT0
0.50 0.50 0.50 C 1.000 UL
LTa
0.50 0.50 0.50 C 966 4228 M
5981 0 V
stroke
LT0
0.50 0.50 0.50 C 966 4228 M
63 0 V
5918 0 R
-63 0 V
-6002 0 R
( 30.4056) Rshow
1.000 UL
LT0
0.50 0.50 0.50 C 1.000 UL
LTa
0.50 0.50 0.50 C 966 4320 M
5981 0 V
stroke
LT0
0.50 0.50 0.50 C 966 4320 M
63 0 V
5918 0 R
-63 0 V
-6002 0 R
( 31.1127) Rshow
1.000 UL
LT0
0.50 0.50 0.50 C 1.000 UL
LTa
0.50 0.50 0.50 C 966 4412 M
5981 0 V
stroke
LT0
0.50 0.50 0.50 C 966 4412 M
63 0 V
5918 0 R
-63 0 V
-6002 0 R
( 31.8198) Rshow
1.000 UL
LT0
0.50 0.50 0.50 C 1.000 UL
LTa
0.50 0.50 0.50 C 966 4504 M
5981 0 V
stroke
LT0
0.50 0.50 0.50 C 966 4504 M
63 0 V
5918 0 R
-63 0 V
-6002 0 R
( 32.5269) Rshow
1.000 UL
LT0
0.50 0.50 0.50 C 1.000 UL
LTa
0.50 0.50 0.50 C 966 4596 M
5981 0 V
stroke
LT0
0.50 0.50 0.50 C 966 4596 M
63 0 V
5918 0 R
-63 0 V
-6002 0 R
( 33.234) Rshow
1.000 UL
LT0
0.50 0.50 0.50 C 1.000 UL
LTa
0.50 0.50 0.50 C 966 4687 M
5981 0 V
stroke
LT0
0.50 0.50 0.50 C 966 4687 M
63 0 V
5918 0 R
-63 0 V
-6002 0 R
( 33.9411) Rshow
1.000 UL
LT0
0.50 0.50 0.50 C 1.000 UL
LTa
0.50 0.50 0.50 C 966 4779 M
5981 0 V
stroke
LT0
0.50 0.50 0.50 C 966 4779 M
63 0 V
5918 0 R
-63 0 V
-6002 0 R
( 34.6482) Rshow
1.000 UL
LT0
0.50 0.50 0.50 C 1.000 UL
LTa
0.50 0.50 0.50 C 966 4871 M
5981 0 V
stroke
LT0
0.50 0.50 0.50 C 966 4871 M
63 0 V
5918 0 R
-63 0 V
-6002 0 R
( 35.3553) Rshow
1.000 UL
LT0
0.50 0.50 0.50 C 1.000 UL
LTa
0.50 0.50 0.50 C 966 280 M
0 4591 V
stroke
LT0
0.50 0.50 0.50 C 966 280 M
0 63 V
0 4528 R
0 -63 V
966 140 M
( 0) Cshow
1.000 UL
LT0
0.50 0.50 0.50 C 1.000 UL
LTa
0.50 0.50 0.50 C 1086 280 M
0 4591 V
stroke
LT0
0.50 0.50 0.50 C 1086 280 M
0 63 V
0 4528 R
0 -63 V
0 -4668 R
( 0.707106) Cshow
1.000 UL
LT0
0.50 0.50 0.50 C 1.000 UL
LTa
0.50 0.50 0.50 C 1205 280 M
0 4591 V
stroke
LT0
0.50 0.50 0.50 C 1205 280 M
0 63 V
0 4528 R
0 -63 V
0 -4668 R
( 1.41421) Cshow
1.000 UL
LT0
0.50 0.50 0.50 C 1.000 UL
LTa
0.50 0.50 0.50 C 1325 280 M
0 4591 V
stroke
LT0
0.50 0.50 0.50 C 1325 280 M
0 63 V
0 4528 R
0 -63 V
0 -4668 R
( 2.12132) Cshow
1.000 UL
LT0
0.50 0.50 0.50 C 1.000 UL
LTa
0.50 0.50 0.50 C 1444 280 M
0 4591 V
stroke
LT0
0.50 0.50 0.50 C 1444 280 M
0 63 V
0 4528 R
0 -63 V
0 -4668 R
( 2.82842) Cshow
1.000 UL
LT0
0.50 0.50 0.50 C 1.000 UL
LTa
0.50 0.50 0.50 C 1564 280 M
0 4591 V
stroke
LT0
0.50 0.50 0.50 C 1564 280 M
0 63 V
0 4528 R
0 -63 V
0 -4668 R
( 3.53553) Cshow
1.000 UL
LT0
0.50 0.50 0.50 C 1.000 UL
LTa
0.50 0.50 0.50 C 1684 280 M
0 4591 V
stroke
LT0
0.50 0.50 0.50 C 1684 280 M
0 63 V
0 4528 R
0 -63 V
0 -4668 R
( 4.24264) Cshow
1.000 UL
LT0
0.50 0.50 0.50 C 1.000 UL
LTa
0.50 0.50 0.50 C 1803 280 M
0 4591 V
stroke
LT0
0.50 0.50 0.50 C 1803 280 M
0 63 V
0 4528 R
0 -63 V
0 -4668 R
( 4.94974) Cshow
1.000 UL
LT0
0.50 0.50 0.50 C 1.000 UL
LTa
0.50 0.50 0.50 C 1923 280 M
0 4591 V
stroke
LT0
0.50 0.50 0.50 C 1923 280 M
0 63 V
0 4528 R
0 -63 V
0 -4668 R
( 5.65685) Cshow
1.000 UL
LT0
0.50 0.50 0.50 C 1.000 UL
LTa
0.50 0.50 0.50 C 2043 280 M
0 4591 V
stroke
LT0
0.50 0.50 0.50 C 2043 280 M
0 63 V
0 4528 R
0 -63 V
0 -4668 R
( 6.36395) Cshow
1.000 UL
LT0
0.50 0.50 0.50 C 1.000 UL
LTa
0.50 0.50 0.50 C 2162 280 M
0 4591 V
stroke
LT0
0.50 0.50 0.50 C 2162 280 M
0 63 V
0 4528 R
0 -63 V
0 -4668 R
( 7.07106) Cshow
1.000 UL
LT0
0.50 0.50 0.50 C 1.000 UL
LTa
0.50 0.50 0.50 C 2282 280 M
0 4591 V
stroke
LT0
0.50 0.50 0.50 C 2282 280 M
0 63 V
0 4528 R
0 -63 V
0 -4668 R
( 7.77817) Cshow
1.000 UL
LT0
0.50 0.50 0.50 C 1.000 UL
LTa
0.50 0.50 0.50 C 2401 280 M
0 4591 V
stroke
LT0
0.50 0.50 0.50 C 2401 280 M
0 63 V
0 4528 R
0 -63 V
0 -4668 R
( 8.48527) Cshow
1.000 UL
LT0
0.50 0.50 0.50 C 1.000 UL
LTa
0.50 0.50 0.50 C 2521 280 M
0 4591 V
stroke
LT0
0.50 0.50 0.50 C 2521 280 M
0 63 V
0 4528 R
0 -63 V
0 -4668 R
( 9.19238) Cshow
1.000 UL
LT0
0.50 0.50 0.50 C 1.000 UL
LTa
0.50 0.50 0.50 C 2641 280 M
0 4591 V
stroke
LT0
0.50 0.50 0.50 C 2641 280 M
0 63 V
0 4528 R
0 -63 V
0 -4668 R
( 9.89948) Cshow
1.000 UL
LT0
0.50 0.50 0.50 C 1.000 UL
LTa
0.50 0.50 0.50 C 2760 280 M
0 4591 V
stroke
LT0
0.50 0.50 0.50 C 2760 280 M
0 63 V
0 4528 R
0 -63 V
0 -4668 R
( 10.6066) Cshow
1.000 UL
LT0
0.50 0.50 0.50 C 1.000 UL
LTa
0.50 0.50 0.50 C 2880 280 M
0 4591 V
stroke
LT0
0.50 0.50 0.50 C 2880 280 M
0 63 V
0 4528 R
0 -63 V
0 -4668 R
( 11.3137) Cshow
1.000 UL
LT0
0.50 0.50 0.50 C 1.000 UL
LTa
0.50 0.50 0.50 C 3000 280 M
0 4591 V
stroke
LT0
0.50 0.50 0.50 C 3000 280 M
0 63 V
0 4528 R
0 -63 V
0 -4668 R
( 12.0208) Cshow
1.000 UL
LT0
0.50 0.50 0.50 C 1.000 UL
LTa
0.50 0.50 0.50 C 3119 280 M
0 4591 V
stroke
LT0
0.50 0.50 0.50 C 3119 280 M
0 63 V
0 4528 R
0 -63 V
0 -4668 R
( 12.7279) Cshow
1.000 UL
LT0
0.50 0.50 0.50 C 1.000 UL
LTa
0.50 0.50 0.50 C 3239 280 M
0 4591 V
stroke
LT0
0.50 0.50 0.50 C 3239 280 M
0 63 V
0 4528 R
0 -63 V
0 -4668 R
( 13.435) Cshow
1.000 UL
LT0
0.50 0.50 0.50 C 1.000 UL
LTa
0.50 0.50 0.50 C 3358 280 M
0 4591 V
stroke
LT0
0.50 0.50 0.50 C 3358 280 M
0 63 V
0 4528 R
0 -63 V
0 -4668 R
( 14.1421) Cshow
1.000 UL
LT0
0.50 0.50 0.50 C 1.000 UL
LTa
0.50 0.50 0.50 C 3478 280 M
0 4591 V
stroke
LT0
0.50 0.50 0.50 C 3478 280 M
0 63 V
0 4528 R
0 -63 V
0 -4668 R
( 14.8492) Cshow
1.000 UL
LT0
0.50 0.50 0.50 C 1.000 UL
LTa
0.50 0.50 0.50 C 3598 280 M
0 4591 V
stroke
LT0
0.50 0.50 0.50 C 3598 280 M
0 63 V
0 4528 R
0 -63 V
0 -4668 R
( 15.5563) Cshow
1.000 UL
LT0
0.50 0.50 0.50 C 1.000 UL
LTa
0.50 0.50 0.50 C 3717 280 M
0 4591 V
stroke
LT0
0.50 0.50 0.50 C 3717 280 M
0 63 V
0 4528 R
0 -63 V
0 -4668 R
( 16.2634) Cshow
1.000 UL
LT0
0.50 0.50 0.50 C 1.000 UL
LTa
0.50 0.50 0.50 C 3837 280 M
0 4591 V
stroke
LT0
0.50 0.50 0.50 C 3837 280 M
0 63 V
0 4528 R
0 -63 V
0 -4668 R
( 16.9705) Cshow
1.000 UL
LT0
0.50 0.50 0.50 C 1.000 UL
LTa
0.50 0.50 0.50 C 3956 280 M
0 4591 V
stroke
LT0
0.50 0.50 0.50 C 3956 280 M
0 63 V
0 4528 R
0 -63 V
0 -4668 R
( 17.6776) Cshow
1.000 UL
LT0
0.50 0.50 0.50 C 1.000 UL
LTa
0.50 0.50 0.50 C 4076 280 M
0 4591 V
stroke
LT0
0.50 0.50 0.50 C 4076 280 M
0 63 V
0 4528 R
0 -63 V
0 -4668 R
( 18.3848) Cshow
1.000 UL
LT0
0.50 0.50 0.50 C 1.000 UL
LTa
0.50 0.50 0.50 C 4196 280 M
0 4591 V
stroke
LT0
0.50 0.50 0.50 C 4196 280 M
0 63 V
0 4528 R
0 -63 V
0 -4668 R
( 19.0919) Cshow
1.000 UL
LT0
0.50 0.50 0.50 C 1.000 UL
LTa
0.50 0.50 0.50 C 4315 280 M
0 4591 V
stroke
LT0
0.50 0.50 0.50 C 4315 280 M
0 63 V
0 4528 R
0 -63 V
0 -4668 R
( 19.799) Cshow
1.000 UL
LT0
0.50 0.50 0.50 C 1.000 UL
LTa
0.50 0.50 0.50 C 4435 280 M
0 4591 V
stroke
LT0
0.50 0.50 0.50 C 4435 280 M
0 63 V
0 4528 R
0 -63 V
0 -4668 R
( 20.5061) Cshow
1.000 UL
LT0
0.50 0.50 0.50 C 1.000 UL
LTa
0.50 0.50 0.50 C 4555 280 M
0 4591 V
stroke
LT0
0.50 0.50 0.50 C 4555 280 M
0 63 V
0 4528 R
0 -63 V
0 -4668 R
( 21.2132) Cshow
1.000 UL
LT0
0.50 0.50 0.50 C 1.000 UL
LTa
0.50 0.50 0.50 C 4674 280 M
0 4591 V
stroke
LT0
0.50 0.50 0.50 C 4674 280 M
0 63 V
0 4528 R
0 -63 V
0 -4668 R
( 21.9203) Cshow
1.000 UL
LT0
0.50 0.50 0.50 C 1.000 UL
LTa
0.50 0.50 0.50 C 4794 280 M
0 4591 V
stroke
LT0
0.50 0.50 0.50 C 4794 280 M
0 63 V
0 4528 R
0 -63 V
0 -4668 R
( 22.6274) Cshow
1.000 UL
LT0
0.50 0.50 0.50 C 1.000 UL
LTa
0.50 0.50 0.50 C 4913 280 M
0 4591 V
stroke
LT0
0.50 0.50 0.50 C 4913 280 M
0 63 V
0 4528 R
0 -63 V
0 -4668 R
( 23.3345) Cshow
1.000 UL
LT0
0.50 0.50 0.50 C 1.000 UL
LTa
0.50 0.50 0.50 C 5033 280 M
0 4591 V
stroke
LT0
0.50 0.50 0.50 C 5033 280 M
0 63 V
0 4528 R
0 -63 V
0 -4668 R
( 24.0416) Cshow
1.000 UL
LT0
0.50 0.50 0.50 C 1.000 UL
LTa
0.50 0.50 0.50 C 5153 280 M
0 4591 V
stroke
LT0
0.50 0.50 0.50 C 5153 280 M
0 63 V
0 4528 R
0 -63 V
0 -4668 R
( 24.7487) Cshow
1.000 UL
LT0
0.50 0.50 0.50 C 1.000 UL
LTa
0.50 0.50 0.50 C 5272 280 M
0 4591 V
stroke
LT0
0.50 0.50 0.50 C 5272 280 M
0 63 V
0 4528 R
0 -63 V
0 -4668 R
( 25.4558) Cshow
1.000 UL
LT0
0.50 0.50 0.50 C 1.000 UL
LTa
0.50 0.50 0.50 C 5392 280 M
0 4591 V
stroke
LT0
0.50 0.50 0.50 C 5392 280 M
0 63 V
0 4528 R
0 -63 V
0 -4668 R
( 26.1629) Cshow
1.000 UL
LT0
0.50 0.50 0.50 C 1.000 UL
LTa
0.50 0.50 0.50 C 5512 280 M
0 4591 V
stroke
LT0
0.50 0.50 0.50 C 5512 280 M
0 63 V
0 4528 R
0 -63 V
0 -4668 R
( 26.87) Cshow
1.000 UL
LT0
0.50 0.50 0.50 C 1.000 UL
LTa
0.50 0.50 0.50 C 5631 280 M
0 4591 V
stroke
LT0
0.50 0.50 0.50 C 5631 280 M
0 63 V
0 4528 R
0 -63 V
0 -4668 R
( 27.5771) Cshow
1.000 UL
LT0
0.50 0.50 0.50 C 1.000 UL
LTa
0.50 0.50 0.50 C 5751 280 M
0 4591 V
stroke
LT0
0.50 0.50 0.50 C 5751 280 M
0 63 V
0 4528 R
0 -63 V
0 -4668 R
( 28.2842) Cshow
1.000 UL
LT0
0.50 0.50 0.50 C 1.000 UL
LTa
0.50 0.50 0.50 C 5870 280 M
0 4591 V
stroke
LT0
0.50 0.50 0.50 C 5870 280 M
0 63 V
0 4528 R
0 -63 V
0 -4668 R
( 28.9913) Cshow
1.000 UL
LT0
0.50 0.50 0.50 C 1.000 UL
LTa
0.50 0.50 0.50 C 5990 280 M
0 4591 V
stroke
LT0
0.50 0.50 0.50 C 5990 280 M
0 63 V
0 4528 R
0 -63 V
0 -4668 R
( 29.6985) Cshow
1.000 UL
LT0
0.50 0.50 0.50 C 1.000 UL
LTa
0.50 0.50 0.50 C 6110 280 M
0 4591 V
stroke
LT0
0.50 0.50 0.50 C 6110 280 M
0 63 V
0 4528 R
0 -63 V
0 -4668 R
( 30.4056) Cshow
1.000 UL
LT0
0.50 0.50 0.50 C 1.000 UL
LTa
0.50 0.50 0.50 C 6229 280 M
0 4591 V
stroke
LT0
0.50 0.50 0.50 C 6229 280 M
0 63 V
0 4528 R
0 -63 V
0 -4668 R
( 31.1127) Cshow
1.000 UL
LT0
0.50 0.50 0.50 C 1.000 UL
LTa
0.50 0.50 0.50 C 6349 280 M
0 4591 V
stroke
LT0
0.50 0.50 0.50 C 6349 280 M
0 63 V
0 4528 R
0 -63 V
0 -4668 R
( 31.8198) Cshow
1.000 UL
LT0
0.50 0.50 0.50 C 1.000 UL
LTa
0.50 0.50 0.50 C 6469 280 M
0 4591 V
stroke
LT0
0.50 0.50 0.50 C 6469 280 M
0 63 V
0 4528 R
0 -63 V
0 -4668 R
( 32.5269) Cshow
1.000 UL
LT0
0.50 0.50 0.50 C 1.000 UL
LTa
0.50 0.50 0.50 C 6588 280 M
0 4591 V
stroke
LT0
0.50 0.50 0.50 C 6588 280 M
0 63 V
0 4528 R
0 -63 V
0 -4668 R
( 33.234) Cshow
1.000 UL
LT0
0.50 0.50 0.50 C 1.000 UL
LTa
0.50 0.50 0.50 C 6708 280 M
0 4591 V
stroke
LT0
0.50 0.50 0.50 C 6708 280 M
0 63 V
0 4528 R
0 -63 V
0 -4668 R
( 33.9411) Cshow
1.000 UL
LT0
0.50 0.50 0.50 C 1.000 UL
LTa
0.50 0.50 0.50 C 6827 280 M
0 4591 V
stroke
LT0
0.50 0.50 0.50 C 6827 280 M
0 63 V
0 4528 R
0 -63 V
0 -4668 R
( 34.6482) Cshow
1.000 UL
LT0
0.50 0.50 0.50 C 1.000 UL
LTa
0.50 0.50 0.50 C 6947 280 M
0 4591 V
stroke
LT0
0.50 0.50 0.50 C 6947 280 M
0 63 V
0 4528 R
0 -63 V
0 -4668 R
( 35.3553) Cshow
1.000 UL
LT0
0.50 0.50 0.50 C 1.000 UL
LT0
0.50 0.50 0.50 C 966 4871 M
966 280 L
5981 0 V
0 4591 R
-5981 0 R
1.000 UP
stroke
LT0
0.50 0.50 0.50 C % Begin plot #1
1.500 UP
2.000 UL
LT0
0.00 0.00 1.00 C /Helvetica findfont 140 scalefont setfont
/vshift -46 def
1205 464 M
120 0 V
0 91 R
119 0 V
0 184 R
120 0 V
120 0 V
0 276 R
119 0 V
120 0 V
0 183 R
120 0 V
0 92 R
119 0 V
120 0 V
119 0 V
120 0 V
120 0 V
0 92 R
119 0 V
120 0 V
0 183 R
120 0 V
119 0 V
0 735 R
120 0 V
119 0 V
120 0 V
120 0 V
119 0 V
0 92 R
120 0 V
0 184 R
120 0 V
119 0 V
0 91 R
120 0 V
119 0 V
0 92 R
120 0 V
0 92 R
120 0 V
119 0 V
120 0 V
119 0 V
0 184 R
120 0 V
0 91 R
120 0 V
0 92 R
119 0 V
0 643 R
120 0 V
120 0 V
119 0 V
120 0 V
119 0 V
120 0 V
120 0 V
0 275 R
119 0 V
120 0 V
120 0 V
0 551 R
119 0 V
120 0 V
0 92 R
119 0 V
120 0 V
966 280 M
120 0 V
119 0 V
0 92 V
0 92 V
120 0 R
0 91 V
119 0 R
0 92 V
0 92 V
240 0 R
0 92 V
0 92 V
0 92 V
239 0 R
0 91 V
0 92 V
120 0 R
0 92 V
598 0 R
0 92 V
239 0 R
0 92 V
0 91 V
239 0 R
0 92 V
0 92 V
0 92 V
0 92 V
0 92 V
0 91 V
0 92 V
0 92 V
598 0 R
0 92 V
120 0 R
0 92 V
stroke 3837 2484 M
0 92 V
239 0 R
0 91 V
239 0 R
0 92 V
120 0 R
0 92 V
478 0 R
0 92 V
0 92 V
120 0 R
0 91 V
120 0 R
0 92 V
119 0 R
0 92 V
0 92 V
0 92 V
0 92 V
0 91 V
0 92 V
0 92 V
838 0 R
0 92 V
0 92 V
0 91 V
359 0 R
0 92 V
0 92 V
0 92 V
0 92 V
0 92 V
0 91 V
239 0 R
0 92 V
239 0 R
0 92 V
1205 464 CircleF
1325 464 CircleF
1325 555 CircleF
1444 555 CircleF
1444 739 CircleF
1564 739 CircleF
1564 739 CircleF
1684 739 CircleF
1684 1015 CircleF
1803 1015 CircleF
1803 1015 CircleF
1923 1015 CircleF
1923 1198 CircleF
2043 1198 CircleF
2043 1290 CircleF
2162 1290 CircleF
2162 1290 CircleF
2282 1290 CircleF
2282 1290 CircleF
2401 1290 CircleF
2401 1290 CircleF
2521 1290 CircleF
2521 1290 CircleF
2641 1290 CircleF
2641 1382 CircleF
2760 1382 CircleF
2760 1382 CircleF
2880 1382 CircleF
2880 1565 CircleF
3000 1565 CircleF
3000 1565 CircleF
3119 1565 CircleF
3119 2300 CircleF
3239 2300 CircleF
3239 2300 CircleF
3358 2300 CircleF
3358 2300 CircleF
3478 2300 CircleF
3478 2300 CircleF
3598 2300 CircleF
3598 2300 CircleF
3717 2300 CircleF
3717 2392 CircleF
3837 2392 CircleF
3837 2576 CircleF
3957 2576 CircleF
3957 2576 CircleF
4076 2576 CircleF
4076 2667 CircleF
4196 2667 CircleF
4196 2667 CircleF
4315 2667 CircleF
4315 2759 CircleF
4435 2759 CircleF
4435 2851 CircleF
4555 2851 CircleF
4555 2851 CircleF
4674 2851 CircleF
4674 2851 CircleF
4794 2851 CircleF
4794 2851 CircleF
4913 2851 CircleF
4913 3035 CircleF
5033 3035 CircleF
5033 3126 CircleF
5153 3126 CircleF
5153 3218 CircleF
5272 3218 CircleF
5272 3861 CircleF
5392 3861 CircleF
5392 3861 CircleF
5512 3861 CircleF
5512 3861 CircleF
5631 3861 CircleF
5631 3861 CircleF
5751 3861 CircleF
5751 3861 CircleF
5870 3861 CircleF
5870 3861 CircleF
5990 3861 CircleF
5990 3861 CircleF
6110 3861 CircleF
6110 4136 CircleF
6229 4136 CircleF
6229 4136 CircleF
6349 4136 CircleF
6349 4136 CircleF
6469 4136 CircleF
6469 4687 CircleF
6588 4687 CircleF
6588 4687 CircleF
6708 4687 CircleF
6708 4779 CircleF
6827 4779 CircleF
6827 4779 CircleF
6947 4779 CircleF
966 280 CircleF
1086 280 CircleF
1086 280 CircleF
1205 280 CircleF
1205 280 CircleF
1205 372 CircleF
1205 372 CircleF
1205 464 CircleF
1325 464 CircleF
1325 555 CircleF
1444 555 CircleF
1444 647 CircleF
1444 647 CircleF
1444 739 CircleF
1684 739 CircleF
1684 831 CircleF
1684 831 CircleF
1684 923 CircleF
1684 923 CircleF
1684 1015 CircleF
1923 1015 CircleF
1923 1106 CircleF
1923 1106 CircleF
1923 1198 CircleF
2043 1198 CircleF
2043 1290 CircleF
2641 1290 CircleF
2641 1382 CircleF
2880 1382 CircleF
2880 1474 CircleF
2880 1474 CircleF
2880 1565 CircleF
3119 1565 CircleF
3119 1657 CircleF
3119 1657 CircleF
3119 1749 CircleF
3119 1749 CircleF
3119 1841 CircleF
3119 1841 CircleF
3119 1933 CircleF
3119 1933 CircleF
3119 2025 CircleF
3119 2025 CircleF
3119 2116 CircleF
3119 2116 CircleF
3119 2208 CircleF
3119 2208 CircleF
3119 2300 CircleF
3717 2300 CircleF
3717 2392 CircleF
3837 2392 CircleF
3837 2484 CircleF
3837 2484 CircleF
3837 2576 CircleF
4076 2576 CircleF
4076 2667 CircleF
4315 2667 CircleF
4315 2759 CircleF
4435 2759 CircleF
4435 2851 CircleF
4913 2851 CircleF
4913 2943 CircleF
4913 2943 CircleF
4913 3035 CircleF
5033 3035 CircleF
5033 3126 CircleF
5153 3126 CircleF
5153 3218 CircleF
5272 3218 CircleF
5272 3310 CircleF
5272 3310 CircleF
5272 3402 CircleF
5272 3402 CircleF
5272 3494 CircleF
5272 3494 CircleF
5272 3586 CircleF
5272 3586 CircleF
5272 3677 CircleF
5272 3677 CircleF
5272 3769 CircleF
5272 3769 CircleF
5272 3861 CircleF
6110 3861 CircleF
6110 3953 CircleF
6110 3953 CircleF
6110 4045 CircleF
6110 4045 CircleF
6110 4136 CircleF
6469 4136 CircleF
6469 4228 CircleF
6469 4228 CircleF
6469 4320 CircleF
6469 4320 CircleF
6469 4412 CircleF
6469 4412 CircleF
6469 4504 CircleF
6469 4504 CircleF
6469 4596 CircleF
6469 4596 CircleF
6469 4687 CircleF
6708 4687 CircleF
6708 4779 CircleF
6947 4779 CircleF
6947 4871 CircleF
% End plot #1
% Begin plot #2
1.500 UP
2.000 UL
LT0
1.00 0.55 0.00 C /Helvetica findfont 140 scalefont setfont
2202 1065 M
166 128 V
502 2211 R
223 172 V
1437 2619 M
145 111 V
4722 890 M
186 144 V
-880 373 R
144 111 V
3314 3468 M
225 172 V
-508 879 R
168 129 V
1333 3292 M
152 116 V
4881 364 R
161 123 V
17 719 R
201 155 V
3040 4154 M
211 162 V
1237 3358 M
149 115 V
3022 591 M
172 132 V
5324 384 M
124 95 V
1342 2738 M
202 155 V
2144 1477 M
144 110 V
3964 1012 M
136 105 V
6701 4116 M
179 137 V
2000 2474 M
192 147 V
4244 733 M
186 142 V
3271 367 M
153 117 V
377 1078 R
125 96 V
2640 1351 M
212 162 V
4945 2611 M
206 158 V
1379 2150 M
198 152 V
5197 4183 M
153 117 V
4594 1464 M
207 159 V
3763 2437 M
228 175 V
5246 3662 M
164 127 V
358 524 R
138 107 V
6067 1265 M
203 156 V
3824 4115 M
178 136 V
3381 1978 M
188 144 V
5741 801 M
184 142 V
4447 1064 M
162 125 V
3296 4052 M
172 132 V
6211 3922 M
153 117 V
-2405 74 R
227 174 V
2891 701 M
125 96 V
820 2815 R
231 177 V
2898 3257 M
201 154 V
5481 1406 M
225 173 V
275 303 R
222 170 V
1670 1345 M
238 182 V
4273 648 R
160 123 V
5290 1213 M
149 114 V
-118 152 R
129 99 V
4352 4476 M
149 115 V
2562 3483 M
172 132 V
3283 -19 R
231 177 V
5092 4159 M
201 154 V
1174 2865 M
138 106 V
4633 2860 M
143 109 V
stroke 4776 2969 M
2658 4277 M
235 180 V
4134 1124 M
157 121 V
1711 4114 M
237 182 V
6211 3296 M
206 158 V
6158 3311 M
164 125 V
2226 4082 M
187 144 V
1199 3146 M
183 140 V
5634 1835 M
156 119 V
2417 1294 M
138 105 V
4634 2789 M
236 181 V
1894 4343 M
120 92 V
5845 567 M
201 154 V
2389 2703 M
143 110 V
5215 1470 M
182 139 V
2894 2273 M
153 118 V
6422 571 M
161 123 V
4445 2714 M
207 159 V
5496 1266 M
154 118 V
4483 553 M
233 180 V
6169 3571 M
220 169 V
5607 2672 M
183 141 V
1940 1151 M
169 130 V
5932 3536 M
161 124 V
1155 3173 M
156 119 V
2460 4292 M
168 129 V
1641 194 R
217 167 V
537 -111 R
222 171 V
1060 3032 M
133 102 V
2920 2061 M
203 156 V
6334 3739 M
144 111 V
1926 4623 M
210 161 V
1111 4663 M
195 149 V
3637 2089 M
155 119 V
1293 449 M
168 130 V
-197 581 R
178 136 V
4565 3686 M
163 125 V
785 -272 R
150 114 V
3456 1839 M
199 153 V
92 405 R
208 159 V
1344 3387 M
133 101 V
-80 804 R
211 162 V
4149 555 M
151 115 V
2949 1946 M
207 158 V
805 -293 R
169 129 V
232 1842 R
228 174 V
3884 1720 M
201 153 V
3064 809 M
231 178 V
2182 995 R
186 143 V
3852 3752 M
238 183 V
-13 628 R
133 102 V
1023 1333 M
124 95 V
3141 4383 M
226 174 V
stroke 3367 4557 M
4895 2964 M
212 163 V
3191 3841 M
236 181 V
1098 3922 M
130 100 V
4374 1727 M
189 146 V
5519 992 M
227 175 V
5248 4302 M
192 148 V
2631 1169 M
230 177 V
6243 4054 M
208 160 V
3766 3992 M
215 165 V
2837 1376 M
121 92 V
6699 3388 M
195 150 V
1489 3051 M
209 161 V
2664 784 M
225 173 V
5742 3294 M
214 164 V
-454 887 R
183 140 V
2515 2643 M
237 182 V
1705 655 M
229 176 V
587 2640 R
160 123 V
1121 957 R
193 148 V
4726 390 M
127 97 V
3445 4517 M
219 168 V
6165 3188 M
139 106 V
3391 598 M
201 154 V
6341 396 M
202 155 V
5376 2078 M
237 183 V
3024 4492 M
148 114 V
967 56 R
185 142 V
5641 380 M
191 147 V
3339 750 M
220 169 V
409 1585 R
133 102 V
6378 4128 M
171 131 V
4666 1357 M
218 168 V
2120 3064 M
125 96 V
514 -359 R
181 139 V
6002 4056 M
204 156 V
1057 2558 M
151 116 V
2378 2200 M
223 171 V
1841 1022 M
137 105 V
4391 370 M
132 101 V
3274 3986 M
222 170 V
3690 2754 M
159 122 V
1516 4664 M
214 165 V
2548 1242 M
120 92 V
2133 317 R
204 157 V
1416 1712 M
167 128 V
2224 859 M
154 119 V
5798 2835 M
184 141 V
1347 1333 M
140 107 V
994 3400 M
232 179 V
2696 1513 M
157 120 V
6448 4186 M
203 156 V
4272 949 M
126 97 V
stroke 4398 1046 M
1618 2516 M
220 169 V
1661 731 M
233 179 V
5179 3590 M
212 162 V
712 346 R
166 127 V
169 257 R
152 117 V
3610 4059 M
176 135 V
5614 3225 M
220 169 V
1467 3156 M
228 175 V
4308 -17 R
152 117 V
3982 2514 M
174 133 V
3664 2288 M
174 133 V
588 2009 R
168 129 V
3216 3712 M
125 96 V
1920 1114 M
211 163 V
728 1824 R
197 151 V
2536 235 R
200 154 V
47 997 R
228 175 V
1068 3196 M
178 136 V
2977 518 R
157 120 V
2258 3636 M
195 149 V
3525 726 M
190 146 V
6008 3891 M
189 145 V
1812 936 M
176 136 V
4611 2167 M
141 108 V
2344 2894 M
126 96 V
6598 1931 M
145 111 V
2208 3889 M
187 143 V
5145 748 M
147 113 V
1471 701 M
154 118 V
5289 4361 M
149 115 V
1172 923 M
208 159 V
6331 4507 M
191 146 V
1376 3976 M
216 166 V
3552 1941 M
193 149 V
5557 4527 M
216 165 V
5762 1710 M
148 113 V
6485 416 M
137 106 V
1511 3420 M
216 166 V
2710 2055 M
200 153 V
1115 1988 M
201 153 V
3324 725 M
208 160 V
1383 1389 M
221 170 V
1601 621 R
173 133 V
2276 1464 M
128 99 V
2103 3634 M
220 169 V
5285 1922 M
193 148 V
3238 676 M
225 172 V
832 1813 R
163 125 V
754 1735 R
205 158 V
2760 4442 M
181 139 V
744 -766 R
141 108 V
3046 3696 M
131 100 V
stroke 3177 3796 M
6312 2111 M
213 164 V
4881 483 M
205 157 V
6675 3817 M
148 114 V
6085 2747 M
145 111 V
4744 2393 M
133 102 V
5943 3784 M
180 138 V
5887 2228 M
186 143 V
423 473 R
204 157 V
3003 4085 M
121 92 V
2310 3803 M
232 179 V
1402 3666 M
175 134 V
4837 2505 M
226 174 V
4516 2035 M
159 122 V
3812 3235 M
144 110 V
-781 876 R
163 125 V
6059 1474 M
125 97 V
2320 4142 M
217 166 V
3843 1853 M
232 178 V
2036 3163 M
203 156 V
1513 816 M
183 140 V
119 3381 R
193 148 V
3243 2249 M
197 151 V
6128 2112 M
187 143 V
4667 1949 M
221 170 V
3911 3328 M
135 104 V
3682 1664 M
228 175 V
2787 3768 M
135 103 V
3200 2217 M
155 119 V
5765 1734 M
188 144 V
5494 4408 M
138 107 V
2803 4188 M
156 120 V
5871 792 M
206 158 V
5304 890 M
208 159 V
2907 1013 M
211 163 V
325 2519 R
224 172 V
2987 1727 M
162 125 V
669 1803 R
227 175 V
2405 4653 M
154 118 V
3219 2711 M
151 116 V
865 685 R
170 130 V
981 219 R
171 131 V
2769 1331 M
147 114 V
1775 4240 M
128 98 V
2268 1557 M
216 166 V
4167 892 R
169 130 V
5276 1750 M
170 131 V
-296 2 R
215 165 V
3502 3898 M
200 154 V
5452 3103 M
169 129 V
5419 3012 M
234 180 V
5265 528 M
132 101 V
5538 342 M
225 173 V
stroke 5763 515 M
1557 744 M
226 173 V
5526 3806 M
205 158 V
3457 4283 M
182 140 V
6567 1679 M
236 181 V
4783 3467 M
203 155 V
156 -215 R
236 182 V
2637 2214 M
203 156 V
2426 847 R
154 118 V
5378 1674 M
217 167 V
1592 4350 M
178 136 V
2108 3420 M
154 118 V
4411 1274 M
154 119 V
1034 1365 M
148 113 V
3645 2522 M
193 149 V
1191 1457 M
152 117 V
2518 -76 R
173 133 V
2859 4652 M
208 160 V
4513 4656 M
139 107 V
3266 853 M
211 162 V
1677 4130 M
228 175 V
2842 -24 R
159 122 V
6479 1289 M
168 129 V
6383 3296 M
151 115 V
1136 3795 M
150 114 V
5791 1939 M
173 133 V
5779 681 M
172 132 V
2370 740 M
227 175 V
5121 3556 M
214 164 V
3743 3602 M
202 155 V
6362 3278 M
172 132 V
1733 908 M
165 127 V
197 2165 R
157 121 V
4808 2431 M
196 150 V
6529 439 M
122 94 V
3757 1987 M
122 93 V
6552 3209 M
153 118 V
2956 3945 M
150 116 V
4785 2785 M
171 132 V
5352 597 M
165 126 V
283 1337 R
150 116 V
5125 3386 M
193 148 V
4324 3364 M
149 115 V
5880 2845 M
187 144 V
5941 2458 M
216 166 V
1135 940 M
203 155 V
987 2265 M
234 179 V
5306 2161 M
205 158 V
3708 945 M
157 121 V
6540 4057 M
203 156 V
-737 -49 R
138 106 V
4218 1741 M
126 96 V
3571 572 M
202 155 V
stroke 3773 727 M
2264 4431 M
125 96 V
1121 1003 M
226 173 V
646 849 R
215 165 V
1045 3222 M
138 106 V
80 84 R
126 97 V
3771 747 M
184 141 V
1413 1727 M
193 148 V
3922 3413 M
124 95 V
211 717 R
228 175 V
5996 1475 M
138 106 V
5856 3650 M
143 110 V
1884 2412 M
164 126 V
920 -907 R
201 154 V
2662 788 M
215 166 V
5280 730 M
134 103 V
4598 1942 M
179 138 V
2961 2955 M
207 159 V
1713 1118 M
211 162 V
6509 4649 M
149 115 V
4960 4560 M
220 169 V
1774 1950 M
221 171 V
1601 3844 M
173 133 V
1893 300 M
139 107 V
141 3266 R
140 107 V
6663 3022 M
201 154 V
2835 2740 M
207 160 V
12 -1348 R
178 136 V
1381 3758 M
208 159 V
-53 705 R
147 112 V
3690 317 M
198 151 V
3714 2517 M
207 158 V
6140 3804 M
199 153 V
2763 2673 M
174 133 V
1208 791 R
139 107 V
2280 633 M
189 144 V
3415 832 R
156 119 V
4747 2586 M
151 116 V
2202 1065 CircleF
2368 1193 CircleF
2870 3404 CircleF
3093 3576 CircleF
1437 2619 CircleF
1582 2730 CircleF
4722 890 CircleF
4908 1034 CircleF
4028 1407 CircleF
4172 1518 CircleF
3314 3468 CircleF
3539 3640 CircleF
3031 4519 CircleF
3199 4648 CircleF
1333 3292 CircleF
1485 3408 CircleF
6366 3772 CircleF
6527 3895 CircleF
6544 4614 CircleF
6745 4769 CircleF
3040 4154 CircleF
3251 4316 CircleF
1237 3358 CircleF
1386 3473 CircleF
3022 591 CircleF
3194 723 CircleF
5324 384 CircleF
5448 479 CircleF
1342 2738 CircleF
1544 2893 CircleF
2144 1477 CircleF
2288 1587 CircleF
3964 1012 CircleF
4100 1117 CircleF
6701 4116 CircleF
6880 4253 CircleF
2000 2474 CircleF
2192 2621 CircleF
4244 733 CircleF
4430 875 CircleF
3271 367 CircleF
3424 484 CircleF
3801 1562 CircleF
3926 1658 CircleF
2640 1351 CircleF
2852 1513 CircleF
4945 2611 CircleF
5151 2769 CircleF
1379 2150 CircleF
1577 2302 CircleF
5197 4183 CircleF
5350 4300 CircleF
4594 1464 CircleF
4801 1623 CircleF
3763 2437 CircleF
3991 2612 CircleF
5246 3662 CircleF
5410 3789 CircleF
5768 4313 CircleF
5906 4420 CircleF
6067 1265 CircleF
6270 1421 CircleF
3824 4115 CircleF
4002 4251 CircleF
3381 1978 CircleF
3569 2122 CircleF
5741 801 CircleF
5925 943 CircleF
4447 1064 CircleF
4609 1189 CircleF
3296 4052 CircleF
3468 4184 CircleF
6211 3922 CircleF
6364 4039 CircleF
3959 4113 CircleF
4186 4287 CircleF
2891 701 CircleF
3016 797 CircleF
3836 3612 CircleF
4067 3789 CircleF
2898 3257 CircleF
3099 3411 CircleF
5481 1406 CircleF
5706 1579 CircleF
5981 1882 CircleF
6203 2052 CircleF
1670 1345 CircleF
1908 1527 CircleF
6181 2175 CircleF
6341 2298 CircleF
5290 1213 CircleF
5439 1327 CircleF
5321 1479 CircleF
5450 1578 CircleF
4352 4476 CircleF
4501 4591 CircleF
2562 3483 CircleF
2734 3615 CircleF
6017 3596 CircleF
6248 3773 CircleF
5092 4159 CircleF
5293 4313 CircleF
1174 2865 CircleF
1312 2971 CircleF
4633 2860 CircleF
4776 2969 CircleF
2658 4277 CircleF
2893 4457 CircleF
4134 1124 CircleF
4291 1245 CircleF
1711 4114 CircleF
1948 4296 CircleF
6211 3296 CircleF
6417 3454 CircleF
6158 3311 CircleF
6322 3436 CircleF
2226 4082 CircleF
2413 4226 CircleF
1199 3146 CircleF
1382 3286 CircleF
5634 1835 CircleF
5790 1954 CircleF
2417 1294 CircleF
2555 1399 CircleF
4634 2789 CircleF
4870 2970 CircleF
1894 4343 CircleF
2014 4435 CircleF
5845 567 CircleF
6046 721 CircleF
2389 2703 CircleF
2532 2813 CircleF
5215 1470 CircleF
5397 1609 CircleF
2894 2273 CircleF
3047 2391 CircleF
6422 571 CircleF
6583 694 CircleF
4445 2714 CircleF
4652 2873 CircleF
5496 1266 CircleF
5650 1384 CircleF
4483 553 CircleF
4716 733 CircleF
6169 3571 CircleF
6389 3740 CircleF
5607 2672 CircleF
5790 2813 CircleF
1940 1151 CircleF
2109 1281 CircleF
5932 3536 CircleF
6093 3660 CircleF
1155 3173 CircleF
1311 3292 CircleF
2460 4292 CircleF
2628 4421 CircleF
4269 4615 CircleF
4486 4782 CircleF
5023 4671 CircleF
5245 4842 CircleF
1060 3032 CircleF
1193 3134 CircleF
2920 2061 CircleF
3123 2217 CircleF
6334 3739 CircleF
6478 3850 CircleF
1926 4623 CircleF
2136 4784 CircleF
1111 4663 CircleF
1306 4812 CircleF
3637 2089 CircleF
3792 2208 CircleF
1293 449 CircleF
1461 579 CircleF
1264 1160 CircleF
1442 1296 CircleF
4565 3686 CircleF
4728 3811 CircleF
5513 3539 CircleF
5663 3653 CircleF
3456 1839 CircleF
3655 1992 CircleF
3747 2397 CircleF
3955 2556 CircleF
1344 3387 CircleF
1477 3488 CircleF
1397 4292 CircleF
1608 4454 CircleF
4149 555 CircleF
4300 670 CircleF
2949 1946 CircleF
3156 2104 CircleF
3961 1811 CircleF
4130 1940 CircleF
4362 3782 CircleF
4590 3956 CircleF
3884 1720 CircleF
4085 1873 CircleF
3064 809 CircleF
3295 987 CircleF
5477 1982 CircleF
5663 2125 CircleF
3852 3752 CircleF
4090 3935 CircleF
4077 4563 CircleF
4210 4665 CircleF
1023 1333 CircleF
1147 1428 CircleF
3141 4383 CircleF
3367 4557 CircleF
4895 2964 CircleF
5107 3127 CircleF
3191 3841 CircleF
3427 4022 CircleF
1098 3922 CircleF
1228 4022 CircleF
4374 1727 CircleF
4563 1873 CircleF
5519 992 CircleF
5746 1167 CircleF
5248 4302 CircleF
5440 4450 CircleF
2631 1169 CircleF
2861 1346 CircleF
6243 4054 CircleF
6451 4214 CircleF
3766 3992 CircleF
3981 4157 CircleF
2837 1376 CircleF
2958 1468 CircleF
6699 3388 CircleF
6894 3538 CircleF
1489 3051 CircleF
1698 3212 CircleF
2664 784 CircleF
2889 957 CircleF
5742 3294 CircleF
5956 3458 CircleF
5502 4345 CircleF
5685 4485 CircleF
2515 2643 CircleF
2752 2825 CircleF
1705 655 CircleF
1934 831 CircleF
2521 3471 CircleF
2681 3594 CircleF
3802 4551 CircleF
3995 4699 CircleF
4726 390 CircleF
4853 487 CircleF
3445 4517 CircleF
3664 4685 CircleF
6165 3188 CircleF
6304 3294 CircleF
3391 598 CircleF
3592 752 CircleF
6341 396 CircleF
6543 551 CircleF
5376 2078 CircleF
5613 2261 CircleF
3024 4492 CircleF
3172 4606 CircleF
4139 4662 CircleF
4324 4804 CircleF
5641 380 CircleF
5832 527 CircleF
3339 750 CircleF
3559 919 CircleF
3968 2504 CircleF
4101 2606 CircleF
6378 4128 CircleF
6549 4259 CircleF
4666 1357 CircleF
4884 1525 CircleF
2120 3064 CircleF
2245 3160 CircleF
2759 2801 CircleF
2940 2940 CircleF
6002 4056 CircleF
6206 4212 CircleF
1057 2558 CircleF
1208 2674 CircleF
2378 2200 CircleF
2601 2371 CircleF
1841 1022 CircleF
1978 1127 CircleF
4391 370 CircleF
4523 471 CircleF
3274 3986 CircleF
3496 4156 CircleF
3690 2754 CircleF
3849 2876 CircleF
1516 4664 CircleF
1730 4829 CircleF
2548 1242 CircleF
2668 1334 CircleF
4801 1651 CircleF
5005 1808 CircleF
1416 1712 CircleF
1583 1840 CircleF
2224 859 CircleF
2378 978 CircleF
5798 2835 CircleF
5982 2976 CircleF
1347 1333 CircleF
1487 1440 CircleF
994 3400 CircleF
1226 3579 CircleF
2696 1513 CircleF
2853 1633 CircleF
6448 4186 CircleF
6651 4342 CircleF
4272 949 CircleF
4398 1046 CircleF
1618 2516 CircleF
1838 2685 CircleF
1661 731 CircleF
1894 910 CircleF
5179 3590 CircleF
5391 3752 CircleF
6103 4098 CircleF
6269 4225 CircleF
6438 4482 CircleF
6590 4599 CircleF
3610 4059 CircleF
3786 4194 CircleF
5614 3225 CircleF
5834 3394 CircleF
1467 3156 CircleF
1695 3331 CircleF
6003 3314 CircleF
6155 3431 CircleF
3982 2514 CircleF
4156 2647 CircleF
3664 2288 CircleF
3838 2421 CircleF
4426 4430 CircleF
4594 4559 CircleF
3216 3712 CircleF
3341 3808 CircleF
1920 1114 CircleF
2131 1277 CircleF
2859 3101 CircleF
3056 3252 CircleF
5592 3487 CircleF
5792 3641 CircleF
5839 4638 CircleF
6067 4813 CircleF
1068 3196 CircleF
1246 3332 CircleF
4223 3850 CircleF
4380 3970 CircleF
2258 3636 CircleF
2453 3785 CircleF
3525 726 CircleF
3715 872 CircleF
6008 3891 CircleF
6197 4036 CircleF
1812 936 CircleF
1988 1072 CircleF
4611 2167 CircleF
4752 2275 CircleF
2344 2894 CircleF
2470 2990 CircleF
6598 1931 CircleF
6743 2042 CircleF
2208 3889 CircleF
2395 4032 CircleF
5145 748 CircleF
5292 861 CircleF
1471 701 CircleF
1625 819 CircleF
5289 4361 CircleF
5438 4476 CircleF
1172 923 CircleF
1380 1082 CircleF
6331 4507 CircleF
6522 4653 CircleF
1376 3976 CircleF
1592 4142 CircleF
3552 1941 CircleF
3745 2090 CircleF
5557 4527 CircleF
5773 4692 CircleF
5762 1710 CircleF
5910 1823 CircleF
6485 416 CircleF
6622 522 CircleF
1511 3420 CircleF
1727 3586 CircleF
2710 2055 CircleF
2910 2208 CircleF
1115 1988 CircleF
1316 2141 CircleF
3324 725 CircleF
3532 885 CircleF
1383 1389 CircleF
1604 1559 CircleF
3205 2180 CircleF
3378 2313 CircleF
2276 1464 CircleF
2404 1563 CircleF
2103 3634 CircleF
2323 3803 CircleF
5285 1922 CircleF
5478 2070 CircleF
3238 676 CircleF
3463 848 CircleF
4295 2661 CircleF
4458 2786 CircleF
5212 4521 CircleF
5417 4679 CircleF
2760 4442 CircleF
2941 4581 CircleF
3685 3815 CircleF
3826 3923 CircleF
3046 3696 CircleF
3177 3796 CircleF
6312 2111 CircleF
6525 2275 CircleF
4881 483 CircleF
5086 640 CircleF
6675 3817 CircleF
6823 3931 CircleF
6085 2747 CircleF
6230 2858 CircleF
4744 2393 CircleF
4877 2495 CircleF
5943 3784 CircleF
6123 3922 CircleF
5887 2228 CircleF
6073 2371 CircleF
6496 2844 CircleF
6700 3001 CircleF
3003 4085 CircleF
3124 4177 CircleF
2310 3803 CircleF
2542 3982 CircleF
1402 3666 CircleF
1577 3800 CircleF
4837 2505 CircleF
5063 2679 CircleF
4516 2035 CircleF
4675 2157 CircleF
3812 3235 CircleF
3956 3345 CircleF
3175 4221 CircleF
3338 4346 CircleF
6059 1474 CircleF
6184 1571 CircleF
2320 4142 CircleF
2537 4308 CircleF
3843 1853 CircleF
4075 2031 CircleF
2036 3163 CircleF
2239 3319 CircleF
1513 816 CircleF
1696 956 CircleF
1815 4337 CircleF
2008 4485 CircleF
3243 2249 CircleF
3440 2400 CircleF
6128 2112 CircleF
6315 2255 CircleF
4667 1949 CircleF
4888 2119 CircleF
3911 3328 CircleF
4046 3432 CircleF
3682 1664 CircleF
3910 1839 CircleF
2787 3768 CircleF
2922 3871 CircleF
3200 2217 CircleF
3355 2336 CircleF
5765 1734 CircleF
5953 1878 CircleF
5494 4408 CircleF
5632 4515 CircleF
2803 4188 CircleF
2959 4308 CircleF
5871 792 CircleF
6077 950 CircleF
5304 890 CircleF
5512 1049 CircleF
2907 1013 CircleF
3118 1176 CircleF
3443 3695 CircleF
3667 3867 CircleF
2987 1727 CircleF
3149 1852 CircleF
3818 3655 CircleF
4045 3830 CircleF
2405 4653 CircleF
2559 4771 CircleF
3219 2711 CircleF
3370 2827 CircleF
4235 3512 CircleF
4405 3642 CircleF
5386 3861 CircleF
5557 3992 CircleF
2769 1331 CircleF
2916 1445 CircleF
1775 4240 CircleF
1903 4338 CircleF
2268 1557 CircleF
2484 1723 CircleF
6651 2615 CircleF
6820 2745 CircleF
5276 1750 CircleF
5446 1881 CircleF
5150 1883 CircleF
5365 2048 CircleF
3502 3898 CircleF
3702 4052 CircleF
5452 3103 CircleF
5621 3232 CircleF
5419 3012 CircleF
5653 3192 CircleF
5265 528 CircleF
5397 629 CircleF
5538 342 CircleF
5763 515 CircleF
1557 744 CircleF
1783 917 CircleF
5526 3806 CircleF
5731 3964 CircleF
3457 4283 CircleF
3639 4423 CircleF
6567 1679 CircleF
6803 1860 CircleF
4783 3467 CircleF
4986 3622 CircleF
5142 3407 CircleF
5378 3589 CircleF
2637 2214 CircleF
2840 2370 CircleF
5266 3217 CircleF
5420 3335 CircleF
5378 1674 CircleF
5595 1841 CircleF
1592 4350 CircleF
1770 4486 CircleF
2108 3420 CircleF
2262 3538 CircleF
4411 1274 CircleF
4565 1393 CircleF
1034 1365 CircleF
1182 1478 CircleF
3645 2522 CircleF
3838 2671 CircleF
1191 1457 CircleF
1343 1574 CircleF
3861 1498 CircleF
4034 1631 CircleF
2859 4652 CircleF
3067 4812 CircleF
4513 4656 CircleF
4652 4763 CircleF
3266 853 CircleF
3477 1015 CircleF
1677 4130 CircleF
1905 4305 CircleF
4747 4281 CircleF
4906 4403 CircleF
6479 1289 CircleF
6647 1418 CircleF
6383 3296 CircleF
6534 3411 CircleF
1136 3795 CircleF
1286 3909 CircleF
5791 1939 CircleF
5964 2072 CircleF
5779 681 CircleF
5951 813 CircleF
2370 740 CircleF
2597 915 CircleF
5121 3556 CircleF
5335 3720 CircleF
3743 3602 CircleF
3945 3757 CircleF
6362 3278 CircleF
6534 3410 CircleF
1733 908 CircleF
1898 1035 CircleF
2095 3200 CircleF
2252 3321 CircleF
4808 2431 CircleF
5004 2581 CircleF
6529 439 CircleF
6651 533 CircleF
3757 1987 CircleF
3879 2080 CircleF
6552 3209 CircleF
6705 3327 CircleF
2956 3945 CircleF
3106 4061 CircleF
4785 2785 CircleF
4956 2917 CircleF
5352 597 CircleF
5517 723 CircleF
5800 2060 CircleF
5950 2176 CircleF
5125 3386 CircleF
5318 3534 CircleF
4324 3364 CircleF
4473 3479 CircleF
5880 2845 CircleF
6067 2989 CircleF
5941 2458 CircleF
6157 2624 CircleF
1135 940 CircleF
1338 1095 CircleF
987 2265 CircleF
1221 2444 CircleF
5306 2161 CircleF
5511 2319 CircleF
3708 945 CircleF
3865 1066 CircleF
6540 4057 CircleF
6743 4213 CircleF
6006 4164 CircleF
6144 4270 CircleF
4218 1741 CircleF
4344 1837 CircleF
3571 572 CircleF
3773 727 CircleF
2264 4431 CircleF
2389 4527 CircleF
1121 1003 CircleF
1347 1176 CircleF
1993 2025 CircleF
2208 2190 CircleF
1045 3222 CircleF
1183 3328 CircleF
1263 3412 CircleF
1389 3509 CircleF
3771 747 CircleF
3955 888 CircleF
1413 1727 CircleF
1606 1875 CircleF
3922 3413 CircleF
4046 3508 CircleF
4257 4225 CircleF
4485 4400 CircleF
5996 1475 CircleF
6134 1581 CircleF
5856 3650 CircleF
5999 3760 CircleF
1884 2412 CircleF
2048 2538 CircleF
2968 1631 CircleF
3169 1785 CircleF
2662 788 CircleF
2877 954 CircleF
5280 730 CircleF
5414 833 CircleF
4598 1942 CircleF
4777 2080 CircleF
2961 2955 CircleF
3168 3114 CircleF
1713 1118 CircleF
1924 1280 CircleF
6509 4649 CircleF
6658 4764 CircleF
4960 4560 CircleF
5180 4729 CircleF
1774 1950 CircleF
1995 2121 CircleF
1601 3844 CircleF
1774 3977 CircleF
1893 300 CircleF
2032 407 CircleF
2173 3673 CircleF
2313 3780 CircleF
6663 3022 CircleF
6864 3176 CircleF
2835 2740 CircleF
3042 2900 CircleF
3054 1552 CircleF
3232 1688 CircleF
1381 3758 CircleF
1589 3917 CircleF
1536 4622 CircleF
1683 4734 CircleF
3690 317 CircleF
3888 468 CircleF
3714 2517 CircleF
3921 2675 CircleF
6140 3804 CircleF
6339 3957 CircleF
2763 2673 CircleF
2937 2806 CircleF
4145 3597 CircleF
4284 3704 CircleF
2280 633 CircleF
2469 777 CircleF
5884 1609 CircleF
6040 1728 CircleF
4747 2586 CircleF
4898 2702 CircleF
% End plot #2
1.000 UP
1.000 UL
LT0
0.50 0.50 0.50 C stroke
grestore
end
showpage
%%Trailer
%%DocumentFonts: Helvetica
%%Pages: 1
