%!PS-Adobe-2.0
%%Title: out.ps
%%Creator: gnuplot 4.6 patchlevel 6
%%CreationDate: Fri May 29 00:16:57 2015
%%DocumentFonts: (atend)
%%BoundingBox: 50 50 554 770
%%Orientation: Landscape
%%Pages: (atend)
%%EndComments
%%BeginProlog
/gnudict 256 dict def
gnudict begin
%
% The following true/false flags may be edited by hand if desired.
% The unit line width and grayscale image gamma correction may also be changed.
%
/Color false def
/Blacktext false def
/Solid false def
/Dashlength 1 def
/Landscape true def
/Level1 false def
/Rounded false def
/ClipToBoundingBox false def
/SuppressPDFMark false def
/TransparentPatterns false def
/gnulinewidth 5.000 def
/userlinewidth gnulinewidth def
/Gamma 1.0 def
/BackgroundColor {-1.000 -1.000 -1.000} def
%
/vshift -46 def
/dl1 {
  10.0 Dashlength mul mul
  Rounded { currentlinewidth 0.75 mul sub dup 0 le { pop 0.01 } if } if
} def
/dl2 {
  10.0 Dashlength mul mul
  Rounded { currentlinewidth 0.75 mul add } if
} def
/hpt_ 31.5 def
/vpt_ 31.5 def
/hpt hpt_ def
/vpt vpt_ def
/doclip {
  ClipToBoundingBox {
    newpath 50 50 moveto 554 50 lineto 554 770 lineto 50 770 lineto closepath
    clip
  } if
} def
%
% Gnuplot Prolog Version 4.6 (September 2012)
%
%/SuppressPDFMark true def
%
/M {moveto} bind def
/L {lineto} bind def
/R {rmoveto} bind def
/V {rlineto} bind def
/N {newpath moveto} bind def
/Z {closepath} bind def
/C {setrgbcolor} bind def
/f {rlineto fill} bind def
/g {setgray} bind def
/Gshow {show} def   % May be redefined later in the file to support UTF-8
/vpt2 vpt 2 mul def
/hpt2 hpt 2 mul def
/Lshow {currentpoint stroke M 0 vshift R 
	Blacktext {gsave 0 setgray show grestore} {show} ifelse} def
/Rshow {currentpoint stroke M dup stringwidth pop neg vshift R
	Blacktext {gsave 0 setgray show grestore} {show} ifelse} def
/Cshow {currentpoint stroke M dup stringwidth pop -2 div vshift R 
	Blacktext {gsave 0 setgray show grestore} {show} ifelse} def
/UP {dup vpt_ mul /vpt exch def hpt_ mul /hpt exch def
  /hpt2 hpt 2 mul def /vpt2 vpt 2 mul def} def
/DL {Color {setrgbcolor Solid {pop []} if 0 setdash}
 {pop pop pop 0 setgray Solid {pop []} if 0 setdash} ifelse} def
/BL {stroke userlinewidth 2 mul setlinewidth
	Rounded {1 setlinejoin 1 setlinecap} if} def
/AL {stroke userlinewidth 2 div setlinewidth
	Rounded {1 setlinejoin 1 setlinecap} if} def
/UL {dup gnulinewidth mul /userlinewidth exch def
	dup 1 lt {pop 1} if 10 mul /udl exch def} def
/PL {stroke userlinewidth setlinewidth
	Rounded {1 setlinejoin 1 setlinecap} if} def
3.8 setmiterlimit
% Default Line colors
/LCw {1 1 1} def
/LCb {0 0 0} def
/LCa {0 0 0} def
/LC0 {1 0 0} def
/LC1 {0 1 0} def
/LC2 {0 0 1} def
/LC3 {1 0 1} def
/LC4 {0 1 1} def
/LC5 {1 1 0} def
/LC6 {0 0 0} def
/LC7 {1 0.3 0} def
/LC8 {0.5 0.5 0.5} def
% Default Line Types
/LTw {PL [] 1 setgray} def
/LTb {BL [] LCb DL} def
/LTa {AL [1 udl mul 2 udl mul] 0 setdash LCa setrgbcolor} def
/LT0 {PL [] LC0 DL} def
/LT1 {PL [4 dl1 2 dl2] LC1 DL} def
/LT2 {PL [2 dl1 3 dl2] LC2 DL} def
/LT3 {PL [1 dl1 1.5 dl2] LC3 DL} def
/LT4 {PL [6 dl1 2 dl2 1 dl1 2 dl2] LC4 DL} def
/LT5 {PL [3 dl1 3 dl2 1 dl1 3 dl2] LC5 DL} def
/LT6 {PL [2 dl1 2 dl2 2 dl1 6 dl2] LC6 DL} def
/LT7 {PL [1 dl1 2 dl2 6 dl1 2 dl2 1 dl1 2 dl2] LC7 DL} def
/LT8 {PL [2 dl1 2 dl2 2 dl1 2 dl2 2 dl1 2 dl2 2 dl1 4 dl2] LC8 DL} def
/Pnt {stroke [] 0 setdash gsave 1 setlinecap M 0 0 V stroke grestore} def
/Dia {stroke [] 0 setdash 2 copy vpt add M
  hpt neg vpt neg V hpt vpt neg V
  hpt vpt V hpt neg vpt V closepath stroke
  Pnt} def
/Pls {stroke [] 0 setdash vpt sub M 0 vpt2 V
  currentpoint stroke M
  hpt neg vpt neg R hpt2 0 V stroke
 } def
/Box {stroke [] 0 setdash 2 copy exch hpt sub exch vpt add M
  0 vpt2 neg V hpt2 0 V 0 vpt2 V
  hpt2 neg 0 V closepath stroke
  Pnt} def
/Crs {stroke [] 0 setdash exch hpt sub exch vpt add M
  hpt2 vpt2 neg V currentpoint stroke M
  hpt2 neg 0 R hpt2 vpt2 V stroke} def
/TriU {stroke [] 0 setdash 2 copy vpt 1.12 mul add M
  hpt neg vpt -1.62 mul V
  hpt 2 mul 0 V
  hpt neg vpt 1.62 mul V closepath stroke
  Pnt} def
/Star {2 copy Pls Crs} def
/BoxF {stroke [] 0 setdash exch hpt sub exch vpt add M
  0 vpt2 neg V hpt2 0 V 0 vpt2 V
  hpt2 neg 0 V closepath fill} def
/TriUF {stroke [] 0 setdash vpt 1.12 mul add M
  hpt neg vpt -1.62 mul V
  hpt 2 mul 0 V
  hpt neg vpt 1.62 mul V closepath fill} def
/TriD {stroke [] 0 setdash 2 copy vpt 1.12 mul sub M
  hpt neg vpt 1.62 mul V
  hpt 2 mul 0 V
  hpt neg vpt -1.62 mul V closepath stroke
  Pnt} def
/TriDF {stroke [] 0 setdash vpt 1.12 mul sub M
  hpt neg vpt 1.62 mul V
  hpt 2 mul 0 V
  hpt neg vpt -1.62 mul V closepath fill} def
/DiaF {stroke [] 0 setdash vpt add M
  hpt neg vpt neg V hpt vpt neg V
  hpt vpt V hpt neg vpt V closepath fill} def
/Pent {stroke [] 0 setdash 2 copy gsave
  translate 0 hpt M 4 {72 rotate 0 hpt L} repeat
  closepath stroke grestore Pnt} def
/PentF {stroke [] 0 setdash gsave
  translate 0 hpt M 4 {72 rotate 0 hpt L} repeat
  closepath fill grestore} def
/Circle {stroke [] 0 setdash 2 copy
  hpt 0 360 arc stroke Pnt} def
/CircleF {stroke [] 0 setdash hpt 0 360 arc fill} def
/C0 {BL [] 0 setdash 2 copy moveto vpt 90 450 arc} bind def
/C1 {BL [] 0 setdash 2 copy moveto
	2 copy vpt 0 90 arc closepath fill
	vpt 0 360 arc closepath} bind def
/C2 {BL [] 0 setdash 2 copy moveto
	2 copy vpt 90 180 arc closepath fill
	vpt 0 360 arc closepath} bind def
/C3 {BL [] 0 setdash 2 copy moveto
	2 copy vpt 0 180 arc closepath fill
	vpt 0 360 arc closepath} bind def
/C4 {BL [] 0 setdash 2 copy moveto
	2 copy vpt 180 270 arc closepath fill
	vpt 0 360 arc closepath} bind def
/C5 {BL [] 0 setdash 2 copy moveto
	2 copy vpt 0 90 arc
	2 copy moveto
	2 copy vpt 180 270 arc closepath fill
	vpt 0 360 arc} bind def
/C6 {BL [] 0 setdash 2 copy moveto
	2 copy vpt 90 270 arc closepath fill
	vpt 0 360 arc closepath} bind def
/C7 {BL [] 0 setdash 2 copy moveto
	2 copy vpt 0 270 arc closepath fill
	vpt 0 360 arc closepath} bind def
/C8 {BL [] 0 setdash 2 copy moveto
	2 copy vpt 270 360 arc closepath fill
	vpt 0 360 arc closepath} bind def
/C9 {BL [] 0 setdash 2 copy moveto
	2 copy vpt 270 450 arc closepath fill
	vpt 0 360 arc closepath} bind def
/C10 {BL [] 0 setdash 2 copy 2 copy moveto vpt 270 360 arc closepath fill
	2 copy moveto
	2 copy vpt 90 180 arc closepath fill
	vpt 0 360 arc closepath} bind def
/C11 {BL [] 0 setdash 2 copy moveto
	2 copy vpt 0 180 arc closepath fill
	2 copy moveto
	2 copy vpt 270 360 arc closepath fill
	vpt 0 360 arc closepath} bind def
/C12 {BL [] 0 setdash 2 copy moveto
	2 copy vpt 180 360 arc closepath fill
	vpt 0 360 arc closepath} bind def
/C13 {BL [] 0 setdash 2 copy moveto
	2 copy vpt 0 90 arc closepath fill
	2 copy moveto
	2 copy vpt 180 360 arc closepath fill
	vpt 0 360 arc closepath} bind def
/C14 {BL [] 0 setdash 2 copy moveto
	2 copy vpt 90 360 arc closepath fill
	vpt 0 360 arc} bind def
/C15 {BL [] 0 setdash 2 copy vpt 0 360 arc closepath fill
	vpt 0 360 arc closepath} bind def
/Rec {newpath 4 2 roll moveto 1 index 0 rlineto 0 exch rlineto
	neg 0 rlineto closepath} bind def
/Square {dup Rec} bind def
/Bsquare {vpt sub exch vpt sub exch vpt2 Square} bind def
/S0 {BL [] 0 setdash 2 copy moveto 0 vpt rlineto BL Bsquare} bind def
/S1 {BL [] 0 setdash 2 copy vpt Square fill Bsquare} bind def
/S2 {BL [] 0 setdash 2 copy exch vpt sub exch vpt Square fill Bsquare} bind def
/S3 {BL [] 0 setdash 2 copy exch vpt sub exch vpt2 vpt Rec fill Bsquare} bind def
/S4 {BL [] 0 setdash 2 copy exch vpt sub exch vpt sub vpt Square fill Bsquare} bind def
/S5 {BL [] 0 setdash 2 copy 2 copy vpt Square fill
	exch vpt sub exch vpt sub vpt Square fill Bsquare} bind def
/S6 {BL [] 0 setdash 2 copy exch vpt sub exch vpt sub vpt vpt2 Rec fill Bsquare} bind def
/S7 {BL [] 0 setdash 2 copy exch vpt sub exch vpt sub vpt vpt2 Rec fill
	2 copy vpt Square fill Bsquare} bind def
/S8 {BL [] 0 setdash 2 copy vpt sub vpt Square fill Bsquare} bind def
/S9 {BL [] 0 setdash 2 copy vpt sub vpt vpt2 Rec fill Bsquare} bind def
/S10 {BL [] 0 setdash 2 copy vpt sub vpt Square fill 2 copy exch vpt sub exch vpt Square fill
	Bsquare} bind def
/S11 {BL [] 0 setdash 2 copy vpt sub vpt Square fill 2 copy exch vpt sub exch vpt2 vpt Rec fill
	Bsquare} bind def
/S12 {BL [] 0 setdash 2 copy exch vpt sub exch vpt sub vpt2 vpt Rec fill Bsquare} bind def
/S13 {BL [] 0 setdash 2 copy exch vpt sub exch vpt sub vpt2 vpt Rec fill
	2 copy vpt Square fill Bsquare} bind def
/S14 {BL [] 0 setdash 2 copy exch vpt sub exch vpt sub vpt2 vpt Rec fill
	2 copy exch vpt sub exch vpt Square fill Bsquare} bind def
/S15 {BL [] 0 setdash 2 copy Bsquare fill Bsquare} bind def
/D0 {gsave translate 45 rotate 0 0 S0 stroke grestore} bind def
/D1 {gsave translate 45 rotate 0 0 S1 stroke grestore} bind def
/D2 {gsave translate 45 rotate 0 0 S2 stroke grestore} bind def
/D3 {gsave translate 45 rotate 0 0 S3 stroke grestore} bind def
/D4 {gsave translate 45 rotate 0 0 S4 stroke grestore} bind def
/D5 {gsave translate 45 rotate 0 0 S5 stroke grestore} bind def
/D6 {gsave translate 45 rotate 0 0 S6 stroke grestore} bind def
/D7 {gsave translate 45 rotate 0 0 S7 stroke grestore} bind def
/D8 {gsave translate 45 rotate 0 0 S8 stroke grestore} bind def
/D9 {gsave translate 45 rotate 0 0 S9 stroke grestore} bind def
/D10 {gsave translate 45 rotate 0 0 S10 stroke grestore} bind def
/D11 {gsave translate 45 rotate 0 0 S11 stroke grestore} bind def
/D12 {gsave translate 45 rotate 0 0 S12 stroke grestore} bind def
/D13 {gsave translate 45 rotate 0 0 S13 stroke grestore} bind def
/D14 {gsave translate 45 rotate 0 0 S14 stroke grestore} bind def
/D15 {gsave translate 45 rotate 0 0 S15 stroke grestore} bind def
/DiaE {stroke [] 0 setdash vpt add M
  hpt neg vpt neg V hpt vpt neg V
  hpt vpt V hpt neg vpt V closepath stroke} def
/BoxE {stroke [] 0 setdash exch hpt sub exch vpt add M
  0 vpt2 neg V hpt2 0 V 0 vpt2 V
  hpt2 neg 0 V closepath stroke} def
/TriUE {stroke [] 0 setdash vpt 1.12 mul add M
  hpt neg vpt -1.62 mul V
  hpt 2 mul 0 V
  hpt neg vpt 1.62 mul V closepath stroke} def
/TriDE {stroke [] 0 setdash vpt 1.12 mul sub M
  hpt neg vpt 1.62 mul V
  hpt 2 mul 0 V
  hpt neg vpt -1.62 mul V closepath stroke} def
/PentE {stroke [] 0 setdash gsave
  translate 0 hpt M 4 {72 rotate 0 hpt L} repeat
  closepath stroke grestore} def
/CircE {stroke [] 0 setdash 
  hpt 0 360 arc stroke} def
/Opaque {gsave closepath 1 setgray fill grestore 0 setgray closepath} def
/DiaW {stroke [] 0 setdash vpt add M
  hpt neg vpt neg V hpt vpt neg V
  hpt vpt V hpt neg vpt V Opaque stroke} def
/BoxW {stroke [] 0 setdash exch hpt sub exch vpt add M
  0 vpt2 neg V hpt2 0 V 0 vpt2 V
  hpt2 neg 0 V Opaque stroke} def
/TriUW {stroke [] 0 setdash vpt 1.12 mul add M
  hpt neg vpt -1.62 mul V
  hpt 2 mul 0 V
  hpt neg vpt 1.62 mul V Opaque stroke} def
/TriDW {stroke [] 0 setdash vpt 1.12 mul sub M
  hpt neg vpt 1.62 mul V
  hpt 2 mul 0 V
  hpt neg vpt -1.62 mul V Opaque stroke} def
/PentW {stroke [] 0 setdash gsave
  translate 0 hpt M 4 {72 rotate 0 hpt L} repeat
  Opaque stroke grestore} def
/CircW {stroke [] 0 setdash 
  hpt 0 360 arc Opaque stroke} def
/BoxFill {gsave Rec 1 setgray fill grestore} def
/Density {
  /Fillden exch def
  currentrgbcolor
  /ColB exch def /ColG exch def /ColR exch def
  /ColR ColR Fillden mul Fillden sub 1 add def
  /ColG ColG Fillden mul Fillden sub 1 add def
  /ColB ColB Fillden mul Fillden sub 1 add def
  ColR ColG ColB setrgbcolor} def
/BoxColFill {gsave Rec PolyFill} def
/PolyFill {gsave Density fill grestore grestore} def
/h {rlineto rlineto rlineto gsave closepath fill grestore} bind def
%
% PostScript Level 1 Pattern Fill routine for rectangles
% Usage: x y w h s a XX PatternFill
%	x,y = lower left corner of box to be filled
%	w,h = width and height of box
%	  a = angle in degrees between lines and x-axis
%	 XX = 0/1 for no/yes cross-hatch
%
/PatternFill {gsave /PFa [ 9 2 roll ] def
  PFa 0 get PFa 2 get 2 div add PFa 1 get PFa 3 get 2 div add translate
  PFa 2 get -2 div PFa 3 get -2 div PFa 2 get PFa 3 get Rec
  TransparentPatterns {} {gsave 1 setgray fill grestore} ifelse
  clip
  currentlinewidth 0.5 mul setlinewidth
  /PFs PFa 2 get dup mul PFa 3 get dup mul add sqrt def
  0 0 M PFa 5 get rotate PFs -2 div dup translate
  0 1 PFs PFa 4 get div 1 add floor cvi
	{PFa 4 get mul 0 M 0 PFs V} for
  0 PFa 6 get ne {
	0 1 PFs PFa 4 get div 1 add floor cvi
	{PFa 4 get mul 0 2 1 roll M PFs 0 V} for
 } if
  stroke grestore} def
%
/languagelevel where
 {pop languagelevel} {1} ifelse
 2 lt
	{/InterpretLevel1 true def}
	{/InterpretLevel1 Level1 def}
 ifelse
%
% PostScript level 2 pattern fill definitions
%
/Level2PatternFill {
/Tile8x8 {/PaintType 2 /PatternType 1 /TilingType 1 /BBox [0 0 8 8] /XStep 8 /YStep 8}
	bind def
/KeepColor {currentrgbcolor [/Pattern /DeviceRGB] setcolorspace} bind def
<< Tile8x8
 /PaintProc {0.5 setlinewidth pop 0 0 M 8 8 L 0 8 M 8 0 L stroke} 
>> matrix makepattern
/Pat1 exch def
<< Tile8x8
 /PaintProc {0.5 setlinewidth pop 0 0 M 8 8 L 0 8 M 8 0 L stroke
	0 4 M 4 8 L 8 4 L 4 0 L 0 4 L stroke}
>> matrix makepattern
/Pat2 exch def
<< Tile8x8
 /PaintProc {0.5 setlinewidth pop 0 0 M 0 8 L
	8 8 L 8 0 L 0 0 L fill}
>> matrix makepattern
/Pat3 exch def
<< Tile8x8
 /PaintProc {0.5 setlinewidth pop -4 8 M 8 -4 L
	0 12 M 12 0 L stroke}
>> matrix makepattern
/Pat4 exch def
<< Tile8x8
 /PaintProc {0.5 setlinewidth pop -4 0 M 8 12 L
	0 -4 M 12 8 L stroke}
>> matrix makepattern
/Pat5 exch def
<< Tile8x8
 /PaintProc {0.5 setlinewidth pop -2 8 M 4 -4 L
	0 12 M 8 -4 L 4 12 M 10 0 L stroke}
>> matrix makepattern
/Pat6 exch def
<< Tile8x8
 /PaintProc {0.5 setlinewidth pop -2 0 M 4 12 L
	0 -4 M 8 12 L 4 -4 M 10 8 L stroke}
>> matrix makepattern
/Pat7 exch def
<< Tile8x8
 /PaintProc {0.5 setlinewidth pop 8 -2 M -4 4 L
	12 0 M -4 8 L 12 4 M 0 10 L stroke}
>> matrix makepattern
/Pat8 exch def
<< Tile8x8
 /PaintProc {0.5 setlinewidth pop 0 -2 M 12 4 L
	-4 0 M 12 8 L -4 4 M 8 10 L stroke}
>> matrix makepattern
/Pat9 exch def
/Pattern1 {PatternBgnd KeepColor Pat1 setpattern} bind def
/Pattern2 {PatternBgnd KeepColor Pat2 setpattern} bind def
/Pattern3 {PatternBgnd KeepColor Pat3 setpattern} bind def
/Pattern4 {PatternBgnd KeepColor Landscape {Pat5} {Pat4} ifelse setpattern} bind def
/Pattern5 {PatternBgnd KeepColor Landscape {Pat4} {Pat5} ifelse setpattern} bind def
/Pattern6 {PatternBgnd KeepColor Landscape {Pat9} {Pat6} ifelse setpattern} bind def
/Pattern7 {PatternBgnd KeepColor Landscape {Pat8} {Pat7} ifelse setpattern} bind def
} def
%
%
%End of PostScript Level 2 code
%
/PatternBgnd {
  TransparentPatterns {} {gsave 1 setgray fill grestore} ifelse
} def
%
% Substitute for Level 2 pattern fill codes with
% grayscale if Level 2 support is not selected.
%
/Level1PatternFill {
/Pattern1 {0.250 Density} bind def
/Pattern2 {0.500 Density} bind def
/Pattern3 {0.750 Density} bind def
/Pattern4 {0.125 Density} bind def
/Pattern5 {0.375 Density} bind def
/Pattern6 {0.625 Density} bind def
/Pattern7 {0.875 Density} bind def
} def
%
% Now test for support of Level 2 code
%
Level1 {Level1PatternFill} {Level2PatternFill} ifelse
%
/Symbol-Oblique /Symbol findfont [1 0 .167 1 0 0] makefont
dup length dict begin {1 index /FID eq {pop pop} {def} ifelse} forall
currentdict end definefont pop
Level1 SuppressPDFMark or 
{} {
/SDict 10 dict def
systemdict /pdfmark known not {
  userdict /pdfmark systemdict /cleartomark get put
} if
SDict begin [
  /Title (out.ps)
  /Subject (gnuplot plot)
  /Creator (gnuplot 4.6 patchlevel 6)
  /Author (yani)
%  /Producer (gnuplot)
%  /Keywords ()
  /CreationDate (Fri May 29 00:16:57 2015)
  /DOCINFO pdfmark
end
} ifelse
end
%%EndProlog
%%Page: 1 1
gnudict begin
gsave
doclip
50 50 translate
0.100 0.100 scale
90 rotate
0 -5040 translate
0 setgray
newpath
(Helvetica) findfont 140 scalefont setfont
BackgroundColor 0 lt 3 1 roll 0 lt exch 0 lt or or not {gsave BackgroundColor C clippath fill grestore} if
1.000 UL
LT0
0.50 0.50 0.50 C 1.000 UL
LTa
0.50 0.50 0.50 C 966 280 M
5981 0 V
stroke
LT0
0.50 0.50 0.50 C 966 280 M
63 0 V
5918 0 R
-63 0 V
882 280 M
( 0) Rshow
1.000 UL
LT0
0.50 0.50 0.50 C 1.000 UL
LTa
0.50 0.50 0.50 C 966 372 M
5981 0 V
stroke
LT0
0.50 0.50 0.50 C 966 372 M
63 0 V
5918 0 R
-63 0 V
882 372 M
( 0.707106) Rshow
1.000 UL
LT0
0.50 0.50 0.50 C 1.000 UL
LTa
0.50 0.50 0.50 C 966 464 M
5981 0 V
stroke
LT0
0.50 0.50 0.50 C 966 464 M
63 0 V
5918 0 R
-63 0 V
882 464 M
( 1.41421) Rshow
1.000 UL
LT0
0.50 0.50 0.50 C 1.000 UL
LTa
0.50 0.50 0.50 C 966 555 M
5981 0 V
stroke
LT0
0.50 0.50 0.50 C 966 555 M
63 0 V
5918 0 R
-63 0 V
882 555 M
( 2.12132) Rshow
1.000 UL
LT0
0.50 0.50 0.50 C 1.000 UL
LTa
0.50 0.50 0.50 C 966 647 M
5981 0 V
stroke
LT0
0.50 0.50 0.50 C 966 647 M
63 0 V
5918 0 R
-63 0 V
882 647 M
( 2.82842) Rshow
1.000 UL
LT0
0.50 0.50 0.50 C 1.000 UL
LTa
0.50 0.50 0.50 C 966 739 M
5981 0 V
stroke
LT0
0.50 0.50 0.50 C 966 739 M
63 0 V
5918 0 R
-63 0 V
882 739 M
( 3.53553) Rshow
1.000 UL
LT0
0.50 0.50 0.50 C 1.000 UL
LTa
0.50 0.50 0.50 C 966 831 M
5981 0 V
stroke
LT0
0.50 0.50 0.50 C 966 831 M
63 0 V
5918 0 R
-63 0 V
882 831 M
( 4.24264) Rshow
1.000 UL
LT0
0.50 0.50 0.50 C 1.000 UL
LTa
0.50 0.50 0.50 C 966 923 M
5981 0 V
stroke
LT0
0.50 0.50 0.50 C 966 923 M
63 0 V
5918 0 R
-63 0 V
882 923 M
( 4.94974) Rshow
1.000 UL
LT0
0.50 0.50 0.50 C 1.000 UL
LTa
0.50 0.50 0.50 C 966 1015 M
5981 0 V
stroke
LT0
0.50 0.50 0.50 C 966 1015 M
63 0 V
5918 0 R
-63 0 V
-6002 0 R
( 5.65685) Rshow
1.000 UL
LT0
0.50 0.50 0.50 C 1.000 UL
LTa
0.50 0.50 0.50 C 966 1106 M
5981 0 V
stroke
LT0
0.50 0.50 0.50 C 966 1106 M
63 0 V
5918 0 R
-63 0 V
-6002 0 R
( 6.36395) Rshow
1.000 UL
LT0
0.50 0.50 0.50 C 1.000 UL
LTa
0.50 0.50 0.50 C 966 1198 M
5981 0 V
stroke
LT0
0.50 0.50 0.50 C 966 1198 M
63 0 V
5918 0 R
-63 0 V
-6002 0 R
( 7.07106) Rshow
1.000 UL
LT0
0.50 0.50 0.50 C 1.000 UL
LTa
0.50 0.50 0.50 C 966 1290 M
5981 0 V
stroke
LT0
0.50 0.50 0.50 C 966 1290 M
63 0 V
5918 0 R
-63 0 V
-6002 0 R
( 7.77817) Rshow
1.000 UL
LT0
0.50 0.50 0.50 C 1.000 UL
LTa
0.50 0.50 0.50 C 966 1382 M
5981 0 V
stroke
LT0
0.50 0.50 0.50 C 966 1382 M
63 0 V
5918 0 R
-63 0 V
-6002 0 R
( 8.48527) Rshow
1.000 UL
LT0
0.50 0.50 0.50 C 1.000 UL
LTa
0.50 0.50 0.50 C 966 1474 M
5981 0 V
stroke
LT0
0.50 0.50 0.50 C 966 1474 M
63 0 V
5918 0 R
-63 0 V
-6002 0 R
( 9.19238) Rshow
1.000 UL
LT0
0.50 0.50 0.50 C 1.000 UL
LTa
0.50 0.50 0.50 C 966 1565 M
5981 0 V
stroke
LT0
0.50 0.50 0.50 C 966 1565 M
63 0 V
5918 0 R
-63 0 V
-6002 0 R
( 9.89948) Rshow
1.000 UL
LT0
0.50 0.50 0.50 C 1.000 UL
LTa
0.50 0.50 0.50 C 966 1657 M
5981 0 V
stroke
LT0
0.50 0.50 0.50 C 966 1657 M
63 0 V
5918 0 R
-63 0 V
-6002 0 R
( 10.6066) Rshow
1.000 UL
LT0
0.50 0.50 0.50 C 1.000 UL
LTa
0.50 0.50 0.50 C 966 1749 M
5981 0 V
stroke
LT0
0.50 0.50 0.50 C 966 1749 M
63 0 V
5918 0 R
-63 0 V
-6002 0 R
( 11.3137) Rshow
1.000 UL
LT0
0.50 0.50 0.50 C 1.000 UL
LTa
0.50 0.50 0.50 C 966 1841 M
5981 0 V
stroke
LT0
0.50 0.50 0.50 C 966 1841 M
63 0 V
5918 0 R
-63 0 V
-6002 0 R
( 12.0208) Rshow
1.000 UL
LT0
0.50 0.50 0.50 C 1.000 UL
LTa
0.50 0.50 0.50 C 966 1933 M
5981 0 V
stroke
LT0
0.50 0.50 0.50 C 966 1933 M
63 0 V
5918 0 R
-63 0 V
-6002 0 R
( 12.7279) Rshow
1.000 UL
LT0
0.50 0.50 0.50 C 1.000 UL
LTa
0.50 0.50 0.50 C 966 2025 M
5981 0 V
stroke
LT0
0.50 0.50 0.50 C 966 2025 M
63 0 V
5918 0 R
-63 0 V
-6002 0 R
( 13.435) Rshow
1.000 UL
LT0
0.50 0.50 0.50 C 1.000 UL
LTa
0.50 0.50 0.50 C 966 2116 M
5981 0 V
stroke
LT0
0.50 0.50 0.50 C 966 2116 M
63 0 V
5918 0 R
-63 0 V
-6002 0 R
( 14.1421) Rshow
1.000 UL
LT0
0.50 0.50 0.50 C 1.000 UL
LTa
0.50 0.50 0.50 C 966 2208 M
5981 0 V
stroke
LT0
0.50 0.50 0.50 C 966 2208 M
63 0 V
5918 0 R
-63 0 V
-6002 0 R
( 14.8492) Rshow
1.000 UL
LT0
0.50 0.50 0.50 C 1.000 UL
LTa
0.50 0.50 0.50 C 966 2300 M
5981 0 V
stroke
LT0
0.50 0.50 0.50 C 966 2300 M
63 0 V
5918 0 R
-63 0 V
-6002 0 R
( 15.5563) Rshow
1.000 UL
LT0
0.50 0.50 0.50 C 1.000 UL
LTa
0.50 0.50 0.50 C 966 2392 M
5981 0 V
stroke
LT0
0.50 0.50 0.50 C 966 2392 M
63 0 V
5918 0 R
-63 0 V
-6002 0 R
( 16.2634) Rshow
1.000 UL
LT0
0.50 0.50 0.50 C 1.000 UL
LTa
0.50 0.50 0.50 C 966 2484 M
5981 0 V
stroke
LT0
0.50 0.50 0.50 C 966 2484 M
63 0 V
5918 0 R
-63 0 V
-6002 0 R
( 16.9705) Rshow
1.000 UL
LT0
0.50 0.50 0.50 C 1.000 UL
LTa
0.50 0.50 0.50 C 966 2575 M
5981 0 V
stroke
LT0
0.50 0.50 0.50 C 966 2575 M
63 0 V
5918 0 R
-63 0 V
-6002 0 R
( 17.6776) Rshow
1.000 UL
LT0
0.50 0.50 0.50 C 1.000 UL
LTa
0.50 0.50 0.50 C 966 2667 M
5981 0 V
stroke
LT0
0.50 0.50 0.50 C 966 2667 M
63 0 V
5918 0 R
-63 0 V
-6002 0 R
( 18.3848) Rshow
1.000 UL
LT0
0.50 0.50 0.50 C 1.000 UL
LTa
0.50 0.50 0.50 C 966 2759 M
5981 0 V
stroke
LT0
0.50 0.50 0.50 C 966 2759 M
63 0 V
5918 0 R
-63 0 V
-6002 0 R
( 19.0919) Rshow
1.000 UL
LT0
0.50 0.50 0.50 C 1.000 UL
LTa
0.50 0.50 0.50 C 966 2851 M
5981 0 V
stroke
LT0
0.50 0.50 0.50 C 966 2851 M
63 0 V
5918 0 R
-63 0 V
-6002 0 R
( 19.799) Rshow
1.000 UL
LT0
0.50 0.50 0.50 C 1.000 UL
LTa
0.50 0.50 0.50 C 966 2943 M
5981 0 V
stroke
LT0
0.50 0.50 0.50 C 966 2943 M
63 0 V
5918 0 R
-63 0 V
-6002 0 R
( 20.5061) Rshow
1.000 UL
LT0
0.50 0.50 0.50 C 1.000 UL
LTa
0.50 0.50 0.50 C 966 3035 M
5981 0 V
stroke
LT0
0.50 0.50 0.50 C 966 3035 M
63 0 V
5918 0 R
-63 0 V
-6002 0 R
( 21.2132) Rshow
1.000 UL
LT0
0.50 0.50 0.50 C 1.000 UL
LTa
0.50 0.50 0.50 C 966 3126 M
5981 0 V
stroke
LT0
0.50 0.50 0.50 C 966 3126 M
63 0 V
5918 0 R
-63 0 V
-6002 0 R
( 21.9203) Rshow
1.000 UL
LT0
0.50 0.50 0.50 C 1.000 UL
LTa
0.50 0.50 0.50 C 966 3218 M
5981 0 V
stroke
LT0
0.50 0.50 0.50 C 966 3218 M
63 0 V
5918 0 R
-63 0 V
-6002 0 R
( 22.6274) Rshow
1.000 UL
LT0
0.50 0.50 0.50 C 1.000 UL
LTa
0.50 0.50 0.50 C 966 3310 M
5981 0 V
stroke
LT0
0.50 0.50 0.50 C 966 3310 M
63 0 V
5918 0 R
-63 0 V
-6002 0 R
( 23.3345) Rshow
1.000 UL
LT0
0.50 0.50 0.50 C 1.000 UL
LTa
0.50 0.50 0.50 C 966 3402 M
5981 0 V
stroke
LT0
0.50 0.50 0.50 C 966 3402 M
63 0 V
5918 0 R
-63 0 V
-6002 0 R
( 24.0416) Rshow
1.000 UL
LT0
0.50 0.50 0.50 C 1.000 UL
LTa
0.50 0.50 0.50 C 966 3494 M
5981 0 V
stroke
LT0
0.50 0.50 0.50 C 966 3494 M
63 0 V
5918 0 R
-63 0 V
-6002 0 R
( 24.7487) Rshow
1.000 UL
LT0
0.50 0.50 0.50 C 1.000 UL
LTa
0.50 0.50 0.50 C 966 3586 M
5981 0 V
stroke
LT0
0.50 0.50 0.50 C 966 3586 M
63 0 V
5918 0 R
-63 0 V
-6002 0 R
( 25.4558) Rshow
1.000 UL
LT0
0.50 0.50 0.50 C 1.000 UL
LTa
0.50 0.50 0.50 C 966 3677 M
5981 0 V
stroke
LT0
0.50 0.50 0.50 C 966 3677 M
63 0 V
5918 0 R
-63 0 V
-6002 0 R
( 26.1629) Rshow
1.000 UL
LT0
0.50 0.50 0.50 C 1.000 UL
LTa
0.50 0.50 0.50 C 966 3769 M
5981 0 V
stroke
LT0
0.50 0.50 0.50 C 966 3769 M
63 0 V
5918 0 R
-63 0 V
-6002 0 R
( 26.87) Rshow
1.000 UL
LT0
0.50 0.50 0.50 C 1.000 UL
LTa
0.50 0.50 0.50 C 966 3861 M
5981 0 V
stroke
LT0
0.50 0.50 0.50 C 966 3861 M
63 0 V
5918 0 R
-63 0 V
-6002 0 R
( 27.5771) Rshow
1.000 UL
LT0
0.50 0.50 0.50 C 1.000 UL
LTa
0.50 0.50 0.50 C 966 3953 M
5981 0 V
stroke
LT0
0.50 0.50 0.50 C 966 3953 M
63 0 V
5918 0 R
-63 0 V
-6002 0 R
( 28.2842) Rshow
1.000 UL
LT0
0.50 0.50 0.50 C 1.000 UL
LTa
0.50 0.50 0.50 C 966 4045 M
5981 0 V
stroke
LT0
0.50 0.50 0.50 C 966 4045 M
63 0 V
5918 0 R
-63 0 V
-6002 0 R
( 28.9913) Rshow
1.000 UL
LT0
0.50 0.50 0.50 C 1.000 UL
LTa
0.50 0.50 0.50 C 966 4136 M
5981 0 V
stroke
LT0
0.50 0.50 0.50 C 966 4136 M
63 0 V
5918 0 R
-63 0 V
-6002 0 R
( 29.6985) Rshow
1.000 UL
LT0
0.50 0.50 0.50 C 1.000 UL
LTa
0.50 0.50 0.50 C 966 4228 M
5981 0 V
stroke
LT0
0.50 0.50 0.50 C 966 4228 M
63 0 V
5918 0 R
-63 0 V
-6002 0 R
( 30.4056) Rshow
1.000 UL
LT0
0.50 0.50 0.50 C 1.000 UL
LTa
0.50 0.50 0.50 C 966 4320 M
5981 0 V
stroke
LT0
0.50 0.50 0.50 C 966 4320 M
63 0 V
5918 0 R
-63 0 V
-6002 0 R
( 31.1127) Rshow
1.000 UL
LT0
0.50 0.50 0.50 C 1.000 UL
LTa
0.50 0.50 0.50 C 966 4412 M
5981 0 V
stroke
LT0
0.50 0.50 0.50 C 966 4412 M
63 0 V
5918 0 R
-63 0 V
-6002 0 R
( 31.8198) Rshow
1.000 UL
LT0
0.50 0.50 0.50 C 1.000 UL
LTa
0.50 0.50 0.50 C 966 4504 M
5981 0 V
stroke
LT0
0.50 0.50 0.50 C 966 4504 M
63 0 V
5918 0 R
-63 0 V
-6002 0 R
( 32.5269) Rshow
1.000 UL
LT0
0.50 0.50 0.50 C 1.000 UL
LTa
0.50 0.50 0.50 C 966 4596 M
5981 0 V
stroke
LT0
0.50 0.50 0.50 C 966 4596 M
63 0 V
5918 0 R
-63 0 V
-6002 0 R
( 33.234) Rshow
1.000 UL
LT0
0.50 0.50 0.50 C 1.000 UL
LTa
0.50 0.50 0.50 C 966 4687 M
5981 0 V
stroke
LT0
0.50 0.50 0.50 C 966 4687 M
63 0 V
5918 0 R
-63 0 V
-6002 0 R
( 33.9411) Rshow
1.000 UL
LT0
0.50 0.50 0.50 C 1.000 UL
LTa
0.50 0.50 0.50 C 966 4779 M
5981 0 V
stroke
LT0
0.50 0.50 0.50 C 966 4779 M
63 0 V
5918 0 R
-63 0 V
-6002 0 R
( 34.6482) Rshow
1.000 UL
LT0
0.50 0.50 0.50 C 1.000 UL
LTa
0.50 0.50 0.50 C 966 4871 M
5981 0 V
stroke
LT0
0.50 0.50 0.50 C 966 4871 M
63 0 V
5918 0 R
-63 0 V
-6002 0 R
( 35.3553) Rshow
1.000 UL
LT0
0.50 0.50 0.50 C 1.000 UL
LTa
0.50 0.50 0.50 C 966 280 M
0 4591 V
stroke
LT0
0.50 0.50 0.50 C 966 280 M
0 63 V
0 4528 R
0 -63 V
966 140 M
( 0) Cshow
1.000 UL
LT0
0.50 0.50 0.50 C 1.000 UL
LTa
0.50 0.50 0.50 C 1086 280 M
0 4591 V
stroke
LT0
0.50 0.50 0.50 C 1086 280 M
0 63 V
0 4528 R
0 -63 V
0 -4668 R
( 0.707106) Cshow
1.000 UL
LT0
0.50 0.50 0.50 C 1.000 UL
LTa
0.50 0.50 0.50 C 1205 280 M
0 4591 V
stroke
LT0
0.50 0.50 0.50 C 1205 280 M
0 63 V
0 4528 R
0 -63 V
0 -4668 R
( 1.41421) Cshow
1.000 UL
LT0
0.50 0.50 0.50 C 1.000 UL
LTa
0.50 0.50 0.50 C 1325 280 M
0 4591 V
stroke
LT0
0.50 0.50 0.50 C 1325 280 M
0 63 V
0 4528 R
0 -63 V
0 -4668 R
( 2.12132) Cshow
1.000 UL
LT0
0.50 0.50 0.50 C 1.000 UL
LTa
0.50 0.50 0.50 C 1444 280 M
0 4591 V
stroke
LT0
0.50 0.50 0.50 C 1444 280 M
0 63 V
0 4528 R
0 -63 V
0 -4668 R
( 2.82842) Cshow
1.000 UL
LT0
0.50 0.50 0.50 C 1.000 UL
LTa
0.50 0.50 0.50 C 1564 280 M
0 4591 V
stroke
LT0
0.50 0.50 0.50 C 1564 280 M
0 63 V
0 4528 R
0 -63 V
0 -4668 R
( 3.53553) Cshow
1.000 UL
LT0
0.50 0.50 0.50 C 1.000 UL
LTa
0.50 0.50 0.50 C 1684 280 M
0 4591 V
stroke
LT0
0.50 0.50 0.50 C 1684 280 M
0 63 V
0 4528 R
0 -63 V
0 -4668 R
( 4.24264) Cshow
1.000 UL
LT0
0.50 0.50 0.50 C 1.000 UL
LTa
0.50 0.50 0.50 C 1803 280 M
0 4591 V
stroke
LT0
0.50 0.50 0.50 C 1803 280 M
0 63 V
0 4528 R
0 -63 V
0 -4668 R
( 4.94974) Cshow
1.000 UL
LT0
0.50 0.50 0.50 C 1.000 UL
LTa
0.50 0.50 0.50 C 1923 280 M
0 4591 V
stroke
LT0
0.50 0.50 0.50 C 1923 280 M
0 63 V
0 4528 R
0 -63 V
0 -4668 R
( 5.65685) Cshow
1.000 UL
LT0
0.50 0.50 0.50 C 1.000 UL
LTa
0.50 0.50 0.50 C 2043 280 M
0 4591 V
stroke
LT0
0.50 0.50 0.50 C 2043 280 M
0 63 V
0 4528 R
0 -63 V
0 -4668 R
( 6.36395) Cshow
1.000 UL
LT0
0.50 0.50 0.50 C 1.000 UL
LTa
0.50 0.50 0.50 C 2162 280 M
0 4591 V
stroke
LT0
0.50 0.50 0.50 C 2162 280 M
0 63 V
0 4528 R
0 -63 V
0 -4668 R
( 7.07106) Cshow
1.000 UL
LT0
0.50 0.50 0.50 C 1.000 UL
LTa
0.50 0.50 0.50 C 2282 280 M
0 4591 V
stroke
LT0
0.50 0.50 0.50 C 2282 280 M
0 63 V
0 4528 R
0 -63 V
0 -4668 R
( 7.77817) Cshow
1.000 UL
LT0
0.50 0.50 0.50 C 1.000 UL
LTa
0.50 0.50 0.50 C 2401 280 M
0 4591 V
stroke
LT0
0.50 0.50 0.50 C 2401 280 M
0 63 V
0 4528 R
0 -63 V
0 -4668 R
( 8.48527) Cshow
1.000 UL
LT0
0.50 0.50 0.50 C 1.000 UL
LTa
0.50 0.50 0.50 C 2521 280 M
0 4591 V
stroke
LT0
0.50 0.50 0.50 C 2521 280 M
0 63 V
0 4528 R
0 -63 V
0 -4668 R
( 9.19238) Cshow
1.000 UL
LT0
0.50 0.50 0.50 C 1.000 UL
LTa
0.50 0.50 0.50 C 2641 280 M
0 4591 V
stroke
LT0
0.50 0.50 0.50 C 2641 280 M
0 63 V
0 4528 R
0 -63 V
0 -4668 R
( 9.89948) Cshow
1.000 UL
LT0
0.50 0.50 0.50 C 1.000 UL
LTa
0.50 0.50 0.50 C 2760 280 M
0 4591 V
stroke
LT0
0.50 0.50 0.50 C 2760 280 M
0 63 V
0 4528 R
0 -63 V
0 -4668 R
( 10.6066) Cshow
1.000 UL
LT0
0.50 0.50 0.50 C 1.000 UL
LTa
0.50 0.50 0.50 C 2880 280 M
0 4591 V
stroke
LT0
0.50 0.50 0.50 C 2880 280 M
0 63 V
0 4528 R
0 -63 V
0 -4668 R
( 11.3137) Cshow
1.000 UL
LT0
0.50 0.50 0.50 C 1.000 UL
LTa
0.50 0.50 0.50 C 3000 280 M
0 4591 V
stroke
LT0
0.50 0.50 0.50 C 3000 280 M
0 63 V
0 4528 R
0 -63 V
0 -4668 R
( 12.0208) Cshow
1.000 UL
LT0
0.50 0.50 0.50 C 1.000 UL
LTa
0.50 0.50 0.50 C 3119 280 M
0 4591 V
stroke
LT0
0.50 0.50 0.50 C 3119 280 M
0 63 V
0 4528 R
0 -63 V
0 -4668 R
( 12.7279) Cshow
1.000 UL
LT0
0.50 0.50 0.50 C 1.000 UL
LTa
0.50 0.50 0.50 C 3239 280 M
0 4591 V
stroke
LT0
0.50 0.50 0.50 C 3239 280 M
0 63 V
0 4528 R
0 -63 V
0 -4668 R
( 13.435) Cshow
1.000 UL
LT0
0.50 0.50 0.50 C 1.000 UL
LTa
0.50 0.50 0.50 C 3358 280 M
0 4591 V
stroke
LT0
0.50 0.50 0.50 C 3358 280 M
0 63 V
0 4528 R
0 -63 V
0 -4668 R
( 14.1421) Cshow
1.000 UL
LT0
0.50 0.50 0.50 C 1.000 UL
LTa
0.50 0.50 0.50 C 3478 280 M
0 4591 V
stroke
LT0
0.50 0.50 0.50 C 3478 280 M
0 63 V
0 4528 R
0 -63 V
0 -4668 R
( 14.8492) Cshow
1.000 UL
LT0
0.50 0.50 0.50 C 1.000 UL
LTa
0.50 0.50 0.50 C 3598 280 M
0 4591 V
stroke
LT0
0.50 0.50 0.50 C 3598 280 M
0 63 V
0 4528 R
0 -63 V
0 -4668 R
( 15.5563) Cshow
1.000 UL
LT0
0.50 0.50 0.50 C 1.000 UL
LTa
0.50 0.50 0.50 C 3717 280 M
0 4591 V
stroke
LT0
0.50 0.50 0.50 C 3717 280 M
0 63 V
0 4528 R
0 -63 V
0 -4668 R
( 16.2634) Cshow
1.000 UL
LT0
0.50 0.50 0.50 C 1.000 UL
LTa
0.50 0.50 0.50 C 3837 280 M
0 4591 V
stroke
LT0
0.50 0.50 0.50 C 3837 280 M
0 63 V
0 4528 R
0 -63 V
0 -4668 R
( 16.9705) Cshow
1.000 UL
LT0
0.50 0.50 0.50 C 1.000 UL
LTa
0.50 0.50 0.50 C 3956 280 M
0 4591 V
stroke
LT0
0.50 0.50 0.50 C 3956 280 M
0 63 V
0 4528 R
0 -63 V
0 -4668 R
( 17.6776) Cshow
1.000 UL
LT0
0.50 0.50 0.50 C 1.000 UL
LTa
0.50 0.50 0.50 C 4076 280 M
0 4591 V
stroke
LT0
0.50 0.50 0.50 C 4076 280 M
0 63 V
0 4528 R
0 -63 V
0 -4668 R
( 18.3848) Cshow
1.000 UL
LT0
0.50 0.50 0.50 C 1.000 UL
LTa
0.50 0.50 0.50 C 4196 280 M
0 4591 V
stroke
LT0
0.50 0.50 0.50 C 4196 280 M
0 63 V
0 4528 R
0 -63 V
0 -4668 R
( 19.0919) Cshow
1.000 UL
LT0
0.50 0.50 0.50 C 1.000 UL
LTa
0.50 0.50 0.50 C 4315 280 M
0 4591 V
stroke
LT0
0.50 0.50 0.50 C 4315 280 M
0 63 V
0 4528 R
0 -63 V
0 -4668 R
( 19.799) Cshow
1.000 UL
LT0
0.50 0.50 0.50 C 1.000 UL
LTa
0.50 0.50 0.50 C 4435 280 M
0 4591 V
stroke
LT0
0.50 0.50 0.50 C 4435 280 M
0 63 V
0 4528 R
0 -63 V
0 -4668 R
( 20.5061) Cshow
1.000 UL
LT0
0.50 0.50 0.50 C 1.000 UL
LTa
0.50 0.50 0.50 C 4555 280 M
0 4591 V
stroke
LT0
0.50 0.50 0.50 C 4555 280 M
0 63 V
0 4528 R
0 -63 V
0 -4668 R
( 21.2132) Cshow
1.000 UL
LT0
0.50 0.50 0.50 C 1.000 UL
LTa
0.50 0.50 0.50 C 4674 280 M
0 4591 V
stroke
LT0
0.50 0.50 0.50 C 4674 280 M
0 63 V
0 4528 R
0 -63 V
0 -4668 R
( 21.9203) Cshow
1.000 UL
LT0
0.50 0.50 0.50 C 1.000 UL
LTa
0.50 0.50 0.50 C 4794 280 M
0 4591 V
stroke
LT0
0.50 0.50 0.50 C 4794 280 M
0 63 V
0 4528 R
0 -63 V
0 -4668 R
( 22.6274) Cshow
1.000 UL
LT0
0.50 0.50 0.50 C 1.000 UL
LTa
0.50 0.50 0.50 C 4913 280 M
0 4591 V
stroke
LT0
0.50 0.50 0.50 C 4913 280 M
0 63 V
0 4528 R
0 -63 V
0 -4668 R
( 23.3345) Cshow
1.000 UL
LT0
0.50 0.50 0.50 C 1.000 UL
LTa
0.50 0.50 0.50 C 5033 280 M
0 4591 V
stroke
LT0
0.50 0.50 0.50 C 5033 280 M
0 63 V
0 4528 R
0 -63 V
0 -4668 R
( 24.0416) Cshow
1.000 UL
LT0
0.50 0.50 0.50 C 1.000 UL
LTa
0.50 0.50 0.50 C 5153 280 M
0 4591 V
stroke
LT0
0.50 0.50 0.50 C 5153 280 M
0 63 V
0 4528 R
0 -63 V
0 -4668 R
( 24.7487) Cshow
1.000 UL
LT0
0.50 0.50 0.50 C 1.000 UL
LTa
0.50 0.50 0.50 C 5272 280 M
0 4591 V
stroke
LT0
0.50 0.50 0.50 C 5272 280 M
0 63 V
0 4528 R
0 -63 V
0 -4668 R
( 25.4558) Cshow
1.000 UL
LT0
0.50 0.50 0.50 C 1.000 UL
LTa
0.50 0.50 0.50 C 5392 280 M
0 4591 V
stroke
LT0
0.50 0.50 0.50 C 5392 280 M
0 63 V
0 4528 R
0 -63 V
0 -4668 R
( 26.1629) Cshow
1.000 UL
LT0
0.50 0.50 0.50 C 1.000 UL
LTa
0.50 0.50 0.50 C 5512 280 M
0 4591 V
stroke
LT0
0.50 0.50 0.50 C 5512 280 M
0 63 V
0 4528 R
0 -63 V
0 -4668 R
( 26.87) Cshow
1.000 UL
LT0
0.50 0.50 0.50 C 1.000 UL
LTa
0.50 0.50 0.50 C 5631 280 M
0 4591 V
stroke
LT0
0.50 0.50 0.50 C 5631 280 M
0 63 V
0 4528 R
0 -63 V
0 -4668 R
( 27.5771) Cshow
1.000 UL
LT0
0.50 0.50 0.50 C 1.000 UL
LTa
0.50 0.50 0.50 C 5751 280 M
0 4591 V
stroke
LT0
0.50 0.50 0.50 C 5751 280 M
0 63 V
0 4528 R
0 -63 V
0 -4668 R
( 28.2842) Cshow
1.000 UL
LT0
0.50 0.50 0.50 C 1.000 UL
LTa
0.50 0.50 0.50 C 5870 280 M
0 4591 V
stroke
LT0
0.50 0.50 0.50 C 5870 280 M
0 63 V
0 4528 R
0 -63 V
0 -4668 R
( 28.9913) Cshow
1.000 UL
LT0
0.50 0.50 0.50 C 1.000 UL
LTa
0.50 0.50 0.50 C 5990 280 M
0 4591 V
stroke
LT0
0.50 0.50 0.50 C 5990 280 M
0 63 V
0 4528 R
0 -63 V
0 -4668 R
( 29.6985) Cshow
1.000 UL
LT0
0.50 0.50 0.50 C 1.000 UL
LTa
0.50 0.50 0.50 C 6110 280 M
0 4591 V
stroke
LT0
0.50 0.50 0.50 C 6110 280 M
0 63 V
0 4528 R
0 -63 V
0 -4668 R
( 30.4056) Cshow
1.000 UL
LT0
0.50 0.50 0.50 C 1.000 UL
LTa
0.50 0.50 0.50 C 6229 280 M
0 4591 V
stroke
LT0
0.50 0.50 0.50 C 6229 280 M
0 63 V
0 4528 R
0 -63 V
0 -4668 R
( 31.1127) Cshow
1.000 UL
LT0
0.50 0.50 0.50 C 1.000 UL
LTa
0.50 0.50 0.50 C 6349 280 M
0 4591 V
stroke
LT0
0.50 0.50 0.50 C 6349 280 M
0 63 V
0 4528 R
0 -63 V
0 -4668 R
( 31.8198) Cshow
1.000 UL
LT0
0.50 0.50 0.50 C 1.000 UL
LTa
0.50 0.50 0.50 C 6469 280 M
0 4591 V
stroke
LT0
0.50 0.50 0.50 C 6469 280 M
0 63 V
0 4528 R
0 -63 V
0 -4668 R
( 32.5269) Cshow
1.000 UL
LT0
0.50 0.50 0.50 C 1.000 UL
LTa
0.50 0.50 0.50 C 6588 280 M
0 4591 V
stroke
LT0
0.50 0.50 0.50 C 6588 280 M
0 63 V
0 4528 R
0 -63 V
0 -4668 R
( 33.234) Cshow
1.000 UL
LT0
0.50 0.50 0.50 C 1.000 UL
LTa
0.50 0.50 0.50 C 6708 280 M
0 4591 V
stroke
LT0
0.50 0.50 0.50 C 6708 280 M
0 63 V
0 4528 R
0 -63 V
0 -4668 R
( 33.9411) Cshow
1.000 UL
LT0
0.50 0.50 0.50 C 1.000 UL
LTa
0.50 0.50 0.50 C 6827 280 M
0 4591 V
stroke
LT0
0.50 0.50 0.50 C 6827 280 M
0 63 V
0 4528 R
0 -63 V
0 -4668 R
( 34.6482) Cshow
1.000 UL
LT0
0.50 0.50 0.50 C 1.000 UL
LTa
0.50 0.50 0.50 C 6947 280 M
0 4591 V
stroke
LT0
0.50 0.50 0.50 C 6947 280 M
0 63 V
0 4528 R
0 -63 V
0 -4668 R
( 35.3553) Cshow
1.000 UL
LT0
0.50 0.50 0.50 C 1.000 UL
LT0
0.50 0.50 0.50 C 966 4871 M
966 280 L
5981 0 V
0 4591 R
-5981 0 R
1.000 UP
stroke
LT0
0.50 0.50 0.50 C % Begin plot #1
1.500 UP
2.000 UL
LT0
0.00 0.00 1.00 C /Helvetica findfont 140 scalefont setfont
/vshift -46 def
1086 464 M
119 0 V
120 0 V
119 0 V
120 0 V
120 0 V
119 0 V
120 0 V
0 91 R
120 0 V
0 276 R
119 0 V
120 0 V
0 275 R
119 0 V
120 0 V
0 643 R
120 0 V
0 276 R
119 0 V
120 0 V
0 459 R
120 0 V
119 0 V
0 459 R
120 0 V
119 0 V
0 551 R
120 0 V
120 0 V
119 0 V
120 0 V
120 0 V
0 92 R
119 0 V
120 0 V
119 0 V
120 0 V
120 0 V
119 0 V
120 0 V
119 0 V
0 918 R
120 0 V
120 0 V
119 0 V
120 0 V
120 0 V
119 0 V
120 0 V
119 0 V
120 0 V
120 0 V
119 0 V
120 0 V
120 0 V
119 0 V
120 0 V
119 0 V
120 0 V
966 280 M
120 0 V
0 92 V
0 92 V
837 0 R
0 91 V
120 0 R
0 92 V
0 92 V
0 92 V
239 0 R
0 92 V
0 92 V
0 91 V
239 0 R
0 92 V
0 92 V
0 92 V
0 92 V
0 91 V
0 92 V
0 92 V
120 0 R
0 92 V
0 92 V
0 92 V
239 0 R
0 91 V
0 92 V
0 92 V
0 92 V
0 92 V
239 0 R
0 92 V
0 91 V
0 92 V
0 92 V
0 92 V
239 0 R
0 92 V
0 91 V
0 92 V
0 92 V
0 92 V
0 92 V
stroke 3358 3494 M
599 0 R
0 92 V
956 0 R
0 91 V
0 92 V
0 92 V
0 92 V
0 92 V
0 91 V
0 92 V
0 92 V
0 92 V
0 92 V
2034 275 R
0 92 V
0 -367 R
0 92 V
0 91 V
0 92 V
1086 464 CircleF
1205 464 CircleF
1205 464 CircleF
1325 464 CircleF
1325 464 CircleF
1444 464 CircleF
1444 464 CircleF
1564 464 CircleF
1564 464 CircleF
1684 464 CircleF
1684 464 CircleF
1803 464 CircleF
1803 464 CircleF
1923 464 CircleF
1923 555 CircleF
2043 555 CircleF
2043 831 CircleF
2162 831 CircleF
2162 831 CircleF
2282 831 CircleF
2282 1106 CircleF
2401 1106 CircleF
2401 1106 CircleF
2521 1106 CircleF
2521 1749 CircleF
2641 1749 CircleF
2641 2025 CircleF
2760 2025 CircleF
2760 2025 CircleF
2880 2025 CircleF
2880 2484 CircleF
3000 2484 CircleF
3000 2484 CircleF
3119 2484 CircleF
3119 2943 CircleF
3239 2943 CircleF
3239 2943 CircleF
3358 2943 CircleF
3358 3494 CircleF
3478 3494 CircleF
3478 3494 CircleF
3598 3494 CircleF
3598 3494 CircleF
3717 3494 CircleF
3717 3494 CircleF
3837 3494 CircleF
3837 3494 CircleF
3957 3494 CircleF
3957 3586 CircleF
4076 3586 CircleF
4076 3586 CircleF
4196 3586 CircleF
4196 3586 CircleF
4315 3586 CircleF
4315 3586 CircleF
4435 3586 CircleF
4435 3586 CircleF
4555 3586 CircleF
4555 3586 CircleF
4674 3586 CircleF
4674 3586 CircleF
4794 3586 CircleF
4794 3586 CircleF
4913 3586 CircleF
4913 4504 CircleF
5033 4504 CircleF
5033 4504 CircleF
5153 4504 CircleF
5153 4504 CircleF
5272 4504 CircleF
5272 4504 CircleF
5392 4504 CircleF
5392 4504 CircleF
5512 4504 CircleF
5512 4504 CircleF
5631 4504 CircleF
5631 4504 CircleF
5751 4504 CircleF
5751 4504 CircleF
5870 4504 CircleF
5870 4504 CircleF
5990 4504 CircleF
5990 4504 CircleF
6110 4504 CircleF
6110 4504 CircleF
6229 4504 CircleF
6229 4504 CircleF
6349 4504 CircleF
6349 4504 CircleF
6469 4504 CircleF
6469 4504 CircleF
6588 4504 CircleF
6588 4504 CircleF
6708 4504 CircleF
6708 4504 CircleF
6827 4504 CircleF
6827 4504 CircleF
6947 4504 CircleF
966 280 CircleF
1086 280 CircleF
1086 280 CircleF
1086 372 CircleF
1086 372 CircleF
1086 464 CircleF
1923 464 CircleF
1923 555 CircleF
2043 555 CircleF
2043 647 CircleF
2043 647 CircleF
2043 739 CircleF
2043 739 CircleF
2043 831 CircleF
2282 831 CircleF
2282 923 CircleF
2282 923 CircleF
2282 1015 CircleF
2282 1015 CircleF
2282 1106 CircleF
2521 1106 CircleF
2521 1198 CircleF
2521 1198 CircleF
2521 1290 CircleF
2521 1290 CircleF
2521 1382 CircleF
2521 1382 CircleF
2521 1474 CircleF
2521 1474 CircleF
2521 1565 CircleF
2521 1565 CircleF
2521 1657 CircleF
2521 1657 CircleF
2521 1749 CircleF
2641 1749 CircleF
2641 1841 CircleF
2641 1841 CircleF
2641 1933 CircleF
2641 1933 CircleF
2641 2025 CircleF
2880 2025 CircleF
2880 2116 CircleF
2880 2116 CircleF
2880 2208 CircleF
2880 2208 CircleF
2880 2300 CircleF
2880 2300 CircleF
2880 2392 CircleF
2880 2392 CircleF
2880 2484 CircleF
3119 2484 CircleF
3119 2576 CircleF
3119 2576 CircleF
3119 2667 CircleF
3119 2667 CircleF
3119 2759 CircleF
3119 2759 CircleF
3119 2851 CircleF
3119 2851 CircleF
3119 2943 CircleF
3358 2943 CircleF
3358 3035 CircleF
3358 3035 CircleF
3358 3126 CircleF
3358 3126 CircleF
3358 3218 CircleF
3358 3218 CircleF
3358 3310 CircleF
3358 3310 CircleF
3358 3402 CircleF
3358 3402 CircleF
3358 3494 CircleF
3957 3494 CircleF
3957 3586 CircleF
4913 3586 CircleF
4913 3677 CircleF
4913 3677 CircleF
4913 3769 CircleF
4913 3769 CircleF
4913 3861 CircleF
4913 3861 CircleF
4913 3953 CircleF
4913 3953 CircleF
4913 4045 CircleF
4913 4045 CircleF
4913 4136 CircleF
4913 4136 CircleF
4913 4228 CircleF
4913 4228 CircleF
4913 4320 CircleF
4913 4320 CircleF
4913 4412 CircleF
4913 4412 CircleF
4913 4504 CircleF
6947 4779 CircleF
6947 4871 CircleF
6947 4504 CircleF
6947 4596 CircleF
6947 4596 CircleF
6947 4687 CircleF
6947 4687 CircleF
6947 4779 CircleF
% End plot #1
% Begin plot #2
1.500 UP
2.000 UL
LT0
1.00 0.55 0.00 C /Helvetica findfont 140 scalefont setfont
2238 2429 M
189 145 V
1202 1132 M
180 138 V
3196 4116 M
226 173 V
5936 1407 M
174 134 V
3773 3239 M
191 147 V
3614 4444 M
237 182 V
-541 -81 R
176 135 V
4840 3549 M
132 102 V
6425 3131 M
153 117 V
4004 4118 M
207 159 V
2377 1611 M
225 173 V
2306 309 R
183 141 V
1199 4265 M
158 122 V
2323 -28 R
142 109 V
-2080 82 R
161 124 V
5818 976 M
212 162 V
-579 201 R
235 180 V
104 636 R
179 138 V
1409 2651 M
170 130 V
3334 742 M
188 145 V
5510 749 M
202 155 V
3761 3356 M
212 163 V
2942 1136 M
162 124 V
1976 2878 M
162 124 V
5547 639 M
209 160 V
1210 644 M
237 183 V
3909 460 M
144 110 V
2091 30 R
222 170 V
2489 4667 M
145 111 V
1471 2419 M
214 164 V
5628 882 M
127 98 V
3974 3026 M
162 125 V
2118 3379 M
137 105 V
86 -2321 R
192 147 V
532 1578 R
151 116 V
5146 1001 M
197 151 V
5170 813 M
224 172 V
839 2181 R
151 115 V
-590 670 R
207 159 V
2182 2576 M
163 125 V
3790 2148 M
127 97 V
2809 2785 M
212 162 V
1539 34 R
158 120 V
1596 -65 R
129 99 V
1678 3530 M
154 119 V
2225 2512 M
148 113 V
875 1240 R
124 95 V
2280 4581 M
207 159 V
1189 4153 M
227 174 V
5814 3315 M
159 122 V
4956 406 M
194 148 V
3513 3592 M
139 107 V
1663 410 M
137 106 V
stroke 1800 516 M
-78 1727 R
212 163 V
628 -500 R
216 167 V
1866 643 M
193 148 V
2519 556 M
210 161 V
2249 3724 M
237 182 V
4255 2821 M
149 114 V
2012 3324 M
190 146 V
6626 398 M
213 164 V
1371 4623 M
220 168 V
4156 1798 M
159 122 V
5694 3070 M
146 112 V
6489 2005 M
128 98 V
5606 4618 M
233 178 V
1706 1404 M
225 172 V
101 -156 R
135 104 V
1007 2456 M
182 139 V
2950 221 R
127 98 V
1685 1780 M
148 113 V
869 98 R
175 134 V
6004 410 M
122 94 V
286 505 R
221 170 V
4322 4230 M
139 107 V
4393 1198 M
144 111 V
2573 2691 M
232 178 V
1224 1431 M
213 164 V
4990 2696 M
207 159 V
3281 1920 M
236 182 V
1248 1720 M
222 170 V
1044 4575 M
173 132 V
2312 2894 M
141 109 V
6323 2295 M
174 134 V
2650 3678 M
208 160 V
5101 3050 M
235 181 V
5729 1688 M
189 145 V
2214 1059 M
156 120 V
3737 383 M
233 178 V
1739 371 M
189 145 V
3815 3616 M
218 167 V
6545 1912 M
236 181 V
1658 1646 M
134 103 V
5701 3482 M
208 160 V
-1092 24 R
214 165 V
3195 2866 M
174 134 V
1670 2983 M
156 120 V
4826 1287 M
220 169 V
240 2901 R
200 153 V
4964 518 M
143 109 V
6169 2342 M
178 137 V
-716 204 R
165 127 V
4176 3641 M
128 99 V
1755 4500 M
150 115 V
4587 1189 M
158 121 V
stroke 4745 1310 M
1855 473 M
238 183 V
311 3886 R
226 174 V
4376 4030 M
200 153 V
6202 2339 M
120 92 V
1950 288 M
187 144 V
1012 2493 M
153 117 V
3560 259 R
177 136 V
3254 4330 M
232 179 V
5835 2779 M
127 97 V
6004 434 M
188 145 V
2043 448 M
141 109 V
1473 3599 M
220 169 V
5276 3664 M
138 107 V
1703 4450 M
142 109 V
3477 2477 M
134 102 V
5881 2007 M
172 132 V
1029 1036 M
211 162 V
4958 292 M
238 183 V
170 1258 R
124 95 V
-986 820 R
183 141 V
1213 1459 M
131 100 V
5361 3656 M
172 132 V
1517 3475 M
178 137 V
4876 2041 M
212 163 V
1782 3503 M
157 121 V
2522 599 M
159 121 V
4305 3500 M
203 155 V
5709 2187 M
198 153 V
4200 376 M
232 179 V
1839 4666 M
152 117 V
190 -504 R
163 124 V
5117 1198 M
149 115 V
3907 3599 M
157 120 V
2778 2079 M
183 140 V
6560 3812 M
149 114 V
1791 2112 M
214 164 V
2388 215 R
128 99 V
6161 1507 M
213 163 V
5403 1090 M
206 158 V
983 967 R
236 181 V
5494 2581 M
193 148 V
3798 1552 M
203 156 V
2515 4374 M
150 115 V
6070 2303 M
189 145 V
3154 4338 M
167 128 V
1281 4671 M
204 156 V
3183 3018 M
139 106 V
1367 -36 R
195 150 V
3855 2286 M
238 182 V
2449 2260 M
159 122 V
-76 2028 R
173 132 V
1061 1756 M
143 110 V
stroke 1204 1866 M
5931 1727 M
165 127 V
3337 2949 M
166 127 V
5866 1919 M
225 173 V
267 1405 R
225 173 V
4830 4200 M
172 132 V
1808 1296 M
201 154 V
5083 865 M
120 92 V
969 264 R
124 95 V
5081 2624 M
127 97 V
4805 439 M
171 131 V
1209 3466 M
211 162 V
3497 2581 M
177 136 V
-2250 14 R
120 93 V
842 1295 R
206 158 V
5668 2315 M
224 173 V
3764 1038 M
176 134 V
-515 5 R
194 148 V
1939 2436 M
194 148 V
1538 908 R
150 116 V
5832 1063 M
175 134 V
2973 2525 M
214 164 V
996 282 M
162 125 V
3029 2637 M
170 130 V
1980 3981 M
185 141 V
3893 3533 M
184 142 V
1616 -55 R
193 148 V
3867 1342 M
179 137 V
2416 3598 M
176 135 V
-361 614 R
138 106 V
2658 2903 M
136 105 V
169 547 R
182 140 V
1970 2719 M
191 146 V
2864 1220 M
200 153 V
5240 3134 M
204 156 V
3131 1165 M
167 129 V
3830 452 M
223 171 V
-92 -64 R
149 115 V
2525 4090 M
220 169 V
4393 2555 M
225 173 V
667 1723 R
152 117 V
6544 404 M
227 175 V
6484 4168 M
229 176 V
4591 2413 M
171 132 V
2019 787 M
197 151 V
3726 3427 M
196 151 V
4227 1344 M
219 168 V
6518 4444 M
132 102 V
5686 856 M
196 150 V
5467 604 M
141 108 V
1751 1411 M
172 132 V
1475 85 R
159 122 V
5061 4090 M
163 125 V
stroke 5224 4215 M
1314 4547 M
136 105 V
5099 2541 M
143 109 V
1161 3590 M
121 92 V
3046 2477 M
158 121 V
-335 217 R
151 115 V
1254 3820 M
154 119 V
2283 215 R
214 164 V
2238 1008 M
123 95 V
4400 2200 M
178 136 V
3719 1841 M
160 123 V
5807 389 M
234 180 V
4310 2056 M
176 136 V
-665 196 R
188 144 V
353 1920 R
212 163 V
6525 1780 M
136 105 V
2791 4606 M
206 158 V
1673 4421 M
162 124 V
3616 3256 M
199 152 V
1599 4267 M
126 96 V
2856 1636 M
177 135 V
2382 4348 M
173 132 V
4494 2274 M
204 156 V
3072 737 M
237 182 V
1109 898 R
134 103 V
4760 309 M
217 167 V
1583 2832 M
227 174 V
755 387 R
171 131 V
300 -850 R
147 113 V
2561 134 R
164 126 V
2036 4382 M
221 170 V
6252 2225 M
229 176 V
3887 1762 M
197 152 V
865 1406 R
174 133 V
3925 1329 M
149 114 V
1591 575 R
151 116 V
4088 2266 M
135 104 V
1970 3811 M
189 145 V
1836 3765 M
145 111 V
-140 697 R
175 134 V
5605 1766 M
163 125 V
1483 1118 M
130 100 V
115 982 R
190 146 V
1783 671 M
161 124 V
1741 3757 M
129 99 V
1252 3221 M
221 170 V
2845 2603 M
161 123 V
6581 4404 M
190 146 V
6017 775 M
212 163 V
2777 2362 M
236 180 V
4147 1505 M
190 146 V
1099 393 R
167 128 V
3400 2752 M
198 152 V
stroke 3598 2904 M
5 -1259 R
205 157 V
4250 888 M
195 150 V
6194 2096 M
146 112 V
5604 982 M
136 104 V
2864 1910 M
137 105 V
1833 965 R
236 181 V
3304 3386 M
182 140 V
2446 491 M
226 174 V
1747 377 R
137 104 V
2110 3605 M
186 143 V
2463 118 R
191 146 V
6127 1729 M
175 134 V
-759 31 R
159 122 V
3575 3640 M
158 121 V
441 -242 R
156 119 V
4728 379 M
221 170 V
3447 3408 M
202 155 V
-1539 85 R
217 167 V
5248 2693 M
122 93 V
-595 990 R
185 142 V
3422 3885 M
129 99 V
6689 732 M
122 93 V
1736 1496 M
196 150 V
3180 3188 M
161 123 V
1738 3764 M
139 106 V
2522 1687 M
222 170 V
6647 725 M
219 168 V
6525 2213 M
235 180 V
1932 3864 M
178 136 V
6046 3619 M
134 103 V
5591 562 M
226 173 V
2856 732 M
190 145 V
4721 3213 M
184 141 V
4071 388 M
177 137 V
5782 4484 M
166 127 V
3553 2702 M
171 132 V
1691 2266 M
206 158 V
3481 1334 M
219 168 V
-446 195 R
121 93 V
1701 734 R
152 117 V
4572 4177 M
171 132 V
1520 1408 M
185 142 V
3490 339 M
213 164 V
5311 737 M
234 180 V
3764 4302 M
213 163 V
4673 3381 M
188 144 V
6629 1348 M
158 122 V
-820 -11 R
175 134 V
2753 3199 M
192 147 V
3361 836 M
146 112 V
5884 598 M
231 178 V
2139 897 M
164 127 V
stroke 2303 1024 M
5499 2414 M
122 94 V
3409 1373 M
198 152 V
4194 651 M
158 121 V
5348 620 M
215 164 V
2444 2837 M
120 92 V
2557 888 M
156 119 V
4687 3537 M
228 174 V
3356 3111 M
193 149 V
-46 785 R
141 108 V
4570 1477 M
224 172 V
2298 1025 M
238 182 V
-164 311 R
192 147 V
1854 1236 M
235 180 V
4071 437 M
236 181 V
6181 3677 M
190 147 V
6125 1059 M
173 133 V
5242 1811 M
204 156 V
1103 2201 M
128 98 V
6578 1397 M
152 116 V
3577 1929 M
181 139 V
1086 4388 M
127 98 V
71 -1302 R
193 148 V
5161 1295 M
132 102 V
6234 285 M
148 114 V
4464 833 M
193 148 V
-635 332 R
212 162 V
3742 4202 M
231 178 V
29 -2431 R
166 128 V
1997 540 M
208 159 V
4317 2733 M
121 93 V
1636 2519 M
195 150 V
4981 1667 M
197 152 V
3729 3430 M
163 125 V
6207 1334 M
175 135 V
5499 876 M
202 154 V
207 787 R
164 125 V
3197 2308 M
177 136 V
1859 3220 M
128 99 V
4673 3104 M
188 145 V
2593 4488 M
127 97 V
2384 3536 M
157 121 V
1097 2379 M
131 101 V
2489 804 M
148 113 V
5578 2871 M
229 176 V
5680 1310 M
187 144 V
4899 4195 M
225 172 V
4445 1366 M
136 104 V
79 2504 R
145 112 V
2023 3831 M
128 98 V
-416 729 R
172 132 V
5018 816 M
228 175 V
1158 451 M
139 107 V
stroke 1297 558 M
6114 3456 M
129 99 V
974 2882 M
199 153 V
6220 1027 M
190 146 V
1631 1902 M
228 175 V
6473 691 M
234 180 V
1851 4474 M
150 115 V
4956 3659 M
130 100 V
2902 2502 M
235 180 V
17 1363 R
187 143 V
2430 1457 M
149 114 V
6451 2667 M
162 124 V
1983 3089 M
165 127 V
2655 1937 M
205 158 V
5233 292 M
235 180 V
6530 2140 M
170 131 V
3739 2228 M
228 174 V
6546 1578 M
173 133 V
2544 2092 M
174 134 V
4719 810 M
139 107 V
4126 669 M
204 157 V
2470 1234 M
216 166 V
1979 556 M
126 96 V
5232 3826 M
153 118 V
1395 3009 M
223 171 V
5250 867 M
236 181 V
3799 2208 M
166 127 V
1009 624 M
155 119 V
2768 3382 M
199 153 V
2760 1972 M
136 105 V
1186 471 R
125 95 V
-860 978 R
143 110 V
940 -989 R
235 180 V
610 525 R
204 156 V
2817 2903 M
154 118 V
1490 800 R
192 147 V
3684 3379 M
221 170 V
2018 1024 M
165 127 V
2301 586 R
233 179 V
4418 1790 M
226 174 V
3919 3536 M
135 104 V
1243 531 M
121 93 V
779 3911 R
198 152 V
1897 3887 M
208 159 V
2378 2065 M
199 152 V
5704 1094 M
186 142 V
642 2696 R
191 147 V
2239 926 M
180 138 V
5944 3728 M
204 156 V
78 -2096 R
161 124 V
2681 1152 M
205 157 V
6578 360 M
148 113 V
6471 1827 M
183 141 V
stroke 6654 1968 M
1585 3678 M
165 127 V
1543 -42 R
185 142 V
1393 2096 M
223 171 V
5908 1220 M
178 137 V
2125 3149 M
160 123 V
3871 739 R
136 104 V
4195 778 M
175 135 V
1334 2813 M
173 134 V
1700 924 R
128 98 V
2382 3688 M
166 128 V
3239 2011 M
231 177 V
1629 1313 M
199 152 V
1078 2674 M
178 136 V
2484 1609 M
183 140 V
1131 618 R
139 107 V
1125 3505 M
223 172 V
3573 811 R
153 118 V
3509 805 M
153 117 V
1437 3669 M
193 148 V
2476 97 R
191 146 V
2733 2197 M
225 172 V
-674 464 R
219 168 V
6434 456 M
224 172 V
4391 1806 M
128 99 V
2668 787 M
146 112 V
3819 2065 M
228 174 V
591 1292 R
127 97 V
418 854 R
180 139 V
-358 -76 R
123 95 V
-628 -15 R
188 144 V
3837 4571 M
132 101 V
3012 1499 M
215 165 V
2691 794 M
185 142 V
2238 2429 CircleF
2427 2574 CircleF
1202 1132 CircleF
1382 1270 CircleF
3196 4116 CircleF
3422 4289 CircleF
5936 1407 CircleF
6110 1541 CircleF
3773 3239 CircleF
3964 3386 CircleF
3614 4444 CircleF
3851 4626 CircleF
3310 4545 CircleF
3486 4680 CircleF
4840 3549 CircleF
4972 3651 CircleF
6425 3131 CircleF
6578 3248 CircleF
4004 4118 CircleF
4211 4277 CircleF
2377 1611 CircleF
2602 1784 CircleF
4908 2093 CircleF
5091 2234 CircleF
1199 4265 CircleF
1357 4387 CircleF
3680 4359 CircleF
3822 4468 CircleF
1742 4550 CircleF
1903 4674 CircleF
5818 976 CircleF
6030 1138 CircleF
5451 1339 CircleF
5686 1519 CircleF
5790 2155 CircleF
5969 2293 CircleF
1409 2651 CircleF
1579 2781 CircleF
3334 742 CircleF
3522 887 CircleF
5510 749 CircleF
5712 904 CircleF
3761 3356 CircleF
3973 3519 CircleF
2942 1136 CircleF
3104 1260 CircleF
1976 2878 CircleF
2138 3002 CircleF
5547 639 CircleF
5756 799 CircleF
1210 644 CircleF
1447 827 CircleF
3909 460 CircleF
4053 570 CircleF
6144 600 CircleF
6366 770 CircleF
2489 4667 CircleF
2634 4778 CircleF
1471 2419 CircleF
1685 2583 CircleF
5628 882 CircleF
5755 980 CircleF
3974 3026 CircleF
4136 3151 CircleF
2118 3379 CircleF
2255 3484 CircleF
2341 1163 CircleF
2533 1310 CircleF
3065 2888 CircleF
3216 3004 CircleF
5146 1001 CircleF
5343 1152 CircleF
5170 813 CircleF
5394 985 CircleF
6233 3166 CircleF
6384 3281 CircleF
5794 3951 CircleF
6001 4110 CircleF
2182 2576 CircleF
2345 2701 CircleF
3790 2148 CircleF
3917 2245 CircleF
2809 2785 CircleF
3021 2947 CircleF
4560 2981 CircleF
4718 3101 CircleF
6314 3036 CircleF
6443 3135 CircleF
1678 3530 CircleF
1832 3649 CircleF
2225 2512 CircleF
2373 2625 CircleF
3248 3865 CircleF
3372 3960 CircleF
2280 4581 CircleF
2487 4740 CircleF
1189 4153 CircleF
1416 4327 CircleF
5814 3315 CircleF
5973 3437 CircleF
4956 406 CircleF
5150 554 CircleF
3513 3592 CircleF
3652 3699 CircleF
1663 410 CircleF
1800 516 CircleF
1722 2243 CircleF
1934 2406 CircleF
2562 1906 CircleF
2778 2073 CircleF
1866 643 CircleF
2059 791 CircleF
2519 556 CircleF
2729 717 CircleF
2249 3724 CircleF
2486 3906 CircleF
4255 2821 CircleF
4404 2935 CircleF
2012 3324 CircleF
2202 3470 CircleF
6626 398 CircleF
6839 562 CircleF
1371 4623 CircleF
1591 4791 CircleF
4156 1798 CircleF
4315 1920 CircleF
5694 3070 CircleF
5840 3182 CircleF
6489 2005 CircleF
6617 2103 CircleF
5606 4618 CircleF
5839 4796 CircleF
1706 1404 CircleF
1931 1576 CircleF
2032 1420 CircleF
2167 1524 CircleF
1007 2456 CircleF
1189 2595 CircleF
4139 2816 CircleF
4266 2914 CircleF
1685 1780 CircleF
1833 1893 CircleF
2702 1991 CircleF
2877 2125 CircleF
6004 410 CircleF
6126 504 CircleF
6412 1009 CircleF
6633 1179 CircleF
4322 4230 CircleF
4461 4337 CircleF
4393 1198 CircleF
4537 1309 CircleF
2573 2691 CircleF
2805 2869 CircleF
1224 1431 CircleF
1437 1595 CircleF
4990 2696 CircleF
5197 2855 CircleF
3281 1920 CircleF
3517 2102 CircleF
1248 1720 CircleF
1470 1890 CircleF
1044 4575 CircleF
1217 4707 CircleF
2312 2894 CircleF
2453 3003 CircleF
6323 2295 CircleF
6497 2429 CircleF
2650 3678 CircleF
2858 3838 CircleF
5101 3050 CircleF
5336 3231 CircleF
5729 1688 CircleF
5918 1833 CircleF
2214 1059 CircleF
2370 1179 CircleF
3737 383 CircleF
3970 561 CircleF
1739 371 CircleF
1928 516 CircleF
3815 3616 CircleF
4033 3783 CircleF
6545 1912 CircleF
6781 2093 CircleF
1658 1646 CircleF
1792 1749 CircleF
5701 3482 CircleF
5909 3642 CircleF
4817 3666 CircleF
5031 3831 CircleF
3195 2866 CircleF
3369 3000 CircleF
1670 2983 CircleF
1826 3103 CircleF
4826 1287 CircleF
5046 1456 CircleF
5286 4357 CircleF
5486 4510 CircleF
4964 518 CircleF
5107 627 CircleF
6169 2342 CircleF
6347 2479 CircleF
5631 2683 CircleF
5796 2810 CircleF
4176 3641 CircleF
4304 3740 CircleF
1755 4500 CircleF
1905 4615 CircleF
4587 1189 CircleF
4745 1310 CircleF
1855 473 CircleF
2093 656 CircleF
2404 4542 CircleF
2630 4716 CircleF
4376 4030 CircleF
4576 4183 CircleF
6202 2339 CircleF
6322 2431 CircleF
1950 288 CircleF
2137 432 CircleF
1012 2493 CircleF
1165 2610 CircleF
4725 2869 CircleF
4902 3005 CircleF
3254 4330 CircleF
3486 4509 CircleF
5835 2779 CircleF
5962 2876 CircleF
6004 434 CircleF
6192 579 CircleF
2043 448 CircleF
2184 557 CircleF
1473 3599 CircleF
1693 3768 CircleF
5276 3664 CircleF
5414 3771 CircleF
1703 4450 CircleF
1845 4559 CircleF
3477 2477 CircleF
3611 2579 CircleF
5881 2007 CircleF
6053 2139 CircleF
1029 1036 CircleF
1240 1198 CircleF
4958 292 CircleF
5196 475 CircleF
5366 1733 CircleF
5490 1828 CircleF
4504 2648 CircleF
4687 2789 CircleF
1213 1459 CircleF
1344 1559 CircleF
5361 3656 CircleF
5533 3788 CircleF
1517 3475 CircleF
1695 3612 CircleF
4876 2041 CircleF
5088 2204 CircleF
1782 3503 CircleF
1939 3624 CircleF
2522 599 CircleF
2681 720 CircleF
4305 3500 CircleF
4508 3655 CircleF
5709 2187 CircleF
5907 2340 CircleF
4200 376 CircleF
4432 555 CircleF
1839 4666 CircleF
1991 4783 CircleF
2181 4279 CircleF
2344 4403 CircleF
5117 1198 CircleF
5266 1313 CircleF
3907 3599 CircleF
4064 3719 CircleF
2778 2079 CircleF
2961 2219 CircleF
6560 3812 CircleF
6709 3926 CircleF
1791 2112 CircleF
2005 2276 CircleF
4393 2491 CircleF
4521 2590 CircleF
6161 1507 CircleF
6374 1670 CircleF
5403 1090 CircleF
5609 1248 CircleF
6592 2215 CircleF
6828 2396 CircleF
5494 2581 CircleF
5687 2729 CircleF
3798 1552 CircleF
4001 1708 CircleF
2515 4374 CircleF
2665 4489 CircleF
6070 2303 CircleF
6259 2448 CircleF
3154 4338 CircleF
3321 4466 CircleF
1281 4671 CircleF
1485 4827 CircleF
3183 3018 CircleF
3322 3124 CircleF
4689 3088 CircleF
4884 3238 CircleF
3855 2286 CircleF
4093 2468 CircleF
2449 2260 CircleF
2608 2382 CircleF
2532 4410 CircleF
2705 4542 CircleF
1061 1756 CircleF
1204 1866 CircleF
5931 1727 CircleF
6096 1854 CircleF
3337 2949 CircleF
3503 3076 CircleF
5866 1919 CircleF
6091 2092 CircleF
6358 3497 CircleF
6583 3670 CircleF
4830 4200 CircleF
5002 4332 CircleF
1808 1296 CircleF
2009 1450 CircleF
5083 865 CircleF
5203 957 CircleF
6172 1221 CircleF
6296 1316 CircleF
5081 2624 CircleF
5208 2721 CircleF
4805 439 CircleF
4976 570 CircleF
1209 3466 CircleF
1420 3628 CircleF
3497 2581 CircleF
3674 2717 CircleF
1424 2731 CircleF
1544 2824 CircleF
2386 4119 CircleF
2592 4277 CircleF
5668 2315 CircleF
5892 2488 CircleF
3764 1038 CircleF
3940 1172 CircleF
3425 1177 CircleF
3619 1325 CircleF
1939 2436 CircleF
2133 2584 CircleF
3671 3492 CircleF
3821 3608 CircleF
5832 1063 CircleF
6007 1197 CircleF
2973 2525 CircleF
3187 2689 CircleF
996 282 CircleF
1158 407 CircleF
3029 2637 CircleF
3199 2767 CircleF
1980 3981 CircleF
2165 4122 CircleF
3893 3533 CircleF
4077 3675 CircleF
5693 3620 CircleF
5886 3768 CircleF
3867 1342 CircleF
4046 1479 CircleF
2416 3598 CircleF
2592 3733 CircleF
2231 4347 CircleF
2369 4453 CircleF
2658 2903 CircleF
2794 3008 CircleF
2963 3555 CircleF
3145 3695 CircleF
1970 2719 CircleF
2161 2865 CircleF
2864 1220 CircleF
3064 1373 CircleF
5240 3134 CircleF
5444 3290 CircleF
3131 1165 CircleF
3298 1294 CircleF
3830 452 CircleF
4053 623 CircleF
3961 559 CircleF
4110 674 CircleF
2525 4090 CircleF
2745 4259 CircleF
4393 2555 CircleF
4618 2728 CircleF
5285 4451 CircleF
5437 4568 CircleF
6544 404 CircleF
6771 579 CircleF
6484 4168 CircleF
6713 4344 CircleF
4591 2413 CircleF
4762 2545 CircleF
2019 787 CircleF
2216 938 CircleF
3726 3427 CircleF
3922 3578 CircleF
4227 1344 CircleF
4446 1512 CircleF
6518 4444 CircleF
6650 4546 CircleF
5686 856 CircleF
5882 1006 CircleF
5467 604 CircleF
5608 712 CircleF
1751 1411 CircleF
1923 1543 CircleF
3398 1628 CircleF
3557 1750 CircleF
5061 4090 CircleF
5224 4215 CircleF
1314 4547 CircleF
1450 4652 CircleF
5099 2541 CircleF
5242 2650 CircleF
1161 3590 CircleF
1282 3682 CircleF
3046 2477 CircleF
3204 2598 CircleF
2869 2815 CircleF
3020 2930 CircleF
1254 3820 CircleF
1408 3939 CircleF
3691 4154 CircleF
3905 4318 CircleF
2238 1008 CircleF
2361 1103 CircleF
4400 2200 CircleF
4578 2336 CircleF
3719 1841 CircleF
3879 1964 CircleF
5807 389 CircleF
6041 569 CircleF
4310 2056 CircleF
4486 2192 CircleF
3821 2388 CircleF
4009 2532 CircleF
4362 4452 CircleF
4574 4615 CircleF
6525 1780 CircleF
6661 1885 CircleF
2791 4606 CircleF
2997 4764 CircleF
1673 4421 CircleF
1835 4545 CircleF
3616 3256 CircleF
3815 3408 CircleF
1599 4267 CircleF
1725 4363 CircleF
2856 1636 CircleF
3033 1771 CircleF
2382 4348 CircleF
2555 4480 CircleF
4494 2274 CircleF
4698 2430 CircleF
3072 737 CircleF
3309 919 CircleF
4418 1817 CircleF
4552 1920 CircleF
4760 309 CircleF
4977 476 CircleF
1583 2832 CircleF
1810 3006 CircleF
2565 3393 CircleF
2736 3524 CircleF
3036 2674 CircleF
3183 2787 CircleF
5744 2921 CircleF
5908 3047 CircleF
2036 4382 CircleF
2257 4552 CircleF
6252 2225 CircleF
6481 2401 CircleF
3887 1762 CircleF
4084 1914 CircleF
4949 3320 CircleF
5123 3453 CircleF
3925 1329 CircleF
4074 1443 CircleF
5665 2018 CircleF
5816 2134 CircleF
4088 2266 CircleF
4223 2370 CircleF
1970 3811 CircleF
2159 3956 CircleF
1836 3765 CircleF
1981 3876 CircleF
1841 4573 CircleF
2016 4707 CircleF
5605 1766 CircleF
5768 1891 CircleF
1483 1118 CircleF
1613 1218 CircleF
1728 2200 CircleF
1918 2346 CircleF
1783 671 CircleF
1944 795 CircleF
1741 3757 CircleF
1870 3856 CircleF
1252 3221 CircleF
1473 3391 CircleF
2845 2603 CircleF
3006 2726 CircleF
6581 4404 CircleF
6771 4550 CircleF
6017 775 CircleF
6229 938 CircleF
2777 2362 CircleF
3013 2542 CircleF
4147 1505 CircleF
4337 1651 CircleF
5436 2044 CircleF
5603 2172 CircleF
3400 2752 CircleF
3598 2904 CircleF
3603 1645 CircleF
3808 1802 CircleF
4250 888 CircleF
4445 1038 CircleF
6194 2096 CircleF
6340 2208 CircleF
5604 982 CircleF
5740 1086 CircleF
2864 1910 CircleF
3001 2015 CircleF
4834 2980 CircleF
5070 3161 CircleF
3304 3386 CircleF
3486 3526 CircleF
2446 491 CircleF
2672 665 CircleF
4419 1042 CircleF
4556 1146 CircleF
2110 3605 CircleF
2296 3748 CircleF
4759 3866 CircleF
4950 4012 CircleF
6127 1729 CircleF
6302 1863 CircleF
5543 1894 CircleF
5702 2016 CircleF
3575 3640 CircleF
3733 3761 CircleF
4174 3519 CircleF
4330 3638 CircleF
4728 379 CircleF
4949 549 CircleF
3447 3408 CircleF
3649 3563 CircleF
2110 3648 CircleF
2327 3815 CircleF
5248 2693 CircleF
5370 2786 CircleF
4775 3776 CircleF
4960 3918 CircleF
3422 3885 CircleF
3551 3984 CircleF
6689 732 CircleF
6811 825 CircleF
1736 1496 CircleF
1932 1646 CircleF
3180 3188 CircleF
3341 3311 CircleF
1738 3764 CircleF
1877 3870 CircleF
2522 1687 CircleF
2744 1857 CircleF
6647 725 CircleF
6866 893 CircleF
6525 2213 CircleF
6760 2393 CircleF
1932 3864 CircleF
2110 4000 CircleF
6046 3619 CircleF
6180 3722 CircleF
5591 562 CircleF
5817 735 CircleF
2856 732 CircleF
3046 877 CircleF
4721 3213 CircleF
4905 3354 CircleF
4071 388 CircleF
4248 525 CircleF
5782 4484 CircleF
5948 4611 CircleF
3553 2702 CircleF
3724 2834 CircleF
1691 2266 CircleF
1897 2424 CircleF
3481 1334 CircleF
3700 1502 CircleF
3254 1697 CircleF
3375 1790 CircleF
5076 2524 CircleF
5228 2641 CircleF
4572 4177 CircleF
4743 4309 CircleF
1520 1408 CircleF
1705 1550 CircleF
3490 339 CircleF
3703 503 CircleF
5311 737 CircleF
5545 917 CircleF
3764 4302 CircleF
3977 4465 CircleF
4673 3381 CircleF
4861 3525 CircleF
6629 1348 CircleF
6787 1470 CircleF
5967 1459 CircleF
6142 1593 CircleF
2753 3199 CircleF
2945 3346 CircleF
3361 836 CircleF
3507 948 CircleF
5884 598 CircleF
6115 776 CircleF
2139 897 CircleF
2303 1024 CircleF
5499 2414 CircleF
5621 2508 CircleF
3409 1373 CircleF
3607 1525 CircleF
4194 651 CircleF
4352 772 CircleF
5348 620 CircleF
5563 784 CircleF
2444 2837 CircleF
2564 2929 CircleF
2557 888 CircleF
2713 1007 CircleF
4687 3537 CircleF
4915 3711 CircleF
3356 3111 CircleF
3549 3260 CircleF
3503 4045 CircleF
3644 4153 CircleF
4570 1477 CircleF
4794 1649 CircleF
2298 1025 CircleF
2536 1207 CircleF
2372 1518 CircleF
2564 1665 CircleF
1854 1236 CircleF
2089 1416 CircleF
4071 437 CircleF
4307 618 CircleF
6181 3677 CircleF
6371 3824 CircleF
6125 1059 CircleF
6298 1192 CircleF
5242 1811 CircleF
5446 1967 CircleF
1103 2201 CircleF
1231 2299 CircleF
6578 1397 CircleF
6730 1513 CircleF
3577 1929 CircleF
3758 2068 CircleF
1086 4388 CircleF
1213 4486 CircleF
1284 3184 CircleF
1477 3332 CircleF
5161 1295 CircleF
5293 1397 CircleF
6234 285 CircleF
6382 399 CircleF
4464 833 CircleF
4657 981 CircleF
4022 1313 CircleF
4234 1475 CircleF
3742 4202 CircleF
3973 4380 CircleF
4002 1949 CircleF
4168 2077 CircleF
1997 540 CircleF
2205 699 CircleF
4317 2733 CircleF
4438 2826 CircleF
1636 2519 CircleF
1831 2669 CircleF
4981 1667 CircleF
5178 1819 CircleF
3729 3430 CircleF
3892 3555 CircleF
6207 1334 CircleF
6382 1469 CircleF
5499 876 CircleF
5701 1030 CircleF
5908 1817 CircleF
6072 1942 CircleF
3197 2308 CircleF
3374 2444 CircleF
1859 3220 CircleF
1987 3319 CircleF
4673 3104 CircleF
4861 3249 CircleF
2593 4488 CircleF
2720 4585 CircleF
2384 3536 CircleF
2541 3657 CircleF
1097 2379 CircleF
1228 2480 CircleF
2489 804 CircleF
2637 917 CircleF
5578 2871 CircleF
5807 3047 CircleF
5680 1310 CircleF
5867 1454 CircleF
4899 4195 CircleF
5124 4367 CircleF
4445 1366 CircleF
4581 1470 CircleF
4660 3974 CircleF
4805 4086 CircleF
2023 3831 CircleF
2151 3929 CircleF
1735 4658 CircleF
1907 4790 CircleF
5018 816 CircleF
5246 991 CircleF
1158 451 CircleF
1297 558 CircleF
6114 3456 CircleF
6243 3555 CircleF
974 2882 CircleF
1173 3035 CircleF
6220 1027 CircleF
6410 1173 CircleF
1631 1902 CircleF
1859 2077 CircleF
6473 691 CircleF
6707 871 CircleF
1851 4474 CircleF
2001 4589 CircleF
4956 3659 CircleF
5086 3759 CircleF
2902 2502 CircleF
3137 2682 CircleF
3154 4045 CircleF
3341 4188 CircleF
2430 1457 CircleF
2579 1571 CircleF
6451 2667 CircleF
6613 2791 CircleF
1983 3089 CircleF
2148 3216 CircleF
2655 1937 CircleF
2860 2095 CircleF
5233 292 CircleF
5468 472 CircleF
6530 2140 CircleF
6700 2271 CircleF
3739 2228 CircleF
3967 2402 CircleF
6546 1578 CircleF
6719 1711 CircleF
2544 2092 CircleF
2718 2226 CircleF
4719 810 CircleF
4858 917 CircleF
4126 669 CircleF
4330 826 CircleF
2470 1234 CircleF
2686 1400 CircleF
1979 556 CircleF
2105 652 CircleF
5232 3826 CircleF
5385 3944 CircleF
1395 3009 CircleF
1618 3180 CircleF
5250 867 CircleF
5486 1048 CircleF
3799 2208 CircleF
3965 2335 CircleF
1009 624 CircleF
1164 743 CircleF
2768 3382 CircleF
2967 3535 CircleF
2760 1972 CircleF
2896 2077 CircleF
4082 2548 CircleF
4207 2643 CircleF
3347 3621 CircleF
3490 3731 CircleF
4430 2742 CircleF
4665 2922 CircleF
5275 3447 CircleF
5479 3603 CircleF
2817 2903 CircleF
2971 3021 CircleF
4461 3821 CircleF
4653 3968 CircleF
3684 3379 CircleF
3905 3549 CircleF
2018 1024 CircleF
2183 1151 CircleF
4484 1737 CircleF
4717 1916 CircleF
4418 1790 CircleF
4644 1964 CircleF
3919 3536 CircleF
4054 3640 CircleF
1243 531 CircleF
1364 624 CircleF
2143 4535 CircleF
2341 4687 CircleF
1897 3887 CircleF
2105 4046 CircleF
2378 2065 CircleF
2577 2217 CircleF
5704 1094 CircleF
5890 1236 CircleF
6532 3932 CircleF
6723 4079 CircleF
2239 926 CircleF
2419 1064 CircleF
5944 3728 CircleF
6148 3884 CircleF
6226 1788 CircleF
6387 1912 CircleF
2681 1152 CircleF
2886 1309 CircleF
6578 360 CircleF
6726 473 CircleF
6471 1827 CircleF
6654 1968 CircleF
1585 3678 CircleF
1750 3805 CircleF
3293 3763 CircleF
3478 3905 CircleF
1393 2096 CircleF
1616 2267 CircleF
5908 1220 CircleF
6086 1357 CircleF
2125 3149 CircleF
2285 3272 CircleF
6156 4011 CircleF
6292 4115 CircleF
4195 778 CircleF
4370 913 CircleF
1334 2813 CircleF
1507 2947 CircleF
3207 3871 CircleF
3335 3969 CircleF
2382 3688 CircleF
2548 3816 CircleF
3239 2011 CircleF
3470 2188 CircleF
1629 1313 CircleF
1828 1465 CircleF
1078 2674 CircleF
1256 2810 CircleF
2484 1609 CircleF
2667 1749 CircleF
3798 2367 CircleF
3937 2474 CircleF
1125 3505 CircleF
1348 3677 CircleF
4921 4488 CircleF
5074 4606 CircleF
3509 805 CircleF
3662 922 CircleF
1437 3669 CircleF
1630 3817 CircleF
4106 3914 CircleF
4297 4060 CircleF
2733 2197 CircleF
2958 2369 CircleF
2284 2833 CircleF
2503 3001 CircleF
6434 456 CircleF
6658 628 CircleF
4391 1806 CircleF
4519 1905 CircleF
2668 787 CircleF
2814 899 CircleF
3819 2065 CircleF
4047 2239 CircleF
4638 3531 CircleF
4765 3628 CircleF
5183 4482 CircleF
5363 4621 CircleF
5005 4545 CircleF
5128 4640 CircleF
4500 4625 CircleF
4688 4769 CircleF
3837 4571 CircleF
3969 4672 CircleF
3012 1499 CircleF
3227 1664 CircleF
2691 794 CircleF
2876 936 CircleF
% End plot #2
1.000 UP
1.000 UL
LT0
0.50 0.50 0.50 C stroke
grestore
end
showpage
%%Trailer
%%DocumentFonts: Helvetica
%%Pages: 1
